﻿[
  {
    "label": "001",
    "attribute": "0x00000C0100000000",
    "text": "{{anim id=\"Smiling\" target=\"actor\" targetSpec=\"\"}}嗨～{{delay8}}好巧啊～{{delay20}}\n{{anim id=\"Nodding\" target=\"actor\" targetSpec=\"\"}}我也是来{{selection value=\"SelectedVillager\"}}{{string value=\"13\"}}家\n{{anim id=\"FaintSmile\" target=\"actor\" targetSpec=\"\"}}做客的呢～{{string value=\"6\"}}。{{setNpcTalkChoices chatOption=\"0\" cancelOption=\"1\"}}"
  },
  {
    "label": "002",
    "attribute": "0x00000C0100000000",
    "text": "{{anim id=\"Eh\" target=\"actor\" targetSpec=\"\"}}咦～？{{delay8}}{{string value=\"4\"}}你{{delay20}}\n{{anim id=\"FaintSmile\" target=\"actor\" targetSpec=\"\"}}也和{{selection value=\"SelectedVillager\"}}{{string value=\"13\"}}\n约好了一起玩吗～？{{string value=\"6\"}}。{{setNpcTalkChoices chatOption=\"0\" cancelOption=\"1\"}}"
  },
  {
    "label": "003",
    "attribute": "0x00000C0100000000",
    "text": "{{anim id=\"Greeting\" target=\"actor\" targetSpec=\"\"}}哈罗～！{{delay20}}\n你也是来找{{selection value=\"SelectedVillager\"}}{{string value=\"13\"}}{{delay8}}\n{{anim id=\"FaintSmile\" target=\"actor\" targetSpec=\"\"}}一起玩的吗～？{{string value=\"6\"}}。{{setNpcTalkChoices chatOption=\"0\" cancelOption=\"1\"}}"
  }
]