﻿[
  {
    "label": "002",
    "attribute": "0x00000000",
    "text": "{{anim id=\"Nodding\" target=\"actor\" targetSpec=\"\"}}全部交给您了，{{delay20}}\n{{anim id=\"Greeting\" target=\"actor\" targetSpec=\"\"}}麻烦您了！"
  },
  {
    "label": "003",
    "attribute": "0x01000000",
    "text": "{{anim id=\"Shocked\" target=\"actor\" targetSpec=\"\"}}哎哟，{{delay20}}原来这也可以自己选啊！{{delay frames=\"40\"}}\n{{anim id=\"Thinking\" target=\"actor\" targetSpec=\"\"}}唔{{string value=\"...\"}}{{delay20}}\n选哪一个比较好呢{{string value=\"...\"}}"
  },
  {
    "label": "003_01",
    "attribute": "0x00000000",
    "text": "这次真的非常感谢您{{delay8}}\n{{anim id=\"FaintSmile\" target=\"actor\" targetSpec=\"\"}}为我的别墅{{delay20}}提供了设计方案！"
  },
  {
    "label": "003_03",
    "attribute": "0x00000000",
    "text": "{{anim id=\"Nodding\" target=\"actor\" targetSpec=\"\"}}完全没问题！{{delay frames=\"40\"}}\n{{anim id=\"Smiling\" target=\"actor\" targetSpec=\"\"}}就选这里了！"
  },
  {
    "label": "003_04",
    "attribute": "0x00000000",
    "text": "{{anim id=\"Smiling\" target=\"actor\" targetSpec=\"\"}}这次又要{{delay8}}\n麻烦{{color id=\"3\"}}巧美{{color id=\"65535\"}}了！"
  },
  {
    "label": "003_a",
    "attribute": "0x00000000",
    "text": "1楼建筑"
  },
  {
    "label": "003_b",
    "attribute": "0x00000000",
    "text": "2楼建筑"
  },
  {
    "label": "004",
    "attribute": "0x00000000",
    "text": "{{anim id=\"BigSmile\" target=\"actor\" targetSpec=\"\"}}那就听你的！{{delay frames=\"50\"}}\n{{anim id=\"Smiling\" target=\"actor\" targetSpec=\"\"}}采用1楼建筑的方案吧！"
  },
  {
    "label": "005",
    "attribute": "0x00000000",
    "text": "{{anim id=\"BigSmile\" target=\"actor\" targetSpec=\"\"}}那就听你的！{{delay frames=\"50\"}}\n{{anim id=\"Smiling\" target=\"actor\" targetSpec=\"\"}}采用2楼建筑的方案吧！"
  }
]