﻿[
  {
    "label": "001",
    "attribute": "0x00010000",
    "text": "{{color id=\"1\"}}Squalett{{gender2 m=\"o\" f=\"a\"}}, secondo te{{string value=\"...\"}} un albero\nche non crede nel matrimonio, non\nvuole mettere radici?{{color id=\"65535\"}}"
  },
  {
    "label": "002",
    "attribute": "0x00010000",
    "text": "{{color id=\"1\"}}Se il brunch è tra la colazione e il\npranzo, come si dice quando mangi\n{{randomFood}} alle 3 di notte?{{color id=\"65535\"}}"
  },
  {
    "label": "003",
    "attribute": "0x00010000",
    "text": "{{color id=\"1\"}}Si dice spesso \"salvarsi in corner\"\no \"palla al centro\", ma io di tennis\nnon ci capisco granché.{{color id=\"65535\"}}"
  },
  {
    "label": "004",
    "attribute": "0x00010000",
    "text": "{{color id=\"1\"}}Hai mai sentito di qualcuno che\nmette il carro davanti ai buoi? Beh,\nio c'ho provato e non ha senso.{{color id=\"65535\"}}"
  },
  {
    "label": "005",
    "attribute": "0x00010000",
    "text": "{{color id=\"1\"}}E se i pianeti e le stelle fossero solo\ndegli enormi atomi? E noi tutti parte\ndi {{gender8 m=\"un gigantesco\" f=\"una gigantesca\" n=\"\"}} {{randomObj}}?{{color id=\"65535\"}}"
  },
  {
    "label": "006",
    "attribute": "0x00010000",
    "text": "{{color id=\"1\"}}Se vado in un posto camminando in\navanti, ci metto lo stesso tempo se\ncammino all'indietro, squalett{{gender2 m=\"o\" f=\"a\"}}?{{color id=\"65535\"}}"
  },
  {
    "label": "007",
    "attribute": "0x00010000",
    "text": "{{color id=\"1\"}}La vita è come una conchiglia, se\naccosti l'orecchio, senti il rumore di\ntutte le parole che hai pronunciato.{{color id=\"65535\"}}"
  },
  {
    "label": "008",
    "attribute": "0x00010000",
    "text": "{{color id=\"1\"}}La vita è fatta a scale, c'è chi\nscende e chi sale. Ma io vivo al\npiano terra, squalett{{gender2 m=\"o\" f=\"a\"}}!{{color id=\"65535\"}}"
  },
  {
    "label": "009",
    "attribute": "0x00010000",
    "text": "{{i10_12}}{{color id=\"1\"}}Ma quando una pecora non riesce\na dormire{{string value=\"...\"}} conta le pecore?{{color id=\"65535\"}}"
  },
  {
    "label": "010",
    "attribute": "0x00010000",
    "text": "{{color id=\"1\"}}Squalett{{gender2 m=\"o\" f=\"a\"}}, pensi che quando\nun fuoristrada infrange i limiti\ndi velocità diventi un fuorilegge?{{color id=\"65535\"}}"
  },
  {
    "label": "011",
    "attribute": "0x00010000",
    "text": "{{color id=\"1\"}}Se i dinosauri sono diventati petrolio\ne il petrolio serve alle auto, perché i\ndinosauri non sapevano guidare?{{color id=\"65535\"}}"
  },
  {
    "label": "012",
    "attribute": "0x00010000",
    "text": "{{i10_12}}{{color id=\"1\"}}L'amaca avrà tante amiche,\nsqualett{{gender2 m=\"o\" f=\"a\"}}?{{color id=\"65535\"}}"
  },
  {
    "label": "013",
    "attribute": "0x00010000",
    "text": "{{color id=\"1\"}}Affronta la vita un passo alla volta!{{delay20}}\nIo, infatti, {{delay8}}non esco mai a fare due\npassi{{string value=\"...\"}}{{color id=\"65535\"}}"
  },
  {
    "label": "014",
    "attribute": "0x00010000",
    "text": "{{i10_12}}{{color id=\"1\"}}Ti è mai successo di andare a pesca\ne pescare una pesca, squalett{{gender2 m=\"o\" f=\"a\"}}?{{color id=\"65535\"}}"
  },
  {
    "label": "015",
    "attribute": "0x00010000",
    "text": "{{color id=\"1\"}}L'abito non fa il monaco, squalett{{gender2 m=\"o\" f=\"a\"}}.\nMi chiedo se esistano dei monaci\nstilisti{{color id=\"65535\"}}{{string value=\"...\"}}"
  },
  {
    "label": "016",
    "attribute": "0x00010000",
    "text": "{{color id=\"1\"}}Sapevi che la civetta è simbolo di\nsaggezza? Mmmh. A me sembrano\nsagge anche le lontre{{string value=\"...\"}}{{color id=\"65535\"}}"
  },
  {
    "label": "017",
    "attribute": "0x00010000",
    "text": "{{color id=\"1\"}}Cerchi mai di scoprire delle forme\nnelle nuvole in cielo? Ebbene, loro\nfanno lo stesso con te, squalett{{gender2 m=\"o\" f=\"a\"}}.{{color id=\"65535\"}}"
  },
  {
    "label": "018",
    "attribute": "0x00010000",
    "text": "{{color id=\"1\"}}Se gli uccelli spiegano le ali e\ni professori spiegano le lezioni,\nallora i pesci spiegano le pinne?{{color id=\"65535\"}}"
  },
  {
    "label": "019",
    "attribute": "0x00010000",
    "text": "{{i10_12}}{{color id=\"1\"}}Lo zucchero filato si chiama così\nperché è lavorato al telaio?{{color id=\"65535\"}}"
  },
  {
    "label": "020",
    "attribute": "0x00010000",
    "text": "{{color id=\"1\"}}Ma se stai nuotando in mare e inizia\na piovere, {{delay20}}ha senso correre a riva per\nnon bagnarsi?{{color id=\"65535\"}}"
  },
  {
    "label": "021",
    "attribute": "0x00010000",
    "text": "{{color id=\"1\"}}Hai mai provato a picchiettarti la\ntesta e a strofinarti la pancia nello\nstesso momento?{{delay20}} Non è così facile!{{color id=\"65535\"}}"
  },
  {
    "label": "022",
    "attribute": "0x00010000",
    "text": "{{i10_12}}{{color id=\"1\"}}Ma se cadi addormentat{{gender2 m=\"o\" f=\"a\"}}, {{delay20}}non rischi\ndi farti male, squalett{{gender2 m=\"o\" f=\"a\"}}?{{color id=\"65535\"}}"
  },
  {
    "label": "023",
    "attribute": "0x00010000",
    "text": "{{color id=\"1\"}}L'elettricità statica è il modo in cui\ni tappeti si divertono a prenderti in\ngiro, squalett{{gender2 m=\"o\" f=\"a\"}}.{{color id=\"65535\"}}"
  },
  {
    "label": "024",
    "attribute": "0x00010000",
    "text": "{{color id=\"1\"}}Che stranezza il naso, vero? {{delay8}}Sembra\nun piccolo aspiratore che risucchia\ntutti gli odori{{string value=\"...\"}} Dove finiranno, poi?{{color id=\"65535\"}}"
  },
  {
    "label": "025",
    "attribute": "0x00010000",
    "text": "{{color id=\"1\"}}Perché la gente non ha le branchie,\nsqualett{{gender2 m=\"o\" f=\"a\"}}? {{delay20}}Nuotare sarebbe davvero\nfacilissimo.{{color id=\"65535\"}}"
  },
  {
    "label": "026",
    "attribute": "0x00010000",
    "text": "{{color id=\"1\"}}Dicono che siamo fatti di DNA. Ma\nse siamo fatti di lettere, {{delay20}}sono sicuro\nche le mie siano L e ONTRA.{{color id=\"65535\"}}"
  },
  {
    "label": "027",
    "attribute": "0x00010000",
    "text": "{{color id=\"1\"}}Se i pesci hanno un occhio su ogni\nlato della testa, {{delay20}}come fanno a vedere\ndritto davanti a loro?{{color id=\"65535\"}}"
  },
  {
    "label": "028",
    "attribute": "0x00010000",
    "text": "{{color id=\"1\"}}Non c'è rosa senza spine, dicono{{string value=\"...\"}}\nMa vale per caso anche il contrario,\nsqualett{{gender2 m=\"o\" f=\"a\"}}?{{color id=\"65535\"}}"
  },
  {
    "label": "029",
    "attribute": "0x00010000",
    "text": "{{color id=\"1\"}}Se mangiare il gelato d'inverno\nè normale, {{delay8}}allora perché non una\ncioccolata calda d'estate, squalett{{gender2 m=\"o\" f=\"a\"}}?{{color id=\"65535\"}}"
  },
  {
    "label": "030",
    "attribute": "0x00010000",
    "text": "{{color id=\"1\"}}Hai mai notato che si parla sempre\ndi rock star, ma mai di roll star?{{delay20}} E\nallora perché si dice \"rock'n'roll\"?{{color id=\"65535\"}}"
  },
  {
    "label": "031",
    "attribute": "0x00010000",
    "text": "{{color id=\"1\"}}Dici che l'osso sacro si chiama così\nperché nell'antichità era venerato\ncome una divinità?{{color id=\"65535\"}}"
  },
  {
    "label": "032",
    "attribute": "0x00010000",
    "text": "{{color id=\"1\"}}Non capisco perché la gente dica che\nmette la mano sul fuoco riguardo a\nqualcosa. Amerà le ustioni?{{color id=\"65535\"}}"
  },
  {
    "label": "033",
    "attribute": "0x00010000",
    "text": "{{color id=\"1\"}}I fiori trasformano la terra e la luce\ndel sole in magnifici colori.{{color id=\"65535\"}}"
  },
  {
    "label": "034",
    "attribute": "0x00010000",
    "text": "{{i10_12}}{{color id=\"1\"}}La spazzatura che si rompe si\nchiama \"spezzatura\"?{{color id=\"65535\"}}"
  },
  {
    "label": "035",
    "attribute": "0x00010000",
    "text": "{{color id=\"1\"}}Fare attività fisica è importante,\nsqualett{{gender2 m=\"o\" f=\"a\"}}. Io però non ho mai capito\nnulla di fisica{{color id=\"65535\"}}{{string value=\"...\"}}"
  },
  {
    "label": "036",
    "attribute": "0x00010000",
    "text": "{{color id=\"1\"}}Contrariamente a quanto si pensa,\nle lontre non vivono in nessun posto\nchiamato Lontra.{{color id=\"65535\"}}"
  },
  {
    "label": "037",
    "attribute": "0x00010000",
    "text": "{{color id=\"1\"}}Perché si dice \"un letto di verdure\"?\nNon mi sembra un posto comodo\ndove schiacciare un pisolino.{{color id=\"65535\"}}"
  },
  {
    "label": "038",
    "attribute": "0x00010000",
    "text": "{{color id=\"1\"}}Pensi che se il gatto fa le fusa\nvicino a una lampadina, quella si\nsquaglia, squalett{{gender2 m=\"o\" f=\"a\"}}?{{color id=\"65535\"}}"
  },
  {
    "label": "039",
    "attribute": "0x00010000",
    "text": "{{color id=\"1\"}}Il sole non tramonta mai, in realtà.\nSe ne sta lì a fare le sue cose mentre\ntu gli giri intorno.{{color id=\"65535\"}}"
  },
  {
    "label": "040",
    "attribute": "0x00010000",
    "text": "{{color id=\"1\"}}Alcune persone sono la luce dei tuoi\nocchi, altre una spina nel fianco. Ma\nse non attacchi la spina non c'è luce.{{color id=\"65535\"}}"
  },
  {
    "label": "041",
    "attribute": "0x00010000",
    "text": "{{i10_12}}{{color id=\"1\"}}Se i sogni sono desideri, gli incubi\nsono avversione, squalett{{gender2 m=\"o\" f=\"a\"}}?{{color id=\"65535\"}}"
  },
  {
    "label": "042",
    "attribute": "0x00010000",
    "text": "{{color id=\"1\"}}Conosco un elefante che gestisce un\nnegozio di porcellana con successo.\nMai generalizzare, squalett{{gender2 m=\"o\" f=\"a\"}}!{{color id=\"65535\"}}"
  },
  {
    "label": "043",
    "attribute": "0x00010000",
    "text": "{{color id=\"1\"}}Perché la gente dice che ha salvato\ncapra e cavoli? Non sapevo mica che\nfossero in pericolo!{{color id=\"65535\"}}"
  },
  {
    "label": "044",
    "attribute": "0x00010000",
    "text": "{{color id=\"1\"}}Ti sei mai imbottigliat{{gender2 m=\"o\" f=\"a\"}} nel traffico,\nsqualett{{gender2 m=\"o\" f=\"a\"}}? {{delay20}}Io sì{{string value=\"...\"}} e non sai mai quale\ndeliziosa bevanda ti aspetta!{{color id=\"65535\"}}"
  },
  {
    "label": "045",
    "attribute": "0x00010000",
    "text": "{{color id=\"1\"}}Prima di prendere una decisione\nimportante bisogna dormirci su{{string value=\"...\"}}\nMa se ci dormo di fianco è uguale?{{color id=\"65535\"}}"
  },
  {
    "label": "047",
    "attribute": "0x00010000",
    "text": "{{color id=\"1\"}}I biscotti appena sfornati sono come\ncaldi abbracci per la tua bocca{{string value=\"...\"}} E\nanche lei merita di essere coccolata!{{color id=\"65535\"}}"
  },
  {
    "label": "048",
    "attribute": "0x00010000",
    "text": "{{color id=\"1\"}}{{i10_12}}I laghi sono come piccoli oceani\nsenza il plancton, squalett{{gender2 m=\"o\" f=\"a\"}}!{{color id=\"65535\"}}"
  },
  {
    "label": "049",
    "attribute": "0x00010000",
    "text": "{{color id=\"1\"}}Sono gli oceani a ricoprire la terra,\n{{delay8}}oppure è la terra a ricoprire una\nparte dell'oceano?{{color id=\"65535\"}}"
  },
  {
    "label": "050",
    "attribute": "0x00010000",
    "text": "{{color id=\"1\"}}La vita è come una nuvola: {{delay8}}soffice\ne spensierata, {{delay8}}anche se a volte può\nessere carica di pioggia, squalett{{gender2 m=\"o\" f=\"a\"}}.{{color id=\"65535\"}}"
  },
  {
    "label": "051",
    "attribute": "0x00010000",
    "text": "{{color id=\"1\"}}Cosa dirà una cozza che incontra\nun'altra cozza? {{delay20}}\"È davvero mitilo\nconoscerti\"?{{color id=\"65535\"}}"
  },
  {
    "label": "052",
    "attribute": "0x00010000",
    "text": "{{color id=\"1\"}}Esistono i pescigatto, i pescicani,\ni pesci leone{{string value=\"...\"}}{{delay8}} Perché non esistono\ni pesci lontra, allora?{{color id=\"65535\"}}"
  },
  {
    "label": "053",
    "attribute": "0x00010000",
    "text": "{{color id=\"1\"}}Squalett{{gender2 m=\"o\" f=\"a\"}}, {{delay8}}il tuo compleanno non è\nin realtà l'anniversario di qualcosa\nche ha fatto qualcun altro?{{color id=\"65535\"}}"
  },
  {
    "label": "054",
    "attribute": "0x00010000",
    "text": "{{color id=\"1\"}}Ma i lamponi sono semplicemente\ndei grossi lampi colorati di rosso,\nsqualett{{gender2 m=\"o\" f=\"a\"}}?{{delay20}} Sono deliziosi, però{{string value=\"...\"}}{{color id=\"65535\"}}"
  },
  {
    "label": "055",
    "attribute": "0x00010000",
    "text": "{{color id=\"1\"}}Ti sei mai chiest{{gender2 m=\"o\" f=\"a\"}} come sia lo spazio\nquando accendono le luci, squalett{{gender2 m=\"o\" f=\"a\"}}?\n{{delay20}}Secondo me, non si vede nulla{{string value=\"...\"}}{{color id=\"65535\"}}"
  },
  {
    "label": "056",
    "attribute": "0x00010000",
    "text": "{{color id=\"1\"}}Ma i galli tornano a dormire dopo\naver svegliato tutti? {{delay20}}Il loro dovere\nl'hanno fatto, in fondo{{string value=\"...\"}}{{color id=\"65535\"}}"
  },
  {
    "label": "057",
    "attribute": "0x00010000",
    "text": "{{color id=\"1\"}}Dicono che il mattino abbia l'oro\nin bocca{{string value=\"...\"}} Io mi accontenterei di\ntrovare tante cozze succose.{{color id=\"65535\"}}"
  },
  {
    "label": "058",
    "attribute": "0x00010000",
    "text": "{{color id=\"1\"}}Se \"otto\" è sempre \"otto\" sia da\ndestra che da sinistra, {{delay20}}come fai a\nsapere il verso di lettura corretto?{{color id=\"65535\"}}"
  },
  {
    "label": "059",
    "attribute": "0x00010000",
    "text": "{{color id=\"1\"}}Se ti piace indossare il pigiama tutto\nil giorno, {{delay8}}allora magari per dormire\npreferisci vestirti, squalett{{gender2 m=\"o\" f=\"a\"}}.{{color id=\"65535\"}}"
  },
  {
    "label": "060",
    "attribute": "0x00010000",
    "text": "{{color id=\"1\"}}A volte non mi ricordo se ho vissuto\nqualcosa oppure l'ho solo sognato.{{delay20}}\nGià,{{delay8}} la mia vita è piuttosto strana{{string value=\"...\"}}{{color id=\"65535\"}}"
  },
  {
    "label": "061",
    "attribute": "0x00010000",
    "text": "{{color id=\"1\"}}Ma un calzino spaiato sa di esserlo?\nOppure vuole solo vivere una vita in\nsolitaria, fatta di grandi avventure?{{color id=\"65535\"}}"
  },
  {
    "label": "062",
    "attribute": "0x00010000",
    "text": "{{color id=\"1\"}}Se in frigo c'è un cartone del latte\nvuoto, {{delay8}}significa che qualcuno non\nè pronto ad accettare la realtà.{{color id=\"65535\"}}"
  },
  {
    "label": "063",
    "attribute": "0x00010000",
    "text": "{{color id=\"1\"}}Ma se l'acqua è corrente, {{delay8}}c'è il\npericolo di prendere la scossa,\nsqualett{{gender2 m=\"o\" f=\"a\"}}?{{color id=\"65535\"}}"
  },
  {
    "label": "064",
    "attribute": "0x00010000",
    "text": "{{color id=\"1\"}}E se i miti e le antiche leggende\nfossero tutti veri? Gli archeologi\nsarebbero ben confusi, squalett{{gender2 m=\"o\" f=\"a\"}}{{string value=\"...\"}}{{color id=\"65535\"}}"
  },
  {
    "label": "065",
    "attribute": "0x00010000",
    "text": "{{color id=\"1\"}}\"L'attesa del piacere è essa stessa\nil piacere{{string value=\"...\"}}\" E il piacere che attende\nse stesso cosa fa, squalett{{gender2 m=\"o\" f=\"a\"}}?{{color id=\"65535\"}}"
  },
  {
    "label": "066",
    "attribute": "0x00010000",
    "text": "{{color id=\"1\"}}Il sole che ti scalda la pelle è davvero\nmagnifico. {{delay20}}È come se Madre Natura ti\navvolgesse con una coperta.{{color id=\"65535\"}}"
  },
  {
    "label": "067",
    "attribute": "0x00010000",
    "text": "{{color id=\"1\"}}Comprare qualcosa a metà prezzo\nè sempre un affare. {{delay20}}Alla fine, ricevi\ncomunque l'articolo intero.{{color id=\"65535\"}}"
  },
  {
    "label": "068",
    "attribute": "0x00010000",
    "text": "{{color id=\"1\"}}Dicono che non si debba avere peli\nsulla lingua, squalett{{gender2 m=\"o\" f=\"a\"}}{{string value=\"...\"}} Ma io ne ho\ngià abbastanza in faccia!{{color id=\"65535\"}}"
  },
  {
    "label": "069",
    "attribute": "0x00010000",
    "text": "{{color id=\"1\"}}Perché esiste il colore \"arancione\"\nper le arance, {{delay8}}ma non il \"bananone\"\nper le banane, squalett{{gender2 m=\"o\" f=\"a\"}}?{{color id=\"65535\"}}"
  },
  {
    "label": "070",
    "attribute": "0x00010000",
    "text": "{{color id=\"1\"}}Le scale sono sempre scale,\nsqualett{{gender2 m=\"o\" f=\"a\"}}. {{delay20}}Non importa come\ntu le salga.{{color id=\"65535\"}}"
  },
  {
    "label": "071",
    "attribute": "0x00010000",
    "text": "{{color id=\"1\"}}Ma se il cuore ti va a mille, {{delay20}}rischi\nuna multa per eccesso di velocità,\nsqualett{{gender2 m=\"o\" f=\"a\"}}?{{color id=\"65535\"}}"
  },
  {
    "label": "072",
    "attribute": "0x00010000",
    "text": "{{color id=\"1\"}}Chi dorme su un letto di spine ha\ntutta la mia ammirazione, squalett{{gender2 m=\"o\" f=\"a\"}}.\n{{delay20}}Deve fare una gran male!{{color id=\"65535\"}}"
  },
  {
    "label": "073",
    "attribute": "0x00010000",
    "text": "{{color id=\"1\"}}Ripensare troppo ai bei tempi andati\n{{delay8}}rischia di farti sfuggire i bei tempi in\narrivo{{string value=\"...\"}}{{color id=\"65535\"}}"
  },
  {
    "label": "074",
    "attribute": "0x00010000",
    "text": "{{color id=\"1\"}}Quando hai i capelli sale e pepe,{{delay20}}\nva bene farli cadere nella tua zuppa\nper dare sapore?{{color id=\"65535\"}}"
  },
  {
    "label": "075",
    "attribute": "0x00010000",
    "text": "{{color id=\"1\"}}Il mattino ha l'oro in bocca. {{delay20}}Quindi\nil pomeriggio ha l'argento e la sera\nil bronzo?{{color id=\"65535\"}}"
  },
  {
    "label": "076",
    "attribute": "0x00010000",
    "text": "{{color id=\"1\"}}Se qualcuno non ha tutti i venerdì,\n{{delay8}}dici che li prenderà in prestito da\nqualcun altro, squalett{{gender2 m=\"o\" f=\"a\"}}?{{color id=\"65535\"}}"
  },
  {
    "label": "077",
    "attribute": "0x00010000",
    "text": "{{color id=\"1\"}}Perché gli ascensori si chiamano\ncosì se possono essere usati anche\nper scendere, squalett{{gender2 m=\"o\" f=\"a\"}}?{{color id=\"65535\"}}"
  },
  {
    "label": "078",
    "attribute": "0x00010000",
    "text": "{{color id=\"1\"}}Le cattive abitudini sono come un\npaio di calzini sporchi, squalett{{gender2 m=\"o\" f=\"a\"}}{{string value=\"...\"}}\nNon si mostrano in pubblico.{{color id=\"65535\"}}"
  },
  {
    "label": "079",
    "attribute": "0x00010000",
    "text": "{{color id=\"1\"}}Si dice \"filare come il vento\", {{delay8}}ma\ntu hai mai visto il vento alle prese\ncon un telaio? {{delay20}}Io mai, squalett{{gender2 m=\"o\" f=\"a\"}}.{{color id=\"65535\"}}"
  },
  {
    "label": "080",
    "attribute": "0x00010000",
    "text": "{{i10_12}}{{color id=\"1\"}}Ma la pentola d'oro che c'è ai piedi\ndi un arcobaleno{{string value=\"...\"}} puzzerà?{{color id=\"65535\"}}"
  },
  {
    "label": "081",
    "attribute": "0x00010000",
    "text": "{{color id=\"1\"}}Sai, squalett{{gender2 m=\"o\" f=\"a\"}}{{string value=\"...\"}} Spesso confondono\nle lontre con le nutrie, ma noi siamo\nmolto più belle!{{color id=\"65535\"}}"
  },
  {
    "label": "082",
    "attribute": "0x00010000",
    "text": "{{color id=\"1\"}}Non sempre puoi fare ciò che ami,{{delay20}}\nma puoi sempre imparare ad amare\nciò che fai, squalett{{gender2 m=\"o\" f=\"a\"}}{{string value=\"...\"}}{{color id=\"65535\"}}"
  },
  {
    "label": "083",
    "attribute": "0x00010000",
    "text": "{{color id=\"1\"}}Ci sono due categorie di cose:{{delay20}} roba\nfatta con {{string value=\"7\"}} {{delay8}}e roba non fatta\ncon {{string value=\"7\"}}, squalett{{gender2 m=\"o\" f=\"a\"}}.{{color id=\"65535\"}}"
  },
  {
    "label": "084",
    "attribute": "0x00010000",
    "text": "{{color id=\"1\"}}Esistono milioni di parole{{delay8}} e nessuna\nche faccia rima con \"cucurbitacee\".\nTi pare possibile, squalett{{gender2 m=\"o\" f=\"a\"}}?{{color id=\"65535\"}}"
  },
  {
    "label": "085",
    "attribute": "0x00010000",
    "text": "{{color id=\"1\"}}Ma per pescarti con le zampe nella\nmarmellata, {{delay20}}quale esca dovranno\nusare, squalett{{gender2 m=\"o\" f=\"a\"}}?{{color id=\"65535\"}}"
  },
  {
    "label": "086",
    "attribute": "0x00010000",
    "text": "{{color id=\"1\"}}Ma la gravità avrà anche dei momenti\nbuoni {{delay8}}o non c'è modo di risollevarla\nun po'?{{color id=\"65535\"}}"
  },
  {
    "label": "087",
    "attribute": "0x00010000",
    "text": "{{color id=\"1\"}}Hai mai provato a rimettere il buco\nin una ciambella? {{delay20}}Credi a me, è una\nfaticaccia, squalett{{gender2 m=\"o\" f=\"a\"}}!{{color id=\"65535\"}}"
  },
  {
    "label": "088",
    "attribute": "0x00010000",
    "text": "{{color id=\"1\"}}Se sprechi il tuo tempo a fare\nqualcosa che ti piace, squalett{{gender2 m=\"o\" f=\"a\"}}{{string value=\"...\"}}\nallora non l'hai sprecato.{{color id=\"65535\"}}"
  },
  {
    "label": "089",
    "attribute": "0x00010000",
    "text": "{{color id=\"1\"}}Alcune lingue hanno decine di parole\nper descrivere la neve o il sole{{string value=\"...\"}} Ma\nquale ne ha più di tutte per la pizza?{{color id=\"65535\"}}"
  },
  {
    "label": "090",
    "attribute": "0x00010000",
    "text": "{{i10_12}}{{color id=\"1\"}}I castelli sono come delle case con\nl'armatura,{{delay8}} vero, squalett{{gender2 m=\"o\" f=\"a\"}}?{{color id=\"65535\"}}"
  },
  {
    "label": "091",
    "attribute": "0x00010000",
    "text": "{{color id=\"1\"}}Un gilet è la radice quadrata di una\ngiacca.{{delay8}} E un cappello sono dei capelli\nal quadrato.{{delay20}} È matematica degli abiti!{{color id=\"65535\"}}"
  },
  {
    "label": "092",
    "attribute": "0x00010000",
    "text": "{{color id=\"1\"}}Quando ho freddo alla testa, indosso\nun berretto e i miei capelli mi sono\ngrati.{{delay20}} È bello aiutare qualcuno, sai?{{color id=\"65535\"}}"
  },
  {
    "label": "093",
    "attribute": "0x00010000",
    "text": "{{color id=\"1\"}}È giusto avere paura di cose che ti\nspaventano. {{delay8}}Come gli squali. {{delay20}}Io sono\nterrorizzato da loro ed è giusto così.{{color id=\"65535\"}}"
  },
  {
    "label": "094",
    "attribute": "0x00010000",
    "text": "{{color id=\"1\"}}Squalett{{gender2 m=\"o\" f=\"a\"}},{{delay8}} secondo te un'isola che\nnon è più sola, come si chiama?\n{{delay20}}\"Incompagnia\"?{{color id=\"65535\"}}"
  },
  {
    "label": "095",
    "attribute": "0x00010000",
    "text": "{{color id=\"1\"}}Ma l'espressione \"lacrime di\ncoccodrillo\" da dove viene? {{delay20}}Io\nnon ne ho mai visto uno piangere!{{color id=\"65535\"}}"
  },
  {
    "label": "096",
    "attribute": "0x00010000",
    "text": "{{color id=\"1\"}}Perché si dice \"lettera\" se poi\nsi usano un sacco di lettere per\nscriverla?{{color id=\"65535\"}}"
  },
  {
    "label": "097",
    "attribute": "0x00010000",
    "text": "{{color id=\"1\"}}Ricorda squalett{{gender2 m=\"o\" f=\"a\"}}: {{delay8}}\"Chi non risica,\nnon rosica\".{{delay20}} Vedi di affilare bene\nquei dentini, dunque.{{color id=\"65535\"}}"
  },
  {
    "label": "098",
    "attribute": "0x00010000",
    "text": "{{color id=\"1\"}}Ma i ripensamenti sono pensieri\nripensati?{{delay20}} O pensano di non avere\naltri pensieri?{{color id=\"65535\"}}"
  },
  {
    "label": "099",
    "attribute": "0x00010000",
    "text": "{{color id=\"1\"}}Tutti comprano occhiali da sole,\nma nessuno compra mai gli occhiali\nda ombra, squalett{{gender2 m=\"o\" f=\"a\"}}.{{color id=\"65535\"}}"
  },
  {
    "label": "100",
    "attribute": "0x00010000",
    "text": "{{color id=\"1\"}}Puoi pure metterti uno smoking,{{delay8}} ma\nun aereo dal concessionario non te\nlo fanno provare, squalett{{gender2 m=\"o\" f=\"a\"}}.{{color id=\"65535\"}}"
  },
  {
    "label": "101",
    "attribute": "0x00010000",
    "text": "{{color id=\"1\"}}Si dice che i gamberi camminino\nall'indietro. {{delay20}}Ma siamo noi a guardarli\ndalla prospettiva sbagliata.{{color id=\"65535\"}}"
  },
  {
    "label": "102",
    "attribute": "0x00010000",
    "text": "{{color id=\"1\"}}Fanno sempre i sequel dei film, ma\nperché non dei piatti? {{delay20}}Posso avere il\nsequel di capesante? {{delay8}}Capesante 2!{{color id=\"65535\"}}"
  },
  {
    "label": "103",
    "attribute": "0x00010000",
    "text": "{{color id=\"1\"}}Se uno ne capisce di giardinaggio\nha il pollice verde. {{delay20}}E se uno conosce\na fondo il mare, {{delay8}}ha il pollice blu?{{color id=\"65535\"}}"
  },
  {
    "label": "104",
    "attribute": "0x00010000",
    "text": "{{color id=\"1\"}}Come si chiama la foto di una foto,\nsqualett{{gender2 m=\"o\" f=\"a\"}}? {{delay20}}\"Foto al quadrato\"?{{color id=\"65535\"}}"
  },
  {
    "label": "105",
    "attribute": "0x00010000",
    "text": "{{color id=\"1\"}}Ricorda: {{delay20}}tutto va preso con\nmoderazione, squalett{{gender2 m=\"o\" f=\"a\"}}{{string value=\"...\"}}\nAnche la moderazione!{{color id=\"65535\"}}"
  },
  {
    "label": "106",
    "attribute": "0x00010000",
    "text": "{{color id=\"1\"}}Sapevi che esistono le spugne\nmarine? {{delay20}}Però non le puoi usare\nper lavare i piatti.{{color id=\"65535\"}}"
  },
  {
    "label": "107",
    "attribute": "0x00010000",
    "text": "{{color id=\"1\"}}Se vuoi fare strada nella vita,\n{{delay20}}assicurati di scegliere una\ndirezione, prima.{{color id=\"65535\"}}"
  },
  {
    "label": "108",
    "attribute": "0x00010000",
    "text": "{{color id=\"1\"}}Se ami il tuo lavoro, {{delay8}}non lavorerai\nmai un giorno{{string value=\"...\"}} Mmmh, ma allora\nlavori o non lavori? {{delay20}}Sono confuso.{{color id=\"65535\"}}"
  },
  {
    "label": "109",
    "attribute": "0x00010000",
    "text": "{{color id=\"1\"}}{{i10_12}}Perché se la pecora bruca,{{delay8}}\nil bruco non pecora, squalett{{gender2 m=\"o\" f=\"a\"}}?{{color id=\"65535\"}}"
  },
  {
    "label": "110",
    "attribute": "0x00010000",
    "text": "{{color id=\"1\"}}Ma le capesante si chiamano così\nperché sono talmente intelligenti\nche bisogna venerarle?{{color id=\"65535\"}}"
  },
  {
    "label": "111",
    "attribute": "0x00010000",
    "text": "{{color id=\"1\"}}Spesso si dice che si fa qualcosa\nper la gloria. {{delay20}}Ma chi è questa Gloria\nche tutti inseguono, squalett{{gender2 m=\"o\" f=\"a\"}}?{{color id=\"65535\"}}"
  },
  {
    "label": "112",
    "attribute": "0x00010000",
    "text": "{{color id=\"1\"}}Perdere una sfida perché il tuo\nrivale aveva un asso nella manica\nnon è destino, {{delay8}}bensì un imbroglio!{{color id=\"65535\"}}"
  },
  {
    "label": "113",
    "attribute": "0x00010000",
    "text": "{{color id=\"1\"}}Sei mai stat{{gender2 m=\"o\" f=\"a\"}} in mare aperto,\nsqualett{{gender2 m=\"o\" f=\"a\"}}? {{delay20}}Nel caso, gli orari\ndi apertura dove li hai trovati?{{color id=\"65535\"}}"
  },
  {
    "label": "114",
    "attribute": "0x00010000",
    "text": "{{color id=\"1\"}}Gli alberi sono i capelli della Terra.{{delay20}}\nE l'erba? {{delay20}}La sua barba. {{delay20}}E i deserti?\n{{delay20}}Mmmh, forse una calvizie incipiente?{{color id=\"65535\"}}"
  },
  {
    "label": "115",
    "attribute": "0x00010000",
    "text": "{{color id=\"1\"}}{{i10_12}}Secondo te, gli arti sono esperti di\narte, squalett{{gender2 m=\"o\" f=\"a\"}}?{{color id=\"65535\"}}"
  },
  {
    "label": "116",
    "attribute": "0x00010000",
    "text": "{{color id=\"1\"}}Vuoi imparare a cucinare? {{delay8}}Diventa\nespert{{gender2 m=\"o\" f=\"a\"}} di una ricetta, poi varia sul\ntema. {{delay20}}E aggiungi qualche spezia{{string value=\"...\"}}{{color id=\"65535\"}}"
  },
  {
    "label": "117",
    "attribute": "0x00010000",
    "text": "{{color id=\"1\"}}{{i10_12}}I formicai sono come delle città{{string value=\"...\"}}\nma per formiche, squalett{{gender2 m=\"o\" f=\"a\"}}!{{color id=\"65535\"}}"
  },
  {
    "label": "118",
    "attribute": "0x00010000",
    "text": "{{color id=\"1\"}}Il presente è passato, squalett{{gender2 m=\"o\" f=\"a\"}}.{{delay20}}\nQuando avrò finito di dire questa\nfrase, {{delay8}}sarà già storia{{string value=\"...\"}}{{color id=\"65535\"}}"
  },
  {
    "label": "119",
    "attribute": "0x00010000",
    "text": "{{color id=\"1\"}}Non si taglia mai una torta\ndi compleanno prima di aver\nspento le candeline, {{delay8}}squalett{{gender2 m=\"o\" f=\"a\"}}.{{color id=\"65535\"}}"
  },
  {
    "label": "120",
    "attribute": "0x00010000",
    "text": "{{color id=\"1\"}}Si parla sempre di \"alta marea\"\ne \"bassa marea\",{{delay8}} ma tu hai mai\nvisto una \"media marea\", squalett{{gender2 m=\"o\" f=\"a\"}}?{{color id=\"65535\"}}"
  },
  {
    "label": "121",
    "attribute": "0x00010000",
    "text": "{{color id=\"1\"}}Il cane a testa in giù è una posizione\nyoga, {{delay20}}ma la lontra a testa in su è uno\nstile di vita, squalett{{gender2 m=\"o\" f=\"a\"}}!{{color id=\"65535\"}}"
  },
  {
    "label": "122",
    "attribute": "0x00010000",
    "text": "{{color id=\"1\"}}La luna è un satellite, {{delay8}}eppure io\nnon riesco a prendere nessun\ncanale televisivo, squalett{{gender2 m=\"o\" f=\"a\"}}.{{color id=\"65535\"}}"
  },
  {
    "label": "123",
    "attribute": "0x00010000",
    "text": "{{color id=\"1\"}}Dicono sempre che devi concentrarti,{{delay8}}\nma non essendo un pomodoro per\nme è un po' difficile, squalett{{gender2 m=\"o\" f=\"a\"}}{{string value=\"...\"}}{{color id=\"65535\"}}"
  },
  {
    "label": "124",
    "attribute": "0x00010000",
    "text": "{{color id=\"1\"}}Ma se qualcosa è il sale della vita,{{delay20}}\nallora il pepe dove va messo?{{color id=\"65535\"}}"
  },
  {
    "label": "125",
    "attribute": "0x00010000",
    "text": "{{color id=\"1\"}}Si potrà far abbassare la febbre\nguardando un film che ghiaccia\nil sangue nelle vene?{{color id=\"65535\"}}"
  },
  {
    "label": "126",
    "attribute": "0x00010000",
    "text": "{{color id=\"1\"}}Una volta ho visto un elefante\ntuffarsi in una piscina e credimi,\nsqualett{{gender2 m=\"o\" f=\"a\"}}{{string value=\"...\"}} l'acqua è sparita!{{color id=\"65535\"}}"
  },
  {
    "label": "127",
    "attribute": "0x00010000",
    "text": "{{color id=\"1\"}}Se guardi il dito e non la luna, {{delay8}}va\na finire che prima o poi ci sbatti\naddosso. {{delay20}}Ricordatelo, squalett{{gender2 m=\"o\" f=\"a\"}}!{{color id=\"65535\"}}"
  },
  {
    "label": "128",
    "attribute": "0x00010000",
    "text": "{{color id=\"1\"}}Le barche a vela hanno la vela. {{delay20}}Le\nbarche a motore hanno il motore.{{delay20}}\nE le canoe? {{delay8}}Hanno il cannolo?{{color id=\"65535\"}}"
  },
  {
    "label": "129",
    "attribute": "0x00010000",
    "text": "{{color id=\"1\"}}L'amicizia è una barca che non si può\ncondurre da soli. {{delay20}}Quando il mare è in\ntempesta, {{delay20}}tutti devono aiutarsi{{string value=\"...\"}}{{color id=\"65535\"}}"
  },
  {
    "label": "130",
    "attribute": "0x00010000",
    "text": "{{color id=\"1\"}}Perché si dice \"prendere un\ngranchio\" quando si sbaglia? Se ci\nriesci, sei brav{{gender2 m=\"o\" f=\"a\"}} a pescare, squalett{{gender2 m=\"o\" f=\"a\"}}.{{color id=\"65535\"}}"
  },
  {
    "label": "131",
    "attribute": "0x00010000",
    "text": "{{color id=\"1\"}}Procrastinare è l'arte di essere\nottimisti per il futuro {{delay8}}ottimizzando\nil presente, squalett{{gender2 m=\"o\" f=\"a\"}}.{{color id=\"65535\"}}"
  },
  {
    "label": "132",
    "attribute": "0x00010000",
    "text": "{{color id=\"1\"}}Se la vita è un film di cui tu sei\n{{gender2 m=\"il\" f=\"la\"}} protagonista, {{delay20}}chi è che vende\ni biglietti, squalett{{gender2 m=\"o\" f=\"a\"}}?{{color id=\"65535\"}}"
  },
  {
    "label": "133",
    "attribute": "0x00010000",
    "text": "{{color id=\"1\"}}Trovare un'oasi nel deserto è tanto\ndifficile quanto trovare un ago in un\npagliaio{{string value=\"...\"}}{{color id=\"65535\"}}"
  },
  {
    "label": "134",
    "attribute": "0x00010000",
    "text": "{{color id=\"1\"}}Il talento è importante in ogni\ncampo, {{delay20}}ma senza l'impegno non\notterrai mai successo, squalett{{gender2 m=\"o\" f=\"a\"}}!{{color id=\"65535\"}}"
  },
  {
    "label": "135",
    "attribute": "0x00010000",
    "text": "{{color id=\"1\"}}Non ci sono solo le stelline nella vita,\nsqualett{{gender2 m=\"o\" f=\"a\"}}! {{delay20}}Anche gli insetti, la pesca,\nil fai da te{{string value=\"...\"}} e le capesante.{{color id=\"65535\"}}"
  },
  {
    "label": "136",
    "attribute": "0x00010000",
    "text": "{{color id=\"1\"}}Il vero coraggio sta nell'affrontare\nle proprie paure{{string value=\"...\"}} Ma non fuggire\ndi fronte a una zanzara è da temerari.{{color id=\"65535\"}}"
  },
  {
    "label": "137",
    "attribute": "0x00010000",
    "text": "{{color id=\"1\"}}Non c'è niente di peggio dei falsi\namici, squalett{{gender2 m=\"o\" f=\"a\"}}.{{delay20}} Rovinano la tua\nvita{{string value=\"...\"}} e il tuo modo di parlare.{{color id=\"65535\"}}"
  },
  {
    "label": "138",
    "attribute": "0x00010000",
    "text": "{{color id=\"1\"}}Ma se hai un peso sul cuore,{{delay20}}\nti serve un muletto speciale\nper rimuoverlo, squalett{{gender2 m=\"o\" f=\"a\"}}?{{color id=\"65535\"}}"
  },
  {
    "label": "139",
    "attribute": "0x00010000",
    "text": "{{color id=\"1\"}}Ma i bassisti devono essere bassi\nper suonare in un gruppo musicale,\nsqualett{{gender2 m=\"o\" f=\"a\"}}?{{color id=\"65535\"}}"
  },
  {
    "label": "140",
    "attribute": "0x00010000",
    "text": "{{color id=\"1\"}}La vendetta è un piatto che va\nservito freddo{{string value=\"...\"}} Un po' come\nil sushi.{{color id=\"65535\"}}"
  },
  {
    "label": "141",
    "attribute": "0x00010000",
    "text": "{{color id=\"1\"}}I tramonti sono come mareggiate\ninfuocate che si ritirano poco a\npoco, squalett{{gender2 m=\"o\" f=\"a\"}}.{{color id=\"65535\"}}"
  },
  {
    "label": "142",
    "attribute": "0x00010000",
    "text": "{{i10_12}}{{color id=\"1\"}}Non sai di sapere finché non lo sai.{{delay20}}\nLo sapevi, squalett{{gender2 m=\"o\" f=\"a\"}}?{{color id=\"65535\"}}"
  },
  {
    "label": "143",
    "attribute": "0x00010000",
    "text": "{{i10_12}}{{color id=\"1\"}}Nessuno chiede mai all'ananas se\nvuole essere messo sulla pizza!{{color id=\"65535\"}}"
  },
  {
    "label": "145",
    "attribute": "0x00010000",
    "text": "{{color id=\"1\"}}Vuoi avere un'identità segreta?\nGridala ai quattro venti! {{delay20}}Nessuno\nsaprà a quale hai detto la verità.{{color id=\"65535\"}}"
  },
  {
    "label": "146",
    "attribute": "0x00010000",
    "text": "{{color id=\"1\"}}Il tempo ci fa dono della cosa più\nbella, squalett{{gender2 m=\"o\" f=\"a\"}}:{{delay8}} il presente.{{delay20}} Tu gli\nhai regalato qualcosa in cambio?{{color id=\"65535\"}}"
  },
  {
    "label": "147",
    "attribute": "0x00010000",
    "text": "{{color id=\"1\"}}La verità sta nel mezzo, ma il dolce\nsta in fondo{{string value=\"...\"}} chi avrà ragione alla\nfine, squalett{{gender2 m=\"o\" f=\"a\"}}?{{color id=\"65535\"}}"
  },
  {
    "label": "148",
    "attribute": "0x00010000",
    "text": "{{color id=\"1\"}}Le risate sono saltelli di gioia dei\npolmoni. {{delay8}}Capitano quando il cervello\nè felice e dimentica come funzionano.{{color id=\"65535\"}}"
  },
  {
    "label": "149",
    "attribute": "0x00010000",
    "text": "{{color id=\"1\"}}Ma se a tutto c'è un limite, {{delay20}}allora\ncome fa l'universo a essere infinito,\nsqualett{{gender2 m=\"o\" f=\"a\"}}?{{color id=\"65535\"}}"
  },
  {
    "label": "150",
    "attribute": "0x00010000",
    "text": "{{color id=\"1\"}}Mettersi nei panni di qualcuno è\nbuona cosa, ma ricorda sempre di\nrestituirli, squalett{{gender2 m=\"o\" f=\"a\"}}!{{color id=\"65535\"}}"
  },
  {
    "label": "151",
    "attribute": "0x00010000",
    "text": "{{color id=\"1\"}}Ma se non si cava un ragno dal buco,{{delay20}}\nperché non chiudiamo direttamente il\nbuco e la facciamo finita?{{color id=\"65535\"}}"
  },
  {
    "label": "152",
    "attribute": "0x00010000",
    "text": "{{color id=\"1\"}}Quando nuoto e mi bagno{{string value=\"...\"}} l'oceano\nsi asciuga un po' di più.{{delay8}} Pensi che\ndovrei scusarmi con lui?{{color id=\"65535\"}}"
  },
  {
    "label": "153",
    "attribute": "0x00010000",
    "text": "{{color id=\"1\"}}Non so da dove salti fuori questo\nmio berretto. {{delay20}}L'ho indossato una\nvolta o{{string value=\"...\"}} l'avrò sempre avuto?{{color id=\"65535\"}}"
  },
  {
    "label": "154",
    "attribute": "0x00010000",
    "text": "{{color id=\"1\"}}La musica non è altro che particelle\nsospese in aria intente a ballare in\nmaniera sfrenata, {{delay8}}squalett{{gender2 m=\"o\" f=\"a\"}}.{{color id=\"65535\"}}"
  },
  {
    "label": "155",
    "attribute": "0x00010000",
    "text": "{{color id=\"1\"}}Non fanno più i film di una volta{{string value=\"...\"}}\nCerto,{{delay8}} forse non possono più perché\nl'attrezzatura usata sarà vecchissima.{{color id=\"65535\"}}"
  },
  {
    "label": "156",
    "attribute": "0x00010000",
    "text": "{{color id=\"1\"}}La risata di un bambino,{{delay8}} un insieme\ndi archi e un sax al centro. {{delay8}}Ecco\nl'orchestra dell'universo, squalett{{gender2 m=\"o\" f=\"a\"}}.{{color id=\"65535\"}}"
  },
  {
    "label": "157",
    "attribute": "0x00010000",
    "text": "{{color id=\"1\"}}La chiamano \"miopia\" perché è\nuna cosa individuale?{{delay20}} Quindi c'è la\n\"tuopia\", la \"suopia\" e via dicendo?{{color id=\"65535\"}}"
  },
  {
    "label": "158",
    "attribute": "0x00010000",
    "text": "{{color id=\"1\"}}Per quanto tu voglia, non potrai mai\nabbracciare tutto il mondo. {{delay20}}Nessuno\nha braccia così grandi, squalett{{gender2 m=\"o\" f=\"a\"}}.{{color id=\"65535\"}}"
  },
  {
    "label": "159",
    "attribute": "0x00010000",
    "text": "{{color id=\"1\"}}I Nook Phone hanno un sacco di app\ngrandiose,{{delay8}} ma nessuna con cui poter\nordinare un po' di capesante{{string value=\"...\"}}{{color id=\"65535\"}}"
  },
  {
    "label": "160",
    "attribute": "0x00010000",
    "text": "{{color id=\"1\"}}Il tempo è strano. {{delay8}}A volte non passa\nmai,{{delay8}} altre ti scivola via tra le zampe.{{delay20}}\nChe mistero, squalett{{gender2 m=\"o\" f=\"a\"}}.{{color id=\"65535\"}}"
  },
  {
    "label": "161",
    "attribute": "0x00010000",
    "text": "{{color id=\"1\"}}Sai quando dicono \"avere il fuoco\ndentro\"?{{delay20}} Beh, a me succede dopo\nun'abbuffata di cozze. {{delay20}}Non è bello!{{color id=\"65535\"}}"
  },
  {
    "label": "162",
    "attribute": "0x00010000",
    "text": "{{color id=\"1\"}}Hai mai sognato persone che\nnon conosci ancora, squalett{{gender2 m=\"o\" f=\"a\"}}?{{delay20}}\nSei tu che vedi{{string value=\"...\"}} il futuro!{{color id=\"65535\"}}"
  },
  {
    "label": "163",
    "attribute": "0x00010000",
    "text": "{{color id=\"1\"}}Perché osservare le nuvole cercando\ndi trovarci delle forme bizzarre?\n{{delay20}}Sono solo delle nuvole, squalett{{gender2 m=\"o\" f=\"a\"}}.{{color id=\"65535\"}}"
  },
  {
    "label": "164",
    "attribute": "0x00010000",
    "text": "{{color id=\"1\"}}Quando le cose non vanno, {{delay8}}bisogna\nremare tutti nella stessa direzione.{{delay20}}\nSai che fatica sennò, squalett{{gender2 m=\"o\" f=\"a\"}}?{{color id=\"65535\"}}"
  },
  {
    "label": "165",
    "attribute": "0x00010000",
    "text": "{{color id=\"1\"}}Perché gioia e dolore sono facce\ndella stessa medaglia? {{delay20}}Non sarebbe\nmeglio se fossero due medaglie?{{color id=\"65535\"}}"
  },
  {
    "label": "166",
    "attribute": "0x00010000",
    "text": "{{color id=\"1\"}}La polvere che si posa è come una\ndolce coltre intessuta d'aria.{{delay20}} Certo,\nio non la userei mai, mi fa starnutire.{{color id=\"65535\"}}"
  },
  {
    "label": "167",
    "attribute": "0x00010000",
    "text": "{{color id=\"1\"}}Siamo tutti sulla stessa barca,\nsqualett{{gender2 m=\"o\" f=\"a\"}}{{string value=\"...\"}} ma il proprietario\nchi sarà?{{color id=\"65535\"}}"
  },
  {
    "label": "168",
    "attribute": "0x00010000",
    "text": "{{color id=\"1\"}}Chissà se i cavallucci marini\ndormono nelle stalle acquatiche,\nsqualett{{gender2 m=\"o\" f=\"a\"}}?{{color id=\"65535\"}}"
  },
  {
    "label": "171",
    "attribute": "0x00010000",
    "text": "{{color id=\"1\"}}Non farti mai raccontare una storia\nda uno storione.{{delay20}} Non la finisce più,\nsqualett{{gender2 m=\"o\" f=\"a\"}}.{{color id=\"65535\"}}"
  },
  {
    "label": "172",
    "attribute": "0x00010000",
    "text": "{{i10_12}}{{color id=\"1\"}}La verità fa male, squalett{{gender2 m=\"o\" f=\"a\"}}{{string value=\"...\"}}\nSpecialmente se ti cade in testa!{{color id=\"65535\"}}"
  },
  {
    "label": "173",
    "attribute": "0x00010000",
    "text": "{{color id=\"1\"}}{{i10_12}}Dicono che il tempo fugga{{string value=\"...\"}} ma\nè perché non si trova bene con noi?{{color id=\"65535\"}}"
  },
  {
    "label": "174",
    "attribute": "0x00010000",
    "text": "{{color id=\"1\"}}Ma perché dicono \"pancia mia fatti\ncapanna\"? {{delay20}}La mia assomiglia più a\nun grattacielo, squalett{{gender2 m=\"o\" f=\"a\"}}.{{color id=\"65535\"}}"
  },
  {
    "label": "175",
    "attribute": "0x00010000",
    "text": "{{color id=\"1\"}}Puoi vederla come vuoi, ma un\nbicchiere è sempre pieno.{{delay20}} In una\nparte c'è il liquido, nell'altra{{string value=\"...\"}} l'aria!{{color id=\"65535\"}}"
  },
  {
    "label": "176",
    "attribute": "0x00010000",
    "text": "{{color id=\"1\"}}Quando ti mordi la lingua, {{delay8}}è il tuo\ncorpo che cerca di dirti di rallentare\ne goderti il tuo pasto, squalett{{gender2 m=\"o\" f=\"a\"}}.{{color id=\"65535\"}}"
  },
  {
    "label": "177",
    "attribute": "0x00010000",
    "text": "{{i10_12}}{{color id=\"1\"}}Devi scavare una buca prima\ndi poterla riempire, squalett{{gender2 m=\"o\" f=\"a\"}}.{{color id=\"65535\"}}"
  },
  {
    "label": "178",
    "attribute": "0x00010000",
    "text": "{{color id=\"1\"}}Se gli occhi sono lo specchio\ndell'anima, {{delay8}}la bocca cosa sarà?\n{{delay20}}Il ripostiglio del cibo?{{color id=\"65535\"}}"
  },
  {
    "label": "179",
    "attribute": "0x00010000",
    "text": "{{color id=\"1\"}}Se gli opposti si attraggono, {{delay8}}perché\nla gente non mangia panini con\nsenape e marmellata, squalett{{gender2 m=\"o\" f=\"a\"}}?{{color id=\"65535\"}}"
  },
  {
    "label": "180",
    "attribute": "0x00010000",
    "text": "{{color id=\"1\"}}Se la velocità è proporzionale\nalla massa, {{delay20}}come mai i velocisti\nnon sono grossissimi?{{color id=\"65535\"}}"
  },
  {
    "label": "181",
    "attribute": "0x00010000",
    "text": "{{color id=\"1\"}}Se il mondo è la nostra ostrica, {{delay8}}cosa\nstiamo aspettando? {{delay20}}Facciamoci una\nbella mangiata, squalett{{gender2 m=\"o\" f=\"a\"}}!{{color id=\"65535\"}}"
  },
  {
    "label": "182",
    "attribute": "0x00010000",
    "text": "{{color id=\"1\"}}Quando ci gira la testa {{delay8}}è il momento\nin cui ci rendiamo conto che la Terra\nè sempre in rotazione?{{color id=\"65535\"}}"
  },
  {
    "label": "183",
    "attribute": "0x00010000",
    "text": "{{color id=\"1\"}}A volte mi piace leggere i libri\nal contrario, squalett{{gender2 m=\"o\" f=\"a\"}}. {{delay20}}Così so\ngià come finiscono!{{color id=\"65535\"}}"
  },
  {
    "label": "184",
    "attribute": "0x00010000",
    "text": "{{color id=\"1\"}}È strano stare sul bagnasciuga{{string value=\"...\"}}\nNon sai mai se ti stai bagnando\no asciugando.{{color id=\"65535\"}}"
  },
  {
    "label": "185",
    "attribute": "0x00010000",
    "text": "{{color id=\"1\"}}Attenzione a esprimere desideri nella\nvita. {{delay20}}Tranne se desideri capesante{{string value=\"...\"}}\n{{delay8}}Quelle vanno sempre bene.{{color id=\"65535\"}}"
  },
  {
    "label": "186",
    "attribute": "0x00010000",
    "text": "{{color id=\"1\"}}Non pensare a ciò che gli altri\npensano di te, squalett{{gender2 m=\"o\" f=\"a\"}}. {{delay20}}Pensa\na ciò che pensi tu di te stess{{gender2 m=\"o\" f=\"a\"}}.{{color id=\"65535\"}}"
  },
  {
    "label": "187",
    "attribute": "0x00010000",
    "text": "{{color id=\"1\"}}Tutto cambia. {{delay20}}A volte si ha paura, {{delay8}}a\nvolte è un sollievo {{delay20}}e a volte significa\nche è ora di cena, squalett{{gender2 m=\"o\" f=\"a\"}}.{{color id=\"65535\"}}"
  },
  {
    "label": "188",
    "attribute": "0x00010000",
    "text": "{{color id=\"1\"}}Tutti dicono \"furbo come una volpe\"\no \"cavallo di battaglia\". {{delay20}}Ma anche le\nlontre sono furbe e sanno lottare!{{color id=\"65535\"}}"
  },
  {
    "label": "189",
    "attribute": "0x00010000",
    "text": "{{color id=\"1\"}}Sei mai stat{{gender2 m=\"o\" f=\"a\"}} nel povero relitto\nderelitto di una nave, squalett{{gender2 m=\"o\" f=\"a\"}}?\n{{delay20}}Che diletto il relitto!{{color id=\"65535\"}}"
  },
  {
    "label": "190",
    "attribute": "0x00010000",
    "text": "{{color id=\"1\"}}Hai presente il \"sudoku\"?{{delay20}} Avrà\nquesto nome perché per risolverlo\ndevi farti una bella sudata?{{color id=\"65535\"}}"
  },
  {
    "label": "191",
    "attribute": "0x00010000",
    "text": "{{color id=\"1\"}}Dicono che ieri sia passato,{{delay8}}\nma io lo vedo ancora sul mio\ncalendario, squalett{{gender2 m=\"o\" f=\"a\"}}.{{color id=\"65535\"}}"
  },
  {
    "label": "192",
    "attribute": "0x00010000",
    "text": "{{color id=\"1\"}}Molti cercano di prendere la strada\npiù facile, {{delay8}}ma questo vuol dire che\ntroveranno un sacco di traffico{{string value=\"...\"}}{{color id=\"65535\"}}"
  },
  {
    "label": "193",
    "attribute": "0x00010000",
    "text": "{{color id=\"1\"}}Se il plurale di \"uomo\" è \"uomini\",{{delay8}}\nperché il plurale di \"duomo\" non\nè \"duomini\", squalett{{gender2 m=\"o\" f=\"a\"}}?{{color id=\"65535\"}}"
  },
  {
    "label": "194",
    "attribute": "0x00010000",
    "text": "{{color id=\"1\"}}Ho letto un libro sulla gravità{{string value=\"...\"}}\nArgomento interessante,{{delay8}} ma di\nuna certa pesantezza, ti dirò.{{color id=\"65535\"}}"
  },
  {
    "label": "195",
    "attribute": "0x00010000",
    "text": "{{color id=\"1\"}}Ma chi fa da sé fa per tre{{delay8}} oppure\nl'unione fa la forza?{{delay20}} Sono confuso,\nsqualett{{gender2 m=\"o\" f=\"a\"}}!{{color id=\"65535\"}}"
  },
  {
    "label": "196",
    "attribute": "0x00010000",
    "text": "{{color id=\"1\"}}Hai mai provato ad affidare a un\ngufo la tua posta?{{delay8}} È terribile, perché\nconsegna solo di notte!{{color id=\"65535\"}}"
  },
  {
    "label": "197",
    "attribute": "0x00010000",
    "text": "{{color id=\"1\"}}Chi getta la spazzatura nell'oceano{{delay8}}\nsarebbe felice di ritrovarsela nel\nproprio giardino?{{color id=\"65535\"}}"
  },
  {
    "label": "198",
    "attribute": "0x00010000",
    "text": "{{color id=\"1\"}}Per me, i calzini rimasti soli finiscono\nin una dimensione parallela, {{delay8}}dove poi\ntrovano il calzino gemello perduto{{string value=\"...\"}}{{color id=\"65535\"}}"
  },
  {
    "label": "199",
    "attribute": "0x00010000",
    "text": "{{color id=\"1\"}}È inutile piangere sul latte versato,\ndicono{{string value=\"...\"}} Anche perché sai quanto\nci metteresti ad asciugare tutto, poi?{{color id=\"65535\"}}"
  },
  {
    "label": "200",
    "attribute": "0x00010000",
    "text": "{{color id=\"1\"}}Se mangi la pastasciutta\nsul bagnasciuga, {{delay8}}alla fine\nè ancora pastasciutta?{{color id=\"65535\"}}"
  },
  {
    "label": "201",
    "attribute": "0x00010000",
    "text": "{{color id=\"1\"}}Ma se i conti non tornano, {{delay8}}i duchi,\ni baroni e tutti gli altri che cosa\nfanno? {{delay20}}Vanno via o li aspettano?{{color id=\"65535\"}}"
  },
  {
    "label": "202",
    "attribute": "0x00010000",
    "text": "{{color id=\"1\"}}Ma se a un uomo viene il mal\ndi mare, {{delay8}}al mare viene il mal\ndi uomo, squalett{{gender2 m=\"o\" f=\"a\"}}?{{color id=\"65535\"}}"
  },
  {
    "label": "203",
    "attribute": "0x00010000",
    "text": "{{color id=\"1\"}}Secondo te il tostapane si chiama\ncosì perché rende il pane tosto,\n{{delay20}}mentre prima era uno smidollato?{{color id=\"65535\"}}"
  },
  {
    "label": "204",
    "attribute": "0x00010000",
    "text": "{{color id=\"1\"}}Non ti sembra mai che il mondo\nsia una ruota {{delay8}}e noi dei criceti che\nci corriamo dentro senza meta?{{color id=\"65535\"}}"
  },
  {
    "label": "205",
    "attribute": "0x00010000",
    "text": "{{color id=\"1\"}}Stile libero e dorso sono facili{{string value=\"...\"}} ma\nrana, delfino e farfalla? {{delay20}}Io sono una\nlontra, squalett{{gender2 m=\"o\" f=\"a\"}}!{{color id=\"65535\"}}"
  },
  {
    "label": "206",
    "attribute": "0x00010000",
    "text": "{{color id=\"1\"}}Studiare termodinamica e \"scaldare\nla sedia\" a scuola sono due cose\nmolto diverse, squalett{{gender2 m=\"o\" f=\"a\"}}{{string value=\"...\"}}{{color id=\"65535\"}}"
  },
  {
    "label": "207",
    "attribute": "0x00010000",
    "text": "{{color id=\"1\"}}Ma se lasci degli avanzi sul\ndavanzale della finestra{{string value=\"...\"}}\ndiventano \"davanzi\"?{{color id=\"65535\"}}"
  },
  {
    "label": "208",
    "attribute": "0x00010000",
    "text": "{{color id=\"1\"}}La foca e l'oca sono completamente\ndiverse, {{delay8}}eppure le divide solo una\nlettera{{string value=\"...\"}}{{delay8}} Ci hai mai pensato?{{color id=\"65535\"}}"
  },
  {
    "label": "209",
    "attribute": "0x00010000",
    "text": "{{color id=\"1\"}}Si dice \"essere muto come un pesce\"\ned \"essere sano come un pesce\", {{delay8}}ma\nnon si parla mai delle lontre{{string value=\"...\"}}{{color id=\"65535\"}}"
  },
  {
    "label": "210",
    "attribute": "0x00010000",
    "text": "{{color id=\"1\"}}Una volta ho visto lo spettacolo di\nun pesce pagliaccio. {{delay20}}È stato un vero\nspasso, anche se un po' silenzioso.{{color id=\"65535\"}}"
  },
  {
    "label": "211",
    "attribute": "0x00010000",
    "text": "{{color id=\"1\"}}Vuoi attirare delle lontre? {{delay8}}Basta\nuna bella mongolfiera a forma di\ncapasanta. {{delay20}}Vedrai come corrono!{{color id=\"65535\"}}"
  },
  {
    "label": "212",
    "attribute": "0x00010000",
    "text": "{{color id=\"1\"}}A volte non ci serve un eroe, {{delay8}}ma\nsolo un fattorino che ci porti una\npizza fumante, squalett{{gender2 m=\"o\" f=\"a\"}}.{{color id=\"65535\"}}"
  },
  {
    "label": "213",
    "attribute": "0x00010000",
    "text": "{{color id=\"1\"}}Gli squali andranno dal dentista?\n{{delay20}}Chissà quanto devono pagare per\nuna semplice otturazione{{string value=\"...\"}}{{color id=\"65535\"}}"
  },
  {
    "label": "214",
    "attribute": "0x00010000",
    "text": "{{i10_12}}{{color id=\"1\"}}Le stelle nel cielo guarderanno le\nstelle marine dall'alto in basso?{{color id=\"65535\"}}"
  },
  {
    "label": "215",
    "attribute": "0x00010000",
    "text": "{{color id=\"1\"}}Ho la lavatrice e l'asciugatrice, {{delay8}}ma\nquello che mi servirebbe davvero è\nla mettiviatrice.{{color id=\"65535\"}}"
  },
  {
    "label": "216",
    "attribute": "0x00010000",
    "text": "{{color id=\"1\"}}Perché si chiamano \"posate\" se per\nmangiare devi tirarle su dal tavolo,\nsqualett{{gender2 m=\"o\" f=\"a\"}}?{{color id=\"65535\"}}"
  },
  {
    "label": "217",
    "attribute": "0x00010000",
    "text": "{{color id=\"1\"}}È impossibile spedire i boomerang.{{delay20}}\nNon importa quanti francobolli ci\nmetti{{string value=\"...\"}} tornano sempre indietro.{{color id=\"65535\"}}"
  },
  {
    "label": "218",
    "attribute": "0x00010000",
    "text": "{{color id=\"1\"}}Sai qual è il colmo per un asino,\nsqualett{{gender2 m=\"o\" f=\"a\"}}? {{delay20}}Avere una febbre da\ncavallo!{{color id=\"65535\"}}"
  },
  {
    "label": "219",
    "attribute": "0x00010000",
    "text": "{{color id=\"1\"}}Ecco uno dei grandi misteri della\nvita: {{delay20}}il pomodoro è un frutto o un\nortaggio?{{color id=\"65535\"}}"
  },
  {
    "label": "220",
    "attribute": "0x00010000",
    "text": "{{color id=\"1\"}}La matematica non è un'opinione,\nsqualett{{gender2 m=\"o\" f=\"a\"}}. {{delay20}}Ma qualcuno ha mai\nchiesto un'opinione alla matematica?{{color id=\"65535\"}}"
  },
  {
    "label": "221",
    "attribute": "0x00010000",
    "text": "{{color id=\"1\"}}Quando guardi a lungo nell'abisso,\nl'abisso ti guarda dentro, {{delay8}}dicono{{string value=\"...\"}}\nIo tanto non ho nulla da nascondere.{{color id=\"65535\"}}"
  },
  {
    "label": "222",
    "attribute": "0x00010000",
    "text": "{{color id=\"1\"}}Se la varietà è il sale della vita,\n{{delay20}}allora gli amici devono proprio\nessere {{fun_00010032 arg=\"\"}}{{randomSweets}}.{{color id=\"65535\"}}"
  },
  {
    "label": "223",
    "attribute": "0x00010000",
    "text": "{{color id=\"1\"}}Se passi una notte in bianco a causa\ndi un umore nero, {{delay20}}vuol dire che alla\nfine hai trascorso una notte grigia?{{color id=\"65535\"}}"
  },
  {
    "label": "224",
    "attribute": "0x00010000",
    "text": "{{color id=\"1\"}}Il formaggio non è altro che latte{{delay8}}\nche ha avuto la fortuna di invecchiare\nper bene, squalett{{gender2 m=\"o\" f=\"a\"}}.{{color id=\"65535\"}}"
  },
  {
    "label": "225",
    "attribute": "0x00010000",
    "text": "{{color id=\"1\"}}Non credere a quelli che dicono che\nci si possa arrampicare sugli specchi.\n{{delay20}}Io ci ho provato, è impossibile!{{color id=\"65535\"}}"
  },
  {
    "label": "226",
    "attribute": "0x00010000",
    "text": "{{color id=\"1\"}}La prossima volta che ti senti giù,\nchiediti:{{delay8}} sono triste o mi serve solo\nmangiare un piattone di capesante?{{color id=\"65535\"}}"
  },
  {
    "label": "227",
    "attribute": "0x00010000",
    "text": "{{color id=\"1\"}}Perché i pianeti hanno i nomi degli\nantichi dèi greci, squalett{{gender2 m=\"o\" f=\"a\"}}? {{delay20}}Perché\nnon i nomi delle pizze?{{color id=\"65535\"}}"
  },
  {
    "label": "228",
    "attribute": "0x00010000",
    "text": "{{color id=\"1\"}}Quando si dice \"mettere all'indice\",\n{{delay20}}significa che qualcuno finisce nel\nsommario di un libro, squalett{{gender2 m=\"o\" f=\"a\"}}?{{color id=\"65535\"}}"
  },
  {
    "label": "229",
    "attribute": "0x00010000",
    "text": "{{i10_12}}{{color id=\"1\"}}Perché i quadri si chiamano così\nanche quando sono rettangolari?{{color id=\"65535\"}}"
  },
  {
    "label": "230",
    "attribute": "0x00010000",
    "text": "{{color id=\"1\"}}Io cerco sempre di parlare con i\nfiori, {{delay8}}ma ancora non ho imparato\nla loro lingua{{string value=\"...\"}}{{color id=\"65535\"}}"
  },
  {
    "label": "231",
    "attribute": "0x00010000",
    "text": "{{color id=\"1\"}}Quando cerchi fossili, {{delay8}}ti capita mai\ndi pensare in quale museo finirai tu\nun giorno, squalett{{gender2 m=\"o\" f=\"a\"}}?{{color id=\"65535\"}}"
  },
  {
    "label": "232",
    "attribute": "0x00010000",
    "text": "{{i10_12}}{{color id=\"1\"}}L'importante non è da dove parti,\nsqualett{{gender2 m=\"o\" f=\"a\"}}, {{delay8}}ma dove arrivi.{{color id=\"65535\"}}"
  },
  {
    "label": "233",
    "attribute": "0x00010000",
    "text": "{{i10_12}}{{color id=\"1\"}}Sappi che i tonni non si chiamano\ncosì perché pesano tonnellate{{string value=\"...\"}}{{color id=\"65535\"}}"
  },
  {
    "label": "234",
    "attribute": "0x00010000",
    "text": "{{color id=\"1\"}}Non giudicare un libro dalla\ncopertina, squalett{{gender2 m=\"o\" f=\"a\"}}. {{delay20}}Almeno\nleggi la dedica.{{color id=\"65535\"}}"
  },
  {
    "label": "235",
    "attribute": "0x00010000",
    "text": "{{color id=\"1\"}}L'altro giorno la gente continuava \na dirmi che avevo messo la maglia\nal contrario{{string value=\"...\"}} ma a me piaceva così.{{color id=\"65535\"}}"
  },
  {
    "label": "236",
    "attribute": "0x00010000",
    "text": "{{color id=\"1\"}}Non dare retta a chi ti dice che sei\nfals{{gender2 m=\"o\" f=\"a\"}}. {{delay20}}Tutto ciò che fai è vero! {{delay8}}A\nmeno che tu non sia un ologramma.{{color id=\"65535\"}}"
  },
  {
    "label": "237",
    "attribute": "0x00010000",
    "text": "{{color id=\"1\"}}La moglie del lavandino sarà\nla lavandina {{delay20}}e il marito della\nlampadina il lampadino, squalett{{gender2 m=\"o\" f=\"a\"}}?{{color id=\"65535\"}}"
  },
  {
    "label": "238",
    "attribute": "0x00010000",
    "text": "{{color id=\"1\"}}Un vero amico ti dice se hai del cibo\nincastrato tra i denti, squalett{{gender2 m=\"o\" f=\"a\"}}{{string value=\"...\"}} E\nti dà pure del filo interdentale!{{color id=\"65535\"}}"
  },
  {
    "label": "239",
    "attribute": "0x00010000",
    "text": "{{color id=\"1\"}}Ho sognato che una capasanta mi\nmangiava. {{delay20}}Ma una volta sveglio, ho\npensato che fosse giusto così.{{color id=\"65535\"}}"
  },
  {
    "label": "240",
    "attribute": "0x00010000",
    "text": "{{color id=\"1\"}}La parola è d'argento, ma il silenzio\nè d'oro{{string value=\"...\"}} E di bronzo non c'è nulla,\nsqualett{{gender2 m=\"o\" f=\"a\"}}?{{color id=\"65535\"}}"
  },
  {
    "label": "241",
    "attribute": "0x00010000",
    "text": "{{color id=\"1\"}}Ma se nasci quadrato, {{delay8}}poi crescendo\npuoi diventare esagonale o magari\ntondo, squalett{{gender2 m=\"o\" f=\"a\"}}?{{color id=\"65535\"}}"
  },
  {
    "label": "242",
    "attribute": "0x00010000",
    "text": "{{i10_12}}{{color id=\"1\"}}Una pepita d'oro non è altro che\nuna roccia che si è rifatta il look.{{color id=\"65535\"}}"
  },
  {
    "label": "243",
    "attribute": "0x00010000",
    "text": "{{color id=\"1\"}}Parlare è facile, {{delay8}}ma è quando\nsi deve ascoltare qualcuno che\nle cose cambiano, squalett{{gender2 m=\"o\" f=\"a\"}}.{{color id=\"65535\"}}"
  },
  {
    "label": "244",
    "attribute": "0x00010000",
    "text": "{{color id=\"1\"}}I libri sono come bocche piene di\ncentinaia di lingue di carta{{string value=\"...\"}} e tutte\ncon qualcosa d'importante da dire.{{color id=\"65535\"}}"
  },
  {
    "label": "245",
    "attribute": "0x00010000",
    "text": "{{color id=\"1\"}}Dicono che nulla sia più veloce\ndella luce, {{delay8}}ma io mi chiedo: {{delay20}}dove\ndeve andare così di fretta?{{color id=\"65535\"}}"
  },
  {
    "label": "246",
    "attribute": "0x00010000",
    "text": "{{color id=\"1\"}}Dicono che la bellezza sia negli\nocchi di chi guarda, {{delay8}}ma ci sarà\nancora spazio per qualcos'altro?{{color id=\"65535\"}}"
  },
  {
    "label": "247",
    "attribute": "0x00010000",
    "text": "{{color id=\"1\"}}Pare che le idee migliori vengano\nfacendosi la doccia. {{delay20}}Ecco perché\nio sto tutto il tempo in acqua!{{color id=\"65535\"}}"
  },
  {
    "label": "248",
    "attribute": "0x00010000",
    "text": "{{color id=\"1\"}}A volte mi chiedo se il cielo non sia\nla terra su cui camminiamo a testa\nin giù, squalett{{gender2 m=\"o\" f=\"a\"}}!{{color id=\"65535\"}}"
  },
  {
    "label": "249",
    "attribute": "0x00010000",
    "text": "{{color id=\"1\"}}Gli occhi sono come delle finestre\nda cui il cervello può guardare fuori,\nsqualett{{gender2 m=\"o\" f=\"a\"}}!{{color id=\"65535\"}}"
  },
  {
    "label": "250",
    "attribute": "0x00010000",
    "text": "{{color id=\"1\"}}{{i10_12}}La verità non è mai gratis.\n{{delay20}}Ma a volte è molto scontata.{{color id=\"65535\"}}"
  },
  {
    "label": "251",
    "attribute": "0x00010000",
    "text": "{{color id=\"1\"}}Tu lo sai qual è il suono di una sola\nzampa che applaude? {{delay20}}Nel mio caso\nè \"splish, splash\", squalett{{gender2 m=\"o\" f=\"a\"}}{{string value=\"...\"}}{{color id=\"65535\"}}"
  },
  {
    "label": "252",
    "attribute": "0x00010000",
    "text": "{{i10_12}}{{color id=\"1\"}}Le rocce sono praticamente\nle ostriche della terraferma.{{color id=\"65535\"}}"
  },
  {
    "label": "253",
    "attribute": "0x00010000",
    "text": "{{color id=\"1\"}}Se sei felice e lo sai, batti le zampe{{string value=\"...\"}}\nMa se lo sa qualcun altro anziché io,\n{{delay8}}posso batterle lo stesso?{{color id=\"65535\"}}"
  },
  {
    "label": "254",
    "attribute": "0x00010000",
    "text": "{{color id=\"1\"}}La vita è come un'ostrica gigante{{string value=\"...\"}}\nNo, aspetta, {{delay8}}mi sto confondendo\ncon quello che vorrei per cena.{{color id=\"65535\"}}"
  },
  {
    "label": "255",
    "attribute": "0x00010000",
    "text": "{{i10_12}}{{color id=\"1\"}}Se segui un percorso circolare,{{delay8}} non\nfinirai mai di seguirlo, squalett{{gender2 m=\"o\" f=\"a\"}}!{{color id=\"65535\"}}"
  },
  {
    "label": "256",
    "attribute": "0x00010000",
    "text": "{{color id=\"1\"}}I draghi non sono altro che lucertole\nche sono riuscite a esaudire i propri\nsogni, squalett{{gender2 m=\"o\" f=\"a\"}}{{string value=\"...\"}}{{color id=\"65535\"}}"
  },
  {
    "label": "257",
    "attribute": "0x00010000",
    "text": "{{color id=\"1\"}}{{i10_12}}Nessuno proietta un'ombra quando\nè buio, squalett{{gender2 m=\"o\" f=\"a\"}}! {{delay20}}Non è pazzesco?{{color id=\"65535\"}}"
  },
  {
    "label": "258",
    "attribute": "0x00010000",
    "text": "{{color id=\"1\"}}Ma se le stelle e i pianeti sono\nsospesi nello spazio,{{delay20}} lo spazio\nè sospeso in cosa?{{color id=\"65535\"}}"
  },
  {
    "label": "259",
    "attribute": "0x00010000",
    "text": "{{color id=\"1\"}}Sai qual è il colmo per un marinaio,\nsqualett{{gender2 m=\"o\" f=\"a\"}}? {{delay20}}Salpare con il morale a\nterra!{{color id=\"65535\"}}"
  },
  {
    "label": "260",
    "attribute": "0x00010000",
    "text": "{{color id=\"1\"}}Sai qual è la differenza tra un\nmasso e un granello di sabbia?\n{{delay20}}Beh, {{delay8}}le dimensioni, no?{{color id=\"65535\"}}"
  },
  {
    "label": "261",
    "attribute": "0x00010000",
    "text": "{{color id=\"1\"}}La gente si chiede sempre dove vada\na finire il tempo,{{delay8}} ma io lo so:{{delay20}} c'è un\ndeposito tempo usato dove vivo{{string value=\"...\"}}{{color id=\"65535\"}}"
  },
  {
    "label": "262",
    "attribute": "0x00010000",
    "text": "{{color id=\"1\"}}I sogni sono come film del tuo\ninconscio. {{delay20}}Grandi classici e ultime\nuscite, {{delay8}}ci trovi di tutto!{{color id=\"65535\"}}"
  },
  {
    "label": "263",
    "attribute": "0x00010000",
    "text": "{{color id=\"1\"}}I fossili sono ossa trasformate\nin rocce {{delay8}}o le ossa sono rocce che\nnon accettano la loro vera natura?{{color id=\"65535\"}}"
  },
  {
    "label": "264",
    "attribute": "0x00010000",
    "text": "{{color id=\"1\"}}Chissà perché si dice \"schiacciare\nun pisolino\". {{delay20}}Povero pisolino, non\nsi lamenta mai?{{color id=\"65535\"}}"
  },
  {
    "label": "265",
    "attribute": "0x00010000",
    "text": "{{i10_12}}{{color id=\"1\"}}Invidio i cani che si mordono la\ncoda. {{delay20}}Io non ci riesco, squalett{{gender2 m=\"o\" f=\"a\"}}.{{color id=\"65535\"}}"
  },
  {
    "label": "266",
    "attribute": "0x00010000",
    "text": "{{color id=\"1\"}}I polpi hanno otto braccia. {{delay8}}Sai cosa\nsignifica, squalett{{gender2 m=\"o\" f=\"a\"}}? {{delay20}}Otto capesante\ncontemporaneamente!{{color id=\"65535\"}}"
  },
  {
    "label": "267",
    "attribute": "0x00010000",
    "text": "{{color id=\"1\"}}Dicono di pensare al futuro{{string value=\"...\"}} Ma poi\nquando diventa presente,{{delay8}} ci pensi\nancora{{delay8}} o pensi a un futuro{{string value=\"...\"}} futuro?{{color id=\"65535\"}}"
  },
  {
    "label": "268",
    "attribute": "0x00010000",
    "text": "{{color id=\"1\"}}Se sogni di mangiare carote{{delay8}} la tua\nvista migliora? {{delay20}}O solo mentre tieni\ngli occhi chiusi?{{color id=\"65535\"}}"
  },
  {
    "label": "269",
    "attribute": "0x00010000",
    "text": "{{color id=\"1\"}}Le terme sono vasche idromassaggio\nnaturali {{delay8}}e ospitano le rocce più\nrilassate del mondo, squalett{{gender2 m=\"o\" f=\"a\"}}.{{color id=\"65535\"}}"
  },
  {
    "label": "270",
    "attribute": "0x00010000",
    "text": "{{color id=\"1\"}}{{i10_12}}Le carpe faranno salti carpiati,\nsqualett{{gender2 m=\"o\" f=\"a\"}}?{{color id=\"65535\"}}"
  },
  {
    "label": "271",
    "attribute": "0x00010000",
    "text": "{{color id=\"1\"}}Gli alchimisti cercavano di tramutare\nil piombo in oro. {{delay20}}Povero piombo, mi\nfa pena. {{delay8}}Era un incompreso{{string value=\"...\"}}{{color id=\"65535\"}}"
  },
  {
    "label": "272",
    "attribute": "0x00010000",
    "text": "{{color id=\"1\"}}I leoni sono i re della giungla,{{delay8}} ma\nvivono nella savana.{{delay20}} Preferiranno\nregnare a distanza{{string value=\"...\"}}{{color id=\"65535\"}}"
  },
  {
    "label": "273",
    "attribute": "0x00010000",
    "text": "{{color id=\"1\"}}Il mare è salato, come le lacrime.{{delay20}}\nTi sei mai chiest{{gender2 m=\"o\" f=\"a\"}} se il mare sia\nsolo la Terra che sta piangendo?{{color id=\"65535\"}}"
  },
  {
    "label": "274",
    "attribute": "0x00010000",
    "text": "{{color id=\"1\"}}Il ghiaccio non è altro che acqua\nche ha smarrito il suo spirito\nd'avventura, {{delay8}}squalett{{gender2 m=\"o\" f=\"a\"}}.{{color id=\"65535\"}}"
  },
  {
    "label": "275",
    "attribute": "0x00010000",
    "text": "{{color id=\"1\"}}Un guscio duro,{{delay8}} latte all'interno,{{delay8}}\nun po' pelose{{string value=\"...\"}} Le noci di cocco\nsono davvero bizzarre, squalett{{gender2 m=\"o\" f=\"a\"}}.{{color id=\"65535\"}}"
  },
  {
    "label": "276",
    "attribute": "0x00010000",
    "text": "{{color id=\"1\"}}{{i10_12}}Se ogni stella fosse una candela{{string value=\"...\"}}\nla Terra sarebbe ricoperta di cera.{{color id=\"65535\"}}"
  },
  {
    "label": "277",
    "attribute": "0x00010000",
    "text": "{{color id=\"1\"}}Le stelle sono i pixel del cielo. {{delay20}}Tu\nche dici,{{delay8}} saranno in alta o in bassa\nrisoluzione?{{color id=\"65535\"}}"
  },
  {
    "label": "278",
    "attribute": "0x00010000",
    "text": "{{color id=\"1\"}}I serpenti non hanno arti{{string value=\"...\"}} ma\nper fortuna,{{delay8}} neanche gli arti hanno\nserpenti, squalett{{gender2 m=\"o\" f=\"a\"}}.{{color id=\"65535\"}}"
  },
  {
    "label": "279",
    "attribute": "0x00010000",
    "text": "{{i10_12}}{{color id=\"1\"}}Sai qual è il colmo per un ariete?\n{{delay20}}Essere del segno dello scorpione.{{color id=\"65535\"}}"
  },
  {
    "label": "280",
    "attribute": "0x00010000",
    "text": "{{color id=\"1\"}}Questo berretto mi abbraccia la testa\nda un sacco di tempo. {{delay20}}Mi è davvero\naffezionato.{{color id=\"65535\"}}"
  },
  {
    "label": "281",
    "attribute": "0x00010000",
    "text": "{{color id=\"1\"}}Sai qual è la differenza tra morale\ned etica, squalett{{gender2 m=\"o\" f=\"a\"}}? {{delay20}}Che una ha sei\nlettere e l'altra cinque.{{color id=\"65535\"}}"
  },
  {
    "label": "282",
    "attribute": "0x00010000",
    "text": "{{i10_12}}{{color id=\"1\"}}Sarà difficile domare i cavallucci\nmarini, squalett{{gender2 m=\"o\" f=\"a\"}}?{{color id=\"65535\"}}"
  },
  {
    "label": "283",
    "attribute": "0x00010000",
    "text": "{{color id=\"1\"}}Perché si dice \"in un baleno\" quando\nsi fa qualcosa in fretta? {{delay20}}Le balene\nnon mi sembrano tanto veloci{{string value=\"...\"}}{{color id=\"65535\"}}"
  },
  {
    "label": "284",
    "attribute": "0x00010000",
    "text": "{{color id=\"1\"}}Forse le statue sono dei tizi che\nnon hanno nessuna fretta di andare\nda qualche parte{{string value=\"...\"}}{{color id=\"65535\"}}"
  },
  {
    "label": "285",
    "attribute": "0x00010000",
    "text": "{{color id=\"1\"}}Le parole più grosse vengono\nsolitamente dalle persone più\npiccole, {{delay8}}squalett{{gender2 m=\"o\" f=\"a\"}}.{{color id=\"65535\"}}"
  },
  {
    "label": "286",
    "attribute": "0x00010000",
    "text": "{{color id=\"1\"}}I treni sanno sempre in che direzione\nandare{{string value=\"...\"}} anche perché non hanno\nmolta altra scelta, squalett{{gender2 m=\"o\" f=\"a\"}}.{{color id=\"65535\"}}"
  },
  {
    "label": "287",
    "attribute": "0x00010000",
    "text": "{{color id=\"1\"}}Se il sole non tramontasse mai,\n{{delay20}}non riusciremmo mai a vedere\ntutte le altre stelle, squalett{{gender2 m=\"o\" f=\"a\"}}.{{color id=\"65535\"}}"
  },
  {
    "label": "288",
    "attribute": "0x00010000",
    "text": "{{color id=\"1\"}}Tutti hanno dei problemi, squalett{{gender2 m=\"o\" f=\"a\"}}.\n{{delay20}}Ma il vero problema è quando ce lo\ndimentichiamo.{{delay20}} La chiave è l'empatia.{{color id=\"65535\"}}"
  },
  {
    "label": "289",
    "attribute": "0x00010000",
    "text": "{{color id=\"1\"}}Squalett{{gender2 m=\"o\" f=\"a\"}}, perché il pomodoro\nsi chiama così? {{delay20}}Non sarebbe più\ncorretto \"pomorosso\"?{{color id=\"65535\"}}"
  },
  {
    "label": "290",
    "attribute": "0x00010000",
    "text": "{{color id=\"1\"}}Hai mai provato a tuffarti in acqua\ndi pancia? {{delay20}}Se vuoi farti un tatuaggio\ntemporaneo,{{delay8}} non c'è nulla di meglio.{{color id=\"65535\"}}"
  },
  {
    "label": "291",
    "attribute": "0x00010000",
    "text": "{{color id=\"1\"}}Le scale sono sempre scale,\nsqualett{{gender2 m=\"o\" f=\"a\"}}. {{delay20}}Non importa come\ntu le salga.{{color id=\"65535\"}}"
  }
]