﻿[
  {
    "label": "001",
    "attribute": "0x00000000",
    "text": "{{anim id=\"Worried\" target=\"actor\" targetSpec=\"\"}}Жаль мне очень,{{delay20}} но мой магазин\nсегодня закрыт.{{delay frames=\"40\"}}{{anim id=\"Nodding\" target=\"actor\" targetSpec=\"\"}} В другой раз\nприходи.{{delay20}} Но пораньше."
  },
  {
    "label": "002",
    "attribute": "0x00000000",
    "text": "{{anim id=\"FaintSmile\" target=\"actor\" targetSpec=\"\"}}Здрасьте! {{delay20}}Я называюсь {{color id=\"3\"}}Сахара{{color id=\"65535\"}}.\nЯ ношу это имя столь же долго,\nсколь ношусь с этими коврами."
  },
  {
    "label": "003",
    "attribute": "0x00000000",
    "text": "{{anim id=\"FaintSmile\" target=\"actor\" targetSpec=\"\"}}Мое приветствие!{{delay20}} Ты, может быть,\nуже знаешь, как я называюсь,{{delay8}}\nа если нет, то знай:{{delay frames=\"40\"}}{{anim id=\"Nodding\" target=\"actor\" targetSpec=\"\"}} я {{color id=\"3\"}}Сахара{{color id=\"65535\"}}."
  },
  {
    "label": "004",
    "attribute": "0x00000000",
    "text": "{{anim id=\"Nodding\" target=\"actor\" targetSpec=\"\"}}Я привезла эти ковры из родного\nдома,{{delay20}} который далеко{{delay20}} от твоего\nдома,{{delay20}} который{{string value=\"...\"}}{{delay8}} тоже далеко.{{pageBreak}}{{anim id=\"FaintSmile\" target=\"actor\" targetSpec=\"\"}}Я открыла этот магазин, чтобы\nпродавать мои ковры{{delay8}} тебе и всем\nостальным.{{pageBreak}}{{anim id=\"Explain\" target=\"actor\" targetSpec=\"\"}}А еще у меня есть полы и обои.{{delay20}}\nУдивляющие очень!{{delay8}} Тебе должны\nнравиться! {{delay20}}{{anim id=\"QuestionMark\" target=\"actor\" targetSpec=\"\"}}Купишь?"
  },
  {
    "label": "005",
    "attribute": "0x00000000",
    "text": "{{anim id=\"FaintSmile\" target=\"actor\" targetSpec=\"\"}}Здрасьте!{{delay20}} Снова желание что-то\nкупить?{{delay frames=\"40\"}}{{anim id=\"Nodding\" target=\"actor\" targetSpec=\"\"}} Положи-ка глаз на мои\nчудо какие ковры{{delay8}}, обои{{delay8}} и полы."
  },
  {
    "label": "006",
    "attribute": "0x00000000",
    "text": "{{anim id=\"FaintSmile\" target=\"actor\" targetSpec=\"\"}}А, наши пути снова на перекрестке.{{delay20}}\n{{anim id=\"QuestionMark\" target=\"actor\" targetSpec=\"\"}}Хочешь ковер?{{delay20}}{{anim id=\"EmotEnd\" target=\"actor\" targetSpec=\"\"}} У меня даже есть\nзагадочный пол и обои!"
  },
  {
    "label": "007",
    "attribute": "0x00000000",
    "text": "{{anim id=\"Confused\" target=\"actor\" targetSpec=\"\"}}Ясно. Звона диней мне сегодня\nне услышать.{{delay frames=\"40\"}} {{anim id=\"Nodding\" target=\"actor\" targetSpec=\"\"}}Но у меня хороший\nтовар, приходи еще!"
  },
  {
    "label": "008",
    "attribute": "0x00000000",
    "text": "{{anim id=\"Smiling\" target=\"actor\" targetSpec=\"\"}}О, пусть содержимое твоего\nкошелька найдет обратную дорогу\nк моему магазину!{{delay frames=\"40\"}} {{anim id=\"Nodding\" target=\"actor\" targetSpec=\"\"}}До скорого!"
  },
  {
    "label": "009",
    "attribute": "0x02000000",
    "text": "За {{color id=\"1\"}}{{fun_00170032 arg=\"0x01CD\"}}{{fun_0000007D arg=\"0x0000\"}}{{color id=\"65535\"}} я хочу {{number value=\"BuyPrice\" index=\"0\"}}.{{delay20}} {{anim id=\"QuestionMark\" target=\"actor\" targetSpec=\"\"}}По рукам?"
  },
  {
    "label": "009_a",
    "attribute": "0x00000000",
    "text": "{{anim id=\"Nodding\" target=\"actor\" targetSpec=\"\"}}По рукам!"
  },
  {
    "label": "009_b",
    "attribute": "0x00000000",
    "text": "{{anim id=\"Negative\" target=\"actor\" targetSpec=\"\"}}Не в этот раз."
  },
  {
    "label": "010",
    "attribute": "0x00000000",
    "text": "{{anim id=\"Surprised\" target=\"actor\" targetSpec=\"\"}}Ох! Трагедия, однако.{{delay20}} {{anim id=\"Worried\" target=\"actor\" targetSpec=\"\"}}В карманах\nнет места для моих товаров!{{pageBreak}}{{anim id=\"FaintSmile\" target=\"actor\" targetSpec=\"\"}}Приходи, когда в карманах будет\nбольше пустоты."
  },
  {
    "label": "011",
    "attribute": "0x00000000",
    "text": "{{anim id=\"Surprised\" target=\"actor\" targetSpec=\"\"}}Не очень мне удобно говорить\nтакое. {{delay frames=\"30\"}}{{anim id=\"Negative\" target=\"actor\" targetSpec=\"\"}}Но диней у тебя явная\nнехватка!{{pageBreak}}{{anim id=\"Nodding\" target=\"actor\" targetSpec=\"\"}}За счастье владеть этими вещами{{delay8}}\nя прошу {{number value=\"BuyPrice\" index=\"0\"}}."
  },
  {
    "label": "012",
    "attribute": "0x00000000",
    "text": "Теперь давай, пожалуйста,\nдини за товар."
  },
  {
    "label": "013",
    "attribute": "0x00000000",
    "text": "{{anim id=\"QuestionMark\" target=\"actor\" targetSpec=\"\"}}Ну как, доволен твой кошелек?\nИли еще будешь покупать?"
  },
  {
    "label": "014",
    "attribute": "0x00000000",
    "text": "{{anim id=\"Worried\" target=\"actor\" targetSpec=\"\"}}Как жаль!{{delay20}} Сегодня звон твоих диней\nне станет музыкой для моих ушей."
  },
  {
    "label": "015",
    "attribute": "0x00000000",
    "text": "{{anim id=\"QuestionMark\" target=\"actor\" targetSpec=\"\"}}Твой кошелек теперь спокоен{{delay8}} или\nпосмотришь другие мои товары?"
  },
  {
    "label": "016",
    "attribute": "0x00000000",
    "text": "{{fun_0014003C arg=\"\"}}"
  },
  {
    "label": "016_01",
    "attribute": "0x00000000",
    "text": "{{anim id=\"Smiling\" target=\"actor\" targetSpec=\"\"}}Ты будешь рад{{gender2 m=\"\" f=\"а\"}} товару. {{delay frames=\"30\"}}Я буду рада\nтяжелому кошельку.{{delay frames=\"30\"}} Все будут\nрады. Счастье нас переполнит."
  },
  {
    "label": "016_02",
    "attribute": "0x00000000",
    "text": "{{anim id=\"Smiling\" target=\"actor\" targetSpec=\"\"}}Когда покупатель улыбается,{{delay8}}\nмое сердце и кошелек становятся\nбольше."
  },
  {
    "label": "016_03",
    "attribute": "0x00000000",
    "text": "{{anim id=\"Smiling\" target=\"actor\" targetSpec=\"\"}}Прошу, радуйся покупке, сколько\nесть силы."
  }
]