﻿[
  {
    "label": "000_00_0",
    "text": "{{wordInfo gender=\"1\" indefArticle=\"1\" defArticle=\"8\"}}Avannotto"
  },
  {
    "label": "000_00_1",
    "text": "{{wordInfo gender=\"2\" indefArticle=\"4\" defArticle=\"8\"}}Avannotta"
  },
  {
    "label": "000_01_0",
    "text": "{{wordInfo gender=\"1\" indefArticle=\"1\" defArticle=\"5\"}}Fan della pesca"
  },
  {
    "label": "000_01_1",
    "text": "{{wordInfo gender=\"2\" indefArticle=\"3\" defArticle=\"7\"}}Fan della pesca"
  },
  {
    "label": "000_02_0",
    "text": "{{wordInfo gender=\"1\" indefArticle=\"1\" defArticle=\"5\"}}Tipo da spiaggia"
  },
  {
    "label": "000_02_1",
    "text": "{{wordInfo gender=\"2\" indefArticle=\"3\" defArticle=\"7\"}}Tipa da spiaggia"
  },
  {
    "label": "000_03_0",
    "text": "{{wordInfo gender=\"1\" indefArticle=\"1\" defArticle=\"5\"}}Pescatore"
  },
  {
    "label": "000_03_1",
    "text": "{{wordInfo gender=\"2\" indefArticle=\"3\" defArticle=\"7\"}}Pescatrice"
  },
  {
    "label": "000_04_0",
    "text": "{{wordInfo gender=\"2\" indefArticle=\"3\" defArticle=\"7\"}}Preda del giorno"
  },
  {
    "label": "000_04_1",
    "text": "{{fun_00040055 arg=\"\"}}"
  },
  {
    "label": "001_00_0",
    "text": "{{wordInfo gender=\"1\" indefArticle=\"1\" defArticle=\"8\"}}Uovo"
  },
  {
    "label": "001_00_1",
    "text": "{{fun_00040055 arg=\"\"}}"
  },
  {
    "label": "001_01_0",
    "text": "{{wordInfo gender=\"2\" indefArticle=\"3\" defArticle=\"7\"}}Larva"
  },
  {
    "label": "001_01_1",
    "text": "{{fun_00040055 arg=\"\"}}"
  },
  {
    "label": "001_02_0",
    "text": "{{wordInfo gender=\"2\" indefArticle=\"3\" defArticle=\"7\"}}Crisalide"
  },
  {
    "label": "001_02_1",
    "text": "{{fun_00040055 arg=\"\"}}"
  },
  {
    "label": "001_03_0",
    "text": "{{wordInfo gender=\"2\" indefArticle=\"3\" defArticle=\"7\"}}Farfalla"
  },
  {
    "label": "001_03_1",
    "text": "{{fun_00040055 arg=\"\"}}"
  },
  {
    "label": "001_04_0",
    "text": "{{wordInfo gender=\"2\" indefArticle=\"3\" defArticle=\"7\"}}Metamorfosi"
  },
  {
    "label": "001_04_1",
    "text": "{{fun_00040055 arg=\"\"}}"
  },
  {
    "label": "002_00_0",
    "text": "{{wordInfo gender=\"1\" indefArticle=\"1\" defArticle=\"5\"}}Pesce"
  },
  {
    "label": "002_00_1",
    "text": "{{fun_00040055 arg=\"\"}}"
  },
  {
    "label": "002_01_0",
    "text": "{{wordInfo gender=\"2\" indefArticle=\"3\" defArticle=\"7\"}}Frenesia"
  },
  {
    "label": "002_01_1",
    "text": "{{fun_00040055 arg=\"\"}}"
  },
  {
    "label": "002_02_0",
    "text": "{{wordInfo gender=\"2\" indefArticle=\"3\" defArticle=\"7\"}}Forma di vita"
  },
  {
    "label": "002_02_1",
    "text": "{{fun_00040055 arg=\"\"}}"
  },
  {
    "label": "003_00_0",
    "text": "{{wordInfo gender=\"2\" indefArticle=\"4\" defArticle=\"8\"}}Eminenza grigia"
  },
  {
    "label": "003_00_1",
    "text": "{{fun_00040055 arg=\"\"}}"
  },
  {
    "label": "003_01_0",
    "text": "{{wordInfo gender=\"1\" indefArticle=\"1\" defArticle=\"8\"}}Asso dell'esca"
  },
  {
    "label": "003_01_1",
    "text": "{{fun_00040055 arg=\"\"}}"
  },
  {
    "label": "003_02_0",
    "text": "{{wordInfo gender=\"1\" indefArticle=\"1\" defArticle=\"5\"}}Pesce tropicale"
  },
  {
    "label": "003_02_1",
    "text": "{{fun_00040055 arg=\"\"}}"
  },
  {
    "label": "003_03_0",
    "text": "{{wordInfo gender=\"2\" indefArticle=\"3\" defArticle=\"7\"}}Reazione"
  },
  {
    "label": "003_03_1",
    "text": "{{fun_00040055 arg=\"\"}}"
  },
  {
    "label": "003_04_0",
    "text": "{{wordInfo gender=\"1\" indefArticle=\"1\" defArticle=\"8\"}}Esperto"
  },
  {
    "label": "003_04_1",
    "text": "{{wordInfo gender=\"2\" indefArticle=\"4\" defArticle=\"8\"}}Esperta"
  },
  {
    "label": "004_00_0",
    "text": "{{wordInfo gender=\"1\" indefArticle=\"1\" defArticle=\"8\"}}Entomologo"
  },
  {
    "label": "004_00_1",
    "text": "{{wordInfo gender=\"2\" indefArticle=\"4\" defArticle=\"8\"}}Entomologa"
  },
  {
    "label": "004_01_0",
    "text": "{{wordInfo gender=\"1\" indefArticle=\"1\" defArticle=\"8\"}}Insettino"
  },
  {
    "label": "004_01_1",
    "text": "{{wordInfo gender=\"2\" indefArticle=\"4\" defArticle=\"8\"}}Insettina"
  },
  {
    "label": "004_02_0",
    "text": "{{wordInfo gender=\"2\" indefArticle=\"3\" defArticle=\"7\"}}Vespa"
  },
  {
    "label": "004_02_1",
    "text": "{{fun_00040055 arg=\"\"}}"
  },
  {
    "label": "004_03_0",
    "text": "{{wordInfo gender=\"2\" indefArticle=\"3\" defArticle=\"7\"}}Creatura"
  },
  {
    "label": "004_03_1",
    "text": "{{fun_00040055 arg=\"\"}}"
  },
  {
    "label": "004_04_0",
    "text": "{{wordInfo gender=\"2\" indefArticle=\"3\" defArticle=\"7\"}}Bestiola"
  },
  {
    "label": "004_04_1",
    "text": "{{fun_00040055 arg=\"\"}}"
  },
  {
    "label": "005_00_0",
    "text": "{{wordInfo gender=\"1\" indefArticle=\"1\" defArticle=\"8\"}}Asso della fionda"
  },
  {
    "label": "005_00_1",
    "text": "{{fun_00040055 arg=\"\"}}"
  },
  {
    "label": "005_01_0",
    "text": "{{wordInfo gender=\"1\" indefArticle=\"2\" defArticle=\"6\"}}Svolazzatore"
  },
  {
    "label": "005_01_1",
    "text": "{{wordInfo gender=\"2\" indefArticle=\"3\" defArticle=\"7\"}}Svolazzatrice"
  },
  {
    "label": "005_02_0",
    "text": "{{wordInfo gender=\"1\" indefArticle=\"1\" defArticle=\"5\"}}Cacciatore"
  },
  {
    "label": "005_02_1",
    "text": "{{wordInfo gender=\"2\" indefArticle=\"3\" defArticle=\"7\"}}Cacciatrice"
  },
  {
    "label": "005_03_0",
    "text": "{{wordInfo gender=\"1\" indefArticle=\"1\" defArticle=\"5\"}}Paradiso"
  },
  {
    "label": "005_03_1",
    "text": "{{fun_00040055 arg=\"\"}}"
  },
  {
    "label": "005_04_0",
    "text": "{{wordInfo gender=\"1\" indefArticle=\"1\" defArticle=\"5\"}}Vagabondo"
  },
  {
    "label": "005_04_1",
    "text": "{{wordInfo gender=\"2\" indefArticle=\"3\" defArticle=\"7\"}}Vagabonda"
  },
  {
    "label": "006_00_0",
    "text": "{{wordInfo gender=\"1\" indefArticle=\"1\" defArticle=\"5\"}}Fiore"
  },
  {
    "label": "006_00_1",
    "text": "{{fun_00040055 arg=\"\"}}"
  },
  {
    "label": "006_01_0",
    "text": "{{wordInfo gender=\"2\" indefArticle=\"3\" defArticle=\"7\"}}Rosa"
  },
  {
    "label": "006_01_1",
    "text": "{{fun_00040055 arg=\"\"}}"
  },
  {
    "label": "006_02_0",
    "text": "{{wordInfo gender=\"1\" indefArticle=\"1\" defArticle=\"5\"}}Balsamo"
  },
  {
    "label": "006_02_1",
    "text": "{{fun_00040055 arg=\"\"}}"
  },
  {
    "label": "006_03_0",
    "text": "{{wordInfo gender=\"1\" indefArticle=\"1\" defArticle=\"5\"}}Bocciolo"
  },
  {
    "label": "006_03_1",
    "text": "{{fun_00040055 arg=\"\"}}"
  },
  {
    "label": "006_04_0",
    "text": "{{wordInfo gender=\"1\" indefArticle=\"2\" defArticle=\"6\"}}Sposo"
  },
  {
    "label": "006_04_1",
    "text": "{{wordInfo gender=\"2\" indefArticle=\"3\" defArticle=\"7\"}}Sposa"
  },
  {
    "label": "007_00_0",
    "text": "{{wordInfo gender=\"2\" indefArticle=\"4\" defArticle=\"8\"}}Altra metà"
  },
  {
    "label": "007_00_1",
    "text": "{{fun_00040055 arg=\"\"}}"
  },
  {
    "label": "007_01_0",
    "text": "{{wordInfo gender=\"2\" indefArticle=\"3\" defArticle=\"7\"}}Matricola"
  },
  {
    "label": "007_01_1",
    "text": "{{fun_00040055 arg=\"\"}}"
  },
  {
    "label": "007_02_0",
    "text": "{{wordInfo gender=\"2\" indefArticle=\"3\" defArticle=\"7\"}}Pera"
  },
  {
    "label": "007_02_1",
    "text": "{{fun_00040055 arg=\"\"}}"
  },
  {
    "label": "007_03_0",
    "text": "{{wordInfo gender=\"2\" indefArticle=\"3\" defArticle=\"7\"}}Stella"
  },
  {
    "label": "007_03_1",
    "text": "{{fun_00040055 arg=\"\"}}"
  },
  {
    "label": "007_04_0",
    "text": "{{wordInfo gender=\"1\" indefArticle=\"1\" defArticle=\"5\"}}Mr. Popolarità"
  },
  {
    "label": "007_04_1",
    "text": "{{wordInfo gender=\"2\" indefArticle=\"3\" defArticle=\"7\"}}Miss Popolarità"
  },
  {
    "label": "007_05_0",
    "text": "{{wordInfo gender=\"2\" indefArticle=\"3\" defArticle=\"7\"}}Noce di cocco"
  },
  {
    "label": "007_05_1",
    "text": "{{fun_00040055 arg=\"\"}}"
  },
  {
    "label": "008_00_0",
    "text": "{{wordInfo gender=\"1\" indefArticle=\"1\" defArticle=\"5\"}}Difensore"
  },
  {
    "label": "008_00_1",
    "text": "{{wordInfo gender=\"2\" indefArticle=\"3\" defArticle=\"7\"}}Difenditrice"
  },
  {
    "label": "008_01_0",
    "text": "{{wordInfo gender=\"1\" indefArticle=\"1\" defArticle=\"5\"}}Nutrizionista"
  },
  {
    "label": "008_01_1",
    "text": "{{wordInfo gender=\"2\" indefArticle=\"3\" defArticle=\"7\"}}Nutrizionista"
  },
  {
    "label": "008_02_0",
    "text": "{{wordInfo gender=\"1\" indefArticle=\"2\" defArticle=\"6\"}}Starnuto"
  },
  {
    "label": "008_02_1",
    "text": "{{fun_00040055 arg=\"\"}}"
  },
  {
    "label": "009_00_0",
    "text": "{{wordInfo gender=\"1\" indefArticle=\"1\" defArticle=\"8\"}}Azionista"
  },
  {
    "label": "009_00_1",
    "text": "{{wordInfo gender=\"2\" indefArticle=\"4\" defArticle=\"8\"}}Azionista"
  },
  {
    "label": "010_00_0",
    "text": "{{wordInfo gender=\"1\" indefArticle=\"2\" defArticle=\"6\"}}Speculatore"
  },
  {
    "label": "010_00_1",
    "text": "{{wordInfo gender=\"2\" indefArticle=\"3\" defArticle=\"7\"}}Speculatrice"
  },
  {
    "label": "010_01_0",
    "text": "{{wordInfo gender=\"1\" indefArticle=\"1\" defArticle=\"5\"}}Benestante"
  },
  {
    "label": "010_01_1",
    "text": "{{wordInfo gender=\"2\" indefArticle=\"3\" defArticle=\"7\"}}Benestante"
  },
  {
    "label": "010_02_0",
    "text": "{{wordInfo gender=\"1\" indefArticle=\"1\" defArticle=\"8\"}}Imprenditore"
  },
  {
    "label": "010_02_1",
    "text": "{{wordInfo gender=\"2\" indefArticle=\"4\" defArticle=\"8\"}}Imprenditrice"
  },
  {
    "label": "010_03_0",
    "text": "{{wordInfo gender=\"1\" indefArticle=\"2\" defArticle=\"6\"}}Stellionario"
  },
  {
    "label": "010_03_1",
    "text": "{{wordInfo gender=\"2\" indefArticle=\"3\" defArticle=\"7\"}}Stellionaria"
  },
  {
    "label": "010_04_0",
    "text": "{{wordInfo gender=\"1\" indefArticle=\"1\" defArticle=\"5\"}}Riparatore"
  },
  {
    "label": "010_04_1",
    "text": "{{wordInfo gender=\"2\" indefArticle=\"3\" defArticle=\"7\"}}Riparatrice"
  },
  {
    "label": "011_00_0",
    "text": "{{wordInfo gender=\"1\" indefArticle=\"1\" defArticle=\"5\"}}Patito dello shopping"
  },
  {
    "label": "011_00_1",
    "text": "{{wordInfo gender=\"2\" indefArticle=\"3\" defArticle=\"7\"}}Patita dello shopping"
  },
  {
    "label": "011_01_0",
    "text": "{{wordInfo gender=\"1\" indefArticle=\"1\" defArticle=\"5\"}}Familiare"
  },
  {
    "label": "011_01_1",
    "text": "{{fun_00040055 arg=\"\"}}"
  },
  {
    "label": "011_02_0",
    "text": "{{wordInfo gender=\"2\" indefArticle=\"3\" defArticle=\"7\"}}Personalità"
  },
  {
    "label": "011_02_1",
    "text": "{{fun_00040055 arg=\"\"}}"
  },
  {
    "label": "011_03_0",
    "text": "{{wordInfo gender=\"2\" indefArticle=\"3\" defArticle=\"7\"}}Celebrità"
  },
  {
    "label": "011_03_1",
    "text": "{{fun_00040055 arg=\"\"}}"
  },
  {
    "label": "011_04_0",
    "text": "{{wordInfo gender=\"1\" indefArticle=\"1\" defArticle=\"5\"}}VIP"
  },
  {
    "label": "011_04_1",
    "text": "{{wordInfo gender=\"2\" indefArticle=\"3\" defArticle=\"7\"}}VIP"
  },
  {
    "label": "012_00_0",
    "text": "{{wordInfo gender=\"1\" indefArticle=\"1\" defArticle=\"5\"}}Fruitore"
  },
  {
    "label": "012_00_1",
    "text": "{{wordInfo gender=\"2\" indefArticle=\"3\" defArticle=\"7\"}}Fruitrice"
  },
  {
    "label": "013_00_0",
    "text": "{{wordInfo gender=\"1\" indefArticle=\"2\" defArticle=\"6\"}}Spendaccione"
  },
  {
    "label": "013_00_1",
    "text": "{{wordInfo gender=\"2\" indefArticle=\"3\" defArticle=\"7\"}}Spendacciona"
  },
  {
    "label": "014_00_0",
    "text": "{{wordInfo gender=\"1\" indefArticle=\"1\" defArticle=\"8\"}}Eccentrico"
  },
  {
    "label": "014_00_1",
    "text": "{{wordInfo gender=\"2\" indefArticle=\"4\" defArticle=\"8\"}}Eccentrica"
  },
  {
    "label": "014_01_0",
    "text": "{{wordInfo gender=\"1\" indefArticle=\"1\" defArticle=\"8\"}}Avversario"
  },
  {
    "label": "014_01_1",
    "text": "{{wordInfo gender=\"2\" indefArticle=\"4\" defArticle=\"8\"}}Avversaria"
  },
  {
    "label": "014_02_0",
    "text": "{{wordInfo gender=\"1\" indefArticle=\"1\" defArticle=\"8\"}}Ingegnere"
  },
  {
    "label": "014_02_1",
    "text": "{{wordInfo gender=\"2\" indefArticle=\"4\" defArticle=\"8\"}}Ingegnere"
  },
  {
    "label": "014_03_0",
    "text": "{{wordInfo gender=\"1\" indefArticle=\"1\" defArticle=\"5\"}}Tuttofare"
  },
  {
    "label": "014_03_1",
    "text": "{{wordInfo gender=\"2\" indefArticle=\"3\" defArticle=\"7\"}}Tuttofare"
  },
  {
    "label": "014_04_0",
    "text": "{{wordInfo gender=\"1\" indefArticle=\"1\" defArticle=\"8\"}}Ispiratore"
  },
  {
    "label": "014_04_1",
    "text": "{{wordInfo gender=\"2\" indefArticle=\"4\" defArticle=\"8\"}}Ispiratrice"
  },
  {
    "label": "015_00_0",
    "text": "{{wordInfo gender=\"1\" indefArticle=\"1\" defArticle=\"5\"}}Consumista"
  },
  {
    "label": "015_00_1",
    "text": "{{wordInfo gender=\"2\" indefArticle=\"3\" defArticle=\"7\"}}Consumista"
  },
  {
    "label": "015_01_0",
    "text": "{{wordInfo gender=\"1\" indefArticle=\"1\" defArticle=\"5\"}}Forzuto"
  },
  {
    "label": "015_01_1",
    "text": "{{wordInfo gender=\"2\" indefArticle=\"3\" defArticle=\"7\"}}Forzuta"
  },
  {
    "label": "015_02_0",
    "text": "{{wordInfo gender=\"1\" indefArticle=\"1\" defArticle=\"5\"}}Collezionista"
  },
  {
    "label": "015_02_1",
    "text": "{{wordInfo gender=\"2\" indefArticle=\"3\" defArticle=\"7\"}}Collezionista"
  },
  {
    "label": "015_03_0",
    "text": "{{wordInfo gender=\"1\" indefArticle=\"1\" defArticle=\"8\"}}Avatar"
  },
  {
    "label": "015_03_1",
    "text": "{{fun_00040055 arg=\"\"}}"
  },
  {
    "label": "015_04_0",
    "text": "{{wordInfo gender=\"1\" indefArticle=\"1\" defArticle=\"5\"}}Dizionario"
  },
  {
    "label": "015_04_1",
    "text": "{{fun_00040055 arg=\"\"}}"
  },
  {
    "label": "016_00_0",
    "text": "{{wordInfo gender=\"1\" indefArticle=\"1\" defArticle=\"5\"}}Navigatore"
  },
  {
    "label": "016_00_1",
    "text": "{{wordInfo gender=\"2\" indefArticle=\"3\" defArticle=\"7\"}}Navigatrice"
  },
  {
    "label": "016_01_0",
    "text": "{{wordInfo gender=\"1\" indefArticle=\"1\" defArticle=\"5\"}}Recensore"
  },
  {
    "label": "016_01_1",
    "text": "{{wordInfo gender=\"2\" indefArticle=\"3\" defArticle=\"7\"}}Recensora"
  },
  {
    "label": "016_02_0",
    "text": "{{wordInfo gender=\"1\" indefArticle=\"1\" defArticle=\"8\"}}Utente"
  },
  {
    "label": "016_02_1",
    "text": "{{wordInfo gender=\"2\" indefArticle=\"4\" defArticle=\"8\"}}Utente"
  },
  {
    "label": "016_03_0",
    "text": "{{wordInfo gender=\"1\" indefArticle=\"1\" defArticle=\"8\"}}Ansioso"
  },
  {
    "label": "016_03_1",
    "text": "{{wordInfo gender=\"2\" indefArticle=\"4\" defArticle=\"8\"}}Ansiosa"
  },
  {
    "label": "016_04_0",
    "text": "{{wordInfo gender=\"1\" indefArticle=\"1\" defArticle=\"5\"}}Pezzo grosso"
  },
  {
    "label": "016_04_1",
    "text": "{{fun_00040055 arg=\"\"}}"
  },
  {
    "label": "017_00_0",
    "text": "{{wordInfo gender=\"1\" indefArticle=\"1\" defArticle=\"8\"}}Amante della musica"
  },
  {
    "label": "017_00_1",
    "text": "{{wordInfo gender=\"2\" indefArticle=\"4\" defArticle=\"8\"}}Amante della musica"
  },
  {
    "label": "017_01_0",
    "text": "{{wordInfo gender=\"1\" indefArticle=\"1\" defArticle=\"5\"}}Sostenitore"
  },
  {
    "label": "017_01_1",
    "text": "{{wordInfo gender=\"2\" indefArticle=\"3\" defArticle=\"7\"}}Sostenitrice"
  },
  {
    "label": "017_02_0",
    "text": "{{wordInfo gender=\"1\" indefArticle=\"1\" defArticle=\"5\"}}Fan"
  },
  {
    "label": "017_02_1",
    "text": "{{wordInfo gender=\"2\" indefArticle=\"3\" defArticle=\"7\"}}Fan"
  },
  {
    "label": "017_03_0",
    "text": "{{wordInfo gender=\"2\" indefArticle=\"3\" defArticle=\"7\"}}Stella del pop"
  },
  {
    "label": "017_03_1",
    "text": "{{fun_00040055 arg=\"\"}}"
  },
  {
    "label": "017_04_0",
    "text": "{{wordInfo gender=\"1\" indefArticle=\"1\" defArticle=\"8\"}}Ammiratore"
  },
  {
    "label": "017_04_1",
    "text": "{{wordInfo gender=\"2\" indefArticle=\"4\" defArticle=\"8\"}}Ammiratrice"
  },
  {
    "label": "018_00_0",
    "text": "{{wordInfo gender=\"2\" indefArticle=\"3\" defArticle=\"7\"}}Persona"
  },
  {
    "label": "018_00_1",
    "text": "{{fun_00040055 arg=\"\"}}"
  },
  {
    "label": "018_01_0",
    "text": "{{wordInfo gender=\"1\" indefArticle=\"1\" defArticle=\"5\"}}Turista"
  },
  {
    "label": "018_01_1",
    "text": "{{wordInfo gender=\"2\" indefArticle=\"3\" defArticle=\"7\"}}Turista"
  },
  {
    "label": "018_02_0",
    "text": "{{wordInfo gender=\"1\" indefArticle=\"1\" defArticle=\"5\"}}Viandante"
  },
  {
    "label": "018_02_1",
    "text": "{{wordInfo gender=\"2\" indefArticle=\"3\" defArticle=\"7\"}}Viandante"
  },
  {
    "label": "019_00_0",
    "text": "{{wordInfo gender=\"1\" indefArticle=\"1\" defArticle=\"8\"}}Amico"
  },
  {
    "label": "019_00_1",
    "text": "{{wordInfo gender=\"2\" indefArticle=\"4\" defArticle=\"8\"}}Amica"
  },
  {
    "label": "019_01_0",
    "text": "{{wordInfo gender=\"1\" indefArticle=\"1\" defArticle=\"5\"}}Compagnone"
  },
  {
    "label": "019_01_1",
    "text": "{{wordInfo gender=\"2\" indefArticle=\"3\" defArticle=\"7\"}}Compagnona"
  },
  {
    "label": "019_02_0",
    "text": "{{wordInfo gender=\"1\" indefArticle=\"1\" defArticle=\"5\"}}Festaiolo"
  },
  {
    "label": "019_02_1",
    "text": "{{wordInfo gender=\"2\" indefArticle=\"3\" defArticle=\"7\"}}Festaiola"
  },
  {
    "label": "021_00_0",
    "text": "{{wordInfo gender=\"2\" indefArticle=\"4\" defArticle=\"8\"}}Anima placida"
  },
  {
    "label": "021_00_1",
    "text": "{{fun_00040055 arg=\"\"}}"
  },
  {
    "label": "021_01_0",
    "text": "{{wordInfo gender=\"1\" indefArticle=\"2\" defArticle=\"6\"}}Specialista"
  },
  {
    "label": "021_01_1",
    "text": "{{wordInfo gender=\"2\" indefArticle=\"3\" defArticle=\"7\"}}Specialista"
  },
  {
    "label": "021_02_0",
    "text": "{{wordInfo gender=\"1\" indefArticle=\"1\" defArticle=\"8\"}}Avventuriero"
  },
  {
    "label": "021_02_1",
    "text": "{{wordInfo gender=\"2\" indefArticle=\"4\" defArticle=\"8\"}}Avventuriera"
  },
  {
    "label": "021_03_0",
    "text": "{{wordInfo gender=\"1\" indefArticle=\"1\" defArticle=\"5\"}}Videogiocatore"
  },
  {
    "label": "021_03_1",
    "text": "{{wordInfo gender=\"2\" indefArticle=\"3\" defArticle=\"7\"}}Videogiocatrice"
  },
  {
    "label": "021_04_0",
    "text": "{{wordInfo gender=\"1\" indefArticle=\"1\" defArticle=\"5\"}}Fuoriclasse"
  },
  {
    "label": "021_04_1",
    "text": "{{wordInfo gender=\"2\" indefArticle=\"3\" defArticle=\"7\"}}Fuoriclasse"
  },
  {
    "label": "023_00_0",
    "text": "{{wordInfo gender=\"1\" indefArticle=\"1\" defArticle=\"5\"}}Custode"
  },
  {
    "label": "023_00_1",
    "text": "{{wordInfo gender=\"2\" indefArticle=\"3\" defArticle=\"7\"}}Custode"
  },
  {
    "label": "023_01_0",
    "text": "{{wordInfo gender=\"1\" indefArticle=\"1\" defArticle=\"5\"}}Sorvegliante"
  },
  {
    "label": "023_01_1",
    "text": "{{wordInfo gender=\"2\" indefArticle=\"3\" defArticle=\"7\"}}Sorvegliante"
  },
  {
    "label": "023_02_0",
    "text": "{{wordInfo gender=\"1\" indefArticle=\"1\" defArticle=\"5\"}}Giardiniere"
  },
  {
    "label": "023_02_1",
    "text": "{{wordInfo gender=\"2\" indefArticle=\"3\" defArticle=\"7\"}}Giardiniera"
  },
  {
    "label": "023_03_0",
    "text": "{{wordInfo gender=\"1\" indefArticle=\"1\" defArticle=\"5\"}}Capogruppo"
  },
  {
    "label": "023_03_1",
    "text": "{{wordInfo gender=\"2\" indefArticle=\"3\" defArticle=\"7\"}}Capogruppo"
  },
  {
    "label": "023_04_0",
    "text": "{{wordInfo gender=\"1\" indefArticle=\"1\" defArticle=\"5\"}}Comandante"
  },
  {
    "label": "023_04_1",
    "text": "{{wordInfo gender=\"2\" indefArticle=\"3\" defArticle=\"7\"}}Comandante"
  },
  {
    "label": "024_00_0",
    "text": "{{wordInfo gender=\"1\" indefArticle=\"1\" defArticle=\"5\"}}Piagnucolone"
  },
  {
    "label": "024_00_1",
    "text": "{{wordInfo gender=\"2\" indefArticle=\"3\" defArticle=\"7\"}}Piagnucolona"
  },
  {
    "label": "025_00_0",
    "text": "{{wordInfo gender=\"2\" indefArticle=\"4\" defArticle=\"8\"}}Entità"
  },
  {
    "label": "025_00_1",
    "text": "{{fun_00040055 arg=\"\"}}"
  },
  {
    "label": "026_00_0",
    "text": "{{wordInfo gender=\"2\" indefArticle=\"3\" defArticle=\"7\"}}Piccola peste"
  },
  {
    "label": "026_00_1",
    "text": "{{fun_00040055 arg=\"\"}}"
  },
  {
    "label": "026_01_0",
    "text": "{{wordInfo gender=\"1\" indefArticle=\"1\" defArticle=\"5\"}}Precisino"
  },
  {
    "label": "026_01_1",
    "text": "{{wordInfo gender=\"2\" indefArticle=\"3\" defArticle=\"7\"}}Precisina"
  },
  {
    "label": "026_02_0",
    "text": "{{wordInfo gender=\"1\" indefArticle=\"1\" defArticle=\"5\"}}Personaggio"
  },
  {
    "label": "026_02_1",
    "text": "{{fun_00040055 arg=\"\"}}"
  },
  {
    "label": "027_00_0",
    "text": "{{wordInfo gender=\"2\" indefArticle=\"3\" defArticle=\"7\"}}Fenice"
  },
  {
    "label": "027_00_1",
    "text": "{{fun_00040055 arg=\"\"}}"
  },
  {
    "label": "031_00_0",
    "text": "{{wordInfo gender=\"1\" indefArticle=\"1\" defArticle=\"5\"}}Neofita"
  },
  {
    "label": "031_00_1",
    "text": "{{wordInfo gender=\"2\" indefArticle=\"3\" defArticle=\"7\"}}Neofita"
  },
  {
    "label": "031_01_0",
    "text": "{{wordInfo gender=\"1\" indefArticle=\"1\" defArticle=\"5\"}}Ballerino"
  },
  {
    "label": "031_01_1",
    "text": "{{wordInfo gender=\"2\" indefArticle=\"3\" defArticle=\"7\"}}Ballerina"
  },
  {
    "label": "031_02_0",
    "text": "{{wordInfo gender=\"1\" indefArticle=\"1\" defArticle=\"5\"}}Semiprofessionista"
  },
  {
    "label": "031_02_1",
    "text": "{{wordInfo gender=\"2\" indefArticle=\"3\" defArticle=\"7\"}}Semiprofessionista"
  },
  {
    "label": "031_03_0",
    "text": "{{wordInfo gender=\"1\" indefArticle=\"1\" defArticle=\"8\"}}Umorista"
  },
  {
    "label": "031_03_1",
    "text": "{{wordInfo gender=\"2\" indefArticle=\"4\" defArticle=\"8\"}}Umorista"
  },
  {
    "label": "031_04_0",
    "text": "{{wordInfo gender=\"2\" indefArticle=\"3\" defArticle=\"7\"}}Mega star"
  },
  {
    "label": "031_04_1",
    "text": "{{fun_00040055 arg=\"\"}}"
  },
  {
    "label": "032_00_0",
    "text": "{{wordInfo gender=\"2\" indefArticle=\"3\" defArticle=\"7\"}}Pattumiera"
  },
  {
    "label": "032_00_1",
    "text": "{{fun_00040055 arg=\"\"}}"
  },
  {
    "label": "032_01_0",
    "text": "{{wordInfo gender=\"1\" indefArticle=\"1\" defArticle=\"8\"}}Ecologista"
  },
  {
    "label": "032_01_1",
    "text": "{{wordInfo gender=\"2\" indefArticle=\"4\" defArticle=\"8\"}}Ecologista"
  },
  {
    "label": "032_02_0",
    "text": "{{wordInfo gender=\"1\" indefArticle=\"1\" defArticle=\"5\"}}Pulitore"
  },
  {
    "label": "032_02_1",
    "text": "{{wordInfo gender=\"2\" indefArticle=\"3\" defArticle=\"7\"}}Pulitrice"
  },
  {
    "label": "033_00_0",
    "text": "{{wordInfo gender=\"1\" indefArticle=\"2\" defArticle=\"6\"}}Stile di vita"
  },
  {
    "label": "033_00_1",
    "text": "{{fun_00040055 arg=\"\"}}"
  },
  {
    "label": "034_00_0",
    "text": "{{wordInfo gender=\"1\" indefArticle=\"1\" defArticle=\"5\"}}Pagatore"
  },
  {
    "label": "034_00_1",
    "text": "{{wordInfo gender=\"2\" indefArticle=\"3\" defArticle=\"7\"}}Pagatrice"
  },
  {
    "label": "035_00_0",
    "text": "{{wordInfo gender=\"1\" indefArticle=\"1\" defArticle=\"8\"}}Artista"
  },
  {
    "label": "035_00_1",
    "text": "{{wordInfo gender=\"2\" indefArticle=\"4\" defArticle=\"8\"}}Artista"
  },
  {
    "label": "036_00_0",
    "text": "{{wordInfo gender=\"1\" indefArticle=\"1\" defArticle=\"5\"}}Designer"
  },
  {
    "label": "036_00_1",
    "text": "{{wordInfo gender=\"2\" indefArticle=\"3\" defArticle=\"7\"}}Designer"
  },
  {
    "label": "037_00_0",
    "text": "{{wordInfo gender=\"2\" indefArticle=\"3\" defArticle=\"7\"}}Gramigna"
  },
  {
    "label": "037_00_1",
    "text": "{{fun_00040055 arg=\"\"}}"
  },
  {
    "label": "037_01_0",
    "text": "{{wordInfo gender=\"1\" indefArticle=\"1\" defArticle=\"5\"}}Guardiano"
  },
  {
    "label": "037_01_1",
    "text": "{{wordInfo gender=\"2\" indefArticle=\"3\" defArticle=\"7\"}}Guardiana"
  },
  {
    "label": "037_02_0",
    "text": "{{wordInfo gender=\"1\" indefArticle=\"2\" defArticle=\"6\"}}Smistatore"
  },
  {
    "label": "037_02_1",
    "text": "{{wordInfo gender=\"2\" indefArticle=\"3\" defArticle=\"7\"}}Smistatrice"
  },
  {
    "label": "037_03_0",
    "text": "{{wordInfo gender=\"1\" indefArticle=\"1\" defArticle=\"5\"}}Germoglio"
  },
  {
    "label": "037_03_1",
    "text": "{{fun_00040055 arg=\"\"}}"
  },
  {
    "label": "037_04_0",
    "text": "{{wordInfo gender=\"2\" indefArticle=\"3\" defArticle=\"7\"}}Belva"
  },
  {
    "label": "037_04_1",
    "text": "{{fun_00040055 arg=\"\"}}"
  },
  {
    "label": "039_00_0",
    "text": "{{wordInfo gender=\"1\" indefArticle=\"1\" defArticle=\"5\"}}Gioiello"
  },
  {
    "label": "039_00_1",
    "text": "{{fun_00040055 arg=\"\"}}"
  },
  {
    "label": "039_01_0",
    "text": "{{wordInfo gender=\"1\" indefArticle=\"1\" defArticle=\"5\"}}Luminare"
  },
  {
    "label": "039_01_1",
    "text": "{{wordInfo gender=\"2\" indefArticle=\"3\" defArticle=\"7\"}}Luminare"
  },
  {
    "label": "039_02_0",
    "text": "{{wordInfo gender=\"1\" indefArticle=\"1\" defArticle=\"5\"}}Miracolo"
  },
  {
    "label": "039_02_1",
    "text": "{{fun_00040055 arg=\"\"}}"
  },
  {
    "label": "039_03_0",
    "text": "{{wordInfo gender=\"1\" indefArticle=\"1\" defArticle=\"5\"}}Principe"
  },
  {
    "label": "039_03_1",
    "text": "{{wordInfo gender=\"2\" indefArticle=\"3\" defArticle=\"7\"}}Principessa"
  },
  {
    "label": "039_04_0",
    "text": "{{wordInfo gender=\"1\" indefArticle=\"1\" defArticle=\"8\"}}Imperatore"
  },
  {
    "label": "039_04_1",
    "text": "{{wordInfo gender=\"2\" indefArticle=\"4\" defArticle=\"8\"}}Imperatrice"
  },
  {
    "label": "039_05_0",
    "text": "{{wordInfo gender=\"1\" indefArticle=\"1\" defArticle=\"8\"}}Essere supremo"
  },
  {
    "label": "039_05_1",
    "text": "{{fun_00040055 arg=\"\"}}"
  },
  {
    "label": "040_00_0",
    "text": "{{wordInfo gender=\"1\" indefArticle=\"1\" defArticle=\"5\"}}Perfettino"
  },
  {
    "label": "040_00_1",
    "text": "{{wordInfo gender=\"2\" indefArticle=\"3\" defArticle=\"7\"}}Perfettina"
  },
  {
    "label": "041_00_0",
    "text": "{{wordInfo gender=\"1\" indefArticle=\"2\" defArticle=\"6\"}}Spirito libero"
  },
  {
    "label": "041_00_1",
    "text": "{{fun_00040055 arg=\"\"}}"
  },
  {
    "label": "041_01_0",
    "text": "{{wordInfo gender=\"1\" indefArticle=\"1\" defArticle=\"5\"}}Freddolone"
  },
  {
    "label": "041_01_1",
    "text": "{{wordInfo gender=\"2\" indefArticle=\"3\" defArticle=\"7\"}}Freddolona"
  },
  {
    "label": "041_02_0",
    "text": "{{wordInfo gender=\"1\" indefArticle=\"1\" defArticle=\"5\"}}Giocherellone"
  },
  {
    "label": "041_02_1",
    "text": "{{wordInfo gender=\"2\" indefArticle=\"3\" defArticle=\"7\"}}Giocherellona"
  },
  {
    "label": "041_03_0",
    "text": "{{wordInfo gender=\"1\" indefArticle=\"1\" defArticle=\"5\"}}Calorifero"
  },
  {
    "label": "041_03_1",
    "text": "{{fun_00040055 arg=\"\"}}"
  },
  {
    "label": "042_00_0",
    "text": "{{wordInfo gender=\"1\" indefArticle=\"1\" defArticle=\"5\"}}Giovane"
  },
  {
    "label": "042_00_1",
    "text": "{{wordInfo gender=\"2\" indefArticle=\"3\" defArticle=\"7\"}}Giovane"
  },
  {
    "label": "042_01_0",
    "text": "{{wordInfo gender=\"1\" indefArticle=\"1\" defArticle=\"5\"}}Ribelle"
  },
  {
    "label": "042_01_1",
    "text": "{{wordInfo gender=\"2\" indefArticle=\"3\" defArticle=\"7\"}}Ribelle"
  },
  {
    "label": "042_02_0",
    "text": "{{wordInfo gender=\"1\" indefArticle=\"1\" defArticle=\"5\"}}Lupo"
  },
  {
    "label": "042_02_1",
    "text": "{{wordInfo gender=\"2\" indefArticle=\"3\" defArticle=\"7\"}}Lupa"
  },
  {
    "label": "042_03_0",
    "text": "{{wordInfo gender=\"2\" indefArticle=\"3\" defArticle=\"7\"}}Personcina"
  },
  {
    "label": "042_03_1",
    "text": "{{fun_00040055 arg=\"\"}}"
  },
  {
    "label": "043_00_0",
    "text": "{{wordInfo gender=\"1\" indefArticle=\"1\" defArticle=\"5\"}}Volatile"
  },
  {
    "label": "043_00_1",
    "text": "{{fun_00040055 arg=\"\"}}"
  },
  {
    "label": "043_01_0",
    "text": "{{wordInfo gender=\"1\" indefArticle=\"2\" defArticle=\"6\"}}Smarrito"
  },
  {
    "label": "043_01_1",
    "text": "{{wordInfo gender=\"2\" indefArticle=\"3\" defArticle=\"7\"}}Smarrita"
  },
  {
    "label": "043_02_0",
    "text": "{{wordInfo gender=\"1\" indefArticle=\"1\" defArticle=\"8\"}}Uccello migratore"
  },
  {
    "label": "043_02_1",
    "text": "{{fun_00040055 arg=\"\"}}"
  },
  {
    "label": "044_00_0",
    "text": "{{wordInfo gender=\"1\" indefArticle=\"1\" defArticle=\"5\"}}Fantasma"
  },
  {
    "label": "044_00_1",
    "text": "{{fun_00040055 arg=\"\"}}"
  },
  {
    "label": "044_01_0",
    "text": "{{wordInfo gender=\"2\" indefArticle=\"4\" defArticle=\"8\"}}Anima"
  },
  {
    "label": "044_01_1",
    "text": "{{fun_00040055 arg=\"\"}}"
  },
  {
    "label": "044_02_0",
    "text": "{{wordInfo gender=\"2\" indefArticle=\"4\" defArticle=\"8\"}}Anima gemella"
  },
  {
    "label": "044_02_1",
    "text": "{{fun_00040055 arg=\"\"}}"
  },
  {
    "label": "045_00_0",
    "text": "{{wordInfo gender=\"1\" indefArticle=\"1\" defArticle=\"8\"}}Elfo"
  },
  {
    "label": "045_00_1",
    "text": "{{wordInfo gender=\"2\" indefArticle=\"4\" defArticle=\"8\"}}Elfa"
  },
  {
    "label": "045_01_0",
    "text": "{{wordInfo gender=\"1\" indefArticle=\"1\" defArticle=\"8\"}}Angelo"
  },
  {
    "label": "045_01_1",
    "text": "{{fun_00040055 arg=\"\"}}"
  },
  {
    "label": "045_02_0",
    "text": "{{wordInfo gender=\"1\" indefArticle=\"1\" defArticle=\"5\"}}Folletto"
  },
  {
    "label": "045_02_1",
    "text": "{{fun_00040055 arg=\"\"}}"
  },
  {
    "label": "046_00_0",
    "text": "{{wordInfo gender=\"1\" indefArticle=\"1\" defArticle=\"5\"}}Festeggiato"
  },
  {
    "label": "046_00_1",
    "text": "{{wordInfo gender=\"2\" indefArticle=\"3\" defArticle=\"7\"}}Festeggiata"
  },
  {
    "label": "047_00_0",
    "text": "{{wordInfo gender=\"1\" indefArticle=\"1\" defArticle=\"8\"}}Animale da festa"
  },
  {
    "label": "047_00_1",
    "text": "{{fun_00040055 arg=\"\"}}"
  },
  {
    "label": "047_01_0",
    "text": "{{wordInfo gender=\"1\" indefArticle=\"1\" defArticle=\"5\"}}Ragazzino"
  },
  {
    "label": "047_01_1",
    "text": "{{wordInfo gender=\"2\" indefArticle=\"3\" defArticle=\"7\"}}Ragazzina"
  },
  {
    "label": "047_02_0",
    "text": "{{wordInfo gender=\"1\" indefArticle=\"1\" defArticle=\"8\"}}Adulto"
  },
  {
    "label": "047_02_1",
    "text": "{{wordInfo gender=\"2\" indefArticle=\"4\" defArticle=\"8\"}}Adulta"
  },
  {
    "label": "048_00_0",
    "text": "{{wordInfo gender=\"1\" indefArticle=\"1\" defArticle=\"8\"}}Animatore"
  },
  {
    "label": "048_00_1",
    "text": "{{wordInfo gender=\"2\" indefArticle=\"4\" defArticle=\"8\"}}Animatrice"
  },
  {
    "label": "049_00_0",
    "text": "{{wordInfo gender=\"1\" indefArticle=\"1\" defArticle=\"5\"}}Pagliaccio"
  },
  {
    "label": "049_00_1",
    "text": "{{fun_00040055 arg=\"\"}}"
  },
  {
    "label": "049_01_0",
    "text": "{{wordInfo gender=\"1\" indefArticle=\"1\" defArticle=\"5\"}}Distruttore"
  },
  {
    "label": "049_01_1",
    "text": "{{wordInfo gender=\"2\" indefArticle=\"3\" defArticle=\"7\"}}Distruttrice"
  },
  {
    "label": "049_02_0",
    "text": "{{wordInfo gender=\"1\" indefArticle=\"1\" defArticle=\"5\"}}Teppistello"
  },
  {
    "label": "049_02_1",
    "text": "{{wordInfo gender=\"2\" indefArticle=\"3\" defArticle=\"7\"}}Teppistella"
  },
  {
    "label": "049_03_0",
    "text": "{{wordInfo gender=\"1\" indefArticle=\"1\" defArticle=\"5\"}}Briccone"
  },
  {
    "label": "049_03_1",
    "text": "{{wordInfo gender=\"2\" indefArticle=\"3\" defArticle=\"7\"}}Briccona"
  },
  {
    "label": "049_04_0",
    "text": "{{wordInfo gender=\"1\" indefArticle=\"1\" defArticle=\"5\"}}Devastatore"
  },
  {
    "label": "049_04_1",
    "text": "{{wordInfo gender=\"2\" indefArticle=\"3\" defArticle=\"7\"}}Devastatrice"
  },
  {
    "label": "050_00_0",
    "text": "{{wordInfo gender=\"1\" indefArticle=\"1\" defArticle=\"5\"}}Ragazzo"
  },
  {
    "label": "050_00_1",
    "text": "{{wordInfo gender=\"2\" indefArticle=\"3\" defArticle=\"7\"}}Ragazza"
  },
  {
    "label": "050_01_0",
    "text": "{{wordInfo gender=\"1\" indefArticle=\"2\" defArticle=\"6\"}}Studente"
  },
  {
    "label": "050_01_1",
    "text": "{{wordInfo gender=\"2\" indefArticle=\"3\" defArticle=\"7\"}}Studentessa"
  },
  {
    "label": "050_02_0",
    "text": "{{wordInfo gender=\"1\" indefArticle=\"1\" defArticle=\"5\"}}Poeta"
  },
  {
    "label": "050_02_1",
    "text": "{{wordInfo gender=\"2\" indefArticle=\"3\" defArticle=\"7\"}}Poetessa"
  },
  {
    "label": "050_03_0",
    "text": "{{wordInfo gender=\"1\" indefArticle=\"1\" defArticle=\"8\"}}Autoctono"
  },
  {
    "label": "050_03_1",
    "text": "{{wordInfo gender=\"2\" indefArticle=\"4\" defArticle=\"8\"}}Autoctona"
  },
  {
    "label": "050_04_0",
    "text": "{{wordInfo gender=\"1\" indefArticle=\"2\" defArticle=\"6\"}}Scrittore"
  },
  {
    "label": "050_04_1",
    "text": "{{wordInfo gender=\"2\" indefArticle=\"3\" defArticle=\"7\"}}Scrittrice"
  },
  {
    "label": "051_00_0",
    "text": "{{wordInfo gender=\"1\" indefArticle=\"1\" defArticle=\"5\"}}Piantagrane"
  },
  {
    "label": "051_00_1",
    "text": "{{wordInfo gender=\"2\" indefArticle=\"3\" defArticle=\"7\"}}Piantagrane"
  },
  {
    "label": "052_00_0",
    "text": "{{wordInfo gender=\"1\" indefArticle=\"1\" defArticle=\"8\"}}Imprudente"
  },
  {
    "label": "052_00_1",
    "text": "{{wordInfo gender=\"2\" indefArticle=\"4\" defArticle=\"8\"}}Imprudente"
  },
  {
    "label": "053_00_0",
    "text": "{{wordInfo gender=\"1\" indefArticle=\"1\" defArticle=\"5\"}}Cliente"
  },
  {
    "label": "053_00_1",
    "text": "{{wordInfo gender=\"2\" indefArticle=\"3\" defArticle=\"7\"}}Cliente"
  },
  {
    "label": "054_00_0",
    "text": "{{wordInfo gender=\"1\" indefArticle=\"1\" defArticle=\"5\"}}Socio"
  },
  {
    "label": "054_00_1",
    "text": "{{wordInfo gender=\"2\" indefArticle=\"3\" defArticle=\"7\"}}Socia"
  },
  {
    "label": "054_01_0",
    "text": "{{wordInfo gender=\"1\" indefArticle=\"1\" defArticle=\"5\"}}Compare"
  },
  {
    "label": "054_01_1",
    "text": "{{wordInfo gender=\"2\" indefArticle=\"3\" defArticle=\"7\"}}Compare"
  },
  {
    "label": "054_02_0",
    "text": "{{wordInfo gender=\"1\" indefArticle=\"1\" defArticle=\"5\"}}Cercatore"
  },
  {
    "label": "054_02_1",
    "text": "{{wordInfo gender=\"2\" indefArticle=\"3\" defArticle=\"7\"}}Cercatrice"
  },
  {
    "label": "055_00_0",
    "text": "{{wordInfo gender=\"1\" indefArticle=\"1\" defArticle=\"5\"}}Portavoce"
  },
  {
    "label": "055_00_1",
    "text": "{{wordInfo gender=\"2\" indefArticle=\"3\" defArticle=\"7\"}}Portavoce"
  },
  {
    "label": "055_01_0",
    "text": "{{wordInfo gender=\"1\" indefArticle=\"1\" defArticle=\"8\"}}Intellettuale"
  },
  {
    "label": "055_01_1",
    "text": "{{wordInfo gender=\"2\" indefArticle=\"4\" defArticle=\"8\"}}Intellettuale"
  },
  {
    "label": "055_02_0",
    "text": "{{wordInfo gender=\"2\" indefArticle=\"4\" defArticle=\"8\"}}Autorità"
  },
  {
    "label": "055_02_1",
    "text": "{{fun_00040055 arg=\"\"}}"
  },
  {
    "label": "055_03_0",
    "text": "{{wordInfo gender=\"1\" indefArticle=\"1\" defArticle=\"5\"}}Tirapiedi"
  },
  {
    "label": "055_03_1",
    "text": "{{wordInfo gender=\"2\" indefArticle=\"3\" defArticle=\"7\"}}Tirapiedi"
  },
  {
    "label": "055_04_0",
    "text": "{{wordInfo gender=\"1\" indefArticle=\"1\" defArticle=\"5\"}}Padre"
  },
  {
    "label": "055_04_1",
    "text": "{{wordInfo gender=\"2\" indefArticle=\"3\" defArticle=\"7\"}}Madre"
  },
  {
    "label": "056_00_0",
    "text": "{{wordInfo gender=\"1\" indefArticle=\"1\" defArticle=\"5\"}}Prodigio"
  },
  {
    "label": "056_00_1",
    "text": "{{fun_00040055 arg=\"\"}}"
  },
  {
    "label": "057_00_0",
    "text": "{{wordInfo gender=\"2\" indefArticle=\"3\" defArticle=\"7\"}}Possanza"
  },
  {
    "label": "057_00_1",
    "text": "{{fun_00040055 arg=\"\"}}"
  },
  {
    "label": "058_00_0",
    "text": "{{wordInfo gender=\"1\" indefArticle=\"1\" defArticle=\"5\"}}Giramondo"
  },
  {
    "label": "058_00_1",
    "text": "{{wordInfo gender=\"2\" indefArticle=\"3\" defArticle=\"7\"}}Giramondo"
  },
  {
    "label": "058_01_0",
    "text": "{{wordInfo gender=\"1\" indefArticle=\"1\" defArticle=\"5\"}}Debuttante"
  },
  {
    "label": "058_01_1",
    "text": "{{wordInfo gender=\"2\" indefArticle=\"3\" defArticle=\"7\"}}Debuttante"
  },
  {
    "label": "058_02_0",
    "text": "{{wordInfo gender=\"1\" indefArticle=\"1\" defArticle=\"8\"}}Hobbista"
  },
  {
    "label": "058_02_1",
    "text": "{{wordInfo gender=\"2\" indefArticle=\"4\" defArticle=\"8\"}}Hobbista"
  },
  {
    "label": "058_03_0",
    "text": "{{wordInfo gender=\"1\" indefArticle=\"2\" defArticle=\"6\"}}Stacanovista"
  },
  {
    "label": "058_03_1",
    "text": "{{wordInfo gender=\"2\" indefArticle=\"3\" defArticle=\"7\"}}Stacanovista"
  },
  {
    "label": "058_04_0",
    "text": "{{wordInfo gender=\"1\" indefArticle=\"1\" defArticle=\"5\"}}Motorino"
  },
  {
    "label": "058_04_1",
    "text": "{{fun_00040055 arg=\"\"}}"
  },
  {
    "label": "059_00_0",
    "text": "{{wordInfo gender=\"1\" indefArticle=\"1\" defArticle=\"8\"}}Uomo comune"
  },
  {
    "label": "059_00_1",
    "text": "{{wordInfo gender=\"2\" indefArticle=\"3\" defArticle=\"7\"}}Donna comune"
  },
  {
    "label": "059_01_0",
    "text": "{{wordInfo gender=\"1\" indefArticle=\"1\" defArticle=\"8\"}}Alleato"
  },
  {
    "label": "059_01_1",
    "text": "{{wordInfo gender=\"2\" indefArticle=\"4\" defArticle=\"8\"}}Alleata"
  },
  {
    "label": "059_02_0",
    "text": "{{wordInfo gender=\"1\" indefArticle=\"1\" defArticle=\"8\"}}Altruista"
  },
  {
    "label": "059_02_1",
    "text": "{{wordInfo gender=\"2\" indefArticle=\"4\" defArticle=\"8\"}}Altruista"
  },
  {
    "label": "059_03_0",
    "text": "{{wordInfo gender=\"1\" indefArticle=\"1\" defArticle=\"5\"}}Salvatore"
  },
  {
    "label": "059_03_1",
    "text": "{{wordInfo gender=\"2\" indefArticle=\"3\" defArticle=\"7\"}}Salvatrice"
  },
  {
    "label": "059_04_0",
    "text": "{{wordInfo gender=\"1\" indefArticle=\"1\" defArticle=\"5\"}}Paladino"
  },
  {
    "label": "059_04_1",
    "text": "{{wordInfo gender=\"2\" indefArticle=\"3\" defArticle=\"7\"}}Paladina"
  },
  {
    "label": "060_00_0",
    "text": "{{wordInfo gender=\"1\" indefArticle=\"1\" defArticle=\"5\"}}Tipo"
  },
  {
    "label": "060_00_1",
    "text": "{{wordInfo gender=\"2\" indefArticle=\"3\" defArticle=\"7\"}}Tipa"
  },
  {
    "label": "061_00_0",
    "text": "{{wordInfo gender=\"1\" indefArticle=\"1\" defArticle=\"5\"}}Fossile"
  },
  {
    "label": "061_00_1",
    "text": "{{fun_00040055 arg=\"\"}}"
  },
  {
    "label": "062_00_0",
    "text": "{{wordInfo gender=\"2\" indefArticle=\"3\" defArticle=\"7\"}}Roba"
  },
  {
    "label": "062_00_1",
    "text": "{{fun_00040055 arg=\"\"}}"
  },
  {
    "label": "062_01_0",
    "text": "{{wordInfo gender=\"2\" indefArticle=\"3\" defArticle=\"7\"}}Verità"
  },
  {
    "label": "062_01_1",
    "text": "{{fun_00040055 arg=\"\"}}"
  },
  {
    "label": "062_02_0",
    "text": "{{wordInfo gender=\"1\" indefArticle=\"1\" defArticle=\"5\"}}Ricercatore"
  },
  {
    "label": "062_02_1",
    "text": "{{wordInfo gender=\"2\" indefArticle=\"3\" defArticle=\"7\"}}Ricercatrice"
  },
  {
    "label": "062_03_0",
    "text": "{{wordInfo gender=\"1\" indefArticle=\"2\" defArticle=\"6\"}}Smemorato"
  },
  {
    "label": "062_03_1",
    "text": "{{wordInfo gender=\"2\" indefArticle=\"3\" defArticle=\"7\"}}Smemorata"
  },
  {
    "label": "062_04_0",
    "text": "{{wordInfo gender=\"2\" indefArticle=\"3\" defArticle=\"7\"}}Scoperta"
  },
  {
    "label": "062_04_1",
    "text": "{{fun_00040055 arg=\"\"}}"
  },
  {
    "label": "063_00_0",
    "text": "{{wordInfo gender=\"2\" indefArticle=\"3\" defArticle=\"7\"}}Stagione"
  },
  {
    "label": "063_00_1",
    "text": "{{fun_00040055 arg=\"\"}}"
  },
  {
    "label": "063_01_0",
    "text": "{{wordInfo gender=\"1\" indefArticle=\"1\" defArticle=\"8\"}}Abitante della costa"
  },
  {
    "label": "063_01_1",
    "text": "{{wordInfo gender=\"2\" indefArticle=\"4\" defArticle=\"8\"}}Abitante della costa"
  },
  {
    "label": "063_02_0",
    "text": "{{wordInfo gender=\"1\" indefArticle=\"1\" defArticle=\"5\"}}Genio"
  },
  {
    "label": "063_02_1",
    "text": "{{fun_00040055 arg=\"\"}}"
  },
  {
    "label": "063_03_0",
    "text": "{{wordInfo gender=\"1\" indefArticle=\"1\" defArticle=\"5\"}}Fenomeno"
  },
  {
    "label": "063_03_1",
    "text": "{{fun_00040055 arg=\"\"}}"
  },
  {
    "label": "063_04_0",
    "text": "{{wordInfo gender=\"1\" indefArticle=\"1\" defArticle=\"5\"}}Tritone"
  },
  {
    "label": "063_04_1",
    "text": "{{wordInfo gender=\"2\" indefArticle=\"3\" defArticle=\"7\"}}Sirena"
  },
  {
    "label": "064_00_0",
    "text": "{{wordInfo gender=\"1\" indefArticle=\"1\" defArticle=\"5\"}}Decoratore"
  },
  {
    "label": "064_00_1",
    "text": "{{wordInfo gender=\"2\" indefArticle=\"3\" defArticle=\"7\"}}Decoratrice"
  },
  {
    "label": "067_00_0",
    "text": "{{wordInfo gender=\"1\" indefArticle=\"2\" defArticle=\"6\"}}Scultore"
  },
  {
    "label": "067_00_1",
    "text": "{{wordInfo gender=\"2\" indefArticle=\"3\" defArticle=\"7\"}}Scultrice"
  },
  {
    "label": "067_01_0",
    "text": "{{wordInfo gender=\"1\" indefArticle=\"1\" defArticle=\"5\"}}Mediatore"
  },
  {
    "label": "067_01_1",
    "text": "{{wordInfo gender=\"2\" indefArticle=\"3\" defArticle=\"7\"}}Mediatrice"
  },
  {
    "label": "067_02_0",
    "text": "{{wordInfo gender=\"2\" indefArticle=\"3\" defArticle=\"7\"}}Guardia"
  },
  {
    "label": "067_02_1",
    "text": "{{fun_00040055 arg=\"\"}}"
  },
  {
    "label": "067_03_0",
    "text": "{{wordInfo gender=\"1\" indefArticle=\"1\" defArticle=\"5\"}}Cervellone"
  },
  {
    "label": "067_03_1",
    "text": "{{wordInfo gender=\"2\" indefArticle=\"3\" defArticle=\"7\"}}Cervellona"
  },
  {
    "label": "067_04_0",
    "text": "{{wordInfo gender=\"1\" indefArticle=\"1\" defArticle=\"5\"}}Supereroe"
  },
  {
    "label": "067_04_1",
    "text": "{{wordInfo gender=\"2\" indefArticle=\"3\" defArticle=\"7\"}}Supereroina"
  },
  {
    "label": "068_00_0",
    "text": "{{wordInfo gender=\"1\" indefArticle=\"1\" defArticle=\"8\"}}Introverso"
  },
  {
    "label": "068_00_1",
    "text": "{{wordInfo gender=\"2\" indefArticle=\"4\" defArticle=\"8\"}}Introversa"
  },
  {
    "label": "068_01_0",
    "text": "{{wordInfo gender=\"1\" indefArticle=\"1\" defArticle=\"5\"}}Timidone"
  },
  {
    "label": "068_01_1",
    "text": "{{wordInfo gender=\"2\" indefArticle=\"3\" defArticle=\"7\"}}Timidona"
  },
  {
    "label": "068_02_0",
    "text": "{{wordInfo gender=\"1\" indefArticle=\"1\" defArticle=\"8\"}}Individuo"
  },
  {
    "label": "068_02_1",
    "text": "{{fun_00040055 arg=\"\"}}"
  },
  {
    "label": "068_03_0",
    "text": "{{wordInfo gender=\"1\" indefArticle=\"1\" defArticle=\"5\"}}Tizio"
  },
  {
    "label": "068_03_1",
    "text": "{{wordInfo gender=\"2\" indefArticle=\"3\" defArticle=\"7\"}}Tizia"
  },
  {
    "label": "068_04_0",
    "text": "{{wordInfo gender=\"1\" indefArticle=\"1\" defArticle=\"5\"}}Rubacuori"
  },
  {
    "label": "068_04_1",
    "text": "{{wordInfo gender=\"2\" indefArticle=\"3\" defArticle=\"7\"}}Rubacuori"
  },
  {
    "label": "069_00_0",
    "text": "{{wordInfo gender=\"1\" indefArticle=\"1\" defArticle=\"5\"}}Cercaconchiglie"
  },
  {
    "label": "069_00_1",
    "text": "{{wordInfo gender=\"2\" indefArticle=\"3\" defArticle=\"7\"}}Cercaconchiglie"
  },
  {
    "label": "069_01_0",
    "text": "{{wordInfo gender=\"1\" indefArticle=\"1\" defArticle=\"5\"}}Vendiconchiglie"
  },
  {
    "label": "069_01_1",
    "text": "{{wordInfo gender=\"2\" indefArticle=\"3\" defArticle=\"7\"}}Vendiconchiglie"
  },
  {
    "label": "069_02_0",
    "text": "{{wordInfo gender=\"1\" indefArticle=\"1\" defArticle=\"8\"}}Accumulaconchiglie"
  },
  {
    "label": "069_02_1",
    "text": "{{wordInfo gender=\"2\" indefArticle=\"4\" defArticle=\"8\"}}Accumulaconchiglie"
  },
  {
    "label": "069_03_0",
    "text": "{{wordInfo gender=\"1\" indefArticle=\"1\" defArticle=\"5\"}}Capoconchiglia"
  },
  {
    "label": "069_03_1",
    "text": "{{wordInfo gender=\"2\" indefArticle=\"3\" defArticle=\"7\"}}Capoconchiglia"
  },
  {
    "label": "069_04_0",
    "text": "{{wordInfo gender=\"1\" indefArticle=\"1\" defArticle=\"5\"}}Conchigliaboratore"
  },
  {
    "label": "069_04_1",
    "text": "{{wordInfo gender=\"2\" indefArticle=\"3\" defArticle=\"7\"}}Conchigliaboratrice"
  },
  {
    "label": "070_00_0",
    "text": "{{wordInfo gender=\"1\" indefArticle=\"1\" defArticle=\"8\"}}Osservatore"
  },
  {
    "label": "070_00_1",
    "text": "{{wordInfo gender=\"2\" indefArticle=\"4\" defArticle=\"8\"}}Osservatrice"
  },
  {
    "label": "070_01_0",
    "text": "{{wordInfo gender=\"1\" indefArticle=\"1\" defArticle=\"5\"}}Bottino"
  },
  {
    "label": "070_01_1",
    "text": "{{fun_00040055 arg=\"\"}}"
  },
  {
    "label": "070_02_0",
    "text": "{{wordInfo gender=\"1\" indefArticle=\"1\" defArticle=\"8\"}}Albero"
  },
  {
    "label": "070_02_1",
    "text": "{{fun_00040055 arg=\"\"}}"
  },
  {
    "label": "070_03_0",
    "text": "{{wordInfo gender=\"2\" indefArticle=\"3\" defArticle=\"7\"}}Varietà"
  },
  {
    "label": "070_03_1",
    "text": "{{fun_00040055 arg=\"\"}}"
  },
  {
    "label": "070_04_0",
    "text": "{{wordInfo gender=\"1\" indefArticle=\"1\" defArticle=\"5\"}}Profumo"
  },
  {
    "label": "070_04_1",
    "text": "{{fun_00040055 arg=\"\"}}"
  },
  {
    "label": "071_00_0",
    "text": "{{wordInfo gender=\"1\" indefArticle=\"1\" defArticle=\"5\"}}Tiratore"
  },
  {
    "label": "071_00_1",
    "text": "{{wordInfo gender=\"2\" indefArticle=\"3\" defArticle=\"7\"}}Tiratrice"
  },
  {
    "label": "072_00_0",
    "text": "{{wordInfo gender=\"1\" indefArticle=\"1\" defArticle=\"5\"}}Cultore"
  },
  {
    "label": "072_00_1",
    "text": "{{wordInfo gender=\"2\" indefArticle=\"3\" defArticle=\"7\"}}Cultrice"
  },
  {
    "label": "072_01_0",
    "text": "{{wordInfo gender=\"1\" indefArticle=\"1\" defArticle=\"5\"}}Membro del club"
  },
  {
    "label": "072_01_1",
    "text": "{{fun_00040055 arg=\"\"}}"
  },
  {
    "label": "072_02_0",
    "text": "{{wordInfo gender=\"1\" indefArticle=\"1\" defArticle=\"5\"}}Virtuoso"
  },
  {
    "label": "072_02_1",
    "text": "{{wordInfo gender=\"2\" indefArticle=\"3\" defArticle=\"7\"}}Virtuosa"
  },
  {
    "label": "072_03_0",
    "text": "{{wordInfo gender=\"1\" indefArticle=\"1\" defArticle=\"5\"}}Tecnico"
  },
  {
    "label": "072_03_1",
    "text": "{{fun_00040055 arg=\"\"}}"
  },
  {
    "label": "072_04_0",
    "text": "{{wordInfo gender=\"1\" indefArticle=\"1\" defArticle=\"8\"}}Istruttore"
  },
  {
    "label": "072_04_1",
    "text": "{{wordInfo gender=\"2\" indefArticle=\"4\" defArticle=\"8\"}}Istruttrice"
  },
  {
    "label": "073_00_0",
    "text": "{{wordInfo gender=\"1\" indefArticle=\"1\" defArticle=\"5\"}}Locale"
  },
  {
    "label": "073_00_1",
    "text": "{{wordInfo gender=\"2\" indefArticle=\"3\" defArticle=\"7\"}}Locale"
  },
  {
    "label": "073_01_0",
    "text": "{{wordInfo gender=\"1\" indefArticle=\"1\" defArticle=\"8\"}}Artigiano"
  },
  {
    "label": "073_01_1",
    "text": "{{wordInfo gender=\"2\" indefArticle=\"4\" defArticle=\"8\"}}Artigiana"
  },
  {
    "label": "073_02_0",
    "text": "{{wordInfo gender=\"1\" indefArticle=\"1\" defArticle=\"5\"}}Realizzatore"
  },
  {
    "label": "073_02_1",
    "text": "{{wordInfo gender=\"2\" indefArticle=\"3\" defArticle=\"7\"}}Realizzatrice"
  },
  {
    "label": "073_03_0",
    "text": "{{wordInfo gender=\"1\" indefArticle=\"1\" defArticle=\"5\"}}Maestro"
  },
  {
    "label": "073_03_1",
    "text": "{{wordInfo gender=\"2\" indefArticle=\"3\" defArticle=\"7\"}}Maestra"
  },
  {
    "label": "073_04_0",
    "text": "{{wordInfo gender=\"1\" indefArticle=\"1\" defArticle=\"5\"}}Re"
  },
  {
    "label": "073_04_1",
    "text": "{{wordInfo gender=\"2\" indefArticle=\"3\" defArticle=\"7\"}}Regina"
  },
  {
    "label": "075_00_0",
    "text": "{{wordInfo gender=\"1\" indefArticle=\"1\" defArticle=\"5\"}}Fotografo"
  },
  {
    "label": "075_00_1",
    "text": "{{wordInfo gender=\"2\" indefArticle=\"3\" defArticle=\"7\"}}Fotografa"
  },
  {
    "label": "076_00_0",
    "text": "{{wordInfo gender=\"1\" indefArticle=\"1\" defArticle=\"8\"}}Erudito"
  },
  {
    "label": "076_00_1",
    "text": "{{wordInfo gender=\"2\" indefArticle=\"4\" defArticle=\"8\"}}Erudita"
  },
  {
    "label": "077_00_0",
    "text": "{{wordInfo gender=\"1\" indefArticle=\"2\" defArticle=\"6\"}}Stilista"
  },
  {
    "label": "077_00_1",
    "text": "{{wordInfo gender=\"2\" indefArticle=\"3\" defArticle=\"7\"}}Stilista"
  },
  {
    "label": "077_01_0",
    "text": "{{wordInfo gender=\"1\" indefArticle=\"1\" defArticle=\"8\"}}Asso"
  },
  {
    "label": "077_01_1",
    "text": "{{fun_00040055 arg=\"\"}}"
  },
  {
    "label": "077_02_0",
    "text": "{{wordInfo gender=\"1\" indefArticle=\"1\" defArticle=\"5\"}}Direttore"
  },
  {
    "label": "077_02_1",
    "text": "{{wordInfo gender=\"2\" indefArticle=\"3\" defArticle=\"7\"}}Direttrice"
  },
  {
    "label": "077_03_0",
    "text": "{{wordInfo gender=\"1\" indefArticle=\"1\" defArticle=\"5\"}}Coordinatore"
  },
  {
    "label": "077_03_1",
    "text": "{{wordInfo gender=\"2\" indefArticle=\"3\" defArticle=\"7\"}}Coordinatrice"
  },
  {
    "label": "077_04_0",
    "text": "{{wordInfo gender=\"1\" indefArticle=\"1\" defArticle=\"5\"}}Miglioratore"
  },
  {
    "label": "077_04_1",
    "text": "{{wordInfo gender=\"2\" indefArticle=\"3\" defArticle=\"7\"}}Miglioratrice"
  },
  {
    "label": "078_00_0",
    "text": "{{wordInfo gender=\"1\" indefArticle=\"1\" defArticle=\"5\"}}Soggetto"
  },
  {
    "label": "078_00_1",
    "text": "{{fun_00040055 arg=\"\"}}"
  },
  {
    "label": "078_01_0",
    "text": "{{wordInfo gender=\"1\" indefArticle=\"1\" defArticle=\"5\"}}Ristrutturatore"
  },
  {
    "label": "078_01_1",
    "text": "{{wordInfo gender=\"2\" indefArticle=\"3\" defArticle=\"7\"}}Ristrutturatrice"
  },
  {
    "label": "078_02_0",
    "text": "{{wordInfo gender=\"1\" indefArticle=\"1\" defArticle=\"5\"}}Fan dell'oggettistica"
  },
  {
    "label": "078_02_1",
    "text": "{{wordInfo gender=\"2\" indefArticle=\"3\" defArticle=\"7\"}}Fan dell'oggettistica"
  },
  {
    "label": "078_03_0",
    "text": "{{wordInfo gender=\"1\" indefArticle=\"1\" defArticle=\"5\"}}Fan dei casalinghi"
  },
  {
    "label": "078_03_1",
    "text": "{{wordInfo gender=\"2\" indefArticle=\"3\" defArticle=\"7\"}}Fan dei casalinghi"
  },
  {
    "label": "078_04_0",
    "text": "{{wordInfo gender=\"1\" indefArticle=\"1\" defArticle=\"8\"}}Arredatore d'interni"
  },
  {
    "label": "078_04_1",
    "text": "{{wordInfo gender=\"2\" indefArticle=\"4\" defArticle=\"8\"}}Arredatrice d'interni"
  },
  {
    "label": "079_00_0",
    "text": "{{wordInfo gender=\"2\" indefArticle=\"3\" defArticle=\"7\"}}Figura"
  },
  {
    "label": "079_00_1",
    "text": "{{fun_00040055 arg=\"\"}}"
  },
  {
    "label": "079_01_0",
    "text": "{{wordInfo gender=\"1\" indefArticle=\"1\" defArticle=\"5\"}}Demone"
  },
  {
    "label": "079_01_1",
    "text": "{{wordInfo gender=\"2\" indefArticle=\"3\" defArticle=\"7\"}}Demone"
  },
  {
    "label": "079_02_0",
    "text": "{{wordInfo gender=\"1\" indefArticle=\"1\" defArticle=\"5\"}}Talento"
  },
  {
    "label": "079_02_1",
    "text": "{{fun_00040055 arg=\"\"}}"
  },
  {
    "label": "079_03_0",
    "text": "{{wordInfo gender=\"1\" indefArticle=\"1\" defArticle=\"5\"}}Fuorilegge"
  },
  {
    "label": "079_03_1",
    "text": "{{wordInfo gender=\"2\" indefArticle=\"3\" defArticle=\"7\"}}Fuorilegge"
  },
  {
    "label": "079_04_0",
    "text": "{{wordInfo gender=\"1\" indefArticle=\"1\" defArticle=\"8\"}}Esempio"
  },
  {
    "label": "079_04_1",
    "text": "{{fun_00040055 arg=\"\"}}"
  },
  {
    "label": "080_00_0",
    "text": "{{wordInfo gender=\"2\" indefArticle=\"3\" defArticle=\"7\"}}Frana"
  },
  {
    "label": "080_00_1",
    "text": "{{fun_00040055 arg=\"\"}}"
  },
  {
    "label": "081_00_0",
    "text": "{{wordInfo gender=\"1\" indefArticle=\"1\" defArticle=\"5\"}}Rinnovatore"
  },
  {
    "label": "081_00_1",
    "text": "{{wordInfo gender=\"2\" indefArticle=\"3\" defArticle=\"7\"}}Rinnovatrice"
  },
  {
    "label": "081_01_0",
    "text": "{{wordInfo gender=\"1\" indefArticle=\"1\" defArticle=\"5\"}}Sognatore"
  },
  {
    "label": "081_01_1",
    "text": "{{wordInfo gender=\"2\" indefArticle=\"3\" defArticle=\"7\"}}Sognatrice"
  },
  {
    "label": "081_02_0",
    "text": "{{wordInfo gender=\"1\" indefArticle=\"2\" defArticle=\"6\"}}Spazio"
  },
  {
    "label": "081_02_1",
    "text": "{{fun_00040055 arg=\"\"}}"
  },
  {
    "label": "082_00_0",
    "text": "{{wordInfo gender=\"1\" indefArticle=\"1\" defArticle=\"5\"}}Tipo solitario"
  },
  {
    "label": "082_00_1",
    "text": "{{wordInfo gender=\"2\" indefArticle=\"3\" defArticle=\"7\"}}Tipa solitaria"
  },
  {
    "label": "082_01_0",
    "text": "{{wordInfo gender=\"1\" indefArticle=\"1\" defArticle=\"5\"}}Principiante"
  },
  {
    "label": "082_01_1",
    "text": "{{wordInfo gender=\"2\" indefArticle=\"3\" defArticle=\"7\"}}Principiante"
  },
  {
    "label": "082_02_0",
    "text": "{{wordInfo gender=\"2\" indefArticle=\"3\" defArticle=\"7\"}}Sensazione"
  },
  {
    "label": "082_02_1",
    "text": "{{fun_00040055 arg=\"\"}}"
  },
  {
    "label": "082_03_0",
    "text": "{{wordInfo gender=\"1\" indefArticle=\"1\" defArticle=\"8\"}}Amministratore"
  },
  {
    "label": "082_03_1",
    "text": "{{wordInfo gender=\"2\" indefArticle=\"4\" defArticle=\"8\"}}Amministratrice"
  },
  {
    "label": "082_04_0",
    "text": "{{wordInfo gender=\"1\" indefArticle=\"1\" defArticle=\"5\"}}Pilastro"
  },
  {
    "label": "082_04_1",
    "text": "{{fun_00040055 arg=\"\"}}"
  },
  {
    "label": "083_00_0",
    "text": "{{wordInfo gender=\"1\" indefArticle=\"1\" defArticle=\"8\"}}Influencer"
  },
  {
    "label": "083_00_1",
    "text": "{{wordInfo gender=\"2\" indefArticle=\"4\" defArticle=\"8\"}}Influencer"
  },
  {
    "label": "084_00_0",
    "text": "{{wordInfo gender=\"1\" indefArticle=\"1\" defArticle=\"5\"}}Modello"
  },
  {
    "label": "084_00_1",
    "text": "{{wordInfo gender=\"2\" indefArticle=\"3\" defArticle=\"7\"}}Modella"
  },
  {
    "label": "085_00_0",
    "text": "{{wordInfo gender=\"1\" indefArticle=\"1\" defArticle=\"5\"}}Meteorite"
  },
  {
    "label": "085_00_1",
    "text": "{{fun_00040055 arg=\"\"}}"
  },
  {
    "label": "085_01_0",
    "text": "{{wordInfo gender=\"2\" indefArticle=\"3\" defArticle=\"7\"}}Leggenda"
  },
  {
    "label": "085_01_1",
    "text": "{{fun_00040055 arg=\"\"}}"
  },
  {
    "label": "085_02_0",
    "text": "{{wordInfo gender=\"2\" indefArticle=\"3\" defArticle=\"7\"}}Superstar"
  },
  {
    "label": "085_02_1",
    "text": "{{fun_00040055 arg=\"\"}}"
  },
  {
    "label": "086_00_0",
    "text": "{{wordInfo gender=\"1\" indefArticle=\"2\" defArticle=\"6\"}}Sbandieratore"
  },
  {
    "label": "086_00_1",
    "text": "{{wordInfo gender=\"2\" indefArticle=\"3\" defArticle=\"7\"}}Sbandieratrice"
  },
  {
    "label": "086_01_0",
    "text": "{{wordInfo gender=\"1\" indefArticle=\"1\" defArticle=\"5\"}}Musicista"
  },
  {
    "label": "086_01_1",
    "text": "{{wordInfo gender=\"2\" indefArticle=\"3\" defArticle=\"7\"}}Musicista"
  },
  {
    "label": "087_00_0",
    "text": "{{wordInfo gender=\"1\" indefArticle=\"1\" defArticle=\"5\"}}Viaggiatore"
  },
  {
    "label": "087_00_1",
    "text": "{{wordInfo gender=\"2\" indefArticle=\"3\" defArticle=\"7\"}}Viaggiatrice"
  },
  {
    "label": "088_00_0",
    "text": "{{wordInfo gender=\"1\" indefArticle=\"1\" defArticle=\"5\"}}Podista"
  },
  {
    "label": "088_00_1",
    "text": "{{wordInfo gender=\"2\" indefArticle=\"3\" defArticle=\"7\"}}Podista"
  },
  {
    "label": "088_01_0",
    "text": "{{wordInfo gender=\"1\" indefArticle=\"1\" defArticle=\"5\"}}Pioniere"
  },
  {
    "label": "088_01_1",
    "text": "{{wordInfo gender=\"2\" indefArticle=\"3\" defArticle=\"7\"}}Pioniera"
  },
  {
    "label": "088_02_0",
    "text": "{{wordInfo gender=\"1\" indefArticle=\"1\" defArticle=\"5\"}}Creatore"
  },
  {
    "label": "088_02_1",
    "text": "{{wordInfo gender=\"2\" indefArticle=\"3\" defArticle=\"7\"}}Creatrice"
  },
  {
    "label": "089_00_0",
    "text": "{{wordInfo gender=\"1\" indefArticle=\"1\" defArticle=\"5\"}}Creatore di recinzioni"
  },
  {
    "label": "089_00_1",
    "text": "{{wordInfo gender=\"2\" indefArticle=\"3\" defArticle=\"7\"}}Creatrice di recinzioni"
  },
  {
    "label": "090_00_0",
    "text": "{{wordInfo gender=\"1\" indefArticle=\"1\" defArticle=\"5\"}}Falsario"
  },
  {
    "label": "090_00_1",
    "text": "{{wordInfo gender=\"2\" indefArticle=\"3\" defArticle=\"7\"}}Falsaria"
  },
  {
    "label": "091_00_0",
    "text": "{{wordInfo gender=\"1\" indefArticle=\"1\" defArticle=\"5\"}}Venditore"
  },
  {
    "label": "091_00_1",
    "text": "{{wordInfo gender=\"2\" indefArticle=\"3\" defArticle=\"7\"}}Venditrice"
  },
  {
    "label": "091_01_0",
    "text": "{{wordInfo gender=\"1\" indefArticle=\"1\" defArticle=\"8\"}}Intenditore d'arte"
  },
  {
    "label": "091_01_1",
    "text": "{{wordInfo gender=\"2\" indefArticle=\"4\" defArticle=\"8\"}}Intenditrice d'arte"
  },
  {
    "label": "091_02_0",
    "text": "{{wordInfo gender=\"2\" indefArticle=\"4\" defArticle=\"8\"}}Opera d'arte"
  },
  {
    "label": "091_02_1",
    "text": "{{fun_00040055 arg=\"\"}}"
  },
  {
    "label": "092_00_0",
    "text": "{{wordInfo gender=\"2\" indefArticle=\"3\" defArticle=\"7\"}}Magnificenza"
  },
  {
    "label": "092_00_1",
    "text": "{{fun_00040055 arg=\"\"}}"
  },
  {
    "label": "092_01_0",
    "text": "{{wordInfo gender=\"2\" indefArticle=\"3\" defArticle=\"7\"}}Sentinella"
  },
  {
    "label": "092_01_1",
    "text": "{{fun_00040055 arg=\"\"}}"
  },
  {
    "label": "092_02_0",
    "text": "{{wordInfo gender=\"2\" indefArticle=\"3\" defArticle=\"7\"}}Vegetazione"
  },
  {
    "label": "092_02_1",
    "text": "{{fun_00040055 arg=\"\"}}"
  },
  {
    "label": "095_00_0",
    "text": "{{wordInfo gender=\"1\" indefArticle=\"1\" defArticle=\"5\"}}Tuffatore"
  },
  {
    "label": "095_00_1",
    "text": "{{wordInfo gender=\"2\" indefArticle=\"3\" defArticle=\"7\"}}Tuffatrice"
  },
  {
    "label": "095_01_0",
    "text": "{{wordInfo gender=\"1\" indefArticle=\"1\" defArticle=\"8\"}}Ingrediente"
  },
  {
    "label": "095_01_1",
    "text": "{{fun_00040055 arg=\"\"}}"
  },
  {
    "label": "095_02_0",
    "text": "{{wordInfo gender=\"1\" indefArticle=\"1\" defArticle=\"8\"}}Habitué"
  },
  {
    "label": "095_02_1",
    "text": "{{wordInfo gender=\"2\" indefArticle=\"4\" defArticle=\"8\"}}Habituée"
  },
  {
    "label": "095_03_0",
    "text": "{{wordInfo gender=\"2\" indefArticle=\"4\" defArticle=\"8\"}}Alga"
  },
  {
    "label": "095_03_1",
    "text": "{{fun_00040055 arg=\"\"}}"
  },
  {
    "label": "095_04_0",
    "text": "{{wordInfo gender=\"1\" indefArticle=\"1\" defArticle=\"5\"}}Diletto"
  },
  {
    "label": "095_04_1",
    "text": "{{fun_00040055 arg=\"\"}}"
  },
  {
    "label": "096_00_0",
    "text": "{{wordInfo gender=\"1\" indefArticle=\"1\" defArticle=\"5\"}}Cinico"
  },
  {
    "label": "096_00_1",
    "text": "{{wordInfo gender=\"2\" indefArticle=\"3\" defArticle=\"7\"}}Cinica"
  },
  {
    "label": "096_01_0",
    "text": "{{wordInfo gender=\"1\" indefArticle=\"1\" defArticle=\"5\"}}Filosofo"
  },
  {
    "label": "096_01_1",
    "text": "{{wordInfo gender=\"2\" indefArticle=\"3\" defArticle=\"7\"}}Filosofa"
  },
  {
    "label": "096_02_0",
    "text": "{{wordInfo gender=\"1\" indefArticle=\"1\" defArticle=\"8\"}}Esistenzialista"
  },
  {
    "label": "096_02_1",
    "text": "{{wordInfo gender=\"2\" indefArticle=\"4\" defArticle=\"8\"}}Esistenzialista"
  },
  {
    "label": "098_00_0",
    "text": "{{wordInfo gender=\"1\" indefArticle=\"1\" defArticle=\"5\"}}Nuotatore"
  },
  {
    "label": "098_00_1",
    "text": "{{wordInfo gender=\"2\" indefArticle=\"3\" defArticle=\"7\"}}Nuotatrice"
  },
  {
    "label": "098_01_0",
    "text": "{{wordInfo gender=\"1\" indefArticle=\"1\" defArticle=\"5\"}}Frugaspiagge"
  },
  {
    "label": "098_01_1",
    "text": "{{wordInfo gender=\"2\" indefArticle=\"3\" defArticle=\"7\"}}Frugaspiagge"
  },
  {
    "label": "098_02_0",
    "text": "{{wordInfo gender=\"1\" indefArticle=\"1\" defArticle=\"5\"}}Relitto"
  },
  {
    "label": "098_02_1",
    "text": "{{fun_00040055 arg=\"\"}}"
  },
  {
    "label": "098_03_0",
    "text": "{{wordInfo gender=\"1\" indefArticle=\"1\" defArticle=\"5\"}}Mito"
  },
  {
    "label": "098_03_1",
    "text": "{{fun_00040055 arg=\"\"}}"
  },
  {
    "label": "098_04_0",
    "text": "{{wordInfo gender=\"1\" indefArticle=\"1\" defArticle=\"5\"}}Mostro"
  },
  {
    "label": "098_04_1",
    "text": "{{fun_00040055 arg=\"\"}}"
  },
  {
    "label": "100_00_0",
    "text": "{{wordInfo gender=\"1\" indefArticle=\"1\" defArticle=\"5\"}}Fertilizzatore"
  },
  {
    "label": "100_00_1",
    "text": "{{wordInfo gender=\"2\" indefArticle=\"3\" defArticle=\"7\"}}Fertilizzatrice"
  },
  {
    "label": "100_01_0",
    "text": "{{wordInfo gender=\"1\" indefArticle=\"1\" defArticle=\"5\"}}Coltivatore"
  },
  {
    "label": "100_01_1",
    "text": "{{wordInfo gender=\"2\" indefArticle=\"3\" defArticle=\"7\"}}Coltivatrice"
  },
  {
    "label": "100_02_0",
    "text": "{{wordInfo gender=\"1\" indefArticle=\"1\" defArticle=\"5\"}}Seminatore"
  },
  {
    "label": "100_02_1",
    "text": "{{wordInfo gender=\"2\" indefArticle=\"3\" defArticle=\"7\"}}Seminatrice"
  },
  {
    "label": "100_03_0",
    "text": "{{wordInfo gender=\"2\" indefArticle=\"3\" defArticle=\"7\"}}Routine"
  },
  {
    "label": "100_03_1",
    "text": "{{fun_00040055 arg=\"\"}}"
  },
  {
    "label": "100_04_0",
    "text": "{{wordInfo gender=\"1\" indefArticle=\"1\" defArticle=\"5\"}}Successo"
  },
  {
    "label": "100_04_1",
    "text": "{{fun_00040055 arg=\"\"}}"
  },
  {
    "label": "102_00_0",
    "text": "{{wordInfo gender=\"1\" indefArticle=\"1\" defArticle=\"5\"}}Novellino"
  },
  {
    "label": "102_00_1",
    "text": "{{wordInfo gender=\"2\" indefArticle=\"3\" defArticle=\"7\"}}Novellina"
  },
  {
    "label": "102_01_0",
    "text": "{{wordInfo gender=\"1\" indefArticle=\"1\" defArticle=\"5\"}}Raccoglitore"
  },
  {
    "label": "102_01_1",
    "text": "{{wordInfo gender=\"2\" indefArticle=\"3\" defArticle=\"7\"}}Raccoglitrice"
  },
  {
    "label": "102_02_0",
    "text": "{{wordInfo gender=\"1\" indefArticle=\"1\" defArticle=\"5\"}}Lattughino"
  },
  {
    "label": "102_02_1",
    "text": "{{wordInfo gender=\"2\" indefArticle=\"3\" defArticle=\"7\"}}Lattughina"
  },
  {
    "label": "102_03_0",
    "text": "{{wordInfo gender=\"1\" indefArticle=\"1\" defArticle=\"5\"}}Fagiolino"
  },
  {
    "label": "102_03_1",
    "text": "{{wordInfo gender=\"2\" indefArticle=\"3\" defArticle=\"7\"}}Fagiolina"
  },
  {
    "label": "102_04_0",
    "text": "{{wordInfo gender=\"2\" indefArticle=\"3\" defArticle=\"7\"}}Comunità"
  },
  {
    "label": "102_04_1",
    "text": "{{fun_00040055 arg=\"\"}}"
  },
  {
    "label": "103_00_0",
    "text": "{{wordInfo gender=\"1\" indefArticle=\"1\" defArticle=\"5\"}}Barcaiolo"
  },
  {
    "label": "103_00_1",
    "text": "{{wordInfo gender=\"2\" indefArticle=\"3\" defArticle=\"7\"}}Barcaiola"
  },
  {
    "label": "103_01_0",
    "text": "{{wordInfo gender=\"1\" indefArticle=\"1\" defArticle=\"8\"}}Approvvigionatore"
  },
  {
    "label": "103_01_1",
    "text": "{{wordInfo gender=\"2\" indefArticle=\"4\" defArticle=\"8\"}}Approvvigionatrice"
  },
  {
    "label": "103_02_0",
    "text": "{{wordInfo gender=\"1\" indefArticle=\"1\" defArticle=\"5\"}}Girovago"
  },
  {
    "label": "103_02_1",
    "text": "{{wordInfo gender=\"2\" indefArticle=\"3\" defArticle=\"7\"}}Girovaga"
  },
  {
    "label": "103_03_0",
    "text": "{{wordInfo gender=\"1\" indefArticle=\"1\" defArticle=\"5\"}}Genitore adorante"
  },
  {
    "label": "103_03_1",
    "text": "{{fun_00040055 arg=\"\"}}"
  },
  {
    "label": "103_04_0",
    "text": "{{wordInfo gender=\"2\" indefArticle=\"3\" defArticle=\"7\"}}Famiglia"
  },
  {
    "label": "103_04_1",
    "text": "{{fun_00040055 arg=\"\"}}"
  },
  {
    "label": "104_00_0",
    "text": "{{wordInfo gender=\"1\" indefArticle=\"1\" defArticle=\"5\"}}Curatore"
  },
  {
    "label": "104_00_1",
    "text": "{{wordInfo gender=\"2\" indefArticle=\"3\" defArticle=\"7\"}}Curatrice"
  },
  {
    "label": "104_01_0",
    "text": "{{wordInfo gender=\"2\" indefArticle=\"3\" defArticle=\"7\"}}Statua"
  },
  {
    "label": "104_01_1",
    "text": "{{fun_00040055 arg=\"\"}}"
  },
  {
    "label": "104_02_0",
    "text": "{{wordInfo gender=\"1\" indefArticle=\"1\" defArticle=\"5\"}}Simbolo"
  },
  {
    "label": "104_02_1",
    "text": "{{fun_00040055 arg=\"\"}}"
  },
  {
    "label": "105_00_0",
    "text": "{{wordInfo gender=\"1\" indefArticle=\"1\" defArticle=\"5\"}}Sottocuoco"
  },
  {
    "label": "105_00_1",
    "text": "{{wordInfo gender=\"2\" indefArticle=\"3\" defArticle=\"7\"}}Sottocuoca"
  },
  {
    "label": "105_01_0",
    "text": "{{wordInfo gender=\"1\" indefArticle=\"1\" defArticle=\"5\"}}Cuoco"
  },
  {
    "label": "105_01_1",
    "text": "{{wordInfo gender=\"2\" indefArticle=\"3\" defArticle=\"7\"}}Cuoca"
  },
  {
    "label": "105_02_0",
    "text": "{{wordInfo gender=\"1\" indefArticle=\"1\" defArticle=\"5\"}}Capocuoco"
  },
  {
    "label": "105_02_1",
    "text": "{{wordInfo gender=\"2\" indefArticle=\"3\" defArticle=\"7\"}}Capocuoca"
  },
  {
    "label": "106_00_0",
    "text": "{{wordInfo gender=\"1\" indefArticle=\"2\" defArticle=\"6\"}}Scavagiroidi"
  },
  {
    "label": "106_00_1",
    "text": "{{wordInfo gender=\"2\" indefArticle=\"3\" defArticle=\"7\"}}Scavagiroidi"
  },
  {
    "label": "107_00_0",
    "text": "{{wordInfo gender=\"1\" indefArticle=\"1\" defArticle=\"5\"}}Buongustaio"
  },
  {
    "label": "107_00_1",
    "text": "{{wordInfo gender=\"2\" indefArticle=\"3\" defArticle=\"7\"}}Buongustaia"
  },
  {
    "label": "107_01_0",
    "text": "{{wordInfo gender=\"1\" indefArticle=\"1\" defArticle=\"5\"}}Goloso"
  },
  {
    "label": "107_01_1",
    "text": "{{wordInfo gender=\"2\" indefArticle=\"3\" defArticle=\"7\"}}Golosa"
  },
  {
    "label": "107_02_0",
    "text": "{{wordInfo gender=\"1\" indefArticle=\"1\" defArticle=\"5\"}}Gran cuoco"
  },
  {
    "label": "107_02_1",
    "text": "{{wordInfo gender=\"2\" indefArticle=\"3\" defArticle=\"7\"}}Gran cuoca"
  },
  {
    "label": "107_03_0",
    "text": "{{wordInfo gender=\"1\" indefArticle=\"1\" defArticle=\"5\"}}Gaudente"
  },
  {
    "label": "107_03_1",
    "text": "{{wordInfo gender=\"2\" indefArticle=\"3\" defArticle=\"7\"}}Gaudente"
  },
  {
    "label": "107_04_0",
    "text": "{{wordInfo gender=\"1\" indefArticle=\"1\" defArticle=\"5\"}}Ghiottone"
  },
  {
    "label": "107_04_1",
    "text": "{{wordInfo gender=\"2\" indefArticle=\"3\" defArticle=\"7\"}}Ghiottona"
  },
  {
    "label": "108_00_0",
    "text": "{{wordInfo gender=\"1\" indefArticle=\"1\" defArticle=\"5\"}}Torrefattore"
  },
  {
    "label": "108_00_1",
    "text": "{{wordInfo gender=\"2\" indefArticle=\"3\" defArticle=\"7\"}}Torrefattrice"
  },
  {
    "label": "108_01_0",
    "text": "{{wordInfo gender=\"1\" indefArticle=\"1\" defArticle=\"5\"}}Cliente fisso"
  },
  {
    "label": "108_01_1",
    "text": "{{wordInfo gender=\"2\" indefArticle=\"3\" defArticle=\"7\"}}Cliente fissa"
  },
  {
    "label": "108_02_0",
    "text": "{{wordInfo gender=\"2\" indefArticle=\"3\" defArticle=\"7\"}}Pausa caffè"
  },
  {
    "label": "108_02_1",
    "text": "{{fun_00040055 arg=\"\"}}"
  },
  {
    "label": "108_03_0",
    "text": "{{wordInfo gender=\"2\" indefArticle=\"3\" defArticle=\"7\"}}Miscela"
  },
  {
    "label": "108_03_1",
    "text": "{{fun_00040055 arg=\"\"}}"
  },
  {
    "label": "108_04_0",
    "text": "{{wordInfo gender=\"1\" indefArticle=\"1\" defArticle=\"5\"}}Barista"
  },
  {
    "label": "108_04_1",
    "text": "{{wordInfo gender=\"2\" indefArticle=\"3\" defArticle=\"7\"}}Barista"
  },
  {
    "label": "109_00_0",
    "text": "{{wordInfo gender=\"2\" indefArticle=\"3\" defArticle=\"7\"}}Gioventù"
  },
  {
    "label": "109_00_1",
    "text": "{{fun_00040055 arg=\"\"}}"
  },
  {
    "label": "109_01_0",
    "text": "{{wordInfo gender=\"1\" indefArticle=\"1\" defArticle=\"5\"}}Fan del fitness"
  },
  {
    "label": "109_01_1",
    "text": "{{wordInfo gender=\"2\" indefArticle=\"3\" defArticle=\"7\"}}Fan del fitness"
  },
  {
    "label": "109_02_0",
    "text": "{{wordInfo gender=\"1\" indefArticle=\"1\" defArticle=\"8\"}}Atleta"
  },
  {
    "label": "109_02_1",
    "text": "{{wordInfo gender=\"2\" indefArticle=\"4\" defArticle=\"8\"}}Atleta"
  },
  {
    "label": "109_03_0",
    "text": "{{wordInfo gender=\"1\" indefArticle=\"1\" defArticle=\"5\"}}Bodybuilder"
  },
  {
    "label": "109_03_1",
    "text": "{{wordInfo gender=\"2\" indefArticle=\"3\" defArticle=\"7\"}}Bodybuilder"
  },
  {
    "label": "109_04_0",
    "text": "{{wordInfo gender=\"1\" indefArticle=\"1\" defArticle=\"5\"}}Salutista"
  },
  {
    "label": "109_04_1",
    "text": "{{wordInfo gender=\"2\" indefArticle=\"3\" defArticle=\"7\"}}Salutista"
  },
  {
    "label": "999_00_0",
    "text": "{{wordInfo gender=\"1\" indefArticle=\"1\" defArticle=\"8\"}}Isolano"
  },
  {
    "label": "999_00_1",
    "text": "{{wordInfo gender=\"2\" indefArticle=\"4\" defArticle=\"8\"}}Isolana"
  },
  {
    "label": "999_01_0",
    "text": "{{wordInfo gender=\"1\" indefArticle=\"1\" defArticle=\"5\"}}Nuovo colono"
  },
  {
    "label": "999_01_1",
    "text": "{{wordInfo gender=\"2\" indefArticle=\"3\" defArticle=\"7\"}}Nuova colona"
  },
  {
    "label": "999_02_0",
    "text": "{{wordInfo gender=\"1\" indefArticle=\"1\" defArticle=\"5\"}}Papà"
  },
  {
    "label": "999_02_1",
    "text": "{{wordInfo gender=\"2\" indefArticle=\"3\" defArticle=\"7\"}}Mamma"
  },
  {
    "label": "999_03_0",
    "text": "{{wordInfo gender=\"1\" indefArticle=\"1\" defArticle=\"5\"}}Nonno"
  },
  {
    "label": "999_03_1",
    "text": "{{wordInfo gender=\"2\" indefArticle=\"3\" defArticle=\"7\"}}Nonna"
  },
  {
    "label": "999_04_0",
    "text": "{{wordInfo gender=\"1\" indefArticle=\"1\" defArticle=\"5\"}}Figlio"
  },
  {
    "label": "999_04_1",
    "text": "{{wordInfo gender=\"2\" indefArticle=\"3\" defArticle=\"7\"}}Figlia"
  },
  {
    "label": "999_05_0",
    "text": "{{wordInfo gender=\"1\" indefArticle=\"1\" defArticle=\"5\"}}Fratello maggiore"
  },
  {
    "label": "999_05_1",
    "text": "{{wordInfo gender=\"2\" indefArticle=\"3\" defArticle=\"7\"}}Sorella maggiore"
  },
  {
    "label": "999_06_0",
    "text": "{{wordInfo gender=\"1\" indefArticle=\"1\" defArticle=\"5\"}}Fratellino"
  },
  {
    "label": "999_06_1",
    "text": "{{wordInfo gender=\"2\" indefArticle=\"3\" defArticle=\"7\"}}Sorellina"
  },
  {
    "label": "999_07_0",
    "text": "{{wordInfo gender=\"1\" indefArticle=\"1\" defArticle=\"5\"}}Campeggiatore"
  },
  {
    "label": "999_07_1",
    "text": "{{wordInfo gender=\"2\" indefArticle=\"3\" defArticle=\"7\"}}Campeggiatrice"
  },
  {
    "label": "999_08_0",
    "text": "{{wordInfo gender=\"1\" indefArticle=\"1\" defArticle=\"8\"}}Animale domestico"
  },
  {
    "label": "999_08_1",
    "text": "{{fun_00040055 arg=\"\"}}"
  },
  {
    "label": "999_09_0",
    "text": "{{wordInfo gender=\"1\" indefArticle=\"1\" defArticle=\"5\"}}Residente"
  },
  {
    "label": "999_09_1",
    "text": "{{wordInfo gender=\"2\" indefArticle=\"3\" defArticle=\"7\"}}Residente"
  },
  {
    "label": "999_10_0",
    "text": "{{wordInfo gender=\"2\" indefArticle=\"3\" defArticle=\"7\"}}Foresta"
  },
  {
    "label": "999_10_1",
    "text": "{{fun_00040055 arg=\"\"}}"
  },
  {
    "label": "999_11_0",
    "text": "{{wordInfo gender=\"1\" indefArticle=\"1\" defArticle=\"8\"}}Animale"
  },
  {
    "label": "999_11_1",
    "text": "{{fun_00040055 arg=\"\"}}"
  }
]