﻿[
  {
    "label": "001",
    "attribute": "0x00000000",
    "text": "{{anim id=\"FaintSmile\" target=\"actor\" targetSpec=\"\"}}おっ、{{delay frames=\"40\"}}{{ruby charSpan=\"2\" value=\"とうみん\"}}島民のみなさんに、{{delay8}}\nコーディネートを　{{ruby charSpan=\"2\" value=\"ていあん\"}}提案してくれるのかな？{{pageBreak}}{{anim id=\"Explain\" target=\"actor\" targetSpec=\"\"}}{{ruby charSpan=\"1\" value=\"さき\"}}先に　{{ruby charSpan=\"3\" value=\"てすうりょう\"}}手数料を　{{color id=\"1\"}}9000ベル{{color id=\"65535\"}}いただく{{ruby charSpan=\"1\" value=\"か\"}}代わりに{{delay20}}\n{{anim id=\"EmotEnd\" target=\"actor\" targetSpec=\"\"}}{{ruby charSpan=\"2\" value=\"ごじつ\"}}後日、{{delay8}}ご{{ruby charSpan=\"2\" value=\"ていあん\"}}提案へのお{{ruby charSpan=\"1\" value=\"れい\"}}礼として\n{{anim id=\"FaintSmile\" target=\"actor\" targetSpec=\"\"}}{{color id=\"1\"}}マイル{{color id=\"65535\"}}を　{{ruby charSpan=\"2\" value=\"ふよ\"}}付与させてもらうけど{{string value=\"...\"}}"
  },
  {
    "label": "001_01",
    "attribute": "0x02000000",
    "text": "どうするだも？{{delay frames=\"40\"}}\n{{anim id=\"QuestionMark\" target=\"actor\" targetSpec=\"\"}}コーディネートを　{{ruby charSpan=\"2\" value=\"ていあん\"}}提案してくれるだなも？"
  },
  {
    "label": "001_01_a",
    "attribute": "0x00000000",
    "text": "{{anim id=\"Nodding\" target=\"player\" targetSpec=\"\"}}{{ruby charSpan=\"2\" value=\"ていあん\"}}提案する"
  },
  {
    "label": "001_01_b",
    "attribute": "0x00000000",
    "text": "{{anim id=\"Negative\" target=\"actor\" targetSpec=\"\"}}やっぱやめとく"
  },
  {
    "label": "002",
    "attribute": "0x00000000",
    "text": "{{anim id=\"BigSmile\" target=\"actor\" targetSpec=\"\"}}{{ruby charSpan=\"2\" value=\"りょうかい\"}}了解だなも！{{delay frames=\"40\"}}\n{{anim id=\"EmotEnd\" target=\"actor\" targetSpec=\"\"}}{{ruby charSpan=\"1\" value=\"だれ\"}}誰に{{ruby charSpan=\"2\" value=\"ていあん\"}}提案したいのかを　{{delay8}}{{anim id=\"FaintSmile\" target=\"actor\" targetSpec=\"\"}}{{ruby charSpan=\"1\" value=\"おし\"}}教えてちょうだい"
  },
  {
    "label": "003",
    "attribute": "0x00000000",
    "text": "{{anim id=\"FaintSmile\" target=\"actor\" targetSpec=\"\"}}{{selection value=\"SelectedVillager\"}}さんだね！{{delay frames=\"40\"}}\n{{anim id=\"Nodding\" target=\"actor\" targetSpec=\"\"}}さっそく　ご{{ruby charSpan=\"2\" value=\"ほんにん\"}}本人に{{ruby charSpan=\"1\" value=\"き\"}}来てもらって、{{delay20}}\n{{anim id=\"Greeting\" target=\"actor\" targetSpec=\"\"}}{{ruby charSpan=\"2\" value=\"そうだん\"}}相談してみるだなも！"
  },
  {
    "label": "004",
    "attribute": "0x01000000",
    "text": "{{anim id=\"Nodding\" target=\"actor\" targetSpec=\"\"}}さっそく　ご{{ruby charSpan=\"2\" value=\"ていあん\"}}提案を{{ruby charSpan=\"1\" value=\"き\"}}聞こうと{{ruby charSpan=\"1\" value=\"おも\"}}思うけど、{{delay20}}\n{{anim id=\"EmotEnd\" target=\"actor\" targetSpec=\"\"}}{{color id=\"1\"}}{{ruby charSpan=\"2\" value=\"ないそう\"}}内装{{color id=\"65535\"}}と{{color id=\"1\"}}{{ruby charSpan=\"2\" value=\"がいかん\"}}外観{{color id=\"65535\"}}、{{delay20}}{{anim id=\"QuestionMark\" target=\"actor\" targetSpec=\"\"}}どちらのプランを\n{{ruby charSpan=\"1\" value=\"さき\"}}先に　{{delay8}}{{ruby charSpan=\"1\" value=\"き\"}}聞かせてもらえるのかな？"
  },
  {
    "label": "004_a",
    "attribute": "0x00000000",
    "text": "{{anim id=\"Explain\" target=\"actor\" targetSpec=\"\"}}{{ruby charSpan=\"2\" value=\"ないそう\"}}内装から{{ruby charSpan=\"2\" value=\"ていあん\"}}提案する"
  },
  {
    "label": "004_b",
    "attribute": "0x00000000",
    "text": "{{anim id=\"Explain\" target=\"actor\" targetSpec=\"\"}}{{ruby charSpan=\"2\" value=\"がいかん\"}}外観から{{ruby charSpan=\"2\" value=\"ていあん\"}}提案する"
  },
  {
    "label": "011",
    "attribute": "0x02000000",
    "text": "{{anim id=\"FaintSmile\" target=\"actor\" targetSpec=\"\"}}おっ、{{delay20}}{{ruby charSpan=\"1\" value=\"だれ\"}}誰かの　お{{ruby charSpan=\"1\" value=\"す\"}}住まいへの{{ruby charSpan=\"2\" value=\"ていあん\"}}提案が、\n{{anim id=\"QuestionMark\" target=\"actor\" targetSpec=\"\"}}{{ruby charSpan=\"1\" value=\"ほか\"}}他にも　あるだなも？"
  },
  {
    "label": "011_a",
    "attribute": "0x00000000",
    "text": "{{anim id=\"Nodding\" target=\"player\" targetSpec=\"\"}}{{ruby charSpan=\"2\" value=\"ていあん\"}}提案があります"
  },
  {
    "label": "011_b",
    "attribute": "0x00000000",
    "text": "{{anim id=\"Negative\" target=\"player\" targetSpec=\"\"}}{{ruby charSpan=\"1\" value=\"とく\"}}特にないです"
  },
  {
    "label": "012",
    "attribute": "0x00000000",
    "text": "{{anim id=\"Nodding\" target=\"actor\" targetSpec=\"\"}}はいはい、{{delay frames=\"40\"}}\n{{ruby charSpan=\"1\" value=\"だれ\"}}誰のお{{ruby charSpan=\"1\" value=\"うち\"}}家に　{{ruby charSpan=\"2\" value=\"ていあん\"}}提案があるのか、{{delay8}}\n{{anim id=\"QuestionMark\" target=\"actor\" targetSpec=\"\"}}{{ruby charSpan=\"1\" value=\"おし\"}}教えてもらえるかな？"
  },
  {
    "label": "013_01",
    "attribute": "0x02000000",
    "text": "{{anim id=\"FaintSmile\" target=\"actor\" targetSpec=\"\"}}{{selection value=\"SelectedVillager\"}}さんだね！{{delay frames=\"40\"}}\n{{anim id=\"Nodding\" target=\"actor\" targetSpec=\"\"}}{{ruby charSpan=\"3\" value=\"てすうりょう\"}}手数料として　{{color id=\"1\"}}9000ベル{{color id=\"65535\"}}を　いただくけど、{{delay20}}\n{{anim id=\"QuestionMark\" target=\"actor\" targetSpec=\"\"}}ご{{ruby charSpan=\"2\" value=\"ていあん\"}}提案を　{{ruby charSpan=\"1\" value=\"すす\"}}進めていいだなも？"
  },
  {
    "label": "013_01_a",
    "attribute": "0x00000000",
    "text": "{{anim id=\"Nodding\" target=\"player\" targetSpec=\"\"}}{{ruby charSpan=\"2\" value=\"ていあん\"}}提案する"
  },
  {
    "label": "013_01_b",
    "attribute": "0x00000000",
    "text": "{{anim id=\"Negative\" target=\"actor\" targetSpec=\"\"}}やっぱやめとく"
  },
  {
    "label": "013_02",
    "attribute": "0x00000000",
    "text": "{{anim id=\"FaintSmile\" target=\"actor\" targetSpec=\"\"}}{{ruby charSpan=\"2\" value=\"りょうかい\"}}了解だなも！{{delay frames=\"40\"}}\n{{anim id=\"Nodding\" target=\"actor\" targetSpec=\"\"}}じゃあ、{{delay8}}さっそく　ご{{ruby charSpan=\"2\" value=\"ほんにん\"}}本人に{{ruby charSpan=\"1\" value=\"き\"}}来てもらって、{{delay20}}\n{{anim id=\"Greeting\" target=\"actor\" targetSpec=\"\"}}{{ruby charSpan=\"2\" value=\"そうだん\"}}相談してみるだなも！"
  },
  {
    "label": "015",
    "attribute": "0x00000000",
    "text": "{{anim id=\"Explain\" target=\"actor\" targetSpec=\"\"}}{{string value=\"...\"}}{{string value=\"...\"}}\n{{string value=\"...\"}}というわけなんだもよ{{pageBreak}}{{anim id=\"Silent\" target=\"actor\" targetSpec=\"\"}}どう？{{delay frames=\"60\"}}　{{anim id=\"Nodding\" target=\"actor\" targetSpec=\"\"}}{{selection value=\"SelectedVillager\"}}さん{{ruby charSpan=\"1\" value=\"ち\"}}家を\n{{string value=\"PlayerName\"}}さんに　お{{ruby charSpan=\"1\" value=\"まか\"}}任せして、{{delay20}}\n{{anim id=\"QuestionMark\" target=\"actor\" targetSpec=\"\"}}リフォームしてみない？"
  },
  {
    "label": "016",
    "attribute": "0x00000000",
    "text": "{{anim id=\"Nodding\" target=\"actor\" targetSpec=\"\"}}うんうん、{{delay20}}{{ruby charSpan=\"2\" value=\"さんせい\"}}賛成してくれて　よかっただも！{{i10_4}}\n{{anim id=\"Smiling\" target=\"actor\" targetSpec=\"\"}}あとは{{delay20}}　{{string value=\"PlayerName\"}}さんと\nボクに　{{delay8}}{{ruby charSpan=\"1\" value=\"まか\"}}任せてちょうだいね！"
  },
  {
    "label": "017",
    "attribute": "0x00000000",
    "text": "それじゃ、{{delay8}}{{anim id=\"Explain\" target=\"actor\" targetSpec=\"\"}}{{ruby charSpan=\"1\" value=\"はなし\"}}話もまとまったことだし、{{delay20}}\n{{ruby charSpan=\"3\" value=\"てすうりょう\"}}手数料の{{color id=\"1\"}}9000ベル{{color id=\"65535\"}}を　いただいて{{anim id=\"FaintSmile\" target=\"actor\" targetSpec=\"\"}}{{string value=\"...\"}}"
  },
  {
    "label": "020",
    "attribute": "0x00000000",
    "text": "{{anim id=\"FaintSmile\" target=\"actor\" targetSpec=\"\"}}はいはい、{{delay frames=\"40\"}}\n{{ruby charSpan=\"2\" value=\"ないそう\"}}内装を　{{ruby charSpan=\"2\" value=\"ていあん\"}}提案してくれるんだね！"
  },
  {
    "label": "020_01",
    "attribute": "0x00000000",
    "text": "{{anim id=\"Nodding\" target=\"actor\" targetSpec=\"\"}}{{selection value=\"SelectedVillager\"}}さんの　お{{ruby charSpan=\"2\" value=\"へや\"}}部屋を{{delay8}}\nイメージしながら、{{delay20}}\n{{anim id=\"Smiling\" target=\"actor\" targetSpec=\"\"}}{{ruby charSpan=\"2\" value=\"ないそう\"}}内装プランを　{{ruby charSpan=\"1\" value=\"き\"}}聞かせてもらうだなも！"
  },
  {
    "label": "021",
    "attribute": "0x00000000",
    "text": "{{anim id=\"FaintSmile\" target=\"actor\" targetSpec=\"\"}}{{ruby charSpan=\"2\" value=\"りょうかい\"}}了解だなも！{{delay frames=\"40\"}}\n{{anim id=\"EmotEnd\" target=\"actor\" targetSpec=\"\"}}どんな{{ruby charSpan=\"2\" value=\"がいかん\"}}外観を　{{ruby charSpan=\"2\" value=\"ていあん\"}}提案したいのか、{{delay20}}\n{{anim id=\"QuestionMark\" target=\"actor\" targetSpec=\"\"}}カタログを{{ruby charSpan=\"1\" value=\"み\"}}見ながら　{{ruby charSpan=\"1\" value=\"おし\"}}教えてもらえるかな？"
  },
  {
    "label": "022",
    "attribute": "0x01000000",
    "text": "{{anim id=\"Smiling\" target=\"actor\" targetSpec=\"\"}}うんうん、{{delay20}}いい{{ruby charSpan=\"1\" value=\"かん\"}}感じだなも！{{i10_4}}\n{{anim id=\"EmotEnd\" target=\"actor\" targetSpec=\"\"}}じゃあ、{{delay8}}{{ruby charSpan=\"2\" value=\"がいかん\"}}外観のプランは　{{ruby charSpan=\"1\" value=\"き\"}}聞けたから{{string value=\"...\"}}{{delay frames=\"40\"}}\n{{anim id=\"QuestionMark\" target=\"actor\" targetSpec=\"\"}}{{ruby charSpan=\"1\" value=\"つぎ\"}}次は、{{ruby charSpan=\"2\" value=\"ないそう\"}}内装の{{ruby charSpan=\"1\" value=\"はなし\"}}話に　{{ruby charSpan=\"1\" value=\"うつ\"}}移ってもいいかな？"
  },
  {
    "label": "022_a",
    "attribute": "0x00000000",
    "text": "{{anim id=\"Nodding\" target=\"actor\" targetSpec=\"\"}}オッケー！"
  },
  {
    "label": "022_b",
    "attribute": "0x00000000",
    "text": "{{anim id=\"Explain\" target=\"actor\" targetSpec=\"\"}}{{ruby charSpan=\"2\" value=\"ないそう\"}}内装はそのままで"
  },
  {
    "label": "023",
    "attribute": "0x00000000",
    "text": "{{anim id=\"BigSmile\" target=\"actor\" targetSpec=\"\"}}{{ruby charSpan=\"2\" value=\"りょうかい\"}}了解だなも！{{delay frames=\"40\"}}{{anim id=\"EmotEnd\" target=\"actor\" targetSpec=\"\"}}\n{{ruby charSpan=\"2\" value=\"ないそう\"}}内装はそのままで、{{delay20}}{{anim id=\"Nodding\" target=\"actor\" targetSpec=\"\"}}{{ruby charSpan=\"2\" value=\"がいかん\"}}外観のリフォームだけを{{delay8}}\n{{ruby charSpan=\"2\" value=\"ていあん\"}}提案したいってことだね！"
  },
  {
    "label": "023_01",
    "attribute": "0x00000000",
    "text": "{{anim id=\"Serious\" target=\"actor\" targetSpec=\"\"}}それじゃ、{{delay20}}{{anim id=\"Nodding\" target=\"actor\" targetSpec=\"\"}}あとはボクの{{ruby charSpan=\"2\" value=\"しごと\"}}仕事なんだなも！{{delay frames=\"40\"}}\n{{anim id=\"EmotEnd\" target=\"actor\" targetSpec=\"\"}}{{selection value=\"SelectedVillager\"}}さんに　{{ruby charSpan=\"2\" value=\"ていあん\"}}提案の{{ruby charSpan=\"2\" value=\"ないよう\"}}内容を\nお{{ruby charSpan=\"1\" value=\"つた\"}}伝えして、{{anim id=\"FaintSmile\" target=\"actor\" targetSpec=\"\"}}{{ruby charSpan=\"2\" value=\"かいそう\"}}改装の{{ruby charSpan=\"2\" value=\"じゅんび\"}}準備を{{ruby charSpan=\"1\" value=\"すす\"}}進めるだも！"
  },
  {
    "label": "024",
    "attribute": "0x00000000",
    "text": "{{anim id=\"FaintSmile\" target=\"actor\" targetSpec=\"\"}}{{ruby charSpan=\"2\" value=\"あした\"}}明日には{{delay8}}　プラン{{ruby charSpan=\"1\" value=\"どお\"}}通りのお{{ruby charSpan=\"1\" value=\"うち\"}}家が\n{{ruby charSpan=\"2\" value=\"かんせい\"}}完成してると{{ruby charSpan=\"1\" value=\"おも\"}}思うし、{{delay20}}{{string value=\"PlayerName\"}}さんも\n{{anim id=\"Hello\" target=\"actor\" targetSpec=\"\"}}ぜひ、{{ruby charSpan=\"2\" value=\"ようす\"}}様子を{{ruby charSpan=\"1\" value=\"み\"}}見に{{ruby charSpan=\"1\" value=\"い\"}}行ってあげてね！"
  },
  {
    "label": "031",
    "attribute": "0x00000000",
    "text": "{{anim id=\"Thinking\" target=\"actor\" targetSpec=\"\"}}うーん{{string value=\"...\"}}{{delay20}}　{{selection value=\"SelectedVillager\"}}さんは\n{{ruby charSpan=\"2\" value=\"いじゅう\"}}移住したてで　{{ruby charSpan=\"1\" value=\"に\"}}荷ほどきも　まだだろうし、{{delay frames=\"30\"}}\n{{anim id=\"ShyBoy\" target=\"actor\" targetSpec=\"\"}}{{ruby charSpan=\"2\" value=\"ていあん\"}}提案するには{{delay8}}　ちょっと{{ruby charSpan=\"1\" value=\"はや\"}}早いんじゃない？{{pageBreak}}{{anim id=\"EmotEnd\" target=\"actor\" targetSpec=\"\"}}{{ruby charSpan=\"2\" value=\"なんにち\"}}何日か{{ruby charSpan=\"1\" value=\"た\"}}経ってから、{{delay8}}あらためて{{delay20}}\n{{anim id=\"Smiling\" target=\"actor\" targetSpec=\"\"}}{{ruby charSpan=\"2\" value=\"ていあん\"}}提案を{{ruby charSpan=\"1\" value=\"かんが\"}}考えてみたら　いいと{{ruby charSpan=\"1\" value=\"おも\"}}思うだなも！"
  },
  {
    "label": "032",
    "attribute": "0x00000000",
    "text": "{{anim id=\"Thinking\" target=\"actor\" targetSpec=\"\"}}うーん{{string value=\"...\"}}　{{selection value=\"SelectedVillager\"}}さんは\nこの{{string value=\"32\"}}からの　{{ruby charSpan=\"2\" value=\"たいきょ\"}}退去が{{ruby charSpan=\"1\" value=\"き\"}}決まってるし、{{delay frames=\"30\"}}\n{{anim id=\"Negative\" target=\"actor\" targetSpec=\"\"}}{{ruby charSpan=\"1\" value=\"いま\"}}今からでは　{{ruby charSpan=\"2\" value=\"ていあん\"}}提案ができないんだなも{{string value=\"...\"}}{{pageBreak}}{{anim id=\"EmotEnd\" target=\"actor\" targetSpec=\"\"}}また、{{ruby charSpan=\"1\" value=\"ほか\"}}他の{{ruby charSpan=\"1\" value=\"だれ\"}}誰かに　{{ruby charSpan=\"2\" value=\"ていあん\"}}提案があるときは、\n{{anim id=\"Smiling\" target=\"actor\" targetSpec=\"\"}}{{ruby charSpan=\"2\" value=\"そうだん\"}}相談に{{ruby charSpan=\"1\" value=\"き\"}}来てちょうだいね！"
  },
  {
    "label": "033",
    "attribute": "0x00000000",
    "text": "{{anim id=\"Shocked\" target=\"actor\" targetSpec=\"\"}}えっ{{string value=\"...\"}}{{delay frames=\"40\"}}\n{{selection value=\"SelectedVillager\"}}さんだなも？！{{pageBreak}}{{anim id=\"ShyBoy\" target=\"actor\" targetSpec=\"\"}}{{ruby charSpan=\"2\" value=\"ぐうぜん\"}}偶然なことに、{{ruby charSpan=\"1\" value=\"ほか\"}}他の{{ruby charSpan=\"1\" value=\"ひと\"}}人からも{{delay20}}\n{{selection value=\"SelectedVillager\"}}さんの　お{{ruby charSpan=\"1\" value=\"うち\"}}家への{{ruby charSpan=\"2\" value=\"ていあん\"}}提案を{{delay8}}\nもらってるんだよね{{string value=\"...\"}}{{pageBreak}}{{anim id=\"Explain\" target=\"actor\" targetSpec=\"\"}}さすがに、{{delay8}}ふたりからの{{ruby charSpan=\"2\" value=\"ていあん\"}}提案を\n{{anim id=\"Negative\" target=\"actor\" targetSpec=\"\"}}{{ruby charSpan=\"2\" value=\"いちど\"}}一度に　{{ruby charSpan=\"1\" value=\"き\"}}聞いてあげることはできないし、{{delay20}}\n{{anim id=\"Smiling\" target=\"actor\" targetSpec=\"\"}}また、{{ruby charSpan=\"1\" value=\"ひ\"}}日を{{ruby charSpan=\"1\" value=\"あらた\"}}改めて　{{ruby charSpan=\"2\" value=\"ていあん\"}}提案してほしいだなも！"
  },
  {
    "label": "034",
    "attribute": "0x00000000",
    "text": "{{anim id=\"Thinking\" target=\"actor\" targetSpec=\"\"}}うーん{{string value=\"...\"}}　{{selection value=\"SelectedVillager\"}}さんは\nテントに　お{{ruby charSpan=\"1\" value=\"す\"}}住まいだから、{{delay frames=\"30\"}}\n{{anim id=\"EmotEnd\" target=\"actor\" targetSpec=\"\"}}リフォームの{{ruby charSpan=\"1\" value=\"はなし\"}}話は　{{anim id=\"Negative\" target=\"actor\" targetSpec=\"\"}}{{ruby charSpan=\"1\" value=\"はや\"}}早すぎるかな{{string value=\"...\"}}{{pageBreak}}{{anim id=\"EmotEnd\" target=\"actor\" targetSpec=\"\"}}この{{ruby charSpan=\"1\" value=\"さき\"}}先、{{selection value=\"SelectedVillager\"}}さんが\nマイホームを　{{ruby charSpan=\"1\" value=\"も\"}}持つことになったら、{{delay20}}\n{{anim id=\"FaintSmile\" target=\"actor\" targetSpec=\"\"}}また、ご{{ruby charSpan=\"2\" value=\"ていあん\"}}提案してちょうだいね！"
  },
  {
    "label": "034_01",
    "attribute": "0x00000000",
    "text": "{{anim id=\"Thinking\" target=\"actor\" targetSpec=\"\"}}うーん{{string value=\"...\"}}　{{selection value=\"SelectedVillager\"}}さんは\nさっき{{ruby charSpan=\"2\" value=\"でんわ\"}}電話したら　{{ruby charSpan=\"2\" value=\"たいちょう\"}}体調が{{ruby charSpan=\"1\" value=\"わる\"}}悪そうだったし、{{delay20}}\n{{anim id=\"Negative\" target=\"actor\" targetSpec=\"\"}}{{ruby charSpan=\"2\" value=\"きょう\"}}今日は　やめといた{{ruby charSpan=\"1\" value=\"ほう\"}}方が　いいと{{ruby charSpan=\"1\" value=\"おも\"}}思うだも{{pageBreak}}{{anim id=\"FaintSmile\" target=\"actor\" targetSpec=\"\"}}{{selection value=\"SelectedVillager\"}}さんが　{{ruby charSpan=\"2\" value=\"げんき\"}}元気になったら{{delay8}}\n{{anim id=\"Nodding\" target=\"actor\" targetSpec=\"\"}}ご{{ruby charSpan=\"2\" value=\"ていあん\"}}提案を　{{ruby charSpan=\"2\" value=\"ちゅうかい\"}}仲介させてもらうから、{{delay20}}\n{{anim id=\"FaintSmile\" target=\"actor\" targetSpec=\"\"}}また、{{ruby charSpan=\"1\" value=\"ひ\"}}日を{{ruby charSpan=\"1\" value=\"あらた\"}}改めて　{{ruby charSpan=\"2\" value=\"そうだん\"}}相談に{{ruby charSpan=\"1\" value=\"き\"}}来てね！"
  },
  {
    "label": "035",
    "attribute": "0x00000000",
    "text": "{{anim id=\"BigSmile\" target=\"actor\" targetSpec=\"\"}}りょーかーい！{{i10_4}}\n{{anim id=\"Eh\" target=\"actor\" targetSpec=\"\"}}{{string value=\"...\"}}ありゃ！{{delay8}}　{{string value=\"PlayerName\"}}さん{{delay frames=\"40\"}}\n{{anim id=\"OhGeez\" target=\"actor\" targetSpec=\"\"}}お{{ruby charSpan=\"1\" value=\"かね\"}}金が　{{ruby charSpan=\"1\" value=\"た\"}}足りないみたいだもね{{string value=\"...\"}}\n{{anim id=\"EmotEnd\" target=\"actor\" targetSpec=\"\"}}コーディネートの{{ruby charSpan=\"2\" value=\"ていあん\"}}提案に　{{ruby charSpan=\"2\" value=\"ひつよう\"}}必要な{{ruby charSpan=\"3\" value=\"てすうりょう\"}}手数料は、{{delay8}}\n{{anim id=\"ShyBoy\" target=\"actor\" targetSpec=\"\"}}ご{{ruby charSpan=\"2\" value=\"いっかつ\"}}一括での　{{ruby charSpan=\"2\" value=\"しはら\"}}支払いをお{{ruby charSpan=\"1\" value=\"ねが\"}}願いしてるだも{{string value=\"...\"}}{{delay frames=\"40\"}}\n{{anim id=\"EmotEnd\" target=\"actor\" targetSpec=\"\"}}お{{ruby charSpan=\"1\" value=\"かね\"}}金を{{ruby charSpan=\"2\" value=\"じゅんび\"}}準備してから　{{anim id=\"FaintSmile\" target=\"actor\" targetSpec=\"\"}}また{{ruby charSpan=\"2\" value=\"そうだん\"}}相談に{{ruby charSpan=\"1\" value=\"き\"}}来てね！"
  },
  {
    "label": "036",
    "attribute": "0x02000000",
    "text": "{{anim id=\"Shocked\" target=\"actor\" targetSpec=\"\"}}キャンセルだも？！{{delay frames=\"40\"}}\n{{anim id=\"Frantic\" target=\"actor\" targetSpec=\"\"}}{{ruby charSpan=\"2\" value=\"ていあん\"}}提案そのものが　なかったことになるけど、{{delay20}}\n{{anim id=\"QuestionMark\" target=\"actor\" targetSpec=\"\"}}{{ruby charSpan=\"2\" value=\"ほんとう\"}}本当にキャンセルして　いいだなも？"
  },
  {
    "label": "036_a",
    "attribute": "0x00000000",
    "text": "{{anim id=\"Nodding\" target=\"actor\" targetSpec=\"\"}}{{ruby charSpan=\"2\" value=\"ていあん\"}}提案をキャンセルする"
  },
  {
    "label": "036_b",
    "attribute": "0x00000000",
    "text": "{{anim id=\"Negative\" target=\"actor\" targetSpec=\"\"}}ちょっと{{ruby charSpan=\"1\" value=\"ま\"}}待って！"
  },
  {
    "label": "037",
    "attribute": "0x00000000",
    "text": "あらら、{{delay20}}{{anim id=\"ShyBoy\" target=\"actor\" targetSpec=\"\"}}でも　{{ruby charSpan=\"2\" value=\"ていあん\"}}提案してくれた\n{{string value=\"PlayerName\"}}さんが　そう{{ruby charSpan=\"1\" value=\"い\"}}言うなら{{delay8}}\n{{ruby charSpan=\"2\" value=\"しかた\"}}仕方がないね{{string value=\"...\"}}"
  },
  {
    "label": "037_01_01",
    "attribute": "0x00000000",
    "text": "{{anim id=\"Explain\" target=\"actor\" targetSpec=\"\"}}それじゃ、{{delay8}}{{ruby charSpan=\"2\" value=\"ていあん\"}}提案は　キャンセルってことで、{{delay20}}\n{{anim id=\"EmotEnd\" target=\"actor\" targetSpec=\"\"}}{{ruby charSpan=\"1\" value=\"あず\"}}預かってた　{{ruby charSpan=\"3\" value=\"てすうりょう\"}}手数料の{{color id=\"1\"}}9000ベル{{color id=\"65535\"}}は、{{delay8}}\n{{anim id=\"FaintSmile\" target=\"actor\" targetSpec=\"\"}}この{{ruby charSpan=\"1\" value=\"ば\"}}場で　{{ruby charSpan=\"1\" value=\"かえ\"}}返しておくね"
  },
  {
    "label": "037_01_02",
    "attribute": "0x00000000",
    "text": "{{anim id=\"Explain\" target=\"actor\" targetSpec=\"\"}}それじゃ、{{delay8}}{{ruby charSpan=\"2\" value=\"ていあん\"}}提案は　キャンセルってことで、{{delay20}}\n{{anim id=\"EmotEnd\" target=\"actor\" targetSpec=\"\"}}{{ruby charSpan=\"1\" value=\"あず\"}}預かってた　{{ruby charSpan=\"3\" value=\"てすうりょう\"}}手数料の{{color id=\"1\"}}9000ベル{{color id=\"65535\"}}は、{{delay8}}\n{{anim id=\"FaintSmile\" target=\"actor\" targetSpec=\"\"}}たぬきバンクの　{{ruby charSpan=\"2\" value=\"こうざ\"}}口座に{{ruby charSpan=\"1\" value=\"ふ\"}}振り{{ruby charSpan=\"1\" value=\"こ\"}}込んでおくね"
  },
  {
    "label": "037_02",
    "attribute": "0x00000000",
    "text": "{{anim id=\"EmotEnd\" target=\"actor\" targetSpec=\"\"}}また、{{delay8}}{{ruby charSpan=\"1\" value=\"だれ\"}}誰かの　お{{ruby charSpan=\"1\" value=\"す\"}}住まいについて\n{{ruby charSpan=\"2\" value=\"ていあん\"}}提案があるときは、{{delay20}}{{anim id=\"Hello\" target=\"actor\" targetSpec=\"\"}}{{ruby charSpan=\"2\" value=\"そうだん\"}}相談に{{ruby charSpan=\"1\" value=\"き\"}}来てね！"
  },
  {
    "label": "038",
    "attribute": "0x00000000",
    "text": "{{anim id=\"Smiling\" target=\"actor\" targetSpec=\"\"}}{{ruby charSpan=\"2\" value=\"りょうかい\"}}了解だなも！{{delay frames=\"40\"}}{{anim id=\"EmotEnd\" target=\"actor\" targetSpec=\"\"}}　{{selection value=\"SelectedVillager\"}}さんの{{ruby charSpan=\"1\" value=\"いえ\"}}家は、\n{{anim id=\"FaintSmile\" target=\"actor\" targetSpec=\"\"}}{{ruby charSpan=\"2\" value=\"あした\"}}明日には　{{ruby charSpan=\"2\" value=\"ていあん\"}}提案してくれた{{ruby charSpan=\"1\" value=\"とお\"}}通りに\n{{ruby charSpan=\"1\" value=\"う\"}}生まれ{{ruby charSpan=\"1\" value=\"か\"}}変わってると{{ruby charSpan=\"1\" value=\"おも\"}}思うから、{{delay20}}{{anim id=\"Greeting\" target=\"actor\" targetSpec=\"\"}}お{{ruby charSpan=\"1\" value=\"たの\"}}楽しみに～！"
  },
  {
    "label": "041",
    "attribute": "0x00000000",
    "text": "{{anim id=\"Smiling\" target=\"actor\" targetSpec=\"\"}}はいはい、{{delay20}}{{selection value=\"SelectedVillager\"}}さんだもね"
  },
  {
    "label": "041_01",
    "attribute": "0x06000000",
    "text": "{{selection value=\"SelectedVillager\"}}さんには、{{delay20}}\n{{ruby charSpan=\"2\" value=\"きょう\"}}今日すでに、{{delay8}}{{anim id=\"Explain\" target=\"actor\" targetSpec=\"\"}}{{color id=\"1\"}}{{ruby charSpan=\"2\" value=\"ないそう\"}}内装{{color id=\"65535\"}}と{{color id=\"1\"}}{{ruby charSpan=\"2\" value=\"がいかん\"}}外観{{color id=\"65535\"}}　{{ruby charSpan=\"2\" value=\"りょうほう\"}}両方のプランを\n{{ruby charSpan=\"2\" value=\"ていあん\"}}提案してるから{{string value=\"...\"}}\n{{anim id=\"FaintSmile\" target=\"actor\" targetSpec=\"\"}}それぞれのプランに\n{{ruby charSpan=\"2\" value=\"へんこう\"}}変更したいところがあるなら、{{delay20}}\n{{anim id=\"QuestionMark\" target=\"actor\" targetSpec=\"\"}}{{ruby charSpan=\"2\" value=\"じゅんばん\"}}順番に　{{ruby charSpan=\"1\" value=\"き\"}}聞いていくけど、どうするだなも？"
  },
  {
    "label": "041_01_a",
    "attribute": "0x00000000",
    "text": "{{anim id=\"Explain\" target=\"actor\" targetSpec=\"\"}}{{ruby charSpan=\"2\" value=\"ないそう\"}}内装のプラン{{ruby charSpan=\"2\" value=\"へんこう\"}}変更"
  },
  {
    "label": "041_01_b",
    "attribute": "0x00000000",
    "text": "{{anim id=\"Explain\" target=\"actor\" targetSpec=\"\"}}{{ruby charSpan=\"2\" value=\"がいかん\"}}外観のプラン{{ruby charSpan=\"2\" value=\"へんこう\"}}変更"
  },
  {
    "label": "041_01_c",
    "attribute": "0x00000000",
    "text": "{{anim id=\"Explain\" target=\"actor\" targetSpec=\"\"}}{{ruby charSpan=\"2\" value=\"ていあん\"}}提案のキャンセル"
  },
  {
    "label": "041_01_d",
    "attribute": "0x00000000",
    "text": "やっぱやめとく"
  },
  {
    "label": "041_02",
    "attribute": "0x06000000",
    "text": "{{anim id=\"FaintSmile\" target=\"actor\" targetSpec=\"\"}}{{selection value=\"SelectedVillager\"}}さんには、{{delay20}}{{ruby charSpan=\"2\" value=\"きょう\"}}今日はすでに\nお{{ruby charSpan=\"1\" value=\"うち\"}}家の{{color id=\"1\"}}{{ruby charSpan=\"2\" value=\"ないそう\"}}内装{{color id=\"65535\"}}を　{{anim id=\"Nodding\" target=\"actor\" targetSpec=\"\"}}{{ruby charSpan=\"2\" value=\"ていあん\"}}提案してもらってるよね？{{pageBreak}}{{anim id=\"Explain\" target=\"actor\" targetSpec=\"\"}}このプランを　{{ruby charSpan=\"2\" value=\"へんこう\"}}変更したり、{{delay20}}\n{{anim id=\"Nodding\" target=\"actor\" targetSpec=\"\"}}{{color id=\"1\"}}{{ruby charSpan=\"2\" value=\"がいかん\"}}外観{{color id=\"65535\"}}も　{{ruby charSpan=\"2\" value=\"ついか\"}}追加で{{ruby charSpan=\"2\" value=\"ていあん\"}}提案したいのなら、\n{{anim id=\"FaintSmile\" target=\"actor\" targetSpec=\"\"}}{{ruby charSpan=\"1\" value=\"はなし\"}}話を{{ruby charSpan=\"1\" value=\"き\"}}聞かせてもらうけど、{{anim id=\"QuestionMark\" target=\"actor\" targetSpec=\"\"}}どうするだなも？"
  },
  {
    "label": "041_02_a",
    "attribute": "0x00000000",
    "text": "{{anim id=\"Explain\" target=\"actor\" targetSpec=\"\"}}{{ruby charSpan=\"2\" value=\"ないそう\"}}内装のプラン{{ruby charSpan=\"2\" value=\"へんこう\"}}変更"
  },
  {
    "label": "041_02_b",
    "attribute": "0x00000000",
    "text": "{{anim id=\"Explain\" target=\"actor\" targetSpec=\"\"}}{{ruby charSpan=\"2\" value=\"がいかん\"}}外観も{{ruby charSpan=\"2\" value=\"ていあん\"}}提案したい"
  },
  {
    "label": "041_02_c",
    "attribute": "0x00000000",
    "text": "{{anim id=\"Explain\" target=\"actor\" targetSpec=\"\"}}{{ruby charSpan=\"2\" value=\"ていあん\"}}提案のキャンセル"
  },
  {
    "label": "041_02_d",
    "attribute": "0x00000000",
    "text": "やっぱやめとく"
  },
  {
    "label": "041_03",
    "attribute": "0x06000000",
    "text": "{{anim id=\"FaintSmile\" target=\"actor\" targetSpec=\"\"}}{{selection value=\"SelectedVillager\"}}さんには、{{delay20}}{{ruby charSpan=\"2\" value=\"きょう\"}}今日はすでに\nお{{ruby charSpan=\"1\" value=\"うち\"}}家の{{color id=\"1\"}}{{ruby charSpan=\"2\" value=\"がいかん\"}}外観{{color id=\"65535\"}}を　{{anim id=\"Nodding\" target=\"actor\" targetSpec=\"\"}}{{ruby charSpan=\"2\" value=\"ていあん\"}}提案してもらってるよね？{{pageBreak}}{{anim id=\"Explain\" target=\"actor\" targetSpec=\"\"}}このプランを　{{ruby charSpan=\"2\" value=\"へんこう\"}}変更したり、{{delay20}}\n{{anim id=\"Nodding\" target=\"actor\" targetSpec=\"\"}}{{color id=\"1\"}}{{ruby charSpan=\"2\" value=\"ないそう\"}}内装{{color id=\"65535\"}}も　{{ruby charSpan=\"2\" value=\"ついか\"}}追加で{{ruby charSpan=\"2\" value=\"ていあん\"}}提案したいのなら、\n{{anim id=\"FaintSmile\" target=\"actor\" targetSpec=\"\"}}{{ruby charSpan=\"1\" value=\"はなし\"}}話を{{ruby charSpan=\"1\" value=\"き\"}}聞いてあげるけど、{{anim id=\"QuestionMark\" target=\"actor\" targetSpec=\"\"}}どうするだなも？"
  },
  {
    "label": "041_03_a",
    "attribute": "0x00000000",
    "text": "{{anim id=\"Explain\" target=\"actor\" targetSpec=\"\"}}{{ruby charSpan=\"2\" value=\"がいかん\"}}外観のプラン{{ruby charSpan=\"2\" value=\"へんこう\"}}変更"
  },
  {
    "label": "041_03_b",
    "attribute": "0x00000000",
    "text": "{{anim id=\"Explain\" target=\"actor\" targetSpec=\"\"}}{{ruby charSpan=\"2\" value=\"ないそう\"}}内装も{{ruby charSpan=\"2\" value=\"ていあん\"}}提案したい"
  },
  {
    "label": "041_03_c",
    "attribute": "0x00000000",
    "text": "{{anim id=\"Explain\" target=\"actor\" targetSpec=\"\"}}{{ruby charSpan=\"2\" value=\"ていあん\"}}提案のキャンセル"
  },
  {
    "label": "041_03_d",
    "attribute": "0x00000000",
    "text": "やっぱやめとく"
  },
  {
    "label": "042",
    "attribute": "0x00000000",
    "text": "{{anim id=\"Smiling\" target=\"actor\" targetSpec=\"\"}}はいはい、{{delay frames=\"40\"}}{{anim id=\"EmotEnd\" target=\"actor\" targetSpec=\"\"}}じゃあ　{{ruby charSpan=\"3\" value=\"ていあんちゅう\"}}提案中のプランを\n{{anim id=\"FaintSmile\" target=\"actor\" targetSpec=\"\"}}イメージしながら、{{delay20}}どこを{{ruby charSpan=\"2\" value=\"へんこう\"}}変更したいのかを\n{{anim id=\"Greeting\" target=\"actor\" targetSpec=\"\"}}{{ruby charSpan=\"1\" value=\"おし\"}}教えてもらうだなも！"
  },
  {
    "label": "043",
    "attribute": "0x00000000",
    "text": "{{anim id=\"Smiling\" target=\"actor\" targetSpec=\"\"}}はいはい、{{delay frames=\"40\"}}{{anim id=\"EmotEnd\" target=\"actor\" targetSpec=\"\"}}じゃあ、{{delay8}}{{anim id=\"Explain\" target=\"actor\" targetSpec=\"\"}}{{ruby charSpan=\"2\" value=\"ていあん\"}}提案してもらってる\n{{ruby charSpan=\"2\" value=\"がいかん\"}}外観のプランを　{{delay8}}どう{{ruby charSpan=\"2\" value=\"へんこう\"}}変更したいのか、{{delay frames=\"40\"}}\n{{anim id=\"Hello\" target=\"actor\" targetSpec=\"\"}}カタログを{{ruby charSpan=\"1\" value=\"み\"}}見ながら　{{ruby charSpan=\"1\" value=\"おし\"}}教えてもらえるかな？"
  },
  {
    "label": "044",
    "attribute": "0x01000000",
    "text": "{{anim id=\"Smiling\" target=\"actor\" targetSpec=\"\"}}うんうん、{{delay20}}いい{{ruby charSpan=\"1\" value=\"かん\"}}感じだなも！{{i10_4}}\n{{anim id=\"EmotEnd\" target=\"actor\" targetSpec=\"\"}}じゃあ、{{delay8}}{{ruby charSpan=\"2\" value=\"がいかん\"}}外観は　これで{{ruby charSpan=\"2\" value=\"けってい\"}}決定して{{string value=\"...\"}}{{pageBreak}}{{anim id=\"Nodding\" target=\"actor\" targetSpec=\"\"}}{{ruby charSpan=\"1\" value=\"つぎ\"}}次は　{{ruby charSpan=\"2\" value=\"ないそう\"}}内装の{{ruby charSpan=\"1\" value=\"はなし\"}}話に{{ruby charSpan=\"1\" value=\"うつ\"}}移るけど、{{delay20}}\n{{ruby charSpan=\"1\" value=\"いま\"}}今のプランから、{{delay8}}{{ruby charSpan=\"1\" value=\"なに\"}}何か{{anim id=\"QuestionMark\" target=\"actor\" targetSpec=\"\"}}{{ruby charSpan=\"2\" value=\"へんこう\"}}変更はあるだなも？"
  },
  {
    "label": "044_01",
    "attribute": "0x01000000",
    "text": "{{anim id=\"Smiling\" target=\"actor\" targetSpec=\"\"}}うんうん、{{delay20}}いい{{ruby charSpan=\"1\" value=\"かん\"}}感じだなも！{{i10_4}}\n{{anim id=\"Nodding\" target=\"actor\" targetSpec=\"\"}}じゃあ、{{delay8}}{{ruby charSpan=\"2\" value=\"がいかん\"}}外観は　これで{{ruby charSpan=\"2\" value=\"けってい\"}}決定して{{string value=\"...\"}}{{pageBreak}}{{anim id=\"Serious\" target=\"actor\" targetSpec=\"\"}}{{ruby charSpan=\"2\" value=\"ないそう\"}}内装については　どうする？{{delay frames=\"40\"}}\n{{anim id=\"Negative\" target=\"actor\" targetSpec=\"\"}}{{ruby charSpan=\"1\" value=\"いま\"}}今は、{{ruby charSpan=\"2\" value=\"ていあん\"}}提案をもらってないんだけど、{{delay20}}\n{{anim id=\"QuestionMark\" target=\"actor\" targetSpec=\"\"}}{{ruby charSpan=\"1\" value=\"なに\"}}何かプランがあるのかな？"
  },
  {
    "label": "044_01_a",
    "attribute": "0x00000000",
    "text": "{{anim id=\"Nodding\" target=\"actor\" targetSpec=\"\"}}{{ruby charSpan=\"2\" value=\"ないそう\"}}内装も{{ruby charSpan=\"2\" value=\"ていあん\"}}提案したい"
  },
  {
    "label": "044_01_b",
    "attribute": "0x00000000",
    "text": "{{anim id=\"Explain\" target=\"actor\" targetSpec=\"\"}}{{ruby charSpan=\"2\" value=\"ないそう\"}}内装はそのままで"
  },
  {
    "label": "044_a",
    "attribute": "0x00000000",
    "text": "{{anim id=\"Nodding\" target=\"actor\" targetSpec=\"\"}}{{ruby charSpan=\"2\" value=\"へんこう\"}}変更がある"
  },
  {
    "label": "044_b",
    "attribute": "0x00000000",
    "text": "{{anim id=\"Explain\" target=\"actor\" targetSpec=\"\"}}そのままでオッケー"
  },
  {
    "label": "045",
    "attribute": "0x00000000",
    "text": "{{anim id=\"Smiling\" target=\"actor\" targetSpec=\"\"}}それじゃあ、{{ruby charSpan=\"2\" value=\"ないそう\"}}内装の{{ruby charSpan=\"1\" value=\"ほう\"}}方は{{delay20}}\n{{anim id=\"Nodding\" target=\"actor\" targetSpec=\"\"}}{{ruby charSpan=\"2\" value=\"ていあん\"}}提案してもらったプランから　{{ruby charSpan=\"2\" value=\"へんこう\"}}変更せずに{{delay8}}\nそのまま　{{ruby charSpan=\"1\" value=\"すす\"}}進めておくね"
  },
  {
    "label": "046",
    "attribute": "0x00000000",
    "text": "{{anim id=\"Smiling\" target=\"actor\" targetSpec=\"\"}}それじゃあ、{{ruby charSpan=\"2\" value=\"ないそう\"}}内装については{{delay20}}\n{{ruby charSpan=\"1\" value=\"ひ\"}}引き{{ruby charSpan=\"1\" value=\"つづ\"}}続き、{{ruby charSpan=\"2\" value=\"ていあん\"}}提案はナシってことで\n{{anim id=\"Nodding\" target=\"actor\" targetSpec=\"\"}}{{ruby charSpan=\"1\" value=\"はなし\"}}話を{{ruby charSpan=\"1\" value=\"すす\"}}進めておくね！"
  },
  {
    "label": "047",
    "attribute": "0x00000000",
    "text": "{{anim id=\"Smiling\" target=\"actor\" targetSpec=\"\"}}それじゃ、{{delay20}}プラン{{ruby charSpan=\"2\" value=\"へんこう\"}}変更の{{ruby charSpan=\"1\" value=\"はなし\"}}話は、\n{{anim id=\"Nodding\" target=\"actor\" targetSpec=\"\"}}これで　{{ruby charSpan=\"2\" value=\"かんりょう\"}}完了だね！{{pageBreak}}{{anim id=\"FaintSmile\" target=\"actor\" targetSpec=\"\"}}{{selection value=\"SelectedVillager\"}}さんにも　{{ruby charSpan=\"1\" value=\"つた\"}}伝えて、{{delay20}}\n{{ruby charSpan=\"2\" value=\"あす\"}}明日には　{{ruby charSpan=\"2\" value=\"へんこう\"}}変更したプランを\n{{ruby charSpan=\"2\" value=\"じつげん\"}}実現してみせるから、{{delay20}}{{anim id=\"Hello\" target=\"actor\" targetSpec=\"\"}}お{{ruby charSpan=\"1\" value=\"たの\"}}楽しみにー！"
  },
  {
    "label": "055",
    "attribute": "0x02000000",
    "text": "{{anim id=\"Shocked\" target=\"actor\" targetSpec=\"\"}}あれ、{{delay20}}{{ruby charSpan=\"2\" value=\"がいかん\"}}外観の{{ruby charSpan=\"2\" value=\"ていあん\"}}提案は　{{delay8}}{{anim id=\"QuestionMark\" target=\"actor\" targetSpec=\"\"}}やめておく？"
  },
  {
    "label": "055_a",
    "attribute": "0x00000000",
    "text": "{{anim id=\"Nodding\" target=\"actor\" targetSpec=\"\"}}{{ruby charSpan=\"2\" value=\"ていあん\"}}提案をやめる"
  },
  {
    "label": "055_b",
    "attribute": "0x00000000",
    "text": "{{anim id=\"Explain\" target=\"actor\" targetSpec=\"\"}}もう{{ruby charSpan=\"3\" value=\"いちどみ\"}}一度見せて"
  },
  {
    "label": "056",
    "attribute": "0x01000000",
    "text": "{{anim id=\"Nodding\" target=\"actor\" targetSpec=\"\"}}{{ruby charSpan=\"1\" value=\"わ\"}}分かっただなも！{{delay frames=\"40\"}}\n{{anim id=\"EmotEnd\" target=\"actor\" targetSpec=\"\"}}それじゃ、{{delay8}}{{ruby charSpan=\"2\" value=\"がいかん\"}}外観の{{ruby charSpan=\"2\" value=\"ていあん\"}}提案は　{{ruby charSpan=\"2\" value=\"あとまわ\"}}後回しにして、{{delay20}}\n{{anim id=\"QuestionMark\" target=\"actor\" targetSpec=\"\"}}{{ruby charSpan=\"2\" value=\"ないそう\"}}内装の{{ruby charSpan=\"1\" value=\"はなし\"}}話に　{{ruby charSpan=\"1\" value=\"うつ\"}}移ってもいいかな？"
  },
  {
    "label": "056_a",
    "attribute": "0x00000000",
    "text": "{{anim id=\"Nodding\" target=\"actor\" targetSpec=\"\"}}{{ruby charSpan=\"2\" value=\"ないそう\"}}内装を{{ruby charSpan=\"2\" value=\"ていあん\"}}提案する"
  },
  {
    "label": "056_b",
    "attribute": "0x00000000",
    "text": "{{anim id=\"Explain\" target=\"actor\" targetSpec=\"\"}}{{ruby charSpan=\"2\" value=\"ていあん\"}}提案を{{ruby charSpan=\"2\" value=\"ちゅうし\"}}中止したい"
  },
  {
    "label": "061",
    "attribute": "0x00000000",
    "text": "{{anim id=\"Shocked\" target=\"actor\" targetSpec=\"\"}}あらら、{{delay frames=\"30\"}}{{anim id=\"QuestionMark\" target=\"actor\" targetSpec=\"\"}}{{ruby charSpan=\"2\" value=\"ていあん\"}}提案をやめちゃうの？{{delay frames=\"40\"}}\n{{anim id=\"EmotEnd\" target=\"actor\" targetSpec=\"\"}}それは　{{anim id=\"Worried\" target=\"actor\" targetSpec=\"\"}}{{ruby charSpan=\"2\" value=\"ざんねん\"}}残念だなも{{string value=\"...\"}}"
  },
  {
    "label": "062",
    "attribute": "0x00000000",
    "text": "{{anim id=\"QuestionMark\" target=\"actor\" targetSpec=\"\"}}あれ、{{delay20}}やめちゃうの？{{i10_4}}\n{{anim id=\"EmotEnd\" target=\"actor\" targetSpec=\"\"}}{{ruby charSpan=\"2\" value=\"ていあん\"}}提案があるときは、{{delay8}}{{anim id=\"Smiling\" target=\"actor\" targetSpec=\"\"}}また{{ruby charSpan=\"1\" value=\"こえ\"}}声をかけてね！"
  },
  {
    "label": "063",
    "attribute": "0x00000000",
    "text": "{{anim id=\"Smiling\" target=\"actor\" targetSpec=\"\"}}はい、はーい{{string value=\"...\"}}{{delay20}}　{{anim id=\"Shocked\" target=\"actor\" targetSpec=\"\"}}って、アレ？{{i10_4}}\n{{anim id=\"Worried\" target=\"actor\" targetSpec=\"\"}}{{string value=\"PlayerName\"}}さんって、{{delay20}}\n{{ruby charSpan=\"3\" value=\"かおみし\"}}顔見知りの{{ruby charSpan=\"2\" value=\"とうみん\"}}島民が{{delay8}}{{anim id=\"QuestionMark\" target=\"actor\" targetSpec=\"\"}}　ひとりもいなくない？\n{{anim id=\"EmotEnd\" target=\"actor\" targetSpec=\"\"}}さすがに、{{delay8}}{{anim id=\"Worried\" target=\"actor\" targetSpec=\"\"}}{{ruby charSpan=\"1\" value=\"はな\"}}話したこともない{{ruby charSpan=\"1\" value=\"ひと\"}}人に\n{{ruby charSpan=\"2\" value=\"じぶん\"}}自分のお{{ruby charSpan=\"1\" value=\"うち\"}}家を　{{ruby charSpan=\"1\" value=\"まか\"}}任せるのは、{{delay20}}\n{{anim id=\"Nodding\" target=\"actor\" targetSpec=\"\"}}みんな　{{ruby charSpan=\"2\" value=\"ふあん\"}}不安だと{{ruby charSpan=\"1\" value=\"おも\"}}思うんだなも{{string value=\"...\"}}{{pageBreak}}{{anim id=\"EmotEnd\" target=\"actor\" targetSpec=\"\"}}コーディネートを　{{ruby charSpan=\"2\" value=\"ていあん\"}}提案したい{{ruby charSpan=\"2\" value=\"とうみん\"}}島民がいたら、{{delay20}}\n{{anim id=\"FaintSmile\" target=\"actor\" targetSpec=\"\"}}その{{ruby charSpan=\"2\" value=\"とうみん\"}}島民に　ちゃんと　ごあいさつしてから{{delay20}}\n{{anim id=\"Hello\" target=\"actor\" targetSpec=\"\"}}また　ここに{{ruby charSpan=\"1\" value=\"き\"}}来てね"
  },
  {
    "label": "067",
    "attribute": "0x00000000",
    "text": "{{anim id=\"Explain\" target=\"actor\" targetSpec=\"\"}}それじゃ、{{delay20}}プランの{{ruby charSpan=\"2\" value=\"へんこう\"}}変更は　ナシってことで、{{delay20}}\n{{anim id=\"Smiling\" target=\"actor\" targetSpec=\"\"}}{{ruby charSpan=\"2\" value=\"ていあん\"}}提案してもらった　{{ruby charSpan=\"1\" value=\"もと\"}}元のプランのままで、{{delay8}}\n{{ruby charSpan=\"2\" value=\"じゅんび\"}}準備を　{{ruby charSpan=\"1\" value=\"すす\"}}進めていくだなも！{{pageBreak}}{{anim id=\"Nodding\" target=\"actor\" targetSpec=\"\"}}{{ruby charSpan=\"2\" value=\"あす\"}}明日には　{{ruby charSpan=\"2\" value=\"しあ\"}}仕上げてみせるから、{{delay20}}\n{{anim id=\"Smiling\" target=\"actor\" targetSpec=\"\"}}{{selection value=\"SelectedVillager\"}}さんのお{{ruby charSpan=\"1\" value=\"うち\"}}家が\n{{ruby charSpan=\"1\" value=\"う\"}}生まれ{{ruby charSpan=\"1\" value=\"か\"}}変わるのを{{delay8}}{{anim id=\"Hello\" target=\"actor\" targetSpec=\"\"}}　お{{ruby charSpan=\"1\" value=\"たの\"}}楽しみにー！"
  },
  {
    "label": "068",
    "attribute": "0x00000000",
    "text": "{{anim id=\"FaintSmile\" target=\"actor\" targetSpec=\"\"}}{{ruby charSpan=\"2\" value=\"りょうかい\"}}了解だなも！{{delay frames=\"40\"}}　{{anim id=\"EmotEnd\" target=\"actor\" targetSpec=\"\"}}{{ruby charSpan=\"2\" value=\"ていあん\"}}提案があるときは、{{delay20}}\n{{anim id=\"Greeting\" target=\"actor\" targetSpec=\"\"}}いつでも　{{ruby charSpan=\"2\" value=\"そうだん\"}}相談に{{ruby charSpan=\"1\" value=\"き\"}}来てちょうだいね！"
  },
  {
    "label": "071",
    "attribute": "0x02000000",
    "text": "{{anim id=\"Shocked\" target=\"actor\" targetSpec=\"\"}}あれ、{{delay20}}{{ruby charSpan=\"2\" value=\"がいかん\"}}外観のプランは、{{delay8}}\n{{ruby charSpan=\"2\" value=\"へんこう\"}}変更しなくて{{anim id=\"QuestionMark\" target=\"actor\" targetSpec=\"\"}}よかっただなも？"
  },
  {
    "label": "071_a",
    "attribute": "0x00000000",
    "text": "{{anim id=\"Nodding\" target=\"actor\" targetSpec=\"\"}}{{ruby charSpan=\"2\" value=\"へんこう\"}}変更しない"
  },
  {
    "label": "071_b",
    "attribute": "0x00000000",
    "text": "{{anim id=\"Explain\" target=\"actor\" targetSpec=\"\"}}もう{{ruby charSpan=\"2\" value=\"いっかい\"}}一回{{ruby charSpan=\"1\" value=\"み\"}}見せて"
  },
  {
    "label": "072",
    "attribute": "0x02000000",
    "text": "{{anim id=\"Smiling\" target=\"actor\" targetSpec=\"\"}}{{ruby charSpan=\"1\" value=\"わ\"}}分かっただなも！{{delay frames=\"40\"}}\n{{anim id=\"EmotEnd\" target=\"actor\" targetSpec=\"\"}}それじゃ、{{delay20}}{{anim id=\"Explain\" target=\"actor\" targetSpec=\"\"}}{{ruby charSpan=\"1\" value=\"つぎ\"}}次は　{{ruby charSpan=\"2\" value=\"ないそう\"}}内装の{{ruby charSpan=\"1\" value=\"はなし\"}}話に{{ruby charSpan=\"1\" value=\"うつ\"}}移るけど、{{delay20}}\n{{ruby charSpan=\"1\" value=\"いま\"}}今のプランから、{{delay8}}{{ruby charSpan=\"1\" value=\"なに\"}}何か{{anim id=\"QuestionMark\" target=\"actor\" targetSpec=\"\"}}{{ruby charSpan=\"2\" value=\"へんこう\"}}変更はあるだなも？"
  },
  {
    "label": "072_a",
    "attribute": "0x00000000",
    "text": "{{anim id=\"Nodding\" target=\"actor\" targetSpec=\"\"}}{{ruby charSpan=\"2\" value=\"へんこう\"}}変更がある"
  },
  {
    "label": "072_b",
    "attribute": "0x00000000",
    "text": "{{anim id=\"Explain\" target=\"actor\" targetSpec=\"\"}}そのままでオッケー"
  },
  {
    "label": "073",
    "attribute": "0x02000000",
    "text": "{{anim id=\"Nodding\" target=\"actor\" targetSpec=\"\"}}それじゃあ、{{delay8}}{{ruby charSpan=\"2\" value=\"がいかん\"}}外観については{{delay20}}\n{{ruby charSpan=\"3\" value=\"ていあんちゅう\"}}提案中のプランから　{{ruby charSpan=\"2\" value=\"へんこう\"}}変更ナシってことで、{{delay20}}\n{{anim id=\"QuestionMark\" target=\"actor\" targetSpec=\"\"}}{{ruby charSpan=\"2\" value=\"ないそう\"}}内装の{{ruby charSpan=\"1\" value=\"ほう\"}}方は　{{ruby charSpan=\"1\" value=\"なに\"}}何か{{ruby charSpan=\"2\" value=\"ていあん\"}}提案があるだなも？"
  },
  {
    "label": "073_a",
    "attribute": "0x00000000",
    "text": "{{anim id=\"Nodding\" target=\"actor\" targetSpec=\"\"}}{{ruby charSpan=\"2\" value=\"ていあん\"}}提案させて！"
  },
  {
    "label": "073_b",
    "attribute": "0x00000000",
    "text": "{{anim id=\"Explain\" target=\"actor\" targetSpec=\"\"}}{{ruby charSpan=\"2\" value=\"ないそう\"}}内装はそのままで"
  },
  {
    "label": "074",
    "attribute": "0x00000000",
    "text": "{{anim id=\"FaintSmile\" target=\"actor\" targetSpec=\"\"}}なるほどー{{string value=\"...\"}}　{{delay frames=\"30\"}}{{anim id=\"Eh\" target=\"actor\" targetSpec=\"\"}}{{delay8}}ってことは、{{delay20}}\n{{anim id=\"EmotEnd\" target=\"actor\" targetSpec=\"\"}}{{ruby charSpan=\"2\" value=\"ていあん\"}}提案してもらってる　プランから{{delay8}}\n{{ruby charSpan=\"2\" value=\"へんこう\"}}変更するところは　ないってことだね！{{pageBreak}}{{anim id=\"FaintSmile\" target=\"actor\" targetSpec=\"\"}}それじゃ、{{delay20}}{{ruby charSpan=\"2\" value=\"ていあん\"}}提案してもらってる\nプランのまま{{delay8}}　{{ruby charSpan=\"1\" value=\"すす\"}}進めておくだなも！{{pageBreak}}{{anim id=\"Nodding\" target=\"actor\" targetSpec=\"\"}}{{ruby charSpan=\"2\" value=\"こうじ\"}}工事は　{{ruby charSpan=\"2\" value=\"あす\"}}明日には{{ruby charSpan=\"1\" value=\"お\"}}終わると{{ruby charSpan=\"1\" value=\"おも\"}}思うから、{{delay20}}\n{{anim id=\"Smiling\" target=\"actor\" targetSpec=\"\"}}{{selection value=\"SelectedVillager\"}}さんのお{{ruby charSpan=\"1\" value=\"うち\"}}家が\n{{ruby charSpan=\"1\" value=\"う\"}}生まれ{{ruby charSpan=\"1\" value=\"か\"}}変わるのを{{delay8}}　お{{ruby charSpan=\"1\" value=\"たの\"}}楽しみにー！"
  },
  {
    "label": "075",
    "attribute": "0x00000000",
    "text": "{{anim id=\"FaintSmile\" target=\"actor\" targetSpec=\"\"}}それじゃ、{{delay20}}どんな{{ruby charSpan=\"2\" value=\"がいかん\"}}外観を　{{ruby charSpan=\"2\" value=\"ていあん\"}}提案するのか、{{delay20}}\n{{anim id=\"Hello\" target=\"actor\" targetSpec=\"\"}}カタログを{{ruby charSpan=\"1\" value=\"み\"}}見ながら、{{delay8}}{{ruby charSpan=\"1\" value=\"おし\"}}教えてちょうだい！"
  },
  {
    "label": "1001",
    "attribute": "0x00000000",
    "text": "{{anim id=\"FaintSmile\" target=\"actor\" targetSpec=\"\"}}そういえば、{{delay8}}{{string value=\"PlayerName\"}}さん{{delay20}}\n{{anim id=\"Nodding\" target=\"actor\" targetSpec=\"\"}}{{color id=\"1\"}}タクミライフ{{color id=\"65535\"}}{{ruby charSpan=\"2\" value=\"しゅさい\"}}主催の　{{ruby charSpan=\"2\" value=\"おんがく\"}}音楽イベント、{{delay20}}\n{{anim id=\"Smiling\" target=\"actor\" targetSpec=\"\"}}{{ruby charSpan=\"3\" value=\"だいせいこう\"}}大成功だったらしいじゃない？{{pageBreak}}{{anim id=\"HappyDance\" target=\"actor\" targetSpec=\"\"}}そんなに　{{ruby charSpan=\"1\" value=\"も\"}}盛り{{ruby charSpan=\"1\" value=\"あ\"}}上がったのなら、{{delay8}}\nボクも　{{ruby charSpan=\"2\" value=\"さんか\"}}参加したかっただなも！"
  },
  {
    "label": "1002",
    "attribute": "0x00000000",
    "text": "ところで、{{ruby charSpan=\"1\" value=\"はなし\"}}話は　{{ruby charSpan=\"1\" value=\"か\"}}変わるんだけどね{{string value=\"...\"}}{{delay frames=\"40\"}}\n{{anim id=\"Nodding\" target=\"actor\" targetSpec=\"\"}}{{color id=\"1\"}}タクミライフ{{color id=\"65535\"}}で　{{ruby charSpan=\"2\" value=\"かつやく\"}}活躍してる{{delay20}}\n{{string value=\"PlayerName\"}}さんの　ウワサが{{ruby charSpan=\"1\" value=\"ひろ\"}}広まって{{pageBreak}}{{anim id=\"AbsentMindedness\" target=\"actor\" targetSpec=\"\"}}{{ruby charSpan=\"2\" value=\"じぶん\"}}自分のお{{ruby charSpan=\"1\" value=\"うち\"}}家も{{delay8}}　{{string value=\"PlayerName\"}}さんに\nコーディネートしてほしい！{{delay frames=\"40\"}}{{anim id=\"EmotEnd\" target=\"actor\" targetSpec=\"\"}}　って{{ruby charSpan=\"1\" value=\"こえ\"}}声を{{delay20}}\n{{anim id=\"Nodding\" target=\"actor\" targetSpec=\"\"}}よく{{ruby charSpan=\"1\" value=\"き\"}}聞くようになっただなも！"
  },
  {
    "label": "1003",
    "attribute": "0x00000000",
    "text": "{{anim id=\"Serious\" target=\"actor\" targetSpec=\"\"}}そこで　たぬき{{ruby charSpan=\"2\" value=\"かいはつ\"}}開発では、{{delay20}}\n{{anim id=\"SmugFace\" target=\"actor\" targetSpec=\"\"}}{{color id=\"1\"}}お{{ruby charSpan=\"1\" value=\"す\"}}住まいのコーディネート{{ruby charSpan=\"2\" value=\"ていあん\"}}提案{{color id=\"65535\"}}の{{delay20}}\n{{ruby charSpan=\"4\" value=\"ちゅうかいぎょうむ\"}}仲介業務を　{{ruby charSpan=\"1\" value=\"はじ\"}}始めることにしたんだなも！"
  },
  {
    "label": "1004",
    "attribute": "0x00000000",
    "text": "{{ruby charSpan=\"3\" value=\"ぐたいてき\"}}具体的には、{{delay20}}{{string value=\"PlayerName\"}}さんが、{{delay8}}\n{{anim id=\"Nodding\" target=\"actor\" targetSpec=\"\"}}{{ruby charSpan=\"2\" value=\"とうみん\"}}島民の{{ruby charSpan=\"1\" value=\"だれ\"}}誰かに　{{delay8}}お{{ruby charSpan=\"1\" value=\"うち\"}}家のコーディネートを\n{{ruby charSpan=\"2\" value=\"ていあん\"}}提案したいときに{{string value=\"...\"}}{{pageBreak}}{{anim id=\"Explain\" target=\"actor\" targetSpec=\"\"}}たぬき{{ruby charSpan=\"2\" value=\"かいはつ\"}}開発が{{delay20}}　{{ruby charSpan=\"1\" value=\"か\"}}代わりに　ご{{ruby charSpan=\"2\" value=\"ていあん\"}}提案を{{ruby charSpan=\"1\" value=\"き\"}}聞いて、{{delay20}}\n{{anim id=\"Smiling\" target=\"actor\" targetSpec=\"\"}}ご{{ruby charSpan=\"2\" value=\"ほんにん\"}}本人への{{ruby charSpan=\"2\" value=\"せつめい\"}}説明や{{delay8}}　リフォームの{{ruby charSpan=\"2\" value=\"こうじ\"}}工事を{{delay8}}\nサポートさせてもらうんだなも！{{pageBreak}}{{anim id=\"ShyBoy\" target=\"actor\" targetSpec=\"\"}}{{ruby charSpan=\"3\" value=\"てすうりょう\"}}手数料は　{{ruby charSpan=\"2\" value=\"はっせい\"}}発生しちゃうけど{{string value=\"...\"}}{{delay frames=\"30\"}}\n{{anim id=\"EmotEnd\" target=\"actor\" targetSpec=\"\"}}{{string value=\"PlayerName\"}}さんには　{{delay8}}ご{{ruby charSpan=\"2\" value=\"ていあん\"}}提案ごとに{{delay20}}\n{{anim id=\"Smiling\" target=\"actor\" targetSpec=\"\"}}お{{ruby charSpan=\"1\" value=\"れい\"}}礼のマイルを　{{ruby charSpan=\"1\" value=\"さ\"}}差し{{ruby charSpan=\"1\" value=\"あ\"}}上げるだなも！"
  },
  {
    "label": "1005",
    "attribute": "0x00000000",
    "text": "{{ruby charSpan=\"1\" value=\"しま\"}}島のみなさんは、{{delay20}}{{anim id=\"AbsentMindedness\" target=\"actor\" targetSpec=\"\"}}{{string value=\"PlayerName\"}}さんに{{delay8}}\n{{ruby charSpan=\"2\" value=\"じぶん\"}}自分のお{{ruby charSpan=\"1\" value=\"うち\"}}家を　コーディネートしてほしい！{{delay frames=\"40\"}}\n{{anim id=\"FaintSmile\" target=\"actor\" targetSpec=\"\"}}って、{{delay20}}{{ruby charSpan=\"1\" value=\"ま\"}}待ち{{ruby charSpan=\"1\" value=\"のぞ\"}}望んでるし{{string value=\"...\"}}{{pageBreak}}{{anim id=\"Nodding\" target=\"actor\" targetSpec=\"\"}}{{string value=\"PlayerName\"}}さんからの　ご{{ruby charSpan=\"2\" value=\"ていあん\"}}提案なら{{delay20}}\n{{anim id=\"Greeting\" target=\"actor\" targetSpec=\"\"}}いつでも　{{ruby charSpan=\"2\" value=\"ちゅうかい\"}}仲介させてもらうだなも！"
  },
  {
    "label": "1006",
    "attribute": "0x00000000",
    "text": "そういうわけで、{{delay20}}\n{{anim id=\"Nodding\" target=\"actor\" targetSpec=\"\"}}{{ruby charSpan=\"1\" value=\"しま\"}}島のみなさんに　お{{ruby charSpan=\"1\" value=\"うち\"}}家の{{ruby charSpan=\"2\" value=\"ていあん\"}}提案があるときには、{{delay20}}\n{{anim id=\"Hello\" target=\"actor\" targetSpec=\"\"}}{{color id=\"1\"}}{{ruby charSpan=\"1\" value=\"いえ\"}}家についての{{ruby charSpan=\"2\" value=\"そうだん\"}}相談{{color id=\"65535\"}}から　うけたまわるからね！"
  },
  {
    "label": "1007",
    "attribute": "0x00000000",
    "text": "それじゃ、{{delay20}}{{anim id=\"Smiling\" target=\"actor\" targetSpec=\"\"}}この{{ruby charSpan=\"1\" value=\"はなし\"}}話は　ここまでにして{{string value=\"...\"}}"
  },
  {
    "label": "101",
    "attribute": "0x00000000",
    "text": "{{anim id=\"Nodding\" target=\"actor\" targetSpec=\"\"}}せっかく　みんなで{{ruby charSpan=\"1\" value=\"あそ\"}}遊んでるんだし、{{delay20}}\n{{anim id=\"Explain\" target=\"actor\" targetSpec=\"\"}}コーディネートの{{ruby charSpan=\"2\" value=\"そうだん\"}}相談に　{{ruby charSpan=\"2\" value=\"じかん\"}}時間を{{ruby charSpan=\"1\" value=\"つか\"}}使うのは{{delay8}}\n{{anim id=\"Smiling\" target=\"actor\" targetSpec=\"\"}}{{ruby charSpan=\"1\" value=\"ほか\"}}他のみなさんにも　{{ruby charSpan=\"1\" value=\"もう\"}}申し{{ruby charSpan=\"1\" value=\"わけ\"}}訳ないんだも\n{{anim id=\"EmotEnd\" target=\"actor\" targetSpec=\"\"}}{{ruby charSpan=\"1\" value=\"だれ\"}}誰かのお{{ruby charSpan=\"1\" value=\"す\"}}住まいに　{{ruby charSpan=\"2\" value=\"ていあん\"}}提案があるなら、{{delay20}}\n{{anim id=\"Hello\" target=\"actor\" targetSpec=\"\"}}またひとりのときに　{{ruby charSpan=\"1\" value=\"き\"}}聞かせてもらうだなも！"
  },
  {
    "label": "1011",
    "attribute": "0x00000000",
    "text": "{{anim id=\"Eh\" target=\"actor\" targetSpec=\"\"}}そういえば、{{delay8}}{{string value=\"PlayerName\"}}さんに\nお{{ruby charSpan=\"1\" value=\"つた\"}}伝えしておくことが　あっただなも！{{pageBreak}}{{anim id=\"FaintSmile\" target=\"actor\" targetSpec=\"\"}}{{ruby charSpan=\"2\" value=\"りっぱ\"}}立派な{{ruby charSpan=\"3\" value=\"あんないじょ\"}}案内所も　できたことだし、{{delay20}}\n{{anim id=\"Explain\" target=\"actor\" targetSpec=\"\"}}{{ruby charSpan=\"2\" value=\"とうみん\"}}島民のお{{ruby charSpan=\"1\" value=\"す\"}}住まいへの{{delay8}}　コーディネート{{ruby charSpan=\"2\" value=\"ていあん\"}}提案の\n{{anim id=\"Nodding\" target=\"actor\" targetSpec=\"\"}}{{ruby charSpan=\"4\" value=\"ちゅうかいぎょうむ\"}}仲介業務を　{{ruby charSpan=\"1\" value=\"はじ\"}}始めることにしたんだも！{{pageBreak}}{{anim id=\"AbsentMindedness\" target=\"actor\" targetSpec=\"\"}}{{string value=\"PlayerName\"}}さんみたいな、{{delay8}}\n{{ruby charSpan=\"1\" value=\"うで\"}}腕の{{ruby charSpan=\"1\" value=\"た\"}}立つコーディネーターの　ご{{ruby charSpan=\"2\" value=\"ていあん\"}}提案なら{{delay8}}\n{{anim id=\"Nodding\" target=\"actor\" targetSpec=\"\"}}いつでも　{{ruby charSpan=\"2\" value=\"ちゅうかい\"}}仲介させてもらうから{{string value=\"...\"}}{{pageBreak}}{{anim id=\"FaintSmile\" target=\"actor\" targetSpec=\"\"}}{{ruby charSpan=\"1\" value=\"だれ\"}}誰かのお{{ruby charSpan=\"1\" value=\"す\"}}住まいに　ご{{ruby charSpan=\"2\" value=\"ていあん\"}}提案があるときは、{{delay8}}\n{{color id=\"1\"}}{{anim id=\"Hello\" target=\"actor\" targetSpec=\"\"}}{{ruby charSpan=\"1\" value=\"いえ\"}}家についての{{ruby charSpan=\"2\" value=\"そうだん\"}}相談{{color id=\"65535\"}}を　よろしくね！"
  },
  {
    "label": "102",
    "attribute": "0x00000000",
    "text": "{{anim id=\"Thinking\" target=\"actor\" targetSpec=\"\"}}うーん、{{delay frames=\"40\"}}お{{ruby charSpan=\"1\" value=\"きゃく\"}}客さんが{{ruby charSpan=\"1\" value=\"く\"}}来るかもしれないし、{{delay20}}\n{{anim id=\"EmotEnd\" target=\"actor\" targetSpec=\"\"}}コーディネートの{{ruby charSpan=\"2\" value=\"そうだん\"}}相談は、{{delay8}}\n{{anim id=\"Negative\" target=\"actor\" targetSpec=\"\"}}やめておいた{{ruby charSpan=\"1\" value=\"ほう\"}}方がいいんじゃない？{{pageBreak}}{{anim id=\"Explain\" target=\"actor\" targetSpec=\"\"}}{{ruby charSpan=\"1\" value=\"だれ\"}}誰かのお{{ruby charSpan=\"1\" value=\"す\"}}住まいに　{{ruby charSpan=\"2\" value=\"ていあん\"}}提案があるなら{{delay8}}\n{{color id=\"1\"}}{{ruby charSpan=\"3\" value=\"ひこうじょう\"}}飛行場{{color id=\"65535\"}}で　ゲートを{{ruby charSpan=\"1\" value=\"し\"}}閉める{{ruby charSpan=\"2\" value=\"てつづ\"}}手続きをしてから、{{delay20}}\n{{anim id=\"Hello\" target=\"actor\" targetSpec=\"\"}}また{{ruby charSpan=\"1\" value=\"き\"}}来てちょうだいね！"
  },
  {
    "label": "2001",
    "attribute": "0x00000000",
    "text": "{{anim id=\"FaintSmile\" target=\"actor\" targetSpec=\"\"}}では　さっそく、{{delay20}}{{anim id=\"Explain\" target=\"actor\" targetSpec=\"\"}}{{selection value=\"SelectedVillager\"}}さんに\nどんなお{{ruby charSpan=\"2\" value=\"へや\"}}部屋を　ご{{ruby charSpan=\"2\" value=\"ていあん\"}}提案したいのかを、{{delay20}}\n{{anim id=\"FaintSmile\" target=\"actor\" targetSpec=\"\"}}{{ruby charSpan=\"1\" value=\"おし\"}}教えてもらうだなも！"
  },
  {
    "label": "2001_01",
    "attribute": "0x00000000",
    "text": "{{anim id=\"Explain\" target=\"actor\" targetSpec=\"\"}}{{color id=\"3\"}}タクミ{{color id=\"65535\"}}さんのところで{{delay8}}\nお{{ruby charSpan=\"2\" value=\"しごと\"}}仕事してるつもりになって、{{delay20}}\n{{anim id=\"Nodding\" target=\"actor\" targetSpec=\"\"}}お{{ruby charSpan=\"2\" value=\"へや\"}}部屋のイメージを　{{ruby charSpan=\"1\" value=\"おし\"}}教えてちょうだい"
  },
  {
    "label": "2001_02",
    "attribute": "0x00000000",
    "text": "{{anim id=\"ShyBoy\" target=\"actor\" targetSpec=\"\"}}こちらの{{ruby charSpan=\"2\" value=\"つごう\"}}都合で、{{delay8}}お{{ruby charSpan=\"2\" value=\"へや\"}}部屋のサイズ{{ruby charSpan=\"2\" value=\"へんこう\"}}変更だけは{{delay8}}\n{{ruby charSpan=\"2\" value=\"ていあん\"}}提案して　もらえないんだけど{{string value=\"...\"}}{{pageBreak}}{{anim id=\"Explain\" target=\"actor\" targetSpec=\"\"}}それ{{ruby charSpan=\"2\" value=\"いがい\"}}以外の{{delay8}}　{{string value=\"PlayerName\"}}さんが\n{{ruby charSpan=\"1\" value=\"まな\"}}学んできた　お{{ruby charSpan=\"2\" value=\"へや\"}}部屋づくりのテクニックは、{{delay20}}\n{{anim id=\"Nodding\" target=\"actor\" targetSpec=\"\"}}{{ruby charSpan=\"1\" value=\"すべ\"}}全て　{{ruby charSpan=\"1\" value=\"つか\"}}使ってもらえるからね！"
  },
  {
    "label": "2001_03",
    "attribute": "0x00000000",
    "text": "{{anim id=\"FaintSmile\" target=\"actor\" targetSpec=\"\"}}を{{ruby charSpan=\"1\" value=\"つか\"}}使って{{delay20}}、このお{{ruby charSpan=\"2\" value=\"へや\"}}部屋で{{ruby charSpan=\"1\" value=\"す\"}}過ごす{{delay8}}\n{{selection value=\"SelectedVillager\"}}さんを　{{ruby charSpan=\"2\" value=\"そうぞう\"}}想像してみるのも、{{delay20}}\n{{anim id=\"Nodding\" target=\"actor\" targetSpec=\"\"}}いいと{{ruby charSpan=\"1\" value=\"おも\"}}思うんだなも！"
  },
  {
    "label": "2002",
    "attribute": "0x00000000",
    "text": "{{anim id=\"FaintSmile\" target=\"actor\" targetSpec=\"\"}}では　さっそく、{{delay20}}お{{ruby charSpan=\"2\" value=\"へや\"}}部屋の{{ruby charSpan=\"2\" value=\"ないそう\"}}内装プランを\nどう{{ruby charSpan=\"2\" value=\"へんこう\"}}変更したいのか{{delay20}}　{{anim id=\"Nodding\" target=\"actor\" targetSpec=\"\"}}{{ruby charSpan=\"1\" value=\"おし\"}}教えてもらうだなも"
  },
  {
    "label": "2003_01",
    "attribute": "0x00000000",
    "text": "お{{ruby charSpan=\"2\" value=\"へや\"}}部屋のイメージが　{{ruby charSpan=\"2\" value=\"かんせい\"}}完成したときや{{delay20}}\n{{anim id=\"FaintSmile\" target=\"actor\" targetSpec=\"\"}}お{{ruby charSpan=\"1\" value=\"うち\"}}家の{{ruby charSpan=\"2\" value=\"がいかん\"}}外観への　{{ruby charSpan=\"2\" value=\"ていあん\"}}提案がしたいときは、{{delay20}}\n{{anim id=\"Greeting\" target=\"actor\" targetSpec=\"\"}}ボクに　{{ruby charSpan=\"1\" value=\"こえ\"}}声をかけてちょうだいね！"
  },
  {
    "label": "2003_02",
    "attribute": "0x00000000",
    "text": "お{{ruby charSpan=\"2\" value=\"へや\"}}部屋のイメージが　{{ruby charSpan=\"2\" value=\"かんせい\"}}完成したときは、{{delay20}}\n{{anim id=\"Greeting\" target=\"actor\" targetSpec=\"\"}}ボクに　{{ruby charSpan=\"1\" value=\"こえ\"}}声をかけてちょうだいね！"
  },
  {
    "label": "2003_03",
    "attribute": "0x00000000",
    "text": "お{{ruby charSpan=\"2\" value=\"へや\"}}部屋のイメージが　{{ruby charSpan=\"2\" value=\"かんせい\"}}完成したときや{{delay20}}\n{{anim id=\"Smiling\" target=\"actor\" targetSpec=\"\"}}{{ruby charSpan=\"2\" value=\"がいかん\"}}外観のプランを　{{ruby charSpan=\"2\" value=\"へんこう\"}}変更したいときには、{{delay20}}\n{{anim id=\"Greeting\" target=\"actor\" targetSpec=\"\"}}ボクに　{{ruby charSpan=\"1\" value=\"こえ\"}}声をかけてちょうだいね！"
  },
  {
    "label": "2011",
    "attribute": "0x06000000",
    "text": "{{anim id=\"Smiling\" target=\"actor\" targetSpec=\"\"}}はいはい、{{delay20}}{{anim id=\"QuestionMark\" target=\"actor\" targetSpec=\"\"}}どうしただなも？"
  },
  {
    "label": "2011_a",
    "attribute": "0x00000000",
    "text": "{{ruby charSpan=\"2\" value=\"かんせい\"}}完成したよ！"
  },
  {
    "label": "2011_b",
    "attribute": "0x00000000",
    "text": "{{anim id=\"Explain\" target=\"actor\" targetSpec=\"\"}}{{ruby charSpan=\"2\" value=\"がいかん\"}}外観を{{ruby charSpan=\"2\" value=\"ていあん\"}}提案させて"
  },
  {
    "label": "2011_c",
    "attribute": "0x00000000",
    "text": "{{anim id=\"Explain\" target=\"actor\" targetSpec=\"\"}}{{ruby charSpan=\"2\" value=\"ちゅうし\"}}中止したい"
  },
  {
    "label": "2011_d",
    "attribute": "0x00000000",
    "text": "{{anim id=\"Negative\" target=\"actor\" targetSpec=\"\"}}なんでもない"
  },
  {
    "label": "2012",
    "attribute": "0x06000000",
    "text": "{{anim id=\"Smiling\" target=\"actor\" targetSpec=\"\"}}はいはい、{{delay20}}{{anim id=\"QuestionMark\" target=\"actor\" targetSpec=\"\"}}どうしただなも？"
  },
  {
    "label": "2012_a",
    "attribute": "0x00000000",
    "text": "{{ruby charSpan=\"2\" value=\"かんせい\"}}完成したよ！"
  },
  {
    "label": "2012_b",
    "attribute": "0x00000000",
    "text": "{{anim id=\"Explain\" target=\"actor\" targetSpec=\"\"}}{{ruby charSpan=\"2\" value=\"がいかん\"}}外観プランを{{ruby charSpan=\"2\" value=\"みなお\"}}見直す"
  },
  {
    "label": "2012_c",
    "attribute": "0x00000000",
    "text": "{{anim id=\"Explain\" target=\"actor\" targetSpec=\"\"}}{{ruby charSpan=\"2\" value=\"ちゅうし\"}}中止したい"
  },
  {
    "label": "2012_d",
    "attribute": "0x00000000",
    "text": "{{anim id=\"Negative\" target=\"actor\" targetSpec=\"\"}}なんでもない"
  },
  {
    "label": "2013",
    "attribute": "0x06000000",
    "text": "{{anim id=\"Smiling\" target=\"actor\" targetSpec=\"\"}}はいはい、{{delay20}}{{anim id=\"QuestionMark\" target=\"actor\" targetSpec=\"\"}}どうしただなも？"
  },
  {
    "label": "2013_a",
    "attribute": "0x00000000",
    "text": "{{ruby charSpan=\"2\" value=\"かんせい\"}}完成したよ！"
  },
  {
    "label": "2013_b",
    "attribute": "0x00000000",
    "text": "{{anim id=\"Explain\" target=\"actor\" targetSpec=\"\"}}{{ruby charSpan=\"2\" value=\"がいかん\"}}外観を{{ruby charSpan=\"2\" value=\"ていあん\"}}提案させて"
  },
  {
    "label": "2013_c",
    "attribute": "0x00000000",
    "text": "{{anim id=\"Explain\" target=\"actor\" targetSpec=\"\"}}プラン{{ruby charSpan=\"2\" value=\"へんこう\"}}変更を{{ruby charSpan=\"2\" value=\"ちゅうし\"}}中止する"
  },
  {
    "label": "2013_d",
    "attribute": "0x00000000",
    "text": "{{anim id=\"Negative\" target=\"actor\" targetSpec=\"\"}}なんでもない"
  },
  {
    "label": "2014",
    "attribute": "0x06000000",
    "text": "{{anim id=\"Smiling\" target=\"actor\" targetSpec=\"\"}}はいはい、{{delay20}}{{anim id=\"QuestionMark\" target=\"actor\" targetSpec=\"\"}}どうしただなも？"
  },
  {
    "label": "2014_a",
    "attribute": "0x00000000",
    "text": "{{ruby charSpan=\"2\" value=\"かんせい\"}}完成したよ！"
  },
  {
    "label": "2014_b",
    "attribute": "0x00000000",
    "text": "{{anim id=\"Explain\" target=\"actor\" targetSpec=\"\"}}{{ruby charSpan=\"2\" value=\"がいかん\"}}外観プランを{{ruby charSpan=\"2\" value=\"みなお\"}}見直す"
  },
  {
    "label": "2014_c",
    "attribute": "0x00000000",
    "text": "{{anim id=\"Explain\" target=\"actor\" targetSpec=\"\"}}プラン{{ruby charSpan=\"2\" value=\"へんこう\"}}変更を{{ruby charSpan=\"2\" value=\"ちゅうし\"}}中止する"
  },
  {
    "label": "2014_d",
    "attribute": "0x00000000",
    "text": "{{anim id=\"Negative\" target=\"actor\" targetSpec=\"\"}}なんでもない"
  },
  {
    "label": "2021",
    "attribute": "0x01000000",
    "text": "{{anim id=\"Nodding\" target=\"actor\" targetSpec=\"\"}}うんうん、{{delay frames=\"40\"}}{{anim id=\"FaintSmile\" target=\"actor\" targetSpec=\"\"}}お{{ruby charSpan=\"2\" value=\"へや\"}}部屋は　これで{{ruby charSpan=\"2\" value=\"かんせい\"}}完成だね！{{pageBreak}}{{anim id=\"Eh\" target=\"actor\" targetSpec=\"\"}}そういえば{{string value=\"...\"}}{{delay frames=\"40\"}}\n{{anim id=\"Nodding\" target=\"actor\" targetSpec=\"\"}}お{{ruby charSpan=\"1\" value=\"うち\"}}家の{{ruby charSpan=\"2\" value=\"がいかん\"}}外観への{{ruby charSpan=\"2\" value=\"ていあん\"}}提案を　まだ{{ruby charSpan=\"1\" value=\"き\"}}聞いてないけど、{{delay20}}\nそっちは　{{anim id=\"QuestionMark\" target=\"actor\" targetSpec=\"\"}}{{ruby charSpan=\"1\" value=\"なに\"}}何かプランがあるだなも？"
  },
  {
    "label": "2021_a",
    "attribute": "0x00000000",
    "text": "{{anim id=\"Nodding\" target=\"player\" targetSpec=\"\"}}プランがあるよ"
  },
  {
    "label": "2021_b",
    "attribute": "0x00000000",
    "text": "{{anim id=\"Negative\" target=\"actor\" targetSpec=\"\"}}{{ruby charSpan=\"1\" value=\"とく\"}}特にないよ"
  },
  {
    "label": "2022",
    "attribute": "0x01000000",
    "text": "{{anim id=\"Nodding\" target=\"actor\" targetSpec=\"\"}}うんうん、{{delay frames=\"40\"}}{{anim id=\"FaintSmile\" target=\"actor\" targetSpec=\"\"}}お{{ruby charSpan=\"2\" value=\"へや\"}}部屋は　これで{{ruby charSpan=\"2\" value=\"かんせい\"}}完成だね！{{delay frames=\"40\"}}\n{{anim id=\"Eh\" target=\"actor\" targetSpec=\"\"}}そういえば{{string value=\"...\"}}{{delay frames=\"40\"}}\n{{anim id=\"FaintSmile\" target=\"actor\" targetSpec=\"\"}}{{ruby charSpan=\"2\" value=\"がいかん\"}}外観への{{ruby charSpan=\"4\" value=\"ていあんないよう\"}}提案内容に{{delay8}}　{{anim id=\"QuestionMark\" target=\"actor\" targetSpec=\"\"}}{{ruby charSpan=\"1\" value=\"なに\"}}何か{{ruby charSpan=\"2\" value=\"へんこう\"}}変更はあるだなも？"
  },
  {
    "label": "2022_a",
    "attribute": "0x00000000",
    "text": "{{anim id=\"Nodding\" target=\"player\" targetSpec=\"\"}}{{ruby charSpan=\"2\" value=\"がいかん\"}}外観もプラン{{ruby charSpan=\"2\" value=\"へんこう\"}}変更する"
  },
  {
    "label": "2022_b",
    "attribute": "0x00000000",
    "text": "{{anim id=\"Negative\" target=\"actor\" targetSpec=\"\"}}{{ruby charSpan=\"2\" value=\"へんこう\"}}変更はないよ"
  },
  {
    "label": "2023",
    "attribute": "0x02000000",
    "text": "{{anim id=\"Nodding\" target=\"actor\" targetSpec=\"\"}}うんうん、{{delay8}}いいんじゃない？{{delay20}}\n{{anim id=\"FaintSmile\" target=\"actor\" targetSpec=\"\"}}このプランで　{{ruby charSpan=\"1\" value=\"たし\"}}確かにうけたまわっただも！{{delay frames=\"40\"}}\n{{anim id=\"QuestionMark\" target=\"actor\" targetSpec=\"\"}}それじゃ、これで{{ruby charSpan=\"2\" value=\"かんせい\"}}完成かな？"
  },
  {
    "label": "2023_a",
    "attribute": "0x00000000",
    "text": "{{anim id=\"Nodding\" target=\"player\" targetSpec=\"\"}}{{ruby charSpan=\"2\" value=\"かんせい\"}}完成です！"
  },
  {
    "label": "2023_b",
    "attribute": "0x00000000",
    "text": "{{anim id=\"Negative\" target=\"actor\" targetSpec=\"\"}}ちょっと{{ruby charSpan=\"1\" value=\"ま\"}}待って！"
  },
  {
    "label": "2024",
    "attribute": "0x02000000",
    "text": "{{anim id=\"Shocked\" target=\"actor\" targetSpec=\"\"}}あれ、{{delay20}}{{ruby charSpan=\"2\" value=\"がいかん\"}}外観の{{ruby charSpan=\"2\" value=\"ていあん\"}}提案は　やめておく？{{delay frames=\"40\"}}\n{{anim id=\"EmotEnd\" target=\"actor\" targetSpec=\"\"}}その{{ruby charSpan=\"2\" value=\"ばあい\"}}場合、{{delay20}}{{anim id=\"Nodding\" target=\"actor\" targetSpec=\"\"}}{{ruby charSpan=\"2\" value=\"ないそう\"}}内装コーディネートだけを\n{{ruby charSpan=\"2\" value=\"ていあん\"}}提案することになるけど、{{delay20}}{{anim id=\"QuestionMark\" target=\"actor\" targetSpec=\"\"}}{{ruby charSpan=\"2\" value=\"もんだい\"}}問題ないかな？"
  },
  {
    "label": "2024_a",
    "attribute": "0x00000000",
    "text": "{{anim id=\"Nodding\" target=\"player\" targetSpec=\"\"}}{{ruby charSpan=\"3\" value=\"だいじょうぶ\"}}大丈夫です！"
  },
  {
    "label": "2024_b",
    "attribute": "0x00000000",
    "text": "{{anim id=\"Negative\" target=\"actor\" targetSpec=\"\"}}ちょっと{{ruby charSpan=\"1\" value=\"ま\"}}待って！"
  },
  {
    "label": "2025",
    "attribute": "0x02000000",
    "text": "{{anim id=\"Shocked\" target=\"actor\" targetSpec=\"\"}}あれ、{{delay20}}{{ruby charSpan=\"2\" value=\"がいかん\"}}外観のプランは　{{delay8}}{{anim id=\"QuestionMark\" target=\"actor\" targetSpec=\"\"}}{{ruby charSpan=\"2\" value=\"へんこう\"}}変更しないの？"
  },
  {
    "label": "2025_a",
    "attribute": "0x00000000",
    "text": "{{anim id=\"Nodding\" target=\"player\" targetSpec=\"\"}}プラン{{ruby charSpan=\"2\" value=\"へんこう\"}}変更しない"
  },
  {
    "label": "2025_b",
    "attribute": "0x00000000",
    "text": "{{anim id=\"Negative\" target=\"actor\" targetSpec=\"\"}}ちょっと{{ruby charSpan=\"1\" value=\"ま\"}}待って！"
  },
  {
    "label": "2026",
    "attribute": "0x00000000",
    "text": "{{anim id=\"BigSmile\" target=\"actor\" targetSpec=\"\"}}{{ruby charSpan=\"2\" value=\"りょうかい\"}}了解だなも！{{delay frames=\"40\"}}\n{{anim id=\"EmotEnd\" target=\"actor\" targetSpec=\"\"}}それじゃ、このお{{ruby charSpan=\"2\" value=\"へや\"}}部屋の{{ruby charSpan=\"1\" value=\"とお\"}}通りに、{{delay20}}\n{{anim id=\"Smiling\" target=\"actor\" targetSpec=\"\"}}ご{{ruby charSpan=\"2\" value=\"ていあん\"}}提案を　{{ruby charSpan=\"1\" value=\"すす\"}}進めさせてもらうだなも！"
  },
  {
    "label": "2026_01",
    "attribute": "0x00000000",
    "text": "{{anim id=\"BigSmile\" target=\"actor\" targetSpec=\"\"}}うん、{{delay20}}いいお{{ruby charSpan=\"2\" value=\"へや\"}}部屋だね！{{delay frames=\"40\"}}\n{{anim id=\"EmotEnd\" target=\"actor\" targetSpec=\"\"}}それじゃ、この{{ruby charSpan=\"1\" value=\"とお\"}}通りに、{{delay20}}\n{{anim id=\"Smiling\" target=\"actor\" targetSpec=\"\"}}ご{{ruby charSpan=\"2\" value=\"ていあん\"}}提案を　{{ruby charSpan=\"1\" value=\"すす\"}}進めさせてもらうだなも！"
  },
  {
    "label": "2027",
    "attribute": "0x00000000",
    "text": "{{anim id=\"BigSmile\" target=\"actor\" targetSpec=\"\"}}{{ruby charSpan=\"2\" value=\"りょうかい\"}}了解だなも！{{delay frames=\"40\"}}\n{{anim id=\"EmotEnd\" target=\"actor\" targetSpec=\"\"}}それじゃ、{{delay8}}{{ruby charSpan=\"2\" value=\"ていあん\"}}提案してる　お{{ruby charSpan=\"2\" value=\"へや\"}}部屋のプランを{{delay20}}\n{{anim id=\"Smiling\" target=\"actor\" targetSpec=\"\"}}この{{ruby charSpan=\"1\" value=\"とお\"}}通りに　{{ruby charSpan=\"2\" value=\"へんこう\"}}変更しておくだなも！"
  },
  {
    "label": "2027_01",
    "attribute": "0x00000000",
    "text": "{{anim id=\"BigSmile\" target=\"actor\" targetSpec=\"\"}}うん、{{delay20}}いい{{ruby charSpan=\"1\" value=\"かん\"}}感じになっただも！{{delay frames=\"40\"}}\n{{anim id=\"EmotEnd\" target=\"actor\" targetSpec=\"\"}}それじゃ、{{delay8}}{{ruby charSpan=\"2\" value=\"ていあん\"}}提案してる　お{{ruby charSpan=\"2\" value=\"へや\"}}部屋のプランを{{delay20}}\n{{anim id=\"Smiling\" target=\"actor\" targetSpec=\"\"}}この{{ruby charSpan=\"1\" value=\"とお\"}}通りに　{{ruby charSpan=\"2\" value=\"へんこう\"}}変更しておくだなも！"
  },
  {
    "label": "2031",
    "attribute": "0x00000000",
    "text": "{{anim id=\"FaintSmile\" target=\"actor\" targetSpec=\"\"}}{{ruby charSpan=\"2\" value=\"りょうかい\"}}了解だなも！{{delay frames=\"40\"}}\n{{anim id=\"EmotEnd\" target=\"actor\" targetSpec=\"\"}}どんな{{ruby charSpan=\"2\" value=\"がいかん\"}}外観を　{{ruby charSpan=\"2\" value=\"ていあん\"}}提案したいのか、{{delay20}}\n{{anim id=\"QuestionMark\" target=\"actor\" targetSpec=\"\"}}カタログを{{ruby charSpan=\"1\" value=\"み\"}}見ながら　{{ruby charSpan=\"1\" value=\"おし\"}}教えてもらえるかな？"
  },
  {
    "label": "2032",
    "attribute": "0x00000000",
    "text": "{{anim id=\"Smiling\" target=\"actor\" targetSpec=\"\"}}{{ruby charSpan=\"2\" value=\"りょうかい\"}}了解だなも！{{delay frames=\"40\"}}\n{{anim id=\"Explain\" target=\"actor\" targetSpec=\"\"}}それじゃ、{{delay8}}{{ruby charSpan=\"2\" value=\"がいかん\"}}外観のプランを　どう{{ruby charSpan=\"1\" value=\"か\"}}変えたいか、{{delay20}}\n{{anim id=\"Greeting\" target=\"actor\" targetSpec=\"\"}}カタログで　{{ruby charSpan=\"1\" value=\"おし\"}}教えてちょうだい！"
  },
  {
    "label": "2033",
    "attribute": "0x00000000",
    "text": "{{anim id=\"Smiling\" target=\"actor\" targetSpec=\"\"}}はーい、{{delay frames=\"40\"}}お{{ruby charSpan=\"1\" value=\"うち\"}}家の{{ruby charSpan=\"2\" value=\"がいかん\"}}外観への　ご{{ruby charSpan=\"2\" value=\"ていあん\"}}提案を{{delay20}}\n{{anim id=\"Nodding\" target=\"actor\" targetSpec=\"\"}}{{ruby charSpan=\"1\" value=\"たし\"}}確かに　うけたまわっただなも！{{pageBreak}}{{anim id=\"EmotEnd\" target=\"actor\" targetSpec=\"\"}}{{ruby charSpan=\"1\" value=\"ひ\"}}引き{{ruby charSpan=\"1\" value=\"つづ\"}}続き、{{delay20}}{{ruby charSpan=\"2\" value=\"ていあん\"}}提案したいお{{ruby charSpan=\"2\" value=\"へや\"}}部屋の\n{{anim id=\"Smiling\" target=\"actor\" targetSpec=\"\"}}イメージ{{ruby charSpan=\"1\" value=\"づく\"}}作りを　よろしくね！"
  },
  {
    "label": "2034",
    "attribute": "0x00000000",
    "text": "{{anim id=\"Smiling\" target=\"actor\" targetSpec=\"\"}}はーい、{{delay20}}{{ruby charSpan=\"1\" value=\"たし\"}}確かにうけたまわっただなも！{{delay frames=\"40\"}}\n{{anim id=\"EmotEnd\" target=\"actor\" targetSpec=\"\"}}{{ruby charSpan=\"1\" value=\"ひ\"}}引き{{ruby charSpan=\"1\" value=\"つづ\"}}続き、{{delay8}}どんな{{ruby charSpan=\"1\" value=\"ふう\"}}風に　プラン{{ruby charSpan=\"2\" value=\"へんこう\"}}変更するのか、{{delay20}}\n{{anim id=\"Smiling\" target=\"actor\" targetSpec=\"\"}}{{ruby charSpan=\"2\" value=\"ないそう\"}}内装のイメージ{{ruby charSpan=\"1\" value=\"づく\"}}作りを　よろしくね！"
  },
  {
    "label": "2035",
    "attribute": "0x00000000",
    "text": "{{anim id=\"FaintSmile\" target=\"actor\" targetSpec=\"\"}}はいはい、{{delay20}}こちらに{{ruby charSpan=\"2\" value=\"へんこう\"}}変更しておくね！{{delay frames=\"40\"}}\n{{anim id=\"Nodding\" target=\"actor\" targetSpec=\"\"}}{{ruby charSpan=\"1\" value=\"ひ\"}}引き{{ruby charSpan=\"1\" value=\"つづ\"}}続き、{{delay20}}{{ruby charSpan=\"2\" value=\"ていあん\"}}提案したいお{{ruby charSpan=\"2\" value=\"へや\"}}部屋の\nイメージ{{ruby charSpan=\"1\" value=\"づく\"}}作りを　{{anim id=\"Greeting\" target=\"actor\" targetSpec=\"\"}}よろしくだなも！"
  },
  {
    "label": "2036",
    "attribute": "0x00000000",
    "text": "{{anim id=\"QuestionMark\" target=\"actor\" targetSpec=\"\"}}やめておくのかな？{{delay frames=\"40\"}}\n{{anim id=\"EmotEnd\" target=\"actor\" targetSpec=\"\"}}のんびり{{ruby charSpan=\"1\" value=\"ま\"}}待たせてもらうから、{{delay20}}\n{{anim id=\"Greeting\" target=\"actor\" targetSpec=\"\"}}じっくり　{{ruby charSpan=\"1\" value=\"かんが\"}}考えてちょうだい！"
  },
  {
    "label": "2051",
    "attribute": "0x02000000",
    "text": "{{anim id=\"Shocked\" target=\"actor\" targetSpec=\"\"}}あれっ{{string value=\"...\"}}　やめちゃうの？{{delay frames=\"40\"}}\n{{anim id=\"Negative\" target=\"actor\" targetSpec=\"\"}}ここまで{{ruby charSpan=\"1\" value=\"かんが\"}}考えてもらった　ご{{ruby charSpan=\"2\" value=\"ていあん\"}}提案の{{ruby charSpan=\"2\" value=\"ないよう\"}}内容が{{delay8}}\n{{ruby charSpan=\"1\" value=\"な\"}}無かったことになるけど、{{delay20}}{{anim id=\"QuestionMark\" target=\"actor\" targetSpec=\"\"}}{{ruby charSpan=\"2\" value=\"ちゅうし\"}}中止して{{ruby charSpan=\"3\" value=\"だいじょうぶ\"}}大丈夫？"
  },
  {
    "label": "2051_a",
    "attribute": "0x00000000",
    "text": "{{anim id=\"Nodding\" target=\"player\" targetSpec=\"\"}}{{ruby charSpan=\"2\" value=\"ちゅうし\"}}中止します"
  },
  {
    "label": "2051_b",
    "attribute": "0x00000000",
    "text": "{{anim id=\"Negative\" target=\"actor\" targetSpec=\"\"}}ちょっと{{ruby charSpan=\"1\" value=\"ま\"}}待って！"
  },
  {
    "label": "2052",
    "attribute": "0x02000000",
    "text": "{{anim id=\"Shocked\" target=\"actor\" targetSpec=\"\"}}あれっ{{string value=\"...\"}}　やめちゃうの？{{delay frames=\"40\"}}\n{{anim id=\"Negative\" target=\"actor\" targetSpec=\"\"}}{{ruby charSpan=\"2\" value=\"がいかん\"}}外観のプランも{{ruby charSpan=\"1\" value=\"ふく\"}}含めて、{{delay8}}{{ruby charSpan=\"2\" value=\"ていあん\"}}提案そのものが\n{{ruby charSpan=\"1\" value=\"な\"}}無かったことになるけど、{{delay20}}{{anim id=\"QuestionMark\" target=\"actor\" targetSpec=\"\"}}{{ruby charSpan=\"2\" value=\"ちゅうし\"}}中止して{{ruby charSpan=\"3\" value=\"だいじょうぶ\"}}大丈夫？"
  },
  {
    "label": "2052_a",
    "attribute": "0x00000000",
    "text": "{{anim id=\"Nodding\" target=\"player\" targetSpec=\"\"}}{{ruby charSpan=\"2\" value=\"ちゅうし\"}}中止します"
  },
  {
    "label": "2052_b",
    "attribute": "0x00000000",
    "text": "{{anim id=\"Negative\" target=\"actor\" targetSpec=\"\"}}ちょっと{{ruby charSpan=\"1\" value=\"ま\"}}待って！"
  },
  {
    "label": "2053",
    "attribute": "0x02000000",
    "text": "{{anim id=\"Shocked\" target=\"actor\" targetSpec=\"\"}}あれっ{{string value=\"...\"}}　やめちゃうの？{{delay frames=\"40\"}}\n{{anim id=\"Explain\" target=\"actor\" targetSpec=\"\"}}{{ruby charSpan=\"2\" value=\"ないそう\"}}内装も{{ruby charSpan=\"2\" value=\"がいかん\"}}外観も　{{ruby charSpan=\"1\" value=\"もと\"}}元のプランに{{ruby charSpan=\"1\" value=\"もど\"}}戻して\n{{ruby charSpan=\"1\" value=\"すす\"}}進めることになるけど、{{delay20}}{{anim id=\"QuestionMark\" target=\"actor\" targetSpec=\"\"}}それで{{ruby charSpan=\"3\" value=\"だいじょうぶ\"}}大丈夫かな？"
  },
  {
    "label": "2053_a",
    "attribute": "0x00000000",
    "text": "{{anim id=\"Nodding\" target=\"actor\" targetSpec=\"\"}}{{ruby charSpan=\"1\" value=\"もと\"}}元のプランで{{ruby charSpan=\"1\" value=\"すす\"}}進める"
  },
  {
    "label": "2053_b",
    "attribute": "0x00000000",
    "text": "{{anim id=\"Negative\" target=\"actor\" targetSpec=\"\"}}ちょっと{{ruby charSpan=\"1\" value=\"ま\"}}待って！"
  },
  {
    "label": "2054",
    "attribute": "0x02000000",
    "text": "{{anim id=\"Shocked\" target=\"actor\" targetSpec=\"\"}}あれっ{{string value=\"...\"}}　やめちゃうの？{{delay frames=\"40\"}}\n{{anim id=\"Explain\" target=\"actor\" targetSpec=\"\"}}{{ruby charSpan=\"2\" value=\"ないそう\"}}内装の{{ruby charSpan=\"2\" value=\"ていあん\"}}提案をやめて、{{delay20}}{{ruby charSpan=\"2\" value=\"がいかん\"}}外観のプランも\n{{ruby charSpan=\"1\" value=\"もと\"}}元に{{ruby charSpan=\"1\" value=\"もど\"}}戻して　{{ruby charSpan=\"1\" value=\"すす\"}}進めるけど、{{delay20}}{{anim id=\"QuestionMark\" target=\"actor\" targetSpec=\"\"}}それで{{ruby charSpan=\"3\" value=\"だいじょうぶ\"}}大丈夫かな？"
  },
  {
    "label": "2054_a",
    "attribute": "0x00000000",
    "text": "{{anim id=\"Nodding\" target=\"actor\" targetSpec=\"\"}}{{ruby charSpan=\"1\" value=\"もと\"}}元のプランで{{ruby charSpan=\"1\" value=\"すす\"}}進める"
  },
  {
    "label": "2054_b",
    "attribute": "0x00000000",
    "text": "{{anim id=\"Negative\" target=\"actor\" targetSpec=\"\"}}ちょっと{{ruby charSpan=\"1\" value=\"ま\"}}待って！"
  },
  {
    "label": "2055",
    "attribute": "0x02000000",
    "text": "{{anim id=\"Shocked\" target=\"actor\" targetSpec=\"\"}}あれっ{{string value=\"...\"}}　やめちゃうの？{{delay frames=\"40\"}}\n{{anim id=\"Explain\" target=\"actor\" targetSpec=\"\"}}それなら、{{ruby charSpan=\"1\" value=\"もと\"}}元の{{ruby charSpan=\"2\" value=\"ないそう\"}}内装のプランだけで\n{{ruby charSpan=\"2\" value=\"ていあん\"}}提案を{{ruby charSpan=\"1\" value=\"すす\"}}進めるけど、{{delay20}}{{anim id=\"QuestionMark\" target=\"actor\" targetSpec=\"\"}}それで{{ruby charSpan=\"2\" value=\"もんだい\"}}問題ないだなも？"
  },
  {
    "label": "2055_a",
    "attribute": "0x00000000",
    "text": "{{anim id=\"Nodding\" target=\"actor\" targetSpec=\"\"}}{{ruby charSpan=\"1\" value=\"もと\"}}元のプランで{{ruby charSpan=\"1\" value=\"すす\"}}進める"
  },
  {
    "label": "2055_b",
    "attribute": "0x00000000",
    "text": "{{anim id=\"Negative\" target=\"actor\" targetSpec=\"\"}}ちょっと{{ruby charSpan=\"1\" value=\"ま\"}}待って！"
  },
  {
    "label": "2061",
    "attribute": "0x00000000",
    "text": "わかっただなも、{{delay frames=\"40\"}}\n{{anim id=\"Worried\" target=\"actor\" targetSpec=\"\"}}{{ruby charSpan=\"2\" value=\"ざんねん\"}}残念だけど、{{delay20}}{{string value=\"PlayerName\"}}さんが\nそう{{ruby charSpan=\"1\" value=\"い\"}}言うなら、{{delay8}}{{anim id=\"Negative\" target=\"actor\" targetSpec=\"\"}}しょうがないだなも{{string value=\"...\"}}"
  },
  {
    "label": "2062",
    "attribute": "0x00000000",
    "text": "{{anim id=\"Nodding\" target=\"actor\" targetSpec=\"\"}}わかっただなも！{{delay frames=\"40\"}}\n{{anim id=\"EmotEnd\" target=\"actor\" targetSpec=\"\"}}じゃあ、{{ruby charSpan=\"2\" value=\"へんこう\"}}変更はなしにして、{{delay20}}\n{{anim id=\"FaintSmile\" target=\"actor\" targetSpec=\"\"}}{{ruby charSpan=\"1\" value=\"もと\"}}元のプランのまま　{{ruby charSpan=\"1\" value=\"すす\"}}進めさせてもらうだなも！"
  },
  {
    "label": "2063",
    "attribute": "0x00000000",
    "text": "{{anim id=\"Smiling\" target=\"actor\" targetSpec=\"\"}}はーい、{{delay frames=\"40\"}}のんびり{{ruby charSpan=\"1\" value=\"ま\"}}待たせてもらうから、{{delay20}}\n{{anim id=\"Greeting\" target=\"actor\" targetSpec=\"\"}}じっくり　{{ruby charSpan=\"1\" value=\"かんが\"}}考えてちょうだい！"
  },
  {
    "label": "2101",
    "attribute": "0x00000000",
    "text": "{{anim id=\"Shocked\" target=\"actor\" targetSpec=\"\"}}ちょっと、{{delay20}}どうしただなも？！{{anim id=\"EmotEnd\" target=\"actor\" targetSpec=\"\"}}{{i10_4}}\n{{anim id=\"Nodding\" target=\"actor\" targetSpec=\"\"}}ご{{ruby charSpan=\"1\" value=\"よう\"}}用があるなら、{{delay20}}{{ruby charSpan=\"1\" value=\"こえ\"}}声をかけてちょうだい{{anim id=\"FaintSmile\" target=\"actor\" targetSpec=\"\"}}"
  },
  {
    "label": "2102",
    "attribute": "0x00000000",
    "text": "{{anim id=\"Thinking\" target=\"actor\" targetSpec=\"\"}}うーん{{string value=\"...\"}}、{{delay frames=\"40\"}}\n{{anim id=\"EmotEnd\" target=\"actor\" targetSpec=\"\"}}このお{{ruby charSpan=\"2\" value=\"へや\"}}部屋だと　{{delay8}}{{anim id=\"Worried\" target=\"actor\" targetSpec=\"\"}}{{ruby charSpan=\"1\" value=\"あし\"}}足の{{ruby charSpan=\"1\" value=\"ふ\"}}踏み{{ruby charSpan=\"1\" value=\"ば\"}}場が\nちょっと　{{ruby charSpan=\"1\" value=\"すく\"}}少ない{{ruby charSpan=\"1\" value=\"き\"}}気がするだなも{{string value=\"...\"}}\n{{anim id=\"Explain\" target=\"actor\" targetSpec=\"\"}}たぬき{{ruby charSpan=\"2\" value=\"かいはつ\"}}開発として　{{ruby charSpan=\"2\" value=\"ちゅうかい\"}}仲介をするからには、{{delay20}}\n{{anim id=\"EmotEnd\" target=\"actor\" targetSpec=\"\"}}{{ruby charSpan=\"1\" value=\"す\"}}住み{{ruby charSpan=\"2\" value=\"ごこち\"}}心地の{{ruby charSpan=\"1\" value=\"よ\"}}良い　お{{ruby charSpan=\"2\" value=\"へや\"}}部屋を{{ruby charSpan=\"2\" value=\"ていあん\"}}提案することが、{{delay8}}\n{{anim id=\"Nodding\" target=\"actor\" targetSpec=\"\"}}{{ruby charSpan=\"3\" value=\"だいぜんてい\"}}大前提なんだなも！\n{{anim id=\"FaintSmile\" target=\"actor\" targetSpec=\"\"}}プランを{{ruby charSpan=\"2\" value=\"みなお\"}}見直してもらって、{{delay20}}{{anim id=\"Explain\" target=\"actor\" targetSpec=\"\"}}{{ruby charSpan=\"3\" value=\"ふじゆう\"}}不自由なく\n{{ruby charSpan=\"1\" value=\"く\"}}暮らせる{{ruby charSpan=\"2\" value=\"ていど\"}}程度の　スペースが{{ruby charSpan=\"2\" value=\"かくほ\"}}確保できたら、{{delay8}}\n{{anim id=\"Greeting\" target=\"actor\" targetSpec=\"\"}}また{{ruby charSpan=\"1\" value=\"こえ\"}}声をかけてちょうだいね！"
  },
  {
    "label": "2103",
    "attribute": "0x00000000",
    "text": "{{anim id=\"Thinking\" target=\"actor\" targetSpec=\"\"}}うーん{{string value=\"...\"}}、{{delay frames=\"40\"}}\n{{anim id=\"Worried\" target=\"actor\" targetSpec=\"\"}}お{{ruby charSpan=\"2\" value=\"へや\"}}部屋の{{ruby charSpan=\"1\" value=\"い\"}}入り{{ruby charSpan=\"1\" value=\"ぐち\"}}口が　ふさがれちゃってて、{{delay20}}\n{{anim id=\"Negative\" target=\"actor\" targetSpec=\"\"}}これだと　{{ruby charSpan=\"2\" value=\"せいかつ\"}}生活ができないと{{ruby charSpan=\"1\" value=\"おも\"}}思うだなも{{string value=\"...\"}}\n{{anim id=\"Explain\" target=\"actor\" targetSpec=\"\"}}たぬき{{ruby charSpan=\"2\" value=\"かいはつ\"}}開発として　{{ruby charSpan=\"2\" value=\"ちゅうかい\"}}仲介をするからには、{{delay20}}\n{{anim id=\"EmotEnd\" target=\"actor\" targetSpec=\"\"}}{{ruby charSpan=\"2\" value=\"せいかつ\"}}生活の{{ruby charSpan=\"2\" value=\"どうせん\"}}導線が　しっかり{{ruby charSpan=\"2\" value=\"かくほ\"}}確保されたお{{ruby charSpan=\"2\" value=\"へや\"}}部屋を{{delay8}}\n{{anim id=\"Nodding\" target=\"actor\" targetSpec=\"\"}}ご{{ruby charSpan=\"2\" value=\"ていあん\"}}提案したいんだなも！\n{{anim id=\"Explain\" target=\"actor\" targetSpec=\"\"}}{{ruby charSpan=\"2\" value=\"いりぐち\"}}入口あたりの　{{ruby charSpan=\"2\" value=\"かぐ\"}}家具を{{ruby charSpan=\"2\" value=\"かたづ\"}}片付けて{{delay8}}\n{{anim id=\"FaintSmile\" target=\"actor\" targetSpec=\"\"}}お{{ruby charSpan=\"2\" value=\"へや\"}}部屋への{{ruby charSpan=\"2\" value=\"どうせん\"}}導線が　きちんと{{ruby charSpan=\"2\" value=\"かくほ\"}}確保できたら、{{delay20}}\n{{anim id=\"Greeting\" target=\"actor\" targetSpec=\"\"}}また{{ruby charSpan=\"1\" value=\"こえ\"}}声をかけてちょうだいね！"
  },
  {
    "label": "3101",
    "attribute": "0x00000000",
    "text": "{{anim id=\"Smiling\" target=\"actor\" targetSpec=\"\"}}{{string value=\"PlayerName\"}}さん、{{delay20}}\nお{{ruby charSpan=\"1\" value=\"つか\"}}疲れさまでしたー！"
  },
  {
    "label": "3102",
    "attribute": "0x00000000",
    "text": "{{anim id=\"HappyDance\" target=\"actor\" targetSpec=\"\"}}きっと、{{delay8}}{{selection value=\"SelectedVillager\"}}さんも{{delay20}}\n{{string value=\"PlayerName\"}}さんのプランを{{delay8}}\n{{ruby charSpan=\"1\" value=\"き\"}}気に{{ruby charSpan=\"1\" value=\"い\"}}入ってくれると　{{ruby charSpan=\"1\" value=\"おも\"}}思うんだなも！"
  },
  {
    "label": "3103",
    "attribute": "0x00000000",
    "text": "{{anim id=\"Serious\" target=\"actor\" targetSpec=\"\"}}それじゃ、{{delay20}}{{anim id=\"Nodding\" target=\"actor\" targetSpec=\"\"}}あとはボクの{{ruby charSpan=\"2\" value=\"しごと\"}}仕事なんだなも！{{delay frames=\"40\"}}\n{{anim id=\"EmotEnd\" target=\"actor\" targetSpec=\"\"}}{{selection value=\"SelectedVillager\"}}さんに　{{ruby charSpan=\"2\" value=\"ていあん\"}}提案の{{ruby charSpan=\"2\" value=\"ないよう\"}}内容を\nお{{ruby charSpan=\"1\" value=\"つた\"}}伝えして、{{anim id=\"FaintSmile\" target=\"actor\" targetSpec=\"\"}}{{ruby charSpan=\"2\" value=\"かいそう\"}}改装の{{ruby charSpan=\"2\" value=\"じゅんび\"}}準備を{{ruby charSpan=\"1\" value=\"すす\"}}進めるだも！"
  },
  {
    "label": "3104",
    "attribute": "0x00000000",
    "text": "{{anim id=\"FaintSmile\" target=\"actor\" targetSpec=\"\"}}{{ruby charSpan=\"2\" value=\"あした\"}}明日には{{delay8}}　プラン{{ruby charSpan=\"1\" value=\"どお\"}}通りのお{{ruby charSpan=\"1\" value=\"うち\"}}家が\n{{ruby charSpan=\"2\" value=\"かんせい\"}}完成してると{{ruby charSpan=\"1\" value=\"おも\"}}思うし、{{delay20}}{{string value=\"PlayerName\"}}さんも\n{{anim id=\"Hello\" target=\"actor\" targetSpec=\"\"}}ぜひ、{{ruby charSpan=\"2\" value=\"ようす\"}}様子を{{ruby charSpan=\"1\" value=\"み\"}}見に{{ruby charSpan=\"1\" value=\"い\"}}行ってあげてね！"
  },
  {
    "label": "3111",
    "attribute": "0x00000000",
    "text": "{{string value=\"PlayerName\"}}さん、{{delay20}}{{anim id=\"Smiling\" target=\"actor\" targetSpec=\"\"}}お{{ruby charSpan=\"1\" value=\"つか\"}}疲れさま！{{delay frames=\"40\"}}\n{{anim id=\"EmotEnd\" target=\"actor\" targetSpec=\"\"}}プランの{{ruby charSpan=\"2\" value=\"へんこう\"}}変更について、\n{{anim id=\"Nodding\" target=\"actor\" targetSpec=\"\"}}バッチリ　うけたまわっただなも！{{pageBreak}}{{anim id=\"Explain\" target=\"actor\" targetSpec=\"\"}}{{selection value=\"SelectedVillager\"}}さんにも　{{ruby charSpan=\"2\" value=\"へんこう\"}}変更を{{ruby charSpan=\"1\" value=\"つた\"}}伝えて、{{delay20}}\n{{anim id=\"FaintSmile\" target=\"actor\" targetSpec=\"\"}}{{ruby charSpan=\"2\" value=\"あす\"}}明日には　プラン{{ruby charSpan=\"1\" value=\"どお\"}}通りのお{{ruby charSpan=\"1\" value=\"うち\"}}家が、\n{{ruby charSpan=\"2\" value=\"かんせい\"}}完成してると{{ruby charSpan=\"1\" value=\"おも\"}}思うから、{{delay20}}{{anim id=\"Hello\" target=\"actor\" targetSpec=\"\"}}お{{ruby charSpan=\"1\" value=\"たの\"}}楽しみにー！"
  },
  {
    "label": "3112",
    "attribute": "0x00000000",
    "text": "それじゃ、{{delay20}}{{anim id=\"Explain\" target=\"actor\" targetSpec=\"\"}}プランの{{ruby charSpan=\"2\" value=\"へんこう\"}}変更は　ナシってことで、{{delay20}}\n{{ruby charSpan=\"2\" value=\"ていあん\"}}提案してもらった　{{ruby charSpan=\"1\" value=\"もと\"}}元のプランのままで、{{delay8}}\n{{anim id=\"Smiling\" target=\"actor\" targetSpec=\"\"}}{{ruby charSpan=\"2\" value=\"じゅんび\"}}準備を　{{ruby charSpan=\"1\" value=\"すす\"}}進めていくだなも！{{pageBreak}}{{anim id=\"Nodding\" target=\"actor\" targetSpec=\"\"}}{{ruby charSpan=\"2\" value=\"あす\"}}明日には　{{ruby charSpan=\"2\" value=\"しあ\"}}仕上げてみせるから、{{delay20}}\n{{anim id=\"Smiling\" target=\"actor\" targetSpec=\"\"}}{{selection value=\"SelectedVillager\"}}さんのお{{ruby charSpan=\"1\" value=\"うち\"}}家が\n{{ruby charSpan=\"1\" value=\"う\"}}生まれ{{ruby charSpan=\"1\" value=\"か\"}}変わるのを{{delay8}}{{anim id=\"Hello\" target=\"actor\" targetSpec=\"\"}}　お{{ruby charSpan=\"1\" value=\"たの\"}}楽しみにー！"
  },
  {
    "label": "991",
    "attribute": "0x00000000",
    "text": "{{anim id=\"Greeting\" target=\"actor\" targetSpec=\"\"}}{{string value=\"PlayerName\"}}さん、{{delay8}}どーも、どーも！{{delay frames=\"40\"}}\n{{anim id=\"Smiling\" target=\"actor\" targetSpec=\"\"}}{{ruby charSpan=\"1\" value=\"き\"}}来てくれて、ありがとうだなも！{{pageBreak}}{{anim id=\"EmotEnd\" target=\"actor\" targetSpec=\"\"}}わざわざ　{{ruby charSpan=\"2\" value=\"でんわ\"}}電話して　{{ruby charSpan=\"1\" value=\"き\"}}来てもらったのは、{{delay20}}\n{{anim id=\"FaintSmile\" target=\"actor\" targetSpec=\"\"}}{{ruby charSpan=\"1\" value=\"しま\"}}島のみなさんの　お{{ruby charSpan=\"1\" value=\"うち\"}}家のことで{{delay8}}\n{{ruby charSpan=\"1\" value=\"はなし\"}}話が　あったからなんだなも！"
  },
  {
    "label": "992",
    "attribute": "0x00000000",
    "text": "{{anim id=\"BigSmile\" target=\"actor\" targetSpec=\"\"}}そうだ！{{delay8}}　{{string value=\"PlayerName\"}}さん！{{delay frames=\"40\"}}\n{{anim id=\"Nodding\" target=\"actor\" targetSpec=\"\"}}{{ruby charSpan=\"2\" value=\"でんわ\"}}電話で　{{ruby charSpan=\"1\" value=\"い\"}}言ってた、{{delay8}}ここに{{ruby charSpan=\"1\" value=\"き\"}}来てもらって\n{{ruby charSpan=\"1\" value=\"つた\"}}伝えたかった{{ruby charSpan=\"1\" value=\"はなし\"}}話を　しとかないとね！{{pageBreak}}{{anim id=\"Serious\" target=\"actor\" targetSpec=\"\"}}{{ruby charSpan=\"1\" value=\"はなし\"}}話っていうのはね、{{delay20}}\n{{anim id=\"FaintSmile\" target=\"actor\" targetSpec=\"\"}}{{ruby charSpan=\"1\" value=\"しま\"}}島のみなさんの　お{{ruby charSpan=\"1\" value=\"うち\"}}家についてなんだなも！"
  },
  {
    "label": "993",
    "attribute": "0x00000000",
    "text": "{{anim id=\"ShyBoy\" target=\"actor\" targetSpec=\"\"}}ボクが　あちこちで　しゃべったせいか{{string value=\"...\"}}{{delay frames=\"40\"}}\n{{anim id=\"Nodding\" target=\"actor\" targetSpec=\"\"}}{{color id=\"1\"}}タクミライフ{{color id=\"65535\"}}で　{{ruby charSpan=\"1\" value=\"はたら\"}}働いてる{{delay8}}\n{{string value=\"PlayerName\"}}さんの{{ruby charSpan=\"1\" value=\"はなし\"}}話が{{ruby charSpan=\"1\" value=\"ひろ\"}}広まっててね{{pageBreak}}{{anim id=\"AbsentMindedness\" target=\"actor\" targetSpec=\"\"}}{{ruby charSpan=\"2\" value=\"じぶん\"}}自分のお{{ruby charSpan=\"1\" value=\"うち\"}}家も{{delay8}}　{{string value=\"PlayerName\"}}さんに\nコーディネートしてほしい！{{delay frames=\"40\"}}{{anim id=\"EmotEnd\" target=\"actor\" targetSpec=\"\"}}　って{{ruby charSpan=\"1\" value=\"こえ\"}}声を{{delay20}}\n{{anim id=\"Nodding\" target=\"actor\" targetSpec=\"\"}}よく{{ruby charSpan=\"1\" value=\"き\"}}聞くようになっただなも！"
  }
]