﻿[
  {
    "label": "001",
    "attribute": "0x00000C0100000000",
    "text": "{{anim id=\"Shocked\" target=\"actor\" targetSpec=\"\"}}Toh, {{delay20}}ci si rivede!{{setNpcTalkChoices chatOption=\"0\" cancelOption=\"1\"}}"
  },
  {
    "label": "002",
    "attribute": "0x00000C0100000000",
    "text": "{{anim id=\"BigSmile\" target=\"actor\" targetSpec=\"\"}}{{string value=\"14\"}}Hola, {{string value=\"NickName\"}}{{endTag}}!{{setNpcTalkChoices chatOption=\"0\" cancelOption=\"1\"}}"
  },
  {
    "label": "003",
    "attribute": "0x00000C0100000000",
    "text": "{{anim id=\"Greeting\" target=\"actor\" targetSpec=\"\"}}Che si dice di bello?{{delay20}}\nÈ tutto \"{{string value=\"Catchphrase\"}}\"?{{setNpcTalkChoices chatOption=\"0\" cancelOption=\"1\"}}"
  },
  {
    "label": "004",
    "attribute": "0x00000C0100000000",
    "text": "{{anim id=\"Aha\" target=\"actor\" targetSpec=\"\"}}Ancora?{{delay20}} A questo punto potresti\noffrirmi {{wordArticle}}{{randomDrink}}!\n{{anim id=\"Laughing\" target=\"actor\" targetSpec=\"\"}}Ahahah!{{setNpcTalkChoices chatOption=\"0\" cancelOption=\"1\"}}"
  },
  {
    "label": "005",
    "attribute": "0x0000000100000000",
    "text": "{{fun_000C003C arg=\"0x07000800\"}}"
  },
  {
    "label": "007",
    "attribute": "0x00000C0000000000",
    "text": "{{anim id=\"WrySmile\" target=\"actor\" targetSpec=\"\"}}Non facciamo che incontrarci\nultimamente{{string value=\"...\"}} L'hai notato anche tu,\nbel giovanotto?{{setNpcTalkChoices chatOption=\"0\" cancelOption=\"1\"}}"
  },
  {
    "label": "008",
    "attribute": "0x00000C0000000000",
    "text": "{{anim id=\"WrySmile\" target=\"actor\" targetSpec=\"\"}}Non facciamo che incontrarci\nultimamente{{string value=\"...\"}} L'hai notato anche tu,\naffascinante signorina?{{setNpcTalkChoices chatOption=\"0\" cancelOption=\"1\"}}"
  }
]