﻿[
  {
    "label": "001",
    "attribute": "0x00000C0100000000",
    "text": "{{anim id=\"SmugFace\" target=\"actor\" targetSpec=\"\"}}Di' la verità: mi stai paparazzando\nper racimolare qualche stellina\nextra{{string value=\"...\"}} Eh, {{string value=\"NickName\"}}?{{setNpcTalkChoices chatOption=\"0\" cancelOption=\"1\"}}"
  },
  {
    "label": "002",
    "attribute": "0x00000C0100000000",
    "text": "{{anim id=\"BigSmile\" target=\"actor\" targetSpec=\"\"}}Quando diventi fan di qualcuno,\nti ci metti d'impegno, eh?{{delay20}} Beh,\ntrattandosi di me, lo capisco...{{setNpcTalkChoices chatOption=\"0\" cancelOption=\"1\"}}"
  },
  {
    "label": "003",
    "attribute": "0x00000C0100000000",
    "text": "{{anim id=\"OhGeez\" target=\"actor\" targetSpec=\"\"}}Sorbole!{{delay8}} Stai per caso girando\nun documentario su di me?{{delay20}}\n{{anim id=\"Grin\" target=\"actor\" targetSpec=\"\"}}Che ti serve adesso?{{setNpcTalkChoices chatOption=\"0\" cancelOption=\"1\"}}"
  }
]