﻿[
  {
    "label": "001",
    "attribute": "0x00000C0100000000",
    "text": "{{anim id=\"Greeting\" target=\"actor\" targetSpec=\"\"}}¿Qué pasa?{{delay20}} ¿Tienes alguna cosa que\ncontarme,{{delay8}} {{string value=\"Catchphrase\"}}?{{setNpcTalkChoices chatOption=\"0\" cancelOption=\"1\"}}"
  },
  {
    "label": "002",
    "attribute": "0x00000C0100000000",
    "text": "{{anim id=\"Shocked\" target=\"actor\" targetSpec=\"\"}}¿Quieres hablar conmigo sobre algo?{{delay20}}\n{{anim id=\"SmugFace\" target=\"actor\" targetSpec=\"\"}}Normal,{{delay8}} {{string value=\"Catchphrase\"}},{{delay8}} como casi todo el mundo.{{setNpcTalkChoices chatOption=\"0\" cancelOption=\"1\"}}"
  },
  {
    "label": "003",
    "attribute": "0x00000C0100000000",
    "text": "{{anim id=\"Assent\" target=\"actor\" targetSpec=\"\"}}¿Vienes a pedirle consejo sobre algo\na tu viejo amigo {{string value=\"VillagerName\"}}?{{setNpcTalkChoices chatOption=\"0\" cancelOption=\"1\"}}"
  },
  {
    "label": "004",
    "attribute": "0x00000C0100000000",
    "text": "{{anim id=\"WrySmile\" target=\"actor\" targetSpec=\"\"}}Te escucho.{{delay20}} ¿Qué necesitas de mí,{{delay8}}\n{{string value=\"Catchphrase\"}}?{{setNpcTalkChoices chatOption=\"0\" cancelOption=\"0\"}}"
  },
  {
    "label": "005",
    "attribute": "0x00000C0100000000",
    "text": "{{anim id=\"SmugFace\" target=\"actor\" targetSpec=\"\"}}¿Qué te traes entre manos,\n{{string value=\"Catchphrase\"}}?{{setNpcTalkChoices chatOption=\"0\" cancelOption=\"0\"}}"
  }
]