﻿[
  {
    "label": "001",
    "attribute": "0x0000020000000000",
    "text": "{{anim id=\"IdeaBulb\" target=\"actor\" targetSpec=\"\"}}Mira, ho un po' di tempo e una bella\ncosa da nascondere{{string value=\"...\"}} Facciamo\nuna caccia al tesoro!{{delay20}} {{anim id=\"QuestionMark\" target=\"actor\" targetSpec=\"\"}}Ti interessa?"
  },
  {
    "label": "001_a",
    "attribute": "0x0000000000000000",
    "text": "Certo!\nIniziamo!"
  },
  {
    "label": "001_b",
    "attribute": "0x0000000000000000",
    "text": "No, ho da fare.\nAdesso non posso..."
  },
  {
    "label": "002",
    "attribute": "0x0000020000000000",
    "text": "{{anim id=\"Thinking\" target=\"actor\" targetSpec=\"\"}}Mmmh, la mia agenda normalmente\nricca di impegni dice che ora sono\nlibero, perciò{{string value=\"...\"}}\n{{anim id=\"IdeaBulb\" target=\"actor\" targetSpec=\"\"}}Perché non facciamo un gioco?\n{{anim id=\"QuestionMark\" target=\"actor\" targetSpec=\"\"}}Te gusta? {{delay20}}Magari una bella caccia\nal tesoro, eh?"
  },
  {
    "label": "002_a",
    "attribute": "0x0000000000000000",
    "text": "Certo!\nIniziamo!"
  },
  {
    "label": "002_b",
    "attribute": "0x0000000000000000",
    "text": "No, ho da fare.\nAdesso non posso..."
  },
  {
    "label": "003",
    "attribute": "0x0000020000000000",
    "text": "{{anim id=\"WrySmile\" target=\"actor\" targetSpec=\"\"}}Se per caso te gusta fare qualcosa\ndi stiloso e stravagante...{{delay frames=\"40\"}} {{anim id=\"Scheming\" target=\"actor\" targetSpec=\"\"}}potremmo\nfare una bella caccia al tesoro!"
  },
  {
    "label": "003_a",
    "attribute": "0x0000000000000000",
    "text": "Certo!\nIniziamo!"
  },
  {
    "label": "003_b",
    "attribute": "0x0000000000000000",
    "text": "No, ho da fare.\nAdesso non posso..."
  },
  {
    "label": "004",
    "attribute": "0x0000000000000000",
    "text": "{{anim id=\"BigSmile\" target=\"actor\" targetSpec=\"\"}}Bien!{{delay20}} Lo sapevo che avresti\naccettato!{{pageBreak}}{{anim id=\"Scheming\" target=\"actor\" targetSpec=\"\"}}Però ahora ho bisogno che aspetti\nun po' qui mentre metto a punto\nle ultime cose..."
  },
  {
    "label": "005",
    "attribute": "0x0000000000000000",
    "text": "{{anim id=\"BigSmile\" target=\"actor\" targetSpec=\"\"}}Da paura! {{delay20}}Lo sapevo che non avresti\npotuto dire di no a una simile offerta.{{pageBreak}}{{anim id=\"Grin\" target=\"actor\" targetSpec=\"\"}}Bueno{{string value=\"...\"}} adesso aspetta un momento\nqui mentre vado a nascondere\nil tesoro."
  },
  {
    "label": "006",
    "attribute": "0x0000000000000000",
    "text": "{{anim id=\"BigSmile\" target=\"actor\" targetSpec=\"\"}}Sorbole!{{delay20}} Allora diamoci da fare.{{pageBreak}}{{anim id=\"WrySmile\" target=\"actor\" targetSpec=\"\"}}Vado a cercare un posto dove\nnascondere questo regalo segreto...{{pageBreak}}{{anim id=\"Thinking\" target=\"actor\" targetSpec=\"\"}}Mmmh, forse questo dettaglio non\navrei dovuto dirlo ad alta voce, {{anim id=\"OhGeez\" target=\"actor\" targetSpec=\"\"}}ma\normai..."
  },
  {
    "label": "007",
    "attribute": "0x0000000000000000",
    "text": "{{anim id=\"Worried\" target=\"actor\" targetSpec=\"\"}}Sorbole{{string value=\"...\"}} ma è tardissimo!{{delay20}} {{anim id=\"Negative\" target=\"actor\" targetSpec=\"\"}}Non ha\nsenso fare una caccia al tesoro\nal buio.{{delay20}} Rimandiamo, vale?"
  },
  {
    "label": "008",
    "attribute": "0x0000000000000000",
    "text": "{{anim id=\"OhGeez\" target=\"actor\" targetSpec=\"\"}}Vale, {{delay20}}sarà per un'altra volta."
  },
  {
    "label": "009",
    "attribute": "0x0000000000000000",
    "text": "{{anim id=\"OhGeez\" target=\"actor\" targetSpec=\"\"}}Vale, non sarò io a costringerti.{{pageBreak}}{{anim id=\"Smiling\" target=\"actor\" targetSpec=\"\"}}Se non ti va di andare in giro a\nscavare per trovare un oggetto a\ncaso, hai tutto il diritto di dire di no."
  },
  {
    "label": "010",
    "attribute": "0x0000000000000000",
    "text": "{{anim id=\"OhGeez\" target=\"actor\" targetSpec=\"\"}}Va bene, va bene, era solo un'idea.\nNo hay problema."
  },
  {
    "label": "011",
    "attribute": "0x0000000000000000",
    "text": "{{anim id=\"Nodding\" target=\"actor\" targetSpec=\"\"}}Bueno, ascoltami bene che ti spiego\ncome funziona. Ho sepolto il tesoro\n{{fun_000F0032 arg=\"\"}} {{string value=\"OtherIslandName\"}}.{{i10_7 arg=\"240\"}}{{pageBreak}}{{anim id=\"Explain\" target=\"actor\" targetSpec=\"\"}}Trovalo prima che el tiempo scada\ne hai vinto. {{delay20}}Beh, alla fine non\nè così complicato.{{i10_7 arg=\"240\"}}\n{{anim id=\"Shocked\" target=\"actor\" targetSpec=\"\"}}Ah! {{delay20}}Dimenticavo di dirti che vinci\nquello che trovi. {{delay frames=\"40\"}}{{anim id=\"WrySmile\" target=\"actor\" targetSpec=\"\"}}Facilissimo, verdad?{{i10_7 arg=\"300\"}}"
  },
  {
    "label": "011_01",
    "attribute": "0x0000000000000000",
    "text": "{{anim id=\"Nodding\" target=\"actor\" targetSpec=\"\"}}Bueno, ti spiego come funziona. Io\nho sotterrato un tesoro da qualche\nparte qui {{fun_000F0032 arg=\"\"}} {{string value=\"OtherIslandName\"}}.{{i10_7 arg=\"240\"}}{{pageBreak}}{{anim id=\"Explain\" target=\"actor\" targetSpec=\"\"}}Se riesci a trovarlo prima che scada\nel tiempo, vinci. {{delay20}}Non dovrebbe\nessere troppo difficile.{{i10_7 arg=\"240\"}}\n{{anim id=\"Shocked\" target=\"actor\" targetSpec=\"\"}}Oh! {{delay20}}La vincita è quello che\ndissotterri. {{delay frames=\"40\"}}{{anim id=\"WrySmile\" target=\"actor\" targetSpec=\"\"}}Ti ho già detto che\nnon è muy complicato.{{i10_7 arg=\"240\"}}\n{{anim id=\"Eh\" target=\"actor\" targetSpec=\"\"}}Ah, un'altra cosa!{{delay20}} {{anim id=\"Silent\" target=\"actor\" targetSpec=\"\"}}Questa è una\nbattaglia fra il mio e il tuo ingegno.\n{{delay20}}{{anim id=\"Negative\" target=\"actor\" targetSpec=\"\"}}Quindi nessun altro può aiutarti.{{i10_7 arg=\"240\"}}\n{{anim id=\"Serious\" target=\"actor\" targetSpec=\"\"}}Ahora, {{delay8}}sei pront{{gender2 m=\"o\" f=\"a\"}}?{{i10_7 arg=\"300\"}}"
  },
  {
    "label": "012",
    "attribute": "0x0000000000000000",
    "text": "{{anim id=\"Nodding\" target=\"actor\" targetSpec=\"\"}}Bueno, ascoltami bene che ti spiego\ncome funziona. Ho sepolto il tesoro\n{{fun_000F0032 arg=\"\"}} {{string value=\"OtherIslandName\"}}.{{i10_7 arg=\"240\"}}{{pageBreak}}{{anim id=\"Explain\" target=\"actor\" targetSpec=\"\"}}Trovalo prima che el tiempo scada\ne hai vinto.{{i10_7 arg=\"240\"}}{{pageBreak}}{{anim id=\"Scheming\" target=\"actor\" targetSpec=\"\"}}Però sappi che stavolta ho reso\nle cose un po' più complicate\ndel solito!{{i10_7 arg=\"300\"}}"
  },
  {
    "label": "012_01",
    "attribute": "0x0000000000000000",
    "text": "{{anim id=\"Nodding\" target=\"actor\" targetSpec=\"\"}}OK, lascia che ti spieghi come\nfunziona. Ho sepolto un tesoro da\nqualche parte {{fun_000F0032 arg=\"\"}} {{string value=\"OtherIslandName\"}}.{{i10_7 arg=\"240\"}}{{pageBreak}}{{anim id=\"Explain\" target=\"actor\" targetSpec=\"\"}}Se trovi il tesoro prima che scada\nil tempo, vinci. {{delay20}}Uhm, non è troppo\ncomplicato, ecco.{{i10_7 arg=\"240\"}}\n{{anim id=\"Scheming\" target=\"actor\" targetSpec=\"\"}}Anche se questa volta ti rendo la\nvita un po' più difficile, quindi in\nbocca al lupo!{{i10_7 arg=\"300\"}}\n{{anim id=\"Silent\" target=\"actor\" targetSpec=\"\"}}E questa è una sfida tra me e te,\nnon c'è neanche bisogno di dirlo.\n{{delay20}}{{anim id=\"Negative\" target=\"actor\" targetSpec=\"\"}}Quindi niente aiuti esterni, capito?{{i10_7 arg=\"240\"}}\n{{anim id=\"Serious\" target=\"actor\" targetSpec=\"\"}}Ora, {{delay8}}sei pront{{gender2 m=\"o\" f=\"a\"}}?{{i10_7 arg=\"300\"}}"
  },
  {
    "label": "013",
    "attribute": "0x0000020000000000",
    "text": "{{anim id=\"QuestionMark\" target=\"actor\" targetSpec=\"\"}}Conosci già la caccia al tesoro, no?{{delay20}}\nVuoi che ti ripeta le regole\nper rinfrescarti la memoria?"
  },
  {
    "label": "013_a",
    "attribute": "0x0000000000000000",
    "text": "Sì, meglio."
  },
  {
    "label": "013_b",
    "attribute": "0x0000000000000000",
    "text": "Non serve."
  },
  {
    "label": "014",
    "attribute": "0x0000000000000000",
    "text": "{{anim id=\"WrySmile\" target=\"actor\" targetSpec=\"\"}}Bien, abbiamo {{gender2 m=\"un\" f=\"una\"}} professionista\ndella caccia al tesoro allora!\n{{delay20}}In bocca al lupo!{{i10_7 arg=\"180\"}}"
  },
  {
    "label": "014_01",
    "attribute": "0x0000000000000000",
    "text": "{{anim id=\"WrySmile\" target=\"actor\" targetSpec=\"\"}}Bene, dato che sei {{gender2 m=\"un\" f=\"una\"}} {{gender2 m=\"cacciatore\" f=\"cacciatrice\"}}\ndi tesori professionista, {{delay20}}non avrai\nbisogno del minimo aiuto, no?{{i10_7 arg=\"90\"}}\n{{anim id=\"Smiling\" target=\"actor\" targetSpec=\"\"}}No, infatti. {{delay20}}Allora buona fortuna!{{i10_7 arg=\"90\"}}"
  },
  {
    "label": "015",
    "attribute": "0x0000000000000000",
    "text": "{{anim id=\"WrySmile\" target=\"actor\" targetSpec=\"\"}}Però tu sabes che sarà più difficile\ndel solito, vero?{{delay20}} {{anim id=\"EmotEnd\" target=\"actor\" targetSpec=\"\"}}Buena suerte!{{i10_7 arg=\"180\"}}"
  },
  {
    "label": "015_01",
    "attribute": "0x0000000000000000",
    "text": "{{anim id=\"WrySmile\" target=\"actor\" targetSpec=\"\"}}Sai che questa volta sarà un po'\npiù difficile del solito, no?{{i10_7 arg=\"120\"}}{{pageBreak}}{{anim id=\"Silent\" target=\"actor\" targetSpec=\"\"}}Anche se così fosse,{{delay20}} ricevere aiuto\ndai tuoi amici è vietatissimo{{string value=\"...\"}} {{delay8}}{{anim id=\"Grin\" target=\"actor\" targetSpec=\"\"}}È una\nquestione tra me e te!{{i10_7 arg=\"90\"}}\n{{anim id=\"EmotEnd\" target=\"actor\" targetSpec=\"\"}}In bocca al lupo!{{i10_7 arg=\"90\"}}"
  },
  {
    "label": "101",
    "attribute": "0x0000020000000000",
    "text": "{{anim id=\"Serious\" target=\"actor\" targetSpec=\"\"}}Caccia al tesoro. {{delay8}}Adesso. {{delay8}}Tu e io.{{delay8}}\nChe mi dici?{{pageBreak}}{{anim id=\"Angry\" target=\"actor\" targetSpec=\"\"}}CHE. {{delay20}}MI. {{delay20}}{{anim id=\"EmotEnd\" target=\"actor\" targetSpec=\"\"}}DICI?!"
  },
  {
    "label": "101_a",
    "attribute": "0x0000000000000000",
    "text": "TI. DICO. DI. SÌ!"
  },
  {
    "label": "101_b",
    "attribute": "0x0000000000000000",
    "text": "Uhm... dico di no!"
  },
  {
    "label": "102",
    "attribute": "0x0000020000000000",
    "text": "{{anim id=\"SadSpiral\" target=\"actor\" targetSpec=\"\"}}Uuuh{{string value=\"...\"}} la noia del solito tran tran\nquotidiano mi sta incupendo\nil cuore, {{string value=\"NickName\"}}.\n{{anim id=\"AbsentMindedness\" target=\"actor\" targetSpec=\"\"}}Mi viene da chiedermi che ci faccio\n{{fun_000F0032 arg=\"\"}} {{string value=\"33\"}}?{{delay20}} {{anim id=\"Frantic\" target=\"actor\" targetSpec=\"\"}}Che sto\nfacendo con la mi vida?\n{{anim id=\"Thinking\" target=\"actor\" targetSpec=\"\"}}Ho bisogno di qualcosa che mi\nemozioni... {{anim id=\"IdeaBulb\" target=\"actor\" targetSpec=\"\"}}Tipo una caccia al tesoro!{{delay8}}\nProprio adesso! Te gusta?"
  },
  {
    "label": "102_a",
    "attribute": "0x0000000000000000",
    "text": "Ma certo!"
  },
  {
    "label": "102_b",
    "attribute": "0x0000000000000000",
    "text": "Mi spiace, non ora!"
  },
  {
    "label": "103",
    "attribute": "0x0000000000000000",
    "text": "{{anim id=\"Shocked\" target=\"actor\" targetSpec=\"\"}}Sorbole, {{delay8}}ma la giornata è volata!{{pageBreak}}{{anim id=\"Negative\" target=\"actor\" targetSpec=\"\"}}Non se puede mica organizzare\nuna caccia al tesoro a quest'ora!\n{{delay20}}Facciamo un'altra volta, OK?"
  },
  {
    "label": "104",
    "attribute": "0x0000000000000000",
    "text": "{{anim id=\"BigSmile\" target=\"actor\" targetSpec=\"\"}}Sei tostissim{{gender2 m=\"o\" f=\"a\"}}!{{delay20}} Allora vado subito\na nascondere il tesoro!"
  },
  {
    "label": "105",
    "attribute": "0x0000000000000000",
    "text": "{{anim id=\"OhGeez\" target=\"actor\" targetSpec=\"\"}}Ma no, e adesso? {{delay20}}Non puedo mica\npassare tutto il resto del giorno\na girarmi i pollici{{string value=\"...\"}}"
  },
  {
    "label": "106",
    "attribute": "0x0000000000000000",
    "text": "{{anim id=\"TakenAback\" target=\"actor\" targetSpec=\"\"}}Un momentito, ma che mi salta\nin mente?{{delay20}} Ormai è troppo tardi per\nuna cosa simile.\n{{anim id=\"ShyBoy\" target=\"actor\" targetSpec=\"\"}}Mi sa che dovremo rimandare,\n{{string value=\"NickName\"}}."
  },
  {
    "label": "107",
    "attribute": "0x0000000000000000",
    "text": "{{anim id=\"BigSmile\" target=\"actor\" targetSpec=\"\"}}Ora sì che ti riconosco,\n{{string value=\"NickName\"}}!{{delay20}} Lo sapevo\nche avresti accettato!\n{{anim id=\"WrySmile\" target=\"actor\" targetSpec=\"\"}}Bien, allora resta qui un momentito\nmentre vado a nascondere il tesoro,\nde acuerdo?"
  },
  {
    "label": "108",
    "attribute": "0x0000000000000000",
    "text": "{{anim id=\"WrySmile\" target=\"actor\" targetSpec=\"\"}}Vale, {{delay20}}in fondo il vero tesoro per me\nè la tua amicizia!"
  },
  {
    "label": "200",
    "attribute": "0x0000000000000000",
    "text": "{{anim id=\"Frantic\" target=\"actor\" targetSpec=\"\"}}Lo so che sembra assurdo,\nma sta succedendo davvero,\n{{string value=\"NickName\"}}...\n{{anim id=\"Shocked\" target=\"actor\" targetSpec=\"\"}}Sull'isola non c'è più nemmeno\nun centimetro quadrato di terreno\nlibero per seppellire il tesoro!\n{{anim id=\"Negative\" target=\"actor\" targetSpec=\"\"}}Sorbole, credo che dovremo\nrinunciare!"
  }
]