﻿[
  {
    "label": "001",
    "attribute": "0x0000020000000000",
    "text": "{{anim id=\"Thinking\" target=\"actor\" targetSpec=\"\"}}Ehi, sai una cosa? {{delay20}}{{anim id=\"Aha\" target=\"actor\" targetSpec=\"\"}}Mi sono appena\nreso conto che anche tu sei amic{{gender2 m=\"o\" f=\"a\"}}\ndi {{selection value=\"SelectedVillager\"}}!\n{{anim id=\"ShyBoy\" target=\"actor\" targetSpec=\"\"}}Perché vedi, {{delay8}}ho preso in prestito\nuna cosa da {{gender8 m=\"lui\" f=\"lei\" n=\"\"}} muchissimo tiempo\nfa e dovrei restituirgliela.\n{{anim id=\"Scheming\" target=\"actor\" targetSpec=\"\"}}Beh, {{delay8}}non voglio annoiarti con questa\nstoria, ma{{string value=\"...\"}} Non è che potresti farlo\ntu al mio posto?"
  },
  {
    "label": "001_a",
    "attribute": "0x0000000000000000",
    "text": "{{anim id=\"EmotEnd\" target=\"player\" targetSpec=\"\"}}Certo!"
  },
  {
    "label": "001_b",
    "attribute": "0x0000000000000000",
    "text": "{{anim id=\"EmotEnd\" target=\"player\" targetSpec=\"\"}}Ehm, no, mi spiace."
  },
  {
    "label": "002",
    "attribute": "0x0000020000000000",
    "text": "{{anim id=\"OhGeez\" target=\"actor\" targetSpec=\"\"}}Sai, {{delay8}}l'altro giorno {{selection value=\"SelectedVillager\"}} è venut{{gender8 m=\"o\" f=\"a\" n=\"\"}} a visitare il mio palacio e ha dimenticato una cosa{{string value=\"...\"}}{{pageBreak}}{{anim id=\"ShyBoy\" target=\"actor\" targetSpec=\"\"}}Vorrei restituirgliela, ma sono muy impegnato a {{randomHobby}}. {{delay8}}Ci penseresti tu, {{string value=\"6\"}}?"
  },
  {
    "label": "002_a",
    "attribute": "0x0000000000000000",
    "text": "{{anim id=\"EmotEnd\" target=\"player\" targetSpec=\"\"}}Conta su di me!"
  },
  {
    "label": "002_b",
    "attribute": "0x0000000000000000",
    "text": "{{anim id=\"EmotEnd\" target=\"player\" targetSpec=\"\"}}Non credo..."
  },
  {
    "label": "003",
    "attribute": "0x0000020000000000",
    "text": "{{anim id=\"Eh\" target=\"actor\" targetSpec=\"\"}}Chissà che combinano quelli delle\nposte:{{delay8}} mi hanno portato per sbaglio\nun pacchetto per {{selection value=\"SelectedVillager\"}}.\n{{anim id=\"OhGeez\" target=\"actor\" targetSpec=\"\"}}Potrei rispedirglielo,{{delay8}} ma chissà\nin quale cassetta delle lettere\npotrebbe andare a finire{{string value=\"...\"}}"
  },
  {
    "label": "003_a",
    "attribute": "0x0000000000000000",
    "text": "{{anim id=\"EmotEnd\" target=\"player\" targetSpec=\"\"}}Lo consegno io!"
  },
  {
    "label": "003_b",
    "attribute": "0x0000000000000000",
    "text": "{{anim id=\"EmotEnd\" target=\"player\" targetSpec=\"\"}}Molto interessante..."
  },
  {
    "label": "004",
    "attribute": "0x0000000000000000",
    "text": "{{anim id=\"BigSmile\" target=\"actor\" targetSpec=\"\"}}De verdad? {{delay20}}Da paura!{{delay8}} Mi dispiaceva\nun po' chiedertelo{{string value=\"...\"}} {{anim id=\"Grin\" target=\"actor\" targetSpec=\"\"}}ma neanche\ntroppo,{{delay8}} in realtà."
  },
  {
    "label": "005",
    "attribute": "0x0000000000000000",
    "text": "{{anim id=\"Cheering\" target=\"actor\" targetSpec=\"\"}}Sorbole, muchissimas gracias!"
  },
  {
    "label": "006",
    "attribute": "0x0000000000000000",
    "text": "{{anim id=\"Serious\" target=\"actor\" targetSpec=\"\"}}Sei troppo il massimo! {{delay20}}{{anim id=\"Nodding\" target=\"actor\" targetSpec=\"\"}}Ecco qua!"
  },
  {
    "label": "007",
    "attribute": "0x0000000000000000",
    "text": "{{anim id=\"Sighing\" target=\"actor\" targetSpec=\"\"}}Sì, {{delay8}}in effetti dovrei occuparmene\nio stesso{{string value=\"...\"}} Hai ragione.{{pageBreak}}{{anim id=\"Hesitate\" target=\"actor\" targetSpec=\"\"}}Sarà imbarazzante, ma ora che mi\nsono sfogato un po' con te,{{delay8}} {{anim id=\"EmotEnd\" target=\"actor\" targetSpec=\"\"}}sono\nseguro di potercela fare da solo!"
  },
  {
    "label": "008",
    "attribute": "0x0000000000000000",
    "text": "{{anim id=\"OhGeez\" target=\"actor\" targetSpec=\"\"}}Non te preocupes. {{delay20}}Volevo comunque\nfare visita {{fun_000F0032 arg=\"\"}} {{selection value=\"SelectedVillager\"}}."
  },
  {
    "label": "009",
    "attribute": "0x0000000000000000",
    "text": "{{anim id=\"Eh\" target=\"actor\" targetSpec=\"\"}}Vero, eh? {{delay20}}{{anim id=\"Shocked\" target=\"actor\" targetSpec=\"\"}}Espera, {{delay8}}ma era sarcasmo\nquello! {{delay20}}{{anim id=\"Laughing\" target=\"actor\" targetSpec=\"\"}}Ah ah, {{delay8}}sei una vera sagoma,\n{{string value=\"NickName\"}}."
  },
  {
    "label": "101",
    "attribute": "0x0000020000000000",
    "text": "{{anim id=\"Aha\" target=\"actor\" targetSpec=\"\"}}Ehi, potresti farmi un favore?{{delay20}} {{anim id=\"ShyBoy\" target=\"actor\" targetSpec=\"\"}}Vedi, ho preso un pensierino per {{selection value=\"SelectedVillager\"}}{{string value=\"...\"}}{{pageBreak}}{{anim id=\"Frantic\" target=\"actor\" targetSpec=\"\"}}Non è nada di clamoroso,{{delay8}} ma vorrei\ncomunque fare una figura da paura!{{pageBreak}}{{anim id=\"Nodding\" target=\"actor\" targetSpec=\"\"}}E così ho pensato che,{{delay8}} se glielo consegnassi tu al posto mio, {{delay8}}sarebbe\nuna sorpresa incredibile! {{delay20}}Vero?"
  },
  {
    "label": "101_a",
    "attribute": "0x0000000000000000",
    "text": "Bella idea!"
  },
  {
    "label": "101_b",
    "attribute": "0x0000000000000000",
    "text": "Non posso, scusa."
  },
  {
    "label": "102",
    "attribute": "0x0000020000000000",
    "text": "{{anim id=\"Frantic\" target=\"actor\" targetSpec=\"\"}}Ehi, {{string value=\"NickName\"}}! {{delay20}}Potresti prestare orecchio ai lamenti di una povera anima torturata?{{pageBreak}}{{anim id=\"Worried\" target=\"actor\" targetSpec=\"\"}}OK, forse sto esagerando, ma io {{fun_00100032 arg=\"\"}} {{selection value=\"SelectedVillager\"}} ci siamo dati battaglia a colpi di scherzi{{string value=\"...\"}}{{pageBreak}}{{anim id=\"Hesitate\" target=\"actor\" targetSpec=\"\"}}E a dirla tutta mi sento in colpa\nper alcuni dei tiri più birboni che\n{{gender8 m=\"gli\" f=\"le\" n=\"\"}} ho giocato.\n{{anim id=\"Restless\" target=\"actor\" targetSpec=\"\"}}{{gender8 m=\"Gli\" f=\"Le\" n=\"\"}} ho preso un regalo per metterci\nuna pietra sopra,{{delay8}} ma mi vergogno\nun po' a darglielo. {{delay20}}Ci penseresti tu?"
  },
  {
    "label": "102_a",
    "attribute": "0x0000000000000000",
    "text": "D'accordo."
  },
  {
    "label": "102_b",
    "attribute": "0x0000000000000000",
    "text": "Non ho tempo..."
  },
  {
    "label": "103",
    "attribute": "0x0000000000000000",
    "text": "{{anim id=\"BigSmile\" target=\"actor\" targetSpec=\"\"}}Da paura, {{string value=\"Catchphrase\"}}!{{delay20}} {{anim id=\"Laughing\" target=\"actor\" targetSpec=\"\"}}Già mi vedo\nla faccia che farà {{selection value=\"SelectedVillager\"}}!{{pageBreak}}{{anim id=\"FaintSmile\" target=\"actor\" targetSpec=\"\"}}E nell'attesa, ecco l'oggetto che\nilluminerà la sua giornata."
  },
  {
    "label": "104",
    "attribute": "0x0000000000000000",
    "text": "{{anim id=\"BigSmile\" target=\"actor\" targetSpec=\"\"}}Gracias un gazilione di volte!{{delay8}} E se\nnon basta, ci aggiungo altri due\ngazilioni, {{string value=\"6\"}}!{{pageBreak}}{{anim id=\"Greeting\" target=\"actor\" targetSpec=\"\"}}Saluta {{selection value=\"SelectedVillager\"}} da parte mia, OK? {{delay20}}Certo, dopo che si sarà ripres{{gender8 m=\"o\" f=\"a\" n=\"\"}} dall'emozione della sorpresa."
  },
  {
    "label": "105",
    "attribute": "0x0000000000000000",
    "text": "{{anim id=\"Worried\" target=\"actor\" targetSpec=\"\"}}Oh, tranquill{{gender2 m=\"o\" f=\"a\"}}{{string value=\"...\"}} No pasa nada.\n{{delay20}}Accetto volentieri le tue scuse.{{pageBreak}}{{anim id=\"OhGeez\" target=\"actor\" targetSpec=\"\"}}Bueno,{{delay8}} vorrà dire che andrò io stesso\na parlare con {{selection value=\"SelectedVillager\"}}."
  },
  {
    "label": "106",
    "attribute": "0x0000000000000000",
    "text": "{{anim id=\"Worried\" target=\"actor\" targetSpec=\"\"}}Già, {{delay8}}come responsabile di quei brutti\nscherzi, {{delay8}}spetta a me fare las escusas\ndi persona, {{string value=\"6\"}}.\n{{anim id=\"SmugFace\" target=\"actor\" targetSpec=\"\"}}È il momento della mia fascinosa\ndiplomazia! {{delay20}}Che venga annunciata\nla mia visita {{fun_000F0032 arg=\"\"}} {{selection value=\"SelectedVillager\"}}!"
  },
  {
    "label": "108",
    "attribute": "0x0000000000000000",
    "text": "{{anim id=\"ShyBoy\" target=\"actor\" targetSpec=\"\"}}Bueno, prenditi tutto il tempo\nche vuoi,{{delay8}} ma vedi di consegnare\nil pacchetto, {{string value=\"6\"}}!\n{{anim id=\"Shocked\" target=\"actor\" targetSpec=\"\"}}Ah, no, al contrario!{{delay20}} {{anim id=\"Grin\" target=\"actor\" targetSpec=\"\"}}Prendi tutto\nil pacchetto,{{delay8}} ma consegnalo in\ntempo. {{delay20}}Cioè in giornata!"
  },
  {
    "label": "109",
    "attribute": "0x0000000000000000",
    "text": "{{anim id=\"Thinking\" target=\"actor\" targetSpec=\"\"}}Mmmh, si è fatto un poquito tardi,\nperò{{string value=\"...\"}} Quindi puoi anche rimandare\nla consegna a domani,{{delay8}} se vuoi."
  },
  {
    "label": "201",
    "attribute": "0x0000000000000000",
    "text": "{{anim id=\"Confused\" target=\"actor\" targetSpec=\"\"}}Ti avevo chiesto di restituire una cosa {{fun_000F0032 arg=\"\"}} {{selection value=\"SelectedVillager\"}}, ricordi?{{delay20}} {{anim id=\"Worried\" target=\"actor\" targetSpec=\"\"}}Spero solo che reagirà bene{{string value=\"...\"}}"
  },
  {
    "label": "202",
    "attribute": "0x0000000000000000",
    "text": "{{anim id=\"Serious\" target=\"actor\" targetSpec=\"\"}}Bueno, dovresti riportare {{fun_000F0032 arg=\"\"}} {{selection value=\"SelectedVillager\"}} una cosa che ha dimenticato da me, {{delay8}}se bien ricordi.{{pageBreak}}{{anim id=\"Restless\" target=\"actor\" targetSpec=\"\"}}Spero che intanto se la cavi anche\nsenza questo prezioso oggettino,\n{{string value=\"6\"}}."
  },
  {
    "label": "203",
    "attribute": "0x0000000000000000",
    "text": "{{anim id=\"OhGeez\" target=\"actor\" targetSpec=\"\"}}Ti sei scordat{{gender2 m=\"o\" f=\"a\"}} di dover consegnare {{fun_000F0032 arg=\"\"}} {{selection value=\"SelectedVillager\"}} il suo pacchetto che ho recibido por error.{{pageBreak}}{{anim id=\"ShyBoy\" target=\"actor\" targetSpec=\"\"}}Spero che non si stia preoccupando\ntroppo della mancata consegna,\n{{string value=\"6\"}}{{string value=\"...\"}}"
  },
  {
    "label": "204",
    "attribute": "0x0000000000000000",
    "text": "{{anim id=\"Serious\" target=\"actor\" targetSpec=\"\"}}La tua missione consiste nel sorprendere {{selection value=\"SelectedVillager\"}} con un regalo. {{delay20}}{{anim id=\"Grin\" target=\"actor\" targetSpec=\"\"}}Mucha suerte!"
  },
  {
    "label": "205",
    "attribute": "0x0000000000000000",
    "text": "{{anim id=\"Worried\" target=\"actor\" targetSpec=\"\"}}Mi dispiace chiedertelo, {{delay8}}ma ti prego di consegnare il mio regalo di scuse {{fun_000F0032 arg=\"\"}} {{selection value=\"SelectedVillager\"}}."
  }
]