﻿[
  {
    "label": "001",
    "attribute": "0x00000013",
    "text": "Прыг-скок, от кого звонок?\nВеселый заяц {{color id=\"3\"}}Зиппер{{color id=\"65535\"}} всегда\nпоговорить готов!\n{{anim id=\"QuestionMark\" target=\"actor\" targetSpec=\"\"}}Чем могу быть полезен?"
  },
  {
    "label": "002",
    "attribute": "0x00000013",
    "text": "{{anim id=\"Eh\" target=\"actor\" targetSpec=\"\"}}Что-что?{{delay8}} Припрыгать к вам\nна остров в {{color id=\"1\"}}кемпинг{{color id=\"65535\"}}?{{pageBreak}}{{anim id=\"BigSmile\" target=\"actor\" targetSpec=\"\"}}Как интересно!{{delay frames=\"40\"}}{{anim id=\"Negative\" target=\"actor\" targetSpec=\"\"}} Но у меня сейчас\nпрыг-столько дел!{{delay8}} Прости-прости,\nно не могу!{{pageBreak}}{{anim id=\"Worried\" target=\"actor\" targetSpec=\"\"}}Ты ведь понимаешь?{{delay frames=\"40\"}}\n{{anim id=\"Serious\" target=\"actor\" targetSpec=\"\"}}{{size value=\"75\"}}Столько дел — прыг сюда, скок туда{{string value=\"...\"}}{{size value=\"100\"}}{{pageBreak}}{{anim id=\"FaintSmile\" target=\"actor\" targetSpec=\"\"}}Но спасибо за прыг-лашение!"
  },
  {
    "label": "101",
    "attribute": "0x00000013",
    "text": "{{anim id=\"HappyDance\" target=\"actor\" targetSpec=\"\"}}Попрыг-привет!{{delay20}} Веселый заяц\n{{color id=\"3\"}}Зиппер {{color id=\"65535\"}}всегда готов для бесед!{{pageBreak}}{{anim id=\"QuestionMark\" target=\"actor\" targetSpec=\"\"}}Что-что?{{delay20}} Проектируешь дачу?{{delay20}}\nИ все для меня?{{delay20}} {{anim id=\"Love\" target=\"actor\" targetSpec=\"\"}}Вот это удача!{{pageBreak}}{{anim id=\"Explain\" target=\"actor\" targetSpec=\"\"}}Раз такие дела,{{delay8}} то прыг-скок мне\nпора — путь неблизкий туда!{{i10_4}} {{anim id=\"Serious\" target=\"actor\" targetSpec=\"\"}}{{size value=\"75\"}}А если\nсерьезно, звучит отлично.{{size value=\"100\"}}"
  }
]