﻿[
  {
    "label": "001",
    "attribute": "0x01000000",
    "text": "{{anim id=\"BigSmile\" target=\"actor\" targetSpec=\"\"}}¡Ah!{{delay8}} ¡Uh!{{delay8}} ¡Hola!{{delay20}} {{anim id=\"Explain\" target=\"actor\" targetSpec=\"\"}}Tú debes de ser\n{{gender2 m=\"el nuevo\" f=\"la nueva\"}}.{{delay8}} Vendrás a ver a {{color id=\"3\"}}Nuria{{color id=\"65535\"}},\n¿verdad?"
  },
  {
    "label": "001_a",
    "attribute": "0x00000000",
    "text": "{{anim id=\"Nodding\" target=\"actor\" targetSpec=\"\"}}¡Eso es!"
  },
  {
    "label": "001_b",
    "attribute": "0x00000000",
    "text": "{{anim id=\"EmotEnd\" target=\"actor\" targetSpec=\"\"}}¡Encantad{{gender2 m=\"o\" f=\"a\"}}!"
  },
  {
    "label": "002",
    "attribute": "0x00000000",
    "text": "{{anim id=\"Hello\" target=\"actor\" targetSpec=\"\"}}¡Ah,{{delay8}} qué alegría tenerte aquí!{{delay20}}\nYo me llamo {{color id=\"3\"}}Miko{{color id=\"65535\"}} y trabajo\ncon {{color id=\"3\"}}Nuria{{color id=\"65535\"}},{{anim id=\"Laughing\" target=\"actor\" targetSpec=\"\"}}{{delay8}} ¡claro!"
  },
  {
    "label": "003",
    "attribute": "0x00000000",
    "text": "{{anim id=\"Smiling\" target=\"actor\" targetSpec=\"\"}}Todo el mundo está impaciente por\nrecibirte.{{delay20}} Uh,{{delay8}} la {{color id=\"1\"}}agencia{{color id=\"65535\"}} no está\nlejos del muelle.{{delay20}} {{anim id=\"Greeting\" target=\"actor\" targetSpec=\"\"}}¡Vamos!"
  },
  {
    "label": "011",
    "attribute": "0x00000000",
    "text": "{{anim id=\"Smiling\" target=\"actor\" targetSpec=\"\"}}¡La agencia está por aquí!"
  },
  {
    "label": "012",
    "attribute": "0x00000000",
    "text": "{{fun_0014003C arg=\"\"}}"
  },
  {
    "label": "012_01",
    "attribute": "0x00000000",
    "text": "Aquí es.{{delay20}} {{anim id=\"Greeting\" target=\"actor\" targetSpec=\"\"}}Adelante, {{delay8}}¡pasa!"
  },
  {
    "label": "012_02",
    "attribute": "0x00000000",
    "text": "¡Uh!{{delay8}} {{anim id=\"QuestionMark\" target=\"actor\" targetSpec=\"\"}}¿Qué ocurre?{{delay8}} ¿Estás nervios{{gender2 m=\"o\" f=\"a\"}}?{{delay20}}\n{{anim id=\"Laughing\" target=\"actor\" targetSpec=\"\"}}¡No tienes nada de qué preocuparte!"
  },
  {
    "label": "101",
    "attribute": "0x00000000",
    "text": "{{anim id=\"BigSmile\" target=\"actor\" targetSpec=\"\"}}¡Uh!{{delay8}} ¡Ya hemos llegado!{{delay20}}\n{{i20_2 arg=\"5\"}}{{anim id=\"FaintSmile\" target=\"actor\" targetSpec=\"\"}}Cuidado al bajar del muelle{{string value=\"...\"}}"
  },
  {
    "label": "102",
    "attribute": "0x00000000",
    "text": "{{anim id=\"Restless\" target=\"actor\" targetSpec=\"\"}}Ay,{{delay8}} mi ansiada casa de vacaciones{{string value=\"...\"}}{{delay8}}\n{{anim id=\"HappyDance\" target=\"actor\" targetSpec=\"\"}}¡Qué ilusión!{{delay20}} ¿Podemos verla\npor dentro?"
  },
  {
    "label": "103",
    "attribute": "0x00000000",
    "text": "{{anim id=\"Nodding\" target=\"actor\" targetSpec=\"\"}}Ah,{{delay8}} pues claro.{{delay20}} {{anim id=\"Greeting\" target=\"actor\" targetSpec=\"\"}}¡Vamos a hacerte\nuna visita guiada!"
  },
  {
    "label": "111",
    "attribute": "0x00000000",
    "text": "{{anim id=\"TakenAback\" target=\"actor\" targetSpec=\"\"}}Cielos,{{delay8}} ¿y esto?{{delay20}} ¿Todavía no me\nhe instalado {{anim id=\"QuestionMark\" target=\"actor\" targetSpec=\"\"}}y ya me llega correo?{{pageBreak}}{{anim id=\"ShyBoy\" target=\"actor\" targetSpec=\"\"}}Os prometo que aún no he empezado\na pedir cosas por internet{{string value=\"...\"}}"
  },
  {
    "label": "112",
    "attribute": "0x00000000",
    "text": "{{anim id=\"IdeaBulb\" target=\"actor\" targetSpec=\"\"}}¡Uh!{{delay8}} ¡Ah!{{delay8}} Son los enseres {{anim id=\"Explain\" target=\"actor\" targetSpec=\"\"}}que\nnos pediste que incluyésemos\nal amueblar la casa."
  },
  {
    "label": "113",
    "attribute": "0x00000000",
    "text": "{{anim id=\"Aha\" target=\"actor\" targetSpec=\"\"}}Caramba,{{delay8}} qué servicio tan ágil.{{delay20}}\nEstoy impresionada, {{anim id=\"Smiling\" target=\"actor\" targetSpec=\"\"}}{{string value=\"6\"}}."
  },
  {
    "label": "114",
    "attribute": "0x00000000",
    "text": "{{anim id=\"Blushing\" target=\"actor\" targetSpec=\"\"}}¡Uh!{{delay8}} ¡Gracias!{{delay8}} Ahora,{{delay8}} {{anim id=\"Smiling\" target=\"actor\" targetSpec=\"\"}}si no te importa\naguardar unos minutos,{{delay8}} te lo vamos\na preparar {{anim id=\"Hello\" target=\"actor\" targetSpec=\"\"}}todo."
  },
  {
    "label": "115",
    "attribute": "0x00000000",
    "text": "Bueno,{{delay8}} compañer{{gender2 m=\"o\" f=\"a\"}},{{delay8}} {{anim id=\"Nodding\" target=\"actor\" targetSpec=\"\"}}¡aquí es donde\nentras tú!{{pageBreak}}{{anim id=\"Explain\" target=\"actor\" targetSpec=\"\"}}Ahí tenemos los enseres que\nha encargado la clienta.{{delay20}} Podrás\nsacarlos de la caja con {{anim id=\"Explain\" target=\"actor\" targetSpec=\"\"}}{{color id=\"1\"}}{{color id=\"65535\"}}.\n{{anim id=\"HappyFlower\" target=\"actor\" targetSpec=\"\"}}Luego te tocará colocarlos y dejar\nla casa bonita y habitable.{{delay20}}\n{{anim id=\"Assent\" target=\"actor\" targetSpec=\"\"}}Yo te explico cómo se hace."
  },
  {
    "label": "116_01",
    "attribute": "0x00000000",
    "text": "{{anim id=\"Nodding\" target=\"actor\" targetSpec=\"\"}}Lo primero es pulsar {{color id=\"1\"}}{{color id=\"65535\"}} para entrar\nen el {{color id=\"1\"}}modo decoración{{color id=\"65535\"}},{{delay8}} {{anim id=\"Explain\" target=\"actor\" targetSpec=\"\"}}que permite\nmover las cosas alegremente."
  },
  {
    "label": "118_01",
    "attribute": "0x00000000",
    "text": "{{anim id=\"Explain\" target=\"actor\" targetSpec=\"\"}}Usa {{color id=\"1\"}}{{color id=\"65535\"}} para ver los enseres\ndisponibles.{{delay20}} Ahí podrás elegir los\nque mejor encajen con el pedido.\n{{anim id=\"Smiling\" target=\"actor\" targetSpec=\"\"}}Diseña,{{delay8}} decora y,{{delay8}} cuando te quedes\nsatisfech{{gender2 m=\"o\" f=\"a\"}} con el resultado,{{delay8}} informa\na la clienta{{string value=\"...\"}}{{anim id=\"HappyFlower\" target=\"actor\" targetSpec=\"\"}}{{delay8}} ¡y listo!"
  },
  {
    "label": "119",
    "attribute": "0x00000000",
    "text": "{{anim id=\"Thinking\" target=\"actor\" targetSpec=\"\"}}Uh,{{delay8}} si no se me ha olvidado nada{{string value=\"...\"}}{{delay8}}\n{{anim id=\"BigSmile\" target=\"actor\" targetSpec=\"\"}}¡ya lo sabes todo!"
  },
  {
    "label": "123",
    "attribute": "0x00000000",
    "text": "{{anim id=\"Eh\" target=\"actor\" targetSpec=\"\"}}Uh,{{delay8}} {{selection value=\"SelectedVillager\"}},{{delay8}}{{anim id=\"Smiling\" target=\"actor\" targetSpec=\"\"}} {{string value=\"PlayerName\"}} se va a poner manos a la obra."
  },
  {
    "label": "124",
    "attribute": "0x00000000",
    "text": "{{anim id=\"FaintSmile\" target=\"actor\" targetSpec=\"\"}}¡Qué ilusión, {{string value=\"6\"}}!{{delay20}}\nMuchas gracias,{{delay8}} {{color id=\"3\"}}Miko{{color id=\"65535\"}}."
  },
  {
    "label": "125",
    "attribute": "0x00000000",
    "text": "{{anim id=\"HappyDance\" target=\"actor\" targetSpec=\"\"}}Estoy deseando ver lo que preparas\npara mí,{{delay8}} {{fun_00060096 arg=\"\"}}."
  },
  {
    "label": "126",
    "attribute": "0x00000000",
    "text": "Me quedaré por aquí,{{delay8}} por si te surge\ncualquier pregunta.{{delay20}} {{anim id=\"BigSmile\" target=\"actor\" targetSpec=\"\"}}¡Muéstranos\nde lo que eres capaz!"
  },
  {
    "label": "140",
    "attribute": "0x02000000",
    "text": "{{anim id=\"Smiling\" target=\"actor\" targetSpec=\"\"}}¿Cómo te está yendo?{{delay20}}\n¿Lo tienes todo claro?"
  },
  {
    "label": "140_a",
    "attribute": "0x00000000",
    "text": "{{anim id=\"EmotEnd\" target=\"actor\" targetSpec=\"\"}}Tengo una pregunta..."
  },
  {
    "label": "140_b",
    "attribute": "0x00000000",
    "text": "{{anim id=\"Nodding\" target=\"actor\" targetSpec=\"\"}}Ah, sí, vale"
  },
  {
    "label": "141",
    "attribute": "0x02000000",
    "text": "{{anim id=\"Greeting\" target=\"actor\" targetSpec=\"\"}}¡Buen trabajo!{{delay20}} Si has terminado,{{delay8}}\ndeberías avisar a la clienta."
  },
  {
    "label": "141_a",
    "attribute": "0x00000000",
    "text": "{{anim id=\"QuestionMark\" target=\"actor\" targetSpec=\"\"}}¿Esto cómo se hace?"
  },
  {
    "label": "141_b",
    "attribute": "0x00000000",
    "text": "{{anim id=\"Nodding\" target=\"player\" targetSpec=\"\"}}Ah, sí, vale"
  },
  {
    "label": "142",
    "attribute": "0x00000000",
    "text": "{{anim id=\"Aha\" target=\"actor\" targetSpec=\"\"}}¡Oh!{{delay20}} Es natural,{{delay8}} {{anim id=\"Blushing\" target=\"actor\" targetSpec=\"\"}}creo que te he dado\ndemasiada información de golpe.{{delay20}}\n{{anim id=\"Grin\" target=\"actor\" targetSpec=\"\"}}Lo raro sería que se te quedase todo."
  },
  {
    "label": "149",
    "attribute": "0x00000000",
    "text": "{{anim id=\"Nodding\" target=\"actor\" targetSpec=\"\"}}Lo primero es pulsar {{color id=\"1\"}}{{color id=\"65535\"}} para entrar\nen el {{color id=\"1\"}}modo decoración{{color id=\"65535\"}},{{delay8}} {{anim id=\"Explain\" target=\"actor\" targetSpec=\"\"}}que permite\nmover las cosas alegremente."
  },
  {
    "label": "150",
    "attribute": "0x00000000",
    "text": "{{anim id=\"Explain\" target=\"actor\" targetSpec=\"\"}}Usa {{color id=\"1\"}}{{color id=\"65535\"}} para ver los enseres\ndisponibles.{{delay20}} Ahí podrás elegir los\nque mejor encajen con el pedido.\n{{anim id=\"Smiling\" target=\"actor\" targetSpec=\"\"}}Diseña,{{delay8}} decora y,{{delay8}} cuando te quedes\nsatisfech{{gender2 m=\"o\" f=\"a\"}} con el resultado,{{delay8}} informa\na la clienta{{string value=\"...\"}}{{anim id=\"HappyFlower\" target=\"actor\" targetSpec=\"\"}}{{delay8}} ¡y listo!"
  },
  {
    "label": "151",
    "attribute": "0x00000000",
    "text": "{{anim id=\"BigSmile\" target=\"actor\" targetSpec=\"\"}}¡Eso es todo!{{delay20}} Adelante,{{delay8}}\n{{anim id=\"Greeting\" target=\"actor\" targetSpec=\"\"}}¡y deslúmbranos!"
  },
  {
    "label": "161",
    "attribute": "0x00000000",
    "text": "{{anim id=\"Love\" target=\"actor\" targetSpec=\"\"}}Esto supera todas mis expectativas.{{delay20}}\n¡Cómo me alegro de haberos hecho\neste encargo a vosotros!"
  },
  {
    "label": "162",
    "attribute": "0x00000000",
    "text": "{{anim id=\"Nodding\" target=\"actor\" targetSpec=\"\"}}{{color id=\"3\"}}Miko{{color id=\"65535\"}}, {{fun_00060096 arg=\"\"}},{{delay8}} habéis realizado un gran trabajo.{{delay20}} {{anim id=\"FaintSmile\" target=\"actor\" targetSpec=\"\"}}¡Gracias de corazón, {{string value=\"6\"}}⁠!{{anim id=\"EmotEnd\" target=\"actor\" targetSpec=\"\"}}"
  },
  {
    "label": "163",
    "attribute": "0x00000000",
    "text": "{{anim id=\"Greeting\" target=\"actor\" targetSpec=\"\"}}¡Uh!{{delay8}} ¡Tu primer encargo ha sido\nun gran éxito, {{string value=\"PlayerName\"}}!{{delay8}} {{anim id=\"Smiling\" target=\"actor\" targetSpec=\"\"}}{{color id=\"3\"}}Nuria{{color id=\"65535\"}} se va a poner muy contenta."
  }
]