﻿[
  {
    "label": "001",
    "attribute": "0x00000B0000000000",
    "text": "{{anim id=\"EmotEnd\" target=\"actor\" targetSpec=\"\"}}A ver,{{delay8}} ¿qué crees que hay aquí?{{delay20}}\nSi aciertas{{string value=\"...\"}}{{delay frames=\"20\"}} {{anim id=\"BigSmile\" target=\"actor\" targetSpec=\"\"}}¡es para ti!{{anim id=\"FaintSmile\" target=\"actor\" targetSpec=\"\"}}"
  },
  {
    "label": "002",
    "attribute": "0x0000000000000000",
    "text": "{{anim id=\"Nodding\" target=\"actor\" targetSpec=\"\"}}¿Entonces crees que es {{fun_00000082 arg=\"0x00CD\"}}?{{delay20}} Bien,{{delay8}} pues{{string value=\"...\"}}{{delay frames=\"20\"}} ¡ábrelo!"
  },
  {
    "label": "003",
    "attribute": "0x0000000000000000",
    "text": "{{anim id=\"Smiling\" target=\"actor\" targetSpec=\"\"}}¡Hala,{{delay8}} has acertado!{{delay20}} ¡Es {{fun_00000082 arg=\"0x01CD\"}}!{{delay20}} {{anim id=\"FaintSmile\" target=\"actor\" targetSpec=\"\"}}Y,{{delay8}} tal como te prometí,{{delay8}} ¡aquí tienes tu premio!"
  },
  {
    "label": "004",
    "attribute": "0x0000000000000000",
    "text": "{{anim id=\"BigSmile\" target=\"actor\" targetSpec=\"\"}}¡Es {{fun_00000082 arg=\"0x01CD\"}}!{{delay20}}\n{{anim id=\"Negative\" target=\"actor\" targetSpec=\"\"}}No has acertado,{{delay8}} lo siento."
  },
  {
    "label": "005",
    "attribute": "0x0000000000000000",
    "text": "{{anim id=\"Nodding\" target=\"actor\" targetSpec=\"\"}}Bueno,{{delay8}} puedes quedarte con\n{{fun_00010032 arg=\"\"}}{{fun_0000007D arg=\"0x0000\"}} que me han devuelto.{{delay20}} No {{gender8 m=\"lo\" f=\"la\" n=\"\"}} necesito."
  },
  {
    "label": "006",
    "attribute": "0x0000000000000000",
    "text": "{{anim id=\"Nodding\" target=\"actor\" targetSpec=\"\"}}{{capitalizeNextLetter}}{{fun_00010032 arg=\"\"}}{{fun_0000007D arg=\"0x0000\"}} que me había olvidado.{{delay20}} Ahí está,{{delay8}} ¡y ahora es {{gender8 m=\"todo\" f=\"toda\" n=\"\"}} {{gender8 m=\"tuyo\" f=\"tuya\" n=\"\"}}!"
  },
  {
    "label": "007",
    "attribute": "0x0000000000000000",
    "text": "{{anim id=\"Nodding\" target=\"actor\" targetSpec=\"\"}}Mira,{{delay8}} {{fun_00010032 arg=\"\"}}{{fun_0000007D arg=\"0x0000\"}} que había pedido.{{delay20}} ¡Ahora es para ti!"
  },
  {
    "label": "008",
    "attribute": "0x0000000000000000",
    "text": "{{anim id=\"Greeting\" target=\"actor\" targetSpec=\"\"}}¡Gracias por dedicar parte de tu\nvalioso tiempo a hacer la entrega,{{delay8}}\n{{string value=\"NickName\"}}!"
  },
  {
    "label": "009",
    "attribute": "0x0000000000000000",
    "text": "{{anim id=\"Nodding\" target=\"actor\" targetSpec=\"\"}}De todos modos,{{delay8}} {{anim id=\"FaintSmile\" target=\"actor\" targetSpec=\"\"}}¡gracias por dedicar\ntu valioso tiempo a hacer este\nreparto,{{delay8}} {{string value=\"NickName\"}}!"
  },
  {
    "label": "101",
    "attribute": "0x0000000000000000",
    "text": "{{anim id=\"Nodding\" target=\"actor\" targetSpec=\"\"}}¡Gracias por dedicar parte\nde tu tiempo a traerme esto,{{delay8}}\n{{string value=\"NickName\"}}!\n{{anim id=\"Greeting\" target=\"actor\" targetSpec=\"\"}}Aquí tengo algo para ti,{{delay8}} por las\nmolestias que te has tomado."
  },
  {
    "label": "102",
    "attribute": "0x0000000000000000",
    "text": "{{anim id=\"BigSmile\" target=\"actor\" targetSpec=\"\"}}¡Gracias por traer esto,{{delay8}}{{anim id=\"FaintSmile\" target=\"actor\" targetSpec=\"\"}} {{string value=\"NickName\"}}!{{pageBreak}}{{anim id=\"Nodding\" target=\"actor\" targetSpec=\"\"}}Con tu ayuda,{{delay8}} {{gender8 m=\"ese\" f=\"esa\" n=\"\"}} {{gender8 m=\"cabezón\" f=\"cabezona\" n=\"\"}} de\n{{selection value=\"SelectedVillager\"}} y yo podremos volver a entendernos.{{pageBreak}}Toma,{{delay8}} acepta esto como\nreconocimiento a tu labor."
  },
  {
    "label": "103",
    "attribute": "0x0000000000000000",
    "text": "{{anim id=\"Nodding\" target=\"actor\" targetSpec=\"\"}}¡Es una foto mía!{{delay20}} {{anim id=\"FaintSmile\" target=\"actor\" targetSpec=\"\"}}Cuídala bien,{{delay8}} ¿eh?"
  },
  {
    "label": "104",
    "attribute": "0x0000000000000000",
    "text": "{{anim id=\"Nodding\" target=\"actor\" targetSpec=\"\"}}¡{{capitalizeNextLetter}}{{wordArticle}}{{fun_0004007D arg=\"0x0000\"}}!{{delay20}}\n{{anim id=\"FaintSmile\" target=\"actor\" targetSpec=\"\"}}Si quieres {{gender8 m=\"probarlo\" f=\"probarla\" n=\"\"}},{{delay8}} ¡adelante!"
  },
  {
    "label": "105",
    "attribute": "0x0000000000000000",
    "text": "{{anim id=\"Nodding\" target=\"actor\" targetSpec=\"\"}}¡{{capitalizeNextLetter}}{{wordArticle}}{{fun_0004007D arg=\"0x0000\"}}!{{delay20}}\n{{anim id=\"FaintSmile\" target=\"actor\" targetSpec=\"\"}}¡{{gender8 m=\"Pruébatelo\" f=\"Pruébatela\" n=\"\"}} si quieres!"
  },
  {
    "label": "106",
    "attribute": "0x0000000000000000",
    "text": "{{anim id=\"Nodding\" target=\"actor\" targetSpec=\"\"}}¡{{capitalizeNextLetter}}{{wordArticle}}{{fun_0004007D arg=\"0x0000\"}}!{{delay20}}\n{{anim id=\"FaintSmile\" target=\"actor\" targetSpec=\"\"}}¿No te apetece darle un bocado?\n{{gender8 m=\"Lo\" f=\"La\" n=\"\"}} he hecho yo mismo.{{delay20}} Bueno,{{delay8}} casi."
  },
  {
    "label": "107",
    "attribute": "0x0000000000000000",
    "text": "{{anim id=\"Greeting\" target=\"actor\" targetSpec=\"\"}}¡Gracias por cargar con eso,{{delay8}}\n{{string value=\"NickName\"}}!{{delay20}} Se nota que estás cuadrad{{gender2 m=\"o\" f=\"a\"}},{{delay8}} ¿eh?"
  },
  {
    "label": "108",
    "attribute": "0x0000000000000000",
    "text": "{{anim id=\"Greeting\" target=\"actor\" targetSpec=\"\"}}¡Gracias por hacer la entrega,{{delay8}}\n{{string value=\"NickName\"}}!{{delay20}} Has sido muy amable.{{pageBreak}}{{anim id=\"Smiling\" target=\"actor\" targetSpec=\"\"}}¡Ahora creo que podré reconciliarme\ncon {{selection value=\"SelectedVillager\"}}!"
  },
  {
    "label": "109",
    "attribute": "0x0000000000000000",
    "text": "{{anim id=\"Nodding\" target=\"actor\" targetSpec=\"\"}}Mi {{fun_0004007D arg=\"0x0000\"}} está tan {{gender8 m=\"usado\" f=\"usada\" n=\"\"}} que casi se cae a cachos,{{delay8}} pero si {{gender8 m=\"lo\" f=\"la\" n=\"\"}} quieres,{{delay8}} ¡para ti!"
  },
  {
    "label": "110",
    "attribute": "0x0000000000000000",
    "text": "{{anim id=\"Restless\" target=\"actor\" targetSpec=\"\"}}No es gran cosa,{{delay8}} pero{{string value=\"...\"}}{{delay frames=\"20\"}} a equino\nregalado no le hagas examen bucal.{{delay20}}\n{{anim id=\"Laughing\" target=\"actor\" targetSpec=\"\"}}Qué pedante soy,{{delay8}} ¡ja, ja, ja!"
  },
  {
    "label": "111",
    "attribute": "0x0000000000000000",
    "text": "{{anim id=\"Nodding\" target=\"actor\" targetSpec=\"\"}}Mi {{fun_0004007D arg=\"0x0000\"}}{{string value=\"...\"}}{{delay frames=\"20\"}} {{gender8 m=\"Considéralo\" f=\"Considérala\" n=\"\"}} una recompensa,{{delay8}} ¿vale?"
  },
  {
    "label": "112",
    "attribute": "0x0000000000000000",
    "text": "{{anim id=\"Hesitate\" target=\"actor\" targetSpec=\"\"}}Espero que te guste{{string value=\"...\"}}"
  },
  {
    "label": "201",
    "attribute": "0x0000000000000000",
    "text": "{{anim id=\"Eh\" target=\"actor\" targetSpec=\"\"}}Ah,{{delay8}} ¡pero si eso se lo había\nprestado a {{selection value=\"SelectedVillager\"}}!"
  },
  {
    "label": "202",
    "attribute": "0x0000000000000000",
    "text": "{{anim id=\"Shocked\" target=\"actor\" targetSpec=\"\"}}¡¿Mi {{fun_0000007D arg=\"0x0000\"}}?!{{delay20}}\n{{anim id=\"OhGeez\" target=\"actor\" targetSpec=\"\"}}Qué raro.{{delay20}} ¿Me {{gender8 m=\"lo\" f=\"la\" n=\"\"}} olvidé en casa\nde {{selection value=\"SelectedVillager\"}}?"
  },
  {
    "label": "203",
    "attribute": "0x0000020000000000",
    "text": "{{anim id=\"Aha\" target=\"actor\" targetSpec=\"\"}}¿Cómo que lo dejaron en casa de\n{{selection value=\"SelectedVillager\"}}?{{delay20}} ¡Diantres!{{pageBreak}}{{anim id=\"Fuming\" target=\"actor\" targetSpec=\"\"}}¿Tan difícil es dejar un paquete\ndonde corresponde?{{pageBreak}}{{anim id=\"QuestionMark\" target=\"actor\" targetSpec=\"\"}}¿Quéee?{{delay20}} ¿Y además está abierto?{{delay20}}\n{{anim id=\"Outraged\" target=\"actor\" targetSpec=\"\"}}¡Esto antes no pasaba!{{delay20}} {{anim id=\"WrySmile\" target=\"actor\" targetSpec=\"\"}}Bueno,{{delay8}} sí\nque pasaba{{string value=\"...\"}}{{delay frames=\"20\"}} pero menos."
  },
  {
    "label": "203_a",
    "attribute": "0x0000000000000000",
    "text": "{{anim id=\"EmotEnd\" target=\"actor\" targetSpec=\"\"}}Lo abrí yo..."
  },
  {
    "label": "203_b",
    "attribute": "0x0000000000000000",
    "text": "{{anim id=\"EmotEnd\" target=\"actor\" targetSpec=\"\"}}Qué barbaridad..."
  },
  {
    "label": "204",
    "attribute": "0x0000000000000000",
    "text": "{{anim id=\"Eh\" target=\"actor\" targetSpec=\"\"}}¡Válganme los juegos en cinta!{{delay20}}\n¿De parte de {{selection value=\"SelectedVillager\"}}?\n¿Para mí?\n{{anim id=\"Thinking\" target=\"actor\" targetSpec=\"\"}}Nada más y nada menos que\n{{wordArticle}}{{fun_0000007D arg=\"0x0000\"}}.{{delay20}} Impresionante,{{delay8}} ¿eh?"
  },
  {
    "label": "205",
    "attribute": "0x0000000000000000",
    "text": "{{anim id=\"Shocked\" target=\"actor\" targetSpec=\"\"}}¿Me lo envía {{selection value=\"SelectedVillager\"}}?{{pageBreak}}{{anim id=\"Thinking\" target=\"actor\" targetSpec=\"\"}}Supongo que se sentirá mal porque\ndiscutimos.{{delay20}} Vale,{{delay8}} creo que yo\ntambién debería disculparme."
  },
  {
    "label": "206",
    "attribute": "0x0000000000000000",
    "text": "{{anim id=\"Nodding\" target=\"actor\" targetSpec=\"\"}}No me acordaba para nada de esto.{{delay20}}\n{{anim id=\"Smiling\" target=\"actor\" targetSpec=\"\"}}¡Gracias por tomarte un tiempo\npara traérmelo!"
  },
  {
    "label": "207",
    "attribute": "0x0000000000000000",
    "text": "{{anim id=\"Nodding\" target=\"actor\" targetSpec=\"\"}}¡Rayos!{{delay20}} Estaba seguro de haber\nperdido esto.{{delay20}} {{anim id=\"FaintSmile\" target=\"actor\" targetSpec=\"\"}}¡Gracias, {{string value=\"6\"}}!"
  },
  {
    "label": "208",
    "attribute": "0x0000000000000000",
    "text": "{{anim id=\"OhGeez\" target=\"actor\" targetSpec=\"\"}}Supongo que {{selection value=\"SelectedVillager\"}}\nabrió el paquete por equivocación.{{delay20}}\nQué situación más incómoda.\n{{anim id=\"Nodding\" target=\"actor\" targetSpec=\"\"}}De todos modos,{{delay8}} gracias por\ntraerlo,{{delay8}} {{string value=\"NickName\"}}."
  },
  {
    "label": "209",
    "attribute": "0x0000000000000000",
    "text": "{{anim id=\"Nodding\" target=\"actor\" targetSpec=\"\"}}Bueno,{{delay20}} {{anim id=\"FaintSmile\" target=\"actor\" targetSpec=\"\"}}¡pues gracias,{{delay8}} {{string value=\"NickName\"}}!"
  },
  {
    "label": "210",
    "attribute": "0x0000000000000000",
    "text": "{{anim id=\"Nodding\" target=\"actor\" targetSpec=\"\"}}En fin,{{delay8}} {{anim id=\"FaintSmile\" target=\"actor\" targetSpec=\"\"}}¡gracias,{{delay8}} {{string value=\"NickName\"}}!{{pageBreak}}{{anim id=\"FaintSmile\" target=\"actor\" targetSpec=\"\"}}Puede que ahora {{selection value=\"SelectedVillager\"}}\ny yo podamos resolver nuestras\ndiferencias."
  },
  {
    "label": "220",
    "attribute": "0x0000020000000000",
    "text": "{{anim id=\"OhGeez\" target=\"actor\" targetSpec=\"\"}}La verdad es que lo podría haber\nenvuelto o algo,{{delay8}} ¿no crees?{{pageBreak}}{{anim id=\"EmotEnd\" target=\"actor\" targetSpec=\"\"}}En fin,{{delay8}} no se gana nada por\nquejarse{{string value=\"...\"}}{{delay frames=\"20\"}} Pero ¿y lo bien que\nte lo pasas rajando?{{delay20}} {{anim id=\"Laughing\" target=\"actor\" targetSpec=\"\"}}¡Ja, ja, ja!"
  },
  {
    "label": "220_a",
    "attribute": "0x0000000000000000",
    "text": "{{anim id=\"EmotEnd\" target=\"actor\" targetSpec=\"\"}}Si te digo la verdad..."
  },
  {
    "label": "220_b",
    "attribute": "0x0000000000000000",
    "text": "{{anim id=\"EmotEnd\" target=\"actor\" targetSpec=\"\"}}Eh..."
  },
  {
    "label": "221",
    "attribute": "0x0000000000000000",
    "text": "{{anim id=\"TakenAback\" target=\"actor\" targetSpec=\"\"}}¡¿Cómo?!{{delay20}} ¿Que lo abriste tú?{{pageBreak}}{{anim id=\"Worried\" target=\"actor\" targetSpec=\"\"}}Bueno,{{delay8}} al menos has tenido el valor\nde reconocerlo.{{delay20}} Tiene su mérito."
  },
  {
    "label": "222",
    "attribute": "0x0000000000000000",
    "text": "{{anim id=\"Angry\" target=\"actor\" targetSpec=\"\"}}¡Pero la próxima vez {{anim id=\"Fuming\" target=\"actor\" targetSpec=\"\"}}ten más cuidado!"
  },
  {
    "label": "223",
    "attribute": "0x0000000000000000",
    "text": "{{anim id=\"Nodding\" target=\"actor\" targetSpec=\"\"}}Lo que haya dentro da igual.{{delay20}}\n¡Gracias por traerme el paquete!{{pageBreak}}{{anim id=\"Greeting\" target=\"actor\" targetSpec=\"\"}}Y,{{delay8}} aunque no es gran cosa,{{delay8}} {{anim id=\"BigSmile\" target=\"actor\" targetSpec=\"\"}}quiero\ndarte como agradecimiento {{wordArticle}}{{fun_0004007D arg=\"0x0000\"}}."
  },
  {
    "label": "224",
    "attribute": "0x0000000000000000",
    "text": "{{anim id=\"Negative\" target=\"actor\" targetSpec=\"\"}}¡Ten más cuidado la próxima vez!"
  },
  {
    "label": "225",
    "attribute": "0x0000000000000000",
    "text": "{{anim id=\"Laughing\" target=\"actor\" targetSpec=\"\"}}Bueno,{{delay8}} yo tampoco soy lo más\nconsiderado y atento del mundo,{{delay8}}\nasí que no puedo decir nada.\n{{anim id=\"Nodding\" target=\"actor\" targetSpec=\"\"}}De todos modos,{{delay8}} ¡gracias\npor realizar la entrega,{{delay8}}\n{{string value=\"NickName\"}}!"
  },
  {
    "label": "226",
    "attribute": "0x0000000000000000",
    "text": "{{anim id=\"Laughing\" target=\"actor\" targetSpec=\"\"}}Bueno,{{delay8}} lo importante es tener esto\nde vuelta,{{delay8}} así que no me quejo.{{pageBreak}}{{anim id=\"Nodding\" target=\"actor\" targetSpec=\"\"}}¡Gracias por traérmelo,{{delay8}}\n{{string value=\"6\"}}!"
  },
  {
    "label": "227",
    "attribute": "0x0000000000000000",
    "text": "{{anim id=\"Laughing\" target=\"actor\" targetSpec=\"\"}}Bueno,{{delay8}} es un regalo,{{delay8}} así que no\nme quejo.{{pageBreak}}{{anim id=\"Nodding\" target=\"actor\" targetSpec=\"\"}}¡Gracias por traérmelo,{{delay8}}\n{{string value=\"6\"}}!"
  },
  {
    "label": "228",
    "attribute": "0x0000000000000000",
    "text": "{{anim id=\"Nodding\" target=\"actor\" targetSpec=\"\"}}Gracias de todos modos por dedicar\nun tiempo a traerme esto, {{string value=\"Catchphrase\"}}.{{pageBreak}}{{anim id=\"Restless\" target=\"actor\" targetSpec=\"\"}}Confío en que con tu ayuda\n{{selection value=\"SelectedVillager\"}} y yo podremos volver a entendernos."
  },
  {
    "label": "230",
    "attribute": "0x0000000000000000",
    "text": "{{anim id=\"Surprised\" target=\"actor\" targetSpec=\"\"}}¡¿Cómo que lo has abierto?!{{delay20}}\n¿Qué te ha llevado a hacer eso?"
  },
  {
    "label": "231",
    "attribute": "0x0000000000000000",
    "text": "{{anim id=\"OhGeez\" target=\"actor\" targetSpec=\"\"}}En fin,{{delay8}} nadie es perfecto."
  },
  {
    "label": "232",
    "attribute": "0x0000000000000000",
    "text": "{{anim id=\"Negative\" target=\"actor\" targetSpec=\"\"}}¡Pero la próxima vez no lo hagas!"
  },
  {
    "label": "233",
    "attribute": "0x0000000000000000",
    "text": "{{anim id=\"Nodding\" target=\"actor\" targetSpec=\"\"}}Bueno,{{delay8}} a pesar del estado en que\nse encuentra,{{delay8}} gracias por traérmelo.{{pageBreak}}Ten.{{delay20}} {{anim id=\"Greeting\" target=\"actor\" targetSpec=\"\"}}No es gran cosa,{{delay8}} pero espero\nque te guste.{{pageBreak}}{{anim id=\"FaintSmile\" target=\"actor\" targetSpec=\"\"}}{{capitalizeNextLetter}}{{wordArticle}}{{fun_0004007D arg=\"0x0000\"}} de mí para ti, jovencit{{gender2 m=\"o\" f=\"a\"}}."
  },
  {
    "label": "234",
    "attribute": "0x0000000000000000",
    "text": "{{anim id=\"Negative\" target=\"actor\" targetSpec=\"\"}}¡La próxima vez ten más cuidado!"
  },
  {
    "label": "235",
    "attribute": "0x0000000000000000",
    "text": "{{anim id=\"Angry\" target=\"actor\" targetSpec=\"\"}}Oye,{{delay8}} que aunque seamos colegas,{{delay8}}\ndeberíamos guardar ciertas formas,{{delay8}}\n¿eh?"
  },
  {
    "label": "236",
    "attribute": "0x0000000000000000",
    "text": "{{anim id=\"Angry\" target=\"actor\" targetSpec=\"\"}}Oye,{{delay8}} ¿te suena eso de que la\nconfianza da asco?{{delay20}} Pues eso,{{delay8}} que\nguardemos ciertas formas,{{delay8}} ¿vale?"
  },
  {
    "label": "237",
    "attribute": "0x0000000000000000",
    "text": "Bueno{{string value=\"...\"}}{{delay frames=\"20\"}} Lo que has hecho está más\nfeo que especular con la vivienda,{{delay8}}\npero al menos has sido honest{{gender2 m=\"o\" f=\"a\"}}.\n¡Por esta vez te lo dejo pasar!"
  },
  {
    "label": "238",
    "attribute": "0x0000000000000000",
    "text": "{{anim id=\"Negative\" target=\"actor\" targetSpec=\"\"}}La verdad es que{{string value=\"...\"}}{{delay frames=\"20\"}} lo encargué\npara dártelo a ti,{{delay8}} así que,{{delay8}} ¡a la saca!"
  },
  {
    "label": "239",
    "attribute": "0x0000000000000000",
    "text": "{{anim id=\"Nodding\" target=\"actor\" targetSpec=\"\"}}La próxima vez ten más cuidado,{{delay8}}\n¡diantres!"
  }
]