﻿[
  {
    "label": "001",
    "attribute": "0x0000000000000000",
    "text": "{{fun_0014003C arg=\"\"}}"
  },
  {
    "label": "001_01",
    "attribute": "0x0000020000000000",
    "text": "{{anim id=\"FaintSmile\" target=\"actor\" targetSpec=\"\"}}我说{{string value=\"4\"}}你呀，{{delay20}}\n{{anim id=\"Grin\" target=\"actor\" targetSpec=\"\"}}是被这香味吸引过来的吧？"
  },
  {
    "label": "001_01_a",
    "attribute": "0x0000000000000000",
    "text": "{{anim id=\"EmotEnd\" target=\"player\" targetSpec=\"\"}}你做的是什么？"
  },
  {
    "label": "001_01_b",
    "attribute": "0x0000000000000000",
    "text": "{{anim id=\"EmotEnd\" target=\"player\" targetSpec=\"\"}}打扰了"
  },
  {
    "label": "001_02",
    "attribute": "0x0000020000000000",
    "text": "{{anim id=\"AbsentMindedness\" target=\"actor\" targetSpec=\"\"}}这股香气{{string value=\"...\"}}{{delay20}}一定会很好吃！{{delay40}}\n{{anim id=\"EmotEnd\" target=\"actor\" targetSpec=\"\"}}你是不是也这么认为？{{delay20}}{{anim id=\"Nodding\" target=\"actor\" targetSpec=\"\"}}肯定会这么想吧～！{{delay20}}\n{{string value=\"4\"}}{{anim id=\"FaintSmile\" target=\"actor\" targetSpec=\"\"}}\n{{string value=\"...\"}}{{anim id=\"EmotEnd\" target=\"actor\" targetSpec=\"\"}}啊，对了，{{delay20}}\n{{anim id=\"QuestionMark\" target=\"actor\" targetSpec=\"\"}}你找我有什么事呀～？{{string value=\"6\"}}。"
  },
  {
    "label": "001_02_a",
    "attribute": "0x0000000000000000",
    "text": "{{anim id=\"EmotEnd\" target=\"player\" targetSpec=\"\"}}你做的是什么？"
  },
  {
    "label": "001_02_b",
    "attribute": "0x0000000000000000",
    "text": "{{anim id=\"EmotEnd\" target=\"player\" targetSpec=\"\"}}你忙你的就好"
  },
  {
    "label": "001_03",
    "attribute": "0x0000020000000000",
    "text": "{{anim id=\"FaintSmile\" target=\"actor\" targetSpec=\"\"}}肚子空空的{{string value=\"4\"}}{{delay8}}\n{{anim id=\"EmotEnd\" target=\"actor\" targetSpec=\"\"}}被我制作的美食吸引过来，{{delay20}}\n{{anim id=\"Grin\" target=\"actor\" targetSpec=\"\"}}一定很好奇我做的是什么吧？{{string value=\"6\"}}。"
  },
  {
    "label": "001_03_a",
    "attribute": "0x0000000000000000",
    "text": "{{anim id=\"EmotEnd\" target=\"player\" targetSpec=\"\"}}我很好奇！"
  },
  {
    "label": "001_03_b",
    "attribute": "0x0000000000000000",
    "text": "{{anim id=\"EmotEnd\" target=\"player\" targetSpec=\"\"}}并没有"
  },
  {
    "label": "002",
    "attribute": "0x0000000000000000",
    "text": "我正在{{delay20}}{{anim id=\"Smiling\" target=\"actor\" targetSpec=\"\"}}做的是{{delay8}}\n{{fun_0000007D arg=\"0x0000\"}}哦！{{pageBreak}}{{anim id=\"Explain\" target=\"actor\" targetSpec=\"\"}}我看了烹饪节目里的介绍，{{delay8}}\n就想试着用我自己的方法演绎一下，{{delay20}}\n{{anim id=\"Assent\" target=\"actor\" targetSpec=\"\"}}所以这就开始尝试啦～"
  },
  {
    "label": "003",
    "attribute": "0x0000000000000000",
    "text": "{{anim id=\"FaintSmile\" target=\"actor\" targetSpec=\"\"}}{{string value=\"4\"}}，{{delay8}}\n如果你也想下厨试试，{{anim id=\"EmotEnd\" target=\"actor\" targetSpec=\"\"}}我可以把手册给你，{{delay20}}\n{{anim id=\"Greeting\" target=\"actor\" targetSpec=\"\"}}到时候来找我就好啦！{{string value=\"6\"}}。"
  },
  {
    "label": "004",
    "attribute": "0x0000000000000000",
    "text": "{{anim id=\"FaintSmile\" target=\"actor\" targetSpec=\"\"}}做法我都认真记下来了，{{delay20}}\n{{anim id=\"EmotEnd\" target=\"actor\" targetSpec=\"\"}}如果你想要手册的话，{{delay8}}\n{{anim id=\"Hello\" target=\"actor\" targetSpec=\"\"}}等你随身物品少的时候来找我吧～{{string value=\"6\"}}。"
  },
  {
    "label": "005",
    "attribute": "0x0000000000000000",
    "text": "{{string value=\"4\"}}，{{delay20}}\n{{anim id=\"Grin\" target=\"actor\" targetSpec=\"\"}}你是不是想要这个手册呀～？{{delay40}}\n{{anim id=\"EmotEnd\" target=\"actor\" targetSpec=\"\"}}就算你不说，{{delay8}}{{anim id=\"BigSmile\" target=\"actor\" targetSpec=\"\"}}我也知道哦～！{{delay20}}{{anim id=\"EmotEnd\" target=\"actor\" targetSpec=\"\"}}"
  },
  {
    "label": "006_01",
    "attribute": "0x0000000000000000",
    "text": "{{anim id=\"SmugFace\" target=\"actor\" targetSpec=\"\"}}主厨·{{delay8}}{{string value=\"VillagerName\"}}的{{delay8}}\n随心所欲{{delay20}}{{anim id=\"Laughing\" target=\"actor\" targetSpec=\"\"}}{{fun_0000007D arg=\"0x0000\"}}！{{delay40}}\n{{anim id=\"Greeting\" target=\"actor\" targetSpec=\"\"}}一定要试着做做看哦～！{{string value=\"6\"}}。"
  },
  {
    "label": "006_02",
    "attribute": "0x0000000000000000",
    "text": "{{anim id=\"Shocked\" target=\"actor\" targetSpec=\"\"}}原来{{delay8}}你已经知道做法啦！{{delay40}}\n{{anim id=\"EmotEnd\" target=\"actor\" targetSpec=\"\"}}那这份手册{{delay8}}{{anim id=\"FaintSmile\" target=\"actor\" targetSpec=\"\"}}你可以送给朋友哦。{{delay40}}\n{{anim id=\"EmotEnd\" target=\"actor\" targetSpec=\"\"}}一起推动它{{anim id=\"BigSmile\" target=\"actor\" targetSpec=\"\"}}成为潮流菜品～！{{string value=\"6\"}}。"
  },
  {
    "label": "007",
    "attribute": "0x0000000000000000",
    "text": "{{anim id=\"OhGeez\" target=\"actor\" targetSpec=\"\"}}诶～？{{delay20}}我还以为你会很感兴趣呢～{{pageBreak}}{{string value=\"...\"}}{{anim id=\"EmotEnd\" target=\"actor\" targetSpec=\"\"}}好吧，{{delay20}}\n{{anim id=\"FaintSmile\" target=\"actor\" targetSpec=\"\"}}反正我现在也没空{{delay8}}招待你～{{delay40}}\n{{anim id=\"Hello\" target=\"actor\" targetSpec=\"\"}}你自己随意吧！{{string value=\"6\"}}。"
  },
  {
    "label": "008",
    "attribute": "0x0000000000000000",
    "text": "我做菜的时候{{delay8}}{{anim id=\"EmotEnd\" target=\"actor\" targetSpec=\"\"}}很注重速度和节奏！{{delay40}}\n{{anim id=\"EmotEnd\" target=\"actor\" targetSpec=\"\"}}所以说，{{delay8}}我现在要切换到聚精会神模式了，{{delay20}}\n{{anim id=\"Hello\" target=\"actor\" targetSpec=\"\"}}待会儿再和你聊～！{{string value=\"6\"}}。"
  },
  {
    "label": "030",
    "attribute": "0x0000000000000000",
    "text": "{{string value=\"...\"}}{{anim id=\"Eh\" target=\"actor\" targetSpec=\"\"}}本来是这么打算的，{{delay20}}\n不过你带的东西太多，似乎拿不走啦。{{delay40}}\n{{anim id=\"Hello\" target=\"actor\" targetSpec=\"\"}}等你身上有空间了再来找我吧～！{{string value=\"6\"}}。"
  },
  {
    "label": "031",
    "attribute": "0x0000000000000000",
    "text": "{{anim id=\"FaintSmile\" target=\"actor\" targetSpec=\"\"}}啊，{{delay20}}{{anim id=\"Nodding\" target=\"actor\" targetSpec=\"\"}}刚才没能给你的东西对吧？{{delay40}}\n{{anim id=\"Hello\" target=\"actor\" targetSpec=\"\"}}来！{{delay20}}拿着！"
  },
  {
    "label": "032",
    "attribute": "0x0000000000000000",
    "text": "{{string value=\"...\"}}{{anim id=\"Eh\" target=\"actor\" targetSpec=\"\"}}啊，{{delay40}}{{string value=\"4\"}}，{{delay20}}\n{{fun_0000007D arg=\"0x0000\"}}的制作方法{{delay20}}\n你已经知道了呀～！"
  },
  {
    "label": "033",
    "attribute": "0x0000000000000000",
    "text": "{{anim id=\"ShyBoy\" target=\"actor\" targetSpec=\"\"}}难道说，{{delay20}}你已经做出来了？{{delay40}}\n{{anim id=\"Thinking\" target=\"actor\" targetSpec=\"\"}}唔～{{delay20}}这样啊{{string value=\"...\"}}{{delay40}}{{anim id=\"IdeaBulb\" target=\"actor\" targetSpec=\"\"}}对了！{{delay40}}\n{{anim id=\"Nodding\" target=\"actor\" targetSpec=\"\"}}我分你一些{{delay8}}材料吧～！{{delay40}}\n{{anim id=\"EmotEnd\" target=\"actor\" targetSpec=\"\"}}应该说，{{delay20}}{{anim id=\"Blushing\" target=\"actor\" targetSpec=\"\"}}我真的剩很多，\n{{delay20}}你帮我带走些吧～？"
  },
  {
    "label": "034",
    "attribute": "0x0000000000000000",
    "text": "{{anim id=\"FaintSmile\" target=\"actor\" targetSpec=\"\"}}是{{color id=\"1\"}}南瓜{{color id=\"65535\"}}哟！{{delay40}}\n{{anim id=\"EmotEnd\" target=\"actor\" targetSpec=\"\"}}请用它来制作{{delay20}}\n{{anim id=\"Greeting\" target=\"actor\" targetSpec=\"\"}}非常适合这个时节的料理吧！{{string value=\"6\"}}。"
  },
  {
    "label": "035",
    "attribute": "0x0000000000000000",
    "text": "{{anim id=\"Restless\" target=\"actor\" targetSpec=\"\"}}我本来还想{{delay20}}\n亲自把{{delay8}}珍藏的手册教给你的，{{delay20}}\n{{anim id=\"Oops\" target=\"actor\" targetSpec=\"\"}}真遗憾～！\n{{anim id=\"EmotEnd\" target=\"actor\" targetSpec=\"\"}}不过，{{delay8}}{{anim id=\"Thinking\" target=\"actor\" targetSpec=\"\"}}难得这个月有万圣节，{{delay20}}\n不知道有没有别的{{string value=\"...\"}}{{delay20}}\n{{string value=\"...\"}}{{anim id=\"IdeaBulb\" target=\"actor\" targetSpec=\"\"}}啊，{{delay20}}还有那个！{{delay40}}"
  },
  {
    "label": "036",
    "attribute": "0x0000000000000000",
    "text": "{{anim id=\"Greeting\" target=\"actor\" targetSpec=\"\"}}是{{color id=\"1\"}}糖果{{color id=\"65535\"}}哟～！{{delay40}}\n{{anim id=\"EmotEnd\" target=\"actor\" targetSpec=\"\"}}嘻嘻，{{delay20}}{{anim id=\"FaintSmile\" target=\"actor\" targetSpec=\"\"}}开心吧？{{pageBreak}}{{anim id=\"Eh\" target=\"actor\" targetSpec=\"\"}}我很懂你立刻想要吃掉的想法，{{delay20}}\n{{anim id=\"EmotEnd\" target=\"actor\" targetSpec=\"\"}}不过你要好好收着，{{delay8}}{{anim id=\"FaintSmile\" target=\"actor\" targetSpec=\"\"}}留到万圣节当天哦！{{delay40}}\n{{anim id=\"EmotEnd\" target=\"actor\" targetSpec=\"\"}}一定会{{delay8}}{{anim id=\"Grin\" target=\"actor\" targetSpec=\"\"}}派上大用场的！{{string value=\"6\"}}。"
  }
]