﻿[
  {
    "label": "000",
    "attribute": "0x0000000000000000",
    "text": "{{anim id=\"HappyDance\" target=\"actor\" targetSpec=\"\"}}よぉ、{{delay8}}{{string value=\"NickName\"}}！{{delay frames=\"40\"}}\nついに　お{{ruby charSpan=\"1\" value=\"たの\"}}楽しみの　ハロウィンだな！{{pageBreak}}{{anim id=\"EmotEnd\" target=\"actor\" targetSpec=\"\"}}{{ruby charSpan=\"1\" value=\"ねん\"}}念のために　{{ruby charSpan=\"1\" value=\"い\"}}言っとくが、{{delay20}}\n{{anim id=\"Explain\" target=\"actor\" targetSpec=\"\"}}{{ruby charSpan=\"2\" value=\"かそう\"}}仮装して　{{ruby charSpan=\"1\" value=\"そと\"}}外をウロついてるヤツらは{{delay8}}\nアメちゃんが　{{ruby charSpan=\"2\" value=\"めあ\"}}目当てだからよ{{pageBreak}}{{anim id=\"Serious\" target=\"actor\" targetSpec=\"\"}}もし、{{delay20}}{{ruby charSpan=\"1\" value=\"わた\"}}渡さなかったら{{delay8}}\nイタズラされちまうからな！{{i10_4}}\n{{anim id=\"EmotEnd\" target=\"actor\" targetSpec=\"\"}}よし、{{delay20}}{{anim id=\"Grin\" target=\"actor\" targetSpec=\"\"}}そしたら　オレも{{ruby charSpan=\"1\" value=\"はじ\"}}始めるとするか{{string value=\"...\"}}"
  },
  {
    "label": "001",
    "attribute": "0x0000020000000000",
    "text": "{{i10_14 arg=\"20\"}}{{anim id=\"Cheering\" target=\"actor\" targetSpec=\"\"}}{{ruby charSpan=\"5\" value=\"トリック\"}}Trick {{ruby charSpan=\"2\" value=\"オア\"}}or {{ruby charSpan=\"5\" value=\"トリート\"}}treat!!{{delay frames=\"60\"}}\n{{anim id=\"EmotEnd\" target=\"actor\" targetSpec=\"\"}}イタズラされたくなかったら{{delay20}}\n{{anim id=\"BigSmile\" target=\"actor\" targetSpec=\"\"}}オレに　アメちゃんを{{ruby charSpan=\"1\" value=\"さ\"}}差し{{ruby charSpan=\"1\" value=\"だ\"}}出しな！　{{string value=\"6\"}}{{delay8}}{{anim id=\"FaintSmile\" target=\"actor\" targetSpec=\"\"}}"
  },
  {
    "label": "001_01",
    "attribute": "0x0000000000000000",
    "text": "{{i10_14 arg=\"20\"}}{{anim id=\"Cheering\" target=\"actor\" targetSpec=\"\"}}{{ruby charSpan=\"5\" value=\"トリック\"}}Trick {{ruby charSpan=\"2\" value=\"オア\"}}or {{ruby charSpan=\"5\" value=\"トリート\"}}treat!!{{delay frames=\"60\"}}\n{{anim id=\"EmotEnd\" target=\"actor\" targetSpec=\"\"}}イタズラされたくなかったら{{delay20}}\n{{anim id=\"BigSmile\" target=\"actor\" targetSpec=\"\"}}オレに　アメちゃんを{{ruby charSpan=\"1\" value=\"さ\"}}差し{{ruby charSpan=\"1\" value=\"だ\"}}出しな！　{{string value=\"6\"}}{{delay8}}{{anim id=\"FaintSmile\" target=\"actor\" targetSpec=\"\"}}"
  },
  {
    "label": "001_a",
    "attribute": "0x0000000000000000",
    "text": "これ、あげる！"
  },
  {
    "label": "001_b",
    "attribute": "0x0000000000000000",
    "text": "あげないよ"
  },
  {
    "label": "002_01",
    "attribute": "0x0000000000000000",
    "text": "{{anim id=\"Nodding\" target=\"actor\" targetSpec=\"\"}}よしよし、{{delay20}}ちゃんと　{{ruby charSpan=\"2\" value=\"じゅんび\"}}準備してたんだな{{delay frames=\"40\"}}\n{{anim id=\"FaintSmile\" target=\"actor\" targetSpec=\"\"}}こいつさえ　もらえりゃ、{{delay8}}{{ruby charSpan=\"2\" value=\"もんく\"}}文句はねぇ{{delay frames=\"40\"}}\n{{anim id=\"Greeting\" target=\"actor\" targetSpec=\"\"}}ありがとよ、{{delay8}}{{string value=\"NickName\"}}！"
  },
  {
    "label": "002_02",
    "attribute": "0x0000000000000000",
    "text": "{{anim id=\"BigSmile\" target=\"actor\" targetSpec=\"\"}}お、{{delay8}}ちゃんと　{{ruby charSpan=\"2\" value=\"ようい\"}}用意してるじゃねぇか{{delay frames=\"40\"}}\n{{anim id=\"EmotEnd\" target=\"actor\" targetSpec=\"\"}}さすがは　{{string value=\"NickName\"}}、{{delay20}}\n{{anim id=\"Grin\" target=\"actor\" targetSpec=\"\"}}こういう{{ruby charSpan=\"1\" value=\"こと\"}}事には　{{ruby charSpan=\"1\" value=\"ぬ\"}}抜かりがねぇな"
  },
  {
    "label": "003_01",
    "attribute": "0x0000000000000000",
    "text": "さて、{{delay8}}オレからの　お{{ruby charSpan=\"1\" value=\"かえ\"}}返しは{{string value=\"...\"}}っと{{delay20}}\n{{color id=\"1\"}}{{anim id=\"FaintSmile\" target=\"actor\" targetSpec=\"\"}}{{fun_0000007D arg=\"0x0000\"}}{{color id=\"65535\"}}にするかな{{delay frames=\"40\"}}\n{{anim id=\"Pardon\" target=\"actor\" targetSpec=\"\"}}ザ・ハロウィン！{{delay20}}　って{{ruby charSpan=\"1\" value=\"かん\"}}感じだろ？{{anim id=\"FaintSmile\" target=\"actor\" targetSpec=\"\"}}"
  },
  {
    "label": "003_02",
    "attribute": "0x0000000000000000",
    "text": "{{anim id=\"Smiling\" target=\"actor\" targetSpec=\"\"}}オメェへの　お{{ruby charSpan=\"1\" value=\"かえ\"}}返しには、{{delay20}}\nオレの　とっておきの　お{{ruby charSpan=\"2\" value=\"かし\"}}菓子をやるよ{{delay frames=\"40\"}}\n{{anim id=\"Greeting\" target=\"actor\" targetSpec=\"\"}}ほら、{{delay8}}{{color id=\"1\"}}ロリポップ{{color id=\"65535\"}}だ！"
  },
  {
    "label": "003_03",
    "attribute": "0x0000000000000000",
    "text": "{{anim id=\"FaintSmile\" target=\"actor\" targetSpec=\"\"}}オレからの　お{{ruby charSpan=\"1\" value=\"かえ\"}}返しは{{delay20}}\n{{color id=\"1\"}}{{fun_0000007D arg=\"0x0000\"}}のレシピ{{color id=\"65535\"}}だ{{delay frames=\"40\"}}\nハロウィンに　バッチリ　{{ruby charSpan=\"1\" value=\"あ\"}}合うだろ？"
  },
  {
    "label": "003_04",
    "attribute": "0x0000000000000000",
    "text": "オメェには　お{{ruby charSpan=\"1\" value=\"かえ\"}}返しに、{{delay20}}\n{{color id=\"1\"}}{{anim id=\"Smiling\" target=\"actor\" targetSpec=\"\"}}{{fun_0000007D arg=\"0x0000\"}}{{color id=\"65535\"}}を　やるよ！{{delay frames=\"40\"}}\n{{anim id=\"Hello\" target=\"actor\" targetSpec=\"\"}}{{number value=\"1\" index=\"0\"}}{{ruby charSpan=\"1\" value=\"こ\"}}個くらいで　いいよな？"
  },
  {
    "label": "004_01",
    "attribute": "0x0000000000000000",
    "text": "{{anim id=\"HappyDance\" target=\"actor\" targetSpec=\"\"}}へへ、{{delay20}}{{ruby charSpan=\"2\" value=\"こんや\"}}今夜は　ゴキゲンだぜ！　{{string value=\"6\"}}"
  },
  {
    "label": "004_02",
    "attribute": "0x0000000000000000",
    "text": "{{anim id=\"Laughing\" target=\"actor\" targetSpec=\"\"}}{{ruby charSpan=\"2\" value=\"こんや\"}}今夜は、{{delay8}}{{ruby charSpan=\"1\" value=\"たの\"}}楽しく　{{ruby charSpan=\"1\" value=\"す\"}}過ごそうぜ！　{{string value=\"6\"}}{{anim id=\"FaintSmile\" target=\"actor\" targetSpec=\"\"}}"
  },
  {
    "label": "005",
    "attribute": "0x0000000000000000",
    "text": "{{anim id=\"OhGeez\" target=\"actor\" targetSpec=\"\"}}なんでぇ、{{delay20}}まだ　{{ruby charSpan=\"1\" value=\"も\"}}持てないままじゃねぇか{{delay frames=\"40\"}}\n{{anim id=\"EmotEnd\" target=\"actor\" targetSpec=\"\"}}さっさと　もちものを{{ruby charSpan=\"2\" value=\"せいり\"}}整理して{{delay8}}\n{{ruby charSpan=\"1\" value=\"と\"}}取りに{{ruby charSpan=\"1\" value=\"き\"}}来てくれよな！　{{string value=\"6\"}}"
  },
  {
    "label": "006",
    "attribute": "0x0000000000000000",
    "text": "{{anim id=\"Thinking\" target=\"actor\" targetSpec=\"\"}}オメェ、{{delay8}}もちものがいっぱいじゃねぇか{{delay frames=\"40\"}}\n{{anim id=\"Negative\" target=\"actor\" targetSpec=\"\"}}そんなんじゃ、こいつは　{{ruby charSpan=\"1\" value=\"わた\"}}渡せねぇぞ{{delay frames=\"40\"}}\n{{anim id=\"EmotEnd\" target=\"actor\" targetSpec=\"\"}}{{ruby charSpan=\"2\" value=\"にもつ\"}}荷物を{{ruby charSpan=\"2\" value=\"せいり\"}}整理したら　また{{ruby charSpan=\"1\" value=\"き\"}}来てくれよ{{pageBreak}}ハロウィンで　{{ruby charSpan=\"2\" value=\"きぶん\"}}気分が{{ruby charSpan=\"1\" value=\"も\"}}盛り{{ruby charSpan=\"1\" value=\"あ\"}}上がってる{{ruby charSpan=\"1\" value=\"あいだ\"}}間に\n{{ruby charSpan=\"1\" value=\"わた\"}}渡してぇし、{{delay20}}{{anim id=\"Greeting\" target=\"actor\" targetSpec=\"\"}}{{ruby charSpan=\"3\" value=\"きょうじゅう\"}}今日中に{{ruby charSpan=\"1\" value=\"たの\"}}頼むぜ！　{{string value=\"6\"}}"
  },
  {
    "label": "007",
    "attribute": "0x0000000000000000",
    "text": "さっき　{{ruby charSpan=\"1\" value=\"わた\"}}渡しそこねた\n{{color id=\"1\"}}{{fun_0000007D arg=\"0x0000\"}}{{color id=\"65535\"}}だろ？{{delay frames=\"40\"}}\n{{anim id=\"FaintSmile\" target=\"actor\" targetSpec=\"\"}}ほらよ、{{delay20}}ちゃんと　{{ruby charSpan=\"1\" value=\"と\"}}取ってあるぜ"
  },
  {
    "label": "007_01",
    "attribute": "0x0000000000000000",
    "text": "さっき　{{ruby charSpan=\"1\" value=\"わた\"}}渡しそこねた\n{{color id=\"1\"}}{{fun_0000007D arg=\"0x0000\"}}のレシピ{{color id=\"65535\"}}だろ？{{delay frames=\"40\"}}\n{{anim id=\"FaintSmile\" target=\"actor\" targetSpec=\"\"}}ほらよ、{{delay20}}ちゃんと　{{ruby charSpan=\"1\" value=\"と\"}}取ってあるぜ"
  },
  {
    "label": "007_pl",
    "attribute": "0x0000000000000000",
    "text": "さっき　{{ruby charSpan=\"1\" value=\"わた\"}}渡しそこねた\n{{color id=\"1\"}}{{fun_0000007D arg=\"0x0000\"}}{{color id=\"65535\"}}だろ？{{delay frames=\"40\"}}\n{{anim id=\"FaintSmile\" target=\"actor\" targetSpec=\"\"}}ほらよ、{{delay20}}ちゃんと　{{ruby charSpan=\"1\" value=\"と\"}}取ってあるぜ"
  },
  {
    "label": "008",
    "attribute": "0x0000000000000000",
    "text": "{{string value=\"...\"}}{{anim id=\"Eh\" target=\"actor\" targetSpec=\"\"}}って、{{delay20}}アメちゃん　ひとつもないのかよ{{delay frames=\"40\"}}\n{{anim id=\"Thinking\" target=\"actor\" targetSpec=\"\"}}{{ruby charSpan=\"1\" value=\"も\"}}持ってないモンは　どうしようもねぇな{{delay frames=\"40\"}}\n{{anim id=\"Silent\" target=\"actor\" targetSpec=\"\"}}ちぇっ、{{ruby charSpan=\"2\" value=\"こんかい\"}}今回は　{{ruby charSpan=\"2\" value=\"みのが\"}}見逃してやるか、{{string value=\"6\"}}"
  },
  {
    "label": "009",
    "attribute": "0x0000000000000000",
    "text": "{{anim id=\"Shocked\" target=\"actor\" targetSpec=\"\"}}{{string value=\"...\"}}って、{{delay8}}アメちゃん　{{ruby charSpan=\"1\" value=\"も\"}}持ってないってか？！{{delay frames=\"40\"}}\n{{anim id=\"OhGeez\" target=\"actor\" targetSpec=\"\"}}{{ruby charSpan=\"1\" value=\"なに\"}}何やってんだよ、まったく{{string value=\"...\"}}{{delay frames=\"50\"}}\n{{anim id=\"FaintSmile\" target=\"actor\" targetSpec=\"\"}}{{ruby charSpan=\"1\" value=\"はや\"}}早いとこ{{ruby charSpan=\"2\" value=\"ようい\"}}用意して　{{ruby charSpan=\"2\" value=\"でなお\"}}出直して{{ruby charSpan=\"1\" value=\"こ\"}}来い！　{{string value=\"6\"}}"
  },
  {
    "label": "010",
    "attribute": "0x0000000000000000",
    "text": "{{anim id=\"Eh\" target=\"actor\" targetSpec=\"\"}}{{string value=\"...\"}}そうかい、{{delay20}}オレには　やれねぇってか{{delay frames=\"40\"}}\n{{anim id=\"EmotEnd\" target=\"actor\" targetSpec=\"\"}}オメェが　その{{ruby charSpan=\"1\" value=\"き\"}}気なら{{string value=\"...\"}}{{delay20}}\n{{anim id=\"Serious\" target=\"actor\" targetSpec=\"\"}}こっちも　{{ruby charSpan=\"3\" value=\"てかげん\"}}手加減しねぇからな！{{pageBreak}}{{i10_12}}{{anim id=\"Fuming\" target=\"actor\" targetSpec=\"\"}}{{delay20}}{{i10_10}}{{size value=\"150\"}}ふぬぬ～～っ！！{{size value=\"100\"}}{{i10_7 arg=\"100\"}}"
  },
  {
    "label": "011",
    "attribute": "0x0000000000000000",
    "text": "{{anim id=\"TakenAback\" target=\"actor\" targetSpec=\"\"}}なぬっ？！{{delay frames=\"30\"}}　くれないのかよ？！{{delay frames=\"40\"}}\n{{anim id=\"Serious\" target=\"actor\" targetSpec=\"\"}}よぉし、{{delay20}}それなら　お{{ruby charSpan=\"1\" value=\"のぞ\"}}望み{{ruby charSpan=\"1\" value=\"どお\"}}通り\nイタズラしてやるぜ！　{{delay frames=\"30\"}}カクゴしな！{{pageBreak}}{{i10_12}}{{anim id=\"Fuming\" target=\"actor\" targetSpec=\"\"}}{{delay20}}{{i10_10}}{{size value=\"150\"}}ぐぬぬ～～っ！！{{size value=\"100\"}}{{i10_7 arg=\"100\"}}"
  },
  {
    "label": "012",
    "attribute": "0x0000000000000000",
    "text": "{{anim id=\"Laughing\" target=\"actor\" targetSpec=\"\"}}へへっ、{{delay8}}どうでぃ！{{delay frames=\"30\"}}\n{{ruby charSpan=\"1\" value=\"おも\"}}思いっきり　イタズラしてやったぜ{{delay frames=\"40\"}}\n{{anim id=\"Pardon\" target=\"actor\" targetSpec=\"\"}}なかなか　いい{{ruby charSpan=\"2\" value=\"でき\"}}出来だろ？{{pageBreak}}{{anim id=\"FaintSmile\" target=\"actor\" targetSpec=\"\"}}ま、{{ruby charSpan=\"1\" value=\"み\"}}見た{{ruby charSpan=\"1\" value=\"め\"}}目は　アレだが、{{delay8}}{{anim id=\"Explain\" target=\"actor\" targetSpec=\"\"}}{{ruby charSpan=\"1\" value=\"たん\"}}単に　ペイントを\n{{ruby charSpan=\"2\" value=\"かおじゅう\"}}顔中に　ぬりたくってある　だけだからよ{{delay frames=\"40\"}}\n{{anim id=\"EmotEnd\" target=\"actor\" targetSpec=\"\"}}すがたみでもありゃ　{{ruby charSpan=\"2\" value=\"かんたん\"}}簡単に{{ruby charSpan=\"1\" value=\"もど\"}}戻せるぜ"
  },
  {
    "label": "013",
    "attribute": "0x0000000000000000",
    "text": "とりあえず、{{delay20}}オメェには\n{{color id=\"1\"}}{{fun_0000007D arg=\"0x0000\"}}{{color id=\"65535\"}}を　やるからよ{{delay frames=\"40\"}}\n{{anim id=\"FaintSmile\" target=\"actor\" targetSpec=\"\"}}{{ruby charSpan=\"1\" value=\"もど\"}}戻したくなったら　{{ruby charSpan=\"1\" value=\"つか\"}}使ってみてくれ！"
  },
  {
    "label": "014",
    "attribute": "0x0000000000000000",
    "text": "そうそう、{{delay20}}{{anim id=\"Explain\" target=\"actor\" targetSpec=\"\"}}{{ruby charSpan=\"1\" value=\"かお\"}}顔の{{color id=\"1\"}}フェイスペイント{{color id=\"65535\"}}だけなら{{delay8}}\nポケットの{{ruby charSpan=\"2\" value=\"きが\"}}着替えんトコでも　{{ruby charSpan=\"1\" value=\"け\"}}消せるから、{{delay20}}\n{{anim id=\"FaintSmile\" target=\"actor\" targetSpec=\"\"}}すがたみがなくっても　{{ruby charSpan=\"3\" value=\"だいじょうぶ\"}}大丈夫だぜ、{{string value=\"6\"}}"
  },
  {
    "label": "015",
    "attribute": "0x0000000000000000",
    "text": "よく　{{ruby charSpan=\"2\" value=\"にあ\"}}似合ってるぜ、{{delay20}}{{string value=\"NickName\"}}！{{delay frames=\"40\"}}\n{{anim id=\"Grin\" target=\"actor\" targetSpec=\"\"}}オレのウデも　なかなかのもんだろ？{{delay frames=\"40\"}}\n{{anim id=\"Laughing\" target=\"actor\" targetSpec=\"\"}}がーっはっは！"
  },
  {
    "label": "016",
    "attribute": "0x0000000000000000",
    "text": "{{anim id=\"Smiling\" target=\"actor\" targetSpec=\"\"}}{{ruby charSpan=\"2\" value=\"こんや\"}}今夜のオレは　{{ruby charSpan=\"2\" value=\"きぶん\"}}気分がいいからな{{delay frames=\"30\"}}\nオメェに　リアクションを{{ruby charSpan=\"1\" value=\"おし\"}}教えてやるよ{{delay frames=\"40\"}}\n{{anim id=\"Grin\" target=\"actor\" targetSpec=\"\"}}ハロウィンに　うってつけの　{{ruby charSpan=\"2\" value=\"とくべつ\"}}特別なやつだ！{{pageBreak}}{{anim id=\"62\" target=\"actor\" targetSpec=\"\"}}{{delay20}}{{i10_10}}{{string value=\"NickName\"}}{{string value=\"38\"}}っ！{{delay20}}\nオメェのアメちゃんを　よこせー！！{{delay frames=\"40\"}}{{pageBreak}}{{i10_9}}{{anim id=\"Laughing\" target=\"actor\" targetSpec=\"\"}}へへっ、{{delay20}}ビビったか？{{delay frames=\"40\"}}\n{{anim id=\"FaintSmile\" target=\"actor\" targetSpec=\"\"}}こいつは{{delay8}}「{{color id=\"1\"}}おどかす{{color id=\"65535\"}}」{{delay8}}って　リアクションだ{{delay frames=\"40\"}}\n{{anim id=\"BigSmile\" target=\"actor\" targetSpec=\"\"}}バンバン　{{ruby charSpan=\"1\" value=\"つか\"}}使ってくれよな！　{{string value=\"6\"}}{{delay8}}{{anim id=\"FaintSmile\" target=\"actor\" targetSpec=\"\"}}"
  },
  {
    "label": "017",
    "attribute": "0x0000000000000000",
    "text": "{{anim id=\"Explain\" target=\"actor\" targetSpec=\"\"}}リアクションは　{{color id=\"1\"}}{{color id=\"65535\"}}を{{ruby charSpan=\"1\" value=\"お\"}}押すと　{{ruby charSpan=\"1\" value=\"えら\"}}選べるんだ{{delay frames=\"40\"}}\n{{ruby charSpan=\"1\" value=\"ほか\"}}他にも　いろいろ　あるから{{delay20}}\n{{anim id=\"FaintSmile\" target=\"actor\" targetSpec=\"\"}}{{ruby charSpan=\"1\" value=\"ため\"}}試してみると　いいぜ、{{string value=\"6\"}}"
  },
  {
    "label": "018",
    "attribute": "0x0000000000000000",
    "text": "{{anim id=\"Shocked\" target=\"actor\" targetSpec=\"\"}}って、{{delay20}}{{color id=\"1\"}}アメ{{color id=\"65535\"}}ちゃん　ひとつもねぇのかよ？！{{delay frames=\"40\"}}\n{{anim id=\"Serious\" target=\"actor\" targetSpec=\"\"}}{{ruby charSpan=\"2\" value=\"きょう\"}}今日は　ハロウィンなんだぜ{{delay frames=\"40\"}}\n{{anim id=\"OhGeez\" target=\"actor\" targetSpec=\"\"}}モノがなくっちゃ　{{ruby charSpan=\"2\" value=\"いみ\"}}意味ねぇだろうが{{string value=\"...\"}}{{pageBreak}}{{anim id=\"Laughing\" target=\"actor\" targetSpec=\"\"}}ったく、{{delay8}}しょうがねぇヤツだな{{delay frames=\"40\"}}\n{{anim id=\"FaintSmile\" target=\"actor\" targetSpec=\"\"}}{{delay20}}オレの{{color id=\"1\"}}アメ{{color id=\"65535\"}}ちゃん、{{delay8}}ちょっとだけ　{{ruby charSpan=\"1\" value=\"わ\"}}分けてやるよ{{delay frames=\"40\"}}\n{{anim id=\"Greeting\" target=\"actor\" targetSpec=\"\"}}{{ruby charSpan=\"2\" value=\"こんかい\"}}今回だけの　{{ruby charSpan=\"2\" value=\"とくべつ\"}}特別サービスだぞ！"
  },
  {
    "label": "019",
    "attribute": "0x0000000000000000",
    "text": "{{anim id=\"Smiling\" target=\"actor\" targetSpec=\"\"}}さぁ、{{delay20}}これで　{{ruby charSpan=\"2\" value=\"もんだい\"}}問題ねぇだろ{{delay frames=\"40\"}}{{delay frames=\"40\"}}\n{{anim id=\"EmotEnd\" target=\"actor\" targetSpec=\"\"}}{{ruby charSpan=\"1\" value=\"つぎ\"}}次からは　エンリョなく{{delay20}}\n{{anim id=\"Grin\" target=\"actor\" targetSpec=\"\"}}{{color id=\"1\"}}アメ{{color id=\"65535\"}}ちゃん　もらいに{{ruby charSpan=\"1\" value=\"い\"}}行くからな！　{{string value=\"6\"}}"
  },
  {
    "label": "050",
    "attribute": "0x0000000000000000",
    "text": "{{anim id=\"Smiling\" target=\"actor\" targetSpec=\"\"}}ハロウィン、{{delay20}}みんな　{{ruby charSpan=\"1\" value=\"う\"}}浮かれてるよな！{{delay frames=\"40\"}}\n{{anim id=\"Explain\" target=\"actor\" targetSpec=\"\"}}{{ruby charSpan=\"2\" value=\"かそう\"}}仮装して、{{delay8}}アメちゃんとか　もらってよ{{string value=\"...\"}}{{anim id=\"EmotEnd\" target=\"actor\" targetSpec=\"\"}}{{delay frames=\"40\"}}\n{{anim id=\"ShyBoy\" target=\"actor\" targetSpec=\"\"}}ま、{{delay8}}オレもだけどな、{{string value=\"6\"}}"
  },
  {
    "label": "051",
    "attribute": "0x0000000000000000",
    "text": "{{anim id=\"FaintSmile\" target=\"actor\" targetSpec=\"\"}}こういう{{ruby charSpan=\"2\" value=\"かっこう\"}}格好も{{delay8}}　たまには　{{ruby charSpan=\"1\" value=\"わる\"}}悪くねぇな{{delay frames=\"40\"}}\n{{anim id=\"ShyBoy\" target=\"actor\" targetSpec=\"\"}}ちょっと　こっぱずかしい{{ruby charSpan=\"1\" value=\"き\"}}気もするが、{{delay20}}\n{{anim id=\"BigSmile\" target=\"actor\" targetSpec=\"\"}}おどかすには　もってこいだ！　{{string value=\"6\"}}{{delay8}}{{anim id=\"FaintSmile\" target=\"actor\" targetSpec=\"\"}}"
  },
  {
    "label": "052",
    "attribute": "0x0000000000000000",
    "text": "{{anim id=\"Explain\" target=\"actor\" targetSpec=\"\"}}おどかしたり{{delay8}}　おどかされたり{{string value=\"...\"}}{{delay frames=\"40\"}}\n{{anim id=\"Explain\" target=\"actor\" targetSpec=\"\"}}アメちゃんをもらったり{{delay8}}　{{ruby charSpan=\"1\" value=\"くば\"}}配ったり{{string value=\"...\"}}{{delay frames=\"40\"}}\n{{anim id=\"HappyDance\" target=\"actor\" targetSpec=\"\"}}ハロウィンは　{{ruby charSpan=\"1\" value=\"なに\"}}何かと{{ruby charSpan=\"1\" value=\"いそが\"}}忙しいぜ！　{{string value=\"6\"}}"
  },
  {
    "label": "053",
    "attribute": "0x0000000000000000",
    "text": "{{anim id=\"Thinking\" target=\"actor\" targetSpec=\"\"}}{{ruby charSpan=\"1\" value=\"そら\"}}空の{{ruby charSpan=\"1\" value=\"いろ\"}}色が　いつもと{{ruby charSpan=\"1\" value=\"ちが\"}}違って{{delay8}}　{{ruby charSpan=\"2\" value=\"いよう\"}}異様な{{ruby charSpan=\"1\" value=\"かん\"}}感じだな{{delay frames=\"40\"}}\n{{anim id=\"Explain\" target=\"actor\" targetSpec=\"\"}}そのせいか{{delay8}}　{{ruby charSpan=\"3\" value=\"しまぜんたい\"}}島全体の{{ruby charSpan=\"2\" value=\"くうき\"}}空気も\nあやしい{{ruby charSpan=\"3\" value=\"ふんいき\"}}雰囲気に　なってる{{ruby charSpan=\"1\" value=\"き\"}}気がするぜ{{pageBreak}}{{anim id=\"Nodding\" target=\"actor\" targetSpec=\"\"}}へへっ、{{delay8}}これで　ますます\nハロウィンムードが　{{ruby charSpan=\"1\" value=\"たか\"}}高まってきたってもんだ{{delay frames=\"40\"}}\n{{anim id=\"HappyFlower\" target=\"actor\" targetSpec=\"\"}}くぅ～、{{delay20}}ゾクゾクしてきた～！　{{string value=\"6\"}}"
  },
  {
    "label": "100",
    "attribute": "0x0000000000000000",
    "text": "{{ruby charSpan=\"1\" value=\"き\"}}来たな、{{delay20}}{{string value=\"NickName\"}}！{{delay frames=\"40\"}}\n{{anim id=\"FaintSmile\" target=\"actor\" targetSpec=\"\"}}{{ruby charSpan=\"2\" value=\"きょう\"}}今日は　ハロウィンだからよ、{{delay frames=\"30\"}}\n{{ruby charSpan=\"2\" value=\"ぜったい\"}}絶対に{{ruby charSpan=\"1\" value=\"く\"}}来ると{{ruby charSpan=\"1\" value=\"おも\"}}思って　{{ruby charSpan=\"1\" value=\"ま\"}}待ってたんだ"
  },
  {
    "label": "101",
    "attribute": "0x0000000000000000",
    "text": "{{anim id=\"FaintSmile\" target=\"actor\" targetSpec=\"\"}}お、{{delay20}}また　{{ruby charSpan=\"1\" value=\"き\"}}来てくれたんだな{{delay frames=\"40\"}}\nオメェなら、{{delay8}}いくらでも　{{ruby charSpan=\"3\" value=\"だいかんげい\"}}大歓迎だぜ！"
  },
  {
    "label": "102",
    "attribute": "0x0000000000000000",
    "text": "ところで　オメェ、{{delay20}}{{anim id=\"QuestionMark\" target=\"actor\" targetSpec=\"\"}}{{ruby charSpan=\"2\" value=\"かそう\"}}仮装はしねぇのか？{{delay frames=\"40\"}}\n{{anim id=\"Explain\" target=\"actor\" targetSpec=\"\"}}{{ruby charSpan=\"2\" value=\"きょう\"}}今日はな、{{delay8}}{{color id=\"1\"}}ホラー{{color id=\"65535\"}}な{{ruby charSpan=\"2\" value=\"かそう\"}}仮装してるヤツには\nアメちゃんを　プレゼントしてるんだぜ{{pageBreak}}{{anim id=\"EmotEnd\" target=\"actor\" targetSpec=\"\"}}{{ruby charSpan=\"1\" value=\"いま\"}}今からでも　{{ruby charSpan=\"1\" value=\"おそ\"}}遅くねぇし、{{delay20}}\n{{anim id=\"Smiling\" target=\"actor\" targetSpec=\"\"}}オメェの　とびっきり　{{color id=\"1\"}}ホラー{{color id=\"65535\"}}なやつを{{delay8}}\nオレに　{{ruby charSpan=\"1\" value=\"み\"}}見せてくれよ！　{{string value=\"6\"}}"
  },
  {
    "label": "103",
    "attribute": "0x0000000000000000",
    "text": "ん？{{delay frames=\"30\"}}　{{anim id=\"QuestionMark\" target=\"actor\" targetSpec=\"\"}}アメちゃんか？{{delay frames=\"40\"}}\n{{anim id=\"Thinking\" target=\"actor\" targetSpec=\"\"}}でもよ、{{delay20}}{{string value=\"NickName\"}}には{{delay8}}\nさっき　やったばっかりだよな？{{pageBreak}}{{anim id=\"Explain\" target=\"actor\" targetSpec=\"\"}}オメェにだけ　ほいほい　やってたら{{delay8}}\n{{ruby charSpan=\"1\" value=\"ほか\"}}他のヤツらの{{ruby charSpan=\"1\" value=\"ぶん\"}}分が　なくなっちまうしよ{{delay frames=\"40\"}}\n{{anim id=\"FaintSmile\" target=\"actor\" targetSpec=\"\"}}だから、{{delay20}}またあとで{{string value=\"...\"}}{{delay20}}{{anim id=\"Greeting\" target=\"actor\" targetSpec=\"\"}}な？　{{string value=\"6\"}}"
  },
  {
    "label": "104",
    "attribute": "0x0000000000000000",
    "text": "{{anim id=\"Nodding\" target=\"actor\" targetSpec=\"\"}}ホラーな{{ruby charSpan=\"2\" value=\"いしょう\"}}衣装を　{{ruby charSpan=\"1\" value=\"み\"}}身につけた　オメェには{{delay20}}\n{{color id=\"1\"}}アメ{{color id=\"65535\"}}ちゃんを　プレゼントだ！{{delay frames=\"40\"}}\n{{anim id=\"Hello\" target=\"actor\" targetSpec=\"\"}}{{delay8}}オレからのごほうび　ってやつだな！{{delay8}}{{anim id=\"FaintSmile\" target=\"actor\" targetSpec=\"\"}}"
  },
  {
    "label": "105",
    "attribute": "0x0000000000000000",
    "text": "へへっ、{{anim id=\"Greeting\" target=\"actor\" targetSpec=\"\"}}{{color id=\"1\"}}アメ{{color id=\"65535\"}}ちゃんだろ？{{delay frames=\"40\"}}\n{{anim id=\"FaintSmile\" target=\"actor\" targetSpec=\"\"}}ちゃんと　{{ruby charSpan=\"2\" value=\"ようい\"}}用意してあるぜ{{delay frames=\"40\"}}\nほらよ、{{delay20}}{{ruby charSpan=\"1\" value=\"も\"}}持っていきな！"
  },
  {
    "label": "106_01",
    "attribute": "0x0000000000000000",
    "text": "{{anim id=\"Smiling\" target=\"actor\" targetSpec=\"\"}}その{{ruby charSpan=\"2\" value=\"ちょうし\"}}調子で、{{delay20}}{{ruby charSpan=\"2\" value=\"こんや\"}}今夜のハロウィンを\nガンガン　{{ruby charSpan=\"1\" value=\"も\"}}盛り{{ruby charSpan=\"1\" value=\"あ\"}}上げてくれよな！　{{string value=\"6\"}}"
  },
  {
    "label": "106_02",
    "attribute": "0x0000000000000000",
    "text": "{{ruby charSpan=\"2\" value=\"いちねん\"}}一年に{{ruby charSpan=\"2\" value=\"いちど\"}}一度しかない　ハロウィンだもんな{{delay frames=\"40\"}}\n{{anim id=\"BigSmile\" target=\"actor\" targetSpec=\"\"}}{{ruby charSpan=\"1\" value=\"たの\"}}楽しまねぇと　ソンだぜ！　{{string value=\"6\"}}{{delay8}}{{anim id=\"FaintSmile\" target=\"actor\" targetSpec=\"\"}}"
  },
  {
    "label": "107",
    "attribute": "0x0000000000000000",
    "text": "{{anim id=\"Eh\" target=\"actor\" targetSpec=\"\"}}{{string value=\"...\"}}おいおい、{{delay20}}\nオメェ　{{ruby charSpan=\"2\" value=\"にもつ\"}}荷物が　いっぱいだぞ{{delay frames=\"40\"}}\n{{anim id=\"Thinking\" target=\"actor\" targetSpec=\"\"}}それ{{ruby charSpan=\"2\" value=\"いじょう\"}}以上は　{{ruby charSpan=\"1\" value=\"も\"}}持てないんじゃねぇのか？{{pageBreak}}{{anim id=\"EmotEnd\" target=\"actor\" targetSpec=\"\"}}もちものに　{{ruby charSpan=\"1\" value=\"あ\"}}空きができたら　{{ruby charSpan=\"1\" value=\"と\"}}取りに{{ruby charSpan=\"1\" value=\"き\"}}来な{{delay frames=\"40\"}}\n{{anim id=\"Smiling\" target=\"actor\" targetSpec=\"\"}}それまで　コイツは{{delay20}}　ちゃ～んと\n{{ruby charSpan=\"1\" value=\"あず\"}}預かっといてやるからよ、{{string value=\"6\"}}"
  },
  {
    "label": "108",
    "attribute": "0x0000000000000000",
    "text": "{{anim id=\"Eh\" target=\"actor\" targetSpec=\"\"}}ん？{{delay20}}　オメェ、{{delay8}}{{color id=\"1\"}}アメ{{color id=\"65535\"}}ちゃん　{{ruby charSpan=\"1\" value=\"も\"}}持ってねぇのか？{{delay frames=\"40\"}}\n{{anim id=\"Thinking\" target=\"actor\" targetSpec=\"\"}}さすがに　{{ruby charSpan=\"2\" value=\"きょう\"}}今日は{{delay8}}　{{color id=\"1\"}}アメ{{color id=\"65535\"}}ちゃんも{{ruby charSpan=\"1\" value=\"も\"}}持たずに\n{{ruby charSpan=\"2\" value=\"である\"}}出歩くのは　{{ruby charSpan=\"2\" value=\"きけん\"}}危険すぎるよな{{string value=\"...\"}}{{pageBreak}}{{anim id=\"EmotEnd\" target=\"actor\" targetSpec=\"\"}}しょーがねぇ、{{anim id=\"BigSmile\" target=\"actor\" targetSpec=\"\"}}オレが{{ruby charSpan=\"2\" value=\"ひとはだ\"}}一肌　{{ruby charSpan=\"1\" value=\"ぬ\"}}脱いでやるか！{{delay frames=\"40\"}}\n{{anim id=\"FaintSmile\" target=\"actor\" targetSpec=\"\"}}{{ruby charSpan=\"2\" value=\"こんかい\"}}今回だけ{{ruby charSpan=\"2\" value=\"とくべつ\"}}特別に　{{color id=\"1\"}}アメ{{color id=\"65535\"}}ちゃんを{{ruby charSpan=\"1\" value=\"わ\"}}分けてやるよ{{delay frames=\"40\"}}\n{{anim id=\"Grin\" target=\"actor\" targetSpec=\"\"}}でも、{{delay8}}ちょっとだけだからな！"
  },
  {
    "label": "109",
    "attribute": "0x0000000000000000",
    "text": "{{anim id=\"Nodding\" target=\"actor\" targetSpec=\"\"}}よし、{{delay20}}これで　{{ruby charSpan=\"1\" value=\"そと\"}}外のヤツらに{{ruby charSpan=\"2\" value=\"であ\"}}出会っても{{delay8}}\nとりあえず　{{ruby charSpan=\"3\" value=\"だいじょうぶ\"}}大丈夫だろ{{delay frames=\"40\"}}\n{{anim id=\"Greeting\" target=\"actor\" targetSpec=\"\"}}ハロウィン、{{delay8}}{{ruby charSpan=\"1\" value=\"たの\"}}楽しめよ！　{{string value=\"6\"}}"
  },
  {
    "label": "150",
    "attribute": "0x0000000000000000",
    "text": "なぁ、{{delay8}}{{string value=\"NickName\"}}{{delay frames=\"40\"}}\n{{anim id=\"QuestionMark\" target=\"actor\" targetSpec=\"\"}}オレの　この{{ruby charSpan=\"2\" value=\"かっこう\"}}格好、{{delay20}}どう{{ruby charSpan=\"1\" value=\"おも\"}}思う？{{delay frames=\"40\"}}\n{{ruby charSpan=\"1\" value=\"へん\"}}変じゃねぇか？{{pageBreak}}{{anim id=\"Restless\" target=\"actor\" targetSpec=\"\"}}この{{ruby charSpan=\"2\" value=\"かっこう\"}}格好で　{{ruby charSpan=\"1\" value=\"そと\"}}外に{{ruby charSpan=\"1\" value=\"で\"}}出るのは{{delay20}}\nなかなか　{{ruby charSpan=\"2\" value=\"ゆうき\"}}勇気がいるんだよな～{{string value=\"...\"}}{{delay frames=\"40\"}}\n{{anim id=\"Laughing\" target=\"actor\" targetSpec=\"\"}}{{ruby charSpan=\"1\" value=\"で\"}}出ちまえば　{{ruby charSpan=\"2\" value=\"へいき\"}}平気なんだけどよ、{{string value=\"6\"}}"
  },
  {
    "label": "151",
    "attribute": "0x0000000000000000",
    "text": "{{anim id=\"Nodding\" target=\"actor\" targetSpec=\"\"}}あとで、{{delay8}}{{ruby charSpan=\"1\" value=\"そと\"}}外の{{ruby charSpan=\"2\" value=\"ようす\"}}様子でも　{{ruby charSpan=\"1\" value=\"み\"}}見に{{ruby charSpan=\"1\" value=\"い\"}}行ってみるか{{delay frames=\"40\"}}\nオレの　おどかしテクで{{delay20}}\n{{anim id=\"Grin\" target=\"actor\" targetSpec=\"\"}}アメちゃんの　{{ruby charSpan=\"2\" value=\"ほじゅう\"}}補充もできるしな、{{string value=\"6\"}}"
  },
  {
    "label": "152",
    "attribute": "0x0000000000000000",
    "text": "{{anim id=\"FaintSmile\" target=\"actor\" targetSpec=\"\"}}また{{delay8}}　{{ruby charSpan=\"1\" value=\"こ\"}}来いよな{{delay frames=\"40\"}}\nアメちゃんだったら{{delay8}}　{{anim id=\"Greeting\" target=\"actor\" targetSpec=\"\"}}まだまだ\nいっぱい　{{ruby charSpan=\"1\" value=\"も\"}}持ってるからよ、{{string value=\"6\"}}"
  },
  {
    "label": "153",
    "attribute": "0x0000000000000000",
    "text": "{{anim id=\"Blushing\" target=\"actor\" targetSpec=\"\"}}へへ、{{delay20}}やっぱ　ハロウィンって　{{ruby charSpan=\"1\" value=\"も\"}}燃えるな{{delay frames=\"40\"}}\n{{anim id=\"HappyFlower\" target=\"actor\" targetSpec=\"\"}}いくら　{{ruby charSpan=\"1\" value=\"おさ\"}}抑えようとしても、{{delay20}}\n{{ruby charSpan=\"1\" value=\"からだ\"}}体が　{{ruby charSpan=\"2\" value=\"かって\"}}勝手に　{{ruby charSpan=\"1\" value=\"おど\"}}踊り{{ruby charSpan=\"1\" value=\"だ\"}}出しちまうぜ！　{{string value=\"6\"}}"
  },
  {
    "label": "200",
    "attribute": "0x0000000000000000",
    "text": "{{anim id=\"Surprised\" target=\"actor\" targetSpec=\"\"}}げげっ？！{{delay frames=\"30\"}}　{{color id=\"3\"}}パンプキング{{color id=\"65535\"}}っ？！{{delay frames=\"40\"}}\n{{anim id=\"Frantic\" target=\"actor\" targetSpec=\"\"}}イ、{{delay20}}イタズラは　ダメだぞ？{{delay frames=\"40\"}}\nほら、{{delay20}}{{color id=\"1\"}}アメ{{color id=\"65535\"}}ちゃんだったら　やるからさ"
  },
  {
    "label": "201",
    "attribute": "0x0000000000000000",
    "text": "{{anim id=\"Eh\" target=\"actor\" targetSpec=\"\"}}ん？{{delay frames=\"30\"}}　オメェ{{string value=\"...\"}}{{delay frames=\"40\"}}\n{{string value=\"NickName\"}}じゃねぇか？！{{delay frames=\"40\"}}\n{{anim id=\"Confused\" target=\"actor\" targetSpec=\"\"}}なんだよ～、{{delay20}}あせらすんじゃねぇよ～{{pageBreak}}{{anim id=\"Nodding\" target=\"actor\" targetSpec=\"\"}}しかし、{{delay8}}このオレを　だますとは{{delay20}}\nなかなか　{{ruby charSpan=\"2\" value=\"みごと\"}}見事な　{{ruby charSpan=\"1\" value=\"ば\"}}化けっぷりだったぜ{{delay frames=\"40\"}}\n{{anim id=\"EmotEnd\" target=\"actor\" targetSpec=\"\"}}{{string value=\"...\"}}でも、{{delay20}}{{anim id=\"Silent\" target=\"actor\" targetSpec=\"\"}}もう　すんなよ！　{{string value=\"6\"}}"
  },
  {
    "label": "201_01",
    "attribute": "0x0000000000000000",
    "text": "{{anim id=\"Eh\" target=\"actor\" targetSpec=\"\"}}ん？{{delay frames=\"30\"}}　オメェ{{string value=\"...\"}}{{delay frames=\"40\"}}\n{{anim id=\"TakenAback\" target=\"actor\" targetSpec=\"\"}}{{color id=\"3\"}}パンプキング{{color id=\"65535\"}}じゃねぇな？！{{delay frames=\"40\"}}\n{{anim id=\"Confused\" target=\"actor\" targetSpec=\"\"}}なんだよ～、{{delay20}}あせらすんじゃねぇよ～{{pageBreak}}{{anim id=\"EmotEnd\" target=\"actor\" targetSpec=\"\"}}ほぉ、{{string value=\"NickName\"}}ってぇのかい{{delay frames=\"40\"}}\n{{anim id=\"FaintSmile\" target=\"actor\" targetSpec=\"\"}}オレは　{{string value=\"VillagerName\"}}だ{{delay frames=\"30\"}}\n{{anim id=\"Greeting\" target=\"actor\" targetSpec=\"\"}}よろしく　たのむな！{{pageBreak}}{{anim id=\"Nodding\" target=\"actor\" targetSpec=\"\"}}しかし、{{delay8}}このオレを　だますとは{{delay20}}\nなかなか　{{ruby charSpan=\"2\" value=\"みごと\"}}見事な　{{ruby charSpan=\"1\" value=\"ば\"}}化けっぷりだったぜ{{delay frames=\"40\"}}\n{{anim id=\"EmotEnd\" target=\"actor\" targetSpec=\"\"}}{{string value=\"...\"}}でも、{{delay20}}{{anim id=\"Silent\" target=\"actor\" targetSpec=\"\"}}もう　すんなよ！　{{string value=\"6\"}}"
  },
  {
    "label": "202",
    "attribute": "0x0000000000000000",
    "text": "{{anim id=\"Worried\" target=\"actor\" targetSpec=\"\"}}って、{{delay20}}もちものが　いっぱいなのかよ！{{delay frames=\"40\"}}\n{{anim id=\"OhGeez\" target=\"actor\" targetSpec=\"\"}}ま、{{delay8}}{{ruby charSpan=\"1\" value=\"も\"}}持てないのは　オレのせいじゃねぇし、{{delay20}}\n{{anim id=\"Silent\" target=\"actor\" targetSpec=\"\"}}イタズラは　{{ruby charSpan=\"1\" value=\"な\"}}無しな！　{{string value=\"6\"}}"
  }
]