﻿[
  {
    "label": "001",
    "attribute": "0x0000000000000000",
    "text": "{{fun_0014003C arg=\"\"}}"
  },
  {
    "label": "001_01",
    "attribute": "0x0000000000000000",
    "text": "{{anim id=\"QuestionMark\" target=\"actor\" targetSpec=\"\"}}Les poissons sont comme des coqs\nen pâte ici.{{delay20}} {{anim id=\"Nodding\" target=\"actor\" targetSpec=\"\"}}{{color id=\"3\"}}Thibou{{color id=\"65535\"}} est aux petits\nsoins pour eux."
  },
  {
    "label": "001_02",
    "attribute": "0x0000000000000000",
    "text": "{{anim id=\"Nodding\" target=\"actor\" targetSpec=\"\"}}J'étais loin de me douter qu'il y avait\nautant d'espèces de poissons d'eau\ndouce.\n{{anim id=\"Thinking\" target=\"actor\" targetSpec=\"\"}}Des gros, {{delay8}}des petits,{{delay20}} des mignons,{{delay8}}\net des moins mignons{{string value=\"...\"}}{{delay frames=\"40\"}} {{anim id=\"Hello\" target=\"actor\" targetSpec=\"\"}}Est-ce que\ntu as un chouchou, {{string value=\"6\"}} ?"
  },
  {
    "label": "001_03",
    "attribute": "0x0000000000000000",
    "text": "{{anim id=\"Smiling\" target=\"actor\" targetSpec=\"\"}}Regarder des petits poissons nager\ndans l'eau claire{{string value=\"...\"}}{{anim id=\"HappyFlower\" target=\"actor\" targetSpec=\"\"}} il n'y a rien de\nplus relaxant.\n{{anim id=\"EmotEnd\" target=\"actor\" targetSpec=\"\"}}Il faut que je pense à venir ici{{delay8}}\n{{anim id=\"Sleepy\" target=\"actor\" targetSpec=\"\"}}quand j'ai du mal à m'endormir,\n{{string value=\"6\"}}{{string value=\"...\"}}{{delay8}}"
  },
  {
    "label": "002",
    "attribute": "0x0000000000000000",
    "text": "{{fun_0014003C arg=\"\"}}"
  },
  {
    "label": "002_01",
    "attribute": "0x0000000000000000",
    "text": "{{anim id=\"AbsentMindedness\" target=\"actor\" targetSpec=\"\"}}Tous ces bruits d'eau me donnent\nl'impression de flotter en pleine mer\nles yeux fermés{{string value=\"...\"}}"
  },
  {
    "label": "002_02",
    "attribute": "0x0000000000000000",
    "text": "{{anim id=\"Nodding\" target=\"actor\" targetSpec=\"\"}}La surface des océans est si vaste{{string value=\"...\"}}\n{{anim id=\"Love\" target=\"actor\" targetSpec=\"\"}}Il faudrait passer des mois en mer\npour voir autant de poissons."
  },
  {
    "label": "002_03",
    "attribute": "0x0000000000000000",
    "text": "{{anim id=\"AbsentMindedness\" target=\"actor\" targetSpec=\"\"}}Cet endroit m'apaise l'esprit. {{delay20}}{{anim id=\"Greeting\" target=\"actor\" targetSpec=\"\"}}C'est\ncomme si l'eau me lavait de tous\nmes soucis.\n{{anim id=\"Aha\" target=\"actor\" targetSpec=\"\"}}Oh !{{delay8}} J'ai sûrement été un poisson\ndans une autre vie !{{delay frames=\"40\"}}{{anim id=\"Grin\" target=\"actor\" targetSpec=\"\"}} Ça expliquerait\nbeaucoup de choses, {{string value=\"Catchphrase\"}}{{string value=\"...\"}}"
  },
  {
    "label": "003",
    "attribute": "0x0000000000000000",
    "text": "{{fun_0014003C arg=\"\"}}"
  },
  {
    "label": "003_01",
    "attribute": "0x0000000000000000",
    "text": "{{anim id=\"Greeting\" target=\"actor\" targetSpec=\"\"}}J'ai l'impression que les poissons\nnagent à longueur de temps. {{anim id=\"QuestionMark\" target=\"actor\" targetSpec=\"\"}}Ils ne\nsont jamais fatigués ?\n{{anim id=\"Thinking\" target=\"actor\" targetSpec=\"\"}}Si je pouvais marcher sans jamais\nm'arrêter comme ça,{{delay8}}{{anim id=\"Smiling\" target=\"actor\" targetSpec=\"\"}} je passerais\nma vie dans les magasins."
  },
  {
    "label": "003_02",
    "attribute": "0x0000000000000000",
    "text": "{{anim id=\"FaintSmile\" target=\"actor\" targetSpec=\"\"}}Je perds toute notion du temps ici{{string value=\"...\"}}\nC'est comme si j'étais dans un autre\nmonde, {{string value=\"6\"}}."
  },
  {
    "label": "003_03",
    "attribute": "0x0000000000000000",
    "text": "{{anim id=\"AbsentMindedness\" target=\"actor\" targetSpec=\"\"}}Parfois, j'aimerais être un petit\npoisson{{delay8}} et pouvoir nager en toute\nliberté au gré des vagues{{string value=\"...\"}}"
  },
  {
    "label": "100",
    "attribute": "0x0000000000000000",
    "text": "{{fun_0014003C arg=\"\"}}"
  },
  {
    "label": "100_01",
    "attribute": "0x0000000000000000",
    "text": "{{anim id=\"FaintSmile\" target=\"actor\" targetSpec=\"\"}}J'espère que tu trouves notre {{color id=\"1\"}}musée{{color id=\"65535\"}}\nà ton goût ?{{delay20}} {{anim id=\"Hello\" target=\"actor\" targetSpec=\"\"}}Tu dois adorer les\npoissons, pour être venu{{gender2 m=\"\" f=\"e\"}} jusqu'ici."
  },
  {
    "label": "100_02",
    "attribute": "0x0000000000000000",
    "text": "{{anim id=\"Worried\" target=\"actor\" targetSpec=\"\"}}Surtout, ne fais pas attention à ma\ntenue, {{string value=\"6\"}}.{{pageBreak}}{{anim id=\"Blushing\" target=\"actor\" targetSpec=\"\"}}Si j'avais su que nous avions {{gender2 m=\"un\" f=\"une\"}}\ninvité{{gender2 m=\"\" f=\"e\"}} sur l'île, je me serais\nhabillée avec plus de soin{{string value=\"...\"}}"
  },
  {
    "label": "100_03",
    "attribute": "0x0000000000000000",
    "text": "{{anim id=\"FaintSmile\" target=\"actor\" targetSpec=\"\"}}Quand je suis ici, j'oublie tout,{{delay8}}\n{{string value=\"6\"}}. {{anim id=\"Hello\" target=\"actor\" targetSpec=\"\"}}C'est le meilleur\nremède contre le stress !"
  },
  {
    "label": "200",
    "attribute": "0x0000000000000000",
    "text": "{{fun_0014003C arg=\"\"}}"
  },
  {
    "label": "200_01",
    "attribute": "0x0000000000000000",
    "text": "{{anim id=\"Explain\" target=\"actor\" targetSpec=\"\"}}Comme le bâtiment vient tout juste\nd'être achevé,{{delay8}} {{anim id=\"Clapping\" target=\"actor\" targetSpec=\"\"}}les aquariums sont\ncomme neufs !\n{{anim id=\"Nodding\" target=\"actor\" targetSpec=\"\"}}Nous allons avoir la chance de\npouvoir admirer nos amis aquatiques\nsous leur meilleur jour."
  },
  {
    "label": "200_02",
    "attribute": "0x0000000000000000",
    "text": "{{anim id=\"Hello\" target=\"actor\" targetSpec=\"\"}}Je suis enchantée par ce {{color id=\"1\"}}musée{{color id=\"65535\"}}{{delay20}},\nil est simplement grandiose.{{pageBreak}}{{anim id=\"AbsentMindedness\" target=\"actor\" targetSpec=\"\"}}L'endroit est tellement relaxant,\nsurtout dans l'aile consacrée aux\npoissons.\n{{anim id=\"Smiling\" target=\"actor\" targetSpec=\"\"}}C'est un sanctuaire pour quiconque\ncherche à fuir quelques instants\nla fébrilité du monde !"
  },
  {
    "label": "200_03",
    "attribute": "0x0000000000000000",
    "text": "{{anim id=\"Hello\" target=\"actor\" targetSpec=\"\"}}Es-tu allé{{gender2 m=\"\" f=\"e\"}} voir les autres\nexpositions, {{string value=\"NickName\"}} ?{{pageBreak}}{{anim id=\"Explain\" target=\"actor\" targetSpec=\"\"}}Chacune possède son style bien à\nelle.{{delay20}} Elles méritent toutes le coup\nd'œil.{{pageBreak}}{{anim id=\"HappyFlower\" target=\"actor\" targetSpec=\"\"}}Je trouve que nous avons beaucoup\nde chance d'avoir un {{color id=\"1\"}}musée{{color id=\"65535\"}} comme\nle nôtre, {{string value=\"6\"}} !"
  }
]