﻿[
  {
    "label": "001",
    "attribute": "0x0000000100000000",
    "locale": {
      "CNzh": "{{anim id=\"Greeting\" target=\"actor\" targetSpec=\"\"}}你来得正好呢～{{delay20}}\n能陪我说说话吗？{{pageBreak}}{{string value=\"...\"}}{{anim id=\"QuestionMark\" target=\"actor\" targetSpec=\"\"}}咦？{{delay frames=\"40\"}}\n我想说什么来着～？{{delay frames=\"60\"}}\n{{anim id=\"EmotEnd\" target=\"actor\" targetSpec=\"\"}}对不起呀，{{delay20}}我给忘了呢～{{string value=\"6\"}}。{{anim id=\"FaintSmile\" target=\"actor\" targetSpec=\"\"}}",
      "EUde": "{{anim id=\"Greeting\" target=\"actor\" targetSpec=\"\"}}Oh,{{delay8}} hallo...{{delay20}} Hast du kurz Zeit?{{pageBreak}}{{anim id=\"Smiling\" target=\"actor\" targetSpec=\"\"}}Ich wollte dir sagen, dass...{{anim id=\"EmotEnd\" target=\"actor\" targetSpec=\"\"}}{{delay20}} Äääh...{{delay40}}\n{{anim id=\"QuestionMark\" target=\"actor\" targetSpec=\"\"}}Was wollte ich dir denn sagen?{{delay20}}\n{{anim id=\"Oops\" target=\"actor\" targetSpec=\"\"}}Hab's vergessen.{{delay20}} Tut mir leid...",
      "EUen": "{{anim id=\"Greeting\" target=\"actor\" targetSpec=\"\"}}Oh, hey{{string value=\"...\"}}{{delay20}} You got a sec?{{pageBreak}}{{anim id=\"Smiling\" target=\"actor\" targetSpec=\"\"}}I was gonna tell you{{string value=\"...\"}}{{anim id=\"EmotEnd\" target=\"actor\" targetSpec=\"\"}}{{delay20}} Ummm{{string value=\"...\"}}\n{{delay20}}{{anim id=\"QuestionMark\" target=\"actor\" targetSpec=\"\"}}What was I gonna tell you?{{i10_4}}\n{{anim id=\"Laughing\" target=\"actor\" targetSpec=\"\"}}{{delay20}}I guess I forgot!",
      "EUes": "{{anim id=\"Greeting\" target=\"actor\" targetSpec=\"\"}}¿Tienes un momentito?{{pageBreak}}{{anim id=\"Smiling\" target=\"actor\" targetSpec=\"\"}}Te iba a decir que{{string value=\"...\"}}{{delay8}}{{anim id=\"EmotEnd\" target=\"actor\" targetSpec=\"\"}}{{delay20}} Eeeh{{string value=\"...\"}}{{delay40}}\n{{anim id=\"QuestionMark\" target=\"actor\" targetSpec=\"\"}}¿Qué es lo que te iba a decir?{{delay20}}\n{{anim id=\"Oops\" target=\"actor\" targetSpec=\"\"}}Pues se me ha olvidado.\nPerdona, ¿eh?",
      "EUfr": "{{anim id=\"Greeting\" target=\"actor\" targetSpec=\"\"}}Dis{{string value=\"...\"}} tu aurais une seconde ?{{pageBreak}}Voilà, je voulais te dire{{string value=\"...\"}} Euh{{string value=\"...\"}}{{delay40}}\n{{anim id=\"QuestionMark\" target=\"actor\" targetSpec=\"\"}}Qu'est-ce que je voulais te dire,\ndéjà ?{{delay20}}{{anim id=\"EmotEnd\" target=\"actor\" targetSpec=\"\"}} Désolé, j'ai oublié{{string value=\"...\"}}",
      "EUit": "{{anim id=\"Greeting\" target=\"actor\" targetSpec=\"\"}}Oh, ehilà! {{delay8}}Hai un secondo?{{pageBreak}}Volevo dirti che, ecco{{string value=\"...\"}} {{delay40}}{{anim id=\"QuestionMark\" target=\"actor\" targetSpec=\"\"}}Cosa volevo\ndirti? {{delay20}}{{anim id=\"EmotEnd\" target=\"actor\" targetSpec=\"\"}}L'ho scordato, mi spiace{{string value=\"...\"}}",
      "EUnl": "{{anim id=\"Greeting\" target=\"actor\" targetSpec=\"\"}}O, hé{{string value=\"...\"}}{{delay20}} Heb je even?{{pageBreak}}{{anim id=\"Smiling\" target=\"actor\" targetSpec=\"\"}}Ik wil je iets vertellen{{string value=\"...\"}}{{anim id=\"EmotEnd\" target=\"actor\" targetSpec=\"\"}}{{delay20}} Eh{{string value=\"...\"}}{{delay40}}\n{{anim id=\"QuestionMark\" target=\"actor\" targetSpec=\"\"}}Weet jij wat ik ging vertellen?{{delay20}}\n{{anim id=\"Oops\" target=\"actor\" targetSpec=\"\"}}Ik ben vergeten wat het was.{{delay20}} Sorry{{string value=\"...\"}}",
      "EUru": "{{anim id=\"Greeting\" target=\"actor\" targetSpec=\"\"}}Слушай{{string value=\"...\"}} У тебя есть секунда?{{pageBreak}}Я хотел тебе сказать{{string value=\"...\"}} ой{{string value=\"...\"}}{{delay40}}\n{{anim id=\"QuestionMark\" target=\"actor\" targetSpec=\"\"}}Что же я хотел тебе сказать?{{delay20}}\n{{anim id=\"Oops\" target=\"actor\" targetSpec=\"\"}}Забыл.{{delay20}} Извини{{string value=\"...\"}}",
      "JPja": "{{anim id=\"Greeting\" target=\"actor\" targetSpec=\"\"}}ちょうど　よかったぁ～{{delay20}}\nちょっと　{{ruby charSpan=\"1\" value=\"き\"}}聞いてくれるぅ？{{pageBreak}}{{string value=\"...\"}}{{anim id=\"QuestionMark\" target=\"actor\" targetSpec=\"\"}}あれぇ？{{delay frames=\"40\"}}\nボク　{{ruby charSpan=\"1\" value=\"なに\"}}何を{{ruby charSpan=\"1\" value=\"はな\"}}話そうと　{{ruby charSpan=\"1\" value=\"おも\"}}思ったんだっけ～？{{delay frames=\"60\"}}\n{{anim id=\"EmotEnd\" target=\"actor\" targetSpec=\"\"}}ごめんねぇ、{{delay20}}わすれちゃったぁ！　{{string value=\"6\"}}{{anim id=\"FaintSmile\" target=\"actor\" targetSpec=\"\"}}",
      "KRko": "{{anim id=\"Greeting\" target=\"actor\" targetSpec=\"\"}}마침 잘 만났다아～{{delay20}}\n잠깐 얘기 좀 들어줄래?{{pageBreak}}{{string value=\"...\"}}{{anim id=\"QuestionMark\" target=\"actor\" targetSpec=\"\"}}어라?{{delay40}}\n내가 무슨 얘기를 하려고 했지이～?{{delay frames=\"60\"}}\n{{anim id=\"EmotEnd\" target=\"actor\" targetSpec=\"\"}}미안! {{delay20}}까먹었어～ {{string value=\"6\"}}!{{anim id=\"FaintSmile\" target=\"actor\" targetSpec=\"\"}}",
      "TWzh": "{{anim id=\"Greeting\" target=\"actor\" targetSpec=\"\"}}太好了！你在這裡～{{delay20}}\n你聽我說～{{pageBreak}}{{string value=\"...\"}}{{anim id=\"QuestionMark\" target=\"actor\" targetSpec=\"\"}}咦？{{delay frames=\"40\"}}\n我是要說什麼來著？{{delay frames=\"60\"}}\n{{anim id=\"EmotEnd\" target=\"actor\" targetSpec=\"\"}}對不起，{{delay20}}想不起來了～！{{string value=\"6\"}}。{{anim id=\"FaintSmile\" target=\"actor\" targetSpec=\"\"}}",
      "USen": "{{anim id=\"Greeting\" target=\"actor\" targetSpec=\"\"}}Oh, hey{{string value=\"...\"}}{{delay20}} You got a sec?{{pageBreak}}{{anim id=\"Smiling\" target=\"actor\" targetSpec=\"\"}}I was gonna tell you{{string value=\"...\"}}{{anim id=\"EmotEnd\" target=\"actor\" targetSpec=\"\"}}{{delay20}} Ummm{{string value=\"...\"}}\n{{delay20}}{{anim id=\"QuestionMark\" target=\"actor\" targetSpec=\"\"}}What was I gonna tell you?{{i10_4}}\n{{anim id=\"Laughing\" target=\"actor\" targetSpec=\"\"}}{{delay20}}I guess I forgot!",
      "USes": "{{anim id=\"Greeting\" target=\"actor\" targetSpec=\"\"}}¿Tendrás un momentito?{{pageBreak}}{{anim id=\"Smiling\" target=\"actor\" targetSpec=\"\"}}Te iba a decir que{{string value=\"...\"}}{{delay8}}{{anim id=\"EmotEnd\" target=\"actor\" targetSpec=\"\"}}{{delay20}} Este{{string value=\"...\"}}{{delay40}}\n{{anim id=\"QuestionMark\" target=\"actor\" targetSpec=\"\"}}¿Qué te iba a decir?{{delay20}}\n{{anim id=\"Oops\" target=\"actor\" targetSpec=\"\"}}Ya no me acuerdo{{string value=\"...\"}}{{delay8}}\nPerdón{{string value=\"...\"}}",
      "USfr": "{{anim id=\"Greeting\" target=\"actor\" targetSpec=\"\"}}Hey{{string value=\"...\"}} tu aurais une seconde?{{pageBreak}}Je voulais te dire{{string value=\"...\"}} Hum{{string value=\"...\"}}{{delay40}}\n{{anim id=\"QuestionMark\" target=\"actor\" targetSpec=\"\"}}Qu'est-ce que je voulais te dire,\ndéjà?{{delay20}}{{anim id=\"EmotEnd\" target=\"actor\" targetSpec=\"\"}} Désolé, j'ai oublié{{string value=\"...\"}}"
    }
  },
  {
    "label": "002",
    "attribute": "0x0000000100000000",
    "locale": {
      "CNzh": "{{anim id=\"FaintSmile\" target=\"actor\" targetSpec=\"\"}}我跟你说哦{{string value=\"...\"}}{{delay40}}\n{{anim id=\"Thinking\" target=\"actor\" targetSpec=\"\"}}{{string value=\"...\"}}那个～咦？{{i10_4}}\n{{anim id=\"Blushing\" target=\"actor\" targetSpec=\"\"}}诶嘿嘿，我把想说的话给忘了呢～{{string value=\"6\"}}。",
      "EUde": "{{anim id=\"FaintSmile\" target=\"actor\" targetSpec=\"\"}}Hey, {{delay8}}also ich...{{delay40}}{{anim id=\"Thinking\" target=\"actor\" targetSpec=\"\"}} Hmmm...{{delay20}} Irgendwas\nwollte ich dir sagen.{{i10_4}} {{anim id=\"Blushing\" target=\"actor\" targetSpec=\"\"}}Na, wird schon\nnicht so wichtig gewesen sein...",
      "EUen": "{{anim id=\"FaintSmile\" target=\"actor\" targetSpec=\"\"}}Hey, so{{string value=\"...\"}}{{delay40}}{{anim id=\"Thinking\" target=\"actor\" targetSpec=\"\"}} Umm{{string value=\"...\"}}{{delay20}}I know I had\nsomething to say{{string value=\"...\"}}{{delay frames=\"40\"}}buuuuuut{{string value=\"...\"}}{{delay frames=\"40\"}}\nI forget what it was!{{anim id=\"EmotEnd\" target=\"actor\" targetSpec=\"\"}}",
      "EUes": "{{anim id=\"FaintSmile\" target=\"actor\" targetSpec=\"\"}}Oye, mira{{string value=\"...\"}}{{delay8}} {{anim id=\"Thinking\" target=\"actor\" targetSpec=\"\"}}Eeeh{{string value=\"...\"}}{{delay20}} El caso es que\nquería decirte algo{{string value=\"...\"}}{{delay8}} {{anim id=\"ShyBoy\" target=\"actor\" targetSpec=\"\"}}Pero resulta\nque me he quedado en blanco{{string value=\"...\"}}",
      "EUfr": "{{anim id=\"Aha\" target=\"actor\" targetSpec=\"\"}}Tu devineras jamais !{{delay40}}{{anim id=\"Thinking\" target=\"actor\" targetSpec=\"\"}} Euh{{string value=\"...\"}} Eh ben,\nen fait, euh{{string value=\"...\"}}{{delay40}}{{anim id=\"Blushing\" target=\"actor\" targetSpec=\"\"}} Moi non plus{{string value=\"...\"}}",
      "EUit": "Ehilà, dunque{{string value=\"...\"}} {{anim id=\"Thinking\" target=\"actor\" targetSpec=\"\"}}So solo che volevo\ndirti qualcosa, ma cosa? {{delay20}}{{anim id=\"Blushing\" target=\"actor\" targetSpec=\"\"}}Chi lo sa\npiù! {{delay8}}È un mistero da fumetto, ora{{string value=\"...\"}}",
      "EUnl": "{{anim id=\"FaintSmile\" target=\"actor\" targetSpec=\"\"}}Hé, moet je horen{{string value=\"...\"}}{{delay40}}{{anim id=\"Thinking\" target=\"actor\" targetSpec=\"\"}} Hmm{{string value=\"...\"}}{{delay20}}\nIk wilde je iets vertellen{{string value=\"...\"}} {{anim id=\"ShyBoy\" target=\"actor\" targetSpec=\"\"}}maar nu\nben ik helemaal kwijt wat het was{{string value=\"...\"}}",
      "EUru": "{{anim id=\"FaintSmile\" target=\"actor\" targetSpec=\"\"}}Послушай{{string value=\"...\"}}{{delay40}} {{anim id=\"Thinking\" target=\"actor\" targetSpec=\"\"}}Гм{{string value=\"...\"}}{{delay20}}\nЯ знаю, что хотел что-то сказать.{{i10_4}}\n{{anim id=\"ShyBoy\" target=\"actor\" targetSpec=\"\"}}Но кто его знает что{{string value=\"...\"}}",
      "JPja": "{{anim id=\"FaintSmile\" target=\"actor\" targetSpec=\"\"}}あのねぇ{{string value=\"...\"}}{{delay40}}\n{{anim id=\"Thinking\" target=\"actor\" targetSpec=\"\"}}{{string value=\"...\"}}え～っと、あれぇ？{{i10_4}}\n{{anim id=\"Blushing\" target=\"actor\" targetSpec=\"\"}}{{ruby charSpan=\"1\" value=\"はな\"}}話したいこと　わすれちゃったぁ～、{{string value=\"6\"}}",
      "KRko": "{{anim id=\"FaintSmile\" target=\"actor\" targetSpec=\"\"}}있지{{string value=\"...\"}}{{delay40}}\n{{anim id=\"Thinking\" target=\"actor\" targetSpec=\"\"}}{{string value=\"...\"}}그니까 그게～ 어라?{{i10_4}}\n{{anim id=\"Blushing\" target=\"actor\" targetSpec=\"\"}}무슨 말 할지 까먹었다아～ {{string value=\"6\"}}!",
      "TWzh": "{{anim id=\"FaintSmile\" target=\"actor\" targetSpec=\"\"}}就是啊{{string value=\"...\"}}{{delay40}}\n{{anim id=\"Thinking\" target=\"actor\" targetSpec=\"\"}}{{string value=\"...\"}}嗯～奇怪？{{i10_4}}\n{{anim id=\"Blushing\" target=\"actor\" targetSpec=\"\"}}我忘記我想要說什麼了～{{string value=\"6\"}}。",
      "USen": "{{anim id=\"FaintSmile\" target=\"actor\" targetSpec=\"\"}}Hey, so{{string value=\"...\"}}{{delay40}}{{anim id=\"Thinking\" target=\"actor\" targetSpec=\"\"}} Umm{{string value=\"...\"}}{{delay20}}I know I had\nsomething to say{{string value=\"...\"}}{{delay frames=\"40\"}}buuuuuut{{string value=\"...\"}}{{delay frames=\"40\"}}\nI forget what it was!{{anim id=\"EmotEnd\" target=\"actor\" targetSpec=\"\"}}",
      "USes": "{{anim id=\"FaintSmile\" target=\"actor\" targetSpec=\"\"}}Oye{{string value=\"...\"}}{{delay8}} {{anim id=\"Thinking\" target=\"actor\" targetSpec=\"\"}}Eeeh{{string value=\"...\"}}{{delay20}} Te iba a decir algo{{string value=\"...\"}}\n{{anim id=\"ShyBoy\" target=\"actor\" targetSpec=\"\"}}Pero pensé en otra cosa y ya se\nme olvidó lo que te iba a decir{{string value=\"...\"}}",
      "USfr": "{{anim id=\"Aha\" target=\"actor\" targetSpec=\"\"}}Tu devineras jamais!{{delay40}}{{anim id=\"Thinking\" target=\"actor\" targetSpec=\"\"}} Euh{{string value=\"...\"}} Eh bien,\nen fait, hum{{string value=\"...\"}}{{delay40}}{{anim id=\"Blushing\" target=\"actor\" targetSpec=\"\"}} Moi non plus{{string value=\"...\"}}"
    }
  },
  {
    "label": "003",
    "attribute": "0x0000000100000000",
    "locale": {
      "CNzh": "{{anim id=\"Thinking\" target=\"actor\" targetSpec=\"\"}}我到底在为{{delay20}}\n什么事烦恼呢{{string value=\"...\"}}{{delay frames=\"80\"}}\n{{anim id=\"ShyBoy\" target=\"actor\" targetSpec=\"\"}}嗯？{{delay20}}想不起来了呢～{{string value=\"6\"}}。",
      "EUde": "{{anim id=\"Thinking\" target=\"actor\" targetSpec=\"\"}}Da war was, das ich dir sagen wollte,{{delay8}}\naber...{{delay20}} Jetzt ist es weg.{{delay20}} {{anim id=\"ShyBoy\" target=\"actor\" targetSpec=\"\"}}Menno,{{delay8}} wieso\nkann ich mir einfach nix merken?",
      "EUen": "{{anim id=\"Thinking\" target=\"actor\" targetSpec=\"\"}}I had something on my mind,{{delay8}} but{{string value=\"...\"}}{{delay frames=\"40\"}}\n{{anim id=\"OhGeez\" target=\"actor\" targetSpec=\"\"}}I guess it slipped off!",
      "EUes": "{{anim id=\"Thinking\" target=\"actor\" targetSpec=\"\"}}Huy, quería decirte algo, pero{{string value=\"...\"}}{{delay20}}\nQué raro.{{delay20}} {{anim id=\"ShyBoy\" target=\"actor\" targetSpec=\"\"}}Se me fue.{{delay20}}\nY se me fue bien lejos{{string value=\"...\"}}",
      "EUfr": "{{anim id=\"Thinking\" target=\"actor\" targetSpec=\"\"}}Il y avait un truc qui me tracassait{{string value=\"...\"}}{{delay20}}\nC'est bizarre.{{delay frames=\"80\"}}{{anim id=\"ShyBoy\" target=\"actor\" targetSpec=\"\"}} J'arrive pas à me\nsouvenir ce que c'était{{string value=\"...\"}}",
      "EUit": "{{anim id=\"Thinking\" target=\"actor\" targetSpec=\"\"}}Uhm, volevo dirti qualcosa, ma{{string value=\"...\"}}\n{{delay20}}Boh, è svanito. {{delay20}}Eppure non mi\nsento la testa più leggera{{string value=\"...\"}}",
      "EUnl": "{{anim id=\"Thinking\" target=\"actor\" targetSpec=\"\"}}Ik dacht ergens over na, maar{{string value=\"...\"}}{{delay20}} ik weet niet meer waarover.{{delay20}} {{anim id=\"ShyBoy\" target=\"actor\" targetSpec=\"\"}}En ik geloof niet dat ik het al had opgelost.",
      "EUru": "{{anim id=\"Thinking\" target=\"actor\" targetSpec=\"\"}}О чем я думал?..{{delay20}} Странно.{{delay20}}\n{{anim id=\"ShyBoy\" target=\"actor\" targetSpec=\"\"}}Теперь не знаю, но мне кажется,\nчто я не додумал до конца.",
      "JPja": "{{anim id=\"Thinking\" target=\"actor\" targetSpec=\"\"}}ボク　なんのことで{{delay20}}\nなやんでたんだっけぇ～{{string value=\"...\"}}{{delay frames=\"80\"}}\n{{anim id=\"ShyBoy\" target=\"actor\" targetSpec=\"\"}}あれぇ？　{{delay20}}{{ruby charSpan=\"1\" value=\"おも\"}}思い{{ruby charSpan=\"1\" value=\"だ\"}}出せないやぁ～、{{string value=\"6\"}}",
      "KRko": "{{anim id=\"Thinking\" target=\"actor\" targetSpec=\"\"}}내가 뭐 때문에{{delay20}}\n고민하고 있었더라아{{string value=\"...\"}}{{delay frames=\"80\"}}\n{{anim id=\"ShyBoy\" target=\"actor\" targetSpec=\"\"}}어라? {{delay20}}기억이 안 나～ {{string value=\"6\"}}!",
      "TWzh": "{{anim id=\"Thinking\" target=\"actor\" targetSpec=\"\"}}我剛才{{delay20}}\n是在煩惱什麼事呢{{string value=\"...\"}}{{delay frames=\"80\"}}\n{{anim id=\"ShyBoy\" target=\"actor\" targetSpec=\"\"}}咦？{{delay20}}我想不起來了～{{string value=\"6\"}}。",
      "USen": "{{anim id=\"Thinking\" target=\"actor\" targetSpec=\"\"}}I had something on my mind,{{delay8}} but{{string value=\"...\"}}{{delay frames=\"40\"}}\n{{anim id=\"OhGeez\" target=\"actor\" targetSpec=\"\"}}I guess it slipped off!",
      "USes": "{{anim id=\"Thinking\" target=\"actor\" targetSpec=\"\"}}Uy, quería decirte algo, pero{{string value=\"...\"}}{{delay20}}\nQué raro.{{delay20}} {{anim id=\"ShyBoy\" target=\"actor\" targetSpec=\"\"}}Se me fue.{{delay8}}\nY se me fue bien lejos{{string value=\"...\"}}",
      "USfr": "{{anim id=\"Thinking\" target=\"actor\" targetSpec=\"\"}}Il y avait un truc qui me tracassait{{string value=\"...\"}}{{delay20}}\nC'est bizarre.{{delay frames=\"80\"}}{{anim id=\"ShyBoy\" target=\"actor\" targetSpec=\"\"}} J'arrive pas à me\nsouvenir ce que c'était{{string value=\"...\"}}"
    }
  },
  {
    "label": "004",
    "attribute": "0x0000000100000000",
    "locale": {
      "CNzh": "{{anim id=\"Thinking\" target=\"actor\" targetSpec=\"\"}}{{string value=\"...\"}}那个～{{delay frames=\"80\"}}\n看到{{anim id=\"WrySmile\" target=\"actor\" targetSpec=\"\"}}{{string value=\"4\"}}你的脸以后，{{delay20}}\n就忘掉了我在烦恼什么了呢～{{string value=\"6\"}}。",
      "EUde": "{{anim id=\"Aha\" target=\"actor\" targetSpec=\"\"}}Ups!{{delay frames=\"80\"}}{{anim id=\"WrySmile\" target=\"actor\" targetSpec=\"\"}} Jetzt hab ich vor lauter Freude,\ndich zu sehen,{{delay8}} doch glatt vergessen,\nwas ich eigentlich von dir wollte!",
      "EUen": "{{anim id=\"Aha\" target=\"actor\" targetSpec=\"\"}}Oh!{{delay20}} Hey there! I was so happy to\nsee you, I forgot why I wanted to\nsee you to begin with!{{delay20}}{{anim id=\"EmotEnd\" target=\"actor\" targetSpec=\"\"}}",
      "EUes": "{{anim id=\"Aha\" target=\"actor\" targetSpec=\"\"}}¡Ah!{{delay20}} {{anim id=\"WrySmile\" target=\"actor\" targetSpec=\"\"}}Me he puesto tan contento\nde verte que ahora no me acuerdo\npor qué quería verte{{string value=\"...\"}}{{delay20}} Qué raro{{string value=\"...\"}}",
      "EUfr": "{{anim id=\"Thinking\" target=\"actor\" targetSpec=\"\"}}Euh{{string value=\"...\"}}{{delay frames=\"80\"}}{{anim id=\"WrySmile\" target=\"actor\" targetSpec=\"\"}} J'ai été tellement surpris de\ntomber sur toi que j'ai oublié\npourquoi je voulais te voir.",
      "EUit": "{{anim id=\"Aha\" target=\"actor\" targetSpec=\"\"}}Oh{{string value=\"...\"}}! {{delay20}}{{anim id=\"WrySmile\" target=\"actor\" targetSpec=\"\"}}Per la sorpresa di vederti, ho\nscordato di cosa volevo parlarti!{{delay20}}\nCos'è, un tuo superpotere?",
      "EUnl": "{{anim id=\"Aha\" target=\"actor\" targetSpec=\"\"}}O!{{delay frames=\"80\"}} {{anim id=\"WrySmile\" target=\"actor\" targetSpec=\"\"}}Ik ben zo blij je te zien dat ik\nhelemaal ben vergeten waar ik je\nover wilde spreken.{{delay20}} Oeps!",
      "EUru": "{{anim id=\"Aha\" target=\"actor\" targetSpec=\"\"}}О{{string value=\"...\"}}{{delay frames=\"80\"}} {{anim id=\"WrySmile\" target=\"actor\" targetSpec=\"\"}}Я так обрадовался нашей\nвстрече, что совсем забыл, зачем\nя тебя искал.{{delay20}} Эх, извини!",
      "JPja": "{{anim id=\"Thinking\" target=\"actor\" targetSpec=\"\"}}{{string value=\"...\"}}え～っとぉ{{delay frames=\"80\"}}\n{{anim id=\"WrySmile\" target=\"actor\" targetSpec=\"\"}}{{string value=\"4\"}}の{{ruby charSpan=\"1\" value=\"かお\"}}顔を{{ruby charSpan=\"1\" value=\"み\"}}見たら、{{delay20}}\nなやんでたコト　わすれちゃったぁ～、{{string value=\"6\"}}",
      "KRko": "{{anim id=\"Thinking\" target=\"actor\" targetSpec=\"\"}}{{string value=\"...\"}}어～ 뭐더라～{{delay frames=\"80\"}}\n{{anim id=\"WrySmile\" target=\"actor\" targetSpec=\"\"}}{{string value=\"4\"}} 얼굴을 보니까{{delay20}}\n무슨 고민을 했는지 까먹었다아～ {{string value=\"6\"}}!",
      "TWzh": "{{anim id=\"Thinking\" target=\"actor\" targetSpec=\"\"}}{{string value=\"...\"}}我想想～{{delay frames=\"80\"}}\n{{anim id=\"WrySmile\" target=\"actor\" targetSpec=\"\"}}一看到{{string value=\"4\"}}，{{delay20}}\n我就忘記剛才煩惱的事了～{{string value=\"6\"}}。",
      "USen": "{{anim id=\"Aha\" target=\"actor\" targetSpec=\"\"}}Oh!{{delay20}} Hey there! I was so happy to\nsee you, I forgot why I wanted to\nsee you to begin with!{{delay20}}{{anim id=\"EmotEnd\" target=\"actor\" targetSpec=\"\"}}",
      "USes": "{{anim id=\"Aha\" target=\"actor\" targetSpec=\"\"}}¡Ah!{{delay20}} {{anim id=\"WrySmile\" target=\"actor\" targetSpec=\"\"}}Me puse tan contento de verte,\nque ahora no me acuerdo por qué quería verte{{string value=\"...\"}}{{delay20}} Qué raro{{string value=\"...\"}}",
      "USfr": "{{anim id=\"Thinking\" target=\"actor\" targetSpec=\"\"}}Euh{{string value=\"...\"}}{{delay frames=\"80\"}}{{anim id=\"WrySmile\" target=\"actor\" targetSpec=\"\"}} J'ai été tellement surpris de\ntomber sur toi que j'ai oublié\npourquoi je voulais te voir."
    }
  }
]