﻿[
  {
    "label": "001",
    "attribute": "0x0000000000000000",
    "text": "{{anim id=\"Smiling\" target=\"actor\" targetSpec=\"\"}}哈罗～{{string value=\"4\"}}～！{{delay frames=\"40\"}}\n你先什么也不要问～{{delay20}}\n总之跟我来就是啦～{{string value=\"6\"}}。"
  },
  {
    "label": "002",
    "attribute": "0x0000000000000000",
    "text": "{{anim id=\"Greeting\" target=\"actor\" targetSpec=\"\"}}嘿～{{delay20}}{{string value=\"4\"}}～{{delay frames=\"40\"}}\n我守在这里就是为了等你～！{{delay frames=\"40\"}}\n{{anim id=\"EmotEnd\" target=\"actor\" targetSpec=\"\"}}好了～！{{delay20}}快和我走吧～{{string value=\"6\"}}。"
  },
  {
    "label": "003",
    "attribute": "0x0000000000000000",
    "text": "{{anim id=\"FaintSmile\" target=\"actor\" targetSpec=\"\"}}嘿～{{delay20}}{{string value=\"4\"}}！{{delay frames=\"40\"}}\n你现在可以跟我去一个地方吗～？{{delay frames=\"40\"}}\n{{anim id=\"Grin\" target=\"actor\" targetSpec=\"\"}}理由保密哦～{{string value=\"6\"}}。"
  },
  {
    "label": "005",
    "attribute": "0x0000000000000600",
    "text": "{{i10_12}}{{i10_6}}{{size value=\"150\"}}Happy～{{delay8}}Birthday～～！！{{size value=\"100\"}}{{endTag}}"
  },
  {
    "label": "006",
    "attribute": "0x0000000000000000",
    "text": "{{anim id=\"Smiling\" target=\"actor\" targetSpec=\"\"}}{{string value=\"4\"}}，{{delay20}}\n大家在这里等着，{{delay20}}\n就是为了给你庆祝生日啊～{{pageBreak}}{{anim id=\"HappyDance\" target=\"actor\" targetSpec=\"\"}}那么～{{delay20}}\n你站到蛋糕前面，然后按{{color id=\"1\"}}{{color id=\"65535\"}}，{{delay20}}\n“呼”地一下，把蜡烛吹灭哦～{{string value=\"6\"}}。"
  },
  {
    "label": "007",
    "attribute": "0x0000000000000000",
    "text": "{{anim id=\"Smiling\" target=\"actor\" targetSpec=\"\"}}{{string value=\"4\"}}～\n大家想一起{{delay20}}\n为你庆祝生日～{{pageBreak}}{{anim id=\"ShyBoy\" target=\"actor\" targetSpec=\"\"}}因为今年不是闰年，{{delay8}}\n所以就只好提前给你庆祝啦～{{delay20}}\n{{anim id=\"Nodding\" target=\"actor\" targetSpec=\"\"}}希望你能度过一个开心的生日～{{pageBreak}}{{anim id=\"HappyDance\" target=\"actor\" targetSpec=\"\"}}那么～{{delay20}}\n你就站到蛋糕前面，然后按{{color id=\"1\"}}{{color id=\"65535\"}}，{{delay20}}\n“呼”地一下，把蜡烛吹灭哦～{{string value=\"6\"}}。"
  },
  {
    "label": "008",
    "attribute": "0x0000000000000000",
    "text": "{{anim id=\"Smiling\" target=\"actor\" targetSpec=\"\"}}{{string value=\"4\"}}，{{delay20}}\n今天是你的生日吧～？{{delay frames=\"40\"}}\n大家都在这里等你，{{delay20}}想给你庆生呢～{{pageBreak}}{{anim id=\"Nodding\" target=\"actor\" targetSpec=\"\"}}今年是闰年，{{delay20}}\n所以可以正式地{{delay20}}\n{{anim id=\"Greeting\" target=\"actor\" targetSpec=\"\"}}在2月29日为你庆祝啦～！{{pageBreak}}{{anim id=\"HappyDance\" target=\"actor\" targetSpec=\"\"}}那么～{{delay20}}\n你就站到蛋糕前面，然后按{{color id=\"1\"}}{{color id=\"65535\"}}，{{delay20}}\n“呼”地一下，把蜡烛吹灭哦～{{string value=\"6\"}}。"
  },
  {
    "label": "009",
    "attribute": "0x0000000000000000",
    "text": "{{anim id=\"Surprised\" target=\"actor\" targetSpec=\"\"}}{{string value=\"4\"}}？！{{delay frames=\"40\"}}\n{{anim id=\"Frantic\" target=\"actor\" targetSpec=\"\"}}难道，你这就要回去了吗～？{{delay frames=\"40\"}}\n可是蛋糕都准备好了啊～！{{string value=\"6\"}}。"
  },
  {
    "label": "010",
    "attribute": "0x0000000000000000",
    "text": "{{anim id=\"Frantic\" target=\"actor\" targetSpec=\"\"}}{{string value=\"4\"}}～{{delay20}}\n你别走啊～！{{delay frames=\"40\"}}\n蜡烛就要融化了～！{{string value=\"6\"}}。"
  },
  {
    "label": "011",
    "attribute": "0x0000000000000000",
    "text": "{{anim id=\"Eh\" target=\"actor\" targetSpec=\"\"}}咦～？{{delay frames=\"40\"}}你要去哪里啊～？{{delay frames=\"40\"}}\n{{anim id=\"Confused\" target=\"actor\" targetSpec=\"\"}}{{string value=\"4\"}}，{{delay20}}\n你至少吹一下蜡烛吧～{{string value=\"6\"}}。"
  },
  {
    "label": "013",
    "attribute": "0x0000000000000000",
    "text": "{{anim id=\"Clapping\" target=\"actor\" targetSpec=\"\"}}{{string value=\"4\"}}，{{delay20}}\n生日快乐～！{{delay frames=\"40\"}}\n{{anim id=\"Greeting\" target=\"actor\" targetSpec=\"\"}}全都吹灭了呢～{{pageBreak}}{{anim id=\"Pardon\" target=\"actor\" targetSpec=\"\"}}那接下来～{{delay8}}\n就是令人期待的礼物时间啦～！{{anim id=\"FaintSmile\" target=\"actor\" targetSpec=\"\"}}"
  },
  {
    "label": "014",
    "attribute": "0x0000000000000000",
    "text": "{{anim id=\"FaintSmile\" target=\"actor\" targetSpec=\"\"}}这是大家一起挑的～{{delay frames=\"40\"}}\n{{string value=\"4\"}}，{{delay20}}\n希望你会喜欢～"
  },
  {
    "label": "017",
    "attribute": "0x0000000000000000",
    "text": "{{anim id=\"Smiling\" target=\"actor\" targetSpec=\"\"}}诶嘿嘿～{{delay frames=\"40\"}}\n给～{{delay20}}请收下～"
  },
  {
    "label": "018",
    "attribute": "0x0000000000000000",
    "text": "{{anim id=\"FaintSmile\" target=\"actor\" targetSpec=\"\"}}礼物的内容暂时保密～{{delay frames=\"40\"}}\n等你回家了慢慢拆吧～{{string value=\"6\"}}。{{pageBreak}}{{string value=\"...\"}}{{anim id=\"Hesitate\" target=\"actor\" targetSpec=\"\"}}另外，{{delay20}}其实～{{delay frames=\"40\"}}\n今天还准备了{{delay8}}\n另一个惊喜哦～{{pageBreak}}{{anim id=\"EmotEnd\" target=\"actor\" targetSpec=\"\"}}我马上去准备，{{delay20}}\n{{anim id=\"Hello\" target=\"actor\" targetSpec=\"\"}}你稍等一下～！"
  },
  {
    "label": "019",
    "attribute": "0x0000000000000000",
    "text": "{{anim id=\"Shocked\" target=\"actor\" targetSpec=\"\"}}咦～？{{delay20}}\n你手里东西太多了，{{delay8}}\n看来礼物是拿不下了呢～{{pageBreak}}{{anim id=\"Nodding\" target=\"actor\" targetSpec=\"\"}}那么这个礼物，{{delay20}}\n等会儿我给你寄到家里去吧～{{string value=\"6\"}}。{{pageBreak}}{{string value=\"...\"}}{{anim id=\"Hesitate\" target=\"actor\" targetSpec=\"\"}}另外，{{delay20}}其实～{{delay frames=\"40\"}}\n今天还准备了{{delay8}}\n另外一个惊喜哦～{{pageBreak}}{{anim id=\"EmotEnd\" target=\"actor\" targetSpec=\"\"}}我马上去准备，{{delay20}}\n{{anim id=\"Hello\" target=\"actor\" targetSpec=\"\"}}你稍等一下～！"
  },
  {
    "label": "020",
    "attribute": "0x0000000000000000",
    "text": "{{anim id=\"BigSmile\" target=\"actor\" targetSpec=\"\"}}将将～！{{delay frames=\"40\"}}你看上面～{{delay frames=\"40\"}}\n{{anim id=\"EmotEnd\" target=\"actor\" targetSpec=\"\"}}是不是挂着一个皮纳塔～？{{delay frames=\"40\"}}\n{{anim id=\"SmugFace\" target=\"actor\" targetSpec=\"\"}}那个，{{delay20}}是我们亲手制作的哦～"
  },
  {
    "label": "021",
    "attribute": "0x0000000000000000",
    "text": "{{anim id=\"Blushing\" target=\"actor\" targetSpec=\"\"}}我觉得我们做得还挺不错的～{{i10_4}}\n{{anim id=\"FaintSmile\" target=\"actor\" targetSpec=\"\"}}里面装着我们为你准备的礼物哦～{{delay20}}\n{{anim id=\"Greeting\" target=\"actor\" targetSpec=\"\"}}用这根棒子，{{delay8}}来打破它看看吧～"
  },
  {
    "label": "022",
    "attribute": "0x0000000000000000",
    "text": "{{anim id=\"Smiling\" target=\"actor\" targetSpec=\"\"}}你准备要打破皮纳塔的时候，{{delay20}}\n要先来{{delay8}}和我说一下哦～{{delay frames=\"40\"}}\n你自己决定{{anim id=\"Greeting\" target=\"actor\" targetSpec=\"\"}}{{delay8}}时机就好～！{{string value=\"6\"}}。"
  },
  {
    "label": "023",
    "attribute": "0x0000000000000000",
    "text": "{{anim id=\"Hello\" target=\"actor\" targetSpec=\"\"}}你准备好了吗～？{{delay frames=\"40\"}}\n那么～{{delay20}}{{anim id=\"BigSmile\" target=\"actor\" targetSpec=\"\"}}现在就开始吧～！{{delay8}}{{anim id=\"FaintSmile\" target=\"actor\" targetSpec=\"\"}}{{i10_4}}\n首先，{{delay20}}站到皮纳塔的下方{{string value=\"...\"}}"
  },
  {
    "label": "024",
    "attribute": "0x0000000000000000",
    "text": "{{anim id=\"Explain\" target=\"actor\" targetSpec=\"\"}}当我喊出“开始！”以后，{{delay20}}\n{{string value=\"4\"}}，{{delay8}}\n你就不停连续按{{color id=\"1\"}}{{color id=\"65535\"}}键～！{{pageBreak}}{{anim id=\"Smiling\" target=\"actor\" targetSpec=\"\"}}皮纳塔可不是{{delay8}}\n随便打几下就会破的哦～{{delay20}}\n要快速{{delay20}}多次击打才行～{{pageBreak}}{{anim id=\"Serious\" target=\"actor\" targetSpec=\"\"}}那么，你准备好了吗～？{{delay frames=\"40\"}}\n预备{{string value=\"...\"}}{{anim id=\"Cheering\" target=\"actor\" targetSpec=\"\"}}{{delay frames=\"40\"}}开始！{{delay8}}{{anim id=\"FaintSmile\" target=\"actor\" targetSpec=\"\"}}"
  },
  {
    "label": "025",
    "attribute": "0x0000000000000000",
    "text": "{{anim id=\"Clapping\" target=\"actor\" targetSpec=\"\"}}哇～！{{delay frames=\"40\"}}\n你成功了呢～！{{pageBreak}}{{anim id=\"HappyDance\" target=\"actor\" targetSpec=\"\"}}皮纳塔里装的就是{{delay20}}\n{{color id=\"1\"}}生日纸杯蛋糕{{color id=\"65535\"}}～{{string value=\"6\"}}。"
  },
  {
    "label": "026",
    "attribute": "0x0000000000000000",
    "text": "{{anim id=\"Clapping\" target=\"actor\" targetSpec=\"\"}}不愧是{{string value=\"4\"}}！{{delay frames=\"40\"}}\n打皮纳塔也很厉害呢～{{pageBreak}}{{anim id=\"HappyDance\" target=\"actor\" targetSpec=\"\"}}而里面令人期待的礼物就是{{delay20}}\n{{color id=\"1\"}}生日纸杯蛋糕{{color id=\"65535\"}}～{{string value=\"6\"}}。"
  },
  {
    "label": "027",
    "attribute": "0x0000000000000000",
    "text": "{{anim id=\"Shocked\" target=\"actor\" targetSpec=\"\"}}{{string value=\"4\"}}，你好厉害啊～！{{delay frames=\"40\"}}\n{{anim id=\"Clapping\" target=\"actor\" targetSpec=\"\"}}那么快就把它打破了呢～{{delay20}}\n让我太惊讶了～{{pageBreak}}{{anim id=\"HappyDance\" target=\"actor\" targetSpec=\"\"}}这只皮纳塔里，{{delay20}}\n装得满满的都是{{delay8}}\n{{color id=\"1\"}}生日纸杯蛋糕{{color id=\"65535\"}}哦～{{string value=\"6\"}}。"
  },
  {
    "label": "028",
    "attribute": "0x0000000000000000",
    "text": "{{anim id=\"FaintSmile\" target=\"actor\" targetSpec=\"\"}}给～{{delay20}}\n这就是{{delay20}}我们为你准备的另一个礼物，{{delay20}}\n{{anim id=\"Greeting\" target=\"actor\" targetSpec=\"\"}}{{color id=\"1\"}}生日纸杯蛋糕{{color id=\"65535\"}}～！"
  },
  {
    "label": "029",
    "attribute": "0x0000000000000000",
    "text": "{{anim id=\"ShyBoy\" target=\"actor\" targetSpec=\"\"}}我们准备了很多纸杯蛋糕，{{delay20}}\n{{string value=\"4\"}}，{{delay20}}\n你一个人可能会吃不完呢～{{pageBreak}}{{anim id=\"Smiling\" target=\"actor\" targetSpec=\"\"}}虽然我也希望剩下的都能归我，{{delay20}}\n但是我想其他人分到你的蛋糕{{delay8}}\n一定也会很高兴的～！"
  },
  {
    "label": "030",
    "attribute": "0x0000000000000000",
    "text": "{{anim id=\"Eh\" target=\"actor\" targetSpec=\"\"}}说来，{{delay20}}你是不是带的东西太多，{{delay20}}\n拿不下了来着{{string value=\"...\"}}{{pageBreak}}{{anim id=\"Smiling\" target=\"actor\" targetSpec=\"\"}}那么，{{delay20}}这个我也会一起帮你寄到家里的，{{delay20}}\n你到家了记得查收哦～！{{delay frames=\"40\"}}\n还有，蛋糕要趁新鲜的吃哟～！"
  },
  {
    "label": "031",
    "attribute": "0x0000000000000000",
    "text": "{{string value=\"...\"}}{{anim id=\"QuestionMark\" target=\"actor\" targetSpec=\"\"}}嗯？{{delay frames=\"40\"}}\n你好像带了太多东西，{{delay20}}\n拿不下这些了呢～{{pageBreak}}{{anim id=\"Smiling\" target=\"actor\" targetSpec=\"\"}}那么，{{delay20}}这些蛋糕{{delay20}}\n我会趁着新鲜，{{delay20}}\n马上给你寄到家里去的～"
  },
  {
    "label": "032",
    "attribute": "0x0000000000000000",
    "text": "{{string value=\"...\"}}{{anim id=\"Pardon\" target=\"actor\" targetSpec=\"\"}}怎么样？{{delay frames=\"40\"}}这个生日你过得开心吗～？{{delay frames=\"40\"}}\n{{anim id=\"Hesitate\" target=\"actor\" targetSpec=\"\"}}这些都是大家用心为你准备的，{{delay20}}\n就是希望能让你高兴～！{{pageBreak}}{{anim id=\"EmotEnd\" target=\"actor\" targetSpec=\"\"}}那么，{{delay8}}接下来，{{delay20}}\n{{anim id=\"Greeting\" target=\"actor\" targetSpec=\"\"}}请继续尽情地享受吧～{{string value=\"6\"}}。"
  },
  {
    "label": "033",
    "attribute": "0x0000000000000000",
    "text": "{{anim id=\"FaintSmile\" target=\"actor\" targetSpec=\"\"}}啊～{{delay20}}你要回去了吗～？{{delay frames=\"40\"}}\n今天非常的开心呢～{{delay frames=\"40\"}}\n明年{{anim id=\"BigSmile\" target=\"actor\" targetSpec=\"\"}}也办一个生日会吧！{{string value=\"6\"}}。{{delay8}}{{anim id=\"FaintSmile\" target=\"actor\" targetSpec=\"\"}}"
  },
  {
    "label": "035",
    "attribute": "0x0000000000000000",
    "text": "{{anim id=\"Confused\" target=\"actor\" targetSpec=\"\"}}{{string value=\"4\"}}～！{{delay frames=\"40\"}}\n这个皮纳塔可是我们特意准备的，{{delay20}}\n你快来试试{{delay8}}打破它看看吧！{{string value=\"6\"}}。"
  },
  {
    "label": "036",
    "attribute": "0x0000000000000000",
    "text": "{{anim id=\"Eh\" target=\"actor\" targetSpec=\"\"}}咦？{{delay frames=\"40\"}}{{string value=\"4\"}}？！{{delay frames=\"40\"}}\n{{anim id=\"Negative\" target=\"actor\" targetSpec=\"\"}}你还没有打破皮纳塔吗～{{delay frames=\"40\"}}\n{{anim id=\"Serious\" target=\"actor\" targetSpec=\"\"}}你就别吊大家胃口了，{{delay8}}快开始吧～{{string value=\"6\"}}。"
  },
  {
    "label": "037",
    "attribute": "0x0000000000000000",
    "text": "{{anim id=\"Shocked\" target=\"actor\" targetSpec=\"\"}}等一下～！{{string value=\"4\"}}？！{{delay frames=\"40\"}}\n{{anim id=\"Frantic\" target=\"actor\" targetSpec=\"\"}}你都还没有打破皮纳塔，{{delay20}}\n现在还不能回去哦～{{string value=\"6\"}}。"
  },
  {
    "label": "100",
    "attribute": "0x0000000000000000",
    "text": "嘿～{{delay20}}{{string value=\"4\"}}！{{delay frames=\"40\"}}\n{{anim id=\"Confused\" target=\"actor\" targetSpec=\"\"}}快按{{color id=\"1\"}}{{color id=\"65535\"}}吹灭蜡烛，{{delay20}}\n不然蜡烛就要融化了～！{{string value=\"6\"}}。"
  },
  {
    "label": "101",
    "attribute": "0x0000000000000000",
    "text": "{{anim id=\"Hesitate\" target=\"actor\" targetSpec=\"\"}}快点～快点～！{{delay frames=\"40\"}}\n{{anim id=\"EmotEnd\" target=\"actor\" targetSpec=\"\"}}按{{color id=\"1\"}}{{color id=\"65535\"}}吹灭蛋糕上的蜡烛～！{{delay frames=\"40\"}}\n{{anim id=\"Greeting\" target=\"actor\" targetSpec=\"\"}}大家都等着呢～{{string value=\"6\"}}。"
  },
  {
    "label": "102",
    "attribute": "0x0000000000000000",
    "text": "{{anim id=\"Serious\" target=\"actor\" targetSpec=\"\"}}好啦～{{delay20}}快按{{color id=\"1\"}}{{color id=\"65535\"}}一口气吹灭蜡烛吧～{{delay frames=\"40\"}}\n{{anim id=\"EmotEnd\" target=\"actor\" targetSpec=\"\"}}吹灭生日蛋糕上的蜡烛，{{delay20}}\n{{anim id=\"Pardon\" target=\"actor\" targetSpec=\"\"}}可是证明长大一岁的仪式哦～{{string value=\"6\"}}。{{anim id=\"FaintSmile\" target=\"actor\" targetSpec=\"\"}}"
  },
  {
    "label": "103",
    "attribute": "0x0000000000000000",
    "text": "{{anim id=\"FaintSmile\" target=\"actor\" targetSpec=\"\"}}生日的时候吃的蛋糕，{{delay20}}\n好像要比平时吃的{{delay20}}\n要更美味呢～{{string value=\"6\"}}。"
  },
  {
    "label": "104",
    "attribute": "0x0000000000000000",
    "text": "{{anim id=\"Thinking\" target=\"actor\" targetSpec=\"\"}}生日……{{delay20}}\n总感觉很不可思议呢～{{pageBreak}}{{anim id=\"Nodding\" target=\"actor\" targetSpec=\"\"}}昨天的你{{delay20}}\n和今天的你{{string value=\"...\"}}{{delay frames=\"40\"}}\n{{anim id=\"Greeting\" target=\"actor\" targetSpec=\"\"}}感觉上有些不一样了呢～{{string value=\"6\"}}。"
  },
  {
    "label": "105",
    "attribute": "0x0000000000000000",
    "text": "{{anim id=\"Explain\" target=\"actor\" targetSpec=\"\"}}那个皮纳塔{{delay20}}\n做起来好难的呢～{{pageBreak}}{{anim id=\"WrySmile\" target=\"actor\" targetSpec=\"\"}}有还没打就破了的，{{delay20}}\n有忘了把礼物放进去的{{string value=\"...\"}}{{delay frames=\"40\"}}\n{{anim id=\"SmugFace\" target=\"actor\" targetSpec=\"\"}}全靠大家一起努力才完成的哦～{{string value=\"6\"}}。"
  },
  {
    "label": "106",
    "attribute": "0x0000000000000000",
    "text": "{{anim id=\"HappyFlower\" target=\"actor\" targetSpec=\"\"}}Happy～Birthday～！{{delay frames=\"40\"}}\n{{string value=\"29\"}}！！{{string value=\"6\"}}。"
  },
  {
    "label": "107",
    "attribute": "0x0000000000000000",
    "text": "{{anim id=\"Smiling\" target=\"actor\" targetSpec=\"\"}}生日蛋糕之所以那么好吃，{{delay20}}\n可能是因为{{delay20}}\n{{anim id=\"Love\" target=\"actor\" targetSpec=\"\"}}它是又长大一岁的证明吧～{{string value=\"6\"}}。"
  }
]