﻿[
  {
    "label": "001",
    "attribute": "0x6500000100000009",
    "text": "我決定，{{anim id=\"EmotEnd\" target=\"actor\" targetSpec=\"\"}}{{delay20}}\n等我長大之後，{{delay20}}\n要變成「超級英雄」喔～"
  },
  {
    "label": "005",
    "attribute": "0x6600000100000009",
    "text": "{{anim id=\"Smiling\" target=\"actor\" targetSpec=\"\"}}其實{{delay8}}我從很久以前{{delay20}}\n就在偷偷收集某樣東西喔～"
  },
  {
    "label": "009",
    "attribute": "0x0A00000100000009",
    "text": "{{anim id=\"Restless\" target=\"actor\" targetSpec=\"\"}}你可以聽我說說嗎？{{delay frames=\"40\"}}\n{{anim id=\"Thinking\" target=\"actor\" targetSpec=\"\"}}我現在{{string value=\"...\"}}\n有一件煩惱的事～{{pageBreak}}{{anim id=\"Worried\" target=\"actor\" targetSpec=\"\"}}其實晚上我不開電燈的話，{{delay20}}\n就會睡不好呀{{string value=\"...\"}}"
  },
  {
    "label": "010",
    "attribute": "0x0000000000000000",
    "text": "{{fun_0001003C arg=\"0x0B000C000D00\"}}"
  },
  {
    "label": "011",
    "attribute": "0x0000000000000000",
    "text": "{{anim id=\"Shocked\" target=\"actor\" targetSpec=\"\"}}如果在黑漆漆的房間裡，{{delay20}}\n有某個地方發出\n奇怪的聲音{{string value=\"...\"}}{{pageBreak}}{{anim id=\"Crying\" target=\"actor\" targetSpec=\"\"}}哇啊～！{{delay frames=\"40\"}}\n光是用想的就覺得好可怕，{{delay20}}\n這樣我不敢一個人去上廁所啦～！{{pageBreak}}{{anim id=\"Frantic\" target=\"actor\" targetSpec=\"\"}}{{string value=\"4\"}}，\n我遇到危險的時候，{{delay20}}\n你要來救我喔～！{{string value=\"6\"}}。"
  },
  {
    "label": "012",
    "attribute": "0x0000000000000000",
    "text": "{{anim id=\"Shocked\" target=\"actor\" targetSpec=\"\"}}如果在黑漆漆的房間裡，{{delay20}}\n有鬼來搔我癢的話{{string value=\"...\"}}{{pageBreak}}{{anim id=\"Crying\" target=\"actor\" targetSpec=\"\"}}不管是鬼{{delay20}}\n還是被搔癢，{{delay20}}\n我{{delay8}}都超怕的啦～！{{pageBreak}}{{anim id=\"Frantic\" target=\"actor\" targetSpec=\"\"}}我到底該害怕還是該大笑呢{{string value=\"...\"}}{{delay frames=\"40\"}}\n你覺得應該要怎麼做比較好呢～？{{string value=\"6\"}}。"
  },
  {
    "label": "013",
    "attribute": "0x0000000000000000",
    "text": "如果在黑漆漆的房間裡，{{delay20}}\n那隻黑黑的蟲蟲{{delay20}}\n{{anim id=\"Surprised\" target=\"actor\" targetSpec=\"\"}}飛出來的話{{string value=\"...\"}}{{pageBreak}}{{anim id=\"Crying\" target=\"actor\" targetSpec=\"\"}}嗚哇～！{{delay frames=\"40\"}}\n光是用想的{{delay20}}\n就覺得背癢癢的～！{{pageBreak}}{{anim id=\"Confused\" target=\"actor\" targetSpec=\"\"}}我自己一個人會很害怕，{{delay20}}\n{{string value=\"4\"}}，如果發生了什麼事，{{delay20}}\n你一定要來救我喔～{{string value=\"6\"}}。"
  },
  {
    "label": "014",
    "attribute": "0x0000000100000009",
    "text": "{{fun_0000003C arg=\"0x0F001000\"}}"
  },
  {
    "label": "015",
    "attribute": "0x0000000000000000",
    "text": "我跟你說喔，{{delay20}}\n我之前看到的雲朵啊，{{delay20}}\n{{anim id=\"HappyDance\" target=\"actor\" targetSpec=\"\"}}長得像是酥酥脆脆的牛角麵包耶～{{pageBreak}}{{anim id=\"Smiling\" target=\"actor\" targetSpec=\"\"}}因為看起來實在是太好吃了，{{delay20}}\n所以我就一直看著天空走路，{{delay20}}\n{{anim id=\"WrySmile\" target=\"actor\" targetSpec=\"\"}}結果不小心跌倒了～{{pageBreak}}{{anim id=\"EmotEnd\" target=\"actor\" targetSpec=\"\"}}嗯{{string value=\"...\"}}\n{{anim id=\"Laughing\" target=\"actor\" targetSpec=\"\"}}要是發現看起來很好吃的雲朵，{{delay20}}\n真的要小心點才行啊～！{{string value=\"6\"}}。"
  },
  {
    "label": "016",
    "attribute": "0x0000000000000000",
    "text": "{{fun_0007003C arg=\"0x0F11001200CD\"}}"
  },
  {
    "label": "017",
    "attribute": "0x0000000000000000",
    "text": "{{anim id=\"Smiling\" target=\"actor\" targetSpec=\"\"}}我長大之後{{delay20}}\n想要學會在天空飛翔～{{pageBreak}}{{anim id=\"EmotEnd\" target=\"actor\" targetSpec=\"\"}}但是要馬上學會好像很困難，{{delay20}}\n{{anim id=\"HappyFlower\" target=\"actor\" targetSpec=\"\"}}所以{{delay8}}我都在夢裡{{delay8}}\n努力練習飛翔喔～{{string value=\"6\"}}。"
  },
  {
    "label": "018",
    "attribute": "0x0000000000000000",
    "text": "{{anim id=\"Smiling\" target=\"actor\" targetSpec=\"\"}}我在想我長大之後，{{delay20}}\n是不是有可能{{delay20}}\n學會在天上飛翔呢～{{pageBreak}}{{anim id=\"Thinking\" target=\"actor\" targetSpec=\"\"}}但我覺得一定很困難，{{delay20}}\n{{anim id=\"EmotEnd\" target=\"actor\" targetSpec=\"\"}}所以已經在夢裡面{{delay20}}\n拼命練習了～{{pageBreak}}{{anim id=\"Laughing\" target=\"actor\" targetSpec=\"\"}}如果{{string value=\"4\"}}{{delay20}}\n也想練習的話，{{delay20}}\n還是早點開始會比較好喔～！{{string value=\"6\"}}。"
  },
  {
    "label": "019",
    "attribute": "0x1400000100000009",
    "text": "我最近啊，{{delay20}}\n{{anim id=\"ShyBoy\" target=\"actor\" targetSpec=\"\"}}超愛吃{{string value=\"7\"}}的～"
  },
  {
    "label": "020",
    "attribute": "0x0000000000000000",
    "text": "{{fun_0001003C arg=\"0x150016001700\"}}"
  },
  {
    "label": "021",
    "attribute": "0x0000000000000000",
    "text": "{{anim id=\"Smiling\" target=\"actor\" targetSpec=\"\"}}雖然直接吃也很好吃，{{delay20}}\n但如果用心做成一道料理的話，{{delay20}}\n會變得更好吃喔～{{pageBreak}}{{anim id=\"Nodding\" target=\"actor\" targetSpec=\"\"}}我覺得是因為{{delay20}}\n做料理的人在裡頭加入了自己的心意，\n所以才會變得更好吃喔～{{pageBreak}}{{anim id=\"Love\" target=\"actor\" targetSpec=\"\"}}不知道心意究竟是\n什麼樣的味道呢～？{{string value=\"6\"}}。"
  },
  {
    "label": "022",
    "attribute": "0x0000000000000000",
    "text": "{{anim id=\"AbsentMindedness\" target=\"actor\" targetSpec=\"\"}}光是回想起{{delay20}}\n那酸酸甜甜的香味，{{delay20}}\n{{anim id=\"Love\" target=\"actor\" targetSpec=\"\"}}我就覺得好幸福喔～{{pageBreak}}{{anim id=\"HappyFlower\" target=\"actor\" targetSpec=\"\"}}如果{{delay8}}我的家裡有{{string value=\"7\"}}樹的話，{{delay20}}\n不管是下雨天，或是在夢裡面，{{delay20}}\n都能享受它的香味耶～{{string value=\"6\"}}。"
  },
  {
    "label": "023",
    "attribute": "0x0000000000000000",
    "text": "{{anim id=\"Thinking\" target=\"actor\" targetSpec=\"\"}}如果有一天{{delay20}}\n世界上的所有{{string value=\"7\"}}都消失的話{{string value=\"...\"}}{{pageBreak}}{{anim id=\"Frantic\" target=\"actor\" targetSpec=\"\"}}大家會不會覺得{{delay20}}\n是因為我吃太多才變成那樣？{{pageBreak}}{{anim id=\"Worried\" target=\"actor\" targetSpec=\"\"}}可是我只是{{delay20}}\n很喜歡很喜歡{{string value=\"7\"}}而已啊～{{string value=\"6\"}}。"
  },
  {
    "label": "024",
    "attribute": "0x1900000100000009",
    "text": "{{anim id=\"Smiling\" target=\"actor\" targetSpec=\"\"}}我有時會做些體操來活動身體喔～"
  },
  {
    "label": "025",
    "attribute": "0x0000000000000000",
    "text": "{{fun_0014003C arg=\"\"}}"
  },
  {
    "label": "025_01",
    "attribute": "0x0000000000000000",
    "text": "{{anim id=\"Explain\" target=\"actor\" targetSpec=\"\"}}彎曲膝蓋蹲下來{{string value=\"...\"}}{{delay20}}\n然後伸展身體站起來！{{delay frames=\"40\"}}\n{{anim id=\"Nodding\" target=\"actor\" targetSpec=\"\"}}這樣做感覺能增強腿部呢～{{pageBreak}}{{anim id=\"Restless\" target=\"actor\" targetSpec=\"\"}}但要是一個不注意，{{delay20}}\n有時候會不小心往後倒！{{delay20}}\n{{anim id=\"ShyBoy\" target=\"actor\" targetSpec=\"\"}}做起來還挺刺激的喔，{{string value=\"6\"}}。"
  },
  {
    "label": "025_02",
    "attribute": "0x0000000000000000",
    "text": "{{anim id=\"Explain\" target=\"actor\" targetSpec=\"\"}}將身體往前倒下{{string value=\"...\"}}{{delay20}}\n然後張開雙手往後大大地伸展！{{delay frames=\"40\"}}\n{{anim id=\"Greeting\" target=\"actor\" targetSpec=\"\"}}這樣就能伸展身體，{{delay8}}感覺很舒服喔～{{pageBreak}}{{anim id=\"EmotEnd\" target=\"actor\" targetSpec=\"\"}}但是，{{delay8}}如果在吃飽後做，{{delay20}}\n往前倒時會壓到肚子，{{delay8}}\n{{anim id=\"Blushing\" target=\"actor\" targetSpec=\"\"}}讓人感到有些不舒服呢，{{string value=\"6\"}}。"
  },
  {
    "label": "025_03",
    "attribute": "0x0000000000000000",
    "text": "{{anim id=\"Explain\" target=\"actor\" targetSpec=\"\"}}有規律地{{delay8}}交互抬起{{delay20}}左右的大腿！{{delay frames=\"40\"}}\n{{anim id=\"Nodding\" target=\"actor\" targetSpec=\"\"}}只要這麼做，身體就會暖起來喔。{{pageBreak}}{{anim id=\"EmotEnd\" target=\"actor\" targetSpec=\"\"}}雖然這個動作{{delay8}}看起來像是在跳舞，\n做起來似乎很開心，{{delay20}}\n{{anim id=\"Laughing\" target=\"actor\" targetSpec=\"\"}}但其實相當地累人喔～{{string value=\"6\"}}。{{anim id=\"FaintSmile\" target=\"actor\" targetSpec=\"\"}}"
  },
  {
    "label": "025_04",
    "attribute": "0x0000000000000000",
    "text": "{{anim id=\"Explain\" target=\"actor\" targetSpec=\"\"}}舉起一隻手，將身體向旁邊彎曲！{{delay frames=\"40\"}}\n{{anim id=\"FaintSmile\" target=\"actor\" targetSpec=\"\"}}腋下雖然會變得緊繃{{delay8}}甚至有點痛，{{delay20}}\n但同時也很舒服喔。{{pageBreak}}{{anim id=\"EmotEnd\" target=\"actor\" targetSpec=\"\"}}我推薦{{delay20}}{{anim id=\"Nodding\" target=\"actor\" targetSpec=\"\"}}在彎曲身體時，{{delay8}}\n用另一邊的手扶住腰部！{{delay frames=\"40\"}}\n{{anim id=\"SmugFace\" target=\"actor\" targetSpec=\"\"}}看起來是不是很帥啊～？{{string value=\"6\"}}。"
  },
  {
    "label": "026",
    "attribute": "0x1B00000100000009",
    "text": "你能聽聽我之前經歷的事情嗎～？{{delay frames=\"40\"}}\n{{anim id=\"Serious\" target=\"actor\" targetSpec=\"\"}}那件事情{{delay8}}發生在\n我看完恐怖電影後的當晚{{string value=\"...\"}}"
  },
  {
    "label": "027",
    "attribute": "0x0000000000000000",
    "text": "{{fun_0014003C arg=\"\"}}"
  },
  {
    "label": "027_01",
    "attribute": "0x0000000000000000",
    "text": "{{anim id=\"Explain\" target=\"actor\" targetSpec=\"\"}}我在睡夢中{{delay8}}覺得不太對勁，{{delay20}}\n就突然醒來了。{{delay frames=\"40\"}}\n{{anim id=\"Thinking\" target=\"actor\" targetSpec=\"\"}}醒來後感到全身一陣疼痛{{string value=\"...\"}}{{pageBreak}}{{anim id=\"Frantic\" target=\"actor\" targetSpec=\"\"}}隨後{{delay8}}我便急忙起身{{string value=\"...\"}}{{delay frames=\"40\"}}\n{{anim id=\"Oops\" target=\"actor\" targetSpec=\"\"}}結果發現自己睡在地板上。{{delay frames=\"60\"}}\n{{anim id=\"Laughing\" target=\"actor\" targetSpec=\"\"}}我的睡相真的太差了～{{string value=\"6\"}}。"
  },
  {
    "label": "027_02",
    "attribute": "0x0000000000000000",
    "text": "{{anim id=\"Explain\" target=\"actor\" targetSpec=\"\"}}門發出像開關門{{delay8}}又像呻吟的聲音{{string value=\"...\"}}{{delay20}}\n{{anim id=\"Worried\" target=\"actor\" targetSpec=\"\"}}總之就是發出了怪聲，{{delay20}}\n所以我就醒來了。{{pageBreak}}{{anim id=\"Thinking\" target=\"actor\" targetSpec=\"\"}}然後{{delay8}}我急忙起身查看，{{delay20}}\n結果那聲音已經消失了。{{delay frames=\"60\"}}\n{{anim id=\"Shocked\" target=\"actor\" targetSpec=\"\"}}{{delay20}}難道那是我磨牙的聲音！？{{string value=\"6\"}}。"
  },
  {
    "label": "027_03",
    "attribute": "0x0000000000000000",
    "text": "{{anim id=\"Explain\" target=\"actor\" targetSpec=\"\"}}我聞到房間裡有種{{delay8}}\n東西腐爛後的怪味，{{delay20}}\n所以我就醒來了。{{pageBreak}}{{anim id=\"Frantic\" target=\"actor\" targetSpec=\"\"}}然後我急忙起身查看，{{delay20}}\n{{anim id=\"Eh\" target=\"actor\" targetSpec=\"\"}}發現那是我不小心忘記丟廚餘，{{delay8}}\n{{anim id=\"ShyBoy\" target=\"actor\" targetSpec=\"\"}}廚餘腐爛後發出的味道～{{string value=\"6\"}}。"
  },
  {
    "label": "028",
    "attribute": "0x1D00000100000009",
    "text": "{{anim id=\"Explain\" target=\"actor\" targetSpec=\"\"}}我小時候很喜歡玩一個遊戲，{{delay20}}\n當時我常常和附近的朋友一起玩喔。{{delay8}}\n{{anim id=\"Greeting\" target=\"actor\" targetSpec=\"\"}}讓我來告訴你那是什麼遊戲吧～"
  },
  {
    "label": "029",
    "attribute": "0x0000000000000000",
    "text": "{{fun_0014003C arg=\"\"}}"
  },
  {
    "label": "029_01",
    "attribute": "0x0000000000000000",
    "text": "那個遊戲{{string value=\"...\"}}{{delay20}}{{anim id=\"BigSmile\" target=\"actor\" targetSpec=\"\"}}就是跳繩喔！{{i10_4}}\n{{anim id=\"Thinking\" target=\"actor\" targetSpec=\"\"}}不過因為大家都想跳繩，{{delay20}}\n所以總是決定不了誰要去揮動繩子{{string value=\"...\"}}{{pageBreak}}{{anim id=\"EmotEnd\" target=\"actor\" targetSpec=\"\"}}結果{{delay8}}最後只能把所有繩子接起來{{delay20}}\n{{anim id=\"Laughing\" target=\"actor\" targetSpec=\"\"}}玩扮演電車的遊戲。{{delay frames=\"40\"}}\n{{anim id=\"HappyDance\" target=\"actor\" targetSpec=\"\"}}呵呵，{{delay20}}真令人懷念啊～{{string value=\"6\"}}。"
  },
  {
    "label": "029_02",
    "attribute": "0x0000000000000000",
    "text": "那個遊戲{{string value=\"...\"}}{{delay20}}{{anim id=\"BigSmile\" target=\"actor\" targetSpec=\"\"}}就是扮家家酒喔！{{i10_4}}\n{{anim id=\"AbsentMindedness\" target=\"actor\" targetSpec=\"\"}}我記得當時都是用猜拳{{delay20}}\n來決定要扮演的角色～{{pageBreak}}{{anim id=\"Explain\" target=\"actor\" targetSpec=\"\"}}然後嬰兒是其中最受歡迎的角色喔～{{delay frames=\"40\"}}\n{{anim id=\"Nodding\" target=\"actor\" targetSpec=\"\"}}因為{{delay8}}大家都會來照顧嬰兒，{{delay20}}\n{{anim id=\"Blushing\" target=\"actor\" targetSpec=\"\"}}嬰兒只要負責睡覺就行了！{{string value=\"6\"}}。"
  },
  {
    "label": "029_03",
    "attribute": "0x0000000000000000",
    "text": "那個遊戲{{string value=\"...\"}}{{delay20}}{{anim id=\"BigSmile\" target=\"actor\" targetSpec=\"\"}}就是藏鞋子喔！{{i10_4}}\n{{anim id=\"Restless\" target=\"actor\" targetSpec=\"\"}}不過當時年紀小，{{delay20}}常常玩到後面\n忘記自己把鞋子藏到哪去呢。{{pageBreak}}{{anim id=\"ShyBoy\" target=\"actor\" targetSpec=\"\"}}我到底{{delay8}}弄丟了幾隻鞋子啊{{string value=\"...\"}}{{delay frames=\"40\"}}\n{{anim id=\"AbsentMindedness\" target=\"actor\" targetSpec=\"\"}}{{delay20}}不知道藏起來的鞋子，{{delay20}}\n是不是{{delay8}}還在當時的地方，{{string value=\"6\"}}。"
  },
  {
    "label": "101",
    "attribute": "0x0000000000000000",
    "text": "{{fun_0014003C arg=\"\"}}"
  },
  {
    "label": "101_01",
    "attribute": "0x0000000000000000",
    "text": "{{anim id=\"Serious\" target=\"actor\" targetSpec=\"\"}}如果{{delay8}}{{string value=\"4\"}}遇到困難，{{delay20}}\n{{anim id=\"BigSmile\" target=\"actor\" targetSpec=\"\"}}我會來救你的喔～！{{delay8}}{{anim id=\"FaintSmile\" target=\"actor\" targetSpec=\"\"}}{{pageBreak}}{{anim id=\"EmotEnd\" target=\"actor\" targetSpec=\"\"}}就算我戴著變身用的面具，{{delay20}}\n{{anim id=\"Grin\" target=\"actor\" targetSpec=\"\"}}你也要發現{{delay8}}那個人就是我喔～！{{string value=\"6\"}}。"
  },
  {
    "label": "101_02",
    "attribute": "0x0000000000000000",
    "text": "{{anim id=\"Smiling\" target=\"actor\" targetSpec=\"\"}}因為超級英雄可以在天空中飛，{{delay20}}\n如果{{delay8}}有人遇到麻煩，{{delay20}}\n{{anim id=\"SmugFace\" target=\"actor\" targetSpec=\"\"}}我就可以馬上去幫忙啦～{{pageBreak}}{{anim id=\"Smiling\" target=\"actor\" targetSpec=\"\"}}嘿嘿，{{delay20}}{{string value=\"4\"}}也可以{{delay20}}\n{{anim id=\"Greeting\" target=\"actor\" targetSpec=\"\"}}依靠我喔～！{{string value=\"6\"}}。"
  },
  {
    "label": "101_03",
    "attribute": "0x0000000000000000",
    "text": "{{anim id=\"Explain\" target=\"actor\" targetSpec=\"\"}}因為超級英雄很強、{{delay8}}很帥、{{delay8}}很溫柔{{string value=\"...\"}}\n{{anim id=\"Love\" target=\"actor\" targetSpec=\"\"}}讓我覺得好厲害喔～{{pageBreak}}{{anim id=\"Nodding\" target=\"actor\" targetSpec=\"\"}}我想就算是要把洋蔥切碎碎的，{{delay20}}\n{{anim id=\"HappyDance\" target=\"actor\" targetSpec=\"\"}}超級英雄也一定不會哭的吧～{{delay frames=\"40\"}}\n感覺就很強～{{string value=\"6\"}}。"
  },
  {
    "label": "102",
    "attribute": "0x0000000000000000",
    "text": "{{fun_0014003C arg=\"\"}}"
  },
  {
    "label": "102_01",
    "attribute": "0x0000000000000000",
    "text": "{{anim id=\"FaintSmile\" target=\"actor\" targetSpec=\"\"}}欸嘿嘿，{{delay20}}其實啊{{string value=\"...\"}}{{delay frames=\"40\"}}\n{{anim id=\"BigSmile\" target=\"actor\" targetSpec=\"\"}}是「橡皮擦的屑屑」喔～{{delay8}}{{anim id=\"FaintSmile\" target=\"actor\" targetSpec=\"\"}}{{pageBreak}}{{anim id=\"Hesitate\" target=\"actor\" targetSpec=\"\"}}雖然一點用都沒有，{{delay20}}\n但我會把屑屑一點一點放進瓶子裡，拿來欣賞喔～{{pageBreak}}{{anim id=\"EmotEnd\" target=\"actor\" targetSpec=\"\"}}變成橡皮擦屑屑的我的字{{string value=\"...\"}}{{delay frames=\"40\"}}\n{{anim id=\"Thinking\" target=\"actor\" targetSpec=\"\"}}感覺很神祕吧～{{string value=\"6\"}}。"
  },
  {
    "label": "102_02",
    "attribute": "0x0000000000000000",
    "text": "{{anim id=\"FaintSmile\" target=\"actor\" targetSpec=\"\"}}欸嘿嘿，{{delay20}}其實啊{{string value=\"...\"}}{{delay frames=\"40\"}}\n{{anim id=\"BigSmile\" target=\"actor\" targetSpec=\"\"}}是「牛奶瓶的蓋子」喔～{{delay8}}{{anim id=\"FaintSmile\" target=\"actor\" targetSpec=\"\"}}{{pageBreak}}{{anim id=\"HappyDance\" target=\"actor\" targetSpec=\"\"}}或許有一天{{delay8}}\n牛奶瓶的蓋子也能當鈴錢用喔！{{pageBreak}}{{anim id=\"SmugFace\" target=\"actor\" targetSpec=\"\"}}這樣一來，{{delay20}}\n我也是有錢人了耶～{{string value=\"6\"}}。"
  },
  {
    "label": "102_03",
    "attribute": "0x0000000000000000",
    "text": "{{anim id=\"FaintSmile\" target=\"actor\" targetSpec=\"\"}}欸嘿嘿，{{delay20}}其實啊{{string value=\"...\"}}{{delay frames=\"40\"}}\n{{anim id=\"BigSmile\" target=\"actor\" targetSpec=\"\"}}是「果汁瓶的瓶蓋」喔～{{delay8}}{{anim id=\"FaintSmile\" target=\"actor\" targetSpec=\"\"}}{{pageBreak}}{{anim id=\"EmotEnd\" target=\"actor\" targetSpec=\"\"}}雖然我現在還沒想到{{delay20}}\n{{anim id=\"Laughing\" target=\"actor\" targetSpec=\"\"}}那個可以用來做什麼～{{string value=\"6\"}}。"
  }
]