﻿[
  {
    "label": "001",
    "attribute": "0x0000000000000000",
    "text": "{{anim id=\"TakenAback\" target=\"actor\" targetSpec=\"\"}}Quoi ? {{delay20}}Un paquet ?{{delay20}} Pour moi ?"
  },
  {
    "label": "002",
    "attribute": "0x0000000000000000",
    "text": "{{anim id=\"Laughing\" target=\"actor\" targetSpec=\"\"}}Ou pas !{{delay20}} Ha ha ha !"
  },
  {
    "label": "003",
    "attribute": "0x0000000000000000",
    "text": "{{anim id=\"Shocked\" target=\"actor\" targetSpec=\"\"}}Est-ce que c'est le truc{{delay20}} que j'avais\nprêté à {{selection value=\"SelectedVillager\"}} ?"
  },
  {
    "label": "004",
    "attribute": "0x0000000000000000",
    "text": "{{anim id=\"TakenAback\" target=\"actor\" targetSpec=\"\"}}Hein ?{{delay20}} C'est un truc que j'ai oublié ?{{delay20}}\n{{anim id=\"QuestionMark\" target=\"actor\" targetSpec=\"\"}}Qu'est-ce que ça peut être ?"
  },
  {
    "label": "005",
    "attribute": "0x0000000000000000",
    "text": "{{anim id=\"Shocked\" target=\"actor\" targetSpec=\"\"}}Comment ?{{delay frames=\"40\"}} Mon colis s'est\nretrouvé dans la boîte aux lettres\n{{gender4 m=\"de \" f=\"d'⁠\"}}{{selection value=\"SelectedVillager\"}} ?"
  },
  {
    "label": "006",
    "attribute": "0x0000000000000000",
    "text": "{{anim id=\"Shocked\" target=\"actor\" targetSpec=\"\"}}C'est un cadeau pour moi ?{{delay frames=\"40\"}}{{anim id=\"Smiling\" target=\"actor\" targetSpec=\"\"}} De la\npart {{gender4 m=\"de \" f=\"d'⁠\"}}{{selection value=\"SelectedVillager\"}} ?"
  },
  {
    "label": "007",
    "attribute": "0x0000000000000000",
    "text": "{{anim id=\"TakenAback\" target=\"actor\" targetSpec=\"\"}}Quoi ?{{delay frames=\"40\"}} Un cadeau de la part {{gender4 m=\"de \" f=\"d'⁠\"}}{{selection value=\"SelectedVillager\"}} ?{{delay frames=\"40\"}}{{anim id=\"FaintSmile\" target=\"actor\" targetSpec=\"\"}} Oooh,{{delay20}} à cause de l'autre jour{{string value=\"...\"}}"
  },
  {
    "label": "101",
    "attribute": "0x0000000000000000",
    "text": "{{anim id=\"FaintSmile\" target=\"actor\" targetSpec=\"\"}}Regarde ça, {{delay20}}c'est tout bien emballé,\nj'ai l'impression de recevoir un\ncadeau.{{pageBreak}}{{anim id=\"Eh\" target=\"actor\" targetSpec=\"\"}}Attends une seconde{{string value=\"...\"}} Est-ce que\nc'est vraiment ce que je lui ai prêté ?"
  },
  {
    "label": "102",
    "attribute": "0x0000000000000000",
    "text": "{{anim id=\"HappyDance\" target=\"actor\" targetSpec=\"\"}}Ouah !{{delay frames=\"40\"}} L'emballage est trop mimi !"
  },
  {
    "label": "103",
    "attribute": "0x0000000000000000",
    "text": "Snif, snif{{string value=\"...\"}} {{delay20}}{{anim id=\"Love\" target=\"actor\" targetSpec=\"\"}}Ça a un parfum de fleur !"
  },
  {
    "label": "104",
    "attribute": "0x0000000000000000",
    "text": "{{anim id=\"Nodding\" target=\"actor\" targetSpec=\"\"}}Je crois toujours qu'elle le fera pas,{{delay20}}\nmais elle me rend toujours mes\naffaires !"
  },
  {
    "label": "105",
    "attribute": "0x0000000000000000",
    "text": "Oh, il s'en est souvenu !{{delay frames=\"40\"}}{{anim id=\"Laughing\" target=\"actor\" targetSpec=\"\"}} Moi qui\ncroyais qu'il avait oublié !{{delay frames=\"40\"}} D'ailleurs,\nça m'était sorti de la tête !"
  },
  {
    "label": "106",
    "attribute": "0x0000000000000000",
    "text": "{{anim id=\"ShyBoy\" target=\"actor\" targetSpec=\"\"}}Le connaissant,{{delay20}} il s'en est sûrement\nservi{{delay20}} pour faire des exercices\nde {{randomSports}} !"
  },
  {
    "label": "107",
    "attribute": "0x0000000000000000",
    "text": "{{anim id=\"Explain\" target=\"actor\" targetSpec=\"\"}}Il fait peut-être un peu peur,{{delay20}} mais on\nne peut pas lui reprocher de ne pas\ntenir sa parole !"
  },
  {
    "label": "108",
    "attribute": "0x0000000000000000",
    "text": "{{anim id=\"HappyDance\" target=\"actor\" targetSpec=\"\"}}Ouah !{{delay20}} C'est super bien emballé !{{delay20}}\nOn dirait que ça vient d'une boutique\nde luxe !"
  },
  {
    "label": "109",
    "attribute": "0x0000000000000000",
    "text": "{{anim id=\"Smiling\" target=\"actor\" targetSpec=\"\"}}Merci d'être venu{{gender2 m=\"\" f=\"e\"}} me l'apporter.{{delay20}}\nC'est très gentil, {{string value=\"NickName\"}}.{{pageBreak}}{{anim id=\"Greeting\" target=\"actor\" targetSpec=\"\"}}Et remercie aussi {{selection value=\"SelectedVillager\"}} de ma part, {{string value=\"6\"}} !"
  },
  {
    "label": "201",
    "attribute": "0x0000000000000000",
    "text": "{{anim id=\"Aha\" target=\"actor\" targetSpec=\"\"}}Oh ! C'est {{gender8 m=\"mon petit\" f=\"ma petite\" n=\"\"}} {{fun_0000007D arg=\"0x0000\"}} ! Je l'ai cherché{{gender8 m=\"\" f=\"e\" n=\"\"}} partout !{{pageBreak}}{{anim id=\"FaintSmile\" target=\"actor\" targetSpec=\"\"}}Alors, je l'avais oublié{{gender8 m=\"\" f=\"e\" n=\"\"}} chez {{selection value=\"SelectedVillager\"}} !{{delay20}} Eh ben je suis bien content de l'avoir récupéré{{gender8 m=\"\" f=\"e\" n=\"\"}} !"
  },
  {
    "label": "202",
    "attribute": "0x0000000000000000",
    "text": "{{anim id=\"Thinking\" target=\"actor\" targetSpec=\"\"}}Hmm{{string value=\"...\"}} Tu es sûr{{gender2 m=\"\" f=\"e\"}} ? Je me souviens\npas avoir oublié quoi que ce soit{{string value=\"...\"}}"
  },
  {
    "label": "203",
    "attribute": "0x0000000000000000",
    "text": "{{anim id=\"Aha\" target=\"actor\" targetSpec=\"\"}}Ah !{{delay frames=\"40\"}} C'est mon ancien{{gender8 m=\"\" f=\"ne\" n=\"\"}} {{fun_0000007D arg=\"0x0000\"}} !{{pageBreak}}{{anim id=\"Confused\" target=\"actor\" targetSpec=\"\"}}Je pensais que je l'avais perdu{{gender8 m=\"\" f=\"e\" n=\"\"}} pour\ntoujours, alors j'en ai acheté un{{gender8 m=\"\" f=\"e\" n=\"\"}}\nnouve{{gender8 m=\"au\" f=\"lle\" n=\"\"}}{{string value=\"...\"}}"
  },
  {
    "label": "204",
    "attribute": "0x0000000000000000",
    "text": "{{anim id=\"IdeaBulb\" target=\"actor\" targetSpec=\"\"}}Tu sais quoi, {{string value=\"NickName\"}} ?{{delay frames=\"40\"}}\nJ'en ai pas besoin de deux,{{delay20}} alors tu\npeux l{{gender8 m=\"e\" f=\"a\" n=\"\"}} garder !"
  },
  {
    "label": "205",
    "attribute": "0x0000000000000000",
    "text": "{{anim id=\"Smiling\" target=\"actor\" targetSpec=\"\"}}Merci de me l'avoir apporté{{gender8 m=\"\" f=\"e\" n=\"\"}}. {{delay frames=\"40\"}}Et\nremercie aussi {{selection value=\"SelectedVillager\"}} de ma part, {{string value=\"6\"}} !"
  },
  {
    "label": "301",
    "attribute": "0x0000000000000000",
    "text": "{{anim id=\"QuestionMark\" target=\"actor\" targetSpec=\"\"}}Euh{{string value=\"...\"}}{{delay frames=\"40\"}} Qu'est-ce que ça peut être ?"
  },
  {
    "label": "302",
    "attribute": "0x0000000000000000",
    "text": "{{anim id=\"Aha\" target=\"actor\" targetSpec=\"\"}}{{capitalizeNextLetter}}{{wordArticle}}{{fun_0000007D arg=\"0x0000\"}} ! Mais oui !{{delay20}}{{anim id=\"Laughing\" target=\"actor\" targetSpec=\"\"}} Je l'ai commandé{{gender8 m=\"\" f=\"e\" n=\"\"}} après avoir vu la pub à la télé !"
  },
  {
    "label": "303",
    "attribute": "0x0000000000000000",
    "text": "{{anim id=\"Thinking\" target=\"actor\" targetSpec=\"\"}}J'arrive pas à me souvenir{{string value=\"...\"}} Est-ce\nque j'aurais oublié que j'ai\ncommandé un truc ?"
  },
  {
    "label": "304",
    "attribute": "0x0000000000000000",
    "text": "{{anim id=\"IdeaBulb\" target=\"actor\" targetSpec=\"\"}}Ah oui, ça me revient !{{delay frames=\"40\"}} C'est le\ncadeau que j'avais commandé pour\ntoi, {{string value=\"6\"}} !{{pageBreak}}{{anim id=\"ShyBoy\" target=\"actor\" targetSpec=\"\"}}Du coup, c'est bizarre que ce soit toi\nqui me l'apportes{{string value=\"...\"}}{{delay20}}{{anim id=\"Laughing\" target=\"actor\" targetSpec=\"\"}} Mais tiens, je te\nle donne, {{string value=\"NickName\"}} !"
  },
  {
    "label": "305",
    "attribute": "0x0000020000001800",
    "text": "Est-ce que je l'ouvre ?"
  },
  {
    "label": "305_a",
    "attribute": "0x0000000000000000",
    "text": "{{anim id=\"EmotEnd\" target=\"player\" targetSpec=\"\"}}Allez, je l'ouvre !"
  },
  {
    "label": "305_b",
    "attribute": "0x0000000000000000",
    "text": "{{anim id=\"EmotEnd\" target=\"player\" targetSpec=\"\"}}Je l'ouvrirai plus tard."
  },
  {
    "label": "306",
    "attribute": "0x0000000000000000",
    "text": "{{anim id=\"Nodding\" target=\"actor\" targetSpec=\"\"}}Je vois, {{delay20}}tu veux garder la surprise\npour plus tard{{string value=\"...\"}}{{delay frames=\"40\"}}{{anim id=\"Greeting\" target=\"actor\" targetSpec=\"\"}} Tu me diras ce que\ntu en penses, hein ?"
  },
  {
    "label": "307",
    "attribute": "0x0000000000000000",
    "text": "{{anim id=\"BigSmile\" target=\"actor\" targetSpec=\"\"}}C'est {{wordArticle}}{{fun_0000007D arg=\"0x0000\"}} !{{delay8}}{{anim id=\"FaintSmile\" target=\"actor\" targetSpec=\"\"}}{{pageBreak}}{{anim id=\"Blushing\" target=\"actor\" targetSpec=\"\"}}Je me suis dit que ça t'irait bien,{{delay20}}\n{{string value=\"NickName\"}}."
  },
  {
    "label": "308",
    "attribute": "0x0000000000000000",
    "text": "{{anim id=\"BigSmile\" target=\"actor\" targetSpec=\"\"}}Tadaaa ! {{delay20}}C'est {{wordArticle}}{{fun_0000007D arg=\"0x0000\"}} ! Cool, non ?{{delay8}}{{anim id=\"FaintSmile\" target=\"actor\" targetSpec=\"\"}}"
  },
  {
    "label": "309",
    "attribute": "0x0000000000000000",
    "text": "{{anim id=\"Nodding\" target=\"actor\" targetSpec=\"\"}}Je me suis dit que c'était le genre\nde trucs{{delay20}} qui iraient bien chez toi.{{delay frames=\"40\"}}\n{{anim id=\"Hello\" target=\"actor\" targetSpec=\"\"}}J'espère que ça te plaît !"
  },
  {
    "label": "313",
    "attribute": "0x0000000000000000",
    "text": "{{anim id=\"AbsentMindedness\" target=\"actor\" targetSpec=\"\"}}Je sais pas pourquoi,{{delay20}} mais j'ai pensé\nà toi quand j'ai vu ça.{{pageBreak}}{{anim id=\"Nodding\" target=\"actor\" targetSpec=\"\"}}Je me suis dit que ça devait être le\ndestin, ou un truc comme ça, alors\nje l'ai acheté{{gender8 m=\"\" f=\"e\" n=\"\"}} !{{pageBreak}}{{anim id=\"Smiling\" target=\"actor\" targetSpec=\"\"}}J'espère que ça te plaît,\n{{string value=\"6\"}} !"
  },
  {
    "label": "400",
    "attribute": "0x0000000000000000",
    "text": "{{anim id=\"Hello\" target=\"actor\" targetSpec=\"\"}}Je me demande bien ce que ça peut\nêtre{{string value=\"...\"}}{{delay frames=\"40\"}} Voyons voir{{string value=\"...\"}}"
  },
  {
    "label": "401",
    "attribute": "0x0000000000000000",
    "text": "{{anim id=\"Aha\" target=\"actor\" targetSpec=\"\"}}Ouah ! Regarde un peu ça !{{delay frames=\"40\"}} C'est\n{{wordArticle}}{{fun_0000007D arg=\"0x0000\"}} !{{delay frames=\"40\"}} {{anim id=\"Smiling\" target=\"actor\" targetSpec=\"\"}}J'adore la couleur !"
  },
  {
    "label": "402",
    "attribute": "0x0000000000000000",
    "text": "{{anim id=\"Aha\" target=\"actor\" targetSpec=\"\"}}Attends !{{delay20}} J'y crois pas !{{delay20}} C'est {{wordArticle}}{{fun_0000007D arg=\"0x0000\"}} !{{delay frames=\"40\"}} {{anim id=\"Smiling\" target=\"actor\" targetSpec=\"\"}}J'ai toujours voulu en avoir un{{gender8 m=\"\" f=\"e\" n=\"\"}} !"
  },
  {
    "label": "403",
    "attribute": "0x0000000000000000",
    "text": "{{anim id=\"Aha\" target=\"actor\" targetSpec=\"\"}}Youhou !{{delay20}} Trop bien !{{delay20}} {{capitalizeNextLetter}}{{wordArticle}}{{fun_0000007D arg=\"0x0000\"}} ! {{anim id=\"Smiling\" target=\"actor\" targetSpec=\"\"}}Je suis trop{{delay8}} trop content !"
  },
  {
    "label": "404",
    "attribute": "0x0000000000000000",
    "text": "{{anim id=\"Greeting\" target=\"actor\" targetSpec=\"\"}}Merci d'être venu{{gender2 m=\"\" f=\"e\"}} me l'apporter,\n{{string value=\"NickName\"}} !{{pageBreak}}{{anim id=\"FaintSmile\" target=\"actor\" targetSpec=\"\"}}Il faudra que je dise aussi un grand\nmerci à {{selection value=\"SelectedVillager\"}}{{delay20}} la prochaine fois que je l{{gender3 m=\"e\" f=\"a\"}} verrai !"
  },
  {
    "label": "405",
    "attribute": "0x0000000000000000",
    "text": "{{capitalizeNextLetter}}{{string value=\"NickName\"}},{{delay frames=\"40\"}}{{anim id=\"Greeting\" target=\"actor\" targetSpec=\"\"}} merci d'être venu{{gender2 m=\"\" f=\"e\"}} me l'apporter !{{pageBreak}}{{anim id=\"Nodding\" target=\"actor\" targetSpec=\"\"}}Je vais aller voir {{selection value=\"SelectedVillager\"}}{{delay20}} pour m'excuser et faire la paix, {{string value=\"6\"}}."
  },
  {
    "label": "411",
    "attribute": "0x0000000000000000",
    "text": "{{anim id=\"Nodding\" target=\"actor\" targetSpec=\"\"}}{{selection value=\"SelectedVillager\"}} connaît vraiment bien mes goûts !"
  },
  {
    "label": "412",
    "attribute": "0x0000000000000000",
    "text": "{{anim id=\"HappyDance\" target=\"actor\" targetSpec=\"\"}}{{selection value=\"SelectedVillager\"}} sait exactement ce que j'aime,{{delay20}} lol !{{string value=\"...\"}}{{delay frames=\"40\"}} C'est ce qu'elle dit tout le temps :{{delay20}} « ⁠lol ! ⁠»"
  },
  {
    "label": "413",
    "attribute": "0x0000000000000000",
    "text": "{{anim id=\"Love\" target=\"actor\" targetSpec=\"\"}}{{selection value=\"SelectedVillager\"}} a vraiment le chic pour choisir des cadeaux super{{string value=\"...\"}}{{delay20}}{{anim id=\"Thinking\" target=\"actor\" targetSpec=\"\"}} eh ben{{string value=\"...\"}}{{delay frames=\"40\"}}{{anim id=\"Laughing\" target=\"actor\" targetSpec=\"\"}} chic !"
  },
  {
    "label": "414",
    "attribute": "0x0000000000000000",
    "text": "{{anim id=\"Blushing\" target=\"actor\" targetSpec=\"\"}}J'ai toujours l'impression {{gender4 m=\"que \" f=\"qu'⁠\"}}{{selection value=\"SelectedVillager\"}} fait pas attention à moi{{string value=\"...\"}}{{pageBreak}}Mais en fait,{{delay20}} elle sait ce que j'aime !"
  },
  {
    "label": "415",
    "attribute": "0x0000000000000000",
    "text": "{{anim id=\"Thinking\" target=\"actor\" targetSpec=\"\"}}{{selection value=\"SelectedVillager\"}} a choisi ça pour moi ?{{delay frames=\"40\"}} {{anim id=\"Laughing\" target=\"actor\" targetSpec=\"\"}}Franchement, je m'y attendais pas !"
  },
  {
    "label": "416",
    "attribute": "0x0000000000000000",
    "text": "{{anim id=\"ShyBoy\" target=\"actor\" targetSpec=\"\"}}Je me demande si {{selection value=\"SelectedVillager\"}} a acheté ça entre deux compétitions de {{randomSports}}{{string value=\"...\"}}"
  },
  {
    "label": "417",
    "attribute": "0x0000000000000000",
    "text": "{{anim id=\"AbsentMindedness\" target=\"actor\" targetSpec=\"\"}}J'aurais voulu voir la tête {{gender4 m=\"que \" f=\"qu'⁠\"}}{{selection value=\"SelectedVillager\"}} faisait quand il a acheté ça !"
  },
  {
    "label": "418",
    "attribute": "0x0000000000000000",
    "text": "{{anim id=\"HappyDance\" target=\"actor\" targetSpec=\"\"}}Les cadeaux {{gender4 m=\"de \" f=\"d'⁠\"}}{{selection value=\"SelectedVillager\"}} sont toujours super classe !"
  }
]