﻿[
  {
    "label": "001",
    "text": "To my bold friend {{string value=\"NickName\"}},"
  },
  {
    "label": "002",
    "text": "My sporting friend {{string value=\"NickName\"}},"
  },
  {
    "label": "003",
    "text": "My fortunate friend {{string value=\"NickName\"}},"
  },
  {
    "label": "101",
    "text": "I had a blast goin' toe-to-toe with\nyou the other day! So glad to see\nthere are still some folks around\nwho'll mix it up a little bit. Anyway,\nhere's that prize I owe you. Let's\nhave a rematch real soon!"
  },
  {
    "label": "102",
    "text": "We had some fun, didn't we?\nDon't even mind comin' out on the\nlosin' side, as long as I have fun.\nAnyway, here's the prize I owe you.\nLet's play again sometime soon\nand see what else I can lose."
  },
  {
    "label": "103",
    "text": "You seemed like you were havin' a\nblast when we played that game.\n'Course, it's easy to have fun when\nyou're winnin'. Gahaha! Don't mind\nme teasin' you... Here's that prize\nyou won fair and square. Enjoy it!"
  },
  {
    "label": "201",
    "text": "Be seein' you! –{{string value=\"VillagerName\"}}"
  },
  {
    "label": "202",
    "text": "I'll win next time. –{{string value=\"VillagerName\"}}"
  },
  {
    "label": "203",
    "text": "Until next time, {{string value=\"VillagerName\"}}"
  }
]