﻿[
  {
    "label": "001",
    "text": "{{capitalizeNextLetter}}{{string value=\"NickName\"}}!"
  },
  {
    "label": "002",
    "text": "Hullo, {{string value=\"NickName\"}}!"
  },
  {
    "label": "003",
    "text": "Dear {{string value=\"NickName\"}},"
  },
  {
    "label": "004",
    "text": "Heya, {{string value=\"NickName\"}}..."
  },
  {
    "label": "005",
    "text": "Greetings, {{string value=\"NickName\"}}."
  },
  {
    "label": "006",
    "text": "Hello there, {{string value=\"NickName\"}}!"
  },
  {
    "label": "007",
    "text": "How do ya do, {{string value=\"NickName\"}}?"
  },
  {
    "label": "008",
    "text": "Hi, {{string value=\"NickName\"}}."
  },
  {
    "label": "009",
    "text": "Hullo there, {{string value=\"NickName\"}}..."
  },
  {
    "label": "010",
    "text": "Howdy, {{string value=\"NickName\"}}!"
  },
  {
    "label": "201",
    "text": "–{{string value=\"VillagerName\"}}"
  },
  {
    "label": "202",
    "text": "Your pal, {{string value=\"VillagerName\"}}"
  },
  {
    "label": "203",
    "text": "Sincerely, {{string value=\"VillagerName\"}}"
  },
  {
    "label": "204",
    "text": "Keep on keepin' on. {{string value=\"VillagerName\"}}"
  },
  {
    "label": "205",
    "text": "Be seein' ya. –{{string value=\"VillagerName\"}}"
  },
  {
    "label": "206",
    "text": "Over n' out. –{{string value=\"VillagerName\"}}"
  },
  {
    "label": "207",
    "text": "Cheers, {{string value=\"VillagerName\"}}"
  },
  {
    "label": "208",
    "text": "Carpe diem. –{{string value=\"VillagerName\"}}"
  },
  {
    "label": "209",
    "text": "Later 'gator. –{{string value=\"VillagerName\"}}"
  },
  {
    "label": "210",
    "text": "So long for now. –{{string value=\"VillagerName\"}}"
  }
]