﻿[
  {
    "label": "011",
    "attribute": "0x00000C0100000007",
    "text": "{{anim id=\"Greeting\" target=\"actor\" targetSpec=\"\"}}Oh!{{delay40}} Bienvenue!{{setNpcTalkChoices chatOption=\"0\" cancelOption=\"1\"}}"
  },
  {
    "label": "012",
    "attribute": "0x00000C0100000007",
    "text": "{{anim id=\"Smiling\" target=\"actor\" targetSpec=\"\"}}Wouah, ça me fait super plaisir\nque tu sois là!{{setNpcTalkChoices chatOption=\"0\" cancelOption=\"1\"}}"
  },
  {
    "label": "013",
    "attribute": "0x00000C0100000007",
    "text": "{{anim id=\"HappyDance\" target=\"actor\" targetSpec=\"\"}}Je suis trop trop contente que\ntu sois venu{{gender2 m=\"\" f=\"e\"}}!{{setNpcTalkChoices chatOption=\"0\" cancelOption=\"1\"}}"
  },
  {
    "label": "014",
    "attribute": "0x00000C0100070007",
    "text": "{{anim id=\"Greeting\" target=\"actor\" targetSpec=\"\"}}Bonjour!{{delay40}} {{anim id=\"Hesitate\" target=\"actor\" targetSpec=\"\"}}Je pensais pas qu'on\nse verrait si tôt dans la journée,\n{{string value=\"6\"}}!{{setNpcTalkChoices chatOption=\"0\" cancelOption=\"1\"}}"
  },
  {
    "label": "015",
    "attribute": "0x00000C0100030007",
    "text": "{{anim id=\"BigSmile\" target=\"actor\" targetSpec=\"\"}}Kikouuu!{{delay40}} {{anim id=\"FaintSmile\" target=\"actor\" targetSpec=\"\"}}J'aime bien traîner\nà la maison, des fois...{{setNpcTalkChoices chatOption=\"0\" cancelOption=\"1\"}}"
  },
  {
    "label": "016",
    "attribute": "0x00000C0100040007",
    "text": "{{anim id=\"HappyFlower\" target=\"actor\" targetSpec=\"\"}}Wouah!{{delay20}} Merci d'être venu{{gender2 m=\"\" f=\"e\"}}!{{setNpcTalkChoices chatOption=\"0\" cancelOption=\"1\"}}"
  },
  {
    "label": "017",
    "attribute": "0x00000C0100060007",
    "text": "{{anim id=\"Greeting\" target=\"actor\" targetSpec=\"\"}}Coucou!{{delay40}} Il se fait tard...{{delay40}}\n{{anim id=\"Hello\" target=\"actor\" targetSpec=\"\"}}T'as prévu de faire une nuit\nblanche, {{string value=\"6\"}}?{{setNpcTalkChoices chatOption=\"0\" cancelOption=\"0\"}}"
  },
  {
    "label": "018",
    "attribute": "0x00000C0500000007",
    "text": "{{anim id=\"FaintSmile\" target=\"actor\" targetSpec=\"\"}}Hellooo!{{delay40}} {{anim id=\"SmugFace\" target=\"actor\" targetSpec=\"\"}}Bienvenue dans mon\nhumble demeure, {{string value=\"6\"}}!{{setNpcTalkChoices chatOption=\"0\" cancelOption=\"1\"}}"
  },
  {
    "label": "019",
    "attribute": "0x00000C0700000007",
    "text": "{{anim id=\"ShyBoy\" target=\"actor\" targetSpec=\"\"}}J'adore que tu sois sorti{{gender2 m=\"\" f=\"e\"}} sous\nla pluie juste pour venir me voir!{{delay40}}\n{{anim id=\"FaintSmile\" target=\"actor\" targetSpec=\"\"}}C'est super sympa!{{setNpcTalkChoices chatOption=\"0\" cancelOption=\"1\"}}"
  },
  {
    "label": "020",
    "attribute": "0x00000C0900000007",
    "text": "{{anim id=\"Sneezing\" target=\"actor\" targetSpec=\"\"}}Atchoum!{{delay40}} Il fait trop froid, c'est\nde l'abus!{{delay40}}{{anim id=\"Nodding\" target=\"actor\" targetSpec=\"\"}} Habille-toi bien\nquand tu sors, OK?{{setNpcTalkChoices chatOption=\"0\" cancelOption=\"1\"}}"
  },
  {
    "label": "022",
    "attribute": "0x00000C0100000008",
    "text": "{{anim id=\"Greeting\" target=\"actor\" targetSpec=\"\"}}Oh, {{string value=\"NickName\"}}!{{delay40}}\n{{anim id=\"Nodding\" target=\"actor\" targetSpec=\"\"}}Fais comme chez toi, {{string value=\"6\"}}!{{setNpcTalkChoices chatOption=\"0\" cancelOption=\"1\"}}"
  },
  {
    "label": "023",
    "attribute": "0x00000C0100000008",
    "text": "{{anim id=\"Smiling\" target=\"actor\" targetSpec=\"\"}}Saluuut, {{delay20}}{{string value=\"NickName\"}}!{{delay40}}\nC'est le fun de rester à la maison\ndes fois, tu trouves pas?{{setNpcTalkChoices chatOption=\"0\" cancelOption=\"1\"}}"
  },
  {
    "label": "024",
    "attribute": "0x00000C0100000008",
    "text": "{{anim id=\"FaintSmile\" target=\"actor\" targetSpec=\"\"}}C'est super cool de passer me\nvoir, {{string value=\"NickName\"}}!{{setNpcTalkChoices chatOption=\"0\" cancelOption=\"1\"}}"
  },
  {
    "label": "025",
    "attribute": "0x00000C0100070008",
    "text": "{{anim id=\"Greeting\" target=\"actor\" targetSpec=\"\"}}Bonjouuur, {{delay20}}{{string value=\"NickName\"}}!{{delay40}}\n{{anim id=\"HappyDance\" target=\"actor\" targetSpec=\"\"}}C'est super cool que tu sois passé{{gender2 m=\"\" f=\"e\"}}\nme voir, {{string value=\"6\"}}!{{setNpcTalkChoices chatOption=\"0\" cancelOption=\"1\"}}"
  },
  {
    "label": "026",
    "attribute": "0x00000C0100030008",
    "text": "{{anim id=\"Greeting\" target=\"actor\" targetSpec=\"\"}}Coucou, {{string value=\"NickName\"}}!{{delay40}}\n{{anim id=\"Sleepy\" target=\"actor\" targetSpec=\"\"}}J'étais hyper occupée à {{delay8}}rien{{delay8}} faire{{string value=\"...\"}}\n{{anim id=\"FaintSmile\" target=\"actor\" targetSpec=\"\"}}Des fois,{{delay8}} il faut bien ça!{{setNpcTalkChoices chatOption=\"0\" cancelOption=\"1\"}}"
  },
  {
    "label": "027",
    "attribute": "0x00000C0100040008",
    "text": "{{anim id=\"Smiling\" target=\"actor\" targetSpec=\"\"}}Salut {{string value=\"NickName\"}}!{{delay40}}\n{{anim id=\"ShyBoy\" target=\"actor\" targetSpec=\"\"}}C'est super gentil de passer!{{setNpcTalkChoices chatOption=\"0\" cancelOption=\"1\"}}"
  },
  {
    "label": "028",
    "attribute": "0x00000C0100090008",
    "text": "{{anim id=\"Greeting\" target=\"actor\" targetSpec=\"\"}}Coucou!{{delay20}} {{anim id=\"Smiling\" target=\"actor\" targetSpec=\"\"}}Youpi, on va s'amuser\nsans regarder l'heure!{{setNpcTalkChoices chatOption=\"0\" cancelOption=\"1\"}}"
  },
  {
    "label": "029",
    "attribute": "0x00000C0500000008",
    "text": "{{anim id=\"HappyFlower\" target=\"actor\" targetSpec=\"\"}}Bienvenue,{{delay40}} {{string value=\"NickName\"}}!{{setNpcTalkChoices chatOption=\"0\" cancelOption=\"1\"}}"
  },
  {
    "label": "030",
    "attribute": "0x00000C0700000008",
    "text": "{{anim id=\"FaintSmile\" target=\"actor\" targetSpec=\"\"}}C'est super gentil d'être venu{{gender2 m=\"\" f=\"e\"}}\n{{anim id=\"ShyBoy\" target=\"actor\" targetSpec=\"\"}}alors qu'il pleut, {{string value=\"NickName\"}}!{{setNpcTalkChoices chatOption=\"0\" cancelOption=\"1\"}}"
  },
  {
    "label": "031",
    "attribute": "0x00000C0900000008",
    "text": "{{anim id=\"BigSmile\" target=\"actor\" targetSpec=\"\"}}C'est gentil d'être venu{{gender2 m=\"\" f=\"e\"}}\njusqu'ici {{anim id=\"Smiling\" target=\"actor\" targetSpec=\"\"}}alors qu'il neige à plein\nciel, {{string value=\"NickName\"}}!{{setNpcTalkChoices chatOption=\"0\" cancelOption=\"1\"}}"
  },
  {
    "label": "033",
    "attribute": "0x00000C0100000009",
    "text": "{{anim id=\"Hello\" target=\"actor\" targetSpec=\"\"}}C'est fou, je voulais justement\n{{anim id=\"HappyDance\" target=\"actor\" targetSpec=\"\"}}te voir, {{string value=\"NickName\"}}!{{setNpcTalkChoices chatOption=\"1\" cancelOption=\"0\"}}"
  },
  {
    "label": "034",
    "attribute": "0x00000C0100000009",
    "text": "{{anim id=\"Hello\" target=\"actor\" targetSpec=\"\"}}{{capitalizeNextLetter}}{{string value=\"14\"}}Coucou, mon coco{{endTag}}!{{delay40}}\n{{anim id=\"Nodding\" target=\"actor\" targetSpec=\"\"}}Surtout fais comme chez toi,\n{{delay20}}{{string value=\"6\"}}!{{setNpcTalkChoices chatOption=\"0\" cancelOption=\"1\"}}"
  },
  {
    "label": "035",
    "attribute": "0x00000C0100000009",
    "text": "{{anim id=\"Nodding\" target=\"actor\" targetSpec=\"\"}}{{capitalizeNextLetter}}{{string value=\"14\"}}Coucou, mon coco{{endTag}}!{{delay40}}\n{{anim id=\"Smiling\" target=\"actor\" targetSpec=\"\"}}Ça me fait trop plaisir que\ntu sois là, {{string value=\"6\"}}!{{setNpcTalkChoices chatOption=\"0\" cancelOption=\"1\"}}"
  },
  {
    "label": "036",
    "attribute": "0x00000C0100070009",
    "text": "{{anim id=\"Greeting\" target=\"actor\" targetSpec=\"\"}}{{capitalizeNextLetter}}{{string value=\"14\"}}Coucou, mon coco{{endTag}}!{{delay40}}\n{{anim id=\"HappyFlower\" target=\"actor\" targetSpec=\"\"}}Je pensais pas te voir si tôt,\n{{delay8}}mais ça me fait trop plaisir!{{setNpcTalkChoices chatOption=\"0\" cancelOption=\"1\"}}"
  },
  {
    "label": "037",
    "attribute": "0x00000C0100030009",
    "text": "{{anim id=\"Smiling\" target=\"actor\" targetSpec=\"\"}}{{capitalizeNextLetter}}{{string value=\"14\"}}Coucou, mon coco{{endTag}}!{{delay40}}\n{{anim id=\"HappyFlower\" target=\"actor\" targetSpec=\"\"}}Ça me fait su{{delay8}}u{{delay8}}u{{delay8}}u{{delay8}}per plaisir\nque tu sois venu{{gender2 m=\"\" f=\"e\"}}!{{setNpcTalkChoices chatOption=\"0\" cancelOption=\"1\"}}"
  },
  {
    "label": "038",
    "attribute": "0x00000C0100040009",
    "text": "{{anim id=\"Greeting\" target=\"actor\" targetSpec=\"\"}}{{capitalizeNextLetter}}{{string value=\"14\"}}Coucou, mon coco{{endTag}}!{{delay40}}\n{{anim id=\"Blushing\" target=\"actor\" targetSpec=\"\"}}Ça me fait super plaisir de te voir!{{setNpcTalkChoices chatOption=\"0\" cancelOption=\"1\"}}"
  },
  {
    "label": "039",
    "attribute": "0x00000C0100090009",
    "text": "{{anim id=\"FaintSmile\" target=\"actor\" targetSpec=\"\"}}{{capitalizeNextLetter}}{{string value=\"14\"}}Coucou, mon coco{{endTag}}!{{delay40}}\n{{anim id=\"SmugFace\" target=\"actor\" targetSpec=\"\"}}La nuit ne fait que commencer!{{setNpcTalkChoices chatOption=\"0\" cancelOption=\"1\"}}"
  },
  {
    "label": "040",
    "attribute": "0x00000C0500000009",
    "text": "{{anim id=\"Clapping\" target=\"actor\" targetSpec=\"\"}}{{capitalizeNextLetter}}{{string value=\"14\"}}Coucou, mon coco{{endTag}}!{{delay40}}\n{{anim id=\"Blushing\" target=\"actor\" targetSpec=\"\"}}T'es ici chez toi, tu sais.{{setNpcTalkChoices chatOption=\"0\" cancelOption=\"1\"}}"
  },
  {
    "label": "041",
    "attribute": "0x00000C0700000009",
    "text": "{{anim id=\"Hello\" target=\"actor\" targetSpec=\"\"}}{{capitalizeNextLetter}}{{string value=\"14\"}}Coucou, mon coco{{endTag}}!{{delay40}}\n{{anim id=\"Smiling\" target=\"actor\" targetSpec=\"\"}}Hésite pas à rester aussi longtemps\nque tu veux pour éviter la pluie!{{setNpcTalkChoices chatOption=\"0\" cancelOption=\"1\"}}"
  },
  {
    "label": "042",
    "attribute": "0x00000C0900000009",
    "text": "{{anim id=\"Greeting\" target=\"actor\" targetSpec=\"\"}}{{capitalizeNextLetter}}{{string value=\"14\"}}Coucou, mon coco{{endTag}}!{{delay40}}\nAaa{{string value=\"...\"}}{{anim id=\"Sneezing\" target=\"actor\" targetSpec=\"\"}} Atchoum!{{delay40}}{{anim id=\"Confused\" target=\"actor\" targetSpec=\"\"}} Il fait trop froid,\nsérieux{{string value=\"...\"}}{{setNpcTalkChoices chatOption=\"0\" cancelOption=\"1\"}}"
  }
]