﻿[
  {
    "label": "001",
    "attribute": "0x0000000000000000",
    "text": "{{fun_0014003C arg=\"\"}}"
  },
  {
    "label": "001_01",
    "attribute": "0x0000000000000000",
    "text": "{{anim id=\"Smiling\" target=\"actor\" targetSpec=\"\"}}I had a gut feeling you were an art\nlover like me, {{string value=\"NickName\"}}!{{pageBreak}}{{anim id=\"Blushing\" target=\"actor\" targetSpec=\"\"}}And I plan to reward my gut for its\naccuracy{{delay8}} with some sort of sugary\nbaked good.\nIn the meantime,{{anim id=\"Thinking\" target=\"actor\" targetSpec=\"\"}}{{delay20}} I wonder what other\ninterests you and I share?"
  },
  {
    "label": "001_02",
    "attribute": "0x0000000000000000",
    "text": "{{anim id=\"Hello\" target=\"actor\" targetSpec=\"\"}}So, {{string value=\"NickName\"}},{{delay8}} I'm curious.{{delay20}}\n{{anim id=\"QuestionMark\" target=\"actor\" targetSpec=\"\"}}Do you have a favorite work of art?{{pageBreak}}{{anim id=\"Explain\" target=\"actor\" targetSpec=\"\"}}Whenever I find a new piece that I\nlove,{{delay8}} I quickly become obsessed.{{pageBreak}}Sometimes I'll just stare{{anim id=\"AbsentMindedness\" target=\"actor\" targetSpec=\"\"}} at it for\nhours and hours{{delay40}}{{string value=\"...\"}}and hours.{{delay40}}{{pageBreak}}{{anim id=\"Surprised\" target=\"actor\" targetSpec=\"\"}}I'm sorry{{string value=\"...\"}}{{delay20}}{{anim id=\"Confused\" target=\"actor\" targetSpec=\"\"}} What were we talking\nabout, {{string value=\"Catchphrase\"}}?"
  },
  {
    "label": "001_03",
    "attribute": "0x0000000000000000",
    "text": "{{anim id=\"Smiling\" target=\"actor\" targetSpec=\"\"}}I'm grateful to have company while I\nputter around this exhibit.{{pageBreak}}{{anim id=\"Hesitate\" target=\"actor\" targetSpec=\"\"}}I'd love to hear your thoughts on\nsome of these pieces."
  },
  {
    "label": "100",
    "attribute": "0x0000000000000000",
    "text": "{{fun_0014003C arg=\"\"}}"
  },
  {
    "label": "100_01",
    "attribute": "0x0000000000000000",
    "text": "{{anim id=\"Hello\" target=\"actor\" targetSpec=\"\"}}A fellow art enthusiast, I see.{{delay40}}\n{{anim id=\"Scheming\" target=\"actor\" targetSpec=\"\"}}Let me guess—{{delay40}}you count the paint\nstrokes in every painting too.\n{{anim id=\"SmugFace\" target=\"actor\" targetSpec=\"\"}}It takes one to know one."
  },
  {
    "label": "100_02",
    "attribute": "0x0000000000000000",
    "text": "{{anim id=\"Smiling\" target=\"actor\" targetSpec=\"\"}}We're rather proud of our museum\nhere on {{string value=\"OtherIslandName\"}}.{{pageBreak}}We have a fabulous collection,\n{{string value=\"Catchphrase\"}},{{delay20}}{{anim id=\"Blushing\" target=\"actor\" targetSpec=\"\"}} if I do say so myself."
  },
  {
    "label": "100_03",
    "attribute": "0x0000000000000000",
    "text": "{{anim id=\"FaintSmile\" target=\"actor\" targetSpec=\"\"}}I've noticed there's something of an\naura{{delay8}} surrounding the artwork\ndisplayed on this island.\n{{anim id=\"Nodding\" target=\"actor\" targetSpec=\"\"}}Visitors and residents are simply\ndrawn to it.{{pageBreak}}Of course,{{delay8}}{{anim id=\"Blushing\" target=\"actor\" targetSpec=\"\"}} that could be because\nthere's not much else to do on a\ndeserted island like this."
  },
  {
    "label": "200",
    "attribute": "0x0000000000000000",
    "text": "{{fun_0014003C arg=\"\"}}"
  },
  {
    "label": "200_01",
    "attribute": "0x0000000000000000",
    "text": "{{anim id=\"Smiling\" target=\"actor\" targetSpec=\"\"}}As soon as I heard about the art\ngallery opening,{{delay8}} I ran straight over.{{pageBreak}}{{anim id=\"AbsentMindedness\" target=\"actor\" targetSpec=\"\"}}I've always pictured myself as a\nvery sophisticated {{string value=\"VillagerRace\"}}{{delay8}} who\nspent her evenings in galleries{{string value=\"...\"}}\nand weekends reading on her\nyacht.{{delay40}} {{anim id=\"SmugFace\" target=\"actor\" targetSpec=\"\"}}All I need now is the boat!"
  },
  {
    "label": "200_02",
    "attribute": "0x0000000000000000",
    "text": "{{anim id=\"QuestionMark\" target=\"actor\" targetSpec=\"\"}}Have you had a good look at\neverything yet, {{string value=\"NickName\"}}?{{pageBreak}}{{anim id=\"ShyBoy\" target=\"actor\" targetSpec=\"\"}}I think I'll stick around here a little\nwhile longer{{delay20}} to soak up the artistic\natmosphere, {{string value=\"Catchphrase\"}}."
  },
  {
    "label": "200_03",
    "attribute": "0x0000000000000000",
    "text": "{{anim id=\"Love\" target=\"actor\" targetSpec=\"\"}}Can you believe that\n{{string value=\"OtherIslandName\"}} has a museum{{delay8}}\nwith a bonafide art gallery?\n{{anim id=\"Clapping\" target=\"actor\" targetSpec=\"\"}}And that it's open 24 hours!{{pageBreak}}{{anim id=\"Smiling\" target=\"actor\" targetSpec=\"\"}}If {{color id=\"3\"}}Blathers{{color id=\"65535\"}} served pancakes and egg\ncreams,{{delay20}} this place would quickly\nbecome my home away from home!{{anim id=\"Laughing\" target=\"actor\" targetSpec=\"\"}}"
  },
  {
    "label": "201",
    "attribute": "0x0000000000000000",
    "text": "{{fun_0015003C arg=\"0x03C800C8000100010001000100010001000100010001000100CD\"}}"
  }
]