﻿[
  {
    "label": "001",
    "attribute": "0x0000000000000000",
    "text": "{{fun_0014003C arg=\"\"}}"
  },
  {
    "label": "001_01",
    "attribute": "0x0000000000000000",
    "text": "{{anim id=\"FaintSmile\" target=\"actor\" targetSpec=\"\"}}Ты часто бываешь на этом острове?{{delay frames=\"40\"}}\nСюда хочется возвращаться,{{delay40}}{{anim id=\"HappyFlower\" target=\"actor\" targetSpec=\"\"}} ведь\nздесь так уютно!{{delay20}} {{capitalizeNextLetter}}{{string value=\"Catchphrase\"}}!"
  },
  {
    "label": "001_02",
    "attribute": "0x0000000000000000",
    "text": "{{anim id=\"FaintSmile\" target=\"actor\" targetSpec=\"\"}}Вижу, что не мне одной{{delay20}} захотелось\nпосетить этот остров{{string value=\"...\"}}{{delay20}}\n{{capitalizeNextLetter}}{{string value=\"Catchphrase\"}}!{{pageBreak}}{{anim id=\"Smiling\" target=\"actor\" targetSpec=\"\"}}Похоже, это место пользуется\nпопулярностью среди туристов!"
  },
  {
    "label": "001_03",
    "attribute": "0x0000000000000000",
    "text": "{{anim id=\"QuestionMark\" target=\"actor\" targetSpec=\"\"}}У тебя есть идеи, куда я могу\nсходить на этом острове?{{delay20}}\n{{capitalizeNextLetter}}{{string value=\"Catchphrase\"}}!{{pageBreak}}{{anim id=\"Hesitate\" target=\"actor\" targetSpec=\"\"}}А то я мало бывала за{{delay20}} пределами\n{{color id=\"1\"}}кемпинга{{color id=\"65535\"}}{{delay8}}{{string value=\"...\"}}"
  },
  {
    "label": "002",
    "attribute": "0x0000000000000000",
    "text": "{{fun_0014003C arg=\"\"}}"
  },
  {
    "label": "002_01",
    "attribute": "0x0000000000000000",
    "text": "{{anim id=\"FaintSmile\" target=\"actor\" targetSpec=\"\"}}Ты часто бываешь на этом острове?{{delay frames=\"40\"}}\nСюда хочется возвращаться,{{delay40}}{{anim id=\"HappyFlower\" target=\"actor\" targetSpec=\"\"}} ведь\nздесь так уютно!{{delay20}} {{capitalizeNextLetter}}{{string value=\"Catchphrase\"}}!"
  },
  {
    "label": "002_02",
    "attribute": "0x0000000000000000",
    "text": "{{anim id=\"FaintSmile\" target=\"actor\" targetSpec=\"\"}}Вижу, что не мне одной{{delay20}} захотелось\nпосетить этот остров{{string value=\"...\"}}{{delay20}}\n{{capitalizeNextLetter}}{{string value=\"Catchphrase\"}}!{{pageBreak}}{{anim id=\"Smiling\" target=\"actor\" targetSpec=\"\"}}Похоже, это место пользуется\nпопулярностью среди туристов!"
  },
  {
    "label": "002_03",
    "attribute": "0x0000000000000000",
    "text": "{{anim id=\"QuestionMark\" target=\"actor\" targetSpec=\"\"}}У тебя есть идеи, куда я могу\nсходить на этом острове?{{delay20}}\n{{capitalizeNextLetter}}{{string value=\"Catchphrase\"}}!{{pageBreak}}{{anim id=\"Hesitate\" target=\"actor\" targetSpec=\"\"}}А то я мало бывала за{{delay20}} пределами\n{{color id=\"1\"}}кемпинга{{color id=\"65535\"}}{{delay8}}{{string value=\"...\"}}"
  },
  {
    "label": "002_04",
    "attribute": "0x0000000000000000",
    "text": "{{anim id=\"Smiling\" target=\"actor\" targetSpec=\"\"}}Один местный житель пригласил\nменя погостить на этом острове{{string value=\"...\"}}{{delay20}}\n{{capitalizeNextLetter}}{{string value=\"Catchphrase\"}}!{{pageBreak}}{{anim id=\"Hesitate\" target=\"actor\" targetSpec=\"\"}}Надеюсь, я никому здесь не мешаю\nсвоим присутствием{{delay8}}{{string value=\"...\"}}"
  },
  {
    "label": "002_05",
    "attribute": "0x0000000000000000",
    "text": "{{anim id=\"Explain\" target=\"actor\" targetSpec=\"\"}}Кое-кто из местных жителей{{delay20}}\nпригласил меня пожить в палатке\nна этом острове{{delay8}}{{string value=\"...\"}}{{pageBreak}}{{anim id=\"Smiling\" target=\"actor\" targetSpec=\"\"}}Надеюсь, ты так же хорошо\nпроводишь здесь время, как и я!{{delay20}}\n{{capitalizeNextLetter}}{{string value=\"Catchphrase\"}}!"
  },
  {
    "label": "003",
    "attribute": "0x0000000000000000",
    "text": "{{fun_0014003C arg=\"\"}}"
  },
  {
    "label": "003_01",
    "attribute": "0x0000000000000000",
    "text": "{{anim id=\"Explain\" target=\"actor\" targetSpec=\"\"}}Жизнь в палатке полна лишений,{{delay20}}\nно в этом и заключается вся ее\nпрелесть{{delay8}}{{string value=\"...\"}}{{pageBreak}}{{anim id=\"Nodding\" target=\"actor\" targetSpec=\"\"}}В походе сразу понимаешь, без чего\nможно обойтись.{{delay20}} {{capitalizeNextLetter}}{{string value=\"Catchphrase\"}}!{{pageBreak}}{{anim id=\"Love\" target=\"actor\" targetSpec=\"\"}}И пейзажами вокруг вдвойне\nприятно любоваться, когда ничто\nне отвлекает!"
  },
  {
    "label": "003_02",
    "attribute": "0x0000000000000000",
    "text": "{{anim id=\"Smiling\" target=\"actor\" targetSpec=\"\"}}Тебе нравится на острове {{string value=\"OtherIslandName\"}}?{{delay20}} {{capitalizeNextLetter}}{{string value=\"Catchphrase\"}}!{{pageBreak}}{{anim id=\"Hesitate\" target=\"actor\" targetSpec=\"\"}}Я вот решила переехать сюда жить{{delay20}}\nи пока только начинаю осознавать,{{anim id=\"Worried\" target=\"actor\" targetSpec=\"\"}}\nкакие перемены меня ждут.{{pageBreak}}{{anim id=\"Sighing\" target=\"actor\" targetSpec=\"\"}}Надеюсь, что справлюсь с этой\nзатеей."
  },
  {
    "label": "003_03",
    "attribute": "0x0000000000000000",
    "text": "{{anim id=\"AbsentMindedness\" target=\"actor\" targetSpec=\"\"}}Отдыхая здесь с палаткой,{{delay20}} я на\nвремя забыла о домашних заботах.{{delay20}}\n{{capitalizeNextLetter}}{{string value=\"Catchphrase\"}}{{delay8}}{{string value=\"...\"}}{{pageBreak}}{{anim id=\"Restless\" target=\"actor\" targetSpec=\"\"}}Но мне предстоит сюда переехать,{{delay20}}\n{{anim id=\"OhGeez\" target=\"actor\" targetSpec=\"\"}}так что, когда я вернусь домой,\nначну вовсю собирать чемоданы!"
  },
  {
    "label": "101",
    "attribute": "0x0000000000000000",
    "text": "{{fun_0014003C arg=\"\"}}"
  },
  {
    "label": "101_01",
    "attribute": "0x0000000000000000",
    "text": "{{anim id=\"Greeting\" target=\"actor\" targetSpec=\"\"}}Привет,{{delay20}} а ты с этого острова?\n{{delay frames=\"30\"}}{{anim id=\"Love\" target=\"actor\" targetSpec=\"\"}}Кажется, это приятное место!{{pageBreak}}{{anim id=\"Eh\" target=\"actor\" targetSpec=\"\"}}Ой, я позабыла о манерах.{{delay frames=\"30\"}} {{anim id=\"Hesitate\" target=\"actor\" targetSpec=\"\"}}Прости.\n{{delay20}}меня зовут {{string value=\"VillagerName\"}}.{{pageBreak}}{{anim id=\"FaintSmile\" target=\"actor\" targetSpec=\"\"}}Повезло же тебе с островом!\n{{delay frames=\"30\"}}Я собираюсь отдохнуть здесь{{anim id=\"Assent\" target=\"actor\" targetSpec=\"\"}}\nкак следует! {{capitalizeNextLetter}}{{string value=\"Catchphrase\"}}!"
  },
  {
    "label": "101_02",
    "attribute": "0x0000000000000000",
    "text": "{{anim id=\"Greeting\" target=\"actor\" targetSpec=\"\"}}Привет!{{delay20}} Ты живешь на этом\nострове?{{delay frames=\"30\"}} {{anim id=\"FaintSmile\" target=\"actor\" targetSpec=\"\"}}Тебе так повезло!\n{{delay20}}{{capitalizeNextLetter}}{{string value=\"Catchphrase\"}}.{{pageBreak}}{{anim id=\"FaintSmile\" target=\"actor\" targetSpec=\"\"}}Кстати,{{delay20}} я {{string value=\"VillagerName\"}}.{{pageBreak}}{{anim id=\"AbsentMindedness\" target=\"actor\" targetSpec=\"\"}}Здесь так спокойно!{{delay20}} Я уже\nчувствую,{{delay20}} как вернусь с этого\nострова отдохнувшей и довольной!"
  },
  {
    "label": "101_03",
    "attribute": "0x0000000000000000",
    "text": "{{anim id=\"Greeting\" target=\"actor\" targetSpec=\"\"}}Привет,{{delay20}} меня зовут {{string value=\"VillagerName\"}}.{{delay frames=\"30\"}}\n{{anim id=\"EmotEnd\" target=\"actor\" targetSpec=\"\"}}Я приехала сюда на отдых!{{delay frames=\"40\"}}\n{{anim id=\"QuestionMark\" target=\"actor\" targetSpec=\"\"}}А ты здесь живешь?{{delay20}} {{capitalizeNextLetter}}{{string value=\"Catchphrase\"}}!{{pageBreak}}{{anim id=\"Nodding\" target=\"actor\" targetSpec=\"\"}}Здесь, должно быть, очень приятно\nжить,{{delay20}}{{anim id=\"Smiling\" target=\"actor\" targetSpec=\"\"}} если все такие приветливые,\nкак ты!"
  },
  {
    "label": "201",
    "attribute": "0x0000000000000000",
    "text": "{{fun_0014003C arg=\"\"}}"
  },
  {
    "label": "201_01",
    "attribute": "0x0000000000000000",
    "text": "{{anim id=\"Greeting\" target=\"actor\" targetSpec=\"\"}}Спасибо, что пригласил{{gender2 m=\"\" f=\"а\"}}!\n{{delay20}}{{capitalizeNextLetter}}{{string value=\"Catchphrase\"}}!{{pageBreak}}{{anim id=\"SmugFace\" target=\"actor\" targetSpec=\"\"}}Я планирую злоупотребить твоим\nгостеприимством!{{delay40}}{{anim id=\"Worried\" target=\"actor\" targetSpec=\"\"}} Шучу-шучу!{{delay20}} Я бы\nсебе такого не позволила{{string value=\"...\"}}{{delay20}}"
  },
  {
    "label": "201_02",
    "attribute": "0x0000000000000000",
    "text": "{{anim id=\"Greeting\" target=\"actor\" targetSpec=\"\"}}Спасибо за приглашение!{{delay frames=\"40\"}}\n{{anim id=\"FaintSmile\" target=\"actor\" targetSpec=\"\"}}Кажется, это чудесное место\nдля отдыха!{{delay20}} {{capitalizeNextLetter}}{{string value=\"Catchphrase\"}}!"
  },
  {
    "label": "201_03",
    "attribute": "0x0000000000000000",
    "text": "{{anim id=\"Smiling\" target=\"actor\" targetSpec=\"\"}}Я очень рада, что ты меня сюда\nпригласил{{gender2 m=\"\" f=\"а\"}}!{{delay frames=\"40\"}} {{anim id=\"Explain\" target=\"actor\" targetSpec=\"\"}}Я прилетела первым же\nпопавшимся рейсом!{{delay20}} {{capitalizeNextLetter}}{{string value=\"Catchphrase\"}}!"
  },
  {
    "label": "202",
    "attribute": "0x0000000000000000",
    "text": "{{fun_0014003C arg=\"\"}}"
  },
  {
    "label": "202_01",
    "attribute": "0x0000000000000000",
    "text": "{{anim id=\"Greeting\" target=\"actor\" targetSpec=\"\"}}Привет!{{delay frames=\"40\"}} {{capitalizeNextLetter}}{{selection value=\"SelectedName\"}} тебе знаком{{gender1 m=\"\" f=\"а\"}}?{{i10_4}}{{anim id=\"FaintSmile\" target=\"actor\" targetSpec=\"\"}} Он{{gender1 m=\"\" f=\"а\"}} меня сюда пригласил{{gender1 m=\"\" f=\"а\"}}.{{pageBreak}}{{anim id=\"Hesitate\" target=\"actor\" targetSpec=\"\"}}А мы знакомы?{{delay frames=\"30\"}} Меня зовут\n{{string value=\"VillagerName\"}}.{{pageBreak}}{{anim id=\"BigSmile\" target=\"actor\" targetSpec=\"\"}}Этот чудесный остров просто\nсоздан для отдыха!{{anim id=\"FaintSmile\" target=\"actor\" targetSpec=\"\"}} {{delay20}}{{capitalizeNextLetter}}{{string value=\"Catchphrase\"}}!"
  },
  {
    "label": "202_02",
    "attribute": "0x0000000000000000",
    "text": "{{anim id=\"Explain\" target=\"actor\" targetSpec=\"\"}}Я так рада, что {{selection value=\"SelectedName\"}}\nменя сюда пригласил{{gender1 m=\"\" f=\"а\"}}!{{pageBreak}}{{anim id=\"Hesitate\" target=\"actor\" targetSpec=\"\"}}Надеюсь, он{{gender1 m=\"\" f=\"а\"}} проведет для\nменя экскурсию по острову.{{delay20}}\n{{capitalizeNextLetter}}{{string value=\"Catchphrase\"}}!"
  },
  {
    "label": "202_03",
    "attribute": "0x0000000000000000",
    "text": "{{anim id=\"FaintSmile\" target=\"actor\" targetSpec=\"\"}}{{capitalizeNextLetter}}{{selection value=\"SelectedName\"}} был{{gender1 m=\"\" f=\"а\"}} так\nлюбез{{gender1 m=\"ен\" f=\"на\"}} пригласить меня сюда.{{pageBreak}}{{anim id=\"AbsentMindedness\" target=\"actor\" targetSpec=\"\"}}Иногда приятно{{delay20}} покинуть родные\nместа{{delay20}} и отдохнуть на природе{{delay8}}{{string value=\"...\"}}{{delay20}}\n{{capitalizeNextLetter}}{{string value=\"Catchphrase\"}}!"
  },
  {
    "label": "301",
    "attribute": "0x0000000000000000",
    "text": "{{fun_0014003C arg=\"\"}}"
  },
  {
    "label": "301_01",
    "attribute": "0x0000000000000000",
    "text": "{{anim id=\"Hesitate\" target=\"actor\" targetSpec=\"\"}}Все свободное время{{delay20}} я собираюсь{{delay20}}\nпотратить на чтение книг.{{pageBreak}}{{anim id=\"Love\" target=\"actor\" targetSpec=\"\"}}Как приятно{{delay20}} раскрасить свои\nскучные будни{{string value=\"...\"}}{{delay20}} {{capitalizeNextLetter}}{{string value=\"Catchphrase\"}}!"
  },
  {
    "label": "301_02",
    "attribute": "0x0000000000000000",
    "text": "{{anim id=\"FaintSmile\" target=\"actor\" targetSpec=\"\"}}Отдых с палаткой прекрасен во\nвсем,{{delay20}} {{delay20}}{{anim id=\"HappyFlower\" target=\"actor\" targetSpec=\"\"}}одно звездное небо над\nголовой чего стоит{{string value=\"...\"}}{{delay20}} {{capitalizeNextLetter}}{{string value=\"Catchphrase\"}}!"
  },
  {
    "label": "301_03",
    "attribute": "0x0000000000000000",
    "text": "{{anim id=\"Explain\" target=\"actor\" targetSpec=\"\"}}Когда я вот так вот путешествую,{{delay20}} то\nпонимаю, насколько ценно бывать\nнаедине с собой{{string value=\"...\"}}{{delay20}} {{capitalizeNextLetter}}{{string value=\"Catchphrase\"}}!{{pageBreak}}{{anim id=\"Aha\" target=\"actor\" targetSpec=\"\"}}Ох!{{delay frames=\"40\"}} {{anim id=\"Worried\" target=\"actor\" targetSpec=\"\"}}Только не подумай, что\nя избегаю общения.{{delay20}} {{anim id=\"FaintSmile\" target=\"actor\" targetSpec=\"\"}}Я очень рада,\nчто мне есть с кем поговорить."
  },
  {
    "label": "301_04",
    "attribute": "0x0000000000000000",
    "text": "{{anim id=\"AbsentMindedness\" target=\"actor\" targetSpec=\"\"}}От свежего воздуха и ясного неба\nнад головой во мне просыпается\nдуша поэта{{string value=\"...\"}}{{delay20}} {{capitalizeNextLetter}}{{string value=\"Catchphrase\"}}!"
  },
  {
    "label": "301_05",
    "attribute": "0x0000000000000000",
    "text": "{{anim id=\"Hesitate\" target=\"actor\" targetSpec=\"\"}}Ты, наверное, и не ожидал{{gender2 m=\"\" f=\"а\"}},{{delay20}} что\nя смогу сама поставить палатку.{{delay20}}\n{{capitalizeNextLetter}}{{string value=\"Catchphrase\"}}!{{pageBreak}}{{anim id=\"Thinking\" target=\"actor\" targetSpec=\"\"}}Думаю, это потому, что я дважды\nпрочла книгу{{delay20}} {{anim id=\"FaintSmile\" target=\"actor\" targetSpec=\"\"}}«Отдых с палаткой\nот А до Я»{{delay8}}{{string value=\"...\"}}"
  },
  {
    "label": "302",
    "attribute": "0x0000000000000000",
    "text": "{{fun_0014003C arg=\"\"}}"
  },
  {
    "label": "302_01",
    "attribute": "0x0000000000000000",
    "text": "{{anim id=\"Hesitate\" target=\"actor\" targetSpec=\"\"}}Все свободное время{{delay20}} я собираюсь{{delay20}}\nпотратить на чтение книг.{{pageBreak}}{{anim id=\"Love\" target=\"actor\" targetSpec=\"\"}}Как приятно{{delay20}} раскрасить свои\nскучные будни{{string value=\"...\"}}{{delay20}} {{capitalizeNextLetter}}{{string value=\"Catchphrase\"}}!"
  },
  {
    "label": "302_02",
    "attribute": "0x0000000000000000",
    "text": "{{anim id=\"FaintSmile\" target=\"actor\" targetSpec=\"\"}}Отдых с палаткой прекрасен во\nвсем,{{delay20}} {{delay20}}{{anim id=\"HappyFlower\" target=\"actor\" targetSpec=\"\"}}одно звездное небо над\nголовой чего стоит{{string value=\"...\"}}{{delay20}} {{capitalizeNextLetter}}{{string value=\"Catchphrase\"}}!"
  },
  {
    "label": "302_03",
    "attribute": "0x0000000000000000",
    "text": "{{anim id=\"Explain\" target=\"actor\" targetSpec=\"\"}}Когда я вот так вот путешествую,{{delay20}} то\nпонимаю, насколько ценно бывать\nнаедине с собой{{string value=\"...\"}}{{delay20}} {{capitalizeNextLetter}}{{string value=\"Catchphrase\"}}!{{pageBreak}}{{anim id=\"Aha\" target=\"actor\" targetSpec=\"\"}}Ох!{{delay frames=\"40\"}} {{anim id=\"Worried\" target=\"actor\" targetSpec=\"\"}}Только не подумай, что\nя избегаю общения.{{delay20}} {{anim id=\"FaintSmile\" target=\"actor\" targetSpec=\"\"}}Я очень рада,\nчто мне есть с кем поговорить."
  },
  {
    "label": "401",
    "attribute": "0x0000000000000000",
    "text": "{{fun_0014003C arg=\"\"}}"
  },
  {
    "label": "401_01",
    "attribute": "0x0000000000000000",
    "text": "{{anim id=\"Thinking\" target=\"actor\" targetSpec=\"\"}}Думаешь, я смогу подружиться\nс новыми соседями?{{delay frames=\"40\"}}{{anim id=\"FaintSmile\" target=\"actor\" targetSpec=\"\"}} Все здесь\nкажутся такими любезными{{string value=\"...\"}}{{pageBreak}}{{anim id=\"Hesitate\" target=\"actor\" targetSpec=\"\"}}Мне бы так хотелось{{delay20}} завести целую\nкомпанию новых друзей!{{delay20}}\n{{capitalizeNextLetter}}{{string value=\"Catchphrase\"}}!"
  },
  {
    "label": "401_02",
    "attribute": "0x0000000000000000",
    "text": "{{anim id=\"Thinking\" target=\"actor\" targetSpec=\"\"}}Переезд поможет мне{{delay20}} избавиться от\nненужных вещей{{string value=\"...\"}}{{delay20}} {{capitalizeNextLetter}}{{string value=\"Catchphrase\"}}!{{pageBreak}}{{anim id=\"Serious\" target=\"actor\" targetSpec=\"\"}}Я ведь могу обойтись почти без\nвсего.{{delay20}} Кроме{{delay8}} кухонной утвари\nи книг, мне ничего и не нужно{{delay8}}{{string value=\"...\"}}"
  },
  {
    "label": "401_03",
    "attribute": "0x0000000000000000",
    "text": "{{anim id=\"Hesitate\" target=\"actor\" targetSpec=\"\"}}Я не могла и предположить,{{delay20}} что мой\nотдых закончится переездом!{{delay40}}{{pageBreak}}{{anim id=\"Laughing\" target=\"actor\" targetSpec=\"\"}}Никогда не знаешь, что тебя ждет!{{delay20}}\n{{anim id=\"Serious\" target=\"actor\" targetSpec=\"\"}}Жизнь не перестает нас удивлять{{string value=\"...\"}}{{delay20}}\n{{capitalizeNextLetter}}{{string value=\"Catchphrase\"}}!"
  },
  {
    "label": "402",
    "attribute": "0x0000000000000000",
    "text": "{{fun_0014003C arg=\"\"}}"
  },
  {
    "label": "402_01",
    "attribute": "0x0000000000000000",
    "text": "{{anim id=\"Hesitate\" target=\"actor\" targetSpec=\"\"}}Надеюсь,{{delay8}} никто не против новых\nсоседей?{{delay20}} {{capitalizeNextLetter}}{{string value=\"Catchphrase\"}}!{{pageBreak}}{{anim id=\"Smiling\" target=\"actor\" targetSpec=\"\"}}Потому что {{selection value=\"SelectedName\"}}{{delay20}}\nубедил{{gender1 m=\"\" f=\"а\"}} меня переехать сюда!{{pageBreak}}{{anim id=\"HappyFlower\" target=\"actor\" targetSpec=\"\"}}Мне не терпится назвать это место{{delay8}}\nсвоим домом!"
  },
  {
    "label": "402_02",
    "attribute": "0x0000000000000000",
    "text": "{{anim id=\"Hesitate\" target=\"actor\" targetSpec=\"\"}}Итак, важные новости{{delay8}}{{string value=\"...\"}}\n{{anim id=\"Smiling\" target=\"actor\" targetSpec=\"\"}}{{capitalizeNextLetter}}{{selection value=\"SelectedName\"}} пригласил{{gender1 m=\"\" f=\"а\"}} меня\nсюда переехать, и{{delay8}} я согласилась!{{pageBreak}}{{anim id=\"HappyFlower\" target=\"actor\" targetSpec=\"\"}}Вот бы побыстрее назвать остров\n{{string value=\"OtherIslandName\"}} {{delay8}}своим домом!{{delay20}}\n{{capitalizeNextLetter}}{{string value=\"Catchphrase\"}}!"
  },
  {
    "label": "402_03",
    "attribute": "0x0000000000000000",
    "text": "Может, ты еще не слышал{{gender2 m=\"\" f=\"а\"}},{{delay20}}\n{{anim id=\"Cheering\" target=\"actor\" targetSpec=\"\"}}но я решила перебраться\nна ваш остров!{{pageBreak}}{{anim id=\"Blushing\" target=\"actor\" targetSpec=\"\"}}{{capitalizeNextLetter}}{{selection value=\"SelectedName\"}}{{delay8}} подал{{gender1 m=\"\" f=\"а\"}} мне\nидею переехать сюда{{delay8}}{{string value=\"...\"}}{{pageBreak}}{{anim id=\"Explain\" target=\"actor\" targetSpec=\"\"}}Я собираюсь провести этот день\nв {{color id=\"1\"}}кемпинге{{color id=\"65535\"}},{{delay20}} а потом отправлюсь\nдомой —{{delay20}} паковать вещи.{{pageBreak}}{{anim id=\"Smiling\" target=\"actor\" targetSpec=\"\"}}Давай снова встретимся,{{delay20}} как только\nя вернусь?{{delay20}} {{capitalizeNextLetter}}{{string value=\"Catchphrase\"}}!"
  },
  {
    "label": "403",
    "attribute": "0x0000000000000000",
    "text": "{{fun_0014003C arg=\"\"}}"
  },
  {
    "label": "403_01",
    "attribute": "0x0000000000000000",
    "text": "{{anim id=\"Hesitate\" target=\"actor\" targetSpec=\"\"}}У меня важные новости{{delay8}}{{string value=\"...\"}} {{anim id=\"Smiling\" target=\"actor\" targetSpec=\"\"}}Я решила\nпереехать на ваш остров!{{pageBreak}}{{anim id=\"HappyFlower\" target=\"actor\" targetSpec=\"\"}}Мне не терпится стать частью вашей\nдружной семьи!{{delay20}} {{capitalizeNextLetter}}{{string value=\"Catchphrase\"}}!"
  },
  {
    "label": "403_02",
    "attribute": "0x0000000000000000",
    "text": "{{anim id=\"Pardon\" target=\"actor\" targetSpec=\"\"}}Знаешь что?{{i10_4}} {{anim id=\"HappyDance\" target=\"actor\" targetSpec=\"\"}}Я решила, что скоро\nперееду сюда!{{delay20}} {{capitalizeNextLetter}}{{string value=\"Catchphrase\"}}!{{pageBreak}}{{anim id=\"Love\" target=\"actor\" targetSpec=\"\"}}Я просто в восторге от острова\n{{string value=\"OtherIslandName\"}}!{{delay40}} {{anim id=\"Hesitate\" target=\"actor\" targetSpec=\"\"}}В этом же нет\nничего страшного?!"
  },
  {
    "label": "403_03",
    "attribute": "0x0000000000000000",
    "text": "{{anim id=\"Grin\" target=\"actor\" targetSpec=\"\"}}У меня есть кое-какие новости{{delay8}}{{string value=\"...\"}}\n{{anim id=\"Cheering\" target=\"actor\" targetSpec=\"\"}}Я решилась на переезд!{{pageBreak}}{{anim id=\"Explain\" target=\"actor\" targetSpec=\"\"}}Я собираюсь провести в {{color id=\"1\"}}кемпинге\n{{color id=\"65535\"}}весь день,{{delay20}} а потом отправиться\nдомой —{{delay20}} паковать вещи.{{pageBreak}}{{anim id=\"Smiling\" target=\"actor\" targetSpec=\"\"}}Давай встретимся,{{delay20}} как только\nя вернусь!{{delay20}} {{capitalizeNextLetter}}{{string value=\"Catchphrase\"}}!"
  },
  {
    "label": "501_01",
    "attribute": "0x0000010000000000",
    "text": "{{anim id=\"AbsentMindedness\" target=\"actor\" targetSpec=\"\"}}Мне кажется, этот остров{{delay20}} может\nстать моей музой{{delay8}}{{string value=\"...\"}}{{pageBreak}}{{anim id=\"IdeaBulb\" target=\"actor\" targetSpec=\"\"}}Возможно,{{delay20}} если я сюда перееду,{{delay20}}\n{{anim id=\"FaintSmile\" target=\"actor\" targetSpec=\"\"}}то начну писать больше стихов!{{delay20}}\n{{capitalizeNextLetter}}{{string value=\"Catchphrase\"}}!"
  },
  {
    "label": "501_01_a",
    "attribute": "0x0000000000000000",
    "text": "Ого! Отличная идея!"
  },
  {
    "label": "501_01_b",
    "attribute": "0x0000000000000000",
    "text": "А ты не торопишься?"
  },
  {
    "label": "501_02",
    "attribute": "0x0000010000000000",
    "text": "{{anim id=\"Love\" target=\"actor\" targetSpec=\"\"}}Мне так уютно на этом острове.{{delay40}}\n{{anim id=\"AbsentMindedness\" target=\"actor\" targetSpec=\"\"}}Я чувствую себя здесь как рыба\nв воде{{string value=\"...\"}}{{delay20}} {{capitalizeNextLetter}}{{string value=\"Catchphrase\"}}!{{pageBreak}}{{anim id=\"Pardon\" target=\"actor\" targetSpec=\"\"}}А что если я была рождена, чтобы\nжить на этом острове?"
  },
  {
    "label": "501_02_a",
    "attribute": "0x0000000000000000",
    "text": "Думаю, ты права!"
  },
  {
    "label": "501_02_b",
    "attribute": "0x0000000000000000",
    "text": "Сомневаюсь."
  },
  {
    "label": "501_03",
    "attribute": "0x0000010000000000",
    "text": "{{anim id=\"Sighing\" target=\"actor\" targetSpec=\"\"}}Эх!{{delay20}} {{anim id=\"Worried\" target=\"actor\" targetSpec=\"\"}}Я вся на иголках от мысли, что\nпора возвращаться домой.{{delay40}} Я бы\nхотела здесь жить!{{delay20}} {{capitalizeNextLetter}}{{string value=\"Catchphrase\"}}!"
  },
  {
    "label": "501_03_a",
    "attribute": "0x0000000000000000",
    "text": "Переезжай сюда!"
  },
  {
    "label": "501_03_b",
    "attribute": "0x0000000000000000",
    "text": "Я буду скучать."
  },
  {
    "label": "502_01",
    "attribute": "0x0000000000000000",
    "text": "{{anim id=\"Sighing\" target=\"actor\" targetSpec=\"\"}}Вероятно,{{delay20}}{{anim id=\"Hesitate\" target=\"actor\" targetSpec=\"\"}} я просто хватаюсь за все,{{delay20}}\nчто может помочь мне справиться\nс творческим кризисом{{delay8}}{{string value=\"...\"}}"
  },
  {
    "label": "502_02",
    "attribute": "0x0000000000000000",
    "text": "{{anim id=\"Sighing\" target=\"actor\" targetSpec=\"\"}}Пожалуй, ты прав{{gender2 m=\"\" f=\"а\"}}.{{delay40}} {{anim id=\"ShyBoy\" target=\"actor\" targetSpec=\"\"}}Я чересчур\nувлеклась фантазиями об этом\nэкзотичном побеге{{string value=\"...\"}}{{delay20}} {{capitalizeNextLetter}}{{string value=\"Catchphrase\"}}!"
  },
  {
    "label": "502_03",
    "attribute": "0x0000000000000000",
    "text": "Несмотря на такой короткий визит,{{delay20}}\nя очень рада,{{anim id=\"BigSmile\" target=\"actor\" targetSpec=\"\"}} что мы встретились!{{delay40}}\n{{anim id=\"FaintSmile\" target=\"actor\" targetSpec=\"\"}}Береги себя!{{delay20}} {{capitalizeNextLetter}}{{string value=\"Catchphrase\"}}!"
  },
  {
    "label": "601_01",
    "attribute": "0x0000010000000000",
    "text": "{{anim id=\"Thinking\" target=\"actor\" targetSpec=\"\"}}Местные жители подарили мне\nстолько сувениров,{{delay20}} {{anim id=\"Worried\" target=\"actor\" targetSpec=\"\"}}а мне их нечем\nдаже отблагодарить!{{delay20}} {{capitalizeNextLetter}}{{string value=\"Catchphrase\"}}!{{pageBreak}}{{anim id=\"IdeaBulb\" target=\"actor\" targetSpec=\"\"}}Может, я смогу вернуть долг\nсполна,{{delay8}} {{anim id=\"FaintSmile\" target=\"actor\" targetSpec=\"\"}}если перееду сюда{{delay8}}{{string value=\"...\"}}"
  },
  {
    "label": "601_01_a",
    "attribute": "0x0000000000000000",
    "text": "Отличная идея!"
  },
  {
    "label": "601_01_b",
    "attribute": "0x0000000000000000",
    "text": "Не бери в голову."
  },
  {
    "label": "601_02",
    "attribute": "0x0000010000000000",
    "text": "{{anim id=\"FaintSmile\" target=\"actor\" targetSpec=\"\"}}На острове {{string value=\"OtherIslandName\"}} все\nтакие щедрые!{{delay20}} {{capitalizeNextLetter}}{{string value=\"Catchphrase\"}}!{{pageBreak}}{{anim id=\"HappyFlower\" target=\"actor\" targetSpec=\"\"}}Я возвращаюсь домой не с пустыми\nруками, {{delay20}}а с сувенирами от местных\nжителей.{{pageBreak}}{{anim id=\"Smiling\" target=\"actor\" targetSpec=\"\"}}Представляю, как чудесно было бы{{delay20}}\nжить среди вас!"
  },
  {
    "label": "601_02_a",
    "attribute": "0x0000000000000000",
    "text": "Переезжай сюда!"
  },
  {
    "label": "601_02_b",
    "attribute": "0x0000000000000000",
    "text": "Да, здесь хорошо."
  },
  {
    "label": "601_03",
    "attribute": "0x0000010000000000",
    "text": "{{anim id=\"FaintSmile\" target=\"actor\" targetSpec=\"\"}}Я увезу домой сувениры от жителей\nострова {{string value=\"OtherIslandName\"}}.{{delay20}} Вещи\nручной работы согревают душу!{{pageBreak}}{{anim id=\"Worried\" target=\"actor\" targetSpec=\"\"}}Надеюсь, хоть они помогут мне{{delay20}}\n{{anim id=\"Crying\" target=\"actor\" targetSpec=\"\"}}справиться с тоской по этому\nместу{{delay8}}{{string value=\"...\"}} {{capitalizeNextLetter}}{{string value=\"Catchphrase\"}}!"
  },
  {
    "label": "601_03_a",
    "attribute": "0x0000000000000000",
    "text": "Переезжай сюда!"
  },
  {
    "label": "601_03_b",
    "attribute": "0x0000000000000000",
    "text": "Мы будем скучать..."
  },
  {
    "label": "602_01",
    "attribute": "0x0000000000000000",
    "text": "{{anim id=\"Smiling\" target=\"actor\" targetSpec=\"\"}}О,{{delay20}} вы такие щедрые!{{pageBreak}}{{anim id=\"FaintSmile\" target=\"actor\" targetSpec=\"\"}}Когда я вернусь домой, {{delay20}}то всем\nрасскажу, {{anim id=\"EmotEnd\" target=\"actor\" targetSpec=\"\"}}как чудесно на острове\n{{string value=\"OtherIslandName\"}}!"
  },
  {
    "label": "602_02",
    "attribute": "0x0000000000000000",
    "text": "{{anim id=\"FaintSmile\" target=\"actor\" targetSpec=\"\"}}Надеюсь, вы готовы к наплыву\nтуристов,{{delay40}} {{anim id=\"Pardon\" target=\"actor\" targetSpec=\"\"}}потому что я всем\nрасскажу, как тут волшебно!"
  },
  {
    "label": "602_03",
    "attribute": "0x0000000000000000",
    "text": "{{anim id=\"Smiling\" target=\"actor\" targetSpec=\"\"}}Это так мило!{{delay20}} {{anim id=\"AbsentMindedness\" target=\"actor\" targetSpec=\"\"}}Дома я{{delay20}} последую\nвашему примеру и {{delay8}}подарю\nчто-нибудь своим друзьям!"
  }
]