﻿[
  {
    "label": "002",
    "attribute": "0x0000000000000000",
    "text": "{{anim id=\"Love\" target=\"actor\" targetSpec=\"\"}}Спасибо за теплый прием!\n{{anim id=\"Hesitate\" target=\"actor\" targetSpec=\"\"}}Надеюсь, в {{color id=\"1\"}}бюро услуг{{color id=\"65535\"}}{{delay20}}\nразделяют твое мнение{{delay8}}{{string value=\"...\"}}"
  },
  {
    "label": "003",
    "attribute": "0x0000000000000000",
    "text": "{{anim id=\"Hesitate\" target=\"actor\" targetSpec=\"\"}}Это так мило с твоей стороны\nпригласить меня еще раз.{{delay frames=\"40\"}} Ведь\nя в прошлый раз не согласилась.{{pageBreak}}{{anim id=\"Love\" target=\"actor\" targetSpec=\"\"}}Спасибо огромное! {{anim id=\"Nodding\" target=\"actor\" targetSpec=\"\"}}Я перееду!\n{{delay frames=\"40\"}}{{anim id=\"FaintSmile\" target=\"actor\" targetSpec=\"\"}}Надо только уведомить {{color id=\"1\"}}бюро\nуслуг{{color id=\"65535\"}}."
  },
  {
    "label": "101",
    "attribute": "0x0000000000000000",
    "text": "{{fun_0014003C arg=\"\"}}"
  },
  {
    "label": "101_01",
    "attribute": "0x0000000000000000",
    "text": "{{anim id=\"FaintSmile\" target=\"actor\" targetSpec=\"\"}}Это интересная идея,{{delay20}} но\nя откажусь.{{pageBreak}}{{anim id=\"Worried\" target=\"actor\" targetSpec=\"\"}}Я еще не готова оставить своих\nдрузей{{delay8}}{{string value=\"...\"}}"
  },
  {
    "label": "101_02",
    "attribute": "0x0000000000000000",
    "text": "{{anim id=\"Worried\" target=\"actor\" targetSpec=\"\"}}Должна признаться,{{delay20}} я пока не\nготова покинуть родной дом.{{pageBreak}}{{anim id=\"Hesitate\" target=\"actor\" targetSpec=\"\"}}Прости.{{delay40}} Может, в другой раз{{delay8}}{{string value=\"...\"}}"
  },
  {
    "label": "101_03",
    "attribute": "0x0000000000000000",
    "text": "{{anim id=\"Hesitate\" target=\"actor\" targetSpec=\"\"}}Спасибо за приглашение,{{delay20}} но я не\nмогу сейчас просто взять{{delay8}}\nи переехать!{{pageBreak}}{{anim id=\"Laughing\" target=\"actor\" targetSpec=\"\"}}Я своим соседям столько книг\nодолжила{{delay8}}{{string value=\"...\"}}"
  },
  {
    "label": "201_01",
    "attribute": "0x0000010000000000",
    "text": "{{anim id=\"Smiling\" target=\"actor\" targetSpec=\"\"}}Как же мне приятно это слышать!{{delay frames=\"30\"}}\n{{anim id=\"Thinking\" target=\"actor\" targetSpec=\"\"}}Но не знаю{{delay8}}{{string value=\"...\"}} Самостоятельно\nпринять такое решение непросто{{delay8}}{{string value=\"...\"}}{{pageBreak}}{{anim id=\"IdeaBulb\" target=\"actor\" targetSpec=\"\"}}Слушай!{{delay frames=\"40\"}} А может,{{anim id=\"Grin\" target=\"actor\" targetSpec=\"\"}} положимся на\nволю случая и сыграем в игру\nна мой переезд?{{pageBreak}}{{anim id=\"Explain\" target=\"actor\" targetSpec=\"\"}}Если ты выиграешь,{{delay20}} я перееду на\nэтот остров!{{delay frames=\"40\"}} {{anim id=\"QuestionMark\" target=\"actor\" targetSpec=\"\"}}Что скажешь?\nСоглас{{gender2 m=\"ен\" f=\"на\"}}?{{delay20}} {{capitalizeNextLetter}}{{string value=\"Catchphrase\"}}!"
  },
  {
    "label": "201_01_a",
    "attribute": "0x0000000000000000",
    "text": "Давай сыграем!"
  },
  {
    "label": "201_01_b",
    "attribute": "0x0000000000000000",
    "text": "Я пас."
  },
  {
    "label": "201_02",
    "attribute": "0x0000010000000000",
    "text": "{{anim id=\"Pardon\" target=\"actor\" targetSpec=\"\"}}Ты меня приглашаешь? Это так\nнеожиданно!{{delay frames=\"40\"}} Очень мило с твоей\nстороны!{{pageBreak}}{{anim id=\"Worried\" target=\"actor\" targetSpec=\"\"}}Но переезд — это такой серьезный\nшаг. Даже не знаю{{delay8}}{{string value=\"...\"}}{{pageBreak}}{{anim id=\"IdeaBulb\" target=\"actor\" targetSpec=\"\"}}Есть идея!{{delay frames=\"30\"}} Возможно, это прозвучит\nнеобдуманно,{{delay20}} но давай{{anim id=\"Grin\" target=\"actor\" targetSpec=\"\"}} положимся\nна удачу!{{pageBreak}}{{anim id=\"FaintSmile\" target=\"actor\" targetSpec=\"\"}}Если ты выиграешь в одной\nнебольшой игре,{{delay20}} то я {{anim id=\"Nodding\" target=\"actor\" targetSpec=\"\"}}перееду\nна твой остров.{{delay20}} {{capitalizeNextLetter}}{{string value=\"Catchphrase\"}}!"
  },
  {
    "label": "201_02_a",
    "attribute": "0x0000000000000000",
    "text": "Давай!"
  },
  {
    "label": "201_02_b",
    "attribute": "0x0000000000000000",
    "text": "Нет, так не пойдет."
  },
  {
    "label": "201_03",
    "attribute": "0x0000010000000000",
    "text": "{{anim id=\"Eh\" target=\"actor\" targetSpec=\"\"}}Ты правда так думаешь?{{delay20}} {{anim id=\"Confused\" target=\"actor\" targetSpec=\"\"}}Но это не\nв моем стиле — принимать решения\nтак быстро.{{delay20}} {{capitalizeNextLetter}}{{string value=\"Catchphrase\"}}{{delay8}}{{string value=\"...\"}}{{pageBreak}}{{anim id=\"IdeaBulb\" target=\"actor\" targetSpec=\"\"}}Знаю!{{delay frames=\"40\"}} {{anim id=\"Grin\" target=\"actor\" targetSpec=\"\"}}А что если мы сыграем\nв игру, которая поможет мне\nрешить, как поступить?{{pageBreak}}Если ты выиграешь,{{delay20}} {{anim id=\"Assent\" target=\"actor\" targetSpec=\"\"}}я перееду на\nтвой остров!"
  },
  {
    "label": "201_03_a",
    "attribute": "0x0000000000000000",
    "text": "Давай сыграем!"
  },
  {
    "label": "201_03_b",
    "attribute": "0x0000000000000000",
    "text": "Пожалуй, откажусь."
  },
  {
    "label": "202_01",
    "attribute": "0x0000000000000000",
    "text": "{{anim id=\"Eh\" target=\"actor\" targetSpec=\"\"}}Ладно, ничего страшного.{{delay40}} {{anim id=\"OhGeez\" target=\"actor\" targetSpec=\"\"}}В любом\nслучае{{delay20}} это дурацкая затея."
  },
  {
    "label": "202_02",
    "attribute": "0x0000000000000000",
    "text": "{{anim id=\"Sighing\" target=\"actor\" targetSpec=\"\"}}Ладно.{{delay20}} Наверное, ты прав{{gender2 m=\"\" f=\"а\"}}{{string value=\"...\"}}{{delay20}}\n{{anim id=\"Hesitate\" target=\"actor\" targetSpec=\"\"}}Сама не знаю, что на меня нашло."
  },
  {
    "label": "202_03",
    "attribute": "0x0000000000000000",
    "text": "{{anim id=\"Hesitate\" target=\"actor\" targetSpec=\"\"}}Ладно. Все равно это дурацкая\nзатея!{{delay frames=\"40\"}} {{anim id=\"FaintSmile\" target=\"actor\" targetSpec=\"\"}}Спасибо за предложение,{{delay20}}\nно я останусь на своем острове."
  },
  {
    "label": "203_01",
    "attribute": "0x0000000000000000",
    "text": "{{anim id=\"BigSmile\" target=\"actor\" targetSpec=\"\"}}Прекрасно!{{delay frames=\"40\"}} {{anim id=\"FaintSmile\" target=\"actor\" targetSpec=\"\"}}Тогда приступим!"
  },
  {
    "label": "204",
    "attribute": "0x0000000000000000",
    "text": "{{fun_0014003C arg=\"\"}}"
  },
  {
    "label": "204_01",
    "attribute": "0x0000000000000000",
    "text": "Что ж,{{delay20}} я выиграла.{{delay frames=\"40\"}} {{anim id=\"FaintSmile\" target=\"actor\" targetSpec=\"\"}}А это значит, что\nя никуда не переезжаю."
  },
  {
    "label": "204_02",
    "attribute": "0x0000000000000000",
    "text": "{{anim id=\"FaintSmile\" target=\"actor\" targetSpec=\"\"}}Я выиграла, так что решено!{{delay frames=\"30\"}}\n{{anim id=\"Nodding\" target=\"actor\" targetSpec=\"\"}}Я остаюсь жить на своем\nстаром острове."
  },
  {
    "label": "204_03",
    "attribute": "0x0000000000000000",
    "text": "{{anim id=\"FaintSmile\" target=\"actor\" targetSpec=\"\"}}Итак, это значит,{{delay20}} что я выиграла.{{delay20}}\n{{anim id=\"Nodding\" target=\"actor\" targetSpec=\"\"}}Так что переезд отменяется."
  },
  {
    "label": "205",
    "attribute": "0x0000000000000000",
    "text": "{{fun_0014003C arg=\"\"}}"
  },
  {
    "label": "205_01",
    "attribute": "0x0000000000000000",
    "text": "{{anim id=\"Thinking\" target=\"actor\" targetSpec=\"\"}}Видимо, не судьба{{delay8}}{{string value=\"...\"}} Но все равно{{delay20}}\n{{anim id=\"Greeting\" target=\"actor\" targetSpec=\"\"}}спасибо тебе за игру."
  },
  {
    "label": "205_02",
    "attribute": "0x0000000000000000",
    "text": "{{anim id=\"Hesitate\" target=\"actor\" targetSpec=\"\"}}Спасибо, что согласил{{gender2 m=\"ся\" f=\"ась\"}} сыграть\nсо мной в игру.{{delay frames=\"40\"}} {{anim id=\"FaintSmile\" target=\"actor\" targetSpec=\"\"}}И за приглашение\nя тебе очень благодарна."
  },
  {
    "label": "205_03",
    "attribute": "0x0000000000000000",
    "text": "{{anim id=\"Hesitate\" target=\"actor\" targetSpec=\"\"}}Ты же не обижаешься?{{delay frames=\"40\"}}\n{{anim id=\"FaintSmile\" target=\"actor\" targetSpec=\"\"}}Мне очень понравилось играть\nс тобой в эту игру."
  },
  {
    "label": "206",
    "attribute": "0x0000000000000000",
    "text": "{{fun_0014003C arg=\"\"}}"
  },
  {
    "label": "206_01",
    "attribute": "0x0000000000000000",
    "text": "{{anim id=\"Smiling\" target=\"actor\" targetSpec=\"\"}}Ты выиграл{{gender2 m=\"\" f=\"а\"}}!{{delay frames=\"40\"}} {{anim id=\"EmotEnd\" target=\"actor\" targetSpec=\"\"}}И это значит{{delay8}}{{string value=\"...\"}}\n{{anim id=\"Cheering\" target=\"actor\" targetSpec=\"\"}}что мы станем соседями!{{pageBreak}}{{anim id=\"Thinking\" target=\"actor\" targetSpec=\"\"}}Но сначала{{delay20}} мне нужно оформиться\nв {{color id=\"1\"}}бюро услуг{{color id=\"65535\"}}.{{delay frames=\"40\"}} {{anim id=\"FaintSmile\" target=\"actor\" targetSpec=\"\"}}Прямо сейчас и пойду."
  },
  {
    "label": "206_02",
    "attribute": "0x0000000000000000",
    "text": "{{anim id=\"Smiling\" target=\"actor\" targetSpec=\"\"}}Ты выиграл{{gender2 m=\"\" f=\"а\"}}!{{delay frames=\"40\"}} {{anim id=\"Pardon\" target=\"actor\" targetSpec=\"\"}}Может, это моя\nсудьба —{{delay20}} переехать на ваш остров!{{pageBreak}}{{anim id=\"Thinking\" target=\"actor\" targetSpec=\"\"}}Наверное, теперь нужно пойти\nв {{color id=\"1\"}}бюро услуг{{delay20}} {{color id=\"65535\"}}и все разузнать.{{delay20}}\n{{anim id=\"Smiling\" target=\"actor\" targetSpec=\"\"}}Да! Так и сделаю!"
  },
  {
    "label": "206_03",
    "attribute": "0x0000000000000000",
    "text": "{{anim id=\"Grin\" target=\"actor\" targetSpec=\"\"}}Наверное, тебе суждено было\nвыиграть,{{delay20}} чтобы я сюда переехала!{{pageBreak}}{{anim id=\"Smiling\" target=\"actor\" targetSpec=\"\"}}Значит, решено. Когда закончу\nсвой визит в кемпинг, перееду\nна этот остров!{{pageBreak}}{{anim id=\"Thinking\" target=\"actor\" targetSpec=\"\"}}Ой!{{delay8}} Но сперва, наверное,{{delay20}} нужно\nспросить разрешения в {{color id=\"1\"}}бюро услуг{{color id=\"65535\"}}.\n{{delay20}}{{anim id=\"Smiling\" target=\"actor\" targetSpec=\"\"}}Так и сделаю!"
  },
  {
    "label": "207_01",
    "attribute": "0x0000010000000000",
    "text": "{{anim id=\"Shocked\" target=\"actor\" targetSpec=\"\"}}Серьезно?{{delay20}} Даже несмотря на то, что\nв тот раз я отказалась?{{pageBreak}}{{anim id=\"Blushing\" target=\"actor\" targetSpec=\"\"}}Я очень тронута. {{delay40}}Но{{string value=\"...\"}}{{delay20}} {{anim id=\"Hesitate\" target=\"actor\" targetSpec=\"\"}}Я не готова\nтак сразу принять такое важное\nрешение.{{pageBreak}}{{anim id=\"IdeaBulb\" target=\"actor\" targetSpec=\"\"}}{{delay20}}Придумала! {{delay20}}{{anim id=\"FaintSmile\" target=\"actor\" targetSpec=\"\"}}А почему бы нам не\nсыграть в игру?{{delay20}} Если ты выиграешь,{{delay8}}\nя выполню твою просьбу и перееду.{{pageBreak}}{{anim id=\"Hello\" target=\"actor\" targetSpec=\"\"}}Договорились? {{capitalizeNextLetter}}{{string value=\"Catchphrase\"}}!"
  },
  {
    "label": "207_01_a",
    "attribute": "0x0000000000000000",
    "text": "Давай сыграем!"
  },
  {
    "label": "207_01_b",
    "attribute": "0x0000000000000000",
    "text": "Я пас."
  },
  {
    "label": "207_02",
    "attribute": "0x0000010000000000",
    "text": "{{anim id=\"Smiling\" target=\"actor\" targetSpec=\"\"}}Ты настойчив{{gender2 m=\"ый\" f=\"ая\"}}, {{string value=\"NickName\"}}.{{delay20}}\nНо это так мило! {{capitalizeNextLetter}}{{string value=\"Catchphrase\"}}!{{pageBreak}}{{anim id=\"Hesitate\" target=\"actor\" targetSpec=\"\"}}Даже не знаю, {{delay20}}переезжать или нет!\n{{delay20}}Что делать?{{delay20}} {{anim id=\"Sighing\" target=\"actor\" targetSpec=\"\"}}Не могу решить!\n{{delay40}}{{anim id=\"Thinking\" target=\"actor\" targetSpec=\"\"}}{{delay20}}А давай{{string value=\"...\"}}{{delay20}} сыграем в одну игру?{{pageBreak}}{{anim id=\"Nodding\" target=\"actor\" targetSpec=\"\"}}И от результата будет зависеть вся\nмоя дальнейшая жизнь! {{delay40}}{{anim id=\"Eh\" target=\"actor\" targetSpec=\"\"}}А что,\nхорошая идея!{{pageBreak}}{{anim id=\"Explain\" target=\"actor\" targetSpec=\"\"}}Если ты выиграешь,{{delay8}} я перееду.{{delay20}} Если\nпроиграешь{{string value=\"...\"}}{{delay20}} посмотрим.{{delay40}} {{anim id=\"QuestionMark\" target=\"actor\" targetSpec=\"\"}}Соглас{{gender2 m=\"ен\" f=\"на\"}}?"
  },
  {
    "label": "207_02_a",
    "attribute": "0x0000000000000000",
    "text": "Да! Я выиграю!"
  },
  {
    "label": "207_02_b",
    "attribute": "0x0000000000000000",
    "text": "Нет, спасибо."
  },
  {
    "label": "207_03",
    "attribute": "0x0000010000000000",
    "text": "{{anim id=\"Hesitate\" target=\"actor\" targetSpec=\"\"}}С одной стороны, звучит заманчиво.{{delay40}}{{anim id=\"OhGeez\" target=\"actor\" targetSpec=\"\"}}\nНо с другой —{{delay8}} я всегда уступаю,\nкогда меня о чем-то просят.{{pageBreak}}{{anim id=\"Aha\" target=\"actor\" targetSpec=\"\"}}Придумала!{{delay20}} Давай положимся на\nволю случая?{{pageBreak}}{{anim id=\"EmotEnd\" target=\"actor\" targetSpec=\"\"}}Сыграем в игру. Если ты выиграешь,{{delay20}}\n{{anim id=\"Smiling\" target=\"actor\" targetSpec=\"\"}}остров {{string value=\"IslandName\"}} станет\nмоим новым домом.{{delay40}}{{anim id=\"BigSmile\" target=\"actor\" targetSpec=\"\"}} Готов{{gender2 m=\"\" f=\"а\"}}?"
  },
  {
    "label": "207_03_a",
    "attribute": "0x0000000000000000",
    "text": "Я всегда готов{{gender2 m=\"\" f=\"а\"}}!"
  },
  {
    "label": "207_03_b",
    "attribute": "0x0000000000000000",
    "text": "Нет."
  },
  {
    "label": "208_01",
    "attribute": "0x0000000000000000",
    "text": "{{anim id=\"Shocked\" target=\"actor\" targetSpec=\"\"}}Нет?{{delay20}} Жалко.{{delay frames=\"40\"}} {{anim id=\"Worried\" target=\"actor\" targetSpec=\"\"}}Я совсем не\nрасстроилась{{string value=\"...\"}}"
  },
  {
    "label": "208_02",
    "attribute": "0x0000000000000000",
    "text": "{{anim id=\"Eh\" target=\"actor\" targetSpec=\"\"}}Значит, нет? {{delay40}}Я понимаю: {{delay8}}{{anim id=\"Explain\" target=\"actor\" targetSpec=\"\"}}ни время,\nни место не подходят для таких игр."
  },
  {
    "label": "208_03",
    "attribute": "0x0000000000000000",
    "text": "{{anim id=\"Shocked\" target=\"actor\" targetSpec=\"\"}}Не ожидала такого ответа,{{delay20}}\nно я уважаю твое мнение.\n{{delay40}}{{anim id=\"FaintSmile\" target=\"actor\" targetSpec=\"\"}}Наверное, сейчас не время."
  },
  {
    "label": "302",
    "attribute": "0x0000010000000000",
    "text": "{{anim id=\"Greeting\" target=\"actor\" targetSpec=\"\"}}Прости, что заставила ждать!{{delay frames=\"40\"}}\nЯ зашла в {{color id=\"1\"}}бюро услуг{{color id=\"65535\"}}{{delay20}} и узнала\nудручающие новости{{string value=\"...\"}}{{pageBreak}}{{anim id=\"Worried\" target=\"actor\" targetSpec=\"\"}}На данный момент на острове нет\nместа для строительства новых\nдомов, {{anim id=\"Sighing\" target=\"actor\" targetSpec=\"\"}}а старые — заняты.{{pageBreak}}{{anim id=\"Thinking\" target=\"actor\" targetSpec=\"\"}}Хм,{{delay20}} может, я спрошу у кого-то из\nместных жителей —{{delay20}} {{anim id=\"Serious\" target=\"actor\" targetSpec=\"\"}}вдруг кто-то\nпланирует съехать?{{delay20}} {{capitalizeNextLetter}}{{string value=\"Catchphrase\"}}!"
  },
  {
    "label": "302_a",
    "attribute": "0x0000000000000000",
    "text": "Стоит попробовать!"
  },
  {
    "label": "302_b",
    "attribute": "0x0000000000000000",
    "text": "Может, не стоит..."
  },
  {
    "label": "303",
    "attribute": "0x0000000000000000",
    "text": "{{anim id=\"OhGeez\" target=\"actor\" targetSpec=\"\"}}Да, {{delay20}}думаю, это все же плохая идея.{{delay frames=\"40\"}}\n{{anim id=\"Worried\" target=\"actor\" targetSpec=\"\"}}Все-таки я здесь в гостях{{delay20}} и не хочу\nбыть надоедливой."
  },
  {
    "label": "304",
    "attribute": "0x0000000000000000",
    "text": "{{anim id=\"QuestionMark\" target=\"actor\" targetSpec=\"\"}}Ты, случайно, не знаешь,{{delay20}} кто из\nсоседей планирует переезд?{{pageBreak}}{{anim id=\"Restless\" target=\"actor\" targetSpec=\"\"}}Я уже даже в {{color id=\"1\"}}бюро услуг{{color id=\"65535\"}} спросила,{{delay20}}\nне знают ли они кого-нибудь.\n{{delay20}}{{capitalizeNextLetter}}{{string value=\"Catchphrase\"}}{{delay8}}{{string value=\"...\"}}"
  },
  {
    "label": "305",
    "attribute": "0x0000030000000000",
    "text": "{{anim id=\"Eh\" target=\"actor\" targetSpec=\"\"}}Ты уверен{{gender2 m=\"\" f=\"а\"}}, что это {{selection value=\"SelectedVillager\"}}?"
  },
  {
    "label": "305_a",
    "attribute": "0x0000000000000000",
    "text": "Да."
  },
  {
    "label": "305_b",
    "attribute": "0x0000000000000000",
    "text": "Дай подумать!"
  },
  {
    "label": "305_c",
    "attribute": "0x0000000000000000",
    "text": "Оставим эту затею."
  },
  {
    "label": "306",
    "attribute": "0x0000000000000000",
    "text": "{{anim id=\"Thinking\" target=\"actor\" targetSpec=\"\"}}Прекрасно!{{delay20}} Я спрошу, но\nпостараюсь не сильно докучать{{string value=\"...\"}}"
  },
  {
    "label": "307",
    "attribute": "0x0000000000000000",
    "text": "{{anim id=\"Eh\" target=\"actor\" targetSpec=\"\"}}Ой,{{delay20}} ты ошиб{{gender2 m=\"ся\" f=\"лась\"}}?{{delay frames=\"40\"}}\n{{anim id=\"QuestionMark\" target=\"actor\" targetSpec=\"\"}}Тогда кто?"
  },
  {
    "label": "308",
    "attribute": "0x0000000000000000",
    "text": "{{anim id=\"Serious\" target=\"actor\" targetSpec=\"\"}}Наверное, ты прав{{gender2 m=\"\" f=\"а\"}}.{{delay frames=\"40\"}} {{anim id=\"Worried\" target=\"actor\" targetSpec=\"\"}}Меньше всего\nмне хотелось бы{{delay20}} обидеть кого-то\nиз местных жителей."
  },
  {
    "label": "309",
    "attribute": "0x0000000000000000",
    "text": "{{anim id=\"Greeting\" target=\"actor\" targetSpec=\"\"}}А ты {{string value=\"NickName\"}},{{delay20}} верно?{{delay frames=\"30\"}}\n{{anim id=\"Sighing\" target=\"actor\" targetSpec=\"\"}}Хорошо, что я правильно\nзапомнила!{{pageBreak}}Послушай,{{delay20}} {{anim id=\"Smiling\" target=\"actor\" targetSpec=\"\"}}твоя интуиция тебя не\nподвела!{{delay frames=\"40\"}} {{anim id=\"Explain\" target=\"actor\" targetSpec=\"\"}}Оказалось,{{delay20}} {{selection value=\"SelectedVillager\"}}\nкак раз собирал{{gender3 m=\"ся\" f=\"ась\"}} переезжать.{{pageBreak}}Я все е{{gender3 m=\"му\" f=\"й\"}} объяснила,{{delay20}} {{anim id=\"BigSmile\" target=\"actor\" targetSpec=\"\"}}и он{{gender3 m=\"\" f=\"а\"}} даже\nсогласил{{gender3 m=\"ся\" f=\"ась\"}} поспешить\nс переездом.{{delay frames=\"40\"}}{{pageBreak}}{{anim id=\"FaintSmile\" target=\"actor\" targetSpec=\"\"}}Спасибо,{{delay20}} что убедил{{gender2 m=\"\" f=\"а\"}} {{anim id=\"HappyDance\" target=\"actor\" targetSpec=\"\"}}меня\nпереехать! Жду не дождусь!{{delay20}}\n{{capitalizeNextLetter}}{{string value=\"Catchphrase\"}}!"
  },
  {
    "label": "309_01",
    "attribute": "0x0000000000000000",
    "text": "{{anim id=\"Explain\" target=\"actor\" targetSpec=\"\"}}Хотела повидать {{fun_00170032 arg=\"0x01CD\"}}{{selection value=\"SelectedVillager\"}}\nперед {{gender3 m=\"его\" f=\"ее\"}} отъездом,{{delay8}} но он{{gender3 m=\"\" f=\"а\"}} уже\nуспела съехать!{{pageBreak}}{{anim id=\"Worried\" target=\"actor\" targetSpec=\"\"}}Это немного грустно{{string value=\"...\"}}{{delay20}}{{anim id=\"Smiling\" target=\"actor\" targetSpec=\"\"}} и здорово!{{delay8}}\nВедь теперь, {{string value=\"NickName\"}},\nя могу переехать сюда жить!{{pageBreak}}{{anim id=\"Pardon\" target=\"actor\" targetSpec=\"\"}}Да,{{delay8}} я помню, как тебя зовут.{{delay8}} Если\nты забыл{{gender2 m=\"\" f=\"а\"}}, как меня зовут, не\nпереживай.{{delay20}} {{anim id=\"Smiling\" target=\"actor\" targetSpec=\"\"}}Я {{string value=\"VillagerName\"}}!{{pageBreak}}Не терпится стать соседями.{{delay20}}{{anim id=\"Cheering\" target=\"actor\" targetSpec=\"\"}}\nБудет весело! {{capitalizeNextLetter}}{{string value=\"Catchphrase\"}}!"
  },
  {
    "label": "310",
    "attribute": "0x0000010000000000",
    "text": "{{anim id=\"Worried\" target=\"actor\" targetSpec=\"\"}}Я слишком настырная?"
  },
  {
    "label": "310_a",
    "attribute": "0x0000000000000000",
    "text": "Вовсе нет."
  },
  {
    "label": "310_b",
    "attribute": "0x0000000000000000",
    "text": "Возможно."
  },
  {
    "label": "311",
    "attribute": "0x0000000000000000",
    "text": "Ладно,{{delay20}} {{anim id=\"Grin\" target=\"actor\" targetSpec=\"\"}}тогда кто?"
  },
  {
    "label": "312",
    "attribute": "0x0000000000000000",
    "text": "{{anim id=\"Serious\" target=\"actor\" targetSpec=\"\"}}Ясно.{{delay frames=\"40\"}} Тогда я лучше выброшу эту\nидею из головы."
  },
  {
    "label": "313",
    "attribute": "0x0000010000000000",
    "text": "{{anim id=\"Aha\" target=\"actor\" targetSpec=\"\"}}Серьезно?!{{delay frames=\"40\"}}{{anim id=\"Serious\" target=\"actor\" targetSpec=\"\"}} Я тут услышала\nкое-что, когда была в {{color id=\"1\"}}бюро услуг{{color id=\"65535\"}}.{{pageBreak}}{{anim id=\"Restless\" target=\"actor\" targetSpec=\"\"}}Кто-то по имени {{selection value=\"SelectedVillager\"}}\nсобрался переезжать.{{pageBreak}}{{anim id=\"QuestionMark\" target=\"actor\" targetSpec=\"\"}}Может, мне стоит переговорить\nс {{gender7 m=\"ним\" f=\"ней\" n=\"\" pl=\"\"}} лично?"
  },
  {
    "label": "313_a",
    "attribute": "0x0000000000000000",
    "text": "Да, конечно!"
  },
  {
    "label": "313_b",
    "attribute": "0x0000000000000000",
    "text": "Не думаю."
  },
  {
    "label": "314",
    "attribute": "0x0000000000000000",
    "text": "{{anim id=\"Oops\" target=\"actor\" targetSpec=\"\"}}Полагаю, это будет чересчур\nбестактно.{{delay frames=\"60\"}} {{anim id=\"WrySmile\" target=\"actor\" targetSpec=\"\"}}Пожалуй, я просто\nвыброшу все это из головы."
  },
  {
    "label": "404",
    "attribute": "0x0000000000000000",
    "text": "{{anim id=\"Greeting\" target=\"actor\" targetSpec=\"\"}}Прости, что заставила ждать!{{delay frames=\"40\"}}\n{{anim id=\"Explain\" target=\"actor\" targetSpec=\"\"}}Я зашла в {{color id=\"1\"}}бюро услуг{{color id=\"65535\"}},{{delay20}} но там мне\nне могут помочь{{delay8}}{{string value=\"...\"}}{{pageBreak}}{{anim id=\"Restless\" target=\"actor\" targetSpec=\"\"}}Они сказали, что на данный момент{{delay20}}\n{{anim id=\"BrokenHeart\" target=\"actor\" targetSpec=\"\"}}не могут принять новых жителей.{{pageBreak}}{{anim id=\"Worried\" target=\"actor\" targetSpec=\"\"}}Я разочарована,{{delay20}} {{anim id=\"FaintSmile\" target=\"actor\" targetSpec=\"\"}}но рада, что хотя\nбы попыталась."
  },
  {
    "label": "405",
    "attribute": "0x0000000000000000",
    "text": "{{anim id=\"Greeting\" target=\"actor\" targetSpec=\"\"}}Прости, что заставила тебя ждать!{{delay frames=\"40\"}}\n{{anim id=\"Explain\" target=\"actor\" targetSpec=\"\"}}Я заходила в {{color id=\"1\"}}бюро услуг{{color id=\"65535\"}},{{delay20}} но у меня\nне очень хорошие новости{{delay8}}{{string value=\"...\"}}{{pageBreak}}{{anim id=\"Restless\" target=\"actor\" targetSpec=\"\"}}На данный момент{{delay20}} {{anim id=\"BrokenHeart\" target=\"actor\" targetSpec=\"\"}}на острове нет\nсвободных участков!{{pageBreak}}{{anim id=\"Worried\" target=\"actor\" targetSpec=\"\"}}В этот раз ничего не вышло,{{delay20}}{{anim id=\"FaintSmile\" target=\"actor\" targetSpec=\"\"}} но\nя рада, что хотя бы попыталась."
  },
  {
    "label": "406",
    "attribute": "0x0000000000000000",
    "text": "{{anim id=\"Hesitate\" target=\"actor\" targetSpec=\"\"}}{{capitalizeNextLetter}}{{string value=\"NickName\"}}!{{delay8}} Тебя ведь так звали?{{pageBreak}}{{anim id=\"Greeting\" target=\"actor\" targetSpec=\"\"}}Прости, что заставила ждать!{{delay frames=\"40\"}}\n{{anim id=\"Explain\" target=\"actor\" targetSpec=\"\"}}Я была в {{color id=\"1\"}}бюро услуг{{color id=\"65535\"}},{{delay20}} и у меня\nхорошие новости{{delay8}}{{string value=\"...\"}}{{pageBreak}}{{anim id=\"Smiling\" target=\"actor\" targetSpec=\"\"}}Я могу переехать!{{delay frames=\"40\"}} {{anim id=\"FaintSmile\" target=\"actor\" targetSpec=\"\"}}Может, мне\nпросто повезло,{{delay8}} а может,{{delay20}} сама\nсудьба привела меня сюда{{delay8}}{{string value=\"...\"}}{{pageBreak}}{{anim id=\"HappyDance\" target=\"actor\" targetSpec=\"\"}}Скоро мы станем соседями!\n{{capitalizeNextLetter}}{{string value=\"Catchphrase\"}}!"
  },
  {
    "label": "407",
    "attribute": "0x0000000000000000",
    "text": "{{anim id=\"Greeting\" target=\"actor\" targetSpec=\"\"}}Спасибо, что подождал{{gender2 m=\"\" f=\"а\"}}! {{delay frames=\"40\"}}{{anim id=\"EmotEnd\" target=\"actor\" targetSpec=\"\"}}Представь\nсебе, в {{color id=\"1\"}}бюро услуг{{color id=\"65535\"}} мне сказали,{{delay8}}{{anim id=\"Pardon\" target=\"actor\" targetSpec=\"\"}} что\nя могу переезжать хоть сейчас!{{pageBreak}}{{anim id=\"FaintSmile\" target=\"actor\" targetSpec=\"\"}}Кто-то как раз съехал и оставил\nпустующий участок.{{delay frames=\"40\"}}{{anim id=\"Blushing\" target=\"actor\" targetSpec=\"\"}} Мне так повезло! {{capitalizeNextLetter}}{{string value=\"6\"}}!{{pageBreak}}{{anim id=\"EmotEnd\" target=\"actor\" targetSpec=\"\"}}Прости, как тебя зовут?{{delay20}}\n{{anim id=\"Aha\" target=\"actor\" targetSpec=\"\"}}{{capitalizeNextLetter}}{{string value=\"NickName\"}}?{{pageBreak}}{{anim id=\"HappyDance\" target=\"actor\" targetSpec=\"\"}}Я так и думала! {{delay20}}Не верится, что мы\nбудем соседями! Я так рада!\n{{capitalizeNextLetter}}{{string value=\"6\"}}."
  },
  {
    "label": "410",
    "attribute": "0x0000010000000000",
    "text": "{{anim id=\"Thinking\" target=\"actor\" targetSpec=\"\"}}Знаешь,{{delay20}} такие вопросы стоит\nрешать своевременно{{delay8}}{{string value=\"...\"}}{{delay20}}\n{{capitalizeNextLetter}}{{string value=\"Catchphrase\"}}!{{pageBreak}}{{anim id=\"FaintSmile\" target=\"actor\" targetSpec=\"\"}}Ведь ситуация может измениться\nв любой момент.{{delay20}} {{anim id=\"QuestionMark\" target=\"actor\" targetSpec=\"\"}}Как думаешь,{{delay20}}\nстоит попытать счастья еще раз?"
  },
  {
    "label": "410_a",
    "attribute": "0x0000000000000000",
    "text": "Тебе нечего терять!"
  },
  {
    "label": "410_b",
    "attribute": "0x0000000000000000",
    "text": "Не думаю."
  },
  {
    "label": "411",
    "attribute": "0x0000000000000000",
    "text": "{{anim id=\"Sighing\" target=\"actor\" targetSpec=\"\"}}Да,{{delay20}} ты, наверное, прав{{gender2 m=\"\" f=\"а\"}}{{delay8}}{{string value=\"...\"}}{{pageBreak}}{{anim id=\"Worried\" target=\"actor\" targetSpec=\"\"}}Я не хотела бы портить отношения,{{delay20}}\nнадоедая работникам вашего\n{{color id=\"1\"}}бюро услуг{{color id=\"65535\"}}.{{delay20}} {{capitalizeNextLetter}}{{string value=\"Catchphrase\"}}!"
  },
  {
    "label": "423",
    "attribute": "0x0000000000000000",
    "text": "Остров {{anim id=\"Nodding\" target=\"actor\" targetSpec=\"\"}}{{string value=\"IslandName\"}}, похоже,\nпользуется успехом,{{delay20}} раз здесь так\nсложно поселиться!"
  },
  {
    "label": "424",
    "attribute": "0x0000000000000000",
    "text": "{{anim id=\"Restless\" target=\"actor\" targetSpec=\"\"}}Эх, вот бы на острове\n{{string value=\"IslandName\"}} был свободный\nучасток на продажу!{{delay40}}{{pageBreak}}{{anim id=\"Love\" target=\"actor\" targetSpec=\"\"}}Я бы с удовольствием сюда\nпереехала! {{delay8}}{{capitalizeNextLetter}}{{string value=\"Catchphrase\"}}!"
  },
  {
    "label": "504",
    "attribute": "0x0000010000000000",
    "text": "{{anim id=\"BigSmile\" target=\"actor\" targetSpec=\"\"}}На этом острове все прекрасно!{{delay frames=\"30\"}} {{anim id=\"FaintSmile\" target=\"actor\" targetSpec=\"\"}}Мне\nтут так нравится!{{pageBreak}}{{anim id=\"AbsentMindedness\" target=\"actor\" targetSpec=\"\"}}Надеюсь, что когда-нибудь{{delay20}} я тоже\nбуду жить на таком прекрасном\nострове! {{delay20}}{{capitalizeNextLetter}}{{string value=\"Catchphrase\"}}!"
  },
  {
    "label": "504_a",
    "attribute": "0x0000000000000000",
    "text": "Может, переедешь?"
  },
  {
    "label": "504_b",
    "attribute": "0x0000000000000000",
    "text": "Да, у нас тут мило!"
  },
  {
    "label": "505",
    "attribute": "0x0000000000000000",
    "text": "{{anim id=\"Laughing\" target=\"actor\" targetSpec=\"\"}}Сейчас{{delay20}} не могу сказать.{{delay frames=\"40\"}} {{anim id=\"Blushing\" target=\"actor\" targetSpec=\"\"}}Хочу\nдля начала изучить остров{{string value=\"...\"}}{{pageBreak}}{{anim id=\"AbsentMindedness\" target=\"actor\" targetSpec=\"\"}}Может,{{delay8}} если я буду приезжать\nчаще{{delay8}} и меня здесь все полюбят{{string value=\"...\"}}{{pageBreak}}{{anim id=\"EmotEnd\" target=\"actor\" targetSpec=\"\"}}В общем, сейчас я дать ответ не\nмогу, {{anim id=\"Smiling\" target=\"actor\" targetSpec=\"\"}}но ты меня приглашай,\n{{delay20}}{{anim id=\"Greeting\" target=\"actor\" targetSpec=\"\"}}а там посмотрим!"
  },
  {
    "label": "506",
    "attribute": "0x0000000000000000",
    "text": "{{anim id=\"Smiling\" target=\"actor\" targetSpec=\"\"}}Повезло вам!{{delay frames=\"40\"}} {{anim id=\"Hesitate\" target=\"actor\" targetSpec=\"\"}}Я даже по-хорошему\n{{delay20}}вам завидую."
  },
  {
    "label": "507",
    "attribute": "0x0000010000000000",
    "text": "{{anim id=\"FaintSmile\" target=\"actor\" targetSpec=\"\"}}Чем больше я узнаю об этом\nострове,{{delay20}} {{anim id=\"Nodding\" target=\"actor\" targetSpec=\"\"}}тем больше он мне\nнравится.{{pageBreak}}{{anim id=\"Love\" target=\"actor\" targetSpec=\"\"}}Иногда,{{delay20}} чтобы по-настоящему\nвлюбиться в остров, нужно на нем\nпожить!"
  },
  {
    "label": "507_a",
    "attribute": "0x0000000000000000",
    "text": "Так переезжай!"
  },
  {
    "label": "507_b",
    "attribute": "0x0000000000000000",
    "text": "Я так не думаю."
  },
  {
    "label": "508",
    "attribute": "0x0000000000000000",
    "text": "{{anim id=\"Laughing\" target=\"actor\" targetSpec=\"\"}}Мне приятно то, {{delay20}}что ты говоришь,\n{{delay frames=\"40\"}}{{anim id=\"EmotEnd\" target=\"actor\" targetSpec=\"\"}}но на этом острове так много\nвсего{{string value=\"...\"}}{{pageBreak}}{{anim id=\"Nodding\" target=\"actor\" targetSpec=\"\"}}Перед принятием окончательного\nрешения мне нужно приехать сюда\nеще один раз.{{pageBreak}}{{anim id=\"Hesitate\" target=\"actor\" targetSpec=\"\"}}Так что, {{delay8}}пожалуйста, пригласи\nменя в {{color id=\"1\"}}кемпинг{{color id=\"65535\"}} еще разок!\n{{anim id=\"EmotEnd\" target=\"actor\" targetSpec=\"\"}}Уверена, тогда{{string value=\"...\"}}{{delay20}} я определюсь!"
  },
  {
    "label": "509",
    "attribute": "0x0000000000000000",
    "text": "{{anim id=\"FaintSmile\" target=\"actor\" targetSpec=\"\"}}Ну, наверное, сложно оценить\nкрасоту острова, на котором\nживешь.{{pageBreak}}{{anim id=\"Grin\" target=\"actor\" targetSpec=\"\"}}Поэтому все самые интересные\nместа на острове {{string value=\"IslandName\"}}\nзамечают туристы вроде {{delay20}}меня{{anim id=\"SmugFace\" target=\"actor\" targetSpec=\"\"}}!"
  }
]