﻿[
  {
    "label": "001",
    "attribute": "0x0000020000000000",
    "text": "{{anim id=\"Worried\" target=\"actor\" targetSpec=\"\"}}Ay,{{delay8}} qué vergüenza decir esto{{string value=\"...\"}}{{delay20}}\nResulta que pedí prestada una cosa\na alguien y aún no se la he devuelto.\n{{anim id=\"Negative\" target=\"actor\" targetSpec=\"\"}}Sé que no es excusa, pero la verdad\nes que se me olvidó.{{delay20}} {{anim id=\"Oops\" target=\"actor\" targetSpec=\"\"}}Ya sabes que\na veces soy un pelín despistada{{string value=\"...\"}}\n{{anim id=\"Frantic\" target=\"actor\" targetSpec=\"\"}}El caso es que ha pasado tanto\ntiempo que ahora me da cosa\ndevolvérsela a {{selection value=\"SelectedVillager\"}}."
  },
  {
    "label": "001_a",
    "attribute": "0x0000000000000000",
    "text": "{{anim id=\"EmotEnd\" target=\"actor\" targetSpec=\"\"}}Puedo devolverlo yo"
  },
  {
    "label": "001_b",
    "attribute": "0x0000000000000000",
    "text": "{{anim id=\"EmotEnd\" target=\"actor\" targetSpec=\"\"}}No será para tanto"
  },
  {
    "label": "002",
    "attribute": "0x0000020000000000",
    "text": "{{anim id=\"Explain\" target=\"actor\" targetSpec=\"\"}}{{selection value=\"SelectedVillager\"}} se dejó algo en mi casa cuando vino a comer el otro día.{{pageBreak}}{{anim id=\"Worried\" target=\"actor\" targetSpec=\"\"}}Se lo iba a devolver al día siguiente,\npero se me olvidó y hoy no tengo\ntiempo.\n{{anim id=\"Hesitate\" target=\"actor\" targetSpec=\"\"}}¿Me harías el gran favor\nde llevárselo tú por mí, bichín?"
  },
  {
    "label": "002_a",
    "attribute": "0x0000000000000000",
    "text": "Dalo por hecho"
  },
  {
    "label": "002_b",
    "attribute": "0x0000000000000000",
    "text": "No puedo"
  },
  {
    "label": "003",
    "attribute": "0x0000020000000000",
    "text": "{{anim id=\"Worried\" target=\"actor\" targetSpec=\"\"}}Oye, flor, {{delay8}}¿tú tendrías tiempo\nde ayudarme con una cosita?{{pageBreak}}{{anim id=\"Explain\" target=\"actor\" targetSpec=\"\"}}El cartero se equivocó y dejó\nen mi casa un paquete para\n{{selection value=\"SelectedVillager\"}}.\n{{anim id=\"Eh\" target=\"actor\" targetSpec=\"\"}}¡Menos mal que me di cuenta antes\nde abrirlo!{{delay20}}{{anim id=\"WrySmile\" target=\"actor\" targetSpec=\"\"}} {{gender8 m=\"El\" f=\"La\" n=\"\"}} pobre lo estará\nesperando.\n{{anim id=\"FaintSmile\" target=\"actor\" targetSpec=\"\"}}¿Podrías llevárselo por mí?{{delay20}} Yo no\npuedo ir porque tengo clase especial\nde yoga con {{randomDrink}}."
  },
  {
    "label": "003_a",
    "attribute": "0x0000000000000000",
    "text": "Ningún problema"
  },
  {
    "label": "003_b",
    "attribute": "0x0000000000000000",
    "text": "{{anim id=\"EmotEnd\" target=\"actor\" targetSpec=\"\"}}Ahora no puedo"
  },
  {
    "label": "004",
    "attribute": "0x0000000000000000",
    "text": "{{anim id=\"Aha\" target=\"actor\" targetSpec=\"\"}}¿De verdad?{{delay20}} ¡Eres un solete!{{delay20}}\n{{anim id=\"FaintSmile\" target=\"actor\" targetSpec=\"\"}}Aquí tienes y muchísimas gracias."
  },
  {
    "label": "005",
    "attribute": "0x0000000000000000",
    "text": "{{anim id=\"BigSmile\" target=\"actor\" targetSpec=\"\"}}¡Gracias, flor!{{delay20}} Me sacas un peso\nde encima.{{delay20}}{{anim id=\"FaintSmile\" target=\"actor\" targetSpec=\"\"}} Aquí tienes."
  },
  {
    "label": "006",
    "attribute": "0x0000000000000000",
    "text": "{{anim id=\"HappyFlower\" target=\"actor\" targetSpec=\"\"}}¡Gracias, eres {{gender2 m=\"el\" f=\"la\"}} mejor!{{delay20}}\nAquí tienes."
  },
  {
    "label": "007",
    "attribute": "0x0000000000000000",
    "text": "{{anim id=\"Sighing\" target=\"actor\" targetSpec=\"\"}}Supongo que esto es el destino\ndiciéndome que debo ser yo quien\nse lo devuelva.\n{{anim id=\"Nodding\" target=\"actor\" targetSpec=\"\"}}Me armaré de valor y lo haré.{{delay20}}\n{{anim id=\"Hello\" target=\"actor\" targetSpec=\"\"}}Gracias, {{string value=\"NickName\"}}."
  },
  {
    "label": "008",
    "attribute": "0x0000000000000000",
    "text": "{{anim id=\"FaintSmile\" target=\"actor\" targetSpec=\"\"}}Lo entiendo, todos tenemos cosas\nque hacer.{{delay20}} Ya veré cómo lo hago,\nno te preocupes."
  },
  {
    "label": "009",
    "attribute": "0x0000000000000000",
    "text": "{{anim id=\"Nodding\" target=\"actor\" targetSpec=\"\"}}Lo entiendo, no pasa nada.{{delay20}}\n{{anim id=\"FaintSmile\" target=\"actor\" targetSpec=\"\"}}Ya se lo llevaré cuando tenga\nun momento."
  },
  {
    "label": "101",
    "attribute": "0x0000020000000000",
    "text": "{{anim id=\"FaintSmile\" target=\"actor\" targetSpec=\"\"}}Perdona, ¿puedo pedirte ayuda\ncon algo?{{pageBreak}}{{anim id=\"Explain\" target=\"actor\" targetSpec=\"\"}}Como {{selection value=\"SelectedVillager\"}} siempre es\nmuy amable conmigo, decidí\ncomprarle un regalito.\n{{anim id=\"Hesitate\" target=\"actor\" targetSpec=\"\"}}El problema es que me da vergüenza\ndárselo así como si nada{{string value=\"...\"}}{{pageBreak}}{{anim id=\"FaintSmile\" target=\"actor\" targetSpec=\"\"}}y había pensado que quizá\ntú podrías dárselo en mi lugar."
  },
  {
    "label": "101_a",
    "attribute": "0x0000000000000000",
    "text": "Vale, lo haré"
  },
  {
    "label": "101_b",
    "attribute": "0x0000000000000000",
    "text": "{{anim id=\"EmotEnd\" target=\"actor\" targetSpec=\"\"}}Deberías dárselo tú"
  },
  {
    "label": "102",
    "attribute": "0x0000020000000000",
    "text": "{{anim id=\"Serious\" target=\"actor\" targetSpec=\"\"}}Oye, {{string value=\"NickName\"}},{{delay8}} tengo que pedirte un favor.{{pageBreak}}{{anim id=\"Worried\" target=\"actor\" targetSpec=\"\"}}No sé si ya habrás oído que el otro\ndía tuve una pequeña discusión\ncon {{selection value=\"SelectedVillager\"}}{{string value=\"...\"}}\n{{anim id=\"Sighing\" target=\"actor\" targetSpec=\"\"}}Me parece que {{gender8 m=\"le\" f=\"la\" n=\"\"}} ofendí sin querer\ny ahora me siento fatal por ello,{{delay8}}\nasí que le he comprado una cosa.\n{{anim id=\"Worried\" target=\"actor\" targetSpec=\"\"}}He pensado que podría ser como\nun regalo de disculpa,{{delay8}} pero no\nme atrevo a dárselo.\n{{anim id=\"Hesitate\" target=\"actor\" targetSpec=\"\"}}¿Tú podrías llevárselo por mí,\n{{string value=\"6\"}}?"
  },
  {
    "label": "102_a",
    "attribute": "0x0000000000000000",
    "text": "Claro que sí"
  },
  {
    "label": "102_b",
    "attribute": "0x0000000000000000",
    "text": "{{anim id=\"EmotEnd\" target=\"actor\" targetSpec=\"\"}}Deberías dárselo tú"
  },
  {
    "label": "103",
    "attribute": "0x0000000000000000",
    "text": "{{anim id=\"BigSmile\" target=\"actor\" targetSpec=\"\"}}¡Muchas gracias, flor!{{delay20}} Aquí tienes."
  },
  {
    "label": "104",
    "attribute": "0x0000000000000000",
    "text": "{{anim id=\"HappyFlower\" target=\"actor\" targetSpec=\"\"}}Ay, gracias, ¡te debo una!{{delay20}}\nAquí tienes el regalo."
  },
  {
    "label": "105",
    "attribute": "0x0000000000000000",
    "text": "{{anim id=\"Nodding\" target=\"actor\" targetSpec=\"\"}}Tienes razón, bichín.{{delay20}} {{anim id=\"WrySmile\" target=\"actor\" targetSpec=\"\"}}Espero que\nle haga ilusión y no le parezca raro."
  },
  {
    "label": "106",
    "attribute": "0x0000000000000000",
    "text": "{{anim id=\"Sighing\" target=\"actor\" targetSpec=\"\"}}Ya, si lo sé{{string value=\"...\"}}{{delay20}} {{anim id=\"Worried\" target=\"actor\" targetSpec=\"\"}}Debo ser valiente y\nresolver mis propios problemas."
  },
  {
    "label": "108",
    "attribute": "0x0000000000000000",
    "text": "{{anim id=\"Hesitate\" target=\"actor\" targetSpec=\"\"}}Sé que es mucho pedir,{{delay8}} pero\n¿podrías llevárselo hoy, porfa?"
  },
  {
    "label": "109",
    "attribute": "0x0000000000000000",
    "text": "{{anim id=\"Worried\" target=\"actor\" targetSpec=\"\"}}Hoy ya se ha hecho un poco tarde,{{delay8}}\npero ¿crees que podrías dárselo\nmañana?"
  },
  {
    "label": "201",
    "attribute": "0x0000000000000000",
    "text": "{{anim id=\"Explain\" target=\"actor\" targetSpec=\"\"}}Dijiste que ibas a devolver de mi\nparte el objeto que le pedí prestado\na {{selection value=\"SelectedVillager\"}}.\n{{anim id=\"FaintSmile\" target=\"actor\" targetSpec=\"\"}}¡Gracias otra vez por ser tan amable!"
  },
  {
    "label": "202",
    "attribute": "0x0000000000000000",
    "text": "{{anim id=\"Explain\" target=\"actor\" targetSpec=\"\"}}¿No te acuerdas? {{delay20}}Te ofreciste a\nllevar a {{selection value=\"SelectedVillager\"}} lo que se\ndejó en mi casa."
  },
  {
    "label": "203",
    "attribute": "0x0000000000000000",
    "text": "{{anim id=\"Explain\" target=\"actor\" targetSpec=\"\"}}Te conté que me había llegado\nun paquete a mi casa para\n{{selection value=\"SelectedVillager\"}}.\n{{anim id=\"FaintSmile\" target=\"actor\" targetSpec=\"\"}}Y tú fuiste tan amable de aceptar\nllevárselo en mi lugar."
  },
  {
    "label": "204",
    "attribute": "0x0000000000000000",
    "text": "{{anim id=\"Hesitate\" target=\"actor\" targetSpec=\"\"}}Te pedí que entregaras un regalo\na {{selection value=\"SelectedVillager\"}} de mi parte.{{delay20}}\n¿Recuerdas?"
  },
  {
    "label": "205",
    "attribute": "0x0000000000000000",
    "text": "{{anim id=\"Worried\" target=\"actor\" targetSpec=\"\"}}Como discutí con {{selection value=\"SelectedVillager\"}},{{delay8}}\nle he comprado un regalo para\npedirle disculpas.\n{{anim id=\"Hesitate\" target=\"actor\" targetSpec=\"\"}}No me atrevo a dárselo yo,{{delay8}} pero tú\nte has ofrecido a llevárselo por mí."
  }
]