﻿[
  {
    "label": "001",
    "attribute": "0x0000000000000000",
    "text": "{{anim id=\"Nodding\" target=\"actor\" targetSpec=\"\"}}You back for this {{color id=\"1\"}}{{wordInfo gender=\"0\" indefArticle=\"1\" defArticle=\"3\"}}Bunny Day crown\n{{color id=\"65535\"}}DIY recipe?"
  },
  {
    "label": "002",
    "attribute": "0x0000000000000000",
    "text": "{{anim id=\"Nodding\" target=\"actor\" targetSpec=\"\"}}Ready for this {{color id=\"1\"}}{{wordInfo gender=\"0\" indefArticle=\"1\" defArticle=\"3\"}}Bunny Day bag{{color id=\"65535\"}} DIY\nrecipe, kiddo?"
  },
  {
    "label": "010",
    "attribute": "0x0000000000000000",
    "text": "{{anim id=\"Serious\" target=\"actor\" targetSpec=\"\"}}It doesn't look like it's the easiest\nDIY project, but that just means a\nlittle extra pride when you're done.{{pageBreak}}{{anim id=\"Smiling\" target=\"actor\" targetSpec=\"\"}}Now go on and give it your\nbest shot, {{string value=\"Catchphrase\"}}!"
  },
  {
    "label": "011",
    "attribute": "0x0000000000000000",
    "text": "{{anim id=\"Shocked\" target=\"actor\" targetSpec=\"\"}}Now just a toast-butterin' minute!{{delay20}}\nYour pockets are still full.{{delay frames=\"40\"}} {{anim id=\"Serious\" target=\"actor\" targetSpec=\"\"}}Go make\nsome space and come back, OK?"
  },
  {
    "label": "020",
    "attribute": "0x0000000000000000",
    "text": "{{anim id=\"Worried\" target=\"actor\" targetSpec=\"\"}}So get this. {{delay20}}Some clumsy litterbug\ndropped their DIY recipe out in front\nof my house.{{pageBreak}}{{anim id=\"Nodding\" target=\"actor\" targetSpec=\"\"}}It's for a {{color id=\"1\"}}{{wordInfo gender=\"0\" indefArticle=\"1\" defArticle=\"3\"}}Bunny Day crown{{color id=\"65535\"}}.{{delay frames=\"40\"}} {{anim id=\"QuestionMark\" target=\"actor\" targetSpec=\"\"}}Want\nit?{{delay20}} I cleaned the dirt off as best\nI could, so it oughta be legible."
  },
  {
    "label": "021",
    "attribute": "0x0000000000000000",
    "text": "{{anim id=\"Nodding\" target=\"actor\" targetSpec=\"\"}}Do you have any need for a\n{{color id=\"1\"}}{{wordInfo gender=\"0\" indefArticle=\"1\" defArticle=\"3\"}}Bunny Day bag {{color id=\"65535\"}}DIY recipe?{{pageBreak}}{{anim id=\"EmotEnd\" target=\"actor\" targetSpec=\"\"}}I stumbled across it a bit ago.{{delay20}} {{anim id=\"Sighing\" target=\"actor\" targetSpec=\"\"}}Fell\ndown and everythin'!{{delay20}} Anyhoo, it's\nall yours."
  },
  {
    "label": "100",
    "attribute": "0x0000000000000000",
    "text": "{{anim id=\"FaintSmile\" target=\"actor\" targetSpec=\"\"}}Well, if it ain't {{string value=\"NickName\"}}.{{delay20}}\nLet me hoist myself up."
  },
  {
    "label": "101",
    "attribute": "0x0000000000000000",
    "text": "{{anim id=\"FaintSmile\" target=\"actor\" targetSpec=\"\"}}{{capitalizeNextLetter}}{{string value=\"NickName\"}}! {{delay20}}I was just\nthinkin' about you."
  },
  {
    "label": "200",
    "attribute": "0x0000000000000000",
    "text": "{{anim id=\"WrySmile\" target=\"actor\" targetSpec=\"\"}}Well, if it ain't Captain Full-Pockets!{{delay20}}\nYou finally ready to take these here\n{{color id=\"1\"}}{{fun_0000007D arg=\"0x0002\"}}{{color id=\"65535\"}} off me?"
  },
  {
    "label": "201",
    "attribute": "0x0000000000000000",
    "text": "{{anim id=\"Sighing\" target=\"actor\" targetSpec=\"\"}}Whew!{{delay8}} They're all yours now.{{delay20}} Have\nfun comin' up with something to\ndo with 'em, {{string value=\"6\"}}.{{delay20}} {{anim id=\"Laughing\" target=\"actor\" targetSpec=\"\"}}Gahaha!"
  },
  {
    "label": "202",
    "attribute": "0x0000000000000000",
    "text": "{{anim id=\"ShyBoy\" target=\"actor\" targetSpec=\"\"}}Huh{{string value=\"...\"}}looks like you're not.{{delay20}} Reckon\nCaptain Full-Pockets has a reputation\nto consider, {{string value=\"6\"}}!{{delay20}} {{anim id=\"Laughing\" target=\"actor\" targetSpec=\"\"}}Gahaha!{{pageBreak}}{{anim id=\"Angry\" target=\"actor\" targetSpec=\"\"}}Now go make enough room for {{color id=\"1\"}}5{{color id=\"65535\"}} of\nthese and hurry back, {{string value=\"6\"}}."
  }
]