﻿[
  {
    "label": "001",
    "text": "Also wirklich, {{string value=\"NickName\"}}!"
  },
  {
    "label": "002",
    "text": "{{gender2 m=\"Mein unartiger\" f=\"Meine unartige\"}} {{string value=\"NickName\"}}!"
  },
  {
    "label": "003",
    "text": "An {{gender2 m=\"den mysteriösen\" f=\"die mysteriöse\"}} {{string value=\"NickName\"}}!"
  },
  {
    "label": "101",
    "text": "Ein starkes Stück! Deine letzte\nKarte war völlig leer! Soll dies eine\nAnspielung sein, dass meine Karten\nzu wortreich sind? Ätzender Spott?\nOder interpretiere ich wieder\neinmal zu viel hinein?"
  },
  {
    "label": "102",
    "text": "Mir einer vollkommen leeren Karte\nzu schicken ist dann doch des\nSpaßes zu viel! Auch ich bin dem\neinen oder anderen Schabernack\nnicht abgeneigt, aber diese Art von\nHumor ist mir dann doch fremd."
  },
  {
    "label": "103",
    "text": "Deine Karte, in der nichts\ngeschrieben stand, gibt mir Rätsel\nauf. Hast du etwa Zaubertinte ver-\nwendet oder einen Geheimcode?\nVielleicht gucke ich aber auch zu\nviele Geheimagenten-Filme..."
  },
  {
    "label": "201",
    "text": "Deine sprachlose {{string value=\"VillagerName\"}}"
  },
  {
    "label": "202",
    "text": "Deine ernste {{string value=\"VillagerName\"}}"
  },
  {
    "label": "203",
    "text": "Mit verwirrtem Gruß, {{string value=\"VillagerName\"}}"
  }
]