﻿[
  {
    "label": "002",
    "attribute": "0x00000000",
    "text": "{{anim id=\"QuestionMark\" target=\"actor\" targetSpec=\"\"}}¿Así que tú te encargas de planificar\ntodo lo relacionado con mi casa?{{delay20}}\n{{anim id=\"Nodding\" target=\"actor\" targetSpec=\"\"}}¡Te debo una, hermanis!"
  },
  {
    "label": "003",
    "attribute": "0x01000000",
    "text": "{{anim id=\"Worried\" target=\"actor\" targetSpec=\"\"}}Bueno, bueno, bueno{{string value=\"...\"}}{{delay20}} Qué dilema{{string value=\"...\"}}{{delay20}}\n{{anim id=\"FaintSmile\" target=\"actor\" targetSpec=\"\"}}Mejor dejo mi destino en tus manos.{{delay20}}\n¿Qué me recomiendas?"
  },
  {
    "label": "003_01",
    "attribute": "0x00000000",
    "text": "Ver para creer.{{delay20}} {{anim id=\"Negative\" target=\"actor\" targetSpec=\"\"}}Nunca imaginé que\ntendría mi propia casa de vacaciones.{{delay20}}\n{{anim id=\"Greeting\" target=\"actor\" targetSpec=\"\"}}Gracias por pensar en mí."
  },
  {
    "label": "003_03",
    "attribute": "0x00000000",
    "text": "{{anim id=\"Nodding\" target=\"actor\" targetSpec=\"\"}}Ajá,{{delay8}} parece un rinconcito estupendo.{{delay20}}\n{{anim id=\"FaintSmile\" target=\"actor\" targetSpec=\"\"}}Me gusta."
  },
  {
    "label": "003_04",
    "attribute": "0x00000000",
    "text": "{{anim id=\"FaintSmile\" target=\"actor\" targetSpec=\"\"}}Lo intentaremos. {{delay20}}Muchas gracias."
  },
  {
    "label": "003_a",
    "attribute": "0x00000000",
    "text": "Una casa de un piso"
  },
  {
    "label": "003_b",
    "attribute": "0x00000000",
    "text": "Una casa de dos pisos"
  },
  {
    "label": "004",
    "attribute": "0x00000000",
    "text": "{{anim id=\"Nodding\" target=\"actor\" targetSpec=\"\"}}Pues sí,{{delay8}} con un piso me sobra.{{delay20}}\n{{anim id=\"Smiling\" target=\"actor\" targetSpec=\"\"}}Discreción ante todo."
  },
  {
    "label": "005",
    "attribute": "0x00000000",
    "text": "{{anim id=\"Nodding\" target=\"actor\" targetSpec=\"\"}}Pues sí,{{delay8}} una casa de dos pisos\nparece lo más adecuado,{{delay20}} {{anim id=\"Smiling\" target=\"actor\" targetSpec=\"\"}}ya que\nsiempre estoy en las nubes."
  }
]