﻿[
  {
    "label": "002",
    "attribute": "0x00000000",
    "text": "{{anim id=\"HappyFlower\" target=\"actor\" targetSpec=\"\"}}Ma maison de vacances est vraiment\nsublime!{{delay20}} Même mon grand frère est\népaté.{{delay20}} Merci!{{pageBreak}}{{anim id=\"Explain\" target=\"actor\" targetSpec=\"\"}}Accepte ce petit présent en guise\nde remerciement.{{delay frames=\"40\"}} {{anim id=\"Greeting\" target=\"actor\" targetSpec=\"\"}}J'espère qu'il te\nplaira!"
  },
  {
    "label": "002_001",
    "attribute": "0x00000000",
    "text": "{{anim id=\"Smiling\" target=\"actor\" targetSpec=\"\"}}{{capitalizeNextLetter}}{{wordArticle}}{{fun_0000007D arg=\"0x0000\"}}!{{delay frames=\"40\"}}\nMon grand frère et moi, nous avons\n{{gender8 m=\"le\" f=\"la\" n=\"\"}} même!"
  },
  {
    "label": "002_002",
    "attribute": "0x00000000",
    "text": "{{anim id=\"Shocked\" target=\"actor\" targetSpec=\"\"}}Oh non!{{delay20}} Tu n'as pas de place dans\ntes poches! {{anim id=\"FaintSmile\" target=\"actor\" targetSpec=\"\"}}Je vais devoir te prier de\nrevenir quand tu y auras remédié."
  },
  {
    "label": "002_003",
    "attribute": "0x00000000",
    "text": "{{anim id=\"Hello\" target=\"actor\" targetSpec=\"\"}}Je constate que tu as de la place\ndans tes poches maintenant.{{delay20}} {{anim id=\"FaintSmile\" target=\"actor\" targetSpec=\"\"}}Voici le\ncadeau que je voulais te donner!"
  }
]