﻿[
  {
    "label": "001",
    "attribute": "0x0000000000000000",
    "locale": {
      "CNzh": "{{anim id=\"Greeting\" target=\"actor\" targetSpec=\"\"}}今年的生肖{{delay8}}是鼠～{{delay frames=\"40\"}}\n{{anim id=\"Blushing\" target=\"actor\" targetSpec=\"\"}}我就是今年的主角～{{delay20}}\n想想{{delay20}}都有点不好意思了呢～{{pageBreak}}{{anim id=\"Nodding\" target=\"actor\" targetSpec=\"\"}}我要用我这一对大耳朵，{{delay20}}\n把大家对我的评价，{{delay8}}\n{{anim id=\"SmugFace\" target=\"actor\" targetSpec=\"\"}}一字不差地听清楚～！{{string value=\"6\"}}。",
      "EUde": "{{anim id=\"Greeting\" target=\"actor\" targetSpec=\"\"}}Huhu, jetzt ist das Jahr der Ratte!{{delay frames=\"40\"}}\n{{anim id=\"Blushing\" target=\"actor\" targetSpec=\"\"}}Da zähle ich mich jetzt einfach auch\nmal dazu...\n{{anim id=\"Laughing\" target=\"actor\" targetSpec=\"\"}}Vielleicht sollte ich 'ne Rede halten!{{delay frames=\"40\"}}\n{{anim id=\"Nodding\" target=\"actor\" targetSpec=\"\"}}Bürger von {{string value=\"OtherIslandName\"}}, {{delay8}}\nher mit dem Käse! {{delay20}}Äh, he he he!",
      "EUen": "{{anim id=\"Greeting\" target=\"actor\" targetSpec=\"\"}}It's the Year of the Mouse!{{delay frames=\"40\"}} {{anim id=\"Blushing\" target=\"actor\" targetSpec=\"\"}}It's kinda\nweird having a whole year dedicated\nto you.{{delay frames=\"40\"}}{{anim id=\"EmotEnd\" target=\"actor\" targetSpec=\"\"}}{{pageBreak}}{{anim id=\"Laughing\" target=\"actor\" targetSpec=\"\"}}Maybe I oughta do a speech!{{i10_4}} {{anim id=\"Nodding\" target=\"actor\" targetSpec=\"\"}}Folks,\nfriends, {{string value=\"OtherIslandName\"}}ers,\na huh huh, lend me your snacks!",
      "EUes": "{{anim id=\"Greeting\" target=\"actor\" targetSpec=\"\"}}¡Estamos en el año de la rata!{{delay20}}\n{{anim id=\"Blushing\" target=\"actor\" targetSpec=\"\"}}Qué raro tener todo un año\ndedicado a uno,{{delay8}} ¿no?\n{{anim id=\"Nodding\" target=\"actor\" targetSpec=\"\"}}¡Voy a dar un discurso!{{delay20}} Ejem{{string value=\"...\"}}{{pageBreak}}{{anim id=\"SmugFace\" target=\"actor\" targetSpec=\"\"}}¡Isleños todos,{{delay8}} espero que este año\nme deis chuches {{anim id=\"Laughing\" target=\"actor\" targetSpec=\"\"}}siempre que os\nlas pida!",
      "EUfr": "{{anim id=\"Greeting\" target=\"actor\" targetSpec=\"\"}}C'est l'année du rat !{{delay frames=\"40\"}} {{anim id=\"SmugFace\" target=\"actor\" targetSpec=\"\"}}Tous les\nrats{{delay20}} et toutes les souris sont à\nl'honneur !{{delay8}} Comme moi !{{pageBreak}}{{anim id=\"Laughing\" target=\"actor\" targetSpec=\"\"}}Je devrais peut-être faire un\ndiscours !{{delay20}}{{anim id=\"EmotEnd\" target=\"actor\" targetSpec=\"\"}} Hem, hem{{string value=\"...\"}}{{pageBreak}}{{anim id=\"Nodding\" target=\"actor\" targetSpec=\"\"}}Chers concitoyens {{gender4 m=\"de \" f=\"d'⁠\"}}{{string value=\"OtherIslandName\"}} !{{delay20}} Donnez-moi tout votre gruyère !",
      "EUit": "{{anim id=\"Greeting\" target=\"actor\" targetSpec=\"\"}}Secondo il calendario cinese, questo\nsarà l'anno del Topo! {{delay frames=\"40\"}}{{anim id=\"Blushing\" target=\"actor\" targetSpec=\"\"}}È come se mi\navessero dedicato un anno intero.\n{{anim id=\"Laughing\" target=\"actor\" targetSpec=\"\"}}{{delay20}}Forse dovrei tenere un discorso!\n{{anim id=\"Nodding\" target=\"actor\" targetSpec=\"\"}}Ahem! {{delay8}}Prometto alla popolazione\ndell'isola{{string value=\"...\"}} {{anim id=\"HappyFlower\" target=\"actor\" targetSpec=\"\"}}{{delay8}}più snack per tutti!\n{{anim id=\"Explain\" target=\"actor\" targetSpec=\"\"}}Ah, {{delay8}}comunque il calendario cinese\nnon si basa su quello solare che\nusiamo noi. {{delay20}}L'ho letto in un fumetto!",
      "EUnl": "{{anim id=\"Greeting\" target=\"actor\" targetSpec=\"\"}}Het is het jaar van de rat!{{delay frames=\"40\"}} {{anim id=\"Blushing\" target=\"actor\" targetSpec=\"\"}}Het geeft\nbest veel druk als er een heel jaar\naan je is gewijd{{string value=\"...\"}}{{pageBreak}}{{anim id=\"Laughing\" target=\"actor\" targetSpec=\"\"}}Zal ik een toespraak houden?{{i10_4}} {{anim id=\"Nodding\" target=\"actor\" targetSpec=\"\"}}Hallo bewoners van {{string value=\"OtherIslandName\"}}, ik ontvang graag jullie snoepjes!",
      "EUru": "{{anim id=\"Greeting\" target=\"actor\" targetSpec=\"\"}}Наступил год мыши!{{delay frames=\"40\"}} {{anim id=\"Blushing\" target=\"actor\" targetSpec=\"\"}}Целый год\nпосвящен мне, даже как-то странно.{{anim id=\"Laughing\" target=\"actor\" targetSpec=\"\"}}\nНаверное, нужно речь сказать!{{pageBreak}}{{anim id=\"Nodding\" target=\"actor\" targetSpec=\"\"}}Друзья, жители острова\n{{string value=\"OtherIslandName\"}}, я приму в дар\nваши вкусняшки!",
      "JPja": "{{anim id=\"Greeting\" target=\"actor\" targetSpec=\"\"}}{{ruby charSpan=\"2\" value=\"ことし\"}}今年の　えとは　{{delay8}}ネズミ{{ruby charSpan=\"1\" value=\"どし\"}}年なんだよぉ～{{delay frames=\"40\"}}\n{{anim id=\"Blushing\" target=\"actor\" targetSpec=\"\"}}この　ボクが　しゅやくだなんて{{delay20}}\nテレちゃうなぁ、{{delay20}}もぉ～{{pageBreak}}{{anim id=\"Nodding\" target=\"actor\" targetSpec=\"\"}}この　{{ruby charSpan=\"1\" value=\"おお\"}}大きな{{ruby charSpan=\"1\" value=\"みみ\"}}耳で、{{delay20}}\nみんなからの　ボクのひょうばんを{{delay8}}\n{{anim id=\"SmugFace\" target=\"actor\" targetSpec=\"\"}}バッチリ　{{ruby charSpan=\"1\" value=\"き\"}}聞いちゃうんだぁ！　{{string value=\"6\"}}",
      "KRko": "{{anim id=\"Greeting\" target=\"actor\" targetSpec=\"\"}}올해는 {{delay8}}쥐의 해야아～{{delay frames=\"40\"}}\n{{anim id=\"Blushing\" target=\"actor\" targetSpec=\"\"}}내가 주인공이라니{{delay20}}\n되게 쑥스럽다아, {{delay20}}에헤헤～{{pageBreak}}{{anim id=\"Nodding\" target=\"actor\" targetSpec=\"\"}}이 커다란 귀로{{delay20}}\n친구들이 해주는 좋은 얘기들을{{delay8}}\n{{anim id=\"SmugFace\" target=\"actor\" targetSpec=\"\"}}놓치지 않고 다 들어야지이～ {{string value=\"6\"}}!",
      "TWzh": "{{anim id=\"Greeting\" target=\"actor\" targetSpec=\"\"}}今年{{delay8}}是鼠年喔～{{delay frames=\"40\"}}\n{{anim id=\"Blushing\" target=\"actor\" targetSpec=\"\"}}一想到{{delay20}}我竟然是主角\n就好害羞喔～{{delay20}}討厭啦～{{pageBreak}}{{anim id=\"Nodding\" target=\"actor\" targetSpec=\"\"}}我要用{{delay8}}這對大耳朵{{delay20}}\n{{anim id=\"SmugFace\" target=\"actor\" targetSpec=\"\"}}把大家對我的評價聽得一清二楚！{{string value=\"6\"}}。",
      "USen": "{{anim id=\"Greeting\" target=\"actor\" targetSpec=\"\"}}It's the Year of the Mouse!{{delay frames=\"40\"}} {{anim id=\"Blushing\" target=\"actor\" targetSpec=\"\"}}It's kinda\nweird having a whole year dedicated\nto you.{{delay frames=\"40\"}}{{anim id=\"EmotEnd\" target=\"actor\" targetSpec=\"\"}}{{pageBreak}}{{anim id=\"Laughing\" target=\"actor\" targetSpec=\"\"}}Maybe I oughta do a speech!{{i10_4}} {{anim id=\"Nodding\" target=\"actor\" targetSpec=\"\"}}Folks,\nfriends, {{string value=\"OtherIslandName\"}}ers,\na huh huh, lend me your snacks!",
      "USes": "{{anim id=\"Greeting\" target=\"actor\" targetSpec=\"\"}}¡Estamos en el año de la rata!{{delay8}}\n{{anim id=\"Blushing\" target=\"actor\" targetSpec=\"\"}}Qué raro tener todo un año\ndedicado a uno,{{delay8}} ¿no?\n{{anim id=\"SmugFace\" target=\"actor\" targetSpec=\"\"}}¡Voy a dar un discurso!{{pageBreak}}{{anim id=\"Smiling\" target=\"actor\" targetSpec=\"\"}}¡Habitantes de la isla,{{delay8}} recibiré con\ngusto sus ofrendas de dulces y otras\nricuras!",
      "USfr": "{{anim id=\"Greeting\" target=\"actor\" targetSpec=\"\"}}C'est l'année du rat!{{delay frames=\"40\"}} {{anim id=\"SmugFace\" target=\"actor\" targetSpec=\"\"}}Tous les\nrats{{delay20}} et toutes les souris sont à\nl'honneur!{{delay8}} Comme moi!{{pageBreak}}{{anim id=\"Laughing\" target=\"actor\" targetSpec=\"\"}}Je devrais peut-être faire un\ndiscours!{{delay20}}{{anim id=\"EmotEnd\" target=\"actor\" targetSpec=\"\"}} Hem, hem{{string value=\"...\"}}{{pageBreak}}{{anim id=\"Nodding\" target=\"actor\" targetSpec=\"\"}}Chers concitoyens {{gender4 m=\"de \" f=\"d'\"}}⁠{{string value=\"OtherIslandName\"}}!{{delay20}} Donnez-moi tout votre gruyère!"
    }
  },
  {
    "label": "002",
    "attribute": "0x0000000000000000",
    "locale": {
      "CNzh": "{{anim id=\"Pardon\" target=\"actor\" targetSpec=\"\"}}你知道{{delay8}}今年是什么年吗～？{{delay frames=\"40\"}}\n{{anim id=\"FaintSmile\" target=\"actor\" targetSpec=\"\"}}嘻嘻～{{delay8}}今年呀{{string value=\"...\"}}{{delay frames=\"40\"}}\n{{anim id=\"BigSmile\" target=\"actor\" targetSpec=\"\"}}是牛年！{{delay20}}我的生肖年哦～！{{pageBreak}}{{anim id=\"Nodding\" target=\"actor\" targetSpec=\"\"}}但话说回来，{{delay8}}我还是我，{{delay20}}\n没有任何变化哦～{{delay frames=\"40\"}}\n{{anim id=\"HappyDance\" target=\"actor\" targetSpec=\"\"}}只要今年也能{{delay8}}开心度过就够了～！{{string value=\"6\"}}。",
      "EUde": "{{anim id=\"Pardon\" target=\"actor\" targetSpec=\"\"}}Weißt du, welches Jahr es ist?{{delay frames=\"40\"}}\n{{anim id=\"BigSmile\" target=\"actor\" targetSpec=\"\"}}MEIN Jahr!{{delay20}} Das Jahr des Büffels,{{delay8}}\n{{string value=\"Catchphrase\"}}!{{pageBreak}}{{anim id=\"Nodding\" target=\"actor\" targetSpec=\"\"}}Ich lass es mir nicht zu Kopf steigen,\naber{{string value=\"...\"}} {{delay20}}{{anim id=\"HappyFlower\" target=\"actor\" targetSpec=\"\"}}Das ist unglaublich cool!{{delay20}}\nEcht muh-numental!{{delay20}} Äh, he he he!{{pageBreak}}{{anim id=\"Explain\" target=\"actor\" targetSpec=\"\"}}Schon gut, {{delay8}}der war echt schlecht.{{delay20}}\nTotal rindisch!{{delay20}}{{anim id=\"Laughing\" target=\"actor\" targetSpec=\"\"}} Äh, he he he!",
      "EUen": "{{anim id=\"Pardon\" target=\"actor\" targetSpec=\"\"}}Do you know what kinda year it is?{{delay frames=\"40\"}}\n{{anim id=\"BigSmile\" target=\"actor\" targetSpec=\"\"}}It's MY year!{{delay20}} The Year of the Bull!{{pageBreak}}{{anim id=\"Nodding\" target=\"actor\" targetSpec=\"\"}}I'm not gonna let it go to my head,\nbuuut, {{anim id=\"HappyFlower\" target=\"actor\" targetSpec=\"\"}}it's pretty cool! Pret{{delay8}}ty{{string value=\"...\"}}MOOoooool. Eh? A huh huh!{{pageBreak}}{{anim id=\"Explain\" target=\"actor\" targetSpec=\"\"}}Alright, that was a dumb joke.{{delay8}} I sorta\nalmost feel bad about that one.",
      "EUes": "{{anim id=\"Pardon\" target=\"actor\" targetSpec=\"\"}}¿Sabes por un casual qué año\nes este?{{delay20}} {{anim id=\"BigSmile\" target=\"actor\" targetSpec=\"\"}}¡Pues es mi año!{{delay8}}\n¡El año del buey!\n{{anim id=\"Nodding\" target=\"actor\" targetSpec=\"\"}}No pienso dejar que se me suba\na la cabeza,{{delay8}} {{anim id=\"Laughing\" target=\"actor\" targetSpec=\"\"}}¡pero mola muuuuucho!",
      "EUfr": "{{anim id=\"Pardon\" target=\"actor\" targetSpec=\"\"}}Tu sais quelle année on est ?{{delay frames=\"40\"}}\n{{anim id=\"BigSmile\" target=\"actor\" targetSpec=\"\"}}C'est l'année du buffle !{{delay20}} Et de tous\nles bovins !{{delay20}} C'est MON année !{{pageBreak}}{{anim id=\"Nodding\" target=\"actor\" targetSpec=\"\"}}Et ça, {{delay8}}franchement,{{delay8}} ça m'émeuuuuh !{{delay frames=\"40\"}}\n{{anim id=\"Laughing\" target=\"actor\" targetSpec=\"\"}}Oui,{{delay8}} j'avoue, c'était une blague\nnulle,{{delay20}} désolé{{string value=\"...\"}}",
      "EUit": "{{anim id=\"Pardon\" target=\"actor\" targetSpec=\"\"}}Sai che anno è? {{delay frames=\"40\"}}{{anim id=\"BigSmile\" target=\"actor\" targetSpec=\"\"}}È il mio anno, {{delay8}}l'anno\ndella Mucca! {{delay20}}Certo, io sono un toro,\nma cambia poco{{string value=\"...\"}}\n{{anim id=\"Nodding\" target=\"actor\" targetSpec=\"\"}}Proverò a non montarmi la testa,\nma non sarà facile. {{anim id=\"HappyFlower\" target=\"actor\" targetSpec=\"\"}}{{delay20}}Perché è davvero\nqualcosa di mitico, {{string value=\"6\"}}!\n{{anim id=\"Explain\" target=\"actor\" targetSpec=\"\"}}Ah, {{delay8}}momento curiosità: {{delay20}}l'oroscopo\ncinese si basa sul calendario lunare,\nnon su quello solare che usiamo noi.",
      "EUnl": "{{anim id=\"Pardon\" target=\"actor\" targetSpec=\"\"}}Weet je welk jaar het is?{{delay frames=\"40\"}} {{anim id=\"BigSmile\" target=\"actor\" targetSpec=\"\"}}Het is mijn\njaar!{{delay20}} Het jaar van de os!{{pageBreak}}{{anim id=\"Nodding\" target=\"actor\" targetSpec=\"\"}}Ik krijg het heus niet ineens hoog in\nde bol of zo, maar {{anim id=\"HappyFlower\" target=\"actor\" targetSpec=\"\"}}gaaf is het wel!\nDit moeten we{{delay8}}{{string value=\"...\"}} loeihard vieren!{{pageBreak}}{{anim id=\"Explain\" target=\"actor\" targetSpec=\"\"}}Oké, die was heel slecht, ik weet het.{{delay8}}\nIk zou bijna sorry zeggen{{string value=\"...\"}}",
      "EUru": "{{anim id=\"Pardon\" target=\"actor\" targetSpec=\"\"}}Ты знаешь, какой сейчас год?{{delay frames=\"40\"}}\n{{anim id=\"BigSmile\" target=\"actor\" targetSpec=\"\"}}Мой год!{{delay20}} Год быка!{{pageBreak}}{{anim id=\"Nodding\" target=\"actor\" targetSpec=\"\"}}Не хочу хвастаться, но {{anim id=\"HappyFlower\" target=\"actor\" targetSpec=\"\"}}это круто!\nВ этом году{{string value=\"...\"}} возьму быка за рога!\nУ-ху-ху!{{pageBreak}}{{anim id=\"Explain\" target=\"actor\" targetSpec=\"\"}}Не знаю точно, что это значит,{{delay8}}\nно звучит классно.",
      "JPja": "{{anim id=\"Pardon\" target=\"actor\" targetSpec=\"\"}}キミ、{{delay8}}{{ruby charSpan=\"2\" value=\"ことし\"}}今年は　{{ruby charSpan=\"2\" value=\"なにどし\"}}何年か　{{ruby charSpan=\"1\" value=\"し\"}}知ってる～？{{delay frames=\"40\"}}\n{{anim id=\"FaintSmile\" target=\"actor\" targetSpec=\"\"}}うふふ、{{delay8}}なんと{{string value=\"...\"}}{{delay frames=\"40\"}}\n{{anim id=\"BigSmile\" target=\"actor\" targetSpec=\"\"}}ウシ{{ruby charSpan=\"1\" value=\"どし\"}}年、{{delay20}}ボクの{{ruby charSpan=\"1\" value=\"とし\"}}年なんだよぉ～！{{pageBreak}}{{anim id=\"Nodding\" target=\"actor\" targetSpec=\"\"}}って{{ruby charSpan=\"1\" value=\"い\"}}言っても、{{delay8}}ボクはボクだし{{delay20}}\n{{ruby charSpan=\"1\" value=\"なに\"}}何も　かわらないんだけどねぇ{{delay frames=\"40\"}}\n{{anim id=\"HappyDance\" target=\"actor\" targetSpec=\"\"}}{{ruby charSpan=\"2\" value=\"ことし\"}}今年も　{{delay8}}{{ruby charSpan=\"1\" value=\"たの\"}}楽しくすごせると　いいなぁ！　{{string value=\"6\"}}",
      "KRko": "{{anim id=\"Pardon\" target=\"actor\" targetSpec=\"\"}}너{{delay8}} 올해가 무슨 해인지 알아～?{{delay frames=\"40\"}}\n{{anim id=\"FaintSmile\" target=\"actor\" targetSpec=\"\"}}우후후, {{delay8}}바로바로오{{string value=\"...\"}}{{delay frames=\"40\"}}\n{{anim id=\"BigSmile\" target=\"actor\" targetSpec=\"\"}}소의 해, {{delay20}}내 해라구우～!{{pageBreak}}{{anim id=\"Nodding\" target=\"actor\" targetSpec=\"\"}}근데 {{delay8}}나는 나니까{{delay20}}\n딱히 달라지는 건 없네에{{delay frames=\"40\"}}\n{{anim id=\"HappyDance\" target=\"actor\" targetSpec=\"\"}}재밌게 지내면{{delay8}} 되겠지 뭐어～! {{string value=\"6\"}}!",
      "TWzh": "{{anim id=\"Pardon\" target=\"actor\" targetSpec=\"\"}}我問你喔，{{delay8}}你知道今年是什麼年嗎～？{{delay frames=\"40\"}}\n{{anim id=\"FaintSmile\" target=\"actor\" targetSpec=\"\"}}呵呵，{{delay8}}那就是{{string value=\"...\"}}{{delay frames=\"40\"}}\n{{anim id=\"BigSmile\" target=\"actor\" targetSpec=\"\"}}牛年！{{delay20}}是屬於我的年分喔～！{{pageBreak}}{{anim id=\"Nodding\" target=\"actor\" targetSpec=\"\"}}可是{{delay8}}我還是我，{{delay20}}\n什麼都沒有變啊～{{delay frames=\"40\"}}\n{{anim id=\"HappyDance\" target=\"actor\" targetSpec=\"\"}}希望今年也可以{{delay8}}過得開開心心～！{{string value=\"6\"}}。",
      "USen": "{{anim id=\"Pardon\" target=\"actor\" targetSpec=\"\"}}Do you know what kinda year it is?{{delay frames=\"40\"}}\n{{anim id=\"BigSmile\" target=\"actor\" targetSpec=\"\"}}It's MY year!{{delay20}} The Year of the Bull!{{pageBreak}}{{anim id=\"Nodding\" target=\"actor\" targetSpec=\"\"}}I'm not gonna let it go to my head,\nbuuut, {{anim id=\"HappyFlower\" target=\"actor\" targetSpec=\"\"}}it's pretty cool! Pret{{delay8}}ty{{string value=\"...\"}}MOOoooool. Eh? A huh huh!{{pageBreak}}{{anim id=\"Explain\" target=\"actor\" targetSpec=\"\"}}Alright, that was a dumb joke.{{delay8}} I sorta\nalmost feel bad about that one.",
      "USes": "{{anim id=\"Pardon\" target=\"actor\" targetSpec=\"\"}}¿Sabes qué año es este?{{delay20}} {{anim id=\"BigSmile\" target=\"actor\" targetSpec=\"\"}}¡Pues es\nmi año!{{delay8}} ¡El año del buey!{{pageBreak}}{{anim id=\"Nodding\" target=\"actor\" targetSpec=\"\"}}No te preocupes, yo estoy tranquilo,{{delay8}}\nno es algo que me importe muuu{{delay8}}cho.",
      "USfr": "{{anim id=\"Pardon\" target=\"actor\" targetSpec=\"\"}}Tu sais quelle année on est?{{delay frames=\"40\"}}\n{{anim id=\"BigSmile\" target=\"actor\" targetSpec=\"\"}}C'est l'année du buffle!{{delay20}} Et de tous\nles bovins!{{delay20}} C'est MON année!{{pageBreak}}{{anim id=\"Nodding\" target=\"actor\" targetSpec=\"\"}}Et ça, {{delay8}}franchement,{{delay8}} ça m'émeuuuuh!{{delay frames=\"40\"}}\n{{anim id=\"Laughing\" target=\"actor\" targetSpec=\"\"}}Oui,{{delay8}} j'avoue, c'était une blague\nnulle,{{delay20}} désolé{{string value=\"...\"}}"
    }
  },
  {
    "label": "003",
    "attribute": "0x0000000000000000",
    "locale": {
      "CNzh": "{{anim id=\"Cheering\" target=\"actor\" targetSpec=\"\"}}{{delay20}}今年是虎年，{{delay20}}我的生肖年～！{{delay frames=\"40\"}}\n{{anim id=\"FaintSmile\" target=\"actor\" targetSpec=\"\"}}我的目标就是成为{{delay8}}\n{{anim id=\"SmugFace\" target=\"actor\" targetSpec=\"\"}}可以让大家依靠的首领～{{pageBreak}}{{anim id=\"Explain\" target=\"actor\" targetSpec=\"\"}}我要像我的妈妈一样，{{delay8}}\n做到微笑着、点着头，{{delay20}}\n{{anim id=\"Greeting\" target=\"actor\" targetSpec=\"\"}}倾听大家的话语～{{string value=\"6\"}}。",
      "EUde": "{{anim id=\"Cheering\" target=\"actor\" targetSpec=\"\"}}{{delay20}}Dieses Jahr ist das Jahr des Tigers,{{delay8}}\nalso mein Jahr!{{pageBreak}}{{anim id=\"FaintSmile\" target=\"actor\" targetSpec=\"\"}}Es ist wohl an der Zeit,{{delay8}} {{anim id=\"SmugFace\" target=\"actor\" targetSpec=\"\"}}dass ich mich\nzum Insel-Anführer aufschwinge.\n{{delay20}}Ich werd alle beschützen und so.{{pageBreak}}{{anim id=\"Explain\" target=\"actor\" targetSpec=\"\"}}Genau wie meine Mama, die war auch\nschon Tigerin.{{delay20}} {{anim id=\"Greeting\" target=\"actor\" targetSpec=\"\"}}Und hat mich immer\nbeschützt, {{delay8}}{{string value=\"Catchphrase\"}}!",
      "EUen": "{{anim id=\"Cheering\" target=\"actor\" targetSpec=\"\"}}{{delay20}}It's the Year of Me! {{delay20}}The Tiger!{{delay20}}{{anim id=\"EmotEnd\" target=\"actor\" targetSpec=\"\"}}{{delay frames=\"40\"}}\n{{anim id=\"FaintSmile\" target=\"actor\" targetSpec=\"\"}}I'm gonna become a leader\n{{anim id=\"SmugFace\" target=\"actor\" targetSpec=\"\"}}that everyone can depend on!{{pageBreak}}{{anim id=\"Greeting\" target=\"actor\" targetSpec=\"\"}}I'm gonna let everybody know\nabout the best snacks and{{delay8}} the\nbest places for naps!",
      "EUes": "{{anim id=\"Cheering\" target=\"actor\" targetSpec=\"\"}}¡Es mi año!{{delay8}} ¡El año del tigre!{{delay20}}\n{{anim id=\"SmugFace\" target=\"actor\" targetSpec=\"\"}}Voy a ser el líder que todos\nestabais buscando.\n{{anim id=\"ShyBoy\" target=\"actor\" targetSpec=\"\"}}Pero solo este año{{delay8}} y fuera del\nhorario de meriendas y siestas.",
      "EUfr": "{{anim id=\"Cheering\" target=\"actor\" targetSpec=\"\"}}{{delay20}}C'est l'année du moi ! L'année du\ntigre !{{delay20}}{{anim id=\"EmotEnd\" target=\"actor\" targetSpec=\"\"}}{{delay frames=\"40\"}}{{anim id=\"SmugFace\" target=\"actor\" targetSpec=\"\"}} Je vais être une source\nd'inspiration pour tout le monde !{{pageBreak}}{{anim id=\"Greeting\" target=\"actor\" targetSpec=\"\"}}Je vais montrer à tout le monde les\nmeilleures friandises{{delay20}} et les meilleurs\nendroits pour faire la sieste !",
      "EUit": "{{anim id=\"Cheering\" target=\"actor\" targetSpec=\"\"}}Secondo il calendario lunare, fra\npoco inizierà l'anno della Tigre!{{pageBreak}}E già lo so{{string value=\"...\"}} {{delay20}}{{color id=\"5\"}}Grauuurrr!{{color id=\"65535\"}}{{anim id=\"EmotEnd\" target=\"actor\" targetSpec=\"\"}} {{delay frames=\"40\"}}{{anim id=\"SmugFace\" target=\"actor\" targetSpec=\"\"}}Diventerò\nun leader per la gente della nostra\nbella isola!\n{{anim id=\"Greeting\" target=\"actor\" targetSpec=\"\"}}Tutti potranno rivolgersi a me per\nsapere {{delay8}}dove trovare le merendine\nmigliori {{delay8}}e dove fare dei bei pisolini!",
      "EUnl": "{{anim id=\"Cheering\" target=\"actor\" targetSpec=\"\"}}{{delay20}}Het is het jaar van mij, de tijger!{{delay20}}{{anim id=\"EmotEnd\" target=\"actor\" targetSpec=\"\"}}{{delay frames=\"40\"}} {{anim id=\"FaintSmile\" target=\"actor\" targetSpec=\"\"}}Ik\nbeloof dat ik mijn macht {{anim id=\"SmugFace\" target=\"actor\" targetSpec=\"\"}}alleen voor\nhet goede zal gebruiken!{{pageBreak}}{{anim id=\"Greeting\" target=\"actor\" targetSpec=\"\"}}Als leider zal ik mijn kennis over het\nlekkerste snoep{{delay8}} en de beste plekken\nvoor dutjes met iedereen delen!",
      "EUru": "{{anim id=\"Cheering\" target=\"actor\" targetSpec=\"\"}}{{delay20}}Сейчас год меня! Год тигра!{{delay20}}{{anim id=\"EmotEnd\" target=\"actor\" targetSpec=\"\"}}{{delay frames=\"40\"}} {{anim id=\"FaintSmile\" target=\"actor\" targetSpec=\"\"}}Я стану\nлидером, {{anim id=\"SmugFace\" target=\"actor\" targetSpec=\"\"}}за которым пойдут все!{{pageBreak}}{{anim id=\"Greeting\" target=\"actor\" targetSpec=\"\"}}Я расскажу всем, где самые лучшие\nвкусняшки{{delay8}} и где лучше всего\nприлечь поспать в тихий час!",
      "JPja": "{{anim id=\"Cheering\" target=\"actor\" targetSpec=\"\"}}{{delay20}}{{ruby charSpan=\"2\" value=\"ことし\"}}今年は　トラ{{ruby charSpan=\"1\" value=\"どし\"}}年、{{delay20}}ボクの{{ruby charSpan=\"1\" value=\"とし\"}}年～！{{delay frames=\"40\"}}\n{{anim id=\"FaintSmile\" target=\"actor\" targetSpec=\"\"}}みんなに　たよってもらえるような{{delay8}}\n{{anim id=\"SmugFace\" target=\"actor\" targetSpec=\"\"}}リーダーを　めざすよぉ～{{pageBreak}}{{anim id=\"Explain\" target=\"actor\" targetSpec=\"\"}}ボクの　お{{ruby charSpan=\"1\" value=\"かあ\"}}母さんみたいに{{delay8}}\nニコニコ　うなずいて{{delay20}}\n{{anim id=\"Greeting\" target=\"actor\" targetSpec=\"\"}}みんなの{{ruby charSpan=\"1\" value=\"はなし\"}}話を　{{ruby charSpan=\"1\" value=\"き\"}}聞いてあげるんだぁ、{{string value=\"6\"}}",
      "KRko": "{{anim id=\"Cheering\" target=\"actor\" targetSpec=\"\"}}{{delay20}}올해는 호랑이의 해,{{delay20}} 내 해야아～!{{delay20}}{{delay frames=\"40\"}}\n{{anim id=\"FaintSmile\" target=\"actor\" targetSpec=\"\"}}친구들이 힘들 때 기댈 수 있는{{delay8}}\n{{anim id=\"SmugFace\" target=\"actor\" targetSpec=\"\"}}든든한 리더가 돼야지이～!{{pageBreak}}{{anim id=\"Explain\" target=\"actor\" targetSpec=\"\"}}우리 엄마처럼{{delay8}}\n미소가 잘 어울리고 남의 말을 잘 들어주는{{delay20}}\n{{anim id=\"Greeting\" target=\"actor\" targetSpec=\"\"}}그런 사람이 될 거야아～ {{string value=\"6\"}}～!",
      "TWzh": "{{anim id=\"Cheering\" target=\"actor\" targetSpec=\"\"}}{{delay20}}今年是虎年，{{delay20}}是屬於我的年分喔～！{{delay frames=\"40\"}}\n{{anim id=\"FaintSmile\" target=\"actor\" targetSpec=\"\"}}我的目標是變成{{delay8}}\n{{anim id=\"SmugFace\" target=\"actor\" targetSpec=\"\"}}能夠讓大家依靠的領袖～{{pageBreak}}{{anim id=\"Explain\" target=\"actor\" targetSpec=\"\"}}我要學媽媽{{delay8}}邊微笑著點頭，{{delay20}}\n{{anim id=\"Greeting\" target=\"actor\" targetSpec=\"\"}}邊傾聽大家的心聲～{{string value=\"6\"}}。",
      "USen": "{{anim id=\"Cheering\" target=\"actor\" targetSpec=\"\"}}{{delay20}}It's the Year of Me! {{delay20}}The Tiger!{{delay20}}{{anim id=\"EmotEnd\" target=\"actor\" targetSpec=\"\"}}{{delay frames=\"40\"}}\n{{anim id=\"FaintSmile\" target=\"actor\" targetSpec=\"\"}}I'm gonna become a leader\n{{anim id=\"SmugFace\" target=\"actor\" targetSpec=\"\"}}that everyone can depend on!{{pageBreak}}{{anim id=\"Greeting\" target=\"actor\" targetSpec=\"\"}}I'm gonna let everybody know\nabout the best snacks and{{delay8}} the\nbest places for naps!",
      "USes": "{{anim id=\"Cheering\" target=\"actor\" targetSpec=\"\"}}¡Es mi año!{{delay20}} ¡El del tigre!{{pageBreak}}{{anim id=\"SmugFace\" target=\"actor\" targetSpec=\"\"}}¡Por eso me convertiré en el líder\nque nadie pidió pero que todos\nnecesitan!\n{{anim id=\"Greeting\" target=\"actor\" targetSpec=\"\"}}A partir de mañana, ¡dulces\ny papitas para todos!",
      "USfr": "{{anim id=\"Cheering\" target=\"actor\" targetSpec=\"\"}}{{delay20}}C'est l'année du moi! L'année du\ntigre!{{delay20}}{{anim id=\"EmotEnd\" target=\"actor\" targetSpec=\"\"}}{{delay frames=\"40\"}}{{anim id=\"SmugFace\" target=\"actor\" targetSpec=\"\"}} Je vais être une source\nd'inspiration pour tout le monde!{{pageBreak}}{{anim id=\"Greeting\" target=\"actor\" targetSpec=\"\"}}Je vais montrer à tout le monde les\nmeilleures friandises{{delay20}} et les meilleurs\nendroits pour faire la sieste!"
    }
  },
  {
    "label": "004",
    "attribute": "0x0000000000000000",
    "locale": {
      "CNzh": "{{anim id=\"Blushing\" target=\"actor\" targetSpec=\"\"}}我引以为豪的长耳朵，{{delay20}}\n今年要更加{{delay8}}\n用心地打理才是～{{pageBreak}}{{anim id=\"EmotEnd\" target=\"actor\" targetSpec=\"\"}}因为，{{anim id=\"BigSmile\" target=\"actor\" targetSpec=\"\"}}今年是兔年啊～！{{delay frames=\"40\"}}\n{{anim id=\"FaintSmile\" target=\"actor\" targetSpec=\"\"}}大家一定会{{delay8}}\n特别关注我的呢～{{string value=\"6\"}}。",
      "EUde": "{{anim id=\"Blushing\" target=\"actor\" targetSpec=\"\"}}In diesem Jahr muss ich meine\nlangen Löffel immer besonders\ngut waschen.{{pageBreak}}{{anim id=\"EmotEnd\" target=\"actor\" targetSpec=\"\"}}Immerhin {{anim id=\"BigSmile\" target=\"actor\" targetSpec=\"\"}}haben wir das Jahr des\nHasen!{{delay20}} {{anim id=\"FaintSmile\" target=\"actor\" targetSpec=\"\"}}Da muss ich ein gutes\nVorbild sein, {{delay8}}{{string value=\"Catchphrase\"}}!",
      "EUen": "It's the Year of the Rabbit! {{anim id=\"Blushing\" target=\"actor\" targetSpec=\"\"}}I probably\noughta clean my ears, huh?{{delay frames=\"40\"}}{{anim id=\"EmotEnd\" target=\"actor\" targetSpec=\"\"}}",
      "EUes": "{{anim id=\"HappyFlower\" target=\"actor\" targetSpec=\"\"}}¡Este año es ni más ni menos que\nel de la liebre!{{delay20}} {{anim id=\"Blushing\" target=\"actor\" targetSpec=\"\"}}Podría aprovechar\npara lavarme a fondo las orejas{{string value=\"...\"}}",
      "EUfr": "C'est l'année du lièvre !{{delay20}} {{anim id=\"SmugFace\" target=\"actor\" targetSpec=\"\"}}C'est moi\nla star !{{delay20}}{{anim id=\"Blushing\" target=\"actor\" targetSpec=\"\"}} Il va falloir que je me nettoie\nbien les oreilles !",
      "EUit": "{{anim id=\"HappyDance\" target=\"actor\" targetSpec=\"\"}}In base all'oroscopo cinese, sta\nper cominciare l'anno del Coniglio!{{pageBreak}}{{anim id=\"Blushing\" target=\"actor\" targetSpec=\"\"}}Si consiglia di non aspettare la\nprimavera per le grandi pulizie{{string value=\"...\"}}\n{{delay8}}delle orecchie!",
      "EUnl": "O! Het is het jaar van het konijn! {{anim id=\"Blushing\" target=\"actor\" targetSpec=\"\"}}Er\nwordt nu toch niet van me verwacht\ndat ik mijn oren schoonmaak of zo?",
      "EUru": "Наступил год кролика!{{anim id=\"Blushing\" target=\"actor\" targetSpec=\"\"}} Надо будет\nуши помыть!",
      "JPja": "{{anim id=\"Blushing\" target=\"actor\" targetSpec=\"\"}}ボクの　ジマンの{{ruby charSpan=\"1\" value=\"なが\"}}長い{{ruby charSpan=\"1\" value=\"みみ\"}}耳、{{delay20}}\nいつもよりも　ていねいに{{delay8}}\nお{{ruby charSpan=\"2\" value=\"てい\"}}手入れしなくっちゃ～{{pageBreak}}{{anim id=\"EmotEnd\" target=\"actor\" targetSpec=\"\"}}だって、{{anim id=\"BigSmile\" target=\"actor\" targetSpec=\"\"}}{{ruby charSpan=\"2\" value=\"ことし\"}}今年は　ウサギ{{ruby charSpan=\"1\" value=\"どし\"}}年だもん！{{delay frames=\"40\"}}\n{{anim id=\"FaintSmile\" target=\"actor\" targetSpec=\"\"}}きっと　みんなが　{{delay8}}ボクに\nちゅうもく　するだろうからねぇ～、{{string value=\"6\"}}",
      "KRko": "{{anim id=\"Blushing\" target=\"actor\" targetSpec=\"\"}}내 자랑거리인 긴 귀{{delay20}}\n평소보다 더 열심히{{delay8}}\n손질해야지이～{{pageBreak}}{{anim id=\"EmotEnd\" target=\"actor\" targetSpec=\"\"}}왜냐면 {{anim id=\"BigSmile\" target=\"actor\" targetSpec=\"\"}}올해는 토끼의 해니까아～!{{delay frames=\"40\"}}\n{{anim id=\"FaintSmile\" target=\"actor\" targetSpec=\"\"}}틀림없이 모두가{{delay8}} 날\n주목할 거라구우～ {{string value=\"6\"}}!",
      "TWzh": "{{anim id=\"Blushing\" target=\"actor\" targetSpec=\"\"}}我要比平常{{delay8}}更用心保養{{delay20}}\n這對自豪的長耳朵～{{pageBreak}}{{anim id=\"EmotEnd\" target=\"actor\" targetSpec=\"\"}}畢竟{{anim id=\"BigSmile\" target=\"actor\" targetSpec=\"\"}}今年是兔年嘛！{{delay frames=\"40\"}}\n{{anim id=\"FaintSmile\" target=\"actor\" targetSpec=\"\"}}大家一定會注意{{delay8}}\n我的一舉一動喔～{{string value=\"6\"}}。",
      "USen": "It's the Year of the Rabbit! {{anim id=\"Blushing\" target=\"actor\" targetSpec=\"\"}}I probably\noughta clean my ears, huh?{{delay frames=\"40\"}}{{anim id=\"EmotEnd\" target=\"actor\" targetSpec=\"\"}}",
      "USes": "{{anim id=\"HappyFlower\" target=\"actor\" targetSpec=\"\"}}¡Este año es ni más ni menos que\nel de la liebre!{{delay8}} {{anim id=\"EmotEnd\" target=\"actor\" targetSpec=\"\"}}Lo que significa que{{string value=\"...\"}}{{delay20}}\n{{anim id=\"ShyBoy\" target=\"actor\" targetSpec=\"\"}}me toca lavarme las orejas{{string value=\"...\"}}",
      "USfr": "C'est l'année du lièvre!{{delay20}} {{anim id=\"SmugFace\" target=\"actor\" targetSpec=\"\"}}C'est moi\nla star!{{delay20}}{{anim id=\"Blushing\" target=\"actor\" targetSpec=\"\"}} Il va falloir que je me nettoie\nbien les oreilles!"
    }
  },
  {
    "label": "005",
    "attribute": "0x0000000000000000",
    "locale": {
      "CNzh": "{{anim id=\"Eh\" target=\"actor\" targetSpec=\"\"}}{{delay20}}我刚刚{{delay8}}才反应过来，{{delay20}}\n今年是马年啊～？{{pageBreak}}{{anim id=\"Worried\" target=\"actor\" targetSpec=\"\"}}怎么办～{{delay frames=\"40\"}}\n忽然开始紧张起来了{{string value=\"...\"}}{{delay frames=\"40\"}}\n{{anim id=\"Confused\" target=\"actor\" targetSpec=\"\"}}还是赶快逃走吧～？{{string value=\"6\"}}。",
      "EUde": "{{anim id=\"Eh\" target=\"actor\" targetSpec=\"\"}}Mir hat eben jemand erzählt,{{delay8}} dass\nwir jetzt das Jahr des Pferdes haben!{{pageBreak}}{{anim id=\"Worried\" target=\"actor\" targetSpec=\"\"}}Hoffentlich erwartet niemand,{{delay8}} dass\nich jetzt eine Rede halte oder so...{{delay20}}\n{{anim id=\"Confused\" target=\"actor\" targetSpec=\"\"}}Das wär sooo peinlich, {{delay8}}{{string value=\"Catchphrase\"}}!",
      "EUen": "Hey, didja know it's the Year\nof the Horse? {{delay frames=\"80\"}}I hope nobody's\nexpecting a speech or anything.",
      "EUes": "{{anim id=\"Eh\" target=\"actor\" targetSpec=\"\"}}¡Oye,{{delay8}} que este año es el del caballo!{{delay20}}\n{{anim id=\"Hesitate\" target=\"actor\" targetSpec=\"\"}}Espero que nadie quiera que suelte\nun discurso ni nada parecido{{string value=\"...\"}}\n{{anim id=\"Restless\" target=\"actor\" targetSpec=\"\"}}¡Ahora sí que me he puesto nervioso!{{delay20}}\n{{anim id=\"Confused\" target=\"actor\" targetSpec=\"\"}}Me parece que me voy a ir a dormir\nla siesta hasta el año que viene{{string value=\"...\"}}",
      "EUfr": "{{anim id=\"Eh\" target=\"actor\" targetSpec=\"\"}}Tu savais que c'était l'année du\ncheval ?{{delay20}} J'espère que personne va\nme demander de faire un discours !{{pageBreak}}{{anim id=\"Worried\" target=\"actor\" targetSpec=\"\"}}Ah ! {{delay8}}Voilà, maintenant j'ai le trac{{string value=\"...\"}}{{delay frames=\"40\"}}\n{{anim id=\"Confused\" target=\"actor\" targetSpec=\"\"}}Je crois que je vais faire une longue\nsieste jusqu'à l'année prochaine !",
      "EUit": "{{anim id=\"Eh\" target=\"actor\" targetSpec=\"\"}}Ehilà, amic{{gender2 m=\"o\" f=\"a\"}}! {{delay8}}Tu sapevi che in base\nal calendario lunare questo è l'anno\ndel Cavallo, {{delay8}}cioè il mio?{{pageBreak}}{{anim id=\"Worried\" target=\"actor\" targetSpec=\"\"}}Caspitina, spero che nessuno si\naspetti un discorso inaugurale da\nparte mia o qualcosa del genere!\n{{anim id=\"Confused\" target=\"actor\" targetSpec=\"\"}}Ecco, {{delay8}}adesso mi tremano le zampe{{string value=\"...\"}}\nMeglio che vada a schiacciare un\npisolino fino all'anno prossimo!",
      "EUnl": "{{anim id=\"Eh\" target=\"actor\" targetSpec=\"\"}}{{delay20}}Hé maatje. Wist jij al dat het het jaar\nvan het paard is?{{delay40}}{{anim id=\"EmotEnd\" target=\"actor\" targetSpec=\"\"}} Ik hoop maar dat\nniemand een toespraak verwacht!{{pageBreak}}{{anim id=\"Worried\" target=\"actor\" targetSpec=\"\"}}Oei!{{delay frames=\"40\"}} Nu word ik toch zenuwachtig{{string value=\"...\"}}{{delay frames=\"40\"}}\n{{anim id=\"Confused\" target=\"actor\" targetSpec=\"\"}}Misschien ga ik maar een dutje doen\ntotdat dit jaar voorbij is.",
      "EUru": "{{anim id=\"Eh\" target=\"actor\" targetSpec=\"\"}}{{delay20}}Слушай, ты знаешь, что сейчас год\nлошади? {{delay40}}{{anim id=\"EmotEnd\" target=\"actor\" targetSpec=\"\"}}Надеюсь, что от меня не\nждут торжественной речи.{{pageBreak}}{{anim id=\"Worried\" target=\"actor\" targetSpec=\"\"}}Такая ответственность!{{delay frames=\"40\"}} Теперь\nя буду волноваться{{string value=\"...\"}}{{delay frames=\"40\"}} {{anim id=\"Confused\" target=\"actor\" targetSpec=\"\"}}Может,\nпросто проспать весь год?",
      "JPja": "{{anim id=\"Eh\" target=\"actor\" targetSpec=\"\"}}{{delay20}}ボク　{{delay8}}さっき　{{ruby charSpan=\"1\" value=\"き\"}}気づいたんだけど{{delay20}}\n{{ruby charSpan=\"2\" value=\"ことし\"}}今年は　ウマ{{ruby charSpan=\"1\" value=\"どし\"}}年なんだってぇ～？{{pageBreak}}{{anim id=\"Worried\" target=\"actor\" targetSpec=\"\"}}どうしよ～{{delay frames=\"40\"}}\nなんだか　キンチョーしてきちゃったぁ{{string value=\"...\"}}{{delay frames=\"40\"}}\n{{anim id=\"Confused\" target=\"actor\" targetSpec=\"\"}}もう{{ruby charSpan=\"1\" value=\"はし\"}}走って　にげちゃおうかなぁ～、{{string value=\"6\"}}",
      "KRko": "{{anim id=\"Eh\" target=\"actor\" targetSpec=\"\"}}{{delay20}}나 {{delay8}}아까 알았는데에{{delay20}}\n올해가 말의 해라면서～?{{pageBreak}}{{anim id=\"Worried\" target=\"actor\" targetSpec=\"\"}}어떡하지이～{{delay frames=\"40\"}} 왠지 긴장돼{{string value=\"...\"}}{{delay frames=\"40\"}}\n{{anim id=\"Confused\" target=\"actor\" targetSpec=\"\"}}벌써부터 달려서\n도망치고 싶어～ {{string value=\"6\"}}!",
      "TWzh": "{{anim id=\"Eh\" target=\"actor\" targetSpec=\"\"}}{{delay20}}我{{delay8}}剛剛才發現，{{delay20}}\n原來今年是馬年啊～{{pageBreak}}{{anim id=\"Worried\" target=\"actor\" targetSpec=\"\"}}怎麼辦～{{delay frames=\"40\"}}\n總覺得好緊張喔{{string value=\"...\"}}{{delay frames=\"40\"}}\n{{anim id=\"Confused\" target=\"actor\" targetSpec=\"\"}}乾脆逃得遠遠的好了～{{string value=\"6\"}}。",
      "USen": "Hey, didja know it's the Year\nof the Horse? {{delay frames=\"80\"}}I hope nobody's\nexpecting a speech or anything.",
      "USes": "{{anim id=\"Eh\" target=\"actor\" targetSpec=\"\"}}¡Oye,{{delay8}} este año es el del caballo!{{delay20}}\n{{anim id=\"Hesitate\" target=\"actor\" targetSpec=\"\"}}Espero que nadie me pida que dé\nun discurso ni nada parecido{{string value=\"...\"}}\n{{anim id=\"Worried\" target=\"actor\" targetSpec=\"\"}}¡Ahora tengo miedo de que lo vayan a hacer!{{delay20}} {{anim id=\"Confused\" target=\"actor\" targetSpec=\"\"}}Quizá debería irme a tomar\nla siesta hasta el año que sigue{{string value=\"...\"}}",
      "USfr": "{{anim id=\"Eh\" target=\"actor\" targetSpec=\"\"}}Tu savais que c'était l'année du\ncheval?{{delay20}} J'espère que personne va\nme demander de faire un discours!{{pageBreak}}{{anim id=\"Worried\" target=\"actor\" targetSpec=\"\"}}Ah! {{delay8}}Voilà, maintenant j'ai le trac{{string value=\"...\"}}{{delay frames=\"40\"}}\n{{anim id=\"Confused\" target=\"actor\" targetSpec=\"\"}}Je crois que je vais faire une longue\nsieste jusqu'à l'année prochaine!"
    }
  },
  {
    "label": "006",
    "attribute": "0x0000000000000000",
    "locale": {
      "CNzh": "今年的生肖是{{delay8}}羊！{{delay frames=\"40\"}}\n{{anim id=\"Grin\" target=\"actor\" targetSpec=\"\"}}也就是我！对不对～？{{delay frames=\"40\"}}\n{{anim id=\"Hello\" target=\"actor\" targetSpec=\"\"}}今年的我{{delay8}}一定人气十足！{{pageBreak}}{{anim id=\"EmotEnd\" target=\"actor\" targetSpec=\"\"}}大家{{delay8}}会不会都来看我呀？{{delay frames=\"40\"}}\n{{anim id=\"Restless\" target=\"actor\" targetSpec=\"\"}}不过，{{delay20}}要是藏在被毛里的点心被发现了，{{delay8}}\n那该怎么办啊～{{string value=\"6\"}}。",
      "EUde": "Dieses Jahr gehört angeblich den\nSchafen.{{delay20}} Also...{{delay20}} {{anim id=\"Grin\" target=\"actor\" targetSpec=\"\"}}gehört es auch mir?{{delay20}}\n{{anim id=\"Hello\" target=\"actor\" targetSpec=\"\"}}Da werden alle neidisch sein!{{pageBreak}}{{anim id=\"Restless\" target=\"actor\" targetSpec=\"\"}}Zum Glück wissen sie nichts von den\nBonbons, die ich in meinem Fell\nverstecke.\n{{anim id=\"OhGeez\" target=\"actor\" targetSpec=\"\"}}Sonst wären sie NOCH neidischer,\n{{delay8}}{{string value=\"Catchphrase\"}}!",
      "EUen": "It's the Year of the Sheep!{{delay frames=\"40\"}} {{anim id=\"Grin\" target=\"actor\" targetSpec=\"\"}}That's me!{{delay frames=\"40\"}}\nThis is my year! {{anim id=\"Hello\" target=\"actor\" targetSpec=\"\"}}Happy Me Year!",
      "EUes": "{{anim id=\"Smiling\" target=\"actor\" targetSpec=\"\"}}¡Es el año de la oveja!{{delay8}} {{anim id=\"Grin\" target=\"actor\" targetSpec=\"\"}}Y yo soy lo\nmás parecido que vas a encontrar\nen este preciso instante.\n{{anim id=\"Hello\" target=\"actor\" targetSpec=\"\"}}¡Feliz año mío!",
      "EUfr": "C'est l'année du mouton !{{delay frames=\"40\"}} {{anim id=\"Grin\" target=\"actor\" targetSpec=\"\"}}Mon\nannée à moi !{{delay20}}{{anim id=\"Hello\" target=\"actor\" targetSpec=\"\"}} Elle va être toute\ndouce, comme ma toison !",
      "EUit": "{{anim id=\"Cheering\" target=\"actor\" targetSpec=\"\"}}È l'anno della {{delay8}}Peeecora! {{delay20}}{{anim id=\"Grin\" target=\"actor\" targetSpec=\"\"}}Si capisce\nche è il mio anno? {{delay20}}{{anim id=\"Hello\" target=\"actor\" targetSpec=\"\"}}Spero che sarà\ndi buon auspicio per tutti!\n{{anim id=\"Explain\" target=\"actor\" targetSpec=\"\"}}Ma sai una cosa? {{delay20}}Il calendario lunare\nsu cui si basa lo zodiaco cinese, non\ncorrisponde a quello solare nostro{{string value=\"...\"}}",
      "EUnl": "Het is het jaar van het schaap!{{delay frames=\"40\"}} {{anim id=\"Grin\" target=\"actor\" targetSpec=\"\"}}Ik\nben een schaap!{{delay frames=\"40\"}} Dus het is mijn jaar!\n{{anim id=\"Hello\" target=\"actor\" targetSpec=\"\"}}Hoera voor mij! {{capitalizeNextLetter}}{{string value=\"6\"}}!",
      "EUru": "Этот год — год овцы!{{delay frames=\"40\"}} {{anim id=\"Grin\" target=\"actor\" targetSpec=\"\"}}Это я!{{delay frames=\"40\"}} Это\nмой год! {{anim id=\"Hello\" target=\"actor\" targetSpec=\"\"}}С Новым моим годом!",
      "JPja": "{{ruby charSpan=\"2\" value=\"ことし\"}}今年の　えとは　{{delay8}}ヒツジ！{{delay frames=\"40\"}}\n{{anim id=\"Grin\" target=\"actor\" targetSpec=\"\"}}つまり　ボクのことでしょ～？{{delay frames=\"40\"}}\n{{anim id=\"Hello\" target=\"actor\" targetSpec=\"\"}}{{ruby charSpan=\"2\" value=\"ことし\"}}今年の　ボクは、{{delay8}}きっと{{ruby charSpan=\"2\" value=\"にんき\"}}人気もの！{{pageBreak}}{{anim id=\"EmotEnd\" target=\"actor\" targetSpec=\"\"}}みんな、{{delay8}}ボクに　{{ruby charSpan=\"1\" value=\"あ\"}}会いに{{ruby charSpan=\"1\" value=\"き\"}}来てくれるかなぁ？{{delay frames=\"40\"}}\n{{anim id=\"Restless\" target=\"actor\" targetSpec=\"\"}}でも、{{delay20}}{{ruby charSpan=\"1\" value=\"け\"}}毛の{{ruby charSpan=\"1\" value=\"なか\"}}中に　かくしてある　おかしが\n{{ruby charSpan=\"1\" value=\"み\"}}見つかっちゃったら　{{delay8}}どうしよ～、{{string value=\"6\"}}",
      "KRko": "올해는 {{delay8}}양의 해!{{delay frames=\"40\"}}\n{{anim id=\"Grin\" target=\"actor\" targetSpec=\"\"}}그럼 나의 해잖아～?{{delay frames=\"40\"}}\n{{anim id=\"Hello\" target=\"actor\" targetSpec=\"\"}}다들 날 만나러 오겠지이～!\n{{anim id=\"Hesitate\" target=\"actor\" targetSpec=\"\"}}그래서 {{delay8}}언제 누가 와도 되도록{{delay20}}\n폭신폭신한 털 속에{{delay8}}\n선물용 과자를 감춰 놨다구우～ {{string value=\"6\"}}!",
      "TWzh": "今年是羊年！{{delay frames=\"40\"}}\n{{anim id=\"Grin\" target=\"actor\" targetSpec=\"\"}}也就是屬於我的年分，{{delay8}}對吧～？{{delay frames=\"40\"}}\n{{anim id=\"Hello\" target=\"actor\" targetSpec=\"\"}}今年的我{{delay8}}一定是大明星！{{pageBreak}}{{anim id=\"EmotEnd\" target=\"actor\" targetSpec=\"\"}}大家會不會來找我呢～？{{delay frames=\"40\"}}\n{{anim id=\"Restless\" target=\"actor\" targetSpec=\"\"}}可是，{{delay20}}如果毛裡面的點心被發現的話，{{delay8}}\n那要怎麼辦～{{string value=\"6\"}}。",
      "USen": "It's the Year of the Sheep!{{delay frames=\"40\"}} {{anim id=\"Grin\" target=\"actor\" targetSpec=\"\"}}That's me!{{delay frames=\"40\"}}\nThis is my year! {{anim id=\"Hello\" target=\"actor\" targetSpec=\"\"}}Happy Me Year!",
      "USes": "{{anim id=\"Smiling\" target=\"actor\" targetSpec=\"\"}}¡Es el año de la oveja!{{delay8}} {{anim id=\"Grin\" target=\"actor\" targetSpec=\"\"}}Y yo soy lo\nmás parecido a ese animal que vas\na encontrar en este preciso instante.\n{{anim id=\"Hello\" target=\"actor\" targetSpec=\"\"}}¡Feliz año mío!",
      "USfr": "C'est l'année du mouton!{{delay frames=\"40\"}} {{anim id=\"Grin\" target=\"actor\" targetSpec=\"\"}}Mon\nannée à moi!{{delay20}}{{anim id=\"Hello\" target=\"actor\" targetSpec=\"\"}} Elle va être toute\ndouce, comme ma toison!"
    }
  },
  {
    "label": "007",
    "attribute": "0x0000000000000000",
    "locale": {
      "CNzh": "{{anim id=\"HappyDance\" target=\"actor\" targetSpec=\"\"}}12年一轮，{{delay8}}今年终于轮到猴年了！{{delay frames=\"40\"}}\n我高兴得{{delay8}}恨不得马上去爬一爬树呢～{{pageBreak}}{{anim id=\"Serious\" target=\"actor\" targetSpec=\"\"}}{{string value=\"...\"}}不过，{{delay8}}要小心不要一兴奋\n从树上摔下来了！{{delay frames=\"40\"}}\n{{anim id=\"ShyBoy\" target=\"actor\" targetSpec=\"\"}}不然就浪费了这愉悦的心情啦～{{string value=\"6\"}}。",
      "EUde": "{{anim id=\"HappyDance\" target=\"actor\" targetSpec=\"\"}}Wir haben das Jahr des Affen,{{delay8}} das\nkommt nur alle zwölf Jahre einmal!{{delay20}}\nIch möcht sofort auf Bäume klettern!{{pageBreak}}{{anim id=\"Serious\" target=\"actor\" targetSpec=\"\"}}{{string value=\"...\"}}Andererseits hab ich das lange\nnicht mehr gemacht. {{delay20}}Vielleicht komm\nich gar nicht mehr hoch.\n{{anim id=\"ShyBoy\" target=\"actor\" targetSpec=\"\"}}Wenn mich alle auslachen, hilft\nauch das tollste Jahr nichts mehr,\n{{delay8}}{{string value=\"Catchphrase\"}}...",
      "EUen": "{{anim id=\"HappyFlower\" target=\"actor\" targetSpec=\"\"}}It's the Year of the Monkey!{{delay frames=\"40\"}}\nI'm so happy, I could climb a tree!{{pageBreak}}{{anim id=\"Serious\" target=\"actor\" targetSpec=\"\"}}I'm not going to climb a tree, though.\nThat is just{{string value=\"...\"}} It's way too much work\nto show folks I'm happy.",
      "EUes": "{{anim id=\"HappyDance\" target=\"actor\" targetSpec=\"\"}}¡Es el año del mono!{{delay8}} Estoy tan feliz\nque podría subirme a un árbol ahora\nmismito{{string value=\"...\"}}\n{{anim id=\"Serious\" target=\"actor\" targetSpec=\"\"}}Pero no voy a hacerlo porque\ncansa demasiado.",
      "EUfr": "{{anim id=\"HappyDance\" target=\"actor\" targetSpec=\"\"}}Ouais ! C'est l'année du singe !{{delay frames=\"40\"}}\nJe suis si content que je pourrais\ngrimper en haut d'un arbre !\n{{anim id=\"Serious\" target=\"actor\" targetSpec=\"\"}}Mais je le ferai pas{{string value=\"...\"}}{{delay20}} parce que je\nsuis encore plus flemmard que\ncontent.",
      "EUit": "{{anim id=\"HappyDance\" target=\"actor\" targetSpec=\"\"}}L'oroscopo cinese basato sul\ncalendario lunare non mente:{{delay20}}\nè arrivato l'anno della Scimmia!\n{{anim id=\"BigSmile\" target=\"actor\" targetSpec=\"\"}}Sono così felice che potrei salire\nsu un albero a zampe nude{{string value=\"...\"}} {{delay20}}{{anim id=\"Serious\" target=\"actor\" targetSpec=\"\"}}Ma\nnon lo farò!\n{{anim id=\"Nodding\" target=\"actor\" targetSpec=\"\"}}Devo trovare il modo di esprimere la\nmia felicità in maniera decisamente\nmeno faticosa e pericolosa{{string value=\"...\"}}",
      "EUnl": "{{anim id=\"HappyDance\" target=\"actor\" targetSpec=\"\"}}Het is het jaar van de aap!{{delay frames=\"40\"}} Dat vind\nik zo gaaf, dat ik bijna zin krijg om in\neen boom te klimmen!{{pageBreak}}{{anim id=\"Serious\" target=\"actor\" targetSpec=\"\"}}Bijna, hè. Ik ga natuurlijk niet echt\nin een boom klimmen{{string value=\"...\"}} Dat kost veel\nte veel energie.",
      "EUru": "{{anim id=\"HappyDance\" target=\"actor\" targetSpec=\"\"}}Наступил год обезьяны!{{delay frames=\"40\"}} Я так рад,\nчто мог бы на дерево залезть от\nвосторга!{{pageBreak}}{{anim id=\"Serious\" target=\"actor\" targetSpec=\"\"}}Но я не полезу. Должны же быть\nкакие-то{{string value=\"...\"}} более легкие способы\nвыразить радость.",
      "JPja": "{{anim id=\"HappyDance\" target=\"actor\" targetSpec=\"\"}}{{ruby charSpan=\"2\" value=\"ことし\"}}今年は　{{delay8}}12{{ruby charSpan=\"1\" value=\"ねん\"}}年ぶりの　サル{{ruby charSpan=\"1\" value=\"どし\"}}年だぁ！{{delay frames=\"40\"}}\nうれしくって　{{delay8}}{{ruby charSpan=\"1\" value=\"き\"}}木にものぼる　キモチだよぉ～{{pageBreak}}{{anim id=\"Serious\" target=\"actor\" targetSpec=\"\"}}{{string value=\"...\"}}でも、{{delay8}}よろこびすぎて\nおちたりしないように　{{ruby charSpan=\"1\" value=\"き\"}}気をつけなくっちゃ！{{delay frames=\"40\"}}\n{{anim id=\"ShyBoy\" target=\"actor\" targetSpec=\"\"}}ハッピー{{ruby charSpan=\"2\" value=\"きぶん\"}}気分が　{{ruby charSpan=\"1\" value=\"だい\"}}台なしだもん～、{{string value=\"6\"}}",
      "KRko": "{{anim id=\"HappyDance\" target=\"actor\" targetSpec=\"\"}}올해는 {{delay8}}12년 만에 온 원숭이의 해～!{{delay frames=\"40\"}}\n기뻐서 {{delay8}}나무에 올라가고 싶을 정도라구우～{{pageBreak}}{{anim id=\"Serious\" target=\"actor\" targetSpec=\"\"}}{{string value=\"...\"}}근데 {{delay8}}넘 기뻐서\n떨어지지 않게 조심해야겠다아!{{delay frames=\"40\"}}\n{{anim id=\"ShyBoy\" target=\"actor\" targetSpec=\"\"}}행복한 기분을 망치면 아깝잖아～ {{string value=\"6\"}}!",
      "TWzh": "{{anim id=\"HappyDance\" target=\"actor\" targetSpec=\"\"}}今年是12年才會輪到一次的猴年！{{delay frames=\"40\"}}\n我高興到{{delay8}}都想爬上樹了呢～{{pageBreak}}{{anim id=\"Serious\" target=\"actor\" targetSpec=\"\"}}{{string value=\"...\"}}可是{{delay8}}我要小心點，{{delay8}}\n不能因為太高興而摔下樹！{{delay frames=\"40\"}}\n{{anim id=\"ShyBoy\" target=\"actor\" targetSpec=\"\"}}因為這樣會破壞好心情嘛～{{string value=\"6\"}}。",
      "USen": "{{anim id=\"HappyFlower\" target=\"actor\" targetSpec=\"\"}}It's the Year of the Monkey!{{delay frames=\"40\"}}\nI'm so happy, I could climb a tree!{{pageBreak}}{{anim id=\"Serious\" target=\"actor\" targetSpec=\"\"}}I'm not going to climb a tree, though.\nThat is just{{string value=\"...\"}} It's way too much work\nto show folks I'm happy.",
      "USes": "{{anim id=\"HappyDance\" target=\"actor\" targetSpec=\"\"}}¡Es el año del mono!{{delay8}} Estoy tan feliz\nque podría subirme a un árbol ahora\nmismito{{string value=\"...\"}}\n{{anim id=\"Serious\" target=\"actor\" targetSpec=\"\"}}Pero no voy a hacerlo porque\nme canso.",
      "USfr": "{{anim id=\"HappyDance\" target=\"actor\" targetSpec=\"\"}}Ouais! C'est l'année du singe!{{delay frames=\"40\"}}\nJe suis si content que je pourrais\ngrimper en haut d'un arbre!\n{{anim id=\"Serious\" target=\"actor\" targetSpec=\"\"}}Mais je le ferai pas{{string value=\"...\"}}{{delay20}}\nParce que je suis encore plus paresseux que content."
    }
  },
  {
    "label": "008",
    "attribute": "0x0000000000000000",
    "locale": {
      "CNzh": "{{anim id=\"Smiling\" target=\"actor\" targetSpec=\"\"}}{{string value=\"4\"}}，{{delay20}}\n你知道{{delay8}}今年是什么年吗～？{{delay frames=\"40\"}}\n{{anim id=\"Hello\" target=\"actor\" targetSpec=\"\"}}提示就是我～{{pageBreak}}{{anim id=\"EmotEnd\" target=\"actor\" targetSpec=\"\"}}嘻嘻～{{delay20}}正确答案是{{string value=\"...\"}}{{delay frames=\"60\"}}\n{{anim id=\"EmotEnd\" target=\"actor\" targetSpec=\"\"}}{{delay frames=\"40\"}}鸡年！{{pageBreak}}{{anim id=\"HappyFlower\" target=\"actor\" targetSpec=\"\"}}我要挥动{{delay8}}我引以为傲的羽翅，{{delay20}}\n在{{string value=\"33\"}}上飞翔，{{delay8}}\n并为大家送去幸福之风～{{string value=\"6\"}}。",
      "EUde": "{{anim id=\"Smiling\" target=\"actor\" targetSpec=\"\"}}Weißt du, was für ein Jahr wir haben?{{delay20}}\nKleiner Hinweis...{{delay20}} {{anim id=\"Hello\" target=\"actor\" targetSpec=\"\"}}Was bin ich?{{pageBreak}}{{anim id=\"EmotEnd\" target=\"actor\" targetSpec=\"\"}}Äh, he he he... {{delay20}}Genau!{{delay20}} {{anim id=\"EmotEnd\" target=\"actor\" targetSpec=\"\"}}{{delay20}}Das Jahr des\nVogels!{{i10_4}} {{size value=\"75\"}}Also eigentlich das Jahr des Hahns,\naber ich zähle mal alle Vögel dazu.{{size value=\"100\"}}\n{{anim id=\"HappyFlower\" target=\"actor\" targetSpec=\"\"}}Mann, ist das ein schönes Gefühl!{{delay20}}\nDu wirst das verstehen, wenn's mal\nein Jahr {{gender2 m=\"des\" f=\"der\"}} {{string value=\"NickName\"}} gibt.",
      "EUen": "{{anim id=\"Smiling\" target=\"actor\" targetSpec=\"\"}}Hey, {{string value=\"NickName\"}}.{{delay8}}\nGuess what kinda year it is!{{delay frames=\"40\"}} {{anim id=\"Hello\" target=\"actor\" targetSpec=\"\"}}I'll give\nyou a hint—I'M the hint!{{pageBreak}}{{anim id=\"EmotEnd\" target=\"actor\" targetSpec=\"\"}}{{anim id=\"HappyFlower\" target=\"actor\" targetSpec=\"\"}}It's the Year, {{delay20}}yeah, {{delay20}}the Year{{string value=\"...\"}}{{delay20}}\nThe{{delay frames=\"60\"}} {{anim id=\"EmotEnd\" target=\"actor\" targetSpec=\"\"}}{{delay frames=\"40\"}}Year of the Bird!{{delay frames=\"40\"}}{{anim id=\"Laughing\" target=\"actor\" targetSpec=\"\"}} A huh huh huh!{{pageBreak}}{{anim id=\"HappyFlower\" target=\"actor\" targetSpec=\"\"}}It's crazy having a year just for you.{{pageBreak}}If they ever get around to doing a\n\"Year of the {{string value=\"NickName\"}},\"\nyou're gonna love it!",
      "EUes": "{{anim id=\"Greeting\" target=\"actor\" targetSpec=\"\"}}¡Eh, {{string value=\"NickName\"}}!{{delay8}}\n¿A que no sabes qué año es?{{delay20}}\n{{anim id=\"Hello\" target=\"actor\" targetSpec=\"\"}}Te doy una pista:{{delay8}} ¡yo!\n{{anim id=\"FaintSmile\" target=\"actor\" targetSpec=\"\"}}Es, ni más ni menos, que el año\ndel{{string value=\"...\"}}{{delay8}} {{anim id=\"EmotEnd\" target=\"actor\" targetSpec=\"\"}}¡gallo!{{delay8}} ¡Sí, {{gender2 m=\"señor\" f=\"señora\"}}!{{pageBreak}}{{anim id=\"HappyFlower\" target=\"actor\" targetSpec=\"\"}}¡Imagínate que hubiese un año de\n{{string value=\"NickName\"}}{{delay8}} y te harás una idea de la ilusión que me hace!",
      "EUfr": "{{anim id=\"Smiling\" target=\"actor\" targetSpec=\"\"}}Tu sais quelle année on est, {{string value=\"NickName\"}} ?{{delay20}}{{anim id=\"Hello\" target=\"actor\" targetSpec=\"\"}} Je te donne un indice :{{delay20}} MOI !{{pageBreak}}{{anim id=\"EmotEnd\" target=\"actor\" targetSpec=\"\"}}C'est l'année du coq et par\nextension, de tous les oiseaux !{{delay20}}\nHé hé hé !{{pageBreak}}{{anim id=\"HappyFlower\" target=\"actor\" targetSpec=\"\"}}C'est trop bien d'avoir une année\nrien que pour soi !{{delay20}}{{anim id=\"Nodding\" target=\"actor\" targetSpec=\"\"}} Tu verras quand\nce sera l'année de l'humain !",
      "EUit": "{{anim id=\"Smiling\" target=\"actor\" targetSpec=\"\"}}Ehilà, {{delay8}}{{string value=\"NickName\"}}. {{delay20}}Indovina a chi è dedicato questo anno secondo il calendario lunare?{{pageBreak}}{{anim id=\"Hello\" target=\"actor\" targetSpec=\"\"}}Vuoi un indizio? {{delay8}}Ce l'hai di fronte!\n{{delay20}}Guarda come sono ringalluzzito\nper{{string value=\"...\"}} {{delay20}}{{anim id=\"EmotEnd\" target=\"actor\" targetSpec=\"\"}}l'anno del Gallo!{{pageBreak}}{{anim id=\"ShyBoy\" target=\"actor\" targetSpec=\"\"}}Avere un anno tutto per me è un po'\nimbarazzante, {{delay8}}ma sono anche tanto\ncontento, {{string value=\"6\"}}{{string value=\"...\"}}",
      "EUnl": "{{anim id=\"Smiling\" target=\"actor\" targetSpec=\"\"}}Hé {{string value=\"NickName\"}},{{delay8}} raad eens wat voor jaar het is!{{delay frames=\"40\"}} {{anim id=\"Hello\" target=\"actor\" targetSpec=\"\"}}Ik zal je een hint geven:{{delay20}} ik ben de hint!{{pageBreak}}{{anim id=\"EmotEnd\" target=\"actor\" targetSpec=\"\"}}{{anim id=\"HappyFlower\" target=\"actor\" targetSpec=\"\"}}Het is het jaar, het jaar, het jaar{{string value=\"...\"}}{{delay frames=\"60\"}}\n{{anim id=\"EmotEnd\" target=\"actor\" targetSpec=\"\"}}{{delay frames=\"40\"}}van de haan!{{delay20}}{{anim id=\"Laughing\" target=\"actor\" targetSpec=\"\"}} Ahahaha! {{anim id=\"HappyFlower\" target=\"actor\" targetSpec=\"\"}}Best maf om\nje eigen jaar te hebben.{{pageBreak}}Als er ooit nog een jaar van {{string value=\"NickName\"}} komt, zul je zelf merken hoe gaaf het is!",
      "EUru": "{{anim id=\"Smiling\" target=\"actor\" targetSpec=\"\"}}{{capitalizeNextLetter}}{{string value=\"NickName\"}},{{delay8}} угадай, какой\nсейчас год!{{delay frames=\"40\"}} {{anim id=\"Hello\" target=\"actor\" targetSpec=\"\"}}Подсказка:{{delay20}} посмотри на\nменя!{{pageBreak}}{{anim id=\"EmotEnd\" target=\"actor\" targetSpec=\"\"}}Сейчас год{{string value=\"...\"}}{{delay frames=\"60\"}} {{anim id=\"EmotEnd\" target=\"actor\" targetSpec=\"\"}}{{delay frames=\"40\"}}год{{string value=\"...\"}} птицы!{{delay20}} У-ху-ху!\n{{anim id=\"HappyFlower\" target=\"actor\" targetSpec=\"\"}}Так прикольно, когда тебе\nпосвящают целый год.{{pageBreak}}Если когда-нибудь год тоже назовут\nтвоим именем, {{string value=\"NickName\"}},\nтебе тоже понравится, вот увидишь!",
      "JPja": "{{anim id=\"Smiling\" target=\"actor\" targetSpec=\"\"}}{{string value=\"4\"}}、{{delay20}}\n{{ruby charSpan=\"2\" value=\"ことし\"}}今年の　えとは　{{delay8}}なんでしょ～か？{{delay frames=\"40\"}}\n{{anim id=\"Hello\" target=\"actor\" targetSpec=\"\"}}ヒントは　ボクだよぉ～{{pageBreak}}{{anim id=\"EmotEnd\" target=\"actor\" targetSpec=\"\"}}うふふ、{{delay20}}せいかいは～{{string value=\"...\"}}{{delay frames=\"60\"}}\n{{anim id=\"EmotEnd\" target=\"actor\" targetSpec=\"\"}}{{delay frames=\"40\"}}トリ{{ruby charSpan=\"1\" value=\"どし\"}}年！{{pageBreak}}{{anim id=\"HappyFlower\" target=\"actor\" targetSpec=\"\"}}ジマンの{{ruby charSpan=\"1\" value=\"はね\"}}羽で　{{delay8}}{{ruby charSpan=\"1\" value=\"おも\"}}思いっきり　はばたいて、{{delay20}}\n{{string value=\"33\"}}に　{{delay8}}しあわせの{{ruby charSpan=\"1\" value=\"かぜ\"}}風を\nはこんじゃうんだぁ～、{{string value=\"6\"}}",
      "KRko": "{{anim id=\"Smiling\" target=\"actor\" targetSpec=\"\"}}{{string value=\"4\"}}{{gender5 m=\"아\" f=\"야\"}}!{{delay20}}\n올해는 {{delay8}}무슨 해일까～요?{{delay frames=\"40\"}}\n{{anim id=\"Hello\" target=\"actor\" targetSpec=\"\"}}힌트는 바로 나야아～{{pageBreak}}{{anim id=\"EmotEnd\" target=\"actor\" targetSpec=\"\"}}우후후, {{delay20}}정답은 바로오～{{string value=\"...\"}}{{delay frames=\"60\"}}\n{{anim id=\"EmotEnd\" target=\"actor\" targetSpec=\"\"}}{{delay frames=\"40\"}}닭의 해!{{pageBreak}}{{anim id=\"HappyFlower\" target=\"actor\" targetSpec=\"\"}}내 날개를 {{delay8}}힘차게 퍼덕여서{{delay20}}\n{{string value=\"33\"}}에 {{delay8}}행복의 바람을\n불러다줄게에～ {{string value=\"6\"}}～",
      "TWzh": "{{anim id=\"Smiling\" target=\"actor\" targetSpec=\"\"}}{{string value=\"4\"}}，{{delay20}}\n今年{{delay8}}是什麼年呢？{{delay frames=\"40\"}}\n{{anim id=\"Hello\" target=\"actor\" targetSpec=\"\"}}提示就是我喔～{{pageBreak}}{{anim id=\"EmotEnd\" target=\"actor\" targetSpec=\"\"}}呵呵，{{delay20}}正確答案是{{string value=\"...\"}}{{delay frames=\"60\"}}\n{{anim id=\"EmotEnd\" target=\"actor\" targetSpec=\"\"}}{{delay frames=\"40\"}}雞年！{{pageBreak}}{{anim id=\"HappyFlower\" target=\"actor\" targetSpec=\"\"}}我要用力拍動{{delay8}}自豪的翅膀，{{delay20}}\n讓幸福的風{{delay8}}\n充滿{{string value=\"33\"}}～{{string value=\"6\"}}。",
      "USen": "{{anim id=\"Smiling\" target=\"actor\" targetSpec=\"\"}}Hey, {{string value=\"NickName\"}}.{{delay8}}\nGuess what kinda year it is!{{delay frames=\"40\"}} {{anim id=\"Hello\" target=\"actor\" targetSpec=\"\"}}I'll give\nyou a hint—I'M the hint!{{pageBreak}}{{anim id=\"EmotEnd\" target=\"actor\" targetSpec=\"\"}}{{anim id=\"HappyFlower\" target=\"actor\" targetSpec=\"\"}}It's the Year, {{delay20}}yeah, {{delay20}}the Year{{string value=\"...\"}}{{delay20}}\nThe{{delay frames=\"60\"}} {{anim id=\"EmotEnd\" target=\"actor\" targetSpec=\"\"}}{{delay frames=\"40\"}}Year of the Bird!{{delay frames=\"40\"}}{{anim id=\"Laughing\" target=\"actor\" targetSpec=\"\"}} A huh huh huh!{{pageBreak}}{{anim id=\"HappyFlower\" target=\"actor\" targetSpec=\"\"}}It's crazy having a year just for you.{{pageBreak}}If they ever get around to doing a\n\"Year of the {{string value=\"NickName\"}},\"\nyou're gonna love it!",
      "USes": "{{anim id=\"Greeting\" target=\"actor\" targetSpec=\"\"}}¡Eh, {{string value=\"NickName\"}}!{{delay8}}\n¿A que no sabes qué año es?{{delay20}}\n{{anim id=\"Hello\" target=\"actor\" targetSpec=\"\"}}Te doy una pista:{{delay8}} ¡yo!\n{{anim id=\"HappyFlower\" target=\"actor\" targetSpec=\"\"}}¡Es, ni más ni menos, que el año\ndel{{string value=\"...\"}} {{delay8}}¡gallo!{{delay8}} ¡Sí, {{gender2 m=\"señor\" f=\"señora\"}}!{{pageBreak}}{{anim id=\"Smiling\" target=\"actor\" targetSpec=\"\"}}Imagínate que hubiese un año\nde {{string value=\"NickName\"}}{{string value=\"...\"}}{{pageBreak}}{{anim id=\"HappyFlower\" target=\"actor\" targetSpec=\"\"}}¡Pues ahora sabes por qué me\nda tanta alegría!",
      "USfr": "{{anim id=\"Smiling\" target=\"actor\" targetSpec=\"\"}}Tu sais quelle année on est, {{string value=\"NickName\"}}?{{delay20}}{{anim id=\"Hello\" target=\"actor\" targetSpec=\"\"}} Je te donne un indice :{{delay20}} MOI!{{pageBreak}}{{anim id=\"EmotEnd\" target=\"actor\" targetSpec=\"\"}}C'est l'année du coq et par\nextension, de tous les oiseaux!{{delay20}}\nHé hé hé!{{pageBreak}}{{anim id=\"HappyFlower\" target=\"actor\" targetSpec=\"\"}}C'est trop bien d'avoir une année\nrien que pour soi!{{delay20}}{{anim id=\"Nodding\" target=\"actor\" targetSpec=\"\"}} Tu verras quand\nce sera l'année de l'humain!"
    }
  },
  {
    "label": "009",
    "attribute": "0x0000000000000000",
    "locale": {
      "CNzh": "{{anim id=\"Clapping\" target=\"actor\" targetSpec=\"\"}}今年终于到狗年了～！{{delay frames=\"40\"}}\n12年轮一次，{{delay20}}\n{{anim id=\"SmugFace\" target=\"actor\" targetSpec=\"\"}}我终于等到了呢～{{pageBreak}}{{anim id=\"HappyFlower\" target=\"actor\" targetSpec=\"\"}}今年我会更努力地{{delay8}}\n摇动我的尾巴的～{{string value=\"6\"}}。",
      "EUde": "{{anim id=\"Clapping\" target=\"actor\" targetSpec=\"\"}}Endlich haben wir das Jahr des\nHundes, {{delay8}}{{string value=\"Catchphrase\"}}!{{delay20}} {{anim id=\"SmugFace\" target=\"actor\" targetSpec=\"\"}}Darauf hab\nich schon eeewig gewartet!{{pageBreak}}{{anim id=\"HappyFlower\" target=\"actor\" targetSpec=\"\"}}Ich hab mir vorgenommen, dieses\nJahr noch mehr mit dem Schwanz\nzu wedeln als sonst schon!",
      "EUen": "{{anim id=\"Clapping\" target=\"actor\" targetSpec=\"\"}}I've waited a LONG TIME for this,\nbut{{string value=\"...\"}}it's finally the Year of the Dog!{{pageBreak}}{{anim id=\"SmugFace\" target=\"actor\" targetSpec=\"\"}}The Year of the Dog only happens\nonce every 12 years! Wow. {{delay20}}12 years\nago? {{delay20}}This island didn't even exist!{{pageBreak}}Hang on.{{delay frames=\"40\"}} {{anim id=\"QuestionMark\" target=\"actor\" targetSpec=\"\"}}Have I said that before?\nAbout the island being here 12 years\nago? {{delay20}}{{anim id=\"AbsentMindedness\" target=\"actor\" targetSpec=\"\"}}Seems familiar{{string value=\"...\"}}{{delay20}}but maybe not!{{pageBreak}}{{anim id=\"Laughing\" target=\"actor\" targetSpec=\"\"}}Man, this kinda thing is why I quit\ntime traveling!",
      "EUes": "{{anim id=\"Clapping\" target=\"actor\" targetSpec=\"\"}}¡No veas lo que llevo esperando\na que llegase este momento!{{delay20}}\n{{anim id=\"HappyFlower\" target=\"actor\" targetSpec=\"\"}}¡Por fin ha llegado el año del perro!\n¡Qué contento estoy, {{string value=\"6\"}}!{{pageBreak}}{{anim id=\"SmugFace\" target=\"actor\" targetSpec=\"\"}}Solo hay un año del perro cada doce\naños,{{delay8}} ¿sabes?{{delay20}} {{anim id=\"Laughing\" target=\"actor\" targetSpec=\"\"}}¡El último año del\nperro aquí solo había dinosaurios!",
      "EUfr": "{{anim id=\"Clapping\" target=\"actor\" targetSpec=\"\"}}Ça faisait longtemps que je\nl'attendais,{{delay20}} mais elle est enfin là !{{delay20}}\n{{anim id=\"SmugFace\" target=\"actor\" targetSpec=\"\"}}C'est l'année du chien ! WOUF !{{pageBreak}}{{anim id=\"HappyFlower\" target=\"actor\" targetSpec=\"\"}}Ça n'arrive qu'une fois tous les\n12 ans ! {{delay20}}T'imagines !{{delay20}} Il y a 12 ans,\ncette île existait même pas !",
      "EUit": "{{anim id=\"Clapping\" target=\"actor\" targetSpec=\"\"}}Da quanto aspetto l'anno del Cane!\n{{delay20}}Era ora che il calendario lunare si\nricordasse di me!\n{{anim id=\"SmugFace\" target=\"actor\" targetSpec=\"\"}}Sai, {{delay8}}capita ogni 12 anni e non è così\nfacile ricordarsene per non farselo\nsfuggire!",
      "EUnl": "{{anim id=\"Clapping\" target=\"actor\" targetSpec=\"\"}}Ik heb hier héél lang op gewacht,\nmaar{{string value=\"...\"}} het is eindelijk het jaar van\nde hond! {{capitalizeNextLetter}}{{string value=\"6\"}}!{{pageBreak}}{{anim id=\"SmugFace\" target=\"actor\" targetSpec=\"\"}}Dat gebeurt maar één keer in de\ntwaalf jaar!{{delay40}} Jemig{{string value=\"...\"}} Bestaat dit\neiland eigenlijk al wel twaalf jaar?",
      "EUru": "{{anim id=\"Clapping\" target=\"actor\" targetSpec=\"\"}}Я так долго этого ждал{{string value=\"...\"}} и наконец\nнаступил год собаки! Хочется\nсказать: «{{capitalizeNextLetter}}{{string value=\"6\"}}!»{{pageBreak}}{{anim id=\"SmugFace\" target=\"actor\" targetSpec=\"\"}}Такой год бывает раз в 12 лет!{{delay40}}\nБольшой срок{{string value=\"...\"}} 12 лет назад этого\nострова еще в помине не было.",
      "JPja": "{{anim id=\"Clapping\" target=\"actor\" targetSpec=\"\"}}{{ruby charSpan=\"2\" value=\"ことし\"}}今年は　ついに　イヌ{{ruby charSpan=\"1\" value=\"どし\"}}年だぁ～！{{delay frames=\"40\"}}\n12{{ruby charSpan=\"1\" value=\"ねん\"}}年に　いちどしか　{{ruby charSpan=\"1\" value=\"こ\"}}来ないけど{{delay20}}\n{{anim id=\"SmugFace\" target=\"actor\" targetSpec=\"\"}}ボクは　ちゃんと　まちつづけてたよぉ～{{pageBreak}}{{anim id=\"HappyFlower\" target=\"actor\" targetSpec=\"\"}}しっぽだって　{{delay8}}いつもよりも\nよけいに　ふっちゃうんだからぁ～、{{string value=\"6\"}}",
      "KRko": "{{anim id=\"Clapping\" target=\"actor\" targetSpec=\"\"}}드디어 개의 해가 왔다아～!{{delay frames=\"40\"}}\n12년에 한 번밖에 안 오지만{{delay20}}\n{{anim id=\"SmugFace\" target=\"actor\" targetSpec=\"\"}}손꼽아 기다렸어～{{pageBreak}}{{anim id=\"HappyFlower\" target=\"actor\" targetSpec=\"\"}}꼬리도 {{delay8}}평소보다 더\n붕붕 흔들리는 것 같네에～ {{string value=\"6\"}}～",
      "TWzh": "{{anim id=\"Clapping\" target=\"actor\" targetSpec=\"\"}}終於等到狗年了～！{{delay frames=\"40\"}}\n雖然每12年只有一次，{{delay20}}\n{{anim id=\"SmugFace\" target=\"actor\" targetSpec=\"\"}}但我很有耐心地等到現在囉～{{pageBreak}}{{anim id=\"HappyFlower\" target=\"actor\" targetSpec=\"\"}}連我的尾巴{{delay8}}\n都搖得比平常厲害耶～{{string value=\"6\"}}。",
      "USen": "{{anim id=\"Clapping\" target=\"actor\" targetSpec=\"\"}}I've waited a LONG TIME for this,\nbut{{string value=\"...\"}}it's finally the Year of the Dog!{{pageBreak}}{{anim id=\"SmugFace\" target=\"actor\" targetSpec=\"\"}}The Year of the Dog only happens\nonce every 12 years! Wow. {{delay20}}12 years\nago? {{delay20}}This island didn't even exist!{{pageBreak}}Hang on.{{delay frames=\"40\"}} {{anim id=\"QuestionMark\" target=\"actor\" targetSpec=\"\"}}Have I said that before?\nAbout the island being here 12 years\nago? {{delay20}}{{anim id=\"AbsentMindedness\" target=\"actor\" targetSpec=\"\"}}Seems familiar{{string value=\"...\"}}{{delay20}}but maybe not!{{pageBreak}}{{anim id=\"Laughing\" target=\"actor\" targetSpec=\"\"}}Man, this kinda thing is why I quit\ntime traveling!",
      "USes": "{{anim id=\"Clapping\" target=\"actor\" targetSpec=\"\"}}¡Estuve esperando muchísimo para\nque llegara este momento!{{delay20}} ¡Al fin\nestamos en el año del perro!\n¡Qué contento estoy, {{string value=\"6\"}}!{{pageBreak}}{{anim id=\"SmugFace\" target=\"actor\" targetSpec=\"\"}}Solo hay un año del perro cada\ndoce años,{{delay8}} ¿sabes?",
      "USfr": "{{anim id=\"Clapping\" target=\"actor\" targetSpec=\"\"}}Ça faisait longtemps que je\nl'attendais,{{delay20}} mais elle est enfin là!{{delay20}}\n{{anim id=\"SmugFace\" target=\"actor\" targetSpec=\"\"}}C'est l'année du chien! WOUF!{{pageBreak}}{{anim id=\"HappyFlower\" target=\"actor\" targetSpec=\"\"}}Ça n'arrive qu'une fois tous les\n12 ans! {{delay20}}T'imagines!{{delay20}} Il y a 12 ans,\ncette île existait même pas!"
    }
  },
  {
    "label": "010",
    "attribute": "0x0000000000000000",
    "locale": {
      "CNzh": "{{anim id=\"Smiling\" target=\"actor\" targetSpec=\"\"}}我预感，今年于我来说，{{delay20}}\n会是非常棒的一年～{{pageBreak}}{{anim id=\"Explain\" target=\"actor\" targetSpec=\"\"}}你看，{{delay20}}我引以为傲的尾巴{{delay20}}\n比以往更加卷翘了呢！{{delay20}}\n{{anim id=\"Laughing\" target=\"actor\" targetSpec=\"\"}}让人感觉很高兴呢～!{{string value=\"6\"}}。",
      "EUde": "{{anim id=\"Smiling\" target=\"actor\" targetSpec=\"\"}}Ich hab das Gefühl, das wird MEIN\nJahr! {{delay20}}Weißt du, warum? {{delay8}}Weißt du,\nwarum?{{pageBreak}}{{anim id=\"Explain\" target=\"actor\" targetSpec=\"\"}}Na, {{delay8}}weil das Jahr des Schweins ist!{{delay20}}\n{{anim id=\"Laughing\" target=\"actor\" targetSpec=\"\"}}Mein Schwanz ist schon viel\nzwirbeliger als sonst, {{delay8}}{{string value=\"Catchphrase\"}}!",
      "EUen": "It's the Year of the Pig! {{anim id=\"Smiling\" target=\"actor\" targetSpec=\"\"}}{{delay20}}I feel like\nthis year's gonna be a real good\nyear for me, {{string value=\"Catchphrase\"}}!{{pageBreak}}Look!{{delay20}} My tail is all perkier and curlier\nthan usual!{{delay20}} {{anim id=\"Laughing\" target=\"actor\" targetSpec=\"\"}}It looks so happy!",
      "EUes": "{{anim id=\"Smiling\" target=\"actor\" targetSpec=\"\"}}Tengo la impresión de que este año\nva a ser la repera limonera para mí{{string value=\"...\"}}{{delay8}}\n{{anim id=\"BigSmile\" target=\"actor\" targetSpec=\"\"}}¡porque empieza el año del cerdo!{{pageBreak}}{{anim id=\"Explain\" target=\"actor\" targetSpec=\"\"}}Mira,{{delay8}} ¡tengo hasta la cola más rizada\nque de costumbre!{{delay20}} {{anim id=\"WrySmile\" target=\"actor\" targetSpec=\"\"}}Eso son buenas\nvibraciones en lenguaje porcino{{string value=\"...\"}}",
      "EUfr": "{{anim id=\"Smiling\" target=\"actor\" targetSpec=\"\"}}Je crois que cette année{{delay20}} va être une\ntrès bonne année pour moi !{{pageBreak}}{{anim id=\"Explain\" target=\"actor\" targetSpec=\"\"}}Regarde !{{delay20}} Ma queue est encore plus\nen tire-bouchon que d'habitude !{{delay20}}\n{{anim id=\"Laughing\" target=\"actor\" targetSpec=\"\"}}Elle a l'air super contente !",
      "EUit": "{{anim id=\"Smiling\" target=\"actor\" targetSpec=\"\"}}Sento che quest'anno sarà molto\nbuono con me!{{pageBreak}}{{anim id=\"Explain\" target=\"actor\" targetSpec=\"\"}}Vedi, {{delay8}}{{gender2 m=\"amico mio\" f=\"amica mia\"}}? {{delay20}}La mia coda è più\nappuntita e a cavatappi del solito!\n{{delay20}}{{anim id=\"Laughing\" target=\"actor\" targetSpec=\"\"}}Sembra molto felice, {{string value=\"6\"}}!",
      "EUnl": "{{anim id=\"Smiling\" target=\"actor\" targetSpec=\"\"}}Ik heb het gevoel{{delay20}} dat dit voor mij\necht een gaaf jaar gaat worden{{string value=\"...\"}}{{delay8}}\nomdat dit het jaar van het varken is!{{pageBreak}}{{anim id=\"Explain\" target=\"actor\" targetSpec=\"\"}}Zie je het niet aan me?{{delay20}} Mijn staart\nis nog gekrulder dan anders!{{delay20}} {{anim id=\"Laughing\" target=\"actor\" targetSpec=\"\"}}Dat\nheb ik als ik blij ben!{{delay20}} {{capitalizeNextLetter}}{{string value=\"6\"}}!",
      "EUru": "{{anim id=\"Smiling\" target=\"actor\" targetSpec=\"\"}}Хороший будет год!{{pageBreak}}{{anim id=\"Explain\" target=\"actor\" targetSpec=\"\"}}Видишь?{{delay20}} Мне это мой хвостик\nподсказывает! Он сегодня особенно\nзадорно завивается!{{delay20}}{{anim id=\"Laughing\" target=\"actor\" targetSpec=\"\"}}{{delay20}} {{capitalizeNextLetter}}{{string value=\"6\"}}!",
      "JPja": "{{anim id=\"Smiling\" target=\"actor\" targetSpec=\"\"}}{{ruby charSpan=\"2\" value=\"ことし\"}}今年は　ボクにとって{{delay20}}　すっごく\nいい{{ruby charSpan=\"1\" value=\"とし\"}}年になるような　{{ruby charSpan=\"1\" value=\"き\"}}気がするんだぁ～{{pageBreak}}{{anim id=\"Explain\" target=\"actor\" targetSpec=\"\"}}だって、{{delay20}}ボクの　ジマンのしっぽが{{delay20}}\nいつもよりも　はりきって　{{ruby charSpan=\"1\" value=\"まる\"}}丸まってるし{{delay20}}\n{{anim id=\"Laughing\" target=\"actor\" targetSpec=\"\"}}なんだか　うれしそうなんだもん～、{{string value=\"6\"}}",
      "KRko": "{{anim id=\"Smiling\" target=\"actor\" targetSpec=\"\"}}올해는 돼지의 해니까아{{delay20}}\n나한테 엄청 좋은 해가 될 것 같아～{{pageBreak}}{{anim id=\"Explain\" target=\"actor\" targetSpec=\"\"}}봐봐아～ {{delay20}}내 자랑스러운 꼬리도{{delay20}}\n평소보다 똥그랗게 말려서{{delay20}}\n{{anim id=\"Laughing\" target=\"actor\" targetSpec=\"\"}}기분 좋아 보이지 않아～? {{string value=\"6\"}}～!",
      "TWzh": "{{anim id=\"Smiling\" target=\"actor\" targetSpec=\"\"}}我覺得今年對我來說{{delay20}}\n可能會是{{delay20}}很棒的一年喔～{{pageBreak}}{{anim id=\"Explain\" target=\"actor\" targetSpec=\"\"}}因為我自豪的尾巴{{delay20}}\n比平常還要捲喔～{{delay20}}\n{{anim id=\"Laughing\" target=\"actor\" targetSpec=\"\"}}看起來好像很高興耶～{{string value=\"6\"}}。",
      "USen": "It's the Year of the Pig! {{anim id=\"Smiling\" target=\"actor\" targetSpec=\"\"}}{{delay20}}I feel like\nthis year's gonna be a real good\nyear for me, {{string value=\"Catchphrase\"}}!{{pageBreak}}Look!{{delay20}} My tail is all perkier and curlier\nthan usual!{{delay20}} {{anim id=\"Laughing\" target=\"actor\" targetSpec=\"\"}}It looks so happy!",
      "USes": "{{anim id=\"Smiling\" target=\"actor\" targetSpec=\"\"}}Tengo la impresión de que este año\nva a ser genial para mí{{string value=\"...\"}} ¡porque es\nmi año!{{pageBreak}}{{anim id=\"Explain\" target=\"actor\" targetSpec=\"\"}}¿Ves?{{delay8}} ¡Tengo la cola más\nrizada que de costumbre!{{pageBreak}}{{anim id=\"Laughing\" target=\"actor\" targetSpec=\"\"}}¡Está más contenta que mi tripita\na la hora de la comida!",
      "USfr": "{{anim id=\"Smiling\" target=\"actor\" targetSpec=\"\"}}Je crois que cette année{{delay20}} va être une\ntrès bonne année pour moi!{{pageBreak}}{{anim id=\"Explain\" target=\"actor\" targetSpec=\"\"}}Regarde!{{delay20}} Ma queue est encore plus\nen tire-bouchon que d'habitude!{{delay20}}\n{{anim id=\"Laughing\" target=\"actor\" targetSpec=\"\"}}Elle a l'air super contente!"
    }
  }
]