﻿[
  {
    "label": "0101",
    "text": "4"
  },
  {
    "label": "0102",
    "text": "6"
  },
  {
    "label": "0103",
    "text": "8"
  },
  {
    "label": "0104",
    "text": "10"
  },
  {
    "label": "0201",
    "text": "No usar"
  },
  {
    "label": "0202",
    "text": "Usar"
  },
  {
    "label": "3501",
    "text": "Dimensiones del cuarto"
  },
  {
    "label": "3502",
    "text": "Entrada y ventanas"
  },
  {
    "label": "3503",
    "text": "Iluminación"
  },
  {
    "label": "3504",
    "text": "Sonidos ambientales"
  }
]