﻿[
  {
    "label": "0001",
    "text": "Estampado"
  },
  {
    "label": "0002",
    "text": "Mis diseños"
  },
  {
    "label": "0011",
    "text": "{{capitalizeNextLetter}}{{fun_0000007D arg=\"0x0000\"}}"
  },
  {
    "label": "0101",
    "text": "Personalizar"
  },
  {
    "label": "0102",
    "text": "¡Faltan materiales!"
  },
  {
    "label": "0103",
    "text": "Hecho"
  },
  {
    "label": "0201",
    "text": "コ"
  },
  {
    "label": "0202",
    "text": "Necesarios"
  },
  {
    "label": "0203",
    "text": "x"
  },
  {
    "label": "0501",
    "text": "¿Te gusta así?"
  },
  {
    "label": "0601",
    "text": "No"
  },
  {
    "label": "0701",
    "text": "¡Sí!"
  }
]