﻿[
  {
    "label": "001",
    "attribute": "0x0000020000000000",
    "text": "{{anim id=\"FaintSmile\" target=\"actor\" targetSpec=\"\"}}{{ruby charSpan=\"1\" value=\"きゅう\"}}急で　{{ruby charSpan=\"1\" value=\"もう\"}}申し{{ruby charSpan=\"1\" value=\"わけ\"}}訳ないんだけど、{{delay20}}\n{{anim id=\"ShyBoy\" target=\"actor\" targetSpec=\"\"}}アタシの　{{fun_0000007D arg=\"0x0000\"}}を\n{{ruby charSpan=\"1\" value=\"か\"}}買い{{ruby charSpan=\"1\" value=\"と\"}}取って　くれないかしら？　{{string value=\"6\"}}"
  },
  {
    "label": "001_a",
    "attribute": "0x0000000000000000",
    "text": "{{anim id=\"EmotEnd\" target=\"player\" targetSpec=\"\"}}いくらで？"
  },
  {
    "label": "001_b",
    "attribute": "0x0000000000000000",
    "text": "いらないなぁ"
  },
  {
    "label": "002",
    "attribute": "0x0000020000000000",
    "text": "{{anim id=\"FaintSmile\" target=\"actor\" targetSpec=\"\"}}もし　{{ruby charSpan=\"1\" value=\"よ\"}}良かったら、{{delay20}}\n{{anim id=\"ShyBoy\" target=\"actor\" targetSpec=\"\"}}アタシの　{{fun_0000007D arg=\"0x0000\"}}を{{delay20}}\n{{ruby charSpan=\"1\" value=\"か\"}}買い{{ruby charSpan=\"1\" value=\"と\"}}取ってもらえないかしら{{string value=\"...\"}}、{{string value=\"6\"}}"
  },
  {
    "label": "002_a",
    "attribute": "0x0000000000000000",
    "text": "{{anim id=\"EmotEnd\" target=\"player\" targetSpec=\"\"}}いくらで？"
  },
  {
    "label": "002_b",
    "attribute": "0x0000000000000000",
    "text": "いらないよ"
  },
  {
    "label": "003",
    "attribute": "0x0000020000000000",
    "text": "{{anim id=\"Aha\" target=\"actor\" targetSpec=\"\"}}あら、{{delay20}}ちょうど{{ruby charSpan=\"1\" value=\"よ\"}}良かったわ！{{delay40}}\n{{anim id=\"ShyBoy\" target=\"actor\" targetSpec=\"\"}}{{ruby charSpan=\"1\" value=\"じつ\"}}実は{{ruby charSpan=\"1\" value=\"いま\"}}今、{{ruby charSpan=\"2\" value=\"へや\"}}部屋のいらないものを　{{ruby charSpan=\"2\" value=\"せいり\"}}整理して{{delay20}}\n{{ruby charSpan=\"1\" value=\"う\"}}売ってる{{ruby charSpan=\"2\" value=\"さいちゅう\"}}最中なのよ{{string value=\"...\"}}{{delay40}}{{pageBreak}}{{anim id=\"Serious\" target=\"actor\" targetSpec=\"\"}}{{ruby charSpan=\"1\" value=\"いま\"}}今　{{ruby charSpan=\"2\" value=\"てもと\"}}手元に　4つ　あるんだけど、{{delay20}}\n{{anim id=\"Restless\" target=\"actor\" targetSpec=\"\"}}もし　{{ruby charSpan=\"1\" value=\"よ\"}}良かったら\n{{ruby charSpan=\"2\" value=\"きょうりょく\"}}協力してくれないかしら？　{{string value=\"6\"}}"
  },
  {
    "label": "003_a",
    "attribute": "0x0000000000000000",
    "text": "{{anim id=\"EmotEnd\" target=\"player\" targetSpec=\"\"}}どんなの？"
  },
  {
    "label": "003_b",
    "attribute": "0x0000000000000000",
    "text": "ごめんなさい"
  },
  {
    "label": "004",
    "attribute": "0x0000020000000000",
    "text": "{{anim id=\"Eh\" target=\"actor\" targetSpec=\"\"}}あら、{{string value=\"4\"}}{{delay40}}\n{{anim id=\"EmotEnd\" target=\"actor\" targetSpec=\"\"}}{{ruby charSpan=\"1\" value=\"じつ\"}}実はね、{{delay8}}{{fun_0000007D arg=\"0x0000\"}}を\n{{ruby charSpan=\"2\" value=\"ざっし\"}}雑誌のけん{{ruby charSpan=\"1\" value=\"しょう\"}}賞で　{{ruby charSpan=\"1\" value=\"あ\"}}当てたんだけど{{string value=\"...\"}}{{pageBreak}}{{anim id=\"Negative\" target=\"actor\" targetSpec=\"\"}}まさか　{{ruby charSpan=\"1\" value=\"あ\"}}当たると　{{ruby charSpan=\"1\" value=\"おも\"}}思ってなかったから{{delay20}}\n{{anim id=\"WrySmile\" target=\"actor\" targetSpec=\"\"}}もう{{ruby charSpan=\"2\" value=\"じぶん\"}}自分で　{{ruby charSpan=\"1\" value=\"か\"}}買っちゃってたのよね{{pageBreak}}{{anim id=\"ShyBoy\" target=\"actor\" targetSpec=\"\"}}{{ruby charSpan=\"1\" value=\"おな\"}}同じものが　ふたつあっても　{{ruby charSpan=\"1\" value=\"こま\"}}困っちゃうし、{{delay20}}\n{{anim id=\"FaintSmile\" target=\"actor\" targetSpec=\"\"}}{{ruby charSpan=\"1\" value=\"か\"}}買い{{ruby charSpan=\"1\" value=\"と\"}}取ってくれると\n{{ruby charSpan=\"1\" value=\"うれ\"}}嬉しいんだけど{{string value=\"...\"}}、{{string value=\"6\"}}"
  },
  {
    "label": "004_a",
    "attribute": "0x0000000000000000",
    "text": "{{anim id=\"EmotEnd\" target=\"player\" targetSpec=\"\"}}いくらで？"
  },
  {
    "label": "004_b",
    "attribute": "0x0000000000000000",
    "text": "ごめんね"
  },
  {
    "label": "005",
    "attribute": "0x0000000000000000",
    "text": "{{anim id=\"Serious\" target=\"actor\" targetSpec=\"\"}}そう{{string value=\"...\"}}{{delay20}}　わかったわ{{delay40}}\n{{anim id=\"EmotEnd\" target=\"actor\" targetSpec=\"\"}}それじゃあ　ほかの{{ruby charSpan=\"1\" value=\"ひと\"}}人にも{{delay20}}\n{{anim id=\"FaintSmile\" target=\"actor\" targetSpec=\"\"}}{{ruby charSpan=\"1\" value=\"き\"}}聞いてみることに　するわね、{{string value=\"6\"}}"
  },
  {
    "label": "006",
    "attribute": "0x0000000000000000",
    "text": "{{anim id=\"Worried\" target=\"actor\" targetSpec=\"\"}}そう{{string value=\"...\"}}{{delay20}}　それじゃあ、{{delay20}}\n{{anim id=\"Nodding\" target=\"actor\" targetSpec=\"\"}}{{ruby charSpan=\"2\" value=\"こんかい\"}}今回は　あきらめるわね{{delay20}}\n{{anim id=\"FaintSmile\" target=\"actor\" targetSpec=\"\"}}また{{ruby charSpan=\"2\" value=\"きかい\"}}機会があれば　よろしくね、{{string value=\"6\"}}"
  },
  {
    "label": "007",
    "attribute": "0x0000000000000000",
    "text": "{{anim id=\"Negative\" target=\"actor\" targetSpec=\"\"}}いいのよ、{{delay20}}{{ruby charSpan=\"1\" value=\"き\"}}気にしないで{{delay40}}\n{{anim id=\"EmotEnd\" target=\"actor\" targetSpec=\"\"}}ちょっと　ほかのコたちにも{{delay20}}\n{{anim id=\"FaintSmile\" target=\"actor\" targetSpec=\"\"}}{{ruby charSpan=\"1\" value=\"き\"}}聞いてみることに　するわね、{{string value=\"Catchphrase\"}}"
  },
  {
    "label": "008",
    "attribute": "0x0000000000000000",
    "text": "{{anim id=\"Negative\" target=\"actor\" targetSpec=\"\"}}アナタが　{{ruby charSpan=\"1\" value=\"あやま\"}}謝ることないわ{{delay40}}\n{{anim id=\"EmotEnd\" target=\"actor\" targetSpec=\"\"}}ほかの{{ruby charSpan=\"1\" value=\"ひと\"}}人にも　{{ruby charSpan=\"1\" value=\"き\"}}聞いてみるから{{delay20}}\n{{anim id=\"FaintSmile\" target=\"actor\" targetSpec=\"\"}}{{ruby charSpan=\"1\" value=\"き\"}}気にしなくて{{ruby charSpan=\"3\" value=\"だいじょうぶ\"}}大丈夫よ、{{string value=\"6\"}}"
  },
  {
    "label": "009",
    "attribute": "0x0000000000000000",
    "text": "{{anim id=\"HappyFlower\" target=\"actor\" targetSpec=\"\"}}あら、{{delay20}}{{ruby charSpan=\"1\" value=\"たす\"}}助かるわ～{{string value=\"...\"}}{{delay frames=\"40\"}}\n{{anim id=\"Silent\" target=\"actor\" targetSpec=\"\"}}って、{{delay8}}アナタ　{{delay frames=\"30\"}}お{{ruby charSpan=\"1\" value=\"かね\"}}金が{{ruby charSpan=\"1\" value=\"た\"}}足りないんじゃない？{{pageBreak}}{{anim id=\"Sighing\" target=\"actor\" targetSpec=\"\"}}お{{ruby charSpan=\"1\" value=\"かね\"}}金が{{ruby charSpan=\"1\" value=\"な\"}}無い{{ruby charSpan=\"1\" value=\"とき\"}}時に　{{ruby charSpan=\"2\" value=\"むり\"}}無理{{ruby charSpan=\"1\" value=\"い\"}}言って　ゴメンなさい{{delay frames=\"40\"}}\n{{anim id=\"FaintSmile\" target=\"actor\" targetSpec=\"\"}}また{{ruby charSpan=\"2\" value=\"こんど\"}}今度　{{delay20}}{{ruby charSpan=\"2\" value=\"よゆう\"}}余裕がある{{ruby charSpan=\"1\" value=\"とき\"}}時に\nお{{ruby charSpan=\"1\" value=\"ねが\"}}願いするわ、{{string value=\"6\"}}"
  },
  {
    "label": "100",
    "attribute": "0x0000020000000000",
    "text": "{{anim id=\"Smiling\" target=\"actor\" targetSpec=\"\"}}あら、{{ruby charSpan=\"1\" value=\"たす\"}}助かるわ！{{delay40}}\n{{anim id=\"EmotEnd\" target=\"actor\" targetSpec=\"\"}}じゃあ、{{delay20}}{{anim id=\"QuestionMark\" target=\"actor\" targetSpec=\"\"}}{{number value=\"21\" index=\"2\"}}でどうかしら？　{{string value=\"6\"}}"
  },
  {
    "label": "100_a",
    "attribute": "0x0000000000000000",
    "text": "{{ruby charSpan=\"1\" value=\"か\"}}買います"
  },
  {
    "label": "100_b",
    "attribute": "0x0000000000000000",
    "text": "やめとく"
  },
  {
    "label": "101",
    "attribute": "0x0000000000000000",
    "text": "{{anim id=\"HappyDance\" target=\"actor\" targetSpec=\"\"}}アナタったら、なんて{{ruby charSpan=\"1\" value=\"やさ\"}}優しいの！"
  },
  {
    "label": "102",
    "attribute": "0x0000000000000000",
    "text": "{{anim id=\"Nodding\" target=\"actor\" targetSpec=\"\"}}その　{{fun_0000007D arg=\"0x0000\"}}も{{delay20}}\n{{anim id=\"Smiling\" target=\"actor\" targetSpec=\"\"}}アナタにもらわれて\n{{ruby charSpan=\"1\" value=\"よろこ\"}}喜んでると{{ruby charSpan=\"1\" value=\"おも\"}}思うわ、{{string value=\"6\"}}"
  },
  {
    "label": "103",
    "attribute": "0x0000000000000000",
    "text": "{{anim id=\"Thinking\" target=\"actor\" targetSpec=\"\"}}う～ん{{string value=\"...\"}}{{delay20}}それなら{{delay frames=\"40\"}}\n{{anim id=\"Pardon\" target=\"actor\" targetSpec=\"\"}}タダでいいから{{ruby charSpan=\"1\" value=\"ひ\"}}引き{{ruby charSpan=\"1\" value=\"と\"}}取って　くださる？{{delay frames=\"40\"}}\n{{anim id=\"FaintSmile\" target=\"actor\" targetSpec=\"\"}}もらってもらえるだけで、{{ruby charSpan=\"1\" value=\"たす\"}}助かるのよ"
  },
  {
    "label": "104",
    "attribute": "0x0000000000000000",
    "text": "{{anim id=\"Greeting\" target=\"actor\" targetSpec=\"\"}}もし、アナタさえ{{ruby charSpan=\"1\" value=\"よ\"}}良かったら、{{delay20}}\nその　{{fun_0000007D arg=\"0x0000\"}}を{{delay20}}\n{{anim id=\"Smiling\" target=\"actor\" targetSpec=\"\"}}{{ruby charSpan=\"1\" value=\"つか\"}}使ってもらえると　{{ruby charSpan=\"1\" value=\"うれ\"}}嬉しいわ、{{string value=\"6\"}}"
  },
  {
    "label": "105",
    "attribute": "0x0000000000000000",
    "text": "{{anim id=\"Worried\" target=\"actor\" targetSpec=\"\"}}あら、そう{{string value=\"...\"}}{{delay40}}\n{{anim id=\"EmotEnd\" target=\"actor\" targetSpec=\"\"}}それじゃあ、{{delay20}}ほかの{{ruby charSpan=\"1\" value=\"ひと\"}}人にも\n{{anim id=\"FaintSmile\" target=\"actor\" targetSpec=\"\"}}{{ruby charSpan=\"1\" value=\"き\"}}聞いてみることに　するわね、{{string value=\"6\"}}"
  },
  {
    "label": "200",
    "attribute": "0x0000040000000000",
    "text": "{{anim id=\"Greeting\" target=\"actor\" targetSpec=\"\"}}うふふ、{{delay20}}{{ruby charSpan=\"1\" value=\"たす\"}}助かるわ{{delay40}}\nじゃあ、{{delay20}}{{number value=\"21\" index=\"4\"}}で　どう？　{{string value=\"6\"}}"
  },
  {
    "label": "200_a",
    "attribute": "0x0000000000000000",
    "text": "{{ruby charSpan=\"1\" value=\"たか\"}}高すぎるよ"
  },
  {
    "label": "200_b",
    "attribute": "0x0000000000000000",
    "text": "{{ruby charSpan=\"1\" value=\"か\"}}買います"
  },
  {
    "label": "200_c",
    "attribute": "0x0000000000000000",
    "text": "いらないなぁ"
  },
  {
    "label": "201",
    "attribute": "0x0000020000000000",
    "text": "{{anim id=\"Laughing\" target=\"actor\" targetSpec=\"\"}}あら、{{string value=\"4\"}}ったら{{delay20}}\n{{anim id=\"Smiling\" target=\"actor\" targetSpec=\"\"}}{{ruby charSpan=\"1\" value=\"こう\"}}交しょうが　お{{ruby charSpan=\"2\" value=\"じょうず\"}}上手ね{{delay40}}\nじゃあ、{{number value=\"21\" index=\"2\"}}でいかが？　{{string value=\"6\"}}"
  },
  {
    "label": "201_a",
    "attribute": "0x0000000000000000",
    "text": "もらいます！"
  },
  {
    "label": "201_b",
    "attribute": "0x0000000000000000",
    "text": "まだ{{ruby charSpan=\"1\" value=\"か\"}}買えないよ"
  },
  {
    "label": "202",
    "attribute": "0x0000000000000000",
    "text": "{{anim id=\"Smiling\" target=\"actor\" targetSpec=\"\"}}ありがとう、{{delay40}}\nアナタの{{ruby charSpan=\"2\" value=\"けつだん\"}}決断に　{{ruby charSpan=\"2\" value=\"かんしゃ\"}}感謝だわ"
  },
  {
    "label": "203",
    "attribute": "0x0000000000000000",
    "text": "{{anim id=\"Nodding\" target=\"actor\" targetSpec=\"\"}}その　{{fun_0000007D arg=\"0x0000\"}}も{{delay20}}\n{{anim id=\"Blushing\" target=\"actor\" targetSpec=\"\"}}アナタが{{ruby charSpan=\"1\" value=\"つか\"}}使ってくれたら{{delay20}}\nきっと　{{ruby charSpan=\"1\" value=\"よろこ\"}}喜ぶと{{ruby charSpan=\"1\" value=\"おも\"}}思うわ、{{string value=\"6\"}}"
  },
  {
    "label": "204",
    "attribute": "0x0000000000000000",
    "text": "{{anim id=\"Worried\" target=\"actor\" targetSpec=\"\"}}あら、そう{{string value=\"...\"}}　{{ruby charSpan=\"2\" value=\"ざんねん\"}}残念だわ{{delay40}}\n{{anim id=\"EmotEnd\" target=\"actor\" targetSpec=\"\"}}また　{{ruby charSpan=\"1\" value=\"き\"}}気が{{ruby charSpan=\"1\" value=\"む\"}}向いたら　{{anim id=\"FaintSmile\" target=\"actor\" targetSpec=\"\"}}よろしくね、{{string value=\"6\"}}"
  },
  {
    "label": "205",
    "attribute": "0x0000020000000000",
    "text": "{{anim id=\"Thinking\" target=\"actor\" targetSpec=\"\"}}そうねぇ{{string value=\"...\"}}、{{delay40}}\n{{anim id=\"QuestionMark\" target=\"actor\" targetSpec=\"\"}}{{number value=\"21\" index=\"1\"}}なら　どうかしら？　{{string value=\"6\"}}"
  },
  {
    "label": "205_a",
    "attribute": "0x0000000000000000",
    "text": "もらいます！"
  },
  {
    "label": "205_b",
    "attribute": "0x0000000000000000",
    "text": "もう{{ruby charSpan=\"1\" value=\"すこ\"}}少しまけて"
  },
  {
    "label": "206",
    "attribute": "0x0000000000000000",
    "text": "{{anim id=\"Confused\" target=\"actor\" targetSpec=\"\"}}ごめんなさいね{{delay20}}\n{{anim id=\"Negative\" target=\"actor\" targetSpec=\"\"}}これ{{ruby charSpan=\"2\" value=\"いじょう\"}}以上は　{{ruby charSpan=\"2\" value=\"むり\"}}無理だわ{{string value=\"...\"}}、{{string value=\"6\"}}"
  },
  {
    "label": "207",
    "attribute": "0x0000020000000000",
    "text": "{{anim id=\"ShyBoy\" target=\"actor\" targetSpec=\"\"}}まさか、{{string value=\"4\"}}が\nここまで{{ruby charSpan=\"2\" value=\"てごわ\"}}手強いなんて　{{ruby charSpan=\"3\" value=\"そうていがい\"}}想定外だわ{{string value=\"...\"}}{{i10_4}}\n{{anim id=\"EmotEnd\" target=\"actor\" targetSpec=\"\"}}じゃあ、{{delay20}}{{number value=\"21\" index=\"0\"}}なら　{{anim id=\"QuestionMark\" target=\"actor\" targetSpec=\"\"}}どう？　{{string value=\"6\"}}"
  },
  {
    "label": "207_a",
    "attribute": "0x0000000000000000",
    "text": "{{ruby charSpan=\"1\" value=\"か\"}}買ったー！"
  },
  {
    "label": "207_b",
    "attribute": "0x0000000000000000",
    "text": "やめときます"
  },
  {
    "label": "208",
    "attribute": "0x0000000000000000",
    "text": "{{anim id=\"Smiling\" target=\"actor\" targetSpec=\"\"}}ありがとう{{delay40}}\nどうなることかと　{{ruby charSpan=\"1\" value=\"おも\"}}思ったわ"
  },
  {
    "label": "209",
    "attribute": "0x0000000000000000",
    "text": "{{anim id=\"ShyBoy\" target=\"actor\" targetSpec=\"\"}}{{string value=\"4\"}}には{{delay20}}\nかなわないわね、{{string value=\"6\"}}"
  },
  {
    "label": "210",
    "attribute": "0x0000000000000000",
    "text": "{{anim id=\"Worried\" target=\"actor\" targetSpec=\"\"}}そう{{string value=\"...\"}}　{{anim id=\"EmotEnd\" target=\"actor\" targetSpec=\"\"}}それじゃあ、{{delay20}}\nまた{{ruby charSpan=\"1\" value=\"なに\"}}何か　{{ruby charSpan=\"2\" value=\"きかい\"}}機会があれば{{delay20}}\n{{anim id=\"FaintSmile\" target=\"actor\" targetSpec=\"\"}}{{ruby charSpan=\"1\" value=\"こえ\"}}声をかけるわね、{{string value=\"6\"}}"
  },
  {
    "label": "300",
    "attribute": "0x0000020000000000",
    "text": "{{anim id=\"Smiling\" target=\"actor\" targetSpec=\"\"}}ほんと、{{delay8}}{{ruby charSpan=\"1\" value=\"たす\"}}助かるわ！{{pageBreak}}{{anim id=\"EmotEnd\" target=\"actor\" targetSpec=\"\"}}じゃあ　さっそくだけど、{{delay20}}\n{{anim id=\"FaintSmile\" target=\"actor\" targetSpec=\"\"}}{{fun_0000007D arg=\"0x0000\"}}を{{delay20}}\n{{anim id=\"Hello\" target=\"actor\" targetSpec=\"\"}}{{number value=\"21\" index=\"1\"}}で　{{ruby charSpan=\"1\" value=\"か\"}}買わない？　{{string value=\"6\"}}"
  },
  {
    "label": "300_a",
    "attribute": "0x0000000000000000",
    "text": "{{ruby charSpan=\"1\" value=\"か\"}}買います"
  },
  {
    "label": "300_b",
    "attribute": "0x0000000000000000",
    "text": "それは　いらないなぁ"
  },
  {
    "label": "301",
    "attribute": "0x0000000000000000",
    "text": "{{anim id=\"HappyDance\" target=\"actor\" targetSpec=\"\"}}まぁ、アナタって　{{ruby charSpan=\"1\" value=\"はなし\"}}話がわかるのね！"
  },
  {
    "label": "302",
    "attribute": "0x0000000000000000",
    "text": "{{anim id=\"Nodding\" target=\"actor\" targetSpec=\"\"}}{{string value=\"4\"}}のおかげで{{delay20}}\n{{ruby charSpan=\"2\" value=\"へや\"}}部屋が　{{ruby charSpan=\"1\" value=\"すこ\"}}少しスッキリするわ{{delay40}}\n{{anim id=\"Hello\" target=\"actor\" targetSpec=\"\"}}どうも　ありがとう、{{string value=\"6\"}}"
  },
  {
    "label": "303",
    "attribute": "0x0000020000000000",
    "text": "{{anim id=\"Nodding\" target=\"actor\" targetSpec=\"\"}}それじゃあ、{{delay8}}\n{{fun_0000007D arg=\"0x0000\"}}を{{delay20}}\n{{anim id=\"QuestionMark\" target=\"actor\" targetSpec=\"\"}}{{number value=\"21\" index=\"1\"}}で　いかがかしら？　{{string value=\"6\"}}"
  },
  {
    "label": "303_a",
    "attribute": "0x0000000000000000",
    "text": "{{ruby charSpan=\"1\" value=\"か\"}}買います"
  },
  {
    "label": "303_b",
    "attribute": "0x0000000000000000",
    "text": "それも　いらないなぁ"
  },
  {
    "label": "304",
    "attribute": "0x0000020000000000",
    "text": "{{anim id=\"Thinking\" target=\"actor\" targetSpec=\"\"}}それなら、そうね{{string value=\"...\"}}{{anim id=\"EmotEnd\" target=\"actor\" targetSpec=\"\"}}{{delay40}}\n{{anim id=\"EmotEnd\" target=\"actor\" targetSpec=\"\"}}{{fun_0000007D arg=\"0x0000\"}}を{{delay20}}\n{{anim id=\"QuestionMark\" target=\"actor\" targetSpec=\"\"}}{{number value=\"21\" index=\"1\"}}で　どうかしら？　{{string value=\"6\"}}"
  },
  {
    "label": "304_a",
    "attribute": "0x0000000000000000",
    "text": "{{ruby charSpan=\"1\" value=\"か\"}}買います"
  },
  {
    "label": "304_b",
    "attribute": "0x0000000000000000",
    "text": "それも　いらないなぁ"
  },
  {
    "label": "305",
    "attribute": "0x0000020000000000",
    "text": "{{anim id=\"Restless\" target=\"actor\" targetSpec=\"\"}}え～っと、{{delay20}}これが{{ruby charSpan=\"2\" value=\"さいご\"}}最後の{{ruby charSpan=\"1\" value=\"しな\"}}品なんだけど、{{delay20}}\n{{anim id=\"EmotEnd\" target=\"actor\" targetSpec=\"\"}}{{fun_0000007D arg=\"0x0000\"}}を{{delay20}}\n{{anim id=\"QuestionMark\" target=\"actor\" targetSpec=\"\"}}{{number value=\"21\" index=\"1\"}}で　どう？　{{string value=\"6\"}}"
  },
  {
    "label": "305_a",
    "attribute": "0x0000000000000000",
    "text": "{{ruby charSpan=\"1\" value=\"か\"}}買います"
  },
  {
    "label": "305_b",
    "attribute": "0x0000000000000000",
    "text": "ごめんなさい"
  },
  {
    "label": "306",
    "attribute": "0x0000000000000000",
    "text": "{{anim id=\"Worried\" target=\"actor\" targetSpec=\"\"}}あら、そうなのね{{string value=\"...\"}}{{delay40}}\n{{anim id=\"EmotEnd\" target=\"actor\" targetSpec=\"\"}}じゃあ　ほかの{{ruby charSpan=\"1\" value=\"ひと\"}}人にも{{delay20}}\n{{anim id=\"FaintSmile\" target=\"actor\" targetSpec=\"\"}}{{ruby charSpan=\"1\" value=\"き\"}}聞いてみることに　するわね、{{string value=\"6\"}}"
  },
  {
    "label": "400",
    "attribute": "0x0000020000000000",
    "text": "{{anim id=\"Smiling\" target=\"actor\" targetSpec=\"\"}}あら、{{ruby charSpan=\"1\" value=\"たす\"}}助かるわ！{{delay40}}\n{{anim id=\"EmotEnd\" target=\"actor\" targetSpec=\"\"}}それじゃあ、{{delay20}}\n{{anim id=\"QuestionMark\" target=\"actor\" targetSpec=\"\"}}{{number value=\"21\" index=\"3\"}}で　どうかしら？　{{string value=\"6\"}}"
  },
  {
    "label": "400_a",
    "attribute": "0x0000000000000000",
    "text": "{{ruby charSpan=\"1\" value=\"か\"}}買います"
  },
  {
    "label": "400_b",
    "attribute": "0x0000000000000000",
    "text": "{{anim id=\"EmotEnd\" target=\"player\" targetSpec=\"\"}}まけてよ"
  },
  {
    "label": "401",
    "attribute": "0x0000000000000000",
    "text": "{{anim id=\"HappyDance\" target=\"actor\" targetSpec=\"\"}}どうも　ありがとう！{{delay frames=\"40\"}}\nアナタの{{ruby charSpan=\"2\" value=\"けつだん\"}}決断は　きっと{{ruby charSpan=\"1\" value=\"ただ\"}}正しいわよ！"
  },
  {
    "label": "402",
    "attribute": "0x0000000000000000",
    "text": "{{anim id=\"Smiling\" target=\"actor\" targetSpec=\"\"}}うふふ、{{delay20}}\nこれで　ムダにならずにすんだし{{delay20}}\n{{anim id=\"Grin\" target=\"actor\" targetSpec=\"\"}}へそくりも　{{ruby charSpan=\"2\" value=\"でき\"}}出来ちゃったわ{{string value=\"...\"}}、{{string value=\"6\"}}"
  },
  {
    "label": "403",
    "attribute": "0x0000020000000000",
    "text": "{{anim id=\"Thinking\" target=\"actor\" targetSpec=\"\"}}じゃあ{{string value=\"...\"}}{{delay20}}\n{{anim id=\"QuestionMark\" target=\"actor\" targetSpec=\"\"}}{{number value=\"21\" index=\"2\"}}なら　どうかしら？　{{string value=\"6\"}}"
  },
  {
    "label": "403_a",
    "attribute": "0x0000000000000000",
    "text": "{{ruby charSpan=\"1\" value=\"か\"}}買います"
  },
  {
    "label": "403_b",
    "attribute": "0x0000000000000000",
    "text": "{{anim id=\"EmotEnd\" target=\"player\" targetSpec=\"\"}}もっと！"
  },
  {
    "label": "404",
    "attribute": "0x0000020000000000",
    "text": "{{anim id=\"Thinking\" target=\"actor\" targetSpec=\"\"}}そうねぇ{{string value=\"...\"}}{{delay40}}\n{{anim id=\"QuestionMark\" target=\"actor\" targetSpec=\"\"}}{{number value=\"21\" index=\"1\"}}で　いかが？　{{string value=\"6\"}}"
  },
  {
    "label": "404_a",
    "attribute": "0x0000000000000000",
    "text": "{{ruby charSpan=\"1\" value=\"か\"}}買います"
  },
  {
    "label": "404_b",
    "attribute": "0x0000000000000000",
    "text": "{{anim id=\"EmotEnd\" target=\"actor\" targetSpec=\"\"}}もう{{ruby charSpan=\"2\" value=\"ひとこえ\"}}一声！"
  },
  {
    "label": "405",
    "attribute": "0x0000020000000000",
    "text": "{{anim id=\"Thinking\" target=\"actor\" targetSpec=\"\"}}う～ん{{string value=\"...\"}}{{i10_4}}\n{{anim id=\"EmotEnd\" target=\"actor\" targetSpec=\"\"}}じゃあ、{{ruby charSpan=\"2\" value=\"さいご\"}}最後の{{ruby charSpan=\"2\" value=\"ねさ\"}}値下げよ？{{delay40}}\n{{anim id=\"QuestionMark\" target=\"actor\" targetSpec=\"\"}}{{number value=\"21\" index=\"0\"}}で　どうかしら？　{{string value=\"6\"}}"
  },
  {
    "label": "405_a",
    "attribute": "0x0000000000000000",
    "text": "{{ruby charSpan=\"1\" value=\"か\"}}買ったー！"
  },
  {
    "label": "405_b",
    "attribute": "0x0000000000000000",
    "text": "ごめんなさい"
  },
  {
    "label": "406",
    "attribute": "0x0000000000000000",
    "text": "{{anim id=\"Smiling\" target=\"actor\" targetSpec=\"\"}}うふふ、ありがとう！{{delay40}}\n{{ruby charSpan=\"2\" value=\"ねさ\"}}値下げしたかいが　あったわ！"
  },
  {
    "label": "407",
    "attribute": "0x0000000000000000",
    "text": "{{anim id=\"AbsentMindedness\" target=\"actor\" targetSpec=\"\"}}こういう　{{ruby charSpan=\"1\" value=\"こう\"}}交しょうのやりとりも、{{delay20}}\n{{anim id=\"FaintSmile\" target=\"actor\" targetSpec=\"\"}}なんだか　{{ruby charSpan=\"2\" value=\"おもしろ\"}}面白いものね、{{string value=\"6\"}}"
  },
  {
    "label": "408",
    "attribute": "0x0000000000000000",
    "text": "{{anim id=\"Worried\" target=\"actor\" targetSpec=\"\"}}そう、{{ruby charSpan=\"2\" value=\"ざんねん\"}}残念だわ{{string value=\"...\"}}{{delay40}}\n{{anim id=\"EmotEnd\" target=\"actor\" targetSpec=\"\"}}でも　ほかの{{ruby charSpan=\"1\" value=\"ひと\"}}人にも　{{ruby charSpan=\"1\" value=\"き\"}}聞いてみるから、{{delay20}}\n{{anim id=\"FaintSmile\" target=\"actor\" targetSpec=\"\"}}{{ruby charSpan=\"1\" value=\"き\"}}気にしないでちょうだいね、{{string value=\"6\"}}"
  },
  {
    "label": "409",
    "attribute": "0x0000000000000000",
    "text": "{{anim id=\"Restless\" target=\"actor\" targetSpec=\"\"}}ごめんなさいね{{string value=\"...\"}}{{delay40}}\n{{anim id=\"Negative\" target=\"actor\" targetSpec=\"\"}}これ{{ruby charSpan=\"2\" value=\"いじょう\"}}以上は　{{ruby charSpan=\"1\" value=\"さ\"}}下げられないのよ{{delay40}}\n{{anim id=\"EmotEnd\" target=\"actor\" targetSpec=\"\"}}また　{{ruby charSpan=\"2\" value=\"きかい\"}}機会があれば{{delay8}}　{{anim id=\"FaintSmile\" target=\"actor\" targetSpec=\"\"}}ヨロシクね！　{{string value=\"6\"}}"
  },
  {
    "label": "410",
    "attribute": "0x0000000000000000",
    "text": "{{anim id=\"Worried\" target=\"actor\" targetSpec=\"\"}}{{ruby charSpan=\"1\" value=\"もう\"}}申し{{ruby charSpan=\"1\" value=\"わけ\"}}訳ないけど、{{delay20}}\n{{anim id=\"Negative\" target=\"actor\" targetSpec=\"\"}}これが　アタシの{{ruby charSpan=\"3\" value=\"せいいっぱい\"}}精一杯なのよね{{delay40}}\n{{anim id=\"FaintSmile\" target=\"actor\" targetSpec=\"\"}}{{ruby charSpan=\"2\" value=\"こんかい\"}}今回はスパッと　あきらめるわ、{{string value=\"6\"}}"
  },
  {
    "label": "411",
    "attribute": "0x0000000000000000",
    "text": "{{anim id=\"Worried\" target=\"actor\" targetSpec=\"\"}}ごめんなさいね{{delay40}}\n{{anim id=\"Negative\" target=\"actor\" targetSpec=\"\"}}これが　アタシの{{ruby charSpan=\"2\" value=\"げんかい\"}}限界だわ{{string value=\"...\"}}{{delay40}}\n{{anim id=\"EmotEnd\" target=\"actor\" targetSpec=\"\"}}また{{ruby charSpan=\"2\" value=\"きかい\"}}機会があれば{{delay8}}　{{anim id=\"FaintSmile\" target=\"actor\" targetSpec=\"\"}}{{ruby charSpan=\"1\" value=\"こえ\"}}声をかけるわね、{{string value=\"6\"}}"
  }
]