﻿[
  {
    "label": "001",
    "attribute": "0x0000000100000000",
    "text": "{{anim id=\"Shocked\" target=\"actor\" targetSpec=\"\"}}그러고 보니 {{delay8}}{{selection value=\"SelectedVillager\"}}{{gender5 m=\"이\" f=\"가\"}}\n아픈가 보더라?{{pageBreak}}{{anim id=\"QuestionMark\" target=\"actor\" targetSpec=\"\"}}한 번쯤 어떤지 보러 갔다 오는 게{{delay8}}\n좋지 않겠냐－? {{string value=\"6\"}}?"
  },
  {
    "label": "002",
    "attribute": "0x0000000100000000",
    "text": "{{anim id=\"QuestionMark\" target=\"actor\" targetSpec=\"\"}}그러고 보니 {{selection value=\"SelectedVillager\"}} 녀석,{{delay20}}\n몸이 안 좋다고 그러더라?{{pageBreak}}{{anim id=\"Nodding\" target=\"actor\" targetSpec=\"\"}}어떤지 살짝 보고 오는 게{{delay8}}\n좋지 않겠냐－? {{string value=\"6\"}}?"
  },
  {
    "label": "003",
    "attribute": "0x0000000100000000",
    "text": "{{anim id=\"QuestionMark\" target=\"actor\" targetSpec=\"\"}}왠지 {{selection value=\"SelectedVillager\"}} 녀석,{{delay8}}\n아픈 모양이던데?{{pageBreak}}{{anim id=\"Greeting\" target=\"actor\" targetSpec=\"\"}}시간 되면 {{delay8}}병문안이라도{{delay20}}\n갔다 와, {{string value=\"6\"}}!"
  }
]