﻿[
  {
    "label": "001",
    "text": "Чудесн{{gender2 m=\"ый\" f=\"ая\"}} {{string value=\"NickName\"}}!"
  },
  {
    "label": "002",
    "text": "Внимательн{{gender2 m=\"ый\" f=\"ая\"}} {{string value=\"NickName\"}}!"
  },
  {
    "label": "003",
    "text": "Дружище {{string value=\"NickName\"}}!"
  },
  {
    "label": "004",
    "text": "Дорог{{gender2 m=\"ой\" f=\"ая\"}} {{string value=\"NickName\"}}!"
  },
  {
    "label": "005",
    "text": "Привет, {{string value=\"NickName\"}}!"
  },
  {
    "label": "006",
    "text": "Здравствуй, {{string value=\"NickName\"}}!"
  },
  {
    "label": "101",
    "text": "Спасибо за подарок на день\nрождения! Одного поздравления\nхватило бы за глаза, а твой\nподарок стал особой изюминкой!\nЯ считаю, что обязана подарить\nтебе что-нибудь взамен."
  },
  {
    "label": "102",
    "text": "Зачем ты заставляешь меня\nплакать?! От твоей открытки\nи подарка у меня выступили на\nглазах слезы. Я не смогу тем же\nотплатить тебе, но хочу подарить\nтебе что-нибудь взамен!"
  },
  {
    "label": "103",
    "text": "Здорово было получить от тебя\nподарок и поздравление. Лучше\nоткрыток могут быть только\nоткрытки с подарками. Ты это\nи так знаешь, потому что держишь\nтакую сейчас в руках."
  },
  {
    "label": "104",
    "text": "Я получила твое поздравление.\nОчень мило с твоей стороны!\nПока у меня есть друзья, которые\nсо мной празднуют, я всегда буду\nчувствовать себя молодо.\nПриглашаю на все дни рождения!"
  },
  {
    "label": "105",
    "text": "Я глазам своим не поверила,\nкогда получила от тебя\nпоздравление с днем рождения!\nТы так легко и небрежно можешь\nбыть так{{gender2 m=\"им\" f=\"ой\"}} внимательн{{gender2 m=\"ым\" f=\"ой\"}}! У меня\nдо сих пор отличное настроение!"
  },
  {
    "label": "106",
    "text": "Твое поздравление меня очень\nобрадовало! Спасибо! Вот такими\nи должны быть настоящие верные\nдрузья. Этот год обещает\nбыть замечательным!"
  },
  {
    "label": "201",
    "text": "Твоя верная подруга {{string value=\"VillagerName\"}}"
  },
  {
    "label": "202",
    "text": "Обнимаю, {{string value=\"VillagerName\"}}"
  },
  {
    "label": "203",
    "text": "Ура открыткам! {{string value=\"VillagerName\"}}"
  },
  {
    "label": "204",
    "text": "Будем праздновать! {{string value=\"VillagerName\"}}"
  },
  {
    "label": "205",
    "text": "Застенчивая {{string value=\"VillagerName\"}}"
  },
  {
    "label": "206",
    "text": "Ужасно довольная {{string value=\"VillagerName\"}}"
  }
]