﻿[
  {
    "label": "001",
    "attribute": "0x00000C0100000000",
    "text": "{{anim id=\"QuestionMark\" target=\"actor\" targetSpec=\"\"}}あら、{{delay8}}どうしたの？　{{string value=\"6\"}}{{setNpcTalkChoices chatOption=\"0\" cancelOption=\"0\"}}"
  },
  {
    "label": "002",
    "attribute": "0x00000C0100000000",
    "text": "{{anim id=\"Hello\" target=\"actor\" targetSpec=\"\"}}アタシに　{{ruby charSpan=\"1\" value=\"なに\"}}何か{{ruby charSpan=\"1\" value=\"よう\"}}用？　{{string value=\"6\"}}{{setNpcTalkChoices chatOption=\"0\" cancelOption=\"0\"}}"
  },
  {
    "label": "003",
    "attribute": "0x00000C0100000000",
    "text": "{{anim id=\"FaintSmile\" target=\"actor\" targetSpec=\"\"}}うふふ、{{delay20}}{{ruby charSpan=\"1\" value=\"なに\"}}何かしら？　{{string value=\"6\"}}{{setNpcTalkChoices chatOption=\"0\" cancelOption=\"0\"}}"
  },
  {
    "label": "004",
    "attribute": "0x00000C0100000000",
    "text": "{{anim id=\"Hello\" target=\"actor\" targetSpec=\"\"}}{{ruby charSpan=\"2\" value=\"こんど\"}}今度は　どうしたの？　{{string value=\"6\"}}{{setNpcTalkChoices chatOption=\"1\" cancelOption=\"0\"}}"
  },
  {
    "label": "005",
    "attribute": "0x00000C0100000000",
    "text": "{{anim id=\"FaintSmile\" target=\"actor\" targetSpec=\"\"}}{{ruby charSpan=\"1\" value=\"なに\"}}何か　ご{{ruby charSpan=\"2\" value=\"ようじ\"}}用事かしら？　{{string value=\"6\"}}{{setNpcTalkChoices chatOption=\"0\" cancelOption=\"0\"}}"
  }
]