﻿[
  {
    "label": "001",
    "attribute": "0x0000000000000000",
    "text": "{{anim id=\"BigSmile\" target=\"actor\" targetSpec=\"\"}}BOOM!{{delay frames=\"40\"}} {{anim id=\"Shocked\" target=\"actor\" targetSpec=\"\"}}SBADABAM! {{delay frames=\"40\"}}{{anim id=\"Cheering\" target=\"actor\" targetSpec=\"\"}}SGUISSSH!{{pageBreak}}{{anim id=\"Grin\" target=\"actor\" targetSpec=\"\"}}Sembrano i rumori che si sentono\nsempre durante i miei allenamenti!{{delay frames=\"40\"}}\n{{anim id=\"Laughing\" target=\"actor\" targetSpec=\"\"}}SBARABANG!"
  },
  {
    "label": "002",
    "attribute": "0x0000000000000000",
    "text": "{{anim id=\"AbsentMindedness\" target=\"actor\" targetSpec=\"\"}}Oooh{{string value=\"...\"}} Quando vedo i fuochi\nd'artificio mi sento così piccolo.{{delay frames=\"40\"}}\n{{anim id=\"Shocked\" target=\"actor\" targetSpec=\"\"}}Sarà per quello che mi alleno tanto?\n{{anim id=\"SmugFace\" target=\"actor\" targetSpec=\"\"}}Certo che no. {{delay20}}Lo faccio perché\nvoglio essere in grado di distruggere\n{{wordArticle}}{{randomObj}} coi deltoidi!"
  },
  {
    "label": "003",
    "attribute": "0x0000000000000000",
    "text": "{{anim id=\"Clapping\" target=\"actor\" targetSpec=\"\"}}Uaaah! {{delay20}}Eccoli!{{delay20}} {{anim id=\"Cheering\" target=\"actor\" targetSpec=\"\"}}È partito lo spettacolo\ndi fuochi d'artificio!{{pageBreak}}{{anim id=\"WrySmile\" target=\"actor\" targetSpec=\"\"}}Come un bravo tifoso che sostiene\nla propria squadra sia che vinca o\nperda{{string value=\"...\"}}{{pageBreak}}Manterrò questo livello di\nentusiasmo per tutta la notte,\n{{string value=\"6\"}}."
  },
  {
    "label": "004",
    "attribute": "0x0000000000000000",
    "text": "{{anim id=\"HappyFlower\" target=\"actor\" targetSpec=\"\"}}Non c'è niente di meglio dell'inizio\ndi un potente spettacolo di fuochi\nd'artificio, {{string value=\"6\"}}.\nSai, no?{{delay20}}{{anim id=\"Shocked\" target=\"actor\" targetSpec=\"\"}} Booommm! {{delay frames=\"40\"}}{{anim id=\"BigSmile\" target=\"actor\" targetSpec=\"\"}}Evvaiii!\n{{delay frames=\"40\"}}{{anim id=\"Cheering\" target=\"actor\" targetSpec=\"\"}}GOOOLLL!{{pageBreak}}{{anim id=\"OhGeez\" target=\"actor\" targetSpec=\"\"}}Ah, no, {{delay8}}scusa. {{delay20}}Ho mischiato\nle passioni."
  },
  {
    "label": "005",
    "attribute": "0x0000000000000000",
    "text": "{{anim id=\"AbsentMindedness\" target=\"actor\" targetSpec=\"\"}}È strano, {{delay8}}ma amo l'odore dei fuochi\nd'artificio.{{delay20}} Ci starebbe bene una\nbevanda proteica con questo gusto{{string value=\"...\"}}"
  },
  {
    "label": "006",
    "attribute": "0x0000000000000000",
    "text": "{{anim id=\"Eh\" target=\"actor\" targetSpec=\"\"}}Come sarà ammirare uno spettacolo\ndi fuochi d'artificio dall'alto? {{delay8}}Da un\naereo, per esempio?{{pageBreak}}{{anim id=\"Confused\" target=\"actor\" targetSpec=\"\"}}Pensarci mi fa venire dei capogiri{{string value=\"...\"}}\n{{delay20}}{{anim id=\"Oops\" target=\"actor\" targetSpec=\"\"}}Come quando corro in tondo a tutta\nvelocità per allenare l'equilibrio."
  },
  {
    "label": "007",
    "attribute": "0x0000000000000000",
    "text": "{{anim id=\"Pardon\" target=\"actor\" targetSpec=\"\"}}Quello brillava tanto quanto il sole,\n{{string value=\"6\"}}!{{delay20}}{{anim id=\"Thinking\" target=\"actor\" targetSpec=\"\"}} Ci sarà una crema protettiva contro i fuochi d'artificio?"
  },
  {
    "label": "008",
    "attribute": "0x0000000000000000",
    "text": "{{anim id=\"Worried\" target=\"actor\" targetSpec=\"\"}}Ogni esplosione mi ricorda lo sparo\nche dà il via a una gara d'atletica{{string value=\"...\"}}{{pageBreak}}{{anim id=\"Frantic\" target=\"actor\" targetSpec=\"\"}}Mi viene l'istinto di scattare verso\nil traguardo!"
  },
  {
    "label": "009",
    "attribute": "0x0000000000000000",
    "text": "{{anim id=\"BigSmile\" target=\"actor\" targetSpec=\"\"}}Sei emozionat{{gender2 m=\"o\" f=\"a\"}} quanto me?{{pageBreak}}{{anim id=\"WrySmile\" target=\"actor\" targetSpec=\"\"}}Beh,{{delay8}} so che non è possibile arrivare\nai miei livelli,{{delay8}} ma spero che tu ti stia\ndivertendo lo stesso, {{string value=\"6\"}}."
  },
  {
    "label": "010",
    "attribute": "0x0000000000000000",
    "text": "{{anim id=\"Shocked\" target=\"actor\" targetSpec=\"\"}}Non te ne starai mica andando,\n{{delay8}}vero?{{pageBreak}}{{anim id=\"WrySmile\" target=\"actor\" targetSpec=\"\"}}A differenza del mangiare {{randomFood}},{{delay8}} la fine è la parte migliore dei fuochi d'artificio!"
  },
  {
    "label": "011",
    "attribute": "0x0000000000000600",
    "text": "{{i10_12}}{{i10_14 arg=\"0\"}}{{anim id=\"Cheering\" target=\"actor\" targetSpec=\"\"}}{{size value=\"150\"}}Buuum!{{size value=\"100\"}}{{delay40}}{{anim id=\"EmotEnd\" target=\"actor\" targetSpec=\"\"}}{{delay20}}\n{{anim id=\"Cheering\" target=\"actor\" targetSpec=\"\"}}{{size value=\"150\"}}Kabuuum!{{size value=\"100\"}}{{size value=\"100\"}}{{delay40}}{{size value=\"100\"}}{{anim id=\"EmotEnd\" target=\"actor\" targetSpec=\"\"}}{{i10_9}}{{pageBreak}}{{anim id=\"WrySmile\" target=\"actor\" targetSpec=\"\"}}Non chiedermi che senso ha\naccompagnare le esplosioni\ncon queste grida.\n{{anim id=\"Laughing\" target=\"actor\" targetSpec=\"\"}}È la sindrome del tifoso che deve\npartecipare attivamente,{{delay8}} anche se\nè un semplice spettatore."
  }
]