﻿[
  {
    "UniqueId": 0,
    "Label": "Cheek0",
    "Name": "Cheek0",
    "TexName": "mCheek_Alb.0"
  },
  {
    "UniqueId": 1,
    "Label": "Cheek1",
    "Name": "Cheek1",
    "TexName": "mCheek_Alb.1"
  },
  {
    "UniqueId": 2,
    "Label": "CheekOff",
    "Name": "CheekOff",
    "TexName": "mCheek_Alb.2"
  }
]