﻿[
  {
    "UniqueId": 0,
    "_34cdbaa5": 0,
    "_8c71ddc0": 1,
    "_9ec4722e": 2,
    "_2678154b": 0,
    "_53e9beb6": 0,
    "_eb55d9d3": 0,
    "_f9e0763d": 0,
    "_415c1158": 255,
    "_f6d92ede": 3,
    "_286d8e9e": 1,
    "_90d1e9fb": 2,
    "_82644615": 4,
    "_3ad82170": 255,
    "_c1718183": 10,
    "_79cde6e6": 8
  },
  {
    "UniqueId": 1,
    "_34cdbaa5": 3,
    "_8c71ddc0": 2,
    "_9ec4722e": 0,
    "_2678154b": 0,
    "_53e9beb6": 0,
    "_eb55d9d3": 0,
    "_f9e0763d": 255,
    "_415c1158": 255,
    "_f6d92ede": 3,
    "_286d8e9e": 1,
    "_90d1e9fb": 4,
    "_82644615": 255,
    "_3ad82170": 255,
    "_c1718183": 10,
    "_79cde6e6": 8
  },
  {
    "UniqueId": 2,
    "_34cdbaa5": 12,
    "_8c71ddc0": 5,
    "_9ec4722e": 6,
    "_2678154b": 0,
    "_53e9beb6": 0,
    "_eb55d9d3": 0,
    "_f9e0763d": 0,
    "_415c1158": 255,
    "_f6d92ede": 3,
    "_286d8e9e": 1,
    "_90d1e9fb": 1,
    "_82644615": 1,
    "_3ad82170": 255,
    "_c1718183": 6,
    "_79cde6e6": 8
  },
  {
    "UniqueId": 3,
    "_34cdbaa5": 7,
    "_8c71ddc0": 0,
    "_9ec4722e": 0,
    "_2678154b": 0,
    "_53e9beb6": 0,
    "_eb55d9d3": 255,
    "_f9e0763d": 255,
    "_415c1158": 255,
    "_f6d92ede": 3,
    "_286d8e9e": 3,
    "_90d1e9fb": 255,
    "_82644615": 255,
    "_3ad82170": 255,
    "_c1718183": 8,
    "_79cde6e6": 8
  },
  {
    "UniqueId": 4,
    "_34cdbaa5": 8,
    "_8c71ddc0": 9,
    "_9ec4722e": 2,
    "_2678154b": 0,
    "_53e9beb6": 0,
    "_eb55d9d3": 0,
    "_f9e0763d": 0,
    "_415c1158": 255,
    "_f6d92ede": 4,
    "_286d8e9e": 1,
    "_90d1e9fb": 1,
    "_82644615": 4,
    "_3ad82170": 255,
    "_c1718183": 10,
    "_79cde6e6": 10
  },
  {
    "UniqueId": 5,
    "_34cdbaa5": 10,
    "_8c71ddc0": 0,
    "_9ec4722e": 0,
    "_2678154b": 0,
    "_53e9beb6": 0,
    "_eb55d9d3": 255,
    "_f9e0763d": 255,
    "_415c1158": 255,
    "_f6d92ede": 3,
    "_286d8e9e": 2,
    "_90d1e9fb": 255,
    "_82644615": 255,
    "_3ad82170": 255,
    "_c1718183": 6,
    "_79cde6e6": 6
  },
  {
    "UniqueId": 6,
    "_34cdbaa5": 8,
    "_8c71ddc0": 9,
    "_9ec4722e": 2,
    "_2678154b": 0,
    "_53e9beb6": 0,
    "_eb55d9d3": 0,
    "_f9e0763d": 0,
    "_415c1158": 255,
    "_f6d92ede": 4,
    "_286d8e9e": 1,
    "_90d1e9fb": 1,
    "_82644615": 4,
    "_3ad82170": 255,
    "_c1718183": 10,
    "_79cde6e6": 10
  },
  {
    "UniqueId": 7,
    "_34cdbaa5": 8,
    "_8c71ddc0": 11,
    "_9ec4722e": 0,
    "_2678154b": 0,
    "_53e9beb6": 0,
    "_eb55d9d3": 6,
    "_f9e0763d": 255,
    "_415c1158": 255,
    "_f6d92ede": 3,
    "_286d8e9e": 1,
    "_90d1e9fb": 1,
    "_82644615": 255,
    "_3ad82170": 255,
    "_c1718183": 8,
    "_79cde6e6": 6
  },
  {
    "UniqueId": 8,
    "_34cdbaa5": 0,
    "_8c71ddc0": 0,
    "_9ec4722e": 0,
    "_2678154b": 0,
    "_53e9beb6": 255,
    "_eb55d9d3": 255,
    "_f9e0763d": 255,
    "_415c1158": 255,
    "_f6d92ede": 3,
    "_286d8e9e": 255,
    "_90d1e9fb": 255,
    "_82644615": 255,
    "_3ad82170": 255,
    "_c1718183": 6,
    "_79cde6e6": 6
  },
  {
    "UniqueId": 9,
    "_34cdbaa5": 0,
    "_8c71ddc0": 0,
    "_9ec4722e": 0,
    "_2678154b": 0,
    "_53e9beb6": 255,
    "_eb55d9d3": 255,
    "_f9e0763d": 255,
    "_415c1158": 255,
    "_f6d92ede": 4,
    "_286d8e9e": 255,
    "_90d1e9fb": 255,
    "_82644615": 255,
    "_3ad82170": 255,
    "_c1718183": 6,
    "_79cde6e6": 6
  },
  {
    "UniqueId": 10,
    "_34cdbaa5": 9,
    "_8c71ddc0": 2,
    "_9ec4722e": 0,
    "_2678154b": 0,
    "_53e9beb6": 0,
    "_eb55d9d3": 0,
    "_f9e0763d": 255,
    "_415c1158": 255,
    "_f6d92ede": 3,
    "_286d8e9e": 1,
    "_90d1e9fb": 2,
    "_82644615": 255,
    "_3ad82170": 255,
    "_c1718183": 6,
    "_79cde6e6": 6
  }
]