﻿[
  {
    "label": "001",
    "attribute": "0x0000000000000000",
    "text": "{{fun_0000007D arg=\"0x0000\"}}かぁ～{{delay frames=\"40\"}}\n{{anim id=\"FaintSmile\" target=\"actor\" targetSpec=\"\"}}コレをおいたら　{{delay20}}ボクのおへやも{{delay8}}\n{{ruby charSpan=\"2\" value=\"いっき\"}}一気に　{{string value=\"17\"}}っぽく　なるかなぁ～、{{string value=\"6\"}}"
  },
  {
    "label": "003",
    "attribute": "0x0000000000000000",
    "text": "{{fun_0000007D arg=\"0x0000\"}}ねぇ～{{delay frames=\"40\"}}\n{{anim id=\"AbsentMindedness\" target=\"actor\" targetSpec=\"\"}}コレが　かざってある　ボクのおへや{{string value=\"...\"}}{{delay frames=\"50\"}}\n{{anim id=\"FaintSmile\" target=\"actor\" targetSpec=\"\"}}うんうん、{{delay20}}わるくないかもぉ～！　{{string value=\"6\"}}"
  },
  {
    "label": "004",
    "attribute": "0x0000000000000000",
    "text": "{{fun_0000007D arg=\"0x0000\"}}かぁ～{{delay frames=\"40\"}}\n{{anim id=\"Smiling\" target=\"actor\" targetSpec=\"\"}}おへやの{{ruby charSpan=\"1\" value=\"なか\"}}中に　ひとつくらい{{delay20}}\nこういうのがあっても　いいよねぇ、{{string value=\"6\"}}"
  },
  {
    "label": "006",
    "attribute": "0x0000000000000000",
    "text": "{{anim id=\"Thinking\" target=\"actor\" targetSpec=\"\"}}{{fun_0000007D arg=\"0x0000\"}}か{{string value=\"...\"}}{{delay frames=\"50\"}}\n{{anim id=\"Eh\" target=\"actor\" targetSpec=\"\"}}{{delay20}}こんなに　{{ruby charSpan=\"1\" value=\"おお\"}}大きいのをおいたら{{delay20}}\n{{ruby charSpan=\"1\" value=\"ある\"}}歩くところが　なくなっちゃうかも～、{{string value=\"6\"}}"
  },
  {
    "label": "007",
    "attribute": "0x0000000000000000",
    "text": "この　{{fun_0000007D arg=\"0x0000\"}}、{{delay20}}\n{{anim id=\"Shocked\" target=\"actor\" targetSpec=\"\"}}{{number value=\"23\" index=\"0\"}}も　するのかぁ{{delay frames=\"50\"}}\n{{anim id=\"Negative\" target=\"actor\" targetSpec=\"\"}}やっぱり　{{ruby charSpan=\"1\" value=\"たか\"}}高いなぁ～{{string value=\"...\"}}、{{string value=\"6\"}}"
  }
]