﻿[
  {
    "label": "001",
    "attribute": "0x0000002600000000",
    "text": "{{fun_0014003C arg=\"\"}}"
  },
  {
    "label": "001_01",
    "attribute": "0x0000002600000000",
    "text": "{{anim id=\"Smiling\" target=\"actor\" targetSpec=\"\"}}ボクね、{{delay20}}きのうの　クリスマスイブに{{delay20}}\n{{ruby charSpan=\"1\" value=\"まえ\"}}前からおねがいしてた　プレゼントを{{delay8}}\nサンタさんから　もらったんだよぉ{{pageBreak}}{{anim id=\"Explain\" target=\"actor\" targetSpec=\"\"}}ボクのおねがいが　サンタさんにとどいてるか{{delay8}}\nずっと　シンパイだったけど、{{delay20}}\n{{anim id=\"Greeting\" target=\"actor\" targetSpec=\"\"}}ちゃんと　{{ruby charSpan=\"1\" value=\"き\"}}聞いてくれてたんだねぇ、{{string value=\"6\"}}"
  },
  {
    "label": "001_02",
    "attribute": "0x0000002600000000",
    "text": "サンタさんからのプレゼントが\nうれしすぎて、{{delay20}}{{anim id=\"ShyBoy\" target=\"actor\" targetSpec=\"\"}}ゆうべは　なかなか\nねられなかったよぉ～{{pageBreak}}{{anim id=\"AbsentMindedness\" target=\"actor\" targetSpec=\"\"}}うふふ、{{delay20}}ほしかった　あのプレゼント{{string value=\"...\"}}{{delay frames=\"40\"}}\n{{anim id=\"EmotEnd\" target=\"actor\" targetSpec=\"\"}}なかみが　わかったときのこと　{{ruby charSpan=\"1\" value=\"おも\"}}思い{{ruby charSpan=\"1\" value=\"だ\"}}出すと{{delay20}}\n{{anim id=\"HappyDance\" target=\"actor\" targetSpec=\"\"}}お{{ruby charSpan=\"1\" value=\"かお\"}}顔が　ニヤケてきちゃうんだぁ、{{string value=\"6\"}}"
  },
  {
    "label": "002",
    "attribute": "0x0000002600000000",
    "text": "{{fun_0014003C arg=\"\"}}"
  },
  {
    "label": "002_01",
    "attribute": "0x0000002600000000",
    "text": "{{anim id=\"Smiling\" target=\"actor\" targetSpec=\"\"}}{{string value=\"4\"}}、{{delay20}}\nきのうは　プレゼントこうかん　してくれて{{delay8}}\nどうも　ありがとう～{{pageBreak}}{{anim id=\"EmotEnd\" target=\"actor\" targetSpec=\"\"}}もらったプレゼントも　うれしかったし、{{delay20}}\n{{anim id=\"Hello\" target=\"actor\" targetSpec=\"\"}}{{ruby charSpan=\"2\" value=\"らいねん\"}}来年も　また　やろうねぇ！　{{string value=\"6\"}}"
  },
  {
    "label": "002_02",
    "attribute": "0x0000002600000000",
    "text": "{{anim id=\"Hesitate\" target=\"actor\" targetSpec=\"\"}}{{string value=\"4\"}}、{{delay20}}\nきのうは　プレゼント　ありがとうねぇ{{delay frames=\"40\"}}\n{{anim id=\"BigSmile\" target=\"actor\" targetSpec=\"\"}}とっても　うれしかったよぉ！{{pageBreak}}{{anim id=\"Nodding\" target=\"actor\" targetSpec=\"\"}}また{{ruby charSpan=\"2\" value=\"らいねん\"}}来年も　プレゼントこうかん　したいし、{{delay20}}\n{{ruby charSpan=\"1\" value=\"いま\"}}今のうちから{{delay8}}　{{anim id=\"Greeting\" target=\"actor\" targetSpec=\"\"}}つぎのプレゼントを\n{{ruby charSpan=\"1\" value=\"かんが\"}}考えておかなくっちゃ～、{{string value=\"6\"}}"
  },
  {
    "label": "003",
    "attribute": "0x0000002600000000",
    "text": "{{fun_0014003C arg=\"\"}}"
  },
  {
    "label": "003_01",
    "attribute": "0x0000002600000000",
    "text": "{{anim id=\"HappyFlower\" target=\"actor\" targetSpec=\"\"}}きのうは{{delay8}}　サンタさんからも{{delay8}}\n{{string value=\"4\"}}からも{{delay8}}\nプレゼントもらえて　うれしかったなぁ～！{{pageBreak}}{{anim id=\"Explain\" target=\"actor\" targetSpec=\"\"}}やっぱり　つつんであるプレゼントって{{delay20}}\nあけるときの　お{{ruby charSpan=\"1\" value=\"たの\"}}楽しみもあるからか{{delay20}}\n{{anim id=\"Love\" target=\"actor\" targetSpec=\"\"}}なんばいも　うれしいんだよねぇ、{{string value=\"6\"}}"
  },
  {
    "label": "003_02",
    "attribute": "0x0000002600000000",
    "text": "{{anim id=\"Smiling\" target=\"actor\" targetSpec=\"\"}}{{string value=\"4\"}}、{{delay20}}\nきのうは　プレゼントを　ありがとうねぇ{{delay frames=\"40\"}}\nボク、{{delay8}}とっても　うれしかったぁ～！{{pageBreak}}{{anim id=\"HappyDance\" target=\"actor\" targetSpec=\"\"}}しかも、{{delay8}}サンタさんからも　もらえちゃったし{{delay20}}\n{{ruby charSpan=\"2\" value=\"ことし\"}}今年の　クリスマスイブは\nもう　ウキウキだったよぉ、{{string value=\"6\"}}"
  },
  {
    "label": "004",
    "attribute": "0x0000002600000000",
    "text": "{{fun_0014003C arg=\"\"}}"
  },
  {
    "label": "004_01",
    "attribute": "0x0000002600000000",
    "text": "{{ruby charSpan=\"2\" value=\"きょう\"}}今日は　トクベツに{{delay20}}\nボクの　クリスマスのすごし{{ruby charSpan=\"1\" value=\"かた\"}}方を{{delay8}}\n{{anim id=\"SmugFace\" target=\"actor\" targetSpec=\"\"}}キミに　{{ruby charSpan=\"1\" value=\"おし\"}}教えてあげちゃうよぉ！{{pageBreak}}{{anim id=\"Explain\" target=\"actor\" targetSpec=\"\"}}まず　おさんぽして～、{{delay8}}ごはん{{ruby charSpan=\"1\" value=\"た\"}}食べて～、{{delay20}}\n{{anim id=\"AbsentMindedness\" target=\"actor\" targetSpec=\"\"}}おひるねして、{{delay8}}おもちゃであそんで{{string value=\"...\"}}{{delay frames=\"40\"}}\n{{anim id=\"Laughing\" target=\"actor\" targetSpec=\"\"}}って　いつもと　かわらないやぁ、{{string value=\"6\"}}"
  },
  {
    "label": "004_02",
    "attribute": "0x0000002600000000",
    "text": "{{anim id=\"Explain\" target=\"actor\" targetSpec=\"\"}}きのうは　クリスマスイブだったから{{delay8}}\nサンタさんを　おもてなし　しようと{{ruby charSpan=\"1\" value=\"おも\"}}思って{{delay20}}\n{{anim id=\"EmotEnd\" target=\"actor\" targetSpec=\"\"}}ボク{{delay8}}　お{{ruby charSpan=\"1\" value=\"うち\"}}家で　まってたんだけど{{string value=\"...\"}}{{pageBreak}}{{anim id=\"Negative\" target=\"actor\" targetSpec=\"\"}}けっきょく　{{ruby charSpan=\"1\" value=\"あ\"}}会えなかったんだぁ～{{delay frames=\"40\"}}\n{{anim id=\"ShyBoy\" target=\"actor\" targetSpec=\"\"}}きっと、ボクが　ねちゃってたから{{delay20}}\nこっそり　{{ruby charSpan=\"1\" value=\"かえ\"}}帰ったんだろうねぇ、{{string value=\"6\"}}"
  }
]