﻿[
  {
    "label": "001",
    "attribute": "0x0000000000000000",
    "text": "{{fun_0014003C arg=\"\"}}"
  },
  {
    "label": "001_01",
    "attribute": "0x0000000000000000",
    "text": "{{anim id=\"Nodding\" target=\"actor\" targetSpec=\"\"}}The highlight of any Turkey Day is\nthe standing dinner, of course.{{pageBreak}}{{anim id=\"AbsentMindedness\" target=\"actor\" targetSpec=\"\"}}Until then, we'll just be standing\nhere, thinking about gourmet food\nbut not eating anything{{string value=\"...\"}}{{pageBreak}}{{anim id=\"Frantic\" target=\"actor\" targetSpec=\"\"}}{{size value=\"75\"}}I don't know if I'm gonna make it!{{size value=\"100\"}}"
  },
  {
    "label": "001_02",
    "attribute": "0x0000000000000000",
    "text": "{{anim id=\"AbsentMindedness\" target=\"actor\" targetSpec=\"\"}}Ahhh{{string value=\"...\"}}you can tell it's Turkey Day\nby taking a deep breath. {{delay20}}{{anim id=\"Love\" target=\"actor\" targetSpec=\"\"}}I can smell\nhome cooking across the island!"
  },
  {
    "label": "001_03",
    "attribute": "0x0000000000000000",
    "text": "{{anim id=\"Explain\" target=\"actor\" targetSpec=\"\"}}I fully intend to learn everything I\ncan from our celebrity chef visitor\ntoday, {{string value=\"Catchphrase\"}}.{{pageBreak}}{{anim id=\"AbsentMindedness\" target=\"actor\" targetSpec=\"\"}}Like, what are the trendiest\ningredients right now?{{delay20}} Who's the\nmost famous client he's cooked for?{{pageBreak}}{{anim id=\"Serious\" target=\"actor\" targetSpec=\"\"}}You know, just basic cooking stuff."
  },
  {
    "label": "002",
    "attribute": "0x0000000000000000",
    "text": "{{fun_0014003C arg=\"\"}}"
  },
  {
    "label": "002_01",
    "attribute": "0x0000000000000000",
    "text": "{{anim id=\"Eh\" target=\"actor\" targetSpec=\"\"}}Oh, are you {{color id=\"3\"}}Franklin{{color id=\"65535\"}}'s sous-chef\ntoday? {{delay frames=\"40\"}}{{anim id=\"SmugFace\" target=\"actor\" targetSpec=\"\"}}That's French for \"chef who\nactually does all the work.\"{{pageBreak}}{{anim id=\"Thinking\" target=\"actor\" targetSpec=\"\"}}Speaking of{{string value=\"...\"}}{{delay frames=\"40\"}}{{anim id=\"IdeaBulb\" target=\"actor\" targetSpec=\"\"}}you might want to\ncheck in with some of the folks who\nare cooking at home.{{pageBreak}}{{anim id=\"Nodding\" target=\"actor\" targetSpec=\"\"}}I bet they have all kinds of gourmet\ningredients to share with you{{string value=\"...\"}}"
  },
  {
    "label": "002_02",
    "attribute": "0x0000000000000000",
    "text": "{{anim id=\"Smiling\" target=\"actor\" targetSpec=\"\"}}I hear you'll be helping {{color id=\"3\"}}Franklin{{color id=\"65535\"}}\nwhip up some of his world-famous\ndishes today, {{string value=\"Catchphrase\"}}!{{pageBreak}}{{anim id=\"AbsentMindedness\" target=\"actor\" targetSpec=\"\"}}Oh, I can just imagine the sublime\nflavors and mouthfeels you two will\nbe working on{{string value=\"...\"}}{{delay20}} {{anim id=\"BigSmile\" target=\"actor\" targetSpec=\"\"}}Save some for me!"
  },
  {
    "label": "003",
    "attribute": "0x0000000000000000",
    "text": "{{fun_0014003C arg=\"\"}}"
  },
  {
    "label": "003_01",
    "attribute": "0x0000000000000000",
    "text": "{{anim id=\"Love\" target=\"actor\" targetSpec=\"\"}}I'm LOVING what I'm smelling so\nfar, but are there even more dishes\non their way?{{pageBreak}}{{anim id=\"HappyFlower\" target=\"actor\" targetSpec=\"\"}}Ooh, it's like being at a film festival,\nbut for food."
  },
  {
    "label": "003_02",
    "attribute": "0x0000000000000000",
    "text": "{{anim id=\"Smiling\" target=\"actor\" targetSpec=\"\"}}This is really amazing, right? {{delay20}}That we\ncan have world-class dining with\nlocal {{string value=\"OtherIslandName\"}} ingredients?{{pageBreak}}{{anim id=\"Nodding\" target=\"actor\" targetSpec=\"\"}}I guess with a celebrity chef,\nanything is possible. {{delay20}}Ah, celebrities.{{delay20}}\n{{anim id=\"AbsentMindedness\" target=\"actor\" targetSpec=\"\"}}They really are better than us."
  },
  {
    "label": "004",
    "attribute": "0x0000000000000000",
    "text": "{{fun_0014003C arg=\"\"}}"
  },
  {
    "label": "004_01",
    "attribute": "0x0000000000000000",
    "text": "{{anim id=\"HappyDance\" target=\"actor\" targetSpec=\"\"}}{{capitalizeNextLetter}}{{string value=\"Catchphrase\"}}, is that a star-studded\nbuffet or what? {{delay20}}It almost looks\nTOO good!"
  },
  {
    "label": "004_02",
    "attribute": "0x0000000000000000",
    "text": "{{anim id=\"Shaking\" target=\"actor\" targetSpec=\"\"}}Someone hold me. {{delay20}}I'm going weak\nin the knees at the sight of this\nmuch incredible food.{{pageBreak}}{{anim id=\"Nodding\" target=\"actor\" targetSpec=\"\"}}And it's all made from locally-grown\ningredients. {{delay20}}That is SO trendy right\nnow, {{string value=\"Catchphrase\"}}!"
  },
  {
    "label": "004_03",
    "attribute": "0x0000000000000000",
    "text": "{{anim id=\"BigSmile\" target=\"actor\" targetSpec=\"\"}}Bravo to the chef! {{delay20}}And to everyone\nelse who helped.{{delay20}} It all looks so good\nI could just{{string value=\"...\"}}{{anim id=\"Dance\" target=\"actor\" targetSpec=\"\"}}DANCE!"
  },
  {
    "label": "005",
    "attribute": "0x0000000000000000",
    "text": "{{fun_0014003C arg=\"\"}}"
  },
  {
    "label": "005_01",
    "attribute": "0x0000000000000000",
    "text": "{{anim id=\"Serious\" target=\"actor\" targetSpec=\"\"}}There's so much to consider when\npreparing gourmet food. {{delay frames=\"40\"}}{{anim id=\"Thinking\" target=\"actor\" targetSpec=\"\"}}The plating,\nthe presentation, the sourcing{{string value=\"...\"}}{{pageBreak}}{{anim id=\"EmotEnd\" target=\"actor\" targetSpec=\"\"}}{{string value=\"...\"}}{{delay20}}{{anim id=\"OhGeez\" target=\"actor\" targetSpec=\"\"}}And the taste, I guess."
  },
  {
    "label": "005_02",
    "attribute": "0x0000000000000000",
    "text": "{{anim id=\"Worried\" target=\"actor\" targetSpec=\"\"}}I'm not complaining, but I also\nwouldn't complain if there was\nmore food, {{string value=\"Catchphrase\"}}."
  },
  {
    "label": "005_03",
    "attribute": "0x0000000000000000",
    "text": "{{anim id=\"Explain\" target=\"actor\" targetSpec=\"\"}}You can taste the difference when a\nworld-class chef cooks something,\ntrust me.{{pageBreak}}{{anim id=\"SmugFace\" target=\"actor\" targetSpec=\"\"}}I'd pay extra just to have a real pro\nmicrowave some {{randomFood}} for\nme, {{string value=\"Catchphrase\"}}."
  },
  {
    "label": "006",
    "attribute": "0x0000000000000000",
    "text": "{{fun_0014003C arg=\"\"}}"
  },
  {
    "label": "006_01",
    "attribute": "0x0000000000000000",
    "text": "{{anim id=\"BigSmile\" target=\"actor\" targetSpec=\"\"}}My compliments to the chef!{{delay frames=\"40\"}} {{anim id=\"QuestionMark\" target=\"actor\" targetSpec=\"\"}}Would\nsomeone call him over here so I can\nthank him personally?{{pageBreak}}{{anim id=\"Shocked\" target=\"actor\" targetSpec=\"\"}}No?{{delay frames=\"40\"}} Well, I'll just shout it out.{{delay20}}\n{{anim id=\"Cheering\" target=\"actor\" targetSpec=\"\"}}IT WAS ALL SO GOOD!{{delay20}} THANK YOU!"
  },
  {
    "label": "006_02",
    "attribute": "0x0000000000000000",
    "text": "{{anim id=\"AbsentMindedness\" target=\"actor\" targetSpec=\"\"}}Ahh, the nosefeel of all that food\nis intoxicating, {{string value=\"Catchphrase\"}}.{{delay20}}{{anim id=\"Nodding\" target=\"actor\" targetSpec=\"\"}} I can't\nwait to experience its mouthfeel.\n{{anim id=\"Love\" target=\"actor\" targetSpec=\"\"}}Not to mention its eyefeel.{{delay20}} {{anim id=\"Eh\" target=\"actor\" targetSpec=\"\"}}Ooh!{{delay20}}\nAnd its feelfeel.{{i10_4}} {{anim id=\"Negative\" target=\"actor\" targetSpec=\"\"}}Not sure I like the\nlookfeel you're giving me now{{string value=\"...\"}}"
  },
  {
    "label": "006_03",
    "attribute": "0x0000000000000000",
    "text": "{{anim id=\"WrySmile\" target=\"actor\" targetSpec=\"\"}}You know what I like to say at the\nend of a fantastic meal? {{delay frames=\"40\"}}{{anim id=\"Love\" target=\"actor\" targetSpec=\"\"}}Trés bueno,\nmy compliments to the chef!{{pageBreak}}{{anim id=\"Thinking\" target=\"actor\" targetSpec=\"\"}}I don't know what it means, actually,\nbut it's a kind of a gourmet \"word\nsalad,\" I'm told."
  },
  {
    "label": "007",
    "attribute": "0x0000000000000000",
    "text": "{{fun_0014003C arg=\"\"}}"
  },
  {
    "label": "007_01",
    "attribute": "0x0000000000000000",
    "text": "{{anim id=\"AbsentMindedness\" target=\"actor\" targetSpec=\"\"}}Mmm{{string value=\"...\"}}the {{fun_0019008C arg=\"0x01CD\"}} smells\nabsolutely delicioso!{{pageBreak}}{{anim id=\"BigSmile\" target=\"actor\" targetSpec=\"\"}}Thank you for providing the chef\nwith the {{fun_001A008C arg=\"0x0000\"}} he\nneeded to make it happen."
  },
  {
    "label": "007_02",
    "attribute": "0x0000000000000000",
    "text": "{{anim id=\"AbsentMindedness\" target=\"actor\" targetSpec=\"\"}}I'm being drawn in by an invisible\npower{{string value=\"...\"}}and it smells exactly like\n{{fun_0019008C arg=\"0x01CD\"}}!{{pageBreak}}{{anim id=\"Eh\" target=\"actor\" targetSpec=\"\"}}And you provided the fresh\n{{fun_001A008C arg=\"0x0000\"}} that the chef\nused, right?{{pageBreak}}{{anim id=\"Nodding\" target=\"actor\" targetSpec=\"\"}}Well, my compliments to you and\nthe chef, {{string value=\"Catchphrase\"}}!"
  },
  {
    "label": "008",
    "attribute": "0x0000000000000000",
    "text": "{{fun_0014003C arg=\"\"}}"
  },
  {
    "label": "008_01",
    "attribute": "0x0000000000000000",
    "text": "{{anim id=\"AbsentMindedness\" target=\"actor\" targetSpec=\"\"}}Mmm{{string value=\"...\"}}the {{fun_0019008C arg=\"0x01CD\"}} smells\nabsolutely delicioso!{{pageBreak}}{{anim id=\"BigSmile\" target=\"actor\" targetSpec=\"\"}}Thank you for providing the chef\nwith the {{color id=\"1\"}}manila clams{{color id=\"65535\"}} he needed\nto make it happen."
  },
  {
    "label": "008_02",
    "attribute": "0x0000000000000000",
    "text": "{{anim id=\"AbsentMindedness\" target=\"actor\" targetSpec=\"\"}}I'm being drawn in by an invisible\npower{{string value=\"...\"}}and it smells exactly like\n{{fun_0019008C arg=\"0x01CD\"}}!{{pageBreak}}{{anim id=\"Eh\" target=\"actor\" targetSpec=\"\"}}And you provided the fresh {{color id=\"1\"}}manila\nclams{{color id=\"65535\"}} that the chef used, right?{{pageBreak}}{{anim id=\"Nodding\" target=\"actor\" targetSpec=\"\"}}Well, my compliments to you and\nthe chef, {{string value=\"Catchphrase\"}}!"
  },
  {
    "label": "1001",
    "attribute": "0x0000000000000000",
    "text": "{{fun_0014003C arg=\"\"}}"
  },
  {
    "label": "1001_01",
    "attribute": "0x0000000000000000",
    "text": "{{anim id=\"EmotEnd\" target=\"actor\" targetSpec=\"\"}}It's Turkey Day! {{delay frames=\"40\"}}{{anim id=\"EmotEnd\" target=\"actor\" targetSpec=\"\"}}And you know what\nthat means, hm?{{delay20}} {{anim id=\"Cheering\" target=\"actor\" targetSpec=\"\"}}{{string value=\"VillagerName\"}}\nis cooking!"
  },
  {
    "label": "1001_02",
    "attribute": "0x0000000000000000",
    "text": "{{anim id=\"Nodding\" target=\"actor\" targetSpec=\"\"}}Turkey Day is all about sharing great\nfood with friends and family.{{pageBreak}}{{anim id=\"WrySmile\" target=\"actor\" targetSpec=\"\"}}And maybe a little bit of showing\noff in the kitchen{{string value=\"...\"}}{{delay20}}{{anim id=\"Laughing\" target=\"actor\" targetSpec=\"\"}} Ha HA!"
  },
  {
    "label": "1002",
    "attribute": "0x0000000000000000",
    "text": "{{fun_0014003C arg=\"\"}}"
  },
  {
    "label": "1002_01",
    "attribute": "0x0000000000000000",
    "text": "{{anim id=\"Thinking\" target=\"actor\" targetSpec=\"\"}}Now, I'm all set to chef up something\nincredible, but there's one ingredient\nI'm missing{{string value=\"...\"}}"
  },
  {
    "label": "1002_02",
    "attribute": "0x0000000000000000",
    "text": "{{anim id=\"ShyBoy\" target=\"actor\" targetSpec=\"\"}}I don't always follow a recipe, but\nthere is a certain special ingredient\nI need{{string value=\"...\"}}"
  },
  {
    "label": "1003",
    "attribute": "0x0000000000000000",
    "text": "{{anim id=\"Thinking\" target=\"actor\" targetSpec=\"\"}}Hrm{{string value=\"...\"}}{{delay frames=\"40\"}} {{anim id=\"IdeaBulb\" target=\"actor\" targetSpec=\"\"}}Ah!{{delay20}} I remembered. {{delay20}}I need\nsome {{fun_001A008C arg=\"0x0000\"}}!{{pageBreak}}{{anim id=\"QuestionMark\" target=\"actor\" targetSpec=\"\"}}Any chance you could pick some\nup for me?{{delay frames=\"40\"}} {{anim id=\"Nodding\" target=\"actor\" targetSpec=\"\"}}We can trade!{{delay20}} I'll give\nyou some of what I have."
  },
  {
    "label": "1004",
    "attribute": "0x0000020000000000",
    "text": "{{anim id=\"Eh\" target=\"actor\" targetSpec=\"\"}}Hold on{{string value=\"...\"}}{{delay20}} {{anim id=\"Shocked\" target=\"actor\" targetSpec=\"\"}}You have the exact thing\nI need. {{delay20}}{{capitalizeNextLetter}}{{fun_001A008C arg=\"0x0000\"}}!{{pageBreak}}{{anim id=\"BigSmile\" target=\"actor\" targetSpec=\"\"}}This is fate, {{string value=\"Catchphrase\"}}. {{delay frames=\"40\"}}{{anim id=\"QuestionMark\" target=\"actor\" targetSpec=\"\"}}Will you\nconsider trading a little for\none of my ingredients?"
  },
  {
    "label": "1004_a",
    "attribute": "0x0000000000000000",
    "text": "Sure!"
  },
  {
    "label": "1004_b",
    "attribute": "0x0000000000000000",
    "text": "Not right now."
  },
  {
    "label": "1005",
    "attribute": "0x0000000000000000",
    "text": "{{anim id=\"OhGeez\" target=\"actor\" targetSpec=\"\"}}Oh, no problem. {{delay20}}Sorry to spring that\non you. {{delay20}}{{anim id=\"Scheming\" target=\"actor\" targetSpec=\"\"}}But you know, if you do find\nthat you have extra later{{string value=\"...\"}}{{pageBreak}}{{anim id=\"Nodding\" target=\"actor\" targetSpec=\"\"}}I might still be interested in trading."
  },
  {
    "label": "1011",
    "attribute": "0x0000000000000000",
    "text": "{{fun_0014003C arg=\"\"}}"
  },
  {
    "label": "1011_01",
    "attribute": "0x0000020000000000",
    "text": "{{anim id=\"Worried\" target=\"actor\" targetSpec=\"\"}}I'm actually in a tough spot. {{delay20}}I need\na bit of {{fun_001A008C arg=\"0x0000\"}} to make\nmy signature recipe."
  },
  {
    "label": "1011_01_a",
    "attribute": "0x0000000000000000",
    "text": "Here, take this!"
  },
  {
    "label": "1011_01_b",
    "attribute": "0x0000000000000000",
    "text": "Wish I could help."
  },
  {
    "label": "1011_02",
    "attribute": "0x0000020000000000",
    "text": "Wait{{string value=\"...\"}}{{anim id=\"QuestionMark\" target=\"actor\" targetSpec=\"\"}}is that the distinctly delicious\nscent of some {{fun_001A008C arg=\"0x0000\"}}\nthat I smell?{{pageBreak}}{{anim id=\"Aha\" target=\"actor\" targetSpec=\"\"}}If so, that's JUST what I need for my\nTurkey Day recipe! {{delay frames=\"40\"}}{{anim id=\"Worried\" target=\"actor\" targetSpec=\"\"}}Will you trade\nme for another ingredient?"
  },
  {
    "label": "1011_02_a",
    "attribute": "0x0000000000000000",
    "text": "Sure!"
  },
  {
    "label": "1011_02_b",
    "attribute": "0x0000000000000000",
    "text": "Sorry, not interested."
  },
  {
    "label": "1012",
    "attribute": "0x0000000000000000",
    "text": "{{fun_0014003C arg=\"\"}}"
  },
  {
    "label": "1012_01",
    "attribute": "0x0000000000000000",
    "text": "{{anim id=\"Nodding\" target=\"actor\" targetSpec=\"\"}}OK, no problem.{{delay20}} But if you DO find\nyourself with extra, you know where\nto find me if you want to trade."
  },
  {
    "label": "1012_02",
    "attribute": "0x0000000000000000",
    "text": "{{anim id=\"Smiling\" target=\"actor\" targetSpec=\"\"}}That's cool. {{delay frames=\"40\"}}{{anim id=\"Nodding\" target=\"actor\" targetSpec=\"\"}}Just let me know if you\nchange your mind, and I'm sure we\ncan work something out."
  },
  {
    "label": "1013",
    "attribute": "0x0000000000000000",
    "text": "{{anim id=\"Pardon\" target=\"actor\" targetSpec=\"\"}}Last-second change of heart, huh?{{delay frames=\"40\"}}\n{{anim id=\"Laughing\" target=\"actor\" targetSpec=\"\"}}Happens to me all the time."
  },
  {
    "label": "1014",
    "attribute": "0x0000000000000000",
    "text": "{{anim id=\"Worried\" target=\"actor\" targetSpec=\"\"}}Oh, uh{{string value=\"...\"}} That's not exactly what\nI was looking for. {{delay20}}I needed some\n{{fun_001A008C arg=\"0x0000\"}}, remember?{{pageBreak}}{{anim id=\"Nodding\" target=\"actor\" targetSpec=\"\"}}We can try again if you find what\nI need, {{string value=\"Catchphrase\"}}."
  },
  {
    "label": "1015",
    "attribute": "0x0000000000000000",
    "text": "{{anim id=\"BigSmile\" target=\"actor\" targetSpec=\"\"}}Merci beacoup, {{string value=\"NickName\"}}!{{pageBreak}}{{anim id=\"HappyFlower\" target=\"actor\" targetSpec=\"\"}}Turkey Day just got a little bit more\ndelicious, thanks to you.{{pageBreak}}{{anim id=\"Hello\" target=\"actor\" targetSpec=\"\"}}Here, see if you can use this at all.{{delay20}}\nIt's some {{fun_001A008C arg=\"0x0100\"}}!"
  },
  {
    "label": "1016",
    "attribute": "0x0000000000000000",
    "text": "{{anim id=\"Serious\" target=\"actor\" targetSpec=\"\"}}Last but not least, I've got something\neven more valuable than a secret\ningredient for you{{string value=\"...\"}}{{delay20}} {{anim id=\"BigSmile\" target=\"actor\" targetSpec=\"\"}}A cooking tip!"
  },
  {
    "label": "1021",
    "attribute": "0x0000000000000000",
    "text": "{{anim id=\"Hello\" target=\"actor\" targetSpec=\"\"}}OK, so when you're making a dish\nlike {{wordInfo gender=\"0\" indefArticle=\"4\" defArticle=\"3\"}}clam chowder, obviously you're\ngonna put manila clams in it{{string value=\"...\"}}{{pageBreak}}{{anim id=\"Nodding\" target=\"actor\" targetSpec=\"\"}}But if you wanna go to the next\nlevel{{string value=\"...\"}}{{delay20}}{{anim id=\"Serious\" target=\"actor\" targetSpec=\"\"}}the five-star level{{string value=\"...\"}}{{delay frames=\"40\"}}{{anim id=\"IdeaBulb\" target=\"actor\" targetSpec=\"\"}}try adding\na {{color id=\"1\"}}scallop{{color id=\"65535\"}}. {{delay20}}Trust me!"
  },
  {
    "label": "1022",
    "attribute": "0x0000000000000000",
    "text": "{{anim id=\"Explain\" target=\"actor\" targetSpec=\"\"}}So for a dish like {{wordInfo gender=\"0\" indefArticle=\"4\" defArticle=\"3\"}}clam chowder,\nit gets a lot of richness from the\nmanila clams you use.{{pageBreak}}{{anim id=\"WrySmile\" target=\"actor\" targetSpec=\"\"}}A lot of richness, but not ALL of it!{{delay frames=\"40\"}}\n{{anim id=\"Scheming\" target=\"actor\" targetSpec=\"\"}}For the richest clam chowder ever,\ntry adding {{color id=\"1\"}}a certain bivalve{{color id=\"65535\"}}{{string value=\"...\"}}{{pageBreak}}I've even heard it's a clam that's\n{{color id=\"1\"}}favored by sea stars{{color id=\"65535\"}}.{{delay frames=\"40\"}} {{anim id=\"Pardon\" target=\"actor\" targetSpec=\"\"}}The ocean has\nits own celebrities! No one told me!"
  },
  {
    "label": "1023",
    "attribute": "0x0000000000000000",
    "text": "{{anim id=\"Explain\" target=\"actor\" targetSpec=\"\"}}So when you're making {{wordInfo gender=\"0\" indefArticle=\"4\" defArticle=\"3\"}}pumpkin pie,\nyou'd use pumpkin, right? {{delay frames=\"40\"}}{{anim id=\"Laughing\" target=\"actor\" targetSpec=\"\"}}Ha HA!{{delay20}}\nThat'd be your first mistake.{{pageBreak}}{{anim id=\"OhGeez\" target=\"actor\" targetSpec=\"\"}}You can't just use one pumpkin.{{delay20}} {{anim id=\"Nodding\" target=\"actor\" targetSpec=\"\"}}You\ngotta use {{color id=\"1\"}}all the types {{color id=\"65535\"}}of pumpkin\nif you want a designer pie."
  },
  {
    "label": "1024",
    "attribute": "0x0000000000000000",
    "text": "{{anim id=\"Explain\" target=\"actor\" targetSpec=\"\"}}Making {{wordInfo gender=\"0\" indefArticle=\"4\" defArticle=\"3\"}}pumpkin pie is easy, right?{{delay20}}\n{{anim id=\"OhGeez\" target=\"actor\" targetSpec=\"\"}}You got a pumpkin, you cook a little,\nand{{string value=\"...\"}}{{string value=\"Catchphrase\"}}!{{delay frames=\"40\"}}{{anim id=\"EmotEnd\" target=\"actor\" targetSpec=\"\"}} You got a pie.{{pageBreak}}{{anim id=\"WrySmile\" target=\"actor\" targetSpec=\"\"}}But if you want a signature\n{{string value=\"VillagerName\"}} pie, try using {{color id=\"1\"}}ALL\nof the colors{{color id=\"65535\"}} of pumpkin!"
  },
  {
    "label": "1025",
    "attribute": "0x0000000000000000",
    "text": "{{anim id=\"FaintSmile\" target=\"actor\" targetSpec=\"\"}}You can make {{wordInfo gender=\"0\" indefArticle=\"4\" defArticle=\"3\"}}gratin out of almost\nanything and it's gonna taste pretty\ngood, {{string value=\"Catchphrase\"}}.{{pageBreak}}{{anim id=\"Silent\" target=\"actor\" targetSpec=\"\"}}But if you throw a little {{color id=\"1\"}}Dungeness\ncrab {{color id=\"65535\"}}in there?{{delay frames=\"40\"}} {{anim id=\"EmotEnd\" target=\"actor\" targetSpec=\"\"}}MWAH. {{delay20}}Chef's kiss."
  },
  {
    "label": "1026",
    "attribute": "0x0000000000000000",
    "text": "{{anim id=\"OhGeez\" target=\"actor\" targetSpec=\"\"}}You could make a {{wordInfo gender=\"0\" indefArticle=\"4\" defArticle=\"3\"}}gratin out of\n{{wordArticle}}{{randomObj}}, and it'd taste\npretty OK. {{delay frames=\"40\"}}{{anim id=\"Frantic\" target=\"actor\" targetSpec=\"\"}}Don't actually try that!{{pageBreak}}{{anim id=\"Grin\" target=\"actor\" targetSpec=\"\"}}But if you want to make some VIP-\nlevel {{wordInfo gender=\"0\" indefArticle=\"4\" defArticle=\"3\"}}gratin, try adding a {{color id=\"1\"}}certain\ntype of crab{{color id=\"65535\"}}, {{string value=\"Catchphrase\"}}{{string value=\"...\"}}{{pageBreak}}{{anim id=\"EmotEnd\" target=\"actor\" targetSpec=\"\"}}I heard this certain crab also has a\nflair for the dramatic{{string value=\"...\"}}{{delay40}} {{color id=\"1\"}}Dun {{delay20}}dun {{delay20}}dun{{color id=\"65535\"}}!{{delay40}}\n{{anim id=\"FaintSmile\" target=\"actor\" targetSpec=\"\"}}I like its style!"
  },
  {
    "label": "1027",
    "attribute": "0x0000000000000000",
    "text": "{{anim id=\"AbsentMindedness\" target=\"actor\" targetSpec=\"\"}}If you can make a delicate meunière,{{delay20}}\n{{anim id=\"Love\" target=\"actor\" targetSpec=\"\"}}resplendent with butter and herbs{{string value=\"...\"}}{{pageBreak}}{{anim id=\"Pardon\" target=\"actor\" targetSpec=\"\"}}Sorry—I lost myself for a moment.{{delay frames=\"40\"}}\n{{anim id=\"Nodding\" target=\"actor\" targetSpec=\"\"}}Anyway, {{color id=\"1\"}}barred knifejaw {{color id=\"65535\"}}makes\n{{wordInfo gender=\"0\" indefArticle=\"4\" defArticle=\"3\"}}meunière really sharp. {{delay20}}{{anim id=\"Laughing\" target=\"actor\" targetSpec=\"\"}}Ha HA!"
  },
  {
    "label": "1028",
    "attribute": "0x0000000000000000",
    "text": "{{anim id=\"Explain\" target=\"actor\" targetSpec=\"\"}}Anytime you're cooking with herbs\nand butter, you're doing pretty good.{{delay20}}\n{{anim id=\"Nodding\" target=\"actor\" targetSpec=\"\"}}So {{wordInfo gender=\"0\" indefArticle=\"4\" defArticle=\"3\"}}meunière is always a hit.{{pageBreak}}{{anim id=\"WrySmile\" target=\"actor\" targetSpec=\"\"}}But here's a pro tip. {{delay20}}Try using some\nkind of {{color id=\"1\"}}striped fish{{color id=\"65535\"}} to add more\n\"zazz.\" {{delay20}}{{anim id=\"Greeting\" target=\"actor\" targetSpec=\"\"}}You'll thank me later!"
  },
  {
    "label": "1041",
    "attribute": "0x0000000000000000",
    "text": "{{fun_0014003C arg=\"\"}}"
  },
  {
    "label": "1041_01",
    "attribute": "0x0000000000000000",
    "text": "{{anim id=\"Silent\" target=\"actor\" targetSpec=\"\"}}You know what the REAL secret\ningredient was today?{{i10_4}} {{anim id=\"BigSmile\" target=\"actor\" targetSpec=\"\"}}YOU! {{delay20}}Thanks\nfor trading with me, {{string value=\"Catchphrase\"}}!"
  },
  {
    "label": "1041_02",
    "attribute": "0x0000000000000000",
    "text": "{{anim id=\"Nodding\" target=\"actor\" targetSpec=\"\"}}I couldn't have done it without\nyou, {{string value=\"NickName\"}}.{{pageBreak}}{{anim id=\"WrySmile\" target=\"actor\" targetSpec=\"\"}}I'll dedicate at least one of my\nculinary stars in your name!"
  },
  {
    "label": "1042",
    "attribute": "0x0000000000000000",
    "text": "{{fun_0014003C arg=\"\"}}"
  },
  {
    "label": "1042_01",
    "attribute": "0x0000000000000000",
    "text": "{{anim id=\"QuestionMark\" target=\"actor\" targetSpec=\"\"}}So how did the spread look out\nthere? {{i10_4}}{{anim id=\"Frantic\" target=\"actor\" targetSpec=\"\"}}Ooh, I want to go check\nit out for myself{{string value=\"...\"}}"
  },
  {
    "label": "1042_02",
    "attribute": "0x0000000000000000",
    "text": "{{anim id=\"Sighing\" target=\"actor\" targetSpec=\"\"}}{{capitalizeNextLetter}}{{string value=\"Catchphrase\"}}, cooking is hard.{{pageBreak}}{{anim id=\"Crying\" target=\"actor\" targetSpec=\"\"}}Especially cleaning up afterward!"
  },
  {
    "label": "1042_03",
    "attribute": "0x0000000000000000",
    "text": "{{anim id=\"AbsentMindedness\" target=\"actor\" targetSpec=\"\"}}When I'm cooking something really\ninvolved, I like to think about the\nfolks eating the finished product.{{pageBreak}}{{anim id=\"Angry\" target=\"actor\" targetSpec=\"\"}}It makes me jealous, so I work\nfaster, {{string value=\"Catchphrase\"}}."
  },
  {
    "label": "1061",
    "attribute": "0x0000000000000000",
    "text": "{{fun_0014003C arg=\"\"}}"
  },
  {
    "label": "1061_01",
    "attribute": "0x0000000000000000",
    "text": "{{anim id=\"Negative\" target=\"actor\" targetSpec=\"\"}}Sorry, unless you're casting for a\nmajor motion picture, I can't stop\ncooking right now. {{delay frames=\"40\"}}{{anim id=\"Greeting\" target=\"actor\" targetSpec=\"\"}}It's Turkey Day!"
  },
  {
    "label": "1061_02",
    "attribute": "0x0000000000000000",
    "text": "{{anim id=\"Hello\" target=\"actor\" targetSpec=\"\"}}Are you here for the famous\n{{string value=\"OtherIslandName\"}} Turkey Day?{{i10_4}}\n{{anim id=\"Greeting\" target=\"actor\" targetSpec=\"\"}}Hope you have a great time!"
  },
  {
    "label": "1061_03",
    "attribute": "0x0000000000000000",
    "text": "{{anim id=\"Thinking\" target=\"actor\" targetSpec=\"\"}}OK, I've got all the ingredients and\nmy recipes in order{{string value=\"...\"}}{{delay frames=\"40\"}}{{anim id=\"Shocked\" target=\"actor\" targetSpec=\"\"}}now I actually\nhave to COOK. {{delay20}}Oh.{{pageBreak}}{{anim id=\"OhGeez\" target=\"actor\" targetSpec=\"\"}}I guess I don't really have time to\nrelax and talk, {{string value=\"Catchphrase\"}}."
  },
  {
    "label": "2004",
    "attribute": "0x0000000000000000",
    "text": "{{anim id=\"Smiling\" target=\"actor\" targetSpec=\"\"}}I hope your Turkey Day was sequel-\nworthy, {{string value=\"Catchphrase\"}}!{{delay20}}{{anim id=\"AbsentMindedness\" target=\"actor\" targetSpec=\"\"}} Ooh, I can see\nit now{{string value=\"...\"}}Turkey Day 2: More Please!"
  },
  {
    "label": "2005",
    "attribute": "0x0000000000000000",
    "text": "{{anim id=\"Love\" target=\"actor\" targetSpec=\"\"}}Ugh, Turkey Day was just so good!{{delay20}}\nWe shared in the island's bounty and\ncooked beautiful food together{{string value=\"...\"}}{{pageBreak}}{{anim id=\"AbsentMindedness\" target=\"actor\" targetSpec=\"\"}}I'd do that EVERY day{{string value=\"...\"}}{{delay20}}{{anim id=\"Negative\" target=\"actor\" targetSpec=\"\"}}if I could\nalso fit in my usual six hours of\nprestige TV watching."
  },
  {
    "label": "2006",
    "attribute": "0x0000000000000000",
    "text": "{{anim id=\"Smiling\" target=\"actor\" targetSpec=\"\"}}You know what?{{delay frames=\"40\"}}{{anim id=\"Nodding\" target=\"actor\" targetSpec=\"\"}} I learned something\ntoday, {{string value=\"Catchphrase\"}}.{{pageBreak}}{{anim id=\"Negative\" target=\"actor\" targetSpec=\"\"}}I don't just cook for the glory and\nglamour.{{delay frames=\"40\"}}{{anim id=\"AbsentMindedness\" target=\"actor\" targetSpec=\"\"}} I cook to see those smiling\nfaces chowing down on my food.{{pageBreak}}{{anim id=\"WrySmile\" target=\"actor\" targetSpec=\"\"}}And maybe, one day, a licensing\ndeal for a chain of restaurants with\nmy name on the front{{string value=\"...\"}}"
  },
  {
    "label": "2007",
    "attribute": "0x0000000000000000",
    "text": "{{anim id=\"AbsentMindedness\" target=\"actor\" targetSpec=\"\"}}Well, I had some great food, {{delay20}}I got\nbetter at cooking,{{delay20}}{{anim id=\"Nodding\" target=\"actor\" targetSpec=\"\"}} and I learned a\nTON this Turkey Day.{{pageBreak}}{{anim id=\"Negative\" target=\"actor\" targetSpec=\"\"}}But it's not all about ME. {{delay20}}{{anim id=\"Cheering\" target=\"actor\" targetSpec=\"\"}}We all did\nit. {{delay20}}There's no I in team, and you can't\nspell gustatory delight without \"us\"!"
  },
  {
    "label": "2008",
    "attribute": "0x0000000000000000",
    "text": "{{anim id=\"AbsentMindedness\" target=\"actor\" targetSpec=\"\"}}Ahh{{string value=\"...\"}}I can't believe Turkey Day is\nover already. {{delay frames=\"40\"}}{{anim id=\"Love\" target=\"actor\" targetSpec=\"\"}}Qué rico!{{pageBreak}}{{anim id=\"SmugFace\" target=\"actor\" targetSpec=\"\"}}That's Spanish for \"everything was\nso{{delay8}}o{{delay8}}o{{delay8}}o{{delay8}}o{{delay8}}o good, and I feel like I'm\nliving in a dream, {{string value=\"Catchphrase\"}}!\""
  },
  {
    "label": "2009",
    "attribute": "0x0000000000000000",
    "text": "{{anim id=\"Nodding\" target=\"actor\" targetSpec=\"\"}}That standing dinner in the plaza\nwas the best. {{delay frames=\"40\"}}{{anim id=\"IdeaBulb\" target=\"actor\" targetSpec=\"\"}}Maybe I'll eat ALL\nof my meals in the plaza{{string value=\"...\"}}{{pageBreak}}{{anim id=\"Negative\" target=\"actor\" targetSpec=\"\"}}Nah, you're right.{{delay20}} It wouldn't be as\nspecial if I did it all the time. {{delay20}}{{anim id=\"OhGeez\" target=\"actor\" targetSpec=\"\"}}And\nI'm a loud chewer, I know."
  },
  {
    "label": "2010",
    "attribute": "0x0000000000000000",
    "text": "{{anim id=\"Love\" target=\"actor\" targetSpec=\"\"}}There's nothing I can say that does\njustice to {{color id=\"3\"}}Franklin{{color id=\"65535\"}}'s cooking.{{delay20}} It\nspeaks for itself!{{pageBreak}}{{anim id=\"SmugFace\" target=\"actor\" targetSpec=\"\"}}I'd like to think my cooking speaks\nfor itself too. {{delay20}}It has an Italian accent\nand says things like {{delay8}}{{anim id=\"Cheering\" target=\"actor\" targetSpec=\"\"}}MANGIAMO!"
  }
]