﻿[
  {
    "label": "001",
    "attribute": "0x0000000000000000",
    "text": "{{anim id=\"Worried\" target=\"actor\" targetSpec=\"\"}}Scusami, non mi sentivo affatto bene\nquando sei passat{{gender2 m=\"o\" f=\"a\"}} da me prima.{{pageBreak}}{{anim id=\"Nodding\" target=\"actor\" targetSpec=\"\"}}Per fortuna, {{selection value=\"SelectedName\"}} mi ha portato una {{color id=\"1\"}}medicina{{color id=\"65535\"}} {{delay8}}{{anim id=\"BigSmile\" target=\"actor\" targetSpec=\"\"}}e adesso sto molto meglio, {{string value=\"6\"}}!"
  },
  {
    "label": "002",
    "attribute": "0x0000000000000000",
    "text": "{{anim id=\"Smiling\" target=\"actor\" targetSpec=\"\"}}Grazie per essere passat{{gender2 m=\"o\" f=\"a\"}} a vedere\ncome stavo, {{string value=\"6\"}}.{{pageBreak}}{{anim id=\"Nodding\" target=\"actor\" targetSpec=\"\"}}Sai, {{selection value=\"SelectedName\"}} mi ha portato una {{color id=\"1\"}}medicina{{color id=\"65535\"}} e ora, grazie a questa e al mio fisico invidiabile{{string value=\"...\"}}\n{{anim id=\"BigSmile\" target=\"actor\" targetSpec=\"\"}}... mi rimetterò alla grande in un\nattimo!"
  },
  {
    "label": "003",
    "attribute": "0x0000000000000000",
    "text": "Scusami per l'altro giorno, non ero\nmolto in forma. {{delay20}}{{anim id=\"Laughing\" target=\"actor\" targetSpec=\"\"}}Anzi, non ero per\nniente in forma, {{string value=\"NickName\"}}!\n{{anim id=\"HappyDance\" target=\"actor\" targetSpec=\"\"}}Però adesso mi sento molto meglio,\ngrazie alla {{color id=\"1\"}}medicina{{color id=\"65535\"}} che mi ha dato\n{{selection value=\"SelectedName\"}}."
  },
  {
    "label": "004",
    "attribute": "0x0000000000000000",
    "text": "{{anim id=\"Negative\" target=\"actor\" targetSpec=\"\"}}Scusami se non ero in formissima\nl'altro giorno. {{anim id=\"SmugFace\" target=\"actor\" targetSpec=\"\"}}Adesso mi sento\nmeglio, {{string value=\"6\"}}.\n{{anim id=\"Nodding\" target=\"actor\" targetSpec=\"\"}}La {{color id=\"1\"}}medicina{{color id=\"65535\"}} di {{selection value=\"SelectedName\"}} {{anim id=\"FaintSmile\" target=\"actor\" targetSpec=\"\"}}mi ha rimesso in sesto e ora i miei muscoli lavorano a pieno regime!"
  },
  {
    "label": "005",
    "attribute": "0x0000000000000000",
    "text": "{{anim id=\"Sighing\" target=\"actor\" targetSpec=\"\"}}Per tutti i deltoidi, {{delay8}}non mi sentivo\naffatto bene fino a poco tempo fa.{{pageBreak}}{{anim id=\"Nodding\" target=\"actor\" targetSpec=\"\"}}Però adesso sto già molto meglio,\ngrazie alla {{color id=\"1\"}}medicina{{color id=\"65535\"}} che mi ha dato\n{{selection value=\"SelectedName\"}}, {{string value=\"6\"}}!"
  },
  {
    "label": "006",
    "attribute": "0x0000000000000000",
    "text": "{{anim id=\"OhGeez\" target=\"actor\" targetSpec=\"\"}}Oggi mi sono svegliato febbricitante\ne senza alcuna voglia di fare il mio\nclassico allenamento quotidiano{{string value=\"...\"}}\n{{anim id=\"Nodding\" target=\"actor\" targetSpec=\"\"}}Però {{selection value=\"SelectedName\"}} mi ha dato una {{color id=\"1\"}}medicina{{color id=\"65535\"}} {{delay8}}{{anim id=\"HappyDance\" target=\"actor\" targetSpec=\"\"}}e ora posso allenarmi senza versare una goccia di sudore!"
  },
  {
    "label": "007",
    "attribute": "0x0000000000000000",
    "text": "{{anim id=\"ShyBoy\" target=\"actor\" targetSpec=\"\"}}Da non crederci, {{delay8}}l'altro giorno\nmi sono preso un raffreddore!{{pageBreak}}{{anim id=\"Angry\" target=\"actor\" targetSpec=\"\"}}Un piccolo raffreddore che ha avuto\nla meglio su un tipo forte e robusto\ncome me!\n{{anim id=\"Smiling\" target=\"actor\" targetSpec=\"\"}}Però ora mi sento di nuovo potente,\ngrazie alla {{color id=\"1\"}}medicina{{color id=\"65535\"}} che mi ha dato\n{{selection value=\"SelectedName\"}}."
  },
  {
    "label": "008",
    "attribute": "0x0000000000000000",
    "text": "{{anim id=\"Worried\" target=\"actor\" targetSpec=\"\"}}L'altro giorno mi sono beccato un\nraffreddore che mi ha messo KO{{string value=\"...\"}}\nMi sentivo a pezzi.\n{{anim id=\"Smiling\" target=\"actor\" targetSpec=\"\"}}Però {{selection value=\"SelectedName\"}} mi ha dato una {{color id=\"1\"}}medicina{{color id=\"65535\"}} {{delay20}}{{anim id=\"Nodding\" target=\"actor\" targetSpec=\"\"}}e mi sono rimesso in\npiedi in un lampo, {{string value=\"6\"}}."
  },
  {
    "label": "101",
    "attribute": "0x0000000000000000",
    "text": "{{anim id=\"BigSmile\" target=\"actor\" targetSpec=\"\"}}Grazie per la {{color id=\"1\"}}medicina{{color id=\"65535\"}}!{{delay20}}{{anim id=\"Greeting\" target=\"actor\" targetSpec=\"\"}} Mi hai proprio\nsollevato un grosso peso{{string value=\"...\"}} dal cuore,\n{{string value=\"6\"}}!"
  },
  {
    "label": "102",
    "attribute": "0x0000000000000000",
    "text": "{{anim id=\"HappyDance\" target=\"actor\" targetSpec=\"\"}}Adesso mi sento in formissima\ngrazie alla {{color id=\"1\"}}medicina{{color id=\"65535\"}} che mi hai dato!{{delay20}}\n{{anim id=\"EmotEnd\" target=\"actor\" targetSpec=\"\"}}È ora di tornare ad allenarsi duro!"
  },
  {
    "label": "103",
    "attribute": "0x0000000000000000",
    "text": "{{anim id=\"HappyFlower\" target=\"actor\" targetSpec=\"\"}}Grazie alla {{color id=\"1\"}}medicina{{color id=\"65535\"}} che mi hai dato,\nmi sento di nuovo in formissima!\n{{delay20}}Sei grande, {{string value=\"NickName\"}}!{{pageBreak}}{{anim id=\"EmotEnd\" target=\"actor\" targetSpec=\"\"}}Ora sarà meglio che mi rimetta al\nlavoro, {{delay20}}mi aspettano sette ore di\nflessioni sul mento, {{string value=\"6\"}}!"
  }
]