﻿[
  {
    "label": "002",
    "attribute": "0x00000000",
    "text": "{{anim id=\"Smiling\" target=\"actor\" targetSpec=\"\"}}Ons vakantiehuis is{{string value=\"...\"}} perfect!{{delay frames=\"50\"}} {{anim id=\"Nodding\" target=\"actor\" targetSpec=\"\"}}Je\nhebt je echt uit de stekels gewerkt,\n{{string value=\"PlayerName\"}}.{{anim id=\"FaintSmile\" target=\"actor\" targetSpec=\"\"}}{{pageBreak}}{{anim id=\"Explain\" target=\"actor\" targetSpec=\"\"}}Ik heb iets kleins voor je.{{delay20}} Om je te\nbedanken voor al je harde werk.{{delay frames=\"40\"}}\n{{anim id=\"Hello\" target=\"actor\" targetSpec=\"\"}}Hopelijk vind je het leuk!"
  },
  {
    "label": "002_001",
    "attribute": "0x00000000",
    "text": "{{capitalizeNextLetter}}{{wordArticle}}{{fun_0000007D arg=\"0x0000\"}}!{{delay frames=\"40\"}} {{anim id=\"BigSmile\" target=\"actor\" targetSpec=\"\"}}Precies {{fun_00130032 arg=\"0x120000CD1000640065007A0065006C0066006400650012006800650074007A0065006C006600640065001000640065007A0065006C00660064006500\"}} als wij in ons vakantiehuis hebben!"
  },
  {
    "label": "002_002",
    "attribute": "0x00000000",
    "text": "{{anim id=\"Thinking\" target=\"actor\" targetSpec=\"\"}}O, {{string value=\"PlayerName\"}}, zouden je zakken misschien te vol zijn?{{pageBreak}}{{anim id=\"FaintSmile\" target=\"actor\" targetSpec=\"\"}}Kom maar terug als je wat meer\nruimte hebt gemaakt."
  },
  {
    "label": "002_003",
    "attribute": "0x00000000",
    "text": "{{anim id=\"Greeting\" target=\"actor\" targetSpec=\"\"}}Daar ben je weer!{{delay frames=\"50\"}} {{anim id=\"EmotEnd\" target=\"actor\" targetSpec=\"\"}}Met meer plek in\nje zakken, hoop ik!{{delay20}} Kan ik je nu mijn\ncadeautje geven?{{anim id=\"FaintSmile\" target=\"actor\" targetSpec=\"\"}}"
  }
]