﻿[
  {
    "label": "001",
    "attribute": "0x00000C0100070000",
    "text": "{{anim id=\"Greeting\" target=\"actor\" targetSpec=\"\"}}おっはよ～！　{{string value=\"6\"}}{{setNpcTalkChoices chatOption=\"0\" cancelOption=\"1\"}}"
  },
  {
    "label": "002",
    "attribute": "0x00000C0100030000",
    "text": "{{anim id=\"Greeting\" target=\"actor\" targetSpec=\"\"}}こんにちわ～！　{{string value=\"6\"}}{{setNpcTalkChoices chatOption=\"0\" cancelOption=\"1\"}}"
  },
  {
    "label": "003",
    "attribute": "0x00000C0100040000",
    "text": "{{anim id=\"Greeting\" target=\"actor\" targetSpec=\"\"}}ヤッホ～！　{{string value=\"6\"}}{{setNpcTalkChoices chatOption=\"0\" cancelOption=\"1\"}}"
  },
  {
    "label": "004",
    "attribute": "0x00000C0100090000",
    "text": "{{anim id=\"Greeting\" target=\"actor\" targetSpec=\"\"}}こんばんわ～！　{{string value=\"6\"}}{{setNpcTalkChoices chatOption=\"0\" cancelOption=\"1\"}}"
  },
  {
    "label": "011",
    "attribute": "0x00000C0100000007",
    "text": "{{anim id=\"Hello\" target=\"actor\" targetSpec=\"\"}}は～い、{{delay20}}{{ruby charSpan=\"2\" value=\"げんき\"}}元気～？！　{{string value=\"6\"}}{{setNpcTalkChoices chatOption=\"0\" cancelOption=\"1\"}}"
  },
  {
    "label": "012",
    "attribute": "0x00000C0100000007",
    "text": "{{anim id=\"Greeting\" target=\"actor\" targetSpec=\"\"}}ヤッホ～！{{delay20}}　{{ruby charSpan=\"1\" value=\"たの\"}}楽しくやってる～？！　{{string value=\"6\"}}{{setNpcTalkChoices chatOption=\"0\" cancelOption=\"1\"}}"
  },
  {
    "label": "013",
    "attribute": "0x00000C0100000007",
    "text": "{{anim id=\"Greeting\" target=\"actor\" targetSpec=\"\"}}チャオ～！{{delay20}}　{{ruby charSpan=\"2\" value=\"げんき\"}}元気～？！　{{string value=\"6\"}}{{setNpcTalkChoices chatOption=\"0\" cancelOption=\"1\"}}"
  },
  {
    "label": "021",
    "attribute": "0x00000C0100000008",
    "text": "{{anim id=\"Smiling\" target=\"actor\" targetSpec=\"\"}}{{string value=\"4\"}}、{{delay8}}チャオ！{{delay40}}\n{{anim id=\"Hello\" target=\"actor\" targetSpec=\"\"}}{{ruby charSpan=\"2\" value=\"きょう\"}}今日もノッてる～？　{{string value=\"6\"}}{{setNpcTalkChoices chatOption=\"0\" cancelOption=\"1\"}}"
  },
  {
    "label": "022",
    "attribute": "0x00000C0100000008",
    "text": "あ、{{delay20}}\n{{anim id=\"BigSmile\" target=\"actor\" targetSpec=\"\"}}{{string value=\"4\"}}じゃ～ん！　{{string value=\"6\"}}{{anim id=\"EmotEnd\" target=\"actor\" targetSpec=\"\"}}{{setNpcTalkChoices chatOption=\"0\" cancelOption=\"1\"}}"
  },
  {
    "label": "023",
    "attribute": "0x00000C0100000008",
    "text": "{{anim id=\"Hello\" target=\"actor\" targetSpec=\"\"}}ヤッホ～、{{delay8}}{{string value=\"4\"}}！{{delay20}}\n{{anim id=\"FaintSmile\" target=\"actor\" targetSpec=\"\"}}{{ruby charSpan=\"2\" value=\"きょう\"}}今日も　{{ruby charSpan=\"2\" value=\"げんき\"}}元気いっぱいじゃん！　{{string value=\"6\"}}{{setNpcTalkChoices chatOption=\"0\" cancelOption=\"1\"}}"
  },
  {
    "label": "031",
    "attribute": "0x00000C0100000009",
    "text": "あっ{{delay8}}　{{anim id=\"BigSmile\" target=\"actor\" targetSpec=\"\"}}{{string value=\"4\"}}！{{delay40}}\n{{anim id=\"Greeting\" target=\"actor\" targetSpec=\"\"}}{{ruby charSpan=\"2\" value=\"きょう\"}}今日も、{{delay8}}ばっちりイケてるね！　{{string value=\"6\"}}{{setNpcTalkChoices chatOption=\"0\" cancelOption=\"1\"}}"
  },
  {
    "label": "032",
    "attribute": "0x00000C0100000009",
    "text": "{{anim id=\"Greeting\" target=\"actor\" targetSpec=\"\"}}{{string value=\"14\"}}ヤッホ～　{{delay20}}{{string value=\"4\"}}{{endTag}}！{{delay40}}\n{{anim id=\"FaintSmile\" target=\"actor\" targetSpec=\"\"}}{{ruby charSpan=\"1\" value=\"こえ\"}}声かけてくれて　サンキュー！　{{string value=\"6\"}}{{setNpcTalkChoices chatOption=\"0\" cancelOption=\"1\"}}"
  },
  {
    "label": "033",
    "attribute": "0x00000C0100000009",
    "text": "{{anim id=\"BigSmile\" target=\"actor\" targetSpec=\"\"}}わぁ、{{delay8}}{{string value=\"4\"}}だ！{{delay frames=\"30\"}}\n{{anim id=\"Hello\" target=\"actor\" targetSpec=\"\"}}ちょうど{{delay8}}　{{ruby charSpan=\"1\" value=\"あ\"}}会いたいなって{{ruby charSpan=\"1\" value=\"おも\"}}思ってたの！　{{string value=\"6\"}}{{setNpcTalkChoices chatOption=\"1\" cancelOption=\"1\"}}"
  }
]