﻿[
  {
    "label": "000_01_01",
    "attribute": "0x00000000",
    "text": "{{anim id=\"IdeaBulb\" target=\"actor\" targetSpec=\"\"}}Oh! {{delay8}}Naturalmente!"
  },
  {
    "label": "000_01_02",
    "attribute": "0x00000000",
    "text": "{{anim id=\"Shocked\" target=\"actor\" targetSpec=\"\"}}Ah, {{delay8}}sì!"
  },
  {
    "label": "000_02",
    "attribute": "0x00000000",
    "text": "{{anim id=\"Explain\" target=\"actor\" targetSpec=\"\"}}Come ha detto il signor{{color id=\"3\"}} Tom Nook{{color id=\"65535\"}},{{delay8}}\nguido una commissione d'inchiesta\nsull'{{color id=\"1\"}}immagine della nostra isola{{color id=\"65535\"}}.\n{{anim id=\"Blushing\" target=\"actor\" targetSpec=\"\"}}{{delay8}}Beh, {{delay8}}ne sono l'unica componente.{{delay20}}\n{{anim id=\"AbsentMindedness\" target=\"actor\" targetSpec=\"\"}}Ma ho sempre desiderato guidare\nuna commissione tutta mia{{string value=\"...\"}}\n{{anim id=\"Smiling\" target=\"actor\" targetSpec=\"\"}}Beh,{{delay8}} ora non ti annoierò con i\ndettagli, {{delay8}}ma se vuoi sapere qualcosa\nsulla {{color id=\"1\"}}valutazione dell'isola{{color id=\"65535\"}} sono qui."
  },
  {
    "label": "000_02_01",
    "attribute": "0x00000000",
    "text": "{{anim id=\"Explain\" target=\"actor\" targetSpec=\"\"}}Al momento{{delay8}} sto guidando un gruppo\ndi lavoro per stilare un resoconto\nsull'{{color id=\"1\"}}immagine della nostra isola{{color id=\"65535\"}}.\n{{anim id=\"Blushing\" target=\"actor\" targetSpec=\"\"}}{{delay8}}Beh, sai, {{delay8}}nel gruppo ci sono solo io.{{delay20}}\n{{anim id=\"AbsentMindedness\" target=\"actor\" targetSpec=\"\"}}Anche se mi sarebbe piaciuto un\ngruppo più consistente{{string value=\"...\"}}\n{{anim id=\"Eh\" target=\"actor\" targetSpec=\"\"}}{{delay20}}Comunque,{{delay8}}{{anim id=\"FaintSmile\" target=\"actor\" targetSpec=\"\"}} spero che ciò ci permetta\ndi avere una visione più completa\nsull'attuale sviluppo dell'isola.\n{{anim id=\"Smiling\" target=\"actor\" targetSpec=\"\"}}Non voglio annoiarti con i dettagli,{{delay20}}\nma chiedimi pure ciò che vuoi sapere\nsulla {{color id=\"1\"}}valutazione dell'isola{{color id=\"65535\"}}."
  },
  {
    "label": "000_03",
    "attribute": "0x00000000",
    "text": ""
  },
  {
    "label": "000_04",
    "attribute": "0x00000000",
    "text": "{{anim id=\"Smiling\" target=\"actor\" targetSpec=\"\"}}Desideri quindi saperne di più sulla\nvalutazione attuale dell'immagine\ndi {{string value=\"OtherIslandName\"}}?"
  },
  {
    "label": "000_05",
    "attribute": "0x00000000",
    "text": "{{anim id=\"Nodding\" target=\"actor\" targetSpec=\"\"}}Ecco qua!{{delay20}} {{anim id=\"Smiling\" target=\"actor\" targetSpec=\"\"}}Ricorda che puoi chiedermi\nquando vuoi le ultime notizie sulla\nvalutazione dell'immagine dell'isola."
  },
  {
    "label": "001_01",
    "attribute": "0x00000000",
    "text": "{{anim id=\"Smiling\" target=\"actor\" targetSpec=\"\"}}Gli intervistati ritengono che ci siano\nancora margini di miglioramento{{string value=\"...\"}}"
  },
  {
    "label": "001_02",
    "attribute": "0x00000000",
    "text": "{{anim id=\"BigSmile\" target=\"actor\" targetSpec=\"\"}}In giro si parla molto bene della\nnostra isola.{{delay20}} {{anim id=\"Clapping\" target=\"actor\" targetSpec=\"\"}}Sta iniziando a farsi\nriconoscere!"
  },
  {
    "label": "001_03",
    "attribute": "0x00000000",
    "text": "{{anim id=\"HappyDance\" target=\"actor\" targetSpec=\"\"}}Vantiamo una solida reputazione\ne nelle pause caffè si parla spesso\ndi noi!"
  },
  {
    "label": "001_04",
    "attribute": "0x00000000",
    "text": "{{anim id=\"Eh\" target=\"actor\" targetSpec=\"\"}}Grandi notizie! {{delay20}}{{anim id=\"HappyFlower\" target=\"actor\" targetSpec=\"\"}}Molti intervistati ci\nhanno inserito nelle loro liste di posti\nda visitare assolutamente nella vita!"
  },
  {
    "label": "001_05",
    "attribute": "0x00000000",
    "text": "{{anim id=\"Love\" target=\"actor\" targetSpec=\"\"}}La nostra isola è diventata così\npopolare che vivere qui è ormai\nil sogno di molti!"
  },
  {
    "label": "001_06",
    "attribute": "0x00000000",
    "text": "{{anim id=\"Worried\" target=\"actor\" targetSpec=\"\"}}Oh, cielo.{{delay8}} La nostra valutazione\nè crollata dall'ultima volta che\nhai controllato."
  },
  {
    "label": "002_01",
    "attribute": "0x00000000",
    "text": "Al momento abbiamo una valutazione\ndi{{delay8}} {{color id=\"3\"}}1 stella ★{{color id=\"65535\"}} {{color id=\"4\"}}☆ ☆ ☆ ☆ {{color id=\"65535\"}}."
  },
  {
    "label": "002_02",
    "attribute": "0x00000000",
    "text": "Al momento abbiamo una valutazione\ndi{{delay8}} {{color id=\"3\"}}2 stelle ★ ★{{color id=\"65535\"}} {{color id=\"4\"}}☆ ☆ ☆{{color id=\"65535\"}}."
  },
  {
    "label": "002_03",
    "attribute": "0x00000000",
    "text": "Al momento abbiamo una valutazione\ndi{{delay8}} {{color id=\"3\"}}3 stelle ★ ★ ★{{color id=\"65535\"}} {{color id=\"4\"}}☆ ☆{{color id=\"65535\"}}."
  },
  {
    "label": "002_04",
    "attribute": "0x00000000",
    "text": "Al momento abbiamo una valutazione\ndi{{delay8}} {{color id=\"3\"}}4 stelle ★ ★ ★ ★{{color id=\"65535\"}} {{color id=\"4\"}}☆{{color id=\"65535\"}}."
  },
  {
    "label": "002_05",
    "attribute": "0x00000000",
    "text": "Al momento abbiamo una valutazione\ndi{{delay8}} {{color id=\"3\"}}5 stelle ★ ★ ★ ★ ★{{color id=\"65535\"}}."
  },
  {
    "label": "003_01",
    "attribute": "0x00000000",
    "text": "Al momento {{string value=\"OtherIslandName\"}}\nha una valutazione\ndi{{delay8}} {{color id=\"3\"}}1 stella ★{{color id=\"65535\"}} {{color id=\"4\"}}☆ ☆ ☆ ☆ {{color id=\"65535\"}}."
  },
  {
    "label": "003_02",
    "attribute": "0x00000000",
    "text": "Al momento {{string value=\"OtherIslandName\"}}\nha una valutazione\ndi{{delay8}} {{color id=\"3\"}}2 stelle ★ ★{{color id=\"65535\"}} {{color id=\"4\"}}☆ ☆ ☆{{color id=\"65535\"}}."
  },
  {
    "label": "003_03",
    "attribute": "0x00000000",
    "text": "Al momento {{string value=\"OtherIslandName\"}}\nha una valutazione\ndi{{delay8}} {{color id=\"3\"}}3 stelle ★ ★ ★{{color id=\"65535\"}} {{color id=\"4\"}}☆ ☆{{color id=\"65535\"}}."
  },
  {
    "label": "003_04",
    "attribute": "0x00000000",
    "text": "Al momento {{string value=\"OtherIslandName\"}}\nha una valutazione\ndi{{delay8}} {{color id=\"3\"}}4 stelle ★ ★ ★ ★{{color id=\"65535\"}} {{color id=\"4\"}}☆{{color id=\"65535\"}}."
  },
  {
    "label": "003_05",
    "attribute": "0x00000000",
    "text": "Al momento {{string value=\"OtherIslandName\"}}\nha una valutazione\ndi{{delay8}} {{color id=\"3\"}}5 stelle ★ ★ ★ ★ ★{{color id=\"65535\"}}."
  },
  {
    "label": "011",
    "attribute": "0x00000000",
    "text": "{{anim id=\"Shocked\" target=\"actor\" targetSpec=\"\"}}Abbiamo ottenuto un punteggio\nperfetto!{{delay20}} {{anim id=\"BigSmile\" target=\"actor\" targetSpec=\"\"}}Ma è fuffissimo! {{delay20}}Allora\ncontinuiamo così!"
  },
  {
    "label": "012",
    "attribute": "0x00000000",
    "text": "{{anim id=\"BigSmile\" target=\"actor\" targetSpec=\"\"}}Sì! {{delay8}}Ce l'abbiamo fatta,{{delay8}} finalmente!{{pageBreak}}{{anim id=\"AbsentMindedness\" target=\"actor\" targetSpec=\"\"}}L'isola di {{string value=\"IslandName\"}},{{delay8}} un tempo deserta{{string value=\"...\"}}{{delay20}} {{anim id=\"HappyFlower\" target=\"actor\" targetSpec=\"\"}}ha ottenuto la migliore valutazione possibile!{{pageBreak}}{{anim id=\"Smiling\" target=\"actor\" targetSpec=\"\"}}Grazie per tutti gli sforzi profusi,\n{{string value=\"PlayerName\"}}.{{delay20}} Il tuo aiuto è stato fondamentale!"
  },
  {
    "label": "021",
    "attribute": "0x00000000",
    "text": "{{anim id=\"Explain\" target=\"actor\" targetSpec=\"\"}}In base ai pareri raccolti di recente,{{delay8}}\nl'opinione generale è che in questa\nisola mancano {{color id=\"1\"}}paesaggi suggestivi{{color id=\"65535\"}}.\n{{anim id=\"Thinking\" target=\"actor\" targetSpec=\"\"}}Penso che ci sia un solo modo per\nrimediare{{string value=\"...\"}}{{delay20}}{{anim id=\"IdeaBulb\" target=\"actor\" targetSpec=\"\"}}{{delay20}}{{pageBreak}}{{anim id=\"HappyFlower\" target=\"actor\" targetSpec=\"\"}}{{color id=\"1\"}}Decorare l'intera isola {{color id=\"65535\"}}dalla testa\nai piedi{{string value=\"...\"}}{{anim id=\"Blushing\" target=\"actor\" targetSpec=\"\"}}{{delay20}} o meglio,{{delay8}} dall'entroterra\nalle coste!"
  },
  {
    "label": "021_01",
    "attribute": "0x00000000",
    "text": "{{anim id=\"EmotEnd\" target=\"actor\" targetSpec=\"\"}}Rispetto all'ultimo resoconto,{{delay8}} {{anim id=\"HappyFlower\" target=\"actor\" targetSpec=\"\"}}ci sono\npiù riscontri {{color id=\"0\"}}positivi {{color id=\"65535\"}}sul {{color id=\"1\"}}paesaggio\ndell'isola{{color id=\"65535\"}}!\n{{anim id=\"Smiling\" target=\"actor\" targetSpec=\"\"}}Naturalmente c'è sempre un margine\ndi miglioramento,{{delay8}} non è così?{{pageBreak}}{{anim id=\"Nodding\" target=\"actor\" targetSpec=\"\"}}Ma se continuerai a fornire tutto\nl'aiuto di cui sei capace,{{delay8}} presto\nl'{{color id=\"1\"}}isola sarà decorata{{color id=\"65535\"}} alla perfezione!"
  },
  {
    "label": "022",
    "attribute": "0x00000000",
    "text": "{{anim id=\"Smiling\" target=\"actor\" targetSpec=\"\"}}L'opinione generale è che{{delay8}} lo sviluppo dell'{{color id=\"1\"}}ambiente naturale dell'isola\n{{delay8}}{{color id=\"65535\"}}abbia ancora del potenziale."
  },
  {
    "label": "022_01",
    "attribute": "0x00000000",
    "text": "{{anim id=\"EmotEnd\" target=\"actor\" targetSpec=\"\"}}Rispetto all'ultimo resoconto,{{delay8}} {{anim id=\"HappyFlower\" target=\"actor\" targetSpec=\"\"}}ci sono\npiù riscontri {{color id=\"0\"}}positivi {{color id=\"65535\"}}sull'{{color id=\"1\"}}ambiente\nnaturale dell'isola{{color id=\"65535\"}}!\n{{anim id=\"EmotEnd\" target=\"actor\" targetSpec=\"\"}}Ma ciò non significa che il nostro\nlavoro sia terminato. {{anim id=\"Negative\" target=\"actor\" targetSpec=\"\"}}{{delay20}}{{gender2 m=\"Nossignore\" f=\"Nossignora\"}}!{{pageBreak}}{{anim id=\"Smiling\" target=\"actor\" targetSpec=\"\"}}Se i nostri sforzi per {{color id=\"1\"}}migliorare il\npaesaggio naturale dell'isola{{color id=\"65535\"}} hanno\nsuccesso,{{delay8}} dobbiamo continuare così!"
  },
  {
    "label": "023",
    "attribute": "0x00000000",
    "text": "{{anim id=\"Thinking\" target=\"actor\" targetSpec=\"\"}}In base alle opinioni recenti,{{delay8}} in molti\nvorrebbero assistere a un ulteriore\nsviluppo della nostra isola."
  },
  {
    "label": "024",
    "attribute": "0x00000000",
    "text": "{{anim id=\"Nodding\" target=\"actor\" targetSpec=\"\"}}Se usi le risorse che trovi sull'isola\ne la decori con gli {{color id=\"1\"}}oggetti che hai\ncreato{{color id=\"65535\"}}{{string value=\"...\"}}\n{{anim id=\"HappyDance\" target=\"actor\" targetSpec=\"\"}}Sono certa che il paesaggio ne\ngioverà e così anche le opinioni\ndei nostri intervistati!"
  },
  {
    "label": "024_01",
    "attribute": "0x00000000",
    "text": "{{anim id=\"Smiling\" target=\"actor\" targetSpec=\"\"}}Presso il Punto Nook troverai\nfuffissimi {{color id=\"1\"}}schemi {{color id=\"65535\"}}e {{color id=\"1\"}}oggetti {{color id=\"65535\"}}adatti a\nmigliorare il paesaggio dell'isola.\n{{anim id=\"HappyDance\" target=\"actor\" targetSpec=\"\"}}Risparmiando e scambiando le tue\nmiglia potrai trasformare l'aspetto\ndi questo luogo!"
  },
  {
    "label": "024_02",
    "attribute": "0x00000000",
    "text": "{{anim id=\"Thinking\" target=\"actor\" targetSpec=\"\"}}L'isola non è piccola{{string value=\"...\"}}{{delay20}} {{anim id=\"Nodding\" target=\"actor\" targetSpec=\"\"}}il che\nsignifica che serviranno molti articoli\nd'arredamento per abbellirla.\n{{anim id=\"Smiling\" target=\"actor\" targetSpec=\"\"}}La varietà sarebbe preferibile,{{delay8}} ma\npuoi sempre usare il {{color id=\"1\"}}Catalogo Nook{{color id=\"65535\"}}\nper comprare oggetti già acquistati.\n{{anim id=\"HappyDance\" target=\"actor\" targetSpec=\"\"}}Comunque tu scelga di decorare\nl'isola,{{delay8}} sappiamo di poter contare\nsul tuo fuffissimo gusto!"
  },
  {
    "label": "024_03",
    "attribute": "0x00000000",
    "text": "{{anim id=\"Thinking\" target=\"actor\" targetSpec=\"\"}}Secondo me potresti creare dei\npaesaggi memorabili collocando\nqualche {{color id=\"1\"}}recinzione {{color id=\"65535\"}}qui e lì.\n{{anim id=\"Greeting\" target=\"actor\" targetSpec=\"\"}}Fai una prova e dimmi come\nti sembra!"
  },
  {
    "label": "025",
    "attribute": "0x00000000",
    "text": "{{anim id=\"Smiling\" target=\"actor\" targetSpec=\"\"}}Quando si parla di \"bellezze\nnaturali\", {{delay20}}qual è la prima cosa\nche viene in mente?\n{{anim id=\"HappyFlower\" target=\"actor\" targetSpec=\"\"}}Ma i {{color id=\"1\"}}fiori{{color id=\"65535\"}}{{string value=\"...\"}} {{delay8}}naturalmente!{{pageBreak}}{{anim id=\"HappyDance\" target=\"actor\" targetSpec=\"\"}}Passa un po' di tempo ad annaffiare\ni fiori dell'isola {{delay20}}e presto avrai un\nparadiso pronto a sbocciare!"
  },
  {
    "label": "025_01",
    "attribute": "0x00000000",
    "text": "{{anim id=\"BigSmile\" target=\"actor\" targetSpec=\"\"}}Se c'è qualcosa in cui credo\nfermamente{{delay20}} è che i {{color id=\"1\"}}fiori{{color id=\"65535\"}} non possono\nmai essere troppi!{{delay20}} È impossibile!\n{{anim id=\"HappyFlower\" target=\"actor\" targetSpec=\"\"}}Prova a immaginare quest'isola\nricoperta di fiori meravigliosi, {{delay8}}con\nla brezza che ne sparge il profumo{{string value=\"...\"}}\n{{anim id=\"Eh\" target=\"actor\" targetSpec=\"\"}}Chiedo scusa!{{delay20}} {{anim id=\"Smiling\" target=\"actor\" targetSpec=\"\"}}Di cosa stavamo\nparlando?"
  },
  {
    "label": "025_02",
    "attribute": "0x00000000",
    "text": "{{anim id=\"Nodding\" target=\"actor\" targetSpec=\"\"}}L'isola ha bisogno di vegetazione.\n{{delay8}}Per incrementarla dovremmo\npiantare frutta e germogli{{string value=\"...\"}}\n{{anim id=\"WrySmile\" target=\"actor\" targetSpec=\"\"}}Forse dovrei diramare un comunicato\nal riguardo?{{pageBreak}}{{anim id=\"Laughing\" target=\"actor\" targetSpec=\"\"}}Ah ah ah!{{delay40}} Perdona la battuta,{{delay8}} è stata\ninvolontaria! Ma spero che si riveli{{string value=\"...\"}}{{delay20}}\nfruttuosa!{{delay40}} Ah ah ah!\n{{anim id=\"Blushing\" target=\"actor\" targetSpec=\"\"}}Scusami,{{delay8}} scusami{{string value=\"...\"}}{{delay20}} Non ho saputo\nresistere.{{delay40}} Vedrai{{string value=\"...\"}}{{anim id=\"Grin\" target=\"actor\" targetSpec=\"\"}}{{delay20}} ora la pianto."
  },
  {
    "label": "026",
    "attribute": "0x00000000",
    "text": "{{anim id=\"Eh\" target=\"actor\" targetSpec=\"\"}}Ho sentito dire che {{color id=\"3\"}}Blatero{{color id=\"65535\"}} è in cerca\ndi donazioni per poter aprire un\n{{color id=\"1\"}}museo {{color id=\"65535\"}}qui {{fun_000F0032 arg=\"\"}} {{string value=\"IslandName\"}}.\n{{anim id=\"Thinking\" target=\"actor\" targetSpec=\"\"}}Un luogo in cui esibire la varietà\ndi creature e artefatti dell'isola\npotrebbe essere ciò che ci serve{{string value=\"...\"}}\n{{anim id=\"Smiling\" target=\"actor\" targetSpec=\"\"}}Di certo {{color id=\"3\"}}Blatero {{color id=\"65535\"}}sarebbe lieto di\navere il tuo aiuto per questo\nfuffissimo progetto!"
  },
  {
    "label": "026_01",
    "attribute": "0x00000000",
    "text": "{{anim id=\"Explain\" target=\"actor\" targetSpec=\"\"}}Penso che la nostra isola apparirebbe\npiù all'avanguardia se aggiungessimo\nqualche infrastruttura.\n{{anim id=\"Smiling\" target=\"actor\" targetSpec=\"\"}}Per esempio, potremmo costruire\nqualche {{color id=\"1\"}}ponte{{color id=\"65535\"}} o {{color id=\"1\"}}rampa{{color id=\"65535\"}}."
  },
  {
    "label": "026_02",
    "attribute": "0x00000000",
    "text": "{{anim id=\"QuestionMark\" target=\"actor\" targetSpec=\"\"}}Sai che in molti giudicano un'isola\nin base al tipo e al numero di negozi\nche ospita?\n{{anim id=\"FaintSmile\" target=\"actor\" targetSpec=\"\"}}In effetti, un'ampia gamma di negozi\nè quasi un obbligo,{{delay8}} se si vuole avere\nun'isola ben sviluppata.\n{{anim id=\"BigSmile\" target=\"actor\" targetSpec=\"\"}}Ad ogni modo,{{delay8}} è solo un'idea e non\nha niente a che vedere con la mia\npassione per lo shopping!"
  },
  {
    "label": "031",
    "attribute": "0x00000000",
    "text": "Ah, c'è un'altra cosa di cui\nvorrei parlarti{{string value=\"...\"}}"
  },
  {
    "label": "031_01",
    "attribute": "0x00000000",
    "text": "{{anim id=\"Smiling\" target=\"actor\" targetSpec=\"\"}}Con una valutazione così elevata, c'è\npoco di cui lamentarsi{{string value=\"...\"}}{{delay20}}{{anim id=\"ShyBoy\" target=\"actor\" targetSpec=\"\"}} Eppure ho\nuna piccolissima preoccupazione."
  },
  {
    "label": "032",
    "attribute": "0x00000000",
    "text": "{{anim id=\"Worried\" target=\"actor\" targetSpec=\"\"}}È opinione di alcuni che in alcune\nparti dell'isola sia {{color id=\"1\"}}problematico\nspostarsi{{color id=\"65535\"}}.\n{{anim id=\"Explain\" target=\"actor\" targetSpec=\"\"}}Migliorare il paesaggio con apposite\ndecorazioni è importante, {{delay8}}{{anim id=\"Smiling\" target=\"actor\" targetSpec=\"\"}}ma lo è\nanche potersi muovere liberamente."
  },
  {
    "label": "033",
    "attribute": "0x00000000",
    "text": "{{anim id=\"Explain\" target=\"actor\" targetSpec=\"\"}}È opinione di molti che nella nostra\nisola ci sia un {{color id=\"1\"}}eccesso di alberi{{color id=\"65535\"}}.{{pageBreak}}{{anim id=\"Worried\" target=\"actor\" targetSpec=\"\"}}A quanto pare, {{delay8}}alcuni si sono\naddirittura persi in mezzo al folto\ndegli alberi,{{delay8}} temendo il peggio{{string value=\"...\"}}\n{{anim id=\"Restless\" target=\"actor\" targetSpec=\"\"}}Anch'io adoro gli alberi, ma se gli\nabitanti ritengono l'isola {{color id=\"1\"}}troppo\nrurale{{color id=\"65535\"}},{{delay20}}{{anim id=\"Nodding\" target=\"actor\" targetSpec=\"\"}} faremmo bene a rimediare."
  },
  {
    "label": "034",
    "attribute": "0x00000000",
    "text": "{{anim id=\"Eh\" target=\"actor\" targetSpec=\"\"}}A parere di alcuni abitanti i {{color id=\"1\"}}troppi\noggetti sparsi in giro {{color id=\"65535\"}}conferiscono\nall'isola un aspetto disordinato.\n{{anim id=\"Explain\" target=\"actor\" targetSpec=\"\"}}Facciamo il possibile per mantenere\nordinata la nostra bella isola.{{anim id=\"Smiling\" target=\"actor\" targetSpec=\"\"}} Ci sono\nanche degli incentivi economici!\n{{anim id=\"Smiling\" target=\"actor\" targetSpec=\"\"}}Il negozio accetta e talvolta acquista\ngli oggetti che non ti servono più{{delay20}} o\nche non puoi tenere in casa."
  },
  {
    "label": "101_01",
    "attribute": "0x00000000",
    "text": "{{anim id=\"Shocked\" target=\"actor\" targetSpec=\"\"}}{{delay8}}Fuffissimo!{{delay40}} {{anim id=\"Smiling\" target=\"actor\" targetSpec=\"\"}}Mi fa piacere sapere che\nti sta a cuore l'{{color id=\"1\"}}immagine della nostra\nisola{{color id=\"65535\"}}!"
  },
  {
    "label": "101_02",
    "attribute": "0x00000000",
    "text": "{{anim id=\"Shocked\" target=\"actor\" targetSpec=\"\"}}{{delay8}}Oh, è fuffissimo!{{pageBreak}}{{anim id=\"Smiling\" target=\"actor\" targetSpec=\"\"}}Non vedi l'ora di sentirmi parlare\ndell'{{color id=\"1\"}}immagine della nostra isola{{color id=\"65535\"}},\nho ragione?"
  },
  {
    "label": "102",
    "attribute": "0x00000000",
    "text": "{{anim id=\"EmotEnd\" target=\"actor\" targetSpec=\"\"}}Allora ti spiegherò come la\ncommissione guidata{{string value=\"...\"}}{{delay20}}{{anim id=\"WrySmile\" target=\"actor\" targetSpec=\"\"}} e formata{{string value=\"...\"}}{{delay20}}\nda me raccoglie e analizza i dati.\n{{anim id=\"Explain\" target=\"actor\" targetSpec=\"\"}}Per prima cosa viene condotto\nun sondaggio casuale tra abitanti\ndell'isola,{{delay8}} visitatori e turisti.\n{{anim id=\"Smiling\" target=\"actor\" targetSpec=\"\"}}Loro assegnano delle valutazioni\nda 1 a 5 stelle.{{pageBreak}}{{anim id=\"Explain\" target=\"actor\" targetSpec=\"\"}}L'isola riceve più stelle,{{delay8}} quanto più\nè ottimale l'equilibrio tra bellezze\nnaturali,{{delay8}} sviluppo {{delay8}}e decorazioni.\n{{anim id=\"AbsentMindedness\" target=\"actor\" targetSpec=\"\"}}Ciò vuol dire che ci servono più\nabitanti ed edifici{{string value=\"...\"}}{{pageBreak}}Oltre a infrastrutture adeguate{{delay8}} e un\npaesaggio ben curato.{{delay20}} {{anim id=\"Grin\" target=\"actor\" targetSpec=\"\"}}Facile, vero?{{pageBreak}}{{anim id=\"Smiling\" target=\"actor\" targetSpec=\"\"}}Però,{{delay8}} se davvero riuscissimo a\nrealizzare tale equilibrio{{string value=\"...\"}} {{anim id=\"HappyFlower\" target=\"actor\" targetSpec=\"\"}}{{delay20}}la nostra\nvalutazione si impennerebbe!"
  },
  {
    "label": "201",
    "attribute": "0x00000000",
    "text": "{{anim id=\"Smiling\" target=\"actor\" targetSpec=\"\"}}Oh! {{delay frames=\"40\"}}Per celebrare quest'occasione\nspeciale, {{delay20}}gli abitanti riceveranno in\nregalo uno schema per realizzare{{string value=\"...\"}}\n{{anim id=\"Clapping\" target=\"actor\" targetSpec=\"\"}}Un {{color id=\"1\"}}annaffiatoio d'oro{{color id=\"65535\"}}!{{delay40}} {{anim id=\"Hello\" target=\"actor\" targetSpec=\"\"}}Se prendi\nun attimo il tuo smartphone,{{delay8}}\nte lo invio immediatamente!"
  },
  {
    "label": "202",
    "attribute": "0x00000000",
    "text": "{{anim id=\"BigSmile\" target=\"actor\" targetSpec=\"\"}}Bene!{{delay8}} Ecco fatto.{{delay20}} {{anim id=\"HappyFlower\" target=\"actor\" targetSpec=\"\"}}Non sto nella pelle\nall'idea di vedere quell'{{color id=\"1\"}}annaffiatoio\nd'oro {{color id=\"65535\"}}all'opera sui fiori dell'isola!"
  },
  {
    "label": "501",
    "attribute": "0x00000000",
    "text": "{{i20_3 arg=\"8\"}}{{i20_2 arg=\"7\"}}{{anim id=\"TakenAback\" target=\"actor\" targetSpec=\"\"}}Aspetta un attimo!{{delay40}} Accidenti!{{i20_2 arg=\"2\"}}{{delay40}}{{anim id=\"Shocked\" target=\"actor\" targetSpec=\"\"}}\nHo le traveggole oppure la firma\nè veramente {{delay8}}\"K.S.\"?!"
  },
  {
    "label": "502",
    "attribute": "0x00000000",
    "text": "{{anim id=\"QuestionMark\" target=\"actor\" targetSpec=\"\"}}Mh? {{delay20}}{{anim id=\"Nodding\" target=\"actor\" targetSpec=\"\"}}Sì, è così. {{delay8}}Non c'è alcun dubbio.{{pageBreak}}\"K.S.\"{{string value=\"...\"}}{{delay20}}{{anim id=\"ShyBoy\" target=\"actor\" targetSpec=\"\"}} E la calligrafia è fuffissima\na dir poco, {{delay8}}se posso permettermi\nuna modesta opinione{{string value=\"...\"}}"
  },
  {
    "label": "503",
    "attribute": "0x00000000",
    "text": "{{anim id=\"Frantic\" target=\"actor\" targetSpec=\"\"}}Possibile? {{delay20}}POSSIBILE?!{{delay40}} Non può che\ntrattarsi di un messaggio dell'unico\ne solo {{color id=\"3\"}}K.K. Slider{{color id=\"65535\"}}!{{delay20}} Sì, sì!"
  },
  {
    "label": "504",
    "attribute": "0x00000000",
    "text": "{{i10_10}}{{anim id=\"Surprised\" target=\"actor\" targetSpec=\"\"}}{{size value=\"150\"}}COOOSA?!{{size value=\"100\"}}{{i10_9}}"
  },
  {
    "label": "505",
    "attribute": "0x00000000",
    "text": "{{i20_3 arg=\"5\"}}{{anim id=\"HappyFlower\" target=\"actor\" targetSpec=\"\"}}Ma è fuffissimo!{{delay40}} Finalmente siamo\nriusciti a portare la nostra isola\nall'attenzione del famoso {{color id=\"3\"}}K.K. Slider{{color id=\"65535\"}}!\n{{anim id=\"Smiling\" target=\"actor\" targetSpec=\"\"}}E come se non bastasse, {{delay8}}ha espresso\nil desiderio di venire a trovarci alla\nprima occasione!"
  },
  {
    "label": "506",
    "attribute": "0x00000000",
    "text": "{{anim id=\"Restless\" target=\"actor\" targetSpec=\"\"}}Cosa stiamo aspettando?{{delay40}} {{anim id=\"BigSmile\" target=\"actor\" targetSpec=\"\"}}{{delay20}}Forza,\nforza!{{delay40}} Proponiamogli di organizzare\nun suo concerto qui!\n{{anim id=\"SmugFace\" target=\"actor\" targetSpec=\"\"}}Non badiamo a spese!{{delay40}}\n{{anim id=\"Scheming\" target=\"actor\" targetSpec=\"\"}}{{color id=\"4\"}}(Badiamo agli incassi{{string value=\"...\"}}{{delay8}}){{color id=\"65535\"}}"
  },
  {
    "label": "507",
    "attribute": "0x00000000",
    "text": "{{anim id=\"Serious\" target=\"actor\" targetSpec=\"\"}}Come si suol dire:{{delay8}} dobbiamo battere\nil ferro finché è caldo!"
  },
  {
    "label": "508_01",
    "attribute": "0x00000000",
    "text": "{{anim id=\"Shocked\" target=\"actor\" targetSpec=\"\"}}{{delay8}}Ah, {{delay20}}salve!{{delay40}} {{anim id=\"Restless\" target=\"actor\" targetSpec=\"\"}}Ho il piacere di parlare\ncon il signor {{color id=\"3\"}}K.K. Slider{{color id=\"65535\"}}?{{delay40}}{{anim id=\"Nodding\" target=\"actor\" targetSpec=\"\"}} Sì, {{delay8}}sì?{{pageBreak}}{{anim id=\"Explain\" target=\"actor\" targetSpec=\"\"}}Bene, bene!{{delay8}} Sono della {{color id=\"1\"}}Nook Inc.\n{{color id=\"65535\"}}di {{string value=\"OtherIslandName\"}}{{string value=\"...\"}}{{delay8}}{{anim id=\"Shocked\" target=\"actor\" targetSpec=\"\"}}{{pageBreak}}{{size value=\"75\"}}Mmmh mmmh{{string value=\"...\"}}{{size value=\"100\"}}{{delay20}}{{anim id=\"BigSmile\" target=\"actor\" targetSpec=\"\"}} Sì, sì!{{delay20}} Abbiamo\napprezzato moltissimo la sua\npreziosissima opinione!"
  },
  {
    "label": "508_02",
    "attribute": "0x00000000",
    "text": "{{anim id=\"ShyBoy\" target=\"actor\" targetSpec=\"\"}}Ed è proprio ciò che ci ha spinto\na chiamarla{{string value=\"...\"}}{{pageBreak}}{{anim id=\"Hesitate\" target=\"actor\" targetSpec=\"\"}}Se è sempre così interessato a\nvisitarci, {{delay20}}saremmo lieti di ospitare\nlei e la sua splendida musica qui a{{string value=\"...\"}}"
  },
  {
    "label": "508_03",
    "attribute": "0x00000000",
    "text": "{{anim id=\"Nodding\" target=\"actor\" targetSpec=\"\"}}Sì, sì!{{delay40}} Certo, certo{{string value=\"...\"}}{{delay40}}{{anim id=\"Serious\" target=\"actor\" targetSpec=\"\"}} Capisco{{string value=\"...\"}}"
  },
  {
    "label": "508_04",
    "attribute": "0x00000000",
    "text": "{{i10_10}}{{anim id=\"Eh\" target=\"actor\" targetSpec=\"\"}}{{size value=\"150\"}}OH, PERBACCO!{{anim id=\"TakenAback\" target=\"mainNpc\" targetSpec=\"\"}}{{delay20}}\nSta dicendo che{{string value=\"...\"}}{{delay8}}?{{size value=\"100\"}}"
  },
  {
    "label": "508_05",
    "attribute": "0x00000000",
    "text": "{{anim id=\"HappyFlower\" target=\"actor\" targetSpec=\"\"}}Grazie infinite!{{delay40}} Sì, {{delay8}}sì!{{delay20}} Sarà mia\npremura inviarle tutti i dettagli\nquanto prima!\n{{anim id=\"Smiling\" target=\"actor\" targetSpec=\"\"}}L'intera isola già non vede l'ora!\n{{delay40}}Grazie ancora!{{delay40}} {{anim id=\"Nodding\" target=\"actor\" targetSpec=\"\"}}Bene, bene! {{delay8}}A presto!"
  },
  {
    "label": "509",
    "attribute": "0x00000000",
    "text": "{{anim id=\"Serious\" target=\"actor\" targetSpec=\"\"}}Allora{{string value=\"...\"}}{{delay20}} Cos'ha detto?"
  },
  {
    "label": "510",
    "attribute": "0x00000000",
    "text": "{{anim id=\"BigSmile\" target=\"actor\" targetSpec=\"\"}}Terrà il concerto.{{delay20}} Proprio così!\n{{delay8}}{{anim id=\"HappyDance\" target=\"actor\" targetSpec=\"\"}}{{color id=\"3\"}}K.K. Slider{{color id=\"65535\"}} verrà qui!"
  },
  {
    "label": "511",
    "attribute": "0x00000000",
    "text": "{{anim id=\"Clapping\" target=\"actor\" targetSpec=\"\"}}Ma è fuffissimo! {{delay40}}Congratulazioni!"
  },
  {
    "label": "512_01",
    "attribute": "0x00000000",
    "text": "{{anim id=\"Smiling\" target=\"actor\" targetSpec=\"\"}}Potrebbe arrivare qui già domani,{{delay8}}\nanche se prima deve verificare\ni suoi programmi.{{anim id=\"Nodding\" target=\"actor\" targetSpec=\"\"}} {{delay20}}Sì, sì!"
  },
  {
    "label": "512_02",
    "attribute": "0x00000000",
    "text": "{{anim id=\"Smiling\" target=\"actor\" targetSpec=\"\"}}Poiché domani c'è il {{color id=\"1\"}}torneo di pesca{{color id=\"65535\"}},{{delay8}}\nverrà qui il giorno successivo,{{delay8}} se i\nsuoi impegni glielo consentiranno."
  },
  {
    "label": "512_03",
    "attribute": "0x00000000",
    "text": "{{anim id=\"Smiling\" target=\"actor\" targetSpec=\"\"}}Poiché domani c'è l'{{color id=\"1\"}}Insettomania{{color id=\"65535\"}},{{delay8}}\nverrà qui il giorno successivo,{{delay8}} se i\nsuoi impegni glielo consentiranno."
  },
  {
    "label": "512_04",
    "attribute": "0x00000000",
    "text": "{{anim id=\"Smiling\" target=\"actor\" targetSpec=\"\"}}Poiché domani c'è il {{color id=\"1\"}}conto alla\nrovescia{{color id=\"65535\"}},{{delay8}} verrà qui il giorno dopo,{{delay8}}\ncompatibilmente con i suoi impegni."
  },
  {
    "label": "512_05",
    "attribute": "0x00000000",
    "text": "{{anim id=\"Smiling\" target=\"actor\" targetSpec=\"\"}}Domani non può proprio,{{delay20}} ma dice\nche verrà il giorno successivo,{{delay20}}\nimpegni permettendo."
  },
  {
    "label": "513_01",
    "attribute": "0x00000000",
    "text": "{{anim id=\"BigSmile\" target=\"actor\" targetSpec=\"\"}}{{delay8}}Ooohhh, {{string value=\"PlayerName\"}}!{{i20_3 arg=\"6\"}}{{delay20}} Riesci a crederci? {{delay20}}Il nostro sogno sta per diventare realtà!{{pageBreak}}{{anim id=\"Nodding\" target=\"actor\" targetSpec=\"\"}}Metterò tutta l'isola al corrente del\nconcerto con un comunicato.{{pageBreak}}{{anim id=\"Love\" target=\"actor\" targetSpec=\"\"}}Spero tanto che ci sarai anche tu, {{string value=\"PlayerName\"}}. {{delay20}}{{color id=\"3\"}}K.K. {{color id=\"65535\"}}e la sua fuffissima musica sono imperdibili!"
  },
  {
    "label": "513_02",
    "attribute": "0x00000000",
    "text": ""
  },
  {
    "label": "801",
    "attribute": "0x00000000",
    "text": "Mmmh{{string value=\"...\"}}{{delay20}}{{anim id=\"Worried\" target=\"actor\" targetSpec=\"\"}} Sembra che tutte le\nvalutazioni che abbiamo provengano\ndallo stesso intervistato.\n{{anim id=\"Hesitate\" target=\"actor\" targetSpec=\"\"}}È bello sapere che apprezza i nostri\nsforzi{{string value=\"...\"}}{{pageBreak}}{{anim id=\"Thinking\" target=\"actor\" targetSpec=\"\"}}Però ci serve il passaparola degli\naltri abitanti, se vogliamo che la\nreputazione dell'isola migliori.\n{{anim id=\"Explain\" target=\"actor\" targetSpec=\"\"}}Per il momento, {{delay8}}suggerisco di\nconcentrarci sulla crescita della\npopolazione!{{anim id=\"Smiling\" target=\"actor\" targetSpec=\"\"}}"
  },
  {
    "label": "801_01",
    "attribute": "0x00000000",
    "text": "Se vogliamo incrementare il numero\ndi abitanti,{{delay frames=\"30\"}} prima di tutto dobbiamo\npreparare del {{color id=\"1\"}}terreno da vendere{{color id=\"65535\"}}.\nQuando avremo tutto pronto,{{delay frames=\"30\"}}\n{{anim id=\"Smiling\" target=\"actor\" targetSpec=\"\"}}potremo {{color id=\"0\"}}accettare nuovi residenti{{color id=\"65535\"}}.{{pageBreak}}Ti suggerisco di andare a visitare\nil signor {{color id=\"3\"}}Tom Nook {{color id=\"65535\"}}e parlare con lui\ndelle {{color id=\"0\"}}infrastrutture{{color id=\"65535\"}} dell'isola.{{pageBreak}}{{anim id=\"Greeting\" target=\"actor\" targetSpec=\"\"}}Sono certa che potrà aiutarti a\n{{color id=\"1\"}}riservare del terreno da vendere{{color id=\"65535\"}}!"
  },
  {
    "label": "802",
    "attribute": "0x00000000",
    "text": "{{anim id=\"Thinking\" target=\"actor\" targetSpec=\"\"}}Se vogliamo altre valutazioni,\n{{delay8}}{{color id=\"1\"}}aumentare la popolazione {{color id=\"65535\"}}deve\nessere la nostra priorità."
  },
  {
    "label": "803",
    "attribute": "0x00000000",
    "text": "{{anim id=\"EmotEnd\" target=\"actor\" targetSpec=\"\"}}Fammi sapere se dopo hai ancora\ntempo,{{delay20}}{{anim id=\"FaintSmile\" target=\"actor\" targetSpec=\"\"}} perché bisognerebbe lavorare\nanche sul {{color id=\"1\"}}paesaggio dell'isola{{color id=\"65535\"}}."
  },
  {
    "label": "803_01",
    "attribute": "0x00000000",
    "text": "{{anim id=\"EmotEnd\" target=\"actor\" targetSpec=\"\"}}Ovviamente non possiamo tralasciare\nl'{{color id=\"1\"}}ambiente naturale{{color id=\"65535\"}}.{{delay20}}{{anim id=\"Smiling\" target=\"actor\" targetSpec=\"\"}} Ci aiuteresti\na creare qualcosa di fuffissimo?"
  },
  {
    "label": "804",
    "attribute": "0x00000000",
    "text": "{{anim id=\"Thinking\" target=\"actor\" targetSpec=\"\"}}Se vogliamo altre valutazioni,\n{{delay8}}dobbiamo occuparci innanzitutto\ndi {{color id=\"1\"}}aumentare la popolazione{{color id=\"65535\"}}."
  },
  {
    "label": "805_01",
    "attribute": "0x00000000",
    "text": "Ecco un parere anche da parte mia:{{delay8}}\n{{anim id=\"HappyDance\" target=\"actor\" targetSpec=\"\"}}secondo me abbiamo sensibilmente\n{{color id=\"0\"}}migliorato {{color id=\"65535\"}}il {{color id=\"1\"}}paesaggio dell'isola{{color id=\"65535\"}}!{{color id=\"1\"}}\n{{color id=\"65535\"}}{{anim id=\"Love\" target=\"actor\" targetSpec=\"\"}}Non faccio che sgranare gli occhi di\nfronte alla tua abilità in materia di\ndecorazioni e design del panorama.\n{{anim id=\"BigSmile\" target=\"actor\" targetSpec=\"\"}}Averti con noi è un'autentica fortuna!"
  },
  {
    "label": "805_02",
    "attribute": "0x00000000",
    "text": "Vuoi sapere la mia opinione?{{delay20}} {{anim id=\"HappyDance\" target=\"actor\" targetSpec=\"\"}}Io\nho visto {{color id=\"0\"}}grandi progressi {{color id=\"65535\"}}riguardo\nl'{{color id=\"1\"}}ambiente naturale dell'isola{{color id=\"65535\"}}!\n{{anim id=\"Nodding\" target=\"actor\" targetSpec=\"\"}}Quando si tratta di piantare fiori,\nalberi o altra vegetazione,{{delay8}} {{anim id=\"Smiling\" target=\"actor\" targetSpec=\"\"}}ti viene\nproprio{{string value=\"...\"}} naturale!"
  },
  {
    "label": "900_01",
    "attribute": "0x00000000",
    "text": "{{anim id=\"Thinking\" target=\"actor\" targetSpec=\"\"}}Permettimi di leggere un estratto di\nuna delle opinioni che ho raccolto{{string value=\"...\"}}"
  },
  {
    "label": "900_02",
    "attribute": "0x00000000",
    "text": "{{anim id=\"EmotEnd\" target=\"actor\" targetSpec=\"\"}}Testuali parole."
  },
  {
    "label": "901",
    "attribute": "0x00000000",
    "text": "{{fun_0014003C arg=\"\"}}"
  },
  {
    "label": "901_01",
    "attribute": "0x0000000C",
    "text": "{{anim id=\"AbsentMindedness\" target=\"actor\" targetSpec=\"\"}}{{fun_00090064 arg=\"0x00CD\"}}{{color id=\"1\"}}\"Mi piace perché non ci soooono altri\nfantasmi in giro.{{delay20}} È il postoooo adatto\na spiriti liberi coooome me!\"{{color id=\"65535\"}}{{endTag}}"
  },
  {
    "label": "901_02",
    "attribute": "0x0000000C",
    "text": "{{anim id=\"AbsentMindedness\" target=\"actor\" targetSpec=\"\"}}{{fun_00090064 arg=\"0x00CD\"}}{{color id=\"1\"}}\"Mi piacciono le isole deserte{{string value=\"...\"}}{{delay8}} ooo\nquasi.{{delay20}} Spero che resti un pooooosto\nprivo di sorprese,{{delay8}} come piace a me!\"{{color id=\"65535\"}}{{endTag}}"
  },
  {
    "label": "901_03",
    "attribute": "0x0000000C",
    "text": "{{anim id=\"AbsentMindedness\" target=\"actor\" targetSpec=\"\"}}{{fun_00090064 arg=\"0x00CD\"}}{{color id=\"1\"}}\"La osservo di nascosto da taaanto{{string value=\"...\"}}{{delay20}}\nè un segreto{{string value=\"...\"}}{{delay20}} seeegretiiissimo!{{delay20}}\nNon voglio che diventi famosa{{string value=\"...\"}}\"{{color id=\"65535\"}}{{endTag}}"
  },
  {
    "label": "902",
    "attribute": "0x00000000",
    "text": "{{fun_0014003C arg=\"\"}}"
  },
  {
    "label": "902_01",
    "attribute": "0x0000000C",
    "text": "{{anim id=\"AbsentMindedness\" target=\"actor\" targetSpec=\"\"}}{{fun_00090064 arg=\"0x0ECD\"}}{{color id=\"1\"}}\"Dicono che ci voglia moderazione\nper ogni cosa.{{pageBreak}}Ma se si tratta dell'immagine della\npropria isola,{{delay20}} io dico che bisogna\nmettercela tutta!\nComunque,{{delay20}} io e mio fratello saremo\nqui, pronti a dare una zampa, quindi\nvedete di fare del vostro meglio!\"{{color id=\"65535\"}}{{endTag}}"
  },
  {
    "label": "902_02",
    "attribute": "0x0000000C",
    "text": "{{anim id=\"AbsentMindedness\" target=\"actor\" targetSpec=\"\"}}{{fun_00090064 arg=\"0x0CCD\"}}{{color id=\"1\"}}\"Sono naufragato su quest'isola\nun bel po' di volte e mi è venuta\nqualche idea per migliorarla,{{delay8}} tipo{{string value=\"...\"}}\nPenso che i soccorsi arriverebbero\npiù in fretta se l'isola fosse un po'\npiù animata.\nDecoratela in ogni modo e in ogni\ndove e presto diventerà un porto\naccogliente per ogni naufrago.\"{{color id=\"65535\"}}{{endTag}}"
  },
  {
    "label": "902_03",
    "attribute": "0x0000000C",
    "text": "{{anim id=\"AbsentMindedness\" target=\"actor\" targetSpec=\"\"}}{{fun_00090064 arg=\"0x12CD\"}}{{color id=\"1\"}}\"Migliorare l'immagine di un'isola\nè come creare un pupazzo di neve{{string value=\"...\"}}{{pageBreak}}Più è fatto bene e più susciterà\nammirazione.{{pageBreak}}Anche se non sono sicuro che un\npupazzo di neve avrebbe l'attenzione\nche si merita su quest'isola{{string value=\"...\"}}\"{{color id=\"65535\"}}{{endTag}}"
  },
  {
    "label": "903",
    "attribute": "0x00000000",
    "text": "{{fun_0014003C arg=\"\"}}"
  },
  {
    "label": "903_01",
    "attribute": "0x0000000C",
    "text": "{{anim id=\"AbsentMindedness\" target=\"actor\" targetSpec=\"\"}}{{fun_00090064 arg=\"0x01CD\"}}{{color id=\"1\"}}\"Ho assistito a tutti gli arrivi e a\ntutte le partenze di quest'isola.{{pageBreak}}E credetemi, il suo futuro non\npuò che essere radioso!{{pageBreak}}Continuate così!{{delay20}} Ci farebbe un\ngran piacere poter comprare un\nsecondo idrovolante in futuro.\"{{color id=\"65535\"}}{{endTag}}"
  },
  {
    "label": "903_02",
    "attribute": "0x0000000C",
    "text": "{{anim id=\"AbsentMindedness\" target=\"actor\" targetSpec=\"\"}}{{fun_00090064 arg=\"0x03CD\"}}{{color id=\"1\"}}\"Quest'isola si sta sviluppando\ntroppo bene,{{delay8}} come un albero che\ncresce forte e sano grazie all'amore.{{pageBreak}}La visiterò spesso {{delay8}}per sfruttare la\nricetta del suo successo a vantaggio\ndella mia piccola comunità!\"{{color id=\"65535\"}}{{endTag}}"
  },
  {
    "label": "903_03",
    "attribute": "0x0000000C",
    "text": "{{anim id=\"AbsentMindedness\" target=\"actor\" targetSpec=\"\"}}{{fun_00090064 arg=\"0x0BCD\"}}{{color id=\"1\"}}\"Tutte le settimane,{{delay20}} non vedo l'ora\nche arrivi la domenica per visitare\nla vostra isola.{{pageBreak}}Quando la mia nonna avrà meno male\nalle ginocchia, {{delay20}}vorrei tanto portarla\ncon me!\"{{color id=\"65535\"}}{{endTag}}"
  },
  {
    "label": "904",
    "attribute": "0x00000000",
    "text": "{{fun_0014003C arg=\"\"}}"
  },
  {
    "label": "904_01",
    "attribute": "0x0000000C",
    "text": "{{anim id=\"AbsentMindedness\" target=\"actor\" targetSpec=\"\"}}{{fun_00090064 arg=\"0x04CD\"}}{{color id=\"1\"}}\"Non è niente male come state\ntirando su quest'isola{{string value=\"...\"}}{{delay20}} Noto un\ncerto potenziale.\nContinuate così e che a nessuno\nvenga in mente di resettare,{{delay8}} non\nso se mi spiego{{string value=\"...\"}}\"{{color id=\"65535\"}}{{endTag}}"
  },
  {
    "label": "904_02",
    "attribute": "0x0000000C",
    "text": "{{anim id=\"AbsentMindedness\" target=\"actor\" targetSpec=\"\"}}{{fun_00090064 arg=\"0x05CD\"}}{{color id=\"1\"}}\"Questa è bella isola,{{delay20}} con gente che\nsa apprezzare tappeti di qualità. {{delay frames=\"40\"}}Io\nvisita con piacere.\"{{color id=\"65535\"}}{{endTag}}"
  },
  {
    "label": "904_03",
    "attribute": "0x0000000C",
    "text": "{{anim id=\"AbsentMindedness\" target=\"actor\" targetSpec=\"\"}}{{fun_00090064 arg=\"0x0DCD\"}}{{color id=\"1\"}}\"Ho cominciato a venire qui quando\nmio fratello ha traslocato su questa\nisola e l'ho adorata da subito.\nNon ci sono molti luoghi dove poter\ncontemplare il cielo notturno in tutto\nil suo splendore.\nEcco perché vengo regolarmente\na {{string value=\"IslandName\"}}.\"{{color id=\"65535\"}}{{endTag}}"
  },
  {
    "label": "905",
    "attribute": "0x00000000",
    "text": "{{fun_0014003C arg=\"\"}}"
  },
  {
    "label": "905_01",
    "attribute": "0x0000000C",
    "text": "{{anim id=\"AbsentMindedness\" target=\"actor\" targetSpec=\"\"}}{{fun_00090064 arg=\"0x06CD\"}}{{color id=\"1\"}}\"Non so come sono finito in questo\nnido d'insetti, {{delay8}}questa tana di vermi\nstriscianti{{string value=\"...\"}}{{delay8}} però mi piace!\nVivere in un paradiso entomologico come questa {{string value=\"IslandName\"}} mi rende felice come non mai.\"{{color id=\"65535\"}}{{endTag}}"
  },
  {
    "label": "905_02",
    "attribute": "0x0000000C",
    "text": "{{anim id=\"AbsentMindedness\" target=\"actor\" targetSpec=\"\"}}{{fun_00090064 arg=\"0x07CD\"}}{{color id=\"1\"}}\"Ho abboccato all'esca di questo\nposto da subito. {{delay8}}Non appena ci\nho messo zampa!{{pageBreak}}E quando vedo le gente del posto\nfelice come avannotti,{{delay20}} non sto nelle\nscaglie dalla gioia, niak!\"{{color id=\"65535\"}}{{endTag}}"
  },
  {
    "label": "906_01",
    "attribute": "0x0000000C",
    "text": "{{anim id=\"AbsentMindedness\" target=\"actor\" targetSpec=\"\"}}{{fun_00090064 arg=\"0x12CD\"}}{{color id=\"1\"}}\"L'isola più famosa che un pupazzo\ndi neve vorrebbe visitare almeno una\nvolta?\nMa {{capitalizeNextLetter}}{{string value=\"IslandName\"}}, ovviamente!{{pageBreak}}Sogno che uno dei vostri abitanti mi\nfaccia rotolare nella neve per crearmi\ne farmi vivere in questo paradiso...\"{{color id=\"65535\"}}{{endTag}}"
  },
  {
    "label": "906_02",
    "attribute": "0x0000000C",
    "text": "{{anim id=\"AbsentMindedness\" target=\"actor\" targetSpec=\"\"}}{{fun_00090064 arg=\"0x12CD\"}}{{color id=\"1\"}}\"L'isola più famosa che un pupazzo\ndi neve vorrebbe visitare almeno una\nvolta?\nMa {{capitalizeNextLetter}}{{string value=\"IslandName\"}}, ovviamente!{{pageBreak}}Il prossimo inverno spero che\nqualcuno dell'isola mi crei per\ngodermi questo paradiso.\"{{color id=\"65535\"}}{{endTag}}"
  },
  {
    "label": "909",
    "attribute": "0x0000000C",
    "text": "{{anim id=\"AbsentMindedness\" target=\"actor\" targetSpec=\"\"}}{{fun_00090064 arg=\"0x00CD\"}}{{color id=\"1\"}}\"Gente,{{delay8}} pare che {{string value=\"IslandName\"}}\nsia un posto davvero tranquillo{{string value=\"...\"}}{{delay40}}\nCi andrò appena possibile! - K.S.\"{{color id=\"65535\"}}{{endTag}}"
  }
]