﻿[
  {
    "label": "001",
    "attribute": "0x0000000000000000",
    "text": "{{anim id=\"Pardon\" target=\"actor\" targetSpec=\"\"}}L'hai sentito, {{string value=\"NickName\"}}?{{delay20}} Mi chiama \"Signora {{string value=\"31\"}}\" adesso{{string value=\"...\"}}{{pageBreak}}{{anim id=\"Laughing\" target=\"actor\" targetSpec=\"\"}}Mi fa sentire come un'insegnante in\npensione.{{delay20}}{{anim id=\"EmotEnd\" target=\"actor\" targetSpec=\"\"}} {{i20_3 arg=\"5\"}}Dici che io dovrei chiamarti\n{{anim id=\"WrySmile\" target=\"actor\" targetSpec=\"\"}}\"Signor {{string value=\"31\"}}\"?{{i20_2 arg=\"7\"}}"
  },
  {
    "label": "002",
    "attribute": "0x0000000000000000",
    "text": "{{anim id=\"Negative\" target=\"actor\" targetSpec=\"\"}}No, puoi chiamarmi \"Maestro\",{{delay8}}\nperché {{anim id=\"EmotEnd\" target=\"actor\" targetSpec=\"\"}}io sono il \"Maestro dei\nmuscoli\"!"
  },
  {
    "label": "003",
    "attribute": "0x0000000000000000",
    "text": "{{anim id=\"Eh\" target=\"actor\" targetSpec=\"\"}}Bien{{string value=\"...\"}} {{anim id=\"WrySmile\" target=\"actor\" targetSpec=\"\"}}Come vuoi tu{{string value=\"...\"}} {{anim id=\"Oops\" target=\"subNpc\" targetSpec=\"\"}}Maestro.{{delay20}}"
  },
  {
    "label": "004",
    "attribute": "0x0000000000000000",
    "text": "{{anim id=\"FaintSmile\" target=\"mainNpc\" targetSpec=\"\"}}Sai cosa? {{delay20}}{{anim id=\"Worried\" target=\"actor\" targetSpec=\"\"}}Lascia stare{{string value=\"...\"}}{{delay8}} {{anim id=\"Laughing\" target=\"mainNpc\" targetSpec=\"\"}}Non mi\npiace come suona, {{string value=\"6\"}}."
  },
  {
    "label": "005",
    "attribute": "0x0000000000000000",
    "text": "{{anim id=\"Thinking\" target=\"actor\" targetSpec=\"\"}}Che ne diresti di chiamarmi\n\"allenatore\"?{{pageBreak}}{{anim id=\"Nodding\" target=\"actor\" targetSpec=\"\"}}Visto che un giorno lo sarò, almeno\ncosì inizio ad abituarmici."
  },
  {
    "label": "006",
    "attribute": "0x0000000000000000",
    "text": "Très bien{{string value=\"...\"}}{{pageBreak}}{{anim id=\"Serious\" target=\"actor\" targetSpec=\"\"}}Allenatore {{string value=\"31\"}},{{delay8}}\ncome commenti la sconfitta\nepocale della tua squadra?"
  },
  {
    "label": "007",
    "attribute": "0x0000000000000000",
    "text": "{{anim id=\"Frantic\" target=\"actor\" targetSpec=\"\"}}Come?! {{delay8}}Abbiamo perso? {{delay8}}No, non\npuò essere!{{delay20}} {{anim id=\"Sighing\" target=\"actor\" targetSpec=\"\"}}Volevo dire, {{delay8}}ehm{{string value=\"...\"}}{{pageBreak}}{{anim id=\"Explain\" target=\"actor\" targetSpec=\"\"}}Dovremo sforzarci molto di più\nnella prossima partita, {{delay8}}se vogliamo\nvincere, {{string value=\"6\"}}!"
  },
  {
    "label": "008",
    "attribute": "0x0000000000000000",
    "text": "{{anim id=\"AbsentMindedness\" target=\"actor\" targetSpec=\"\"}}Mi piacerebbe essere chiamato\n\"capo\". {{delay20}}{{anim id=\"Smiling\" target=\"actor\" targetSpec=\"\"}}Così capirei come ci si\nsente a essere al comando{{string value=\"...\"}}"
  },
  {
    "label": "009",
    "attribute": "0x0000000000000000",
    "text": "{{anim id=\"Thinking\" target=\"actor\" targetSpec=\"\"}}Va bene{{string value=\"...\"}}{{delay20}} {{anim id=\"Serious\" target=\"actor\" targetSpec=\"\"}}Capo! {{delay20}}Dobbiamo decidere\nsubito quale colore scegliere per la\nmoquette dell'ufficio: {{delay20}}{{anim id=\"QuestionMark\" target=\"actor\" targetSpec=\"\"}}grigio o blu?"
  },
  {
    "label": "010",
    "attribute": "0x0000000000000000",
    "text": "{{anim id=\"Worried\" target=\"actor\" targetSpec=\"\"}}Proprio adesso?{{delay20}} {{anim id=\"Frantic\" target=\"actor\" targetSpec=\"\"}}Allora facciamo\nblu{{string value=\"...\"}} No, aspetta! {{delay8}}Meglio grigio.{{delay20}}\n{{anim id=\"Thinking\" target=\"actor\" targetSpec=\"\"}}Mmmh{{string value=\"...\"}}\n{{anim id=\"TakenAback\" target=\"mainNpc\" targetSpec=\"\"}}Ah, {{delay8}}mi è venuto un crampo\nal cervello, {{string value=\"6\"}}!"
  },
  {
    "label": "101",
    "attribute": "0x0000010000000000",
    "text": "{{anim id=\"Hello\" target=\"actor\" targetSpec=\"\"}}Senti, {{string value=\"NickName\"}}!{{delay8}}{{anim id=\"EmotEnd\" target=\"actor\" targetSpec=\"\"}} Dici che dovrei ascoltare {{string value=\"31\"}} e {{anim id=\"Nodding\" target=\"subNpc\" targetSpec=\"\"}}iniziare a fare sollevamento pesi?{{anim id=\"SmugFace\" target=\"subNpc\" targetSpec=\"\"}}{{pageBreak}}{{anim id=\"QuestionMark\" target=\"actor\" targetSpec=\"\"}}E secondo te dovrei cominciare\npotenziando le braccia {{delay8}}o le gambe,\n{{string value=\"6\"}}?"
  },
  {
    "label": "101_a",
    "attribute": "0x0000000000000000",
    "text": "Prima le braccia!"
  },
  {
    "label": "101_b",
    "attribute": "0x0000000000000000",
    "text": "Prima le gambe!"
  },
  {
    "label": "102",
    "attribute": "0x0000000000000000",
    "text": "{{anim id=\"BigSmile\" target=\"actor\" targetSpec=\"\"}}Eh, sì! {{anim id=\"FaintSmile\" target=\"actor\" targetSpec=\"\"}}{{i20_3 arg=\"5\"}}{{i20_2 arg=\"4\"}}Gliel'ho detto anch'io!{{pageBreak}}{{anim id=\"Nodding\" target=\"actor\" targetSpec=\"\"}}Dopo solo un paio di settimane\ndi pesi,{{delay8}}{{anim id=\"EmotEnd\" target=\"actor\" targetSpec=\"\"}} riuscirà a trasportare\n{{anim id=\"Laughing\" target=\"actor\" targetSpec=\"\"}}pile enormi di libri!"
  },
  {
    "label": "103",
    "attribute": "0x0000000000000000",
    "text": "{{anim id=\"AbsentMindedness\" target=\"actor\" targetSpec=\"\"}}Ora che ci penso, dovrei proprio\nrisistemare i miei scaffali e donare\nquei libri che non mi servono più{{string value=\"...\"}}"
  },
  {
    "label": "104",
    "attribute": "0x0000000000000000",
    "text": "{{anim id=\"IdeaBulb\" target=\"actor\" targetSpec=\"\"}}E poi ti piace cucinare, {{delay8}}giusto?{{pageBreak}}{{anim id=\"Nodding\" target=\"mainNpc\" targetSpec=\"\"}}{{i20_2 arg=\"4\"}}Potresti usare dei grossi utensili\npesanti e mescolare gli ingredienti\na velocità folle, {{string value=\"6\"}}."
  },
  {
    "label": "105",
    "attribute": "0x0000000000000000",
    "text": "{{anim id=\"TakenAback\" target=\"actor\" targetSpec=\"\"}}Tu as raison! {{delay20}}Potrei impastare per\nore senza stancarmi {{delay8}}{{anim id=\"HappyFlower\" target=\"actor\" targetSpec=\"\"}}e preparare\nmontagne di dolcetti!"
  },
  {
    "label": "106",
    "attribute": "0x0000000000000000",
    "text": "{{anim id=\"BigSmile\" target=\"actor\" targetSpec=\"\"}}Vedi? {{i20_3 arg=\"5\"}}{{i20_2 arg=\"4\"}}{{delay20}}La pensiamo allo stesso modo, {{delay8}}{{string value=\"Catchphrase\"}}!{{pageBreak}}{{anim id=\"Nodding\" target=\"actor\" targetSpec=\"\"}}Dopo un paio di settimane di affondi\ne piegamenti, {{delay8}}{{anim id=\"EmotEnd\" target=\"actor\" targetSpec=\"\"}}farai il giro dell'isola\ndi corsa {{anim id=\"Nodding\" target=\"actor\" targetSpec=\"\"}}{{anim id=\"Pardon\" target=\"mainNpc\" targetSpec=\"\"}}in men che non si dica.{{anim id=\"EmotEnd\" target=\"actor\" targetSpec=\"\"}}"
  },
  {
    "label": "107",
    "attribute": "0x0000000000000000",
    "text": "{{anim id=\"Clapping\" target=\"actor\" targetSpec=\"\"}}Mais oui!{{delay8}} {{anim id=\"AbsentMindedness\" target=\"actor\" targetSpec=\"\"}}Potrei anche sbrigare le\nmie commissioni molto più in fretta\ne {{anim id=\"Smiling\" target=\"actor\" targetSpec=\"\"}}avere più tempo per leggere!{{anim id=\"EmotEnd\" target=\"subNpc\" targetSpec=\"\"}}"
  },
  {
    "label": "108",
    "attribute": "0x0000000000000000",
    "text": "{{anim id=\"Confused\" target=\"actor\" targetSpec=\"\"}}Leggere?{{delay8}} {{i20_2 arg=\"4\"}}Commissioni?{{delay8}} {{anim id=\"Worried\" target=\"actor\" targetSpec=\"\"}}E io che\npensavo che ti interessassi di\n{{randomSports}}, {{string value=\"6\"}}{{string value=\"...\"}}"
  },
  {
    "label": "109",
    "attribute": "0x0000000000000000",
    "text": "{{anim id=\"FaintSmile\" target=\"actor\" targetSpec=\"\"}}Oh, non fa per me{{string value=\"...\"}} ma tonificare le\ngambe potrebbe comunque tornarmi\nutile."
  },
  {
    "label": "201",
    "attribute": "0x0000000000000000",
    "text": "{{anim id=\"Worried\" target=\"actor\" targetSpec=\"\"}}A volte mi sento in colpa a strappare\nle erbacce, {{string value=\"Catchphrase\"}}{{string value=\"...\"}}{{pageBreak}}{{anim id=\"Sighing\" target=\"actor\" targetSpec=\"\"}}Sarebbe davvero così terribile\nlasciarle libere di crescere?"
  },
  {
    "label": "202",
    "attribute": "0x0000000000000000",
    "text": "{{anim id=\"Shocked\" target=\"actor\" targetSpec=\"\"}}Non se ne parla nemmeno!{{i20_2 arg=\"4\"}} {{delay20}}{{anim id=\"Angry\" target=\"actor\" targetSpec=\"\"}}O loro\no noi, {{string value=\"31\"}}! {{delay20}}{{anim id=\"Fuming\" target=\"actor\" targetSpec=\"\"}}Non c'è altra soluzione!{{anim id=\"EmotEnd\" target=\"mainNpc\" targetSpec=\"\"}}"
  },
  {
    "label": "203",
    "attribute": "0x0000000000000000",
    "text": "{{i20_2 arg=\"3\"}}{{anim id=\"Hesitate\" target=\"actor\" targetSpec=\"\"}}Sai, {{string value=\"31\"}}, {{delay8}}mi sembra così difficile trovare qualcosa su cui siamo d'accordo, {{string value=\"Catchphrase\"}}{{string value=\"...\"}}"
  },
  {
    "label": "204",
    "attribute": "0x0000000000000000",
    "text": "{{anim id=\"Thinking\" target=\"actor\" targetSpec=\"\"}}Mmmh{{string value=\"...\"}}{{delay8}} {{anim id=\"IdeaBulb\" target=\"actor\" targetSpec=\"\"}}Però entrambi pensiamo\nche dire \"{{string value=\"Catchphrase\"}}\" sia molto\ndivertente.\n{{anim id=\"Nodding\" target=\"mainNpc\" targetSpec=\"\"}}Dico bene, {{string value=\"Catchphrase\"}}?"
  },
  {
    "label": "205",
    "attribute": "0x0000000000000000",
    "text": "{{anim id=\"Smiling\" target=\"actor\" targetSpec=\"\"}}Oh, oui! {{delay8}}È così bello aver trovato\nqualcosa che ci unisce!{{delay20}} {{anim id=\"HappyFlower\" target=\"actor\" targetSpec=\"\"}}Continua\npure a dirlo, se ti fa stare bene!{{anim id=\"FaintSmile\" target=\"subNpc\" targetSpec=\"\"}}"
  }
]