﻿[
  {
    "label": "CountdownDemo",
    "attribute": "0x0000001E",
    "text": "{{fun_00080064 arg=\"\"}}新年快樂。{{delay frames=\"40\"}}\n新的一年{{delay20}}也請多多指教！{{i10_8 arg=\"200\"}}{{endTag}}"
  },
  {
    "label": "CountdownStart",
    "attribute": "0x0000001E",
    "text": "{{fun_00080064 arg=\"\"}}大家好～！{{delay frames=\"30\"}}\n請來參加{{delay8}}跨年{{color id=\"1\"}}倒數{{color id=\"65535\"}}！{{endTag}}{{i10_7 arg=\"180\"}}"
  },
  {
    "label": "FireworksStart",
    "attribute": "0x0000001E",
    "text": "{{fun_00080064 arg=\"\"}}大家好～！{{delay frames=\"30\"}}\n{{color id=\"1\"}}煙火大會{{color id=\"65535\"}}{{delay8}}\n馬上就要開始狸～！{{i10_8 arg=\"300\"}}{{endTag}}"
  },
  {
    "label": "FireworksStart_00",
    "attribute": "0x0000001E",
    "text": "{{fun_00080064 arg=\"\"}}大家好～！{{delay frames=\"30\"}}\n現在正在舉行{{delay8}}\n{{color id=\"1\"}}煙火大會{{color id=\"65535\"}}狸～！{{i10_8 arg=\"300\"}}{{endTag}}"
  },
  {
    "label": "FireworksStart_01",
    "attribute": "0x0000001E",
    "text": "{{fun_00080064 arg=\"\"}}大家好～！{{delay frames=\"30\"}}\n{{color id=\"1\"}}煙火大會{{color id=\"65535\"}}{{delay8}}\n馬上就要開始囉～！{{i10_8 arg=\"300\"}}{{endTag}}"
  },
  {
    "label": "FireworksStart_02",
    "attribute": "0x0000001E",
    "text": "{{fun_00080064 arg=\"\"}}大家好～！{{delay frames=\"30\"}}\n現在正在舉行{{delay8}}\n{{color id=\"1\"}}煙火大會{{color id=\"65535\"}}喔～！{{i10_8 arg=\"300\"}}{{endTag}}"
  },
  {
    "label": "FishingStart",
    "attribute": "0x0000001E",
    "text": "{{fun_00080064 arg=\"\"}}大家好～！{{delay frames=\"30\"}}\n{{color id=\"1\"}}春季釣魚大會{{delay8}}{{color id=\"65535\"}}\n馬上就要開始了～{{endTag}}{{i10_7 arg=\"180\"}}"
  },
  {
    "label": "FishingStart_00",
    "attribute": "0x0000001E",
    "text": "{{fun_00080064 arg=\"\"}}大家好～！{{delay frames=\"30\"}}\n現在正在舉行{{delay8}}\n{{color id=\"1\"}}春季釣魚大會{{color id=\"65535\"}}～{{endTag}}{{i10_7 arg=\"180\"}}"
  },
  {
    "label": "FishingStart_01",
    "attribute": "0x0000001E",
    "text": "{{fun_00080064 arg=\"\"}}大家好～！{{delay frames=\"30\"}}\n{{color id=\"1\"}}夏季釣魚大會{{delay8}}{{color id=\"65535\"}}\n馬上就要開始了～{{endTag}}{{i10_7 arg=\"180\"}}"
  },
  {
    "label": "FishingStart_02",
    "attribute": "0x0000001E",
    "text": "{{fun_00080064 arg=\"\"}}大家好～！{{delay frames=\"30\"}}\n現在正在舉行{{delay8}}\n{{color id=\"1\"}}夏季釣魚大會{{color id=\"65535\"}}～{{endTag}}{{i10_7 arg=\"180\"}}"
  },
  {
    "label": "FishingStart_03",
    "attribute": "0x0000001E",
    "text": "{{fun_00080064 arg=\"\"}}大家好～！{{delay frames=\"30\"}}\n{{color id=\"1\"}}秋季釣魚大會{{delay8}}{{color id=\"65535\"}}\n馬上就要開始了～{{endTag}}{{i10_7 arg=\"180\"}}"
  },
  {
    "label": "FishingStart_04",
    "attribute": "0x0000001E",
    "text": "{{fun_00080064 arg=\"\"}}大家好～！{{delay frames=\"30\"}}\n現在正在舉行{{delay8}}\n{{color id=\"1\"}}秋季釣魚大會{{color id=\"65535\"}}～{{endTag}}{{i10_7 arg=\"180\"}}"
  },
  {
    "label": "FishingStart_05",
    "attribute": "0x0000001E",
    "text": "{{fun_00080064 arg=\"\"}}大家好～！{{delay frames=\"30\"}}\n{{color id=\"1\"}}冬季釣魚大會{{delay8}}{{color id=\"65535\"}}\n馬上就要開始了～{{endTag}}{{i10_7 arg=\"180\"}}"
  },
  {
    "label": "FishingStart_06",
    "attribute": "0x0000001E",
    "text": "{{fun_00080064 arg=\"\"}}大家好～！{{delay frames=\"30\"}}\n現在正在舉行{{delay8}}\n{{color id=\"1\"}}冬季釣魚大會{{color id=\"65535\"}}～{{i10_7 arg=\"180\"}}{{endTag}}"
  },
  {
    "label": "HalloweenStart",
    "attribute": "0x0000001E",
    "text": "{{fun_00080064 arg=\"\"}}大家好～！{{delay frames=\"30\"}}\n{{color id=\"1\"}}萬聖節{{color id=\"65535\"}}活動{{delay8}}\n馬上就要開始狸～！{{endTag}}{{i10_7 arg=\"180\"}}"
  },
  {
    "label": "HalloweenStart_00",
    "attribute": "0x0000001E",
    "text": "{{fun_00080064 arg=\"\"}}大家好～！{{delay frames=\"30\"}}\n現在正在舉行{{delay8}}\n{{color id=\"1\"}}萬聖節{{color id=\"65535\"}}活動狸～！{{endTag}}{{i10_7 arg=\"180\"}}"
  },
  {
    "label": "HalloweenStart_01",
    "attribute": "0x0000001E",
    "text": "{{fun_00080064 arg=\"\"}}大家好～！{{delay frames=\"30\"}}\n{{color id=\"1\"}}萬聖節{{color id=\"65535\"}}活動{{delay8}}\n馬上就要開始囉～！{{endTag}}{{i10_7 arg=\"180\"}}"
  },
  {
    "label": "HalloweenStart_02",
    "attribute": "0x0000001E",
    "text": "{{fun_00080064 arg=\"\"}}大家好～！{{delay frames=\"30\"}}\n現在正在舉行{{delay8}}\n{{color id=\"1\"}}萬聖節{{color id=\"65535\"}}活動喔～！{{endTag}}{{i10_7 arg=\"180\"}}"
  },
  {
    "label": "HarvestStart",
    "attribute": "0x0000001E",
    "text": "{{fun_00080064 arg=\"\"}}大家好～！{{delay frames=\"30\"}}\n{{color id=\"1\"}}感恩節{{color id=\"65535\"}}{{delay8}}\n馬上就要開始囉～！{{endTag}}{{i10_7 arg=\"180\"}}"
  },
  {
    "label": "HarvestStart_00",
    "attribute": "0x0000001E",
    "text": "{{fun_00080064 arg=\"\"}}大家好～！{{delay frames=\"30\"}}\n現在正在舉行{{delay8}}\n{{color id=\"1\"}}感恩節{{color id=\"65535\"}}喔～！{{endTag}}{{i10_7 arg=\"180\"}}"
  },
  {
    "label": "InsectStart",
    "attribute": "0x0000001E",
    "text": "{{fun_00080064 arg=\"\"}}大家好～！{{delay frames=\"30\"}}\n{{color id=\"1\"}}捕蟲大會{{delay8}}{{color id=\"65535\"}}\n馬上就要開始了～{{endTag}}{{i10_7 arg=\"180\"}}"
  },
  {
    "label": "InsectStart_00",
    "attribute": "0x0000001E",
    "text": "{{fun_00080064 arg=\"\"}}大家好～！{{delay frames=\"30\"}}\n現在正在舉行{{delay8}}\n{{color id=\"1\"}}捕蟲大會{{color id=\"65535\"}}～{{endTag}}{{i10_7 arg=\"180\"}}"
  }
]