﻿[
  {
    "label": "001",
    "attribute": "0x0000000000000000",
    "text": "{{anim id=\"Greeting\" target=\"actor\" targetSpec=\"\"}}やあ、{{string value=\"4\"}}{{delay frames=\"40\"}}\nキミの{{ruby charSpan=\"2\" value=\"ともだち\"}}友達が　{{ruby charSpan=\"1\" value=\"き\"}}来てるし、{{delay20}}\n{{ruby charSpan=\"1\" value=\"いま\"}}今は　{{ruby charSpan=\"1\" value=\"いそが\"}}忙しそうだね{{string value=\"...\"}}{{pageBreak}}{{anim id=\"ShyBoy\" target=\"actor\" targetSpec=\"\"}}ちょっと{{ruby charSpan=\"2\" value=\"ようじ\"}}用事が　あったんだけど、{{delay20}}\nそういうことなら　また　あとで{{ruby charSpan=\"3\" value=\"だいじょうぶ\"}}大丈夫さ{{pageBreak}}{{anim id=\"Nodding\" target=\"actor\" targetSpec=\"\"}}キミが　{{ruby charSpan=\"2\" value=\"ともだち\"}}友達とサヨナラしたら{{delay20}}\nまた{{ruby charSpan=\"1\" value=\"だれ\"}}誰かが　{{ruby charSpan=\"1\" value=\"こえ\"}}声をかけに{{ruby charSpan=\"1\" value=\"い\"}}行くと{{ruby charSpan=\"1\" value=\"おも\"}}思うから{{delay20}}\nその{{ruby charSpan=\"1\" value=\"とき\"}}時は　よろしくね、{{string value=\"6\"}}"
  },
  {
    "label": "002",
    "attribute": "0x0000000000000000",
    "text": "{{anim id=\"Greeting\" target=\"actor\" targetSpec=\"\"}}やあ、{{string value=\"4\"}}{{delay frames=\"40\"}}\n{{anim id=\"Hello\" target=\"actor\" targetSpec=\"\"}}{{ruby charSpan=\"1\" value=\"いま\"}}今って　{{selection value=\"SelectedName\"}}{{string value=\"13\"}}と{{delay20}}\n{{ruby charSpan=\"1\" value=\"あそ\"}}遊んでるんだよね？　{{string value=\"6\"}}{{pageBreak}}{{anim id=\"ShyBoy\" target=\"actor\" targetSpec=\"\"}}{{ruby charSpan=\"1\" value=\"じつ\"}}実は、{{delay8}}{{ruby charSpan=\"2\" value=\"きょう\"}}今日　どうしても{{delay20}}\n{{selection value=\"SelectedName\"}}{{string value=\"13\"}}と\n{{ruby charSpan=\"1\" value=\"はな\"}}話したいってコが　いるらしいんだ{{pageBreak}}{{anim id=\"Explain\" target=\"actor\" targetSpec=\"\"}}だから、{{delay8}}{{ruby charSpan=\"2\" value=\"かいさん\"}}解散して　ひとりになったら{{delay20}}\n{{anim id=\"Explain\" target=\"actor\" targetSpec=\"\"}}またあとで　{{ruby charSpan=\"1\" value=\"あそ\"}}遊びに{{ruby charSpan=\"1\" value=\"き\"}}来てほしいって{{string value=\"...\"}}{{pageBreak}}{{anim id=\"QuestionMark\" target=\"actor\" targetSpec=\"\"}}キミから　{{gender1 m=\"カレ\" f=\"カノジョ\"}}に{{delay20}}\nそう{{ruby charSpan=\"1\" value=\"つた\"}}伝えてくれないかな？{{i10_4}}\n{{anim id=\"Nodding\" target=\"actor\" targetSpec=\"\"}}お{{ruby charSpan=\"1\" value=\"と\"}}取り{{ruby charSpan=\"1\" value=\"こ\"}}込み{{ruby charSpan=\"1\" value=\"ちゅう\"}}中　{{ruby charSpan=\"1\" value=\"わる\"}}悪いけど、{{delay20}}よろしくね"
  }
]