﻿[
  {
    "label": "001",
    "attribute": "0x0000000100000000",
    "text": "{{i10_14 arg=\"50\"}}{{anim id=\"Dance\" target=\"actor\" targetSpec=\"\"}}ハッピーニューイヤー！{{delay20}}\n{{string value=\"4\"}}！{{delay20}}\n{{ruby charSpan=\"2\" value=\"ことし\"}}今年も　{{ruby charSpan=\"2\" value=\"いっしょ\"}}一緒に　{{ruby charSpan=\"1\" value=\"たの\"}}楽しく{{ruby charSpan=\"1\" value=\"す\"}}過ごそう！　{{string value=\"6\"}}"
  },
  {
    "label": "002",
    "attribute": "0x0000000100000000",
    "text": "{{anim id=\"BigSmile\" target=\"actor\" targetSpec=\"\"}}あけまして　おめでとう！{{delay frames=\"40\"}}\n{{anim id=\"Hello\" target=\"actor\" targetSpec=\"\"}}{{ruby charSpan=\"2\" value=\"ことし\"}}今年は　どんな{{ruby charSpan=\"1\" value=\"とし\"}}年になるかな？{{pageBreak}}{{anim id=\"Smiling\" target=\"actor\" targetSpec=\"\"}}なんとなく　いい{{ruby charSpan=\"1\" value=\"とし\"}}年になる{{ruby charSpan=\"2\" value=\"よかん\"}}予感がするよ{{delay frames=\"40\"}}\n{{anim id=\"Grin\" target=\"actor\" targetSpec=\"\"}}キミと{{ruby charSpan=\"2\" value=\"いっしょ\"}}一緒ならね{{string value=\"...\"}}、{{string value=\"6\"}}"
  },
  {
    "label": "003",
    "attribute": "0x0000000100000000",
    "text": "{{anim id=\"BigSmile\" target=\"actor\" targetSpec=\"\"}}ハッピーニューイヤー！{{delay frames=\"40\"}}\n{{anim id=\"FaintSmile\" target=\"actor\" targetSpec=\"\"}}ヒトによって　{{ruby charSpan=\"1\" value=\"しあわ\"}}幸せのカタチは{{ruby charSpan=\"1\" value=\"ちが\"}}違うけど、{{delay20}}\n{{ruby charSpan=\"2\" value=\"まんぞく\"}}満足できるように　ガンバりたいね、{{string value=\"6\"}}"
  },
  {
    "label": "004",
    "attribute": "0x0000000100000000",
    "text": "{{anim id=\"BigSmile\" target=\"actor\" targetSpec=\"\"}}あけましておめでとう！{{delay20}}{{anim id=\"FaintSmile\" target=\"actor\" targetSpec=\"\"}}{{i10_4}}\n{{anim id=\"Explain\" target=\"actor\" targetSpec=\"\"}}{{ruby charSpan=\"2\" value=\"きのう\"}}昨日のボクが　{{ruby charSpan=\"2\" value=\"きょう\"}}今日のボクに{{string value=\"...\"}}\n{{anim id=\"Explain\" target=\"actor\" targetSpec=\"\"}}{{ruby charSpan=\"2\" value=\"きょう\"}}今日のボクが　{{ruby charSpan=\"2\" value=\"あした\"}}明日のボクに　つながっている{{pageBreak}}{{anim id=\"Nodding\" target=\"actor\" targetSpec=\"\"}}だからこそ　{{ruby charSpan=\"1\" value=\"いま\"}}今、この{{ruby charSpan=\"2\" value=\"しゅんかん\"}}瞬間を{{delay20}}\n{{ruby charSpan=\"2\" value=\"だいじ\"}}大事にしたいと　{{ruby charSpan=\"1\" value=\"おも\"}}思うんだ、{{string value=\"6\"}}"
  },
  {
    "label": "005",
    "attribute": "0x0000000100000000",
    "text": "{{anim id=\"BigSmile\" target=\"actor\" targetSpec=\"\"}}ハッピーニューイヤー！{{delay frames=\"40\"}}\n{{anim id=\"Nodding\" target=\"actor\" targetSpec=\"\"}}この{{ruby charSpan=\"2\" value=\"ことば\"}}言葉の{{ruby charSpan=\"1\" value=\"とお\"}}通り　{{ruby charSpan=\"2\" value=\"がんじつ\"}}元日から{{delay20}}\nボクは　とてもハッピーだよ{{pageBreak}}{{anim id=\"EmotEnd\" target=\"actor\" targetSpec=\"\"}}この{{ruby charSpan=\"2\" value=\"ちょうし\"}}調子で　{{number value=\"27\"}}{{ruby charSpan=\"1\" value=\"ねん\"}}年も{{delay20}}\n{{ruby charSpan=\"1\" value=\"こころ\"}}心のままに　{{ruby charSpan=\"1\" value=\"たの\"}}楽しく{{ruby charSpan=\"1\" value=\"す\"}}過ごす！{{delay frames=\"40\"}}\n{{anim id=\"Smiling\" target=\"actor\" targetSpec=\"\"}}それが　{{ruby charSpan=\"2\" value=\"ことし\"}}今年の{{ruby charSpan=\"2\" value=\"もくひょう\"}}目標かな、{{string value=\"6\"}}"
  }
]