﻿[
  {
    "label": "001",
    "attribute": "0x0000000000000000",
    "text": "{{anim id=\"FaintSmile\" target=\"actor\" targetSpec=\"\"}}Hoy celebramos el cumpleaños de\n{{selection value=\"SelectedVillager\"}}{{string value=\"...\"}}{{delay frames=\"8\"}} {{anim id=\"WrySmile\" target=\"actor\" targetSpec=\"\"}}como habrás visto.{{delay frames=\"30\"}} {{anim id=\"Eh\" target=\"actor\" targetSpec=\"\"}}¿Ya l{{gender8 m=\"o\" f=\"a\" n=\"\"}} felicitaste?"
  },
  {
    "label": "002",
    "attribute": "0x0000000000000000",
    "text": "{{anim id=\"Thinking\" target=\"actor\" targetSpec=\"\"}}Uno no cumple años todos los días,{{delay frames=\"8\"}}\n{{anim id=\"Nodding\" target=\"actor\" targetSpec=\"\"}}¡tenemos que lograr que hoy sea\nmemorable para {{selection value=\"SelectedVillager\"}}!\n{{anim id=\"Love\" target=\"actor\" targetSpec=\"\"}}Está radiante, ¿no te parece?{{delay20}}\n{{anim id=\"FaintSmile\" target=\"actor\" targetSpec=\"\"}}Espero que,{{delay8}} cuando llegue mi\ncumpleaños,{{delay8}} luzca así de feliz."
  },
  {
    "label": "003",
    "attribute": "0x0000000000000000",
    "text": "{{anim id=\"Grin\" target=\"actor\" targetSpec=\"\"}}{{selection value=\"SelectedVillager\"}} parece tan content{{gender8 m=\"o\" f=\"a\" n=\"\"}} que me dan ganas de que llegue también mi cumpleaños."
  },
  {
    "label": "004",
    "attribute": "0x0000000000000000",
    "text": "{{anim id=\"Shocked\" target=\"actor\" targetSpec=\"\"}}Oye,{{delay frames=\"20\"}} nadie nos ha presentado.{{delay frames=\"40\"}}\n{{anim id=\"OhGeez\" target=\"actor\" targetSpec=\"\"}}Qué poca educación{{string value=\"...\"}}{{delay frames=\"30\"}}\n{{anim id=\"Hello\" target=\"actor\" targetSpec=\"\"}}Soy {{string value=\"VillagerName\"}},{{delay frames=\"8\"}} encantada.\n{{anim id=\"Explain\" target=\"actor\" targetSpec=\"\"}}Las fiestas son un lugar ideal\npara hacer nuevos amigos,{{delay frames=\"8\"}}\n¿no te parece?\n{{anim id=\"Thinking\" target=\"actor\" targetSpec=\"\"}}Yo voy a ver si me hago amiga\nde la mesa de los canapés.{{delay frames=\"30\"}}\n{{anim id=\"FaintSmile\" target=\"actor\" targetSpec=\"\"}}¿Dónde está el caviar,{{delay frames=\"8\"}} {{string value=\"Catchphrase\"}}?"
  },
  {
    "label": "005",
    "attribute": "0x0000000000000000",
    "text": "{{anim id=\"Negative\" target=\"actor\" targetSpec=\"\"}}Los años no son una carga,{{delay frames=\"8\"}}\n{{anim id=\"BigSmile\" target=\"actor\" targetSpec=\"\"}}¡son una liberación, {{string value=\"6\"}}!{{pageBreak}}{{anim id=\"Explain\" target=\"actor\" targetSpec=\"\"}}Cuanto más sabia se vuelve una,{{delay frames=\"8\"}}\nmás libre es,{{delay frames=\"8\"}} ¿no crees?"
  },
  {
    "label": "006",
    "attribute": "0x0000000000000000",
    "text": "{{anim id=\"Nodding\" target=\"actor\" targetSpec=\"\"}}Hoy {{selection value=\"SelectedVillager\"}} da un paso hacia la madurez.{{delay frames=\"30\"}} {{anim id=\"Grin\" target=\"actor\" targetSpec=\"\"}}Más de uno aquí debería hacer lo mismo."
  },
  {
    "label": "007",
    "attribute": "0x0000000000000000",
    "text": "{{anim id=\"Explain\" target=\"actor\" targetSpec=\"\"}}Sobre los pasteles de cumpleaños\nse colocan velas{{delay frames=\"8\"}} y sobre los pasteles\nde boda se colocan dos figuritas.\n{{anim id=\"Eh\" target=\"actor\" targetSpec=\"\"}}¡Es fundamental no hacerlo al revés!{{delay frames=\"30\"}}\n{{anim id=\"Thinking\" target=\"actor\" targetSpec=\"\"}}No solo por respetar las tradiciones,{{delay frames=\"8\"}}\nque son muy importantes{{string value=\"...\"}}\n{{anim id=\"OhGeez\" target=\"actor\" targetSpec=\"\"}}Sino porque poner la figurita sola\ndel cumpleañero podría quedar\nun poco triste, {{string value=\"6\"}}.\n{{anim id=\"Laughing\" target=\"actor\" targetSpec=\"\"}}¡Y con las velas se le podría prender\nfuego el velo a la novia!"
  },
  {
    "label": "008",
    "attribute": "0x0000000000000000",
    "text": "{{anim id=\"AbsentMindedness\" target=\"actor\" targetSpec=\"\"}}Los cumpleaños me traen\nmuy buenos recuerdos.{{pageBreak}}Nunca olvido el sabor del pastel\n{{anim id=\"Love\" target=\"actor\" targetSpec=\"\"}}tan delicioso que hacía mi madre{{string value=\"...\"}}{{pageBreak}}{{anim id=\"Fuming\" target=\"actor\" targetSpec=\"\"}}¡Hace años que intento reproducir\nla receta,{{delay frames=\"8\"}} pero no hay manera de\nque me salga igual,{{delay frames=\"8\"}} {{string value=\"Catchphrase\"}}!"
  },
  {
    "label": "009",
    "attribute": "0x0000000000000000",
    "text": "{{anim id=\"Explain\" target=\"actor\" targetSpec=\"\"}}Decorar la casa de {{selection value=\"SelectedVillager\"}} es un detalle que contribuye a alegrarle el día.{{pageBreak}}{{anim id=\"FaintSmile\" target=\"actor\" targetSpec=\"\"}}Espero que le guste cómo quedó.{{delay frames=\"30\"}} {{anim id=\"WrySmile\" target=\"actor\" targetSpec=\"\"}}Una vez que empiezas,{{delay frames=\"8\"}}\nes fácil que se te vaya la mano."
  },
  {
    "label": "010",
    "attribute": "0x0000000000000000",
    "text": "{{anim id=\"Thinking\" target=\"actor\" targetSpec=\"\"}}Tengo curiosidad por saber\nqué le vas a regalar a {{selection value=\"SelectedVillager\"}}.{{pageBreak}}{{anim id=\"FaintSmile\" target=\"actor\" targetSpec=\"\"}}Si fue un regalo elegido con el\ncorazón,{{delay frames=\"8\"}} seguro que triunfas."
  },
  {
    "label": "011",
    "attribute": "0x0000000000000000",
    "text": "{{anim id=\"Explain\" target=\"actor\" targetSpec=\"\"}}Cuando no sé qué regalarle\na alguien,{{delay frames=\"8\"}} siempre recurro a los\nclásicos:{{delay frames=\"20\"}} un disco,{{delay frames=\"8\"}} flores{{string value=\"...\"}}\n{{anim id=\"Grin\" target=\"actor\" targetSpec=\"\"}}O,{{delay frames=\"8\"}} en el peor de los casos,{{delay frames=\"8\"}}\nalgún pequeño electrodoméstico.\n{{anim id=\"ShyBoy\" target=\"actor\" targetSpec=\"\"}}¡La intención es lo que cuenta!"
  },
  {
    "label": "012",
    "attribute": "0x0000000000000000",
    "text": "{{anim id=\"ShyBoy\" target=\"actor\" targetSpec=\"\"}}Yo soy muy buena eligiendo regalos.\n{{color id=\"4\"}}(Entre muchas otras cosas{{string value=\"...\"}}).{{color id=\"65535\"}}{{pageBreak}}{{anim id=\"Nodding\" target=\"actor\" targetSpec=\"\"}}A {{selection value=\"SelectedVillager\"}} le encantó lo que le traje.{{pageBreak}}A ver qué me invento para el año\nque viene,{{anim id=\"OhGeez\" target=\"actor\" targetSpec=\"\"}}{{delay frames=\"12\"}} {{anim id=\"SmugFace\" target=\"actor\" targetSpec=\"\"}}¡no sé si podré superarme!"
  },
  {
    "label": "014",
    "attribute": "0x0000000000000000",
    "text": "{{anim id=\"TakenAback\" target=\"actor\" targetSpec=\"\"}}¡Hola,{{delay8}} {{string value=\"NickName\"}}!{{delay20}}\n{{anim id=\"Nodding\" target=\"actor\" targetSpec=\"\"}}Ahora vivo aquí.{{pageBreak}}{{anim id=\"FaintSmile\" target=\"actor\" targetSpec=\"\"}}Será un placer poder hacer más\ncosas junt{{gender2 m=\"o\" f=\"a\"}}s{{string value=\"...\"}}{{delay8}} {{anim id=\"BigSmile\" target=\"actor\" targetSpec=\"\"}}¡como celebrar\nel cumpleaños de {{selection value=\"SelectedVillager\"}}!\n{{anim id=\"AbsentMindedness\" target=\"actor\" targetSpec=\"\"}}Mi vida en {{string value=\"OtherIslandName\"}} va a ser fabulosa, {{string value=\"6\"}}."
  },
  {
    "label": "015",
    "attribute": "0x0000000000000000",
    "text": "{{anim id=\"Shocked\" target=\"actor\" targetSpec=\"\"}}¡{{capitalizeNextLetter}}{{string value=\"NickName\"}}!{{delay20}} ¿Qué haces tú {{anim id=\"FaintSmile\" target=\"actor\" targetSpec=\"\"}}por aquí?{{delay20}} ¿Sabías que me mudé a {{string value=\"OtherIslandName\"}}?{{pageBreak}}{{anim id=\"Explain\" target=\"actor\" targetSpec=\"\"}}Justo hoy estamos celebrando el\ncumpleaños de {{selection value=\"SelectedVillager\"}}.{{delay20}} ¿Viniste a unirte a la fiesta?{{pageBreak}}{{anim id=\"Nodding\" target=\"actor\" targetSpec=\"\"}}Me alegro mucho de verte.{{delay20}}\n{{anim id=\"FaintSmile\" target=\"actor\" targetSpec=\"\"}}¡Diviértete, {{string value=\"6\"}}!"
  },
  {
    "label": "016",
    "attribute": "0x0000000000000000",
    "text": "{{anim id=\"Eh\" target=\"actor\" targetSpec=\"\"}}Hola,{{delay8}} encantada de conocerte.{{delay20}}\n{{anim id=\"FaintSmile\" target=\"actor\" targetSpec=\"\"}}¿Eres amig{{gender2 m=\"o\" f=\"a\"}} de {{selection value=\"SelectedVillager\"}}?{{pageBreak}}{{anim id=\"Explain\" target=\"actor\" targetSpec=\"\"}}Hoy celebramos su cumpleaños.{{delay8}}\n{{anim id=\"AbsentMindedness\" target=\"actor\" targetSpec=\"\"}}Me alegra contar con tu presencia.{{pageBreak}}Cuantos más seamos en la fiesta,{{delay8}}\n{{anim id=\"Grin\" target=\"actor\" targetSpec=\"\"}}más content{{gender8 m=\"o\" f=\"a\" n=\"\"}} estará {{selection value=\"SelectedVillager\"}},⁠ {{string value=\"6\"}}."
  },
  {
    "label": "017",
    "attribute": "0x0000000000000000",
    "text": "{{anim id=\"Eh\" target=\"actor\" targetSpec=\"\"}}Hola,{{delay8}} encantada de conocerte.{{delay20}}\n{{anim id=\"FaintSmile\" target=\"actor\" targetSpec=\"\"}}¿Eres amig{{gender2 m=\"o\" f=\"a\"}} de {{selection value=\"SelectedVillager\"}}?{{pageBreak}}{{anim id=\"Explain\" target=\"actor\" targetSpec=\"\"}}Hoy celebramos su cumpleaños.{{delay8}}\n{{anim id=\"AbsentMindedness\" target=\"actor\" targetSpec=\"\"}}Me alegra contar con tu presencia.{{pageBreak}}Cuantos más seamos en la fiesta,{{delay8}}\n{{anim id=\"Grin\" target=\"actor\" targetSpec=\"\"}}más content{{gender8 m=\"o\" f=\"a\" n=\"\"}} se estará{{selection value=\"SelectedVillager\"}}, {{string value=\"6\"}}."
  },
  {
    "label": "020",
    "attribute": "0x0000020000000000",
    "text": "{{anim id=\"Nodding\" target=\"actor\" targetSpec=\"\"}}¿No te parece muy útil tener doble\ncelebración en el día de hoy?{{pageBreak}}{{anim id=\"Explain\" target=\"actor\" targetSpec=\"\"}}Como es el {{color id=\"1\"}}Día de los Enamorados{{color id=\"65535\"}},{{delay8}}\nes más fácil que los demás se olviden\nde que sumas años{{string value=\"...\"}}{{delay20}}{{anim id=\"Scheming\" target=\"actor\" targetSpec=\"\"}} ¡y canas!"
  },
  {
    "label": "020_a",
    "attribute": "0x0000000000000000",
    "text": "{{anim id=\"EmotEnd\" target=\"actor\" targetSpec=\"\"}}¡Un regalito para ti!"
  },
  {
    "label": "020_b",
    "attribute": "0x0000000000000000",
    "text": "{{anim id=\"Nodding\" target=\"actor\" targetSpec=\"\"}}Tienes toda la razón"
  },
  {
    "label": "021",
    "attribute": "0x0000020000000000",
    "text": "{{anim id=\"AbsentMindedness\" target=\"actor\" targetSpec=\"\"}}En los cumpleaños hay dulces\npor todos lados,{{delay8}} pero si además\ncae en el {{color id=\"1\"}}Día de los Enamorados{{color id=\"65535\"}}{{string value=\"...\"}}\n{{anim id=\"Smiling\" target=\"actor\" targetSpec=\"\"}}¡Hoy es todo un deleite para\nel paladar, {{string value=\"6\"}}!"
  },
  {
    "label": "021_a",
    "attribute": "0x0000000000000000",
    "text": "{{anim id=\"EmotEnd\" target=\"actor\" targetSpec=\"\"}}¡Esto es para ti!"
  },
  {
    "label": "021_b",
    "attribute": "0x0000000000000000",
    "text": "{{anim id=\"Nodding\" target=\"actor\" targetSpec=\"\"}}Tienes toda la razón"
  },
  {
    "label": "022",
    "attribute": "0x0000020000000000",
    "text": "{{anim id=\"Explain\" target=\"actor\" targetSpec=\"\"}}Decorar la casa de {{selection value=\"SelectedVillager\"}} es un detalle que demuestra cariño y consideración.{{pageBreak}}{{anim id=\"FaintSmile\" target=\"actor\" targetSpec=\"\"}}Espero que le haya gustado cómo\nquedó.{{delay20}} {{anim id=\"WrySmile\" target=\"actor\" targetSpec=\"\"}}Una vez que empiezas,{{delay8}}\na veces cuesta un poco parar{{string value=\"...\"}}"
  },
  {
    "label": "022_a",
    "attribute": "0x0000000000000000",
    "text": "{{anim id=\"EmotEnd\" target=\"actor\" targetSpec=\"\"}}¡Esto es para ti!"
  },
  {
    "label": "022_b",
    "attribute": "0x0000000000000000",
    "text": "{{anim id=\"Nodding\" target=\"actor\" targetSpec=\"\"}}Quedó genial"
  }
]