﻿[
  {
    "label": "001",
    "attribute": "0x0000000000000000",
    "text": "{{anim id=\"Hello\" target=\"actor\" targetSpec=\"\"}}Ah, j'suppose que t'es venu{{gender2 m=\"\" f=\"e\"}}\nrécupérer la {{color id=\"1\"}}couronne de sapin{{color id=\"65535\"}}\nque j't'ai promise, pas vrai?"
  },
  {
    "label": "002",
    "attribute": "0x0000000000000000",
    "text": "{{anim id=\"Sighing\" target=\"actor\" targetSpec=\"\"}}Ouf!{{delay20}} J'suis soulagé que tu sois\nvenu{{gender2 m=\"\" f=\"e\"}}. {{delay20}}{{anim id=\"Nodding\" target=\"actor\" targetSpec=\"\"}}Après tout, j'l'avais préparée\nspécialement pour toi.\n{{anim id=\"SmugFace\" target=\"actor\" targetSpec=\"\"}}{{capitalizeNextLetter}}{{string value=\"OtherIslandName\"}} ne parlera que de ta maison et de la couronne signée {{string value=\"VillagerName\"}} sur la porte!"
  },
  {
    "label": "003",
    "attribute": "0x0000000000000000",
    "text": "{{anim id=\"Shocked\" target=\"actor\" targetSpec=\"\"}}Oh, mais t'as toujours pas de\nplace! {{delay20}}J'en viendrais presque à me\ndemander si tu veux ma couronne{{string value=\"...\"}}{{pageBreak}}{{anim id=\"Worried\" target=\"actor\" targetSpec=\"\"}}Mais quelle idée{{string value=\"...\"}} Bien sûr, tu rêves\nde ma sublime couronne{{string value=\"...\"}} Alors va\nfaire un peu de place{{string value=\"...\"}}{{anim id=\"Hesitate\" target=\"actor\" targetSpec=\"\"}} s'te plaît?"
  }
]