﻿[
  {
    "label": "001",
    "attribute": "0x0000000000000000",
    "text": "{{anim id=\"TakenAback\" target=\"actor\" targetSpec=\"\"}}Wow, c'est bien toi?{{delay20}}\n{{anim id=\"Aha\" target=\"actor\" targetSpec=\"\"}}{{capitalizeNextLetter}}{{string value=\"NickName\"}}?{{pageBreak}}{{anim id=\"BigSmile\" target=\"actor\" targetSpec=\"\"}}Ha HA!{{delay20}} Ça fait combien de temps,\n{{number value=\"1\" index=\"2\"}} {{i50_8 x=\"0\" y=\"2\" a=\"\" b=\"an\" c=\"ans\"}}?{{delay20}} C'est fou comme le temps\npasse.{{pageBreak}}{{anim id=\"OhGeez\" target=\"actor\" targetSpec=\"\"}}Prépare-toi à des changements,\nparce qu'on a pas chômé sur l'île\nentre-temps.\n{{anim id=\"Thinking\" target=\"actor\" targetSpec=\"\"}}Par exemple{{string value=\"...\"}} je pense à changer\nde coupe de cheveux{{string value=\"...\"}}{{pageBreak}}{{delay20}}Bon, d'accord, rien a changé.{{delay20}}\n{{anim id=\"Greeting\" target=\"actor\" targetSpec=\"\"}}Alors bienvenue à la maison,\n{{string value=\"Catchphrase\"}}!"
  },
  {
    "label": "002",
    "attribute": "0x0000000000000000",
    "text": "{{anim id=\"Aha\" target=\"actor\" targetSpec=\"\"}}Tiens, {{string value=\"NickName\"}}!{{delay20}} C'est bien toi?{{delay20}}{{anim id=\"QuestionMark\" target=\"actor\" targetSpec=\"\"}} Où t'étais passé{{gender2 m=\"\" f=\"e\"}} pendant tout ce temps?{{pageBreak}}{{anim id=\"Shocked\" target=\"actor\" targetSpec=\"\"}}Ça doit bien faire {{number value=\"1\" index=\"2\"}} {{i50_8 x=\"0\" y=\"2\" a=\"\" b=\"an\" c=\"ans\"}} et {{number value=\"1\" index=\"1\"}} mois!\n{{delay20}}{{anim id=\"Negative\" target=\"actor\" targetSpec=\"\"}}Le temps file {{anim id=\"EmotEnd\" target=\"actor\" targetSpec=\"\"}}comme la locomotive de\nnotre vie sur les rails de la destinée.{{pageBreak}}{{anim id=\"QuestionMark\" target=\"actor\" targetSpec=\"\"}}Alors, quoi de neuf?{{delay20}} {{anim id=\"SmugFace\" target=\"actor\" targetSpec=\"\"}}De mon\ncôté, je me suis plongé dans\nla cuisine expérimentale.\n{{anim id=\"Grin\" target=\"actor\" targetSpec=\"\"}}Mon dernier projet?{{delay20}} Mélanger\n{{wordArticle}}{{randomFood}} et {{wordArticle}}{{randomSweets}}!"
  },
  {
    "label": "003",
    "attribute": "0x0000000000000000",
    "text": "{{fun_0014003C arg=\"\"}}"
  },
  {
    "label": "003_01",
    "attribute": "0x0000000000000000",
    "text": "{{anim id=\"TakenAback\" target=\"actor\" targetSpec=\"\"}}Ahhh!{{delay20}} Le fantôme\n{{gender4 m=\"de \" f=\"d'\"}}⁠{{string value=\"NickName\"}}!{{pageBreak}}{{anim id=\"Laughing\" target=\"actor\" targetSpec=\"\"}}Ha HA! {{delay20}}Fais pas attention,\nj'te niaise.{{delay20}} {{anim id=\"Smiling\" target=\"actor\" targetSpec=\"\"}}Ça fait tellement\nlongtemps que je t'ai pas vu{{gender2 m=\"\" f=\"e\"}}!{{pageBreak}}{{anim id=\"Shaking\" target=\"actor\" targetSpec=\"\"}}Bon, et sinon, entre nous{{string value=\"...\"}}\nt'es pas un fantôme, hein?"
  },
  {
    "label": "003_02",
    "attribute": "0x0000000000000000",
    "text": "{{anim id=\"TakenAback\" target=\"actor\" targetSpec=\"\"}}Non?!{{delay20}} C'est vraiment toi?{{delay20}}\nAprès tout ce temps{{string value=\"...\"}}{{pageBreak}}{{anim id=\"Frantic\" target=\"actor\" targetSpec=\"\"}}Je me faisais un sang d'encre!{{delay20}}\nT'as pris tes cliques et tes claques\nsans dire ni merci ni{{string value=\"...\"}} rien du tout.\n{{anim id=\"Sighing\" target=\"actor\" targetSpec=\"\"}}Enfin, on va pas ressasser le passé\ndouloureux de mon âme sensible\nd'artiste torturé.{{anim id=\"Smiling\" target=\"actor\" targetSpec=\"\"}} Ravi de te revoir!"
  },
  {
    "label": "004",
    "attribute": "0x0000000000000000",
    "text": "{{fun_0014003C arg=\"\"}}"
  },
  {
    "label": "004_01",
    "attribute": "0x0000000000000000",
    "text": "Alors, où tu étais passé{{gender2 m=\"\" f=\"e\"}} depuis le\ntemps? Ça fait bien {{number value=\"1\" index=\"1\"}} mois! {{anim id=\"Angry\" target=\"actor\" targetSpec=\"\"}}Tu\npréparais pas un album sans moi?\n{{anim id=\"Scheming\" target=\"actor\" targetSpec=\"\"}}Parce que j'ai justement pensé à\nquelques nouvelles idées et{{string value=\"...\"}} mais\non en parlera plus tard{{string value=\"...\"}}\n{{anim id=\"Grin\" target=\"actor\" targetSpec=\"\"}}En attendant qu'on se hisse au\npinacle du bon son qui crache, \nje te souhaite la re-bienvenue!"
  },
  {
    "label": "004_02",
    "attribute": "0x0000000000000000",
    "text": "{{anim id=\"Shocked\" target=\"actor\" targetSpec=\"\"}}J'ai abusé {{wordArticle}}{{randomFood}} ou c'est bien {{string value=\"NickName\"}} que je vois?{{pageBreak}}{{anim id=\"Cheering\" target=\"actor\" targetSpec=\"\"}}Mais OUI!{{delay20}} Bienvenue chez toi!{{pageBreak}}{{anim id=\"QuestionMark\" target=\"actor\" targetSpec=\"\"}}T'es rentré{{gender2 m=\"\" f=\"e\"}} quand?{{delay20}}{{anim id=\"OhGeez\" target=\"actor\" targetSpec=\"\"}} Ça fait {{number value=\"1\" index=\"1\"}} mois\nque j'ai plus vu ta petite face!{{delay20}}\n{{anim id=\"Sighing\" target=\"actor\" targetSpec=\"\"}}{{capitalizeNextLetter}}{{string value=\"Catchphrase\"}}, ça fait bizarre.{{pageBreak}}{{anim id=\"Shaking\" target=\"actor\" targetSpec=\"\"}}Si ça se trouve, t'es rentré{{gender2 m=\"\" f=\"e\"}} et\n{{fun_00010032 arg=\"\"}}{{randomFood}} était moisi{{gender8 m=\"\" f=\"e\" n=\"\"}}. {{delay20}}L'un n'empêche pas l'autre."
  },
  {
    "label": "004_03",
    "attribute": "0x0000000000000000",
    "text": "{{anim id=\"Shocked\" target=\"actor\" targetSpec=\"\"}}Ça alors! {{delay20}}{{capitalizeNextLetter}}{{string value=\"NickName\"}}!{{delay20}} {{anim id=\"Frantic\" target=\"actor\" targetSpec=\"\"}}T'es revenu{{gender2 m=\"\" f=\"e\"}}!{{delay20}} J'en crois pas mes pupilles tout embuées d'émotion!{{pageBreak}}{{anim id=\"Worried\" target=\"actor\" targetSpec=\"\"}}Depuis que t'avais mis les voiles,\nje savais plus quoi faire de mes\npattes.{{delay20}} J'avais touché le fond.\n{{anim id=\"Negative\" target=\"actor\" targetSpec=\"\"}}Pour passer le temps, j'avais même\ncommencé à {{randomHobby}}, tu vois un peu la déchéance{{string value=\"...\"}}{{pageBreak}}{{anim id=\"Cheering\" target=\"actor\" targetSpec=\"\"}}Enfin, tout ça, c'est du passé!{{delay20}}\nBienvenue chez toi, l'ami{{gender2 m=\"\" f=\"e\"}}!"
  },
  {
    "label": "005",
    "attribute": "0x0000000000000000",
    "text": "{{fun_0014003C arg=\"\"}}"
  },
  {
    "label": "005_01",
    "attribute": "0x0000000000000000",
    "text": "{{anim id=\"Thinking\" target=\"actor\" targetSpec=\"\"}}Allooo{{string value=\"...\"}} {{string value=\"NickName\"}}?{{delay20}}\n{{anim id=\"OhGeez\" target=\"actor\" targetSpec=\"\"}}On s'est plus croisés depuis une\néternité{{string value=\"...\"}} voire plus!\n{{anim id=\"AbsentMindedness\" target=\"actor\" targetSpec=\"\"}}Ça fait quoi?{{delay20}} {{number value=\"1\" index=\"1\"}} mois et des\npoussières?{{delay20}} Enfin{{string value=\"...\"}} mieux\nvaut tard que jamais.\n{{anim id=\"EmotEnd\" target=\"actor\" targetSpec=\"\"}}{{gender4 m=\"Le \" f=\"L'\"}}⁠{{string value=\"VillagerName\"}}-Express a fini par se remettre sur les rails et par rentrer en gare!{{delay20}}{{anim id=\"Laughing\" target=\"actor\" targetSpec=\"\"}} Tchou, tchou!"
  },
  {
    "label": "005_02",
    "attribute": "0x0000000000000000",
    "text": "{{anim id=\"Aha\" target=\"actor\" targetSpec=\"\"}}Oh, comme on se retrouve!{{delay20}}\nJ'ai l'impression de plus avoir vu\nta face depuis des mois.\n{{anim id=\"OhGeez\" target=\"actor\" targetSpec=\"\"}}Faut croire qu'on avait tous les\ndeux du pain sur la planche, chacun\ndans son coin {{gender4 m=\"de \" f=\"d'\"}}⁠{{string value=\"OtherIslandName\"}}.\n{{anim id=\"Grin\" target=\"actor\" targetSpec=\"\"}}Mais faut qu'on s'organise un truc\nun de ces jours. {{delay20}}{{anim id=\"SmugFace\" target=\"actor\" targetSpec=\"\"}}Demande à ton\nagent d'appeler mon impresario!"
  },
  {
    "label": "005_03",
    "attribute": "0x0000000000000000",
    "text": "{{anim id=\"WrySmile\" target=\"actor\" targetSpec=\"\"}}Ainsi, l{{gender2 m=\"e\" f=\"a\"}} célèbre {{string value=\"NickName\"}} a finalement daigné m'honorer de son auguste présence!{{pageBreak}}{{anim id=\"Laughing\" target=\"actor\" targetSpec=\"\"}}Ah, j'te niaise, là!{{delay20}} {{anim id=\"SmugFace\" target=\"actor\" targetSpec=\"\"}}Je sais ce que\nc'est, d'être au cœur de toutes les\nconversations de la ville.\n{{anim id=\"Nodding\" target=\"actor\" targetSpec=\"\"}}Mais t'inquiète pas, je suis là pour\nt'aider.{{delay20}} Entre VIP, il faut se serrer\nles coudes, {{string value=\"Catchphrase\"}}!"
  }
]