﻿[
  {
    "label": "001",
    "attribute": "0x0000000000000000",
    "text": "{{i20_2 arg=\"10\"}}{{i20_2 arg=\"9\"}}{{anim id=\"Nodding\" target=\"actor\" targetSpec=\"\"}}Gotta be careful climbing into {{wordArticle}}\n{{fun_0000007D arg=\"0x0000\"}} after\na workout.{{pageBreak}}{{i20_3 arg=\"6\"}}{{i20_3 arg=\"3\"}}{{anim id=\"ShyBoy\" target=\"actor\" targetSpec=\"\"}}Don't wanna cramp up, {{string value=\"Catchphrase\"}}!"
  },
  {
    "label": "002",
    "attribute": "0x0000000000000000",
    "text": "{{i20_2 arg=\"10\"}}{{i20_2 arg=\"9\"}}{{anim id=\"Smiling\" target=\"actor\" targetSpec=\"\"}}{{capitalizeNextLetter}}{{wordArticle}}{{fun_0000007D arg=\"0x0000\"}}!{{pageBreak}}This is awesome.{{delay frames=\"40\"}} {{i20_3 arg=\"6\"}}{{i20_3 arg=\"3\"}}{{anim id=\"HappyDance\" target=\"actor\" targetSpec=\"\"}}Now I can check on\nthe big game during my jog!"
  },
  {
    "label": "003",
    "attribute": "0x0000000000000000",
    "text": "{{i20_3 arg=\"6\"}}{{i20_3 arg=\"3\"}}{{anim id=\"Nodding\" target=\"actor\" targetSpec=\"\"}}Running is all about rhythm. {{delay frames=\"40\"}}{{i20_2 arg=\"10\"}}{{i20_2 arg=\"9\"}}{{anim id=\"BigSmile\" target=\"actor\" targetSpec=\"\"}}{{capitalizeNextLetter}}{{wordArticle}}\n{{fun_0000007D arg=\"0x0000\"}} helps\nme keep the beat, {{string value=\"Catchphrase\"}}!"
  },
  {
    "label": "004",
    "attribute": "0x0000000000000000",
    "text": "{{i20_2 arg=\"10\"}}{{i20_2 arg=\"9\"}}{{anim id=\"SmugFace\" target=\"actor\" targetSpec=\"\"}}{{capitalizeNextLetter}}{{wordArticle}}{{fun_0000007D arg=\"0x0000\"}}!{{pageBreak}}Awesome for checking my heart rate,{{delay frames=\"40\"}}\n{{i20_3 arg=\"6\"}}{{i20_3 arg=\"3\"}}{{anim id=\"Smiling\" target=\"actor\" targetSpec=\"\"}}and it tells pretty good time too!"
  },
  {
    "label": "005",
    "attribute": "0x0000000000000000",
    "text": "{{anim id=\"Eh\" target=\"actor\" targetSpec=\"\"}}{{capitalizeNextLetter}}{{wordArticle}}{{fun_0000007D arg=\"0x0000\"}}?{{delay20}}\nOut here?{{pageBreak}}{{anim id=\"Thinking\" target=\"actor\" targetSpec=\"\"}}So is that, like{{string value=\"...\"}}{{delay20}}nature trying to get\nback to nature, {{string value=\"Catchphrase\"}}?"
  },
  {
    "label": "006",
    "attribute": "0x0000000000000000",
    "text": "{{i20_2 arg=\"10\"}}{{i20_2 arg=\"9\"}}{{anim id=\"Blushing\" target=\"actor\" targetSpec=\"\"}}I don't know who put {{wordArticle}}\n{{fun_0000007D arg=\"0x0000\"}} here,\nbut they totally get it!{{pageBreak}}{{i20_3 arg=\"6\"}}{{i20_3 arg=\"3\"}}{{anim id=\"BigSmile\" target=\"actor\" targetSpec=\"\"}}NOTHING relaxes the muscles like a\nlong soak after a run, {{string value=\"Catchphrase\"}}!"
  },
  {
    "label": "008",
    "attribute": "0x0000000000000000",
    "text": "{{i20_2 arg=\"10\"}}{{i20_2 arg=\"9\"}}{{anim id=\"Thinking\" target=\"actor\" targetSpec=\"\"}}{{capitalizeNextLetter}}{{wordArticle}}{{fun_0000007D arg=\"0x0000\"}}'s\nreally heavy.{{delay20}} Whoever put it\nhere must be super built!"
  },
  {
    "label": "009",
    "attribute": "0x0000000000000000",
    "text": "{{i20_2 arg=\"10\"}}{{anim id=\"BigSmile\" target=\"actor\" targetSpec=\"\"}}{{capitalizeNextLetter}}{{wordArticle}}{{fun_0000007D arg=\"0x0000\"}}!{{delay20}}\nJust what I needed after\na thousand squats!"
  },
  {
    "label": "010",
    "attribute": "0x0000000000000000",
    "text": "{{i20_2 arg=\"10\"}}{{i20_2 arg=\"9\"}}{{anim id=\"QuestionMark\" target=\"actor\" targetSpec=\"\"}}{{capitalizeNextLetter}}{{wordArticle}}{{fun_0000007D arg=\"0x0000\"}}?{{pageBreak}}{{anim id=\"Worried\" target=\"actor\" targetSpec=\"\"}}Why's that here?{{delay20}} What if it rains?"
  },
  {
    "label": "011",
    "attribute": "0x0000000000000000",
    "text": "{{i20_2 arg=\"10\"}}{{i20_2 arg=\"9\"}}{{anim id=\"QuestionMark\" target=\"actor\" targetSpec=\"\"}}{{capitalizeNextLetter}}{{wordArticle}}{{fun_0000007D arg=\"0x0000\"}}?{{delay frames=\"40\"}}\n{{anim id=\"Shocked\" target=\"actor\" targetSpec=\"\"}}Is this like{{string value=\"...\"}}an outdoor\nkitchen or something?"
  },
  {
    "label": "012",
    "attribute": "0x0000000000000000",
    "text": "{{i20_2 arg=\"10\"}}{{i20_2 arg=\"9\"}}{{anim id=\"Aha\" target=\"actor\" targetSpec=\"\"}}Whoa! Perfect!{{delay20}} Whoever put {{wordArticle}}\n{{fun_0000007D arg=\"0x0000\"}} here\nknows how to get ripped!"
  },
  {
    "label": "016",
    "attribute": "0x0000000000000000",
    "text": "{{i20_2 arg=\"10\"}}{{i20_2 arg=\"9\"}}{{anim id=\"BigSmile\" target=\"actor\" targetSpec=\"\"}}Now this is what I'm talkin' about!{{delay20}}\nLife on {{string value=\"OtherIslandName\"}} is meant\nto be lived outdoors, {{string value=\"Catchphrase\"}}!{{pageBreak}}{{i20_3 arg=\"6\"}}{{i20_3 arg=\"3\"}}{{anim id=\"HappyDance\" target=\"actor\" targetSpec=\"\"}}Yeah! {{delay20}}Even just seeing {{wordArticle}}\n{{fun_0000007D arg=\"0x0000\"}} here\ngets me pumped!"
  },
  {
    "label": "017",
    "attribute": "0x0000000000000000",
    "text": "{{i20_2 arg=\"10\"}}{{i20_2 arg=\"9\"}}{{anim id=\"FaintSmile\" target=\"actor\" targetSpec=\"\"}}I love how there's {{wordArticle}}\n{{fun_0000007D arg=\"0x0000\"}} here.{{pageBreak}}{{i20_3 arg=\"6\"}}{{i20_3 arg=\"3\"}}{{anim id=\"BigSmile\" target=\"actor\" targetSpec=\"\"}}Now I can check out my muscle\ntension even when it's dark out!"
  },
  {
    "label": "018",
    "attribute": "0x0000000000000000",
    "text": "{{i20_2 arg=\"10\"}}{{i20_2 arg=\"9\"}}{{anim id=\"SmugFace\" target=\"actor\" targetSpec=\"\"}}I just can't help doing a muscle\npose or two whenever I go by {{fun_00010032 arg=\"\"}}\n{{fun_0000007D arg=\"0x0000\"}} here.{{pageBreak}}{{i20_3 arg=\"6\"}}{{i20_3 arg=\"3\"}}{{anim id=\"BigSmile\" target=\"actor\" targetSpec=\"\"}}It's great being able to see how my\nmuscles look at different times of\nday, {{string value=\"Catchphrase\"}}!"
  },
  {
    "label": "019",
    "attribute": "0x0000000000000000",
    "text": "{{i20_2 arg=\"10\"}}{{i20_2 arg=\"9\"}}{{anim id=\"Grin\" target=\"actor\" targetSpec=\"\"}}I'm so glad someone stuck {{wordArticle}}\n{{fun_0000007D arg=\"0x0000\"}} here.{{pageBreak}}{{i20_3 arg=\"6\"}}{{i20_3 arg=\"3\"}}{{anim id=\"ShyBoy\" target=\"actor\" targetSpec=\"\"}}After a really hard jog, {{delay20}}sometimes\nI just wanna change clothes right\naway, {{string value=\"Catchphrase\"}}."
  },
  {
    "label": "020",
    "attribute": "0x0000000000000000",
    "text": "{{i20_2 arg=\"10\"}}{{i20_2 arg=\"9\"}}{{anim id=\"Eh\" target=\"actor\" targetSpec=\"\"}}Hey, check it out. {{delay20}}I think that's\n{{wordArticle}}{{fun_0000007D arg=\"0x0000\"}}.{{pageBreak}}{{i20_3 arg=\"6\"}}{{i20_3 arg=\"3\"}}{{anim id=\"Thinking\" target=\"actor\" targetSpec=\"\"}}I wonder how it feels about being\nin a little box out here. {{delay20}}Maybe it's\ngot a tiny gym set up in there{{string value=\"...\"}}{{pageBreak}}{{anim id=\"AbsentMindedness\" target=\"actor\" targetSpec=\"\"}}I guess I could live in a box like\nthat{{string value=\"...\"}}{{delay20}}{{anim id=\"SmugFace\" target=\"actor\" targetSpec=\"\"}}as long as I had enough room\nfor {{randomSports}}, {{string value=\"Catchphrase\"}}."
  },
  {
    "label": "021",
    "attribute": "0x0000000000000000",
    "text": "{{i20_2 arg=\"10\"}}{{i20_2 arg=\"9\"}}{{anim id=\"Eh\" target=\"actor\" targetSpec=\"\"}}Check out this little guy swimming\nlaps in there.{{delay20}} I'm pretty sure it's\n{{wordArticle}}{{fun_0000007D arg=\"0x0000\"}}.{{pageBreak}}{{i20_3 arg=\"6\"}}{{i20_3 arg=\"3\"}}{{anim id=\"AbsentMindedness\" target=\"actor\" targetSpec=\"\"}}Must be nice to have a lane all to\nitself{{string value=\"...\"}}{{delay20}}{{anim id=\"Grin\" target=\"actor\" targetSpec=\"\"}}no bumping fins in a\ncrowded stream for this guy!"
  },
  {
    "label": "022",
    "attribute": "0x0000000000000000",
    "text": "{{i20_2 arg=\"10\"}}{{i20_2 arg=\"9\"}}{{anim id=\"HappyFlower\" target=\"actor\" targetSpec=\"\"}}Oh, {{string value=\"Catchphrase\"}}, this is what I love\nabout island life{{string value=\"...\"}}stumbling across\na cool fossil just out on display.\n{{i20_3 arg=\"6\"}}{{i20_3 arg=\"3\"}}{{anim id=\"QuestionMark\" target=\"actor\" targetSpec=\"\"}}So what would we call this?{{delay frames=\"40\"}} {{anim id=\"Laughing\" target=\"actor\" targetSpec=\"\"}}A free-\nrange {{fun_0000007D arg=\"0x0000\"}}?"
  },
  {
    "label": "023",
    "attribute": "0x0000000000000000",
    "text": "{{i20_2 arg=\"10\"}}{{i20_2 arg=\"9\"}}{{anim id=\"Worried\" target=\"actor\" targetSpec=\"\"}}Uh, I'm not really an expert, but\nshould this be outside? {{delay20}}{{anim id=\"Angry\" target=\"actor\" targetSpec=\"\"}}It's\n{{wordArticle}}{{fun_0000007D arg=\"0x0000\"}}!{{pageBreak}}{{i20_3 arg=\"6\"}}{{i20_3 arg=\"3\"}}{{anim id=\"OhGeez\" target=\"actor\" targetSpec=\"\"}}I need this space for {{randomSports}},\n{{string value=\"Catchphrase\"}}. {{delay20}}I don't want to worry\nabout knocking this thing over!"
  },
  {
    "label": "024",
    "attribute": "0x0000000000000000",
    "text": "{{i20_2 arg=\"10\"}}{{i20_2 arg=\"9\"}}{{anim id=\"QuestionMark\" target=\"actor\" targetSpec=\"\"}}So, do you think I could dead-lift\n{{wordArticle}}{{fun_0000007D arg=\"0x0000\"}}?{{pageBreak}}{{i20_3 arg=\"6\"}}{{i20_3 arg=\"3\"}}{{anim id=\"Shocked\" target=\"actor\" targetSpec=\"\"}}Whoa!{{delay20}} How convenient that there's\none right here. {{i10_4}}{{anim id=\"Worried\" target=\"actor\" targetSpec=\"\"}}Um{{string value=\"...\"}}I already maxed\nout today. {{delay20}}I'll try some other time."
  },
  {
    "label": "025",
    "attribute": "0x0000000000000000",
    "text": "{{i20_2 arg=\"10\"}}{{i20_2 arg=\"9\"}}{{anim id=\"Thinking\" target=\"actor\" targetSpec=\"\"}}Huh{{string value=\"...\"}}there's something that just\nfeels off about this art{{string value=\"...\"}}{{pageBreak}}{{i20_3 arg=\"6\"}}{{i20_3 arg=\"3\"}}{{anim id=\"Explain\" target=\"actor\" targetSpec=\"\"}}It's like when you do pull-ups, but\nyou're swingin' your legs all over the\nplace to do 'em.{{delay20}}{{anim id=\"Negative\" target=\"actor\" targetSpec=\"\"}} Just kinda{{string value=\"...\"}}fake."
  },
  {
    "label": "026",
    "attribute": "0x0000000000000000",
    "text": "{{i20_2 arg=\"10\"}}{{i20_2 arg=\"9\"}}{{anim id=\"Nodding\" target=\"actor\" targetSpec=\"\"}}I don't know who put this here, but\nI owe them big-time.{{delay frames=\"40\"}} {{anim id=\"HappyFlower\" target=\"actor\" targetSpec=\"\"}}Gotta love\n{{wordArticle}}{{fun_0000007D arg=\"0x0000\"}}!{{pageBreak}}{{i20_3 arg=\"6\"}}{{i20_3 arg=\"3\"}}{{anim id=\"IdeaBulb\" target=\"actor\" targetSpec=\"\"}}I'm definitely stopping by for my\nnext post-run cooldown. {{delay frames=\"40\"}}{{anim id=\"Worried\" target=\"actor\" targetSpec=\"\"}}You, uh,\nmight wanna stay upwind{{string value=\"...\"}}"
  },
  {
    "label": "027",
    "attribute": "0x0000000000000000",
    "text": "{{i20_2 arg=\"10\"}}{{i20_2 arg=\"9\"}}{{anim id=\"OhGeez\" target=\"actor\" targetSpec=\"\"}}{{capitalizeNextLetter}}{{string value=\"Catchphrase\"}}, I can't stop staring at\nyour {{fun_0000007D arg=\"0x0000\"}}.{{pageBreak}}{{i20_3 arg=\"3\"}}{{i20_3 arg=\"6\"}}{{anim id=\"OhGeez\" target=\"actor\" targetSpec=\"\"}}But my eyes are getting so TIRED.{{delay frames=\"40\"}}\n{{anim id=\"Serious\" target=\"actor\" targetSpec=\"\"}}That tells me I gotta work on my\nstaring muscles.{{delay20}} Ready?{{i10_4}} {{anim id=\"Pardon\" target=\"actor\" targetSpec=\"\"}}HRRRGH!"
  },
  {
    "label": "028",
    "attribute": "0x0000000000000000",
    "text": "{{i20_2 arg=\"10\"}}{{i20_2 arg=\"9\"}}{{anim id=\"Smiling\" target=\"actor\" targetSpec=\"\"}}Hey, who's the good-looking fella?{{delay frames=\"40\"}}\n{{anim id=\"Thinking\" target=\"actor\" targetSpec=\"\"}}Wait{{string value=\"...\"}}chiseled muscles{{string value=\"...\"}}impeccable\nposture{{string value=\"...\"}}confident eyes{{string value=\"...\"}}\n{{i20_3 arg=\"3\"}}{{anim id=\"Shocked\" target=\"actor\" targetSpec=\"\"}}That's ME! {{delay frames=\"40\"}}{{anim id=\"Love\" target=\"actor\" targetSpec=\"\"}}Aww, I'm glad to see\nsomeone gave my portrait a nice\nplace to flex, {{string value=\"Catchphrase\"}}."
  },
  {
    "label": "029",
    "attribute": "0x0000000000000000",
    "text": "{{i20_2 arg=\"10\"}}{{i20_2 arg=\"9\"}}{{anim id=\"Smiling\" target=\"actor\" targetSpec=\"\"}}{{capitalizeNextLetter}}{{string value=\"Catchphrase\"}}, look what someone\nleft just sitting out here. {{delay20}}It's\n{{wordArticle}}{{fun_0000007D arg=\"0x0000\"}}!{{pageBreak}}{{i20_3 arg=\"6\"}}{{i20_3 arg=\"3\"}}{{anim id=\"AbsentMindedness\" target=\"actor\" targetSpec=\"\"}}Aww, I'm getting nostalgic. {{delay20}}When I\nwas a kid, I could play around with\nsomething like this instead of lifting.{{pageBreak}}{{anim id=\"Serious\" target=\"actor\" targetSpec=\"\"}}Don't get me wrong—I'd also do {{number value=\"Count\" index=\"0\"}}\nchin-ups on the monkey bars!"
  },
  {
    "label": "030",
    "attribute": "0x0000000000000000",
    "text": "{{i20_2 arg=\"10\"}}{{i20_2 arg=\"9\"}}{{anim id=\"AbsentMindedness\" target=\"actor\" targetSpec=\"\"}}Ooh, I could really lose a whole\nentire day playing with {{wordArticle}}\n{{fun_0000007D arg=\"0x0000\"}}{{string value=\"...\"}}{{pageBreak}}{{i20_3 arg=\"6\"}}{{i20_3 arg=\"3\"}}{{anim id=\"OhGeez\" target=\"actor\" targetSpec=\"\"}}Ugh, but then I'd miss my fusion\n{{randomSports}} and {{randomSports}}\npower workout, {{string value=\"Catchphrase\"}}."
  },
  {
    "label": "031",
    "attribute": "0x0000000000000000",
    "text": "{{anim id=\"Aha\" target=\"actor\" targetSpec=\"\"}}Aha! {{delay20}}Look what we have here.{{delay20}}\n{{capitalizeNextLetter}}{{wordArticle}}{{fun_0000007D arg=\"0x0000\"}}!{{pageBreak}}{{i20_3 arg=\"6\"}}{{i20_3 arg=\"3\"}}{{anim id=\"Scheming\" target=\"actor\" targetSpec=\"\"}}Now the great {{string value=\"VillagerName\"}}\nwill attempt a world-leading height\nin the random-object high jump{{string value=\"...\"}}{{pageBreak}}{{anim id=\"Angry\" target=\"actor\" targetSpec=\"\"}}Oh, FINE. {{delay frames=\"40\"}}{{anim id=\"OhGeez\" target=\"actor\" targetSpec=\"\"}}What's the use in having\nan elite vertical leap if you never\nget to use it?"
  },
  {
    "label": "032",
    "attribute": "0x0000000000000000",
    "text": "{{i20_2 arg=\"10\"}}{{i20_2 arg=\"9\"}}{{anim id=\"Shocked\" target=\"actor\" targetSpec=\"\"}}Oh! {{delay frames=\"40\"}}{{anim id=\"BigSmile\" target=\"actor\" targetSpec=\"\"}}How thoughtful of someone to\nleave something heavy like {{wordArticle}}\n{{fun_0000007D arg=\"0x0000\"}} here!{{pageBreak}}{{i20_3 arg=\"3\"}}{{anim id=\"SmugFace\" target=\"actor\" targetSpec=\"\"}}Now I don't even have to go to the\ngym to do curls. {{delay20}}I can just use {{fun_00010032 arg=\"\"}}\n{{fun_0000007D arg=\"0x0000\"}}!{{pageBreak}}{{i20_3 arg=\"6\"}}{{anim id=\"OhGeez\" target=\"actor\" targetSpec=\"\"}}Don't worry, I'm not gonna break\nanything.{{delay frames=\"40\"}} {{anim id=\"Laughing\" target=\"actor\" targetSpec=\"\"}}I'd have to do {{number value=\"3\" index=\"0\"}} reps\nbefore I got that tired."
  },
  {
    "label": "033",
    "attribute": "0x0000000000000000",
    "text": "{{i20_2 arg=\"10\"}}{{i20_2 arg=\"9\"}}{{anim id=\"Nodding\" target=\"actor\" targetSpec=\"\"}}Nothing's better than jogging by\n{{wordArticle}}{{fun_0000007D arg=\"0x0000\"}}.{{pageBreak}}{{i20_3 arg=\"6\"}}{{i20_3 arg=\"3\"}}{{anim id=\"EmotEnd\" target=\"actor\" targetSpec=\"\"}}Getting a quick heat boost on a good\nsweat?{{delay20}} {{anim id=\"Smiling\" target=\"actor\" targetSpec=\"\"}}Can't beat it, {{string value=\"Catchphrase\"}}!"
  },
  {
    "label": "034",
    "attribute": "0x0000000000000000",
    "text": ""
  },
  {
    "label": "035",
    "attribute": "0x0000000000000000",
    "text": "{{i20_2 arg=\"10\"}}{{i20_2 arg=\"9\"}}Look at {{fun_0000007D arg=\"0x0000\"}},\nwill ya? {{delay20}}{{anim id=\"Nodding\" target=\"actor\" targetSpec=\"\"}}Such a cool album cover!{{delay20}}\nIsn't {{color id=\"3\"}}K.K.{{color id=\"65535\"}} the coolest?{{pageBreak}}{{i20_3 arg=\"6\"}}{{i20_3 arg=\"3\"}}{{anim id=\"Love\" target=\"actor\" targetSpec=\"\"}}Imagine{{string value=\"...\"}} {{delay8}}One day all this glistening\nsinew will be on an album cover too.{{delay20}}\nI mean, it's only a matter of time."
  },
  {
    "label": "036",
    "attribute": "0x0000000000000000",
    "text": "{{i20_2 arg=\"10\"}}{{i20_2 arg=\"9\"}}You know, it's a real thinker,\nexercising around {{wordArticle}}\n{{fun_0000007D arg=\"0x0000\"}}.{{pageBreak}}Suuure, it sounds harmless enough.{{delay20}}\n{{anim id=\"Frantic\" target=\"actor\" targetSpec=\"\"}}But what if I get parched mid-flex\nand accidentally drink from the vase!"
  },
  {
    "label": "037",
    "attribute": "0x0000000000000000",
    "text": "{{i20_2 arg=\"10\"}}{{i20_2 arg=\"9\"}}Hmm.{{delay8}} {{anim id=\"QuestionMark\" target=\"actor\" targetSpec=\"\"}}I wonder how {{wordArticle}}\n{{fun_0000007D arg=\"0x0000\"}}\nended up outside.{{pageBreak}}{{i20_3 arg=\"6\"}}{{i20_3 arg=\"3\"}}Oh! {{delay8}}Maybe this is art. {{delay20}}Like{{string value=\"...\"}}the\navant-garde stuff. {{delay20}}{{anim id=\"OhGeez\" target=\"actor\" targetSpec=\"\"}}That would\nexplain why I don't understand it."
  },
  {
    "label": "038",
    "attribute": "0x0000000000000000",
    "text": "{{i20_2 arg=\"10\"}}{{i20_2 arg=\"9\"}}{{anim id=\"Eh\" target=\"actor\" targetSpec=\"\"}}Huh. {{delay8}}I didn't expect to see {{wordArticle}}\n{{fun_0000007D arg=\"0x0000\"}}.{{pageBreak}}{{i20_3 arg=\"3\"}}{{i20_3 arg=\"6\"}}{{anim id=\"OhGeez\" target=\"actor\" targetSpec=\"\"}}Is this a yard sale or what?{{delay20}} Not sure\nhow successful it's gonna be without\nsomeone to collect the Bells, but{{string value=\"...\"}}{{pageBreak}}{{anim id=\"Smiling\" target=\"actor\" targetSpec=\"\"}}Hey, to each their own!"
  },
  {
    "label": "039",
    "attribute": "0x0000000000000000",
    "text": "{{i20_2 arg=\"10\"}}{{i20_2 arg=\"9\"}}Huh! {{delay8}}Check it out. {{delay8}}It's {{wordArticle}}{{fun_0000007D arg=\"0x0000\"}}!{{pageBreak}}{{i20_3 arg=\"6\"}}{{i20_3 arg=\"3\"}}{{anim id=\"Shocked\" target=\"actor\" targetSpec=\"\"}}You know what this means.{{delay20}}\nSomeone{{string value=\"...\"}}{{delay8}}is SHOELESS.{{pageBreak}}It's the only way to live. {{delay20}}{{anim id=\"Scheming\" target=\"actor\" targetSpec=\"\"}}Running\naround with bare feet is a great\nway to toughen up your toes!"
  },
  {
    "label": "040",
    "attribute": "0x0000000000000000",
    "text": "{{i20_2 arg=\"10\"}}Look!{{delay20}}{{i20_2 arg=\"9\"}}{{delay frames=\"30\"}} Somebody left {{wordArticle}}\n{{fun_0000007D arg=\"0x0000\"}} here!{{pageBreak}}{{i20_3 arg=\"3\"}}{{i20_3 arg=\"6\"}}{{anim id=\"Thinking\" target=\"actor\" targetSpec=\"\"}}Hmm.{{delay8}} Must be carefully placed for\nmarathon runners to refuel in the\nmiddle of a race{{string value=\"...\"}}{{delay20}} {{anim id=\"Nodding\" target=\"actor\" targetSpec=\"\"}}That is so smart."
  },
  {
    "label": "041",
    "attribute": "0x0000000000000000",
    "text": "{{anim id=\"AbsentMindedness\" target=\"actor\" targetSpec=\"\"}}You know how marathons have\nwatering stations?{{delay20}}{{i20_2 arg=\"10\"}}{{i20_2 arg=\"9\"}}{{anim id=\"QuestionMark\" target=\"actor\" targetSpec=\"\"}} What if they had\n{{wordArticle}}{{fun_0000007D arg=\"0x0000\"}}?{{pageBreak}}{{i20_3 arg=\"6\"}}{{i20_3 arg=\"3\"}}{{anim id=\"IdeaBulb\" target=\"actor\" targetSpec=\"\"}}Whoa, is there a {{capitalizeNextLetter}}{{string value=\"OtherIslandName\"}}\nMarathon?! How have I not run\nit yet, {{string value=\"6\"}}?"
  },
  {
    "label": "999",
    "attribute": "0x0000000000000000",
    "text": "{{fun_0014003C arg=\"\"}}"
  },
  {
    "label": "999_01",
    "attribute": "0x0000000000000000",
    "text": "{{i20_2 arg=\"10\"}}{{anim id=\"IdeaBulb\" target=\"actor\" targetSpec=\"\"}}{{delay20}}I just had an idea for working {{i20_2 arg=\"9\"}}{{wordArticle}}\n{{fun_0000007D arg=\"0x0000\"}} into my\nroutine, {{string value=\"Catchphrase\"}}.{{pageBreak}}{{i20_3 arg=\"6\"}}{{anim id=\"BigSmile\" target=\"actor\" targetSpec=\"\"}}Run laps around it!"
  },
  {
    "label": "999_02",
    "attribute": "0x0000000000000000",
    "text": "{{i20_2 arg=\"10\"}}{{i20_2 arg=\"9\"}}{{anim id=\"Serious\" target=\"actor\" targetSpec=\"\"}}Believe it or not, {{delay8}}one of the biggest\nlife lessons I ever got was about\n{{wordArticle}}{{fun_0000007D arg=\"0x0000\"}}.{{pageBreak}}{{i20_3 arg=\"6\"}}{{i20_3 arg=\"3\"}}{{anim id=\"Explain\" target=\"actor\" targetSpec=\"\"}}{{anim id=\"AbsentMindedness\" target=\"actor\" targetSpec=\"\"}}I learned I shouldn't lift everything\nthat I see. {{delay20}}I need to be polite and let\nsome things be lifted by others.{{pageBreak}}{{anim id=\"Smiling\" target=\"actor\" targetSpec=\"\"}}Changed my life, {{string value=\"Catchphrase\"}}!"
  },
  {
    "label": "999_03",
    "attribute": "0x0000000000000000",
    "text": "{{i20_2 arg=\"10\"}}{{i20_2 arg=\"9\"}}Well, well, well. {{delay8}}Lookee here. {{delay8}}It's\n{{wordArticle}}{{fun_0000007D arg=\"0x0000\"}}!{{pageBreak}}{{i20_3 arg=\"6\"}}{{i20_3 arg=\"3\"}}{{anim id=\"EmotEnd\" target=\"actor\" targetSpec=\"\"}}That means it's time to compete!{{delay20}}\nHuh? {{delay8}}Why?{{pageBreak}}{{anim id=\"Negative\" target=\"actor\" targetSpec=\"\"}}Now's not the time to question\nthese things, {{string value=\"Catchphrase\"}}!"
  }
]