﻿[
  {
    "label": "0012",
    "text": "Ins Lager"
  },
  {
    "label": "0013",
    "text": "Entfernen"
  },
  {
    "label": "0014",
    "text": "Löschen"
  },
  {
    "label": "0031",
    "text": "Drehen "
  },
  {
    "label": "0032",
    "text": "Öffnen"
  },
  {
    "label": "0033",
    "text": "Bauen"
  },
  {
    "label": "0034",
    "text": "Weg anlegen"
  },
  {
    "label": "0035",
    "text": "/"
  },
  {
    "label": "0041",
    "text": "Greifen"
  },
  {
    "label": "0042",
    "text": "Löschen"
  },
  {
    "label": "0045",
    "text": "(gedrückt halten)"
  },
  {
    "label": "0051",
    "text": "Mehrere auswählen"
  },
  {
    "label": "0052",
    "text": "Drehen "
  },
  {
    "label": "0055",
    "text": "(gedrückt halten)"
  },
  {
    "label": "0071",
    "text": "Entfernen"
  },
  {
    "label": "0072",
    "text": "Entfernen"
  },
  {
    "label": "0073",
    "text": "Entfernen"
  },
  {
    "label": "0081",
    "text": "Kopieren"
  },
  {
    "label": "0091",
    "text": "⇔"
  }
]