﻿[
  {
    "label": "0000",
    "text": "Welchen Spieler willst du melden?"
  },
  {
    "label": "0001",
    "text": "Bitte wähle eine Kategorie."
  },
  {
    "label": "0002",
    "text": "Gib einen Grund für die Meldung ein."
  },
  {
    "label": "0010",
    "text": "Melden"
  },
  {
    "label": "0011",
    "text": "Weiter"
  },
  {
    "label": "0040",
    "text": "{{creatorId}}"
  },
  {
    "label": "0050",
    "text": "ID"
  },
  {
    "label": "0100",
    "text": "Werbung/Spam"
  },
  {
    "label": "0101",
    "text": "Gewalt/Körperverletzung"
  },
  {
    "label": "0102",
    "text": "Diskriminierung/Hetze"
  },
  {
    "label": "0103",
    "text": "Beleidigung/Belästigung/Mobbing"
  },
  {
    "label": "0104",
    "text": "Verletzung der Privatsphäre"
  },
  {
    "label": "0105",
    "text": "Sexuell expliziter Inhalt"
  },
  {
    "label": "0106",
    "text": "Schummeln"
  },
  {
    "label": "0107",
    "text": "Sonstige unangemessene Inhalte"
  },
  {
    "label": "0120",
    "text": ": "
  },
  {
    "label": "0130",
    "text": ""
  },
  {
    "label": "0131",
    "text": ""
  },
  {
    "label": "0140",
    "text": "Vergrößern"
  },
  {
    "label": "0141",
    "text": "Zurück"
  },
  {
    "label": "0150",
    "text": "{{selection value=\"SelectedName\"}}"
  },
  {
    "label": "0160",
    "text": "Inselbewohner"
  },
  {
    "label": "0170",
    "text": "Spielername"
  },
  {
    "label": "0171",
    "text": ":  "
  },
  {
    "label": "0172",
    "text": "{{selection value=\"SelectedName\"}}"
  },
  {
    "label": "0180",
    "text": "Kategorie"
  },
  {
    "label": "0181",
    "text": ":  "
  },
  {
    "label": "0200",
    "text": "Die Meldung geht nicht an den Ersteller\ndes Inhalts, sondern an Nintendo, den\nServicebetreiber. Je nach Art des Inhalts\nwird sie möglicherweise an einen Dritten\nweitergeleitet. Bitte melde nur Inhalte,\ndie eine Meldung rechtfertigen."
  },
  {
    "label": "0220",
    "text": "Art des Verstoßes"
  },
  {
    "label": "0300",
    "text": "???"
  },
  {
    "label": "0301",
    "text": "Bitte hier eingeben."
  },
  {
    "label": "0400",
    "text": "{{selection value=\"5\"}}"
  }
]