﻿[
  {
    "label": "001",
    "attribute": "0x0000000000000000",
    "text": "{{anim id=\"Smiling\" target=\"actor\" targetSpec=\"\"}}Écoute ça, tu vas pas me croire.{{pageBreak}}{{anim id=\"Explain\" target=\"actor\" targetSpec=\"\"}}Imagine un peu{{string value=\"...\"}} J'étais sur la plage,\nen train de faire mes étirements, et\nj'ai trouvé ça.\nC'est un plan pour bricoler une\n{{color id=\"1\"}}coiffe fête des œufs{{color id=\"65535\"}}. {{delay20}}{{anim id=\"Hello\" target=\"actor\" targetSpec=\"\"}}Tiens, j'en\nai fait une copie pour toi."
  },
  {
    "label": "002",
    "attribute": "0x0000000000000000",
    "text": "{{anim id=\"AbsentMindedness\" target=\"actor\" targetSpec=\"\"}}Les œufs sont une formidable source\nde protéines{{string value=\"...\"}}{{delay20}} Et on peut aussi s'en\nservir pour bricoler?!{{delay frames=\"40\"}} {{anim id=\"BigSmile\" target=\"actor\" targetSpec=\"\"}}C'est malade!{{pageBreak}}{{anim id=\"Serious\" target=\"actor\" targetSpec=\"\"}}Je me demande s'il existe d'autres\nplans comme celui-ci{{string value=\"...\"}}{{delay20}} Tiens, si\nj'en trouve,{{anim id=\"Hello\" target=\"actor\" targetSpec=\"\"}} je penserai à toi!"
  },
  {
    "label": "003",
    "attribute": "0x0000000000000000",
    "text": "{{anim id=\"Eh\" target=\"actor\" targetSpec=\"\"}}Oh,{{delay20}} attends.{{delay20}} On dirait que tes poches\nsont pleines.{{delay frames=\"40\"}} {{anim id=\"QuestionMark\" target=\"actor\" targetSpec=\"\"}}Tu t'entraînes à porter\nplein d'objets, {{string value=\"Catchphrase\"}}?{{pageBreak}}{{anim id=\"Hello\" target=\"actor\" targetSpec=\"\"}}Reviens me voir quand tu auras fait\nde la place dans tes poches, et je te\ndonnerai le plan!"
  },
  {
    "label": "010",
    "attribute": "0x0000000000000000",
    "text": "{{anim id=\"AbsentMindedness\" target=\"actor\" targetSpec=\"\"}}Imagine : je forçais pas,{{delay20}} j'en étais\nqu'à ma {{number value=\"3\" index=\"0\"}}e pompe, quand tout\nà coup, qu'est-ce que je vois?{{anim id=\"EmotEnd\" target=\"actor\" targetSpec=\"\"}}\nUn plan pour un {{color id=\"1\"}}sac fête des œufs\n{{color id=\"65535\"}}par terre, qui me fait de l'œil.{{anim id=\"EmotEnd\" target=\"actor\" targetSpec=\"\"}}{{pageBreak}}Et là, grâce à ma volonté de fer, je\ndécide d'arrêter mon exercice pour{{string value=\"...\"}}{{delay20}}{{anim id=\"SmugFace\" target=\"actor\" targetSpec=\"\"}}\nt'en faire une copie. Cadeau!"
  },
  {
    "label": "011",
    "attribute": "0x0000000000000000",
    "text": "{{anim id=\"Smiling\" target=\"actor\" targetSpec=\"\"}}J'espère que ça te fait plaisir! {{delay20}}Bon, c'est l'heure de mon jogging de\n{{number value=\"Count\" index=\"0\"}} km. À plus, {{string value=\"Catchphrase\"}}!"
  },
  {
    "label": "012",
    "attribute": "0x0000000000000000",
    "text": "{{anim id=\"Eh\" target=\"actor\" targetSpec=\"\"}}Oh! {{delay20}}Tes poches sont pleines.{{delay frames=\"40\"}} {{anim id=\"Restless\" target=\"actor\" targetSpec=\"\"}}Tu pourrais{{string value=\"...\"}}{{delay20}} faire un peu de place pour mon plan, {{string value=\"Catchphrase\"}}{{anim id=\"EmotEnd\" target=\"actor\" targetSpec=\"\"}}?{{pageBreak}}Je suis pas fatigué, ça non{{string value=\"...\"}}{{delay20}} {{anim id=\"Frantic\" target=\"actor\" targetSpec=\"\"}}mais le\nplan pèse une tonne et j'ai fait un\npaquet de pompes!"
  },
  {
    "label": "013",
    "attribute": "0x0000000000000000",
    "text": "{{anim id=\"SmugFace\" target=\"actor\" targetSpec=\"\"}}C'est la FOLIE, aujourd'hui!{{delay20}} J'ai déjà\ntrouvé un nombre incroyable {{gender4 m=\"de \" f=\"d'\"}}{{color id=\"1\"}}{{fun_0000007D arg=\"0x0002\"}}{{color id=\"65535\"}}!{{pageBreak}}{{anim id=\"HappyDance\" target=\"actor\" targetSpec=\"\"}}Comme tu es {{gender2 m=\"mon\" f=\"ma\"}} chasseu{{gender2 m=\"r\" f=\"se\"}} d'œufs\npréféré{{gender2 m=\"\" f=\"e\"}}, je vais partager mon butin\navec toi.{{delay20}} Prends-en {{color id=\"1\"}}5{{color id=\"65535\"}}, c'est gratis!"
  },
  {
    "label": "014",
    "attribute": "0x0000000000000000",
    "text": "Allez! {{delay8}}{{anim id=\"Scheming\" target=\"actor\" targetSpec=\"\"}}C'est pas le moment de se\nrelâcher.{{delay20}} La chasse aux œufs\ncontinue, {{string value=\"6\"}}!"
  },
  {
    "label": "015",
    "attribute": "0x0000000000000000",
    "text": "{{anim id=\"Shocked\" target=\"actor\" targetSpec=\"\"}}Temps mort! {{delay20}}Je sais bien que porter\ndes poids, ça développe les muscles,\nmais t'as plus assez de place!{{pageBreak}}{{anim id=\"Smiling\" target=\"actor\" targetSpec=\"\"}}Va donc vider un peu tes poches,\net reviens me voir quand tu pourras\ntransporter mes œufs, {{string value=\"6\"}}."
  }
]