﻿[
  {
    "label": "001",
    "attribute": "0x0000000000000000",
    "text": "{{fun_0014003C arg=\"\"}}"
  },
  {
    "label": "001_01",
    "attribute": "0x0000000000000000",
    "text": "{{anim id=\"Aha\" target=\"actor\" targetSpec=\"\"}}{{delay20}}Hey, {{string value=\"NickName\"}}! {{anim id=\"Smiling\" target=\"actor\" targetSpec=\"\"}}I'm all done\nmoving! {{delay20}}You were right!\nThis island is real neat!{{pageBreak}}{{anim id=\"SmugFace\" target=\"actor\" targetSpec=\"\"}}I'm real darn excited to\nlive on {{string value=\"OtherIslandName\"}}.{{pageBreak}}I wanna play with everybody!\n{{anim id=\"Smiling\" target=\"actor\" targetSpec=\"\"}}{{delay20}}But first, {{string value=\"Catchphrase\"}}, I gotta\nget unpacked!"
  },
  {
    "label": "001_02",
    "attribute": "0x0000000000000000",
    "text": "{{anim id=\"Greeting\" target=\"actor\" targetSpec=\"\"}}Hey, {{delay20}}{{string value=\"4\"}}!{{delay frames=\"40\"}}\nMan, I took your advice and{{delay20}}\nmoved here as quick as I could!{{pageBreak}}{{anim id=\"Smiling\" target=\"actor\" targetSpec=\"\"}}This is a real nice island. I bet my\nbug friends are gonna dig it. And I\nbet I'll meet more bug friends HERE!{{pageBreak}}{{anim id=\"Restless\" target=\"actor\" targetSpec=\"\"}}I'm gonna finish unpacking today.{{delay20}}\nY'know, get the bugs outta their bug\njars, and get my snack jars put away.{{pageBreak}}{{anim id=\"BigSmile\" target=\"actor\" targetSpec=\"\"}}But starting tomorrow, let's play{{delay8}}\nevery {{delay8}}day,{{delay8}}{{anim id=\"FaintSmile\" target=\"actor\" targetSpec=\"\"}} {{string value=\"6\"}}!"
  },
  {
    "label": "001_03",
    "attribute": "0x0000000000000000",
    "text": "{{anim id=\"Smiling\" target=\"actor\" targetSpec=\"\"}}Hey, {{string value=\"NickName\"}}!{{delay frames=\"40\"}}\n{{anim id=\"Greeting\" target=\"actor\" targetSpec=\"\"}}Already here for a visit?{{pageBreak}}Unpacking this stuff is gonna\ntake me all day. Could ya\nplease come back tomorrow?{{pageBreak}}{{anim id=\"HappyFlower\" target=\"actor\" targetSpec=\"\"}}We live on the same island now,{{delay20}}\nso we'll be able to play every day!{{delay frames=\"40\"}}\nI'm so excited, {{string value=\"Catchphrase\"}}!"
  },
  {
    "label": "002",
    "attribute": "0x0000000000000000",
    "text": "{{fun_0014003C arg=\"\"}}"
  },
  {
    "label": "002_01",
    "attribute": "0x0000000000000000",
    "text": "{{anim id=\"Aha\" target=\"actor\" targetSpec=\"\"}}{{capitalizeNextLetter}}{{string value=\"4\"}}!{{delay frames=\"40\"}} {{anim id=\"EmotEnd\" target=\"actor\" targetSpec=\"\"}}Thanks for\ninviting me to your\nisland the other day!{{pageBreak}}{{anim id=\"HappyFlower\" target=\"actor\" targetSpec=\"\"}}I'm all moved in now.{{pageBreak}}{{anim id=\"Smiling\" target=\"actor\" targetSpec=\"\"}}And, it's just like you said!{{delay20}}\n{{capitalizeNextLetter}}{{string value=\"OtherIslandName\"}} is a{{delay20}} real\ncool island!"
  },
  {
    "label": "002_02",
    "attribute": "0x0000000000000000",
    "text": "{{anim id=\"Smiling\" target=\"actor\" targetSpec=\"\"}}Hey!{{delay frames=\"40\"}} {{capitalizeNextLetter}}{{string value=\"4\"}}!{{delay frames=\"40\"}}\nI did it! I moved here!{{pageBreak}}{{anim id=\"Love\" target=\"actor\" targetSpec=\"\"}}It's a real nice island!{{delay frames=\"70\"}} {{anim id=\"Greeting\" target=\"actor\" targetSpec=\"\"}}I'm so glad I\nmet you{{string value=\"...\"}}and you invited me to live\nhere{{string value=\"...\"}}and then I moved here!{{pageBreak}}{{anim id=\"HappyFlower\" target=\"actor\" targetSpec=\"\"}}From now on,{{delay20}} we'll play lots, and\nhang out lots, and eat snacks lots,\nand all kindsa stuff! "
  },
  {
    "label": "002_03",
    "attribute": "0x0000000000000000",
    "text": "{{anim id=\"Aha\" target=\"actor\" targetSpec=\"\"}}Hi, {{delay20}}{{string value=\"4\"}}!{{delay frames=\"40\"}}\nIt's me, {{string value=\"VillagerName\"}}, from{{delay20}}\n{{selection value=\"SelectedIslandName\"}}, {{string value=\"6\"}}!{{pageBreak}}You invited me to move here and,\nman, I'm glad I did. This place has\nthe best bugs! And tastiest fish!{{pageBreak}}{{anim id=\"HappyFlower\" target=\"actor\" targetSpec=\"\"}}I just finished unpacking, so we can\nplay whenever, {{string value=\"6\"}}!"
  },
  {
    "label": "003",
    "attribute": "0x0000000000000000",
    "text": "{{anim id=\"Greeting\" target=\"actor\" targetSpec=\"\"}}Hey there,{{delay frames=\"40\"}} {{string value=\"4\"}}!{{delay frames=\"40\"}}\nI'm all done moving in!{{pageBreak}}{{anim id=\"Eh\" target=\"actor\" targetSpec=\"\"}}Huh?{{delay frames=\"60\"}} {{anim id=\"Frantic\" target=\"actor\" targetSpec=\"\"}}Man, don't tell me\nyou forgot who I am!{{delay frames=\"40\"}}\nIt's me, {{string value=\"VillagerName\"}}!{{pageBreak}}{{anim id=\"QuestionMark\" target=\"actor\" targetSpec=\"\"}}You{{string value=\"...\"}}invited me to move here?{{delay20}}{{pageBreak}}{{anim id=\"Laughing\" target=\"actor\" targetSpec=\"\"}}I get it! You're just goofing around,{{delay20}}\npretending not to remember me!{{i10_4}}\n{{anim id=\"QuestionMark\" target=\"actor\" targetSpec=\"\"}}RIGHT?!"
  },
  {
    "label": "004",
    "attribute": "0x0000000000000000",
    "text": "Oh! Hey, {{anim id=\"Hello\" target=\"actor\" targetSpec=\"\"}}{{string value=\"4\"}}.{{delay frames=\"40\"}}\n{{anim id=\"EmotEnd\" target=\"actor\" targetSpec=\"\"}}I decided to accept your invitation\nand move here,{{delay frames=\"40\"}} bu— Ah{{string value=\"...\"}}ah{{string value=\"...\"}}{{anim id=\"Worried\" target=\"actor\" targetSpec=\"\"}}{{pageBreak}}{{i10_12}}{{anim id=\"Sneezing\" target=\"actor\" targetSpec=\"\"}}{{delay20}}{{i10_10}}{{size value=\"150\"}}ACHOO!!!{{size value=\"100\"}}{{i10_9}}{{pageBreak}}{{anim id=\"Shaking\" target=\"actor\" targetSpec=\"\"}}I've got a cold! I'm gonna relax more\nthan usual and try to get{{delay20}} better.{{anim id=\"EmotEnd\" target=\"actor\" targetSpec=\"\"}}\nWe can play once I'm better!"
  },
  {
    "label": "011",
    "attribute": "0x0000000000000000",
    "text": "{{fun_0014003C arg=\"\"}}"
  },
  {
    "label": "011_01",
    "attribute": "0x0000000000000000",
    "text": "Hey, {{delay20}}{{string value=\"4\"}}!{{delay frames=\"40\"}}\n{{anim id=\"Pardon\" target=\"actor\" targetSpec=\"\"}}I'm{{delay20}} living here now!{{delay frames=\"40\"}}\nSurprised?{{delay40}} I AM!{{pageBreak}}{{anim id=\"Explain\" target=\"actor\" targetSpec=\"\"}}See, {{selection value=\"SelectedName\"}} said,{{delay20}}\n\"Move to my island.\"{{delay20}} So I did!{{pageBreak}}{{anim id=\"Explain\" target=\"actor\" targetSpec=\"\"}}I'm kinda suggestible.{{pageBreak}}{{anim id=\"Smiling\" target=\"actor\" targetSpec=\"\"}}Now that we're on the same island,{{delay20}}\nwe'll get to play lots, {{string value=\"6\"}}!"
  },
  {
    "label": "011_02",
    "attribute": "0x0000000000000000",
    "text": "{{anim id=\"Smiling\" target=\"actor\" targetSpec=\"\"}}Hey! It's me,{{delay frames=\"40\"}} {{string value=\"VillagerName\"}}!{{i10_4}}\nWe met on {{selection value=\"SelectedIslandName\"}}{{anim id=\"Greeting\" target=\"actor\" targetSpec=\"\"}}!{{i10_4}}\nYesterday! {{i10_4}}Remember?{{pageBreak}}{{anim id=\"Explain\" target=\"actor\" targetSpec=\"\"}}Anyway, {{selection value=\"SelectedName\"}} said I'd\nhave fun here so I moved,\nbecause I'd maybe have fun!{{pageBreak}}{{anim id=\"Laughing\" target=\"actor\" targetSpec=\"\"}}I'm one of the {{string value=\"OtherIslandName\"}}\ncrew now! From {{string value=\"OtherIslandName\"}}!"
  },
  {
    "label": "012",
    "attribute": "0x0000000000000000",
    "text": "{{fun_0014003C arg=\"\"}}"
  },
  {
    "label": "012_01",
    "attribute": "0x0000000000000000",
    "text": "Hi,{{delay20}}{{anim id=\"Greeting\" target=\"actor\" targetSpec=\"\"}} I'm {{string value=\"VillagerName\"}}!{{i10_4}}\nWe've never met before. Nope!\nNever seen ya in my life!{{pageBreak}}I'm kidding! {{anim id=\"Laughing\" target=\"actor\" targetSpec=\"\"}}We met back on\n{{selection value=\"SelectedIslandName\"}}. Remember?{{pageBreak}}I'm living here on{{delay20}}\n{{string value=\"OtherIslandName\"}} now!{{delay frames=\"60\"}}\n{{anim id=\"BigSmile\" target=\"actor\" targetSpec=\"\"}}{{capitalizeNextLetter}}{{selection value=\"SelectedName\"}} invited me!{{delay8}}{{anim id=\"FaintSmile\" target=\"actor\" targetSpec=\"\"}}{{pageBreak}}{{anim id=\"HappyFlower\" target=\"actor\" targetSpec=\"\"}}It's gonna be so much fun! So many\nnew folks to play with, snacks to try,\nand bugs to talk to, {{string value=\"6\"}}!"
  },
  {
    "label": "012_02",
    "attribute": "0x0000000000000000",
    "text": "{{anim id=\"Smiling\" target=\"actor\" targetSpec=\"\"}}Hiii, {{delay20}}{{string value=\"4\"}}!{{pageBreak}}{{anim id=\"Pardon\" target=\"actor\" targetSpec=\"\"}}I live here now!{{delay frames=\"60\"}} {{anim id=\"Laughing\" target=\"actor\" targetSpec=\"\"}}A huh huh huh!\nPretty cool, huh?{{pageBreak}}{{anim id=\"EmotEnd\" target=\"actor\" targetSpec=\"\"}}I'm {{string value=\"VillagerName\"}}, by the way!{{pageBreak}}Yeah, man, {{selection value=\"SelectedName\"}}\ninvited me to move here,{{delay20}} and\nI thought it sounded fun!"
  },
  {
    "label": "013",
    "attribute": "0x0000000000000000",
    "text": "It's {{delay20}}{{string value=\"4\"}}!{{delay frames=\"40\"}}\nHey! Long time no see!{{delay frames=\"40\"}}\nIt's me! {{capitalizeNextLetter}}{{string value=\"VillagerName\"}}!{{pageBreak}}{{anim id=\"Pardon\" target=\"actor\" targetSpec=\"\"}}Are you surprised?{{delay frames=\"60\"}} {{anim id=\"Laughing\" target=\"actor\" targetSpec=\"\"}}Last time I saw\nyou was on {{selection value=\"SelectedIslandName\"}}!{{pageBreak}}{{anim id=\"Hesitate\" target=\"actor\" targetSpec=\"\"}}I live here now!{{delay20}} {{capitalizeNextLetter}}{{selection value=\"SelectedName\"}}\nsaid I'd like it, and I sure DO!{{pageBreak}}{{anim id=\"Greeting\" target=\"actor\" targetSpec=\"\"}}It's real cool to see ya again!\nLet's snack sometime!"
  },
  {
    "label": "014",
    "attribute": "0x0000000000000000",
    "text": "{{i10_12}}{{anim id=\"Worried\" target=\"actor\" targetSpec=\"\"}}Ah—{{delay frames=\"40\"}}AH—{{delay frames=\"40\"}}{{anim id=\"Sneezing\" target=\"actor\" targetSpec=\"\"}}{{delay20}}{{i10_10}}{{size value=\"150\"}}ACHOO!!!{{size value=\"100\"}}{{i10_9}}{{pageBreak}}{{anim id=\"Shaking\" target=\"actor\" targetSpec=\"\"}}Hey, {{delay20}}{{string value=\"4\"}}.{{pageBreak}}{{capitalizeNextLetter}}{{selection value=\"SelectedName\"}} invited me,{{delay20}}\nso{{delay20}} I decided to move here.{{pageBreak}}{{anim id=\"Sneezing\" target=\"actor\" targetSpec=\"\"}}{{i10_10}}{{size value=\"150\"}}ACHOO!!!{{size value=\"100\"}}{{i10_9}}{{pageBreak}}I can't play right now because{{delay20}}\nI got a cold, {{string value=\"6\"}}.{{anim id=\"FaintSmile\" target=\"actor\" targetSpec=\"\"}}"
  },
  {
    "label": "021",
    "attribute": "0x0000000000000000",
    "text": "Hey, {{delay20}}{{string value=\"4\"}}!{{delay frames=\"40\"}}\n{{anim id=\"Pardon\" target=\"actor\" targetSpec=\"\"}}Guess what?{{delay20}} I live here now!{{delay frames=\"40\"}}\n{{anim id=\"Laughing\" target=\"actor\" targetSpec=\"\"}}A huh huh huh, {{delay20}}surprised?{{pageBreak}}{{anim id=\"Thinking\" target=\"actor\" targetSpec=\"\"}}Someone from this island invited{{delay20}}\nme here, but they moved{{delay20}} away\nbefore {{delay20}}I got here!{{pageBreak}}{{anim id=\"FaintSmile\" target=\"actor\" targetSpec=\"\"}}It's OK though,{{delay20}} because you're\nhere, {{anim id=\"Greeting\" target=\"actor\" targetSpec=\"\"}}{{string value=\"6\"}}!"
  },
  {
    "label": "022",
    "attribute": "0x0000000000000000",
    "text": "Hey! It's me! {{string value=\"VillagerName\"}}!{{i10_4}}\n{{anim id=\"Laughing\" target=\"actor\" targetSpec=\"\"}}We met on {{selection value=\"SelectedIslandName\"}}.{{pageBreak}}I live on {{string value=\"OtherIslandName\"}} now,\nwhich is real neat!{{delay frames=\"60\"}}{{pageBreak}}{{anim id=\"Thinking\" target=\"actor\" targetSpec=\"\"}}Somebody from this island invited\nme to move here, but they moved\n{{delay8}}out before I moved {{delay8}}in!{{pageBreak}}{{anim id=\"HappyFlower\" target=\"actor\" targetSpec=\"\"}}I'm just glad to see you're here!\n{{capitalizeNextLetter}}{{string value=\"OtherIslandName\"}} is gonna be a\ngreat place to hang out!"
  },
  {
    "label": "024",
    "attribute": "0x0000000000000000",
    "text": "Hey, it's {{delay20}}{{string value=\"4\"}}, right?{{delay frames=\"40\"}}\n{{anim id=\"QuestionMark\" target=\"actor\" targetSpec=\"\"}}Do you {{delay20}}remember me?{{delay frames=\"40\"}} {{anim id=\"EmotEnd\" target=\"actor\" targetSpec=\"\"}}We met\non {{selection value=\"SelectedIslandName\"}}!{{pageBreak}}{{anim id=\"Worried\" target=\"actor\" targetSpec=\"\"}}I heard about this island from{{delay20}}\nsomeone who lives here, but{{delay20}}\nthey aren't here now, {{anim id=\"Sneezing\" target=\"actor\" targetSpec=\"\"}}AH-CHOO!{{pageBreak}}{{anim id=\"Shaking\" target=\"actor\" targetSpec=\"\"}}Ugh,{{delay20}} I'm getting sick!{{anim id=\"Sneezing\" target=\"actor\" targetSpec=\"\"}}{{pageBreak}}I gotta get better soon{{delay20}} so I can\nmake new friends{{delay20}} and try new\nsnacks, {{string value=\"Catchphrase\"}}!{{pageBreak}}{{i10_10}}{{anim id=\"Sneezing\" target=\"actor\" targetSpec=\"\"}}{{delay20}}AH-CHOO!{{delay20}}{{i10_9}}{{anim id=\"EmotEnd\" target=\"actor\" targetSpec=\"\"}}"
  },
  {
    "label": "101",
    "attribute": "0x0000000000000000",
    "text": "{{fun_0014003C arg=\"\"}}"
  },
  {
    "label": "101_01",
    "attribute": "0x0000000000000000",
    "text": "{{anim id=\"Aha\" target=\"actor\" targetSpec=\"\"}}Hey, {{delay20}}{{string value=\"NickName\"}}!{{delay frames=\"40\"}} {{anim id=\"Smiling\" target=\"actor\" targetSpec=\"\"}}I'm all done\nmoving!{{delay20}} You were right,\nthis island is neat!{{pageBreak}}{{anim id=\"SmugFace\" target=\"actor\" targetSpec=\"\"}}I'm real excited to live\non {{string value=\"OtherIslandName\"}}.{{pageBreak}}I wanna play with everybody!{{delay20}}\nBut first, {{string value=\"Catchphrase\"}}, I gotta\nget unpacked!"
  },
  {
    "label": "101_02",
    "attribute": "0x0000000000000000",
    "text": "{{anim id=\"Greeting\" target=\"actor\" targetSpec=\"\"}}Hey, {{delay20}}{{string value=\"4\"}}!{{delay frames=\"40\"}}\nMan, I took your advice and{{delay20}}\nmoved here as quick as I could!{{pageBreak}}{{anim id=\"Smiling\" target=\"actor\" targetSpec=\"\"}}This is a real nice island. I bet my\nbug friends are gonna like it. And I\nbet I'll meet more bug friends HERE!{{pageBreak}}{{anim id=\"Restless\" target=\"actor\" targetSpec=\"\"}}I'm gonna finish unpacking today.{{delay20}}\nY'know, get the bugs outta their bug\njars, and get my snack jars put away.{{pageBreak}}{{anim id=\"BigSmile\" target=\"actor\" targetSpec=\"\"}}But starting tomorrow, let's play{{delay8}}\nevery {{delay8}}day,{{delay8}}{{anim id=\"FaintSmile\" target=\"actor\" targetSpec=\"\"}} {{string value=\"6\"}}!"
  },
  {
    "label": "101_03",
    "attribute": "0x0000000000000000",
    "text": "{{anim id=\"Smiling\" target=\"actor\" targetSpec=\"\"}}Hey, {{string value=\"NickName\"}}!{{delay frames=\"40\"}}\n{{anim id=\"Greeting\" target=\"actor\" targetSpec=\"\"}}Already here for a visit?{{pageBreak}}{{anim id=\"EmotEnd\" target=\"actor\" targetSpec=\"\"}}Unpacking this stuff is gonna take\nme all day, so can you please come\nback tomorrow?{{pageBreak}}{{anim id=\"HappyFlower\" target=\"actor\" targetSpec=\"\"}}We live on the same island now,{{delay20}}\nso we'll be able to play every day!{{delay frames=\"40\"}}\nI'm so excited, {{string value=\"Catchphrase\"}}!"
  },
  {
    "label": "102",
    "attribute": "0x0000000000000000",
    "text": "{{fun_0014003C arg=\"\"}}"
  },
  {
    "label": "102_01",
    "attribute": "0x0000000000000000",
    "text": "{{anim id=\"Aha\" target=\"actor\" targetSpec=\"\"}}{{capitalizeNextLetter}}{{string value=\"4\"}}!{{delay frames=\"40\"}}\n{{anim id=\"EmotEnd\" target=\"actor\" targetSpec=\"\"}}Thanks for inviting me to\nyour island the other day!{{pageBreak}}{{anim id=\"HappyFlower\" target=\"actor\" targetSpec=\"\"}}I'm all moved in now.{{pageBreak}}{{anim id=\"Smiling\" target=\"actor\" targetSpec=\"\"}}And it's just like you said!{{delay20}}\n{{string value=\"OtherIslandName\"}} is a{{delay20}} real\ncool island!"
  },
  {
    "label": "102_02",
    "attribute": "0x0000000000000000",
    "text": "{{anim id=\"Smiling\" target=\"actor\" targetSpec=\"\"}}Hey!{{delay frames=\"40\"}} {{capitalizeNextLetter}}{{string value=\"4\"}}!{{delay frames=\"40\"}}\nI did it! I moved here!{{pageBreak}}{{anim id=\"Love\" target=\"actor\" targetSpec=\"\"}}It's a real nice island!{{delay frames=\"70\"}} {{anim id=\"Greeting\" target=\"actor\" targetSpec=\"\"}}I'm so glad\nI met you and that you invited me\nto live here{{string value=\"...\"}}and then I did!{{pageBreak}}{{anim id=\"HappyFlower\" target=\"actor\" targetSpec=\"\"}}From now on,{{delay20}} we'll play lots, and\nhang out lots, and eat snacks lots,\nand all kindsa stuff! "
  },
  {
    "label": "102_03",
    "attribute": "0x0000000000000000",
    "text": "{{anim id=\"Aha\" target=\"actor\" targetSpec=\"\"}}Hi, {{delay20}}{{string value=\"NickName\"}}!{{delay frames=\"40\"}}\nIt's me, {{string value=\"VillagerName\"}},\nfrom{{delay20}} the day trip!{{pageBreak}}You invited me to move here and,\nman, I'm glad I did. This place has\nthe best bugs! And tastiest fish!{{pageBreak}}{{anim id=\"HappyFlower\" target=\"actor\" targetSpec=\"\"}}I just finished unpacking, so we can\nplay whenever, {{string value=\"6\"}}!"
  },
  {
    "label": "103",
    "attribute": "0x0000000000000000",
    "text": "{{anim id=\"Greeting\" target=\"actor\" targetSpec=\"\"}}Hey there,{{delay frames=\"40\"}} {{string value=\"4\"}}!{{delay frames=\"40\"}}\nI'm all done moving in!{{pageBreak}}{{anim id=\"Eh\" target=\"actor\" targetSpec=\"\"}}Huh?{{delay frames=\"60\"}} {{anim id=\"Frantic\" target=\"actor\" targetSpec=\"\"}}Man, don't tell me\nyou forgot who I am!{{delay frames=\"40\"}}\nIt's me, {{string value=\"VillagerName\"}}!{{pageBreak}}{{anim id=\"QuestionMark\" target=\"actor\" targetSpec=\"\"}}You{{string value=\"...\"}}invited me to move here?{{delay20}}{{pageBreak}}{{anim id=\"Laughing\" target=\"actor\" targetSpec=\"\"}}I get it! You're just goofing around,{{delay20}}\npretending not to remember me!{{i10_4}}\n{{anim id=\"QuestionMark\" target=\"actor\" targetSpec=\"\"}}RIGHT?!"
  },
  {
    "label": "104",
    "attribute": "0x0000000000000000",
    "text": "Oh, hey, {{anim id=\"Hello\" target=\"actor\" targetSpec=\"\"}}{{string value=\"4\"}}.{{delay frames=\"40\"}}\n{{anim id=\"EmotEnd\" target=\"actor\" targetSpec=\"\"}}I decided to accept your invitation\nand move here,{{delay frames=\"40\"}} bu—uh—uh—{{string value=\"...\"}}{{anim id=\"Worried\" target=\"actor\" targetSpec=\"\"}}{{pageBreak}}{{i10_12}}{{anim id=\"Sneezing\" target=\"actor\" targetSpec=\"\"}}{{delay20}}{{i10_10}}{{size value=\"150\"}}ACHOO!!!{{size value=\"100\"}}{{i10_9}}{{pageBreak}}{{anim id=\"Shaking\" target=\"actor\" targetSpec=\"\"}}I've got a cold! I'm gonna relax more\nthan usual and try to get{{delay20}} better.{{anim id=\"EmotEnd\" target=\"actor\" targetSpec=\"\"}}\nWe can play once I'm better!"
  },
  {
    "label": "201",
    "attribute": "0x0000000000000000",
    "text": "{{fun_0014003C arg=\"\"}}"
  },
  {
    "label": "201_01",
    "attribute": "0x0000000000000000",
    "text": "{{anim id=\"Smiling\" target=\"actor\" targetSpec=\"\"}}I'm all done moving!{{delay20}} You were\nright—this island is neat!{{pageBreak}}{{anim id=\"SmugFace\" target=\"actor\" targetSpec=\"\"}}I'm real excited to live\non {{string value=\"OtherIslandName\"}}.{{pageBreak}}I wanna play with everybody!\n{{anim id=\"EmotEnd\" target=\"actor\" targetSpec=\"\"}}But first, {{delay20}}{{string value=\"Catchphrase\"}}, I gotta\nget unpacked!"
  },
  {
    "label": "201_02",
    "attribute": "0x0000000000000000",
    "text": "{{anim id=\"Greeting\" target=\"actor\" targetSpec=\"\"}}Hey, {{delay20}}{{string value=\"4\"}}!{{delay frames=\"40\"}}\nMan, I took your advice and{{delay20}}\nmoved here as quick as I could!{{pageBreak}}{{anim id=\"Smiling\" target=\"actor\" targetSpec=\"\"}}This is a real nice island. I bet my\nbug friends are gonna like it. And I\nbet I'll meet more bug friends HERE!{{pageBreak}}{{anim id=\"Restless\" target=\"actor\" targetSpec=\"\"}}I'm gonna finish unpacking today.{{delay20}}\nY'know, get the bugs outta their bug\njars and get my snack jars put away.{{pageBreak}}{{anim id=\"BigSmile\" target=\"actor\" targetSpec=\"\"}}But starting tomorrow, let's play{{delay8}}\nevery {{delay8}}day,{{delay8}}{{anim id=\"FaintSmile\" target=\"actor\" targetSpec=\"\"}} {{string value=\"6\"}}!"
  },
  {
    "label": "201_03",
    "attribute": "0x0000000000000000",
    "text": "{{anim id=\"Smiling\" target=\"actor\" targetSpec=\"\"}}Hey, {{string value=\"NickName\"}}!{{delay frames=\"40\"}}\n{{anim id=\"Greeting\" target=\"actor\" targetSpec=\"\"}}Already here for a visit?{{pageBreak}}{{anim id=\"EmotEnd\" target=\"actor\" targetSpec=\"\"}}Unpacking this stuff is gonna take\nme all day, so can you please come\nback tomorrow?{{pageBreak}}{{anim id=\"HappyFlower\" target=\"actor\" targetSpec=\"\"}}We live on the same island now,{{delay20}}\nso we'll be able to play every day!{{delay frames=\"40\"}}\nI'm so excited, {{string value=\"Catchphrase\"}}!"
  },
  {
    "label": "202",
    "attribute": "0x0000000000000000",
    "text": "{{fun_0014003C arg=\"\"}}"
  },
  {
    "label": "202_01",
    "attribute": "0x0000000000000000",
    "text": "{{anim id=\"Aha\" target=\"actor\" targetSpec=\"\"}}{{capitalizeNextLetter}}{{string value=\"NickName\"}}!{{delay frames=\"40\"}}\n{{anim id=\"EmotEnd\" target=\"actor\" targetSpec=\"\"}}Thanks for chatting with me\nat the {{color id=\"1\"}}campsite{{color id=\"65535\"}}!{{pageBreak}}{{anim id=\"HappyFlower\" target=\"actor\" targetSpec=\"\"}}I'm all moved in now.{{pageBreak}}{{anim id=\"Smiling\" target=\"actor\" targetSpec=\"\"}}And it's just like you said!{{delay20}}\n{{string value=\"OtherIslandName\"}} is a{{delay20}} real\ncool island!"
  },
  {
    "label": "202_02",
    "attribute": "0x0000000000000000",
    "text": "{{anim id=\"Smiling\" target=\"actor\" targetSpec=\"\"}}Hey!{{delay frames=\"40\"}} {{capitalizeNextLetter}}{{string value=\"4\"}}!\n{{delay frames=\"40\"}}I did it! I moved here! Just like I\npromised back at the {{color id=\"1\"}}campsite{{color id=\"65535\"}}!{{pageBreak}}{{anim id=\"Love\" target=\"actor\" targetSpec=\"\"}}It's a real nice island!{{delay frames=\"70\"}} {{anim id=\"Greeting\" target=\"actor\" targetSpec=\"\"}}I'm so\nglad I met you and that you invited\nme to live here{{string value=\"...\"}}and then I did!{{pageBreak}}{{anim id=\"HappyFlower\" target=\"actor\" targetSpec=\"\"}}From now on,{{delay20}} we'll play lots, and\nhang out lots, and eat snacks lots,\nand all kindsa stuff! "
  },
  {
    "label": "202_03",
    "attribute": "0x0000000000000000",
    "text": "{{anim id=\"Aha\" target=\"actor\" targetSpec=\"\"}}{{capitalizeNextLetter}}{{string value=\"4\"}}!{{delay frames=\"40\"}} \nIt's me, {{string value=\"VillagerName\"}}.\nWe met at the {{color id=\"1\"}}campsite{{color id=\"65535\"}}!{{pageBreak}}You invited me to move here and,\nman, I'm glad I did. This place has\nthe best bugs! And tastiest fish!{{pageBreak}}{{anim id=\"HappyFlower\" target=\"actor\" targetSpec=\"\"}}I just finished unpacking, so we can\nplay whenever, {{string value=\"6\"}}!"
  },
  {
    "label": "203",
    "attribute": "0x0000000000000000",
    "text": "{{anim id=\"Greeting\" target=\"actor\" targetSpec=\"\"}}Hey there,{{delay frames=\"40\"}} {{string value=\"4\"}}!{{delay frames=\"40\"}}\nI'm all done moving in!{{pageBreak}}{{anim id=\"Eh\" target=\"actor\" targetSpec=\"\"}}Huh?{{delay frames=\"60\"}} {{anim id=\"Frantic\" target=\"actor\" targetSpec=\"\"}}Man, don't tell me\nyou forgot who I am!{{delay frames=\"40\"}}\nIt's me, {{string value=\"VillagerName\"}}!{{pageBreak}}{{anim id=\"QuestionMark\" target=\"actor\" targetSpec=\"\"}}You{{string value=\"...\"}}invited me to move here?{{delay frames=\"40\"}}\nWhen we met at the {{color id=\"1\"}}campsite{{color id=\"65535\"}}?{{pageBreak}}{{anim id=\"Laughing\" target=\"actor\" targetSpec=\"\"}}I get it! You're just goofing around,{{delay20}}\npretending not to remember me!{{i10_4}}\n{{anim id=\"QuestionMark\" target=\"actor\" targetSpec=\"\"}}RIGHT?!"
  },
  {
    "label": "204",
    "attribute": "0x0000000000000000",
    "text": "Oh, hey, {{anim id=\"Hello\" target=\"actor\" targetSpec=\"\"}}{{string value=\"NickName\"}}.{{delay frames=\"40\"}}\n{{anim id=\"EmotEnd\" target=\"actor\" targetSpec=\"\"}}After we met at the {{color id=\"1\"}}campsite{{color id=\"65535\"}}, I kinda\nthought it'd be cool to {{anim id=\"Shaking\" target=\"actor\" targetSpec=\"\"}}muh—uh—{{string value=\"...\"}}{{anim id=\"Worried\" target=\"actor\" targetSpec=\"\"}}{{pageBreak}}{{i10_12}}{{anim id=\"Sneezing\" target=\"actor\" targetSpec=\"\"}}{{delay20}}{{i10_10}}{{size value=\"150\"}}WACHOO!!!{{size value=\"100\"}}{{pageBreak}}{{delay20}}{{i10_9}}{{anim id=\"Shaking\" target=\"actor\" targetSpec=\"\"}}I've got a cold! I'm gonna relax more\nthan usual and try to get{{delay20}} better. {{anim id=\"EmotEnd\" target=\"actor\" targetSpec=\"\"}}We\ncan play once I'm better!"
  },
  {
    "label": "211",
    "attribute": "0x0000000000000000",
    "text": "{{fun_0014003C arg=\"\"}}"
  },
  {
    "label": "211_01",
    "attribute": "0x0000000000000000",
    "text": "{{anim id=\"Aha\" target=\"actor\" targetSpec=\"\"}}{{delay20}}Oh, hey, {{string value=\"NickName\"}}!{{delay frames=\"40\"}}\n{{anim id=\"Laughing\" target=\"actor\" targetSpec=\"\"}}{{delay20}}Surprised to see my house here?{{delay frames=\"40\"}}\n{{anim id=\"FaintSmile\" target=\"actor\" targetSpec=\"\"}}I live here now! {{delay20}}Neat, huh?{{pageBreak}}{{anim id=\"Explain\" target=\"actor\" targetSpec=\"\"}}I bumped into {{selection value=\"SelectedName\"}}\nwhile I was snacking at the {{color id=\"1\"}}campsite{{color id=\"65535\"}},\nand we got talking{{string value=\"...\"}}{{pageBreak}}One thing led to a second thing, and\nafter another four or five things,\nI decided to live here, {{string value=\"6\"}}!"
  },
  {
    "label": "211_02",
    "attribute": "0x0000000000000000",
    "text": "{{anim id=\"Smiling\" target=\"actor\" targetSpec=\"\"}}Hi!{{delay frames=\"40\"}} It's me! {{capitalizeNextLetter}}{{string value=\"VillagerName\"}}!{{delay20}}\nRemember me? I {{anim id=\"Greeting\" target=\"actor\" targetSpec=\"\"}}camped here the\nother day! {{anim id=\"BigSmile\" target=\"actor\" targetSpec=\"\"}}{{delay20}}Me! {{delay20}}{{capitalizeNextLetter}}{{string value=\"VillagerName\"}}!{{pageBreak}}{{anim id=\"Explain\" target=\"actor\" targetSpec=\"\"}}{{capitalizeNextLetter}}{{selection value=\"SelectedName\"}} invited me to\nmove here, so I moved. {{anim id=\"BigSmile\" target=\"actor\" targetSpec=\"\"}}{{delay20}}Here!{{delay20}}\nI moved here!{{pageBreak}}{{anim id=\"HappyFlower\" target=\"actor\" targetSpec=\"\"}}Now I live on {{string value=\"OtherIslandName\"}}, like\nyou! {{delay20}}Here! {{delay20}}On {{string value=\"OtherIslandName\"}}!"
  },
  {
    "label": "212",
    "attribute": "0x0000000000000000",
    "text": "{{fun_0014003C arg=\"\"}}"
  },
  {
    "label": "212_01",
    "attribute": "0x0000000000000000",
    "text": "Nice to meet ya, {{delay20}}{{anim id=\"Greeting\" target=\"actor\" targetSpec=\"\"}}I'm\n{{string value=\"VillagerName\"}}!{{i10_4}} {{anim id=\"Laughing\" target=\"actor\" targetSpec=\"\"}}A huh huh!{{delay frames=\"40\"}}\nI'm joking, {{string value=\"NickName\"}}!{{pageBreak}}{{anim id=\"Pardon\" target=\"actor\" targetSpec=\"\"}}Surprised to see me on\n{{string value=\"OtherIslandName\"}}, huh?{{delay frames=\"40\"}}\n{{anim id=\"EmotEnd\" target=\"actor\" targetSpec=\"\"}}I live here now!{{pageBreak}}I got invited by {{selection value=\"SelectedName\"}}\n{{anim id=\"BigSmile\" target=\"actor\" targetSpec=\"\"}}at the {{color id=\"1\"}}campsite{{color id=\"65535\"}} here!{{delay8}}{{anim id=\"FaintSmile\" target=\"actor\" targetSpec=\"\"}}{{pageBreak}}{{anim id=\"HappyDance\" target=\"actor\" targetSpec=\"\"}}I'm a fellow {{string value=\"OtherIslandName\"}}-er\nnow, so prepare to snack!"
  },
  {
    "label": "212_02",
    "attribute": "0x0000000000000000",
    "text": "{{anim id=\"Smiling\" target=\"actor\" targetSpec=\"\"}}Hey, {{string value=\"NickName\"}}!{{delay frames=\"40\"}}\nRemember me? I was here camping\nbefore.{{delay frames=\"40\"}} It's {{string value=\"VillagerName\"}}!{{pageBreak}}{{anim id=\"Pardon\" target=\"actor\" targetSpec=\"\"}}I live on this island now!{{delay frames=\"60\"}}\n{{anim id=\"Laughing\" target=\"actor\" targetSpec=\"\"}}Surprised, huh?{{pageBreak}}{{anim id=\"EmotEnd\" target=\"actor\" targetSpec=\"\"}}{{capitalizeNextLetter}}{{selection value=\"SelectedName\"}} invited me at the\n{{color id=\"1\"}}campsite {{color id=\"65535\"}}here, and I decided\nto move here!{{pageBreak}}{{anim id=\"ShyBoy\" target=\"actor\" targetSpec=\"\"}}I'm sure there's a buncha stuff I\ndon't know about this island, so\nya gotta {{anim id=\"Greeting\" target=\"actor\" targetSpec=\"\"}}tell me all about it!"
  },
  {
    "label": "213",
    "attribute": "0x0000000000000000",
    "text": "Hey, {{string value=\"NickName\"}}!{{delay frames=\"40\"}}\n{{anim id=\"FaintSmile\" target=\"actor\" targetSpec=\"\"}}Long time no see.{{delay frames=\"40\"}}\nIt's me, {{string value=\"VillagerName\"}}!{{pageBreak}}When I was at the {{color id=\"1\"}}campsite{{color id=\"65535\"}} earlier,\n{{selection value=\"SelectedName\"}} invited me! So{{string value=\"...\"}}\nNow I live here.\n{{anim id=\"EmotEnd\" target=\"actor\" targetSpec=\"\"}}I'm glad I got to finally\nsay hi,{{delay20}}{{anim id=\"Greeting\" target=\"actor\" targetSpec=\"\"}} {{string value=\"6\"}}."
  },
  {
    "label": "214",
    "attribute": "0x0000000000000000",
    "text": "{{i10_12}}{{anim id=\"Worried\" target=\"actor\" targetSpec=\"\"}}Ah-{{delay frames=\"40\"}}AH-{{delay frames=\"40\"}}{{anim id=\"Sneezing\" target=\"actor\" targetSpec=\"\"}}{{delay20}}{{i10_10}}{{size value=\"150\"}}ACHOO!!!{{size value=\"100\"}}{{i10_9}}{{pageBreak}}{{anim id=\"EmotEnd\" target=\"actor\" targetSpec=\"\"}}Oh, hey, {{string value=\"NickName\"}}.{{delay frames=\"40\"}}\nIt's me, {{string value=\"VillagerName\"}}!{{delay frames=\"40\"}}\n{{anim id=\"FaintSmile\" target=\"actor\" targetSpec=\"\"}}I live here now.{{pageBreak}}{{anim id=\"Nodding\" target=\"actor\" targetSpec=\"\"}}{{capitalizeNextLetter}}{{selection value=\"SelectedName\"}} invited me when\nI was visiting the {{color id=\"1\"}}campsite {{color id=\"65535\"}}here,\nso I moved to this island!{{anim id=\"Sneezing\" target=\"actor\" targetSpec=\"\"}}{{pageBreak}}{{anim id=\"WrySmile\" target=\"actor\" targetSpec=\"\"}}I can't play right now because\nof this cold,{{delay20}} but let's hang out\n{{anim id=\"EmotEnd\" target=\"actor\" targetSpec=\"\"}}once I'm better, {{string value=\"6\"}}.{{anim id=\"FaintSmile\" target=\"actor\" targetSpec=\"\"}}"
  },
  {
    "label": "221",
    "attribute": "0x0000000000000000",
    "text": "{{anim id=\"Aha\" target=\"actor\" targetSpec=\"\"}}Hey, {{string value=\"NickName\"}}!{{delay frames=\"40\"}}\n{{anim id=\"EmotEnd\" target=\"actor\" targetSpec=\"\"}}It's me, {{string value=\"VillagerName\"}}!{{delay frames=\"40\"}}\nI{{delay20}}{{anim id=\"BigSmile\" target=\"actor\" targetSpec=\"\"}} live here! Starting today!{{anim id=\"FaintSmile\" target=\"actor\" targetSpec=\"\"}}{{pageBreak}}{{anim id=\"Thinking\" target=\"actor\" targetSpec=\"\"}}Looks like the island resident who\ninvited me when I was here camping\nis gone, and that's a shame.{{pageBreak}}I'm not lonely, though!{{delay20}} {{anim id=\"Greeting\" target=\"actor\" targetSpec=\"\"}}I got you,\nafter all.{{delay frames=\"40\"}}"
  },
  {
    "label": "222",
    "attribute": "0x0000000000000000",
    "text": "Nice to meet ya, {{delay20}}{{anim id=\"Greeting\" target=\"actor\" targetSpec=\"\"}}I'm\n{{string value=\"VillagerName\"}}!{{i10_4}}{{anim id=\"EmotEnd\" target=\"actor\" targetSpec=\"\"}} I'm kidding!{{delay20}}{{anim id=\"Laughing\" target=\"actor\" targetSpec=\"\"}}\nI remember you, {{string value=\"NickName\"}}!{{pageBreak}}I actually{{anim id=\"Hello\" target=\"actor\" targetSpec=\"\"}} live here now.{{delay frames=\"40\"}} {{anim id=\"Nodding\" target=\"actor\" targetSpec=\"\"}}It's all\n'cause I got invited to move here\nwhen I was camping.{{pageBreak}}{{anim id=\"Worried\" target=\"actor\" targetSpec=\"\"}}But the person who invited me isn't\nhere anymore{{string value=\"...\"}}{{delay frames=\"40\"}}which is a shame.{{pageBreak}}{{anim id=\"BigSmile\" target=\"actor\" targetSpec=\"\"}}But I got you, {{string value=\"NickName\"}}!\nAnd that's all a guy\ncould ask for, {{string value=\"6\"}}!"
  },
  {
    "label": "224",
    "attribute": "0x0000000000000000",
    "text": "Oh, hey, {{string value=\"NickName\"}}.{{anim id=\"Sneezing\" target=\"actor\" targetSpec=\"\"}}{{pageBreak}}{{anim id=\"EmotEnd\" target=\"actor\" targetSpec=\"\"}}Remember{{delay20}}{{anim id=\"Hello\" target=\"actor\" targetSpec=\"\"}} me?{{delay frames=\"40\"}} {{anim id=\"FaintSmile\" target=\"actor\" targetSpec=\"\"}}{{capitalizeNextLetter}}{{string value=\"VillagerName\"}}!\nI was here camping!{{pageBreak}}{{anim id=\"Explain\" target=\"actor\" targetSpec=\"\"}}I moved here 'cause someone\ninvited me at the {{color id=\"1\"}}campsite{{color id=\"65535\"}},\n{{anim id=\"Negative\" target=\"actor\" targetSpec=\"\"}}but I can't find 'em now.{{anim id=\"Sneezing\" target=\"actor\" targetSpec=\"\"}}{{pageBreak}}{{anim id=\"Shaking\" target=\"actor\" targetSpec=\"\"}}I wanna hurry up and chill with\nyou,{{delay20}} but I gotta fix this cold first.{{delay frames=\"40\"}}\nSee ya soon!"
  },
  {
    "label": "301",
    "attribute": "0x0000000000000000",
    "text": "{{fun_0014003C arg=\"\"}}"
  },
  {
    "label": "301_01",
    "attribute": "0x0000000000000000",
    "text": "{{anim id=\"Smiling\" target=\"actor\" targetSpec=\"\"}}Hey, {{string value=\"NickName\"}}.{{delay frames=\"40\"}}\nWelcome to Day One at\n{{anim id=\"Greeting\" target=\"actor\" targetSpec=\"\"}}{{string value=\"VillagerName\"}}'s house!{{pageBreak}}{{anim id=\"HappyDance\" target=\"actor\" targetSpec=\"\"}}Thanks for inviting me to this island{{delay frames=\"40\"}}\nback at the {{color id=\"1\"}}campsite{{color id=\"65535\"}}!{{delay20}} It's thanks to\nyou that my home is here now!{{pageBreak}}{{anim id=\"Nodding\" target=\"actor\" targetSpec=\"\"}}I wanna hurry up and explore\n{{string value=\"OtherIslandName\"}},{{delay20}}{{anim id=\"WrySmile\" target=\"actor\" targetSpec=\"\"}} but I gotta\nunpack first, {{string value=\"6\"}}!"
  },
  {
    "label": "301_02",
    "attribute": "0x0000000000000000",
    "text": "{{anim id=\"Smiling\" target=\"actor\" targetSpec=\"\"}}Hey, {{string value=\"NickName\"}}!{{delay frames=\"40\"}}\nI've been waiting for you!{{pageBreak}}{{anim id=\"EmotEnd\" target=\"actor\" targetSpec=\"\"}}I wanna thank you {{anim id=\"Explain\" target=\"actor\" targetSpec=\"\"}}for inviting\nme to this island when I was\nat the {{color id=\"1\"}}campsite{{color id=\"65535\"}}!{{pageBreak}}{{anim id=\"BigSmile\" target=\"actor\" targetSpec=\"\"}}Look at me! I'm a neighbor!{{delay frames=\"40\"}}"
  },
  {
    "label": "301_03",
    "attribute": "0x0000000000000000",
    "text": "{{anim id=\"Smiling\" target=\"actor\" targetSpec=\"\"}}Yaaay, {{string value=\"NickName\"}}!{{delay frames=\"40\"}}\nWelcome to {{string value=\"VillagerName\"}}'s!{{delay frames=\"40\"}}\nI thought I'd be seeing you.{{pageBreak}}{{anim id=\"Explain\" target=\"actor\" targetSpec=\"\"}}Thanks for inviting me back at\nthe {{color id=\"1\"}}campsite{{color id=\"65535\"}}. {{anim id=\"Laughing\" target=\"actor\" targetSpec=\"\"}}Moving here was\na great idea!{{pageBreak}}{{anim id=\"HappyDance\" target=\"actor\" targetSpec=\"\"}}I'm so excited to chill with you\nevery day now!{{i10_4}} {{anim id=\"WrySmile\" target=\"actor\" targetSpec=\"\"}}After I unpack{{string value=\"...\"}}"
  },
  {
    "label": "302",
    "attribute": "0x0000000000000000",
    "text": "{{fun_0014003C arg=\"\"}}"
  },
  {
    "label": "302_01",
    "attribute": "0x0000000000000000",
    "text": "Hey, {{string value=\"NickName\"}}.{{delay frames=\"40\"}}\n{{anim id=\"Hello\" target=\"actor\" targetSpec=\"\"}}Remember me?{{delay frames=\"40\"}}\n{{anim id=\"BigSmile\" target=\"actor\" targetSpec=\"\"}}{{string value=\"VillagerName\"}}! I live here!{{delay8}}{{anim id=\"FaintSmile\" target=\"actor\" targetSpec=\"\"}}{{pageBreak}}{{anim id=\"Explain\" target=\"actor\" targetSpec=\"\"}}Remember how you invited\nme to move here when\n{{anim id=\"Pardon\" target=\"actor\" targetSpec=\"\"}}I was at the {{color id=\"1\"}}campsite{{color id=\"65535\"}}?{{pageBreak}}{{anim id=\"Blushing\" target=\"actor\" targetSpec=\"\"}}Well, I did it! Here I am! Here! Now!{{delay frames=\"40\"}}\n{{anim id=\"Smiling\" target=\"actor\" targetSpec=\"\"}}{{delay20}}Forever! And ever, {{string value=\"6\"}}!"
  },
  {
    "label": "302_02",
    "attribute": "0x0000000000000000",
    "text": "{{anim id=\"Aha\" target=\"actor\" targetSpec=\"\"}}{{capitalizeNextLetter}}{{string value=\"NickName\"}}!{{delay frames=\"40\"}}\n{{anim id=\"HappyDance\" target=\"actor\" targetSpec=\"\"}}It's me, {{string value=\"VillagerName\"}}!{{delay frames=\"40\"}}\nI'm so happy to see you again!{{pageBreak}}{{anim id=\"Nodding\" target=\"actor\" targetSpec=\"\"}}I wouldn't even be here if you\nhadn't invited me to move\n{{anim id=\"Negative\" target=\"actor\" targetSpec=\"\"}}when I was at the {{color id=\"1\"}}campsite{{color id=\"65535\"}}.{{pageBreak}}{{anim id=\"Greeting\" target=\"actor\" targetSpec=\"\"}}Come chill at my place\nwhenever, {{string value=\"6\"}}!"
  },
  {
    "label": "302_03",
    "attribute": "0x0000000000000000",
    "text": "{{anim id=\"Smiling\" target=\"actor\" targetSpec=\"\"}}Hi there, {{string value=\"NickName\"}}!{{delay frames=\"40\"}} It's me!\n{{string value=\"VillagerName\"}}! We met at the\n{{color id=\"1\"}}campsite {{color id=\"65535\"}}the other day.{{pageBreak}}{{anim id=\"AbsentMindedness\" target=\"actor\" targetSpec=\"\"}}When you told me I should move\nto your island, I didn't even think.\nI just did it!{{pageBreak}}{{anim id=\"HappyFlower\" target=\"actor\" targetSpec=\"\"}}Now that I'm here we can chill and\nsnack and do whatever, whenever!\n{{anim id=\"BigSmile\" target=\"actor\" targetSpec=\"\"}}It's gonna be great, {{string value=\"6\"}}!"
  },
  {
    "label": "303",
    "attribute": "0x0000000000000000",
    "text": "{{anim id=\"Shocked\" target=\"actor\" targetSpec=\"\"}}Oh, {{string value=\"NickName\"}}!{{delay frames=\"40\"}}\n{{anim id=\"EmotEnd\" target=\"actor\" targetSpec=\"\"}}There ya are!{{i10_4}} {{anim id=\"QuestionMark\" target=\"actor\" targetSpec=\"\"}}You still\nremember me, yeah?{{pageBreak}}{{anim id=\"Smiling\" target=\"actor\" targetSpec=\"\"}}I'm {{string value=\"VillagerName\"}}!{{delay20}} You invited\nme to move to this island when\nI was at the {{color id=\"1\"}}campsite{{color id=\"65535\"}}{{string value=\"...\"}}so I did!{{pageBreak}}{{anim id=\"Restless\" target=\"actor\" targetSpec=\"\"}}I was worried I'd got the wrong\nisland 'cause you weren't anywhere!{{pageBreak}}{{anim id=\"Laughing\" target=\"actor\" targetSpec=\"\"}}I'm so relieved I found you!{{delay frames=\"40\"}}\n{{anim id=\"Serious\" target=\"actor\" targetSpec=\"\"}}Make sure you holler at me\nwhenever ya see me, {{string value=\"6\"}}!{{anim id=\"FaintSmile\" target=\"actor\" targetSpec=\"\"}}"
  },
  {
    "label": "304",
    "attribute": "0x0000000000000000",
    "text": "{{anim id=\"Shaking\" target=\"actor\" targetSpec=\"\"}}Uuuuggghhhmm{{string value=\"...\"}}{{delay frames=\"40\"}} Hi. You're{{delay20}}\n{{string value=\"NickName\"}}, yeah?\n{{anim id=\"EmotEnd\" target=\"actor\" targetSpec=\"\"}}I'm {{string value=\"VillagerName\"}}.{{anim id=\"Sneezing\" target=\"actor\" targetSpec=\"\"}}{{delay frames=\"60\"}}{{pageBreak}}{{anim id=\"EmotEnd\" target=\"actor\" targetSpec=\"\"}}I moved here 'cause you invited\nme at the{{anim id=\"Sneezing\" target=\"actor\" targetSpec=\"\"}}{{delay20}} {{color id=\"1\"}}campsite{{color id=\"65535\"}}.{{pageBreak}}{{anim id=\"Worried\" target=\"actor\" targetSpec=\"\"}}I'll chill with you once I'm over this\ncold. {{anim id=\"Sneezing\" target=\"actor\" targetSpec=\"\"}}{{delay20}}Sound good, {{string value=\"6\"}}?"
  },
  {
    "label": "311",
    "attribute": "0x0000000000000000",
    "text": "{{fun_0014003C arg=\"\"}}"
  },
  {
    "label": "311_01",
    "attribute": "0x0000000000000000",
    "text": "{{anim id=\"Smiling\" target=\"actor\" targetSpec=\"\"}}Hey, {{string value=\"NickName\"}}!{{delay frames=\"40\"}} It's me,\n{{string value=\"VillagerName\"}}!{{delay frames=\"40\"}} We met at the\n{{color id=\"1\"}}campsite{{color id=\"65535\"}}.{{anim id=\"Laughing\" target=\"actor\" targetSpec=\"\"}} Surprised to see me?{{pageBreak}}{{anim id=\"Explain\" target=\"actor\" targetSpec=\"\"}}I moved here 'cause\n{{selection value=\"SelectedName\"}} {{anim id=\"Greeting\" target=\"actor\" targetSpec=\"\"}}invited me to!{{pageBreak}}{{anim id=\"EmotEnd\" target=\"actor\" targetSpec=\"\"}}Now,{{delay20}} I gotta unpack {{anim id=\"FaintSmile\" target=\"actor\" targetSpec=\"\"}}and say hi to\neverybody on the island!"
  },
  {
    "label": "311_02",
    "attribute": "0x0000000000000000",
    "text": "Hiya, {{string value=\"NickName\"}}!{{delay frames=\"40\"}} {{anim id=\"FaintSmile\" target=\"actor\" targetSpec=\"\"}}It's me,\n{{string value=\"VillagerName\"}}!{{delay frames=\"40\"}} We met at the\n{{color id=\"1\"}}campsite{{color id=\"65535\"}}, remember?{{pageBreak}}{{anim id=\"EmotEnd\" target=\"actor\" targetSpec=\"\"}}While I was there, {{selection value=\"SelectedName\"}}\ninvited me to move here! I figured\nwhat the heck, they smelled good{{string value=\"...\"}}{{pageBreak}}{{anim id=\"BigSmile\" target=\"actor\" targetSpec=\"\"}}So I'm a fellow {{string value=\"33\"}}-er\nstarting today, {{string value=\"6\"}}!"
  },
  {
    "label": "312",
    "attribute": "0x0000000000000000",
    "text": "{{fun_0014003C arg=\"\"}}"
  },
  {
    "label": "312_01",
    "attribute": "0x0000000000000000",
    "text": "{{anim id=\"FaintSmile\" target=\"actor\" targetSpec=\"\"}}Hi there, {{string value=\"NickName\"}}!{{delay frames=\"40\"}} It's\n{{string value=\"VillagerName\"}}!{{delay20}} I was here\ncamping.{{delay frames=\"40\"}}{{anim id=\"Pardon\" target=\"actor\" targetSpec=\"\"}} Now I actually live here!{{pageBreak}}{{anim id=\"Explain\" target=\"actor\" targetSpec=\"\"}}I got talking with {{selection value=\"SelectedName\"}}\nwhen I was visiting the {{color id=\"1\"}}campsite{{color id=\"65535\"}},\n{{anim id=\"Blushing\" target=\"actor\" targetSpec=\"\"}}and they suggested I move here.{{pageBreak}}{{anim id=\"Nodding\" target=\"actor\" targetSpec=\"\"}}So that's why we're island buddies\nnow, {{anim id=\"FaintSmile\" target=\"actor\" targetSpec=\"\"}}a huh huh, {{string value=\"6\"}}!"
  },
  {
    "label": "312_02",
    "attribute": "0x0000000000000000",
    "text": "{{anim id=\"Aha\" target=\"actor\" targetSpec=\"\"}}Heeey, {{string value=\"NickName\"}}!{{delay frames=\"40\"}}\n{{anim id=\"FaintSmile\" target=\"actor\" targetSpec=\"\"}}I was at the {{color id=\"1\"}}campsite{{color id=\"65535\"}} the other day.\nIt's {{string value=\"VillagerName\"}}!{{pageBreak}}{{anim id=\"ShyBoy\" target=\"actor\" targetSpec=\"\"}}Someone I met there invited me to\nmove here, so{{string value=\"...\"}}I did!{{delay frames=\"60\"}} {{anim id=\"FaintSmile\" target=\"actor\" targetSpec=\"\"}}A huh huh,{{delay20}}{{anim id=\"Pardon\" target=\"actor\" targetSpec=\"\"}}\nknow who it was?{{pageBreak}}It was {{anim id=\"BigSmile\" target=\"actor\" targetSpec=\"\"}}{{delay8}}{{selection value=\"SelectedName\"}}!{{delay frames=\"40\"}}\n{{anim id=\"Laughing\" target=\"actor\" targetSpec=\"\"}}It's totally their fault that\nI'm here now, {{string value=\"6\"}}!"
  },
  {
    "label": "313",
    "attribute": "0x0000000000000000",
    "text": "{{anim id=\"Smiling\" target=\"actor\" targetSpec=\"\"}}Hey, {{string value=\"NickName\"}}.{{delay frames=\"40\"}}\nIt's me, {{string value=\"VillagerName\"}}!{{delay frames=\"40\"}}\nBeen a while, huh?{{pageBreak}}{{anim id=\"Hello\" target=\"actor\" targetSpec=\"\"}}Remember meeting at the {{color id=\"1\"}}campsite{{color id=\"65535\"}}?{{delay frames=\"40\"}}{{anim id=\"Nodding\" target=\"actor\" targetSpec=\"\"}}\nThat's when {{selection value=\"SelectedName\"}}\ninvited me here!{{pageBreak}}{{anim id=\"Laughing\" target=\"actor\" targetSpec=\"\"}}I've been trying real hard,\nand I think I smell like\n{{string value=\"OtherIslandName\"}} already!{{pageBreak}}{{anim id=\"HappyDance\" target=\"actor\" targetSpec=\"\"}}Let's chill all the time, {{string value=\"6\"}}!"
  },
  {
    "label": "314",
    "attribute": "0x0000000000000000",
    "text": "{{anim id=\"Shaking\" target=\"actor\" targetSpec=\"\"}}Is that you, {{string value=\"NickName\"}}?{{delay frames=\"40\"}}\nIt's me, {{string value=\"VillagerName\"}}.{{anim id=\"Sneezing\" target=\"actor\" targetSpec=\"\"}}{{pageBreak}}{{anim id=\"Explain\" target=\"actor\" targetSpec=\"\"}}{{capitalizeNextLetter}}{{selection value=\"SelectedName\"}} invited me to\nmove here when I was here camping,{{anim id=\"EmotEnd\" target=\"actor\" targetSpec=\"\"}}{{delay20}}\n{{anim id=\"FaintSmile\" target=\"actor\" targetSpec=\"\"}}and it sounded neat, so I did it{{string value=\"...\"}}{{anim id=\"Sneezing\" target=\"actor\" targetSpec=\"\"}}{{pageBreak}}{{anim id=\"WrySmile\" target=\"actor\" targetSpec=\"\"}}A huh huh huh, {{anim id=\"Sneezing\" target=\"actor\" targetSpec=\"\"}}{{delay20}}I have a cold now,\nso I can't chill today.{{delay frames=\"40\"}} {{anim id=\"Oops\" target=\"actor\" targetSpec=\"\"}}Don't wanna\n{{anim id=\"Sneezing\" target=\"actor\" targetSpec=\"\"}}give it to ya, {{string value=\"6\"}}."
  },
  {
    "label": "321",
    "attribute": "0x0000000000000000",
    "text": "{{anim id=\"HappyDance\" target=\"actor\" targetSpec=\"\"}}Hey, {{string value=\"NickName\"}}!{{delay frames=\"40\"}}\nIt's {{string value=\"VillagerName\"}}!{{delay frames=\"40\"}}\nI live here starting{{string value=\"...\"}}{{anim id=\"HappyFlower\" target=\"actor\" targetSpec=\"\"}}{{delay20}}today!{{pageBreak}}{{anim id=\"Explain\" target=\"actor\" targetSpec=\"\"}}I moved because somebody invited\nme when I was at the {{color id=\"1\"}}campsite{{color id=\"65535\"}}, {{anim id=\"BigSmile\" target=\"actor\" targetSpec=\"\"}}{{delay20}}and\nI'm easily talked into doing things.{{pageBreak}}{{anim id=\"EmotEnd\" target=\"actor\" targetSpec=\"\"}}I wanna chill and snack with ya,{{delay20}}\n{{anim id=\"WrySmile\" target=\"actor\" targetSpec=\"\"}}but I gotta unpack first.{{delay frames=\"50\"}}\n{{anim id=\"Assent\" target=\"actor\" targetSpec=\"\"}}I'll finish it today, {{string value=\"6\"}}!"
  },
  {
    "label": "322",
    "attribute": "0x0000000000000000",
    "text": "Hey! {{delay20}}{{anim id=\"Greeting\" target=\"actor\" targetSpec=\"\"}}I'm {{string value=\"VillagerName\"}}. Nice to\nmeet ya!{{i10_4}}{{anim id=\"Laughing\" target=\"actor\" targetSpec=\"\"}} I'm joking, I'm joking!\nI've missed ya, {{string value=\"NickName\"}}!{{pageBreak}}{{anim id=\"ShyBoy\" target=\"actor\" targetSpec=\"\"}}I live on {{string value=\"OtherIslandName\"}} now,\n'cause{{anim id=\"Smiling\" target=\"actor\" targetSpec=\"\"}} somebody invited me\nwhen I was at the {{color id=\"1\"}}campsite{{color id=\"65535\"}}.\n{{anim id=\"EmotEnd\" target=\"actor\" targetSpec=\"\"}}I think that certain somebody isn't\nhere anymore{{string value=\"...\"}} {{delay frames=\"40\"}}{{anim id=\"BigSmile\" target=\"actor\" targetSpec=\"\"}}But that's cool,\n'cause you're here!{{delay frames=\"40\"}}"
  },
  {
    "label": "324",
    "attribute": "0x0000000000000000",
    "text": "{{anim id=\"Shaking\" target=\"actor\" targetSpec=\"\"}}Is that you, {{delay20}}{{string value=\"NickName\"}}?{{delay frames=\"40\"}}\nIt's me, {{string value=\"VillagerName\"}}.{{anim id=\"Sneezing\" target=\"actor\" targetSpec=\"\"}}{{anim id=\"Sneezing\" target=\"actor\" targetSpec=\"\"}}{{pageBreak}}Remember{{anim id=\"QuestionMark\" target=\"actor\" targetSpec=\"\"}} I was at the {{color id=\"1\"}}campsite{{color id=\"65535\"}}?{{delay frames=\"40\"}}\n{{anim id=\"EmotEnd\" target=\"actor\" targetSpec=\"\"}}I moved here 'cause {{anim id=\"Sneezing\" target=\"actor\" targetSpec=\"\"}}somebody\nthere invited me{{string value=\"...\"}}{{anim id=\"Sneezing\" target=\"actor\" targetSpec=\"\"}}{{pageBreak}}{{anim id=\"Sneezing\" target=\"actor\" targetSpec=\"\"}}{{delay20}}{{anim id=\"EmotEnd\" target=\"actor\" targetSpec=\"\"}}A huh huh huh, sorry.{{delay frames=\"40\"}} I can't chill\nwith ya until I'm over this cold,\nbut let's hang once I'm all better."
  },
  {
    "label": "401",
    "attribute": "0x0000000000000000",
    "text": "{{anim id=\"Aha\" target=\"actor\" targetSpec=\"\"}}Hey, it's {{string value=\"4\"}}!{{delay frames=\"40\"}}\nYou're here to visit already!{{pageBreak}}Yeah,{{delay20}} I decided to{{delay20}} move back\nto {{string value=\"OtherIslandName\"}}{{delay20}} because the\nbugs are cooler here.{{pageBreak}}I wanna play with you,{{delay20}} but I still\ngotta unpack.{{pageBreak}}{{anim id=\"FaintSmile\" target=\"actor\" targetSpec=\"\"}}Come back tomorrow, OK?{{delay frames=\"40\"}} I'll be\nready to play, {{string value=\"6\"}}!"
  },
  {
    "label": "402",
    "attribute": "0x0000000000000000",
    "text": "{{anim id=\"BigSmile\" target=\"actor\" targetSpec=\"\"}}Hey!{{delay frames=\"40\"}} {{anim id=\"FaintSmile\" target=\"actor\" targetSpec=\"\"}}It's me!{{delay20}} {{string value=\"VillagerName\"}}!{{pageBreak}}{{anim id=\"Explain\" target=\"actor\" targetSpec=\"\"}}I used to live on this island. And\nwe'd hang out, and I'd talk about\nsnacks and bugs and stuff.\n{{anim id=\"QuestionMark\" target=\"actor\" targetSpec=\"\"}}Do you remember?{{pageBreak}}{{anim id=\"HappyFlower\" target=\"actor\" targetSpec=\"\"}}We get to live on the same island\nagain!{{delay frames=\"40\"}} I'm so happy, {{string value=\"6\"}}!"
  },
  {
    "label": "404",
    "attribute": "0x0000000000000000",
    "text": "{{anim id=\"FaintSmile\" target=\"actor\" targetSpec=\"\"}}Hey, {{delay20}}{{string value=\"NickName\"}}!{{delay frames=\"40\"}}\nIt was neat meeting you{{delay20}}\nback on {{selection value=\"SelectedIslandName\"}}!{{pageBreak}}{{anim id=\"EmotEnd\" target=\"actor\" targetSpec=\"\"}}Talking to you{{delay20}} made me homesick{{delay20}}\nfor {{string value=\"OtherIslandName\"}}{{string value=\"...\"}}so\nI moved ba— Ah—{{delay20}} Ah—{{delay20}}{{anim id=\"Worried\" target=\"actor\" targetSpec=\"\"}}{{pageBreak}}{{i10_12}}AH— {{delay frames=\"40\"}}AH— {{delay frames=\"40\"}}{{anim id=\"Sneezing\" target=\"actor\" targetSpec=\"\"}}{{delay20}}{{i10_10}}{{size value=\"150\"}}ACHOO!{{size value=\"100\"}}{{i10_9}}{{pageBreak}}Oh man!{{delay20}}{{anim id=\"EmotEnd\" target=\"actor\" targetSpec=\"\"}} Excuse me!{{delay frames=\"40\"}} I got homesick,\nbut normal sick too.{{pageBreak}}Once I'm better, {{anim id=\"FaintSmile\" target=\"actor\" targetSpec=\"\"}}let's play like we\nused to, {{string value=\"Catchphrase\"}}!"
  },
  {
    "label": "411",
    "attribute": "0x0000000000000000",
    "text": "{{anim id=\"Eh\" target=\"actor\" targetSpec=\"\"}}It's{{delay frames=\"40\"}} {{string value=\"4\"}}!{{delay frames=\"40\"}}\n{{anim id=\"FaintSmile\" target=\"actor\" targetSpec=\"\"}}Remember that time we\nmet on {{delay20}}{{selection value=\"SelectedIslandName\"}}?{{pageBreak}}It's me! {{string value=\"VillagerName\"}}!\nRemember? {{string value=\"VillagerName\"}}?\nThat's me! {{pageBreak}}{{anim id=\"IdeaBulb\" target=\"actor\" targetSpec=\"\"}}{{delay20}}I didn't know you lived\non{{delay20}} {{string value=\"OtherIslandName\"}}!{{pageBreak}}I just moved here today because it\nseemed like a good idea and also\nbecause I was bored!{{pageBreak}}{{anim id=\"Greeting\" target=\"actor\" targetSpec=\"\"}}I'm happy you're here too. It already\nmakes this island feel more like\nhome, {{string value=\"6\"}}!"
  },
  {
    "label": "412",
    "attribute": "0x0000000000000000",
    "text": "{{fun_0014003C arg=\"\"}}"
  },
  {
    "label": "412_01",
    "attribute": "0x0000000000000000",
    "text": "Huh? {{capitalizeNextLetter}}{{delay20}}{{string value=\"4\"}}?!{{delay frames=\"40\"}}\n{{anim id=\"QuestionMark\" target=\"actor\" targetSpec=\"\"}}What the heck are you doing here?{{pageBreak}}{{anim id=\"IdeaBulb\" target=\"actor\" targetSpec=\"\"}}{{delay20}}YOU live here on{{delay20}}{{delay20}} {{string value=\"OtherIslandName\"}}?{{pageBreak}}{{anim id=\"SmugFace\" target=\"actor\" targetSpec=\"\"}}Oh man,{{delay20}} no way!{{delay20}} {{anim id=\"Pardon\" target=\"actor\" targetSpec=\"\"}}Me!{{delay20}} Too!{{delay frames=\"60\"}}{{pageBreak}}{{anim id=\"HappyFlower\" target=\"actor\" targetSpec=\"\"}}I'm so happy we live{{delay20}} on the same\nisland now,{{delay frames=\"40\"}} {{string value=\"6\"}}!"
  },
  {
    "label": "412_02",
    "attribute": "0x0000000000000000",
    "text": "{{anim id=\"Aha\" target=\"actor\" targetSpec=\"\"}}{{capitalizeNextLetter}}{{string value=\"NickName\"}}!{{delay frames=\"40\"}}\n{{anim id=\"Hello\" target=\"actor\" targetSpec=\"\"}}Do you remember me?{{i10_4}}\n{{anim id=\"Confused\" target=\"actor\" targetSpec=\"\"}}I'm {{string value=\"VillagerName\"}}!{{pageBreak}}{{anim id=\"EmotEnd\" target=\"actor\" targetSpec=\"\"}}I didn't know you moved{{delay20}}\nto {{string value=\"OtherIslandName\"}}!{{pageBreak}}{{anim id=\"Eh\" target=\"actor\" targetSpec=\"\"}}You've been here{{delay frames=\"70\"}} all along?{{delay20}} {{anim id=\"Surprised\" target=\"actor\" targetSpec=\"\"}}You live\non this island?{{i10_4}} A huh huh huh! {{delay20}}I had\nno idea!{{pageBreak}}{{anim id=\"HappyFlower\" target=\"actor\" targetSpec=\"\"}}Now that we live on the same island,\nwe'll get to hang out lots!"
  },
  {
    "label": "412_03",
    "attribute": "0x0000000000000000",
    "text": "{{anim id=\"Smiling\" target=\"actor\" targetSpec=\"\"}}Hey, {{delay20}}{{string value=\"4\"}}!{{delay frames=\"40\"}}\nIt's funny seeing you here!{{pageBreak}}{{anim id=\"Surprised\" target=\"actor\" targetSpec=\"\"}}What?! {{delay20}}You live here?!{{delay frames=\"60\"}}{{anim id=\"Laughing\" target=\"actor\" targetSpec=\"\"}} A huh, I\nmusta missed your house when I\nwas saying hi to everybody!{{delay20}} Oops!{{pageBreak}}{{anim id=\"EmotEnd\" target=\"actor\" targetSpec=\"\"}}I live here now, so I'm really excited\nto hang out with you every day and\neat snacks and play, {{string value=\"6\"}}!"
  },
  {
    "label": "414",
    "attribute": "0x0000000000000000",
    "text": "Hey{{string value=\"...\"}} You're{{string value=\"...\"}} I know you{{string value=\"...\"}}{{delay frames=\"40\"}}um{{string value=\"...\"}}\n{{capitalizeNextLetter}}{{string value=\"4\"}}, right?{{pageBreak}}{{anim id=\"Shaking\" target=\"actor\" targetSpec=\"\"}}Sorry, my brain isn't plugged all the\nway in right now. I have a cold.{{pageBreak}}{{anim id=\"Worried\" target=\"actor\" targetSpec=\"\"}}Well, I live here now,{{delay20}} but I haven't\nsaid hi to anyone yet because of\nthis cold!{{pageBreak}}{{anim id=\"Serious\" target=\"actor\" targetSpec=\"\"}}I'll get my brain working again soon\nso I can get to know everyone.\nSee ya then, {{string value=\"6\"}}!"
  },
  {
    "label": "421",
    "attribute": "0x0000000000000000",
    "text": "{{anim id=\"Eh\" target=\"actor\" targetSpec=\"\"}}It's{{delay frames=\"40\"}} {{string value=\"4\"}}!{{delay frames=\"40\"}} {{anim id=\"FaintSmile\" target=\"actor\" targetSpec=\"\"}}Remember\nthat time we met? {{delay20}}I kinda do!{{pageBreak}}It's me! {{string value=\"VillagerName\"}}!\nRemember? {{string value=\"VillagerName\"}}?\nThat's me!{{pageBreak}}{{anim id=\"IdeaBulb\" target=\"actor\" targetSpec=\"\"}}{{delay20}}I didn't know you lived\non{{delay20}} {{string value=\"OtherIslandName\"}}!{{pageBreak}}I just moved here today because it\nseemed like a good idea and also\nbecause I was bored!{{pageBreak}}{{anim id=\"Greeting\" target=\"actor\" targetSpec=\"\"}}I'm happy you're here too. It already\nmakes this island feel more like\nhome, {{string value=\"6\"}}!"
  },
  {
    "label": "422",
    "attribute": "0x0000000000000000",
    "text": "Huh? {{capitalizeNextLetter}}{{delay20}}{{string value=\"NickName\"}}?!{{delay frames=\"40\"}}\n{{anim id=\"QuestionMark\" target=\"actor\" targetSpec=\"\"}}What the heck are you doing here?{{pageBreak}}{{anim id=\"IdeaBulb\" target=\"actor\" targetSpec=\"\"}}{{delay20}}YOU live here on{{delay20}}{{delay20}} {{string value=\"OtherIslandName\"}}?{{pageBreak}}{{anim id=\"SmugFace\" target=\"actor\" targetSpec=\"\"}}Oh man,{{delay20}} no way!{{delay20}} {{anim id=\"Pardon\" target=\"actor\" targetSpec=\"\"}}Me!{{delay20}} Too!{{delay frames=\"60\"}}{{pageBreak}}{{anim id=\"HappyFlower\" target=\"actor\" targetSpec=\"\"}}I'm so happy we live{{delay20}} on the same\nisland now,{{delay frames=\"40\"}} {{string value=\"6\"}}!"
  },
  {
    "label": "424",
    "attribute": "0x0000000000000000",
    "text": "Hey{{string value=\"...\"}} You're{{string value=\"...\"}} I know you{{string value=\"...\"}}{{delay frames=\"40\"}}um{{string value=\"...\"}}\n{{capitalizeNextLetter}}{{string value=\"4\"}}, right?{{pageBreak}}{{anim id=\"Shaking\" target=\"actor\" targetSpec=\"\"}}Sorry, my brain isn't plugged all the\nway in right now. I have a cold.{{pageBreak}}{{anim id=\"Worried\" target=\"actor\" targetSpec=\"\"}}Well, I live here now,{{delay20}} but I haven't\nsaid hi to anyone yet because of\nthis cold!{{pageBreak}}{{anim id=\"Serious\" target=\"actor\" targetSpec=\"\"}}I'll get my brain working again soon\nso I can get to know everyone.\nSee ya then, {{string value=\"6\"}}!"
  }
]