﻿[
  {
    "label": "001",
    "attribute": "0x0000000000000000",
    "text": "{{anim id=\"QuestionMark\" target=\"actor\" targetSpec=\"\"}}Hey. What happened?{{delay frames=\"40\"}} I waited\nfor{{delay8}}ever, {{string value=\"Catchphrase\"}}!{{pageBreak}}{{anim id=\"Shocked\" target=\"actor\" targetSpec=\"\"}}Did you{{string value=\"...\"}}{{delay20}} You forgot you were\n{{anim id=\"Grin\" target=\"actor\" targetSpec=\"\"}}supposed to come over, didn't ya?!{{delay frames=\"40\"}}"
  },
  {
    "label": "002",
    "attribute": "0x0000000000000000",
    "text": "{{anim id=\"Confused\" target=\"actor\" targetSpec=\"\"}}Man, I gotta cancel our plans to\nhang out at my place! {{delay20}}Something,\nuh, came up. {{delay40}}Out of the floor.{{pageBreak}}{{anim id=\"Worried\" target=\"actor\" targetSpec=\"\"}}I'll invite you again,{{delay20}} just as soon\nas this whole {{delay8}}{{randomFood}}-and-\nbugs {{delay8}}thing {{delay8}}is taken care of!"
  },
  {
    "label": "003",
    "attribute": "0x0000000000000000",
    "text": "{{anim id=\"Oops\" target=\"actor\" targetSpec=\"\"}}Oh man, I'm sorry!{{pageBreak}}{{anim id=\"Worried\" target=\"actor\" targetSpec=\"\"}}I forgot I invited you over{{string value=\"...\"}}{{delay8}}so I went\nlooking for new bug friends.{{pageBreak}}{{anim id=\"EmotEnd\" target=\"actor\" targetSpec=\"\"}}I won't forget next time!{{delay frames=\"40\"}} {{anim id=\"FaintSmile\" target=\"actor\" targetSpec=\"\"}}Let's hang\nout soon, {{string value=\"Catchphrase\"}}!"
  }
]