﻿[
  {
    "label": "001",
    "attribute": "0x0000000000000000",
    "text": "{{anim id=\"Shocked\" target=\"actor\" targetSpec=\"\"}}The horns on the {{wordInfo gender=\"0\" indefArticle=\"1\" defArticle=\"3\"}}horned dynastid\nare{{delay frames=\"40\"}} amazing! They look like spears!{{delay frames=\"40\"}}\n{{anim id=\"FaintSmile\" target=\"actor\" targetSpec=\"\"}}I want one to live in my house!"
  },
  {
    "label": "002",
    "attribute": "0x0000000000000000",
    "text": "{{anim id=\"Smiling\" target=\"actor\" targetSpec=\"\"}}The {{wordInfo gender=\"0\" indefArticle=\"1\" defArticle=\"3\"}}giant stag's pincers are huuuge!{{delay frames=\"40\"}}\nI bet they can pick up anything\nwith those!"
  },
  {
    "label": "003",
    "attribute": "0x0000000000000000",
    "text": "Man, it'd hurt to get caught in the\npincers of the {{wordInfo gender=\"0\" indefArticle=\"1\" defArticle=\"3\"}}saw stag{{string value=\"...\"}}{{delay frames=\"40\"}} But I\nwouldn't cry!{{i10_4}} {{anim id=\"Worried\" target=\"actor\" targetSpec=\"\"}}OK. I'd probably cry."
  },
  {
    "label": "004",
    "attribute": "0x0000000000000000",
    "text": "{{anim id=\"Smiling\" target=\"actor\" targetSpec=\"\"}}The {{wordInfo gender=\"0\" indefArticle=\"1\" defArticle=\"3\"}}horned hercules is the king\nof rhino beetles, right?{{delay frames=\"40\"}} Man, must\nbe nice to be a king{{string value=\"...\"}}"
  },
  {
    "label": "005",
    "attribute": "0x0000000000000000",
    "text": "When the {{wordInfo gender=\"0\" indefArticle=\"1\" defArticle=\"3\"}}mantis raises their arms,\nthey're getting ready to attack!{{delay frames=\"40\"}}\n{{anim id=\"Pardon\" target=\"actor\" targetSpec=\"\"}}That's when I get ready to run!"
  },
  {
    "label": "006",
    "attribute": "0x0000000000000000",
    "text": "{{anim id=\"Smiling\" target=\"actor\" targetSpec=\"\"}}The {{wordInfo gender=\"0\" indefArticle=\"1\" defArticle=\"3\"}}Madagascan sunset moth's\nwings are crazy weird! They{{delay20}}\nchange color when they flutter!"
  },
  {
    "label": "007",
    "attribute": "0x0000000000000000",
    "text": "{{wordInfo gender=\"0\" indefArticle=\"1\" defArticle=\"3\"}}Scarab beetles are soooo\nshiny!{{delay frames=\"40\"}} {{anim id=\"Smiling\" target=\"actor\" targetSpec=\"\"}}A huh huh, can you\nsee my reflection?"
  },
  {
    "label": "008",
    "attribute": "0x0000000000000000",
    "text": "{{anim id=\"Smiling\" target=\"actor\" targetSpec=\"\"}}What pretty wings!{{delay frames=\"40\"}} And noisy!\nYou can always hear {{wordInfo gender=\"0\" indefArticle=\"1\" defArticle=\"3\"}}great purple emperor flying by!"
  },
  {
    "label": "009",
    "attribute": "0x0000000000000000",
    "text": "{{anim id=\"Smiling\" target=\"actor\" targetSpec=\"\"}}I wonder if I could get a {{wordInfo gender=\"0\" indefArticle=\"1\" defArticle=\"3\"}}jewel beetle\nto sit on me?{{delay20}} I'd look real fancy!"
  },
  {
    "label": "010",
    "attribute": "0x0000000000000000",
    "text": "The reds and the blues on the\n{{wordInfo gender=\"0\" indefArticle=\"2\" defArticle=\"3\"}}agrias butterfly are so pretty!\n{{anim id=\"Smiling\" target=\"actor\" targetSpec=\"\"}}It's like my picture book came to life!"
  },
  {
    "label": "011",
    "attribute": "0x0000000000000000",
    "text": "{{anim id=\"Smiling\" target=\"actor\" targetSpec=\"\"}}Man, the {{wordInfo gender=\"0\" indefArticle=\"2\" defArticle=\"3\"}}emperor butterfly has\nsome pretty big, pretty wings!"
  },
  {
    "label": "012",
    "attribute": "0x0000000000000000",
    "text": "I bet this {{wordInfo gender=\"0\" indefArticle=\"1\" defArticle=\"3\"}}firefly can see super well\nwith that light on its rear end!{{delay frames=\"40\"}}\n{{anim id=\"Smiling\" target=\"actor\" targetSpec=\"\"}}Luckyyy, I wanna butt-light too!"
  },
  {
    "label": "013",
    "attribute": "0x0000000000000000",
    "text": "{{anim id=\"Eh\" target=\"actor\" targetSpec=\"\"}}The {{wordInfo gender=\"0\" indefArticle=\"2\" defArticle=\"3\"}}Atlas moth is so scary cool!\nThe tip of their wings look like\nsnake heads! {{anim id=\"Worried\" target=\"actor\" targetSpec=\"\"}}Freaky!"
  },
  {
    "label": "014",
    "attribute": "0x0000000000000000",
    "text": "The {{wordInfo gender=\"0\" indefArticle=\"1\" defArticle=\"3\"}}Queen Alexandra's birdwing is\nhuuuge!{{delay frames=\"40\"}} {{anim id=\"FaintSmile\" target=\"actor\" targetSpec=\"\"}}I thought it was a small bird\nthe first time I saw it!"
  },
  {
    "label": "015",
    "attribute": "0x0000000000000000",
    "text": "{{anim id=\"Worried\" target=\"actor\" targetSpec=\"\"}}The {{wordInfo gender=\"0\" indefArticle=\"1\" defArticle=\"3\"}}scorpion freaks me OUT!\nThose pincers{{string value=\"...\"}} That tail{{string value=\"...\"}}{{delay frames=\"40\"}} Man!\n{{anim id=\"Serious\" target=\"actor\" targetSpec=\"\"}}Why's it got so many scary bits?!"
  },
  {
    "label": "016",
    "attribute": "0x0000000000000000",
    "text": "{{anim id=\"Worried\" target=\"actor\" targetSpec=\"\"}}{{wordInfo gender=\"0\" indefArticle=\"1\" defArticle=\"3\"}}Wasp stings hurt! {{delay frames=\"40\"}}{{anim id=\"SadSpiral\" target=\"actor\" targetSpec=\"\"}}'Specially on your\ntongue. {{delay20}}Man, trust me{{string value=\"...\"}}don't try and\nhide a wasp in your mouth as a joke."
  },
  {
    "label": "017",
    "attribute": "0x0000000000000000",
    "text": "{{anim id=\"Thinking\" target=\"actor\" targetSpec=\"\"}}{{delay20}}Huh, I guess the {{wordInfo gender=\"0\" indefArticle=\"1\" defArticle=\"3\"}}firefly's butt\ndoesn't glow in the day?{{delay frames=\"40\"}}{{anim id=\"FaintSmile\" target=\"actor\" targetSpec=\"\"}} Must\nbe charging up for tonight!"
  },
  {
    "label": "018",
    "attribute": "0x0000000000000000",
    "text": "This {{wordInfo gender=\"0\" indefArticle=\"1\" defArticle=\"3\"}}man-faced stink bug {{anim id=\"Serious\" target=\"actor\" targetSpec=\"\"}}really\nreminds me of someone.{{delay frames=\"40\"}} {{anim id=\"FaintSmile\" target=\"actor\" targetSpec=\"\"}}Can you\nguess who?"
  },
  {
    "label": "019",
    "attribute": "0x0000000000000000",
    "text": "I'm playing hide-and-seek with a\n{{wordInfo gender=\"0\" indefArticle=\"1\" defArticle=\"3\"}}walking leaf.{{delay frames=\"40\"}} {{anim id=\"Smiling\" target=\"actor\" targetSpec=\"\"}}He's preeetty good.\n{{delay8}}Pretty. {{delay8}}Good."
  },
  {
    "label": "020",
    "attribute": "0x0000000000000000",
    "text": "Shh! Listen for the {{wordInfo gender=\"0\" indefArticle=\"1\" defArticle=\"3\"}}bell cricket{{string value=\"...\"}}{{pageBreak}}{{anim id=\"Shocked\" target=\"actor\" targetSpec=\"\"}}{{i10_10}}{{size value=\"150\"}}GUURRRRGGLEEGLURP!{{size value=\"100\"}}{{delay frames=\"80\"}}{{color id=\"4\"}}{{pageBreak}}{{i10_9}}{{anim id=\"Hesitate\" target=\"actor\" targetSpec=\"\"}}{{color id=\"65535\"}}Oops! That was my tummy cricket!"
  },
  {
    "label": "021",
    "attribute": "0x0000000000000000",
    "text": "{{anim id=\"Smiling\" target=\"actor\" targetSpec=\"\"}}Man, Blathers said {{wordInfo gender=\"0\" indefArticle=\"1\" defArticle=\"3\"}}cicada shells are\ndifferent depending on what kinda\ncicada it came out. Craaazy{{string value=\"...\"}}"
  },
  {
    "label": "022",
    "attribute": "0x0000000000000000",
    "text": "I can kinda {{anim id=\"Eh\" target=\"actor\" targetSpec=\"\"}}see a face on the {{wordInfo gender=\"0\" indefArticle=\"1\" defArticle=\"3\"}}rosalia batesi beetle's back!{{delay frames=\"40\"}} {{anim id=\"Silent\" target=\"actor\" targetSpec=\"\"}}There's some\neyes{{string value=\"...\"}}and the mouth's by its butt!"
  },
  {
    "label": "023",
    "attribute": "0x0000000000000000",
    "text": "{{anim id=\"Eh\" target=\"actor\" targetSpec=\"\"}}The {{wordInfo gender=\"0\" indefArticle=\"1\" defArticle=\"3\"}}damselfly{{string value=\"...\"}}{{delay frames=\"40\"}} It's so thin! I've got\nthicker snack chips at home!"
  },
  {
    "label": "024",
    "attribute": "0x0000000000000000",
    "text": "{{wordInfo gender=\"0\" indefArticle=\"1\" defArticle=\"3\"}}Mosquitoes are OK, I guess.\nBut they are dang rude house\nguests, {{string value=\"6\"}}."
  },
  {
    "label": "101",
    "attribute": "0x0000000000000000",
    "text": "{{anim id=\"Aha\" target=\"actor\" targetSpec=\"\"}}{{capitalizeNextLetter}}{{string value=\"NickName\"}}!{{delay frames=\"40\"}}\nThis is the bug you caught, yeah?{{delay frames=\"40\"}}\n{{anim id=\"Greeting\" target=\"actor\" targetSpec=\"\"}}Man, {{color id=\"3\"}}Blathers {{color id=\"65535\"}}is real excited about it!"
  },
  {
    "label": "102",
    "attribute": "0x0000000000000000",
    "text": "{{anim id=\"Shocked\" target=\"actor\" targetSpec=\"\"}}{{capitalizeNextLetter}}{{wordArticle}}{{fun_0002007D arg=\"0x00CD\"}} is\nin a battle with {{wordArticle}}\n{{fun_0002007D arg=\"0x01CD\"}}! Neat!"
  }
]