﻿[
  {
    "label": "002",
    "attribute": "0x0000000000000000",
    "text": "{{anim id=\"HappyDance\" target=\"actor\" targetSpec=\"\"}}Aujourd'hui,{{delay20}} je vais me faire un\nnouvel ami insecte !{{pageBreak}}{{anim id=\"Smiling\" target=\"actor\" targetSpec=\"\"}}Je vais l'attraper,{{delay20}} et après on pourra\nprendre le goûter ensemble !"
  },
  {
    "label": "003",
    "attribute": "0x0000000000000000",
    "text": "{{anim id=\"Smiling\" target=\"actor\" targetSpec=\"\"}}Rien qu'en tenant une canne à\npêche,{{delay20}} j'ai l'impression d'être un\npêcheur professionnel !{{pageBreak}}{{anim id=\"Laughing\" target=\"actor\" targetSpec=\"\"}}Je vais duper plein de poissons,\n{{string value=\"6\"}} !"
  },
  {
    "label": "004",
    "attribute": "0x0000000000000000",
    "text": "{{anim id=\"Smiling\" target=\"actor\" targetSpec=\"\"}}J'aime bien arroser les fleurs{{delay20}}, c'est\nchouette de voir grandir les choses\ndont je m'occupe.\n{{anim id=\"HappyFlower\" target=\"actor\" targetSpec=\"\"}}Comme la fourmilière dans mon\njardin.{{delay20}} Je lui donne des bonbons et\nelle grandit tous les jours."
  },
  {
    "label": "005",
    "attribute": "0x0000000000000000",
    "text": "{{anim id=\"Explain\" target=\"actor\" targetSpec=\"\"}}Chaque fois que j'utilise un\nparapluie,{{delay20}}{{anim id=\"Thinking\" target=\"actor\" targetSpec=\"\"}} j'ai mal au bras le jour\nd'après.{{pageBreak}}{{anim id=\"ShyBoy\" target=\"actor\" targetSpec=\"\"}}C'est peut-être parce que je le fais\ntrop tournoyer, {{string value=\"6\"}}{{string value=\"...\"}}"
  }
]