﻿[
  {
    "label": "001",
    "attribute": "0x0000000000000000",
    "text": "{{anim id=\"Explain\" target=\"actor\" targetSpec=\"\"}}바닷가에 누가 쓰러져 있다길래{{delay8}}\n서둘러서 가봤는데{{delay20}} {{anim id=\"Smiling\" target=\"actor\" targetSpec=\"\"}}그냥 {{color id=\"3\"}}죠니{{color id=\"65535\"}}가\n자던 거더라구우～ {{string value=\"6\"}}!"
  },
  {
    "label": "002",
    "attribute": "0x0000000000000000",
    "text": "오늘은 광장에 {{anim id=\"Greeting\" target=\"actor\" targetSpec=\"\"}}{{color id=\"3\"}}K.K.{{color id=\"65535\"}}가 와 있더라아～{{pageBreak}}{{anim id=\"HappyDance\" target=\"actor\" targetSpec=\"\"}}밤에는 신청곡도 받는다니까{{delay20}}\n무슨 곡을 신청할지\n미리 생각해 놔야지이～ {{string value=\"6\"}}!"
  },
  {
    "label": "003",
    "attribute": "0x0000000000000000",
    "text": "{{anim id=\"Greeting\" target=\"actor\" targetSpec=\"\"}}아까 {{delay8}}{{color id=\"3\"}}고숙이 {{color id=\"65535\"}}누나가{{delay20}}\n돌아다니는 걸 봤는데에～{{pageBreak}}{{anim id=\"Hesitate\" target=\"actor\" targetSpec=\"\"}}내 패션도 한번{{delay20}}\n봐달라고 해볼까아～ {{string value=\"6\"}}?"
  },
  {
    "label": "004",
    "attribute": "0x0000000000000000",
    "text": "{{anim id=\"Explain\" target=\"actor\" targetSpec=\"\"}}오늘은 {{color id=\"3\"}}사하라{{color id=\"65535\"}}가{{delay20}}\n{{string value=\"33\"}}에 오는 날이야아～{{pageBreak}}{{anim id=\"Hello\" target=\"actor\" targetSpec=\"\"}}오늘은 뭘{{delay8}} 가져왔을까아～?{{delay frames=\"40\"}}\n{{anim id=\"BigSmile\" target=\"actor\" targetSpec=\"\"}}항상 {{delay8}}기대돼～! {{string value=\"6\"}}!{{delay8}}{{anim id=\"FaintSmile\" target=\"actor\" targetSpec=\"\"}}"
  },
  {
    "label": "006",
    "attribute": "0x0000000000000000",
    "text": "{{anim id=\"Smiling\" target=\"actor\" targetSpec=\"\"}}오늘은 {{color id=\"1\"}}안내소 {{color id=\"65535\"}}앞에서{{delay20}}\n{{color id=\"3\"}}K.K.{{color id=\"65535\"}}가 라이브를 하고 있던데에～{{delay frames=\"40\"}}\n넌 가봤어～?{{pageBreak}}{{anim id=\"Explain\" target=\"actor\" targetSpec=\"\"}}지금 가면 신청곡도 받아준다니까{{delay20}}\n듣고 싶은 곡이 있으면{{delay20}}{{anim id=\"Hello\" target=\"actor\" targetSpec=\"\"}}\n가서 한번 부탁해봐아～ {{string value=\"6\"}}!"
  },
  {
    "label": "007",
    "attribute": "0x0000000000000000",
    "text": "{{anim id=\"Smiling\" target=\"actor\" targetSpec=\"\"}}오늘은 {{color id=\"3\"}}무파니{{color id=\"65535\"}}{{gender5 m=\"이\" f=\"가\"}} 왔어～{{delay frames=\"40\"}}\n{{anim id=\"Smiling\" target=\"actor\" targetSpec=\"\"}}역시 야채는 신선한 게{{delay20}}\n제일이야아～ {{string value=\"6\"}}!"
  },
  {
    "label": "008",
    "attribute": "0x0000000000000000",
    "text": "{{anim id=\"QuestionMark\" target=\"actor\" targetSpec=\"\"}}{{string value=\"4\"}}{{gender5 m=\"아\" f=\"야\"}}, {{delay8}}그거 알아?{{delay frames=\"40\"}}\n{{anim id=\"Nodding\" target=\"actor\" targetSpec=\"\"}}지금 {{delay20}}북쪽 해변가에 배가 와 있어!{{delay frames=\"40\"}}\n{{anim id=\"Smiling\" target=\"actor\" targetSpec=\"\"}}누가 놀러온 걸까아～"
  },
  {
    "label": "009",
    "attribute": "0x0000000000000000",
    "text": "{{anim id=\"Shaking\" target=\"actor\" targetSpec=\"\"}}오늘은 왠지 소름이 자주 돋아～{{i10_4}}\n{{anim id=\"Thinking\" target=\"actor\" targetSpec=\"\"}}감기는 아닌 것 같구{{delay20}} 누가 날 계속\n쳐다보는 것 같은데에{{string value=\"...\"}} {{string value=\"6\"}}{{string value=\"...\"}}"
  },
  {
    "label": "011",
    "attribute": "0x0000000000000000",
    "text": "{{anim id=\"Pardon\" target=\"actor\" targetSpec=\"\"}}{{string value=\"4\"}}{{gender5 m=\"아\" f=\"야\"}}!{{delay frames=\"40\"}}\n{{color id=\"3\"}}K.K.{{color id=\"65535\"}}의 생일 축하 라이브는{{delay20}}\n벌써 보고 왔니이?{{pageBreak}}{{anim id=\"HappyDance\" target=\"actor\" targetSpec=\"\"}}1년에 딱 한 번뿐인{{delay8}} 생일 이벤트니까아{{delay20}}\n제대로 안 즐기면 손해라구우～ {{string value=\"6\"}}!"
  },
  {
    "label": "013",
    "attribute": "0x0000000000000000",
    "text": "{{anim id=\"Smiling\" target=\"actor\" targetSpec=\"\"}}{{string value=\"4\"}}{{gender5 m=\"아\" f=\"야\"}}, {{delay20}}혹시 알아챘니이?{{delay frames=\"40\"}}\n생일 축하 라이브를 하러{{delay8}}\n{{color id=\"3\"}}K.K.{{color id=\"65535\"}}가 광장에 와있다구우～{{pageBreak}}{{anim id=\"Explain\" target=\"actor\" targetSpec=\"\"}}생일을 맞은 아이는{{delay8}}\n특별한 노래를 들을수 있대～{{delay frames=\"40\"}}\n{{anim id=\"Love\" target=\"actor\" targetSpec=\"\"}}특별한 노래라니 왠지 멋져어～ {{string value=\"6\"}}!"
  },
  {
    "label": "014",
    "attribute": "0x0000000000000000",
    "text": "{{anim id=\"Greeting\" target=\"actor\" targetSpec=\"\"}}아까 {{color id=\"3\"}}고순이{{color id=\"65535\"}}를 봤어～{{delay frames=\"40\"}}\n{{anim id=\"FaintSmile\" target=\"actor\" targetSpec=\"\"}}오늘은 {{delay8}}어떤 옷을\n가져왔을까아～? {{string value=\"6\"}}?"
  },
  {
    "label": "015",
    "attribute": "0x0000000000000000",
    "text": "{{anim id=\"Smiling\" target=\"actor\" targetSpec=\"\"}}오늘은 {{delay8}}{{color id=\"3\"}}저스틴{{color id=\"65535\"}}이{{delay20}}\n{{string value=\"32\"}}에 와 있대～{{pageBreak}}{{anim id=\"Explain\" target=\"actor\" targetSpec=\"\"}}걔한테 물고기를 가져가면{{delay20}}\n엄～청 좋아하니까{{delay20}}\n{{anim id=\"Blushing\" target=\"actor\" targetSpec=\"\"}}나까지 기분이 좋아져어～ {{string value=\"6\"}}!"
  },
  {
    "label": "016",
    "attribute": "0x0000000000000000",
    "text": "{{anim id=\"Smiling\" target=\"actor\" targetSpec=\"\"}}오늘은 {{delay8}}{{color id=\"3\"}}레온{{color id=\"65535\"}}{{gender5 m=\"이\" f=\"가\"}}{{delay20}}\n{{string value=\"32\"}}에 와 있어～{{pageBreak}}{{anim id=\"EmotEnd\" target=\"actor\" targetSpec=\"\"}}걔 엄청 다정한 아이야아～{{delay8}}\n{{anim id=\"FaintSmile\" target=\"actor\" targetSpec=\"\"}}겉모습만 보고 판단하면\n안 된다구우～ {{string value=\"6\"}}!"
  },
  {
    "label": "017",
    "attribute": "0x0000000000000000",
    "text": "{{anim id=\"FaintSmile\" target=\"actor\" targetSpec=\"\"}}지금 {{delay20}}광장에 {{color id=\"3\"}}패트릭 {{color id=\"65535\"}}아저씨가 와 있어～{{delay frames=\"40\"}}\n오늘은 얼마나 멋진 신발이 있을까아?{{delay frames=\"40\"}}\n{{anim id=\"SmugFace\" target=\"actor\" targetSpec=\"\"}}이따 구경하러 가야지이～! {{string value=\"6\"}}!"
  },
  {
    "label": "018",
    "attribute": "0x0000000000000000",
    "text": "{{anim id=\"Smiling\" target=\"actor\" targetSpec=\"\"}}아까 {{delay20}}{{color id=\"3\"}}부옥{{color id=\"65535\"}}이를 봤어～{{delay frames=\"40\"}}\n걔는 {{delay20}}이 {{string value=\"32\"}}에서 보는 별님을{{delay20}}\n{{anim id=\"Greeting\" target=\"actor\" targetSpec=\"\"}}정말정말 좋아하나 봐아～ {{string value=\"6\"}}!"
  },
  {
    "label": "019",
    "attribute": "0x0000000000000000",
    "text": "{{anim id=\"Explain\" target=\"actor\" targetSpec=\"\"}}아까 산책을 하던 도중에{{delay20}}\n무언가가 튀어오르는 소리가{{delay8}}\n들리더라구우{{string value=\"...\"}}{{delay frames=\"40\"}}{{anim id=\"Serious\" target=\"actor\" targetSpec=\"\"}}{{delay20}} 뿅{{delay8}}뿅 하고{{string value=\"...\"}}{{pageBreak}}{{anim id=\"Thinking\" target=\"actor\" targetSpec=\"\"}}그런데 결국{{delay8}}\n소리의 정체는 밝히지 못했어{{string value=\"...\"}}{{delay frames=\"40\"}}\n{{anim id=\"EmotEnd\" target=\"actor\" targetSpec=\"\"}}그건 대체 뭐였을까～? {{string value=\"6\"}}～"
  },
  {
    "label": "020",
    "attribute": "0x0000000000000000",
    "text": "지금 {{delay8}}광장에 {{color id=\"3\"}}늘봉{{color id=\"65535\"}}이가 와 있어～{{delay frames=\"40\"}}\n{{anim id=\"Hello\" target=\"actor\" targetSpec=\"\"}}오늘은 어떤 꽃이 있을까?{{delay frames=\"40\"}}\n{{anim id=\"Smiling\" target=\"actor\" targetSpec=\"\"}}나중에 보러 가야겠다아～ {{string value=\"6\"}}!"
  },
  {
    "label": "021",
    "attribute": "0x0000000000000000",
    "text": "{{anim id=\"Eh\" target=\"actor\" targetSpec=\"\"}}아까 {{delay8}}바닷가에 {{delay20}}누가 자고 있더라구우～{{anim id=\"EmotEnd\" target=\"actor\" targetSpec=\"\"}}{{i10_4}}\n{{anim id=\"Thinking\" target=\"actor\" targetSpec=\"\"}}아는 사람인 것 같기도 한데{{delay20}}\n평소랑 옷차림이 좀 다르더라아{{string value=\"...\"}}"
  },
  {
    "label": "022",
    "attribute": "0x0000000000000000",
    "text": "{{anim id=\"Smiling\" target=\"actor\" targetSpec=\"\"}}오늘은 {{color id=\"3\"}}K.K.{{color id=\"65535\"}}가 라이브하는 날이야!{{pageBreak}}{{anim id=\"Explain\" target=\"actor\" targetSpec=\"\"}}그러고 보니까 지난번에 라이브할 때{{delay20}}\n아무거나 불러달라고 부탁했더니{{delay frames=\"30\"}}\n{{anim id=\"Greeting\" target=\"actor\" targetSpec=\"\"}}새로운 노래를 불러주더라구우～!{{pageBreak}}{{anim id=\"Thinking\" target=\"actor\" targetSpec=\"\"}}우웅～ 노래 제목이 뭐더라아{{string value=\"...\"}}?{{delay20}}\n{{anim id=\"IdeaBulb\" target=\"actor\" targetSpec=\"\"}}{{color id=\"1\"}}{{fun_0000007D arg=\"0x0000\"}}{{color id=\"65535\"}}{{gender5 m=\"이\" f=\"\"}}다!{{delay frames=\"40\"}}\n{{anim id=\"FaintSmile\" target=\"actor\" targetSpec=\"\"}}또 부탁해볼까 봐아～ {{string value=\"6\"}}～"
  },
  {
    "label": "023",
    "attribute": "0x0000000000000000",
    "text": "{{anim id=\"Smiling\" target=\"actor\" targetSpec=\"\"}}오늘은 {{color id=\"3\"}}K.K.{{color id=\"65535\"}}의 라이브 날이야아{{pageBreak}}{{anim id=\"Pardon\" target=\"actor\" targetSpec=\"\"}}있지이, {{delay8}}그거 들어봤어?{{delay frames=\"40\"}}\n{{anim id=\"EmotEnd\" target=\"actor\" targetSpec=\"\"}}{{color id=\"3\"}}K.K.{{color id=\"65535\"}}의 새로운 노래{{delay20}}\n{{anim id=\"Smiling\" target=\"actor\" targetSpec=\"\"}}{{color id=\"1\"}}{{fun_0000007D arg=\"0x0000\"}} {{color id=\"65535\"}}말야!{{pageBreak}}{{anim id=\"HappyDance\" target=\"actor\" targetSpec=\"\"}}엄～청 좋은 노래니까{{delay20}}\n꼭 신청해서{{delay8}} 들어봐아～ {{string value=\"6\"}}～"
  },
  {
    "label": "100",
    "attribute": "0x0000000000000000",
    "text": "{{anim id=\"Serious\" target=\"actor\" targetSpec=\"\"}}아까 {{string value=\"32\"}}에{{delay20}}\n처음 보는 사람이 있더라아～{{delay frames=\"40\"}}\n{{anim id=\"Thinking\" target=\"actor\" targetSpec=\"\"}}누구였을까～? {{string value=\"6\"}}?"
  }
]