﻿[
  {
    "label": "001",
    "attribute": "0x0000000000000000",
    "text": "{{anim id=\"Explain\" target=\"actor\" targetSpec=\"\"}}There you are!{{delay20}} I was looking for you,\nbut then I saw a cool tree branch and\nI stopped, {{string value=\"6\"}}.{{pageBreak}}{{anim id=\"Hesitate\" target=\"actor\" targetSpec=\"\"}}Anyway,{{delay20}} I just really, really wanna\ngive you this {{color id=\"1\"}}{{wordInfo gender=\"0\" indefArticle=\"1\" defArticle=\"3\"}}festive wreath{{color id=\"65535\"}}.{{delay8}} So I'm\ngonna.{{delay20}} Riiight about{{string value=\"...\"}}{{delay20}}{{anim id=\"Smiling\" target=\"actor\" targetSpec=\"\"}}now!"
  },
  {
    "label": "002",
    "attribute": "0x0000000000000000",
    "text": "{{anim id=\"HappyDance\" target=\"actor\" targetSpec=\"\"}}Yay!{{delay20}} It's yours now!{{pageBreak}}{{anim id=\"Nodding\" target=\"actor\" targetSpec=\"\"}}OK, now stick it on your door.{{delay20}} Even\ndoors wanna have a good Toy Day!"
  },
  {
    "label": "003",
    "attribute": "0x0000000000000000",
    "text": "{{anim id=\"TakenAback\" target=\"actor\" targetSpec=\"\"}}Huh?{{delay8}} Your pockets are all fulla stuff.{{delay20}}\nThat's not cool.{{delay8}} That's not cool at all,\n'cause now I can't give it to you.{{pageBreak}}{{anim id=\"IdeaBulb\" target=\"actor\" targetSpec=\"\"}}{{delay20}}I know!{{delay8}} Go make your pockets NOT{{delay8}}\nfulla stuff and come find me.{{delay20}} {{anim id=\"EmotEnd\" target=\"actor\" targetSpec=\"\"}}I'll give\nit to you then, OK?{{delay20}} {{anim id=\"BigSmile\" target=\"actor\" targetSpec=\"\"}}OK!"
  }
]