﻿[
  {
    "label": "001",
    "attribute": "0x00000000",
    "text": "{{fun_00050064 arg=\"\"}}여보세요－?{{delay frames=\"40\"}}\n너굴 상점의 {{color id=\"3\"}}콩돌이{{color id=\"65535\"}}입니다－!{{endTag}}"
  },
  {
    "label": "001_01",
    "attribute": "0x00000000",
    "text": "{{fun_00050064 arg=\"\"}}여보세요－?{{delay frames=\"40\"}}\n너굴 상점의 {{color id=\"3\"}}밤돌이{{color id=\"65535\"}}입니다－!{{endTag}}"
  },
  {
    "label": "002",
    "attribute": "0x00000000",
    "text": "{{fun_00050064 arg=\"\"}}실례지만{{string value=\"...\"}}\n{{delay20}}{{string value=\"PlayerName\"}}님{{delay8}} 맞으신가요－?{{endTag}}"
  },
  {
    "label": "003",
    "attribute": "0x00000000",
    "text": "{{fun_00050064 arg=\"\"}}매입함에 넣어주신{{delay8}}\n물품의 대금{{delay8}} {{number value=\"24\" index=\"0\"}}을{{delay frames=\"30\"}}\n계좌로 입금해드렸습니다－!{{endTag}}"
  },
  {
    "label": "004",
    "attribute": "0x00000000",
    "text": "{{fun_00050064 arg=\"\"}}이용해주셔서 감사합니다－!{{delay frames=\"30\"}}\n앞으로도 많은 이용 부탁드립니다－!{{endTag}}"
  },
  {
    "label": "004_pl",
    "attribute": "0x00000000",
    "text": "{{fun_00050064 arg=\"\"}}이용해주셔서 감사합니다－!{{delay frames=\"30\"}}\n앞으로도 많은 이용 부탁드립니다－!{{endTag}}"
  },
  {
    "label": "005",
    "attribute": "0x00000000",
    "text": "{{fun_00050064 arg=\"\"}}매입 서비스로 받은{{delay8}}\n물품의 대금{{delay8}} {{number value=\"24\" index=\"0\"}}을{{delay frames=\"30\"}}\n계좌로 입금해드렸습니다－!{{endTag}}"
  },
  {
    "label": "006",
    "attribute": "0x00000000",
    "text": "{{fun_00050064 arg=\"\"}}매입함과 매입 서비스로 받은{{delay8}}\n물품의 대금{{delay8}} {{number value=\"24\" index=\"0\"}}을{{delay frames=\"30\"}}\n계좌로 입금해드렸습니다－!{{endTag}}"
  }
]