﻿[
  {
    "label": "001",
    "attribute": "0x0000000000000000",
    "text": "{{fun_0002003C arg=\"0x6500660067006800\"}}"
  },
  {
    "label": "002",
    "attribute": "0x0000000000000000",
    "text": "{{fun_0000003C arg=\"0xC900CA00\"}}"
  },
  {
    "label": "003",
    "attribute": "0x0000000000000000",
    "text": "{{fun_0001003C arg=\"0x2D012E012F01\"}}"
  },
  {
    "label": "101",
    "attribute": "0x0000000000000000",
    "text": "就算并没有什么特别想要的东西，{{delay20}}\n{{anim id=\"Blushing\" target=\"actor\" targetSpec=\"\"}}也会不自觉地走进去呢！{{string value=\"6\"}}。"
  },
  {
    "label": "102",
    "attribute": "0x0000000000000000",
    "text": "{{anim id=\"Nodding\" target=\"actor\" targetSpec=\"\"}}让我想想，{{delay8}}今天买些什么好呢？{{delay20}}\n{{string value=\"...\"}}啊，{{delay20}}{{anim id=\"WrySmile\" target=\"actor\" targetSpec=\"\"}}我总是{{delay8}}忘记之前有买过，{{delay20}}\n一不小心{{delay8}}就会买下相同的东西呢。{{string value=\"6\"}}。"
  },
  {
    "label": "103",
    "attribute": "0x0000000000000000",
    "text": "{{anim id=\"HappyDance\" target=\"actor\" targetSpec=\"\"}}今天，我鼓足气势，{{delay20}}\n带了很多零花钱来！{{string value=\"6\"}}。{{pageBreak}}{{anim id=\"Silent\" target=\"actor\" targetSpec=\"\"}}你要是有什么喜欢的，就赶快买哦！{{delay frames=\"40\"}}\n{{anim id=\"Scheming\" target=\"actor\" targetSpec=\"\"}}不然，{{delay20}}\n说不定我会全部买光哦？"
  },
  {
    "label": "104",
    "attribute": "0x0000000000000000",
    "text": "{{fun_000C003C arg=\"0x69006A00\"}}"
  },
  {
    "label": "105",
    "attribute": "0x0000000000000000",
    "text": "想不想听听我的购物秘诀？{{delay frames=\"40\"}}\n{{anim id=\"Grin\" target=\"actor\" targetSpec=\"\"}}那就是{{string value=\"...\"}}{{delay frames=\"40\"}}{{anim id=\"Angry\" target=\"actor\" targetSpec=\"\"}}坦白说！{{delay20}}\n看是否有助于{{delay8}}肌肉锻炼！{{pageBreak}}{{anim id=\"Nodding\" target=\"actor\" targetSpec=\"\"}}不管是什么东西，{{delay20}}\n都要配合自己的情况来思考用法，{{delay frames=\"30\"}}\n{{anim id=\"SmugFace\" target=\"actor\" targetSpec=\"\"}}听起来很专业很有型吧？！{{string value=\"6\"}}。"
  },
  {
    "label": "106",
    "attribute": "0x0000000000000000",
    "text": "你今天{{delay8}}是来买什么的啊？{{delay frames=\"40\"}}\n{{anim id=\"Hello\" target=\"actor\" targetSpec=\"\"}}钱包看起来鼓鼓囊囊的嘛。{{delay20}}\n{{anim id=\"Grin\" target=\"actor\" targetSpec=\"\"}}看来你是想要{{delay8}}大采购咯？{{pageBreak}}{{anim id=\"Nodding\" target=\"actor\" targetSpec=\"\"}}你看起来确实很擅长挑选啊，{{delay20}}\n{{anim id=\"FaintSmile\" target=\"actor\" targetSpec=\"\"}}我有点在意你会买些什么呢！{{string value=\"6\"}}。"
  },
  {
    "label": "201",
    "attribute": "0x0000000000000000",
    "text": "{{anim id=\"Nodding\" target=\"actor\" targetSpec=\"\"}}有看中{{delay20}}什么东西吗？{{delay frames=\"40\"}}\n买东西可要先下手为强！{{pageBreak}}{{anim id=\"Laughing\" target=\"actor\" targetSpec=\"\"}}一直磨磨蹭蹭的，{{delay8}}\n就会被其他人抢走啦！{{string value=\"6\"}}。"
  },
  {
    "label": "202",
    "attribute": "0x0000000000000000",
    "text": "{{anim id=\"Hello\" target=\"actor\" targetSpec=\"\"}}土特产{{delay8}}已经买好了吗？{{delay frames=\"40\"}}\n{{anim id=\"EmotEnd\" target=\"actor\" targetSpec=\"\"}}下次再来的时候，{{delay20}}\n可能买不到一样的东西了，{{delay8}}要注意哦。{{pageBreak}}{{anim id=\"Nodding\" target=\"actor\" targetSpec=\"\"}}那时候要是买下来就好了……{{delay frames=\"30\"}}\n{{anim id=\"FaintSmile\" target=\"actor\" targetSpec=\"\"}}可别留下{{delay8}}这样的遗憾哦！{{string value=\"6\"}}。"
  },
  {
    "label": "301",
    "attribute": "0x0000000000000000",
    "text": "{{anim id=\"Smiling\" target=\"actor\" targetSpec=\"\"}}听说{{color id=\"1\"}}Nook商店{{color id=\"65535\"}}改装过后{{delay20}}\n变得更加便利了，我就过来看看！{{pageBreak}}{{anim id=\"Nodding\" target=\"actor\" targetSpec=\"\"}}商品的种类也有增加，{{delay20}}\n为了避免稀里糊涂买下不需要的东西，{{delay8}}\n{{anim id=\"Laughing\" target=\"actor\" targetSpec=\"\"}}得用心留意一下！{{string value=\"6\"}}。"
  },
  {
    "label": "302",
    "attribute": "0x0000000000000000",
    "text": "{{anim id=\"Smiling\" target=\"actor\" targetSpec=\"\"}}嘿嘿，{{delay8}}新店开张！太好了！{{delay frames=\"40\"}}\n{{anim id=\"Nodding\" target=\"actor\" targetSpec=\"\"}}来店看到的东西都\n很新鲜！有趣！{{pageBreak}}{{color id=\"3\"}}豆狸{{color id=\"65535\"}}和{{color id=\"3\"}}粒狸{{color id=\"65535\"}}也{{delay20}}\n{{anim id=\"Hello\" target=\"actor\" targetSpec=\"\"}}比平时兴致来得高！{{delay8}}\n我是这么感觉的！{{string value=\"6\"}}。"
  },
  {
    "label": "303",
    "attribute": "0x0000000000000000",
    "text": "{{anim id=\"Hello\" target=\"actor\" targetSpec=\"\"}}怎么样？{{delay8}}\n这里是改装后的{{color id=\"1\"}}Nook商店{{color id=\"65535\"}}！{{delay frames=\"30\"}}\n{{anim id=\"HappyDance\" target=\"actor\" targetSpec=\"\"}}我很喜欢！超喜欢！{{pageBreak}}{{anim id=\"Nodding\" target=\"actor\" targetSpec=\"\"}}店内也更宽阔，商品也变多了{{string value=\"...\"}}{{delay20}}\n{{anim id=\"Frantic\" target=\"actor\" targetSpec=\"\"}}结果我到底该买什么，{{delay20}}\n决定不了了～！！{{string value=\"6\"}}。"
  }
]