﻿[
  {
    "label": "002",
    "attribute": "0x00000000",
    "text": "{{anim id=\"Smiling\" target=\"actor\" targetSpec=\"\"}}Benieuwd waar je mee gaat komen,\n{{string value=\"PlayerName\"}}.{{delay40}}{{anim id=\"Hello\" target=\"actor\" targetSpec=\"\"}} Yep, zekers!"
  },
  {
    "label": "003",
    "attribute": "0x01000000",
    "text": "{{anim id=\"Explain\" target=\"actor\" targetSpec=\"\"}}Opties!{{delay20}} Hou van opties!{{delay20}} Maar\nbeslissen?{{delay20}} Komt veel denkwerk bij\nkijken{{string value=\"...\"}}{{pageBreak}}{{anim id=\"Thinking\" target=\"actor\" targetSpec=\"\"}}Dus.{{delay20}} Eén verdieping?{{delay20}} Of toch twee?{{delay frames=\"40\"}}\n{{anim id=\"ShyBoy\" target=\"actor\" targetSpec=\"\"}}Allemachtig!{{delay20}} Wat een keuze.{{delay20}} Wat\ndenk jij?"
  },
  {
    "label": "003_01",
    "attribute": "0x00000000",
    "text": "Het moet gezegd. {{delay20}}{{anim id=\"Blushing\" target=\"actor\" targetSpec=\"\"}}Deze deal? {{delay20}}Te\nmooi om waar te zijn.{{delay20}} Niet dat ik\nklaag. Zeker niet!{{pageBreak}}{{anim id=\"FaintSmile\" target=\"actor\" targetSpec=\"\"}}En jij!{{delay20}} Heb over jou gehoord.{{delay frames=\"30\"}} Mijn\nnichtje hier? {{delay20}}Geeft hoog van je op."
  },
  {
    "label": "003_03",
    "attribute": "0x00000000",
    "text": "{{anim id=\"FaintSmile\" target=\"actor\" targetSpec=\"\"}}Relaxte sfeer. {{delay20}}Uitnodigend. {{delay20}}Yep! Dit\nbevalt {{color id=\"3\"}}Lyle{{color id=\"65535\"}}. {{delay40}}{{anim id=\"Explain\" target=\"actor\" targetSpec=\"\"}}{{anim id=\"Explain\" target=\"actor\" targetSpec=\"\"}}Hoef er niet lang over na\nte denken. {{delay20}}Verkocht!"
  },
  {
    "label": "003_04",
    "attribute": "0x00000000",
    "text": "Bam! {{delay20}}{{anim id=\"Nodding\" target=\"actor\" targetSpec=\"\"}}{{color id=\"3\"}}Lyle{{color id=\"65535\"}} wil meer!{{delay40}} {{anim id=\"FaintSmile\" target=\"actor\" targetSpec=\"\"}}Herhaalde\nklandizie? {{delay20}}Teken van kwaliteit.{{delay20}} Goed\nvoor de zaken. {{delay20}}Kan niet missen."
  },
  {
    "label": "003_a",
    "attribute": "0x00000000",
    "text": "Eén verdieping."
  },
  {
    "label": "003_b",
    "attribute": "0x00000000",
    "text": "Twee verdiepingen."
  },
  {
    "label": "004",
    "attribute": "0x00000000",
    "text": "{{anim id=\"Aha\" target=\"actor\" targetSpec=\"\"}}{{delay20}}Eén verdieping!{{delay20}} Perfect!{{delay20}} {{anim id=\"FaintSmile\" target=\"actor\" targetSpec=\"\"}}Bam!"
  },
  {
    "label": "005",
    "attribute": "0x00000000",
    "text": "{{anim id=\"Aha\" target=\"actor\" targetSpec=\"\"}}{{delay20}}Twee verdiepingen!{{delay20}} Twee keer zo\nontspannend.{{delay frames=\"40\"}} {{anim id=\"FaintSmile\" target=\"actor\" targetSpec=\"\"}}Bam!{{delay8}} We zijn eruit."
  }
]