﻿[
  {
    "label": "001",
    "attribute": "0x0000000000000000",
    "text": "{{fun_0014003C arg=\"\"}}"
  },
  {
    "label": "001_01",
    "attribute": "0x0000000000000000",
    "text": "{{i20_2 arg=\"6\"}}{{anim id=\"Serious\" target=\"actor\" targetSpec=\"\"}}Только не заказывай «как всегда»,\nпожалуйста.{{delay frames=\"40\"}}{{anim id=\"Sighing\" target=\"actor\" targetSpec=\"\"}} И так столько всего\nпомнить нужно, а тут еще и это{{string value=\"...\"}}"
  },
  {
    "label": "001_02",
    "attribute": "0x0000000000000000",
    "text": "{{i20_2 arg=\"6\"}}{{anim id=\"SmugFace\" target=\"actor\" targetSpec=\"\"}}Если эта штука есть в меню, мы\nее принесем.{{delay20}} Не вопрос!"
  },
  {
    "label": "001_03",
    "attribute": "0x0000000000000000",
    "text": "{{i20_2 arg=\"6\"}}{{anim id=\"Grin\" target=\"actor\" targetSpec=\"\"}}Ну как, надышал{{gender2 m=\"ся\" f=\"ась\"}} ароматом этого\nкофе?{{delay20}} Нос свое получил, пора бы\nо языке подумать.{{delay20}} {{anim id=\"Hello\" target=\"actor\" targetSpec=\"\"}}Закажи чашечку!"
  },
  {
    "label": "001_04",
    "attribute": "0x0000000000000000",
    "text": "{{i20_2 arg=\"6\"}}{{anim id=\"Hello\" target=\"actor\" targetSpec=\"\"}}Крикни, если что-то нужно!{{delay20}} Не\nобращай внимания на косые\nвзгляды.{{delay20}} {{anim id=\"Laughing\" target=\"actor\" targetSpec=\"\"}}А-ха-ха!"
  },
  {
    "label": "001_05",
    "attribute": "0x0000000000000000",
    "text": "{{i20_2 arg=\"6\"}}{{anim id=\"Negative\" target=\"actor\" targetSpec=\"\"}}{{color id=\"4\"}}Эт{{gender7 m=\"от\" f=\"а\" n=\"\" pl=\"\"}} воображала {{selection value=\"SelectedVillager\"}}\nдумает, что сможет меня\nпереплюнуть.{{delay20}} {{anim id=\"Angry\" target=\"actor\" targetSpec=\"\"}}Я е{{gender7 m=\"му\" f=\"й\" n=\"\" pl=\"\"}} покажу{{string value=\"...\"}}{{color id=\"65535\"}}{{pageBreak}}{{i10_10}}{{anim id=\"Cheering\" target=\"actor\" targetSpec=\"\"}}{{delay20}}{{i10_12}}{{size value=\"200\"}}Привет!!!{{delay20}} Добро\nпожаловать!{{size value=\"100\"}}{{delay frames=\"40\"}}{{i10_9}}"
  },
  {
    "label": "002",
    "attribute": "0x0000000000000000",
    "text": "{{i20_2 arg=\"6\"}}{{anim id=\"Nodding\" target=\"actor\" targetSpec=\"\"}}Есть обычный кофе,{{delay20}} а есть кофе,\nкоторый варят в прекрасном кафе{{anim id=\"FaintSmile\" target=\"actor\" targetSpec=\"\"}}\n«{{fun_00030096 arg=\"0x00CD\"}}»!"
  },
  {
    "label": "011",
    "attribute": "0x0000000000000000",
    "text": "{{fun_0014003C arg=\"\"}}"
  },
  {
    "label": "011_01",
    "attribute": "0x0000000000000000",
    "text": "{{i20_2 arg=\"14\"}}{{anim id=\"ShyBoy\" target=\"actor\" targetSpec=\"\"}}Если понадобится моя помощь,\nмаши руками и ори во весь голос.{{delay frames=\"40\"}}\n{{anim id=\"BigSmile\" target=\"actor\" targetSpec=\"\"}}Иначе я не услышу."
  },
  {
    "label": "011_02",
    "attribute": "0x0000000000000000",
    "text": "{{i20_2 arg=\"6\"}}{{anim id=\"Scheming\" target=\"actor\" targetSpec=\"\"}}Знаешь, чего этому дню не хватает?\n{{delay20}}Он был бы круче некуда, если бы\nмне подняли зарплату."
  },
  {
    "label": "011_03",
    "attribute": "0x0000000000000000",
    "text": "{{i20_2 arg=\"6\"}}{{anim id=\"Grin\" target=\"actor\" targetSpec=\"\"}}У нас есть кофе с кофейным вкусом\nи чай с чайным.{{delay frames=\"40\"}} Попробуешь?\n{{anim id=\"AbsentMindedness\" target=\"actor\" targetSpec=\"\"}}Ням-ням."
  },
  {
    "label": "011_04",
    "attribute": "0x0000000000000000",
    "text": "{{i20_2 arg=\"6\"}}{{anim id=\"ShyBoy\" target=\"actor\" targetSpec=\"\"}}В кафе работать — не в группе\nпеть,{{delay8}} но все равно круче любой\nофисной скукоты."
  },
  {
    "label": "011_05",
    "attribute": "0x0000000000000000",
    "text": "{{i20_2 arg=\"6\"}}{{anim id=\"Sighing\" target=\"actor\" targetSpec=\"\"}}Кафе сегодня битком набито.{{delay20}} Без\n{{fun_00170032 arg=\"0x03CD\"}}{{selection value=\"SelectedVillager\"}} я бы с ног сбилась."
  },
  {
    "label": "012",
    "attribute": "0x0000000000000000",
    "text": "{{i20_2 arg=\"6\"}}{{anim id=\"Serious\" target=\"actor\" targetSpec=\"\"}}Хочешь мое мнение?{{delay20}} Честное\nи откровенное? {{delay frames=\"40\"}}Ладно{{string value=\"...\"}}{{anim id=\"FaintSmile\" target=\"actor\" targetSpec=\"\"}} Бери чай\nиз {{fun_00170032 arg=\"0x03CD\"}}{{fun_00030096 arg=\"0x00CD\"}}!"
  },
  {
    "label": "021",
    "attribute": "0x0000000000000000",
    "text": "{{fun_0014003C arg=\"\"}}"
  },
  {
    "label": "021_01",
    "attribute": "0x0000020000000000",
    "text": "{{anim id=\"FaintSmile\" target=\"actor\" targetSpec=\"\"}}Возьмешь что-нибудь с собой?"
  },
  {
    "label": "021_01_a",
    "attribute": "0x0000000000000000",
    "text": "Можно мне меню?"
  },
  {
    "label": "021_01_b",
    "attribute": "0x0000000000000000",
    "text": "Ничего не нужно."
  },
  {
    "label": "021_02",
    "attribute": "0x0000020000000000",
    "text": "{{anim id=\"Aha\" target=\"actor\" targetSpec=\"\"}}{{delay20}}Если хочешь{{delay8}} взять что-нибудь\nнавынос, скажи мне."
  },
  {
    "label": "021_02_a",
    "attribute": "0x0000000000000000",
    "text": "Можно мне меню?"
  },
  {
    "label": "021_02_b",
    "attribute": "0x0000000000000000",
    "text": "Ничего не нужно."
  },
  {
    "label": "021_03",
    "attribute": "0x0000020000000000",
    "text": "{{anim id=\"QuestionMark\" target=\"actor\" targetSpec=\"\"}}Что будешь заказывать?"
  },
  {
    "label": "021_03_a",
    "attribute": "0x0000000000000000",
    "text": "Можно мне меню?"
  },
  {
    "label": "021_03_b",
    "attribute": "0x0000000000000000",
    "text": "Ничего не нужно."
  },
  {
    "label": "022",
    "attribute": "0x0000000000000000",
    "text": "{{fun_0014003C arg=\"\"}}"
  },
  {
    "label": "022_01",
    "attribute": "0x0000000000000000",
    "text": "{{anim id=\"Hello\" target=\"actor\" targetSpec=\"\"}}Без проблем.{{delay20}} Можешь сидеть здесь,\nпока не надоест. {{capitalizeNextLetter}}{{string value=\"6\"}}."
  },
  {
    "label": "022_02",
    "attribute": "0x0000000000000000",
    "text": "{{anim id=\"Greeting\" target=\"actor\" targetSpec=\"\"}}Ясно!{{delay20}} Ну, так даже проще — для\nменя. {{capitalizeNextLetter}}{{string value=\"6\"}}."
  },
  {
    "label": "022_03",
    "attribute": "0x0000000000000000",
    "text": "{{anim id=\"Grin\" target=\"actor\" targetSpec=\"\"}}Точно?{{delay20}} Если что-то понадобится,\nя мигом прибегу. {{capitalizeNextLetter}}{{string value=\"6\"}}."
  },
  {
    "label": "023",
    "attribute": "0x0000000000000000",
    "text": "{{fun_0014003C arg=\"\"}}"
  },
  {
    "label": "023_01",
    "attribute": "0x0000000000000000",
    "text": "{{anim id=\"HappyDance\" target=\"actor\" targetSpec=\"\"}}Отличный выбор!{{delay20}} Тебе точно\nпонравится! {{capitalizeNextLetter}}{{string value=\"6\"}}!"
  },
  {
    "label": "023_02",
    "attribute": "0x0000000000000000",
    "text": "{{anim id=\"Explain\" target=\"actor\" targetSpec=\"\"}}{{delay8}}А теперь бегом домой, пока\nвкуснятина свеженькая.\n{{capitalizeNextLetter}}{{string value=\"6\"}}."
  },
  {
    "label": "023_03",
    "attribute": "0x0000000000000000",
    "text": "{{anim id=\"Smiling\" target=\"actor\" targetSpec=\"\"}}Спасибо, что заш{{gender2 m=\"ел\" f=\"ла\"}} к нам!\n{{capitalizeNextLetter}}{{string value=\"6\"}}."
  },
  {
    "label": "024",
    "attribute": "0x0000000000000000",
    "text": "{{fun_0014003C arg=\"\"}}"
  },
  {
    "label": "024_01",
    "attribute": "0x0000000000000000",
    "text": "{{anim id=\"Nodding\" target=\"actor\" targetSpec=\"\"}}Ну и ладно.{{delay20}} Зови, если захочешь\nсделать заказ. {{capitalizeNextLetter}}{{string value=\"6\"}}."
  },
  {
    "label": "024_02",
    "attribute": "0x0000000000000000",
    "text": "{{anim id=\"WrySmile\" target=\"actor\" targetSpec=\"\"}}Ясно, {{delay8}}ты еще выбираешь.\n{{delay20}}Не торопись! {{capitalizeNextLetter}}{{string value=\"6\"}}."
  },
  {
    "label": "024_03",
    "attribute": "0x0000000000000000",
    "text": "{{anim id=\"Hello\" target=\"actor\" targetSpec=\"\"}}Точно?{{delay20}} Если хочешь еще разок\nзаглянуть в меню, без проблем.\n{{capitalizeNextLetter}}{{string value=\"6\"}}."
  },
  {
    "label": "025",
    "attribute": "0x0000020000000000",
    "text": "{{capitalizeNextLetter}}{{fun_0000007D arg=\"0x0000\"}}?{{delay frames=\"40\"}}\n{{anim id=\"Explain\" target=\"actor\" targetSpec=\"\"}}С тебя {{number value=\"44\" index=\"0\"}}."
  },
  {
    "label": "025_a",
    "attribute": "0x0000000000000000",
    "text": "{{anim id=\"Nodding\" target=\"actor\" targetSpec=\"\"}}Да, пожалуйста!"
  },
  {
    "label": "025_b",
    "attribute": "0x0000000000000000",
    "text": "{{anim id=\"Negative\" target=\"actor\" targetSpec=\"\"}}Нет, спасибо."
  },
  {
    "label": "026",
    "attribute": "0x0000000000000000",
    "text": "{{anim id=\"Greeting\" target=\"actor\" targetSpec=\"\"}}С тобой приятно иметь дело!{{delay frames=\"40\"}}{{anim id=\"Eh\" target=\"actor\" targetSpec=\"\"}} Хотя\nпогоди-ка.{{delay20}} Похоже, у тебя проблема\nс поки.{{pageBreak}}{{anim id=\"Negative\" target=\"actor\" targetSpec=\"\"}}Прости,{{delay8}} мы принимаем только\nналичные.{{delay frames=\"40\"}}{{anim id=\"FaintSmile\" target=\"actor\" targetSpec=\"\"}} Возвращайся, когда\nподнакопишь!"
  },
  {
    "label": "027",
    "attribute": "0x0000000000000000",
    "text": "{{anim id=\"Greeting\" target=\"actor\" targetSpec=\"\"}}С тобой приятно иметь дело!{{delay frames=\"40\"}}{{anim id=\"Eh\" target=\"actor\" targetSpec=\"\"}} Хотя\nпогоди-ка.{{delay20}} Похоже, у тебя проблема\nс перевесом.{{pageBreak}}{{anim id=\"Negative\" target=\"actor\" targetSpec=\"\"}}Освободи место в карманах,\nа потом приходи."
  },
  {
    "label": "028",
    "attribute": "0x0000000000000000",
    "text": "{{anim id=\"Greeting\" target=\"actor\" targetSpec=\"\"}}Что-нибудь еще?"
  },
  {
    "label": "029",
    "attribute": "0x0000000000000000",
    "text": "{{anim id=\"Nodding\" target=\"actor\" targetSpec=\"\"}}Конечно.{{delay20}} Может, что-нибудь еще?"
  },
  {
    "label": "030",
    "attribute": "0x0000000000000000",
    "text": "Как хочешь. {{delay frames=\"40\"}}{{anim id=\"FaintSmile\" target=\"actor\" targetSpec=\"\"}}Выбор за тобой."
  },
  {
    "label": "031",
    "attribute": "0x0000000000000000",
    "text": "{{fun_0014003C arg=\"\"}}"
  },
  {
    "label": "031_01",
    "attribute": "0x0000040000000000",
    "text": "{{anim id=\"FaintSmile\" target=\"actor\" targetSpec=\"\"}}Возьмешь что-нибудь с собой?"
  },
  {
    "label": "031_01_a",
    "attribute": "0x0000000000000000",
    "text": "Можно мне меню?"
  },
  {
    "label": "031_01_b",
    "attribute": "0x0000000000000000",
    "text": "Пойдем потанцуем!"
  },
  {
    "label": "031_01_c",
    "attribute": "0x0000000000000000",
    "text": "Ничего не нужно."
  },
  {
    "label": "031_02",
    "attribute": "0x0000040000000000",
    "text": "{{anim id=\"Aha\" target=\"actor\" targetSpec=\"\"}}{{delay20}}Если хочешь{{delay8}} взять что-нибудь\nнавынос, скажи мне."
  },
  {
    "label": "031_02_a",
    "attribute": "0x0000000000000000",
    "text": "Можно мне меню?"
  },
  {
    "label": "031_02_b",
    "attribute": "0x0000000000000000",
    "text": "Пойдем потанцуем!"
  },
  {
    "label": "031_02_c",
    "attribute": "0x0000000000000000",
    "text": "Ничего не нужно."
  },
  {
    "label": "031_03",
    "attribute": "0x0000040000000000",
    "text": "{{anim id=\"QuestionMark\" target=\"actor\" targetSpec=\"\"}}Что будешь заказывать?"
  },
  {
    "label": "031_03_a",
    "attribute": "0x0000000000000000",
    "text": "Можно мне меню?"
  },
  {
    "label": "031_03_b",
    "attribute": "0x0000000000000000",
    "text": "Пойдем потанцуем!"
  },
  {
    "label": "031_03_c",
    "attribute": "0x0000000000000000",
    "text": "Ничего не нужно."
  },
  {
    "label": "091",
    "attribute": "0x0000000000000000",
    "text": "{{anim id=\"Greeting\" target=\"actor\" targetSpec=\"\"}}Привет!{{delay20}} Как делишки?{{delay20}}\n{{anim id=\"HappyFlower\" target=\"actor\" targetSpec=\"\"}}Добро пожаловать в кафе\n«{{fun_00170032 arg=\"0x01CD\"}}{{fun_00030096 arg=\"0x00CD\"}}»!"
  },
  {
    "label": "092",
    "attribute": "0x0000000000000000",
    "text": "{{anim id=\"Greeting\" target=\"actor\" targetSpec=\"\"}}Ой, привет!{{delay20}} Я так рада, что ты\nк нам заскочил{{gender2 m=\"\" f=\"а\"}}!"
  },
  {
    "label": "093",
    "attribute": "0x0000000000000000",
    "text": "{{anim id=\"Eh\" target=\"actor\" targetSpec=\"\"}}Уже все?{{delay frames=\"40\"}} {{anim id=\"FaintSmile\" target=\"actor\" targetSpec=\"\"}}Спасибо, что заскочил{{gender2 m=\"\" f=\"а\"}}!"
  },
  {
    "label": "101",
    "attribute": "0x0000000000000000",
    "text": "{{fun_0014003C arg=\"\"}}"
  },
  {
    "label": "101_01",
    "attribute": "0x0000000000000000",
    "text": "{{i20_2 arg=\"6\"}}{{anim id=\"Nodding\" target=\"actor\" targetSpec=\"\"}}Знаешь,{{delay20}} это место просто классное.\n{{delay frames=\"40\"}}{{anim id=\"FaintSmile\" target=\"actor\" targetSpec=\"\"}}Атмосфера располагает посидеть\nи поболтать.{{delay8}} {{capitalizeNextLetter}}{{string value=\"6\"}}!"
  },
  {
    "label": "101_02",
    "attribute": "0x0000000000000000",
    "text": "{{i20_2 arg=\"6\"}}В таких классных местах {{anim id=\"Blushing\" target=\"actor\" targetSpec=\"\"}}прямо\nне усидеть, как тут здорово,\n{{delay8}}понимаешь?"
  },
  {
    "label": "101_03",
    "attribute": "0x0000000000000000",
    "text": "{{i20_2 arg=\"6\"}}{{anim id=\"Eh\" target=\"actor\" targetSpec=\"\"}}Хм,{{delay8}} принюхайся-ка.{{delay frames=\"40\"}} Что-то пахнет\nочень вкусно, да?{{delay frames=\"40\"}} {{anim id=\"AbsentMindedness\" target=\"actor\" targetSpec=\"\"}}Интересно, что{{string value=\"...\"}}"
  },
  {
    "label": "101_04",
    "attribute": "0x0000000000000000",
    "text": "{{i20_2 arg=\"6\"}}{{anim id=\"Nodding\" target=\"actor\" targetSpec=\"\"}}Ты только посмотри на всех этих\nотдыхающих.{{delay frames=\"40\"}}{{anim id=\"FaintSmile\" target=\"actor\" targetSpec=\"\"}} Немного не по себе\nстановится, {{delay8}}правда?"
  },
  {
    "label": "101_05",
    "attribute": "0x0000000000000000",
    "text": "{{i20_2 arg=\"6\"}}{{anim id=\"Greeting\" target=\"actor\" targetSpec=\"\"}}Хм,{{delay8}} зайду-ка я в туалет.{{delay frames=\"40\"}} {{anim id=\"Nodding\" target=\"actor\" targetSpec=\"\"}}В хороших\nмагазинах всегда хорошие туалеты.{{delay frames=\"40\"}}\nНадо обязательно зайти."
  },
  {
    "label": "102",
    "attribute": "0x0000000000000000",
    "text": "{{fun_0014003C arg=\"\"}}"
  },
  {
    "label": "102_01",
    "attribute": "0x0000000000000000",
    "text": "{{anim id=\"FaintSmile\" target=\"actor\" targetSpec=\"\"}}Ух, вот это жизнь!{{delay frames=\"40\"}}{{anim id=\"Nodding\" target=\"actor\" targetSpec=\"\"}} Иногда в твоей\nборьбе с миром на твоей стороне\nтолько верная тебе кружка кофе!"
  },
  {
    "label": "102_02",
    "attribute": "0x0000000000000000",
    "text": "{{anim id=\"Negative\" target=\"actor\" targetSpec=\"\"}}В детстве я кофе терпеть не могла.\n{{delay frames=\"40\"}}{{anim id=\"Explain\" target=\"actor\" targetSpec=\"\"}}Но в определенный момент жизни\nгоречь становится сладкой на вкус."
  },
  {
    "label": "102_03",
    "attribute": "0x0000000000000000",
    "text": "{{anim id=\"Nodding\" target=\"actor\" targetSpec=\"\"}}Чашка классная.{{delay frames=\"40\"}}{{anim id=\"Thinking\" target=\"actor\" targetSpec=\"\"}} Интересно, могу ли\nя купить такую{{string value=\"...\"}}"
  },
  {
    "label": "102_04",
    "attribute": "0x0000000000000000",
    "text": "{{anim id=\"Thinking\" target=\"actor\" targetSpec=\"\"}}Интересно, а кофе полезен для\nздоровья?{{delay frames=\"40\"}} Я{{anim id=\"ShyBoy\" target=\"actor\" targetSpec=\"\"}},{{delay8}} э-э-э,{{delay8}} надеюсь, да{{string value=\"...\"}}"
  },
  {
    "label": "102_05",
    "attribute": "0x0000000000000000",
    "text": "{{anim id=\"Nodding\" target=\"actor\" targetSpec=\"\"}}Кофе в кафе совсем другого вкуса.\nКакое-то волшебство тут творится{{string value=\"...\"}}\nиначе и не объяснить."
  },
  {
    "label": "103",
    "attribute": "0x0000000000000000",
    "text": "{{fun_0014003C arg=\"\"}}"
  },
  {
    "label": "103_01",
    "attribute": "0x0000000000000000",
    "text": "{{anim id=\"Nodding\" target=\"actor\" targetSpec=\"\"}}Кофе прекрасен и все такое, но\nиногда{{delay20}} для расслабления можно\n{{anim id=\"FaintSmile\" target=\"actor\" targetSpec=\"\"}}и чаю выпить. {{capitalizeNextLetter}}{{string value=\"6\"}}!"
  },
  {
    "label": "103_02",
    "attribute": "0x0000000000000000",
    "text": "{{anim id=\"Greeting\" target=\"actor\" targetSpec=\"\"}}Ты видел{{gender2 m=\"\" f=\"а\"}} когда-нибудь чай,\nкоторый меняет цвет, если\nв него добавить лимон?{{pageBreak}}{{anim id=\"Nodding\" target=\"actor\" targetSpec=\"\"}}В детстве я любила это делать.\n{{delay frames=\"40\"}}{{anim id=\"FaintSmile\" target=\"actor\" targetSpec=\"\"}}Это настоящее волшебство.\n{{delay8}}{{capitalizeNextLetter}}{{string value=\"6\"}}!"
  },
  {
    "label": "103_03",
    "attribute": "0x0000000000000000",
    "text": "{{anim id=\"Thinking\" target=\"actor\" targetSpec=\"\"}}Знаешь, какой напиток часто\nнедооценивают?{{delay frames=\"40\"}}{{anim id=\"Nodding\" target=\"actor\" targetSpec=\"\"}} Чай.{{delay20}} Убери\nпару листиков или добавь...{{pageBreak}}{{anim id=\"Explain\" target=\"actor\" targetSpec=\"\"}}И вдруг ты пьешь совершенно\nдругой напиток.{{delay frames=\"40\"}}{{anim id=\"FaintSmile\" target=\"actor\" targetSpec=\"\"}} Просто\nудивительно. {{delay8}}{{capitalizeNextLetter}}{{string value=\"6\"}}!"
  },
  {
    "label": "103_04",
    "attribute": "0x0000000000000000",
    "text": "{{anim id=\"Greeting\" target=\"actor\" targetSpec=\"\"}}Вот и я пью чай.{{delay20}} Годы берут свое,\nвидать.{{delay frames=\"40\"}} {{anim id=\"Sighing\" target=\"actor\" targetSpec=\"\"}}Ну, рано или поздно это\nдолжно было случиться."
  },
  {
    "label": "103_05",
    "attribute": "0x0000000000000000",
    "text": "{{anim id=\"Explain\" target=\"actor\" targetSpec=\"\"}}Порой я думаю, не завести ли мне\nкакое-нибудь более интересное\nхобби.{{delay frames=\"40\"}} Например, изучать чай.{{pageBreak}}{{anim id=\"Negative\" target=\"actor\" targetSpec=\"\"}}Не.{{delay20}} Это не мое.{{delay8}} {{capitalizeNextLetter}}{{string value=\"6\"}}."
  },
  {
    "label": "104",
    "attribute": "0x0000000000000000",
    "text": "{{i20_2 arg=\"6\"}}{{anim id=\"Explain\" target=\"actor\" targetSpec=\"\"}}Жизнь так непредсказуема,{{delay8}} правда?{{pageBreak}}{{anim id=\"FaintSmile\" target=\"actor\" targetSpec=\"\"}}Кто бы подумал, что я когда-нибудь\nбуду сидеть{{delay8}} {{anim id=\"FaintSmile\" target=\"actor\" targetSpec=\"\"}}в таком модном месте\nкак {{fun_00030096 arg=\"0x00CD\"}}!"
  },
  {
    "label": "201",
    "attribute": "0x0000000000000000",
    "text": "{{fun_0014003C arg=\"\"}}"
  },
  {
    "label": "201_01",
    "attribute": "0x0000000000000000",
    "text": "{{i20_2 arg=\"6\"}}{{anim id=\"Nodding\" target=\"actor\" targetSpec=\"\"}}Хозяин этого места, видимо, любит\nразвлекать гостей. {{delay20}}Устроил тут\nи кафе, и галерею!"
  },
  {
    "label": "201_02",
    "attribute": "0x0000000000000000",
    "text": "{{i20_2 arg=\"6\"}}{{anim id=\"Nodding\" target=\"actor\" targetSpec=\"\"}}Галерея в кафе,{{delay20}} хм? {{delay20}}Классная идея.\n{{delay frames=\"40\"}}{{anim id=\"FaintSmile\" target=\"actor\" targetSpec=\"\"}}Отличное сочетание, как кофе и{{string value=\"...\"}}\nкофе!"
  },
  {
    "label": "201_03",
    "attribute": "0x0000000000000000",
    "text": "{{i20_2 arg=\"6\"}}{{anim id=\"Explain\" target=\"actor\" targetSpec=\"\"}}Теперь есть место, где и кофе\nвыпить можно, и насладиться\nискусством!{{anim id=\"FaintSmile\" target=\"actor\" targetSpec=\"\"}} Класс!"
  },
  {
    "label": "201_04",
    "attribute": "0x0000000000000000",
    "text": "{{i20_2 arg=\"6\"}}{{anim id=\"AbsentMindedness\" target=\"actor\" targetSpec=\"\"}}Тут такая расслабляющая\nатмосфера.{{delay frames=\"40\"}}{{anim id=\"Nodding\" target=\"actor\" targetSpec=\"\"}} Здесь можно\nзависать целый день!"
  },
  {
    "label": "201_05",
    "attribute": "0x0000000000000000",
    "text": "{{i20_2 arg=\"6\"}}{{anim id=\"Explain\" target=\"actor\" targetSpec=\"\"}}Никогда бы не подумала, что мне\nпонравится в таком месте,{{delay8}} но{{string value=\"...\"}}\n{{delay frames=\"40\"}}{{anim id=\"FaintSmile\" target=\"actor\" targetSpec=\"\"}}Оно неплохое.{{delay frames=\"40\"}} Очень даже."
  },
  {
    "label": "202",
    "attribute": "0x0000000000000000",
    "text": "{{fun_0014003C arg=\"\"}}"
  },
  {
    "label": "202_01",
    "attribute": "0x0000000000000000",
    "text": "{{anim id=\"FaintSmile\" target=\"actor\" targetSpec=\"\"}}Привет,{{delay8}} а тут неплохо.{{delay frames=\"40\"}} Посмотри по\nсторонам{{delay20}}{{string value=\"...\"}} {{anim id=\"Nodding\" target=\"actor\" targetSpec=\"\"}}Да,{{delay20}} видно, что тут\nвсе с любовью сделано."
  },
  {
    "label": "202_02",
    "attribute": "0x0000000000000000",
    "text": "{{anim id=\"Eh\" target=\"actor\" targetSpec=\"\"}}Ого,{{delay20}} в кафе в галерее даже такие\nшедевры есть?{{delay frames=\"40\"}} {{anim id=\"Greeting\" target=\"actor\" targetSpec=\"\"}}Сразу класс такой\nчувствуется!"
  },
  {
    "label": "202_03",
    "attribute": "0x0000000000000000",
    "text": "{{anim id=\"Nodding\" target=\"actor\" targetSpec=\"\"}}В искусстве я ничего не соображаю,\nно тут крутые штуки,{{delay frames=\"40\"}} {{anim id=\"Greeting\" target=\"actor\" targetSpec=\"\"}}например,\n{{fun_0000007D arg=\"0x0000\"}}."
  },
  {
    "label": "202_04",
    "attribute": "0x0000000000000000",
    "text": "{{anim id=\"Thinking\" target=\"actor\" targetSpec=\"\"}}Видимо,{{delay20}} искусство способно\nукрасить что угодно, {{delay20}}даже если это\n{{fun_0000007D arg=\"0x0000\"}}."
  },
  {
    "label": "202_05",
    "attribute": "0x0000000000000000",
    "text": "{{anim id=\"Eh\" target=\"actor\" targetSpec=\"\"}}Ничего себе!{{delay20}} Никогда не думала,\nчто увижу когда-нибудь вживую\n{{fun_00170032 arg=\"0x01CD\"}}{{fun_0000007D arg=\"0x0000\"}}!{{delay20}} {{anim id=\"FaintSmile\" target=\"actor\" targetSpec=\"\"}}Круть!"
  },
  {
    "label": "203",
    "attribute": "0x0000000000000000",
    "text": "{{i20_2 arg=\"6\"}}{{anim id=\"Eh\" target=\"actor\" targetSpec=\"\"}}Еда и искусство?\n{{delay frames=\"40\"}}{{anim id=\"Nodding\" target=\"actor\" targetSpec=\"\"}}{{capitalizeNextLetter}}{{fun_00030096 arg=\"0x00CD\"}}?\nНоги сами несут сюда!"
  },
  {
    "label": "204",
    "attribute": "0x0000000000000000",
    "text": "{{i20_2 arg=\"6\"}}{{anim id=\"OhGeez\" target=\"actor\" targetSpec=\"\"}}«{{capitalizeNextLetter}}{{fun_00040096 arg=\"0x00CD\"}}»?\n{{delay20}}Серьезно?{{pageBreak}}{{anim id=\"Negative\" target=\"actor\" targetSpec=\"\"}}Даже я могу придумать что-то\nполучше.{{delay20}} Сейчас{{string value=\"...\"}}{{delay20}} {{anim id=\"SmugFace\" target=\"actor\" targetSpec=\"\"}}{{capitalizeNextLetter}}{{string value=\"VillagerRace\"}} любит {{randomHobby}}.{{pageBreak}}{{anim id=\"SadSpiral\" target=\"actor\" targetSpec=\"\"}}{{delay20}}Уф!{{delay8}} Ужасно.{{delay frames=\"40\"}} {{anim id=\"ShyBoy\" target=\"actor\" targetSpec=\"\"}}Знаешь что,{{delay8}} это не так\nпросто, как кажется.{{delay20}} Пусть будет\n«{{capitalizeNextLetter}}{{fun_00040096 arg=\"0x00CD\"}}»!"
  }
]