﻿[
  {
    "label": "001",
    "attribute": "0x0000000000000000",
    "text": "{{anim id=\"Greeting\" target=\"actor\" targetSpec=\"\"}}{{capitalizeNextLetter}}{{string value=\"31\"}}, écoute !{{delay20}}{{anim id=\"Worried\" target=\"actor\" targetSpec=\"\"}} Cette nuit, j'ai rêvé qu'il y avait un puits {{gender4 m=\"de \" f=\"d'⁠\"}}{{randomDrink}} dans ma cave."
  },
  {
    "label": "002",
    "attribute": "0x0000000000000000",
    "text": "{{anim id=\"Eh\" target=\"actor\" targetSpec=\"\"}}Le truc de ouf ! {{i20_2 arg=\"4\"}}{{delay frames=\"40\"}}{{anim id=\"FaintSmile\" target=\"actor\" targetSpec=\"\"}}Tu rigoles, ou quoi ?{{delay20}}\n{{anim id=\"WrySmile\" target=\"actor\" targetSpec=\"\"}}Ça serait trop génial,{{delay8}} {{string value=\"Catchphrase\"}} !"
  },
  {
    "label": "003",
    "attribute": "0x0000000000000000",
    "text": "{{i20_2 arg=\"3\"}}{{anim id=\"Restless\" target=\"actor\" targetSpec=\"\"}}Et je viens de me souvenir que la\nnuit d'avant, j'avais rêvé {{anim id=\"Eh\" target=\"actor\" targetSpec=\"\"}}d'un puits\nde caramel !{{delay8}}\n{{anim id=\"Confused\" target=\"actor\" targetSpec=\"\"}}Tu crois que quelque chose ne\ntourne pas rond chez moi ?"
  },
  {
    "label": "004",
    "attribute": "0x0000000000000000",
    "text": "{{i20_2 arg=\"4\"}}Nan, au contraire {{anim id=\"Laughing\" target=\"actor\" targetSpec=\"\"}}j'aime ce que ton\ncerveau te fait vivre quand il est en\nmode No Limit !{{anim id=\"FaintSmile\" target=\"mainNpc\" targetSpec=\"\"}}{{delay8}}{{anim id=\"EmotEnd\" target=\"actor\" targetSpec=\"\"}}{{pageBreak}}{{anim id=\"WrySmile\" target=\"actor\" targetSpec=\"\"}}Quand tu aurais de la visite, tu dirais\njuste{{delay8}} {{anim id=\"Hello\" target=\"actor\" targetSpec=\"\"}}{{anim id=\"Eh\" target=\"mainNpc\" targetSpec=\"\"}}: « Quelqu'un veut de la glace\navec une sauce au caramel ? »{{pageBreak}}{{anim id=\"EmotEnd\" target=\"mainNpc\" targetSpec=\"\"}}{{anim id=\"Thinking\" target=\"actor\" targetSpec=\"\"}}{{delay frames=\"40\"}}Hmmm{{string value=\"...\"}}{{delay20}} {{anim id=\"Nodding\" target=\"actor\" targetSpec=\"\"}}Maintenant, j'ai envie d'en\navoir un chez moi, quand je serai{{delay20}}\n{{anim id=\"EmotEnd\" target=\"actor\" targetSpec=\"\"}}riche et célèbre."
  },
  {
    "label": "005",
    "attribute": "0x0000000000000000",
    "text": "Vu sous cet angle, c'est sûr {{anim id=\"Nodding\" target=\"actor\" targetSpec=\"\"}}que c'est\nplutôt sympa comme rêve.{{anim id=\"FaintSmile\" target=\"actor\" targetSpec=\"\"}}{{pageBreak}}Il ne me manque plus qu'une\nmontagne de crème glacée dans\nle salon, {{string value=\"6\"}}.\n{{anim id=\"AbsentMindedness\" target=\"actor\" targetSpec=\"\"}}Oh, j'aimerais bien rêver de ça cette\nnuit{{string value=\"...\"}}"
  },
  {
    "label": "006",
    "attribute": "0x0000000000000000",
    "text": "Ce qui est bizarre, c'est que la nuit\nd'avant {{i20_2 arg=\"3\"}}{{anim id=\"Restless\" target=\"actor\" targetSpec=\"\"}}j'avais rêvé que mes murs\nétaient faits de spaghetti al dente.{{pageBreak}}Peut-être que je devrais manger\nplus le soir{{string value=\"...\"}}"
  },
  {
    "label": "007",
    "attribute": "0x0000000000000000",
    "text": "{{i20_2 arg=\"4\"}}{{anim id=\"Shocked\" target=\"actor\" targetSpec=\"\"}}Ouah{{string value=\"...\"}} Un mur de pâtes ! {{delay20}}{{anim id=\"Nodding\" target=\"actor\" targetSpec=\"\"}}Ça, c'est\nune idée, {{string value=\"31\"}}.{{pageBreak}}{{anim id=\"AbsentMindedness\" target=\"actor\" targetSpec=\"\"}}Mais ce soir, va falloir rêver{{delay20}} {{anim id=\"WrySmile\" target=\"actor\" targetSpec=\"\"}}{{anim id=\"Smiling\" target=\"mainNpc\" targetSpec=\"\"}}que tu as\naussi un robinet de sauce.{{delay8}}{{anim id=\"EmotEnd\" target=\"actor\" targetSpec=\"\"}}{{pageBreak}}Parce que les pâtes nature, {{anim id=\"Serious\" target=\"actor\" targetSpec=\"\"}}{{anim id=\"Eh\" target=\"mainNpc\" targetSpec=\"\"}}y a\ncarrément pas moyen{{string value=\"...\"}}"
  },
  {
    "label": "008",
    "attribute": "0x0000000000000000",
    "text": "{{anim id=\"Smiling\" target=\"actor\" targetSpec=\"\"}}Bonne idée, {{string value=\"6\"}} !{{delay8}} {{anim id=\"EmotEnd\" target=\"actor\" targetSpec=\"\"}}Et vu\nque c'est un rêve, je peux choisir\nabsolument n'importe quelle sauce !\n{{anim id=\"Thinking\" target=\"actor\" targetSpec=\"\"}}Il y en a tant ! À la tomate, à base\nde crème, de pesto ou simplement\nà l'huile avec un peu d'ail{{string value=\"...\"}}\n{{anim id=\"Nodding\" target=\"actor\" targetSpec=\"\"}}Je dormirai avec mon livre de cuisine\ncette nuit,{{anim id=\"Laughing\" target=\"subNpc\" targetSpec=\"\"}} ça m'aidera à me décider.{{anim id=\"FaintSmile\" target=\"actor\" targetSpec=\"\"}}{{anim id=\"EmotEnd\" target=\"subNpc\" targetSpec=\"\"}}"
  },
  {
    "label": "009",
    "attribute": "0x0000000000000000",
    "text": "{{i20_2 arg=\"3\"}}Maintenant que j'y pense, {{anim id=\"Restless\" target=\"actor\" targetSpec=\"\"}}j'ai rêvé\nd'un{{anim id=\"Eh\" target=\"subNpc\" targetSpec=\"\"}} puits de dentifrice il y a\nquelques jours.{{anim id=\"EmotEnd\" target=\"subNpc\" targetSpec=\"\"}}\n{{anim id=\"Sighing\" target=\"actor\" targetSpec=\"\"}}{{capitalizeNextLetter}}{{string value=\"Catchphrase\"}}{{string value=\"...\"}}{{anim id=\"EmotEnd\" target=\"actor\" targetSpec=\"\"}} Tu crois que je devrais {{anim id=\"Worried\" target=\"actor\" targetSpec=\"\"}}m'inquiéter, {{string value=\"31\"}} ?"
  },
  {
    "label": "010",
    "attribute": "0x0000000000000000",
    "text": "{{i20_2 arg=\"4\"}}{{anim id=\"Serious\" target=\"actor\" targetSpec=\"\"}}Euh, t'inquiéter, je sais pas. Mais\nj'avoue que c'est un peu bizarre{{string value=\"...\"}}{{pageBreak}}J'imagine que t'auras {{anim id=\"AbsentMindedness\" target=\"actor\" targetSpec=\"\"}}plus jamais\nbesoin d'enrouler le tube à fond,{{delay20}}\n{{anim id=\"WrySmile\" target=\"actor\" targetSpec=\"\"}}pour en sortir tout le dentifrice{{string value=\"...\"}}{{pageBreak}}Oh, laisse-moi changer d'avis.{{anim id=\"Nodding\" target=\"actor\" targetSpec=\"\"}}\nÀ la réflexion,{{delay20}}{{anim id=\"Smiling\" target=\"actor\" targetSpec=\"\"}}{{anim id=\"Eh\" target=\"mainNpc\" targetSpec=\"\"}} c'est une idée\nbrillante, {{string value=\"31\"}} !"
  },
  {
    "label": "011",
    "attribute": "0x0000000000000000",
    "text": "{{anim id=\"BigSmile\" target=\"actor\" targetSpec=\"\"}}{{capitalizeNextLetter}}{{string value=\"Catchphrase\"}} !{{delay frames=\"40\"}}{{anim id=\"FaintSmile\" target=\"actor\" targetSpec=\"\"}} Je devrais peut-être\ncommencer à noter mes rêves ?"
  },
  {
    "label": "101",
    "attribute": "0x0000000000000000",
    "text": "Tiens{{string value=\"...\"}} {{anim id=\"Hesitate\" target=\"actor\" targetSpec=\"\"}}J'ai lu cette question dans\nun quiz, {{string value=\"6\"}} : {{delay8}}{{anim id=\"QuestionMark\" target=\"actor\" targetSpec=\"\"}}où vous\nvoyez-vous dans 10 ans ?"
  },
  {
    "label": "102",
    "attribute": "0x0000000000000000",
    "text": "{{anim id=\"Pardon\" target=\"actor\" targetSpec=\"\"}}Bah c'est pas difficile{{string value=\"...\"}}{{delay20}}\n{{anim id=\"WrySmile\" target=\"actor\" targetSpec=\"\"}}Je serai en pleine gloire !{{delay frames=\"40\"}} {{anim id=\"EmotEnd\" target=\"actor\" targetSpec=\"\"}}{{anim id=\"Clapping\" target=\"mainNpc\" targetSpec=\"\"}}La plus\ngrande star qui ait jamais existé !{{delay8}}{{anim id=\"EmotEnd\" target=\"mainNpc\" targetSpec=\"\"}}"
  },
  {
    "label": "103",
    "attribute": "0x0000000000000000",
    "text": "{{i20_2 arg=\"3\"}}{{anim id=\"Clapping\" target=\"actor\" targetSpec=\"\"}}Je croise les pattes pour que ça\nse réalise ! En plus, je pourrai dire à\ntout le monde que je te connais.{{anim id=\"EmotEnd\" target=\"actor\" targetSpec=\"\"}}{{pageBreak}}{{anim id=\"Shocked\" target=\"actor\" targetSpec=\"\"}}Attends{{string value=\"...\"}}{{delay frames=\"40\"}} {{anim id=\"Worried\" target=\"actor\" targetSpec=\"\"}}est-ce que tu continueras\nà me parler quand tu seras une star,\n{{string value=\"31\"}} ?{{anim id=\"Eh\" target=\"subNpc\" targetSpec=\"\"}}{{anim id=\"EmotEnd\" target=\"actor\" targetSpec=\"\"}}"
  },
  {
    "label": "104",
    "attribute": "0x0000000000000000",
    "text": "Eh ben{{string value=\"...\"}} {{anim id=\"FaintSmile\" target=\"actor\" targetSpec=\"\"}}Ça dépendra peut-être pas\nque de moi !{{delay20}} {{anim id=\"Explain\" target=\"actor\" targetSpec=\"\"}}Parfois, on maîtrise pas\ntout, quand la gloire nous touche.\n{{anim id=\"Nodding\" target=\"actor\" targetSpec=\"\"}}Mais faut pas t'inquiéter, {{string value=\"31\"}}.{{delay8}} {{anim id=\"FaintSmile\" target=\"actor\" targetSpec=\"\"}}Je pourrais jamais t'oublier, tu sais !"
  },
  {
    "label": "105",
    "attribute": "0x0000000000000000",
    "text": "{{anim id=\"Hesitate\" target=\"actor\" targetSpec=\"\"}}Et si tu essayais de te faire un nom\nsur l'île ?{{delay8}} {{anim id=\"TakenAback\" target=\"subNpc\" targetSpec=\"\"}}{{anim id=\"FaintSmile\" target=\"actor\" targetSpec=\"\"}}Tu n'aurais pas à voyager,\ntu aurais du temps pour tes amis{{string value=\"...\"}}"
  },
  {
    "label": "106",
    "attribute": "0x0000000000000000",
    "text": "{{anim id=\"Outraged\" target=\"actor\" targetSpec=\"\"}}{{i20_2 arg=\"4\"}}Excuse-moi, {{string value=\"31\"}} ?!{{anim id=\"Worried\" target=\"mainNpc\" targetSpec=\"\"}}{{delay frames=\"40\"}}\n{{anim id=\"Silent\" target=\"actor\" targetSpec=\"\"}}Je suis déjà une méga star ici !{{delay20}}\nComme si tu le savais pas !{{delay8}}\n{{anim id=\"Serious\" target=\"actor\" targetSpec=\"\"}}Et cette notoriété de ouf m'a jamais{{delay20}}\n{{anim id=\"Explain\" target=\"actor\" targetSpec=\"\"}}{{anim id=\"Assent\" target=\"mainNpc\" targetSpec=\"\"}}empêchée de passer du temps avec\ntoi, {{string value=\"6\"}} !{{delay20}}{{anim id=\"FaintSmile\" target=\"actor\" targetSpec=\"\"}}{{anim id=\"FaintSmile\" target=\"mainNpc\" targetSpec=\"\"}}"
  },
  {
    "label": "201",
    "attribute": "0x0000000000000000",
    "text": "Vraiment ? {{anim id=\"TakenAback\" target=\"actor\" targetSpec=\"\"}}{{anim id=\"Assent\" target=\"subNpc\" targetSpec=\"\"}}Ce sera ça, la tendance\nmode de la saison prochaine ? C'est\nplutôt pour {{fun_00010032 arg=\"\"}}{{string value=\"17\"}}, non ?\n{{anim id=\"Hesitate\" target=\"actor\" targetSpec=\"\"}}{{anim id=\"WrySmile\" target=\"subNpc\" targetSpec=\"\"}}{{capitalizeNextLetter}}{{string value=\"Catchphrase\"}}…{{delay8}} Mes magazines n'en\nparlent même pas{{string value=\"...\"}}{{pageBreak}}La mode peut parfois être\nimprévisible !{{delay frames=\"40\"}} Merci pour le scoop,\n{{string value=\"6\"}}."
  },
  {
    "label": "202",
    "attribute": "0x0000000000000000",
    "text": "{{i20_2 arg=\"4\"}}{{anim id=\"ShyBoy\" target=\"actor\" targetSpec=\"\"}}Faut pas croire !{{delay8}} Je vais te dire\nun truc, {{string value=\"31\"}}{{string value=\"...\"}}{{pageBreak}}{{anim id=\"Explain\" target=\"actor\" targetSpec=\"\"}}Quand tes magazines disent qu'un\nstyle est à la mode,{{delay20}} {{anim id=\"SmugFace\" target=\"actor\" targetSpec=\"\"}}moi, je suis déjà\npassée à celui d'après !{{pageBreak}}Ça me fait penser{{string value=\"...\"}} {{anim id=\"Thinking\" target=\"actor\" targetSpec=\"\"}}Tu sais, ton\nexpression, elle pourrait bien faire\nle buzz d'ici pas longtemps{{string value=\"...\"}}{{pageBreak}}{{anim id=\"Shocked\" target=\"mainNpc\" targetSpec=\"\"}}{{anim id=\"WrySmile\" target=\"actor\" targetSpec=\"\"}}Tu crois que je pourrais te\nl'emprunter ?{{delay20}}{{anim id=\"EmotEnd\" target=\"mainNpc\" targetSpec=\"\"}}"
  },
  {
    "label": "203",
    "attribute": "0x0000000000000000",
    "text": "{{anim id=\"Aha\" target=\"actor\" targetSpec=\"\"}}« {{capitalizeNextLetter}}{{string value=\"Catchphrase\"}} » ?{{delay8}} Faire le buzz ?{{delay8}}\n{{anim id=\"Hesitate\" target=\"actor\" targetSpec=\"\"}}Tu me fais marcher..."
  },
  {
    "label": "204",
    "attribute": "0x0000000000000000",
    "text": "{{i20_2 arg=\"4\"}}{{anim id=\"Assent\" target=\"actor\" targetSpec=\"\"}}Pas du tout ! Ça donne l'impression\nde dire un truc cool, {{delay20}}{{anim id=\"AbsentMindedness\" target=\"actor\" targetSpec=\"\"}}sans vraiment y\nfaire gaffe.{{delay frames=\"40\"}} {{anim id=\"HappyFlower\" target=\"mainNpc\" targetSpec=\"\"}}{{anim id=\"Hello\" target=\"actor\" targetSpec=\"\"}}{{capitalizeNextLetter}}{{string value=\"Catchphrase\"}}. {{delay frames=\"40\"}}{{anim id=\"FaintSmile\" target=\"actor\" targetSpec=\"\"}}Tu vois ?"
  },
  {
    "label": "205",
    "attribute": "0x0000000000000000",
    "text": "{{anim id=\"Eh\" target=\"actor\" targetSpec=\"\"}}Waouh !{{delay8}}{{anim id=\"EmotEnd\" target=\"actor\" targetSpec=\"\"}} C'est vrai que si tu te mets\nà dire « {{string value=\"Catchphrase\"}} », d'autres\nrisquent de l'adopter aussi !\n{{anim id=\"BigSmile\" target=\"actor\" targetSpec=\"\"}}{{anim id=\"SmugFace\" target=\"subNpc\" targetSpec=\"\"}}Je t'en prie, {{string value=\"31\"}}.{{delay8}}\n« {{capitalizeNextLetter}}{{string value=\"Catchphrase\"}} » est à toi !{{anim id=\"FaintSmile\" target=\"actor\" targetSpec=\"\"}}"
  }
]