﻿[
  {
    "label": "001",
    "text": "My pal {{string value=\"NickName\"}},"
  },
  {
    "label": "002",
    "text": "Dearest {{string value=\"NickName\"}},"
  },
  {
    "label": "003",
    "text": "My hero, {{string value=\"NickName\"}}!"
  },
  {
    "label": "004",
    "text": "Yo, {{string value=\"NickName\"}}!"
  },
  {
    "label": "005",
    "text": "My friend {{string value=\"NickName\"}},"
  },
  {
    "label": "006",
    "text": "{{capitalizeNextLetter}}{{string value=\"NickName\"}} the incomparable,"
  },
  {
    "label": "007",
    "text": "Mi compadre {{string value=\"NickName\"}},"
  },
  {
    "label": "008",
    "text": "To the one and only {{string value=\"NickName\"}},"
  },
  {
    "label": "009",
    "text": "My beguiling {{string value=\"NickName\"}},"
  },
  {
    "label": "010",
    "text": "My partner in style, {{string value=\"NickName\"}},"
  },
  {
    "label": "201",
    "text": "Dashingly, {{string value=\"VillagerName\"}}"
  },
  {
    "label": "202",
    "text": "Lovable city-slicker, {{string value=\"VillagerName\"}}"
  },
  {
    "label": "203",
    "text": "Yours, {{string value=\"VillagerName\"}}"
  },
  {
    "label": "204",
    "text": "Your biggest fan, {{string value=\"VillagerName\"}}"
  },
  {
    "label": "205",
    "text": "Forever yours, {{string value=\"VillagerName\"}}"
  },
  {
    "label": "206",
    "text": "Your famous friend, {{string value=\"VillagerName\"}}"
  },
  {
    "label": "207",
    "text": "With love, {{string value=\"VillagerName\"}}"
  },
  {
    "label": "208",
    "text": "Stylishly yours, {{string value=\"VillagerName\"}}"
  },
  {
    "label": "209",
    "text": "Sincerely, {{string value=\"VillagerName\"}}"
  },
  {
    "label": "210",
    "text": "Self-confidently, {{string value=\"VillagerName\"}}"
  }
]