﻿[
  {
    "label": "Fence_03080",
    "text": "{{wordInfo gender=\"1\" indefArticle=\"0\" defArticle=\"0\"}}кирпичн{{wordCase nom=\"ый\" acc=\"ый\" dat=\"ому\" gen=\"ого\"}} забор{{wordCase nom=\"\" acc=\"\" dat=\"у\" gen=\"а\"}}"
  },
  {
    "label": "Fence_03080_pl",
    "text": "{{wordInfo gender=\"5\" indefArticle=\"0\" defArticle=\"0\"}}кирпичны{{wordCase nom=\"е\" acc=\"е\" dat=\"м\" gen=\"х\"}} забор{{wordCase nom=\"ы\" acc=\"ы\" dat=\"ам\" gen=\"ов\"}}"
  },
  {
    "label": "Fence_03402",
    "text": "{{wordInfo gender=\"1\" indefArticle=\"0\" defArticle=\"0\"}}штакетник{{wordCase nom=\"\" acc=\"\" dat=\"у\" gen=\"а\"}}"
  },
  {
    "label": "Fence_03402_pl",
    "text": "{{wordInfo gender=\"5\" indefArticle=\"0\" defArticle=\"0\"}}штакетник{{wordCase nom=\"и\" acc=\"и\" dat=\"ам\" gen=\"ов\"}}"
  },
  {
    "label": "Fence_03403",
    "text": "{{wordInfo gender=\"1\" indefArticle=\"0\" defArticle=\"0\"}}забор{{wordCase nom=\"\" acc=\"\" dat=\"у\" gen=\"а\"}} из бамбука"
  },
  {
    "label": "Fence_03403_pl",
    "text": "{{wordInfo gender=\"5\" indefArticle=\"0\" defArticle=\"0\"}}забор{{wordCase nom=\"ы\" acc=\"ы\" dat=\"ам\" gen=\"ов\"}} из бамбука"
  },
  {
    "label": "Fence_04349",
    "text": "{{wordInfo gender=\"1\" indefArticle=\"0\" defArticle=\"0\"}}дощат{{wordCase nom=\"ый\" acc=\"ый\" dat=\"ому\" gen=\"ого\"}} забор{{wordCase nom=\"\" acc=\"\" dat=\"у\" gen=\"а\"}}"
  },
  {
    "label": "Fence_04349_pl",
    "text": "{{wordInfo gender=\"5\" indefArticle=\"0\" defArticle=\"0\"}}дощаты{{wordCase nom=\"е\" acc=\"е\" dat=\"м\" gen=\"х\"}} забор{{wordCase nom=\"ы\" acc=\"ы\" dat=\"ам\" gen=\"ов\"}}"
  },
  {
    "label": "Fence_04350",
    "text": "{{wordInfo gender=\"1\" indefArticle=\"0\" defArticle=\"0\"}}забор{{wordCase nom=\"\" acc=\"\" dat=\"у\" gen=\"а\"}} из столбиков"
  },
  {
    "label": "Fence_04350_pl",
    "text": "{{wordInfo gender=\"5\" indefArticle=\"0\" defArticle=\"0\"}}забор{{wordCase nom=\"ы\" acc=\"ы\" dat=\"ам\" gen=\"ов\"}} из столбиков"
  },
  {
    "label": "Fence_04351",
    "text": "{{wordInfo gender=\"1\" indefArticle=\"0\" defArticle=\"0\"}}забор{{wordCase nom=\"\" acc=\"\" dat=\"у\" gen=\"а\"}} из жердей"
  },
  {
    "label": "Fence_04351_pl",
    "text": "{{wordInfo gender=\"5\" indefArticle=\"0\" defArticle=\"0\"}}забор{{wordCase nom=\"ы\" acc=\"ы\" dat=\"ам\" gen=\"ов\"}} из жердей"
  },
  {
    "label": "Fence_04352",
    "text": "{{wordInfo gender=\"2\" indefArticle=\"0\" defArticle=\"0\"}}оград{{wordCase nom=\"а\" acc=\"у\" dat=\"е\" gen=\"ы\"}} из веревки"
  },
  {
    "label": "Fence_04352_pl",
    "text": "{{wordInfo gender=\"5\" indefArticle=\"0\" defArticle=\"0\"}}оград{{wordCase nom=\"ы\" acc=\"ы\" dat=\"ам\" gen=\"\"}} из веревки"
  },
  {
    "label": "Fence_04354",
    "text": "{{wordInfo gender=\"1\" indefArticle=\"0\" defArticle=\"0\"}}забор{{wordCase nom=\"\" acc=\"\" dat=\"у\" gen=\"а\"}} в азиатском стиле"
  },
  {
    "label": "Fence_04354_pl",
    "text": "{{wordInfo gender=\"5\" indefArticle=\"0\" defArticle=\"0\"}}забор{{wordCase nom=\"ы\" acc=\"ы\" dat=\"ам\" gen=\"ов\"}} в азиатском стиле"
  },
  {
    "label": "Fence_04355",
    "text": "{{wordInfo gender=\"1\" indefArticle=\"0\" defArticle=\"0\"}}забор{{wordCase nom=\"\" acc=\"\" dat=\"у\" gen=\"а\"}} из блоков"
  },
  {
    "label": "Fence_04355_pl",
    "text": "{{wordInfo gender=\"5\" indefArticle=\"0\" defArticle=\"0\"}}забор{{wordCase nom=\"ы\" acc=\"ы\" dat=\"ам\" gen=\"ов\"}} из блоков"
  },
  {
    "label": "Fence_04356",
    "text": "{{wordInfo gender=\"1\" indefArticle=\"0\" defArticle=\"0\"}}соломенн{{wordCase nom=\"ый\" acc=\"ый\" dat=\"ому\" gen=\"ого\"}} забор{{wordCase nom=\"\" acc=\"\" dat=\"у\" gen=\"а\"}}"
  },
  {
    "label": "Fence_04356_pl",
    "text": "{{wordInfo gender=\"5\" indefArticle=\"0\" defArticle=\"0\"}}соломенны{{wordCase nom=\"е\" acc=\"е\" dat=\"м\" gen=\"х\"}} забор{{wordCase nom=\"ы\" acc=\"ы\" dat=\"ам\" gen=\"ов\"}}"
  },
  {
    "label": "Fence_04357",
    "text": "{{wordInfo gender=\"1\" indefArticle=\"0\" defArticle=\"0\"}}железн{{wordCase nom=\"ый\" acc=\"ый\" dat=\"ому\" gen=\"ого\"}} забор{{wordCase nom=\"\" acc=\"\" dat=\"у\" gen=\"а\"}}"
  },
  {
    "label": "Fence_04357_pl",
    "text": "{{wordInfo gender=\"5\" indefArticle=\"0\" defArticle=\"0\"}}железны{{wordCase nom=\"е\" acc=\"е\" dat=\"м\" gen=\"х\"}} забор{{wordCase nom=\"ы\" acc=\"ы\" dat=\"ам\" gen=\"ов\"}}"
  },
  {
    "label": "Fence_04358",
    "text": "{{wordInfo gender=\"1\" indefArticle=\"0\" defArticle=\"0\"}}забор{{wordCase nom=\"\" acc=\"\" dat=\"у\" gen=\"а\"}} из кольев"
  },
  {
    "label": "Fence_04358_pl",
    "text": "{{wordInfo gender=\"5\" indefArticle=\"0\" defArticle=\"0\"}}забор{{wordCase nom=\"ы\" acc=\"ы\" dat=\"ам\" gen=\"ов\"}} из кольев"
  },
  {
    "label": "Fence_05206",
    "text": "{{wordInfo gender=\"1\" indefArticle=\"0\" defArticle=\"0\"}}кован{{wordCase nom=\"ый\" acc=\"ый\" dat=\"ому\" gen=\"ого\"}} забор{{wordCase nom=\"\" acc=\"\" dat=\"у\" gen=\"а\"}}"
  },
  {
    "label": "Fence_05206_pl",
    "text": "{{wordInfo gender=\"5\" indefArticle=\"0\" defArticle=\"0\"}}кованы{{wordCase nom=\"е\" acc=\"е\" dat=\"м\" gen=\"х\"}} забор{{wordCase nom=\"ы\" acc=\"ы\" dat=\"ам\" gen=\"ов\"}}"
  },
  {
    "label": "Fence_05207",
    "text": "{{wordInfo gender=\"1\" indefArticle=\"0\" defArticle=\"0\"}}забор{{wordCase nom=\"\" acc=\"\" dat=\"у\" gen=\"а\"}}-дзен"
  },
  {
    "label": "Fence_05207_pl",
    "text": "{{wordInfo gender=\"5\" indefArticle=\"0\" defArticle=\"0\"}}забор{{wordCase nom=\"ы\" acc=\"ы\" dat=\"ам\" gen=\"ов\"}}-дзен"
  },
  {
    "label": "Fence_05208",
    "text": "{{wordInfo gender=\"2\" indefArticle=\"0\" defArticle=\"0\"}}высок{{wordCase nom=\"ая\" acc=\"ую\" dat=\"ой\" gen=\"ой\"}} решетк{{wordCase nom=\"а\" acc=\"у\" dat=\"е\" gen=\"и\"}}"
  },
  {
    "label": "Fence_05208_pl",
    "text": "{{wordInfo gender=\"5\" indefArticle=\"0\" defArticle=\"0\"}}высоки{{wordCase nom=\"е\" acc=\"е\" dat=\"м\" gen=\"х\"}} решет{{wordCase nom=\"ки\" acc=\"ки\" dat=\"кам\" gen=\"ок\"}}"
  },
  {
    "label": "Fence_05210",
    "text": "{{wordInfo gender=\"1\" indefArticle=\"0\" defArticle=\"0\"}}бревенчат{{wordCase nom=\"ый\" acc=\"ый\" dat=\"ому\" gen=\"ого\"}} забор{{wordCase nom=\"\" acc=\"\" dat=\"у\" gen=\"а\"}}"
  },
  {
    "label": "Fence_05210_pl",
    "text": "{{wordInfo gender=\"5\" indefArticle=\"0\" defArticle=\"0\"}}бревенчаты{{wordCase nom=\"е\" acc=\"е\" dat=\"м\" gen=\"х\"}} забор{{wordCase nom=\"ы\" acc=\"ы\" dat=\"ам\" gen=\"ов\"}}"
  },
  {
    "label": "Fence_05212",
    "text": "{{wordInfo gender=\"1\" indefArticle=\"0\" defArticle=\"0\"}}каменн{{wordCase nom=\"ый\" acc=\"ый\" dat=\"ому\" gen=\"ого\"}} забор{{wordCase nom=\"\" acc=\"\" dat=\"у\" gen=\"а\"}}"
  },
  {
    "label": "Fence_05212_pl",
    "text": "{{wordInfo gender=\"5\" indefArticle=\"0\" defArticle=\"0\"}}каменны{{wordCase nom=\"е\" acc=\"е\" dat=\"м\" gen=\"х\"}} забор{{wordCase nom=\"ы\" acc=\"ы\" dat=\"ам\" gen=\"ов\"}}"
  },
  {
    "label": "Fence_05213",
    "text": "{{wordInfo gender=\"2\" indefArticle=\"0\" defArticle=\"0\"}}колюч{{wordCase nom=\"ая\" acc=\"ую\" dat=\"ей\" gen=\"ей\"}} проволок{{wordCase nom=\"а\" acc=\"у\" dat=\"е\" gen=\"и\"}}"
  },
  {
    "label": "Fence_05213_pl",
    "text": "{{wordInfo gender=\"2\" indefArticle=\"0\" defArticle=\"0\"}}колюч{{wordCase nom=\"ая\" acc=\"ую\" dat=\"ей\" gen=\"ей\"}} проволок{{wordCase nom=\"а\" acc=\"у\" dat=\"е\" gen=\"и\"}}"
  },
  {
    "label": "Fence_11711",
    "text": "{{wordInfo gender=\"1\" indefArticle=\"0\" defArticle=\"0\"}}прост{{wordCase nom=\"ой\" acc=\"ой\" dat=\"ому\" gen=\"ого\"}} дерев. забор{{wordCase nom=\"\" acc=\"\" dat=\"у\" gen=\"а\"}}"
  },
  {
    "label": "Fence_11711_pl",
    "text": "{{wordInfo gender=\"5\" indefArticle=\"0\" defArticle=\"0\"}}прост{{wordCase nom=\"ые\" acc=\"ые\" dat=\"ым\" gen=\"ых\"}} дерев. забор{{wordCase nom=\"ы\" acc=\"ы\" dat=\"ам\" gen=\"ов\"}}"
  },
  {
    "label": "Fence_11712",
    "text": "{{wordInfo gender=\"2\" indefArticle=\"0\" defArticle=\"0\"}}решетк{{wordCase nom=\"а\" acc=\"у\" dat=\"е\" gen=\"и\"}}"
  },
  {
    "label": "Fence_11712_pl",
    "text": "{{wordInfo gender=\"5\" indefArticle=\"0\" defArticle=\"0\"}}решет{{wordCase nom=\"ки\" acc=\"ки\" dat=\"кам\" gen=\"ок\"}}"
  },
  {
    "label": "Fence_12630",
    "text": "{{wordInfo gender=\"1\" indefArticle=\"0\" defArticle=\"0\"}}забор{{wordCase nom=\"\" acc=\"\" dat=\"у\" gen=\"а\"}} «День зайцев»"
  },
  {
    "label": "Fence_12630_pl",
    "text": "{{wordInfo gender=\"5\" indefArticle=\"0\" defArticle=\"0\"}}забор{{wordCase nom=\"ы\" acc=\"ы\" dat=\"ам\" gen=\"ов\"}} «День зайцев»"
  },
  {
    "label": "Fence_12758",
    "text": "{{wordInfo gender=\"2\" indefArticle=\"0\" defArticle=\"0\"}}жив{{wordCase nom=\"ая\" acc=\"ую\" dat=\"ой\" gen=\"ой\"}} изгород{{wordCase nom=\"ь\" acc=\"ь\" dat=\"и\" gen=\"и\"}}"
  },
  {
    "label": "Fence_12758_pl",
    "text": "{{wordInfo gender=\"5\" indefArticle=\"0\" defArticle=\"0\"}}жив{{wordCase nom=\"ые\" acc=\"ые\" dat=\"ым\" gen=\"ых\"}} изгород{{wordCase nom=\"и\" acc=\"и\" dat=\"ям\" gen=\"ей\"}}"
  },
  {
    "label": "Fence_12894",
    "text": "{{wordInfo gender=\"1\" indefArticle=\"0\" defArticle=\"0\"}}свадебн{{wordCase nom=\"ый\" acc=\"ый\" dat=\"ому\" gen=\"ого\"}} забор{{wordCase nom=\"\" acc=\"\" dat=\"у\" gen=\"а\"}}"
  },
  {
    "label": "Fence_12894_pl",
    "text": "{{wordInfo gender=\"5\" indefArticle=\"0\" defArticle=\"0\"}}свадебн{{wordCase nom=\"ые\" acc=\"ые\" dat=\"ым\" gen=\"ых\"}} забор{{wordCase nom=\"ы\" acc=\"ы\" dat=\"ам\" gen=\"ов\"}}"
  },
  {
    "label": "Fence_13275",
    "text": "{{wordInfo gender=\"1\" indefArticle=\"0\" defArticle=\"0\"}}жутк{{wordCase nom=\"ий\" acc=\"ий\" dat=\"ому\" gen=\"ого\"}} забор{{wordCase nom=\"\" acc=\"\" dat=\"у\" gen=\"а\"}}"
  },
  {
    "label": "Fence_13275_pl",
    "text": "{{wordInfo gender=\"5\" indefArticle=\"0\" defArticle=\"0\"}}жутк{{wordCase nom=\"ие\" acc=\"ие\" dat=\"им\" gen=\"их\"}} забор{{wordCase nom=\"ы\" acc=\"ы\" dat=\"ам\" gen=\"ов\"}}"
  },
  {
    "label": "Fence_14278",
    "text": "{{wordInfo gender=\"1\" indefArticle=\"0\" defArticle=\"0\"}}забор{{wordCase nom=\"\" acc=\"\" dat=\"у\" gen=\"а\"}} русалки"
  },
  {
    "label": "Fence_14278_pl",
    "text": "{{wordInfo gender=\"5\" indefArticle=\"0\" defArticle=\"0\"}}забор{{wordCase nom=\"ы\" acc=\"ы\" dat=\"ам\" gen=\"ов\"}} русалки"
  },
  {
    "label": "Fence_14755",
    "text": "{{wordInfo gender=\"1\" indefArticle=\"0\" defArticle=\"0\"}}зелен. забор{{wordCase nom=\"\" acc=\"\" dat=\"у\" gen=\"а\"}} из бамбука"
  },
  {
    "label": "Fence_14755_pl",
    "text": "{{wordInfo gender=\"5\" indefArticle=\"0\" defArticle=\"0\"}}зелен. забор{{wordCase nom=\"ы\" acc=\"ы\" dat=\"ам\" gen=\"ов\"}} из бамбука"
  },
  {
    "label": "Fence_14756",
    "text": "{{wordInfo gender=\"1\" indefArticle=\"0\" defArticle=\"0\"}}ледяно{{wordCase nom=\"й\" acc=\"й\" dat=\"му\" gen=\"го\"}} забор{{wordCase nom=\"\" acc=\"\" dat=\"у\" gen=\"а\"}}"
  },
  {
    "label": "Fence_14756_pl",
    "text": "{{wordInfo gender=\"5\" indefArticle=\"0\" defArticle=\"0\"}}ледян{{wordCase nom=\"ые\" acc=\"ые\" dat=\"ым\" gen=\"ых\"}} забор{{wordCase nom=\"ы\" acc=\"ы\" dat=\"ам\" gen=\"ов\"}}"
  },
  {
    "label": "Fence_14757",
    "text": "{{wordInfo gender=\"1\" indefArticle=\"0\" defArticle=\"0\"}}штакетник{{wordCase nom=\"\" acc=\"\" dat=\"у\" gen=\"а\"}} из бамбука"
  },
  {
    "label": "Fence_14757_pl",
    "text": "{{wordInfo gender=\"5\" indefArticle=\"0\" defArticle=\"0\"}}штакетник{{wordCase nom=\"и\" acc=\"и\" dat=\"ам\" gen=\"ов\"}} из бамбука"
  },
  {
    "label": "Fence_14758",
    "text": "{{wordInfo gender=\"1\" indefArticle=\"0\" defArticle=\"0\"}}ржав{{wordCase nom=\"ый\" acc=\"ый\" dat=\"ому\" gen=\"ого\"}} железн. забор{{wordCase nom=\"\" acc=\"\" dat=\"у\" gen=\"а\"}}"
  },
  {
    "label": "Fence_14758_pl",
    "text": "{{wordInfo gender=\"5\" indefArticle=\"0\" defArticle=\"0\"}}ржав{{wordCase nom=\"ые\" acc=\"ые\" dat=\"ым\" gen=\"ых\"}} железн. забор{{wordCase nom=\"ы\" acc=\"ы\" dat=\"ам\" gen=\"ов\"}}"
  },
  {
    "label": "Fence_14759",
    "text": "{{wordInfo gender=\"1\" indefArticle=\"0\" defArticle=\"0\"}}забор{{wordCase nom=\"\" acc=\"\" dat=\"у\" gen=\"а\"}} детской площадки"
  },
  {
    "label": "Fence_14759_pl",
    "text": "{{wordInfo gender=\"5\" indefArticle=\"0\" defArticle=\"0\"}}забор{{wordCase nom=\"ы\" acc=\"ы\" dat=\"ам\" gen=\"ов\"}} детской площадки"
  }
]