﻿[
  {
    "label": "HousePost_02571",
    "text": "{{wordInfo gender=\"1\" indefArticle=\"0\" defArticle=\"0\"}}просто{{wordCase nom=\"й\" acc=\"й\" dat=\"му\" gen=\"го\"}} ящик{{wordCase nom=\"\" acc=\"\" dat=\"у\" gen=\"а\"}}"
  },
  {
    "label": "HousePost_05342",
    "text": "{{wordInfo gender=\"1\" indefArticle=\"0\" defArticle=\"0\"}}ящик{{wordCase nom=\"\" acc=\"\" dat=\"у\" gen=\"а\"}}-куб{{wordCase nom=\"\" acc=\"\" dat=\"у\" gen=\"а\"}}"
  },
  {
    "label": "HousePost_05343",
    "text": "{{wordInfo gender=\"1\" indefArticle=\"0\" defArticle=\"0\"}}ящик{{wordCase nom=\"\" acc=\"\" dat=\"у\" gen=\"а\"}} из дерева"
  },
  {
    "label": "HousePost_05344",
    "text": "{{wordInfo gender=\"1\" indefArticle=\"0\" defArticle=\"0\"}}большо{{wordCase nom=\"й\" acc=\"й\" dat=\"му\" gen=\"го\"}} ящик{{wordCase nom=\"\" acc=\"\" dat=\"у\" gen=\"а\"}}"
  },
  {
    "label": "HousePost_05802",
    "text": "{{wordInfo gender=\"1\" indefArticle=\"0\" defArticle=\"0\"}}груб{{wordCase nom=\"ый\" acc=\"ый\" dat=\"ому\" gen=\"ого\"}} ящик{{wordCase nom=\"\" acc=\"\" dat=\"у\" gen=\"а\"}}"
  },
  {
    "label": "HousePost_08661",
    "text": "{{wordInfo gender=\"1\" indefArticle=\"0\" defArticle=\"0\"}}просто{{wordCase nom=\"й\" acc=\"й\" dat=\"му\" gen=\"го\"}} красн{{wordCase nom=\"ый\" acc=\"ый\" dat=\"ому\" gen=\"ого\"}} ящик{{wordCase nom=\"\" acc=\"\" dat=\"у\" gen=\"а\"}}"
  },
  {
    "label": "HousePost_08662",
    "text": "{{wordInfo gender=\"1\" indefArticle=\"0\" defArticle=\"0\"}}просто{{wordCase nom=\"й\" acc=\"й\" dat=\"му\" gen=\"го\"}} розов{{wordCase nom=\"ый\" acc=\"ый\" dat=\"ому\" gen=\"ого\"}} ящик{{wordCase nom=\"\" acc=\"\" dat=\"у\" gen=\"а\"}}"
  },
  {
    "label": "HousePost_08663",
    "text": "{{wordInfo gender=\"1\" indefArticle=\"0\" defArticle=\"0\"}}просто{{wordCase nom=\"й\" acc=\"й\" dat=\"му\" gen=\"го\"}} желт{{wordCase nom=\"ый\" acc=\"ый\" dat=\"ому\" gen=\"ого\"}} ящик{{wordCase nom=\"\" acc=\"\" dat=\"у\" gen=\"а\"}}"
  },
  {
    "label": "HousePost_08664",
    "text": "{{wordInfo gender=\"1\" indefArticle=\"0\" defArticle=\"0\"}}просто{{wordCase nom=\"й\" acc=\"й\" dat=\"му\" gen=\"го\"}} зелен{{wordCase nom=\"ый\" acc=\"ый\" dat=\"ому\" gen=\"ого\"}} ящик{{wordCase nom=\"\" acc=\"\" dat=\"у\" gen=\"а\"}}"
  },
  {
    "label": "HousePost_08665",
    "text": "{{wordInfo gender=\"1\" indefArticle=\"0\" defArticle=\"0\"}}просто{{wordCase nom=\"й\" acc=\"й\" dat=\"му\" gen=\"го\"}} син{{wordCase nom=\"ий\" acc=\"ий\" dat=\"ему\" gen=\"его\"}} ящик{{wordCase nom=\"\" acc=\"\" dat=\"у\" gen=\"а\"}}"
  },
  {
    "label": "HousePost_08666",
    "text": "{{wordInfo gender=\"1\" indefArticle=\"0\" defArticle=\"0\"}}просто{{wordCase nom=\"й\" acc=\"й\" dat=\"му\" gen=\"го\"}} бел{{wordCase nom=\"ый\" acc=\"ый\" dat=\"ому\" gen=\"ого\"}} ящик{{wordCase nom=\"\" acc=\"\" dat=\"у\" gen=\"а\"}}"
  },
  {
    "label": "HousePost_08667",
    "text": "{{wordInfo gender=\"1\" indefArticle=\"0\" defArticle=\"0\"}}просто{{wordCase nom=\"й\" acc=\"й\" dat=\"му\" gen=\"го\"}} черн{{wordCase nom=\"ый\" acc=\"ый\" dat=\"ому\" gen=\"ого\"}} ящик{{wordCase nom=\"\" acc=\"\" dat=\"у\" gen=\"а\"}}"
  },
  {
    "label": "HousePost_08672",
    "text": "{{wordInfo gender=\"1\" indefArticle=\"0\" defArticle=\"0\"}}большо{{wordCase nom=\"й\" acc=\"й\" dat=\"му\" gen=\"го\"}} красн{{wordCase nom=\"ый\" acc=\"ый\" dat=\"ому\" gen=\"ого\"}} ящик{{wordCase nom=\"\" acc=\"\" dat=\"у\" gen=\"а\"}}"
  },
  {
    "label": "HousePost_08673",
    "text": "{{wordInfo gender=\"1\" indefArticle=\"0\" defArticle=\"0\"}}большо{{wordCase nom=\"й\" acc=\"й\" dat=\"му\" gen=\"го\"}} розов{{wordCase nom=\"ый\" acc=\"ый\" dat=\"ому\" gen=\"ого\"}} ящик{{wordCase nom=\"\" acc=\"\" dat=\"у\" gen=\"а\"}}"
  },
  {
    "label": "HousePost_08674",
    "text": "{{wordInfo gender=\"1\" indefArticle=\"0\" defArticle=\"0\"}}большо{{wordCase nom=\"й\" acc=\"й\" dat=\"му\" gen=\"го\"}} желт{{wordCase nom=\"ый\" acc=\"ый\" dat=\"ому\" gen=\"ого\"}} ящик{{wordCase nom=\"\" acc=\"\" dat=\"у\" gen=\"а\"}}"
  },
  {
    "label": "HousePost_08675",
    "text": "{{wordInfo gender=\"1\" indefArticle=\"0\" defArticle=\"0\"}}большо{{wordCase nom=\"й\" acc=\"й\" dat=\"му\" gen=\"го\"}} зелен{{wordCase nom=\"ый\" acc=\"ый\" dat=\"ому\" gen=\"ого\"}} ящик{{wordCase nom=\"\" acc=\"\" dat=\"у\" gen=\"а\"}}"
  },
  {
    "label": "HousePost_08676",
    "text": "{{wordInfo gender=\"1\" indefArticle=\"0\" defArticle=\"0\"}}большо{{wordCase nom=\"й\" acc=\"й\" dat=\"му\" gen=\"го\"}} син{{wordCase nom=\"ий\" acc=\"ий\" dat=\"ему\" gen=\"его\"}} ящик{{wordCase nom=\"\" acc=\"\" dat=\"у\" gen=\"а\"}}"
  },
  {
    "label": "HousePost_08677",
    "text": "{{wordInfo gender=\"1\" indefArticle=\"0\" defArticle=\"0\"}}большо{{wordCase nom=\"й\" acc=\"й\" dat=\"му\" gen=\"го\"}} бел{{wordCase nom=\"ый\" acc=\"ый\" dat=\"ому\" gen=\"ого\"}} ящик{{wordCase nom=\"\" acc=\"\" dat=\"у\" gen=\"а\"}}"
  },
  {
    "label": "HousePost_08678",
    "text": "{{wordInfo gender=\"1\" indefArticle=\"0\" defArticle=\"0\"}}большо{{wordCase nom=\"й\" acc=\"й\" dat=\"му\" gen=\"го\"}} черн{{wordCase nom=\"ый\" acc=\"ый\" dat=\"ому\" gen=\"ого\"}} ящик{{wordCase nom=\"\" acc=\"\" dat=\"у\" gen=\"а\"}}"
  },
  {
    "label": "HousePost_08827",
    "text": "{{wordInfo gender=\"1\" indefArticle=\"0\" defArticle=\"0\"}}красн{{wordCase nom=\"ый\" acc=\"ый\" dat=\"ому\" gen=\"ого\"}} ящик{{wordCase nom=\"\" acc=\"\" dat=\"у\" gen=\"а\"}}-куб{{wordCase nom=\"\" acc=\"\" dat=\"у\" gen=\"а\"}}"
  },
  {
    "label": "HousePost_08828",
    "text": "{{wordInfo gender=\"1\" indefArticle=\"0\" defArticle=\"0\"}}розов{{wordCase nom=\"ый\" acc=\"ый\" dat=\"ому\" gen=\"ого\"}} ящик{{wordCase nom=\"\" acc=\"\" dat=\"у\" gen=\"а\"}}-куб{{wordCase nom=\"\" acc=\"\" dat=\"у\" gen=\"а\"}}"
  },
  {
    "label": "HousePost_08829",
    "text": "{{wordInfo gender=\"1\" indefArticle=\"0\" defArticle=\"0\"}}желт{{wordCase nom=\"ый\" acc=\"ый\" dat=\"ому\" gen=\"ого\"}} ящик{{wordCase nom=\"\" acc=\"\" dat=\"у\" gen=\"а\"}}-куб{{wordCase nom=\"\" acc=\"\" dat=\"у\" gen=\"а\"}}"
  },
  {
    "label": "HousePost_08830",
    "text": "{{wordInfo gender=\"1\" indefArticle=\"0\" defArticle=\"0\"}}зелен{{wordCase nom=\"ый\" acc=\"ый\" dat=\"ому\" gen=\"ого\"}} ящик{{wordCase nom=\"\" acc=\"\" dat=\"у\" gen=\"а\"}}-куб{{wordCase nom=\"\" acc=\"\" dat=\"у\" gen=\"а\"}}"
  },
  {
    "label": "HousePost_08831",
    "text": "{{wordInfo gender=\"1\" indefArticle=\"0\" defArticle=\"0\"}}син{{wordCase nom=\"ий\" acc=\"ий\" dat=\"ему\" gen=\"его\"}} ящик{{wordCase nom=\"\" acc=\"\" dat=\"у\" gen=\"а\"}}-куб{{wordCase nom=\"\" acc=\"\" dat=\"у\" gen=\"а\"}}"
  },
  {
    "label": "HousePost_08832",
    "text": "{{wordInfo gender=\"1\" indefArticle=\"0\" defArticle=\"0\"}}бел{{wordCase nom=\"ый\" acc=\"ый\" dat=\"ому\" gen=\"ого\"}} ящик{{wordCase nom=\"\" acc=\"\" dat=\"у\" gen=\"а\"}}-куб{{wordCase nom=\"\" acc=\"\" dat=\"у\" gen=\"а\"}}"
  },
  {
    "label": "HousePost_08833",
    "text": "{{wordInfo gender=\"1\" indefArticle=\"0\" defArticle=\"0\"}}черн{{wordCase nom=\"ый\" acc=\"ый\" dat=\"ому\" gen=\"ого\"}} ящик{{wordCase nom=\"\" acc=\"\" dat=\"у\" gen=\"а\"}}-куб{{wordCase nom=\"\" acc=\"\" dat=\"у\" gen=\"а\"}}"
  },
  {
    "label": "HousePost_08897",
    "text": "{{wordInfo gender=\"1\" indefArticle=\"0\" defArticle=\"0\"}}ящик{{wordCase nom=\"\" acc=\"\" dat=\"у\" gen=\"а\"}}-люкс из дерева"
  },
  {
    "label": "HousePost_08898",
    "text": "{{wordInfo gender=\"1\" indefArticle=\"0\" defArticle=\"0\"}}красн{{wordCase nom=\"ый\" acc=\"ый\" dat=\"ому\" gen=\"ого\"}} ящик{{wordCase nom=\"\" acc=\"\" dat=\"у\" gen=\"а\"}} из дерева"
  },
  {
    "label": "HousePost_08899",
    "text": "{{wordInfo gender=\"1\" indefArticle=\"0\" defArticle=\"0\"}}розов{{wordCase nom=\"ый\" acc=\"ый\" dat=\"ому\" gen=\"ого\"}} ящик{{wordCase nom=\"\" acc=\"\" dat=\"у\" gen=\"а\"}} из дерева"
  },
  {
    "label": "HousePost_08900",
    "text": "{{wordInfo gender=\"1\" indefArticle=\"0\" defArticle=\"0\"}}желт{{wordCase nom=\"ый\" acc=\"ый\" dat=\"ому\" gen=\"ого\"}} ящик{{wordCase nom=\"\" acc=\"\" dat=\"у\" gen=\"а\"}} из дерева"
  },
  {
    "label": "HousePost_08901",
    "text": "{{wordInfo gender=\"1\" indefArticle=\"0\" defArticle=\"0\"}}зелен{{wordCase nom=\"ый\" acc=\"ый\" dat=\"ому\" gen=\"ого\"}} ящик{{wordCase nom=\"\" acc=\"\" dat=\"у\" gen=\"а\"}} из дерева"
  },
  {
    "label": "HousePost_08902",
    "text": "{{wordInfo gender=\"1\" indefArticle=\"0\" defArticle=\"0\"}}син{{wordCase nom=\"ий\" acc=\"ий\" dat=\"ему\" gen=\"его\"}} ящик{{wordCase nom=\"\" acc=\"\" dat=\"у\" gen=\"а\"}} из дерева"
  },
  {
    "label": "HousePost_08903",
    "text": "{{wordInfo gender=\"1\" indefArticle=\"0\" defArticle=\"0\"}}бел{{wordCase nom=\"ый\" acc=\"ый\" dat=\"ому\" gen=\"ого\"}} ящик{{wordCase nom=\"\" acc=\"\" dat=\"у\" gen=\"а\"}} из дерева"
  }
]