﻿[
  {
    "label": "FossilUnknown_02579",
    "text": "{{wordInfo gender=\"0\" indefArticle=\"1\" defArticle=\"3\"}}fossil"
  },
  {
    "label": "Fossil_00169",
    "text": "{{wordInfo gender=\"0\" indefArticle=\"2\" defArticle=\"3\"}}ankylo skull"
  },
  {
    "label": "Fossil_00170",
    "text": "{{wordInfo gender=\"0\" indefArticle=\"2\" defArticle=\"3\"}}ankylo torso"
  },
  {
    "label": "Fossil_00171",
    "text": "{{wordInfo gender=\"0\" indefArticle=\"2\" defArticle=\"3\"}}ankylo tail"
  },
  {
    "label": "Fossil_00177",
    "text": "{{wordInfo gender=\"0\" indefArticle=\"2\" defArticle=\"3\"}}archelon skull"
  },
  {
    "label": "Fossil_00178",
    "text": "{{wordInfo gender=\"0\" indefArticle=\"2\" defArticle=\"3\"}}archelon tail"
  },
  {
    "label": "Fossil_00180",
    "text": "{{wordInfo gender=\"0\" indefArticle=\"1\" defArticle=\"3\"}}megacero skull"
  },
  {
    "label": "Fossil_00181",
    "text": "{{wordInfo gender=\"0\" indefArticle=\"1\" defArticle=\"3\"}}megacero torso"
  },
  {
    "label": "Fossil_00182",
    "text": "{{wordInfo gender=\"0\" indefArticle=\"1\" defArticle=\"3\"}}megacero tail"
  },
  {
    "label": "Fossil_00184",
    "text": "{{wordInfo gender=\"0\" indefArticle=\"1\" defArticle=\"3\"}}dimetrodon skull"
  },
  {
    "label": "Fossil_00185",
    "text": "{{wordInfo gender=\"0\" indefArticle=\"1\" defArticle=\"3\"}}dimetrodon torso"
  },
  {
    "label": "Fossil_00188",
    "text": "{{wordInfo gender=\"0\" indefArticle=\"2\" defArticle=\"3\"}}iguanodon skull"
  },
  {
    "label": "Fossil_00189",
    "text": "{{wordInfo gender=\"0\" indefArticle=\"2\" defArticle=\"3\"}}iguanodon torso"
  },
  {
    "label": "Fossil_00190",
    "text": "{{wordInfo gender=\"0\" indefArticle=\"2\" defArticle=\"3\"}}iguanodon tail"
  },
  {
    "label": "Fossil_00192",
    "text": "{{wordInfo gender=\"0\" indefArticle=\"2\" defArticle=\"3\"}}ophthalmo skull"
  },
  {
    "label": "Fossil_00193",
    "text": "{{wordInfo gender=\"0\" indefArticle=\"2\" defArticle=\"3\"}}ophthalmo torso"
  },
  {
    "label": "Fossil_00195",
    "text": "{{wordInfo gender=\"0\" indefArticle=\"1\" defArticle=\"3\"}}mammoth skull"
  },
  {
    "label": "Fossil_00196",
    "text": "{{wordInfo gender=\"0\" indefArticle=\"1\" defArticle=\"3\"}}mammoth torso"
  },
  {
    "label": "Fossil_00198",
    "text": "{{wordInfo gender=\"0\" indefArticle=\"1\" defArticle=\"3\"}}pachysaurus skull"
  },
  {
    "label": "Fossil_00199",
    "text": "{{wordInfo gender=\"0\" indefArticle=\"1\" defArticle=\"3\"}}pachysaurus tail"
  },
  {
    "label": "Fossil_00202",
    "text": "{{wordInfo gender=\"0\" indefArticle=\"1\" defArticle=\"3\"}}parasaur skull"
  },
  {
    "label": "Fossil_00203",
    "text": "{{wordInfo gender=\"0\" indefArticle=\"1\" defArticle=\"3\"}}parasaur torso"
  },
  {
    "label": "Fossil_00204",
    "text": "{{wordInfo gender=\"0\" indefArticle=\"1\" defArticle=\"3\"}}parasaur tail"
  },
  {
    "label": "Fossil_00206",
    "text": "{{wordInfo gender=\"0\" indefArticle=\"1\" defArticle=\"3\"}}ptera body"
  },
  {
    "label": "Fossil_00207",
    "text": "{{wordInfo gender=\"0\" indefArticle=\"1\" defArticle=\"3\"}}right ptera wing"
  },
  {
    "label": "Fossil_00208",
    "text": "{{wordInfo gender=\"0\" indefArticle=\"1\" defArticle=\"3\"}}left ptera wing"
  },
  {
    "label": "Fossil_00210",
    "text": "{{wordInfo gender=\"0\" indefArticle=\"1\" defArticle=\"3\"}}deinony torso"
  },
  {
    "label": "Fossil_00211",
    "text": "{{wordInfo gender=\"0\" indefArticle=\"1\" defArticle=\"3\"}}deinony tail"
  },
  {
    "label": "Fossil_00213",
    "text": "{{wordInfo gender=\"0\" indefArticle=\"1\" defArticle=\"3\"}}sabertooth skull"
  },
  {
    "label": "Fossil_00214",
    "text": "{{wordInfo gender=\"0\" indefArticle=\"1\" defArticle=\"3\"}}sabertooth tail"
  },
  {
    "label": "Fossil_00216",
    "text": "{{wordInfo gender=\"0\" indefArticle=\"1\" defArticle=\"3\"}}diplo skull"
  },
  {
    "label": "Fossil_00217",
    "text": "{{wordInfo gender=\"0\" indefArticle=\"1\" defArticle=\"3\"}}diplo neck"
  },
  {
    "label": "Fossil_00218",
    "text": "{{wordInfo gender=\"0\" indefArticle=\"1\" defArticle=\"3\"}}diplo chest"
  },
  {
    "label": "Fossil_00219",
    "text": "{{wordInfo gender=\"0\" indefArticle=\"1\" defArticle=\"3\"}}diplo pelvis"
  },
  {
    "label": "Fossil_00220",
    "text": "{{wordInfo gender=\"0\" indefArticle=\"1\" defArticle=\"3\"}}diplo tail"
  },
  {
    "label": "Fossil_00222",
    "text": "{{wordInfo gender=\"0\" indefArticle=\"1\" defArticle=\"3\"}}spino skull"
  },
  {
    "label": "Fossil_00223",
    "text": "{{wordInfo gender=\"0\" indefArticle=\"1\" defArticle=\"3\"}}spino torso"
  },
  {
    "label": "Fossil_00224",
    "text": "{{wordInfo gender=\"0\" indefArticle=\"1\" defArticle=\"3\"}}spino tail"
  },
  {
    "label": "Fossil_00226",
    "text": "{{wordInfo gender=\"0\" indefArticle=\"1\" defArticle=\"3\"}}stego skull"
  },
  {
    "label": "Fossil_00227",
    "text": "{{wordInfo gender=\"0\" indefArticle=\"1\" defArticle=\"3\"}}stego torso"
  },
  {
    "label": "Fossil_00228",
    "text": "{{wordInfo gender=\"0\" indefArticle=\"1\" defArticle=\"3\"}}stego tail"
  },
  {
    "label": "Fossil_00234",
    "text": "{{wordInfo gender=\"0\" indefArticle=\"1\" defArticle=\"3\"}}plesio skull"
  },
  {
    "label": "Fossil_00235",
    "text": "{{wordInfo gender=\"0\" indefArticle=\"1\" defArticle=\"3\"}}plesio torso"
  },
  {
    "label": "Fossil_00236",
    "text": "{{wordInfo gender=\"0\" indefArticle=\"1\" defArticle=\"3\"}}plesio tail"
  },
  {
    "label": "Fossil_00238",
    "text": "{{wordInfo gender=\"0\" indefArticle=\"1\" defArticle=\"3\"}}T. rex skull"
  },
  {
    "label": "Fossil_00239",
    "text": "{{wordInfo gender=\"0\" indefArticle=\"1\" defArticle=\"3\"}}T. rex torso"
  },
  {
    "label": "Fossil_00240",
    "text": "{{wordInfo gender=\"0\" indefArticle=\"1\" defArticle=\"3\"}}T. rex tail"
  },
  {
    "label": "Fossil_00242",
    "text": "{{wordInfo gender=\"0\" indefArticle=\"1\" defArticle=\"3\"}}tricera skull"
  },
  {
    "label": "Fossil_00243",
    "text": "{{wordInfo gender=\"0\" indefArticle=\"1\" defArticle=\"3\"}}tricera torso"
  },
  {
    "label": "Fossil_00244",
    "text": "{{wordInfo gender=\"0\" indefArticle=\"1\" defArticle=\"3\"}}tricera tail"
  },
  {
    "label": "Fossil_00294",
    "text": "{{wordInfo gender=\"0\" indefArticle=\"4\" defArticle=\"3\"}}amber"
  },
  {
    "label": "Fossil_00295",
    "text": "{{wordInfo gender=\"0\" indefArticle=\"2\" defArticle=\"3\"}}ammonite"
  },
  {
    "label": "Fossil_00296",
    "text": "{{wordInfo gender=\"0\" indefArticle=\"1\" defArticle=\"3\"}}coprolite"
  },
  {
    "label": "Fossil_00298",
    "text": "{{wordInfo gender=\"0\" indefArticle=\"2\" defArticle=\"3\"}}archaeopteryx"
  },
  {
    "label": "Fossil_00300",
    "text": "{{wordInfo gender=\"0\" indefArticle=\"1\" defArticle=\"3\"}}dinosaur track"
  },
  {
    "label": "Fossil_00301",
    "text": "{{wordInfo gender=\"0\" indefArticle=\"2\" defArticle=\"3\"}}australopith"
  },
  {
    "label": "Fossil_00302",
    "text": "{{wordInfo gender=\"0\" indefArticle=\"1\" defArticle=\"3\"}}shark-tooth pattern"
  },
  {
    "label": "Fossil_00303",
    "text": "{{wordInfo gender=\"0\" indefArticle=\"1\" defArticle=\"3\"}}trilobite"
  },
  {
    "label": "Fossil_04651",
    "text": "{{wordInfo gender=\"0\" indefArticle=\"2\" defArticle=\"3\"}}anomalocaris"
  },
  {
    "label": "Fossil_04658",
    "text": "{{wordInfo gender=\"0\" indefArticle=\"1\" defArticle=\"3\"}}right megalo side"
  },
  {
    "label": "Fossil_04659",
    "text": "{{wordInfo gender=\"0\" indefArticle=\"1\" defArticle=\"3\"}}left megalo side"
  },
  {
    "label": "Fossil_04660",
    "text": "{{wordInfo gender=\"0\" indefArticle=\"1\" defArticle=\"3\"}}dunkleosteus"
  },
  {
    "label": "Fossil_04662",
    "text": "{{wordInfo gender=\"0\" indefArticle=\"1\" defArticle=\"3\"}}myllokunmingia"
  },
  {
    "label": "Fossil_04663",
    "text": "{{wordInfo gender=\"0\" indefArticle=\"1\" defArticle=\"3\"}}eusthenopteron"
  },
  {
    "label": "Fossil_04664",
    "text": "{{wordInfo gender=\"0\" indefArticle=\"2\" defArticle=\"3\"}}acanthostega"
  },
  {
    "label": "Fossil_04665",
    "text": "{{wordInfo gender=\"0\" indefArticle=\"1\" defArticle=\"3\"}}juramaia"
  },
  {
    "label": "Fossil_04688",
    "text": "{{wordInfo gender=\"0\" indefArticle=\"1\" defArticle=\"3\"}}brachio skull"
  },
  {
    "label": "Fossil_04689",
    "text": "{{wordInfo gender=\"0\" indefArticle=\"1\" defArticle=\"3\"}}brachio chest"
  },
  {
    "label": "Fossil_04690",
    "text": "{{wordInfo gender=\"0\" indefArticle=\"1\" defArticle=\"3\"}}brachio pelvis"
  },
  {
    "label": "Fossil_04691",
    "text": "{{wordInfo gender=\"0\" indefArticle=\"1\" defArticle=\"3\"}}brachio tail"
  },
  {
    "label": "Fossil_04697",
    "text": "{{wordInfo gender=\"0\" indefArticle=\"1\" defArticle=\"3\"}}quetzal torso"
  },
  {
    "label": "Fossil_04698",
    "text": "{{wordInfo gender=\"0\" indefArticle=\"1\" defArticle=\"3\"}}right quetzal wing"
  },
  {
    "label": "Fossil_04699",
    "text": "{{wordInfo gender=\"0\" indefArticle=\"1\" defArticle=\"3\"}}left quetzal wing"
  },
  {
    "label": "Fossil_07251",
    "text": "{{wordInfo gender=\"0\" indefArticle=\"1\" defArticle=\"3\"}}diplo tail tip"
  }
]