﻿[
  {
    "label": "001",
    "text": "我尊敬的{{string value=\"NickName\"}}"
  },
  {
    "label": "002",
    "text": "親愛的{{string value=\"4\"}}"
  },
  {
    "label": "003",
    "text": "{{string value=\"4\"}}"
  },
  {
    "label": "004",
    "text": "～{{string value=\"4\"}}～"
  },
  {
    "label": "005",
    "text": "你好，{{string value=\"4\"}}"
  },
  {
    "label": "101",
    "text": "你居然送了我這麼棒的禮物，\n真的太感謝了。"
  },
  {
    "label": "102",
    "text": "非常謝謝你令人驚喜的禮物，\n真的很棒呢。"
  },
  {
    "label": "103",
    "text": "突然就收到你的禮物，讓我嚇了一跳。\n當然，是高興得嚇一跳喔。"
  },
  {
    "label": "104",
    "text": "非常感謝你的禮物，\n我會心懷感激地收下的。"
  },
  {
    "label": "105",
    "text": "收到你充滿心意的禮物，\n讓我內心除了感謝還是感謝呢。"
  },
  {
    "label": "201",
    "text": "雖然不知道我這張卡寫得好不好，\n但希望我的感謝之意\n能傳達給你。"
  },
  {
    "label": "202",
    "text": "為了將我的心意傳達給你，\n我很努力地琢磨用詞，\n希望能寫得更貼近我的內心。"
  },
  {
    "label": "203",
    "text": "我試著將自己的感謝之意\n全都寄託在心意卡上了，\n希望能傳達給你。"
  },
  {
    "label": "204",
    "text": "話說我把你寄給我的心意卡\n讀了一遍又一遍，\n藉此來鼓勵自己呢。"
  },
  {
    "label": "205",
    "text": "光是像這樣，\n為了寫心意卡給你而坐在桌前，\n就讓我有種幸福的感覺呢。"
  },
  {
    "label": "301",
    "text": "希望我們還能再見面喔。"
  },
  {
    "label": "302",
    "text": "那麼就先寫到這裡。"
  },
  {
    "label": "303",
    "text": "下次我們一起聊聊天吧！"
  },
  {
    "label": "304",
    "text": "下次來找我玩吧！"
  },
  {
    "label": "305",
    "text": "那麼我會再聯絡你的。"
  },
  {
    "label": "401",
    "text": "{{string value=\"VillagerName\"}}　筆"
  },
  {
    "label": "402",
    "text": "{{string value=\"VillagerName\"}}"
  },
  {
    "label": "403",
    "text": "{{string value=\"VillagerName\"}}　敬上"
  },
  {
    "label": "404",
    "text": "誠摯的{{string value=\"VillagerName\"}}"
  },
  {
    "label": "405",
    "text": "今天先寫到這裡，{{string value=\"VillagerName\"}}"
  }
]