﻿[
  {
    "label": "001",
    "text": "My bestie, {{string value=\"4\"}},"
  },
  {
    "label": "002",
    "text": "{{capitalizeNextLetter}}{{string value=\"NickName\"}}!"
  },
  {
    "label": "003",
    "text": "Hey, {{string value=\"NickName\"}}..."
  },
  {
    "label": "004",
    "text": "Hear me out, {{string value=\"NickName\"}}..."
  },
  {
    "label": "005",
    "text": "Hi there, {{string value=\"4\"}}!"
  },
  {
    "label": "006",
    "text": "{{capitalizeNextLetter}}{{string value=\"NickName\"}}!"
  },
  {
    "label": "007",
    "text": "Dear {{string value=\"4\"}},"
  },
  {
    "label": "008",
    "text": "To {{capitalizeNextLetter}}{{string value=\"NickName\"}} the Fab!"
  },
  {
    "label": "009",
    "text": "To my #1 fan, {{string value=\"NickName\"}}:"
  },
  {
    "label": "101",
    "text": "Valentine's Day is a time to say the\nstuff you're usually too shy to say.\nI'm not too shy to say anything, so\nI'll just say it louder. YOU'RE\nSUPERDUPER SPECIAL TO ME! \nEep! My cheeks are all red now!"
  },
  {
    "label": "102",
    "text": "Happy Valentine's Day! Thanks for\nbeing the very best bestie. These\nare the most special chocolates of\nall time, and they're just for you.\nEnjoy! "
  },
  {
    "label": "103",
    "text": " Happy Valentine's Day \nDid you know today's all about\nsending chocolate to your favorite\nfolks? Well, it is! That means you,\nbestie. We'll be friends forever\n(and ever and ever and ever)."
  },
  {
    "label": "104",
    "text": " Happy Valentine's Day! \nI was thinking about who to send\nthis to, and then it hit me. Who am I\nmost grateful for? Who makes my\ncheeks hurt from smiling? Whose\nstar is nearly as bright as my own?"
  },
  {
    "label": "105",
    "text": "You've been waiting for this treat,\nhaven't you? At long last, it has\narrived! This gift is sweet, and so\nare you, so... Enjoy reveling in\nthat sweet sweetness! "
  },
  {
    "label": "106",
    "text": "This chocolate is special because\nit's filled with love from me to you.\nDon't worry, you can totes still eat\nit! Thanks for being a good friend\nand my most devoted fan."
  },
  {
    "label": "107",
    "text": "Happy Valentine's Day! \nOur friendship is like my stardom...\nalways rising higher and shining\nbrighter! This chocolate is a tasty,\nmelty symbol of that (but hopefully\nour friendship lasts longer)."
  },
  {
    "label": "108",
    "text": "Happy Valentine's Day!  I feel like\nwe've got a good thing going, you\nand I. You know what else is good?\nYUMMY CHOCOLATE. So here's\nsome of that, straight from my\nheart to your tummy."
  },
  {
    "label": "109",
    "text": "It's Valentine's Day! You don't have\nto say a thing. I know you've been\nwaiting for a gift from yours truly.\nThis is full of warmth and affection\nand, most especially, chocolate.\nThanks for your undying support!"
  },
  {
    "label": "201",
    "text": "That was exciting! –{{string value=\"VillagerName\"}}"
  },
  {
    "label": "202",
    "text": "It's our little secret! –{{string value=\"VillagerName\"}}"
  },
  {
    "label": "203",
    "text": "Your BFF, {{string value=\"VillagerName\"}}"
  },
  {
    "label": "204",
    "text": "It's you. End of story. –{{string value=\"VillagerName\"}}"
  },
  {
    "label": "205",
    "text": "Sweetly, {{string value=\"VillagerName\"}}"
  },
  {
    "label": "206",
    "text": "Your idol, {{string value=\"VillagerName\"}}"
  },
  {
    "label": "207",
    "text": "Laters, {{string value=\"VillagerName\"}}"
  },
  {
    "label": "208",
    "text": "Have a fab day. –{{string value=\"VillagerName\"}}"
  },
  {
    "label": "209",
    "text": "Your superstar, {{string value=\"VillagerName\"}}"
  }
]