﻿[
  {
    "label": "001",
    "attribute": "0x0200000100000009",
    "text": "{{anim id=\"Blushing\" target=\"actor\" targetSpec=\"\"}}Chuis passée voir mes darons la\ns'maine dernière, et on est tombés\nsur mes vieux gribouillages d'gamine."
  },
  {
    "label": "002",
    "attribute": "0x0000000000000000",
    "text": "{{fun_0014003C arg=\"\"}}"
  },
  {
    "label": "002_01",
    "attribute": "0x0000000000000000",
    "text": "{{anim id=\"Nodding\" target=\"actor\" targetSpec=\"\"}}Y avait notamment un portrait d'ma\nmaman qu'j'avais pondu en cours\nde dessin.\n{{anim id=\"WrySmile\" target=\"actor\" targetSpec=\"\"}}On s'était pris l'chou, alors j'l'avais\npas ratée ! {{delay20}}Si t'avais vu la tronche\nde marâtre que j'lui avais faite !\nEntre-temps, on s'était rabibochées,\nalors j'ai essayé d'rattraper l'coup en\nbarbouillant un sourire par-dessus{{string value=\"...\"}}\n{{anim id=\"Explain\" target=\"actor\" targetSpec=\"\"}}J'voulais qu'elle ait une bonne tête,\nalors j'y suis pas allée mollo{{string value=\"...\"}}{{anim id=\"Blushing\" target=\"actor\" targetSpec=\"\"}} Au\nfinal, ça lui f'sait juste un air chelou."
  },
  {
    "label": "002_02",
    "attribute": "0x0000000000000000",
    "text": "{{anim id=\"Smiling\" target=\"actor\" targetSpec=\"\"}}J'faisais un tas d'crobards des\nbons p'tits plats d'mon paternel.{{delay20}}\nÇa l'rendait tell'ment jouasse !\n{{anim id=\"Explain\" target=\"actor\" targetSpec=\"\"}}Par contre, j'dessinais après avoir\navalé la tambouille, du coup c'était\nfait d'mémoire, {{string value=\"Catchphrase\"}}...\n{{anim id=\"Laughing\" target=\"actor\" targetSpec=\"\"}}Mais faire preuve de mémoire, c'est\nla moindre des choses pour rendre\nhommage à une nature morte !"
  },
  {
    "label": "002_03",
    "attribute": "0x0000000000000000",
    "text": "{{anim id=\"Explain\" target=\"actor\" targetSpec=\"\"}}J'arrive pas à croire qu'ils ont gardé\nces vieilles croûtes. {{delay20}}{{anim id=\"OhGeez\" target=\"actor\" targetSpec=\"\"}}Elles sont toutes\nplus moches les unes qu'les autres !\n{{anim id=\"Hesitate\" target=\"actor\" targetSpec=\"\"}}Bon, y avait bien un ou deux dessins\nun peu touchants. {{delay20}}{{anim id=\"Blushing\" target=\"actor\" targetSpec=\"\"}}Mais globalement,\nça piquait quand même les mirettes !"
  },
  {
    "label": "010",
    "attribute": "0x0000000100000009",
    "text": "{{fun_0014003C arg=\"\"}}"
  },
  {
    "label": "010_01",
    "attribute": "0x0000000000000000",
    "text": "{{anim id=\"Thinking\" target=\"actor\" targetSpec=\"\"}}Je m'demande comment ça roule\npour mes p'tits n'veux.{{delay20}} J'les vois\ntous les 36 du mois{{string value=\"...\"}}\n{{anim id=\"Love\" target=\"actor\" targetSpec=\"\"}}À chaque fois, ils s'jettent sur moi\navec leur p'tite bouille adorable en\ncriant :{{delay20}} « Tata {{string value=\"VillagerName\"}} ! »\n{{anim id=\"HappyFlower\" target=\"actor\" targetSpec=\"\"}}Ça m'fait fondre !{{delay20}} La prochaine fois,\nfaut qu'j'leur rapporte des {{string value=\"7\"}}{{string value=\"...\"}}\n{{anim id=\"Blushing\" target=\"actor\" targetSpec=\"\"}}et que j'boulotte pas tout en route."
  },
  {
    "label": "010_02",
    "attribute": "0x0000000000000000",
    "text": "{{anim id=\"Grin\" target=\"actor\" targetSpec=\"\"}}Paraîtrait qu'j'suis une cousine\néloignée d'un humoriste très connu,\n{{string value=\"Catchphrase\"}}.{{pageBreak}}{{anim id=\"Shocked\" target=\"actor\" targetSpec=\"\"}}Ça m'a coupé la chique !{{anim id=\"QuestionMark\" target=\"actor\" targetSpec=\"\"}} Tu crois\nqu'c'est un signe et que j'devrais\nmonter sur les planches ?\n{{anim id=\"Laughing\" target=\"actor\" targetSpec=\"\"}}Enfin, si c'est pour faire des vannes\naussi pourlingues que mon soi-disant\ncousin, autant rester chez moi !"
  },
  {
    "label": "010_03",
    "attribute": "0x0000000000000000",
    "text": "{{anim id=\"Restless\" target=\"actor\" targetSpec=\"\"}}J'ai une cousine qu'est prof. {{delay20}}Enfin,\non dit qu'c'est ma cousine. {{delay20}}Mais j'la\ntrouve un peu sérieuse, perso{{string value=\"...\"}}\n{{anim id=\"Thinking\" target=\"actor\" targetSpec=\"\"}}En tout cas, elle m'fait toujours\npenser à c'te prof au collège, qui\navait juré de m'faire marcher droit{{string value=\"...\"}}\n{{anim id=\"Laughing\" target=\"actor\" targetSpec=\"\"}}J'peux t'dire qu'si elle se coltine des\nélèves du même genre que moi, elle\nchôme pas, ma cousine !"
  },
  {
    "label": "020",
    "attribute": "0x0000000100000009",
    "text": "{{fun_0014003C arg=\"\"}}"
  },
  {
    "label": "020_01",
    "attribute": "0x0000000000000000",
    "text": "{{anim id=\"ShyBoy\" target=\"actor\" targetSpec=\"\"}}Si j'me balade dans une foire et\nque j'tombe sur un stand de tir,\non m'retient plus.{{delay20}} J'adore ça !\n{{anim id=\"Explain\" target=\"actor\" targetSpec=\"\"}}Je jouais souvent contre un{{gender8 m=\"\" f=\"e\" n=\"\"}} pote\nqui{{string value=\"...\"}} bah qui avait la même tête\n{{gender4 m=\"que \" f=\"qu'⁠\"}}{{string value=\"11\"}} !\n{{anim id=\"SmugFace\" target=\"actor\" targetSpec=\"\"}}J'lui mettais la pâtée, évidemment.{{delay20}}\nChuis une as de la gâchette, et {{gender8 m=\"lui\" f=\"elle\" n=\"\"}},{{delay8}}\n{{anim id=\"Laughing\" target=\"actor\" targetSpec=\"\"}}c'était un{{gender8 m=\"\" f=\"e\" n=\"\"}} naze de la gâchette !"
  },
  {
    "label": "020_02",
    "attribute": "0x0000000000000000",
    "text": "{{anim id=\"AbsentMindedness\" target=\"actor\" targetSpec=\"\"}}Quand j'étais gamine et qu'j'allais à\nla foire, j'cassais toujours les pattes\nd'mes parents pour avoir un masque.\n{{anim id=\"Smiling\" target=\"actor\" targetSpec=\"\"}}En général, ils m'envoyaient bouler,\nmais les rares fois où j'arrivais à les\nembobiner{{string value=\"...\"}}\n{{anim id=\"HappyFlower\" target=\"actor\" targetSpec=\"\"}}J'portais mon masque du matin\nau soir et j'cavalais dans toute la\nbaraque en braillant !\n{{anim id=\"Thinking\" target=\"actor\" targetSpec=\"\"}}J'me d'mande bien pourquoi ils\nvoulaient jamais m'en ach'ter,\non s'fendait tell'ment la poire{{string value=\"...\"}}"
  },
  {
    "label": "020_03",
    "attribute": "0x0000000000000000",
    "text": "{{anim id=\"Blushing\" target=\"actor\" targetSpec=\"\"}}J'ai un p'tit faible pour les barbes à\npapa, alors dès que j'passe à côté\nd'une foire{{string value=\"...\"}}\n{{anim id=\"Love\" target=\"actor\" targetSpec=\"\"}}J'me rue dans les allées, j'ouvre\ngrand mes narines et j'me gonfle le\npif de leur délicieux parfum sucré{{string value=\"...\"}}"
  },
  {
    "label": "030",
    "attribute": "0x0000000100000009",
    "text": "{{fun_0014003C arg=\"\"}}"
  },
  {
    "label": "030_01",
    "attribute": "0x0000000000000000",
    "text": "{{anim id=\"Hello\" target=\"actor\" targetSpec=\"\"}}T'as déjà fait des p'tits boulots pour\nte coller quelques clochettes dans\nles fouilles ?\n{{anim id=\"WrySmile\" target=\"actor\" targetSpec=\"\"}}Mes parents voulaient pas qu'je\ntaffe, mais moi, j'voulais rentrer des\nronds.{{delay20}} Alors j'ai insisté à ma façon.\n{{anim id=\"Explain\" target=\"actor\" targetSpec=\"\"}}J'ai demandé sur tous les tons :{{delay8}} en\ncriant, en chantant, en gribouillant\ndes p'tits dessins mignons{{string value=\"...\"}}\n{{anim id=\"Nodding\" target=\"actor\" targetSpec=\"\"}}J'leur ai même asséné une choré\nintitulée « Le grand ballet du p'tit\nboulot »{{string value=\"...\"}} {{anim id=\"Grin\" target=\"actor\" targetSpec=\"\"}}C'est là qu'ils ont craqué.\n{{anim id=\"Smiling\" target=\"actor\" targetSpec=\"\"}}J'ai tenu ce job pendant des mois et\ndes mois !{{delay20}} Mes darons en ouvraient\ndes billes grosses comme ça !"
  },
  {
    "label": "030_02",
    "attribute": "0x0000000000000000",
    "text": "{{anim id=\"Smiling\" target=\"actor\" targetSpec=\"\"}}À une époque, j'bossais dans une\nsalle d'arcade et un jour, j'vois\ndébarouler un gamin à casquette{{string value=\"...\"}}\n{{anim id=\"Explain\" target=\"actor\" targetSpec=\"\"}}J'fais pas plus gaffe que ça, mais v'là\nqu'cette demi-portion s'met à cramer\nmes chronos sur le jeu d'bagnole !\n{{anim id=\"Hesitate\" target=\"actor\" targetSpec=\"\"}}Du coup, j'garde un œil sur le môme,\net dès qu'il s'tire, j'me jette sur la\nborne pour reprendre mon hi-score.\n{{anim id=\"Nodding\" target=\"actor\" targetSpec=\"\"}}J'ai passé toute la journée à suer des\npattes sur les boutons, mais j'ai fini\npar décrocher l'meilleur temps. {{delay20}}{{anim id=\"EmotEnd\" target=\"actor\" targetSpec=\"\"}}Yes !\n{{anim id=\"EmotEnd\" target=\"actor\" targetSpec=\"\"}}Va savoir pourquoi, l'patron était pas\naussi jouasse que moi. {{delay20}}{{anim id=\"Negative\" target=\"actor\" targetSpec=\"\"}}L'vieux était\ntoujours ronchon, de toute façon."
  },
  {
    "label": "030_03",
    "attribute": "0x0000000000000000",
    "text": "{{anim id=\"FaintSmile\" target=\"actor\" targetSpec=\"\"}}Bricolage. {{anim id=\"EmotEnd\" target=\"actor\" targetSpec=\"\"}}Chaque fois qu'j'entends\nce mot, j'repense à l'époque où\nj'taffais dans cette boutique{{string value=\"...\"}}\n{{anim id=\"AbsentMindedness\" target=\"actor\" targetSpec=\"\"}}On vendait d'tout, des plantes vertes\naux outils en passant par le bois et\nl'métal.{{delay20}} J'te raconte pas l'fourbi{{string value=\"...\"}}\n{{anim id=\"Explain\" target=\"actor\" targetSpec=\"\"}}Bref, on avait un habitué qu'était\npas manchot. {{delay20}}Il bricolait des trucs\nà tomber par terre !\n{{anim id=\"Smiling\" target=\"actor\" targetSpec=\"\"}}Des fontaines monumentales, des\nmoulins fantasmagoriques{{string value=\"...\"}} C'était\nun artiste du marteau, c'type !\n{{anim id=\"Explain\" target=\"actor\" targetSpec=\"\"}}Dommage que tu puisses pas\nl'rencontrer{{string value=\"...\"}} {{anim id=\"Laughing\" target=\"actor\" targetSpec=\"\"}}Ce s'rait dev'nu\nune légende par ici."
  },
  {
    "label": "040",
    "attribute": "0x0000000100000009",
    "text": "{{fun_0014003C arg=\"\"}}"
  },
  {
    "label": "040_01",
    "attribute": "0x0000000000000000",
    "text": "{{anim id=\"Explain\" target=\"actor\" targetSpec=\"\"}}J'passais mon temps à m'bouffer\nl'nez avec mes darons{{string value=\"...\"}} J'gamberge\nsouvent là-dessus en c'moment.\n{{anim id=\"Restless\" target=\"actor\" targetSpec=\"\"}}Au fond, ils essayaient d'm'aider.{{delay20}}\nMais moi et ma tête de mule, on\nécoutait pas un mot, {{string value=\"6\"}}.\n{{anim id=\"Explain\" target=\"actor\" targetSpec=\"\"}}Quand j'y pense, ils avaient raison\nsur toute la ligne et même au-delà{{string value=\"...\"}}\n{{anim id=\"Nodding\" target=\"actor\" targetSpec=\"\"}}Faut que j'les appelle à l'occase."
  },
  {
    "label": "040_02",
    "attribute": "0x0000000000000000",
    "text": "{{anim id=\"AbsentMindedness\" target=\"actor\" targetSpec=\"\"}}Quand j'papote avec toi, que j'vois\nqu'on s'envoie des messages et pis\nqu'on s'offre des p'tits cadeaux...\n{{anim id=\"Explain\" target=\"actor\" targetSpec=\"\"}}Ça a l'air parfait'ment naturel, mais\nune amitié comme ça, c'est précieux.{{delay20}}\nEt surtout, ça s'entretient.\n{{anim id=\"Hesitate\" target=\"actor\" targetSpec=\"\"}}Alors ouvre bien tes feuilles de chou\nparc'que j'vais pas l'répéter tous les\nquatre matins, c'est trop gênant{{string value=\"...\"}}\n{{anim id=\"Blushing\" target=\"actor\" targetSpec=\"\"}}Merci pour tout, {{string value=\"NickName\"}}."
  },
  {
    "label": "040_03",
    "attribute": "0x0000000000000000",
    "text": "{{anim id=\"ShyBoy\" target=\"actor\" targetSpec=\"\"}}Avant, j'étais du genre{{string value=\"...\"}} trop rebelle\net dure à cuire pour minauder des\n« mercis » par paquets d'douze.\n{{anim id=\"Explain\" target=\"actor\" targetSpec=\"\"}}En fait, j'devais lutter comme une\nforcenée pour en éructer un seul,\nparce que j'étais{{string value=\"...\"}} rebelle, tu vois.\n{{anim id=\"WrySmile\" target=\"actor\" targetSpec=\"\"}}Mais en fait, j'étais surtout timide.{{delay20}}\nAvec le temps, j'ai fini par ouvrir mon\ncœur et j'suis contente de l'avoir fait.\n{{anim id=\"Nodding\" target=\"actor\" targetSpec=\"\"}}Un d'ces quatre, j'vais m'remuer la\ncouenne et j'irai dire « merci » à mes\ndarons. {{delay20}}{{anim id=\"Laughing\" target=\"actor\" targetSpec=\"\"}}Ils vont halluciner !"
  },
  {
    "label": "050",
    "attribute": "0x0000000100000009",
    "text": "{{fun_0014003C arg=\"\"}}"
  },
  {
    "label": "050_01",
    "attribute": "0x0000000000000000",
    "text": "{{anim id=\"Explain\" target=\"actor\" targetSpec=\"\"}}Chez mes darons, on est tombés sur\nune photo d'ma trisaïeule quand elle\nétait qu'un{{gender8 m=\"\" f=\"e\" n=\"\"}} p'tit{{gender8 m=\"\" f=\"e\" n=\"\"}} {{string value=\"VillagerRace\"}}.{{pageBreak}}{{anim id=\"Blushing\" target=\"actor\" targetSpec=\"\"}}C'était mon portrait tout craché !{{delay20}}{{anim id=\"FaintSmile\" target=\"actor\" targetSpec=\"\"}}\nJ'l'ai jamais connue, mais quelque\npart, ça nous a rapprochées{{string value=\"...\"}}"
  },
  {
    "label": "050_02",
    "attribute": "0x0000000000000000",
    "text": "{{anim id=\"Negative\" target=\"actor\" targetSpec=\"\"}}Quand j'tombe sur une photo d'moi\nquand j'étais môme, j'sais jamais\noù m'mettre{{string value=\"...\"}}\n{{anim id=\"Blushing\" target=\"actor\" targetSpec=\"\"}}Elles sont toutes pareilles. {{delay20}}À croire\nqu'j'avais qu'un seul sweat. {{delay20}}{{anim id=\"SadSpiral\" target=\"actor\" targetSpec=\"\"}}Et aussi\nqu'une seule mimique, d'ailleurs.\n{{anim id=\"AbsentMindedness\" target=\"actor\" targetSpec=\"\"}}Mais bon, ça reste fendard d'voir\nles vieux trucs qui traînent autour.{{delay20}}\nEt rien qu'pour ça, ça vaut l'coup."
  },
  {
    "label": "050_03",
    "attribute": "0x0000000000000000",
    "text": "{{anim id=\"Explain\" target=\"actor\" targetSpec=\"\"}}En faisant un bout d'ménage, chuis\ntombée sur une photo préhistorique.{{delay20}}\nJ'ai plus vu l'type depuis des siècles.\n{{anim id=\"AbsentMindedness\" target=\"actor\" targetSpec=\"\"}}J'me d'mande c'qu'il tripatouille. {{delay20}}Aux\ndernières nouvelles, il était batteur\ndes {{capitalizeNextLetter}}{{randomObj}}-Boys.\n{{anim id=\"Nodding\" target=\"actor\" targetSpec=\"\"}}J'aimerais bien l'rechoper, histoire\nd'causer du bon vieux temps{{string value=\"...\"}}{{anim id=\"FaintSmile\" target=\"actor\" targetSpec=\"\"}} Enfin,\nj'vais d'abord appeler son agent."
  },
  {
    "label": "060",
    "attribute": "0x0000000100000009",
    "text": "{{fun_0014003C arg=\"\"}}"
  },
  {
    "label": "060_01",
    "attribute": "0x0000000000000000",
    "text": "{{anim id=\"FaintSmile\" target=\"actor\" targetSpec=\"\"}}Des fois,{{delay8}} y a pas plus fendard\nque d'passer pour la nulle ultime,{{delay8}}\n{{string value=\"Catchphrase\"}}.{{pageBreak}}{{anim id=\"Blushing\" target=\"actor\" targetSpec=\"\"}}Mon premier groupe,{{delay8}} par exemple.\nOn faisait dans le heavy-metal et on\nétait à chialer,{{delay8}} genre irrécupérables.\n{{anim id=\"Smiling\" target=\"actor\" targetSpec=\"\"}}Du coup,{{delay8}} on passait notre temps sur\nscène à esquiver les tomates, {{delay8}}et tout\nl'monde s'payait notre poire.\n{{anim id=\"Nodding\" target=\"actor\" targetSpec=\"\"}}Mais on s'laissait pas démonter !{{delay20}}\nOn s'marrait comme des dindons{{delay8}}\net l'reste, on s'en balançait !\n{{anim id=\"BigSmile\" target=\"actor\" targetSpec=\"\"}}Moralité :{{delay8}} dans la vie, faut s'marrer\net laisser les autres déblatérer !"
  },
  {
    "label": "060_02",
    "attribute": "0x0000000000000000",
    "text": "{{anim id=\"Serious\" target=\"actor\" targetSpec=\"\"}}Tu veux que j'te raconte la leçon\nla plus douloureuse que j'ai apprise ?{{delay20}}\nFaut pas laisser tomber les potos.\n{{anim id=\"Explain\" target=\"actor\" targetSpec=\"\"}}Une de mes meilleures copines rêvait\nd'être actrice,{{delay8}} alors dès qu'elle a pu,{{delay8}}\nelle a foncé direction l'conservatoire.\n{{anim id=\"Worried\" target=\"actor\" targetSpec=\"\"}}Elle m'a suppliée de m'pointer à son\naudition pour la soutenir{{string value=\"...\"}} Et j'ai\npromis,{{delay8}} juré,{{delay8}} craché,{{delay8}} tout l'tintouin.\n{{anim id=\"Sighing\" target=\"actor\" targetSpec=\"\"}}Pis ça m'est sorti d'la caboche{{string value=\"...\"}}\n{{anim id=\"FaintSmile\" target=\"actor\" targetSpec=\"\"}}Et elle, elle a fait un carton{{string value=\"...\"}} La\nstanding ovècheune puissance max.\n{{anim id=\"Worried\" target=\"actor\" targetSpec=\"\"}}J'l'imagine souvent cavaler vers la\nloge pour qu'on fête ça et trouver\nqu'un sofa vide à la place de sa pote.{{pageBreak}}{{anim id=\"SadSpiral\" target=\"actor\" targetSpec=\"\"}}Ça a plus jamais été pareil après,{{delay8}} et\nj'ai un pincement au palpitant chaque\nfois que j'la vois à la téloche.\n{{anim id=\"OhGeez\" target=\"actor\" targetSpec=\"\"}}Alors crois-moi,{{delay8}} j'te baratine pas\nen t'disant ça : {{delay8}}faut pas laisser\ntomber les potos, {{string value=\"Catchphrase\"}}."
  },
  {
    "label": "060_03",
    "attribute": "0x0000000000000000",
    "text": "{{anim id=\"EmotEnd\" target=\"actor\" targetSpec=\"\"}}J'oublierai jamais la première fois\nqu'j'ai essayé d'choper un appart.{{delay20}}\n{{anim id=\"Eh\" target=\"actor\" targetSpec=\"\"}}J'te raconte pas la guerre qu'c'était !\n{{anim id=\"OhGeez\" target=\"actor\" targetSpec=\"\"}}Déjà,{{delay8}} j'ai mis des mois à trouver une\npiaule dont j'pouvais casquer l'loyer,{{delay8}}\nmais en plus,{{delay8}} on était 46 sur l'coup !\n{{anim id=\"WrySmile\" target=\"actor\" targetSpec=\"\"}}J'ai bien proposé d'laisser l'appart\nà celui qui s'rait l'plus calé en\n{{randomMusic}} ou en {{randomSports}}{{string value=\"...\"}}\n{{anim id=\"Sighing\" target=\"actor\" targetSpec=\"\"}}Mais ça a pas convaincu les foules et\nla piaule m'est passée sous l'pif. {{delay20}}{{anim id=\"ShyBoy\" target=\"actor\" targetSpec=\"\"}}J'ai\njuste réussi à faire marrer l'proprio."
  },
  {
    "label": "070",
    "attribute": "0x4700000100000009",
    "text": "{{anim id=\"Explain\" target=\"actor\" targetSpec=\"\"}}C'est bientôt l'anniv d'une super\npote à moi, {{delay20}}et j'ai d'mandé des\nconseils à son mioche{{string value=\"...\"}}{{delay8}}{{anim id=\"Sighing\" target=\"actor\" targetSpec=\"\"}} la cata{{string value=\"...\"}}"
  },
  {
    "label": "071",
    "attribute": "0x0000000000000000",
    "text": "{{fun_0014003C arg=\"\"}}"
  },
  {
    "label": "071_01",
    "attribute": "0x4800000000000000",
    "text": "{{anim id=\"EmotEnd\" target=\"actor\" targetSpec=\"\"}}Genre,{{delay8}} j'ai suggéré un bouquet\nd'fleurs,{{delay20}} {{anim id=\"Eh\" target=\"actor\" targetSpec=\"\"}}mais l'gamin m'a rappelé\nqu'sa vieille était fleuriste.{{pageBreak}}{{anim id=\"Worried\" target=\"actor\" targetSpec=\"\"}}Et pas n'importe quelle fleuriste.{{delay20}} Le\ngenre virtuose du pétale !{{delay20}} {{anim id=\"OhGeez\" target=\"actor\" targetSpec=\"\"}}Autant\noffrir une perruque à un coiffeur.{{pageBreak}}{{anim id=\"Blushing\" target=\"actor\" targetSpec=\"\"}}Va vraiment falloir que j'me fasse des\nfiches sur mes potes pour éviter\nc'genre de fiasco{{string value=\"...\"}} Pfff !"
  },
  {
    "label": "071_02",
    "attribute": "0x4800000000000000",
    "text": "{{anim id=\"Nodding\" target=\"actor\" targetSpec=\"\"}}J'me suis dit que j'pourrais lui offrir\ndes bons pour l'aider aux tâches\nménagères{{string value=\"...\"}}{{delay20}}{{pageBreak}}Et là, l'gamin m'dit qu'c'est super\nsympa d'être prête à me taper cinq\nheures d'avion pour passer l'aspiro !{{pageBreak}}{{anim id=\"WrySmile\" target=\"actor\" targetSpec=\"\"}}Vu sous cet angle,{{delay8}} j'ai laissé tomber\nc't'idée !"
  },
  {
    "label": "071_03",
    "attribute": "0x4800000000000000",
    "text": "{{anim id=\"Worried\" target=\"actor\" targetSpec=\"\"}}J'ai parlé d'lui écrire une lettre,{{delay8}}\nmais son gamin s'est payé ma\ntronche.{{pageBreak}}{{anim id=\"Angry\" target=\"actor\" targetSpec=\"\"}}Alors, limite furax,{{delay20}} j'ai dit qu'sa reum\npréférerait p'têt un collier d'nouilles,{{delay20}}{{anim id=\"OhGeez\" target=\"actor\" targetSpec=\"\"}}\net l'mioche s'est marré encore plus !"
  },
  {
    "label": "071_04",
    "attribute": "0x4800000000000000",
    "text": "{{anim id=\"Explain\" target=\"actor\" targetSpec=\"\"}}J'ai suggéré de préparer un bon\ndîner pour sa reum,{{delay8}} mais son mioche\nm'a rappelé la dernière fois{{string value=\"...\"}}{{pageBreak}}{{anim id=\"Serious\" target=\"actor\" targetSpec=\"\"}}Disons que{{string value=\"...\"}} {{anim id=\"Negative\" target=\"actor\" targetSpec=\"\"}}y z'ont eu d'la veine\nqu'la caserne des pompiers ait été\njuste à côté d'leur bicoque."
  },
  {
    "label": "072",
    "attribute": "0x0000000000000000",
    "text": "{{anim id=\"Worried\" target=\"actor\" targetSpec=\"\"}}L'gamin est plein d'bonne volonté,\nmais il m'aide pas des masses,\n{{string value=\"Catchphrase\"}}.{{pageBreak}}{{anim id=\"Confused\" target=\"actor\" targetSpec=\"\"}}Y doit y avoir {{wordArticle}}{{string value=\"VillagerRace\"}} dans les parages qui puisse me conseiller un poil mieux{{string value=\"...\"}}{{anim id=\"Frantic\" target=\"actor\" targetSpec=\"\"}} Nan ?"
  }
]