﻿[
  {
    "label": "001",
    "text": "{{gender2 m=\"Sehr geehrter\" f=\"Sehr geehrte\"}} {{string value=\"NickName\"}}!"
  },
  {
    "label": "002",
    "text": "{{gender2 m=\"Lieber\" f=\"Liebe\"}} {{string value=\"NickName\"}}!"
  },
  {
    "label": "003",
    "text": "An: {{string value=\"NickName\"}}"
  },
  {
    "label": "004",
    "text": "Empfänger: {{string value=\"NickName\"}}"
  },
  {
    "label": "005",
    "text": "Hallo, {{string value=\"NickName\"}}!"
  },
  {
    "label": "401",
    "text": "Deine {{string value=\"VillagerName\"}}"
  },
  {
    "label": "402",
    "text": "–{{string value=\"VillagerName\"}}"
  },
  {
    "label": "403",
    "text": "Absender: {{string value=\"VillagerName\"}}"
  },
  {
    "label": "404",
    "text": "Viele Grüße, {{string value=\"VillagerName\"}}"
  },
  {
    "label": "405",
    "text": "MfG, {{string value=\"VillagerName\"}}"
  }
]