﻿[
  {
    "label": "001",
    "attribute": "0x0000000000000000",
    "text": "{{anim id=\"Eh\" target=\"actor\" targetSpec=\"\"}}Dis, tu es au courant?\n{{anim id=\"Worried\" target=\"actor\" targetSpec=\"\"}}C'est {{selection value=\"SelectedVillager\"}}, {{gender3 m=\"il\" f=\"elle\"}} ne se sent pas bien.{{pageBreak}}{{anim id=\"Hesitate\" target=\"actor\" targetSpec=\"\"}}Si jamais tu as un moment,\n{{anim id=\"FaintSmile\" target=\"actor\" targetSpec=\"\"}}est-ce que tu pourrais passer\n{{gender3 m=\"le\" f=\"la\"}} voir?"
  },
  {
    "label": "002",
    "attribute": "0x0000000000000000",
    "text": "{{anim id=\"Worried\" target=\"actor\" targetSpec=\"\"}}Il paraît {{gender4 m=\"que \" f=\"qu'\"}}⁠{{selection value=\"SelectedVillager\"}} est cloué{{gender3 m=\"\" f=\"e\"}} au lit.{{pageBreak}}{{anim id=\"Hesitate\" target=\"actor\" targetSpec=\"\"}}Tu crois que tu aurais le temps de\npasser chez {{gender3 m=\"lui\" f=\"elle\"}}, pour voir {{gender3 m=\"s'il\" f=\"si elle\"}} a\nbesoin de quelque chose?"
  },
  {
    "label": "003",
    "attribute": "0x0000000000000000",
    "text": "{{anim id=\"Worried\" target=\"actor\" targetSpec=\"\"}}On t'a dit pour {{selection value=\"SelectedVillager\"}}?{{delay8}}\n{{gender3 m=\"Il\" f=\"Elle\"}} est malade et ne sort même\nplus de chez {{gender3 m=\"lui\" f=\"elle\"}}.\nJe m'en veux de pas être passée {{gender3 m=\"le\" f=\"la\"}}\nvoir plus tôt... {{anim id=\"Hesitate\" target=\"actor\" targetSpec=\"\"}}Tu ne voudrais pas\ny aller, toi?\n{{anim id=\"Nodding\" target=\"actor\" targetSpec=\"\"}}Ça me rassurerait que quelqu'un\nlui rende visite.{{anim id=\"EmotEnd\" target=\"actor\" targetSpec=\"\"}}"
  }
]