﻿[
  {
    "label": "001",
    "attribute": "0x6500000000000000",
    "text": "{{anim id=\"SmugFace\" target=\"actor\" targetSpec=\"\"}}Лично я считаю {{fun_00170032 arg=\"0x01CD\"}}{{string value=\"18\"}}\nподготовкой к предстоящей\nнеделе.{{delay20}}{{pageBreak}}{{anim id=\"Grin\" target=\"actor\" targetSpec=\"\"}}Для меня это еще не настоящий\nбудний день, как, скажем, четверг."
  },
  {
    "label": "002",
    "attribute": "0x6600000000000000",
    "text": "{{anim id=\"OhGeez\" target=\"actor\" targetSpec=\"\"}}Что, еще только {{string value=\"18\"}}?!{{delay20}}\nДо выходных так долго...{{delay8}} {{delay20}}{{anim id=\"EmotEnd\" target=\"actor\" targetSpec=\"\"}}А ведь\nэто главные дни недели!"
  },
  {
    "label": "003",
    "attribute": "0x6700000000000000",
    "text": "{{anim id=\"Thinking\" target=\"actor\" targetSpec=\"\"}}Я задумался о реальных нуждах\nострова {{string value=\"OtherIslandName\"}}. {{delay frames=\"40\"}}{{anim id=\"Nodding\" target=\"actor\" targetSpec=\"\"}}Нам\nнужна тематическая вечеринка!{{pageBreak}}{{anim id=\"ShyBoy\" target=\"actor\" targetSpec=\"\"}}Назовем ее{{string value=\"...\"}}{{delay20}} {{anim id=\"EmotEnd\" target=\"actor\" targetSpec=\"\"}}«Вечер стиля от\n{{fun_00170032 arg=\"0x03CD\"}}{{string value=\"VillagerName\"}}»!"
  },
  {
    "label": "004",
    "attribute": "0x6800000000000000",
    "text": "{{anim id=\"Shocked\" target=\"actor\" targetSpec=\"\"}}Ничего себе, уже {{string value=\"18\"}}?!{{delay frames=\"40\"}}\n{{anim id=\"Confused\" target=\"actor\" targetSpec=\"\"}}{{capitalizeNextLetter}}{{string value=\"18\"}} определенно не\nмой день недели{{string value=\"...\"}}"
  },
  {
    "label": "005",
    "attribute": "0x6900000000000000",
    "text": "{{anim id=\"SmugFace\" target=\"actor\" targetSpec=\"\"}}А вот и пятница!"
  },
  {
    "label": "006",
    "attribute": "0x6A00000000000000",
    "text": "{{anim id=\"Aha\" target=\"actor\" targetSpec=\"\"}}Салют!{{delay20}} А вот и {{string value=\"18\"}}!\n{{delay20}}{{anim id=\"QuestionMark\" target=\"actor\" targetSpec=\"\"}}Чем будешь заниматься в уик-энд?"
  },
  {
    "label": "007",
    "attribute": "0x6B00000000000000",
    "text": "{{anim id=\"QuestionMark\" target=\"actor\" targetSpec=\"\"}}Знаешь, какой сегодня день?\n{{delay frames=\"40\"}}Воскресенье!{{i10_4}} {{anim id=\"WrySmile\" target=\"actor\" targetSpec=\"\"}}А знаешь, почему\nя люблю воскресенье?"
  },
  {
    "label": "101",
    "attribute": "0x0000000000000000",
    "text": "{{fun_0014003C arg=\"\"}}"
  },
  {
    "label": "101_01",
    "attribute": "0x0000000000000000",
    "text": "{{anim id=\"WrySmile\" target=\"actor\" targetSpec=\"\"}}На практике это означает, что\nя оставляю свои лучшие задумки\nна последующие дни.{{pageBreak}}{{anim id=\"OhGeez\" target=\"actor\" targetSpec=\"\"}}{{capitalizeNextLetter}}{{string value=\"VillagerName\"}} не разбрасывается\nпо понедельникам тем, что\nзаготовлено на среду!"
  },
  {
    "label": "101_02",
    "attribute": "0x0000000000000000",
    "text": "{{anim id=\"Explain\" target=\"actor\" targetSpec=\"\"}}Например, сейчас я работаю над\nодной вещицей из курса «Сделай\nсам». Пока что она ужасна{{string value=\"...\"}}{{pageBreak}}{{anim id=\"EmotEnd\" target=\"actor\" targetSpec=\"\"}}Но подожди до пятницы! {{anim id=\"OhGeez\" target=\"actor\" targetSpec=\"\"}}Возможно,\nона по-прежнему будет ужасна, но\nзато я обклею ее блестками!{{delay20}}{{anim id=\"Laughing\" target=\"actor\" targetSpec=\"\"}} Хо-хо!"
  },
  {
    "label": "101_03",
    "attribute": "0x0000000000000000",
    "text": "{{anim id=\"WrySmile\" target=\"actor\" targetSpec=\"\"}}Вообще говоря, {{delay20}}я и так уже сказал\nслишком много важного для дня,\nкоторый я и днем-то не считаю{{string value=\"...\"}}"
  },
  {
    "label": "102",
    "attribute": "0x0000000000000000",
    "text": "{{fun_0014003C arg=\"\"}}"
  },
  {
    "label": "102_01",
    "attribute": "0x0000000000000000",
    "text": "{{anim id=\"Restless\" target=\"actor\" targetSpec=\"\"}}Я, пожалуй, прилягу и съем\n{{fun_00170032 arg=\"0x03CD\"}}{{randomFood}}. {{delay20}}Наберешь меня,\nкогда неделя закончится, окей?"
  },
  {
    "label": "102_02",
    "attribute": "0x0000000000000000",
    "text": "{{anim id=\"Smiling\" target=\"actor\" targetSpec=\"\"}}Я как раз хотел кое-что почитать.\nХорошо, что времени еще\nпредостаточно.{{pageBreak}}{{anim id=\"AbsentMindedness\" target=\"actor\" targetSpec=\"\"}}Налью себе {{fun_00170032 arg=\"0x03CD\"}}{{randomDrink}}\nи завернусь в одеяло с книгой\n«{{randomBook}}»."
  },
  {
    "label": "102_03",
    "attribute": "0x0000000000000000",
    "text": "{{anim id=\"Serious\" target=\"actor\" targetSpec=\"\"}}Важный урок жизни{{string value=\"...\"}} Если нервы\nна пределе, необязательно ждать\nвыходных, чтобы расслабиться.{{pageBreak}}{{anim id=\"HappyDance\" target=\"actor\" targetSpec=\"\"}}Включи {{fun_00170032 arg=\"0x01CD\"}}{{randomMusic}} погромче\nи пожуй {{fun_00170032 arg=\"0x03CD\"}}{{randomSweets}}!"
  },
  {
    "label": "103",
    "attribute": "0x0000000000000000",
    "text": "{{fun_0014003C arg=\"\"}}"
  },
  {
    "label": "103_01",
    "attribute": "0x0000000000000000",
    "text": "{{anim id=\"Nodding\" target=\"actor\" targetSpec=\"\"}}Я бы всем объяснил, как выглядеть\nстильно, но непринужденно.{{delay20}}{{pageBreak}}{{anim id=\"OhGeez\" target=\"actor\" targetSpec=\"\"}}Я мог бы даже провести имиджевый\nсеминар от {{fun_00170032 arg=\"0x03CD\"}}{{string value=\"VillagerName\"}}.{{pageBreak}}{{anim id=\"Grin\" target=\"actor\" targetSpec=\"\"}}Явка по желанию —{{delay frames=\"40\"}}{{anim id=\"EmotEnd\" target=\"actor\" targetSpec=\"\"}} стиль по\nумолчанию!"
  },
  {
    "label": "103_02",
    "attribute": "0x0000000000000000",
    "text": "{{anim id=\"Hesitate\" target=\"actor\" targetSpec=\"\"}}Я, в принципе, не намекаю, что\nу нас тут плохо одеваются{{string value=\"...\"}}{{pageBreak}}{{anim id=\"SmugFace\" target=\"actor\" targetSpec=\"\"}}Этому острову просто немного\nне хватает фирменного стиля\n{{fun_00170032 arg=\"0x03CD\"}}{{string value=\"VillagerName\"}}... {{capitalizeNextLetter}}{{string value=\"Catchphrase\"}}!"
  },
  {
    "label": "103_03",
    "attribute": "0x0000000000000000",
    "text": "{{anim id=\"Explain\" target=\"actor\" targetSpec=\"\"}}Не пойми меня неправильно, на\nострове {{string value=\"OtherIslandName\"}} и так\nвесьма стильно одеваются.{{pageBreak}}{{anim id=\"WrySmile\" target=\"actor\" targetSpec=\"\"}}Просто еще не на уровне\n{{fun_00170032 arg=\"0x03CD\"}}{{string value=\"VillagerName\"}}{{string value=\"...\"}}"
  },
  {
    "label": "104",
    "attribute": "0x0000000000000000",
    "text": "{{fun_0014003C arg=\"\"}}"
  },
  {
    "label": "104_01",
    "attribute": "0x0000000000000000",
    "text": "{{anim id=\"Sighing\" target=\"actor\" targetSpec=\"\"}}Ну, знаешь{{string value=\"...\"}} Уик-энд еще далеко,\nно при этом кажется, что неделя\nтянется уже целую вечность...{{pageBreak}}{{anim id=\"WrySmile\" target=\"actor\" targetSpec=\"\"}}Думаю, мне нужен дополнительный\nуик-энд в середине недели."
  },
  {
    "label": "104_02",
    "attribute": "0x0000000000000000",
    "text": "{{anim id=\"Worried\" target=\"actor\" targetSpec=\"\"}}Наверное, я слишком увлекся\nзанятиями по {{fun_00170032 arg=\"0x02CD\"}}{{randomSports}}.{{delay20}}\n{{anim id=\"Shocked\" target=\"actor\" targetSpec=\"\"}}Оказывается, это, вообще-то, спорт!"
  },
  {
    "label": "104_03",
    "attribute": "0x0000000000000000",
    "text": "{{anim id=\"AbsentMindedness\" target=\"actor\" targetSpec=\"\"}}Мне надо расслабиться и послушать\n{{fun_00170032 arg=\"0x01CD\"}}{{randomMusic}}... Подзарядить\nбатареи, так сказать."
  },
  {
    "label": "105",
    "attribute": "0x0000000000000000",
    "text": "{{fun_0014003C arg=\"\"}}"
  },
  {
    "label": "105_01",
    "attribute": "0x0000000000000000",
    "text": "{{anim id=\"EmotEnd\" target=\"actor\" targetSpec=\"\"}}Я всегда так жду пятницы...{{i10_4}}\n{{anim id=\"Thinking\" target=\"actor\" targetSpec=\"\"}}Как будто я работаю по будням\nили что-то в этом роде{{string value=\"...\"}}"
  },
  {
    "label": "105_02",
    "attribute": "0x0000000000000000",
    "text": "{{anim id=\"AbsentMindedness\" target=\"actor\" targetSpec=\"\"}}Неделя подходит к концу, а это\nозначает, что пора расслабиться\nи выпить {{fun_00170032 arg=\"0x03CD\"}}{{randomDrink}}{{string value=\"...\"}}"
  },
  {
    "label": "105_03",
    "attribute": "0x0000000000000000",
    "text": "{{anim id=\"Serious\" target=\"actor\" targetSpec=\"\"}}Ты же знаешь, что это означает?{{delay frames=\"40\"}}\n{{anim id=\"EmotEnd\" target=\"actor\" targetSpec=\"\"}}Вечеринка на весь остров!{{i10_4}}\n{{anim id=\"Silent\" target=\"actor\" targetSpec=\"\"}}Что? {{delay8}}Ты не любишь танцевать?{{pageBreak}}{{anim id=\"OhGeez\" target=\"actor\" targetSpec=\"\"}}Ну, как хочешь! А {{delay20}}{{anim id=\"Dance\" target=\"actor\" targetSpec=\"\"}}{{string value=\"VillagerName\"}}\nпустится в пляс!"
  },
  {
    "label": "106",
    "attribute": "0x0000000000000000",
    "text": "{{fun_000C003C arg=\"0xC900CA00\"}}"
  },
  {
    "label": "107",
    "attribute": "0x0000000000000000",
    "text": "{{fun_000C003C arg=\"0xCB00CC00\"}}"
  },
  {
    "label": "201",
    "attribute": "0x0000000000000000",
    "text": "{{anim id=\"AbsentMindedness\" target=\"actor\" targetSpec=\"\"}}Лично я люблю просто отдыхать:\n{{randomHobby}} или устраивать\nзанятия по {{fun_00170032 arg=\"0x02CD\"}}{{randomSports}}{{string value=\"...\"}}{{pageBreak}}{{anim id=\"Laughing\" target=\"actor\" targetSpec=\"\"}}Хо-хо! {{delay20}}Да шучу я.{{delay20}} {{anim id=\"WrySmile\" target=\"actor\" targetSpec=\"\"}}Наверняка снова\nбуду делать селфи все выходные!\n{{capitalizeNextLetter}}{{string value=\"Catchphrase\"}}!"
  },
  {
    "label": "202",
    "attribute": "0x0000000000000000",
    "text": "{{anim id=\"AbsentMindedness\" target=\"actor\" targetSpec=\"\"}}Лично я люблю просто отдыхать:\n{{randomHobby}} или устраивать\nзанятия по {{fun_00170032 arg=\"0x02CD\"}}{{randomSports}}{{string value=\"...\"}}{{pageBreak}}{{anim id=\"Laughing\" target=\"actor\" targetSpec=\"\"}}Хо-хо! {{delay20}}Да шучу я.{{delay20}} {{anim id=\"WrySmile\" target=\"actor\" targetSpec=\"\"}}Наверняка снова\nбуду делать селфи все выходные!\n{{capitalizeNextLetter}}{{string value=\"Catchphrase\"}}!"
  },
  {
    "label": "203",
    "attribute": "0x0000000000000000",
    "text": "{{anim id=\"Cheering\" target=\"actor\" targetSpec=\"\"}}Ведь по воскресеньям можно\nничего не делать! {{delay20}}Впрочем, как\nи в любой другой день недели{{string value=\"...\"}}{{delay20}}{{pageBreak}}{{anim id=\"EmotEnd\" target=\"actor\" targetSpec=\"\"}}Но только если ты {{string value=\"VillagerName\"}}!"
  },
  {
    "label": "204",
    "attribute": "0x0000000000000000",
    "text": "{{anim id=\"Cheering\" target=\"actor\" targetSpec=\"\"}}Ведь по воскресеньям можно\nничего не делать! {{delay20}}Впрочем, как\nи в любой другой день недели{{string value=\"...\"}}{{delay20}}{{pageBreak}}{{anim id=\"EmotEnd\" target=\"actor\" targetSpec=\"\"}}Но только если ты {{string value=\"VillagerName\"}}!"
  }
]