﻿[
  {
    "label": "001",
    "attribute": "0x0000000000000000",
    "text": "{{anim id=\"OhGeez\" target=\"actor\" targetSpec=\"\"}}Cosa avevi in mente?! {{delay20}}Se doveva\nessere uno scherzo, {{delay8}}non fa ridere\nper niente!\n{{anim id=\"Serious\" target=\"actor\" targetSpec=\"\"}}Voglio credere che tu ti sia fatt{{gender2 m=\"o\" f=\"a\"}}\nprendere dall'enfasi del momento,{{delay8}}\nma la prossima volta rifletti! {{delay20}}{{anim id=\"Negative\" target=\"actor\" targetSpec=\"\"}}Uffa!"
  },
  {
    "label": "002",
    "attribute": "0x0000000000000000",
    "text": "{{anim id=\"Surprised\" target=\"actor\" targetSpec=\"\"}}Ahia! {{delay20}}Ma cosa hai che non va?!\n{{delay20}}Non sono dell'umore giusto per\ncerti scherzi! {{delay20}}Capito?\n{{anim id=\"Fuming\" target=\"actor\" targetSpec=\"\"}}Ne ho abbastanza di te. {{delay20}}Lasciami\nin pace, {{delay8}}se non vuoi farmi arrabbiare\ndavvero, {{string value=\"6\"}}!{{anim id=\"EmotEnd\" target=\"actor\" targetSpec=\"\"}}"
  },
  {
    "label": "003",
    "attribute": "0x0000000000000000",
    "text": "{{anim id=\"Outraged\" target=\"actor\" targetSpec=\"\"}}Stai cercando di attaccare briga?!\n{{delay frames=\"40\"}}{{anim id=\"Angry\" target=\"actor\" targetSpec=\"\"}}Ti do un consiglio: {{delay8}}se provi ancora\na colpirmi, {{delay8}}preparati a incassare!{{anim id=\"EmotEnd\" target=\"actor\" targetSpec=\"\"}}"
  },
  {
    "label": "004",
    "attribute": "0x0000000000000000",
    "text": "{{anim id=\"Outraged\" target=\"actor\" targetSpec=\"\"}}Che ti è preso?! {{delay20}}Chi ti ha insegnato\na comportarti così, {{string value=\"Catchphrase\"}}?!{{pageBreak}}{{anim id=\"Serious\" target=\"actor\" targetSpec=\"\"}}Fare gli occhi dolci con me non\nti aiuterà. {{delay20}}{{anim id=\"Angry\" target=\"actor\" targetSpec=\"\"}}Sfiorami ancora e avrai\nuna sorpresa che non ti piacerà!{{anim id=\"EmotEnd\" target=\"actor\" targetSpec=\"\"}}"
  },
  {
    "label": "005",
    "attribute": "0x0000000000000000",
    "text": "{{anim id=\"Worried\" target=\"actor\" targetSpec=\"\"}}Ma... {{delay20}}ehi! {{delay20}}Fai attenzione!{{anim id=\"EmotEnd\" target=\"actor\" targetSpec=\"\"}}"
  },
  {
    "label": "006",
    "attribute": "0x0000000000000000",
    "text": "{{anim id=\"Serious\" target=\"actor\" targetSpec=\"\"}}Insomma, vuoi smetterla di andare\nin giro a infastidire gli altri?"
  }
]