﻿[
  {
    "label": "001",
    "attribute": "0x0200000100000009",
    "text": "{{anim id=\"Explain\" target=\"actor\" targetSpec=\"\"}}El otro día, {{delay8}}mientras paseaba,{{delay8}}\nme encontré con un objeto perdido."
  },
  {
    "label": "002",
    "attribute": "0x0000000000000000",
    "text": "{{fun_0001003C arg=\"0x030004000800\"}}"
  },
  {
    "label": "003",
    "attribute": "0x0000000000000000",
    "text": "{{anim id=\"Worried\" target=\"actor\" targetSpec=\"\"}}¡Era un guante!{{delay20}} Busqué por todas\npartes,{{delay8}} pero no encontré la pareja.{{pageBreak}}{{anim id=\"Frantic\" target=\"actor\" targetSpec=\"\"}}No puedo dormir pensando\nen cómo se sentirá el propietario\nsin el guante que le falta.\n{{anim id=\"Negative\" target=\"actor\" targetSpec=\"\"}}¡Por eso no descansaré hasta que\nse lo devuelva,{{delay8}} {{string value=\"Catchphrase\"}}!"
  },
  {
    "label": "004",
    "attribute": "0x0500000000000000",
    "text": "Era el diario personal de alguien,{{delay8}}{{anim id=\"Negative\" target=\"actor\" targetSpec=\"\"}}\npero no tenía un nombre en la\npasta que identificara a su dueño."
  },
  {
    "label": "005",
    "attribute": "0x0000000000000000",
    "text": "{{fun_0000003C arg=\"0x06000700\"}}"
  },
  {
    "label": "006",
    "attribute": "0x0000000000000000",
    "text": "{{anim id=\"Worried\" target=\"actor\" targetSpec=\"\"}}La única forma para descubrir de\nquién era fue leerlo{{string value=\"...\"}} Me sentí un\npoco mal por tener que hacer eso.\n{{anim id=\"FaintSmile\" target=\"actor\" targetSpec=\"\"}}¡Pero logré devolverlo!{{pageBreak}}{{anim id=\"Serious\" target=\"actor\" targetSpec=\"\"}}Desde ese entonces, le pongo una\netiqueta con mi nombre a todos mis\ndiarios,{{delay8}} {{string value=\"Catchphrase\"}}."
  },
  {
    "label": "007",
    "attribute": "0x0000000000000000",
    "text": "{{anim id=\"Hesitate\" target=\"actor\" targetSpec=\"\"}}No me quedó de otra más que revisar\nel contenido, {{string value=\"Catchphrase\"}}{{string value=\"...\"}}{{pageBreak}}{{anim id=\"Explain\" target=\"actor\" targetSpec=\"\"}}Yo sé que eso no se hace, pero fue\npor una buena causa.{{pageBreak}}{{anim id=\"Worried\" target=\"actor\" targetSpec=\"\"}}Aunque{{string value=\"...\"}} bueno, te voy a confesar\nalgo porque no puedo con la culpa.{{delay20}}\n¡Prométeme que no le dirás a nadie!\n{{anim id=\"Silent\" target=\"actor\" targetSpec=\"\"}}Tal vez lo leí todo{{string value=\"...\"}} aun después\nde saber quién era el dueño."
  },
  {
    "label": "008",
    "attribute": "0x0000000000000000",
    "text": "{{anim id=\"FaintSmile\" target=\"actor\" targetSpec=\"\"}}Era la copia de un libro que\nme encantó cuando lo leí:{{delay8}}\n\"{{randomBook}}\".\n{{anim id=\"HappyFlower\" target=\"actor\" targetSpec=\"\"}}Ojalá encuentre a su propietario\ny podamos comentarlo tomando\nuna taza de té.{{delay20}} ¡Sería fantástico!"
  },
  {
    "label": "009",
    "attribute": "0x0000000100000009",
    "text": "{{fun_0000003C arg=\"0x0A000F00\"}}"
  },
  {
    "label": "010",
    "attribute": "0x0B00000000000000",
    "text": "{{anim id=\"FaintSmile\" target=\"actor\" targetSpec=\"\"}}Tengo cosas en casa que nunca\nhe usado pero que no puedo dejar\nir por el fuerte apego que les tengo."
  },
  {
    "label": "011",
    "attribute": "0x0000000000000000",
    "text": "{{fun_0001003C arg=\"0x0C000D000E00\"}}"
  },
  {
    "label": "012",
    "attribute": "0x0000000000000000",
    "text": "{{anim id=\"Hesitate\" target=\"actor\" targetSpec=\"\"}}Sobre todo bolígrafos. {{delay20}}Cuando veo\nuno que me gusta,{{delay8}} no puedo evitar\ncomprármelo, {{string value=\"Catchphrase\"}}.\n{{anim id=\"FaintSmile\" target=\"actor\" targetSpec=\"\"}}Me siento más inspirada a escribir\ncon un bolígrafo que me gusta.{{pageBreak}}{{anim id=\"HappyFlower\" target=\"actor\" targetSpec=\"\"}}¿No es maravilloso que algo tan\nsencillo dé tanta felicidad?"
  },
  {
    "label": "013",
    "attribute": "0x0000000000000000",
    "text": "{{anim id=\"FaintSmile\" target=\"actor\" targetSpec=\"\"}}Por ejemplo,{{delay8}} mis peluches{{string value=\"...\"}}{{pageBreak}}{{anim id=\"Explain\" target=\"actor\" targetSpec=\"\"}}Es que la mayoría han sido regalos\ny me recuerdan el cariño con el que\nme los dieron.\nAdemás de que son muy suaves\ny esponjosos{{string value=\"...\"}} {{anim id=\"Thinking\" target=\"actor\" targetSpec=\"\"}}bueno, no todos.{{pageBreak}}{{anim id=\"ShyBoy\" target=\"actor\" targetSpec=\"\"}}La verdad es que unos ya están\nun poco rotos{{string value=\"...\"}} {{anim id=\"Sighing\" target=\"actor\" targetSpec=\"\"}}como mi peluche\nde pingüino al que se le cayó el ojo."
  },
  {
    "label": "014",
    "attribute": "0x0000000000000000",
    "text": "{{anim id=\"Explain\" target=\"actor\" targetSpec=\"\"}}Como los boletos de cine de todas\nlas funciones a las que fui con\n{{string value=\"11\"}}.\n{{anim id=\"FaintSmile\" target=\"actor\" targetSpec=\"\"}}Dijimos que los guardaríamos, pero\ncreo que {{gender8 m=\"él\" f=\"ella\" n=\"\"}} dejó de guardar los\nsuyos a partir de la quinta vez.\n{{anim id=\"AbsentMindedness\" target=\"actor\" targetSpec=\"\"}}Yo ya tengo tres cajas de zapatos\nllenas de boletitos{{string value=\"...\"}}{{pageBreak}}{{anim id=\"ShyBoy\" target=\"actor\" targetSpec=\"\"}}Supongo que debo leer algún libro\nque me ayude a desprenderme\nde ellos."
  },
  {
    "label": "015",
    "attribute": "0x6500000000000000",
    "text": "{{anim id=\"FaintSmile\" target=\"actor\" targetSpec=\"\"}}Últimamente me he aficionado\nmucho al té."
  },
  {
    "label": "016",
    "attribute": "0x0000000000000000",
    "text": "{{anim id=\"Nodding\" target=\"actor\" targetSpec=\"\"}}Leí en un artículo que el té tiene\npropiedades especiales según\nel tipo.\n{{anim id=\"Explain\" target=\"actor\" targetSpec=\"\"}}Yo la única propiedad que he\ncomprobado es que aumenta mi\nconcentración{{string value=\"...\"}}\n{{anim id=\"FaintSmile\" target=\"actor\" targetSpec=\"\"}}Sí,{{delay8}} como suelo acompañarlo con\ngalletitas,{{delay8}} me concentro para evitar\nque se deshagan cuando las remojo."
  },
  {
    "label": "017",
    "attribute": "0x0000000000000000",
    "text": "{{anim id=\"FaintSmile\" target=\"actor\" targetSpec=\"\"}}¡Es una buena forma de relajarse!{{delay20}}\n¿Has probado el té con leche?{{delay20}} Si no,\n{{anim id=\"Hello\" target=\"actor\" targetSpec=\"\"}}te recomiendo el de manzanilla.\n{{anim id=\"Love\" target=\"actor\" targetSpec=\"\"}}Tiene un sabor dulce y un aroma\nfloral delicioso. {{anim id=\"FaintSmile\" target=\"actor\" targetSpec=\"\"}}Yo me lo tomo en la\nnoche, es ideal para terminar el día."
  },
  {
    "label": "018",
    "attribute": "0x0000000000000000",
    "text": "{{anim id=\"FaintSmile\" target=\"actor\" targetSpec=\"\"}}Uno de mis tés favoritos son esos\nque son fríos y tienen bolitas\nde tapioca.\n{{anim id=\"AbsentMindedness\" target=\"actor\" targetSpec=\"\"}}Son muy refrescantes y deliciosos{{string value=\"...\"}}{{pageBreak}}{{anim id=\"FaintSmile\" target=\"actor\" targetSpec=\"\"}}Me gusta disfrutarlo en días soleados\nmientras doy una caminata y abrazo\nárboles."
  },
  {
    "label": "019",
    "attribute": "0x6600000100000009",
    "text": "No sé tú, {{delay8}}{{anim id=\"Nodding\" target=\"actor\" targetSpec=\"\"}}pero yo aprendo algo\nmucho más rápido cuando me\nsiento motivada.\n{{anim id=\"FaintSmile\" target=\"actor\" targetSpec=\"\"}}Y últimamente me siento muy\nmotivada{{string value=\"...\"}} ¡Quizá sea un buen\nmomento de aprender algo!"
  },
  {
    "label": "020",
    "attribute": "0x0000000000000000",
    "text": "{{anim id=\"FaintSmile\" target=\"actor\" targetSpec=\"\"}}Me encanta escribir cartas y tarjetas\na mis amigos y quiero aprender\na hacerlo como es debido.\n{{anim id=\"Explain\" target=\"actor\" targetSpec=\"\"}}Hay talleres en los que te enseñan\na elegir todos los elementos según\nla personalidad del destinatario.\n{{anim id=\"FaintSmile\" target=\"actor\" targetSpec=\"\"}}Es una lástima que la costumbre\nse esté perdiendo."
  },
  {
    "label": "021",
    "attribute": "0x0000000000000000",
    "text": "{{anim id=\"BigSmile\" target=\"actor\" targetSpec=\"\"}}Quiero aprender el bello arte de la\ncaligrafía con pincel, {{string value=\"Catchphrase\"}}.{{pageBreak}}{{anim id=\"Explain\" target=\"actor\" targetSpec=\"\"}}Es una disciplina antigua que\nrequiere mucha práctica y\nconcentración.\n{{anim id=\"FaintSmile\" target=\"actor\" targetSpec=\"\"}}Además dicen que si lo haces justo\nantes de meditar, la meditación será\nmás profunda y positiva."
  },
  {
    "label": "022",
    "attribute": "0x0000000000000000",
    "text": "{{anim id=\"Nodding\" target=\"actor\" targetSpec=\"\"}}No tengo problema en preparar\npostres,{{delay8}} pero yo no sé qué tienen\nlos platillos salados{{string value=\"...\"}}\n{{anim id=\"BrokenHeart\" target=\"actor\" targetSpec=\"\"}}¡No me sale nada de nada!{{pageBreak}}{{anim id=\"Explain\" target=\"actor\" targetSpec=\"\"}}Lo único que sé hacer bien son\nlos sándwiches{{string value=\"...\"}} Lo demás se me\nquema o queda salado.\nPero volveré a intentarlo, {{anim id=\"SmugFace\" target=\"actor\" targetSpec=\"\"}}¡canalizaré\nmi energía hacia los ingredientes!"
  },
  {
    "label": "023",
    "attribute": "0x0000000100000009",
    "text": "{{fun_0001003C arg=\"0x180019001A00\"}}"
  },
  {
    "label": "024",
    "attribute": "0x0000000000000000",
    "text": "{{anim id=\"Explain\" target=\"actor\" targetSpec=\"\"}}Estaba leyendo un libro sobre el\nmundo de las abejas{{string value=\"...\"}}{{pageBreak}}Y me pareció buena idea atrapar\nuna con mi red para afianzar el\nconocimiento.\n{{anim id=\"Worried\" target=\"actor\" targetSpec=\"\"}}Me preocupaba que se estresara,{{delay8}}\nasí que al acercarme empecé a\nsentirme culpable.\n{{anim id=\"Silent\" target=\"actor\" targetSpec=\"\"}}La pobrecita estaba haciendo sus\ncosas y yo iba a molestarla.{{pageBreak}}{{anim id=\"FaintSmile\" target=\"actor\" targetSpec=\"\"}}Así que la dejé tranquila y el balance\ndel universo retomó el rumbo."
  },
  {
    "label": "025",
    "attribute": "0x0000000000000000",
    "text": "{{anim id=\"FaintSmile\" target=\"actor\" targetSpec=\"\"}}Hoy vi una mariposa mientras regaba\nlas flores y me dejó pensando en lo\nfascinantes que son.\n{{anim id=\"Explain\" target=\"actor\" targetSpec=\"\"}}Piénsalo{{string value=\"...\"}} un día, una oruga decide\ntejer un capullito{{string value=\"...\"}} se mete{{delay20}} y cuando\nsale,{{delay8}} su mundo se transforma.\n{{anim id=\"FaintSmile\" target=\"actor\" targetSpec=\"\"}}Se convierte en un hermoso ser\ncapaz de hacer cosas que antes\nno podía.\n{{anim id=\"AbsentMindedness\" target=\"actor\" targetSpec=\"\"}}¿Cómo sabe la oruga que es la hora\nde cambiar y ser algo nuevo?"
  },
  {
    "label": "026",
    "attribute": "0x0000000000000000",
    "text": "Una noche que llovía a mares me\ndi cuenta de que{{anim id=\"Aha\" target=\"actor\" targetSpec=\"\"}} una hormiga\nse había refugiado en mi casa.\n{{anim id=\"Explain\" target=\"actor\" targetSpec=\"\"}}Me puse a pensar en lo lejos que\nestaba de su casita y en lo mucho\nque la debería estar extrañando.\n{{anim id=\"FaintSmile\" target=\"actor\" targetSpec=\"\"}}Así que hice lo posible para que se\nsintiera cómoda.{{delay20}} {{anim id=\"EmotEnd\" target=\"actor\" targetSpec=\"\"}}A la mañana\nsiguiente,{{delay8}} ya no estaba.\n{{anim id=\"FaintSmile\" target=\"actor\" targetSpec=\"\"}}Le conté a {{string value=\"11\"}}\ny dijo que mi amiga quizá regrese\nalgún día para devolverme el favor.\n{{anim id=\"QuestionMark\" target=\"actor\" targetSpec=\"\"}}¿Crees que volverá con un trozo de\npastel o algo así?{{delay20}} Digo, tampoco\nespero nada a cambio, {{string value=\"Catchphrase\"}}."
  },
  {
    "label": "027",
    "attribute": "0x0000000100000009",
    "text": "{{fun_0001003C arg=\"0x1C001D001E00\"}}"
  },
  {
    "label": "028",
    "attribute": "0x0000000000000000",
    "text": "{{anim id=\"FaintSmile\" target=\"actor\" targetSpec=\"\"}}Una vez pesqué un pececito\ndorado tan bonito que decidí\nquedármelo de mascota.\n{{anim id=\"EmotEnd\" target=\"actor\" targetSpec=\"\"}}Al día siguiente,{{delay8}} ante mi sorpresa,{{delay8}}\n{{anim id=\"Surprised\" target=\"actor\" targetSpec=\"\"}}¡resultó ser un pez genio\ny me concedió tres deseos!\n{{anim id=\"Oops\" target=\"actor\" targetSpec=\"\"}}Cuando estaba por pedir el primer\ndeseo,{{delay8}} ¡me desperté!{{delay20}} Ji, ji.{{delay20}}\n{{anim id=\"Laughing\" target=\"actor\" targetSpec=\"\"}}¡Había sido solo un sueño!"
  },
  {
    "label": "029",
    "attribute": "0x0000000000000000",
    "text": "{{anim id=\"Worried\" target=\"actor\" targetSpec=\"\"}}El otro día tuve tan mala suerte que\nme caí en un hoyo y tardé media\nmañana en poder salir.\n{{anim id=\"Worried\" target=\"actor\" targetSpec=\"\"}}Como necesitaba relajarme,{{delay8}} decidí\nirme a pescar.{{delay20}} Y en menos de un\nminuto,{{delay8}}{{anim id=\"Aha\" target=\"actor\" targetSpec=\"\"}} ¡pesqué un pez enooorme!\n{{anim id=\"HappyFlower\" target=\"actor\" targetSpec=\"\"}}El universo siempre se encarga\nde mantener un equilibrio."
  },
  {
    "label": "030",
    "attribute": "0x0000000000000000",
    "text": "{{anim id=\"Explain\" target=\"actor\" targetSpec=\"\"}}Hace unos días,{{delay8}} mientras paseaba\na la orilla del río,{{delay8}} vi la sombra de\nun pez muy grande.\n{{anim id=\"Nodding\" target=\"actor\" targetSpec=\"\"}}¡Así que saqué la caña de inmediato!{{pageBreak}}{{anim id=\"Serious\" target=\"actor\" targetSpec=\"\"}}Lancé el anzuelo y{{string value=\"...\"}}{{delay frames=\"20\"}} {{anim id=\"Hello\" target=\"actor\" targetSpec=\"\"}}¡lo atrapé!{{pageBreak}}{{anim id=\"Oops\" target=\"actor\" targetSpec=\"\"}}Pero resultó ser una llanta vieja,\n{{string value=\"Catchphrase\"}}."
  },
  {
    "label": "031",
    "attribute": "0x0000000100000009",
    "text": "{{fun_0001003C arg=\"0x200021002200\"}}"
  },
  {
    "label": "032",
    "attribute": "0x0000000000000000",
    "text": "{{anim id=\"Worried\" target=\"actor\" targetSpec=\"\"}}Ayer vi una película de miedo que\nme dejó con los nervios de punta.{{pageBreak}}{{anim id=\"Shocked\" target=\"actor\" targetSpec=\"\"}}Hace rato pasó una libélula cerca\nde mi oreja y casi me da un infarto.{{pageBreak}}{{anim id=\"Frantic\" target=\"actor\" targetSpec=\"\"}}Me asusté tanto que hasta aplasté\n{{fun_00010032 arg=\"\"}}{{string value=\"7\"}} que tenía en la mano.{{delay20}}\n{{anim id=\"Negative\" target=\"actor\" targetSpec=\"\"}}¡No sabía que tenía tanta fuerza!\n{{anim id=\"SadSpiral\" target=\"actor\" targetSpec=\"\"}}Será mejor que regrese pronto a casa,{{delay8}} no quiero ser un peligro\npara nadie."
  },
  {
    "label": "033",
    "attribute": "0x0000000000000000",
    "text": "{{anim id=\"Confused\" target=\"actor\" targetSpec=\"\"}}¿Tú crees en los fantasmas,\ncalabacita?{{delay20}} Es que creo que tengo\nuno en casa haciendo travesuras{{string value=\"...\"}}{{pageBreak}}{{anim id=\"Worried\" target=\"actor\" targetSpec=\"\"}}El otro día se me cayó un libro\nmientras leía,{{delay8}} y ayer se me cayó\nel agua mientras bebía.\n{{anim id=\"Thinking\" target=\"actor\" targetSpec=\"\"}}O quizá solo soy distraída{{string value=\"...\"}}{{delay20}}\n{{anim id=\"ShyBoy\" target=\"actor\" targetSpec=\"\"}}Je, je, je."
  },
  {
    "label": "034",
    "attribute": "0x0000000000000000",
    "text": "{{anim id=\"Worried\" target=\"actor\" targetSpec=\"\"}}¿Notaste el temblor de ayer,\ncalabacita?{{delay20}} Yo estaba leyendo en\nla cama cuando pasó.\n{{anim id=\"Shocked\" target=\"actor\" targetSpec=\"\"}}Las luces parpadearon y la cama\nse mecía de un lado para\nel otro{{string value=\"...\"}}{{delay20}} {{anim id=\"SadSpiral\" target=\"actor\" targetSpec=\"\"}}Me asusté.{{delay20}}\n¿Y sabes qué es lo peor?{{pageBreak}}{{anim id=\"Frantic\" target=\"actor\" targetSpec=\"\"}}¡Que del susto perdí la página\ndel libro que estaba leyendo!"
  },
  {
    "label": "035",
    "attribute": "0x2400000100000009",
    "text": "{{anim id=\"Thinking\" target=\"actor\" targetSpec=\"\"}}He estado pensando en lo mucho\nque pueden influir las palabras en\nel estado de ánimo.{{delay20}} Por ejemplo{{string value=\"...\"}}"
  },
  {
    "label": "036",
    "attribute": "0x0000000000000000",
    "text": "{{fun_0014003C arg=\"\"}}"
  },
  {
    "label": "036_01",
    "attribute": "0x0000000000000000",
    "text": "{{i10_12}}{{size value=\"150\"}}{{anim id=\"Cheering\" target=\"actor\" targetSpec=\"\"}}¡Me siento genial!{{size value=\"100\"}}{{delay frames=\"60\"}}{{anim id=\"FaintSmile\" target=\"actor\" targetSpec=\"\"}}{{pageBreak}}{{anim id=\"HappyFlower\" target=\"actor\" targetSpec=\"\"}}Reconozco que después de gritarlo\nme siento bastante bien.{{pageBreak}}{{anim id=\"Worried\" target=\"actor\" targetSpec=\"\"}}Aunque{{string value=\"...\"}}{{delay8}} Agh{{string value=\"...\"}}{{delay8}} {{anim id=\"WrySmile\" target=\"actor\" targetSpec=\"\"}}Ahora{{string value=\"...\"}}\nme duele un poco la garganta,\n{{string value=\"6\"}}{{string value=\"...\"}}"
  },
  {
    "label": "036_02",
    "attribute": "0x0000000000000000",
    "text": "{{anim id=\"Cheering\" target=\"actor\" targetSpec=\"\"}}¡Me encanta hablar contigo, flor!{{delay20}}\n¡Eres muy divertid{{gender2 m=\"o\" f=\"a\"}}!{{pageBreak}}{{anim id=\"Aha\" target=\"actor\" targetSpec=\"\"}}Aunque siempre me siento así\ncuando hablo contigo;{{delay8}}{{anim id=\"WrySmile\" target=\"actor\" targetSpec=\"\"}} ahora solo\nsubí un poco el volumen."
  },
  {
    "label": "036_03",
    "attribute": "0x0000000000000000",
    "text": "{{anim id=\"Cheering\" target=\"actor\" targetSpec=\"\"}}¡Hoy vamos a poner lo mejor de\nnosotr{{gender2 m=\"os\" f=\"as\"}} hasta que termine el día, {{string value=\"6\"}}!{{pageBreak}}{{anim id=\"Hesitate\" target=\"actor\" targetSpec=\"\"}}Ya sabes que yo no soy muy de\ngritar,{{delay8}} pero si es por alegrarte,{{delay8}}\nlo hago encantada."
  },
  {
    "label": "037",
    "attribute": "0x2600000100000009",
    "text": "{{anim id=\"Hello\" target=\"actor\" targetSpec=\"\"}}Cuando te vas de viaje,{{delay8}} se puede\nplanificar todo o improvisar.{{delay20}} ¿Cómo\nes para ti,{{delay8}} {{string value=\"NickName\"}}?{{pageBreak}}{{anim id=\"Serious\" target=\"actor\" targetSpec=\"\"}}Quizá te sorprenda,{{delay8}} pero soy de\nlas que hacen planes.{{delay20}} ¡Es parte\ndel encanto de viajar,{{delay8}} {{string value=\"Catchphrase\"}}!"
  },
  {
    "label": "038",
    "attribute": "0x0000000000000000",
    "text": "{{fun_0014003C arg=\"\"}}"
  },
  {
    "label": "038_01",
    "attribute": "0x0000000000000000",
    "text": "{{anim id=\"HappyDance\" target=\"actor\" targetSpec=\"\"}}A veces me paso meses ideando\nitinerarios que puedan satisfacer\na todo el grupo.{{pageBreak}}{{anim id=\"Blushing\" target=\"actor\" targetSpec=\"\"}}Bueno,{{delay8}} claro,{{delay8}} normalmente viajo sola,{{delay8}}\n{{anim id=\"Smiling\" target=\"actor\" targetSpec=\"\"}}¡pero así no pierdo la costumbre\nde pensar en los demás!"
  },
  {
    "label": "038_02",
    "attribute": "0x0000000000000000",
    "text": "{{anim id=\"ColdChill\" target=\"actor\" targetSpec=\"\"}}Pero por mucho que planee,{{delay8}}\nsiempre hay algo que se me olvida.{{delay20}}\nLa última vez fue mi {{randomObj}}.{{pageBreak}}{{anim id=\"Smiling\" target=\"actor\" targetSpec=\"\"}}Por eso conviene hacer una lista\nde todo lo que hay que llevar.{{pageBreak}}{{anim id=\"Sighing\" target=\"actor\" targetSpec=\"\"}}Aunque esto tiene el inconveniente\nde que hay que acordarse de mirar\nla lista{{string value=\"...\"}}{{delay8}} y eso también distrae."
  },
  {
    "label": "038_03",
    "attribute": "0x0000000000000000",
    "text": "{{anim id=\"Frantic\" target=\"actor\" targetSpec=\"\"}}Sin embargo,{{delay8}} ¡una vez me llevé al\naeropuerto el carnet de la biblioteca\nen lugar del pasaporte!\n{{anim id=\"Sighing\" target=\"actor\" targetSpec=\"\"}}No sé cómo me pudo pasar eso{{string value=\"...\"}}{{delay8}}\nQuizá,{{delay8}}{{anim id=\"WrySmile\" target=\"actor\" targetSpec=\"\"}} inconscientemente,{{delay8}} quería\npasar las vacaciones entre libros."
  },
  {
    "label": "101",
    "attribute": "0x0000000000000000",
    "text": "{{fun_0001003C arg=\"0x100011001200\"}}"
  },
  {
    "label": "102",
    "attribute": "0x0000000000000000",
    "text": "{{fun_0001003C arg=\"0x140015001600\"}}"
  }
]