﻿[
  {
    "label": "001",
    "attribute": "0x0000000000000000",
    "text": "{{fun_0014003C arg=\"\"}}"
  },
  {
    "label": "001_01",
    "attribute": "0x0000000000000000",
    "text": "{{anim id=\"FaintSmile\" target=\"actor\" targetSpec=\"\"}}¡Es{{gender8 m=\"e\" f=\"a\" n=\"\"}} {{fun_0005007D arg=\"0x00CD\"}} te queda de ensueño!"
  },
  {
    "label": "001_02",
    "attribute": "0x0000000000000000",
    "text": "{{anim id=\"Hesitate\" target=\"actor\" targetSpec=\"\"}}{{gender8 m=\"Ese\" f=\"Esa\" n=\"\"}} {{fun_0005007D arg=\"0x00CD\"}} refleja tu verdadera esencia."
  },
  {
    "label": "001_03",
    "attribute": "0x0000000000000000",
    "text": "{{anim id=\"FaintSmile\" target=\"actor\" targetSpec=\"\"}}Oye, es{{gender8 m=\"e\" f=\"a\" n=\"\"}} {{fun_0005007D arg=\"0x00CD\"}} que llevas parece que está hech{{gender8 m=\"o\" f=\"a\" n=\"\"}} a tu medida."
  },
  {
    "label": "002",
    "attribute": "0x0000000000000000",
    "text": "{{fun_0014003C arg=\"\"}}"
  },
  {
    "label": "002_01",
    "attribute": "0x0000000000000000",
    "text": "{{anim id=\"Smiling\" target=\"actor\" targetSpec=\"\"}}¡Quiero que te l{{gender8 m=\"o\" f=\"a\" n=\"\"}} quedes!"
  },
  {
    "label": "002_02",
    "attribute": "0x0000000000000000",
    "text": "{{anim id=\"FaintSmile\" target=\"actor\" targetSpec=\"\"}}Espero que te sirva y, sobre todo,\nque te guste, {{string value=\"Catchphrase\"}}."
  },
  {
    "label": "002_03",
    "attribute": "0x0000000000000000",
    "text": "{{anim id=\"HappyFlower\" target=\"actor\" targetSpec=\"\"}}Me llenaría de felicidad si l{{gender8 m=\"o\" f=\"a\" n=\"\"}} usaras."
  },
  {
    "label": "101",
    "attribute": "0x0000000000000000",
    "text": "{{anim id=\"Thinking\" target=\"actor\" targetSpec=\"\"}}¿Sabes qué podría combinar\nmuy bien con el color que llevas?{{delay20}}\n{{anim id=\"Aha\" target=\"actor\" targetSpec=\"\"}}¡{{capitalizeNextLetter}}{{wordArticle}}{{fun_0006007D arg=\"0x00CD\"}}!{{pageBreak}}{{anim id=\"FaintSmile\" target=\"actor\" targetSpec=\"\"}}Justo tengo un{{gender8 m=\"o\" f=\"a\" n=\"\"}} aquí, así que\nte l{{gender8 m=\"o\" f=\"a\" n=\"\"}} regalo."
  },
  {
    "label": "102",
    "attribute": "0x0000000000000000",
    "text": "{{anim id=\"Nodding\" target=\"actor\" targetSpec=\"\"}}Ya sé con qué armonizaría lo que\nllevas puesto{{string value=\"...\"}} ¡con {{wordArticle}}{{fun_0006007D arg=\"0x00CD\"}}!{{pageBreak}}{{anim id=\"HappyFlower\" target=\"actor\" targetSpec=\"\"}}Toma, quédate con est{{gender8 m=\"e\" f=\"a\" n=\"\"}}."
  },
  {
    "label": "104",
    "attribute": "0x0000000000000000",
    "text": "{{anim id=\"Worried\" target=\"actor\" targetSpec=\"\"}}¿Por qué no te quedas con mi\n{{fun_0006007D arg=\"0x00CD\"}}?{{delay20}} Te protegerá del sol o la lluvia."
  }
]