﻿[
  {
    "label": "002",
    "attribute": "0x0000000000000000",
    "text": "{{anim id=\"Worried\" target=\"actor\" targetSpec=\"\"}}Por mucho que lo intento, no logro\natrapar ni un solo insectito.{{delay20}} ¿Crees\nque huyen de mí?\n{{anim id=\"Aha\" target=\"actor\" targetSpec=\"\"}}¿O quizá es mi subconsciente que\nme boicotea porque en realidad\nno quiero molestarlos?"
  },
  {
    "label": "003",
    "attribute": "0x0000000000000000",
    "text": "{{anim id=\"FaintSmile\" target=\"actor\" targetSpec=\"\"}}No saber qué vas a pescar cuando\nlanzas el anzuelo es la parte más\nemocionante de la pesca.\n{{anim id=\"HappyFlower\" target=\"actor\" targetSpec=\"\"}}El destino es el que decide{{string value=\"...\"}}"
  },
  {
    "label": "004",
    "attribute": "0x0000000000000000",
    "text": "{{anim id=\"Nodding\" target=\"actor\" targetSpec=\"\"}}Las flores son muy generosas:{{delay8}}\n{{anim id=\"FaintSmile\" target=\"actor\" targetSpec=\"\"}}si las cuidas con amor,{{delay8}} florecen\npara darte las gracias.\n{{anim id=\"AbsentMindedness\" target=\"actor\" targetSpec=\"\"}}Aunque no pueden hablar,{{delay8}} siento\nque nos comunicamos a través\nde nuestros espíritus."
  },
  {
    "label": "005",
    "attribute": "0x0000000000000000",
    "text": "{{anim id=\"FaintSmile\" target=\"actor\" targetSpec=\"\"}}¿A ti no te gusta el sonido que\nhace la lluvia cuando choca con\nel paraguas?\n{{anim id=\"AbsentMindedness\" target=\"actor\" targetSpec=\"\"}}Me recuerda a cuando era pequeña\ne iba a acampar{{string value=\"...\"}}{{pageBreak}}{{anim id=\"Love\" target=\"actor\" targetSpec=\"\"}}Me encantaba dormirme con\nel sonido de la lluvia cayendo\nencima de mi tienda."
  }
]