﻿[
  {
    "label": "001",
    "text": "我未来的随从们"
  },
  {
    "label": "101",
    "text": "我会在10月31日万圣节\n来见你们，南瓜！\n我先把我的肖像画寄来了，\n你们可要把我的样子牢牢记在心中哦，南瓜！\n至于到时要上贡给我的物品，\n你们就多多准备些糖果吧！"
  },
  {
    "label": "201",
    "text": "南瓜王"
  }
]