﻿[
  {
    "label": "001",
    "attribute": "0x00000000",
    "text": "{{string value=\"...\"}}So this is it.{{delay frames=\"40\"}} {{anim id=\"Nodding\" target=\"actor\" targetSpec=\"\"}}Seems nice enough{{string value=\"...\"}}\nNo complaints from me."
  },
  {
    "label": "001_01",
    "attribute": "0x00000000",
    "text": "I await your design."
  },
  {
    "label": "002",
    "attribute": "0x02000000",
    "text": "How is the work going?{{delay20}} Done yet?"
  },
  {
    "label": "002_01",
    "attribute": "0x04000000",
    "text": "How is the work going?{{delay20}} Done yet?"
  },
  {
    "label": "002_01_a",
    "attribute": "0x00000000",
    "text": "It's ready!"
  },
  {
    "label": "002_01_b",
    "attribute": "0x00000000",
    "text": "Let's add an upstairs."
  },
  {
    "label": "002_01_c",
    "attribute": "0x00000000",
    "text": "{{anim id=\"EmotEnd\" target=\"player\" targetSpec=\"\"}}Not quite yet."
  },
  {
    "label": "002_a",
    "attribute": "0x00000000",
    "text": "It's ready!"
  },
  {
    "label": "002_b",
    "attribute": "0x00000000",
    "text": "{{anim id=\"EmotEnd\" target=\"player\" targetSpec=\"\"}}Not quite yet."
  },
  {
    "label": "003_01",
    "attribute": "0x00000000",
    "text": "{{anim id=\"Eh\" target=\"actor\" targetSpec=\"\"}}Coo{{string value=\"...\"}}{{delay20}}{{anim id=\"EmotEnd\" target=\"actor\" targetSpec=\"\"}} Not going to check the inside?{{delay frames=\"30\"}}\nI don't want to tell you your\nbusiness,{{delay8}} but{{string value=\"...\"}}"
  },
  {
    "label": "003_02",
    "attribute": "0x00000000",
    "text": "{{anim id=\"Eh\" target=\"actor\" targetSpec=\"\"}}Coo{{string value=\"...\"}}{{delay20}} There's a lot of{{string value=\"...\"}}stuff in here,\nwouldn't you say?{{pageBreak}}{{anim id=\"EmotEnd\" target=\"actor\" targetSpec=\"\"}}I don't want to tell you your\nbusiness,{{delay8}} but{{string value=\"...\"}}I'd prefer a little\nroom to move around."
  },
  {
    "label": "003_03",
    "attribute": "0x00000000",
    "text": "{{anim id=\"Silent\" target=\"actor\" targetSpec=\"\"}}Coo{{string value=\"...\"}} The house seems to have{{delay20}} too\nmany things in it, wouldn't you say?{{pageBreak}}{{anim id=\"EmotEnd\" target=\"actor\" targetSpec=\"\"}}I don't want to tell you your\nbusiness,{{delay8}} but{{string value=\"...\"}}I'd prefer a little\nroom to move around."
  },
  {
    "label": "003_04",
    "attribute": "0x00000000",
    "text": "{{anim id=\"Silent\" target=\"actor\" targetSpec=\"\"}}Coo{{string value=\"...\"}} The other room seems to have\ntoo many things in it, wouldn't you\nsay?{{pageBreak}}{{anim id=\"EmotEnd\" target=\"actor\" targetSpec=\"\"}}I don't want to tell you your\nbusiness,{{delay8}} but{{string value=\"...\"}}I'd prefer a little\nroom to move around."
  },
  {
    "label": "004",
    "attribute": "0x00000000",
    "text": "{{anim id=\"FaintSmile\" target=\"actor\" targetSpec=\"\"}}Thank you very much{{string value=\"...\"}}"
  },
  {
    "label": "005",
    "attribute": "0x00000000",
    "text": "{{anim id=\"Nodding\" target=\"actor\" targetSpec=\"\"}}Well then{{string value=\"...\"}}{{delay frames=\"40\"}} Please let me know once\nyour work is finished{{string value=\"...\"}}"
  },
  {
    "label": "006",
    "attribute": "0x02000000",
    "text": "{{anim id=\"Shocked\" target=\"actor\" targetSpec=\"\"}}A second floor?{{delay frames=\"60\"}} {{anim id=\"EmotEnd\" target=\"actor\" targetSpec=\"\"}}Are you certain?"
  },
  {
    "label": "006_a",
    "attribute": "0x00000000",
    "text": "Leave it all to me!"
  },
  {
    "label": "006_b",
    "attribute": "0x00000000",
    "text": "Actually, never mind."
  },
  {
    "label": "007",
    "attribute": "0x00000000",
    "text": "{{anim id=\"FaintSmile\" target=\"actor\" targetSpec=\"\"}}Very well. Carry on with the work{{string value=\"...\"}}"
  },
  {
    "label": "008",
    "attribute": "0x00000000",
    "text": "{{anim id=\"Surprised\" target=\"actor\" targetSpec=\"\"}}Coo!{{delay frames=\"60\"}} {{anim id=\"EmotEnd\" target=\"actor\" targetSpec=\"\"}}{{string value=\"...\"}}Apologies.{{delay20}} I got my feathers\nruffled briefly{{string value=\"...\"}}{{delay frames=\"40\"}}{{anim id=\"Nodding\" target=\"actor\" targetSpec=\"\"}} Carry on."
  },
  {
    "label": "011",
    "attribute": "0x00000000",
    "text": "The time you spent working on my\nhome{{anim id=\"Nodding\" target=\"actor\" targetSpec=\"\"}} reminds me of coffee and how\nit is prepared drip by drip{{string value=\"...\"}}"
  },
  {
    "label": "013",
    "attribute": "0x00000000",
    "text": "{{anim id=\"Shocked\" target=\"actor\" targetSpec=\"\"}}Coo!{{delay frames=\"40\"}} Done, and in less time than\nit takes to brew a cup of coffee{{string value=\"...\"}}{{delay20}}{{anim id=\"FaintSmile\" target=\"actor\" targetSpec=\"\"}}\nMy thanks."
  },
  {
    "label": "016",
    "attribute": "0x00000000",
    "text": "{{fun_0014003C arg=\"\"}}"
  },
  {
    "label": "016_01",
    "attribute": "0x00000000",
    "text": "{{anim id=\"Nodding\" target=\"actor\" targetSpec=\"\"}}A quality vacation home,{{delay8}} with plenty\nof depth and bold taste{{string value=\"...\"}}"
  },
  {
    "label": "017",
    "attribute": "0x02000000",
    "text": "{{anim id=\"FaintSmile\" target=\"actor\" targetSpec=\"\"}}I look forward to when I can spend\nsome time here{{string value=\"...\"}}"
  },
  {
    "label": "017_01",
    "attribute": "0x00000000",
    "text": "{{anim id=\"FaintSmile\" target=\"actor\" targetSpec=\"\"}}Certainly. Thank you for your help{{string value=\"...\"}}"
  },
  {
    "label": "017_02",
    "attribute": "0x00000000",
    "text": "{{anim id=\"Nodding\" target=\"actor\" targetSpec=\"\"}}Take whatever photos you like{{string value=\"...\"}}{{delay frames=\"40\"}}\n{{anim id=\"EmotEnd\" target=\"actor\" targetSpec=\"\"}}Let me know if you need me for\nanything more."
  },
  {
    "label": "017_04",
    "attribute": "0x02000000",
    "text": "Would you mind{{string value=\"...\"}}{{delay20}}{{anim id=\"Hello\" target=\"actor\" targetSpec=\"\"}}taking a photo to\ncommemorate the finished product?"
  },
  {
    "label": "017_04_a",
    "attribute": "0x00000000",
    "text": "{{anim id=\"EmotEnd\" target=\"player\" targetSpec=\"\"}}Yes, I'll take {{color id=\"1\"}}{{color id=\"65535\"}}photos."
  },
  {
    "label": "017_04_b",
    "attribute": "0x00000000",
    "text": "{{anim id=\"EmotEnd\" target=\"player\" targetSpec=\"\"}}I need to head back."
  },
  {
    "label": "017_05",
    "attribute": "0x00000000",
    "text": "{{anim id=\"Nodding\" target=\"actor\" targetSpec=\"\"}}Take photos of any part of the\nproperty you like{{string value=\"...\"}}{{delay frames=\"60\"}}{{anim id=\"EmotEnd\" target=\"actor\" targetSpec=\"\"}} Let me know if\nyou need me for anything more."
  },
  {
    "label": "017_06",
    "attribute": "0x00000000",
    "text": "{{anim id=\"FaintSmile\" target=\"actor\" targetSpec=\"\"}}Of course. Thank you for your help{{string value=\"...\"}}"
  },
  {
    "label": "017_a",
    "attribute": "0x00000000",
    "text": "{{anim id=\"EmotEnd\" target=\"player\" targetSpec=\"\"}}May I take {{color id=\"1\"}}{{color id=\"65535\"}}photos?"
  },
  {
    "label": "017_b",
    "attribute": "0x00000000",
    "text": "{{anim id=\"EmotEnd\" target=\"player\" targetSpec=\"\"}}If you'll excuse me..."
  },
  {
    "label": "018",
    "attribute": "0x02000000",
    "text": "How are things?"
  },
  {
    "label": "018_a",
    "attribute": "0x00000000",
    "text": "{{anim id=\"EmotEnd\" target=\"player\" targetSpec=\"\"}}I'm heading back."
  },
  {
    "label": "018_b",
    "attribute": "0x00000000",
    "text": "{{anim id=\"EmotEnd\" target=\"player\" targetSpec=\"\"}}I'm all good!"
  },
  {
    "label": "020",
    "attribute": "0x00000000",
    "text": "{{anim id=\"Nodding\" target=\"actor\" targetSpec=\"\"}}Make yourself at home{{string value=\"...\"}}"
  },
  {
    "label": "021",
    "attribute": "0x00000000",
    "text": "{{anim id=\"FaintSmile\" target=\"actor\" targetSpec=\"\"}}Coo{{string value=\"...\"}} Thank you."
  },
  {
    "label": "022",
    "attribute": "0x00000000",
    "text": "The theme of this home{{string value=\"...\"}} Would\nyou mind telling me its name?{{delay frames=\"40\"}}\n{{anim id=\"Nodding\" target=\"actor\" targetSpec=\"\"}}I'm most curious{{string value=\"...\"}}"
  },
  {
    "label": "023",
    "attribute": "0x02000000",
    "text": "If I recall{{string value=\"...\"}}you told me before{{delay20}} that\nthe theme of my vacation home was\n{{anim id=\"Nodding\" target=\"actor\" targetSpec=\"\"}}\"{{color id=\"1\"}}{{fun_00000096 arg=\"0x00CD\"}}{{color id=\"65535\"}}\"{{string value=\"...\"}}\n{{anim id=\"QuestionMark\" target=\"actor\" targetSpec=\"\"}}Did you want to change it?"
  },
  {
    "label": "023_a",
    "attribute": "0x00000000",
    "text": "{{anim id=\"EmotEnd\" target=\"player\" targetSpec=\"\"}}I'll pick a new name."
  },
  {
    "label": "023_b",
    "attribute": "0x00000000",
    "text": "{{anim id=\"EmotEnd\" target=\"player\" targetSpec=\"\"}}I like the name as is."
  },
  {
    "label": "024",
    "attribute": "0x00000000",
    "text": "Please{{string value=\"...\"}}tell me the new name\nof this theme{{string value=\"...\"}}"
  },
  {
    "label": "025",
    "attribute": "0x00000000",
    "text": "{{anim id=\"Nodding\" target=\"actor\" targetSpec=\"\"}}Very well{{string value=\"...\"}}{{delay20}} The theme remains the\nsame."
  },
  {
    "label": "026",
    "attribute": "0x02000000",
    "text": "{{anim id=\"Eh\" target=\"actor\" targetSpec=\"\"}}Coo!{{delay frames=\"60\"}} {{anim id=\"EmotEnd\" target=\"actor\" targetSpec=\"\"}}Had a change of heart?"
  },
  {
    "label": "026_a",
    "attribute": "0x00000000",
    "text": "Let's keep the name."
  },
  {
    "label": "026_b",
    "attribute": "0x00000000",
    "text": "Let's use a new name."
  },
  {
    "label": "027",
    "attribute": "0x00000000",
    "text": "{{anim id=\"Nodding\" target=\"actor\" targetSpec=\"\"}}Very well{{string value=\"...\"}}{{delay20}} Please, tell me the new\nname of this theme{{string value=\"...\"}}"
  },
  {
    "label": "028",
    "attribute": "0x00000000",
    "text": "\"{{color id=\"1\"}}{{capitalizeNextLetter}}{{fun_00000096 arg=\"0x00CD\"}}{{color id=\"65535\"}}\"?{{color id=\"1\"}}{{delay frames=\"40\"}}{{color id=\"65535\"}}{{pageBreak}}{{anim id=\"Nodding\" target=\"actor\" targetSpec=\"\"}}{{string value=\"...\"}}That is a masterful name."
  },
  {
    "label": "101",
    "attribute": "0x06000000",
    "text": "{{string value=\"...\"}}Yes, {{delay20}}can I help you?"
  },
  {
    "label": "101_01",
    "attribute": "0x06000000",
    "text": "{{anim id=\"Shocked\" target=\"actor\" targetSpec=\"\"}}What exactly did you want to discuss\nabout my home?"
  },
  {
    "label": "101_01_a",
    "attribute": "0x00000000",
    "text": "Let's talk remodeling."
  },
  {
    "label": "101_01_b",
    "attribute": "0x00000000",
    "text": "Let's talk moving."
  },
  {
    "label": "101_01_c",
    "attribute": "0x00000000",
    "text": "Let's talk roommates."
  },
  {
    "label": "101_01_d",
    "attribute": "0x00000000",
    "text": "Never mind."
  },
  {
    "label": "101_a",
    "attribute": "0x00000000",
    "text": "How are things?"
  },
  {
    "label": "101_b",
    "attribute": "0x00000000",
    "text": "How's your home?"
  },
  {
    "label": "101_c",
    "attribute": "0x00000000",
    "text": "I'm heading back."
  },
  {
    "label": "101_d",
    "attribute": "0x00000000",
    "text": "Just saying hi!"
  },
  {
    "label": "102_01",
    "attribute": "0x02000000",
    "text": "Remodeling, you say?{{delay frames=\"40\"}}{{anim id=\"Nodding\" target=\"actor\" targetSpec=\"\"}} Intriguing{{string value=\"...\"}}{{delay frames=\"40\"}}\n{{anim id=\"EmotEnd\" target=\"actor\" targetSpec=\"\"}}I would be interested in{{delay8}} one of your\n{{anim id=\"Hello\" target=\"actor\" targetSpec=\"\"}}original designs."
  },
  {
    "label": "102_01_a",
    "attribute": "0x00000000",
    "text": "Leave it all to me!"
  },
  {
    "label": "102_01_b",
    "attribute": "0x00000000",
    "text": "Actually, never mind."
  },
  {
    "label": "104_01",
    "attribute": "0x00000000",
    "text": "{{anim id=\"FaintSmile\" target=\"actor\" targetSpec=\"\"}}Then I'm grateful for the help{{string value=\"...\"}}"
  },
  {
    "label": "107",
    "attribute": "0x00000000",
    "text": "{{anim id=\"Worried\" target=\"actor\" targetSpec=\"\"}}Ah{{string value=\"...\"}}"
  },
  {
    "label": "108",
    "attribute": "0x02000000",
    "text": "{{anim id=\"Surprised\" target=\"actor\" targetSpec=\"\"}}Coo!{{delay frames=\"60\"}} {{anim id=\"EmotEnd\" target=\"actor\" targetSpec=\"\"}}{{string value=\"...\"}}You're suggesting I should\nmove?{{pageBreak}}{{anim id=\"Nodding\" target=\"actor\" targetSpec=\"\"}}Very well{{string value=\"...\"}}{{delay frames=\"50\"}} {{anim id=\"Thinking\" target=\"actor\" targetSpec=\"\"}}However, {{delay8}}moving an\nentire building{{delay20}} cannot be an easy\ntask. Coo{{string value=\"...\"}}"
  },
  {
    "label": "108_01",
    "attribute": "0x00000000",
    "text": "Very well{{string value=\"...\"}}{{delay20}}{{anim id=\"Nodding\" target=\"actor\" targetSpec=\"\"}} My home is in your\nhands."
  },
  {
    "label": "108_a",
    "attribute": "0x00000000",
    "text": "Leave it all to me!"
  },
  {
    "label": "108_b",
    "attribute": "0x00000000",
    "text": "Actually, never mind."
  },
  {
    "label": "109",
    "attribute": "0x00000000",
    "text": "{{anim id=\"Surprised\" target=\"actor\" targetSpec=\"\"}}Coo!{{delay frames=\"60\"}} {{anim id=\"EmotEnd\" target=\"actor\" targetSpec=\"\"}}You're suggesting I share my\nvacation home with someone?{{pageBreak}}{{anim id=\"Worried\" target=\"actor\" targetSpec=\"\"}}Coo{{string value=\"...\"}} {{delay20}}I don't like the idea of sharing\nmy private space{{anim id=\"Negative\" target=\"actor\" targetSpec=\"\"}} with another living\nbeing{{string value=\"...\"}}"
  },
  {
    "label": "110",
    "attribute": "0x00000000",
    "text": "{{anim id=\"Nodding\" target=\"actor\" targetSpec=\"\"}}{{string value=\"...\"}}That's very kind of you.{{delay frames=\"30\"}} {{anim id=\"FaintSmile\" target=\"actor\" targetSpec=\"\"}}Please\nmake yourself comfortable{{string value=\"...\"}}"
  },
  {
    "label": "110_01",
    "attribute": "0x00000000",
    "text": "{{anim id=\"Nodding\" target=\"actor\" targetSpec=\"\"}}{{string value=\"...\"}}Very well."
  },
  {
    "label": "111",
    "attribute": "0x00000000",
    "text": "{{fun_0014003C arg=\"\"}}"
  },
  {
    "label": "111_01",
    "attribute": "0x00000000",
    "text": "I find that any room suffused with\nthe rich,{{delay8}} earthy scent of coffee is\nprofoundly relaxing.{{pageBreak}}I'm sure this place{{anim id=\"Nodding\" target=\"actor\" targetSpec=\"\"}} will be like that\nbefore too long{{string value=\"...\"}}"
  },
  {
    "label": "111_02",
    "attribute": "0x00000000",
    "text": "I believe in my heart that anyone\nwho loves coffee{{anim id=\"Nodding\" target=\"actor\" targetSpec=\"\"}} must be a good\nperson{{string value=\"...\"}}{{delay frames=\"40\"}}{{anim id=\"EmotEnd\" target=\"actor\" targetSpec=\"\"}} Coo{{string value=\"...\"}}{{delay20}}{{anim id=\"Silent\" target=\"actor\" targetSpec=\"\"}} I mean that."
  },
  {
    "label": "111_03",
    "attribute": "0x00000000",
    "text": "Even when I'm here,{{delay20}}{{anim id=\"Assent\" target=\"actor\" targetSpec=\"\"}} my heart is\nnever far from coffee{{string value=\"...\"}}"
  },
  {
    "label": "111_04",
    "attribute": "0x00000000",
    "text": "{{string value=\"...\"}}{{anim id=\"Shocked\" target=\"actor\" targetSpec=\"\"}}Coo!{{delay frames=\"60\"}} {{anim id=\"Restless\" target=\"actor\" targetSpec=\"\"}}My apologies{{string value=\"...\"}}{{delay20}} I just recalled\nthat my supply of pigeon milk is\nrunning dangerously low."
  },
  {
    "label": "119",
    "attribute": "0x00000000",
    "text": "{{fun_0014003C arg=\"\"}}"
  },
  {
    "label": "119_01",
    "attribute": "0x00000000",
    "text": "{{anim id=\"Serious\" target=\"actor\" targetSpec=\"\"}}Pigeons are blessed with a strong\nhoming instinct.{{delay20}} Even if we travel far\naway, {{delay8}}we can always find our nests{{string value=\"...\"}}{{pageBreak}}{{anim id=\"EmotEnd\" target=\"actor\" targetSpec=\"\"}}No matter where I go, I can always\ncome back here{{string value=\"...\"}}{{delay frames=\"30\"}}{{anim id=\"Nodding\" target=\"actor\" targetSpec=\"\"}} And that's the way\nI like it{{string value=\"...\"}}"
  },
  {
    "label": "119_02",
    "attribute": "0x00000000",
    "text": "I've come to appreciate{{string value=\"...\"}}over the\nyears{{string value=\"...\"}}the value of spending time\nout of doors.{{pageBreak}}Breath of fresh air's like a cup of\nfresh coffee.{{delay20}} {{anim id=\"Nodding\" target=\"actor\" targetSpec=\"\"}}It's important to take\nit in slowly and savor it."
  },
  {
    "label": "119_03",
    "attribute": "0x00000000",
    "text": "Thank you.{{delay8}} This space is {{anim id=\"Nodding\" target=\"actor\" targetSpec=\"\"}}exceedingly\ncomfortable{{string value=\"...\"}}{{pageBreak}}{{anim id=\"Thinking\" target=\"actor\" targetSpec=\"\"}}If only I could bring this feeling\nback to my café{{string value=\"...\"}}{{delay frames=\"40\"}}{{anim id=\"WrySmile\" target=\"actor\" targetSpec=\"\"}} My apologies.{{delay20}}\nI don't mean to talk your ear off{{string value=\"...\"}}"
  },
  {
    "label": "119_04",
    "attribute": "0x00000000",
    "text": "{{string value=\"...\"}}{{anim id=\"Shocked\" target=\"actor\" targetSpec=\"\"}}Coo!{{delay frames=\"60\"}} {{anim id=\"Restless\" target=\"actor\" targetSpec=\"\"}}Sorry for getting my feathers\nruffled{{string value=\"...\"}}{{delay20}} I just recalled that I need to\nrestock my supply of coffee beans."
  },
  {
    "label": "124",
    "attribute": "0x00000000",
    "text": "{{anim id=\"Nodding\" target=\"actor\" targetSpec=\"\"}}{{string value=\"...\"}}Another excellent location."
  },
  {
    "label": "124_01",
    "attribute": "0x00000000",
    "text": "Coo.{{delay20}} This home could use a decor\nthat feels{{anim id=\"Nodding\" target=\"actor\" targetSpec=\"\"}} suited to its new locale{{string value=\"...\"}}"
  },
  {
    "label": "129_06",
    "attribute": "0x00000000",
    "text": "{{string value=\"...\"}}This second floor{{anim id=\"Nodding\" target=\"actor\" targetSpec=\"\"}} has so much\npotential{{string value=\"...\"}}"
  },
  {
    "label": "129_07",
    "attribute": "0x00000000",
    "text": "Coo{{string value=\"...\"}}{{delay20}}{{anim id=\"FaintSmile\" target=\"actor\" targetSpec=\"\"}} Keep up the good work."
  },
  {
    "label": "148",
    "attribute": "0x00000000",
    "text": "{{anim id=\"Nodding\" target=\"actor\" targetSpec=\"\"}}{{string value=\"...\"}}Very well.{{delay frames=\"40\"}} Feel free to stop by\nwhenever you're around{{string value=\"...\"}}"
  }
]