﻿[
  {
    "label": "100",
    "text": "토용군"
  },
  {
    "label": "103",
    "text": "눈사람"
  },
  {
    "label": "201",
    "text": "???"
  },
  {
    "label": "202",
    "text": "일동"
  },
  {
    "label": "203",
    "text": "상담원"
  }
]