﻿[
  {
    "label": "001",
    "attribute": "0x0000000000000000",
    "text": "{{anim id=\"FaintSmile\" target=\"actor\" targetSpec=\"\"}}Thank you again for the beautiful\nflower you gave me the other day,{{delay8}}{{anim id=\"FaintSmile\" target=\"subNpc\" targetSpec=\"\"}}\n{{string value=\"31\"}}.{{delay20}}{{anim id=\"EmotEnd\" target=\"actor\" targetSpec=\"\"}}{{anim id=\"EmotEnd\" target=\"subNpc\" targetSpec=\"\"}}"
  },
  {
    "label": "002",
    "attribute": "0x0000000000000000",
    "text": "{{anim id=\"Blushing\" target=\"actor\" targetSpec=\"\"}}Aww now, {{i20_2 arg=\"4\"}}{{delay8}}you don't hafta thank\nme. {{delay frames=\"40\"}}{{anim id=\"Nodding\" target=\"actor\" targetSpec=\"\"}}You've always been good to\nme,{{delay8}} so it's the least I could do.{{delay8}}{{anim id=\"EmotEnd\" target=\"actor\" targetSpec=\"\"}}{{anim id=\"EmotEnd\" target=\"mainNpc\" targetSpec=\"\"}}"
  },
  {
    "label": "003",
    "attribute": "0x0000000000000000",
    "text": "{{anim id=\"Aha\" target=\"actor\" targetSpec=\"\"}}But even so—{{delay8}}{{i20_2 arg=\"3\"}}a hyacinth! {{delay frames=\"40\"}}{{anim id=\"EmotEnd\" target=\"actor\" targetSpec=\"\"}}And a\nyellow hyacinth at that, {{delay8}}my dear."
  },
  {
    "label": "004",
    "attribute": "0x0000000000000000",
    "text": "{{anim id=\"QuestionMark\" target=\"actor\" targetSpec=\"\"}}Hrmm? {{delay8}}{{i20_2 arg=\"4\"}}I don't catch your meanin'.{{delay8}}\nIs there somethin' I should know\nabout yellow hyacinths?{{anim id=\"EmotEnd\" target=\"actor\" targetSpec=\"\"}}"
  },
  {
    "label": "005",
    "attribute": "0x0000000000000000",
    "text": "{{i20_2 arg=\"3\"}}{{anim id=\"Nodding\" target=\"actor\" targetSpec=\"\"}}Why,{{delay8}} in the language of flowers,\na yellow hyacinth says, {{delay20}}{{anim id=\"EmotEnd\" target=\"subNpc\" targetSpec=\"\"}}{{anim id=\"Love\" target=\"actor\" targetSpec=\"\"}}\"I want to\nbe more than friends.\"{{anim id=\"Eh\" target=\"subNpc\" targetSpec=\"\"}}{{anim id=\"EmotEnd\" target=\"actor\" targetSpec=\"\"}}{{anim id=\"EmotEnd\" target=\"subNpc\" targetSpec=\"\"}}"
  },
  {
    "label": "006",
    "attribute": "0x0000000000000000",
    "text": "Now {{delay8}}{{i20_2 arg=\"4\"}}{{anim id=\"FaintSmile\" target=\"mainNpc\" targetSpec=\"\"}}hold on a goldarn minute!{{delay20}}{{anim id=\"Confused\" target=\"actor\" targetSpec=\"\"}}\nWhat flower language? {{delay frames=\"40\"}}Last I knew,{{delay8}}{{anim id=\"Negative\" target=\"actor\" targetSpec=\"\"}}\nflowers don't go flappin' their gums!{{anim id=\"EmotEnd\" target=\"actor\" targetSpec=\"\"}}{{anim id=\"EmotEnd\" target=\"mainNpc\" targetSpec=\"\"}}"
  },
  {
    "label": "007",
    "attribute": "0x0000000000000000",
    "text": "{{anim id=\"Laughing\" target=\"actor\" targetSpec=\"\"}}Oh, {{string value=\"31\"}}!{{delay20}} {{anim id=\"Eh\" target=\"subNpc\" targetSpec=\"\"}}{{i20_2 arg=\"3\"}}Don't you\nworry your scruffy little head.{{delay frames=\"40\"}}\n{{anim id=\"HappyFlower\" target=\"actor\" targetSpec=\"\"}}I understand perfectly.{{anim id=\"EmotEnd\" target=\"actor\" targetSpec=\"\"}}{{anim id=\"EmotEnd\" target=\"subNpc\" targetSpec=\"\"}}"
  },
  {
    "label": "008",
    "attribute": "0x0000000000000000",
    "text": "{{anim id=\"Worried\" target=\"actor\" targetSpec=\"\"}}Wh—What{{i20_2 arg=\"4\"}} do you mean,{{delay8}}\nyou understand?!{{delay20}}\nWHAT do you understand?!\n{{anim id=\"QuestionMark\" target=\"actor\" targetSpec=\"\"}}H—Hey,{{delay8}} are you listenin'?{{delay frames=\"40\"}}{{anim id=\"Confused\" target=\"actor\" targetSpec=\"\"}} I don't\nknow what that flower said to you,{{delay8}}\nbut it didn't come from me!{{anim id=\"EmotEnd\" target=\"actor\" targetSpec=\"\"}}{{anim id=\"EmotEnd\" target=\"mainNpc\" targetSpec=\"\"}}"
  },
  {
    "label": "009",
    "attribute": "0x0000000000000000",
    "text": "{{anim id=\"OhGeez\" target=\"actor\" targetSpec=\"\"}}Sheesh. {{delay8}}Who knew ya had to speak\na foreign language just to give\nsomeone a flower?\n{{anim id=\"WrySmile\" target=\"actor\" targetSpec=\"\"}}I shoulda just given her somethin'\nless talkative,{{delay8}} like {{wordArticle}}\n{{randomSweets}}."
  },
  {
    "label": "010",
    "attribute": "0x0000000000000000",
    "text": "{{anim id=\"QuestionMark\" target=\"actor\" targetSpec=\"\"}}Darling,{{delay8}}{{i20_2 arg=\"3\"}} why did you give me a\nchrysanthemum as a present?{{anim id=\"Eh\" target=\"subNpc\" targetSpec=\"\"}} {{anim id=\"OhGeez\" target=\"actor\" targetSpec=\"\"}}And a\ngreen chrysanthemum, no less!{{anim id=\"EmotEnd\" target=\"actor\" targetSpec=\"\"}}{{anim id=\"EmotEnd\" target=\"subNpc\" targetSpec=\"\"}}"
  },
  {
    "label": "011",
    "attribute": "0x0000000000000000",
    "text": "{{anim id=\"Explain\" target=\"actor\" targetSpec=\"\"}}See,{{delay8}} it's a flower, {{i20_2 arg=\"4\"}}{{delay8}}but it's GREEN!{{delay20}}{{anim id=\"Thinking\" target=\"actor\" targetSpec=\"\"}}\nI know you like roses better{{string value=\"...\"}}or was\nit daisies?{{delay20}}{{anim id=\"Negative\" target=\"actor\" targetSpec=\"\"}} Heck, {{delay8}}I can't remember.\n{{anim id=\"FaintSmile\" target=\"actor\" targetSpec=\"\"}}I just thought this green flower was\nkinda{{string value=\"...\"}}unexpected.{{delay8}}{{anim id=\"Sighing\" target=\"mainNpc\" targetSpec=\"\"}} So I figured\nit'd make a nice gift.{{anim id=\"EmotEnd\" target=\"actor\" targetSpec=\"\"}}{{anim id=\"EmotEnd\" target=\"mainNpc\" targetSpec=\"\"}}"
  },
  {
    "label": "012",
    "attribute": "0x0000000000000000",
    "text": "You know, {{i20_2 arg=\"3\"}}{{string value=\"31\"}},{{anim id=\"EmotEnd\" target=\"subNpc\" targetSpec=\"\"}}{{anim id=\"Negative\" target=\"actor\" targetSpec=\"\"}}\njust because a gift is unexpected\ndoesn't mean it's good.{{anim id=\"QuestionMark\" target=\"subNpc\" targetSpec=\"\"}}\n{{anim id=\"Explain\" target=\"actor\" targetSpec=\"\"}}For example, {{delay8}}let's say you were\nhoping to receive a gift of {{wordArticle}}\n{{randomSweets}}.{{anim id=\"Nodding\" target=\"subNpc\" targetSpec=\"\"}}\n{{anim id=\"Worried\" target=\"actor\" targetSpec=\"\"}}{{string value=\"...\"}}But instead you{{delay8}} received a gift\ncertificate to {{wordArticle}}{{randomSports}}\nclass.{{anim id=\"Eh\" target=\"subNpc\" targetSpec=\"\"}}{{delay frames=\"40\"}} {{anim id=\"OhGeez\" target=\"actor\" targetSpec=\"\"}}How would you feel?{{anim id=\"EmotEnd\" target=\"actor\" targetSpec=\"\"}}{{anim id=\"EmotEnd\" target=\"subNpc\" targetSpec=\"\"}}"
  },
  {
    "label": "013",
    "attribute": "0x0000000000000000",
    "text": "{{anim id=\"Thinking\" target=\"actor\" targetSpec=\"\"}}Well, {{delay8}}{{i20_2 arg=\"4\"}}now that you mention it,{{delay8}}\nmy doc did say I should be doing\nsome cardio somethin' or other{{string value=\"...\"}}{{anim id=\"TakenAback\" target=\"mainNpc\" targetSpec=\"\"}}\n{{anim id=\"FaintSmile\" target=\"actor\" targetSpec=\"\"}}You know,{{delay8}} for my health and whatnot.{{delay frames=\"40\"}}\n{{anim id=\"IdeaBulb\" target=\"actor\" targetSpec=\"\"}}Hey,{{delay8}} maybe I should sign up for one\nof them classes!{{anim id=\"Sighing\" target=\"mainNpc\" targetSpec=\"\"}}{{anim id=\"EmotEnd\" target=\"actor\" targetSpec=\"\"}}{{anim id=\"EmotEnd\" target=\"mainNpc\" targetSpec=\"\"}}"
  },
  {
    "label": "014",
    "attribute": "0x0000000000000000",
    "text": "Let's just {{i20_2 arg=\"3\"}}forget I said anything,{{delay8}}\n{{string value=\"31\"}}{{delay20}}{{anim id=\"FaintSmile\" target=\"subNpc\" targetSpec=\"\"}}. {{anim id=\"EmotEnd\" target=\"actor\" targetSpec=\"\"}}The flower is\nperfect. {{delay8}}{{anim id=\"FaintSmile\" target=\"actor\" targetSpec=\"\"}}Thank you.{{anim id=\"Greeting\" target=\"subNpc\" targetSpec=\"\"}}"
  },
  {
    "label": "101",
    "attribute": "0x0000000000000000",
    "text": "{{anim id=\"Serious\" target=\"actor\" targetSpec=\"\"}}Say, {{delay8}}I've been hearin' everywhere\nthat folks think I'm scary.{{delay20}} I don't\nget it.{{anim id=\"QuestionMark\" target=\"actor\" targetSpec=\"\"}} {{anim id=\"Eh\" target=\"mainNpc\" targetSpec=\"\"}}What's so scary about me?{{anim id=\"EmotEnd\" target=\"actor\" targetSpec=\"\"}}{{anim id=\"EmotEnd\" target=\"mainNpc\" targetSpec=\"\"}}"
  },
  {
    "label": "102",
    "attribute": "0x0000000000000000",
    "text": "Why {{string value=\"31\"}}, {{delay8}}{{i20_2 arg=\"3\"}}if I didn't\nknow better,{{delay8}}{{anim id=\"FaintSmile\" target=\"actor\" targetSpec=\"\"}} I'd say you seem to\ncare what folks think about you.\n{{anim id=\"Grin\" target=\"actor\" targetSpec=\"\"}}But that can't be right,{{delay8}} now, can it?{{anim id=\"Serious\" target=\"subNpc\" targetSpec=\"\"}}{{pageBreak}}{{anim id=\"OhGeez\" target=\"actor\" targetSpec=\"\"}}Anyhoo, {{delay8}}what does it matter if the\nway you look and the way you talk\ncan be—well—unnerving?\n{{anim id=\"FaintSmile\" target=\"actor\" targetSpec=\"\"}}We're still your friends!{{anim id=\"EmotEnd\" target=\"actor\" targetSpec=\"\"}}{{anim id=\"EmotEnd\" target=\"subNpc\" targetSpec=\"\"}}"
  },
  {
    "label": "103",
    "attribute": "0x0000030000000000",
    "text": "{{anim id=\"Angry\" target=\"actor\" targetSpec=\"\"}}The way I look? {{delay8}}{{i20_2 arg=\"4\"}}The way I talk?{{delay frames=\"40\"}}\n{{anim id=\"Outraged\" target=\"actor\" targetSpec=\"\"}}What's so durn unnerving\nabout 'em?!{{anim id=\"Eh\" target=\"mainNpc\" targetSpec=\"\"}}{{pageBreak}}{{i20_3 arg=\"8\"}}{{anim id=\"Serious\" target=\"actor\" targetSpec=\"\"}}{{capitalizeNextLetter}}{{string value=\"PlayerName\"}},{{i20_2 arg=\"6\"}}{{delay20}} now be honest{{string value=\"...\"}}{{delay8}}{{anim id=\"QuestionMark\" target=\"actor\" targetSpec=\"\"}}\nDo YOU think I'm scary?"
  },
  {
    "label": "103_a",
    "attribute": "0x0000000000000000",
    "text": "You look pretty scary!"
  },
  {
    "label": "103_b",
    "attribute": "0x0000000000000000",
    "text": "You sound pretty scary!"
  },
  {
    "label": "103_c",
    "attribute": "0x0000000000000000",
    "text": "{{anim id=\"Negative\" target=\"player\" targetSpec=\"\"}}You're not scary. No sir."
  },
  {
    "label": "104",
    "attribute": "0x0000000000000000",
    "text": "{{anim id=\"SadSpiral\" target=\"actor\" targetSpec=\"\"}}Aww, fishhooks! {{delay20}}{{i20_2 arg=\"2\"}}{{anim id=\"EmotEnd\" target=\"mainNpc\" targetSpec=\"\"}}That's what you\nthink,{{delay8}} {{string value=\"PlayerName\"}}?{{pageBreak}}{{anim id=\"OhGeez\" target=\"actor\" targetSpec=\"\"}}Well, {{delay8}}how am I supposed to stop\nlookin' scary?! {{delay20}}{{anim id=\"Worried\" target=\"actor\" targetSpec=\"\"}}Will someone\nanswer me THAT?{{anim id=\"EmotEnd\" target=\"actor\" targetSpec=\"\"}}"
  },
  {
    "label": "105",
    "attribute": "0x0000000000000000",
    "text": "{{anim id=\"Explain\" target=\"actor\" targetSpec=\"\"}}Well, my dear,{{i20_2 arg=\"1\"}}{{delay8}} you could start by\nsmiling more often.{{delay frames=\"40\"}} {{anim id=\"OhGeez\" target=\"actor\" targetSpec=\"\"}}Or ever.{{anim id=\"Eh\" target=\"subNpc\" targetSpec=\"\"}}{{pageBreak}}{{anim id=\"QuestionMark\" target=\"actor\" targetSpec=\"\"}}You do know HOW to smile,{{delay8}}\ndon't you?{{anim id=\"EmotEnd\" target=\"actor\" targetSpec=\"\"}}{{anim id=\"EmotEnd\" target=\"subNpc\" targetSpec=\"\"}}"
  },
  {
    "label": "106",
    "attribute": "0x0000000000000000",
    "text": "So, what{{string value=\"...\"}} {{i20_2 arg=\"2\"}}{{anim id=\"OhGeez\" target=\"actor\" targetSpec=\"\"}}I grin like a clown and\nsuddenly everyone thinks I'm\ncuddly as a kitten?{{anim id=\"EmotEnd\" target=\"mainNpc\" targetSpec=\"\"}}\n{{anim id=\"EmotEnd\" target=\"actor\" targetSpec=\"\"}}Well, fine.{{delay8}} How's this smile for {{anim id=\"Angry\" target=\"actor\" targetSpec=\"\"}}ya?{{delay40}}\n{{anim id=\"EmotEnd\" target=\"actor\" targetSpec=\"\"}}This one {{anim id=\"Outraged\" target=\"actor\" targetSpec=\"\"}}better?{{anim id=\"Eh\" target=\"mainNpc\" targetSpec=\"\"}}{{delay40}} {{anim id=\"EmotEnd\" target=\"actor\" targetSpec=\"\"}}How about {{anim id=\"Fuming\" target=\"actor\" targetSpec=\"\"}}this?{{delay40}}{{pageBreak}}{{anim id=\"EmotEnd\" target=\"actor\" targetSpec=\"\"}}Welp, {{delay8}}{{anim id=\"Negative\" target=\"actor\" targetSpec=\"\"}}looks like my smiler\nis broken.{{anim id=\"EmotEnd\" target=\"actor\" targetSpec=\"\"}}"
  },
  {
    "label": "107",
    "attribute": "0x0000000000000000",
    "text": "{{anim id=\"OhGeez\" target=\"actor\" targetSpec=\"\"}}Mother of pearl, {{i20_2 arg=\"3\"}}{{delay8}}{{string value=\"31\"}}!{{delay frames=\"40\"}}\nWhatever you do, {{delay8}}I beg you,{{delay8}} {{anim id=\"Negative\" target=\"actor\" targetSpec=\"\"}}please\nDO NOT try to smile ever again.{{anim id=\"EmotEnd\" target=\"actor\" targetSpec=\"\"}}"
  },
  {
    "label": "108",
    "attribute": "0x0000000000000000",
    "text": "{{anim id=\"Laughing\" target=\"actor\" targetSpec=\"\"}}Gahaha!{{i20_2 arg=\"4\"}} {{delay frames=\"40\"}}Now THAT {{delay8}}{{anim id=\"FaintSmile\" target=\"actor\" targetSpec=\"\"}}puts a smile\non my face!"
  },
  {
    "label": "109",
    "attribute": "0x0000000000000000",
    "text": "{{anim id=\"Sighing\" target=\"subNpc\" targetSpec=\"\"}}{{i20_2 arg=\"5\"}}{{anim id=\"Greeting\" target=\"actor\" targetSpec=\"\"}}See, {{delay8}}darling?{{pageBreak}}{{i20_2 arg=\"7\"}}{{i20_2 arg=\"3\"}}Even {{string value=\"NickName\"}} agrees.\n{{anim id=\"FaintSmile\" target=\"actor\" targetSpec=\"\"}}Perhaps you should try\nspeaking more{{string value=\"...\"}}{{delay8}}softly.{{anim id=\"EmotEnd\" target=\"actor\" targetSpec=\"\"}}{{anim id=\"EmotEnd\" target=\"subNpc\" targetSpec=\"\"}}"
  },
  {
    "label": "110",
    "attribute": "0x0000000000000000",
    "text": "{{anim id=\"Eh\" target=\"actor\" targetSpec=\"\"}}More softly?{{i20_2 arg=\"2\"}} {{delay frames=\"40\"}}{{anim id=\"Angry\" target=\"actor\" targetSpec=\"\"}}More SOFTLY?!{{anim id=\"Worried\" target=\"mainNpc\" targetSpec=\"\"}}{{pageBreak}}What am I{{string value=\"...\"}}{{anim id=\"Outraged\" target=\"actor\" targetSpec=\"\"}}a down comforter?!{{delay20}}\nA flower PETAL?! {{anim id=\"Eh\" target=\"mainNpc\" targetSpec=\"\"}}{{delay20}}{{anim id=\"Fuming\" target=\"actor\" targetSpec=\"\"}}A GOLDARN\nBABY DUCK?!?!{{anim id=\"EmotEnd\" target=\"actor\" targetSpec=\"\"}}{{anim id=\"EmotEnd\" target=\"mainNpc\" targetSpec=\"\"}}"
  },
  {
    "label": "111",
    "attribute": "0x0000000000000000",
    "text": "{{anim id=\"EmotEnd\" target=\"actor\" targetSpec=\"\"}}You're right,{{i20_2 arg=\"3\"}}{{delay8}} {{string value=\"31\"}}.{{delay20}}\n{{anim id=\"OhGeez\" target=\"actor\" targetSpec=\"\"}}{{anim id=\"EmotEnd\" target=\"subNpc\" targetSpec=\"\"}}I haven't the faintest idea why\nanyone would think you sound scary.{{anim id=\"EmotEnd\" target=\"actor\" targetSpec=\"\"}}"
  },
  {
    "label": "112",
    "attribute": "0x0000000000000000",
    "text": "{{anim id=\"SmugFace\" target=\"actor\" targetSpec=\"\"}}Well, {{delay8}}{{i20_2 arg=\"3\"}}I'm glad SOMEONE'S come\nto their senses."
  },
  {
    "label": "113",
    "attribute": "0x0000000000000000",
    "text": "{{i20_2 arg=\"7\"}}{{anim id=\"Serious\" target=\"actor\" targetSpec=\"\"}}{{anim id=\"Eh\" target=\"mainNpc\" targetSpec=\"\"}}See!{{delay8}} {{i20_2 arg=\"2\"}}There!{{delay8}} {{capitalizeNextLetter}}{{string value=\"NickName\"}} gets\nit! {{delay20}}{{anim id=\"Angry\" target=\"actor\" targetSpec=\"\"}}I'm not scary,{{delay8}} I'm misunderstood!{{delay20}}{{anim id=\"Negative\" target=\"mainNpc\" targetSpec=\"\"}}\n{{anim id=\"Outraged\" target=\"actor\" targetSpec=\"\"}}Just like I've been sayin' all along!{{anim id=\"EmotEnd\" target=\"actor\" targetSpec=\"\"}}{{anim id=\"EmotEnd\" target=\"mainNpc\" targetSpec=\"\"}}"
  },
  {
    "label": "114",
    "attribute": "0x0000000000000000",
    "text": "{{i20_2 arg=\"6\"}}{{anim id=\"EmotEnd\" target=\"actor\" targetSpec=\"\"}}You're so right,{{i20_2 arg=\"3\"}}{{delay8}} {{string value=\"NickName\"}}.{{delay20}}{{anim id=\"EmotEnd\" target=\"subNpc\" targetSpec=\"\"}}\n{{anim id=\"OhGeez\" target=\"actor\" targetSpec=\"\"}}He's not scary at all."
  },
  {
    "label": "201",
    "attribute": "0x0000000000000000",
    "text": "{{anim id=\"Worried\" target=\"mainNpc\" targetSpec=\"\"}}{{anim id=\"Angry\" target=\"actor\" targetSpec=\"\"}}I TOLD you{{delay8}} I'm NOT angry!{{delay20}}\n{{anim id=\"Oops\" target=\"actor\" targetSpec=\"\"}}Gah! {{delay8}}Why is everyone always\naskin' me if I'm angry?!\n{{anim id=\"Serious\" target=\"actor\" targetSpec=\"\"}}It happens all the time!{{delay frames=\"40\"}}{{anim id=\"Fuming\" target=\"actor\" targetSpec=\"\"}}\nAll the DURN TIME!{{delay8}}{{anim id=\"Sighing\" target=\"mainNpc\" targetSpec=\"\"}}{{anim id=\"EmotEnd\" target=\"actor\" targetSpec=\"\"}}{{anim id=\"EmotEnd\" target=\"mainNpc\" targetSpec=\"\"}}"
  },
  {
    "label": "202",
    "attribute": "0x0000000000000000",
    "text": "{{anim id=\"OhGeez\" target=\"actor\" targetSpec=\"\"}}Yes, {{delay8}}well, {{i20_2 arg=\"3\"}}{{delay8}}{{anim id=\"Serious\" target=\"subNpc\" targetSpec=\"\"}}perhaps it's because\nof your rather gruff manner of\nspeaking, {{string value=\"6\"}}.{{anim id=\"EmotEnd\" target=\"actor\" targetSpec=\"\"}}{{anim id=\"EmotEnd\" target=\"subNpc\" targetSpec=\"\"}}"
  },
  {
    "label": "203",
    "attribute": "0x0000000000000000",
    "text": "{{anim id=\"Thinking\" target=\"actor\" targetSpec=\"\"}}So {{delay8}}{{i20_2 arg=\"4\"}}what you're sayin' is{{string value=\"...\"}}I should\ntalk more like you? {{delay8}}{{anim id=\"EmotEnd\" target=\"mainNpc\" targetSpec=\"\"}}Sophisticated\nand whatnot?\n{{anim id=\"Nodding\" target=\"actor\" targetSpec=\"\"}}Good idea,{{delay8}} {{string value=\"31\"}}.{{delay frames=\"40\"}}\n{{anim id=\"IdeaBulb\" target=\"actor\" targetSpec=\"\"}}I know!{{delay20}} I'll start by usin' that\nsayin' of yours.\n{{anim id=\"Explain\" target=\"actor\" targetSpec=\"\"}}{{capitalizeNextLetter}}{{string value=\"6\"}}! {{capitalizeNextLetter}}{{string value=\"6\"}}!\n{{capitalizeNextLetter}}{{string value=\"6\"}}! {{anim id=\"Eh\" target=\"mainNpc\" targetSpec=\"\"}}{{delay frames=\"50\"}}{{anim id=\"EmotEnd\" target=\"actor\" targetSpec=\"\"}}Yep,{{delay8}} I'm soundin'\nmore upper-crusty already.{{delay20}}{{anim id=\"Laughing\" target=\"actor\" targetSpec=\"\"}} Gahaha!{{delay8}}{{anim id=\"FaintSmile\" target=\"actor\" targetSpec=\"\"}}{{anim id=\"EmotEnd\" target=\"actor\" targetSpec=\"\"}}"
  },
  {
    "label": "204",
    "attribute": "0x0000000000000000",
    "text": "{{anim id=\"OhGeez\" target=\"actor\" targetSpec=\"\"}}My goodness.{{i20_2 arg=\"3\"}} {{delay8}}You're sounding\ncrusty, alright."
  }
]