﻿[
  {
    "label": "001",
    "attribute": "0x0000000000000000",
    "text": "{{anim id=\"Frantic\" target=\"actor\" targetSpec=\"\"}}{{i10_12}}AAAAAAAAH!!!{{delay20}} Vespeee!{{delay20}}\nScusa,{{delay8}} ma cioè,{{delay8}} è meglio che\nte ne vai, {{string value=\"6\"}}!"
  },
  {
    "label": "002",
    "attribute": "0x0000000000000000",
    "text": "{{anim id=\"TakenAback\" target=\"actor\" targetSpec=\"\"}}{{i10_5}}ALLUCINANTE{{endTag}}{{delay8}}!{{delay8}} NOOOOOOO!{{delay40}}\n{{anim id=\"Frantic\" target=\"actor\" targetSpec=\"\"}}Non fermarti a parlare con me!{{delay20}}\nPussa via,{{delay8}} tu e il tuo sciame di vespe!"
  },
  {
    "label": "003",
    "attribute": "0x0000000000000000",
    "text": "{{anim id=\"TakenAback\" target=\"actor\" targetSpec=\"\"}}{{i10_12}}{{size value=\"150\"}}AAAAAAH!!!{{size value=\"100\"}}{{delay frames=\"60\"}}{{pageBreak}}{{anim id=\"Confused\" target=\"actor\" targetSpec=\"\"}}Perché ti fermi ora a parlare con\nme? {{delay20}}Torna quando non ti inseguono\nle vespe!"
  },
  {
    "label": "004",
    "attribute": "0x0000000000000000",
    "text": "{{anim id=\"Frantic\" target=\"actor\" targetSpec=\"\"}}{{i10_12}}AAAAAAAAH!!!{{delay40}}\nCioè,{{delay8}} scusa ma,{{delay8}} uhm,{{delay8}} stammi\nalla larga, {{string value=\"6\"}}!"
  },
  {
    "label": "005",
    "attribute": "0x0000000000000000",
    "text": "{{anim id=\"TakenAback\" target=\"actor\" targetSpec=\"\"}}ALLUCINANTE!{{delay20}} NOOOOOOO!{{delay40}}\n{{anim id=\"Frantic\" target=\"actor\" targetSpec=\"\"}}Non fermarti a parlare con me!{{delay20}}\nSbrigati a sparire da qua!"
  },
  {
    "label": "006",
    "attribute": "0x0000000000000000",
    "text": "{{anim id=\"TakenAback\" target=\"actor\" targetSpec=\"\"}}{{i10_12}}{{size value=\"150\"}}AAAAAAH!!!{{size value=\"100\"}}{{delay frames=\"60\"}}{{pageBreak}}{{anim id=\"Confused\" target=\"actor\" targetSpec=\"\"}}Se vuoi qualcosa da me,{{delay8}} dimmelo\ndopo esserti liberat{{gender2 m=\"o\" f=\"a\"}} di quello\nscorpione!{{delay20}} Sennò,{{delay8}} ciaaao!"
  },
  {
    "label": "007",
    "attribute": "0x0000000000000000",
    "text": "{{anim id=\"Frantic\" target=\"actor\" targetSpec=\"\"}}{{i10_12}}AAAAAAAAH!!!{{delay40}}\nScusa,{{delay8}} ma{{string value=\"...\"}} stammi lontan{{gender2 m=\"o\" f=\"a\"}}!"
  },
  {
    "label": "008",
    "attribute": "0x0000000000000000",
    "text": "{{anim id=\"TakenAback\" target=\"actor\" targetSpec=\"\"}}NOOOOOOO,{{delay8}} MA SEI ALLUCINANTE!{{delay40}}\n{{anim id=\"Frantic\" target=\"actor\" targetSpec=\"\"}}Non fermarti qua a chiacchierare!{{delay20}} Ma\nche vuoi mettere nei guai anche me?!"
  },
  {
    "label": "009",
    "attribute": "0x0000000000000000",
    "text": "{{anim id=\"TakenAback\" target=\"actor\" targetSpec=\"\"}}{{i10_12}}{{size value=\"150\"}}AAAAAAH!!!{{size value=\"100\"}}{{delay frames=\"60\"}}{{pageBreak}}{{anim id=\"Confused\" target=\"actor\" targetSpec=\"\"}}Se vuoi qualcosa da me, dimmelo\ndopo esserti liberat{{gender2 m=\"o\" f=\"a\"}} di quella\ntarantola!"
  }
]