﻿[
  {
    "label": "001",
    "attribute": "0x0000000100000000",
    "text": "Che storia, {{string value=\"NickName\"}}! {{delay8}}{{anim id=\"Greeting\" target=\"actor\" targetSpec=\"\"}}Tanti auguri di buon anno! {{delay20}}{{anim id=\"Nodding\" target=\"actor\" targetSpec=\"\"}}Che sia, cioè, un anno sconvolgente!"
  },
  {
    "label": "002",
    "attribute": "0x0000000100000000",
    "text": "{{anim id=\"Hello\" target=\"actor\" targetSpec=\"\"}}Buon anno da pauraaa! {{delay20}}Ci siamo,{{delay8}}\nquesta è la volta buona!{{pageBreak}}{{anim id=\"HappyDance\" target=\"actor\" targetSpec=\"\"}}Cioè, {{delay8}}non so per cosa, {{delay8}}ma sono\ntroppo emozionata all'idea di\nscoprirlo, {{string value=\"6\"}}!"
  },
  {
    "label": "003",
    "attribute": "0x0000000100000000",
    "text": "{{anim id=\"HappyFlower\" target=\"actor\" targetSpec=\"\"}}Buon annooo!{{delay20}} Cioè,{{delay8}} ti auguro\nun anno pieno di brillantini e luci\nal neon come il mio, {{string value=\"6\"}}!"
  },
  {
    "label": "004",
    "attribute": "0x0000000100000000",
    "text": "{{anim id=\"BigSmile\" target=\"actor\" targetSpec=\"\"}}Buon anno, {{string value=\"NickName\"}}!\n{{delay20}}Che sia megastratosferico!"
  },
  {
    "label": "005",
    "attribute": "0x0000000100000000",
    "text": "{{anim id=\"Greeting\" target=\"actor\" targetSpec=\"\"}}Felice anno nuovo! {{delay40}}{{anim id=\"Hello\" target=\"actor\" targetSpec=\"\"}}Ti auguro\ndi divertirti alla grandissima\nper tutti i prossimi 365 giorni!"
  }
]