﻿[
  {
    "label": "001",
    "attribute": "0x0000000000000000",
    "locale": {
      "CNzh": "{{anim id=\"Hello\" target=\"actor\" targetSpec=\"\"}}你对园艺有兴趣吗？{{i10_4}}\n{{anim id=\"ShyBoy\" target=\"actor\" targetSpec=\"\"}}我很在意{{color id=\"3\"}}然然{{color id=\"65535\"}}{{delay20}}\n出售的那种灌木～{{pageBreak}}{{anim id=\"Nodding\" target=\"actor\" targetSpec=\"\"}}听说那灌木会开出{{delay20}}\n只在特定时期绽放的花{{string value=\"...\"}}{{delay frames=\"30\"}}\n{{anim id=\"Serious\" target=\"actor\" targetSpec=\"\"}}没错，{{delay20}}就像{{delay frames=\"40\"}}{{anim id=\"Grin\" target=\"actor\" targetSpec=\"\"}}无法回头的恋情一般。",
      "EUde": "Gärtnern war nie meine Leidenschaft\n{{delay20}}{{anim id=\"Negative\" target=\"actor\" targetSpec=\"\"}}– oh, die Schnecken! –{{delay20}}{{anim id=\"ShyBoy\" target=\"actor\" targetSpec=\"\"}} aber {{color id=\"3\"}}Gerds{{color id=\"65535\"}}\nBüsche sehen interessant aus.\n{{anim id=\"Explain\" target=\"actor\" targetSpec=\"\"}}Das Besondere ist, {{delay8}}dass ihre Blüten\nnur zu bestimmten Zeiten blühen.{{pageBreak}}{{anim id=\"IdeaBulb\" target=\"actor\" targetSpec=\"\"}}{{delay20}}Das ist praktisch wie ein Flashmob\nin der Pflanzenwelt.",
      "EUen": "Gardening's never been my hobby of\nchoice—{{delay20}}{{anim id=\"Negative\" target=\"actor\" targetSpec=\"\"}}I have a history with slugs—{{delay20}}{{anim id=\"ShyBoy\" target=\"actor\" targetSpec=\"\"}}\nbut I'm intrigued by {{color id=\"3\"}}Leif{{color id=\"65535\"}}'s shrubs.\n{{anim id=\"Explain\" target=\"actor\" targetSpec=\"\"}}The selling point is they grow flowers\nthat only bloom at certain times.{{pageBreak}}{{anim id=\"IdeaBulb\" target=\"actor\" targetSpec=\"\"}}{{delay20}}They're like the pop-up events of\nplant life.",
      "EUes": "{{anim id=\"Serious\" target=\"actor\" targetSpec=\"\"}}La verdad es que la jardinería nunca\nme ha atraído especialmente. {{delay20}}{{anim id=\"ColdChill\" target=\"actor\" targetSpec=\"\"}}Tengo\nun trauma con las babosas que{{string value=\"...\"}}\n{{anim id=\"Nodding\" target=\"actor\" targetSpec=\"\"}}El caso es que el otro día se me\nocurrió una idea brillante: {{delay20}}¡hacer\nun pódcast sobre arbustos!\n{{anim id=\"Aha\" target=\"actor\" targetSpec=\"\"}}Rollo sonidos de la naturaleza,\n¿sabes? {{delay20}}{{anim id=\"Explain\" target=\"actor\" targetSpec=\"\"}}Les planto el micro al lado\ny lo dejo grabando toda la noche{{string value=\"...\"}}\n{{anim id=\"Grin\" target=\"actor\" targetSpec=\"\"}}Estoy deseando ver qué sale de\nahí. {{delay20}}¿Tú no, {{string value=\"6\"}}?{{pageBreak}}{{anim id=\"Hello\" target=\"actor\" targetSpec=\"\"}}¡No se hable más! {{delay20}}A comprarle\nunos cuantos a {{color id=\"3\"}}Gandulio{{color id=\"65535\"}} se\nha dicho.",
      "EUfr": "Le jardinage, c'est pas mon truc. {{delay20}}{{anim id=\"Negative\" target=\"actor\" targetSpec=\"\"}}Je\nte passe les détails, mais moi et les\nlimaces, on s'entend pas des masses.\n{{anim id=\"ShyBoy\" target=\"actor\" targetSpec=\"\"}}Par contre, j'avoue que les pousses\nde {{color id=\"3\"}}Racine{{color id=\"65535\"}} ont le don d'attiser ma\ncuriosité{{string value=\"...\"}}\n{{anim id=\"Explain\" target=\"actor\" targetSpec=\"\"}}Tu savais que chacune fleurissait à\nun moment précis ? {{delay20}}{{anim id=\"IdeaBulb\" target=\"actor\" targetSpec=\"\"}}C'est un peu le\nrôle de sa vie, pour une plante.",
      "EUit": "{{anim id=\"Serious\" target=\"actor\" targetSpec=\"\"}}Il giardinaggio non è mai stato il mio\npassatempo preferito. {{delay20}}{{anim id=\"Negative\" target=\"actor\" targetSpec=\"\"}}Sai, non ci si\npuò guardare allo specchio spesso{{string value=\"...\"}}\n{{anim id=\"ShyBoy\" target=\"actor\" targetSpec=\"\"}}Però i cespugli di {{color id=\"3\"}}Florindo{{color id=\"65535\"}} stanno\nattirando la mia curiosità.{{pageBreak}}{{anim id=\"Explain\" target=\"actor\" targetSpec=\"\"}}A quanto pare, questi cespugli hanno\nflores che sbocciano solo in momenti\ndell'anno specifici.{{pageBreak}}{{anim id=\"IdeaBulb\" target=\"actor\" targetSpec=\"\"}}Sono imprevedibili{{string value=\"...\"}} come me.",
      "EUnl": "Tuinieren is niet mijn ding.{{delay20}} {{anim id=\"Negative\" target=\"actor\" targetSpec=\"\"}}Ik zal\nje de details besparen, maar het\nis vanwege een slakkentrauma.{{pageBreak}}{{anim id=\"ShyBoy\" target=\"actor\" targetSpec=\"\"}}Toch kan ik niet ontkennen dat ik\nnieuwsgierig ben naar de struiken\nvan {{color id=\"3\"}}Leif{{color id=\"65535\"}}{{string value=\"...\"}}{{pageBreak}}{{anim id=\"Explain\" target=\"actor\" targetSpec=\"\"}}Schijnbaar bloeien ze enkel op\nbepaalde momenten van het jaar.{{pageBreak}}{{anim id=\"Hello\" target=\"actor\" targetSpec=\"\"}}Dat klinkt ontzettend exclusief!{{delay20}}\nMisschien is dat tuinieren toch wel\niets voor mij!",
      "EUru": "Садоводством я никогда особо не\nувлекался.{{delay20}} {{anim id=\"Negative\" target=\"actor\" targetSpec=\"\"}}Слизняков не люблю.{{delay20}} {{anim id=\"ShyBoy\" target=\"actor\" targetSpec=\"\"}}Но\nтовары {{color id=\"3\"}}Лейфа {{color id=\"65535\"}}меня заинтриговали.{{pageBreak}}{{anim id=\"Explain\" target=\"actor\" targetSpec=\"\"}}Его коммерческий план состоит\nв том, что его растения цветут\nтолько в определенное время.{{pageBreak}}{{anim id=\"IdeaBulb\" target=\"actor\" targetSpec=\"\"}}{{delay20}}Эксклюзивные события в жизни\nрастений.",
      "JPja": "{{anim id=\"Hello\" target=\"actor\" targetSpec=\"\"}}キミは　ガーデニングには　{{ruby charSpan=\"2\" value=\"きょうみ\"}}興味ある？{{i10_4}}\n{{anim id=\"ShyBoy\" target=\"actor\" targetSpec=\"\"}}ボクは　{{color id=\"3\"}}レイジ{{color id=\"65535\"}}クンが{{ruby charSpan=\"1\" value=\"あつか\"}}扱ってる{{delay20}}\n{{ruby charSpan=\"2\" value=\"ていぼく\"}}低木のことが　{{ruby charSpan=\"1\" value=\"き\"}}気になるんだよね～{{pageBreak}}{{anim id=\"Nodding\" target=\"actor\" targetSpec=\"\"}}それは　{{ruby charSpan=\"1\" value=\"き\"}}決まった{{ruby charSpan=\"2\" value=\"じき\"}}時期にしか{{ruby charSpan=\"1\" value=\"さ\"}}咲かない{{delay20}}\n{{ruby charSpan=\"1\" value=\"はな\"}}花が　{{ruby charSpan=\"1\" value=\"さ\"}}咲くらしいよ{{string value=\"...\"}}　{{delay frames=\"30\"}}{{anim id=\"Serious\" target=\"actor\" targetSpec=\"\"}}そう、{{delay20}}まるで{{delay frames=\"40\"}}\n{{anim id=\"Grin\" target=\"actor\" targetSpec=\"\"}}{{ruby charSpan=\"2\" value=\"あともど\"}}後戻りはできない　{{ruby charSpan=\"1\" value=\"こい\"}}恋のように",
      "KRko": "{{anim id=\"Hello\" target=\"actor\" targetSpec=\"\"}}그대는 가드닝에 흥미가 있나?{{i10_4}}\n{{anim id=\"ShyBoy\" target=\"actor\" targetSpec=\"\"}}나는 {{color id=\"3\"}}늘봉{{color id=\"65535\"}}군이 팔고 있는{{delay20}}\n낮은 나무가 조금 궁금하더라구～{{pageBreak}}{{anim id=\"Nodding\" target=\"actor\" targetSpec=\"\"}}그 나무에는 정해진 시기에만 피는{{delay20}}\n꽃이 있다고 하더군{{string value=\"...\"}} {{delay frames=\"30\"}}{{anim id=\"Serious\" target=\"actor\" targetSpec=\"\"}}그래, {{delay20}}마치{{delay frames=\"40\"}}\n{{anim id=\"Grin\" target=\"actor\" targetSpec=\"\"}}돌이킬 수 없는 사랑처럼 말이지",
      "TWzh": "{{anim id=\"Hello\" target=\"actor\" targetSpec=\"\"}}你對園藝有興趣嗎？{{i10_4}}\n{{anim id=\"ShyBoy\" target=\"actor\" targetSpec=\"\"}}我很喜歡{{color id=\"3\"}}然然{{color id=\"65535\"}}他販售的灌木呢～{{pageBreak}}{{anim id=\"Nodding\" target=\"actor\" targetSpec=\"\"}}聽說灌木只會在固定的時期開花喔{{string value=\"...\"}}{{delay frames=\"30\"}}\n{{anim id=\"Serious\" target=\"actor\" targetSpec=\"\"}}沒錯，{{delay20}}簡直就像{{delay frames=\"40\"}}{{anim id=\"Grin\" target=\"actor\" targetSpec=\"\"}}無法回頭的戀愛一樣。",
      "USen": "Gardening's never been my hobby of\nchoice—{{delay20}}{{anim id=\"Negative\" target=\"actor\" targetSpec=\"\"}}I have a history with slugs—{{delay20}}{{anim id=\"ShyBoy\" target=\"actor\" targetSpec=\"\"}}\nbut I'm intrigued by {{color id=\"3\"}}Leif{{color id=\"65535\"}}'s shrubs.\n{{anim id=\"Explain\" target=\"actor\" targetSpec=\"\"}}The selling point is they grow flowers\nthat only bloom at certain times.{{pageBreak}}{{anim id=\"IdeaBulb\" target=\"actor\" targetSpec=\"\"}}{{delay20}}They're like the pop-up events of\nplant life.",
      "USes": "{{anim id=\"Serious\" target=\"actor\" targetSpec=\"\"}}La verdad es que la jardinería nunca\nme atrajo especialmente. {{delay20}}{{anim id=\"ColdChill\" target=\"actor\" targetSpec=\"\"}}Tengo\nun trauma con las babosas que{{string value=\"...\"}}\n{{anim id=\"Nodding\" target=\"actor\" targetSpec=\"\"}}La cuestión es que el otro día se me\nocurrió una idea millonaria: {{delay20}}¡hacer\nun pódcast sobre arbustos!\n{{anim id=\"Aha\" target=\"actor\" targetSpec=\"\"}}Con sonidos de la naturaleza,\n¿sabes? {{delay20}}{{anim id=\"Explain\" target=\"actor\" targetSpec=\"\"}}Pongo el micrófono al lado\ny lo dejo grabando toda la noche{{string value=\"...\"}}\n{{anim id=\"Grin\" target=\"actor\" targetSpec=\"\"}}No veo la hora de ver qué sale de\nahí. {{delay20}}¿Tú no, {{string value=\"6\"}}?{{pageBreak}}{{anim id=\"Hello\" target=\"actor\" targetSpec=\"\"}}¡No se hable más! {{delay20}}A comprarle\nunos cuantos a {{color id=\"3\"}}Gandulio{{color id=\"65535\"}} se\nha dicho.",
      "USfr": "Le jardinage, c'est pas mon truc. {{delay20}}\n{{anim id=\"Negative\" target=\"actor\" targetSpec=\"\"}}J'te passe les détails, mais moi et les\nlimaces, on s'entend pas des masses.\n{{anim id=\"ShyBoy\" target=\"actor\" targetSpec=\"\"}}Par contre, j'avoue que les pousses\nde {{color id=\"3\"}}Racine{{color id=\"65535\"}} ont le don d'attiser ma\ncuriosité{{string value=\"...\"}}\n{{anim id=\"Explain\" target=\"actor\" targetSpec=\"\"}}Tu savais que chacune fleurissait à\nun moment précis? {{delay20}}{{anim id=\"IdeaBulb\" target=\"actor\" targetSpec=\"\"}}C'est un peu le\nrôle de sa vie, pour une plante."
    }
  },
  {
    "label": "002",
    "attribute": "0x0000000000000000",
    "locale": {
      "CNzh": "{{anim id=\"Hello\" target=\"actor\" targetSpec=\"\"}}你在{{color id=\"3\"}}然然{{color id=\"65535\"}}那里购买过花的种子吗？{{i10_4}}\n{{anim id=\"Nodding\" target=\"actor\" targetSpec=\"\"}}想要改变{{string value=\"OtherIslandName\"}}的风格的话，{{delay20}}\n请务必去看看他的商品。{{pageBreak}}{{anim id=\"FaintSmile\" target=\"actor\" targetSpec=\"\"}}他出售的都是罕见的种子，{{delay20}}\n开花之时，一定能看到{{delay20}}\n新奇的景色。{{string value=\"6\"}}。",
      "EUde": "{{anim id=\"Hello\" target=\"actor\" targetSpec=\"\"}}Hast du schon ein paar Samen bei\n{{color id=\"3\"}}Gerd {{color id=\"65535\"}}gekauft?{{delay40}} Einige davon sind\ntotal selten,{{delay8}} {{string value=\"Catchphrase\"}}.\n{{anim id=\"Scheming\" target=\"actor\" targetSpec=\"\"}}Ein paar von denen würden das\nImage von {{string value=\"OtherIslandName\"}} mal\nso richtig aufpolieren.",
      "EUen": "{{anim id=\"Hello\" target=\"actor\" targetSpec=\"\"}}Have you bought any seeds from\n{{color id=\"3\"}}Leif{{color id=\"65535\"}} yet?{{delay40}} {{anim id=\"SmugFace\" target=\"actor\" targetSpec=\"\"}}He's got a few that are\nparticularly rare, {{string value=\"Catchphrase\"}}.\n{{anim id=\"Scheming\" target=\"actor\" targetSpec=\"\"}}Poppin' a few of those in the\nground would really freshen up\n{{string value=\"OtherIslandName\"}}'s image.",
      "EUes": "{{anim id=\"QuestionMark\" target=\"actor\" targetSpec=\"\"}}¿Ya le has comprado semillas a\n{{color id=\"3\"}}Gandulio{{color id=\"65535\"}}?{{delay20}}{{anim id=\"Nodding\" target=\"actor\" targetSpec=\"\"}} Tiene algunas que no\nse ven muy a menudo.\n{{anim id=\"OhGeez\" target=\"actor\" targetSpec=\"\"}}Bueno, supongo que depende de\nlo metid{{gender2 m=\"o\" f=\"a\"}} que estés en el mundillo.{{delay20}}\n{{anim id=\"Grin\" target=\"actor\" targetSpec=\"\"}}¡Yo ya las he visto todas!\n{{anim id=\"Hello\" target=\"actor\" targetSpec=\"\"}}Hace poco me compré una serie\ndocumental sobre plantas y estoy\nmuy a tope con el tema.\n{{anim id=\"Sighing\" target=\"actor\" targetSpec=\"\"}}¡Qué pena que solo me queden\n73 capítulos para terminarla!",
      "EUfr": "{{anim id=\"Hello\" target=\"actor\" targetSpec=\"\"}}Tu as déjà acheté des graines à\n{{color id=\"3\"}}Racine{{color id=\"65535\"}} ? {{delay20}}{{anim id=\"SmugFace\" target=\"actor\" targetSpec=\"\"}}Il en a quelques-unes plutôt\nrares dans sa besace, {{string value=\"Catchphrase\"}}.\n{{anim id=\"Scheming\" target=\"actor\" targetSpec=\"\"}}Plantons-les par ici et on propulsera {{string value=\"OtherIslandName\"}} à l'avant-garde du paysagisme insulaire !",
      "EUit": "{{anim id=\"Hello\" target=\"actor\" targetSpec=\"\"}}Hai già comprato semi da {{color id=\"3\"}}Florindo{{color id=\"65535\"}}?{{delay40}}\n{{anim id=\"SmugFace\" target=\"actor\" targetSpec=\"\"}}Ne ha alcuni davvero muy particolari,\n{{string value=\"6\"}}.\n{{anim id=\"Scheming\" target=\"actor\" targetSpec=\"\"}}Spargerne un pochito sul terreno\npotrebbe riempire di nuovi colori\nla nostra {{string value=\"OtherIslandName\"}}.",
      "EUnl": "{{anim id=\"Hello\" target=\"actor\" targetSpec=\"\"}}Heb je al een paar zaadjes bij Leif\ngekocht?{{delay40}} {{anim id=\"SmugFace\" target=\"actor\" targetSpec=\"\"}}Hij heeft een aantal\nzeldzame exemplaren, {{string value=\"Catchphrase\"}}.\n{{anim id=\"Scheming\" target=\"actor\" targetSpec=\"\"}}Er daar een paar van planten, zal\nwonderen doen voor het imago van\n{{string value=\"OtherIslandName\"}}.",
      "EUru": "{{anim id=\"Hello\" target=\"actor\" targetSpec=\"\"}}Ты покупаешь семена у {{color id=\"3\"}}Лейфа{{color id=\"65535\"}}?{{delay40}}\n{{anim id=\"SmugFace\" target=\"actor\" targetSpec=\"\"}}У него есть несколько элитных\nсортов. {{capitalizeNextLetter}}{{string value=\"Catchphrase\"}}!{{pageBreak}}{{anim id=\"Scheming\" target=\"actor\" targetSpec=\"\"}}Если здесь посадить такие\nрастения, можно здорово освежить\nимидж острова {{string value=\"OtherIslandName\"}}.",
      "JPja": "{{color id=\"3\"}}{{anim id=\"Hello\" target=\"actor\" targetSpec=\"\"}}レイジ{{color id=\"65535\"}}クンの{{ruby charSpan=\"1\" value=\"ところ\"}}所で　{{ruby charSpan=\"1\" value=\"はな\"}}花のタネは{{ruby charSpan=\"1\" value=\"か\"}}買ってみた？{{i10_4}}\n{{anim id=\"Nodding\" target=\"actor\" targetSpec=\"\"}}{{string value=\"OtherIslandName\"}}をイメチェンするなら{{delay20}}\nぜひ　チェックしてごらん{{pageBreak}}{{anim id=\"FaintSmile\" target=\"actor\" targetSpec=\"\"}}カレの{{ruby charSpan=\"1\" value=\"ところ\"}}所で{{ruby charSpan=\"1\" value=\"あつか\"}}扱っているのは　{{ruby charSpan=\"1\" value=\"めずら\"}}珍しい{{ruby charSpan=\"1\" value=\"しゅ\"}}種だから{{delay20}}\n{{ruby charSpan=\"1\" value=\"はな\"}}花が{{ruby charSpan=\"1\" value=\"さ\"}}咲けば　きっと{{delay20}}\n{{ruby charSpan=\"2\" value=\"しんせん\"}}新鮮な{{ruby charSpan=\"2\" value=\"けしき\"}}景色に　{{ruby charSpan=\"2\" value=\"であ\"}}出会えるはずさ、{{string value=\"6\"}}",
      "KRko": "{{color id=\"3\"}}{{anim id=\"Hello\" target=\"actor\" targetSpec=\"\"}}늘봉{{color id=\"65535\"}}군에게서 꽃씨를 산 적이 있나?{{i10_4}}\n{{anim id=\"Nodding\" target=\"actor\" targetSpec=\"\"}}{{string value=\"33\"}}의 분위기를{{delay20}}\n바꾸고 싶다면 꼭 체크해봐{{pageBreak}}{{anim id=\"FaintSmile\" target=\"actor\" targetSpec=\"\"}}그가 팔고 있는 건 귀한 종류니까{{delay20}}\n꽃이 다 피면 분명{{delay20}}\n새로운 경치를 만날 수 있을 거야, {{string value=\"6\"}}!",
      "TWzh": "{{anim id=\"Hello\" target=\"actor\" targetSpec=\"\"}}你有在{{color id=\"3\"}}然然{{color id=\"65535\"}}那購買過花卉種子嗎？{{i10_4}}\n{{anim id=\"Nodding\" target=\"actor\" targetSpec=\"\"}}如果你想改變{{string value=\"OtherIslandName\"}}{{delay20}}\n給人的印象，請務必買來試試看。{{pageBreak}}{{anim id=\"FaintSmile\" target=\"actor\" targetSpec=\"\"}}他所販售的種子都很稀有，{{delay20}}種出來的花，{{delay20}}\n應該能讓你看見新的景色，{{string value=\"6\"}}。",
      "USen": "{{anim id=\"Hello\" target=\"actor\" targetSpec=\"\"}}Have you bought any seeds from\n{{color id=\"3\"}}Leif{{color id=\"65535\"}} yet?{{delay40}} {{anim id=\"SmugFace\" target=\"actor\" targetSpec=\"\"}}He's got a few that are\nparticularly rare, {{string value=\"Catchphrase\"}}.\n{{anim id=\"Scheming\" target=\"actor\" targetSpec=\"\"}}Poppin' a few of those in the\nground would really freshen up\n{{string value=\"OtherIslandName\"}}'s image.",
      "USes": "{{anim id=\"QuestionMark\" target=\"actor\" targetSpec=\"\"}}¿Ya le compraste semillas a\n{{color id=\"3\"}}Gandulio{{color id=\"65535\"}}?{{delay20}}{{anim id=\"Nodding\" target=\"actor\" targetSpec=\"\"}} Tiene algunas que no\nse ven muy a menudo.\n{{anim id=\"OhGeez\" target=\"actor\" targetSpec=\"\"}}Bueno, supongo que depende de\nlo mucho que sepas del tema{{string value=\"...\"}}{{delay20}}\n{{anim id=\"Grin\" target=\"actor\" targetSpec=\"\"}}Yo, una inmensa cantidad{{string value=\"...\"}}\n{{anim id=\"Hello\" target=\"actor\" targetSpec=\"\"}}Hace poco me compré una serie\ndocumental sobre plantas y ya\ncasi que la termino.\n{{anim id=\"Sighing\" target=\"actor\" targetSpec=\"\"}}Me faltan unos 73 capítulos\nsolamente{{string value=\"...\"}}",
      "USfr": "{{anim id=\"Hello\" target=\"actor\" targetSpec=\"\"}}T'as déjà acheté des graines à\n{{color id=\"3\"}}Racine{{color id=\"65535\"}}? {{delay20}}{{anim id=\"SmugFace\" target=\"actor\" targetSpec=\"\"}}Il en a quelques-unes plutôt\nrares dans son sac, {{string value=\"Catchphrase\"}}.\n{{anim id=\"Scheming\" target=\"actor\" targetSpec=\"\"}}Plantons-les par ici et on propulsera\n{{string value=\"OtherIslandName\"}} à l'avant-garde du paysagisme insulaire!"
    }
  },
  {
    "label": "003",
    "attribute": "0x0000000000000000",
    "locale": {
      "CNzh": "{{anim id=\"Hello\" target=\"actor\" targetSpec=\"\"}}{{string value=\"4\"}}，你知道吗？{{delay frames=\"40\"}}\n{{anim id=\"Explain\" target=\"actor\" targetSpec=\"\"}}如果每天都为花浇水，{{delay20}}\n{{anim id=\"Explain\" target=\"actor\" targetSpec=\"\"}}偶尔就会开出颜色罕见的花朵。{{pageBreak}}{{anim id=\"Nodding\" target=\"actor\" targetSpec=\"\"}}这或许是花儿们{{delay20}}\n想要对你诉说的话语。{{delay frames=\"40\"}}\n{{anim id=\"Grin\" target=\"actor\" targetSpec=\"\"}}比如说……“我爱你”。",
      "EUde": "{{anim id=\"Scheming\" target=\"actor\" targetSpec=\"\"}}Schon das Neueste aus der\ngrünen Gartenwelt gehört,{{delay8}}\n{{string value=\"NickName\"}}?{{pageBreak}}{{anim id=\"Explain\" target=\"actor\" targetSpec=\"\"}}Wenn du die Blumen jeden Tag gießt,{{delay8}}\nkann dabei eine Blüte einer seltenen\nFarbe entstehen!\n{{anim id=\"Eh\" target=\"actor\" targetSpec=\"\"}}Wie ein Dankeschön von Mutter Erde,{{delay8}}\naber natürlich{{delay20}}{{anim id=\"SmugFace\" target=\"actor\" targetSpec=\"\"}} viel cooler.",
      "EUen": "{{anim id=\"Scheming\" target=\"actor\" targetSpec=\"\"}}Want the latest scoop from the\ngardening world, {{string value=\"NickName\"}}?{{pageBreak}}{{anim id=\"Explain\" target=\"actor\" targetSpec=\"\"}}If you water flowers every day,{{delay20}}\nyou just may be rewarded with a\nrare-colored blossom!\n{{anim id=\"Eh\" target=\"actor\" targetSpec=\"\"}}It's like the earth's giving you a\nhomemade thank-you gift,{{delay20}}\nbut, you know,{{delay20}}{{anim id=\"SmugFace\" target=\"actor\" targetSpec=\"\"}} classier.",
      "EUes": "{{anim id=\"Eh\" target=\"actor\" targetSpec=\"\"}}Mira, te voy a contar un truco sobre\njardinería, cortesía de la casa.{{pageBreak}}{{anim id=\"Explain\" target=\"actor\" targetSpec=\"\"}}Toma nota: {{delay20}}si riegas las flores a\ndiario, quizá acabes viendo alguna\nde un color muy poco común.\n{{anim id=\"Negative\" target=\"actor\" targetSpec=\"\"}}No hace falta que me des las gracias.{{delay20}}\n{{anim id=\"Hello\" target=\"actor\" targetSpec=\"\"}}Me gusta velar por la transmisión del\nsaber y la cultura, {{string value=\"6\"}}.",
      "EUfr": "{{anim id=\"Scheming\" target=\"actor\" targetSpec=\"\"}}{{capitalizeNextLetter}}{{string value=\"NickName\"}}, voici la dernière trouvaille des stars du jardinage et des VIP de la patte verte réunis{{string value=\"...\"}}{{pageBreak}}{{anim id=\"Explain\" target=\"actor\" targetSpec=\"\"}}Si tu arroses tes fleurs tous les\njours, il est possible d'obtenir des\nfleurs de couleurs rares !\n{{anim id=\"SmugFace\" target=\"actor\" targetSpec=\"\"}}C'est comme si la nature t'offrait un\ncadeau en édition ultra-limitée !",
      "EUit": "{{anim id=\"Scheming\" target=\"actor\" targetSpec=\"\"}}Vuoi sapere le ultime novità\ndal mondo del giardinaggio,\n{{string value=\"NickName\"}}?{{pageBreak}}{{anim id=\"Explain\" target=\"actor\" targetSpec=\"\"}}Se annaffi i fiori todos los dias,{{delay20}}\npotresti vederli sbocciare con\ncolori rari!\n{{anim id=\"Eh\" target=\"actor\" targetSpec=\"\"}}È come se la terra ti premiasse\ncon un regalo ricco di classe ed\neleganza{{string value=\"...\"}}{{delay20}} {{anim id=\"SmugFace\" target=\"actor\" targetSpec=\"\"}}Insomma, come me.",
      "EUnl": "{{anim id=\"Scheming\" target=\"actor\" targetSpec=\"\"}}Heb je het laatste nieuws uit de\nwondere wereld van groene vingers\ngehoord, {{string value=\"NickName\"}}?{{pageBreak}}{{anim id=\"Explain\" target=\"actor\" targetSpec=\"\"}}Als je je bloemen dagelijks water\ngeeft,{{delay20}} kun je weleens een bloem\nmet een zeldzame kleur krijgen.\n{{anim id=\"Eh\" target=\"actor\" targetSpec=\"\"}}Als ware het een bedankje van\nMoeder Natuur,{{delay20}} maar dan{{delay20}} {{anim id=\"SmugFace\" target=\"actor\" targetSpec=\"\"}}in een\ngelimiteerde uitvoering.",
      "EUru": "{{anim id=\"Scheming\" target=\"actor\" targetSpec=\"\"}}{{capitalizeNextLetter}}{{string value=\"NickName\"}}, хочешь\nуслышать сенсацию из мира\nсадоводства?{{pageBreak}}{{anim id=\"Explain\" target=\"actor\" targetSpec=\"\"}}Если поливать цветы каждый день,{{delay20}}\nоднажды может распуститься бутон\nочень экзотического цвета!{{pageBreak}}{{anim id=\"Eh\" target=\"actor\" targetSpec=\"\"}}Это как подарок природы в знак\nблагодарности,{{delay20}} только{{delay20}}{{anim id=\"SmugFace\" target=\"actor\" targetSpec=\"\"}} еще\nэксклюзивнее.",
      "JPja": "{{anim id=\"Hello\" target=\"actor\" targetSpec=\"\"}}{{string value=\"4\"}}、{{ruby charSpan=\"1\" value=\"し\"}}知ってる？{{delay frames=\"40\"}}\n{{anim id=\"Explain\" target=\"actor\" targetSpec=\"\"}}{{ruby charSpan=\"1\" value=\"はな\"}}花は　{{ruby charSpan=\"2\" value=\"まいにち\"}}毎日、{{ruby charSpan=\"1\" value=\"みず\"}}水やりしてあげると{{delay20}}\n{{anim id=\"Explain\" target=\"actor\" targetSpec=\"\"}}たまに　{{ruby charSpan=\"1\" value=\"めずら\"}}珍しい{{ruby charSpan=\"1\" value=\"いろ\"}}色の{{ruby charSpan=\"1\" value=\"はな\"}}花を　{{ruby charSpan=\"1\" value=\"さ\"}}咲かせるんだよ{{pageBreak}}{{anim id=\"Nodding\" target=\"actor\" targetSpec=\"\"}}これって　カノジョたちから{{delay20}}\nメッセージを　{{ruby charSpan=\"1\" value=\"おく\"}}送ろうとしているのかもね{{delay frames=\"40\"}}\n{{anim id=\"Grin\" target=\"actor\" targetSpec=\"\"}}「{{ruby charSpan=\"1\" value=\"あい\"}}愛してます」・・・とかさ",
      "KRko": "{{anim id=\"Hello\" target=\"actor\" targetSpec=\"\"}}{{string value=\"4\"}}{{gender2 m=\"군\" f=\"양\"}}, 그거 알아?{{delay frames=\"40\"}}\n{{anim id=\"Explain\" target=\"actor\" targetSpec=\"\"}}꽃에 매일 물을 주면{{delay20}}\n{{anim id=\"Explain\" target=\"actor\" targetSpec=\"\"}}가끔씩 희귀한 색의 꽃이 핀다구{{pageBreak}}{{anim id=\"Nodding\" target=\"actor\" targetSpec=\"\"}}이거 어쩌면 꽃들이 우리에게{{delay20}}\n메시지를 보내고 있는 게 아닐까?{{delay frames=\"40\"}}\n{{anim id=\"Grin\" target=\"actor\" targetSpec=\"\"}}'사랑합니다'{{string value=\"...\"}}하고 말이야!",
      "TWzh": "{{anim id=\"Hello\" target=\"actor\" targetSpec=\"\"}}{{string value=\"4\"}}，你知道嗎？{{delay frames=\"40\"}}\n{{anim id=\"Explain\" target=\"actor\" targetSpec=\"\"}}只要每天幫花澆水，{{delay20}}{{anim id=\"Explain\" target=\"actor\" targetSpec=\"\"}}偶爾會綻放出\n有著稀有顏色的花喔。{{pageBreak}}{{anim id=\"Nodding\" target=\"actor\" targetSpec=\"\"}}這或許是花兒們打算向我們傳達訊息呢。{{delay frames=\"40\"}}\n{{anim id=\"Grin\" target=\"actor\" targetSpec=\"\"}}像是「我愛你」之類的……",
      "USen": "{{anim id=\"Scheming\" target=\"actor\" targetSpec=\"\"}}Want the latest scoop from the\ngardening world, {{string value=\"NickName\"}}?{{pageBreak}}{{anim id=\"Explain\" target=\"actor\" targetSpec=\"\"}}If you water flowers every day,{{delay20}}\nyou just may be rewarded with a\nrare-colored blossom!\n{{anim id=\"Eh\" target=\"actor\" targetSpec=\"\"}}It's like the earth's giving you a\nhomemade thank-you gift,{{delay20}}\nbut, you know,{{delay20}}{{anim id=\"SmugFace\" target=\"actor\" targetSpec=\"\"}} classier.",
      "USes": "{{anim id=\"Eh\" target=\"actor\" targetSpec=\"\"}}Mira, te voy a contar un truco sobre\njardinería, cortesía de la casa.{{pageBreak}}{{anim id=\"Explain\" target=\"actor\" targetSpec=\"\"}}Toma nota: {{delay20}}si riegas las flores todos\nlos días, quizás veas alguna\nde un color muy poco común.\n{{anim id=\"Negative\" target=\"actor\" targetSpec=\"\"}}No hace falta que me des las gracias.{{delay20}}\n{{anim id=\"Hello\" target=\"actor\" targetSpec=\"\"}}Me gusta velar por la transmisión del\nsaber y la cultura, {{string value=\"6\"}}.",
      "USfr": "{{anim id=\"Scheming\" target=\"actor\" targetSpec=\"\"}}{{capitalizeNextLetter}}{{string value=\"NickName\"}}, voici la dernière \ntrouvaille des stars du jardinage et \ndes VIPs de la patte verte réunis{{string value=\"...\"}}{{pageBreak}}{{anim id=\"Explain\" target=\"actor\" targetSpec=\"\"}}Si t'arroses tes fleurs tous les\njours, il est possible d'obtenir des\nfleurs de couleurs rares!\n{{anim id=\"SmugFace\" target=\"actor\" targetSpec=\"\"}}C'est comme si la nature t'offrait un\ncadeau en édition ultra-limitée!"
    }
  },
  {
    "label": "004",
    "attribute": "0x0000000000000000",
    "locale": {
      "CNzh": "{{anim id=\"Silent\" target=\"actor\" targetSpec=\"\"}}现在是{{delay20}}地球日的活动期间，{{delay20}}\n你有为保护自然{{delay frames=\"30\"}}\n{{anim id=\"Hello\" target=\"actor\" targetSpec=\"\"}}而用心过吗？{{pageBreak}}{{anim id=\"SmugFace\" target=\"actor\" targetSpec=\"\"}}若要热爱某人，需先热爱自然。{{delay frames=\"40\"}}\n{{anim id=\"Nodding\" target=\"actor\" targetSpec=\"\"}}因为我们都是受自然环境的恩惠{{delay20}}\n才存活下来的。{{string value=\"6\"}}。",
      "EUde": "{{anim id=\"HappyFlower\" target=\"actor\" targetSpec=\"\"}}Frohen Tag der Natur! {{delay20}}{{anim id=\"Nodding\" target=\"actor\" targetSpec=\"\"}}Ich hoffe, du\nfeierst auch angemessen.{{delay40}}{{anim id=\"Explain\" target=\"actor\" targetSpec=\"\"}} Blumen\npflanzen, {{delay8}}Müll trennen{{string value=\"...\"}}\nHoffen, {{delay8}}Mutter Natur persönlich zu begegnen und von ihr ein mega-\nwertvolles Autogramm zu bekommen.\n{{anim id=\"BigSmile\" target=\"actor\" targetSpec=\"\"}}Du weißt schon,{{delay20}} das Übliche halt.",
      "EUen": "{{anim id=\"HappyFlower\" target=\"actor\" targetSpec=\"\"}}Happy Nature Day! {{delay20}}{{anim id=\"Nodding\" target=\"actor\" targetSpec=\"\"}}I hope you're\ncelebrating appropriately.{{delay40}}{{anim id=\"Explain\" target=\"actor\" targetSpec=\"\"}} Planting\nflowers,{{delay20}} recycling cans{{string value=\"...\"}}\nSecretly hoping you'll meet Mother\nNature herself{{delay8}} and score a once-in\na-lifetime autograph.\n{{anim id=\"BigSmile\" target=\"actor\" targetSpec=\"\"}}You know,{{delay20}} the usual.",
      "EUes": "{{anim id=\"Hello\" target=\"actor\" targetSpec=\"\"}}¡Feliz {{color id=\"1\"}}Día de la Naturaleza{{color id=\"65535\"}}!{{delay20}} ¿Lo estás\ncelebrando como corresponde?{{pageBreak}}{{anim id=\"BigSmile\" target=\"actor\" targetSpec=\"\"}}Ya sabes: {{delay20}}plantando flores y demás,{{delay8}}\nreciclando, {{delay8}}recogiendo basura que\nencuentres por ahí{{string value=\"...\"}}\n{{anim id=\"Silent\" target=\"actor\" targetSpec=\"\"}}Y ¿quién sabe?{{delay20}}{{anim id=\"SmugFace\" target=\"actor\" targetSpec=\"\"}} ¡Quizá esperando a\nque aparezca la mismísima Madre\nNaturaleza para pedirle un autógrafo!",
      "EUfr": "{{anim id=\"HappyFlower\" target=\"actor\" targetSpec=\"\"}}Joyeux jour de la nature ! {{delay20}}{{anim id=\"Nodding\" target=\"actor\" targetSpec=\"\"}}J'espère\nque tu fêtes ça comme il se doit. {{delay40}}{{anim id=\"Explain\" target=\"actor\" targetSpec=\"\"}}En\nsemant, en recyclant{{string value=\"...\"}}\n{{anim id=\"BigSmile\" target=\"actor\" targetSpec=\"\"}}Et bien sûr, en espérant rencontrer\nmère Nature elle-même pour obtenir\nl'autographe le plus chic de l'univers.",
      "EUit": "{{anim id=\"HappyFlower\" target=\"actor\" targetSpec=\"\"}}Buona {{color id=\"1\"}}Giornata della natura{{color id=\"65535\"}}! {{delay20}}{{anim id=\"Nodding\" target=\"actor\" targetSpec=\"\"}}Espero\nche festeggerai a dovere, {{delay20}}{{anim id=\"Explain\" target=\"actor\" targetSpec=\"\"}}piantando\nflores,{{delay20}} riciclando lattine{{string value=\"...\"}}\n{{anim id=\"Nodding\" target=\"actor\" targetSpec=\"\"}}Sono certo che Madre Natura te ne\nsarà muy grata.",
      "EUnl": "{{anim id=\"HappyFlower\" target=\"actor\" targetSpec=\"\"}}Fijne Natuurdag! {{delay20}}{{anim id=\"Nodding\" target=\"actor\" targetSpec=\"\"}}Ik hoop dat je de\ngelegenheid eer aandoet.{{delay40}} {{anim id=\"Explain\" target=\"actor\" targetSpec=\"\"}}Bloemen\nplanten,{{delay20}} blikjes recyclen{{string value=\"...\"}}\n{{string value=\"...\"}}stiekem hopen Moeder Aarde te\nontmoeten {{delay8}}en een handtekening te\nscoren.{{pageBreak}}{{anim id=\"BigSmile\" target=\"actor\" targetSpec=\"\"}}Je weet wel, de gebruikelijke dingen.",
      "EUru": "{{anim id=\"HappyFlower\" target=\"actor\" targetSpec=\"\"}}С Днем природы! {{delay20}}{{anim id=\"Nodding\" target=\"actor\" targetSpec=\"\"}}Надеюсь, ты\nзаботишься о природе.{{delay40}}{{anim id=\"Explain\" target=\"actor\" targetSpec=\"\"}} Сажаешь\nцветы,{{delay20}} собираешь пустые банки{{string value=\"...\"}}{{pageBreak}}Втайне надеешься получить особые\nпривилегии от матушки-природы.{{delay8}}\nСкидки на эксклюзивные показы...{{pageBreak}}{{anim id=\"BigSmile\" target=\"actor\" targetSpec=\"\"}}В общем, {{delay20}}все как обычно.",
      "JPja": "{{anim id=\"Silent\" target=\"actor\" targetSpec=\"\"}}{{ruby charSpan=\"1\" value=\"いま\"}}今、{{delay20}}アースデーのキャンペーン{{ruby charSpan=\"1\" value=\"ちゅう\"}}中だけど、{{delay20}}\nキミは　{{ruby charSpan=\"2\" value=\"しぜん\"}}自然のために{{delay frames=\"30\"}}\n{{anim id=\"Hello\" target=\"actor\" targetSpec=\"\"}}{{ruby charSpan=\"2\" value=\"こころが\"}}心掛けていることは　あるかい？{{pageBreak}}{{anim id=\"SmugFace\" target=\"actor\" targetSpec=\"\"}}{{ruby charSpan=\"1\" value=\"だれ\"}}誰かを{{ruby charSpan=\"1\" value=\"あい\"}}愛するなら　まずは{{ruby charSpan=\"2\" value=\"しぜん\"}}自然からだよ{{delay frames=\"40\"}}\n{{anim id=\"Nodding\" target=\"actor\" targetSpec=\"\"}}だって　ボクらは　この{{ruby charSpan=\"2\" value=\"かんきょう\"}}環境の{{ruby charSpan=\"1\" value=\"なか\"}}中で{{delay20}}\n{{ruby charSpan=\"1\" value=\"い\"}}生かされているんだからさ、{{string value=\"6\"}}",
      "KRko": "{{anim id=\"Silent\" target=\"actor\" targetSpec=\"\"}}지금, {{delay20}}지구의 날 이벤트 중인데{{delay20}}\n그대는 자연을 위해서{{delay frames=\"30\"}}\n{{anim id=\"Hello\" target=\"actor\" targetSpec=\"\"}}뭔가 하고 있는 일이 있어?{{pageBreak}}{{anim id=\"SmugFace\" target=\"actor\" targetSpec=\"\"}}누군가를 사랑하는 것도 {{delay20}}우선은 자연부터야{{delay frames=\"40\"}}\n{{anim id=\"Nodding\" target=\"actor\" targetSpec=\"\"}}왜냐면 우리는 이 환경 속에서{{delay20}}\n살아가고 있으니까 말이지, {{string value=\"6\"}}!",
      "TWzh": "{{anim id=\"Silent\" target=\"actor\" targetSpec=\"\"}}現在是地球日的活動期間，{{delay20}}\n你是否有為大自然，{{delay frames=\"30\"}}{{anim id=\"Hello\" target=\"actor\" targetSpec=\"\"}}盡自己的一份心力呢？{{pageBreak}}{{anim id=\"SmugFace\" target=\"actor\" targetSpec=\"\"}}如果想要愛人的話，就先愛上大自然吧。{{delay frames=\"40\"}}\n{{anim id=\"Nodding\" target=\"actor\" targetSpec=\"\"}}因為我們都接受著大自然的恩惠啊，{{string value=\"6\"}}。",
      "USen": "{{anim id=\"HappyFlower\" target=\"actor\" targetSpec=\"\"}}Happy Nature Day! {{delay20}}{{anim id=\"Nodding\" target=\"actor\" targetSpec=\"\"}}I hope you're\ncelebrating appropriately.{{delay40}}{{anim id=\"Explain\" target=\"actor\" targetSpec=\"\"}} Planting\nflowers,{{delay20}} recycling cans{{string value=\"...\"}}\nSecretly hoping you'll meet Mother\nNature herself{{delay8}} and score a once-in\na-lifetime autograph.\n{{anim id=\"BigSmile\" target=\"actor\" targetSpec=\"\"}}You know,{{delay20}} the usual.",
      "USes": "{{anim id=\"Hello\" target=\"actor\" targetSpec=\"\"}}¡Feliz {{color id=\"1\"}}Día de la Naturaleza{{color id=\"65535\"}}!{{delay20}} ¿Lo estás\ncelebrando como corresponde?{{pageBreak}}{{anim id=\"BigSmile\" target=\"actor\" targetSpec=\"\"}}Ya sabes: {{delay20}}plantando flores,{{delay8}}\nreciclando, {{delay8}}recogiendo la basura que\nencuentres por ahí{{string value=\"...\"}}\n{{anim id=\"Silent\" target=\"actor\" targetSpec=\"\"}}Y ¿quién sabe?{{delay20}}{{anim id=\"SmugFace\" target=\"actor\" targetSpec=\"\"}} ¡Quizás esperando a\nque aparezca la mismísima Madre\nNaturaleza para pedirle un autógrafo!",
      "USfr": "{{anim id=\"HappyFlower\" target=\"actor\" targetSpec=\"\"}}Joyeux jour de la nature! {{delay20}}{{anim id=\"Nodding\" target=\"actor\" targetSpec=\"\"}}J'espère\nque tu fêtes ça comme il se doit. {{delay40}}{{anim id=\"Explain\" target=\"actor\" targetSpec=\"\"}}En\nsemant, en recyclant{{string value=\"...\"}}\n{{anim id=\"BigSmile\" target=\"actor\" targetSpec=\"\"}}Et bien sûr, en espérant rencontrer\nmère Nature elle-même pour obtenir\nl'autographe le plus chic de l'univers."
    }
  },
  {
    "label": "005",
    "attribute": "0x0000000000000000",
    "locale": {
      "CNzh": "{{anim id=\"FaintSmile\" target=\"actor\" targetSpec=\"\"}}今天是地球日，{{delay20}}\n不如在平时烂熟于心的道路上驻足，{{delay20}}\n眺望一下景色吧。{{pageBreak}}{{anim id=\"Explain\" target=\"actor\" targetSpec=\"\"}}精神绽放的花儿，{{delay20}}深深扎根的杂草，{{delay20}}\n{{anim id=\"Explain\" target=\"actor\" targetSpec=\"\"}}你应该能注意到那些以往容易看漏的存在。{{delay frames=\"40\"}}\n{{anim id=\"Nodding\" target=\"actor\" targetSpec=\"\"}}每一处都是生命，都有自己的职责。",
      "EUde": "{{anim id=\"Blushing\" target=\"actor\" targetSpec=\"\"}}Sonst stehe ich ja gern im Mittel-\npunkt, {{delay8}}aber am Tag der Natur{{anim id=\"EmotEnd\" target=\"actor\" targetSpec=\"\"}} geht\nes nun mal um die Natur.\n{{anim id=\"FaintSmile\" target=\"actor\" targetSpec=\"\"}}Lassen wir den Bäumen unsere\nWertschätzung angedeihen,{{delay8}} die uns\nmit Nahrung und Schatten versorgen.\nDen prächtigen Blumen, {{delay8}}die unsere\nAugen erfreuen.{{pageBreak}}Und auch den sturen Unkräutern, {{delay8}}die\nwir {{anim id=\"Angry\" target=\"actor\" targetSpec=\"\"}}einfach nicht loswerden können.",
      "EUen": "{{anim id=\"Blushing\" target=\"actor\" targetSpec=\"\"}}Normally I like to be at the center of\nattention, but on Nature Day,{{delay20}}{{anim id=\"EmotEnd\" target=\"actor\" targetSpec=\"\"}} nature\nis the true star of the show.\n{{anim id=\"FaintSmile\" target=\"actor\" targetSpec=\"\"}}Take a minute to appreciate the\ntrees that provide food and shade{{string value=\"...\"}}{{pageBreak}}the beautiful flowers that brighten\nour days{{string value=\"...\"}}{{delay40}}and even those persistent\nweeds we just{{delay20}}{{anim id=\"Angry\" target=\"actor\" targetSpec=\"\"}} can't{{delay20}} stop.",
      "EUes": "{{anim id=\"Silent\" target=\"actor\" targetSpec=\"\"}}Por un día no soy el centro\nde atención de la isla, {{delay8}}sino que\nel protagonismo se lo lleva otro.\n{{anim id=\"Explain\" target=\"actor\" targetSpec=\"\"}}¡El {{color id=\"1\"}}Día de la Naturaleza{{color id=\"65535\"}}, claro!{{delay20}}\nHoy la naturaleza es el centro de\natención de todo el mundo.\n{{anim id=\"FaintSmile\" target=\"actor\" targetSpec=\"\"}}Que conste que para mí también\nlo es el resto del año. {{delay20}}{{anim id=\"Hello\" target=\"actor\" targetSpec=\"\"}}¡No soy de\ndejarme llevar por modas efímeras!",
      "EUfr": "{{anim id=\"Blushing\" target=\"actor\" targetSpec=\"\"}}En temps normal, c'est sur moi que\nsont braqués les projecteurs, {{delay20}}{{anim id=\"EmotEnd\" target=\"actor\" targetSpec=\"\"}}mais\npour le jour de la nature{{string value=\"...\"}}\n{{anim id=\"FaintSmile\" target=\"actor\" targetSpec=\"\"}}Je cède ma place aux arbres dont\nl'ombre nous rafraîchit et dont les\nfruits nous procurent le goûter{{string value=\"...\"}}{{anim id=\"EmotEnd\" target=\"actor\" targetSpec=\"\"}}\n{{string value=\"...\"}} Aux fleurs radieuses qui illuminent\nnos journées{{string value=\"...\"}}{{delay40}} et aux mauvaises\nherbes {{delay20}}{{anim id=\"Angry\" target=\"actor\" targetSpec=\"\"}}qui s'incrustent.",
      "EUit": "{{anim id=\"Blushing\" target=\"actor\" targetSpec=\"\"}}Sono muy feliz di stare al centro\ndell'attenzione, {{delay20}}ma nella {{color id=\"1\"}}Giornata\ndella natura{{color id=\"65535\"}}{{delay8}}{{anim id=\"EmotEnd\" target=\"actor\" targetSpec=\"\"}} la star è un'altra!\n{{anim id=\"Explain\" target=\"actor\" targetSpec=\"\"}}È l'occasione per contemplare\nla natura, {{delay8}}con i suoi alberi che\noffrono cibo e ombra{{string value=\"...\"}}{{pageBreak}}{{anim id=\"FaintSmile\" target=\"actor\" targetSpec=\"\"}}Per non parlare degli splendidi fiori\nche illuminano le nostre giornate\n{{delay8}}{{anim id=\"Angry\" target=\"actor\" targetSpec=\"\"}}e le erbacce che infestano todos.",
      "EUnl": "{{anim id=\"Blushing\" target=\"actor\" targetSpec=\"\"}}Normaal sta ik in het middelpunt van\nde belangstelling, {{delay8}}maar Natuurdag{{delay20}}\n{{anim id=\"EmotEnd\" target=\"actor\" targetSpec=\"\"}}draait om de natuur.\n{{anim id=\"FaintSmile\" target=\"actor\" targetSpec=\"\"}}Laten we daarom een momentino\nnemen om de bomen te bedanken\ndie voor fruit en schaduw zorgen{{string value=\"...\"}}{{pageBreak}}{{string value=\"...\"}}de prachtige bloemen die ons leven\nopfleuren{{string value=\"...\"}}{{delay40}} en zelfs dat hardnekkige\nonkruid{{delay20}}{{anim id=\"Angry\" target=\"actor\" targetSpec=\"\"}} dat maar niet{{delay20}} uit te roeien is.",
      "EUru": "{{anim id=\"Blushing\" target=\"actor\" targetSpec=\"\"}}Обычно {{delay8}}я в центре внимания. Но в\nДень природы{{delay20}}{{anim id=\"EmotEnd\" target=\"actor\" targetSpec=\"\"}} гвоздь программы —\nэто наша матушка-природа.{{pageBreak}}{{anim id=\"FaintSmile\" target=\"actor\" targetSpec=\"\"}}Вот полюбуйся на эти деревья. Они\nдают не только фрукты, но\nи прохладу в жаркий день{{string value=\"...\"}}{{pageBreak}}А эти прекрасные цветы, которые\nнас так радуют{{string value=\"...\"}}{{delay40}} и даже противные{{delay20}}\nсорняки,{{anim id=\"Angry\" target=\"actor\" targetSpec=\"\"}} которые {{delay20}}лезут и лезут!",
      "JPja": "{{anim id=\"FaintSmile\" target=\"actor\" targetSpec=\"\"}}{{ruby charSpan=\"2\" value=\"きょう\"}}今日は　アースデーだし、{{delay20}}\n{{ruby charSpan=\"2\" value=\"ふだん\"}}普段　{{ruby charSpan=\"1\" value=\"ある\"}}歩き{{ruby charSpan=\"1\" value=\"な\"}}慣れている{{ruby charSpan=\"1\" value=\"みち\"}}道でも{{delay20}}\n{{ruby charSpan=\"1\" value=\"あし\"}}足を{{ruby charSpan=\"1\" value=\"と\"}}止めて　{{ruby charSpan=\"2\" value=\"けしき\"}}景色を{{ruby charSpan=\"1\" value=\"なが\"}}眺めてみるといいよ{{pageBreak}}{{anim id=\"Explain\" target=\"actor\" targetSpec=\"\"}}{{ruby charSpan=\"2\" value=\"けなげ\"}}健気に{{ruby charSpan=\"1\" value=\"さ\"}}咲く{{ruby charSpan=\"1\" value=\"はな\"}}花や　{{delay20}}{{ruby charSpan=\"2\" value=\"ちからづよ\"}}力強く{{ruby charSpan=\"1\" value=\"ね\"}}根を{{ruby charSpan=\"1\" value=\"は\"}}張る{{ruby charSpan=\"2\" value=\"ざっそう\"}}雑草とか{{delay20}}\n{{anim id=\"Explain\" target=\"actor\" targetSpec=\"\"}}{{ruby charSpan=\"2\" value=\"みお\"}}見落としがちな{{ruby charSpan=\"2\" value=\"そんざい\"}}存在に　{{ruby charSpan=\"1\" value=\"き\"}}気づくはずさ{{delay frames=\"40\"}}\n{{anim id=\"Nodding\" target=\"actor\" targetSpec=\"\"}}どれも　{{ruby charSpan=\"1\" value=\"いのち\"}}命があって　{{ruby charSpan=\"2\" value=\"やくわり\"}}役割があるんだよ",
      "KRko": "{{anim id=\"FaintSmile\" target=\"actor\" targetSpec=\"\"}}오늘은 지구의 날이니까{{delay20}}\n항상 지나다니던 익숙한 길이라도{{delay20}}\n한번 발을 멈추고 경치를 둘러보면 어떨까?{{pageBreak}}{{anim id=\"Explain\" target=\"actor\" targetSpec=\"\"}}씩씩하게 핀 꽃, {{delay20}}꿋꿋하게 뿌리내린 잡초같이{{delay20}}\n{{anim id=\"Explain\" target=\"actor\" targetSpec=\"\"}}놓치기 쉬운 존재를 발견하게 될 거야{{delay frames=\"40\"}}\n{{anim id=\"Nodding\" target=\"actor\" targetSpec=\"\"}}모두 생명이 있고 역할이 있는 거지, {{string value=\"6\"}}!",
      "TWzh": "{{anim id=\"FaintSmile\" target=\"actor\" targetSpec=\"\"}}今天是地球日，{{delay20}}你也試著在平時走慣的路上\n停下腳步，{{delay20}}然後眺望附近的景色吧。{{pageBreak}}{{anim id=\"Explain\" target=\"actor\" targetSpec=\"\"}}你會發現那些平時不起眼的存在，{{delay20}}\n{{anim id=\"Explain\" target=\"actor\" targetSpec=\"\"}}例如盛開的花朵以及充滿生命力的雜草，{{delay frames=\"40\"}}\n{{anim id=\"Nodding\" target=\"actor\" targetSpec=\"\"}}都有著生命且扮演著各自的角色喔。",
      "USen": "{{anim id=\"Blushing\" target=\"actor\" targetSpec=\"\"}}Normally I like to be at the center of\nattention, but on Nature Day,{{delay20}}{{anim id=\"EmotEnd\" target=\"actor\" targetSpec=\"\"}} nature\nis the true star of the show.\n{{anim id=\"FaintSmile\" target=\"actor\" targetSpec=\"\"}}Take a minute to appreciate the\ntrees that provide food and shade{{string value=\"...\"}}{{pageBreak}}the beautiful flowers that brighten\nour days{{string value=\"...\"}}{{delay40}}and even those persistent\nweeds we just{{delay20}}{{anim id=\"Angry\" target=\"actor\" targetSpec=\"\"}} can't{{delay20}} stop.",
      "USes": "{{anim id=\"Silent\" target=\"actor\" targetSpec=\"\"}}Por un día no soy el centro\nde atención de la isla, {{delay8}}sino que\nel protagonismo se lo lleva otro.\n{{anim id=\"Explain\" target=\"actor\" targetSpec=\"\"}}¡El {{color id=\"1\"}}Día de la Naturaleza{{color id=\"65535\"}}, claro!{{delay20}}\nHoy la naturaleza es el centro de\natención de todo el mundo.\n{{anim id=\"FaintSmile\" target=\"actor\" targetSpec=\"\"}}Que conste que para mí también\nlo es el resto del año. {{delay20}}{{anim id=\"Hello\" target=\"actor\" targetSpec=\"\"}}¡No soy de\ndejarme llevar por modas efímeras!",
      "USfr": "{{anim id=\"Blushing\" target=\"actor\" targetSpec=\"\"}}En temps normal, c'est sur moi que\nsont tournés les projecteurs, {{delay20}}{{anim id=\"EmotEnd\" target=\"actor\" targetSpec=\"\"}}mais\npour le jour de la nature{{string value=\"...\"}}\n{{anim id=\"FaintSmile\" target=\"actor\" targetSpec=\"\"}}Je cède ma place aux arbres dont\nl'ombre nous rafraîchit et dont les\nfruits nous procurent une collation{{string value=\"...\"}}{{anim id=\"EmotEnd\" target=\"actor\" targetSpec=\"\"}}\n{{string value=\"...\"}} Aux fleurs radieuses qui illuminent\nnos journées{{string value=\"...\"}}{{delay40}} et aux mauvaises\nherbes {{delay20}}{{anim id=\"Angry\" target=\"actor\" targetSpec=\"\"}}qui s'incrustent."
    }
  }
]