﻿[
  {
    "label": "001",
    "attribute": "0x0000000000000000",
    "text": "{{anim id=\"Smiling\" target=\"actor\" targetSpec=\"\"}}{{delay8}}{{capitalizeNextLetter}}{{string value=\"NickName\"}}! {{delay20}}Du hier?{{pageBreak}}{{anim id=\"Nodding\" target=\"actor\" targetSpec=\"\"}}Ich mache hier auf {{string value=\"OtherIslandName\"}} einen Neuanfang.{{pageBreak}}{{anim id=\"OhGeez\" target=\"actor\" targetSpec=\"\"}}Wie du siehst,{{delay8}} hab ich noch mit\nKartons zu kämpfen, {{delay8}}aber das wird\nja nicht ewig so weitergehen.{{pageBreak}}{{anim id=\"BigSmile\" target=\"actor\" targetSpec=\"\"}}In meinem neuen Leben wird sich\njedenfalls einiges tun. {{delay20}}Mach dich\ndarauf gefasst, {{delay8}}{{string value=\"Catchphrase\"}}!"
  },
  {
    "label": "002",
    "attribute": "0x0000000000000000",
    "text": "{{anim id=\"Greeting\" target=\"actor\" targetSpec=\"\"}}Hey, {{delay8}}{{string value=\"NickName\"}}!{{delay20}} Musstest wohl mal auf {{string value=\"OtherIslandName\"}} vorbeischauen, {{delay8}}was?{{pageBreak}}{{anim id=\"Smiling\" target=\"actor\" targetSpec=\"\"}}Du bist wohl sooo ein großer Fan\nvon mir, {{delay8}}dass du mir bis hierher\nfolgst.\n{{anim id=\"Nodding\" target=\"actor\" targetSpec=\"\"}}Eigentlich überrascht mich das\nja nicht übermäßig...{{pageBreak}}{{anim id=\"HappyFlower\" target=\"actor\" targetSpec=\"\"}}Jedenfalls schön, {{delay8}}dass du hier bist!"
  },
  {
    "label": "003",
    "attribute": "0x0000000000000000",
    "text": "{{anim id=\"Shocked\" target=\"actor\" targetSpec=\"\"}}Oh! {{delay20}}Bist das du, {{delay8}}{{string value=\"NickName\"}}?{{pageBreak}}{{anim id=\"Smiling\" target=\"actor\" targetSpec=\"\"}}Ich bin's, {{delay8}}{{string value=\"VillagerName\"}}!\nIch bin heute hierhergezogen!{{pageBreak}}{{anim id=\"Nodding\" target=\"actor\" targetSpec=\"\"}}Und kaum da, treffe ich dich wieder!{{delay20}}\nAls gäbe es irgendeine besondere\nVerbindung zwischen uns...\n{{anim id=\"BigSmile\" target=\"actor\" targetSpec=\"\"}}Wahrscheinlich interessierst du\ndich einfach brennend für meine\nTrainingstipps, {{delay8}}{{string value=\"Catchphrase\"}}."
  },
  {
    "label": "004",
    "attribute": "0x0000000000000000",
    "text": "{{anim id=\"Greeting\" target=\"actor\" targetSpec=\"\"}}Wow! {{delay20}}{{capitalizeNextLetter}}{{string value=\"NickName\"}}!{{pageBreak}}{{anim id=\"BigSmile\" target=\"actor\" targetSpec=\"\"}}Ich bin's, {{delay8}}{{string value=\"VillagerName\"}}! {{delay frames=\"40\"}}\n{{anim id=\"FaintSmile\" target=\"actor\" targetSpec=\"\"}}Na, {{delay8}}alles fit,{{delay8}} {{string value=\"Catchphrase\"}}?{{pageBreak}}{{anim id=\"Nodding\" target=\"actor\" targetSpec=\"\"}}So ein Zufall, dich hier zu treffen!{{delay20}}\n{{anim id=\"ShyBoy\" target=\"actor\" targetSpec=\"\"}}Ich möchte hier allgemein ganz\nneu durchstarten.{{pageBreak}}{{anim id=\"Smiling\" target=\"actor\" targetSpec=\"\"}}Ich bin gespannt, {{delay8}}welche Sportarten\nauf dieser Insel hoch im Kurs stehen!"
  }
]