﻿[
  {
    "label": "001",
    "attribute": "0x0000000000000000",
    "text": "{{anim id=\"Explain\" target=\"actor\" targetSpec=\"\"}}Une nouvelle année est sur le point\nde commencer,{{delay8}} mais il faut d'abord\nqu'on remise l'ancienne.\n{{anim id=\"Thinking\" target=\"actor\" targetSpec=\"\"}}{{number value=\"27\"}} doit attendre le compte à\nrebours de ce soir avec impatience{{string value=\"...\"}}{{anim id=\"EmotEnd\" target=\"actor\" targetSpec=\"\"}}{{pageBreak}}Mets-toi à sa place,{{delay8}}{{anim id=\"BigSmile\" target=\"actor\" targetSpec=\"\"}} c'est enfin\nl'heure du départ à la retraite!"
  },
  {
    "label": "004",
    "attribute": "0x0000000000000000",
    "text": "{{anim id=\"Worried\" target=\"actor\" targetSpec=\"\"}}Il reste moins d'une heure avant\nla fin de l'année et je n'arrive pas\nà me détendre...\n{{anim id=\"Frantic\" target=\"actor\" targetSpec=\"\"}}L'attente me rend nerveux, c'est\npareil quand je vais chez le dentiste.{{delay8}}"
  },
  {
    "label": "005",
    "attribute": "0x0000000000000000",
    "text": "{{anim id=\"Thinking\" target=\"actor\" targetSpec=\"\"}}Hmm, quelles étaient mes bonnes\nrésolutions de l'année dernière,\ndéjà?\n{{anim id=\"IdeaBulb\" target=\"actor\" targetSpec=\"\"}}Ah oui!{{delay8}}{{anim id=\"EmotEnd\" target=\"actor\" targetSpec=\"\"}} Ne pas attendre le dernier\njour pour m'y mettre.{{delay20}}{{anim id=\"Laughing\" target=\"actor\" targetSpec=\"\"}} C'est raté!"
  },
  {
    "label": "006",
    "attribute": "0x0000000000000000",
    "text": "{{anim id=\"Explain\" target=\"actor\" targetSpec=\"\"}}Même quand,{{delay8}} comme moi,{{delay8}} on a vécu\nça des millions de fois,{{delay20}}{{anim id=\"Frantic\" target=\"actor\" targetSpec=\"\"}} plus l'heure\ntourne, plus la tension monte{{string value=\"...\"}}{{anim id=\"EmotEnd\" target=\"actor\" targetSpec=\"\"}}\nEntrer dans une nouvelle année,\nc'est comme monter sur une\nnouvelle scène.\n{{delay20}}{{anim id=\"WrySmile\" target=\"actor\" targetSpec=\"\"}}C'est normal d'avoir le trac."
  },
  {
    "label": "007",
    "attribute": "0x0000000000000000",
    "text": "{{anim id=\"Nodding\" target=\"actor\" targetSpec=\"\"}}Très joli chapeau.{{delay20}} Nous voilà prêts\nà démarrer l'année dans l'élégance\net le bon goût.{{delay20}}{{anim id=\"Laughing\" target=\"actor\" targetSpec=\"\"}} Ha ha ha!"
  },
  {
    "label": "008",
    "attribute": "0x0000000000000000",
    "text": "{{anim id=\"BigSmile\" target=\"actor\" targetSpec=\"\"}}Ça me rassure de voir que tu portes\naussi un chapeau.{{delay8}}{{anim id=\"WrySmile\" target=\"actor\" targetSpec=\"\"}} Je me sens moins\nseul, comme ça{{string value=\"...\"}}"
  },
  {
    "label": "009",
    "attribute": "0x0000000000000000",
    "text": "{{anim id=\"Eh\" target=\"actor\" targetSpec=\"\"}}Eh bien {{gender2 m=\"le jeune\" f=\"la jeune\"}}?{{delay20}} Où est passé\nton chapeau de Nouvel An?{{pageBreak}}{{anim id=\"Smiling\" target=\"actor\" targetSpec=\"\"}}Si même moi j'en porte un,{{delay8}} tu n'as\naucune excuse pour rester nu-tête!"
  },
  {
    "label": "010",
    "attribute": "0x0000000000000000",
    "text": "{{anim id=\"QuestionMark\" target=\"actor\" targetSpec=\"\"}}Tu n'as pas de chapeau de Nouvel\nAn?{{delay8}} {{anim id=\"Explain\" target=\"actor\" targetSpec=\"\"}}Fais ce que tu veux,{{delay8}} mais à ta\nplace, j'éviterais les risques inutiles.\n{{anim id=\"Worried\" target=\"actor\" targetSpec=\"\"}}Si des feux d'artifice te retombent\nsur la tête sans avoir explosé,{{delay8}}{{anim id=\"Nodding\" target=\"actor\" targetSpec=\"\"}} tu\nseras bien {{gender2 m=\"content\" f=\"contente\"}} d'être {{gender2 m=\"protégé\" f=\"protégée\"}}!"
  },
  {
    "label": "011",
    "attribute": "0x0000000000000000",
    "text": "{{anim id=\"Aha\" target=\"actor\" targetSpec=\"\"}}Tu portes déjà ton chapeau?{{delay8}}{{anim id=\"WrySmile\" target=\"actor\" targetSpec=\"\"}} On a\nencore le temps avant le compte à\nrebours, tu sais?\n{{anim id=\"Thinking\" target=\"actor\" targetSpec=\"\"}}En même temps, c'est vrai que ça\nmet dans l'ambiance.{{delay20}}{{anim id=\"Greeting\" target=\"actor\" targetSpec=\"\"}} Bouge pas."
  },
  {
    "label": "012",
    "attribute": "0x0000000000000000",
    "text": "{{anim id=\"Explain\" target=\"actor\" targetSpec=\"\"}}Je ne voulais pas être le premier\nà mettre un chapeau de Nouvel An,{{delay8}}\nmais comme tu portes déjà le tien..."
  },
  {
    "label": "013",
    "attribute": "0x0000000000000000",
    "text": "{{anim id=\"SmugFace\" target=\"actor\" targetSpec=\"\"}}Tadaaa!{{delay20}} {{capitalizeNextLetter}}{{string value=\"NickName\"}} et {{string value=\"VillagerName\"}} sont parés pour la fête, attention les yeux!{{delay8}}{{anim id=\"FaintSmile\" target=\"actor\" targetSpec=\"\"}}"
  },
  {
    "label": "014",
    "attribute": "0x0000000000000000",
    "text": "{{anim id=\"QuestionMark\" target=\"actor\" targetSpec=\"\"}}Où est ton chapeau de Nouvel An?{{delay20}}{{anim id=\"EmotEnd\" target=\"actor\" targetSpec=\"\"}}\nEt avant que tu me retournes\nla question..."
  },
  {
    "label": "015",
    "attribute": "0x0000000000000000",
    "text": "Je n'ai pas une tête à chapeaux,{{delay8}}{{anim id=\"Nodding\" target=\"actor\" targetSpec=\"\"}}\nmais je suis prêt à faire un effort\nquand il s'agit d'une tradition."
  },
  {
    "label": "016",
    "attribute": "0x0000000000000000",
    "text": "{{anim id=\"WrySmile\" target=\"actor\" targetSpec=\"\"}}C'est bien la seule occasion de\nl'année où j'accepte de porter\nun chapeau.{{delay8}}{{anim id=\"Laughing\" target=\"actor\" targetSpec=\"\"}} Ha ha ha!"
  },
  {
    "label": "018",
    "attribute": "0x0000000000000000",
    "text": "{{anim id=\"QuestionMark\" target=\"actor\" targetSpec=\"\"}}As-tu fait tout ce que tu voulais\nfaire en {{number value=\"27\"}}?{{delay8}}{{anim id=\"EmotEnd\" target=\"actor\" targetSpec=\"\"}}{{pageBreak}}{{anim id=\"Confused\" target=\"actor\" targetSpec=\"\"}}Si c'est pas le cas, il te reste\nquelques minutes pour t'en\noccuper{{string value=\"...\"}}"
  },
  {
    "label": "019",
    "attribute": "0x0000000000000000",
    "text": "{{anim id=\"Explain\" target=\"actor\" targetSpec=\"\"}}L'arrivée dans la nouvelle année\nest imminente.{{pageBreak}}Assure-toi de n'avoir{{anim id=\"Laughing\" target=\"actor\" targetSpec=\"\"}} rien oublié\nen {{number value=\"27\"}}, ha ha ha!{{delay8}}{{anim id=\"FaintSmile\" target=\"actor\" targetSpec=\"\"}}"
  },
  {
    "label": "020",
    "attribute": "0x0000000000000000",
    "text": "{{anim id=\"FaintSmile\" target=\"actor\" targetSpec=\"\"}}Toute l'île est en effervescence.{{delay8}}\nLes gens ont des étoiles plein les\nyeux, l'air est chargé de promesses{{string value=\"...\"}}\n{{anim id=\"AbsentMindedness\" target=\"actor\" targetSpec=\"\"}}Aaah, ça me rappelle mes jeunes\nannées{{string value=\"...\"}}"
  },
  {
    "label": "021",
    "attribute": "0x0000000000000000",
    "text": "{{anim id=\"Nodding\" target=\"actor\" targetSpec=\"\"}}C'est presque l'heure, {{gender2 m=\"le jeune\" f=\"la jeune\"}}.{{delay8}}\n{{anim id=\"Smiling\" target=\"actor\" targetSpec=\"\"}}Accrochons-nous à nos chapeaux\net en route pour l'année prochaine!"
  },
  {
    "label": "022",
    "attribute": "0x0000000000000000",
    "text": "{{anim id=\"Angry\" target=\"actor\" targetSpec=\"\"}}On est là,{{delay8}} on a nos chapeaux,{{delay8}} alors\nqu'est-ce qu'on attend pour enfin\ncommencer?{{delay8}}{{anim id=\"EmotEnd\" target=\"actor\" targetSpec=\"\"}}\n{{anim id=\"Sighing\" target=\"actor\" targetSpec=\"\"}}Je commence à avoir mal aux pattes,\n{{string value=\"Catchphrase\"}}{{string value=\"...\"}}{{delay8}}{{anim id=\"EmotEnd\" target=\"actor\" targetSpec=\"\"}}"
  },
  {
    "label": "023",
    "attribute": "0x0000000000000000",
    "text": "{{anim id=\"Shocked\" target=\"actor\" targetSpec=\"\"}}Où est ton chapeau de Nouvel An?{{delay frames=\"40\"}}\n{{anim id=\"Frantic\" target=\"actor\" targetSpec=\"\"}}Dépêche-toi de le mettre si tu veux\nêtre {{gender2 m=\"prêt\" f=\"prête\"}} pour le compte à rebours!"
  },
  {
    "label": "024",
    "attribute": "0x0000000000000000",
    "text": "{{anim id=\"QuestionMark\" target=\"actor\" targetSpec=\"\"}}Tu as décidé de ne pas porter de\nchapeau de fête cette année?{{pageBreak}}{{anim id=\"Nodding\" target=\"actor\" targetSpec=\"\"}}Je comprends parfaitement qu'on\npuisse trouver ça ringard,{{delay8}} mais\nça fait partie de la tradition.\n{{anim id=\"FaintSmile\" target=\"actor\" targetSpec=\"\"}}Et les traditions,{{delay8}} c'est comme les\npersonnes âgées{{string value=\"...\"}}{{delay8}}{{anim id=\"Silent\" target=\"actor\" targetSpec=\"\"}} Ça se respecte.{{delay20}}{{anim id=\"EmotEnd\" target=\"actor\" targetSpec=\"\"}}"
  },
  {
    "label": "025",
    "attribute": "0x0000000000000000",
    "text": "{{anim id=\"QuestionMark\" target=\"actor\" targetSpec=\"\"}}Tiens, tu as un nouveau chapeau?{{delay20}}\n{{anim id=\"Shocked\" target=\"actor\" targetSpec=\"\"}}Aaah!{{delay8}} Mon chapeau!{{delay8}} J'ai failli\noublier!"
  },
  {
    "label": "026",
    "attribute": "0x0000000000000000",
    "text": "{{anim id=\"Greeting\" target=\"actor\" targetSpec=\"\"}}Pas mal, ton chapeau pour le compte\nà rebours.{{delay8}}{{anim id=\"FaintSmile\" target=\"actor\" targetSpec=\"\"}} Tu veux voir le mien?"
  },
  {
    "label": "027",
    "attribute": "0x0000000000000000",
    "text": "{{anim id=\"ShyBoy\" target=\"actor\" targetSpec=\"\"}}Alors, comment tu le trouves?"
  },
  {
    "label": "028",
    "attribute": "0x0000000000000000",
    "text": "Eh bien {{gender2 m=\"le jeune\" f=\"la jeune\"}},{{delay8}}{{anim id=\"QuestionMark\" target=\"actor\" targetSpec=\"\"}} tu joues à qui\nmettra son chapeau de Nouvel An\nen dernier?{{delay8}}{{anim id=\"EmotEnd\" target=\"actor\" targetSpec=\"\"}}\n{{anim id=\"FaintSmile\" target=\"actor\" targetSpec=\"\"}}J'ai passé l'âge pour ce genre de\njeu,{{delay8}} je te laisse gagner."
  },
  {
    "label": "029",
    "attribute": "0x0000000000000000",
    "text": "Tu as vu l'heure?{{delay8}}{{anim id=\"Nodding\" target=\"actor\" targetSpec=\"\"}} Je n'aurais qu'un\nmot à dire{{string value=\"...\"}}{{anim id=\"Smiling\" target=\"actor\" targetSpec=\"\"}} Chapeau!{{delay8}}"
  },
  {
    "label": "030",
    "attribute": "0x0000000000000000",
    "text": "{{anim id=\"SmugFace\" target=\"actor\" targetSpec=\"\"}}Pas mal, hein?{{delay8}}{{anim id=\"Hello\" target=\"actor\" targetSpec=\"\"}} Dépêche-toi de\nmettre le tien pour qu'on puisse\nparader ensemble!"
  },
  {
    "label": "032",
    "attribute": "0x0000000000000000",
    "text": "{{anim id=\"FaintSmile\" target=\"actor\" targetSpec=\"\"}}Dans quelques minutes,\nl'année {{number value=\"27\"}} et moi, on aura\nquelque chose en commun.\n{{anim id=\"Laughing\" target=\"actor\" targetSpec=\"\"}}On sera tous les deux des trucs\ndu passé!"
  },
  {
    "label": "033",
    "attribute": "0x0000000000000000",
    "text": "{{anim id=\"Frantic\" target=\"actor\" targetSpec=\"\"}}Plus que quelques minutes avant\nle grand saut{{string value=\"...\"}} Je tiens à peine en\nplace!"
  },
  {
    "label": "034",
    "attribute": "0x0000000000000000",
    "text": "{{anim id=\"Frantic\" target=\"actor\" targetSpec=\"\"}}Le compte à rebours va commencer\net il faut absolument que j'aille au\npetit coin{{string value=\"...\"}}\n{{anim id=\"Sighing\" target=\"actor\" targetSpec=\"\"}}Je n'aurais jamais dû boire autant\n{{gender4 m=\"de \" f=\"d'\"}}⁠{{randomDrink}} avant de venir{{string value=\"...\"}}"
  },
  {
    "label": "035",
    "attribute": "0x0000000000000000",
    "text": "On y est presque, plus qu'une\npoignée de secondes.{{delay frames=\"40\"}}{{anim id=\"Cheering\" target=\"actor\" targetSpec=\"\"}}{{delay20}} {{gender2 m=\"Prêt\" f=\"Prête\"}}, {{string value=\"NickName\"}}?{{i10_7 arg=\"120\"}}"
  },
  {
    "label": "036",
    "attribute": "0x0000000000000000",
    "text": "Plus que quelques secondes...{{delay frames=\"40\"}}{{anim id=\"BigSmile\" target=\"actor\" targetSpec=\"\"}}\nC'est pas trop tôt!{{i10_7 arg=\"120\"}}"
  },
  {
    "label": "038",
    "attribute": "0x0000000000000000",
    "text": "{{anim id=\"FaintSmile\" target=\"actor\" targetSpec=\"\"}}Il reste moins d'une heure avant\nle compte à rebours{{string value=\"...\"}} La place\ndoit être déjà bien animée.\n{{anim id=\"Negative\" target=\"actor\" targetSpec=\"\"}}Je n'ai rien contre l'animation,\nmais j'ai vu ça tellement de fois que{{anim id=\"Nodding\" target=\"actor\" targetSpec=\"\"}}\nje pense passer mon tour ce soir."
  },
  {
    "label": "039",
    "attribute": "0x0000000000000000",
    "text": "{{anim id=\"Smiling\" target=\"actor\" targetSpec=\"\"}}Même plus une heure avant que\nle couperet tombe.{{delay20}} Je parie que\ntoute la jeunesse est déjà dehors.\n{{anim id=\"OhGeez\" target=\"actor\" targetSpec=\"\"}}J'aimerais bien avoir autant\nd'énergie qu'eux, {{string value=\"Catchphrase\"}}!"
  },
  {
    "label": "040",
    "attribute": "0x0000000000000000",
    "text": "{{anim id=\"Explain\" target=\"actor\" targetSpec=\"\"}}Si l'histoire du monde se déroulait\nsur une année,{{delay8}} on serait à l'époque\ndes dinosaures en ce moment.\n{{anim id=\"Pardon\" target=\"actor\" targetSpec=\"\"}}Méfie-toi {{string value=\"NickName\"}}, ils n'ont pas tous disparu.{{delay20}}{{anim id=\"Laughing\" target=\"actor\" targetSpec=\"\"}} J'en suis la preuve vivante, ha ha ha!"
  },
  {
    "label": "046",
    "attribute": "0x0000000000000000",
    "text": "{{anim id=\"Explain\" target=\"actor\" targetSpec=\"\"}}Quand j'étais petit, j'essayais\nd'imaginer la vie en {{number value=\"27\"}}.{{pageBreak}}{{anim id=\"QuestionMark\" target=\"actor\" targetSpec=\"\"}}Est-ce que les voitures rouleront\navec {{wordArticle}}{{randomDrink}}?{{pageBreak}}{{anim id=\"Thinking\" target=\"actor\" targetSpec=\"\"}}Est-ce {{gender4 m=\"que \" f=\"qu'\"}}⁠{{randomHobby}} sera\ndevenu une discipline olympique?{{pageBreak}}{{anim id=\"FaintSmile\" target=\"actor\" targetSpec=\"\"}}Est-ce qu'on pourra faire\n{{wordArticle}}{{randomSports}} avec {{wordArticle}}{{randomObj}}?{{pageBreak}}{{anim id=\"Worried\" target=\"actor\" targetSpec=\"\"}}Dans moins d'une demi-heure, {{number value=\"27\"}}\nfera partie du passé{{string value=\"...\"}}{{anim id=\"FaintSmile\" target=\"actor\" targetSpec=\"\"}} Et il reste des\ntas de choses à inventer!"
  },
  {
    "label": "047",
    "attribute": "0x0000000000000000",
    "text": "{{anim id=\"Restless\" target=\"actor\" targetSpec=\"\"}}Dans moins d'une demi-heure, nous\nvivrons dans le futur.{{delay8}} {{anim id=\"Frantic\" target=\"actor\" targetSpec=\"\"}}Est-ce que\nça ne t'angoisse pas, ça?\n{{anim id=\"Confused\" target=\"actor\" targetSpec=\"\"}}Heureusement que dans moins\nd'une demi-heure,{{delay8}}{{anim id=\"Nodding\" target=\"actor\" targetSpec=\"\"}} mes angoisses\nappartiendront au passé."
  },
  {
    "label": "048",
    "attribute": "0x0000000000000000",
    "text": "{{anim id=\"Angry\" target=\"actor\" targetSpec=\"\"}}Il est très exactement {{number value=\"33\"}}.{{delay8}} Je ne\nveux plus entendre parler du passé.\n{{delay8}}{{anim id=\"SmugFace\" target=\"actor\" targetSpec=\"\"}}Tournons-nous vers l'avenir!"
  },
  {
    "label": "054",
    "attribute": "0x0000000000000000",
    "text": "{{anim id=\"Eh\" target=\"actor\" targetSpec=\"\"}}Il reste moins de cinq minutes,\n{{gender2 m=\"le jeune\" f=\"la jeune\"}}.{{delay frames=\"40\"}}{{anim id=\"QuestionMark\" target=\"actor\" targetSpec=\"\"}} Tu es {{gender2 m=\"sûr\" f=\"sûre\"}} de ne pas\nvouloir rejoindre les autres dehors?\n{{anim id=\"TakenAback\" target=\"actor\" targetSpec=\"\"}}J'espère que tu ne restes pas\npar peur de me vexer!"
  },
  {
    "label": "055",
    "attribute": "0x0000000000000000",
    "text": "{{anim id=\"Thinking\" target=\"actor\" targetSpec=\"\"}}Les années vont, les années\nviennent{{string value=\"...\"}} Toutes finiront par\npasser{{string value=\"...\"}}\n{{anim id=\"Restless\" target=\"actor\" targetSpec=\"\"}}C'est comme les amitiés anciennes\nque les nouvelles viennent\nremplacer{{string value=\"...\"}}\n{{string value=\"...\"}}{{delay8}}{{anim id=\"Aha\" target=\"actor\" targetSpec=\"\"}} Hé mais ça rime!"
  },
  {
    "label": "056",
    "attribute": "0x0000000000000000",
    "text": "{{anim id=\"Smiling\" target=\"actor\" targetSpec=\"\"}}On y est, {{gender2 m=\"le jeune\" f=\"la jeune\"}}. Une nouvelle\nannée se lève sur {{string value=\"OtherIslandName\"}}."
  },
  {
    "label": "057",
    "attribute": "0x0000000000000000",
    "text": "Plus qu'une poignée de secondes.{{delay frames=\"40\"}}{{anim id=\"AbsentMindedness\" target=\"actor\" targetSpec=\"\"}}\nJ'ai l'impression de voir toute\nl'année défiler devant mes yeux.{{i10_7 arg=\"120\"}}"
  },
  {
    "label": "058",
    "attribute": "0x0000000000000000",
    "text": "{{anim id=\"Silent\" target=\"actor\" targetSpec=\"\"}}Ne t'endors pas, {{string value=\"NickName\"}}.\nTu ne veux quand même pas rater\nle tout dernier épisode de {{number value=\"27\"}}.{{i10_7 arg=\"120\"}}"
  },
  {
    "label": "060",
    "attribute": "0x0000000000000000",
    "text": "{{anim id=\"HappyDance\" target=\"actor\" targetSpec=\"\"}}On a beau dire,{{delay8}} rien de tel qu'une\nsalve de feux d'artifice pour saluer\nune nouvelle année avec panache!"
  },
  {
    "label": "061",
    "attribute": "0x0000000000000000",
    "text": "{{anim id=\"Greeting\" target=\"actor\" targetSpec=\"\"}}Tout le monde a envie de se lâcher\ndans des moments pareils,{{delay8}} même les\ngens les plus sérieux.{{delay20}} {{anim id=\"Laughing\" target=\"actor\" targetSpec=\"\"}}Moi y compris!{{delay8}}{{anim id=\"EmotEnd\" target=\"actor\" targetSpec=\"\"}}"
  },
  {
    "label": "062",
    "attribute": "0x0000000000000000",
    "text": "{{anim id=\"Explain\" target=\"actor\" targetSpec=\"\"}}C'est le seul moment de l'année où\nl'on peut faire du raffut toute la nuit\nsans m'avoir sur le dos.\n{{anim id=\"FaintSmile\" target=\"actor\" targetSpec=\"\"}}J'espère que tout le monde en\nprofite!"
  },
  {
    "label": "063",
    "attribute": "0x0000000000000000",
    "text": "{{anim id=\"Cheering\" target=\"actor\" targetSpec=\"\"}}C'est parti, {{gender2 m=\"le jeune\" f=\"la jeune\"}}!{{delay8}}{{anim id=\"Nodding\" target=\"actor\" targetSpec=\"\"}} Faisons de {{number value=\"27\"}}\nune année qui restera à jamais dans\nles annales {{gender4 m=\"de \" f=\"d'\"}}⁠{{string value=\"OtherIslandName\"}}!"
  },
  {
    "label": "065",
    "attribute": "0x0000000000000000",
    "text": "{{anim id=\"Smiling\" target=\"actor\" targetSpec=\"\"}}Il est déjà {{number value=\"30\"}} h du matin mais je n'ai\nabsolument pas envie de dormir.{{pageBreak}}{{anim id=\"Frantic\" target=\"actor\" targetSpec=\"\"}}Je ne risque pas d'y arriver avec\nces feux d'artifice qui continuent\nà me résonner dans le crâne{{string value=\"...\"}}"
  },
  {
    "label": "066",
    "attribute": "0x0000000000000000",
    "text": "{{anim id=\"FaintSmile\" target=\"actor\" targetSpec=\"\"}}Je sens que ça va être une bonne\nannée pour toi, {{gender2 m=\"le jeune\" f=\"la jeune\"}}.{{pageBreak}}{{anim id=\"Nodding\" target=\"actor\" targetSpec=\"\"}}Il te suffit d'y croire vraiment et de\nrester {{gender2 m=\"positif\" f=\"positive\"}} quoi qu'il arrive.{{delay20}}\n{{anim id=\"Laughing\" target=\"actor\" targetSpec=\"\"}}Tout le contraire de moi, quoi!"
  },
  {
    "label": "067",
    "attribute": "0x0000000000000000",
    "text": "{{anim id=\"AbsentMindedness\" target=\"actor\" targetSpec=\"\"}}Je veillerais bien jusqu'à l'aube pour\nvoir le premier lever de soleil de\nl'année,{{delay8}} {{string value=\"Catchphrase\"}}{{string value=\"...\"}}{{pageBreak}}{{anim id=\"Serious\" target=\"actor\" targetSpec=\"\"}}Déjà parce que c'est un spectacle\nsymbolique, {{anim id=\"Hesitate\" target=\"actor\" targetSpec=\"\"}}mais aussi car j'ai le\nsentiment que ça me porte chance."
  },
  {
    "label": "068",
    "attribute": "0x0000000000000000",
    "text": "{{anim id=\"FaintSmile\" target=\"actor\" targetSpec=\"\"}}Je trouve ça magique quand tout le\nmonde égrène à tue-tête les toutes\ndernières secondes de l'année.\n{{anim id=\"AbsentMindedness\" target=\"actor\" targetSpec=\"\"}}C'est comme si tous les habitants\n{{gender4 m=\"de \" f=\"d'\"}}⁠{{string value=\"OtherIslandName\"}} ne faisaient\nplus qu'un,{{delay8}} {{string value=\"Catchphrase\"}}{{string value=\"...\"}}"
  },
  {
    "label": "070",
    "attribute": "0x0000000000000000",
    "text": "{{anim id=\"HappyDance\" target=\"actor\" targetSpec=\"\"}}On est officiellement en {{number value=\"27\"}}!{{i10_4}}\n{{anim id=\"Thinking\" target=\"actor\" targetSpec=\"\"}}Et pour commencer l'année,{{delay8}} je ferais\nbien,{{delay8}} hmm{{string value=\"...\"}}{{anim id=\"Aha\" target=\"actor\" targetSpec=\"\"}} Je sais!{{delay8}} Un festin!"
  },
  {
    "label": "071",
    "attribute": "0x0000000000000000",
    "text": "{{anim id=\"Sighing\" target=\"actor\" targetSpec=\"\"}}Satanés feux d'artifice,{{delay8}} pas moyen\nd'être tranquille chez soi avec tout\nce boucan{{string value=\"...\"}}\n{{anim id=\"Angry\" target=\"actor\" targetSpec=\"\"}}J'espère au moins que tout le monde\nen profite,{{delay8}} histoire que ma soirée\nne soit pas gâchée pour rien!"
  },
  {
    "label": "072",
    "attribute": "0x0000000000000000",
    "text": "{{anim id=\"QuestionMark\" target=\"actor\" targetSpec=\"\"}}Tu as pris de bonnes résolutions\npour cette année, {{gender2 m=\"le jeune\" f=\"la jeune\"}}?{{delay20}}{{anim id=\"EmotEnd\" target=\"actor\" targetSpec=\"\"}} Moi,\nje prends toujours la même.\n{{anim id=\"SmugFace\" target=\"actor\" targetSpec=\"\"}}Aider les gens autour de moi en leur\nexpliquant ce qu'ils font de travers.{{pageBreak}}{{anim id=\"FaintSmile\" target=\"actor\" targetSpec=\"\"}}Ça et {{randomHobby}} de façon plus sérieuse."
  },
  {
    "label": "073",
    "attribute": "0x0000000000000000",
    "text": "Je t'offrirais bien de trinquer à la\nnouvelle année,{{anim id=\"OhGeez\" target=\"actor\" targetSpec=\"\"}} mais je n'ai plus\nune goutte {{gender4 m=\"de \" f=\"d'\"}}⁠{{randomDrink}}{{string value=\"...\"}}"
  },
  {
    "label": "075",
    "attribute": "0x0000000000000000",
    "text": "{{anim id=\"Explain\" target=\"actor\" targetSpec=\"\"}}Dorénavant, il faudra penser à écrire\n{{number value=\"27\"}} sur tous ses chèques.{{pageBreak}}Enfin,{{anim id=\"Sighing\" target=\"actor\" targetSpec=\"\"}} à condition que je ne sois pas\nle dernier à utiliser des chèques en\n{{number value=\"27\"}}{{string value=\"...\"}}"
  },
  {
    "label": "076",
    "attribute": "0x0000000000000000",
    "text": "{{anim id=\"Thinking\" target=\"actor\" targetSpec=\"\"}}J'ai envie de me lancer dans quelque\nchose de nouveau cette année{{string value=\"...\"}}\nPeut-être {{randomHobby}}?\n{{anim id=\"SmugFace\" target=\"actor\" targetSpec=\"\"}}Je suis sûr que je pourrais devenir\npro en un rien de temps si je m'y\nmettais sérieusement,{{delay8}} {{string value=\"Catchphrase\"}}!\n{{anim id=\"Thinking\" target=\"actor\" targetSpec=\"\"}}{{string value=\"...\"}} Mouais.{{delay20}}{{anim id=\"Laughing\" target=\"actor\" targetSpec=\"\"}} Autant dire que c'est pas\ndemain la veille!"
  },
  {
    "label": "077",
    "attribute": "0x0000000000000000",
    "text": "{{anim id=\"Shocked\" target=\"actor\" targetSpec=\"\"}}Encore debout, {{gender2 m=\"le jeune\" f=\"la jeune\"}}?{{delay8}}\nTu as vu l'heure qu'il est?{{pageBreak}}{{anim id=\"Nodding\" target=\"actor\" targetSpec=\"\"}}Toi et moi,{{delay8}} on est de vrais oiseaux de\nnuit.{{delay8}}{{anim id=\"Laughing\" target=\"actor\" targetSpec=\"\"}} Voilà comment il faudrait qu'on\nm'appelle : « ⁠{{string value=\"VillagerRace\"}} de nuit »!"
  },
  {
    "label": "078",
    "attribute": "0x0000000000000000",
    "text": "{{anim id=\"Nodding\" target=\"actor\" targetSpec=\"\"}}Bon,{{delay8}} maintenant qu'on sait comment\nl'année dernière termine et comment\ncelle-ci commence{{string value=\"...\"}}\n{{anim id=\"Sleepy\" target=\"actor\" targetSpec=\"\"}}Je crois que je vais plus trop tarder\nà piquer le premier roupillon de\nl'année."
  }
]