﻿[
  {
    "label": "101",
    "attribute": "0x00000013",
    "text": "{{string value=\"...\"}} Oui, allô,{{delay20}} en quoi puis-je t'aider{{string value=\"...\"}}{{delay frames=\"30\"}}\n{{anim id=\"Surprised\" target=\"actor\" targetSpec=\"\"}}{{string value=\"...\"}} Vr-VROU !{{pageBreak}}{{anim id=\"Confused\" target=\"actor\" targetSpec=\"\"}}Une villa de vacances ?{{delay frames=\"60\"}} {{anim id=\"EmotEnd\" target=\"actor\" targetSpec=\"\"}}Ah, hmm{{string value=\"...\"}}{{delay20}}\n{{anim id=\"Worried\" target=\"actor\" targetSpec=\"\"}}Je suis pris de court,{{delay8}} et j'y ai laissé\nquelques plumes,{{delay8}} je crois{{string value=\"...\"}}{{pageBreak}}{{anim id=\"FaintSmile\" target=\"actor\" targetSpec=\"\"}}C'est d'accord{{string value=\"...\"}} Je passerai bientôt{{delay8}}\npour étudier ta proposition{{string value=\"...\"}}"
  }
]