﻿[
  {
    "label": "001",
    "attribute": "0x00000C0100000000",
    "text": "{{anim id=\"Greeting\" target=\"actor\" targetSpec=\"\"}}Snow just makes stuff taste good.{{delay frames=\"40\"}}\n{{anim id=\"Smiling\" target=\"actor\" targetSpec=\"\"}}Like {{randomFood}}! {{delay20}}It's even\ngooder stirred up with snow!{{setNpcTalkChoices chatOption=\"0\" cancelOption=\"1\"}}"
  },
  {
    "label": "002",
    "attribute": "0x00000C0100000000",
    "text": "{{anim id=\"Greeting\" target=\"actor\" targetSpec=\"\"}}I'm gonna make ice cream!{{delay frames=\"40\"}} I'll put a\ntub of sour cream in the snow\novernight and{{string value=\"...\"}}{{pageBreak}}{{anim id=\"HappyFlower\" target=\"actor\" targetSpec=\"\"}}{{delay20}}{{i10_10}}{{i10_5}}BLAM!{{endTag}}{{delay20}}{{i10_9}} It'll be a flavor nobody can\never forget!{{delay frames=\"40\"}}{{anim id=\"EmotEnd\" target=\"actor\" targetSpec=\"\"}}{{setNpcTalkChoices chatOption=\"0\" cancelOption=\"1\"}}"
  },
  {
    "label": "003",
    "attribute": "0x00000C0100000000",
    "text": "{{anim id=\"Shaking\" target=\"actor\" targetSpec=\"\"}}Brr{{string value=\"...\"}} It's so cold today that even my\nsnack bucket is shivering!{{setNpcTalkChoices chatOption=\"0\" cancelOption=\"1\"}}"
  },
  {
    "label": "004",
    "attribute": "0x00000C0100000000",
    "text": "{{anim id=\"Love\" target=\"actor\" targetSpec=\"\"}}Mmmm{{string value=\"...\"}}{{delay frames=\"50\"}}{{anim id=\"Smiling\" target=\"actor\" targetSpec=\"\"}} Even the air tastes better\non snowy days, {{string value=\"6\"}}.{{setNpcTalkChoices chatOption=\"0\" cancelOption=\"1\"}}"
  },
  {
    "label": "005",
    "attribute": "0x00000C0100000000",
    "text": "Snow is so neat! {{delay20}}{{anim id=\"Smiling\" target=\"actor\" targetSpec=\"\"}}It's the only time\nall year that ya can eat rain!{{setNpcTalkChoices chatOption=\"0\" cancelOption=\"1\"}}"
  }
]