﻿[
  {
    "label": "001",
    "attribute": "0x0000000000000000",
    "text": "{{anim id=\"Nodding\" target=\"actor\" targetSpec=\"\"}}喔，{{delay20}}這個的確是{{delay8}}\n我的抽繩袋！{{string value=\"6\"}}。"
  },
  {
    "label": "002",
    "attribute": "0x0000000000000000",
    "text": "{{anim id=\"Nodding\" target=\"actor\" targetSpec=\"\"}}嗯！{{delay20}}\n這是我的抽繩袋沒錯！"
  },
  {
    "label": "003",
    "attribute": "0x0000000000000000",
    "text": "{{anim id=\"BigSmile\" target=\"actor\" targetSpec=\"\"}}喔喔，{{delay8}}錯不了的！{{delay20}}\n{{anim id=\"FaintSmile\" target=\"actor\" targetSpec=\"\"}}這是我的抽繩袋！"
  },
  {
    "label": "004",
    "attribute": "0x0000000000000000",
    "text": "{{anim id=\"BigSmile\" target=\"actor\" targetSpec=\"\"}}是我的抽繩袋！{{delay20}}\n{{anim id=\"FaintSmile\" target=\"actor\" targetSpec=\"\"}}你找到它啦！"
  },
  {
    "label": "006",
    "attribute": "0x0000000000000000",
    "text": "{{anim id=\"Nodding\" target=\"actor\" targetSpec=\"\"}}喔，{{delay8}}你找到啦！{{delay40}}\n{{anim id=\"EmotEnd\" target=\"actor\" targetSpec=\"\"}}不過我已經忘記內容了，{{delay20}}\n{{anim id=\"WrySmile\" target=\"actor\" targetSpec=\"\"}}還是從頭開始看吧。"
  },
  {
    "label": "007",
    "attribute": "0x0000000000000000",
    "text": "{{anim id=\"Nodding\" target=\"actor\" targetSpec=\"\"}}啊啊，{{delay8}}就是這個！{{delay20}}\n它就是我的書沒錯！{{string value=\"6\"}}。"
  },
  {
    "label": "008",
    "attribute": "0x0000000000000000",
    "text": "{{anim id=\"BigSmile\" target=\"actor\" targetSpec=\"\"}}喔喔！{{delay8}}是我的記事本！{{delay40}}\n{{anim id=\"FaintSmile\" target=\"actor\" targetSpec=\"\"}}你找到啦！{{string value=\"6\"}}。"
  },
  {
    "label": "009",
    "attribute": "0x0000000000000000",
    "text": "{{anim id=\"BigSmile\" target=\"actor\" targetSpec=\"\"}}喔喔，{{delay8}}錯不了的！{{delay20}}\n{{anim id=\"FaintSmile\" target=\"actor\" targetSpec=\"\"}}這就是我的{{delay8}}秘密記事本啊！"
  },
  {
    "label": "011",
    "attribute": "0x0000000000000000",
    "text": "{{anim id=\"Aha\" target=\"actor\" targetSpec=\"\"}}啊！{{delay frames=\"40\"}}\n{{anim id=\"Serious\" target=\"actor\" targetSpec=\"\"}}這東西不就是{{delay8}}\n我的抽繩袋嗎！"
  },
  {
    "label": "012",
    "attribute": "0x0000000000000000",
    "text": "{{anim id=\"Aha\" target=\"actor\" targetSpec=\"\"}}咦！{{delay frames=\"40\"}}\n{{anim id=\"Serious\" target=\"actor\" targetSpec=\"\"}}這個抽繩袋{{delay8}}\n是我的啊！{{string value=\"6\"}}。"
  },
  {
    "label": "013",
    "attribute": "0x0000000000000000",
    "text": "{{anim id=\"Surprised\" target=\"actor\" targetSpec=\"\"}}啊～！{{delay frames=\"40\"}}\n{{anim id=\"Serious\" target=\"actor\" targetSpec=\"\"}}這東西不就是{{delay8}}\n我重要的抽繩袋嗎！"
  },
  {
    "label": "014",
    "attribute": "0x0000000000000000",
    "text": "{{anim id=\"Surprised\" target=\"actor\" targetSpec=\"\"}}哎呀！？{{delay frames=\"40\"}}\n{{anim id=\"Serious\" target=\"actor\" targetSpec=\"\"}}是我重要的抽繩袋！？{{delay20}}\n到底是在哪找到的啊？"
  },
  {
    "label": "016",
    "attribute": "0x0000000000000000",
    "text": "{{anim id=\"Aha\" target=\"actor\" targetSpec=\"\"}}咦！？{{delay frames=\"40\"}}\n{{anim id=\"Serious\" target=\"actor\" targetSpec=\"\"}}這本書{{delay8}}就是我弄丟的那本！"
  },
  {
    "label": "017",
    "attribute": "0x0000000000000000",
    "text": "{{anim id=\"Aha\" target=\"actor\" targetSpec=\"\"}}啊！{{delay frames=\"40\"}}\n{{anim id=\"Serious\" target=\"actor\" targetSpec=\"\"}}這是我以為弄丟了的那本書！？"
  },
  {
    "label": "018",
    "attribute": "0x0000000000000000",
    "text": "{{anim id=\"Surprised\" target=\"actor\" targetSpec=\"\"}}哇！{{delay frames=\"40\"}}\n{{anim id=\"Serious\" target=\"actor\" targetSpec=\"\"}}是我重要的記事本！"
  },
  {
    "label": "019",
    "attribute": "0x0000000000000000",
    "text": "{{anim id=\"Surprised\" target=\"actor\" targetSpec=\"\"}}啊～！{{delay frames=\"40\"}}\n{{anim id=\"Serious\" target=\"actor\" targetSpec=\"\"}}這是我最近一直到處尋找的{{delay8}}\n秘密記事本啊！"
  },
  {
    "label": "021",
    "attribute": "0x0000000000000000",
    "text": "{{anim id=\"Smiling\" target=\"actor\" targetSpec=\"\"}}你幫了我大忙啊，{{delay8}}謝啦！{{delay40}}\n{{anim id=\"IdeaBulb\" target=\"actor\" targetSpec=\"\"}}對了對了{{string value=\"...\"}}"
  },
  {
    "label": "022",
    "attribute": "0x0000000000000000",
    "text": "{{anim id=\"Smiling\" target=\"actor\" targetSpec=\"\"}}太好了，{{delay8}}感激不盡咧！{{delay40}}\n{{string value=\"...\"}}{{anim id=\"IdeaBulb\" target=\"actor\" targetSpec=\"\"}}啊，{{delay8}}對了。"
  },
  {
    "label": "023",
    "attribute": "0x0000000000000000",
    "text": "{{anim id=\"HappyDance\" target=\"actor\" targetSpec=\"\"}}哎呀，這下得救啦。{{delay20}}\n真是謝謝你！{{delay40}}\n{{anim id=\"Smiling\" target=\"actor\" targetSpec=\"\"}}雖然算不上什麼謝禮{{string value=\"...\"}}"
  },
  {
    "label": "024",
    "attribute": "0x0000000000000000",
    "text": "{{anim id=\"HappyDance\" target=\"actor\" targetSpec=\"\"}}呼～{{delay8}}太感謝你啦！{{delay20}}\n都是多虧有{{string value=\"NickName\"}}！{{delay40}}\n{{anim id=\"Smiling\" target=\"actor\" targetSpec=\"\"}}為了答謝你{{string value=\"...\"}}"
  },
  {
    "label": "026",
    "attribute": "0x0000000000000000",
    "text": "{{anim id=\"Smiling\" target=\"actor\" targetSpec=\"\"}}多謝你幫我找到啊！{{delay40}}\n{{anim id=\"IdeaBulb\" target=\"actor\" targetSpec=\"\"}}對了對了{{string value=\"...\"}}"
  },
  {
    "label": "027",
    "attribute": "0x0000000000000000",
    "text": "{{anim id=\"Smiling\" target=\"actor\" targetSpec=\"\"}}你還特地送來給我，{{delay8}}真是感激不盡咧！{{delay40}}\n{{string value=\"...\"}}{{anim id=\"IdeaBulb\" target=\"actor\" targetSpec=\"\"}}啊，{{delay8}}對了。"
  },
  {
    "label": "028",
    "attribute": "0x0000000000000000",
    "text": "{{anim id=\"ShyBoy\" target=\"actor\" targetSpec=\"\"}}如果你沒有幫我找到，{{delay20}}\n{{anim id=\"OhGeez\" target=\"actor\" targetSpec=\"\"}}可就真的大事不妙啦！{{delay40}}\n{{anim id=\"Smiling\" target=\"actor\" targetSpec=\"\"}}雖然說不上是謝禮{{string value=\"...\"}}"
  },
  {
    "label": "029",
    "attribute": "0x0000000000000000",
    "text": "{{anim id=\"HappyDance\" target=\"actor\" targetSpec=\"\"}}你還特地送來給我，{{delay8}}真是幫了大忙啊！{{delay40}}\n{{anim id=\"ShyBoy\" target=\"actor\" targetSpec=\"\"}}我到處都找不到，頭痛得不得了啊。{{i10_4}}\n{{anim id=\"Smiling\" target=\"actor\" targetSpec=\"\"}}為了答謝你{{string value=\"...\"}}"
  },
  {
    "label": "031",
    "attribute": "0x0000000000000000",
    "text": "{{anim id=\"Smiling\" target=\"actor\" targetSpec=\"\"}}這是{{fun_0004007D arg=\"0x0000\"}}！{{delay20}}\n{{anim id=\"Assent\" target=\"actor\" targetSpec=\"\"}}代表我十足的心意喔！{{string value=\"6\"}}。"
  },
  {
    "label": "032",
    "attribute": "0x0000000000000000",
    "text": "{{anim id=\"Smiling\" target=\"actor\" targetSpec=\"\"}}這是{{fun_0004007D arg=\"0x0000\"}}！{{delay20}}\n{{anim id=\"SmugFace\" target=\"actor\" targetSpec=\"\"}}我可是狠下心花了一筆大錢喔！{{string value=\"6\"}}。"
  },
  {
    "label": "033",
    "attribute": "0x0000000000000000",
    "text": "{{anim id=\"Smiling\" target=\"actor\" targetSpec=\"\"}}這是{{fun_0004007D arg=\"0x0000\"}}！{{delay40}}\n{{anim id=\"Nodding\" target=\"actor\" targetSpec=\"\"}}希望你會喜歡，{{anim id=\"FaintSmile\" target=\"actor\" targetSpec=\"\"}}{{string value=\"6\"}}。"
  },
  {
    "label": "034",
    "attribute": "0x0000000000000000",
    "text": "{{anim id=\"Smiling\" target=\"actor\" targetSpec=\"\"}}這是{{fun_0004007D arg=\"0x0000\"}}！{{delay40}}\n{{anim id=\"Nodding\" target=\"actor\" targetSpec=\"\"}}沒你想像的那麼糟吧？{{string value=\"6\"}}。"
  },
  {
    "label": "035",
    "attribute": "0x0000000000000000",
    "text": "{{anim id=\"FaintSmile\" target=\"actor\" targetSpec=\"\"}}這是{{fun_0004007D arg=\"0x0000\"}}！{{delay40}}\n{{anim id=\"ShyBoy\" target=\"actor\" targetSpec=\"\"}}就當作我的一點心意吧！{{string value=\"6\"}}。"
  },
  {
    "label": "036",
    "attribute": "0x0000000000000000",
    "text": "這是{{fun_0004007D arg=\"0x0000\"}}！{{delay40}}\n{{anim id=\"ShyBoy\" target=\"actor\" targetSpec=\"\"}}抱歉只能送你這點東西啊，{{string value=\"6\"}}。"
  },
  {
    "label": "038",
    "attribute": "0x0000000000000000",
    "text": "{{anim id=\"Aha\" target=\"actor\" targetSpec=\"\"}}喔？{{delay8}}真的嗎！？{{string value=\"6\"}}。"
  },
  {
    "label": "039",
    "attribute": "0x0000000000000000",
    "text": "{{anim id=\"Aha\" target=\"actor\" targetSpec=\"\"}}喔！{{delay8}}是這樣嗎！？{{string value=\"6\"}}。"
  },
  {
    "label": "040",
    "attribute": "0x0000000000000000",
    "text": "{{anim id=\"Silent\" target=\"actor\" targetSpec=\"\"}}什麼！{{delay20}}\n{{anim id=\"Confused\" target=\"actor\" targetSpec=\"\"}}別作弄人啊，{{string value=\"6\"}}。"
  },
  {
    "label": "041",
    "attribute": "0x0000000000000000",
    "text": "{{anim id=\"Silent\" target=\"actor\" targetSpec=\"\"}}喂喂{{string value=\"...\"}}{{delay20}}\n{{anim id=\"Confused\" target=\"actor\" targetSpec=\"\"}}你別吊我胃口啊，{{string value=\"6\"}}。"
  },
  {
    "label": "043",
    "attribute": "0x0000000000000000",
    "text": "{{anim id=\"Serious\" target=\"actor\" targetSpec=\"\"}}來來來，{{delay8}}讓我看看{{string value=\"...\"}}{{string value=\"6\"}}。"
  },
  {
    "label": "044",
    "attribute": "0x0000000000000000",
    "text": "{{anim id=\"Pardon\" target=\"actor\" targetSpec=\"\"}}嗯？{{delay8}}是怎樣的東西？{{string value=\"6\"}}。"
  },
  {
    "label": "045",
    "attribute": "0x0000000000000000",
    "text": "{{anim id=\"TakenAback\" target=\"actor\" targetSpec=\"\"}}哎呀！？{{delay40}}\n{{anim id=\"Frantic\" target=\"actor\" targetSpec=\"\"}}居然不讓我看喔？{{string value=\"6\"}}。"
  },
  {
    "label": "046",
    "attribute": "0x0000000000000000",
    "text": "{{anim id=\"OhGeez\" target=\"actor\" targetSpec=\"\"}}喂喂，{{delay20}}太莫名其妙了吧？{{string value=\"6\"}}。"
  },
  {
    "label": "048",
    "attribute": "0x0000000000000000",
    "text": "{{anim id=\"Explain\" target=\"actor\" targetSpec=\"\"}}嗯，{{delay20}}你說你會幫我\n把抽繩袋找回來對吧？{{delay40}}\n{{anim id=\"Smiling\" target=\"actor\" targetSpec=\"\"}}就拜託你啦，{{string value=\"6\"}}。"
  },
  {
    "label": "049",
    "attribute": "0x0000000000000000",
    "text": "{{anim id=\"Explain\" target=\"actor\" targetSpec=\"\"}}你應該{{delay8}}會幫我去找{{delay20}}\n我重要的抽繩袋對吧？{{delay40}}\n{{anim id=\"Smiling\" target=\"actor\" targetSpec=\"\"}}我等你的好消息啊，{{string value=\"6\"}}。"
  },
  {
    "label": "050",
    "attribute": "0x0000000000000000",
    "text": "{{anim id=\"Explain\" target=\"actor\" targetSpec=\"\"}}嗯，{{delay20}}你說你會幫我\n把弄丟的書找回來對吧？{{delay40}}\n{{anim id=\"Smiling\" target=\"actor\" targetSpec=\"\"}}就拜託你啦，{{string value=\"6\"}}。"
  },
  {
    "label": "051",
    "attribute": "0x0000000000000000",
    "text": "{{anim id=\"Explain\" target=\"actor\" targetSpec=\"\"}}嗯，{{delay20}}你說你會幫我\n把重要的記事本找回來對吧？{{delay40}}\n{{anim id=\"Smiling\" target=\"actor\" targetSpec=\"\"}}就拜託你啦，{{string value=\"6\"}}。"
  },
  {
    "label": "053",
    "attribute": "0x0000000000000000",
    "text": "{{anim id=\"Worried\" target=\"actor\" targetSpec=\"\"}}嗯～{{delay20}}{{anim id=\"Negative\" target=\"actor\" targetSpec=\"\"}}這不是我的啊。{{i10_4}}\n{{anim id=\"Pardon\" target=\"actor\" targetSpec=\"\"}}你不覺得這種東西感覺像{{delay20}}\n{{anim id=\"FaintSmile\" target=\"actor\" targetSpec=\"\"}}{{selection value=\"SelectedVillager\"}}會有的嗎？{{string value=\"6\"}}。"
  },
  {
    "label": "054",
    "attribute": "0x0000000000000000",
    "text": "{{anim id=\"Negative\" target=\"actor\" targetSpec=\"\"}}啊啊，{{delay8}}抱歉，這不是我的啊。{{pageBreak}}{{anim id=\"Thinking\" target=\"actor\" targetSpec=\"\"}}真的要說的話，這種東西{{delay20}}\n{{anim id=\"Smiling\" target=\"actor\" targetSpec=\"\"}}感覺比較像是{{selection value=\"SelectedVillager\"}}\n會喜歡的吧？{{string value=\"6\"}}。"
  },
  {
    "label": "055",
    "attribute": "0x0000000000000000",
    "text": "{{anim id=\"Negative\" target=\"actor\" targetSpec=\"\"}}不不不，{{delay8}}這不是我的啊。{{pageBreak}}{{anim id=\"EmotEnd\" target=\"actor\" targetSpec=\"\"}}雖然萬一認錯了會很尷尬，{{delay20}}\n{{anim id=\"AbsentMindedness\" target=\"actor\" targetSpec=\"\"}}不過我覺得這好像是{{delay8}}\n{{selection value=\"SelectedVillager\"}}的東西啊{{string value=\"...\"}}{{string value=\"6\"}}。"
  }
]