﻿[
  {
    "label": "001",
    "attribute": "0x0000000000000000",
    "text": "Привет,{{delay20}} это {{string value=\"VillagerName\"}}.{{delay frames=\"40\"}}\nЯ пришла тебя навестить!\n{{capitalizeNextLetter}}{{string value=\"6\"}}.{{i10_7 arg=\"120\"}}"
  },
  {
    "label": "002",
    "attribute": "0x0000000000000000",
    "text": "{{capitalizeNextLetter}}{{string value=\"NickName\"}}, {{delay20}}ты дома?{{delay frames=\"40\"}}\nЭто я, {{string value=\"VillagerName\"}}!{{i10_7 arg=\"120\"}}"
  },
  {
    "label": "003",
    "attribute": "0x0000000000000000",
    "text": "{{capitalizeNextLetter}}{{string value=\"NickName\"}}, дорогуша,{{delay20}} это я!{{delay frames=\"40\"}}\n{{string value=\"VillagerName\"}}!{{i10_7 arg=\"120\"}}"
  },
  {
    "label": "004",
    "attribute": "0x0000000000000000",
    "text": "{{capitalizeNextLetter}}{{string value=\"NickName\"}}?{{delay20}} Если ты дома,{{delay20}}\nпожалуйста, открой! {{capitalizeNextLetter}}{{string value=\"6\"}}!{{i10_7 arg=\"120\"}}"
  },
  {
    "label": "005",
    "attribute": "0x0000000000000000",
    "text": "Батюшки,{{delay20}} может, е{{gender2 m=\"го\" f=\"е\"}} нет дома?{{delay frames=\"40\"}}\nВидимо, придется зайти в другой\nраз{{string value=\"...\"}}{{i10_7 arg=\"120\"}}"
  },
  {
    "label": "006",
    "attribute": "0x0000000000000000",
    "text": "{{anim id=\"FaintSmile\" target=\"actor\" targetSpec=\"\"}}Как же я рада, что ты дома!\n{{capitalizeNextLetter}}{{string value=\"6\"}}.{{i10_7 arg=\"120\"}}"
  },
  {
    "label": "007",
    "attribute": "0x0000000000000000",
    "text": "{{anim id=\"Greeting\" target=\"actor\" targetSpec=\"\"}}Надеюсь, я тебя от дел не отрываю.\n{{string value=\"6\"}}.{{i10_7 arg=\"120\"}}"
  },
  {
    "label": "008",
    "attribute": "0x0000000000000000",
    "text": "{{anim id=\"Hello\" target=\"actor\" targetSpec=\"\"}}Извини, что я без предупреждения\nнагрянула! {{capitalizeNextLetter}}{{string value=\"6\"}}!{{i10_7 arg=\"120\"}}"
  },
  {
    "label": "010",
    "attribute": "0x0000000000000000",
    "text": "О{{string value=\"...\"}}{{anim id=\"TakenAback\" target=\"actor\" targetSpec=\"\"}} у тебя живет таракан!{{delay20}} {{capitalizeNextLetter}}{{string value=\"NickName\"}}, этот факт тебе известен?{{pageBreak}}{{anim id=\"Frantic\" target=\"actor\" targetSpec=\"\"}}А я вдруг совершенно случайно\nвспомнила, что мне пора на занятие\nпо {{fun_00170032 arg=\"0x02CD\"}}{{randomSports}}.{{pageBreak}}{{anim id=\"Thinking\" target=\"actor\" targetSpec=\"\"}}Так что{{string value=\"...\"}} я пойду.{{delay20}} {{capitalizeNextLetter}}{{randomSports}} зовет{{string value=\"...\"}}"
  },
  {
    "label": "100",
    "attribute": "0x0000000000000000",
    "text": "{{anim id=\"Hesitate\" target=\"actor\" targetSpec=\"\"}}Сама не знаю почему, но мне вдруг\nтак захотелось заглянуть к тебе.{{delay frames=\"40\"}} {{anim id=\"Grin\" target=\"actor\" targetSpec=\"\"}}Не\nожидал{{gender2 m=\"\" f=\"а\"}}, что я нагряну в гости?"
  },
  {
    "label": "101",
    "attribute": "0x0000000000000000",
    "text": "{{anim id=\"Negative\" target=\"actor\" targetSpec=\"\"}}Я просто так зашла.{{delay20}} {{anim id=\"Hello\" target=\"actor\" targetSpec=\"\"}}Решила узнать,\nкак твои дела. {{capitalizeNextLetter}}{{string value=\"6\"}}."
  },
  {
    "label": "102",
    "attribute": "0x0000000000000000",
    "text": "{{anim id=\"Greeting\" target=\"actor\" targetSpec=\"\"}}Что? {{delay20}}Не ожидал{{gender2 m=\"\" f=\"а\"}}, что я зайду?{{delay frames=\"40\"}}\n{{anim id=\"Smiling\" target=\"actor\" targetSpec=\"\"}}Знаешь ли,{{delay8}} такие неожиданные\nвизиты иногда полезны."
  },
  {
    "label": "200",
    "attribute": "0x0000000000000000",
    "text": "{{anim id=\"Aha\" target=\"actor\" targetSpec=\"\"}}О,{{delay20}} чуть не забыла!{{delay frames=\"40\"}} {{anim id=\"Greeting\" target=\"actor\" targetSpec=\"\"}}У меня для тебя\nнебольшой подарок.{{pageBreak}}{{anim id=\"FaintSmile\" target=\"actor\" targetSpec=\"\"}}Это {{fun_0004007D arg=\"0x0000\"}}.\nБлагодарю за гостеприимство."
  },
  {
    "label": "201",
    "attribute": "0x0000000000000000",
    "text": "{{anim id=\"Greeting\" target=\"actor\" targetSpec=\"\"}}Вот, хочу подарить тебе кое-что.{{delay frames=\"40\"}}\n{{anim id=\"Hesitate\" target=\"actor\" targetSpec=\"\"}}Мелочь, но все же{{string value=\"...\"}} {{capitalizeNextLetter}}{{string value=\"6\"}}!{{pageBreak}}{{anim id=\"Smiling\" target=\"actor\" targetSpec=\"\"}}Ты так радушно меня принял{{gender2 m=\"\" f=\"а\"}}!{{delay frames=\"40\"}}\n{{anim id=\"ShyBoy\" target=\"actor\" targetSpec=\"\"}}Надеюсь, что тебе пригод{{gender7 m=\"и\" f=\"и\" n=\"и\" pl=\"я\"}}тся\n{{fun_0004007D arg=\"0x0000\"}}."
  },
  {
    "label": "202",
    "attribute": "0x0000000000000000",
    "text": "{{anim id=\"FaintSmile\" target=\"actor\" targetSpec=\"\"}}Дорогуша,{{delay8}} примешь небольшой\nподарочек в знак благодарности?{{delay20}}\nЭто {{fun_0004007D arg=\"0x0000\"}}.\n{{anim id=\"ShyBoy\" target=\"actor\" targetSpec=\"\"}}Вещь незамысловатая,{{delay8}} но надеюсь,\nчто она тебя порадует.\n{{capitalizeNextLetter}}{{string value=\"6\"}}."
  },
  {
    "label": "203",
    "attribute": "0x0000000000000000",
    "text": "{{anim id=\"Greeting\" target=\"actor\" targetSpec=\"\"}}Я подумала, что ты не откажешься\nот {{fun_00170032 arg=\"0x03CD\"}}{{fun_0004007D arg=\"0x0000\"}}.{{delay frames=\"40\"}}\n{{anim id=\"FaintSmile\" target=\"actor\" targetSpec=\"\"}}Пальчики оближешь! {{capitalizeNextLetter}}{{string value=\"6\"}}!"
  },
  {
    "label": "204",
    "attribute": "0x0000000000000000",
    "text": "{{anim id=\"Aha\" target=\"actor\" targetSpec=\"\"}}Смотри, что я тебе принесла.{{delay frames=\"40\"}}\n{{anim id=\"Smiling\" target=\"actor\" targetSpec=\"\"}}{{capitalizeNextLetter}}{{fun_0004007D arg=\"0x0000\"}}!{{delay frames=\"40\"}}\n{{anim id=\"Greeting\" target=\"actor\" targetSpec=\"\"}}Лакомство для гурманов!"
  },
  {
    "label": "205",
    "attribute": "0x0000000000000000",
    "text": "{{anim id=\"FaintSmile\" target=\"actor\" targetSpec=\"\"}}Вот,{{delay8}} ты просто обязан{{gender2 m=\"\" f=\"а\"}} попробовать\n{{fun_00170032 arg=\"0x01CD\"}}{{fun_0004007D arg=\"0x0000\"}}.{{delay frames=\"40\"}}\n{{anim id=\"Hesitate\" target=\"actor\" targetSpec=\"\"}}Надеюсь, прид{{gender7 m=\"е\" f=\"е\" n=\"е\" pl=\"у\"}}тся тебе по вкусу."
  },
  {
    "label": "206",
    "attribute": "0x0000000000000000",
    "text": "{{anim id=\"Worried\" target=\"actor\" targetSpec=\"\"}}Заявиться без приглашения\nневежливо, знаю.{{delay frames=\"40\"}} {{anim id=\"Hesitate\" target=\"actor\" targetSpec=\"\"}}Но я{{delay8}} просто{{delay8}}\nдолжна была тебя увидеть{{string value=\"...\"}}"
  },
  {
    "label": "207",
    "attribute": "0x0000000000000000",
    "text": "{{anim id=\"QuestionMark\" target=\"actor\" targetSpec=\"\"}}Ты не сердишься, что я нагрянула\nбез приглашения?{{delay20}} Просто{{delay8}}{{anim id=\"Smiling\" target=\"actor\" targetSpec=\"\"}} очень\nзахотелось с тобой поболтать."
  },
  {
    "label": "208",
    "attribute": "0x0000000000000000",
    "text": "{{anim id=\"Restless\" target=\"actor\" targetSpec=\"\"}}Не хочу показаться невежливой,\nобычно я предупреждаю о своем\nвизите заранее.{{pageBreak}}{{anim id=\"Smiling\" target=\"actor\" targetSpec=\"\"}}Но немного спонтанности никому\nв жизни не помешает! {{anim id=\"Greeting\" target=\"actor\" targetSpec=\"\"}}Я рада, что\nзастала тебя дома. {{capitalizeNextLetter}}{{string value=\"6\"}}!"
  },
  {
    "label": "209",
    "attribute": "0x0000000000000000",
    "text": "{{anim id=\"Serious\" target=\"actor\" targetSpec=\"\"}}Не беспокойся, {{delay8}}{{string value=\"NickName\"}}.{{delay frames=\"40\"}}\n{{anim id=\"EmotEnd\" target=\"actor\" targetSpec=\"\"}}Я ненадолго.{{delay frames=\"40\"}} {{anim id=\"Smiling\" target=\"actor\" targetSpec=\"\"}}Просто заскочила\nповидаться с тобой."
  },
  {
    "label": "210",
    "attribute": "0x0000000000000000",
    "text": "{{anim id=\"Greeting\" target=\"actor\" targetSpec=\"\"}}Как{{gender2 m=\"ой\" f=\"ая\"}} же ты молодчина.{{delay20}} {{anim id=\"FaintSmile\" target=\"actor\" targetSpec=\"\"}}Несмотря\nна неожиданность моего визита,\nты так радушно меня принял{{gender2 m=\"\" f=\"а\"}}.{{pageBreak}}{{anim id=\"EmotEnd\" target=\"actor\" targetSpec=\"\"}}Несомненно,{{delay8}}{{anim id=\"Smiling\" target=\"actor\" targetSpec=\"\"}} мне есть чему у тебя\nпоучиться, дорогуша."
  },
  {
    "label": "211",
    "attribute": "0x0000020000000000",
    "text": "{{anim id=\"Greeting\" target=\"actor\" targetSpec=\"\"}}Что скажешь, {{delay8}}{{string value=\"NickName\"}},{{delay20}}\nможет,{{anim id=\"QuestionMark\" target=\"actor\" targetSpec=\"\"}} сыграем в игру, раз я здесь?\n{{capitalizeNextLetter}}{{string value=\"6\"}}?"
  },
  {
    "label": "211_a",
    "attribute": "0x0000000000000000",
    "text": "Отличная идея!"
  },
  {
    "label": "211_b",
    "attribute": "0x0000000000000000",
    "text": "Не хочу."
  },
  {
    "label": "212",
    "attribute": "0x0000020000000000",
    "text": "{{anim id=\"IdeaBulb\" target=\"actor\" targetSpec=\"\"}}Дорогуша,{{delay8}} есть идея!{{delay20}} {{anim id=\"Hello\" target=\"actor\" targetSpec=\"\"}}Почему бы\nнам не сыграть в одну игру?\n{{capitalizeNextLetter}}{{string value=\"6\"}}?"
  },
  {
    "label": "212_a",
    "attribute": "0x0000000000000000",
    "text": "Давай сыграем!"
  },
  {
    "label": "212_b",
    "attribute": "0x0000000000000000",
    "text": "Не сейчас."
  },
  {
    "label": "213",
    "attribute": "0x0000020000000000",
    "text": "{{anim id=\"Thinking\" target=\"actor\" targetSpec=\"\"}}Я тут подумала{{string value=\"...\"}}{{delay20}} Ты не хочешь\nпоиграть со мной во что-нибудь?\n{{capitalizeNextLetter}}{{string value=\"6\"}}?"
  },
  {
    "label": "213_a",
    "attribute": "0x0000000000000000",
    "text": "Конечно!"
  },
  {
    "label": "213_b",
    "attribute": "0x0000000000000000",
    "text": "Нет, спасибо."
  },
  {
    "label": "214",
    "attribute": "0x0000000000000000",
    "text": "{{anim id=\"Eh\" target=\"actor\" targetSpec=\"\"}}Ах,{{delay8}} ну что ж.{{delay frames=\"40\"}} {{anim id=\"FaintSmile\" target=\"actor\" targetSpec=\"\"}}Тогда, пожалуй,\nпросто отдохнем сегодня."
  },
  {
    "label": "215",
    "attribute": "0x0000000000000000",
    "text": "{{anim id=\"FaintSmile\" target=\"actor\" targetSpec=\"\"}}Ох, {{delay8}}ну ничего.{{delay frames=\"40\"}}{{anim id=\"Nodding\" target=\"actor\" targetSpec=\"\"}} Наверное, ты просто\nне в настроении сегодня."
  },
  {
    "label": "216",
    "attribute": "0x0000000000000000",
    "text": "{{anim id=\"Silent\" target=\"actor\" targetSpec=\"\"}}Ясно.{{delay frames=\"40\"}} {{anim id=\"OhGeez\" target=\"actor\" targetSpec=\"\"}}Что ж,{{delay8}} ничего страшного{{string value=\"...\"}}\n{{anim id=\"EmotEnd\" target=\"actor\" targetSpec=\"\"}}В другой раз сыграем,{{delay8}} {{anim id=\"FaintSmile\" target=\"actor\" targetSpec=\"\"}}не беда."
  },
  {
    "label": "400",
    "attribute": "0x0000000000000000",
    "text": "{{anim id=\"Nodding\" target=\"actor\" targetSpec=\"\"}}Что ж,{{delay8}} мне пора уходить.{{delay20}}{{anim id=\"Smiling\" target=\"actor\" targetSpec=\"\"}} Я чудесно\nпровела время, дорогуша.{{delay8}} Еще как-\nнибудь встретимся, ладно?"
  },
  {
    "label": "401",
    "attribute": "0x0000000000000000",
    "text": "{{anim id=\"Nodding\" target=\"actor\" targetSpec=\"\"}}Ладно,{{delay8}} мне пора.{{delay8}} {{anim id=\"Greeting\" target=\"actor\" targetSpec=\"\"}}Извини, что\nнапросилась в гости.{{delay20}} {{anim id=\"FaintSmile\" target=\"actor\" targetSpec=\"\"}}Рада\nбыла с тобой повидаться."
  },
  {
    "label": "402",
    "attribute": "0x0000000000000000",
    "text": "{{anim id=\"FaintSmile\" target=\"actor\" targetSpec=\"\"}}Что ж,{{delay8}} не буду злоупотреблять\nтвоим гостеприимством.{{delay frames=\"40\"}} {{anim id=\"Nodding\" target=\"actor\" targetSpec=\"\"}}Счастливо\nи еще раз спасибо! {{capitalizeNextLetter}}{{string value=\"6\"}}!"
  },
  {
    "label": "403",
    "attribute": "0x0000000000000000",
    "text": "{{anim id=\"Worried\" target=\"actor\" targetSpec=\"\"}}Дорогуша, ты уходишь?{{delay8}} Что ж,\nтогда и мне пора.{{delay frames=\"40\"}} {{anim id=\"Greeting\" target=\"actor\" targetSpec=\"\"}}Я чудесно\nпровела день. {{delay8}}До скорого!"
  },
  {
    "label": "404",
    "attribute": "0x0000000000000000",
    "text": "{{anim id=\"Eh\" target=\"actor\" targetSpec=\"\"}}Тебе нужно уходить?{{delay20}} {{anim id=\"EmotEnd\" target=\"actor\" targetSpec=\"\"}}Извини,{{delay8}} не\nбуду тебя задерживать.{{delay20}} {{anim id=\"Greeting\" target=\"actor\" targetSpec=\"\"}}Спасибо\nза гостеприимство. {{capitalizeNextLetter}}{{string value=\"6\"}}!"
  },
  {
    "label": "405",
    "attribute": "0x0000000000000000",
    "text": "{{anim id=\"Shocked\" target=\"actor\" targetSpec=\"\"}}Ох,{{delay8}} ты собираешься уходить?{{delay frames=\"40\"}} {{anim id=\"EmotEnd\" target=\"actor\" targetSpec=\"\"}}Раз\nтак,{{delay8}} пожалуй, мне тоже пора.{{delay frames=\"40\"}}\n{{anim id=\"FaintSmile\" target=\"actor\" targetSpec=\"\"}}Спасибо за все,{{delay8}} дорогуша."
  },
  {
    "label": "500",
    "attribute": "0x0000000000000000",
    "text": "{{fun_0014003C arg=\"\"}}"
  },
  {
    "label": "500_01",
    "attribute": "0x0000020000000000",
    "text": "{{anim id=\"Laughing\" target=\"actor\" targetSpec=\"\"}}Ну, не буду злоупотреблять твоим\nгостеприимством. {{delay20}}{{anim id=\"Greeting\" target=\"actor\" targetSpec=\"\"}}Я славно время\nпровела! {{capitalizeNextLetter}}{{string value=\"6\"}}."
  },
  {
    "label": "500_01_a",
    "attribute": "0x0000000000000000",
    "text": "{{anim id=\"EmotEnd\" target=\"player\" targetSpec=\"\"}}Не уходи!"
  },
  {
    "label": "500_01_b",
    "attribute": "0x0000000000000000",
    "text": "{{anim id=\"EmotEnd\" target=\"player\" targetSpec=\"\"}}Ну, до скорого!"
  },
  {
    "label": "500_02",
    "attribute": "0x0000020000000000",
    "text": "У тебя просто чудесно,{{anim id=\"Laughing\" target=\"actor\" targetSpec=\"\"}} но пора бы\nвозвращаться к реальности.{{delay20}} {{anim id=\"Smiling\" target=\"actor\" targetSpec=\"\"}}Хоть\nу тебя и славно. {{capitalizeNextLetter}}{{string value=\"6\"}}."
  },
  {
    "label": "500_02_a",
    "attribute": "0x0000000000000000",
    "text": "{{anim id=\"EmotEnd\" target=\"player\" targetSpec=\"\"}}Может, останешься еще?"
  },
  {
    "label": "500_02_b",
    "attribute": "0x0000000000000000",
    "text": "{{anim id=\"EmotEnd\" target=\"player\" targetSpec=\"\"}}Увидимся!"
  },
  {
    "label": "503",
    "attribute": "0x0000000000000000",
    "text": "{{fun_0014003C arg=\"\"}}"
  },
  {
    "label": "503_01",
    "attribute": "0x0000000000000000",
    "text": "{{anim id=\"Laughing\" target=\"actor\" targetSpec=\"\"}}Ну, если ты так настаиваешь, то, так\nи быть, побуду еще.{{delay20}}{{anim id=\"FaintSmile\" target=\"actor\" targetSpec=\"\"}} Только ради\nтебя."
  },
  {
    "label": "503_02",
    "attribute": "0x0000000000000000",
    "text": "{{anim id=\"Blushing\" target=\"actor\" targetSpec=\"\"}}Батюшки, как приятно такое\nслышать!{{delay frames=\"40\"}} {{anim id=\"FaintSmile\" target=\"actor\" targetSpec=\"\"}}Ну, ладно, останусь еще\nненадолго,{{delay20}} дорогуша."
  },
  {
    "label": "504",
    "attribute": "0x0000000000000000",
    "text": "{{fun_0014003C arg=\"\"}}"
  },
  {
    "label": "504_01",
    "attribute": "0x0000000000000000",
    "text": "{{anim id=\"FaintSmile\" target=\"actor\" targetSpec=\"\"}}Давай как-нибудь еще соберемся!\n{{delay8}}Как можно скорее. {{delay20}}{{anim id=\"Hello\" target=\"actor\" targetSpec=\"\"}}А сейчас\nя пойду. Пока! {{capitalizeNextLetter}}{{string value=\"6\"}}."
  },
  {
    "label": "504_02",
    "attribute": "0x0000000000000000",
    "text": "{{anim id=\"BigSmile\" target=\"actor\" targetSpec=\"\"}}Хорошо посидели, просто отлично.{{delay8}}\nНадеюсь, не в последний раз. {{delay8}}{{anim id=\"Greeting\" target=\"actor\" targetSpec=\"\"}}Пока,\nдорогуша! {{capitalizeNextLetter}}{{string value=\"6\"}}."
  }
]