﻿[
  {
    "label": "001",
    "text": "Eeeeehiiiiiiii, {{string value=\"NickName\"}}!"
  },
  {
    "label": "002",
    "text": "Ehi, {{string value=\"NickName\"}}!"
  },
  {
    "label": "003",
    "text": "Come va, {{string value=\"NickName\"}}?"
  },
  {
    "label": "004",
    "text": "Ciao, {{string value=\"NickName\"}}!"
  },
  {
    "label": "005",
    "text": "Come te la passi, {{string value=\"NickName\"}}?"
  },
  {
    "label": "006",
    "text": "{{gender2 m=\"Carissimo\" f=\"Carissima\"}} {{string value=\"NickName\"}}!"
  },
  {
    "label": "007",
    "text": "Ehilà, {{string value=\"NickName\"}}!"
  },
  {
    "label": "008",
    "text": "{{string value=\"NickName\"}}!"
  },
  {
    "label": "009",
    "text": "Ehi, {{string value=\"NickName\"}}... ciao!"
  },
  {
    "label": "010",
    "text": "Indovina un po', {{string value=\"NickName\"}}?"
  },
  {
    "label": "201",
    "text": "Il tuo amico {{string value=\"VillagerName\"}}"
  },
  {
    "label": "202",
    "text": "Con amicizia, {{string value=\"VillagerName\"}}"
  },
  {
    "label": "203",
    "text": "Dolci saluti da {{string value=\"VillagerName\"}}"
  },
  {
    "label": "204",
    "text": "Tuo affamatissimo, {{string value=\"VillagerName\"}}"
  },
  {
    "label": "205",
    "text": "A prestissimo, {{string value=\"VillagerName\"}}"
  },
  {
    "label": "206",
    "text": "Da {{string value=\"VillagerName\"}}, il dormiglione"
  },
  {
    "label": "207",
    "text": "Ci sentiamo, {{string value=\"VillagerName\"}}"
  },
  {
    "label": "208",
    "text": "Un abbraccio, {{string value=\"VillagerName\"}}"
  },
  {
    "label": "209",
    "text": "Tanti saluti da {{string value=\"VillagerName\"}}!"
  },
  {
    "label": "210",
    "text": "Con affetto e fame, {{string value=\"VillagerName\"}}"
  }
]