﻿[
  {
    "label": "001",
    "attribute": "0x00000000",
    "locale": {
      "CNzh": "{{fun_0014003C arg=\"\"}}",
      "EUde": "{{fun_0014003C arg=\"\"}}",
      "EUen": "{{fun_0014003C arg=\"\"}}",
      "EUes": "{{fun_0014003C arg=\"\"}}",
      "EUfr": "{{fun_0014003C arg=\"\"}}",
      "EUit": "{{fun_0014003C arg=\"\"}}",
      "EUnl": "{{fun_0014003C arg=\"\"}}",
      "EUru": "{{fun_0014003C arg=\"\"}}",
      "JPja": "{{fun_0014003C arg=\"\"}}",
      "KRko": "{{fun_0014003C arg=\"\"}}",
      "TWzh": "{{fun_0014003C arg=\"\"}}",
      "USen": "{{fun_0014003C arg=\"\"}}",
      "USes": "{{fun_0014003C arg=\"\"}}",
      "USfr": "{{fun_0014003C arg=\"\"}}"
    }
  },
  {
    "label": "001_01",
    "attribute": "0x00000000",
    "locale": {
      "CNzh": "{{anim id=\"Greeting\" target=\"actor\" targetSpec=\"\"}}哟！{{delay40}}{{anim id=\"Smiling\" target=\"actor\" targetSpec=\"\"}}是你叫我来的吧？{{delay20}}\n机会难得，我就多坐会儿了啊。",
      "EUde": "{{anim id=\"Greeting\" target=\"actor\" targetSpec=\"\"}}Hallo, {{delay8}}{{gender2 m=\"der Herr\" f=\"die Dame\"}}! {{delay20}}Du wolltest dich\nmit mir treffen? {{delay20}}Plaudern, {{delay8}}und so?{{delay20}}\n{{anim id=\"Nodding\" target=\"actor\" targetSpec=\"\"}}Gefällt mir. {{delay20}}Legen wir los!",
      "EUen": "{{anim id=\"Greeting\" target=\"actor\" targetSpec=\"\"}}'Allo there, chum!{{delay20}} You wanted to see\nme, eh?{{delay20}} Chat and whatnot? {{delay8}}{{anim id=\"Nodding\" target=\"actor\" targetSpec=\"\"}}Awright\nthen.{{delay8}} S'pose it's time to take it easy.",
      "EUes": "{{anim id=\"Greeting\" target=\"actor\" targetSpec=\"\"}}¡Qué alegría verl{{gender2 m=\"o\" f=\"a\"}}, señorit{{gender2 m=\"o\" f=\"a\"}}!{{delay20}}\n¿Quería charlar un rato?{{delay20}}\n{{anim id=\"Nodding\" target=\"actor\" targetSpec=\"\"}}¡Será todo un placer!",
      "EUfr": "{{anim id=\"Greeting\" target=\"actor\" targetSpec=\"\"}}Salut, l'ami{{gender2 m=\"\" f=\"e\"}} !{{delay20}} Tu voulais me voir ?{{delay20}}\nCauser un brin ? {{delay8}}{{anim id=\"Nodding\" target=\"actor\" targetSpec=\"\"}}Un moment de\ndétente, ça se refuse pas.",
      "EUit": "{{anim id=\"Greeting\" target=\"actor\" targetSpec=\"\"}}Salve, {{gender2 m=\"egregio signore\" f=\"bella signora\"}}!{{delay8}} Desiderava\nvedermi per fare due chiacchiere?{{delay20}}\n{{anim id=\"Nodding\" target=\"actor\" targetSpec=\"\"}}Ma certo, sono qui per lei!",
      "EUnl": "{{anim id=\"Greeting\" target=\"actor\" targetSpec=\"\"}}Hallo, {{gender2 m=\"gozer\" f=\"dame\"}}!{{delay20}} Wou je me zo graag\nzien dan?{{delay20}} Effe lekker kleppen? {{delay8}}{{anim id=\"Nodding\" target=\"actor\" targetSpec=\"\"}}Mij\nbest, hoor.{{delay8}} Ik hou je niet tegen!",
      "EUru": "{{anim id=\"Greeting\" target=\"actor\" targetSpec=\"\"}}Привет, дружище!{{delay20}} Ты хотел{{gender2 m=\"\" f=\"а\"}} меня\nвидеть, так?{{delay20}} Поболтать и все такое?{{delay8}}{{anim id=\"Nodding\" target=\"actor\" targetSpec=\"\"}}\nОтлично.{{delay8}} А ну-ка пообщаемся!",
      "JPja": "{{anim id=\"Greeting\" target=\"actor\" targetSpec=\"\"}}よぉ！{{delay40}}　{{anim id=\"Smiling\" target=\"actor\" targetSpec=\"\"}}アンタが　{{ruby charSpan=\"1\" value=\"よ\"}}呼んでくれたんだろ？{{delay20}}\nせっかくだから　ゆっくりさせてもらうぜ！",
      "KRko": "{{anim id=\"Greeting\" target=\"actor\" targetSpec=\"\"}}안녕! {{delay40}}{{anim id=\"Smiling\" target=\"actor\" targetSpec=\"\"}}네가 불렀지?{{delay20}}\n기왕 온 거 느긋하게 있다가 갈게",
      "TWzh": "{{anim id=\"Greeting\" target=\"actor\" targetSpec=\"\"}}嗨！{{delay40}}{{anim id=\"Smiling\" target=\"actor\" targetSpec=\"\"}}就是你叫我來的吧？{{delay20}}\n機會難得，我就來好好放鬆一下吧。",
      "USen": "{{anim id=\"Greeting\" target=\"actor\" targetSpec=\"\"}}'Allo there, chum!{{delay20}} You wanted to see\nme, eh?{{delay20}} Chat and whatnot? {{delay8}}{{anim id=\"Nodding\" target=\"actor\" targetSpec=\"\"}}Awright\nthen.{{delay8}} S'pose it's time to take it easy.",
      "USes": "{{anim id=\"Greeting\" target=\"actor\" targetSpec=\"\"}}¡Qué alegría verl{{gender2 m=\"o\" f=\"a\"}}, señorit{{gender2 m=\"o\" f=\"a\"}}!{{delay20}}\n¿Quería charlar un rato?{{delay20}}\n{{anim id=\"Nodding\" target=\"actor\" targetSpec=\"\"}}¡Será todo un placer!",
      "USfr": "{{anim id=\"Greeting\" target=\"actor\" targetSpec=\"\"}}Salut, l'ami{{gender2 m=\"\" f=\"e\"}}!{{delay20}} Tu voulais me voir?{{delay20}}\nJaser un brin? {{delay8}}{{anim id=\"Nodding\" target=\"actor\" targetSpec=\"\"}}Un moment de\ndétente, ça se refuse pas."
    }
  },
  {
    "label": "002",
    "attribute": "0x00000000",
    "locale": {
      "CNzh": "{{fun_0014003C arg=\"\"}}",
      "EUde": "{{fun_0014003C arg=\"\"}}",
      "EUen": "{{fun_0014003C arg=\"\"}}",
      "EUes": "{{fun_0014003C arg=\"\"}}",
      "EUfr": "{{fun_0014003C arg=\"\"}}",
      "EUit": "{{fun_0014003C arg=\"\"}}",
      "EUnl": "{{fun_0014003C arg=\"\"}}",
      "EUru": "{{fun_0014003C arg=\"\"}}",
      "JPja": "{{fun_0014003C arg=\"\"}}",
      "KRko": "{{fun_0014003C arg=\"\"}}",
      "TWzh": "{{fun_0014003C arg=\"\"}}",
      "USen": "{{fun_0014003C arg=\"\"}}",
      "USes": "{{fun_0014003C arg=\"\"}}",
      "USfr": "{{fun_0014003C arg=\"\"}}"
    }
  },
  {
    "label": "002_01",
    "attribute": "0x00000000",
    "locale": {
      "CNzh": "{{anim id=\"Greeting\" target=\"actor\" targetSpec=\"\"}}哟！{{delay40}}{{anim id=\"Smiling\" target=\"actor\" targetSpec=\"\"}}我又回来了！",
      "EUde": "{{anim id=\"Greeting\" target=\"actor\" targetSpec=\"\"}}So trifft man sich wieder, {{delay8}}{{gender2 m=\"der Herr\" f=\"die Dame\"}}!{{delay20}} Ich bin komplett von den Socken!{{delay20}}\n{{anim id=\"Smiling\" target=\"actor\" targetSpec=\"\"}}Danke für die erneute Einladung!",
      "EUen": "{{anim id=\"Greeting\" target=\"actor\" targetSpec=\"\"}}'Ey there, my chum!{{delay20}} Didn't get your\nfill o' me? {{delay20}}{{anim id=\"Smiling\" target=\"actor\" targetSpec=\"\"}}Much obliged, very much\nobliged.",
      "EUes": "{{anim id=\"Greeting\" target=\"actor\" targetSpec=\"\"}}¡Hola de nuevo, señorit{{gender2 m=\"o\" f=\"a\"}}!{{delay20}} ¿Se le\nofrece algo más? {{delay20}}{{anim id=\"Smiling\" target=\"actor\" targetSpec=\"\"}}Aquí me tiene,{{delay8}}\nsiempre a su disposición.",
      "EUfr": "{{anim id=\"Greeting\" target=\"actor\" targetSpec=\"\"}}Oh,{{delay8}} salut l'ami{{gender2 m=\"\" f=\"e\"}} !{{delay20}} Alors tu peux\nplus te passer de moi ? {{delay20}}{{anim id=\"Smiling\" target=\"actor\" targetSpec=\"\"}}Je t'avoue\nque c'est pas pour me déplaire !",
      "EUit": "{{anim id=\"Greeting\" target=\"actor\" targetSpec=\"\"}}Salve, {{gender2 m=\"egregio signore\" f=\"bella signora\"}}!{{delay20}} Vedo che\nè proprio content{{gender2 m=\"o\" f=\"a\"}} di vedermi, eh?{{delay20}}\n{{anim id=\"Smiling\" target=\"actor\" targetSpec=\"\"}}Le sono molto riconoscente!",
      "EUnl": "{{anim id=\"Greeting\" target=\"actor\" targetSpec=\"\"}}Hallo, hallo, {{gender2 m=\"gozer van me\" f=\"mooie dame\"}}!{{delay20}} Kon je\nniet genoeg van me krijgen? {{delay20}}{{anim id=\"Smiling\" target=\"actor\" targetSpec=\"\"}}Zeer\nvereerd, zeer vereerd.",
      "EUru": "{{anim id=\"Greeting\" target=\"actor\" targetSpec=\"\"}}Эй, дружище!{{delay20}} Я тебе еще\nне надоел?{{delay20}}{{anim id=\"Smiling\" target=\"actor\" targetSpec=\"\"}} Это приятно.",
      "JPja": "{{anim id=\"Greeting\" target=\"actor\" targetSpec=\"\"}}よぉ！{{delay40}}　{{anim id=\"Smiling\" target=\"actor\" targetSpec=\"\"}}{{ruby charSpan=\"1\" value=\"もど\"}}戻ってきたぜ！",
      "KRko": "{{anim id=\"Greeting\" target=\"actor\" targetSpec=\"\"}}안녕! {{delay40}}{{anim id=\"Smiling\" target=\"actor\" targetSpec=\"\"}}다시 왔어!",
      "TWzh": "{{anim id=\"Greeting\" target=\"actor\" targetSpec=\"\"}}嗨！{{delay40}}{{anim id=\"Smiling\" target=\"actor\" targetSpec=\"\"}}我又回來了！",
      "USen": "{{anim id=\"Greeting\" target=\"actor\" targetSpec=\"\"}}'Ey there, my chum!{{delay20}} Didn't get your\nfill o' me? {{delay20}}{{anim id=\"Smiling\" target=\"actor\" targetSpec=\"\"}}Much obliged, very much\nobliged.",
      "USes": "{{anim id=\"Greeting\" target=\"actor\" targetSpec=\"\"}}¡Hola de nuevo, señorit{{gender2 m=\"o\" f=\"a\"}}!{{delay20}} ¿Se le\nofrece algo más? {{delay20}}{{anim id=\"Smiling\" target=\"actor\" targetSpec=\"\"}}Aquí me tiene,{{delay8}}\nsiempre a su disposición.",
      "USfr": "{{anim id=\"Greeting\" target=\"actor\" targetSpec=\"\"}}Oh,{{delay8}} salut l'ami{{gender2 m=\"\" f=\"e\"}}!{{delay20}} Alors tu peux\nplus te passer de moi? {{delay20}}{{anim id=\"Smiling\" target=\"actor\" targetSpec=\"\"}}Je t'avoue\nque c'est pas pour me déplaire!"
    }
  },
  {
    "label": "003",
    "attribute": "0x00000000",
    "locale": {
      "CNzh": "{{fun_0014003C arg=\"\"}}",
      "EUde": "{{fun_0014003C arg=\"\"}}",
      "EUen": "{{fun_0014003C arg=\"\"}}",
      "EUes": "{{fun_0014003C arg=\"\"}}",
      "EUfr": "{{fun_0014003C arg=\"\"}}",
      "EUit": "{{fun_0014003C arg=\"\"}}",
      "EUnl": "{{fun_0014003C arg=\"\"}}",
      "EUru": "{{fun_0014003C arg=\"\"}}",
      "JPja": "{{fun_0014003C arg=\"\"}}",
      "KRko": "{{fun_0014003C arg=\"\"}}",
      "TWzh": "{{fun_0014003C arg=\"\"}}",
      "USen": "{{fun_0014003C arg=\"\"}}",
      "USes": "{{fun_0014003C arg=\"\"}}",
      "USfr": "{{fun_0014003C arg=\"\"}}"
    }
  },
  {
    "label": "003_01",
    "attribute": "0x00000000",
    "locale": {
      "CNzh": "",
      "EUde": "",
      "EUen": "",
      "EUes": "",
      "EUfr": "",
      "EUit": "",
      "EUnl": "",
      "EUru": "",
      "JPja": "",
      "KRko": "",
      "TWzh": "",
      "USen": "",
      "USes": "",
      "USfr": ""
    }
  },
  {
    "label": "101",
    "attribute": "0x00000000",
    "locale": {
      "CNzh": "{{fun_0014003C arg=\"\"}}",
      "EUde": "{{fun_0014003C arg=\"\"}}",
      "EUen": "{{fun_0014003C arg=\"\"}}",
      "EUes": "{{fun_0014003C arg=\"\"}}",
      "EUfr": "{{fun_0014003C arg=\"\"}}",
      "EUit": "{{fun_0014003C arg=\"\"}}",
      "EUnl": "{{fun_0014003C arg=\"\"}}",
      "EUru": "{{fun_0014003C arg=\"\"}}",
      "JPja": "{{fun_0014003C arg=\"\"}}",
      "KRko": "{{fun_0014003C arg=\"\"}}",
      "TWzh": "{{fun_0014003C arg=\"\"}}",
      "USen": "{{fun_0014003C arg=\"\"}}",
      "USes": "{{fun_0014003C arg=\"\"}}",
      "USfr": "{{fun_0014003C arg=\"\"}}"
    }
  },
  {
    "label": "101_01",
    "attribute": "0x00000000",
    "locale": {
      "CNzh": "喝一杯可口的咖啡，休息片刻，{{delay20}}\n接下来就又可以卖力工作了，{{delay8}}\n{{anim id=\"Smiling\" target=\"actor\" targetSpec=\"\"}}干劲止不住地冒出来啊！",
      "EUde": "Geht doch nix über eine Tasse Kaf-\nfee, {{delay8}}um durch den Tag zu kommen.{{delay20}}\n{{anim id=\"BigSmile\" target=\"actor\" targetSpec=\"\"}}Genau wie frisch geputzte Schuhe!",
      "EUen": "Nothin' like a nice cuppa coffee\nto refill the tank. {{delay20}}{{anim id=\"BigSmile\" target=\"actor\" targetSpec=\"\"}}I feel like a\nfreshly shined pair o' shoes!",
      "EUes": "{{anim id=\"BigSmile\" target=\"actor\" targetSpec=\"\"}}Nada como una bebida calentita para\nllenar el hueco del estómago.{{pageBreak}}{{anim id=\"Smiling\" target=\"actor\" targetSpec=\"\"}}¡Me siento como un par de zapatos\nrecién abrillantados!",
      "EUfr": "Rien de tel qu'un bon jus de\nchaussettes pour se remettre\nsur patte.\n{{delay20}}{{anim id=\"BigSmile\" target=\"actor\" targetSpec=\"\"}}Je me sens comme une paire de\npompes fraîchement cirées, après !",
      "EUit": "Non c'è niente di meglio di una tazza\ndi caffè per ricaricare le batterie.{{delay20}}{{anim id=\"BigSmile\" target=\"actor\" targetSpec=\"\"}} Mi\nsento come un paio di scarpe nuove!",
      "EUnl": "Een lekker bakkie koffie en ik ben\nweer helemaal 't mannetje. {{delay20}}{{anim id=\"BigSmile\" target=\"actor\" targetSpec=\"\"}}Net als\neen paar vers gepoetste schoenen!",
      "EUru": "Ничто не бодрит лучше горячей\nчашки кофе.{{delay20}}{{anim id=\"BigSmile\" target=\"actor\" targetSpec=\"\"}} Чувствую, что сияю,\nкак свеженачищенный ботинок!",
      "JPja": "{{ruby charSpan=\"2\" value=\"おい\"}}美味しいコーヒーを{{ruby charSpan=\"1\" value=\"の\"}}飲んで　{{ruby charSpan=\"2\" value=\"ひとやす\"}}一休みできると、{{delay20}}\nまた　{{ruby charSpan=\"2\" value=\"しごと\"}}仕事を{{ruby charSpan=\"2\" value=\"がんば\"}}頑張ろうって{{delay8}}\n{{anim id=\"Smiling\" target=\"actor\" targetSpec=\"\"}}やる{{ruby charSpan=\"1\" value=\"き\"}}気が　あふれてくるんだよな！",
      "KRko": "맛있는 커피를 마시고 한숨 돌리고 나면{{delay20}}\n다시 의욕이 샘솟아서{{delay8}} {{anim id=\"Smiling\" target=\"actor\" targetSpec=\"\"}}일을 열심히 할 수 있어! ",
      "TWzh": "享用美味的咖啡稍作休息後，{{delay20}}\n感覺體內又湧現出{{delay8}}\n{{anim id=\"Smiling\" target=\"actor\" targetSpec=\"\"}}足以支持我努力工作的幹勁了！",
      "USen": "Nothin' like a nice cuppa coffee\nto refill the tank. {{delay20}}{{anim id=\"BigSmile\" target=\"actor\" targetSpec=\"\"}}I feel like a\nfreshly shined pair o' shoes!",
      "USes": "{{anim id=\"BigSmile\" target=\"actor\" targetSpec=\"\"}}Nada como una bebida caliente para\nllenar el hueco del estómago.{{pageBreak}}{{anim id=\"Smiling\" target=\"actor\" targetSpec=\"\"}}¡Me siento como un par de zapatos\nrecién lustrados!",
      "USfr": "Rien de tel qu'un bon jus d'eau\nde vaisselle pour se remettre\nsur patte.\n{{delay20}}{{anim id=\"BigSmile\" target=\"actor\" targetSpec=\"\"}}Je me sens comme une paire de\nsouliers fraîchement cirés, après!"
    }
  },
  {
    "label": "101_02",
    "attribute": "0x00000000",
    "locale": {
      "CNzh": "面对像{{color id=\"3\"}}老板{{color id=\"65535\"}}这样专业的匠人，{{delay8}}\n{{anim id=\"Nodding\" target=\"actor\" targetSpec=\"\"}}我也不敢松懈啊。{{anim id=\"EmotEnd\" target=\"actor\" targetSpec=\"\"}}",
      "EUde": "{{anim id=\"Eh\" target=\"actor\" targetSpec=\"\"}}Klasse, {{delay8}}{{color id=\"3\"}}Kofi{{color id=\"65535\"}} kennt sich so richtig aus\nin Sachen Kaffee. {{delay20}}Echt inspirierend,{{delay8}}\nfindste nicht?",
      "EUen": "{{anim id=\"Eh\" target=\"actor\" targetSpec=\"\"}}Crikey, {{color id=\"3\"}}Brewster{{color id=\"65535\"}}'s a master at his\ncraft.{{delay20}} Inspirin' and whatnot,\ndon'tcha think?",
      "EUes": "{{anim id=\"Eh\" target=\"actor\" targetSpec=\"\"}}Canastos,{{delay8}} este {{color id=\"3\"}}Fígaro {{color id=\"65535\"}}es bueno\na rabiar.{{delay20}}{{anim id=\"Smiling\" target=\"actor\" targetSpec=\"\"}} ¡Necesitamos más gente\ncon su profesionalidad!",
      "EUfr": "{{anim id=\"Eh\" target=\"actor\" targetSpec=\"\"}}{{color id=\"3\"}}Robusto{{color id=\"65535\"}},{{delay8}} quand il fait son jus de\nchaussettes,{{delay8}} c'est pas de la lavasse.\n{{delay20}}Prenons-en de la graine !",
      "EUit": "{{anim id=\"Eh\" target=\"actor\" targetSpec=\"\"}}Caspita! Non c'è nessuno che sappia\nfare il caffè come {{color id=\"3\"}}Bartolo{{color id=\"65535\"}}.{{delay20}} Ogni volta\nche lo bevo mi sento così ispirato!",
      "EUnl": "{{anim id=\"Eh\" target=\"actor\" targetSpec=\"\"}}Jemig, die {{color id=\"3\"}}Brewster{{color id=\"65535\"}} kan me d'r wat\nvan.{{delay20}} Inspirerend toch, niet dan?",
      "EUru": "{{anim id=\"Eh\" target=\"actor\" targetSpec=\"\"}}Вот это да! {{color id=\"3\"}}Брюстер{{color id=\"65535\"}} знает свое\nдело.{{delay20}} Его кофе так и вдохновляет\nна что-нибудь хорошее, соглас{{gender2 m=\"ен\" f=\"на\"}}?",
      "JPja": "{{color id=\"3\"}}マスター{{color id=\"65535\"}}みたいな　プロの{{ruby charSpan=\"2\" value=\"しょくにん\"}}職人さんを{{ruby charSpan=\"1\" value=\"み\"}}見ると、{{delay8}}\n{{anim id=\"Nodding\" target=\"actor\" targetSpec=\"\"}}オレも　{{ruby charSpan=\"1\" value=\"き\"}}気が{{ruby charSpan=\"1\" value=\"ひ\"}}引き{{ruby charSpan=\"1\" value=\"し\"}}締まるんだ{{anim id=\"EmotEnd\" target=\"actor\" targetSpec=\"\"}}",
      "KRko": "{{color id=\"3\"}}마스터{{color id=\"65535\"}} 같은 전문가를 보면{{delay8}}\n{{anim id=\"Nodding\" target=\"actor\" targetSpec=\"\"}}나도 모르게 향상심이 생긴다니까{{anim id=\"EmotEnd\" target=\"actor\" targetSpec=\"\"}}",
      "TWzh": "看到像{{color id=\"3\"}}老闆{{color id=\"65535\"}}那樣的專業人士，{{delay8}}\n{{anim id=\"Nodding\" target=\"actor\" targetSpec=\"\"}}真是不禁讓人肅然起敬啊。{{anim id=\"EmotEnd\" target=\"actor\" targetSpec=\"\"}}",
      "USen": "{{anim id=\"Eh\" target=\"actor\" targetSpec=\"\"}}Crikey, {{color id=\"3\"}}Brewster{{color id=\"65535\"}}'s a master at his\ncraft.{{delay20}} Inspirin' and whatnot,\ndon'tcha think?",
      "USes": "{{anim id=\"Eh\" target=\"actor\" targetSpec=\"\"}}Canastos,{{delay8}} este {{color id=\"3\"}}Fígaro {{color id=\"65535\"}}es muy bueno\nen lo suyo.{{delay20}}{{anim id=\"Smiling\" target=\"actor\" targetSpec=\"\"}} ¡Necesitamos más gente\ncon su profesionalidad!",
      "USfr": "{{anim id=\"Eh\" target=\"actor\" targetSpec=\"\"}}{{color id=\"3\"}}Robusto{{color id=\"65535\"}},{{delay8}} quand il fait son jus d'eau\nde vaisselle,{{delay8}} c'est pas du n'importe\nquoi. {{delay20}}Pensons-y!"
    }
  },
  {
    "label": "101_03",
    "attribute": "0x00000000",
    "locale": {
      "CNzh": "我喝咖啡的时候不加牛奶。{{i10_4}}\n{{anim id=\"Nodding\" target=\"actor\" targetSpec=\"\"}}因为我想聚精会神地\n品味咖啡自带的香气。{{anim id=\"Smiling\" target=\"actor\" targetSpec=\"\"}}",
      "EUde": "{{anim id=\"Negative\" target=\"actor\" targetSpec=\"\"}}Keine Milch und auch sonst nix.{{delay20}}\nDa schmeckt noch alles {{delay8}}{{anim id=\"FaintSmile\" target=\"actor\" targetSpec=\"\"}}original\nnach Kaffee.",
      "EUen": "{{anim id=\"Negative\" target=\"actor\" targetSpec=\"\"}}No milk, no nothin'.{{delay20}} I like my coffee\nnice 'n' simple. {{delay20}}{{anim id=\"FaintSmile\" target=\"actor\" targetSpec=\"\"}}Helps ya savor the\naromas and all that.",
      "EUes": "{{anim id=\"Negative\" target=\"actor\" targetSpec=\"\"}}Ni leche ni nada.{{delay20}} Me gusta el café\nlo más sencillo posible.{{delay20}}{{anim id=\"FaintSmile\" target=\"actor\" targetSpec=\"\"}} ¡Así se\naprecia mejor el aroma, señorit{{gender2 m=\"o\" f=\"a\"}}!",
      "EUfr": "{{anim id=\"Negative\" target=\"actor\" targetSpec=\"\"}}Moi,{{delay8}} j'aime mon café tout simple,\n{{delay8}}sans lait et{{delay8}} sans chichis.{{delay20}}{{anim id=\"FaintSmile\" target=\"actor\" targetSpec=\"\"}} Je le\nsavoure mieux ainsi !",
      "EUit": "{{anim id=\"Negative\" target=\"actor\" targetSpec=\"\"}}A me il caffè piace liscio, senza latte\no altri ingredienti.{{delay20}} {{anim id=\"FaintSmile\" target=\"actor\" targetSpec=\"\"}}Solo così riesco\na gustarmi il suo vero aroma!",
      "EUnl": "{{anim id=\"Negative\" target=\"actor\" targetSpec=\"\"}}Geen melk, geen suiker, niks.{{delay20}} Ik hou\nhet graag simpel. {{delay20}}{{anim id=\"FaintSmile\" target=\"actor\" targetSpec=\"\"}}Zonde van die\nkoffie om d'r wat bij te gooien, toch?",
      "EUru": "Я пью кофе черным,{{delay20}}{{anim id=\"Negative\" target=\"actor\" targetSpec=\"\"}} без всякого\nтам молока.{{delay20}}{{anim id=\"FaintSmile\" target=\"actor\" targetSpec=\"\"}} Так аромат лучше\nчувствуешь и вкус.",
      "JPja": "オレは　コーヒーにミルクは　{{ruby charSpan=\"1\" value=\"い\"}}入れないんだ{{i10_4}}\n{{anim id=\"Nodding\" target=\"actor\" targetSpec=\"\"}}コーヒー{{ruby charSpan=\"2\" value=\"ほんらい\"}}本来の　{{ruby charSpan=\"1\" value=\"かお\"}}香りに\n{{ruby charSpan=\"2\" value=\"いしき\"}}意識を　{{ruby charSpan=\"2\" value=\"しゅうちゅう\"}}集中したくってさ{{anim id=\"Smiling\" target=\"actor\" targetSpec=\"\"}}",
      "KRko": "난 커피에 우유를 넣지 않아{{i10_4}}\n{{anim id=\"Nodding\" target=\"actor\" targetSpec=\"\"}}커피 본래의 향을 있는 그대로 즐기고 싶거든{{anim id=\"Smiling\" target=\"actor\" targetSpec=\"\"}}",
      "TWzh": "我喝咖啡都不加牛奶。{{i10_4}}\n{{anim id=\"Nodding\" target=\"actor\" targetSpec=\"\"}}因為我想專心品味\n咖啡本來的香氣。{{anim id=\"Smiling\" target=\"actor\" targetSpec=\"\"}}",
      "USen": "{{anim id=\"Negative\" target=\"actor\" targetSpec=\"\"}}No milk, no nothin'.{{delay20}} I like my coffee\nnice 'n' simple. {{delay20}}{{anim id=\"FaintSmile\" target=\"actor\" targetSpec=\"\"}}Helps ya savor the\naromas and all that.",
      "USes": "{{anim id=\"Negative\" target=\"actor\" targetSpec=\"\"}}No quiero leche.{{delay20}} Me gusta el café\nlo más sencillo posible.{{delay20}}{{anim id=\"FaintSmile\" target=\"actor\" targetSpec=\"\"}} ¡Así se\naprecia mejor el aroma, señorit{{gender2 m=\"o\" f=\"a\"}}!",
      "USfr": "{{anim id=\"Negative\" target=\"actor\" targetSpec=\"\"}}Moi,{{delay8}} j'aime mon café tout simple,\n{{delay8}}sans lait et{{delay8}} sans chichis.{{delay20}}{{anim id=\"FaintSmile\" target=\"actor\" targetSpec=\"\"}} Je le\nsavoure mieux ainsi!"
    }
  },
  {
    "label": "101_04",
    "attribute": "0x00000000",
    "locale": {
      "CNzh": "工作疲劳的时候，\n{{anim id=\"Nodding\" target=\"actor\" targetSpec=\"\"}}我会在咖啡里\n加一份砂糖再喝。{{anim id=\"Smiling\" target=\"actor\" targetSpec=\"\"}}",
      "EUde": "{{anim id=\"Explain\" target=\"actor\" targetSpec=\"\"}}Wenn's mal nicht so läuft, {{delay8}}gönn ich\nmir 'ne Tasse Kaffee mit etwas\nZucker. {{delay40}}{{anim id=\"Nodding\" target=\"actor\" targetSpec=\"\"}}Dann ist alles wieder gut.",
      "EUen": "{{anim id=\"Explain\" target=\"actor\" targetSpec=\"\"}}When the world's got me down, I'll\ntreat m'self to a nice cuppa joe with\na bit o' sugar. {{delay40}}{{anim id=\"Nodding\" target=\"actor\" targetSpec=\"\"}}Makes it all awright.",
      "EUes": "{{anim id=\"Explain\" target=\"actor\" targetSpec=\"\"}}Cuando me siento decaído,{{delay8}} basta\ncon tomarme una tacita de café\ncon un poquitín de azúcar.\n{{anim id=\"Nodding\" target=\"actor\" targetSpec=\"\"}}Me hace sentir que todo irá bien.",
      "EUfr": "{{anim id=\"Explain\" target=\"actor\" targetSpec=\"\"}}Quand je suis à côté de mes pompes,\n{{delay8}}je prends une bonne tasse de café,\n{{delay20}}{{anim id=\"Nodding\" target=\"actor\" targetSpec=\"\"}}et ça repart.",
      "EUit": "{{anim id=\"Explain\" target=\"actor\" targetSpec=\"\"}}Quando sono un po' giù, mi faccio\nun bel caffè con una punta di\nzucchero.{{delay8}}{{anim id=\"Nodding\" target=\"actor\" targetSpec=\"\"}} E va subito meglio!",
      "EUnl": "{{anim id=\"Explain\" target=\"actor\" targetSpec=\"\"}}Als ik het allemaal niet meer zo zie\nzitten, dan helpt een bakkie troost\nme d'r weer bovenop. {{delay40}}{{anim id=\"Nodding\" target=\"actor\" targetSpec=\"\"}}Toppie, hoor.",
      "EUru": "{{anim id=\"Explain\" target=\"actor\" targetSpec=\"\"}}В тяжелый день выпьешь чашку\nхорошего кофе с ложечкой сахара,{{delay40}}{{anim id=\"Nodding\" target=\"actor\" targetSpec=\"\"}}\nи все становится лучше.",
      "JPja": "{{ruby charSpan=\"2\" value=\"しごと\"}}仕事で{{ruby charSpan=\"1\" value=\"つか\"}}疲れている{{ruby charSpan=\"1\" value=\"とき\"}}時は\n{{anim id=\"Nodding\" target=\"actor\" targetSpec=\"\"}}{{ruby charSpan=\"2\" value=\"さとう\"}}砂糖を　ひとつだけ　{{ruby charSpan=\"1\" value=\"い\"}}入れて{{ruby charSpan=\"1\" value=\"の\"}}飲むのが\n{{ruby charSpan=\"1\" value=\"す\"}}好きなんだ{{anim id=\"Smiling\" target=\"actor\" targetSpec=\"\"}}",
      "KRko": "일로 너무 피곤할 때는\n{{anim id=\"Nodding\" target=\"actor\" targetSpec=\"\"}}설탕을 한 스푼 넣어 마시는 걸 좋아해{{anim id=\"Smiling\" target=\"actor\" targetSpec=\"\"}}",
      "TWzh": "我喜歡在因工作而感到疲累時，\n{{anim id=\"Nodding\" target=\"actor\" targetSpec=\"\"}}享用加入少許砂糖的咖啡。{{anim id=\"Smiling\" target=\"actor\" targetSpec=\"\"}}",
      "USen": "{{anim id=\"Explain\" target=\"actor\" targetSpec=\"\"}}When the world's got me down, I'll\ntreat m'self to a nice cuppa joe with\na bit o' sugar. {{delay40}}{{anim id=\"Nodding\" target=\"actor\" targetSpec=\"\"}}Makes it all awright.",
      "USes": "{{anim id=\"Explain\" target=\"actor\" targetSpec=\"\"}}Cuando me siento decaído,{{delay8}} basta\ncon tomarme una tacita de café\ncon un poco de azúcar.\n{{anim id=\"Nodding\" target=\"actor\" targetSpec=\"\"}}Me hace sentir como zapato nuevo.",
      "USfr": "{{anim id=\"Explain\" target=\"actor\" targetSpec=\"\"}}Quand je suis dans la brume, {{delay8}}je\nprends une bonne tasse de café,\n{{delay20}}{{anim id=\"Nodding\" target=\"actor\" targetSpec=\"\"}}et ça repart."
    }
  },
  {
    "label": "101_05",
    "attribute": "0x00000000",
    "locale": {
      "CNzh": "难得来一次，{{delay8}}\n回去的时候外带一杯吧。",
      "EUde": "{{anim id=\"Nodding\" target=\"actor\" targetSpec=\"\"}}Ich sollte mir wohl noch einen\nKaffee holen, {{delay8}}{{anim id=\"Smiling\" target=\"actor\" targetSpec=\"\"}}bevor ich mich\nwieder auf die Socken mache.",
      "EUen": "{{anim id=\"Nodding\" target=\"actor\" targetSpec=\"\"}}Seein' as how I'm awready here,\nthink I'll treat m'self to another cup\nfor the road. {{delay40}}{{anim id=\"Smiling\" target=\"actor\" targetSpec=\"\"}}Couldn't hurt, eh?",
      "EUes": "{{anim id=\"Nodding\" target=\"actor\" targetSpec=\"\"}}Ya que estoy aquí,{{delay8}} quizá aproveche\ny me pida otro café para llevar.{{delay20}}\n{{anim id=\"Smiling\" target=\"actor\" targetSpec=\"\"}}¡Mofeta prevenida vale por dos!",
      "EUfr": "{{anim id=\"Nodding\" target=\"actor\" targetSpec=\"\"}}Puisque je suis déjà là,{{delay8}} je vais\nprendre une autre tasse pour la\nroute. {{delay40}}{{anim id=\"Smiling\" target=\"actor\" targetSpec=\"\"}}Ça peut pas faire de mal{{string value=\"...\"}}",
      "EUit": "{{anim id=\"Nodding\" target=\"actor\" targetSpec=\"\"}}Visto che sono qui, quasi quasi mi\nprendo anche un altro caffè da\nportarmi via. {{delay8}}{{anim id=\"Smiling\" target=\"actor\" targetSpec=\"\"}}Male non fa!",
      "EUnl": "{{anim id=\"Nodding\" target=\"actor\" targetSpec=\"\"}}Nou ik d'r toch ben, neem ik d'r\ngewoon nog eentje. {{delay40}}{{anim id=\"Smiling\" target=\"actor\" targetSpec=\"\"}}Gewoon, omdat\n't kan!",
      "EUru": "{{anim id=\"Nodding\" target=\"actor\" targetSpec=\"\"}}Раз уж я здесь, выпью, пожалуй,\nеще чашечку на дорогу.{{delay40}}{{anim id=\"Smiling\" target=\"actor\" targetSpec=\"\"}} Хуже-то\nне будет, правильно?",
      "JPja": "せっかくだから、{{delay8}}{{ruby charSpan=\"1\" value=\"かえ\"}}帰りに　テイクアウトも\nしていこうかな",
      "KRko": "기왕 나온 거{{delay8}}\n돌아갈 때 테이크아웃이라도 해 갈까?",
      "TWzh": "機會難得，{{delay8}}\n我外帶點東西回去好了。",
      "USen": "{{anim id=\"Nodding\" target=\"actor\" targetSpec=\"\"}}Seein' as how I'm awready here,\nthink I'll treat m'self to another cup\nfor the road. {{delay40}}{{anim id=\"Smiling\" target=\"actor\" targetSpec=\"\"}}Couldn't hurt, eh?",
      "USes": "{{anim id=\"Nodding\" target=\"actor\" targetSpec=\"\"}}Ya que estoy aquí,{{delay8}} quizá pida otro\ncafé para llevar.{{delay20}} {{anim id=\"Smiling\" target=\"actor\" targetSpec=\"\"}}El café, como los\nzapatos, vienen en par.",
      "USfr": "{{anim id=\"Nodding\" target=\"actor\" targetSpec=\"\"}}Puisque je suis déjà là,{{delay8}} je vais\nprendre une autre tasse pour la\nroute. {{delay40}}{{anim id=\"Smiling\" target=\"actor\" targetSpec=\"\"}}Ça peut pas faire de mal{{string value=\"...\"}}"
    }
  }
]