﻿[
  {
    "label": "001",
    "attribute": "0x00000000",
    "locale": {
      "CNzh": "{{fun_0014003C arg=\"\"}}",
      "EUde": "{{fun_0014003C arg=\"\"}}",
      "EUen": "{{fun_0014003C arg=\"\"}}",
      "EUes": "{{fun_0014003C arg=\"\"}}",
      "EUfr": "{{fun_0014003C arg=\"\"}}",
      "EUit": "{{fun_0014003C arg=\"\"}}",
      "EUnl": "{{fun_0014003C arg=\"\"}}",
      "EUru": "{{fun_0014003C arg=\"\"}}",
      "JPja": "{{fun_0014003C arg=\"\"}}",
      "KRko": "{{fun_0014003C arg=\"\"}}",
      "TWzh": "{{fun_0014003C arg=\"\"}}",
      "USen": "{{fun_0014003C arg=\"\"}}",
      "USes": "{{fun_0014003C arg=\"\"}}",
      "USfr": "{{fun_0014003C arg=\"\"}}"
    }
  },
  {
    "label": "001_01",
    "attribute": "0x00000000",
    "locale": {
      "CNzh": "{{anim id=\"Smiling\" target=\"actor\" targetSpec=\"\"}}谢谢你邀请我来！{{delay40}}\n今天要受你关照了。",
      "EUde": "{{anim id=\"EmotEnd\" target=\"actor\" targetSpec=\"\"}}Du.{{delay20}} Ich.{{delay20}} Kaffee.{{delay20}} Kann's kaum\nerwarten!{{delay20}} {{anim id=\"Smiling\" target=\"actor\" targetSpec=\"\"}}Danke für die Einladung,{{delay8}}\nzack!",
      "EUen": "{{anim id=\"EmotEnd\" target=\"actor\" targetSpec=\"\"}}You.{{delay20}} Me.{{delay20}} Coffee.{{delay20}} Fabulous!{{delay20}}\n{{anim id=\"Smiling\" target=\"actor\" targetSpec=\"\"}}Thanks for the invite!",
      "EUes": "{{anim id=\"Nodding\" target=\"actor\" targetSpec=\"\"}}Tú,{{delay8}} yo,{{delay8}} café.{{delay20}} ¡Firmo ya mismo!{{delay20}}\n{{anim id=\"Smiling\" target=\"actor\" targetSpec=\"\"}}¡Gracias por invitarme!",
      "EUfr": "{{anim id=\"EmotEnd\" target=\"actor\" targetSpec=\"\"}}Toi.{{delay20}} Moi.{{delay20}} Du café.{{delay20}} C'est parfait.{{delay20}}\n{{anim id=\"Smiling\" target=\"actor\" targetSpec=\"\"}}Merci pour l'invitation !",
      "EUit": "{{anim id=\"EmotEnd\" target=\"actor\" targetSpec=\"\"}}Tu.{{delay20}} {{color id=\"3\"}}Frodolo{{color id=\"65535\"}}.{{delay20}} Caffè.{{delay20}} Non vedo l'ora!{{delay20}}\n{{anim id=\"Smiling\" target=\"actor\" targetSpec=\"\"}}Grazie dell'invito, bang!",
      "EUnl": "{{anim id=\"EmotEnd\" target=\"actor\" targetSpec=\"\"}}Jij.{{delay20}} Ik.{{delay20}} Een kop koffie.{{delay20}} Fantastisch!{{delay20}}\n{{anim id=\"Smiling\" target=\"actor\" targetSpec=\"\"}}Bedankt voor de uitnodiging. Bam!",
      "EUru": "{{anim id=\"EmotEnd\" target=\"actor\" targetSpec=\"\"}}Ты{{delay20}} да я,{{delay20}} да кофе в придачу.\n{{delay20}}Превосходно!{{delay20}} {{anim id=\"Smiling\" target=\"actor\" targetSpec=\"\"}}Спасибо\nза приглашение, плюх!",
      "JPja": "{{anim id=\"Smiling\" target=\"actor\" targetSpec=\"\"}}お{{ruby charSpan=\"1\" value=\"まね\"}}招きいただいて　どうも！{{delay40}}\n{{ruby charSpan=\"2\" value=\"きょう\"}}今日は　よろしくお{{ruby charSpan=\"1\" value=\"ねが\"}}願いします",
      "KRko": "{{anim id=\"Smiling\" target=\"actor\" targetSpec=\"\"}}초대해주셔서 감사합니다!{{delay40}}\n오늘 하루 잘 부탁드리겠습니다",
      "TWzh": "{{anim id=\"Smiling\" target=\"actor\" targetSpec=\"\"}}謝謝你的邀請！{{delay40}}\n今天還請你多多指教。",
      "USen": "{{anim id=\"EmotEnd\" target=\"actor\" targetSpec=\"\"}}You.{{delay20}} Me.{{delay20}} Coffee.{{delay20}} Fabulous!{{delay20}}\n{{anim id=\"Smiling\" target=\"actor\" targetSpec=\"\"}}Thanks for the invite!",
      "USes": "{{anim id=\"Nodding\" target=\"actor\" targetSpec=\"\"}}Tú,{{delay8}} yo,{{delay8}} café.{{delay20}} ¡Firmo ya mismo!{{delay20}}\n{{anim id=\"Smiling\" target=\"actor\" targetSpec=\"\"}}¡Gracias por invitarme!",
      "USfr": "{{anim id=\"EmotEnd\" target=\"actor\" targetSpec=\"\"}}Toi.{{delay20}} Moi.{{delay20}} Du café.{{delay20}} C'est parfait.{{delay20}}\n{{anim id=\"Smiling\" target=\"actor\" targetSpec=\"\"}}Merci pour l'invitation!"
    }
  },
  {
    "label": "002",
    "attribute": "0x00000000",
    "locale": {
      "CNzh": "{{fun_0014003C arg=\"\"}}",
      "EUde": "{{fun_0014003C arg=\"\"}}",
      "EUen": "{{fun_0014003C arg=\"\"}}",
      "EUes": "{{fun_0014003C arg=\"\"}}",
      "EUfr": "{{fun_0014003C arg=\"\"}}",
      "EUit": "{{fun_0014003C arg=\"\"}}",
      "EUnl": "{{fun_0014003C arg=\"\"}}",
      "EUru": "{{fun_0014003C arg=\"\"}}",
      "JPja": "{{fun_0014003C arg=\"\"}}",
      "KRko": "{{fun_0014003C arg=\"\"}}",
      "TWzh": "{{fun_0014003C arg=\"\"}}",
      "USen": "{{fun_0014003C arg=\"\"}}",
      "USes": "{{fun_0014003C arg=\"\"}}",
      "USfr": "{{fun_0014003C arg=\"\"}}"
    }
  },
  {
    "label": "002_01",
    "attribute": "0x00000000",
    "locale": {
      "CNzh": "{{anim id=\"Smiling\" target=\"actor\" targetSpec=\"\"}}你又叫我来了啊！{{delay40}}\n非常感谢你。",
      "EUde": "{{anim id=\"EmotEnd\" target=\"actor\" targetSpec=\"\"}}Mehr Kaffee?{{delay20}} {{anim id=\"Smiling\" target=\"actor\" targetSpec=\"\"}}Aber gern!{{delay20}}\nImmer doch!",
      "EUen": "{{anim id=\"EmotEnd\" target=\"actor\" targetSpec=\"\"}}More coffee?{{delay20}} {{anim id=\"Smiling\" target=\"actor\" targetSpec=\"\"}}You bet!{{delay20}} Can't resist!",
      "EUes": "{{anim id=\"Smiling\" target=\"actor\" targetSpec=\"\"}}¿Más café?{{delay20}} ¡Claro que sí!",
      "EUfr": "{{anim id=\"EmotEnd\" target=\"actor\" targetSpec=\"\"}}Encore un café ?{{delay20}} {{anim id=\"Smiling\" target=\"actor\" targetSpec=\"\"}}Absolument !{{delay20}} Ça se\nrefuse pas !",
      "EUit": "{{anim id=\"EmotEnd\" target=\"actor\" targetSpec=\"\"}}Altro caffè?{{delay20}} {{anim id=\"Smiling\" target=\"actor\" targetSpec=\"\"}}Puoi scommetterci!\n{{color id=\"3\"}}Frodolo{{color id=\"65535\"}} non può farne a meno, bang!",
      "EUnl": "{{anim id=\"EmotEnd\" target=\"actor\" targetSpec=\"\"}}Meer koffie?{{delay20}} {{anim id=\"Smiling\" target=\"actor\" targetSpec=\"\"}}Reken maar!{{delay20}} Mij hou je\nniet tegen!",
      "EUru": "{{anim id=\"EmotEnd\" target=\"actor\" targetSpec=\"\"}}Еще кофе?!{{delay20}} {{anim id=\"Smiling\" target=\"actor\" targetSpec=\"\"}}Разве тут устоишь?\n{{delay20}}От такого предложения\nне отказываются!",
      "JPja": "{{anim id=\"Smiling\" target=\"actor\" targetSpec=\"\"}}また　{{ruby charSpan=\"1\" value=\"よ\"}}呼んでくださったんですね！{{delay40}}\nどうも　ありがとうございます",
      "KRko": "{{anim id=\"Smiling\" target=\"actor\" targetSpec=\"\"}}또 불러주셨군요!{{delay40}}\n이것 참 감사합니다",
      "TWzh": "{{anim id=\"Smiling\" target=\"actor\" targetSpec=\"\"}}謝謝你{{delay40}}再次邀請我來！",
      "USen": "{{anim id=\"EmotEnd\" target=\"actor\" targetSpec=\"\"}}More coffee?{{delay20}} {{anim id=\"Smiling\" target=\"actor\" targetSpec=\"\"}}You bet!{{delay20}} Can't resist!",
      "USes": "{{anim id=\"Smiling\" target=\"actor\" targetSpec=\"\"}}¿Más café?{{delay20}} ¡Claro que sí!",
      "USfr": "{{anim id=\"EmotEnd\" target=\"actor\" targetSpec=\"\"}}Encore un café?{{delay20}} {{anim id=\"Smiling\" target=\"actor\" targetSpec=\"\"}}Absolument!{{delay20}}\nÇa se refuse pas!"
    }
  },
  {
    "label": "003",
    "attribute": "0x00000000",
    "locale": {
      "CNzh": "{{fun_0014003C arg=\"\"}}",
      "EUde": "{{fun_0014003C arg=\"\"}}",
      "EUen": "{{fun_0014003C arg=\"\"}}",
      "EUes": "{{fun_0014003C arg=\"\"}}",
      "EUfr": "{{fun_0014003C arg=\"\"}}",
      "EUit": "{{fun_0014003C arg=\"\"}}",
      "EUnl": "{{fun_0014003C arg=\"\"}}",
      "EUru": "{{fun_0014003C arg=\"\"}}",
      "JPja": "{{fun_0014003C arg=\"\"}}",
      "KRko": "{{fun_0014003C arg=\"\"}}",
      "TWzh": "{{fun_0014003C arg=\"\"}}",
      "USen": "{{fun_0014003C arg=\"\"}}",
      "USes": "{{fun_0014003C arg=\"\"}}",
      "USfr": "{{fun_0014003C arg=\"\"}}"
    }
  },
  {
    "label": "003_01",
    "attribute": "0x00000000",
    "locale": {
      "CNzh": "",
      "EUde": "",
      "EUen": "",
      "EUes": "",
      "EUfr": "",
      "EUit": "",
      "EUnl": "",
      "EUru": "",
      "JPja": "",
      "KRko": "",
      "TWzh": "",
      "USen": "",
      "USes": "",
      "USfr": ""
    }
  },
  {
    "label": "101",
    "attribute": "0x00000000",
    "locale": {
      "CNzh": "{{fun_0014003C arg=\"\"}}",
      "EUde": "{{fun_0014003C arg=\"\"}}",
      "EUen": "{{fun_0014003C arg=\"\"}}",
      "EUes": "{{fun_0014003C arg=\"\"}}",
      "EUfr": "{{fun_0014003C arg=\"\"}}",
      "EUit": "{{fun_0014003C arg=\"\"}}",
      "EUnl": "{{fun_0014003C arg=\"\"}}",
      "EUru": "{{fun_0014003C arg=\"\"}}",
      "JPja": "{{fun_0014003C arg=\"\"}}",
      "KRko": "{{fun_0014003C arg=\"\"}}",
      "TWzh": "{{fun_0014003C arg=\"\"}}",
      "USen": "{{fun_0014003C arg=\"\"}}",
      "USes": "{{fun_0014003C arg=\"\"}}",
      "USfr": "{{fun_0014003C arg=\"\"}}"
    }
  },
  {
    "label": "101_01",
    "attribute": "0x00000000",
    "locale": {
      "CNzh": "这么一个难得的机会，{{delay20}}\n{{anim id=\"Nodding\" target=\"actor\" targetSpec=\"\"}}我就把之前共事的同事们也叫上了。{{anim id=\"Smiling\" target=\"actor\" targetSpec=\"\"}}",
      "EUde": "{{anim id=\"Nodding\" target=\"actor\" targetSpec=\"\"}}Kaffee?{{delay20}} Köstlich.{{delay20}} Arbeitskollegen?{{delay20}}\nZack!{{delay8}} Angerufen.{{delay20}} {{anim id=\"Smiling\" target=\"actor\" targetSpec=\"\"}}Leute treffen,{{delay8}}\nimmer gut!",
      "EUen": "{{anim id=\"Nodding\" target=\"actor\" targetSpec=\"\"}}Coffee?{{delay20}} Delicious.{{delay20}} Work buddies?{{delay20}}\nBang!{{delay8}} Called 'em.{{delay20}} {{anim id=\"Smiling\" target=\"actor\" targetSpec=\"\"}}It's great catchin'\nup with everyone!",
      "EUes": "{{anim id=\"Nodding\" target=\"actor\" targetSpec=\"\"}}¿El café?{{delay20}} Una delicia.{{delay20}} ¿Los colegas?{{delay20}}\nBien,{{delay8}} contando historias.{{delay20}}{{anim id=\"Smiling\" target=\"actor\" targetSpec=\"\"}} ¡Hay que\nponerse al día de vez en cuando!",
      "EUfr": "{{anim id=\"Nodding\" target=\"actor\" targetSpec=\"\"}}Le café ?{{delay20}} Un délice.{{delay20}} Les collègues ?{{delay20}}\nBam !{{delay8}} Ils sont en route.{{delay20}} {{anim id=\"Smiling\" target=\"actor\" targetSpec=\"\"}}Ça va faire\ndu bien de se retrouver !",
      "EUit": "{{anim id=\"Nodding\" target=\"actor\" targetSpec=\"\"}}Caffè?{{delay20}} Delizioso.{{delay20}} Colleghi?{{delay20}} Bang!{{delay8}}\n{{anim id=\"Smiling\" target=\"actor\" targetSpec=\"\"}}È bello ritrovarsi tutti insieme.",
      "EUnl": "{{anim id=\"Nodding\" target=\"actor\" targetSpec=\"\"}}Koffie?{{delay20}} Zalig.{{delay20}} Werkmaatjes?{{delay20}} Bam!{{delay8}}\nHeb ze gewoon gebeld.{{delay20}} {{anim id=\"Smiling\" target=\"actor\" targetSpec=\"\"}}Bijpraten\nmet iedereen is geweldig!",
      "EUru": "{{anim id=\"Nodding\" target=\"actor\" targetSpec=\"\"}}Вкусный кофе?{{delay20}} Плюх, налит.{{delay20}}\nКоллеги по работе?{{delay20}} Все в сборе!{{delay8}}\n{{delay20}}{{anim id=\"Smiling\" target=\"actor\" targetSpec=\"\"}}Я так рад повидаться со всеми!",
      "JPja": "せっかくの{{ruby charSpan=\"2\" value=\"きかい\"}}機会なので、{{delay20}}{{anim id=\"Nodding\" target=\"actor\" targetSpec=\"\"}}{{ruby charSpan=\"2\" value=\"いぜん\"}}以前の{{ruby charSpan=\"4\" value=\"しごとなかま\"}}仕事仲間にも\n{{ruby charSpan=\"1\" value=\"こえ\"}}声を　かけさせてもらいました{{anim id=\"Smiling\" target=\"actor\" targetSpec=\"\"}}",
      "KRko": "모처럼의 기회이니{{delay20}}{{anim id=\"Nodding\" target=\"actor\" targetSpec=\"\"}}\n이전 직장 동료도 초대했습니다{{anim id=\"Smiling\" target=\"actor\" targetSpec=\"\"}}",
      "TWzh": "機會難得，{{delay20}}\n{{anim id=\"Nodding\" target=\"actor\" targetSpec=\"\"}}所以我也順便邀請了以前的同事。{{anim id=\"Smiling\" target=\"actor\" targetSpec=\"\"}}",
      "USen": "{{anim id=\"Nodding\" target=\"actor\" targetSpec=\"\"}}Coffee?{{delay20}} Delicious.{{delay20}} Work buddies?{{delay20}}\nBang!{{delay8}} Called 'em.{{delay20}} {{anim id=\"Smiling\" target=\"actor\" targetSpec=\"\"}}It's great catchin'\nup with everyone!",
      "USes": "{{anim id=\"Nodding\" target=\"actor\" targetSpec=\"\"}}¿El café?{{delay20}} Una delicia.{{delay20}} ¿Los colegas?{{delay20}}\nBien,{{delay8}} contando historias.{{delay20}}{{anim id=\"Smiling\" target=\"actor\" targetSpec=\"\"}} ¡Hay que\nponerse al día de vez en cuando!",
      "USfr": "{{anim id=\"Nodding\" target=\"actor\" targetSpec=\"\"}}Le café?{{delay20}} Un délice.{{delay20}} Les collègues?{{delay20}}\nBam!{{delay8}} Ils sont en route.{{delay20}} {{anim id=\"Smiling\" target=\"actor\" targetSpec=\"\"}}Ça va faire\ndu bien de se retrouver!"
    }
  },
  {
    "label": "101_02",
    "attribute": "0x00000000",
    "locale": {
      "CNzh": "{{anim id=\"AbsentMindedness\" target=\"actor\" targetSpec=\"\"}}当初把侄女\n介绍给{{color id=\"3\"}}狸克{{color id=\"65535\"}}社长的时候，{{delay20}}\n我可万万没想到她后来会去创业啊{{string value=\"...\"}}{{pageBreak}}{{anim id=\"EmotEnd\" target=\"actor\" targetSpec=\"\"}}不过，{{delay20}}正是因为发生了这种事，\n{{anim id=\"Nodding\" target=\"actor\" targetSpec=\"\"}}才让我重新体会到{{delay8}}\n广结良缘的重要性。{{anim id=\"Smiling\" target=\"actor\" targetSpec=\"\"}}",
      "EUde": "{{anim id=\"EmotEnd\" target=\"actor\" targetSpec=\"\"}}{{color id=\"3\"}}Karlotta{{color id=\"65535\"}}?{{delay20}} Meine Nichte?{{delay20}} Zack!{{delay8}}\nEigene Firma!{{delay20}} {{anim id=\"Smiling\" target=\"actor\" targetSpec=\"\"}}Unglaublich!{{delay20}} Einfach\nunglaublich.{{delay20}} So stolz!{{pageBreak}}{{anim id=\"Aha\" target=\"actor\" targetSpec=\"\"}}{{delay20}}Das Beste?{{delay20}} Hab sie {{color id=\"3\"}}Tom Nook{{color id=\"65535\"}}\nvorgestellt.{{delay20}} Resultat unerwartet.{{delay20}}\nImmer noch platt.{{pageBreak}}{{anim id=\"Nodding\" target=\"actor\" targetSpec=\"\"}}Im Business?{{delay20}} Connections sind alles.{{delay20}}\nAlles!{{delay20}} Und {{color id=\"3\"}}Karlotta{{color id=\"65535\"}}?{{delay20}} {{anim id=\"BigSmile\" target=\"actor\" targetSpec=\"\"}}Punktlandung!{{delay20}}\nSo stolz!",
      "EUen": "{{anim id=\"EmotEnd\" target=\"actor\" targetSpec=\"\"}}{{color id=\"3\"}}Lottie{{color id=\"65535\"}}?{{delay20}} My niece?{{delay20}} Starting her very\nown company.{{delay20}} {{anim id=\"Smiling\" target=\"actor\" targetSpec=\"\"}}Bang!{{delay8}} Incredible!{{delay20}} Just\nincredible.{{delay20}} Couldn't be prouder.{{pageBreak}}{{anim id=\"EmotEnd\" target=\"actor\" targetSpec=\"\"}}The best part?{{delay20}} Guess who introduced\nher to {{color id=\"3\"}}Tom Nook{{color id=\"65535\"}}?{{delay20}} {{anim id=\"Aha\" target=\"actor\" targetSpec=\"\"}}Me!{{delay20}} Never guessed\nwhere it'd lead.{{delay20}} Still in shock.{{pageBreak}}{{anim id=\"Nodding\" target=\"actor\" targetSpec=\"\"}}Connections are everything in\nbusiness.{{delay20}} Everything!{{delay20}} And {{color id=\"3\"}}Lottie{{color id=\"65535\"}}?{{delay frames=\"40\"}}\n{{anim id=\"BigSmile\" target=\"actor\" targetSpec=\"\"}}She nailed it.{{delay20}} I'm so proud!",
      "EUes": "{{anim id=\"AbsentMindedness\" target=\"actor\" targetSpec=\"\"}}¿{{color id=\"3\"}}Nuria{{color id=\"65535\"}}?{{delay20}} ¿Mi sobrina?{{delay20}} ¡Puro talento!{{delay20}}\nHa emprendido su propio negocio.{{delay20}}\n{{anim id=\"Smiling\" target=\"actor\" targetSpec=\"\"}}Y le va de miedo;{{delay8}} ¡vaya que sí!{{pageBreak}}{{anim id=\"Aha\" target=\"actor\" targetSpec=\"\"}}¿Y sabes lo mejor?{{delay20}} Fui quien{{anim id=\"Smiling\" target=\"actor\" targetSpec=\"\"}} la puso\nen contacto con {{color id=\"3\"}}Tom Nook{{color id=\"65535\"}}.{{delay20}} Sabía\nque ahí había bayas,{{delay8}} por supuesto.{{pageBreak}}{{anim id=\"Nodding\" target=\"actor\" targetSpec=\"\"}}Sinergias empresariales,{{delay8}} ya sabes.{{delay20}}\n{{color id=\"3\"}}Nuria{{color id=\"65535\"}} es muy lista,{{delay8}} ¡claro que sí!{{delay20}}\n{{anim id=\"BigSmile\" target=\"actor\" targetSpec=\"\"}}Lo llevamos en los genes.",
      "EUfr": "{{anim id=\"EmotEnd\" target=\"actor\" targetSpec=\"\"}}{{color id=\"3\"}}Lou {{color id=\"65535\"}}?{{delay20}} Ma nièce ?{{delay8}} Elle a monté sa\nboîte.{{delay20}} Bam !{{delay20}} {{anim id=\"Smiling\" target=\"actor\" targetSpec=\"\"}}Pas croyable !{{delay20}} J'en\nreviens toujours pas.{{delay20}} Trop fier.{{pageBreak}}{{anim id=\"Aha\" target=\"actor\" targetSpec=\"\"}}{{delay20}}Le plus fou ?{{delay20}} C'est moi qui lui ai\nprésenté Tom Nook.{{delay20}} J'aurais jamais\npu imaginer la suite.{{delay20}} Encore choqué.{{pageBreak}}{{anim id=\"Nodding\" target=\"actor\" targetSpec=\"\"}}Dans le métier ?{{delay20}} Faut connaître et\nêtre connu.{{delay20}} {{color id=\"3\"}}Lou {{color id=\"65535\"}}?{{delay20}} {{anim id=\"BigSmile\" target=\"actor\" targetSpec=\"\"}}L'a monté l'affaire du siècle.{{delay20}} L'tonton ?{{delay20}} Il est fier !",
      "EUit": "{{anim id=\"EmotEnd\" target=\"actor\" targetSpec=\"\"}}{{color id=\"3\"}}Casimira{{color id=\"65535\"}}?{{delay20}} La nipote di {{color id=\"3\"}}Frodolo{{color id=\"65535\"}}?{{delay20}}\nBang!{{delay8}} Ha messo su una sua attività.{{delay20}}\n{{anim id=\"Smiling\" target=\"actor\" targetSpec=\"\"}}È incredibile!{{delay20}} {{color id=\"3\"}}Frodolo{{color id=\"65535\"}} ne è fierissimo.{{pageBreak}}{{anim id=\"Aha\" target=\"actor\" targetSpec=\"\"}}{{delay20}}E sai qual è la parte più buffa?{{delay20}} Che è\nstato {{color id=\"3\"}}Frodolo{{color id=\"65535\"}} a presentarla a {{color id=\"3\"}}Tom\nNook{{color id=\"65535\"}}.{{delay20}} Chi l'avrebbe mai detto{{string value=\"...\"}}\nBang! {{color id=\"3\"}}Frodolo{{color id=\"65535\"}} è ancora sotto shock.{{pageBreak}}{{anim id=\"Nodding\" target=\"actor\" targetSpec=\"\"}}Gli affari?{{delay20}} I contatti sono tutto!{{delay20}} E\n{{color id=\"3\"}}Casimira{{color id=\"65535\"}}{{anim id=\"BigSmile\" target=\"actor\" targetSpec=\"\"}} ha fatto centro. Ci sa fare!\n{{color id=\"3\"}}Frodolo{{color id=\"65535\"}} è fiero di lei!",
      "EUnl": "{{anim id=\"EmotEnd\" target=\"actor\" targetSpec=\"\"}}{{color id=\"3\"}}Lottie{{color id=\"65535\"}}?{{delay8}} Mijn nichtje?{{delay20}} Is gewoon\nhaar eigen bedrijf gestart.{{delay20}} {{anim id=\"Smiling\" target=\"actor\" targetSpec=\"\"}}Bam!{{delay20}}\nHad niet trotser kunnen zijn.{{pageBreak}}{{anim id=\"Aha\" target=\"actor\" targetSpec=\"\"}}{{delay20}}En het beste?{{delay20}} Ik was degene die haar\nheeft voorgesteld aan {{color id=\"3\"}}Tom Nook{{color id=\"65535\"}}.{{delay20}} Dat\ndit ervan zou komen!{{delay20}} Nog in shock.{{pageBreak}}{{anim id=\"Nodding\" target=\"actor\" targetSpec=\"\"}}In de zakenwereld draait alles om\nnetwerken.{{delay20}} Alles!{{delay20}} En {{color id=\"3\"}}Lottie{{color id=\"65535\"}}?{{delay20}} {{anim id=\"BigSmile\" target=\"actor\" targetSpec=\"\"}}Heeft\nflink doorgepakt. {{delay20}}Wat een topper!",
      "EUru": "{{anim id=\"EmotEnd\" target=\"actor\" targetSpec=\"\"}}Знаешь {{color id=\"3\"}}Лотти{{color id=\"65535\"}},{{delay20}} мою племянницу?{{delay20}}\nОсновала собственную компанию.\n{{delay20}}{{anim id=\"Smiling\" target=\"actor\" targetSpec=\"\"}}Плюх!{{delay8}} Меня{{delay20}} распирает{{delay20}} от гордости.{{pageBreak}}{{anim id=\"EmotEnd\" target=\"actor\" targetSpec=\"\"}}Самое интересное —{{delay20}}{{anim id=\"Aha\" target=\"actor\" targetSpec=\"\"}} я познакомил\nее с {{color id=\"3\"}}Томом Нуком{{color id=\"65535\"}}.{{delay20}} Я и представить\nне мог, что так будет!{{delay20}} Я шокирован.{{pageBreak}}{{anim id=\"Nodding\" target=\"actor\" targetSpec=\"\"}}В таких делах{{delay20}} связи — это все.{{delay20}}\nВсе! {{delay20}}И {{color id=\"3\"}}Лотти{{color id=\"65535\"}} {{delay frames=\"40\"}}{{anim id=\"BigSmile\" target=\"actor\" targetSpec=\"\"}}воспользовалась\nими как надо.{{delay20}} Я так горжусь!",
      "JPja": "{{anim id=\"AbsentMindedness\" target=\"actor\" targetSpec=\"\"}}{{ruby charSpan=\"1\" value=\"めい\"}}姪が　{{ruby charSpan=\"2\" value=\"きぎょう\"}}起業するなんて、{{delay20}}\n{{ruby charSpan=\"2\" value=\"さいしょ\"}}最初に　{{color id=\"3\"}}たぬきち{{color id=\"65535\"}}{{ruby charSpan=\"2\" value=\"しゃちょう\"}}社長に{{ruby charSpan=\"2\" value=\"しょうかい\"}}紹介した{{ruby charSpan=\"1\" value=\"とき\"}}時には\n{{ruby charSpan=\"1\" value=\"おも\"}}思いもしませんでしたねぇ{{string value=\"...\"}}{{pageBreak}}{{anim id=\"EmotEnd\" target=\"actor\" targetSpec=\"\"}}でも、{{delay20}}こういうことが　{{ruby charSpan=\"1\" value=\"お\"}}起きると\n{{anim id=\"Nodding\" target=\"actor\" targetSpec=\"\"}}{{ruby charSpan=\"1\" value=\"ひと\"}}人の{{ruby charSpan=\"1\" value=\"えん\"}}縁が　いかに{{ruby charSpan=\"2\" value=\"たいせつ\"}}大切かを　{{delay8}}{{ruby charSpan=\"1\" value=\"あらた\"}}改めて{{ruby charSpan=\"2\" value=\"じっかん\"}}実感します{{anim id=\"Smiling\" target=\"actor\" targetSpec=\"\"}}",
      "KRko": "{{anim id=\"AbsentMindedness\" target=\"actor\" targetSpec=\"\"}}조카가 창업을 하다니{{delay20}}\n{{color id=\"3\"}}너굴{{color id=\"65535\"}} 사장님께 소개할 때만 해도\n이런 일은 생각도 못 했습니다{{string value=\"...\"}}{{pageBreak}}{{anim id=\"EmotEnd\" target=\"actor\" targetSpec=\"\"}}이런 일이 일어나고 나서야{{delay20}}\n{{anim id=\"Nodding\" target=\"actor\" targetSpec=\"\"}}인연이라는 게 얼마나 중요한지{{delay8}}\n다시 한번 깨닫게 되는군요{{anim id=\"Smiling\" target=\"actor\" targetSpec=\"\"}}",
      "TWzh": "{{anim id=\"AbsentMindedness\" target=\"actor\" targetSpec=\"\"}}當初將姪女介紹給{{color id=\"3\"}}狸克{{color id=\"65535\"}}社長時，{{delay20}}\n根本想像不到\n她將來會自己創業{{string value=\"...\"}}{{pageBreak}}{{anim id=\"EmotEnd\" target=\"actor\" targetSpec=\"\"}}但{{delay20}}正因為這樣，\n{{anim id=\"Nodding\" target=\"actor\" targetSpec=\"\"}}才能再度深刻體會到{{delay8}}\n人脈的重要啊。{{anim id=\"Smiling\" target=\"actor\" targetSpec=\"\"}}",
      "USen": "{{anim id=\"EmotEnd\" target=\"actor\" targetSpec=\"\"}}{{color id=\"3\"}}Lottie{{color id=\"65535\"}}?{{delay20}} My niece?{{delay20}} Starting her very\nown company.{{delay20}} {{anim id=\"Smiling\" target=\"actor\" targetSpec=\"\"}}Bang!{{delay8}} Incredible!{{delay20}} Just\nincredible.{{delay20}} Couldn't be prouder.{{pageBreak}}{{anim id=\"EmotEnd\" target=\"actor\" targetSpec=\"\"}}The best part?{{delay20}} Guess who introduced\nher to {{color id=\"3\"}}Tom Nook{{color id=\"65535\"}}?{{delay20}} {{anim id=\"Aha\" target=\"actor\" targetSpec=\"\"}}Me!{{delay20}} Never guessed\nwhere it'd lead.{{delay20}} Still in shock.{{pageBreak}}{{anim id=\"Nodding\" target=\"actor\" targetSpec=\"\"}}Connections are everything in\nbusiness.{{delay20}} Everything!{{delay20}} And {{color id=\"3\"}}Lottie{{color id=\"65535\"}}?{{delay frames=\"40\"}}\n{{anim id=\"BigSmile\" target=\"actor\" targetSpec=\"\"}}She nailed it.{{delay20}} I'm so proud!",
      "USes": "{{anim id=\"AbsentMindedness\" target=\"actor\" targetSpec=\"\"}}¿{{color id=\"3\"}}Nuria{{color id=\"65535\"}}?{{delay20}} ¿Mi sobrina?{{delay20}} ¡Puro talento!{{delay20}}\nTiene su propio negocio.{{delay20}}\n{{anim id=\"Smiling\" target=\"actor\" targetSpec=\"\"}}Y le va excelente;{{delay8}} ¡vaya que sí!{{pageBreak}}{{anim id=\"Aha\" target=\"actor\" targetSpec=\"\"}}¿Y sabes qué?{{delay20}} Yo fui quien la{{anim id=\"Smiling\" target=\"actor\" targetSpec=\"\"}} puso\nen contacto con {{color id=\"3\"}}Tom Nook{{color id=\"65535\"}}.{{delay20}} Sabía\nque sería un buen negocio.{{pageBreak}}{{anim id=\"Nodding\" target=\"actor\" targetSpec=\"\"}}Cuestiones empresariales,{{delay8}} ya sabes.{{delay20}}\n{{color id=\"3\"}}Nuria{{color id=\"65535\"}} es muy inteligente,{{delay8}} ¡claro que\nsí!{{delay20}} {{anim id=\"BigSmile\" target=\"actor\" targetSpec=\"\"}}Está en los genes.",
      "USfr": "{{anim id=\"EmotEnd\" target=\"actor\" targetSpec=\"\"}}{{color id=\"3\"}}Lou{{color id=\"65535\"}}?{{delay20}} Ma nièce?{{delay8}} Elle a créé son\nentreprise.{{delay20}} Bam!{{delay20}} {{anim id=\"Smiling\" target=\"actor\" targetSpec=\"\"}}Pas croyable!{{delay20}}\nJ'en reviens toujours pas.{{delay20}} Trop fier.{{pageBreak}}{{anim id=\"Aha\" target=\"actor\" targetSpec=\"\"}}{{delay20}}Le plus fou?{{delay20}} C'est moi qui lui ai\nprésenté {{color id=\"3\"}}Tom Nook{{color id=\"65535\"}}.{{delay20}} J'aurais jamais\npu imaginer la suite.{{delay20}} Encore choqué.{{pageBreak}}{{anim id=\"Nodding\" target=\"actor\" targetSpec=\"\"}}Dans le métier?{{delay20}} Faut être connu.{{delay20}}\n{{color id=\"3\"}}Lou{{color id=\"65535\"}}?{{delay20}} {{anim id=\"BigSmile\" target=\"actor\" targetSpec=\"\"}}Elle a monté l'affaire du siècle.{{delay20}}\nEt son oncle?{{delay20}} Il est fier!"
    }
  },
  {
    "label": "101_03",
    "attribute": "0x00000000",
    "locale": {
      "CNzh": "从我在快乐家协会工作起，{{delay20}}\n{{anim id=\"Nodding\" target=\"actor\" targetSpec=\"\"}}我就开始和{{color id=\"3\"}}狸克{{color id=\"65535\"}}社长\n有来往了。{{anim id=\"Smiling\" target=\"actor\" targetSpec=\"\"}}",
      "EUde": "{{anim id=\"AbsentMindedness\" target=\"actor\" targetSpec=\"\"}}{{color id=\"3\"}}Tom Nook{{color id=\"65535\"}} und {{color id=\"3\"}}Fred{{color id=\"65535\"}}?{{delay20}} Alte Kumpels.{{delay20}}\nKennen uns schon, seit der Ära\n„Akademie des schönen Hauses“.{{pageBreak}}{{anim id=\"EmotEnd\" target=\"actor\" targetSpec=\"\"}}Du brauchtest was für dein Haus?{{delay20}}\n{{anim id=\"Smiling\" target=\"actor\" targetSpec=\"\"}}Zack!{{delay8}} Wurde von uns erledigt.{{delay20}}\nKein Problem!{{delay20}} Das waren Zeiten!",
      "EUen": "{{anim id=\"AbsentMindedness\" target=\"actor\" targetSpec=\"\"}}{{color id=\"3\"}}Tom Nook{{color id=\"65535\"}} and {{color id=\"3\"}}Lyle{{color id=\"65535\"}}?{{delay20}} Known each\nother for years.{{delay20}} Years!{{delay20}} Been biz buds\nsince my Happy Home Academy days.{{pageBreak}}{{anim id=\"EmotEnd\" target=\"actor\" targetSpec=\"\"}}Wanted something for your home?{{delay20}}\n{{anim id=\"Smiling\" target=\"actor\" targetSpec=\"\"}}Bang!{{delay8}} We had you covered.{{delay20}} No\nproblemo!{{delay20}} Those were the days.",
      "EUes": "{{anim id=\"AbsentMindedness\" target=\"actor\" targetSpec=\"\"}}¿{{color id=\"3\"}}Tom Nook{{color id=\"65535\"}} y {{color id=\"3\"}}Sisebuto{{color id=\"65535\"}}?{{delay20}} ¡Colegas\nde años!{{delay20}} Desde los tiempos de la\nAcademia de Artes Decorativas.\n{{anim id=\"Nodding\" target=\"actor\" targetSpec=\"\"}}¿Cada vez que alguien quería darle\nun soplo de aire fresco a su hogar?{{delay20}}\n¡Bam! {{delay8}}¡Ahí estábamos!{{delay8}} Sin falta.\n{{anim id=\"Smiling\" target=\"actor\" targetSpec=\"\"}}Qué buenos eran los viejos tiempos{{string value=\"...\"}}",
      "EUfr": "{{anim id=\"AbsentMindedness\" target=\"actor\" targetSpec=\"\"}}{{color id=\"3\"}}Tom Nook {{color id=\"65535\"}}et {{color id=\"3\"}}Lionel {{color id=\"65535\"}}?{{delay20}} De vieux amis.{{delay20}}\nSuper potes.{{delay20}} On se connaît depuis\nl'Académie des joyeux décorateurs.\n{{anim id=\"EmotEnd\" target=\"actor\" targetSpec=\"\"}}Maisons. Décorations. Mobilier.\nÉvaluations.{{delay20}} {{anim id=\"Smiling\" target=\"actor\" targetSpec=\"\"}}Bam !{{delay8}} On faisait tout.{{delay20}}\nBelle époque.",
      "EUit": "{{anim id=\"AbsentMindedness\" target=\"actor\" targetSpec=\"\"}}{{color id=\"3\"}}Tom Nook{{color id=\"65535\"}} e {{color id=\"3\"}}Frodolo{{color id=\"65535\"}}?{{delay20}} Vecchi\namici.{{delay20}} Ci conosciamo dai tempi\ndell'Accademia delle Belle Case.\n{{anim id=\"EmotEnd\" target=\"actor\" targetSpec=\"\"}}Ti serviva qualcosa per la casa?{{delay20}}\n{{anim id=\"Smiling\" target=\"actor\" targetSpec=\"\"}}Bang!{{delay8}} Ci pensavamo noi.{{delay20}} Nessun\nproblema!{{delay20}} Quelli, sì, erano bei tempi!",
      "EUnl": "{{anim id=\"AbsentMindedness\" target=\"actor\" targetSpec=\"\"}}{{color id=\"3\"}}Tom Nook{{color id=\"65535\"}} en ik?{{delay20}} Oude vrienden.{{delay20}}\nAl sinds mijn tijd bij de Academie\nvoor Wonderlijke Woningen.{{pageBreak}}{{anim id=\"EmotEnd\" target=\"actor\" targetSpec=\"\"}}Wou je iets met je huis?{{delay20}} {{anim id=\"Smiling\" target=\"actor\" targetSpec=\"\"}}Bam!{{delay8}}\nRegelden we voor je.{{delay20}} Geen probleem!{{delay20}}\nDat waren nog eens tijden!",
      "EUru": "{{anim id=\"AbsentMindedness\" target=\"actor\" targetSpec=\"\"}}{{color id=\"3\"}}Том Нук{{color id=\"65535\"}} и {{color id=\"3\"}}Лайл{{color id=\"65535\"}}?{{delay20}} Старые друзья.{{delay20}}\nСтаринные!{{delay20}} Еще с моих времен\nв Академии домашнего уюта.{{pageBreak}}{{anim id=\"EmotEnd\" target=\"actor\" targetSpec=\"\"}}Нужно что-то для дома?{{delay20}} {{anim id=\"Smiling\" target=\"actor\" targetSpec=\"\"}}Плюх!\n{{delay8}}Мы обо всем позаботимся.{{delay20}} Найдем,\nчто нужно!{{delay20}} Вот это было время!",
      "JPja": "{{color id=\"3\"}}たぬきち{{color id=\"65535\"}}{{ruby charSpan=\"2\" value=\"しゃちょう\"}}社長とは、{{delay20}}{{anim id=\"Nodding\" target=\"actor\" targetSpec=\"\"}}ワタシが\nハッピーホームアカデミーで　{{ruby charSpan=\"1\" value=\"はたら\"}}働くように\nなって{{ruby charSpan=\"2\" value=\"いらい\"}}以来の　ご{{ruby charSpan=\"1\" value=\"えん\"}}縁なんです{{anim id=\"Smiling\" target=\"actor\" targetSpec=\"\"}}",
      "KRko": "{{color id=\"3\"}}너굴{{color id=\"65535\"}} 사장님과는{{delay20}}{{anim id=\"Nodding\" target=\"actor\" targetSpec=\"\"}}\n제가 해피홈 아카데미에서\n일하던 시절부터 알고 지내왔지요{{anim id=\"Smiling\" target=\"actor\" targetSpec=\"\"}}",
      "TWzh": "從我開始在快樂家協會工作時，{{delay20}}\n{{anim id=\"Nodding\" target=\"actor\" targetSpec=\"\"}}就認識{{color id=\"3\"}}狸克{{color id=\"65535\"}}社長了。{{anim id=\"Smiling\" target=\"actor\" targetSpec=\"\"}}",
      "USen": "{{anim id=\"AbsentMindedness\" target=\"actor\" targetSpec=\"\"}}{{color id=\"3\"}}Tom Nook{{color id=\"65535\"}} and {{color id=\"3\"}}Lyle{{color id=\"65535\"}}?{{delay20}} Known each\nother for years.{{delay20}} Years!{{delay20}} Been biz buds\nsince my Happy Home Academy days.{{pageBreak}}{{anim id=\"EmotEnd\" target=\"actor\" targetSpec=\"\"}}Wanted something for your home?{{delay20}}\n{{anim id=\"Smiling\" target=\"actor\" targetSpec=\"\"}}Bang!{{delay8}} We had you covered.{{delay20}} No\nproblemo!{{delay20}} Those were the days.",
      "USes": "{{anim id=\"AbsentMindedness\" target=\"actor\" targetSpec=\"\"}}¿{{color id=\"3\"}}Tom Nook{{color id=\"65535\"}} y {{color id=\"3\"}}Sisebuto{{color id=\"65535\"}}?{{delay20}} ¡Amigos\nde años!{{delay20}} Desde los tiempos de la\nAcademia de Artes Decorativas.\n{{anim id=\"Nodding\" target=\"actor\" targetSpec=\"\"}}¿Cada vez que alguien quería darle\nun soplo de aire fresco a su hogar?{{delay20}}\n¡Bam! {{delay8}}¡Ahí estábamos!{{delay8}} Sin falta.\n{{anim id=\"Smiling\" target=\"actor\" targetSpec=\"\"}}Qué buenos eran los viejos tiempos{{string value=\"...\"}}",
      "USfr": "{{anim id=\"AbsentMindedness\" target=\"actor\" targetSpec=\"\"}}{{color id=\"3\"}}Tom Nook {{color id=\"65535\"}}et {{color id=\"3\"}}Lionel{{color id=\"65535\"}}?{{delay20}} De vieux amis.{{delay20}}\nSuper copains.{{delay20}} On se connaît depuis\nl'Académie des joyeux décorateurs.\n{{anim id=\"EmotEnd\" target=\"actor\" targetSpec=\"\"}}Maisons. Décorations. Mobilier.\nÉvaluations.{{delay20}} {{anim id=\"Smiling\" target=\"actor\" targetSpec=\"\"}}Bam!{{delay8}} On faisait tout.{{delay20}}\nBelle époque."
    }
  },
  {
    "label": "101_04",
    "attribute": "0x00000000",
    "locale": {
      "CNzh": "我听说{{color id=\"3\"}}西施惠{{color id=\"65535\"}}小姐{{delay8}}\n正在{{color id=\"3\"}}狸克{{color id=\"65535\"}}社长那边工作啊。{{pageBreak}}{{anim id=\"Smiling\" target=\"actor\" targetSpec=\"\"}}我在Nook Housing工作的时候\n常常受她关照。",
      "EUde": "Hm!{{delay20}} {{color id=\"3\"}}Melinda{{color id=\"65535\"}}.{{delay20}} Arbeitet jetzt für {{color id=\"3\"}}Tom\nNook{{color id=\"65535\"}}.{{delay20}} {{anim id=\"Grin\" target=\"actor\" targetSpec=\"\"}}Freut mich.{{delay20}} Sie ist ein Ass.{{delay20}}\nWar immer eine große Hilfe.",
      "EUen": "So!{{delay20}} {{color id=\"3\"}}Isabelle{{color id=\"65535\"}}.{{delay20}} Working with {{color id=\"3\"}}Tom Nook{{color id=\"65535\"}}\nnow.{{delay20}} {{anim id=\"Grin\" target=\"actor\" targetSpec=\"\"}}Glad to hear it.{{delay20}} She's an ace.{{delay20}}\nReally helped us out back in the day.",
      "EUes": "{{anim id=\"Nodding\" target=\"actor\" targetSpec=\"\"}}Me alegro de que {{color id=\"3\"}}Canela{{color id=\"65535\"}} trabaje\na las órdenes de {{color id=\"3\"}}Tom Nook{{color id=\"65535\"}}.{{pageBreak}}{{anim id=\"Smiling\" target=\"actor\" targetSpec=\"\"}}Esa chica es una máquina.{{delay20}} {{color id=\"3\"}}Sisebuto{{color id=\"65535\"}}\nlo sabe de buena tinta. {{delay8}}Claro que sí.",
      "EUfr": "Alors, {{color id=\"3\"}}Marie{{color id=\"65535\"}}.{{delay20}} Travaille avec {{color id=\"3\"}}Tom Nook\n{{color id=\"65535\"}}maintenant,{{delay8}} paraît-y.{{delay20}} {{anim id=\"Grin\" target=\"actor\" targetSpec=\"\"}}Bon choix.{{delay20}} Un\nvrai atout.{{delay8}} Indispensable à l'époque.",
      "EUit": "Bang!{{delay20}} {{color id=\"3\"}}Fuffi{{color id=\"65535\"}} ora lavora con {{color id=\"3\"}}Tom\nNook{{color id=\"65535\"}}.{{delay20}} {{anim id=\"Grin\" target=\"actor\" targetSpec=\"\"}}A {{color id=\"3\"}}Frodolo{{color id=\"65535\"}} fa piacere.{{delay20}} Lei è in\ngambissima. Ci ha sempre aiutato!",
      "EUnl": "Dus!{{delay20}} {{color id=\"3\"}}Isabelle{{color id=\"65535\"}}.{{delay20}} Werkt nu met {{color id=\"3\"}}Tom\nNook{{color id=\"65535\"}}.{{delay20}} {{anim id=\"Grin\" target=\"actor\" targetSpec=\"\"}}Machtig mooi.{{delay20}} Enorme hulp\nvroeger.",
      "EUru": "{{color id=\"3\"}}Изабель {{color id=\"65535\"}}{{delay20}}теперь работает у {{color id=\"3\"}}Тома\nНука{{color id=\"65535\"}}.{{delay20}} {{anim id=\"Grin\" target=\"actor\" targetSpec=\"\"}}Она отличный специалист!{{delay20}}\nЕще давно себя зарекомендовала.",
      "JPja": "{{color id=\"3\"}}しずえ{{color id=\"65535\"}}さんは{{delay8}}　{{color id=\"3\"}}たぬきち{{color id=\"65535\"}}{{ruby charSpan=\"2\" value=\"しゃちょう\"}}社長の{{ruby charSpan=\"1\" value=\"ところ\"}}所で\n{{ruby charSpan=\"1\" value=\"はたら\"}}働いているらしいですね{{pageBreak}}{{anim id=\"Smiling\" target=\"actor\" targetSpec=\"\"}}たぬきハウジング{{ruby charSpan=\"2\" value=\"じだい\"}}時代に　よく\n{{ruby charSpan=\"2\" value=\"しごと\"}}仕事で　お{{ruby charSpan=\"2\" value=\"せわ\"}}世話になったんですよ",
      "KRko": "{{color id=\"3\"}}여울{{color id=\"65535\"}}씨는{{delay8}} {{color id=\"3\"}}너굴{{color id=\"65535\"}} 사장님과\n함께 일하고 계신 모양이더군요{{pageBreak}}{{anim id=\"Smiling\" target=\"actor\" targetSpec=\"\"}}너굴 하우징 시절에도\n자주 업무 관련으로 신세를 졌답니다",
      "TWzh": "聽說{{color id=\"3\"}}西施惠{{color id=\"65535\"}}{{delay8}}\n目前在{{color id=\"3\"}}狸克{{color id=\"65535\"}}社長那工作。{{pageBreak}}{{anim id=\"Smiling\" target=\"actor\" targetSpec=\"\"}}以前在Nook房地產的時期，\n工作上常常受她關照啊。",
      "USen": "So!{{delay20}} {{color id=\"3\"}}Isabelle{{color id=\"65535\"}}.{{delay20}} Working with {{color id=\"3\"}}Tom Nook{{color id=\"65535\"}}\nnow.{{delay20}} {{anim id=\"Grin\" target=\"actor\" targetSpec=\"\"}}Glad to hear it.{{delay20}} She's an ace.{{delay20}}\nReally helped us out back in the day.",
      "USes": "{{anim id=\"Nodding\" target=\"actor\" targetSpec=\"\"}}Me alegro de que {{color id=\"3\"}}Canela{{color id=\"65535\"}} trabaje\ncon {{color id=\"3\"}}Tom Nook{{color id=\"65535\"}}.{{pageBreak}}{{anim id=\"Smiling\" target=\"actor\" targetSpec=\"\"}}Esa chica es una máquina.{{delay20}} Yo lo\nsé muy bien. {{delay8}}Claro que sí.",
      "USfr": "Alors, {{color id=\"3\"}}Marie{{color id=\"65535\"}}.{{delay20}} Travaille avec {{color id=\"3\"}}Tom Nook\n{{color id=\"65535\"}}maintenant,{{delay8}} y paraît.{{delay20}} {{anim id=\"Grin\" target=\"actor\" targetSpec=\"\"}}Bon choix.{{delay20}} Un\nvrai atout.{{delay8}} Indispensable à l'époque."
    }
  },
  {
    "label": "101_05",
    "attribute": "0x00000000",
    "locale": {
      "CNzh": "{{anim id=\"Explain\" target=\"actor\" targetSpec=\"\"}}我和{{color id=\"3\"}}西施德{{color id=\"65535\"}}{{delay20}}\n回到快乐家协会，\n现在也还在一起工作呢。{{anim id=\"EmotEnd\" target=\"actor\" targetSpec=\"\"}}\n{{anim id=\"Nodding\" target=\"actor\" targetSpec=\"\"}}我和他因为这样那样的原因，\n也有很长时间的交情了。{{anim id=\"Smiling\" target=\"actor\" targetSpec=\"\"}}",
      "EUde": "{{anim id=\"Explain\" target=\"actor\" targetSpec=\"\"}}{{color id=\"3\"}}Moritz{{color id=\"65535\"}} und {{color id=\"3\"}}Fred{{color id=\"65535\"}}.{{delay20}} Wiedervereint bei\nder Akademie des schönen Hauses.{{delay40}}\n{{anim id=\"Smiling\" target=\"actor\" targetSpec=\"\"}}ZACK!{{delay20}} Astreine Kombination!",
      "EUen": "{{anim id=\"Explain\" target=\"actor\" targetSpec=\"\"}}{{color id=\"3\"}}Digby{{color id=\"65535\"}} and {{color id=\"3\"}}Lyle{{color id=\"65535\"}}.{{delay20}} Both of us back at\nHappy Home Academy.{{delay20}} You want a\nwinning combo?{{delay20}} {{anim id=\"Smiling\" target=\"actor\" targetSpec=\"\"}}Bang!{{delay8}} There it is!",
      "EUes": "{{anim id=\"Explain\" target=\"actor\" targetSpec=\"\"}}¿{{color id=\"3\"}}Candrés{{color id=\"65535\"}} y {{color id=\"3\"}}Sisebuto{{color id=\"65535\"}}?{{delay8}} Compañeros\nen la Academia de Artes Decorativas.{{delay20}}\n{{anim id=\"Smiling\" target=\"actor\" targetSpec=\"\"}}¡Seguimos formando un gran equipo!",
      "EUfr": "{{anim id=\"Explain\" target=\"actor\" targetSpec=\"\"}}{{color id=\"3\"}}Max{{color id=\"65535\"}} et {{color id=\"3\"}}Lionel{{color id=\"65535\"}}.{{delay20}} Duo de choc à\nl'Académie des joyeux décorateurs.{{delay20}}\n{{anim id=\"Smiling\" target=\"actor\" targetSpec=\"\"}}Imbattables !{{delay8}} Bam !",
      "EUit": "{{anim id=\"Explain\" target=\"actor\" targetSpec=\"\"}}{{color id=\"3\"}}Fofò{{color id=\"65535\"}} e {{color id=\"3\"}}Frodolo{{color id=\"65535\"}}.{{delay20}} Di nuovo insieme\nall'Accademia delle Belle Case.{{pageBreak}}Se vuoi una combinazione vincente,{{delay20}}\n{{anim id=\"Smiling\" target=\"actor\" targetSpec=\"\"}}bang!{{delay8}} Eccotela!",
      "EUnl": "{{anim id=\"Explain\" target=\"actor\" targetSpec=\"\"}}{{color id=\"3\"}}Digby{{color id=\"65535\"}} en ik.{{delay20}} Weer samen! Terug bij\nde Academie voor Wonderlijke\nWoningen.{{pageBreak}}Op zoek naar een toppersduo?{{delay20}}\n{{anim id=\"Smiling\" target=\"actor\" targetSpec=\"\"}}Bam!{{delay8}} Kijk niet verder!",
      "EUru": "{{anim id=\"Explain\" target=\"actor\" targetSpec=\"\"}}{{color id=\"3\"}}Дигби {{color id=\"65535\"}}и {{color id=\"3\"}}Лайл {{color id=\"65535\"}}— мы снова вместе\nв Академии домашнего уюта!{{delay20}}\n{{anim id=\"Smiling\" target=\"actor\" targetSpec=\"\"}}Теперь-то успех обеспечен!{{delay8}} Плюх!",
      "JPja": "{{anim id=\"Explain\" target=\"actor\" targetSpec=\"\"}}ワタシと　{{color id=\"3\"}}ケント{{color id=\"65535\"}}くんは、{{delay20}}\nハッピーホームアカデミーに　{{ruby charSpan=\"1\" value=\"もど\"}}戻って\n{{ruby charSpan=\"1\" value=\"いま\"}}今も　{{ruby charSpan=\"2\" value=\"いっしょ\"}}一緒に　{{ruby charSpan=\"1\" value=\"はたら\"}}働いてるんです{{anim id=\"EmotEnd\" target=\"actor\" targetSpec=\"\"}}\n{{anim id=\"Nodding\" target=\"actor\" targetSpec=\"\"}}{{ruby charSpan=\"1\" value=\"かれ\"}}彼とも　なんだかんだで\n{{ruby charSpan=\"1\" value=\"なが\"}}長いつきあいに　なりましたねぇ{{anim id=\"Smiling\" target=\"actor\" targetSpec=\"\"}}",
      "KRko": "{{anim id=\"Explain\" target=\"actor\" targetSpec=\"\"}}저와 {{color id=\"3\"}}켄트{{color id=\"65535\"}}는{{delay20}}\n해피홈 아카데미로 돌아가\n지금도 함께 일하고 있습니다{{anim id=\"EmotEnd\" target=\"actor\" targetSpec=\"\"}}\n{{anim id=\"Nodding\" target=\"actor\" targetSpec=\"\"}}켄트와도 이래저래\n오랫동안 알고 지냈군요{{anim id=\"Smiling\" target=\"actor\" targetSpec=\"\"}}",
      "TWzh": "{{anim id=\"Explain\" target=\"actor\" targetSpec=\"\"}}我和{{color id=\"3\"}}西施德{{color id=\"65535\"}}{{delay20}}在回快樂家協會後\n便一直共事至今。{{anim id=\"EmotEnd\" target=\"actor\" targetSpec=\"\"}}{{pageBreak}}{{anim id=\"Nodding\" target=\"actor\" targetSpec=\"\"}}我和他也算是老交情了呢。{{anim id=\"Smiling\" target=\"actor\" targetSpec=\"\"}}",
      "USen": "{{anim id=\"Explain\" target=\"actor\" targetSpec=\"\"}}{{color id=\"3\"}}Digby{{color id=\"65535\"}} and {{color id=\"3\"}}Lyle{{color id=\"65535\"}}.{{delay20}} Both of us back at\nHappy Home Academy.{{delay20}} You want a\nwinning combo?{{delay20}} {{anim id=\"Smiling\" target=\"actor\" targetSpec=\"\"}}Bang!{{delay8}} There it is!",
      "USes": "{{anim id=\"Explain\" target=\"actor\" targetSpec=\"\"}}¿{{color id=\"3\"}}Candrés{{color id=\"65535\"}} y {{color id=\"3\"}}Sisebuto{{color id=\"65535\"}}?{{delay8}} Compañeros\nen la Academia de Artes Decorativas.{{delay20}}\n{{anim id=\"Smiling\" target=\"actor\" targetSpec=\"\"}}¡Seguimos formando un gran equipo!",
      "USfr": "{{anim id=\"Explain\" target=\"actor\" targetSpec=\"\"}}{{color id=\"3\"}}Max{{color id=\"65535\"}} et {{color id=\"3\"}}Lionel{{color id=\"65535\"}}.{{delay20}} Duo de choc à\nl'Académie des joyeux décorateurs.{{delay20}}\n{{anim id=\"Smiling\" target=\"actor\" targetSpec=\"\"}}Imbattables!{{delay8}} Bam!"
    }
  }
]