﻿[
  {
    "label": "001",
    "attribute": "0x0000000000000000",
    "text": "{{anim id=\"Confused\" target=\"actor\" targetSpec=\"\"}}Ähm, {{delay8}}also, {{delay8}}du{{string value=\"...\"}}{{delay frames=\"30\"}}\n{{anim id=\"Frantic\" target=\"actor\" targetSpec=\"\"}}Tut mir leid, {{delay8}}aber ich kann dir\nauch nicht helfen, {{delay8}}{{string value=\"Catchphrase\"}}!"
  },
  {
    "label": "002",
    "attribute": "0x0000000000000000",
    "text": "{{anim id=\"Frantic\" target=\"actor\" targetSpec=\"\"}}Du brauchst mir nichts zu beweisen!{{delay20}}\nJetzt können dich nur deine flinken\nBeine retten, {{delay8}}{{string value=\"Catchphrase\"}}!"
  },
  {
    "label": "003",
    "attribute": "0x0000000000000000",
    "text": "{{anim id=\"Frantic\" target=\"actor\" targetSpec=\"\"}}T-tut mir leid, aber... {{delay20}}Könntest du\nsie bitte nicht direkt zu mir führen,{{delay8}}\n{{string value=\"Catchphrase\"}}?!"
  },
  {
    "label": "004",
    "attribute": "0x0000000000000000",
    "text": "{{anim id=\"Confused\" target=\"actor\" targetSpec=\"\"}}Ähm, {{delay8}}also, {{delay8}}du{{string value=\"...\"}}{{delay frames=\"30\"}}\n{{anim id=\"Frantic\" target=\"actor\" targetSpec=\"\"}}Tut mir leid, {{delay8}}aber ich kann dir\nauch nicht helfen, {{delay8}}{{string value=\"Catchphrase\"}}!"
  },
  {
    "label": "005",
    "attribute": "0x0000000000000000",
    "text": "{{anim id=\"Frantic\" target=\"actor\" targetSpec=\"\"}}Du brauchst mir nichts zu beweisen!{{delay20}}\nJetzt können dich nur deine flinken\nBeine retten, {{delay8}}{{string value=\"Catchphrase\"}}!"
  },
  {
    "label": "006",
    "attribute": "0x0000000000000000",
    "text": "{{anim id=\"Frantic\" target=\"actor\" targetSpec=\"\"}}T-tut mir leid, aber... {{delay20}}Könntest du\nihn bitte nicht direkt zu mir führen,{{delay8}}\n{{string value=\"Catchphrase\"}}?!"
  },
  {
    "label": "007",
    "attribute": "0x0000000000000000",
    "text": "{{anim id=\"Confused\" target=\"actor\" targetSpec=\"\"}}Ähm, {{delay8}}also, {{delay8}}du{{string value=\"...\"}}{{delay frames=\"30\"}}\n{{anim id=\"Frantic\" target=\"actor\" targetSpec=\"\"}}Tut mir leid, {{delay8}}aber ich kann dir\nauch nicht helfen, {{delay8}}{{string value=\"Catchphrase\"}}!"
  },
  {
    "label": "008",
    "attribute": "0x0000000000000000",
    "text": "{{anim id=\"Frantic\" target=\"actor\" targetSpec=\"\"}}Du brauchst mir nichts zu beweisen!{{delay20}}\nJetzt können dich nur deine flinken\nBeine retten, {{delay8}}{{string value=\"Catchphrase\"}}!"
  },
  {
    "label": "009",
    "attribute": "0x0000000000000000",
    "text": "{{anim id=\"Frantic\" target=\"actor\" targetSpec=\"\"}}T-tut mir leid, aber... {{delay20}}Könntest du\nsie bitte nicht direkt zu mir führen,\n{{delay8}}{{string value=\"Catchphrase\"}}?!"
  }
]