﻿[
  {
    "label": "001",
    "attribute": "0x0000000000000000",
    "locale": {
      "CNzh": "{{anim id=\"Serious\" target=\"actor\" targetSpec=\"\"}}别动～！{{delay frames=\"40\"}}\n{{fun_0002007D arg=\"0x00CD\"}}{{delay8}}\n就在你旁边啊！{{pageBreak}}{{anim id=\"Negative\" target=\"actor\" targetSpec=\"\"}}我觉得这种情况，{{delay20}}\n不去靠近它是最好的～{{string value=\"6\"}}。{{delay frames=\"40\"}}\n你{{string value=\"...\"}}{{anim id=\"Grin\" target=\"actor\" targetSpec=\"\"}}要怎么办？！",
      "EUde": "{{anim id=\"Serious\" target=\"actor\" targetSpec=\"\"}}Nicht bewegen! {{delay20}}Sieh nur, {{delay8}}dort!{{delay20}}\n{{anim id=\"Surprised\" target=\"actor\" targetSpec=\"\"}}{{gender8 m=\"Ein\" f=\"Eine\" n=\"Ein\"}} {{fun_0002007D arg=\"0x00CD\"}}!{{delay20}}\n{{anim id=\"Nodding\" target=\"actor\" targetSpec=\"\"}}Halten wir lieber etwas Abstand...",
      "EUen": "{{anim id=\"Serious\" target=\"actor\" targetSpec=\"\"}}Don't move!{{delay frames=\"40\"}} It's {{wordArticle}}{{anim id=\"Surprised\" target=\"actor\" targetSpec=\"\"}}{{fun_0002007D arg=\"0x00CD\"}}!{{pageBreak}}{{anim id=\"Nodding\" target=\"actor\" targetSpec=\"\"}}Let's not get too close.{{delay40}} I don't wanna\nget{{string value=\"...\"}}um, whatever it is that they do\nto you!",
      "EUes": "{{anim id=\"Serious\" target=\"actor\" targetSpec=\"\"}}¡Cuidado,{{delay8}} que ahí hay\n{{wordArticle}}{{anim id=\"Surprised\" target=\"actor\" targetSpec=\"\"}}{{fun_0002007D arg=\"0x00CD\"}}!{{pageBreak}}{{anim id=\"Nodding\" target=\"actor\" targetSpec=\"\"}}Más vale que no nos acerquemos\nmucho{{string value=\"...\"}}",
      "EUfr": "{{anim id=\"Serious\" target=\"actor\" targetSpec=\"\"}}Ne bouge pas ! {{delay frames=\"40\"}}{{anim id=\"Surprised\" target=\"actor\" targetSpec=\"\"}}C'est {{wordArticle}}{{fun_0002007D arg=\"0x00CD\"}} !{{pageBreak}}{{anim id=\"Nodding\" target=\"actor\" targetSpec=\"\"}}Éloignons-nous tout doucement.",
      "EUit": "{{anim id=\"Serious\" target=\"actor\" targetSpec=\"\"}}Non ti muovere!{{delay frames=\"40\"}} C'è {{wordArticle}}{{fun_0002007D arg=\"0x00CD\"}}! {{delay20}}{{anim id=\"Nodding\" target=\"actor\" targetSpec=\"\"}}Meglio non avvicinarsi troppo.",
      "EUnl": "{{anim id=\"Serious\" target=\"actor\" targetSpec=\"\"}}Verroer je niet!{{delay frames=\"40\"}} Daar zit {{anim id=\"Surprised\" target=\"actor\" targetSpec=\"\"}}{{wordArticle}}{{fun_0002007D arg=\"0x00CD\"}}!{{pageBreak}}{{anim id=\"Nodding\" target=\"actor\" targetSpec=\"\"}}Daar kunnen we beter bij uit de buurt\nblijven. Straks laten we {{fun_00130032 arg=\"0x140000CD0600680065006D00060068006500740004007A006500\"}} nog\nschrikken of zo!",
      "EUru": "{{anim id=\"Serious\" target=\"actor\" targetSpec=\"\"}}Не двигайся!{{delay frames=\"40\"}}{{anim id=\"Surprised\" target=\"actor\" targetSpec=\"\"}}\n{{capitalizeNextLetter}}{{fun_0002007D arg=\"0x00CD\"}}!{{pageBreak}}{{anim id=\"Nodding\" target=\"actor\" targetSpec=\"\"}}Давай не будем подходить.{{delay40}}\nЯ не хочу{{string value=\"...\"}} с {{gender7 m=\"ним\" f=\"ней\" n=\"ним\" pl=\"ними\"}} связываться!",
      "JPja": "{{anim id=\"Serious\" target=\"actor\" targetSpec=\"\"}}じっとしててぇ！{{delay frames=\"40\"}}\n{{fun_0002007D arg=\"0x00CD\"}}が{{delay8}}\nすぐそこに　いるんだよぉ！{{pageBreak}}{{anim id=\"Negative\" target=\"actor\" targetSpec=\"\"}}こういうときは　{{ruby charSpan=\"1\" value=\"ちか\"}}近づかないのが{{delay20}}\n{{ruby charSpan=\"2\" value=\"いちばん\"}}一番いいと　ボクは{{ruby charSpan=\"1\" value=\"おも\"}}思うんだぁ～、{{string value=\"6\"}}{{delay frames=\"40\"}}\nキミは{{string value=\"...\"}}　{{anim id=\"Grin\" target=\"actor\" targetSpec=\"\"}}どうする？！",
      "KRko": "{{anim id=\"Serious\" target=\"actor\" targetSpec=\"\"}}거기서 꼼짝 마아～!{{delay frames=\"40\"}}\n{{fun_0002007D arg=\"0x00CD\"}}{{gender5 m=\"이\" f=\"가\"}} 있어!{{pageBreak}}{{anim id=\"Nodding\" target=\"actor\" targetSpec=\"\"}}내 생각엔 이럴 때{{delay20}}\n가까이 안 가는 게 젤이야아～{{delay frames=\"40\"}}\n니 생각도{{string value=\"...\"}} {{anim id=\"Grin\" target=\"actor\" targetSpec=\"\"}}그렇지이?! {{string value=\"6\"}}?",
      "TWzh": "{{anim id=\"Serious\" target=\"actor\" targetSpec=\"\"}}你不要動！{{delay frames=\"40\"}}\n{{fun_0002007D arg=\"0x00CD\"}}{{delay8}}\n就在那邊！{{pageBreak}}{{anim id=\"Negative\" target=\"actor\" targetSpec=\"\"}}這種時候{{delay20}}最好不要靠近喔～{{string value=\"6\"}}。{{delay frames=\"40\"}}\n你{{string value=\"...\"}}{{anim id=\"Grin\" target=\"actor\" targetSpec=\"\"}}想怎麼做呢！？",
      "USen": "{{anim id=\"Serious\" target=\"actor\" targetSpec=\"\"}}Don't move!{{delay frames=\"40\"}} It's {{wordArticle}}{{anim id=\"Surprised\" target=\"actor\" targetSpec=\"\"}}{{fun_0002007D arg=\"0x00CD\"}}!{{pageBreak}}{{anim id=\"Nodding\" target=\"actor\" targetSpec=\"\"}}Let's not get too close.{{delay40}} I don't wanna\nget{{string value=\"...\"}}um, whatever it is that they do\nto you!",
      "USes": "{{anim id=\"Eh\" target=\"actor\" targetSpec=\"\"}}¡Cuidado,{{delay8}} que ahí hay\n{{wordArticle}}{{anim id=\"Surprised\" target=\"actor\" targetSpec=\"\"}}{{fun_0002007D arg=\"0x00CD\"}}!{{pageBreak}}{{anim id=\"Restless\" target=\"actor\" targetSpec=\"\"}}A es{{gender8 m=\"e\" f=\"a\" n=\"\"}} hay que saludarl{{gender8 m=\"o\" f=\"a\" n=\"\"}} de lejitos{{string value=\"...\"}}",
      "USfr": "{{anim id=\"Serious\" target=\"actor\" targetSpec=\"\"}}Ne bouge pas! {{delay frames=\"40\"}}{{anim id=\"Surprised\" target=\"actor\" targetSpec=\"\"}}C'est {{wordArticle}}{{fun_0002007D arg=\"0x00CD\"}}!{{pageBreak}}{{anim id=\"Nodding\" target=\"actor\" targetSpec=\"\"}}Éloignons-nous tout doucement."
    }
  },
  {
    "label": "002",
    "attribute": "0x0000000000000000",
    "locale": {
      "CNzh": "{{anim id=\"TakenAback\" target=\"actor\" targetSpec=\"\"}}小、{{delay20}}小心～！{{delay frames=\"40\"}}\n{{anim id=\"Confused\" target=\"actor\" targetSpec=\"\"}}{{fun_0002007D arg=\"0x00CD\"}}{{delay20}}\n就在你旁边啊～{{pageBreak}}{{anim id=\"Worried\" target=\"actor\" targetSpec=\"\"}}当心别被它发现，{{delay20}}\n赶紧逃吧{{string value=\"...\"}}{{string value=\"6\"}}。",
      "EUde": "{{anim id=\"TakenAback\" target=\"actor\" targetSpec=\"\"}}WAAAH! {{delay20}}Vorsicht, {{delay8}}pass auf!{{delay20}}\n{{gender8 m=\"Ein\" f=\"Eine\" n=\"Ein\"}} {{fun_0002007D arg=\"0x00CD\"}}!{{pageBreak}}{{anim id=\"Worried\" target=\"actor\" targetSpec=\"\"}}Schnell, {{delay8}}lass uns hier verduften!{{delay20}}\n{{string value=\"...\"}}{{anim id=\"Crying\" target=\"actor\" targetSpec=\"\"}}Oh nein! {{delay20}}Meine Beine sind vor\nlauter Angst wie Pudding!",
      "EUen": "{{anim id=\"TakenAback\" target=\"actor\" targetSpec=\"\"}}AH-AAAAH!{{delay frames=\"40\"}} Watch out!{{delay frames=\"40\"}} {{anim id=\"Confused\" target=\"actor\" targetSpec=\"\"}}Right by you!{{delay20}}\n{{capitalizeNextLetter}}{{wordArticle}}{{fun_0002007D arg=\"0x00CD\"}}!{{pageBreak}}{{anim id=\"Worried\" target=\"actor\" targetSpec=\"\"}}We gotta get away without it seeing\nus! I know! TURN INVISIBLE!{{pageBreak}}{{anim id=\"Frantic\" target=\"actor\" targetSpec=\"\"}}{{i10_10}}{{size value=\"150\"}}TURN INVISIBLE!{{size value=\"100\"}}{{delay frames=\"120\"}}{{i10_9}}",
      "EUes": "{{anim id=\"Surprised\" target=\"actor\" targetSpec=\"\"}}¡Ojo, que ahí hay\n{{wordArticle}}{{fun_0002007D arg=\"0x00CD\"}}!{{pageBreak}}{{anim id=\"Worried\" target=\"actor\" targetSpec=\"\"}}Deberíamos salir corriendo{{string value=\"...\"}}{{delay20}}\n{{anim id=\"Crying\" target=\"actor\" targetSpec=\"\"}}¡pero tengo tanto miedo que\nestoy paralizadooo!",
      "EUfr": "{{anim id=\"Surprised\" target=\"actor\" targetSpec=\"\"}}Aaaaaaah !{{delay20}} Attention !{{delay20}} Juste là !{{delay20}}\n{{capitalizeNextLetter}}{{wordArticle}}{{fun_0002007D arg=\"0x00CD\"}} !{{pageBreak}}{{anim id=\"Worried\" target=\"actor\" targetSpec=\"\"}}Il faut s'enfuir !{{i10_4}}{{anim id=\"Crying\" target=\"actor\" targetSpec=\"\"}} Mais je suis trop\nterrorisé pour bouger !{{anim id=\"Frantic\" target=\"actor\" targetSpec=\"\"}} Rends-nous\ninvisible, VITE !!!",
      "EUit": "{{anim id=\"TakenAback\" target=\"actor\" targetSpec=\"\"}}Ehi, {{delay8}}attent{{gender2 m=\"o\" f=\"a\"}}! {{delay20}}Guarda lì, c'è\n{{wordArticle}}{{fun_0002007D arg=\"0x00CD\"}}!{{pageBreak}}{{anim id=\"Worried\" target=\"actor\" targetSpec=\"\"}}Dovremmo correre via{{string value=\"...\"}} {{delay20}}{{anim id=\"Crying\" target=\"actor\" targetSpec=\"\"}}ma non\nriesco a muovere un muscolo per\nla pauraaa!",
      "EUnl": "{{anim id=\"TakenAback\" target=\"actor\" targetSpec=\"\"}}Aaah!{{delay frames=\"40\"}} Pas op!{{delay frames=\"40\"}} {{anim id=\"Confused\" target=\"actor\" targetSpec=\"\"}}{{fun_00130032 arg=\"0x140000CD0C00480069006A002000690073000C004800650074002000690073000E005A00650020007A0069006A006E00\"}} vlak bij je!{{delay20}} {{fun_00130032 arg=\"0x140000CD0C004800650074002000690073000C00480065007400200069007300100048006500740020007A0069006A006E00\"}} {{wordArticle}}{{fun_0002007D arg=\"0x00CD\"}}!{{pageBreak}}{{anim id=\"Worried\" target=\"actor\" targetSpec=\"\"}}We moeten hier snel weg voor {{fun_00130032 arg=\"0x140000CD0600680069006A00060068006500740004007A006500\"}}\nons {{fun_00130032 arg=\"0x140000CD08007A0069006500740008007A0069006500740008007A00690065006E00\"}}!{{i10_4}} {{anim id=\"Frantic\" target=\"actor\" targetSpec=\"\"}}Ik ben onzichtbaar! Ik ben\nonzichtbaar!",
      "EUru": "{{anim id=\"TakenAback\" target=\"actor\" targetSpec=\"\"}}Ой!{{delay frames=\"40\"}} Осторожно!{{delay frames=\"40\"}} Рядом с тобой\n{{fun_0002007D arg=\"0x00CD\"}}!{{pageBreak}}{{anim id=\"Worried\" target=\"actor\" targetSpec=\"\"}}Нужно бежать{{string value=\"...\"}} пока он{{gender7 m=\"\" f=\"а\" n=\"о\" pl=\"и\"}} нас\nне заметил{{gender7 m=\"\" f=\"а\" n=\"о\" pl=\"и\"}}! {{anim id=\"Frantic\" target=\"actor\" targetSpec=\"\"}}Режим невидимки!\nРежим невидимки!",
      "JPja": "{{anim id=\"TakenAback\" target=\"actor\" targetSpec=\"\"}}あ、{{delay20}}あぶないよ～！{{delay frames=\"40\"}}\n{{anim id=\"Confused\" target=\"actor\" targetSpec=\"\"}}{{fun_0002007D arg=\"0x00CD\"}}が{{delay20}}\nすぐ　そばにいるんだからぁ～{{pageBreak}}{{anim id=\"Worried\" target=\"actor\" targetSpec=\"\"}}{{ruby charSpan=\"1\" value=\"き\"}}気づかれないように、{{delay20}}\n{{ruby charSpan=\"1\" value=\"はや\"}}早く　にげなくっちゃ{{string value=\"...\"}}、{{string value=\"6\"}}",
      "KRko": "{{anim id=\"TakenAback\" target=\"actor\" targetSpec=\"\"}}으, {{delay20}}으앗～!{{delay frames=\"40\"}} 위험해～!{{delay frames=\"40\"}}\n{{anim id=\"Confused\" target=\"actor\" targetSpec=\"\"}}{{fun_0002007D arg=\"0x00CD\"}}{{gender5 m=\"이\" f=\"가\"}}{{delay20}}\n바로 근처에 있다구우～{{pageBreak}}{{anim id=\"Worried\" target=\"actor\" targetSpec=\"\"}}들키지 않게{{delay20}}\n얼른 도망가자아{{string value=\"...\"}} {{string value=\"6\"}}{{string value=\"...\"}}",
      "TWzh": "{{anim id=\"TakenAback\" target=\"actor\" targetSpec=\"\"}}危、{{delay20}}危險啊～！{{delay frames=\"40\"}}\n{{anim id=\"Confused\" target=\"actor\" targetSpec=\"\"}}{{fun_0002007D arg=\"0x00CD\"}}{{delay20}}\n就在旁邊啊～{{pageBreak}}{{anim id=\"Worried\" target=\"actor\" targetSpec=\"\"}}我得快點逃走，{{delay20}}\n要小心點不可以被牠發現{{string value=\"...\"}}{{string value=\"6\"}}。",
      "USen": "{{anim id=\"TakenAback\" target=\"actor\" targetSpec=\"\"}}AH-AAAAH!{{delay frames=\"40\"}} Watch out!{{delay frames=\"40\"}} {{anim id=\"Confused\" target=\"actor\" targetSpec=\"\"}}Right by you!{{delay20}}\n{{capitalizeNextLetter}}{{wordArticle}}{{fun_0002007D arg=\"0x00CD\"}}!{{pageBreak}}{{anim id=\"Worried\" target=\"actor\" targetSpec=\"\"}}We gotta get away without it seeing\nus! I know! TURN INVISIBLE!{{pageBreak}}{{anim id=\"Frantic\" target=\"actor\" targetSpec=\"\"}}{{i10_10}}{{size value=\"150\"}}TURN INVISIBLE!{{size value=\"100\"}}{{delay frames=\"120\"}}{{i10_9}}",
      "USes": "{{anim id=\"Surprised\" target=\"actor\" targetSpec=\"\"}}¡Cuidado! ¡Ahí hay {{wordArticle}}\n{{fun_0002007D arg=\"0x00CD\"}}!{{pageBreak}}{{anim id=\"Shaking\" target=\"actor\" targetSpec=\"\"}}Quisiera salir corriendo{{string value=\"...\"}}{{delay20}}\n{{anim id=\"Crying\" target=\"actor\" targetSpec=\"\"}}¡pero tengo las patas paralizadas\nde miedo!",
      "USfr": "{{anim id=\"Surprised\" target=\"actor\" targetSpec=\"\"}}Aaaaaaah!{{delay20}} Attention!{{delay20}} Juste là!{{delay20}}\n{{capitalizeNextLetter}}{{wordArticle}}{{fun_0002007D arg=\"0x00CD\"}}!{{pageBreak}}{{anim id=\"Worried\" target=\"actor\" targetSpec=\"\"}}Il faut s'enfuir!{{i10_4}}{{anim id=\"Crying\" target=\"actor\" targetSpec=\"\"}} Mais je suis trop\nterrorisé pour bouger!{{anim id=\"Frantic\" target=\"actor\" targetSpec=\"\"}} Rends-nous\ninvisibles, VITE!!!"
    }
  },
  {
    "label": "003",
    "attribute": "0x0000000000000000",
    "locale": {
      "CNzh": "{{anim id=\"Frantic\" target=\"actor\" targetSpec=\"\"}}那里有{{fun_0002007D arg=\"0x00CD\"}}！{{delay frames=\"40\"}}\n趁它还没注意到我们，赶快跑吧～{{delay frames=\"40\"}}\n{{anim id=\"Serious\" target=\"actor\" targetSpec=\"\"}}要小心不能被发现，{{delay8}}悄悄地～{{delay20}}悄悄地{{string value=\"...\"}}{{pageBreak}}{{i10_11}}{{delay20}}{{color id=\"5\"}}呼～～{{delay20}}呼{{string value=\"...\"}}{{delay frames=\"60\"}}\n呼～～{{delay20}}呼{{string value=\"...\"}}{{color id=\"65535\"}}{{pageBreak}}{{i10_9}}{{delay20}}{{anim id=\"Angry\" target=\"actor\" targetSpec=\"\"}}真是的～{{delay frames=\"40\"}}\n小声点！不然会被发现的～！{{i10_4}}\n{{anim id=\"ShyBoy\" target=\"actor\" targetSpec=\"\"}}{{string value=\"...\"}}啊！{{delay20}}原来是我的呼吸声啊～{{string value=\"6\"}}。",
      "EUde": "{{anim id=\"Frantic\" target=\"actor\" targetSpec=\"\"}}{{gender8 m=\"Ein\" f=\"Eine\" n=\"Ein\"}} {{fun_0002007D arg=\"0x00CD\"}}!{{delay20}}{{i10_11}}\nBleib {{delay8}}ganz {{delay8}}ruhig {{delay8}}stehen, {{delay20}}hörst du?{{delay20}}{{i10_9}}\n{{anim id=\"Serious\" target=\"actor\" targetSpec=\"\"}}Dann sieht {{gender8 m=\"er\" f=\"sie\" n=\"es\"}} uns vielleicht nicht.",
      "EUen": "{{anim id=\"Frantic\" target=\"actor\" targetSpec=\"\"}}{{capitalizeNextLetter}}{{wordArticle}}{{fun_0002007D arg=\"0x00CD\"}}!{{delay frames=\"40\"}}\nDon't{{delay20}} move{{delay20}} a{{delay20}} muscle.{{delay40}} {{anim id=\"Serious\" target=\"actor\" targetSpec=\"\"}}It {{delay8}}can't\nsmell{{delay8}} us {{delay8}}if {{delay8}}we {{delay20}}don't {{delay40}}move.",
      "EUes": "{{anim id=\"Frantic\" target=\"actor\" targetSpec=\"\"}}¡{{capitalizeNextLetter}}{{wordArticle}}{{fun_0002007D arg=\"0x00CD\"}}!{{delay20}}\n{{anim id=\"Serious\" target=\"actor\" targetSpec=\"\"}}No{{delay8}} muevas{{delay8}} un{{delay8}} músculo,{{delay8}} porfa{{string value=\"...\"}}{{pageBreak}}{{anim id=\"Restless\" target=\"actor\" targetSpec=\"\"}}Si no respiramos,{{delay8}} no olerá nuestro\nmiedo{{string value=\"...\"}}",
      "EUfr": "{{anim id=\"Frantic\" target=\"actor\" targetSpec=\"\"}}{{capitalizeNextLetter}}{{wordArticle}}{{fun_0002007D arg=\"0x00CD\"}} !{{delay frames=\"40\"}} Surtout,{{delay20}} ne{{delay8}} bouge{{delay8}} pas !{{pageBreak}}{{gender8 m=\"Il\" f=\"Elle\" n=\"\"}}{{delay8}} ne{{delay8}} peut{{delay8}} pas{{delay8}} nous{{delay8}} sentir si{{delay8}} on{{delay8}} ne{{delay8}}\nbouge{{delay8}} pas.",
      "EUit": "{{anim id=\"Frantic\" target=\"actor\" targetSpec=\"\"}}{{capitalizeNextLetter}}{{wordArticle}}{{fun_0002007D arg=\"0x00CD\"}}!{{pageBreak}}{{anim id=\"Serious\" target=\"actor\" targetSpec=\"\"}}Non {{delay8}}muovere{{delay8}} nemmeno {{delay8}}un {{delay8}}muscolo.\n{{delay20}}Se {{delay8}}stiamo {{delay8}}completamente {{delay8}}immobili,\n{{delay8}}non {{delay8}}sentirà {{delay8}}l'odore{{delay8}} della paura.",
      "EUnl": "{{anim id=\"Frantic\" target=\"actor\" targetSpec=\"\"}}Ai, {{wordArticle}}{{fun_0002007D arg=\"0x00CD\"}}!{{delay frames=\"40\"}} Blijf{{delay20}} heel{{delay20}} stil{{delay20}} staan{{string value=\"...\"}}{{delay20}} {{anim id=\"Serious\" target=\"actor\" targetSpec=\"\"}}Misschien{{delay8}} {{fun_00130032 arg=\"0x140000CD0A006D00650072006B0074000A006D00650072006B0074000C006D00650072006B0065006E00\"}}{{delay8}} {{fun_00130032 arg=\"0x140000CD0600680069006A00060068006500740004007A006500\"}}{{delay8}} ons{{delay8}} dan{{delay8}} niet{{delay8}} op.",
      "EUru": "{{anim id=\"Frantic\" target=\"actor\" targetSpec=\"\"}}{{capitalizeNextLetter}}{{fun_0002007D arg=\"0x00CD\"}}!{{delay frames=\"40\"}}\nНе{{delay20}} шевели{{delay20}} совсем{{delay20}} ничем.{{delay40}}\n{{anim id=\"Serious\" target=\"actor\" targetSpec=\"\"}}Если {{delay8}}не{{delay8}} двигаться,{{delay8}} не {{delay40}}унюха{{gender7 m=\"е\" f=\"е\" n=\"е\" pl=\"я\"}}т.",
      "JPja": "{{anim id=\"Frantic\" target=\"actor\" targetSpec=\"\"}}{{fun_0002007D arg=\"0x00CD\"}}が　いるよぉ！{{delay frames=\"40\"}}\nこっちに{{ruby charSpan=\"1\" value=\"こ\"}}来ないうちに　はなれなくっちゃあ～{{delay frames=\"40\"}}\n{{anim id=\"Serious\" target=\"actor\" targetSpec=\"\"}}{{ruby charSpan=\"1\" value=\"き\"}}気づかれないように　{{delay8}}そ～っと　{{delay20}}そ～っと{{string value=\"...\"}}{{pageBreak}}{{i10_11}}{{delay20}}{{color id=\"5\"}}ブフゥ～～、{{delay20}}フガフガ{{string value=\"...\"}}{{delay frames=\"60\"}}\nブフゥ～～、{{delay20}}フガフガ{{string value=\"...\"}}{{color id=\"65535\"}}{{pageBreak}}{{i10_9}}{{delay20}}{{anim id=\"Angry\" target=\"actor\" targetSpec=\"\"}}もぉ～{{delay frames=\"40\"}}\nしずかにしてくれないと　{{ruby charSpan=\"1\" value=\"み\"}}見つかっちゃうよぉ{{i10_4}}\n{{anim id=\"ShyBoy\" target=\"actor\" targetSpec=\"\"}}{{string value=\"...\"}}って　{{delay20}}ボクの　はないきかぁ～、{{string value=\"6\"}}",
      "KRko": "{{anim id=\"Frantic\" target=\"actor\" targetSpec=\"\"}}앗, {{delay20}}{{fun_0002007D arg=\"0x00CD\"}}!{{delay frames=\"40\"}}\n이쪽으로 오기 전에 얼른 도망가자아～{{delay frames=\"40\"}}\n{{anim id=\"Serious\" target=\"actor\" targetSpec=\"\"}}들키지 않게{{delay8}} 살금～ {{delay20}}살금～{{string value=\"...\"}}{{pageBreak}}{{i10_11}}{{delay20}}{{color id=\"5\"}}꼬르륵～～ {{delay20}}꼬륵～～{{delay frames=\"60\"}}\n꼬르륵～～ {{delay20}}꼬륵～～{{pageBreak}}{{i10_9}}{{delay20}}{{anim id=\"Angry\" target=\"actor\" targetSpec=\"\"}}{{color id=\"65535\"}}아이참～{{delay frames=\"40\"}}\n조용히 안 하면 들킨다니까아～{{i10_4}}\n{{anim id=\"ShyBoy\" target=\"actor\" targetSpec=\"\"}}{{string value=\"...\"}}앗, {{delay20}}내 배에서 나는 거였네에～ {{string value=\"6\"}}!",
      "TWzh": "{{anim id=\"Frantic\" target=\"actor\" targetSpec=\"\"}}{{fun_0002007D arg=\"0x00CD\"}}在那裡！{{delay frames=\"40\"}}\n要趁牠過來之前快跑才行～{{delay frames=\"40\"}}\n{{anim id=\"Serious\" target=\"actor\" targetSpec=\"\"}}得小心點不能被發現，{{delay8}}悄～悄地、{{delay20}}悄～悄地{{string value=\"...\"}}{{pageBreak}}{{i10_11}}{{delay20}}{{color id=\"5\"}}呼～～{{delay20}}哈{{string value=\"...\"}}{{delay frames=\"60\"}}\n呼～～{{delay20}}哈{{string value=\"...\"}}{{color id=\"65535\"}}{{pageBreak}}{{i10_9}}{{delay20}}{{anim id=\"Angry\" target=\"actor\" targetSpec=\"\"}}真是的～{{delay frames=\"40\"}}\n你不安靜點會被發現喔～{{i10_4}}\n{{anim id=\"ShyBoy\" target=\"actor\" targetSpec=\"\"}}{{string value=\"...\"}}啊，{{delay20}}結果是我的呼吸聲啊～{{string value=\"6\"}}。",
      "USen": "{{anim id=\"Frantic\" target=\"actor\" targetSpec=\"\"}}{{capitalizeNextLetter}}{{wordArticle}}{{fun_0002007D arg=\"0x00CD\"}}!{{delay frames=\"40\"}}\nDon't{{delay20}} move{{delay20}} a{{delay20}} muscle.{{delay40}} {{anim id=\"Serious\" target=\"actor\" targetSpec=\"\"}}It {{delay8}}can't\nsmell{{delay8}} us {{delay8}}if {{delay8}}we {{delay20}}don't {{delay40}}move.",
      "USes": "{{anim id=\"Shocked\" target=\"actor\" targetSpec=\"\"}}¡{{capitalizeNextLetter}}{{wordArticle}}{{fun_0002007D arg=\"0x00CD\"}}!{{delay20}}\n{{anim id=\"Shaking\" target=\"actor\" targetSpec=\"\"}}No{{delay8}} muevas{{delay8}} un{{delay8}} dedo,{{delay8}} y{{delay8}} no{{delay8}} respires{{string value=\"...\"}}{{pageBreak}}Si respiras,{{delay8}} olerá tu miedo{{string value=\"...\"}}",
      "USfr": "{{anim id=\"Frantic\" target=\"actor\" targetSpec=\"\"}}{{capitalizeNextLetter}}{{wordArticle}}{{fun_0002007D arg=\"0x00CD\"}}!{{delay frames=\"40\"}} Surtout,{{delay20}} ne{{delay8}} bouge{{delay8}} pas!{{pageBreak}}{{gender8 m=\"Il\" f=\"Elle\" n=\"\"}}{{delay8}} ne{{delay8}} peut{{delay8}} pas{{delay8}} nous{{delay8}} sentir\nsi{{delay8}} on{{delay8}} ne{{delay8}} bouge{{delay8}} pas."
    }
  }
]