﻿[
  {
    "label": "001",
    "attribute": "0x00000C0100000000",
    "text": "{{anim id=\"FaintSmile\" target=\"actor\" targetSpec=\"\"}}Йоу! {{capitalizeNextLetter}}{{string value=\"Catchphrase\"}}! {{delay20}}Ты, как всегда,\nбодр{{gender2 m=\"\" f=\"а\"}} и весел{{gender2 m=\"\" f=\"а\"}}."
  },
  {
    "label": "002",
    "attribute": "0x00000C0100000000",
    "text": "{{anim id=\"Greeting\" target=\"actor\" targetSpec=\"\"}}Физкульт-привет!{{delay20}} Вот мы\nи встретились снова. {{capitalizeNextLetter}}{{string value=\"Catchphrase\"}}!{{setNpcTalkChoices chatOption=\"0\" cancelOption=\"1\"}}"
  },
  {
    "label": "003",
    "attribute": "0x00000C0100000000",
    "text": "{{anim id=\"Greeting\" target=\"actor\" targetSpec=\"\"}}Физкульт-привет! {{capitalizeNextLetter}}{{string value=\"Catchphrase\"}}!{{delay20}}\nГотов{{gender2 m=\"\" f=\"а\"}} поработать на полную?{{setNpcTalkChoices chatOption=\"0\" cancelOption=\"1\"}}"
  },
  {
    "label": "004",
    "attribute": "0x00000C0100000000",
    "text": "{{anim id=\"Smiling\" target=\"actor\" targetSpec=\"\"}}О, привет! Как дела? {{capitalizeNextLetter}}{{string value=\"Catchphrase\"}}!{{setNpcTalkChoices chatOption=\"0\" cancelOption=\"1\"}}"
  },
  {
    "label": "005",
    "attribute": "0x0000000100000000",
    "text": "{{fun_000A003C arg=\"0x0700080009000A000B000C00\"}}"
  },
  {
    "label": "007",
    "attribute": "0x00000C0000000000",
    "text": "{{anim id=\"Greeting\" target=\"actor\" targetSpec=\"\"}}Бодрое утро!{{delay20}} На ногах и в деле!{{delay20}}\nПогнали! {{capitalizeNextLetter}}{{string value=\"6\"}}!{{setNpcTalkChoices chatOption=\"0\" cancelOption=\"1\"}}"
  },
  {
    "label": "008",
    "attribute": "0x00000C0000000000",
    "text": "{{i10_12}}{{anim id=\"Cheering\" target=\"actor\" targetSpec=\"\"}}{{delay frames=\"30\"}}{{size value=\"150\"}}ДОБРОЕ УТРО!!!{{delay20}}{{anim id=\"EmotEnd\" target=\"actor\" targetSpec=\"\"}}{{pageBreak}}{{size value=\"100\"}}Ну что? {{capitalizeNextLetter}}{{string value=\"Catchphrase\"}}!{{delay frames=\"40\"}} {{anim id=\"Pardon\" target=\"actor\" targetSpec=\"\"}}Теперь\nпроснул{{gender2 m=\"ся\" f=\"ась\"}}?{{setNpcTalkChoices chatOption=\"0\" cancelOption=\"1\"}}"
  },
  {
    "label": "009",
    "attribute": "0x00000C0000000000",
    "text": "{{anim id=\"Greeting\" target=\"actor\" targetSpec=\"\"}}Привет, ты уже пообедал{{gender2 m=\"\" f=\"а\"}}?{{delay20}}\n{{capitalizeNextLetter}}{{string value=\"6\"}}!{{setNpcTalkChoices chatOption=\"0\" cancelOption=\"1\"}}"
  },
  {
    "label": "010",
    "attribute": "0x00000C0000000000",
    "text": "{{anim id=\"ShyBoy\" target=\"actor\" targetSpec=\"\"}}Я и не заметил, как стемнело,{{delay20}} пока\nя тренировался. {{capitalizeNextLetter}}{{string value=\"Catchphrase\"}}!{{setNpcTalkChoices chatOption=\"0\" cancelOption=\"1\"}}"
  },
  {
    "label": "011",
    "attribute": "0x00000C0000000000",
    "text": "{{anim id=\"Greeting\" target=\"actor\" targetSpec=\"\"}}Физкульт-привет! {{capitalizeNextLetter}}{{string value=\"Catchphrase\"}}!{{delay20}}\nНочная пробежка — лучшее\nзавершение тренировочного дня!{{setNpcTalkChoices chatOption=\"0\" cancelOption=\"1\"}}"
  },
  {
    "label": "012",
    "attribute": "0x00000C0000000000",
    "text": "{{anim id=\"Greeting\" target=\"actor\" targetSpec=\"\"}}Привет! {{delay20}}Ты тоже выш{{gender2 m=\"ел\" f=\"ла\"}} на ночную\nпробежку?{{delay frames=\"40\"}}{{anim id=\"Pardon\" target=\"actor\" targetSpec=\"\"}} Может быть, вместе\nпробежимся? {{capitalizeNextLetter}}{{string value=\"Catchphrase\"}}!{{setNpcTalkChoices chatOption=\"0\" cancelOption=\"1\"}}"
  }
]