﻿[
  {
    "label": "001",
    "attribute": "0x0000000000000000",
    "text": "{{anim id=\"Thinking\" target=\"actor\" targetSpec=\"\"}}Noto algo distinto en tu cara hoy,{{delay8}}\npero no sé qué es{{string value=\"...\"}}{{delay frames=\"40\"}} {{anim id=\"QuestionMark\" target=\"actor\" targetSpec=\"\"}}¿Has cambiado\nde peinado?\n{{anim id=\"Laughing\" target=\"actor\" targetSpec=\"\"}}¡Estoy de broma!{{delay20}} Es evidente que\nhas tenido algún desencuentro con\navispas de por medio."
  },
  {
    "label": "002",
    "attribute": "0x0000000000000000",
    "text": "{{anim id=\"OhGeez\" target=\"actor\" targetSpec=\"\"}}Veo que te ha pasado algo terrible,{{delay8}}\npero tómatelo por el lado positivo.{{pageBreak}}{{anim id=\"WrySmile\" target=\"actor\" targetSpec=\"\"}}Ahora tienes la excusa perfecta para\npasarte una semana sin salir de casa\ny viendo series{{string value=\"...\"}}{{delay8}} y documentales."
  },
  {
    "label": "005",
    "attribute": "0x0000000000000000",
    "text": "{{anim id=\"Shocked\" target=\"actor\" targetSpec=\"\"}}¡Arrea!{{delay20}} ¿Pero qué te ha pasado en\nla cara?{{i10_4}} {{anim id=\"Oops\" target=\"actor\" targetSpec=\"\"}}¡Te han picado las avispas!{{delay20}}\n¡Menuda catástrofe!{{pageBreak}}{{anim id=\"Worried\" target=\"actor\" targetSpec=\"\"}}Lo siento mucho, pero me temo\nque no puedo hacer nada por ti.{{pageBreak}}{{anim id=\"FaintSmile\" target=\"actor\" targetSpec=\"\"}}Ten paciencia,{{delay8}} seguro que tu cara\nse irá recuperando sola.{{delay20}} Tal vez con\nun poco de tiempo{{string value=\"...\"}}{{delay frames=\"20\"}} o con mucho."
  },
  {
    "label": "006",
    "attribute": "0x0000000000000000",
    "text": "{{anim id=\"Shocked\" target=\"actor\" targetSpec=\"\"}}¡Ay, ay, ay!{{delay20}} ¿Qué te ha pasado en\nla cara?{{i10_4}} {{anim id=\"Oops\" target=\"actor\" targetSpec=\"\"}}¡Te han picado las avispas!{{delay20}}\n¡Menuda desgracia!{{pageBreak}}{{anim id=\"EmotEnd\" target=\"actor\" targetSpec=\"\"}}Pero no tienes de qué preocuparte.{{delay frames=\"40\"}}\n{{anim id=\"Nodding\" target=\"actor\" targetSpec=\"\"}}Tómate esta {{color id=\"1\"}}medicina{{color id=\"65535\"}} y verás qué\nrápido se soluciona el asunto."
  },
  {
    "label": "007",
    "attribute": "0x0000000000000000",
    "text": "{{anim id=\"FaintSmile\" target=\"actor\" targetSpec=\"\"}}No dudes nunca en pedirme ayuda.{{delay20}}\nTodos la necesitamos alguna vez,{{delay8}}\n{{string value=\"6\"}}."
  },
  {
    "label": "011",
    "attribute": "0x0000000000000000",
    "text": "{{anim id=\"Thinking\" target=\"actor\" targetSpec=\"\"}}Noto algo distinto en tu cara hoy,{{delay8}}\npero no sé qué es{{string value=\"...\"}}{{delay frames=\"40\"}} {{anim id=\"QuestionMark\" target=\"actor\" targetSpec=\"\"}}¿Has cambiado\nde peinado?\n{{anim id=\"Laughing\" target=\"actor\" targetSpec=\"\"}}¡Estoy de broma!{{delay20}} Es evidente que\nhas tenido algún desencuentro con\navispas de por medio."
  },
  {
    "label": "012",
    "attribute": "0x0000000000000000",
    "text": "{{anim id=\"FaintSmile\" target=\"actor\" targetSpec=\"\"}}Bromas aparte,{{delay8}} estoy seguro de que\neste obsequio te va a gustar.{{delay20}} {{anim id=\"BigSmile\" target=\"actor\" targetSpec=\"\"}}¡Aquí\ntienes!"
  },
  {
    "label": "013",
    "attribute": "0x0000000000000000",
    "text": "{{anim id=\"ShyBoy\" target=\"actor\" targetSpec=\"\"}}No le cuentes a nadie que a mí\ntambién me pasan estas cosas.{{pageBreak}}{{anim id=\"FaintSmile\" target=\"actor\" targetSpec=\"\"}}Esta es la receta de la {{color id=\"1\"}}medicina{{color id=\"65535\"}}\nque te dejará como nuev{{gender2 m=\"o\" f=\"a\"}}.{{delay20}} {{anim id=\"Negative\" target=\"actor\" targetSpec=\"\"}}No hace\nfalta que me des las gracias. \n{{anim id=\"Grin\" target=\"actor\" targetSpec=\"\"}}Solo acuérdate de mí cuando te\nmires al espejo y veas que tu cara\nvuelve a ser la de siempre."
  }
]