﻿[
  {
    "label": "001",
    "attribute": "0x0000002600000000",
    "text": "{{anim id=\"Hello\" target=\"actor\" targetSpec=\"\"}}{{string value=\"4\"}}，你知道嗎？{{delay frames=\"40\"}}\n{{anim id=\"Nodding\" target=\"actor\" targetSpec=\"\"}}農曆新年的日子啊，{{delay20}}\n是看月亮來決定的喔{{string value=\"...\"}}{{pageBreak}}{{anim id=\"AbsentMindedness\" target=\"actor\" targetSpec=\"\"}}雖然我不太清楚，{{delay20}}\n不過總覺得很浪漫呢，{{string value=\"6\"}}。"
  },
  {
    "label": "002",
    "attribute": "0x0000002600000000",
    "text": "{{anim id=\"Explain\" target=\"actor\" targetSpec=\"\"}}今天這個日子，{{delay8}}\n{{anim id=\"Explain\" target=\"actor\" targetSpec=\"\"}}好像是農曆新年喔，{{delay20}}\n我覺得這名字會讓人覺得是特別的日子……{{pageBreak}}{{anim id=\"Serious\" target=\"actor\" targetSpec=\"\"}}但不管是什麼日子，{{delay20}}\n對我來說，和你一起在島上{{delay8}}度過的日子，{{delay frames=\"40\"}}\n{{anim id=\"Grin\" target=\"actor\" targetSpec=\"\"}}全部都是特別的啊，{{string value=\"6\"}}。"
  },
  {
    "label": "003",
    "attribute": "0x0000002600000000",
    "text": "{{anim id=\"Hello\" target=\"actor\" targetSpec=\"\"}}你想要怎麼慶祝農曆新年呢？{{i10_4}}\n{{anim id=\"Nodding\" target=\"actor\" targetSpec=\"\"}}在這難得的佳節，享用好吃的美食，{{delay20}}\n{{anim id=\"Nodding\" target=\"actor\" targetSpec=\"\"}}或者陶醉在歌曲與舞蹈中也不錯。{{pageBreak}}{{anim id=\"Nodding\" target=\"actor\" targetSpec=\"\"}}不過正因為是特別的日子，{{delay20}}\n所以我認為和珍惜的人一起悠閒度過{{delay20}}\n也是一個不錯的選擇喔，{{string value=\"6\"}}。"
  },
  {
    "label": "004",
    "attribute": "0x0000002600000000",
    "text": "{{anim id=\"AbsentMindedness\" target=\"actor\" targetSpec=\"\"}}我啊，{{delay20}}一直很嚮往農曆新年約會喔～{{delay frames=\"40\"}}\n在值得慶祝的佳節約會，{{delay20}}\n感覺連回憶都會變得獨一無二呢～{{pageBreak}}{{anim id=\"Nodding\" target=\"actor\" targetSpec=\"\"}}為了那天，我想好了最完美的約會計畫，{{i10_4}}\n{{anim id=\"WrySmile\" target=\"actor\" targetSpec=\"\"}}呵呵，{{delay20}}接下來{{string value=\"...\"}}\n萬事俱備，只欠一個對象了！{{string value=\"6\"}}。"
  },
  {
    "label": "005",
    "attribute": "0x0000002600000000",
    "text": "{{anim id=\"Silent\" target=\"actor\" targetSpec=\"\"}}新年與農曆新年，{{delay frames=\"40\"}}\n{{anim id=\"QuestionMark\" target=\"actor\" targetSpec=\"\"}}真的有必要兩邊都慶祝嗎？{{i10_4}}\n{{anim id=\"BigSmile\" target=\"actor\" targetSpec=\"\"}}當然，Of course！{{pageBreak}}{{anim id=\"Nodding\" target=\"actor\" targetSpec=\"\"}}快樂時光肯定是越多越好啊。{{delay frames=\"40\"}}\n{{anim id=\"Grin\" target=\"actor\" targetSpec=\"\"}}和你在一起的話，就更不用說了！{{string value=\"6\"}}。"
  }
]