﻿[
  {
    "label": "001",
    "attribute": "0x0000000000000000",
    "text": "{{anim id=\"QuestionMark\" target=\"actor\" targetSpec=\"\"}}話說你知道嗎？{{delay frames=\"40\"}}\n{{anim id=\"EmotEnd\" target=\"actor\" targetSpec=\"\"}}{{color id=\"3\"}}然然{{color id=\"65535\"}}手上的樹苗和種子，{{delay20}}\n{{anim id=\"Negative\" target=\"actor\" targetSpec=\"\"}}在市面上是買不到的。{{pageBreak}}{{anim id=\"Thinking\" target=\"actor\" targetSpec=\"\"}}那傢伙{{string value=\"...\"}}{{delay20}}雖然看起來不太精明，{{delay8}}\n但是只賣稀有物品喔。{{delay20}}\n{{anim id=\"Grin\" target=\"actor\" targetSpec=\"\"}}真是人不可貌相啊，{{string value=\"6\"}}。"
  },
  {
    "label": "002",
    "attribute": "0x0000000000000000",
    "text": "{{anim id=\"Explain\" target=\"actor\" targetSpec=\"\"}}所謂的灌木啊，{{delay8}}跟一般的樹不同，{{delay20}}\n就算種在一起{{delay20}}{{anim id=\"Nodding\" target=\"actor\" targetSpec=\"\"}}也能夠正常地生長喔。{{pageBreak}}{{anim id=\"AbsentMindedness\" target=\"actor\" targetSpec=\"\"}}大量灌木{{delay20}}一起開花的景象，{{delay8}}\n{{anim id=\"EmotEnd\" target=\"actor\" targetSpec=\"\"}}真的是非常漂亮啊，{{anim id=\"FaintSmile\" target=\"actor\" targetSpec=\"\"}}{{string value=\"6\"}}。"
  },
  {
    "label": "003",
    "attribute": "0x0000000000000000",
    "text": "{{anim id=\"Explain\" target=\"actor\" targetSpec=\"\"}}地球日{{delay20}}可是為了提升{{delay8}}人們對花草自然的重視{{delay8}}\n{{anim id=\"SmugFace\" target=\"actor\" targetSpec=\"\"}}而舉辦的重要活動喔。{{pageBreak}}{{anim id=\"Eh\" target=\"actor\" targetSpec=\"\"}}你問我有沒有重視自然花草！？\n{{delay frames=\"40\"}}{{anim id=\"Confused\" target=\"actor\" targetSpec=\"\"}}當然有啊！{{delay frames=\"50\"}}像我今天早上就澆了很多水{{string value=\"...\"}}{{delay frames=\"40\"}}\n{{anim id=\"TakenAback\" target=\"actor\" targetSpec=\"\"}}{{delay20}}呃！{{delay frames=\"40\"}}{{anim id=\"Oops\" target=\"actor\" targetSpec=\"\"}}那樣不對嗎？{{string value=\"6\"}}。"
  },
  {
    "label": "004",
    "attribute": "0x0000000000000000",
    "text": "我平常都把花種在同一個地方照顧，{{delay20}}\n{{anim id=\"Shocked\" target=\"actor\" targetSpec=\"\"}}結果當中突然出現一朵我從沒看過的花。{{pageBreak}}{{anim id=\"Explain\" target=\"actor\" targetSpec=\"\"}}之後我把那朵花送給老媽，{{delay20}}\n沒想到她比我想像中的還要高興{{string value=\"...\"}}{{delay frames=\"40\"}}\n{{anim id=\"Blushing\" target=\"actor\" targetSpec=\"\"}}生活中偶爾這樣也不錯，{{string value=\"6\"}}。"
  },
  {
    "label": "005",
    "attribute": "0x0000000000000000",
    "text": "{{anim id=\"Nodding\" target=\"actor\" targetSpec=\"\"}}如果你知道有什麼能改善島上環境的工作，{{delay20}}\n記得一定要告訴我喔？{{delay frames=\"40\"}}\n身為島上的居民，{{anim id=\"Assent\" target=\"actor\" targetSpec=\"\"}}{{delay20}}我很樂意幫忙！{{pageBreak}}{{anim id=\"Smiling\" target=\"actor\" targetSpec=\"\"}}就讓我們一起加油，{{delay20}}讓這座島變得\n{{anim id=\"BigSmile\" target=\"actor\" targetSpec=\"\"}}更棒更適合人居住吧！{{string value=\"6\"}}。{{delay8}}{{anim id=\"FaintSmile\" target=\"actor\" targetSpec=\"\"}}"
  }
]