﻿[
  {
    "label": "001",
    "attribute": "0x0000000000000000",
    "text": "{{fun_0014003C arg=\"\"}}"
  },
  {
    "label": "001_01",
    "attribute": "0x0000020000000000",
    "text": "{{anim id=\"ShyBoy\" target=\"actor\" targetSpec=\"\"}}すみません{{delay frames=\"30\"}}\nちょっと{{ruby charSpan=\"1\" value=\"た\"}}立て{{ruby charSpan=\"1\" value=\"こ\"}}込んでて{{string value=\"...\"}}、{{string value=\"6\"}}"
  },
  {
    "label": "001_01_a",
    "attribute": "0x0000000000000000",
    "text": "{{anim id=\"EmotEnd\" target=\"actor\" targetSpec=\"\"}}なにしてるの？"
  },
  {
    "label": "001_01_b",
    "attribute": "0x0000000000000000",
    "text": "{{anim id=\"EmotEnd\" target=\"actor\" targetSpec=\"\"}}おじゃましました"
  },
  {
    "label": "001_02",
    "attribute": "0x0000020000000000",
    "text": "{{anim id=\"Shocked\" target=\"actor\" targetSpec=\"\"}}せっかく　{{ruby charSpan=\"1\" value=\"き\"}}来てくださったのに{{delay20}}\nおかまいできなくて　ごめんなさい、{{string value=\"6\"}}"
  },
  {
    "label": "001_02_a",
    "attribute": "0x0000000000000000",
    "text": "{{anim id=\"EmotEnd\" target=\"actor\" targetSpec=\"\"}}なに{{ruby charSpan=\"1\" value=\"つく\"}}作ってるの？"
  },
  {
    "label": "001_02_b",
    "attribute": "0x0000000000000000",
    "text": "なんでもないです"
  },
  {
    "label": "001_03",
    "attribute": "0x0000020000000000",
    "text": "{{anim id=\"Blushing\" target=\"actor\" targetSpec=\"\"}}すみません{{delay frames=\"40\"}}\n{{ruby charSpan=\"2\" value=\"さぎょう\"}}作業に　{{ruby charSpan=\"2\" value=\"むちゅう\"}}夢中になってました{{string value=\"...\"}}、{{string value=\"6\"}}"
  },
  {
    "label": "001_03_a",
    "attribute": "0x0000000000000000",
    "text": "{{anim id=\"EmotEnd\" target=\"actor\" targetSpec=\"\"}}なにしてるの？"
  },
  {
    "label": "001_03_b",
    "attribute": "0x0000000000000000",
    "text": "{{anim id=\"EmotEnd\" target=\"actor\" targetSpec=\"\"}}おじゃましました"
  },
  {
    "label": "002",
    "attribute": "0x0000000000000000",
    "text": "{{anim id=\"Explain\" target=\"actor\" targetSpec=\"\"}}ふと{{ruby charSpan=\"1\" value=\"おも\"}}思い{{ruby charSpan=\"1\" value=\"た\"}}立ったんで{{delay20}}\n{{fun_0000007D arg=\"0x0000\"}}を{{delay8}}\n{{ruby charSpan=\"1\" value=\"つく\"}}作ってるんですよ\n{{anim id=\"ShyBoy\" target=\"actor\" targetSpec=\"\"}}ついつい　のめり{{ruby charSpan=\"1\" value=\"こ\"}}込んじゃって{{string value=\"...\"}}{{delay8}}\n{{anim id=\"Love\" target=\"actor\" targetSpec=\"\"}}{{ruby charSpan=\"3\" value=\"ディアイワイ\"}}ＤＩＹって　{{ruby charSpan=\"1\" value=\"おく\"}}奥が{{ruby charSpan=\"1\" value=\"ふか\"}}深いんですね"
  },
  {
    "label": "003",
    "attribute": "0x0000020000000000",
    "text": "{{string value=\"4\"}}も{{delay20}}\n{{fun_0000007D arg=\"0x0000\"}}の{{ruby charSpan=\"1\" value=\"つく\"}}作り{{ruby charSpan=\"1\" value=\"かた\"}}方{{delay8}}\n{{anim id=\"Hello\" target=\"actor\" targetSpec=\"\"}}{{ruby charSpan=\"1\" value=\"し\"}}知りたいですか？"
  },
  {
    "label": "003_a",
    "attribute": "0x0000000000000000",
    "text": "{{ruby charSpan=\"1\" value=\"し\"}}知りたい！"
  },
  {
    "label": "003_b",
    "attribute": "0x0000000000000000",
    "text": "{{ruby charSpan=\"1\" value=\"ま\"}}間に{{ruby charSpan=\"1\" value=\"あ\"}}合ってます"
  },
  {
    "label": "007",
    "attribute": "0x0000000000000000",
    "text": "{{anim id=\"FaintSmile\" target=\"actor\" targetSpec=\"\"}}では　ちょっと{{ruby charSpan=\"2\" value=\"しつれい\"}}失礼して{{delay20}}\n{{ruby charSpan=\"2\" value=\"さぎょう\"}}作業の{{ruby charSpan=\"1\" value=\"つづ\"}}続きを　させてもらいますね、{{string value=\"6\"}}"
  },
  {
    "label": "008",
    "attribute": "0x0000010000000000",
    "text": "{{anim id=\"Eh\" target=\"actor\" targetSpec=\"\"}}あら、{{delay20}}{{string value=\"4\"}}{{delay frames=\"40\"}}\n{{ruby charSpan=\"1\" value=\"し\"}}知ってるような{{ruby charSpan=\"1\" value=\"かお\"}}顔を　されていますけど{{delay20}}\n{{anim id=\"Pardon\" target=\"actor\" targetSpec=\"\"}}{{ruby charSpan=\"1\" value=\"つく\"}}作り{{ruby charSpan=\"1\" value=\"かた\"}}方、{{delay20}}ご{{ruby charSpan=\"2\" value=\"ぞんじ\"}}存知なんですか？　{{string value=\"6\"}}"
  },
  {
    "label": "008_a",
    "attribute": "0x0000000000000000",
    "text": "{{ruby charSpan=\"1\" value=\"し\"}}知ってる！"
  },
  {
    "label": "008_b",
    "attribute": "0x0000000000000000",
    "text": "まあね！"
  },
  {
    "label": "009",
    "attribute": "0x0000000000000000",
    "text": "{{anim id=\"Nodding\" target=\"actor\" targetSpec=\"\"}}そうでしたか～{{delay frames=\"40\"}}\n{{anim id=\"BigSmile\" target=\"actor\" targetSpec=\"\"}}さすがですね！　{{string value=\"4\"}}{{delay8}}{{anim id=\"FaintSmile\" target=\"actor\" targetSpec=\"\"}}"
  },
  {
    "label": "010",
    "attribute": "0x0000000000000000",
    "text": "{{string value=\"...\"}}{{anim id=\"Shocked\" target=\"actor\" targetSpec=\"\"}}あぁ～　{{delay20}}すみません{{delay frames=\"40\"}}\n{{anim id=\"Oops\" target=\"actor\" targetSpec=\"\"}}{{ruby charSpan=\"1\" value=\"いま\"}}今　{{delay8}}もちものが　いっぱいなんですか{{delay frames=\"40\"}}\n{{anim id=\"Worried\" target=\"actor\" targetSpec=\"\"}}{{ruby charSpan=\"2\" value=\"ざんねん\"}}残念ですね、{{string value=\"6\"}}"
  },
  {
    "label": "017",
    "attribute": "0x0000000000000000",
    "text": "{{anim id=\"BigSmile\" target=\"actor\" targetSpec=\"\"}}わかりました{{delay frames=\"40\"}}\n{{anim id=\"EmotEnd\" target=\"actor\" targetSpec=\"\"}}{{ruby charSpan=\"1\" value=\"つく\"}}作り{{ruby charSpan=\"1\" value=\"かた\"}}方のメモが　あるので　{{delay8}}{{ruby charSpan=\"1\" value=\"さ\"}}差し{{ruby charSpan=\"1\" value=\"あ\"}}上げますね{{delay frames=\"40\"}}\n{{anim id=\"FaintSmile\" target=\"actor\" targetSpec=\"\"}}これを{{ruby charSpan=\"1\" value=\"み\"}}見れば　{{ruby charSpan=\"2\" value=\"かんたん\"}}簡単ですから！"
  },
  {
    "label": "018",
    "attribute": "0x0000000000000000",
    "text": "お{{ruby charSpan=\"2\" value=\"じかん\"}}時間と　{{ruby charSpan=\"2\" value=\"ざいりょう\"}}材料のある{{ruby charSpan=\"1\" value=\"とき\"}}時に{{delay8}}\n{{anim id=\"Greeting\" target=\"actor\" targetSpec=\"\"}}{{ruby charSpan=\"1\" value=\"つく\"}}作ってみてくださいね、{{string value=\"6\"}}"
  },
  {
    "label": "019",
    "attribute": "0x0000000000000000",
    "text": "{{anim id=\"Thinking\" target=\"actor\" targetSpec=\"\"}}{{ruby charSpan=\"1\" value=\"じつ\"}}実は　{{delay8}}{{fun_0000007D arg=\"0x0000\"}}の\n{{ruby charSpan=\"1\" value=\"つく\"}}作り{{ruby charSpan=\"1\" value=\"かた\"}}方って　{{delay8}}みなさん\n{{ruby charSpan=\"2\" value=\"きょうみ\"}}興味があると　{{ruby charSpan=\"1\" value=\"おも\"}}思うんですよね\n{{anim id=\"IdeaBulb\" target=\"actor\" targetSpec=\"\"}}そうだ！　{{delay20}}{{ruby charSpan=\"1\" value=\"つく\"}}作り{{ruby charSpan=\"1\" value=\"かた\"}}方のメモを{{delay8}}\n{{string value=\"4\"}}に　{{ruby charSpan=\"1\" value=\"さ\"}}差し{{ruby charSpan=\"1\" value=\"あ\"}}上げます{{delay frames=\"40\"}}\n{{anim id=\"Smiling\" target=\"actor\" targetSpec=\"\"}}{{ruby charSpan=\"1\" value=\"つく\"}}作り{{ruby charSpan=\"1\" value=\"かた\"}}方を{{ruby charSpan=\"1\" value=\"し\"}}知らないひとに　{{ruby charSpan=\"1\" value=\"わた\"}}渡してください"
  },
  {
    "label": "020",
    "attribute": "0x0000000000000000",
    "text": "{{anim id=\"Blushing\" target=\"actor\" targetSpec=\"\"}}{{fun_0000007D arg=\"0x0000\"}}の{{ruby charSpan=\"1\" value=\"わ\"}}輪が\n{{ruby charSpan=\"1\" value=\"ひろ\"}}広がると　{{delay8}}うれしいです、{{string value=\"6\"}}"
  },
  {
    "label": "021",
    "attribute": "0x0000000000000000",
    "text": "{{anim id=\"Aha\" target=\"actor\" targetSpec=\"\"}}そうそう、{{delay20}}{{fun_0000007D arg=\"0x0000\"}}の\n{{ruby charSpan=\"1\" value=\"つく\"}}作り{{ruby charSpan=\"1\" value=\"かた\"}}方のメモを　{{delay8}}お{{ruby charSpan=\"1\" value=\"わた\"}}渡しするんでした！"
  },
  {
    "label": "030",
    "attribute": "0x0000000000000000",
    "text": "{{anim id=\"Explain\" target=\"actor\" targetSpec=\"\"}}{{ruby charSpan=\"1\" value=\"じつ\"}}実はそれ、{{delay20}}ハロウィンには　{{ruby charSpan=\"1\" value=\"つ\"}}付き{{ruby charSpan=\"1\" value=\"もの\"}}物の{{delay8}}\nカボチャで　{{ruby charSpan=\"1\" value=\"つく\"}}作るんです！{{pageBreak}}{{anim id=\"EmotEnd\" target=\"actor\" targetSpec=\"\"}}{{ruby charSpan=\"2\" value=\"じぶん\"}}自分で{{ruby charSpan=\"1\" value=\"そだ\"}}育てた　カボチャを{{ruby charSpan=\"1\" value=\"つか\"}}使うと{{delay8}}\n{{anim id=\"Love\" target=\"actor\" targetSpec=\"\"}}ぐっと　{{ruby charSpan=\"2\" value=\"あいちゃく\"}}愛着もわきますよ、{{string value=\"6\"}}"
  },
  {
    "label": "031",
    "attribute": "0x0000000000000000",
    "text": "{{anim id=\"Explain\" target=\"actor\" targetSpec=\"\"}}それ、{{delay20}}リメイクするときは{{delay8}}\n{{ruby charSpan=\"1\" value=\"いろ\"}}色{{ruby charSpan=\"1\" value=\"ちが\"}}違いの　カボチャを　{{ruby charSpan=\"1\" value=\"つか\"}}使うんですって！{{pageBreak}}{{anim id=\"Thinking\" target=\"actor\" targetSpec=\"\"}}カボチャを　たくさん{{ruby charSpan=\"1\" value=\"う\"}}植えれば　{{delay8}}まれに\n{{ruby charSpan=\"1\" value=\"いろ\"}}色が{{ruby charSpan=\"1\" value=\"ちが\"}}違うのが　できるらしいんですけど{{string value=\"...\"}}{{delay20}}\n{{anim id=\"Hello\" target=\"actor\" targetSpec=\"\"}}ちょっと　{{ruby charSpan=\"3\" value=\"しんぴてき\"}}神秘的ですね、{{string value=\"6\"}}"
  },
  {
    "label": "032",
    "attribute": "0x0000000000000000",
    "text": "{{anim id=\"Explain\" target=\"actor\" targetSpec=\"\"}}{{ruby charSpan=\"1\" value=\"さき\"}}先ほどは　{{ruby charSpan=\"2\" value=\"にもつ\"}}荷物がいっぱいでしたけど{{delay20}}\n{{ruby charSpan=\"1\" value=\"いま\"}}今は　どうでしょう{{delay frames=\"40\"}}\n{{anim id=\"Hello\" target=\"actor\" targetSpec=\"\"}}お{{ruby charSpan=\"1\" value=\"わた\"}}渡ししても　{{ruby charSpan=\"3\" value=\"だいじょうぶ\"}}大丈夫ですか？"
  },
  {
    "label": "033",
    "attribute": "0x0000000000000000",
    "text": "{{anim id=\"Eh\" target=\"actor\" targetSpec=\"\"}}そういえば　{{delay20}}{{string value=\"4\"}}は{{delay8}}\n{{ruby charSpan=\"1\" value=\"つく\"}}作り{{ruby charSpan=\"1\" value=\"かた\"}}方を　もう　{{ruby charSpan=\"1\" value=\"し\"}}知ってらっしゃるんですね{{delay frames=\"40\"}}\n{{anim id=\"Clapping\" target=\"actor\" targetSpec=\"\"}}さすがです！"
  },
  {
    "label": "034",
    "attribute": "0x0000000000000000",
    "text": "{{anim id=\"IdeaBulb\" target=\"actor\" targetSpec=\"\"}}そうだ！　{{delay frames=\"40\"}}{{ruby charSpan=\"1\" value=\"すこ\"}}少しでも　{{anim id=\"Nodding\" target=\"actor\" targetSpec=\"\"}}{{ruby charSpan=\"2\" value=\"ざいりょう\"}}材料があったほうが\nいいですよね{{delay frames=\"40\"}}\n{{anim id=\"FaintSmile\" target=\"actor\" targetSpec=\"\"}}よかったら　{{color id=\"1\"}}カボチャ{{color id=\"65535\"}}を　お{{ruby charSpan=\"1\" value=\"も\"}}持ちください！"
  },
  {
    "label": "035",
    "attribute": "0x0000000000000000",
    "text": "その　{{color id=\"1\"}}カボチャ{{color id=\"65535\"}}、{{delay20}}ハロウィンシーズンの\n{{ruby charSpan=\"3\" value=\"ディアイワイ\"}}ＤＩＹに{{delay8}}　{{anim id=\"Greeting\" target=\"actor\" targetSpec=\"\"}}お{{ruby charSpan=\"2\" value=\"やくだ\"}}役立てくださいね！　{{string value=\"6\"}}"
  },
  {
    "label": "036",
    "attribute": "0x0000000000000000",
    "text": "{{anim id=\"IdeaBulb\" target=\"actor\" targetSpec=\"\"}}そうだ！　{{delay frames=\"50\"}}{{anim id=\"EmotEnd\" target=\"actor\" targetSpec=\"\"}}ハロウィンの{{ruby charSpan=\"2\" value=\"きせつ\"}}季節なので{{delay20}}\n{{anim id=\"FaintSmile\" target=\"actor\" targetSpec=\"\"}}よかったら　{{color id=\"1\"}}アメ{{color id=\"65535\"}}ちゃんを　お{{ruby charSpan=\"1\" value=\"も\"}}持ちください！"
  },
  {
    "label": "037",
    "attribute": "0x0000000000000000",
    "text": "{{anim id=\"ShyBoy\" target=\"actor\" targetSpec=\"\"}}ハロウィンが　{{ruby charSpan=\"1\" value=\"ま\"}}待ち{{ruby charSpan=\"1\" value=\"どお\"}}遠しくて{{delay8}}\n{{color id=\"1\"}}アメ{{color id=\"65535\"}}ちゃんを　{{ruby charSpan=\"1\" value=\"すこ\"}}少し{{ruby charSpan=\"1\" value=\"おお\"}}多めに{{ruby charSpan=\"2\" value=\"ようい\"}}用意してたんですよ{{delay frames=\"40\"}}\n{{anim id=\"Laughing\" target=\"actor\" targetSpec=\"\"}}その　おすそ{{ruby charSpan=\"1\" value=\"わ\"}}分けです、{{string value=\"6\"}}"
  },
  {
    "label": "040",
    "attribute": "0x0000000000000000",
    "text": "{{anim id=\"Eh\" target=\"actor\" targetSpec=\"\"}}そういえば　{{delay20}}{{string value=\"4\"}}は{{delay8}}\n{{ruby charSpan=\"1\" value=\"つく\"}}作り{{ruby charSpan=\"1\" value=\"かた\"}}方を　もう　{{ruby charSpan=\"1\" value=\"し\"}}知ってらっしゃるんですね{{delay frames=\"40\"}}\n{{anim id=\"Clapping\" target=\"actor\" targetSpec=\"\"}}さすがです！"
  },
  {
    "label": "041",
    "attribute": "0x0000000000000000",
    "text": "{{anim id=\"IdeaBulb\" target=\"actor\" targetSpec=\"\"}}そうだ！　{{delay frames=\"40\"}}{{ruby charSpan=\"1\" value=\"すこ\"}}少しでも　{{anim id=\"Nodding\" target=\"actor\" targetSpec=\"\"}}{{ruby charSpan=\"2\" value=\"ざいりょう\"}}材料があったほうが\nいいですよね{{delay frames=\"40\"}}\n{{anim id=\"FaintSmile\" target=\"actor\" targetSpec=\"\"}}よかったら　これを　お{{ruby charSpan=\"1\" value=\"も\"}}持ちください！"
  },
  {
    "label": "042",
    "attribute": "0x0000000000000000",
    "text": "その　{{color id=\"1\"}}{{fun_0000007D arg=\"0x0100\"}}{{color id=\"65535\"}}、{{delay20}}\nこのシーズンならではの　{{ruby charSpan=\"3\" value=\"ディアイワイ\"}}ＤＩＹに{{delay8}}\n{{anim id=\"Greeting\" target=\"actor\" targetSpec=\"\"}}お{{ruby charSpan=\"2\" value=\"やくだ\"}}役立てくださいね！　{{string value=\"6\"}}"
  },
  {
    "label": "043",
    "attribute": "0x0000000000000000",
    "text": "{{anim id=\"Explain\" target=\"actor\" targetSpec=\"\"}}{{ruby charSpan=\"1\" value=\"さき\"}}先ほどは　{{ruby charSpan=\"2\" value=\"にもつ\"}}荷物がいっぱいでしたけど{{delay20}}\n{{ruby charSpan=\"1\" value=\"いま\"}}今は　どうでしょう{{delay frames=\"40\"}}\n{{anim id=\"Hello\" target=\"actor\" targetSpec=\"\"}}お{{ruby charSpan=\"1\" value=\"わた\"}}渡ししても　{{ruby charSpan=\"3\" value=\"だいじょうぶ\"}}大丈夫ですか？"
  }
]