﻿[
  {
    "label": "001",
    "attribute": "0x0000000000000000",
    "text": "{{fun_0014003C arg=\"\"}}"
  },
  {
    "label": "001_01",
    "attribute": "0x0000000000000000",
    "text": "{{anim id=\"FaintSmile\" target=\"actor\" targetSpec=\"\"}}Ik had mijn wekker vroeg gezet zodat ik rustig van {{anim id=\"Greeting\" target=\"actor\" targetSpec=\"\"}}de ochtend op {{string value=\"OtherIslandName\"}}{{delay8}} kon genieten!{{pageBreak}}{{anim id=\"FaintSmile\" target=\"actor\" targetSpec=\"\"}}Laat me je zeggen,{{delay8}} met een vroege\nochtendwandeling ben je meteen\nal op weg naar een magnifieke dag!"
  },
  {
    "label": "001_02",
    "attribute": "0x0000000000000000",
    "text": "{{anim id=\"Greeting\" target=\"actor\" targetSpec=\"\"}}Ik werd ongebruikelijk vroeg wakker\nvandaag.{{delay frames=\"40\"}} {{anim id=\"HappyDance\" target=\"actor\" targetSpec=\"\"}}Mijn ochtendgymnastiek\nwerkt vast, want ik voel me kiplekker!"
  },
  {
    "label": "001_03",
    "attribute": "0x0000000000000000",
    "text": "{{anim id=\"Greeting\" target=\"actor\" targetSpec=\"\"}}Ik werd belachelijk vroeg wakker\nvandaag,{{delay frames=\"40\"}} {{anim id=\"OhGeez\" target=\"actor\" targetSpec=\"\"}}nog voordat{{delay8}} ik mijn\nschoonheidsslaap had voltooid.{{pageBreak}}{{anim id=\"EmotEnd\" target=\"actor\" targetSpec=\"\"}}Ik heb geprobeerd weer in te slapen,\n{{anim id=\"Sighing\" target=\"actor\" targetSpec=\"\"}}maar zonder succes.{{delay frames=\"40\"}} {{anim id=\"Confused\" target=\"actor\" targetSpec=\"\"}}Als mijn teint{{delay8}}\nhier maar niet onder lijdt!"
  },
  {
    "label": "002",
    "attribute": "0x0000000000000000",
    "text": "{{fun_0014003C arg=\"\"}}"
  },
  {
    "label": "002_01",
    "attribute": "0x0000000000000000",
    "text": "{{anim id=\"Grin\" target=\"actor\" targetSpec=\"\"}}Ben je verrast mij nog zo laat te\nzien?{{delay20}} {{anim id=\"FaintSmile\" target=\"actor\" targetSpec=\"\"}}Ik wilde eens een nachtvlinder\nzijn.{{delay20}} {{anim id=\"SmugFace\" target=\"actor\" targetSpec=\"\"}}De avond begint pas net!"
  },
  {
    "label": "002_02",
    "attribute": "0x0000000000000000",
    "text": "{{anim id=\"Worried\" target=\"actor\" targetSpec=\"\"}}Ik heb zó mijn best gedaan,{{delay8}} maar ik\nkon de slaap niet vatten.{{delay20}} {{anim id=\"Sighing\" target=\"actor\" targetSpec=\"\"}}Ik lag me\nontzettend te ergeren totdat{{string value=\"...\"}}{{pageBreak}}{{anim id=\"HappyDance\" target=\"actor\" targetSpec=\"\"}}{{string value=\"...\"}}ik besloot buiten dan maar van de\nfrisse nachtlucht te gaan genieten!{{delay20}}\n{{anim id=\"FaintSmile\" target=\"actor\" targetSpec=\"\"}}Zo is{{delay8}} wakker zijn best aangenaam."
  },
  {
    "label": "002_03",
    "attribute": "0x0000000000000000",
    "text": "{{anim id=\"Hello\" target=\"actor\" targetSpec=\"\"}}Ik bespeur in jou een zielsverwant{{string value=\"...\"}} {{anim id=\"Smiling\" target=\"actor\" targetSpec=\"\"}}Jij ziet {{string value=\"OtherIslandName\"}} ook graag '⁠s nachts,{{delay8}} is het niet?{{pageBreak}}{{anim id=\"Greeting\" target=\"actor\" targetSpec=\"\"}}Door dit alles heen slapen zou zonde\nzijn.{{delay20}} {{anim id=\"HappyDance\" target=\"actor\" targetSpec=\"\"}}Ik ben voornemens zo lang\nmogelijk van de avond te genieten."
  }
]