﻿[
  {
    "label": "001",
    "attribute": "0x0000000000000000",
    "text": "那個，{{delay20}}你可以聽我說一下嗎？{{delay frames=\"40\"}}\n{{anim id=\"Thinking\" target=\"actor\" targetSpec=\"\"}}就是{{selection value=\"SelectedVillager\"}}{{string value=\"13\"}}……{{delay20}}\n{{gender3 m=\"他\" f=\"她\"}}好像身體不太舒服耶～{{pageBreak}}{{anim id=\"EmotEnd\" target=\"actor\" targetSpec=\"\"}}{{gender3 m=\"他\" f=\"她\"}}不會是感冒了吧～{{delay frames=\"40\"}}\n{{anim id=\"Restless\" target=\"actor\" targetSpec=\"\"}}我有點擔心，{{delay20}}\n你去看看{{gender3 m=\"他\" f=\"她\"}}吧～{{string value=\"6\"}}。"
  },
  {
    "label": "002",
    "attribute": "0x0000000000000000",
    "text": "{{anim id=\"Worried\" target=\"actor\" targetSpec=\"\"}}我問你喔，{{delay8}}你聽說了嗎～？{{delay frames=\"40\"}}\n就是{{selection value=\"SelectedVillager\"}}{{string value=\"13\"}}……{{delay20}}\n聽說{{gender3 m=\"他\" f=\"她\"}}好像沒什麼精神喔～{{pageBreak}}{{anim id=\"Eh\" target=\"actor\" targetSpec=\"\"}}{{gender3 m=\"他\" f=\"她\"}}搞不好是生病了也說不定，{{delay frames=\"40\"}}\n{{anim id=\"Serious\" target=\"actor\" targetSpec=\"\"}}或許我們應該{{delay8}}\n去看看{{gender3 m=\"他\" f=\"她\"}}比較好～{{string value=\"6\"}}。"
  },
  {
    "label": "003",
    "attribute": "0x0000000000000000",
    "text": "對了對了，{{delay20}}{{anim id=\"QuestionMark\" target=\"actor\" targetSpec=\"\"}}你知道嗎～？{{delay frames=\"40\"}}\n{{anim id=\"Worried\" target=\"actor\" targetSpec=\"\"}}就是{{selection value=\"SelectedVillager\"}}{{string value=\"13\"}}……{{delay20}}\n好像生了病在家休息喔～{{pageBreak}}{{anim id=\"Serious\" target=\"actor\" targetSpec=\"\"}}{{string value=\"4\"}}！{{delay frames=\"40\"}}\n{{anim id=\"Thinking\" target=\"actor\" targetSpec=\"\"}}或許我們該去看看{{delay8}}\n{{gender3 m=\"他\" f=\"她\"}}的情況會比較好喔～{{string value=\"6\"}}。"
  }
]