﻿[
  {
    "label": "002",
    "attribute": "0x000021",
    "text": "A quanto pare, al momento non\nci sono altri abitanti dell'isola\ncon cui giocare."
  },
  {
    "label": "003",
    "attribute": "0x000021",
    "text": "Scegli gli abitanti dell'isola\ncon cui vuoi giocare."
  },
  {
    "label": "003_f",
    "attribute": "0x000022",
    "text": "Non fa niente"
  },
  {
    "label": "006",
    "attribute": "0x170021",
    "text": "Stai giocando con altri giocatori.{{delay20}}\nChe cosa vuoi fare?"
  },
  {
    "label": "006_01",
    "attribute": "0x0A0021",
    "text": "Stai giocando con un altro giocatore.{{delay20}}\nChe cosa vuoi fare?"
  },
  {
    "label": "006_01_a",
    "attribute": "0x000022",
    "text": "Cambia leader"
  },
  {
    "label": "006_01_b",
    "attribute": "0x000822",
    "text": "Chiudi la sessione"
  },
  {
    "label": "006_01_c",
    "attribute": "0x000722",
    "text": "{{anim id=\"EmotEnd\" target=\"player\" targetSpec=\"\"}}Salva ed esci"
  },
  {
    "label": "006_01_d",
    "attribute": "0x000000",
    "text": "Vedi un passaporto"
  },
  {
    "label": "006_01_e",
    "attribute": "0x000022",
    "text": "Verifica come giocare"
  },
  {
    "label": "006_01_f",
    "attribute": "0x000022",
    "text": "{{anim id=\"EmotEnd\" target=\"player\" targetSpec=\"\"}}Continua a giocare"
  },
  {
    "label": "006_a",
    "attribute": "0x000022",
    "text": "Cambia leader"
  },
  {
    "label": "006_b",
    "attribute": "0x000822",
    "text": "Chiudi la sessione"
  },
  {
    "label": "006_c",
    "attribute": "0x000022",
    "text": "Scegli gli abitanti"
  },
  {
    "label": "006_d",
    "attribute": "0x000722",
    "text": "{{anim id=\"EmotEnd\" target=\"player\" targetSpec=\"\"}}Salva ed esci"
  },
  {
    "label": "006_e",
    "attribute": "0x000000",
    "text": "Vedi un passaporto"
  },
  {
    "label": "006_f",
    "attribute": "0x000022",
    "text": "Verifica come giocare"
  },
  {
    "label": "006_g",
    "attribute": "0x000022",
    "text": "{{anim id=\"EmotEnd\" target=\"player\" targetSpec=\"\"}}Continua a giocare"
  },
  {
    "label": "007",
    "attribute": "0x000022",
    "text": "Premi contemporaneamente {{color id=\"1\"}}{{color id=\"65535\"}} e {{color id=\"1\"}}{{color id=\"65535\"}}\n(o {{color id=\"1\"}}{{color id=\"65535\"}} e {{color id=\"1\"}}{{color id=\"65535\"}}), {{selection value=\"SelectedName\"}}.{{i10_8 arg=\"0\"}}"
  },
  {
    "label": "008",
    "attribute": "0x000021",
    "text": "Non è stato collegato alcun\ncontroller.{{delay20}} La sessione verrà chiusa.{{i10_7 arg=\"300\"}}"
  },
  {
    "label": "009",
    "attribute": "0x010021",
    "text": "Non riesci a collegare un controller\nper {{selection value=\"SelectedName\"}}?"
  },
  {
    "label": "009_a",
    "attribute": "0x000022",
    "text": "Riprova"
  },
  {
    "label": "009_b",
    "attribute": "0x000022",
    "text": "Prova un'altra opzione"
  },
  {
    "label": "010",
    "attribute": "0x000021",
    "text": "Non è stato collegato alcun\ncontroller.{{delay20}} La sessione verrà chiusa.{{i10_7 arg=\"300\"}}"
  },
  {
    "label": "011",
    "attribute": "0x000021",
    "text": "Sono stati collegati controller per\ntutti gli abitanti.{{delay20}} Buon divertimento!"
  },
  {
    "label": "013",
    "attribute": "0x000021",
    "text": "Non puoi chiamare altri abitanti\nquando è attivo il gioco online\no in locale."
  },
  {
    "label": "014",
    "attribute": "0x000021",
    "text": "Nel gioco in singolo non è possibile\ngiocare con un solo Joy-Con.{{delay20}}\nCollega un altro controller.{{i10_7 arg=\"180\"}}"
  },
  {
    "label": "016",
    "attribute": "0x000021",
    "text": "In questo momento non puoi\ncambiare il leader."
  },
  {
    "label": "017",
    "attribute": "0x000021",
    "text": "In questo momento non puoi\nchiamare nessuno."
  },
  {
    "label": "018",
    "attribute": "0x000018",
    "text": "Sei fuori dall'area di servizio.\n{{delay20}}Questo servizio è disponibile\nsolo sulla tua isola."
  },
  {
    "label": "019",
    "attribute": "0x000021",
    "text": "Seleziona gli abitanti dell'isola\ncon cui vuoi giocare.{{pageBreak}}{{color id=\"0\"}}Non puoi giocare con abitanti\ni cui dati utente sono stati\ncancellati dalla console.{{color id=\"65535\"}}"
  },
  {
    "label": "020",
    "attribute": "0x000021",
    "text": "In questo momento non puoi\nchiamare nessuno.{{pageBreak}}{{color id=\"0\"}}Non puoi giocare con abitanti\ni cui dati utente sono stati\ncancellati dalla console.{{color id=\"65535\"}}"
  }
]