﻿[
  {
    "label": "001",
    "attribute": "0x0000000000000000",
    "text": "{{fun_0014003C arg=\"\"}}"
  },
  {
    "label": "001_01",
    "attribute": "0x0000000000000000",
    "text": "{{anim id=\"Smiling\" target=\"actor\" targetSpec=\"\"}}{{capitalizeNextLetter}}{{string value=\"NickName\"}}! Я последовала\nтвоему совету {{anim id=\"HappyFlower\" target=\"actor\" targetSpec=\"\"}}и переехала на этот\nостров.{{pageBreak}}{{anim id=\"FaintSmile\" target=\"actor\" targetSpec=\"\"}}Сегодня я буду распаковывать свои\nвещи, {{anim id=\"Smiling\" target=\"actor\" targetSpec=\"\"}}но нам нужно скоро\nвстретиться. {{capitalizeNextLetter}}{{string value=\"6\"}}!"
  },
  {
    "label": "001_02",
    "attribute": "0x0000000000000000",
    "text": "{{anim id=\"Smiling\" target=\"actor\" targetSpec=\"\"}}{{capitalizeNextLetter}}{{string value=\"NickName\"}}! Ты приш{{gender2 m=\"ел\" f=\"ла\"}}\nменя навестить? Ты так{{gender2 m=\"ой\" f=\"ая\"}}\nзаботлив{{gender2 m=\"ый\" f=\"ая\"}}!{{pageBreak}}{{anim id=\"Assent\" target=\"actor\" targetSpec=\"\"}}Я переехала, но, как видишь, {{anim id=\"ShyBoy\" target=\"actor\" targetSpec=\"\"}}мне\nеще нужно распаковать все свои\nвещи{{string value=\"...\"}}{{pageBreak}}Спасибо, что ты уговорил{{gender2 m=\"\" f=\"а\"}} меня\nпереехать. {{anim id=\"BigSmile\" target=\"actor\" targetSpec=\"\"}}Я очень рада, что я тебя\nпослушалась! {{capitalizeNextLetter}}{{string value=\"6\"}}!{{anim id=\"FaintSmile\" target=\"actor\" targetSpec=\"\"}}"
  },
  {
    "label": "001_03",
    "attribute": "0x0000000000000000",
    "text": "{{anim id=\"Smiling\" target=\"actor\" targetSpec=\"\"}}{{capitalizeNextLetter}}{{string value=\"NickName\"}}! Спасибо, что ты\nзаш{{gender2 m=\"ел\" f=\"ла\"}} в гости! {{anim id=\"Laughing\" target=\"actor\" targetSpec=\"\"}}Правда, я еще не\nуспела распаковать свои вещи.{{anim id=\"FaintSmile\" target=\"actor\" targetSpec=\"\"}}{{pageBreak}}С сегодняшнего дня я с гордостью\nмогу заявить: «{{string value=\"OtherIslandName\"}} —\nмой остров!»{{pageBreak}}{{anim id=\"Greeting\" target=\"actor\" targetSpec=\"\"}}Я рада, что у меня на этом острове\nуже есть {{gender2 m=\"\" f=\"по\"}}друг{{gender2 m=\"\" f=\"а\"}}. {{capitalizeNextLetter}}{{string value=\"6\"}}!{{anim id=\"FaintSmile\" target=\"actor\" targetSpec=\"\"}}"
  },
  {
    "label": "002",
    "attribute": "0x0000000000000000",
    "text": "{{fun_0014003C arg=\"\"}}"
  },
  {
    "label": "002_01",
    "attribute": "0x0000000000000000",
    "text": "{{anim id=\"Smiling\" target=\"actor\" targetSpec=\"\"}}{{capitalizeNextLetter}}{{string value=\"NickName\"}}! Благодаря\nтвоему совету я переехала сюда\n{{anim id=\"Love\" target=\"actor\" targetSpec=\"\"}}и я очень довольна!{{anim id=\"FaintSmile\" target=\"actor\" targetSpec=\"\"}}{{pageBreak}}{{anim id=\"Hesitate\" target=\"actor\" targetSpec=\"\"}}Поскольку мы теперь соседи, {{anim id=\"Hello\" target=\"actor\" targetSpec=\"\"}}мы\nсможем намного чаще видеться.\n{{capitalizeNextLetter}}{{string value=\"6\"}}!{{anim id=\"FaintSmile\" target=\"actor\" targetSpec=\"\"}}"
  },
  {
    "label": "002_02",
    "attribute": "0x0000000000000000",
    "text": "{{anim id=\"Greeting\" target=\"actor\" targetSpec=\"\"}}{{capitalizeNextLetter}}{{string value=\"NickName\"}}! А вот и я!\n{{anim id=\"FaintSmile\" target=\"actor\" targetSpec=\"\"}}Я переехала сюда благодаря\nтвоему совету. {{capitalizeNextLetter}}{{string value=\"Catchphrase\"}}!{{pageBreak}}{{anim id=\"Smiling\" target=\"actor\" targetSpec=\"\"}}На острове {{string value=\"OtherIslandName\"}} все\nтакие милые! Мне кажется, что\n{{anim id=\"HappyFlower\" target=\"actor\" targetSpec=\"\"}}это было правильным решением.{{anim id=\"FaintSmile\" target=\"actor\" targetSpec=\"\"}}{{pageBreak}}{{anim id=\"Hesitate\" target=\"actor\" targetSpec=\"\"}}Надеюсь, что я смогу на тебя\nположиться, если мне вдруг\nпонадобится помощь."
  },
  {
    "label": "002_03",
    "attribute": "0x0000000000000000",
    "text": "{{anim id=\"Smiling\" target=\"actor\" targetSpec=\"\"}}{{capitalizeNextLetter}}{{string value=\"NickName\"}}! Я последовала\nтвоему приглашению и переехала\nна твой остров.{{pageBreak}}{{anim id=\"Clapping\" target=\"actor\" targetSpec=\"\"}}Теперь я могу назвать остров\n{{string value=\"OtherIslandName\"}} моим домом!{{pageBreak}}{{anim id=\"FaintSmile\" target=\"actor\" targetSpec=\"\"}}Раз мы теперь соседи, я уверена,\n{{anim id=\"BigSmile\" target=\"actor\" targetSpec=\"\"}}что мы будем видеться чаще.{{anim id=\"FaintSmile\" target=\"actor\" targetSpec=\"\"}}\n{{capitalizeNextLetter}}{{string value=\"Catchphrase\"}}!"
  },
  {
    "label": "003",
    "attribute": "0x0000000000000000",
    "text": "{{anim id=\"Smiling\" target=\"actor\" targetSpec=\"\"}}{{capitalizeNextLetter}}{{string value=\"NickName\"}}! А я уже\nподумала, что что-то я тебя\nдавно не видела.{{pageBreak}}{{anim id=\"Hesitate\" target=\"actor\" targetSpec=\"\"}}Я уже обжилась на новом месте, но\nбез тебя я бы никогда не решилась\nна переезд.{{pageBreak}}{{anim id=\"Smiling\" target=\"actor\" targetSpec=\"\"}}Но теперь держись{{string value=\"...\"}} Если мне\nпонадобится помощь, то я приду\nк тебе. {{capitalizeNextLetter}}{{string value=\"Catchphrase\"}}."
  },
  {
    "label": "004",
    "attribute": "0x0000000000000000",
    "text": "{{anim id=\"Sneezing\" target=\"actor\" targetSpec=\"\"}}Апчхи!{{delay20}} {{anim id=\"EmotEnd\" target=\"actor\" targetSpec=\"\"}}{{capitalizeNextLetter}}{{string value=\"NickName\"}}! Я сюда\nпереехала и тут же {{anim id=\"Worried\" target=\"actor\" targetSpec=\"\"}}простудилась.\n{{capitalizeNextLetter}}{{string value=\"6\"}}!{{pageBreak}}{{anim id=\"ColdChill\" target=\"actor\" targetSpec=\"\"}}Не подходи ко мне близко,\nиначе заразишься{{string value=\"...\"}}{{pageBreak}}{{anim id=\"Hesitate\" target=\"actor\" targetSpec=\"\"}}Когда мне будет лучше, надо будет\nвстретиться и поговорить о жизни\nна острове {{string value=\"OtherIslandName\"}}."
  },
  {
    "label": "011",
    "attribute": "0x0000000000000000",
    "text": "{{fun_0014003C arg=\"\"}}"
  },
  {
    "label": "011_01",
    "attribute": "0x0000000000000000",
    "text": "{{anim id=\"Smiling\" target=\"actor\" targetSpec=\"\"}}{{capitalizeNextLetter}}{{string value=\"NickName\"}}! Как хорошо,\nчто мы встретились в день моего\nпереезда.{{pageBreak}}{{anim id=\"Explain\" target=\"actor\" targetSpec=\"\"}}Этот остров порекомендовал{{gender7 m=\"\" f=\"а\" n=\"\" pl=\"\"}} мне\n{{selection value=\"SelectedName\"}}. {{capitalizeNextLetter}}{{string value=\"Catchphrase\"}}!{{pageBreak}}{{anim id=\"FaintSmile\" target=\"actor\" targetSpec=\"\"}}Раз ты этот остров знаешь лучше\nменя, {{anim id=\"Hello\" target=\"actor\" targetSpec=\"\"}}я буду обращаться со всеми\nвопросами к тебе.{{anim id=\"FaintSmile\" target=\"actor\" targetSpec=\"\"}}"
  },
  {
    "label": "011_02",
    "attribute": "0x0000000000000000",
    "text": "{{anim id=\"Smiling\" target=\"actor\" targetSpec=\"\"}}Привет, {{string value=\"NickName\"}}.\n{{anim id=\"Hello\" target=\"actor\" targetSpec=\"\"}}Ты удивлен{{gender2 m=\"\" f=\"а\"}} меня здесь видеть?\n{{anim id=\"FaintSmile\" target=\"actor\" targetSpec=\"\"}}Я теперь здесь живу.{{pageBreak}}{{anim id=\"Explain\" target=\"actor\" targetSpec=\"\"}}{{capitalizeNextLetter}}{{selection value=\"SelectedName\"}}\nпорекомендовал{{gender7 m=\"\" f=\"а\" n=\"\" pl=\"\"}} мне этот остров,\nи я решила сюда переехать.{{pageBreak}}{{anim id=\"FaintSmile\" target=\"actor\" targetSpec=\"\"}}Надеюсь, теперь мы будем {{anim id=\"BigSmile\" target=\"actor\" targetSpec=\"\"}}чаще\nвидеться!{{anim id=\"FaintSmile\" target=\"actor\" targetSpec=\"\"}} {{capitalizeNextLetter}}{{string value=\"Catchphrase\"}}!"
  },
  {
    "label": "012",
    "attribute": "0x0000000000000000",
    "text": "{{fun_0014003C arg=\"\"}}"
  },
  {
    "label": "012_01",
    "attribute": "0x0000000000000000",
    "text": "{{anim id=\"Smiling\" target=\"actor\" targetSpec=\"\"}}{{capitalizeNextLetter}}{{string value=\"NickName\"}}, привет!\n{{anim id=\"Laughing\" target=\"actor\" targetSpec=\"\"}}{{capitalizeNextLetter}}{{string value=\"Catchphrase\"}}! Я так и знала,\nчто мы скоро встретимся.{{pageBreak}}{{anim id=\"FaintSmile\" target=\"actor\" targetSpec=\"\"}}{{capitalizeNextLetter}}{{selection value=\"SelectedName\"}} сказал{{gender7 m=\"\" f=\"а\" n=\"\" pl=\"\"}}, что\nмне стоит сюда переехать.{{pageBreak}}{{anim id=\"HappyFlower\" target=\"actor\" targetSpec=\"\"}}Как хорошо, что мы с тобой соседи!\n{{anim id=\"FaintSmile\" target=\"actor\" targetSpec=\"\"}}Надеюсь, что я теперь буду видеть\nтебя чаще."
  },
  {
    "label": "012_02",
    "attribute": "0x0000000000000000",
    "text": "{{anim id=\"Pardon\" target=\"actor\" targetSpec=\"\"}}{{capitalizeNextLetter}}{{string value=\"NickName\"}}! Ты, наверное,\nне ожидал{{gender2 m=\"\" f=\"а\"}} встретить меня здесь{{string value=\"...\"}}\nЗнаешь что?{{pageBreak}}{{anim id=\"BigSmile\" target=\"actor\" targetSpec=\"\"}}Я переехала сюда, на остров\n{{selection value=\"SelectedIslandName\"}}!{{anim id=\"FaintSmile\" target=\"actor\" targetSpec=\"\"}}{{pageBreak}}{{anim id=\"Nodding\" target=\"actor\" targetSpec=\"\"}}{{capitalizeNextLetter}}{{selection value=\"SelectedName\"}} уговорил{{gender7 m=\"\" f=\"а\" n=\"\" pl=\"\"}} меня\nсюда переехать. {{anim id=\"Hesitate\" target=\"actor\" targetSpec=\"\"}}Я только вчера\nзакончила все распаковывать.{{pageBreak}}{{anim id=\"FaintSmile\" target=\"actor\" targetSpec=\"\"}}Если ты тоже здесь живешь,\n{{anim id=\"HappyFlower\" target=\"actor\" targetSpec=\"\"}}то я точно приняла правильное\nрешение.{{pageBreak}}{{anim id=\"FaintSmile\" target=\"actor\" targetSpec=\"\"}}Нам с тобой надо как-нибудь\nвстретиться и поболтать, раз мы\nтеперь соседи. {{capitalizeNextLetter}}{{string value=\"Catchphrase\"}}!"
  },
  {
    "label": "013",
    "attribute": "0x0000000000000000",
    "text": "{{anim id=\"Hesitate\" target=\"actor\" targetSpec=\"\"}}Извини, но у меня даже еще не\nбыло возможности с тобой\nпоговорить. {{anim id=\"FaintSmile\" target=\"actor\" targetSpec=\"\"}}Я теперь здесь живу.{{pageBreak}}{{anim id=\"Explain\" target=\"actor\" targetSpec=\"\"}}{{capitalizeNextLetter}}{{selection value=\"SelectedName\"}} навел{{gender7 m=\"\" f=\"а\" n=\"\" pl=\"\"}} меня на\nидею сюда переехать, {{anim id=\"EmotEnd\" target=\"actor\" targetSpec=\"\"}}а потом я\nузнала, {{anim id=\"FaintSmile\" target=\"actor\" targetSpec=\"\"}}что ты тоже здесь живешь.{{pageBreak}}{{anim id=\"Smiling\" target=\"actor\" targetSpec=\"\"}}{{capitalizeNextLetter}}{{string value=\"Catchphrase\"}}! В таком случае меня,\nконечно, не пришлось уговаривать.{{anim id=\"FaintSmile\" target=\"actor\" targetSpec=\"\"}}{{pageBreak}}Ты только посмотри на нас{{string value=\"...\"}}\n{{anim id=\"BigSmile\" target=\"actor\" targetSpec=\"\"}}Мы теперь соседи!{{anim id=\"FaintSmile\" target=\"actor\" targetSpec=\"\"}}"
  },
  {
    "label": "014",
    "attribute": "0x0000000000000000",
    "text": "{{anim id=\"Sneezing\" target=\"actor\" targetSpec=\"\"}}Апчхи! {{anim id=\"EmotEnd\" target=\"actor\" targetSpec=\"\"}}{{capitalizeNextLetter}}{{string value=\"NickName\"}}{{string value=\"...\"}}{{pageBreak}}{{anim id=\"FaintSmile\" target=\"actor\" targetSpec=\"\"}}Ты удивлен{{gender2 m=\"\" f=\"а\"}} меня здесь видеть?\n{{capitalizeNextLetter}}{{selection value=\"SelectedName\"}} посоветовал{{gender7 m=\"\" f=\"а\" n=\"\" pl=\"\"}}\nмне переехать, что я и сделала.{{pageBreak}}{{anim id=\"Worried\" target=\"actor\" targetSpec=\"\"}}Если бы я сейчас не болела{{string value=\"...\"}}\n{{anim id=\"Sneezing\" target=\"actor\" targetSpec=\"\"}}Апчхи! {{anim id=\"FaintSmile\" target=\"actor\" targetSpec=\"\"}}Я бы предложила\nвстретиться и поболтать. {{anim id=\"Sneezing\" target=\"actor\" targetSpec=\"\"}}Апчхи!{{pageBreak}}{{anim id=\"FaintSmile\" target=\"actor\" targetSpec=\"\"}}Давай это скоро наверстаем,\nхорошо? {{capitalizeNextLetter}}{{string value=\"Catchphrase\"}}!"
  },
  {
    "label": "021",
    "attribute": "0x0000000000000000",
    "text": "{{anim id=\"Hesitate\" target=\"actor\" targetSpec=\"\"}}Ты знал{{gender2 m=\"\" f=\"а\"}}, что я сюда переехала?{{pageBreak}}{{anim id=\"Explain\" target=\"actor\" targetSpec=\"\"}}Кое-кто{{delay8}} с этого острова{{delay20}} пригласил\nменя сюда переехать, {{anim id=\"OhGeez\" target=\"actor\" targetSpec=\"\"}}но этот некто{{delay8}}\nздесь больше не живет.{{pageBreak}}{{anim id=\"Worried\" target=\"actor\" targetSpec=\"\"}}Я уже начала сомневаться,\nправильное ли я приняла решение,\n{{delay8}} {{anim id=\"FaintSmile\" target=\"actor\" targetSpec=\"\"}}но потом я встретила здесь тебя.{{pageBreak}}{{anim id=\"Nodding\" target=\"actor\" targetSpec=\"\"}}Мне уже лучше, {{delay8}}потому что мы\nс тобой побеседовали.{{pageBreak}}{{anim id=\"HappyFlower\" target=\"actor\" targetSpec=\"\"}}Я рада, что мы теперь с тобой\nсоседи. {{capitalizeNextLetter}}{{string value=\"Catchphrase\"}}!"
  },
  {
    "label": "022",
    "attribute": "0x0000000000000000",
    "text": "{{anim id=\"Greeting\" target=\"actor\" targetSpec=\"\"}}Ух ты, {{string value=\"NickName\"}}!\n{{anim id=\"HappyFlower\" target=\"actor\" targetSpec=\"\"}}Я так рада увидеть знакомое лицо.\n{{capitalizeNextLetter}}{{string value=\"Catchphrase\"}}!{{pageBreak}}{{anim id=\"Explain\" target=\"actor\" targetSpec=\"\"}}Кто-то с этого острова уговорил\nменя переехать сюда{{string value=\"...\"}}{{pageBreak}}{{anim id=\"Worried\" target=\"actor\" targetSpec=\"\"}}А потом оказалось, что этот кто-то\nздесь больше не живет, {{anim id=\"Confused\" target=\"actor\" targetSpec=\"\"}}и я даже\nне знала, что думать.{{pageBreak}}{{anim id=\"FaintSmile\" target=\"actor\" targetSpec=\"\"}}Поэтому я так рада видеть тебя\nздесь{{string value=\"...\"}} {{anim id=\"Smiling\" target=\"actor\" targetSpec=\"\"}}Надеюсь, что мы теперь\nбудем часто видеться."
  },
  {
    "label": "024",
    "attribute": "0x0000000000000000",
    "text": "{{anim id=\"Eh\" target=\"actor\" targetSpec=\"\"}}{{capitalizeNextLetter}}{{string value=\"NickName\"}}? {{anim id=\"Sneezing\" target=\"actor\" targetSpec=\"\"}}Апчхи!\n{{anim id=\"Restless\" target=\"actor\" targetSpec=\"\"}}Извини, но я простудилась.{{pageBreak}}{{anim id=\"Worried\" target=\"actor\" targetSpec=\"\"}}Я переехала сюда по совету\nкое-кого, кто здесь больше не\nживет, и сразу заболела{{string value=\"...\"}}{{pageBreak}}{{anim id=\"Confused\" target=\"actor\" targetSpec=\"\"}}Когда я узнала, что я на этом\nострове совсем одна, мне стало\nодиноко.{{pageBreak}}{{anim id=\"Worried\" target=\"actor\" targetSpec=\"\"}}Может, я поэтому заболела? {{anim id=\"Sneezing\" target=\"actor\" targetSpec=\"\"}}Апчхи!{{pageBreak}}{{anim id=\"FaintSmile\" target=\"actor\" targetSpec=\"\"}}Но мне очень приятно видеть тебя.\nДаже сразу легче стало.{{pageBreak}}{{anim id=\"Hesitate\" target=\"actor\" targetSpec=\"\"}}Мне нужно сначала выздороветь,\n{{anim id=\"FaintSmile\" target=\"actor\" targetSpec=\"\"}}а потом я смогу начать здесь\nобживаться. {{capitalizeNextLetter}}{{string value=\"Catchphrase\"}}!"
  },
  {
    "label": "101",
    "attribute": "0x0000000000000000",
    "text": "{{fun_0014003C arg=\"\"}}"
  },
  {
    "label": "101_01",
    "attribute": "0x0000000000000000",
    "text": "{{anim id=\"Smiling\" target=\"actor\" targetSpec=\"\"}}{{capitalizeNextLetter}}{{string value=\"NickName\"}}!{{pageBreak}}Я так рада, что мы встретились{{delay8}} на\nэтом острове.{{delay frames=\"40\"}} {{anim id=\"Assent\" target=\"actor\" targetSpec=\"\"}}И что я наконец-то{{delay8}}\nсюда переехала. {{capitalizeNextLetter}}{{string value=\"Catchphrase\"}}!{{pageBreak}}{{anim id=\"EmotEnd\" target=\"actor\" targetSpec=\"\"}}Мне сейчас надо вещи распаковать,{{delay20}}\n{{anim id=\"Smiling\" target=\"actor\" targetSpec=\"\"}}но у нас еще будет {{delay8}}полно времени,\nчтобы погулять вместе!"
  },
  {
    "label": "101_02",
    "attribute": "0x0000000000000000",
    "text": "{{anim id=\"Smiling\" target=\"actor\" targetSpec=\"\"}}{{capitalizeNextLetter}}{{string value=\"NickName\"}}! Ты приш{{gender2 m=\"ел\" f=\"ла\"}}\nменя навестить? Ты так{{gender2 m=\"ой\" f=\"ая\"}}\nзаботлив{{gender2 m=\"ый\" f=\"ая\"}}!{{pageBreak}}{{anim id=\"Assent\" target=\"actor\" targetSpec=\"\"}}Я переехала, но, как видишь, {{anim id=\"ShyBoy\" target=\"actor\" targetSpec=\"\"}}мне\nеще нужно распаковать все свои\nвещи{{string value=\"...\"}}{{pageBreak}}Спасибо, что ты уговорил{{gender2 m=\"\" f=\"а\"}} меня\nпереехать. {{anim id=\"BigSmile\" target=\"actor\" targetSpec=\"\"}}Я очень рада, что я тебя\nпослушалась! {{capitalizeNextLetter}}{{string value=\"6\"}}!{{anim id=\"FaintSmile\" target=\"actor\" targetSpec=\"\"}}"
  },
  {
    "label": "101_03",
    "attribute": "0x0000000000000000",
    "text": "{{anim id=\"Smiling\" target=\"actor\" targetSpec=\"\"}}{{capitalizeNextLetter}}{{string value=\"NickName\"}}! Спасибо, что ты\nзаш{{gender2 m=\"ел\" f=\"ла\"}} в гости! {{anim id=\"Laughing\" target=\"actor\" targetSpec=\"\"}}Правда, я еще не\nуспела распаковать свои вещи.{{anim id=\"FaintSmile\" target=\"actor\" targetSpec=\"\"}}{{pageBreak}}С сегодняшнего дня я с гордостью\nмогу заявить каждому:\n«{{capitalizeNextLetter}}{{string value=\"OtherIslandName\"}} — мой остров!»{{pageBreak}}{{anim id=\"Greeting\" target=\"actor\" targetSpec=\"\"}}Я рада, что у меня на этом острове\nуже есть {{gender2 m=\"\" f=\"по\"}}друг{{gender2 m=\"\" f=\"а\"}}. {{capitalizeNextLetter}}{{string value=\"6\"}}!{{anim id=\"FaintSmile\" target=\"actor\" targetSpec=\"\"}}"
  },
  {
    "label": "102",
    "attribute": "0x0000000000000000",
    "text": "{{fun_0014003C arg=\"\"}}"
  },
  {
    "label": "102_01",
    "attribute": "0x0000000000000000",
    "text": "{{anim id=\"Smiling\" target=\"actor\" targetSpec=\"\"}}{{capitalizeNextLetter}}{{string value=\"NickName\"}}!{{pageBreak}}Я так рада, что мы с тобой теперь\nживем{{delay20}} на {{anim id=\"Clapping\" target=\"actor\" targetSpec=\"\"}}одном острове!{{delay frames=\"40\"}} {{anim id=\"FaintSmile\" target=\"actor\" targetSpec=\"\"}}Уверена,\nбудет очень весело. {{capitalizeNextLetter}}{{string value=\"Catchphrase\"}}!"
  },
  {
    "label": "102_02",
    "attribute": "0x0000000000000000",
    "text": "{{anim id=\"Hello\" target=\"actor\" targetSpec=\"\"}}{{capitalizeNextLetter}}{{string value=\"NickName\"}}, привет!{{pageBreak}}После нашей с тобой встречи{{delay8}} мне\nтак захотелось{{delay8}} сюда переехать.{{pageBreak}}{{anim id=\"Blushing\" target=\"actor\" targetSpec=\"\"}}Все, кого я здесь повстречала, были\nко мне так добры.{{delay8}} Чувствую, что\nя{{delay20}} в нужном{{delay8}} месте.{{delay8}} {{capitalizeNextLetter}}{{string value=\"Catchphrase\"}}!{{pageBreak}}{{anim id=\"FaintSmile\" target=\"actor\" targetSpec=\"\"}}Приятно знать, что и ты{{delay8}} тоже\nбудешь поблизости!"
  },
  {
    "label": "102_03",
    "attribute": "0x0000000000000000",
    "text": "{{anim id=\"Smiling\" target=\"actor\" targetSpec=\"\"}}Вот мы и встретились снова,\n{{string value=\"NickName\"}}!{{pageBreak}}{{anim id=\"Explain\" target=\"actor\" targetSpec=\"\"}}Я на острове новенькая,{{delay20}} еще никого\nне знаю, {{delay8}}так что приятно увидеть\nзнакомое лицо. {{capitalizeNextLetter}}{{string value=\"Catchphrase\"}}!"
  },
  {
    "label": "103",
    "attribute": "0x0000000000000000",
    "text": "{{anim id=\"Smiling\" target=\"actor\" targetSpec=\"\"}}Привет, {{string value=\"NickName\"}}!{{pageBreak}}А я как раз думала,{{delay8}} когда же увижу\nтебя снова!{{delay8}} Ты ведь еще не в курсе,\nчто я сюда переехала!{{pageBreak}}{{anim id=\"Hesitate\" target=\"actor\" targetSpec=\"\"}}Я бы никогда на такое не решилась,{{delay8}}\nесли бы не твои лестные отзывы{{delay8}}\nоб этом острове.{{delay8}} {{capitalizeNextLetter}}{{string value=\"Catchphrase\"}}!{{pageBreak}}{{anim id=\"Smiling\" target=\"actor\" targetSpec=\"\"}}Так что{{delay8}} спасибо тебе{{string value=\"...\"}} {{delay8}}сосед{{gender2 m=\"\" f=\"ка\"}}!"
  },
  {
    "label": "104",
    "attribute": "0x0000000000000000",
    "text": "{{anim id=\"Sneezing\" target=\"actor\" targetSpec=\"\"}}Апчхи!{{delay frames=\"40\"}} {{anim id=\"EmotEnd\" target=\"actor\" targetSpec=\"\"}}{{capitalizeNextLetter}}{{string value=\"NickName\"}}!{{pageBreak}}Я теперь здесь живу!{{delay20}} Хотя ты,\nнаверное, уже и сам{{gender2 m=\"\" f=\"а\"}} догадал{{gender2 m=\"ся\" f=\"ась\"}}.{{delay8}}\n{{capitalizeNextLetter}}{{string value=\"Catchphrase\"}}!{{pageBreak}}{{anim id=\"ColdChill\" target=\"actor\" targetSpec=\"\"}}Извини,{{delay8}} я немного простудилась,{{delay8}}\nголова как в тумане.{{delay20}} {{anim id=\"Shaking\" target=\"actor\" targetSpec=\"\"}}Не подходи\nблизко,{{delay8}} вдруг заразишься.{{pageBreak}}{{anim id=\"Hesitate\" target=\"actor\" targetSpec=\"\"}}Вот я поправлюсь,{{delay20}} тогда мы\n{{delay8}}встретимся и поболтаем об\nострове {{string value=\"OtherIslandName\"}}, ладно?"
  },
  {
    "label": "201",
    "attribute": "0x0000000000000000",
    "text": "{{fun_0014003C arg=\"\"}}"
  },
  {
    "label": "201_01",
    "attribute": "0x0000000000000000",
    "text": "{{anim id=\"Greeting\" target=\"actor\" targetSpec=\"\"}}{{capitalizeNextLetter}}{{string value=\"NickName\"}}!{{delay8}} Ты уже знаешь\nновость?{{pageBreak}}{{anim id=\"EmotEnd\" target=\"actor\" targetSpec=\"\"}}Я последовала твоему совету{{delay20}}\n{{anim id=\"Smiling\" target=\"actor\" targetSpec=\"\"}}и переехала на этот остров!{{pageBreak}}{{anim id=\"FaintSmile\" target=\"actor\" targetSpec=\"\"}}Сегодня я буду распаковывать\nсвои вещи,{{delay20}} но нам нужно скоро\nвстретиться. {{capitalizeNextLetter}}{{string value=\"Catchphrase\"}}!"
  },
  {
    "label": "201_02",
    "attribute": "0x0000000000000000",
    "text": "{{anim id=\"Smiling\" target=\"actor\" targetSpec=\"\"}}{{capitalizeNextLetter}}{{string value=\"NickName\"}}! Ты приш{{gender2 m=\"ел\" f=\"ла\"}}\nменя навестить? Ты так{{gender2 m=\"ой\" f=\"ая\"}}\nзаботлив{{gender2 m=\"ый\" f=\"ая\"}}!{{pageBreak}}{{anim id=\"Assent\" target=\"actor\" targetSpec=\"\"}}Я переехала, но, как видишь, {{anim id=\"ShyBoy\" target=\"actor\" targetSpec=\"\"}}мне\nеще нужно распаковать все свои\nвещи{{string value=\"...\"}}{{pageBreak}}{{anim id=\"EmotEnd\" target=\"actor\" targetSpec=\"\"}}Спасибо, что уговорил{{gender2 m=\"\" f=\"а\"}} меня\nпереехать.{{delay20}} {{anim id=\"BigSmile\" target=\"actor\" targetSpec=\"\"}}Я так рада, что\nпослушалась тебя! {{capitalizeNextLetter}}{{string value=\"6\"}}!{{anim id=\"FaintSmile\" target=\"actor\" targetSpec=\"\"}}"
  },
  {
    "label": "201_03",
    "attribute": "0x0000000000000000",
    "text": "{{anim id=\"Smiling\" target=\"actor\" targetSpec=\"\"}}{{capitalizeNextLetter}}{{string value=\"NickName\"}}!{{delay20}} Спасибо, что\nзаш{{gender2 m=\"ел\" f=\"ла\"}} в гости!{{delay8}} {{anim id=\"WrySmile\" target=\"actor\" targetSpec=\"\"}}Правда, я еще не\nуспела распаковать свои вещи.{{pageBreak}}{{anim id=\"FaintSmile\" target=\"actor\" targetSpec=\"\"}}С сегодняшнего дня{{delay8}} я с гордостью\nмогу заявить:{{delay8}} {{string value=\"OtherIslandName\"}} —{{delay8}}\nмой остров!{{pageBreak}}{{anim id=\"Greeting\" target=\"actor\" targetSpec=\"\"}}Я рада, что у меня на этом острове\nуже есть {{gender2 m=\"\" f=\"по\"}}друг{{gender2 m=\"\" f=\"а\"}}.{{delay20}} {{capitalizeNextLetter}}{{string value=\"6\"}}!"
  },
  {
    "label": "202",
    "attribute": "0x0000000000000000",
    "text": "{{fun_0014003C arg=\"\"}}"
  },
  {
    "label": "202_01",
    "attribute": "0x0000000000000000",
    "text": "{{anim id=\"Smiling\" target=\"actor\" targetSpec=\"\"}}{{capitalizeNextLetter}}{{string value=\"NickName\"}}! Помнишь меня?\nМы в {{color id=\"1\"}}кемпинге{{color id=\"65535\"}} как-то встретились.\n{{capitalizeNextLetter}}{{string value=\"Catchphrase\"}}!{{pageBreak}}{{anim id=\"FaintSmile\" target=\"actor\" targetSpec=\"\"}}В общем,{{delay8}} ты тогда вдохновил{{gender2 m=\"\" f=\"а\"}} меня{{delay8}}\nпереехать на этот остров!{{delay20}} Надеюсь,\nбудем теперь {{delay8}}часто видеться."
  },
  {
    "label": "202_02",
    "attribute": "0x0000000000000000",
    "text": "{{anim id=\"Greeting\" target=\"actor\" targetSpec=\"\"}}И снова привет, {{string value=\"NickName\"}}!{{pageBreak}}{{anim id=\"Explain\" target=\"actor\" targetSpec=\"\"}}После нашей встречи в {{color id=\"1\"}}кемпинге{{color id=\"65535\"}}{{delay20}}\nя решила{{delay8}} тоже переехать на остров\n{{string value=\"OtherIslandName\"}}! {{capitalizeNextLetter}}{{string value=\"Catchphrase\"}}!{{pageBreak}}{{anim id=\"FaintSmile\" target=\"actor\" targetSpec=\"\"}}Мне очень нравятся{{delay8}} местные\nжители,{{delay20}} {{anim id=\"Blushing\" target=\"actor\" targetSpec=\"\"}}а от того, что ты тоже\nздесь,{{delay8}} мне еще радостней!"
  },
  {
    "label": "202_03",
    "attribute": "0x0000000000000000",
    "text": "{{anim id=\"Smiling\" target=\"actor\" targetSpec=\"\"}}Я так рада, что мы познакомились\nв {{color id=\"1\"}}кемпинге{{color id=\"65535\"}},{{delay8}} {{string value=\"NickName\"}},{{delay20}}\n{{anim id=\"FaintSmile\" target=\"actor\" targetSpec=\"\"}}а теперь живем на одном острове!{{pageBreak}}{{anim id=\"HappyFlower\" target=\"actor\" targetSpec=\"\"}}Начинать на новом месте всегда{{delay8}}\nлегче, когда есть друзья, которые\nмогут помочь. {{capitalizeNextLetter}}{{string value=\"Catchphrase\"}}!"
  },
  {
    "label": "203",
    "attribute": "0x0000000000000000",
    "text": "{{anim id=\"Smiling\" target=\"actor\" targetSpec=\"\"}}А я все думала, встретимся ли мы\nздесь, {{string value=\"NickName\"}}!{{pageBreak}}{{anim id=\"Explain\" target=\"actor\" targetSpec=\"\"}}Наш разговор в {{color id=\"1\"}}кемпинге {{color id=\"65535\"}}вдохновил\nменя на переезд на новое место,\nпричем именно на этот остров.{{pageBreak}}{{anim id=\"HappyFlower\" target=\"actor\" targetSpec=\"\"}}Я так рада нашему соседству!\n{{capitalizeNextLetter}}{{string value=\"Catchphrase\"}}!"
  },
  {
    "label": "204",
    "attribute": "0x0000000000000000",
    "text": "{{anim id=\"Sneezing\" target=\"actor\" targetSpec=\"\"}}Апчхи!{{delay frames=\"60\"}} Привет, {{string value=\"NickName\"}}.\n{{capitalizeNextLetter}}{{string value=\"Catchphrase\"}}!{{pageBreak}}Я рада, что{{delay8}} тогда в {{color id=\"1\"}}кемпинге{{color id=\"65535\"}}{{delay20}} решила\nсюда переехать. {{delay8}}Теперь мы рядом\nживем! Вот только я заболела...{{pageBreak}}{{anim id=\"ColdChill\" target=\"actor\" targetSpec=\"\"}}Простудилась{{delay8}} как раз по приезду,{{delay20}}\nтак что{{delay8}} должна предупредить: стой{{delay8}}\nподальше, чтобы не заразиться!{{pageBreak}}{{anim id=\"Shaking\" target=\"actor\" targetSpec=\"\"}}Как только я поправлюсь,{{delay20}} давай\nвстретимся{{delay8}} и поболтаем {{delay8}}об острове\n{{string value=\"OtherIslandName\"}}, договорились?"
  },
  {
    "label": "211",
    "attribute": "0x0000000000000000",
    "text": "{{fun_0014003C arg=\"\"}}"
  },
  {
    "label": "211_01",
    "attribute": "0x0000000000000000",
    "text": "{{anim id=\"Smiling\" target=\"actor\" targetSpec=\"\"}}Здорово, что мы встретились,\n{{string value=\"NickName\"}}!{{pageBreak}}{{anim id=\"Explain\" target=\"actor\" targetSpec=\"\"}}{{capitalizeNextLetter}}{{selection value=\"SelectedName\"}} предложил{{gender1 m=\"\" f=\"а\"}}\nмне сюда переехать, когда я была\nв {{color id=\"1\"}}кемпинге{{color id=\"65535\"}}.{{delay20}} {{anim id=\"Smiling\" target=\"actor\" targetSpec=\"\"}}И вот я здесь!\n{{anim id=\"Hesitate\" target=\"actor\" targetSpec=\"\"}}Надеюсь, ты поможешь мне тут\nосвоиться.{{delay20}} {{capitalizeNextLetter}}{{string value=\"Catchphrase\"}}!"
  },
  {
    "label": "211_02",
    "attribute": "0x0000000000000000",
    "text": "{{anim id=\"Greeting\" target=\"actor\" targetSpec=\"\"}}Удивлен{{gender2 m=\"\" f=\"а\"}}?{{pageBreak}}{{anim id=\"Explain\" target=\"actor\" targetSpec=\"\"}}Переехать сюда меня {{selection value=\"SelectedName\"}} уговорил{{gender1 m=\"\" f=\"а\"}}.\nМы с {{gender1 m=\"ним\" f=\"ней\"}} в {{color id=\"1\"}}кемпинге {{color id=\"65535\"}}встретились.{{pageBreak}}{{anim id=\"EmotEnd\" target=\"actor\" targetSpec=\"\"}}Теперь мы соседи!{{delay20}} {{anim id=\"BigSmile\" target=\"actor\" targetSpec=\"\"}}Надеюсь, мы\nс тобой будем часто встречаться!{{anim id=\"FaintSmile\" target=\"actor\" targetSpec=\"\"}}{{delay20}}\n{{capitalizeNextLetter}}{{string value=\"Catchphrase\"}}!"
  },
  {
    "label": "212",
    "attribute": "0x0000000000000000",
    "text": "{{fun_0014003C arg=\"\"}}"
  },
  {
    "label": "212_01",
    "attribute": "0x0000000000000000",
    "text": "{{anim id=\"Greeting\" target=\"actor\" targetSpec=\"\"}}Привет,{{delay20}} {{string value=\"NickName\"}}!{{pageBreak}}{{anim id=\"FaintSmile\" target=\"actor\" targetSpec=\"\"}}А я все думала, когда я с тобой\nповстречаюсь. {{capitalizeNextLetter}}{{string value=\"Catchphrase\"}}!{{pageBreak}}{{anim id=\"Explain\" target=\"actor\" targetSpec=\"\"}}{{capitalizeNextLetter}}{{selection value=\"SelectedName\"}}, с котор{{gender1 m=\"ым\" f=\"ой\"}}{{delay20}}\nя встретилась в {{color id=\"1\"}}кемпинге{{color id=\"65535\"}}, очень\nсоветовал{{gender1 m=\"\" f=\"а\"}} переехать сюда жить.{{pageBreak}}{{anim id=\"Hesitate\" target=\"actor\" targetSpec=\"\"}}Теперь будем видеться чаще,\nведь мы{{anim id=\"Grin\" target=\"actor\" targetSpec=\"\"}}{{delay8}}{{string value=\"...\"}} соседи."
  },
  {
    "label": "212_02",
    "attribute": "0x0000000000000000",
    "text": "{{anim id=\"Smiling\" target=\"actor\" targetSpec=\"\"}}Бьюсь об заклад, ты не думал{{gender2 m=\"\" f=\"а\"}}\nменя здесь увидеть{{string value=\"...\"}}{{pageBreak}}{{anim id=\"Explain\" target=\"actor\" targetSpec=\"\"}}{{capitalizeNextLetter}}{{selection value=\"SelectedName\"}} убедил{{gender1 m=\"\" f=\"а\"}} меня\nпереехать сюда, когда мы с {{gender1 m=\"ним\" f=\"ней\"}}\nв {{color id=\"1\"}}кемпинге {{color id=\"65535\"}}виделись.{{pageBreak}}{{anim id=\"HappyFlower\" target=\"actor\" targetSpec=\"\"}}Очень рада, что и ты здесь!{{delay20}}\nС тобой будет веселее.\n{{capitalizeNextLetter}}{{string value=\"Catchphrase\"}}!"
  },
  {
    "label": "213",
    "attribute": "0x0000000000000000",
    "text": "{{anim id=\"Hesitate\" target=\"actor\" targetSpec=\"\"}}Извини, у меня не было времени\nпоговорить с тобой раньше. {{anim id=\"Assent\" target=\"actor\" targetSpec=\"\"}}Я тут\nтеперь живу,{{delay40}} если ты не в курсе.{{pageBreak}}{{anim id=\"Explain\" target=\"actor\" targetSpec=\"\"}}Когда я была в {{color id=\"1\"}}кемпинге{{color id=\"65535\"}},{{delay20}}\n{{selection value=\"SelectedName\"}} дал{{gender1 m=\"\" f=\"а\"}} совет\nпереехать сюда жить.{{pageBreak}}{{anim id=\"FaintSmile\" target=\"actor\" targetSpec=\"\"}}Хорошо, что ты здесь{{delay8}}{{string value=\"...\"}}{{delay20}} Прямо\nрадостно на душе!{{delay20}} {{capitalizeNextLetter}}{{string value=\"Catchphrase\"}}!"
  },
  {
    "label": "214",
    "attribute": "0x0000000000000000",
    "text": "{{anim id=\"Sneezing\" target=\"actor\" targetSpec=\"\"}}Апчхи!!!{{delay frames=\"40\"}} {{anim id=\"Hesitate\" target=\"actor\" targetSpec=\"\"}}Привет, {{string value=\"NickName\"}}!\nНе ожидал{{gender2 m=\"\" f=\"а\"}} меня здесь увидеть?{{pageBreak}}{{anim id=\"Explain\" target=\"actor\" targetSpec=\"\"}}{{capitalizeNextLetter}}{{selection value=\"SelectedName\"}} предложил{{gender1 m=\"\" f=\"а\"}}\nмне сюда переехать, когда мы\nвиделись в {{color id=\"1\"}}кемпинге{{color id=\"65535\"}}.{{pageBreak}}{{anim id=\"Worried\" target=\"actor\" targetSpec=\"\"}}Эх, если б я не простудилась{{delay8}}{{string value=\"...\"}}\n{{anim id=\"Sneezing\" target=\"actor\" targetSpec=\"\"}}Апчхи!!!{{delay frames=\"40\"}} {{anim id=\"EmotEnd\" target=\"actor\" targetSpec=\"\"}}Можно было бы пойти\nкуда{{string value=\"...\"}} а{{string value=\"...\"}} {{anim id=\"Sneezing\" target=\"actor\" targetSpec=\"\"}}апчхи!!!{{pageBreak}}{{anim id=\"FaintSmile\" target=\"actor\" targetSpec=\"\"}}Давай встретимся, когда я наконец\nпоправлюсь. {{capitalizeNextLetter}}{{string value=\"Catchphrase\"}}!"
  },
  {
    "label": "221",
    "attribute": "0x0000000000000000",
    "text": "{{anim id=\"Hesitate\" target=\"actor\" targetSpec=\"\"}}Ты не знал{{gender2 m=\"\" f=\"а\"}}, что я переехала сюда?{{pageBreak}}{{anim id=\"Explain\" target=\"actor\" targetSpec=\"\"}}Когда я была в {{color id=\"1\"}}кемпинге{{color id=\"65535\"}}, некто\nс этого острова уговорил меня\nостаться здесь жить.{{pageBreak}}{{anim id=\"Worried\" target=\"actor\" targetSpec=\"\"}}Я сейчас в расстроенных чувствах.{{delay20}}\nВсе думаю, правильно ли сделала,\nчто переехала.{{delay40}} {{anim id=\"FaintSmile\" target=\"actor\" targetSpec=\"\"}}Ну раз ты тут{{string value=\"...\"}}\n{{anim id=\"HappyFlower\" target=\"actor\" targetSpec=\"\"}}Буду общаться с тобой почаще!\n{{delay20}}Ведь мы теперь соседи!{{delay20}}\n{{capitalizeNextLetter}}{{string value=\"Catchphrase\"}}!"
  },
  {
    "label": "222",
    "attribute": "0x0000000000000000",
    "text": "{{anim id=\"Shocked\" target=\"actor\" targetSpec=\"\"}}О, это ты, {{delay8}}{{string value=\"NickName\"}}?{{delay40}}\nРада встрече!{{pageBreak}}{{anim id=\"Explain\" target=\"actor\" targetSpec=\"\"}}Когда я была в {{color id=\"1\"}}кемпинге{{color id=\"65535\"}},{{delay20}} один из\nместных уговорил меня переехать\nсюда.{{delay40}} И вот я здесь{{string value=\"...\"}}{{pageBreak}}{{anim id=\"Worried\" target=\"actor\" targetSpec=\"\"}}А того, кто меня сюда пригласил,\nи след простыл.{{delay20}} {{anim id=\"Serious\" target=\"actor\" targetSpec=\"\"}}Я прямо не знала,\nчто мне делать.{{delay20}} {{capitalizeNextLetter}}{{string value=\"Catchphrase\"}}.\n{{anim id=\"FaintSmile\" target=\"actor\" targetSpec=\"\"}}Но если ты тоже здесь{{delay8}}{{string value=\"...\"}}{{anim id=\"Smiling\" target=\"actor\" targetSpec=\"\"}} то все\nне так уж плохо!"
  },
  {
    "label": "224",
    "attribute": "0x0000000000000000",
    "text": "{{anim id=\"Eh\" target=\"actor\" targetSpec=\"\"}}{{capitalizeNextLetter}}{{string value=\"NickName\"}}?{{delay frames=\"40\"}} {{anim id=\"Sneezing\" target=\"actor\" targetSpec=\"\"}}Апчхи!!!{{delay frames=\"40\"}}\n{{anim id=\"EmotEnd\" target=\"actor\" targetSpec=\"\"}}Извини{{delay8}}{{string value=\"...\"}} я простудилась.{{pageBreak}}{{anim id=\"Explain\" target=\"actor\" targetSpec=\"\"}}Когда я была в {{color id=\"1\"}}кемпинге{{color id=\"65535\"}},{{delay20}} один\nместный предложил мне сюда\nпереехать. {{delay40}}{{anim id=\"Sighing\" target=\"actor\" targetSpec=\"\"}}А сам отсюда уехал...{{pageBreak}}{{anim id=\"Restless\" target=\"actor\" targetSpec=\"\"}}Переезд — это всегда стресс.{{delay40}}\n{{anim id=\"Thinking\" target=\"actor\" targetSpec=\"\"}}Немудрено заболеть, когда\n{{delay20}}живешь в постоянном напряжении.{{pageBreak}}{{anim id=\"Sneezing\" target=\"actor\" targetSpec=\"\"}}Апчхи!{{delay frames=\"40\"}} {{anim id=\"FaintSmile\" target=\"actor\" targetSpec=\"\"}}Тот факт, что ты рядом,\nуспокаивает. {{anim id=\"Hesitate\" target=\"actor\" targetSpec=\"\"}}Когда поправлюсь,{{delay20}}\n{{anim id=\"FaintSmile\" target=\"actor\" targetSpec=\"\"}}обязательно увидимся!"
  },
  {
    "label": "301",
    "attribute": "0x0000000000000000",
    "text": "{{fun_0014003C arg=\"\"}}"
  },
  {
    "label": "301_01",
    "attribute": "0x0000000000000000",
    "text": "{{anim id=\"Greeting\" target=\"actor\" targetSpec=\"\"}}Спасибо, что решил{{gender2 m=\"\" f=\"а\"}} навестить\nменя{{delay20}} сразу после переезда,{{delay20}}\n{{string value=\"NickName\"}}!{{pageBreak}}{{anim id=\"Hesitate\" target=\"actor\" targetSpec=\"\"}}И отдельное спасибо за то, что\nпригласил{{gender2 m=\"\" f=\"а\"}} меня переехать сюда\nжить тогда в {{color id=\"1\"}}кемпинге{{color id=\"65535\"}}.{{pageBreak}}{{anim id=\"Smiling\" target=\"actor\" targetSpec=\"\"}}Я сразу же собрала вещи\nи переехала! {{anim id=\"Nodding\" target=\"actor\" targetSpec=\"\"}}К завтрашнему дню\nдолжна все разобрать.{{pageBreak}}{{anim id=\"FaintSmile\" target=\"actor\" targetSpec=\"\"}}Давай тогда с тобой и увидимся!\n{{capitalizeNextLetter}}{{string value=\"Catchphrase\"}}!"
  },
  {
    "label": "301_02",
    "attribute": "0x0000000000000000",
    "text": "{{anim id=\"Aha\" target=\"actor\" targetSpec=\"\"}}{{capitalizeNextLetter}}{{string value=\"NickName\"}}!{{delay40}} {{anim id=\"Smiling\" target=\"actor\" targetSpec=\"\"}}Так мило\nс твоей стороны меня проведать!{{pageBreak}}{{anim id=\"Hesitate\" target=\"actor\" targetSpec=\"\"}}Как же здорово, что ты уговорил{{gender2 m=\"\" f=\"а\"}}\nменя переехать сюда, когда\nмы были в {{color id=\"1\"}}кемпинге{{color id=\"65535\"}}.{{pageBreak}}{{anim id=\"Explain\" target=\"actor\" targetSpec=\"\"}}Мне надо тут до конца разобрать\nсвои вещи.{{delay20}} Думаю, до завтра\nя справлюсь.{{pageBreak}}{{anim id=\"Greeting\" target=\"actor\" targetSpec=\"\"}}Увидимся завтра!{{delay20}} {{capitalizeNextLetter}}{{string value=\"Catchphrase\"}}!"
  },
  {
    "label": "301_03",
    "attribute": "0x0000000000000000",
    "text": "{{anim id=\"Aha\" target=\"actor\" targetSpec=\"\"}}{{capitalizeNextLetter}}{{string value=\"NickName\"}}!{{delay frames=\"40\"}} {{anim id=\"Worried\" target=\"actor\" targetSpec=\"\"}}Извини,\nу меня такой бардак{{delay8}}{{string value=\"...\"}}{{anim id=\"EmotEnd\" target=\"actor\" targetSpec=\"\"}}{{pageBreak}}Я только-только приехала{{delay20}} {{anim id=\"Hesitate\" target=\"actor\" targetSpec=\"\"}}и еще\nне успела ничего толком разобрать.{{pageBreak}}{{anim id=\"Explain\" target=\"actor\" targetSpec=\"\"}}Как только ты мне предложил{{gender2 m=\"\" f=\"а\"}}\nв {{color id=\"1\"}}кемпинге {{color id=\"65535\"}}переехать сюда жить,\nя не хотела терять ни секунды!{{pageBreak}}{{anim id=\"Smiling\" target=\"actor\" targetSpec=\"\"}}Какая же эта была хорошая идея!{{delay20}}\n{{capitalizeNextLetter}}{{string value=\"Catchphrase\"}}! {{anim id=\"FaintSmile\" target=\"actor\" targetSpec=\"\"}}Надеюсь,{{delay20}} теперь мы\nсможем чаще встречаться, {{delay8}}{{anim id=\"Hello\" target=\"actor\" targetSpec=\"\"}}сосед{{gender2 m=\"\" f=\"ка\"}}!"
  },
  {
    "label": "302",
    "attribute": "0x0000000000000000",
    "text": "{{fun_0014003C arg=\"\"}}"
  },
  {
    "label": "302_01",
    "attribute": "0x0000000000000000",
    "text": "{{anim id=\"Greeting\" target=\"actor\" targetSpec=\"\"}}Рада видеть,{{delay20}} {{string value=\"NickName\"}}!{{pageBreak}}{{anim id=\"FaintSmile\" target=\"actor\" targetSpec=\"\"}}Спасибо за то, что пригласил{{gender2 m=\"\" f=\"а\"}}{{delay20}}\nменя в {{color id=\"1\"}}кемпинге {{color id=\"65535\"}}остаться жить\nна острове!{{pageBreak}}{{anim id=\"Hesitate\" target=\"actor\" targetSpec=\"\"}}Я почти расплакалась от счастья,\n{{delay20}}когда ты это сделал{{gender2 m=\"\" f=\"а\"}}!{{delay20}} {{capitalizeNextLetter}}{{string value=\"Catchphrase\"}}.{{pageBreak}}{{anim id=\"BigSmile\" target=\"actor\" targetSpec=\"\"}}Благодаря тебе я теперь являюсь\nполноправным жителем\nострова{{delay20}} {{string value=\"IslandName\"}}!"
  },
  {
    "label": "302_02",
    "attribute": "0x0000000000000000",
    "text": "{{anim id=\"Greeting\" target=\"actor\" targetSpec=\"\"}}{{capitalizeNextLetter}}{{string value=\"NickName\"}}!{{pageBreak}}{{anim id=\"Explain\" target=\"actor\" targetSpec=\"\"}}А я после переезда только и думаю,\nкогда же мы с тобой встретимся.{{pageBreak}}{{anim id=\"Hesitate\" target=\"actor\" targetSpec=\"\"}}Спасибо тебе за то, что тогда\nв {{color id=\"1\"}}кемпинге {{color id=\"65535\"}}уговорил{{gender2 m=\"\" f=\"а\"}} меня сюда\nпереехать.{{pageBreak}}{{anim id=\"BigSmile\" target=\"actor\" targetSpec=\"\"}}Это было лучшее решение в моей\nжизни!{{delay frames=\"40\"}} {{anim id=\"FaintSmile\" target=\"actor\" targetSpec=\"\"}}Я так рада, что мы с тобой\nтеперь соседи!{{delay20}} {{capitalizeNextLetter}}{{string value=\"Catchphrase\"}}."
  },
  {
    "label": "302_03",
    "attribute": "0x0000000000000000",
    "text": "{{anim id=\"Greeting\" target=\"actor\" targetSpec=\"\"}}Привет,{{delay20}} {{string value=\"NickName\"}}!{{pageBreak}}{{anim id=\"Pardon\" target=\"actor\" targetSpec=\"\"}}Странно, что мы с тобой только\nсейчас встретились, правда?\n{{capitalizeNextLetter}}{{string value=\"Catchphrase\"}}!{{pageBreak}}{{anim id=\"Hesitate\" target=\"actor\" targetSpec=\"\"}}Спасибо тебе! Если бы ты тогда\nв {{color id=\"1\"}}кемпинге {{color id=\"65535\"}}не убедил{{gender2 m=\"\" f=\"а\"}} меня\nпереехать{{string value=\"...\"}} я бы не переехала!{{pageBreak}}{{anim id=\"HappyDance\" target=\"actor\" targetSpec=\"\"}}Даже не верится, что мы теперь\nс тобой соседи!"
  },
  {
    "label": "303",
    "attribute": "0x0000000000000000",
    "text": "{{anim id=\"Aha\" target=\"actor\" targetSpec=\"\"}}О,{{delay20}} {{string value=\"NickName\"}}!{{pageBreak}}{{anim id=\"Worried\" target=\"actor\" targetSpec=\"\"}}Мы с тобой в последний раз\nв {{color id=\"1\"}}кемпинге{{color id=\"65535\"}} виделись. {{delay20}}{{capitalizeNextLetter}}{{string value=\"Catchphrase\"}}.{{pageBreak}}{{anim id=\"Hesitate\" target=\"actor\" targetSpec=\"\"}}Наверное,{{delay20}} ты даже не помнишь,\nкак уговорил{{gender2 m=\"\" f=\"а\"}} меня переехать\nна остров {{string value=\"OtherIslandName\"}}.{{pageBreak}}Хочу{{delay20}} {{anim id=\"Smiling\" target=\"actor\" targetSpec=\"\"}}поблагодарить за твой совет!\nМне здесь очень нравится,{{delay20}} и я рада,\nчто мы теперь соседи."
  },
  {
    "label": "304",
    "attribute": "0x0000000000000000",
    "text": "{{anim id=\"Shocked\" target=\"actor\" targetSpec=\"\"}}Ой,{{delay20}} это ты, {{string value=\"NickName\"}}!{{delay frames=\"40\"}}\n{{anim id=\"EmotEnd\" target=\"actor\" targetSpec=\"\"}}Мы с тобой да{{string value=\"...\"}} {{anim id=\"Sneezing\" target=\"actor\" targetSpec=\"\"}}апчхи!!!{{pageBreak}}{{anim id=\"Worried\" target=\"actor\" targetSpec=\"\"}}Извини,{{delay20}} я простудилась.{{delay40}} {{anim id=\"Hesitate\" target=\"actor\" targetSpec=\"\"}}Мы с тобой\nне виделись с тех пор, как ты{{delay20}}\nубедил{{gender2 m=\"\" f=\"а\"}} меня сюда переехать.{{pageBreak}}Как видишь,{{delay20}} я быстро последовала\nтвоему сов{{string value=\"...\"}} {{anim id=\"Sneezing\" target=\"actor\" targetSpec=\"\"}}Апчхи!{{delay frames=\"40\"}} {{anim id=\"Restless\" target=\"actor\" targetSpec=\"\"}}Извини.{{delay40}} Давай\nвстретимся, когда я поправлюсь."
  },
  {
    "label": "311",
    "attribute": "0x0000000000000000",
    "text": "{{fun_0014003C arg=\"\"}}"
  },
  {
    "label": "311_01",
    "attribute": "0x0000000000000000",
    "text": "{{anim id=\"Greeting\" target=\"actor\" targetSpec=\"\"}}Спасибо, что заш{{gender2 m=\"ел\" f=\"ла\"}} меня проведать,{{delay20}}\n{{string value=\"NickName\"}}!{{pageBreak}}{{anim id=\"Explain\" target=\"actor\" targetSpec=\"\"}}Тут все на острове такие милые.{{delay20}}\nКогда я была в {{color id=\"1\"}}кемпинге{{color id=\"65535\"}}, все\nменя поддерживали.{{pageBreak}}{{anim id=\"AbsentMindedness\" target=\"actor\" targetSpec=\"\"}}Я влюбилась в этот остров\nс первого взгляда!{{delay20}} {{capitalizeNextLetter}}{{string value=\"Catchphrase\"}}!{{pageBreak}}{{anim id=\"Smiling\" target=\"actor\" targetSpec=\"\"}}Поэтому, когда {{selection value=\"SelectedName\"}}\nпредложил{{gender1 m=\"\" f=\"а\"}} мне переехать сюда,{{delay20}}\nя не раздумывала ни секунды!{{pageBreak}}{{anim id=\"Restless\" target=\"actor\" targetSpec=\"\"}}Я тут{{delay20}} еще не все разобрала,{{delay20}} так что\nдавай {{anim id=\"FaintSmile\" target=\"actor\" targetSpec=\"\"}}поболтаем в следующий раз.{{delay40}}\nДо скорого!"
  },
  {
    "label": "311_02",
    "attribute": "0x0000000000000000",
    "text": "{{anim id=\"Aha\" target=\"actor\" targetSpec=\"\"}}Ого, это же {{string value=\"NickName\"}}!{{delay frames=\"40\"}}\n{{anim id=\"Greeting\" target=\"actor\" targetSpec=\"\"}}А я твоя новая соседка!{{pageBreak}}{{anim id=\"Hesitate\" target=\"actor\" targetSpec=\"\"}}Когда я в была в{{color id=\"1\"}} кемпинге{{color id=\"65535\"}}{{delay20}}, все\nбыли так милы ко мне.{{pageBreak}}{{anim id=\"EmotEnd\" target=\"actor\" targetSpec=\"\"}}{{capitalizeNextLetter}}{{selection value=\"SelectedName\"}} только\nнамекнул{{gender1 m=\"\" f=\"а\"}} о переезде,\nи я тут же согласилась!{{pageBreak}}Я еще, правда,{{delay20}} не все вещи\nразобрала.{{pageBreak}}{{anim id=\"BigSmile\" target=\"actor\" targetSpec=\"\"}}Когда я обустроюсь,{{delay20}} будем с тобой\nчасто-часто встречаться.\n{{anim id=\"FaintSmile\" target=\"actor\" targetSpec=\"\"}}{{delay20}} {{capitalizeNextLetter}}{{string value=\"Catchphrase\"}}!"
  },
  {
    "label": "312",
    "attribute": "0x0000000000000000",
    "text": "{{fun_0014003C arg=\"\"}}"
  },
  {
    "label": "312_01",
    "attribute": "0x0000000000000000",
    "text": "{{anim id=\"Shocked\" target=\"actor\" targetSpec=\"\"}}Привет,{{delay20}} {{string value=\"NickName\"}}!{{pageBreak}}{{anim id=\"Hesitate\" target=\"actor\" targetSpec=\"\"}}{{delay20}}Помнишь, мы с тобой\nв {{color id=\"1\"}}кемпинге {{color id=\"65535\"}}виделись?{{pageBreak}}{{anim id=\"AbsentMindedness\" target=\"actor\" targetSpec=\"\"}}С тех пор я прямо-таки влюбилась\nв остров {{string value=\"OtherIslandName\"}}{{string value=\"...\"}}{{pageBreak}}{{anim id=\"Explain\" target=\"actor\" targetSpec=\"\"}}И когда {{selection value=\"SelectedName\"}}\nпредложил{{gender1 m=\"\" f=\"а\"}} сюда переехать,\nя не сомневалась ни секунды.{{pageBreak}}{{anim id=\"HappyFlower\" target=\"actor\" targetSpec=\"\"}}Я так рада,{{delay20}} что мы с тобой теперь\nсоседи. {{delay20}}{{capitalizeNextLetter}}{{string value=\"Catchphrase\"}}!"
  },
  {
    "label": "312_02",
    "attribute": "0x0000000000000000",
    "text": "{{anim id=\"HappyDance\" target=\"actor\" targetSpec=\"\"}}Рада встрече,{{delay20}} {{string value=\"NickName\"}}!{{delay frames=\"40\"}}{{pageBreak}}{{anim id=\"Pardon\" target=\"actor\" targetSpec=\"\"}}Ты не знал{{gender2 m=\"\" f=\"а\"}}, что я здесь живу?{{pageBreak}}{{anim id=\"AbsentMindedness\" target=\"actor\" targetSpec=\"\"}}Когда я была в {{color id=\"1\"}}кемпинге{{color id=\"65535\"}},{{delay20}} все\nбыли такими милыми.{{anim id=\"Explain\" target=\"actor\" targetSpec=\"\"}} Особенно\n{{selection value=\"SelectedName\"}}{{delay8}}{{string value=\"...\"}}{{pageBreak}}{{anim id=\"EmotEnd\" target=\"actor\" targetSpec=\"\"}}Именно {{gender1 m=\"он\" f=\"она\"}}{{delay20}} {{anim id=\"Nodding\" target=\"actor\" targetSpec=\"\"}}и настоял{{gender1 m=\"\" f=\"а\"}} на том,\nчтобы я сюда переехала.{{delay40}} {{anim id=\"Smiling\" target=\"actor\" targetSpec=\"\"}}И я очень\nэтому рада!{{delay20}} {{capitalizeNextLetter}}{{string value=\"Catchphrase\"}}!"
  },
  {
    "label": "313",
    "attribute": "0x0000000000000000",
    "text": "{{anim id=\"Aha\" target=\"actor\" targetSpec=\"\"}}О,{{delay20}} {{string value=\"NickName\"}}!{{pageBreak}}{{anim id=\"FaintSmile\" target=\"actor\" targetSpec=\"\"}}Мы с тобой в последний раз\nв {{color id=\"1\"}}кемпинге {{color id=\"65535\"}}виделись.{{delay20}}\n{{capitalizeNextLetter}}{{string value=\"Catchphrase\"}}!{{pageBreak}}{{anim id=\"AbsentMindedness\" target=\"actor\" targetSpec=\"\"}}Я именно тогда {{delay20}}полюбила этот\nостров {{delay20}}{{anim id=\"Love\" target=\"actor\" targetSpec=\"\"}}и всех его жителей.{{pageBreak}}{{anim id=\"Grin\" target=\"actor\" targetSpec=\"\"}}{{capitalizeNextLetter}}{{selection value=\"SelectedName\"}} просто между\nделом предложил{{gender1 m=\"\" f=\"а\"}} здесь остаться\nжить, и я сразу согласилась.{{pageBreak}}{{anim id=\"Smiling\" target=\"actor\" targetSpec=\"\"}}Я очень рада, что мы можем теперь\nчасто видеться!{{delay40}} {{anim id=\"Greeting\" target=\"actor\" targetSpec=\"\"}}Надеюсь, ты тоже\nэтому рад{{gender2 m=\"\" f=\"а\"}}."
  },
  {
    "label": "314",
    "attribute": "0x0000000000000000",
    "text": "{{anim id=\"Shocked\" target=\"actor\" targetSpec=\"\"}}Привет-привет,{{delay20}} {{string value=\"NickName\"}}!{{pageBreak}}Мы с тобой в последний раз\nв {{color id=\"1\"}}кемпинге {{color id=\"65535\"}}виделись, но{{string value=\"...\"}} {{anim id=\"Sneezing\" target=\"actor\" targetSpec=\"\"}}Апчхи!!!{{pageBreak}}{{anim id=\"Restless\" target=\"actor\" targetSpec=\"\"}}Извини{{delay8}}{{string value=\"...\"}} {{anim id=\"EmotEnd\" target=\"actor\" targetSpec=\"\"}}{{anim id=\"Nodding\" target=\"actor\" targetSpec=\"\"}} {{capitalizeNextLetter}}{{selection value=\"SelectedName\"}}\nпредложил{{gender1 m=\"\" f=\"а\"}} мне тогда сюда\nпереехать. Отказаться я не могла!{{pageBreak}}{{anim id=\"Worried\" target=\"actor\" targetSpec=\"\"}}Жаль, что мы встретились как раз\nтогда, когда я простудилась{{delay8}}{{string value=\"...\"}}{{pageBreak}}{{anim id=\"FaintSmile\" target=\"actor\" targetSpec=\"\"}}Как только я поправлюсь,{{delay20}}\nсразу встретимся.{{delay40}} {{anim id=\"Sneezing\" target=\"actor\" targetSpec=\"\"}}Апчхи!!!"
  },
  {
    "label": "321",
    "attribute": "0x0000000000000000",
    "text": "{{anim id=\"Shocked\" target=\"actor\" targetSpec=\"\"}}Ты не знал{{gender2 m=\"\" f=\"а\"}}, что я сюда переехала,\n{{delay20}}{{string value=\"NickName\"}}?{{pageBreak}}{{anim id=\"Explain\" target=\"actor\" targetSpec=\"\"}}Меня уговорил сделать это один\nиз жителей острова, которого\nя встретила в {{color id=\"1\"}}кемпинге{{color id=\"65535\"}}{{delay8}}{{string value=\"...\"}}{{pageBreak}}Но в {{color id=\"1\"}}бюро услуг{{color id=\"65535\"}} мне сказали,{{delay20}} {{anim id=\"OhGeez\" target=\"actor\" targetSpec=\"\"}}что\nэтого жителя уже нет на острове.{{pageBreak}}{{anim id=\"Worried\" target=\"actor\" targetSpec=\"\"}}Мне было как-то не по себе,{{delay20}} но\n{{anim id=\"FaintSmile\" target=\"actor\" targetSpec=\"\"}}раз ты тут, то все в порядке!"
  },
  {
    "label": "322",
    "attribute": "0x0000000000000000",
    "text": "О,{{delay20}} {{string value=\"NickName\"}}!{{pageBreak}}{{anim id=\"HappyDance\" target=\"actor\" targetSpec=\"\"}}Так приятно видеть знакомое лицо!{{pageBreak}}{{anim id=\"Explain\" target=\"actor\" targetSpec=\"\"}}Один из жителей острова, которого\nя встретила в {{color id=\"1\"}}кемпинге{{color id=\"65535\"}},{{delay20}} уговорил\nменя сюда переехать.{{pageBreak}}{{anim id=\"Worried\" target=\"actor\" targetSpec=\"\"}}А сам отсюда уехал. {{anim id=\"Restless\" target=\"actor\" targetSpec=\"\"}}Я из-за этого\nсильно расстроилась,{{delay20}} но {{anim id=\"Smiling\" target=\"actor\" targetSpec=\"\"}}раз ты тут,\nто все хорошо!{{delay20}} {{capitalizeNextLetter}}{{string value=\"Catchphrase\"}}!"
  },
  {
    "label": "324",
    "attribute": "0x0000000000000000",
    "text": "{{anim id=\"Eh\" target=\"actor\" targetSpec=\"\"}}{{capitalizeNextLetter}}{{string value=\"NickName\"}}!{{delay frames=\"40\"}} {{anim id=\"Sneezing\" target=\"actor\" targetSpec=\"\"}}Апчхи!!!{{pageBreak}}{{anim id=\"Restless\" target=\"actor\" targetSpec=\"\"}}Извини.{{delay40}} Я тут простудилась.{{pageBreak}}{{anim id=\"Worried\" target=\"actor\" targetSpec=\"\"}}{{delay20}}Когда я была в {{color id=\"1\"}}кемпинге{{color id=\"65535\"}},{{delay20}} один из\nжителей этого острова уговорил\nменя переехать сюда жить{{string value=\"...\"}}{{pageBreak}}{{anim id=\"Restless\" target=\"actor\" targetSpec=\"\"}}Я сюда переехала,{{delay20}} а этот житель\nсловно под землю провалился.\n{{delay20}}{{anim id=\"Angry\" target=\"actor\" targetSpec=\"\"}}Да вдобавок ко всему заболела.{{pageBreak}}{{anim id=\"Sneezing\" target=\"actor\" targetSpec=\"\"}}Апчхи!!!{{delay frames=\"40\"}} {{anim id=\"FaintSmile\" target=\"actor\" targetSpec=\"\"}}Но вот смотрю на тебя{{delay20}}\nи прямо чувствую прилив сил!"
  },
  {
    "label": "401",
    "attribute": "0x0000000000000000",
    "text": "{{anim id=\"Aha\" target=\"actor\" targetSpec=\"\"}}{{capitalizeNextLetter}}{{string value=\"NickName\"}}! Ты уже\nслышал{{gender2 m=\"\" f=\"а\"}}, {{anim id=\"FaintSmile\" target=\"actor\" targetSpec=\"\"}}что я вернулась?\n{{capitalizeNextLetter}}{{string value=\"Catchphrase\"}}!{{pageBreak}}{{anim id=\"Smiling\" target=\"actor\" targetSpec=\"\"}}{{capitalizeNextLetter}}{{string value=\"OtherIslandName\"}}! Я так рада, что\nя снова живу на этом острове.\n{{anim id=\"HappyFlower\" target=\"actor\" targetSpec=\"\"}}Теперь мы сможем чаще видеться.{{pageBreak}}{{anim id=\"Explain\" target=\"actor\" targetSpec=\"\"}}Сегодня мне нужно распаковывать\nсвои вещи, {{anim id=\"FaintSmile\" target=\"actor\" targetSpec=\"\"}}но когда я обустроюсь,\nнам нужно встретиться и поболтать."
  },
  {
    "label": "402",
    "attribute": "0x0000000000000000",
    "text": "{{anim id=\"Hesitate\" target=\"actor\" targetSpec=\"\"}}{{capitalizeNextLetter}}{{string value=\"NickName\"}}, ты меня\nпомнишь?{{i10_4}} {{anim id=\"FaintSmile\" target=\"actor\" targetSpec=\"\"}}Это я, {{string value=\"VillagerName\"}}!{{pageBreak}}{{capitalizeNextLetter}}{{string value=\"OtherIslandName\"}} — это же мой\nродной остров.{{pageBreak}}{{anim id=\"Smiling\" target=\"actor\" targetSpec=\"\"}}Я теперь решила вернуться.\n{{anim id=\"AbsentMindedness\" target=\"actor\" targetSpec=\"\"}}Мне все напоминает о том,\nкак я раньше здесь жила{{string value=\"...\"}}{{pageBreak}}{{anim id=\"FaintSmile\" target=\"actor\" targetSpec=\"\"}}{{capitalizeNextLetter}}{{string value=\"Catchphrase\"}}! Хорошо, что мы\nсегодня встретились! {{anim id=\"Hello\" target=\"actor\" targetSpec=\"\"}}Не пропадай!"
  },
  {
    "label": "404",
    "attribute": "0x0000000000000000",
    "text": "{{anim id=\"Greeting\" target=\"actor\" targetSpec=\"\"}}Ой, привет, {{string value=\"NickName\"}}!\n{{anim id=\"Sneezing\" target=\"actor\" targetSpec=\"\"}}Апчхи! {{anim id=\"Worried\" target=\"actor\" targetSpec=\"\"}}Извини, но я болею.\n{{anim id=\"QuestionMark\" target=\"actor\" targetSpec=\"\"}}А ты меня еще помнишь?{{pageBreak}}{{anim id=\"Hesitate\" target=\"actor\" targetSpec=\"\"}}Это же я, {{string value=\"VillagerName\"}}! Я здесь\nраньше жила{{string value=\"...\"}} {{anim id=\"Sneezing\" target=\"actor\" targetSpec=\"\"}}Апчхи!{{pageBreak}}{{anim id=\"FaintSmile\" target=\"actor\" targetSpec=\"\"}}Я так рада, что я вернулась на свой\nлюбимый остров {{string value=\"OtherIslandName\"}},\n{{anim id=\"Worried\" target=\"actor\" targetSpec=\"\"}}вот только простуда меня одолела.{{pageBreak}}{{anim id=\"FaintSmile\" target=\"actor\" targetSpec=\"\"}}Давай встретимся, когда мне будет\nлучше. {{capitalizeNextLetter}}{{string value=\"Catchphrase\"}}!"
  },
  {
    "label": "411",
    "attribute": "0x0000000000000000",
    "text": "{{anim id=\"Greeting\" target=\"actor\" targetSpec=\"\"}}{{capitalizeNextLetter}}{{string value=\"NickName\"}}, знаешь что?\n{{string value=\"VillagerName\"}} вернулась на свой\n{{anim id=\"Hello\" target=\"actor\" targetSpec=\"\"}}любимый остров {{string value=\"OtherIslandName\"}}!{{pageBreak}}{{anim id=\"Worried\" target=\"actor\" targetSpec=\"\"}}Странно говорить о себе в третьем\nлице{{string value=\"...\"}} {{capitalizeNextLetter}}{{string value=\"Catchphrase\"}}!{{pageBreak}}{{anim id=\"Hesitate\" target=\"actor\" targetSpec=\"\"}}Я просто рада, что мы с тобой\nснова живем на одном острове.\n{{anim id=\"HappyFlower\" target=\"actor\" targetSpec=\"\"}}Будем хорошими соседями!"
  },
  {
    "label": "412",
    "attribute": "0x0000000000000000",
    "text": "{{fun_0014003C arg=\"\"}}"
  },
  {
    "label": "412_01",
    "attribute": "0x0000000000000000",
    "text": "{{anim id=\"Shocked\" target=\"actor\" targetSpec=\"\"}}{{capitalizeNextLetter}}{{string value=\"NickName\"}}!\nЧто ты здесь делаешь?{{pageBreak}}{{anim id=\"Thinking\" target=\"actor\" targetSpec=\"\"}}Постой{{string value=\"...\"}} {{delay8}}{{anim id=\"Nodding\" target=\"actor\" targetSpec=\"\"}}Вот почему название\n{{string value=\"OtherIslandName\"}} показалось мне\nзнакомым!{{pageBreak}}{{anim id=\"FaintSmile\" target=\"actor\" targetSpec=\"\"}}Это же ты на этом острове живешь!\n{{anim id=\"Smiling\" target=\"actor\" targetSpec=\"\"}}Я теперь тоже здесь живу.{{delay8}}\n{{anim id=\"HappyFlower\" target=\"actor\" targetSpec=\"\"}}Будем соседями! {{capitalizeNextLetter}}{{string value=\"Catchphrase\"}}!"
  },
  {
    "label": "412_02",
    "attribute": "0x0000000000000000",
    "text": "{{anim id=\"Eh\" target=\"actor\" targetSpec=\"\"}}{{capitalizeNextLetter}}{{string value=\"NickName\"}}? Это я,\n{{string value=\"VillagerName\"}}! {{capitalizeNextLetter}}{{string value=\"Catchphrase\"}}!\n{{anim id=\"Hesitate\" target=\"actor\" targetSpec=\"\"}}А ты меня еще помнишь?{{pageBreak}}{{anim id=\"Explain\" target=\"actor\" targetSpec=\"\"}}Я недавно сюда переехала и узнала,{{delay8}}\nчто ты тоже здесь живешь. {{anim id=\"Nodding\" target=\"actor\" targetSpec=\"\"}}Хорошо,{{delay8}}\nчто мы наконец встретились.{{pageBreak}}{{anim id=\"Smiling\" target=\"actor\" targetSpec=\"\"}}Раз мы живем{{delay8}} на одном острове,{{delay20}}\nу нас будет больше возможностей{{delay8}}\nпознакомиться поближе."
  },
  {
    "label": "412_03",
    "attribute": "0x0000000000000000",
    "text": "{{anim id=\"Smiling\" target=\"actor\" targetSpec=\"\"}}{{capitalizeNextLetter}}{{string value=\"NickName\"}}? Привет!\nЭто я, {{string value=\"VillagerName\"}}!{{pageBreak}}Я наконец решилась {{anim id=\"BigSmile\" target=\"actor\" targetSpec=\"\"}}переехать\nна остров {{string value=\"OtherIslandName\"}}!{{anim id=\"FaintSmile\" target=\"actor\" targetSpec=\"\"}}{{pageBreak}}{{anim id=\"Hesitate\" target=\"actor\" targetSpec=\"\"}}Я уже слышала, что ты здесь\nживешь, но у меня пока не было\nвозможности с тобой поговорить.{{pageBreak}}{{anim id=\"Nodding\" target=\"actor\" targetSpec=\"\"}}Я так рада, что я здесь живу\nи что ты тоже здесь живешь.\n{{capitalizeNextLetter}}{{string value=\"Catchphrase\"}}!{{anim id=\"FaintSmile\" target=\"actor\" targetSpec=\"\"}}"
  },
  {
    "label": "414",
    "attribute": "0x0000000000000000",
    "text": "{{anim id=\"Eh\" target=\"actor\" targetSpec=\"\"}}А{{string value=\"...\"}} А{{string value=\"...\"}} {{anim id=\"Sneezing\" target=\"actor\" targetSpec=\"\"}}Апчхи! {{anim id=\"Eh\" target=\"actor\" targetSpec=\"\"}}{{capitalizeNextLetter}}{{string value=\"NickName\"}}?\n{{anim id=\"FaintSmile\" target=\"actor\" targetSpec=\"\"}}Это ты? {{anim id=\"Pardon\" target=\"actor\" targetSpec=\"\"}}Это я, {{string value=\"VillagerName\"}}!{{pageBreak}}Я переехала на остров\n{{string value=\"OtherIslandName\"}}. {{anim id=\"Restless\" target=\"actor\" targetSpec=\"\"}}Мне так\nнеудобно, что я болею{{string value=\"...\"}}{{pageBreak}}{{anim id=\"Nodding\" target=\"actor\" targetSpec=\"\"}}Когда мне будет лучше, нам нужно\nобязательно встретиться. {{anim id=\"Sneezing\" target=\"actor\" targetSpec=\"\"}}Апчхи!\n{{anim id=\"Worried\" target=\"actor\" targetSpec=\"\"}}Извини."
  },
  {
    "label": "421",
    "attribute": "0x0000000000000000",
    "text": "{{anim id=\"Smiling\" target=\"actor\" targetSpec=\"\"}}Привет, {{string value=\"NickName\"}}! {{delay20}}Начиная\nс сегодняшнего дня я тоже тут\nживу.{{delay20}} Я {{string value=\"VillagerName\"}}, помнишь?{{pageBreak}}{{anim id=\"Hesitate\" target=\"actor\" targetSpec=\"\"}}Я немного нервничала, но теперь\nмне намного спокойнее, когда\nя знаю, что ты тоже здесь."
  },
  {
    "label": "422",
    "attribute": "0x0000000000000000",
    "text": "{{anim id=\"Hesitate\" target=\"actor\" targetSpec=\"\"}}Здравствуй, {{string value=\"NickName\"}}.\nЭто я, {{string value=\"VillagerName\"}}!\n{{delay20}}Ты меня еще помнишь?{{pageBreak}}{{anim id=\"Blushing\" target=\"actor\" targetSpec=\"\"}}Если ты не в курсе, то я теперь\nздесь живу.{{delay20}} Очень надеюсь\nпознакомиться с тобой поближе."
  },
  {
    "label": "424",
    "attribute": "0x0000000000000000",
    "text": "А{{string value=\"...\"}} А{{string value=\"...\"}} {{anim id=\"Sneezing\" target=\"actor\" targetSpec=\"\"}}Апчхи! {{anim id=\"Eh\" target=\"actor\" targetSpec=\"\"}} Прошу прощения!{{delay20}}\nЭто ты, {{string value=\"NickName\"}}? {{delay20}}А это\nя, {{string value=\"VillagerName\"}}!{{pageBreak}}Теперь я тоже живу на острове\n{{string value=\"OtherIslandName\"}}{{delay20}}. {{anim id=\"Worried\" target=\"actor\" targetSpec=\"\"}}Только вот\nпростудилась, к несчастью{{string value=\"...\"}}{{pageBreak}}{{anim id=\"FaintSmile\" target=\"actor\" targetSpec=\"\"}}Когда мне будет лучше, нам нужно\nобязательно встретиться\nи поболтать."
  }
]