﻿[
  {
    "label": "001",
    "attribute": "0x0000000000000000",
    "text": "{{anim id=\"Eh\" target=\"actor\" targetSpec=\"\"}}咦？{{delay8}}\n你已經要回去了嗎？{{pageBreak}}{{anim id=\"BigSmile\" target=\"actor\" targetSpec=\"\"}}{{string value=\"NickName\"}}——！\n你今天來我家玩，我真的很開心喔！{{anim id=\"FaintSmile\" target=\"actor\" targetSpec=\"\"}}"
  },
  {
    "label": "002",
    "attribute": "0x0000000000000000",
    "text": "{{anim id=\"Eh\" target=\"actor\" targetSpec=\"\"}}咦？{{delay8}}\n你已經要回去了嗎？{{pageBreak}}{{anim id=\"ShyBoy\" target=\"actor\" targetSpec=\"\"}}總覺得時間一轉眼就過啦！{{delay8}}\n今天真的很開心喔——！"
  },
  {
    "label": "003",
    "attribute": "0x0000000000000000",
    "text": "{{anim id=\"Eh\" target=\"actor\" targetSpec=\"\"}}已經要回去了嗎？{{delay frames=\"40\"}}\n{{anim id=\"Nodding\" target=\"actor\" targetSpec=\"\"}}很高興{{delay8}}你今天來我家玩！"
  },
  {
    "label": "004",
    "attribute": "0x0000000000000000",
    "text": "{{anim id=\"Eh\" target=\"actor\" targetSpec=\"\"}}咦？{{delay20}}已經要回去了嗎？{{delay frames=\"40\"}}\n{{anim id=\"Hello\" target=\"actor\" targetSpec=\"\"}}再稍微多留一下啦——！{{string value=\"6\"}}。"
  },
  {
    "label": "005",
    "attribute": "0x0000000000000000",
    "text": "{{anim id=\"QuestionMark\" target=\"actor\" targetSpec=\"\"}}怎麼了？{{delay8}}你已經要回去啦？{{delay frames=\"40\"}}\n{{anim id=\"Laughing\" target=\"actor\" targetSpec=\"\"}}不用那麼急著走，{{delay8}}\n再稍微多留一下啦——！{{string value=\"6\"}}。"
  },
  {
    "label": "006",
    "attribute": "0x0000000000000000",
    "text": "{{anim id=\"Shocked\" target=\"actor\" targetSpec=\"\"}}咦？{{delay8}}你要回去了！？{{delay frames=\"40\"}}\n{{anim id=\"Confused\" target=\"actor\" targetSpec=\"\"}}為什麼啊？{{delay8}}你還沒完全體驗到{{delay8}}\n我房間的優點吧？{{string value=\"6\"}}。"
  },
  {
    "label": "100",
    "attribute": "0x0000000000000000",
    "text": "{{anim id=\"Aha\" target=\"actor\" targetSpec=\"\"}}啊對！{{delay20}}我還幫你準備了小禮物喔——！{{anim id=\"EmotEnd\" target=\"actor\" targetSpec=\"\"}}{{delay20}}{{pageBreak}}{{anim id=\"Smiling\" target=\"actor\" targetSpec=\"\"}}這是{{fun_0004007D arg=\"0x0000\"}}！{{delay frames=\"40\"}}\n{{anim id=\"ShyBoy\" target=\"actor\" targetSpec=\"\"}}我待客是不是很周到啊？"
  },
  {
    "label": "101",
    "attribute": "0x0000000000000000",
    "text": "{{anim id=\"IdeaBulb\" target=\"actor\" targetSpec=\"\"}}對了！{{delay20}}\n差點忘記要送你小禮物！{{anim id=\"EmotEnd\" target=\"actor\" targetSpec=\"\"}}{{delay20}}{{pageBreak}}{{anim id=\"Smiling\" target=\"actor\" targetSpec=\"\"}}這是{{fun_0004007D arg=\"0x0000\"}}！{{delay8}}\n如果你不嫌棄，就收下吧——！"
  },
  {
    "label": "102",
    "attribute": "0x0000000000000000",
    "text": "{{anim id=\"Nodding\" target=\"actor\" targetSpec=\"\"}}這是我{{delay8}}為了你特地準備的喔！{{delay frames=\"40\"}}\n{{anim id=\"BigSmile\" target=\"actor\" targetSpec=\"\"}}{{fun_0004007D arg=\"0x0000\"}}！{{delay frames=\"30\"}}\n{{anim id=\"Laughing\" target=\"actor\" targetSpec=\"\"}}你就把這個當成小禮物{{delay8}}帶回去吧！"
  },
  {
    "label": "103",
    "attribute": "0x0000000000000000",
    "text": "{{anim id=\"Smiling\" target=\"actor\" targetSpec=\"\"}}謝謝你今天來玩！{{delay20}}\n能跟你一起玩，今天真是太棒了！{{string value=\"6\"}}。"
  },
  {
    "label": "104",
    "attribute": "0x0000000000000000",
    "text": "{{anim id=\"Greeting\" target=\"actor\" targetSpec=\"\"}}再見囉，{{string value=\"NickName\"}}！{{delay20}}\n{{anim id=\"Smiling\" target=\"actor\" targetSpec=\"\"}}回去時路上小心喔！{{string value=\"6\"}}。"
  },
  {
    "label": "105",
    "attribute": "0x0000000000000000",
    "text": "{{anim id=\"Smiling\" target=\"actor\" targetSpec=\"\"}}下次再來我家玩吧！{{delay20}}\n{{anim id=\"Greeting\" target=\"actor\" targetSpec=\"\"}}我隨時歡迎你喔！{{delay8}}{{string value=\"6\"}}。"
  },
  {
    "label": "106",
    "attribute": "0x0000000000000000",
    "text": "咦{{string value=\"...\"}}{{anim id=\"Eh\" target=\"actor\" targetSpec=\"\"}}你的持有物品{{delay8}}\n是不是已經滿了？{{pageBreak}}{{anim id=\"Smiling\" target=\"actor\" targetSpec=\"\"}}哈哈，放心吧！{{delay8}}我待會再送去給你！{{delay20}}{{anim id=\"EmotEnd\" target=\"actor\" targetSpec=\"\"}}{{delay20}}\n{{anim id=\"Greeting\" target=\"actor\" targetSpec=\"\"}}今天真是{{delay8}}謝謝你啦！{{string value=\"6\"}}。"
  },
  {
    "label": "200",
    "attribute": "0x0000000000000000",
    "text": "{{anim id=\"Aha\" target=\"actor\" targetSpec=\"\"}}對了！{{delay frames=\"30\"}}\n{{anim id=\"FaintSmile\" target=\"actor\" targetSpec=\"\"}}我要把最喜歡的歌曲送給你！{{delay frames=\"40\"}}\n{{anim id=\"Nodding\" target=\"actor\" targetSpec=\"\"}}這是〈{{fun_0000007D arg=\"0x0000\"}}〉！\n{{anim id=\"ShyBoy\" target=\"actor\" targetSpec=\"\"}}你就把它帶回去，{{delay8}}\n{{anim id=\"Greeting\" target=\"actor\" targetSpec=\"\"}}當作是你第一次{{delay20}}來我家玩的紀念品吧——！！"
  },
  {
    "label": "201",
    "attribute": "0x0000000000000000",
    "text": "{{anim id=\"IdeaBulb\" target=\"actor\" targetSpec=\"\"}}{{delay20}}對了，{{delay20}}\n{{anim id=\"FaintSmile\" target=\"actor\" targetSpec=\"\"}}我想送個小禮物{{delay8}}給你帶回去！{{pageBreak}}{{anim id=\"Nodding\" target=\"actor\" targetSpec=\"\"}}這首〈{{fun_0000007D arg=\"0x0000\"}}〉{{delay20}}\n是我最喜歡的歌曲，{{delay frames=\"30\"}}\n{{anim id=\"Smiling\" target=\"actor\" targetSpec=\"\"}}你回家後記得要聽聽看喔！"
  },
  {
    "label": "202",
    "attribute": "0x0000000000000000",
    "text": "{{anim id=\"Smiling\" target=\"actor\" targetSpec=\"\"}}謝謝你今天來玩！{{delay8}}\n能跟你一起玩，{{delay20}}今天真是太棒了！{{string value=\"6\"}}。"
  },
  {
    "label": "203",
    "attribute": "0x0000000000000000",
    "text": "{{anim id=\"Smiling\" target=\"actor\" targetSpec=\"\"}}下次再來我家玩吧！{{delay20}}\n{{anim id=\"Greeting\" target=\"actor\" targetSpec=\"\"}}我隨時歡迎你喔！{{delay8}}{{string value=\"6\"}}。"
  }
]