﻿[
  {
    "label": "1503_HandBag_00368",
    "text": "White"
  },
  {
    "label": "1503_HandBag_00369",
    "text": "Brown"
  },
  {
    "label": "1503_HandBag_14791",
    "text": "Light brown"
  },
  {
    "label": "1504_HandBag_00362",
    "text": "Black & white"
  },
  {
    "label": "1504_HandBag_14855",
    "text": "Brown"
  },
  {
    "label": "1505_HandBag_14854",
    "text": "No Variations"
  },
  {
    "label": "1506_HandBag_00556",
    "text": "Blue"
  },
  {
    "label": "1506_HandBag_00557",
    "text": "Purple"
  },
  {
    "label": "1506_HandBag_00558",
    "text": "Red"
  },
  {
    "label": "1506_HandBag_00559",
    "text": "White"
  },
  {
    "label": "1506_HandBag_00560",
    "text": "Gold"
  },
  {
    "label": "1506_HandBag_14788",
    "text": "Green"
  },
  {
    "label": "1507_HandBag_00310",
    "text": "Orange"
  },
  {
    "label": "1507_HandBag_00311",
    "text": "Blue"
  },
  {
    "label": "1507_HandBag_00312",
    "text": "Pink"
  },
  {
    "label": "1507_HandBag_00313",
    "text": "Yellow"
  },
  {
    "label": "1507_HandBag_00314",
    "text": "Gray"
  },
  {
    "label": "1507_HandBag_00315",
    "text": "Black"
  },
  {
    "label": "1507_HandBag_14789",
    "text": "Red"
  },
  {
    "label": "1508_HandBag_00297",
    "text": "Red"
  },
  {
    "label": "1508_HandBag_00299",
    "text": "White"
  },
  {
    "label": "1508_HandBag_14790",
    "text": "Green"
  },
  {
    "label": "1509_HandBag_00727",
    "text": "Light blue"
  },
  {
    "label": "1509_HandBag_00732",
    "text": "Blue"
  },
  {
    "label": "1509_HandBag_00733",
    "text": "Red"
  },
  {
    "label": "1509_HandBag_14871",
    "text": "Yellow"
  },
  {
    "label": "1510_HandBag_00306",
    "text": "Light blue"
  },
  {
    "label": "1510_HandBag_14870",
    "text": "Pink"
  },
  {
    "label": "1511_HandBag_00305",
    "text": "Red"
  },
  {
    "label": "1511_HandBag_14872",
    "text": "Blue"
  },
  {
    "label": "1512_HandBag_00307",
    "text": "Green"
  },
  {
    "label": "1512_HandBag_00308",
    "text": "Red"
  },
  {
    "label": "1512_HandBag_00309",
    "text": "Black"
  },
  {
    "label": "1512_HandBag_14792",
    "text": "Light brown"
  },
  {
    "label": "1513_HandBag_00357",
    "text": "Blue"
  },
  {
    "label": "1513_HandBag_00358",
    "text": "Yellow"
  },
  {
    "label": "1513_HandBag_00359",
    "text": "Green"
  },
  {
    "label": "1513_HandBag_00360",
    "text": "Beige"
  },
  {
    "label": "1513_HandBag_00361",
    "text": "Black & white"
  },
  {
    "label": "1513_HandBag_14787",
    "text": "Red"
  },
  {
    "label": "1514_HandBag_00367",
    "text": "Brown"
  },
  {
    "label": "1514_HandBag_14890",
    "text": "Green"
  },
  {
    "label": "1515_HandBag_00363",
    "text": "Light blue"
  },
  {
    "label": "1515_HandBag_00364",
    "text": "Yellow"
  },
  {
    "label": "1515_HandBag_14856",
    "text": "Pink"
  },
  {
    "label": "1516_HandBag_00365",
    "text": "Red"
  },
  {
    "label": "1516_HandBag_00366",
    "text": "Navy blue"
  },
  {
    "label": "1516_HandBag_14857",
    "text": "Gray"
  },
  {
    "label": "1517_HandBag_14642",
    "text": "No Variations"
  },
  {
    "label": "1518_HandBag_14812",
    "text": "No Variations"
  },
  {
    "label": "1519_HandBag_14813",
    "text": "No Variations"
  },
  {
    "label": "1520_HandBag_14814",
    "text": "No Variations"
  }
]