﻿[
  {
    "label": "1258_MarineSuit_12970",
    "text": "No Variations"
  },
  {
    "label": "1259_MarineSuit_12981",
    "text": "Light blue"
  },
  {
    "label": "1259_MarineSuit_13098",
    "text": "Purple"
  },
  {
    "label": "1259_MarineSuit_13099",
    "text": "Yellow"
  },
  {
    "label": "1259_MarineSuit_13100",
    "text": "Green"
  },
  {
    "label": "1260_MarineSuit_12986",
    "text": "Red"
  },
  {
    "label": "1260_MarineSuit_13101",
    "text": "Blue"
  },
  {
    "label": "1260_MarineSuit_13102",
    "text": "Yellow"
  },
  {
    "label": "1260_MarineSuit_13103",
    "text": "Black"
  }
]