﻿[
  {
    "label": "001",
    "attribute": "0x0000020000000000",
    "text": "{{anim id=\"FaintSmile\" target=\"actor\" targetSpec=\"\"}}Hé {{gender2 m=\"le jeune\" f=\"la jeune\"}}, ça te dit de faire un jeu?{{pageBreak}}{{anim id=\"EmotEnd\" target=\"actor\" targetSpec=\"\"}}Si tu gagnes,{{delay8}} je te donne {{wordArticle}}{{fun_0000007D arg=\"0x0000\"}}.{{delay frames=\"40\"}}{{anim id=\"Hello\" target=\"actor\" targetSpec=\"\"}} Qu'est-ce que tu en penses, {{string value=\"6\"}}?"
  },
  {
    "label": "001_a",
    "attribute": "0x0000000000000000",
    "text": "Avec plaisir!"
  },
  {
    "label": "001_b",
    "attribute": "0x0000000000000000",
    "text": "Pas maintenant."
  },
  {
    "label": "002",
    "attribute": "0x0000020000000000",
    "text": "{{anim id=\"BigSmile\" target=\"actor\" targetSpec=\"\"}}À la bonne heure!{{delay frames=\"40\"}}{{anim id=\"FaintSmile\" target=\"actor\" targetSpec=\"\"}} Laisse-moi\nd'abord t'expliquer les règles,\n{{string value=\"6\"}}."
  },
  {
    "label": "002_a",
    "attribute": "0x0000000000000000",
    "text": "Oui, s'il te plaît."
  },
  {
    "label": "002_b",
    "attribute": "0x0000000000000000",
    "text": "Pas la peine."
  },
  {
    "label": "003",
    "attribute": "0x0000000000000000",
    "text": "{{anim id=\"EmotEnd\" target=\"actor\" targetSpec=\"\"}}Comme tu veux.{{delay frames=\"40\"}} Je ne peux pas te\nforcer à jouer un jeu{{anim id=\"OhGeez\" target=\"actor\" targetSpec=\"\"}} auquel tu n'as\nrien à perdre et tout à gagner{{string value=\"...\"}}"
  },
  {
    "label": "004",
    "attribute": "0x0000000000000000",
    "text": "{{anim id=\"Eh\" target=\"actor\" targetSpec=\"\"}}Oh,{{delay8}} je vois que nous avons affaire\nà {{gender2 m=\"un habitué\" f=\"une habituée\"}}.{{delay frames=\"40\"}}{{anim id=\"NpcShuffle\" target=\"actor\" targetSpec=\"\"}} Entrons directement\ndans le vif du sujet dans ce cas{{string value=\"...\"}}"
  },
  {
    "label": "005",
    "attribute": "0x0000000000000000",
    "text": "Et la carte que j'ai tirée est du{{string value=\"...\"}}"
  },
  {
    "label": "006_01",
    "attribute": "0x0000000000000000",
    "text": "{{anim id=\"Smiling\" target=\"actor\" targetSpec=\"\"}}Comme promis {{gender8 m=\"mon\" f=\"ma\" n=\"\"}} superbe {{fun_0000007D arg=\"0x0000\"}} est à toi.{{delay frames=\"40\"}}{{anim id=\"Smiling\" target=\"actor\" targetSpec=\"\"}}{{anim id=\"Nodding\" target=\"actor\" targetSpec=\"\"}} Tu l'as bien mérité{{gender8 m=\"\" f=\"e\" n=\"\"}}."
  },
  {
    "label": "006_02",
    "attribute": "0x0000000000000000",
    "text": "{{anim id=\"Smiling\" target=\"actor\" targetSpec=\"\"}}Tu remportes donc {{gender8 m=\"ce\" f=\"cette\" n=\"\"}} magnifique {{fun_0000007D arg=\"0x0000\"}}!{{pageBreak}}{{anim id=\"WrySmile\" target=\"actor\" targetSpec=\"\"}}En fait,{{delay8}} je me suis rendu compte que je n'en aurai pas l'usage,{{delay8}} alors tu me rends service en m'en débarrassant{{string value=\"...\"}}"
  },
  {
    "label": "006_03",
    "attribute": "0x0000000000000000",
    "text": "{{anim id=\"Smiling\" target=\"actor\" targetSpec=\"\"}}Désolé, mais je garde {{fun_00010032 arg=\"\"}}{{fun_0000007D arg=\"0x0000\"}}, comme convenu."
  },
  {
    "label": "007_01",
    "attribute": "0x0000000000000000",
    "text": "{{anim id=\"ShyBoy\" target=\"actor\" targetSpec=\"\"}}J'ai peut-être perdu, mais je me suis\nbien amusé.{{delay frames=\"40\"}}{{anim id=\"Smiling\" target=\"actor\" targetSpec=\"\"}} Faisons une revanche\nà l'occasion, {{string value=\"6\"}}!"
  },
  {
    "label": "007_03",
    "attribute": "0x0000000000000000",
    "text": "{{anim id=\"Explain\" target=\"actor\" targetSpec=\"\"}}J'ai peut-être gagné,{{delay8}} mais tu n'as\nrien perdu.{{delay frames=\"40\"}}{{anim id=\"Grin\" target=\"actor\" targetSpec=\"\"}} Ou à la rigueur, un peu\nd'amour-propre{{string value=\"...\"}}"
  },
  {
    "label": "008",
    "attribute": "0x0000000000000000",
    "text": "{{anim id=\"BigSmile\" target=\"actor\" targetSpec=\"\"}}À la bonne heure!{{delay frames=\"40\"}}{{anim id=\"FaintSmile\" target=\"actor\" targetSpec=\"\"}} Laisse-moi\nd'abord t'expliquer les{{string value=\"...\"}}{{delay frames=\"40\"}}{{anim id=\"QuestionMark\" target=\"actor\" targetSpec=\"\"}} Hm?{{pageBreak}}{{anim id=\"WrySmile\" target=\"actor\" targetSpec=\"\"}}Je crois que tu as les poches pleines,{{delay8}}\n{{gender2 m=\"le jeune\" f=\"la jeune\"}}.{{delay frames=\"40\"}} Je ne pourrai pas te donner\nton dû si tu gagnes, {{string value=\"6\"}}.\n{{anim id=\"Smiling\" target=\"actor\" targetSpec=\"\"}}Va faire de la place et reviens me voir si tu es toujours intéressé{{gender2 m=\"\" f=\"e\"}}{{string value=\"...\"}}"
  },
  {
    "label": "100",
    "attribute": "0x0000000000000000",
    "text": "{{anim id=\"Explain\" target=\"actor\" targetSpec=\"\"}}C'est simple.{{delay frames=\"40\"}} J'ai quatre cartes avec\nquatre signes différents,{{delay8}} {{color id=\"6\"}}cœur ♥{{color id=\"65535\"}},{{delay8}}\n{{color id=\"6\"}}carreau ♦{{color id=\"65535\"}},{{delay8}} {{color id=\"7\"}}pique ♠{{color id=\"65535\"}} et {{color id=\"7\"}}trèfle ♣{{color id=\"65535\"}}.\n{{anim id=\"FaintSmile\" target=\"actor\" targetSpec=\"\"}}Je vais en tirer une au hasard,{{delay8}}\net tu dois deviner son signe.{{pageBreak}}{{anim id=\"Explain\" target=\"actor\" targetSpec=\"\"}}Si tu tombes juste,{{delay8}} je te donne\n{{wordArticle}}{{fun_0000007D arg=\"0x0000\"}}.{{pageBreak}}{{anim id=\"Smiling\" target=\"actor\" targetSpec=\"\"}}Voilà,{{delay8}} c'est tout.{{delay frames=\"40\"}} Tu es prêt{{gender2 m=\"\" f=\"e\"}}?{{delay frames=\"40\"}}\n{{anim id=\"NpcShuffle\" target=\"actor\" targetSpec=\"\"}}Alors, c'est parti{{string value=\"...\"}}"
  },
  {
    "label": "101",
    "attribute": "0x0000050000000000",
    "text": "{{anim id=\"Smiling\" target=\"actor\" targetSpec=\"\"}}Place au tirage.{{delay frames=\"40\"}} {{anim id=\"Grin\" target=\"actor\" targetSpec=\"\"}}Sur quel signe\nparies-tu, {{string value=\"6\"}}? {{color id=\"6\"}}Cœur ♥{{color id=\"65535\"}}, {{color id=\"6\"}}carreau ♦{{color id=\"65535\"}}, {{color id=\"7\"}}pique ♠{{color id=\"65535\"}} ou {{color id=\"7\"}}trèfle ♣{{color id=\"65535\"}}?"
  },
  {
    "label": "101_a",
    "attribute": "0x0000000000000000",
    "text": "{{color id=\"6\"}}Cœur ♥{{color id=\"65535\"}}!"
  },
  {
    "label": "101_b",
    "attribute": "0x0000000000000000",
    "text": "{{color id=\"6\"}}Carreau ♦{{color id=\"65535\"}}!"
  },
  {
    "label": "101_c",
    "attribute": "0x0000000000000000",
    "text": "{{color id=\"7\"}}Pique ♠{{color id=\"65535\"}}!"
  },
  {
    "label": "101_d",
    "attribute": "0x0000000000000000",
    "text": "{{color id=\"7\"}}Trèfle ♣{{color id=\"65535\"}}!"
  },
  {
    "label": "102_01",
    "attribute": "0x0000000000000000",
    "text": "{{anim id=\"NpcHoldout\" target=\"actor\" targetSpec=\"\"}}{{capitalizeNextLetter}}{{fun_000E008C arg=\"0x00CD\"}}! Bien joué!"
  },
  {
    "label": "102_02",
    "attribute": "0x0000000000000000",
    "text": "{{anim id=\"NpcHoldout\" target=\"actor\" targetSpec=\"\"}}{{capitalizeNextLetter}}{{fun_000E008C arg=\"0x00CD\"}}! Dommage..."
  },
  {
    "label": "200",
    "attribute": "0x0000000000000000",
    "text": "{{anim id=\"Explain\" target=\"actor\" targetSpec=\"\"}}Tu vas voir,{{delay8}} c'est on ne peut plus\nsimple.{{delay frames=\"40\"}} J'ai quatre cartes qui ont\nchacune un signe différent.\n{{anim id=\"Smiling\" target=\"actor\" targetSpec=\"\"}}Il y en a deux {{color id=\"6\"}}rouges{{color id=\"65535\"}},{{delay8}} {{color id=\"6\"}}cœur ♥{{color id=\"65535\"}} et\n{{color id=\"6\"}}carreau ♦{{color id=\"65535\"}},{{delay8}} et deux {{color id=\"7\"}}noires{{color id=\"65535\"}},{{delay8}} {{color id=\"7\"}}pique ♠\n{{color id=\"65535\"}}et{{color id=\"7\"}} trèfle ♣{{color id=\"65535\"}}.\n{{anim id=\"FaintSmile\" target=\"actor\" targetSpec=\"\"}}Je vais tirer une carte au hasard,{{delay8}}\net tu dois deviner s'il s'agit d'une\ncarte {{color id=\"6\"}}rouge{{color id=\"65535\"}} ou d'une carte {{color id=\"7\"}}noire{{color id=\"65535\"}}.\n{{anim id=\"Smiling\" target=\"actor\" targetSpec=\"\"}}Si tu trouves la bonne couleur,{{delay8}}\ntu gagnes {{wordArticle}}{{fun_0000007D arg=\"0x0000\"}}.{{pageBreak}}{{anim id=\"Grin\" target=\"actor\" targetSpec=\"\"}}Je ne vais pas te faire l'insulte\nde te demander si tu as compris.{{delay frames=\"40\"}}\n{{anim id=\"NpcShuffle\" target=\"actor\" targetSpec=\"\"}}Allez,{{delay8}} c'est parti{{string value=\"...\"}}"
  },
  {
    "label": "201",
    "attribute": "0x0000010000000000",
    "text": "Très bien.{{delay frames=\"40\"}}{{anim id=\"Pardon\" target=\"actor\" targetSpec=\"\"}} Voyons si tu arrives à lire\ndans le cœur des cartes{{string value=\"...\"}} Sur quelle\ncouleur paries-tu?{{delay20}} {{color id=\"6\"}}Rouge{{color id=\"65535\"}} ou {{color id=\"7\"}}noir{{color id=\"65535\"}}?"
  },
  {
    "label": "201_a",
    "attribute": "0x0000000000000000",
    "text": "{{color id=\"6\"}}Rouge{{color id=\"65535\"}}!"
  },
  {
    "label": "201_b",
    "attribute": "0x0000000000000000",
    "text": "{{color id=\"7\"}}Noir{{color id=\"65535\"}}!"
  },
  {
    "label": "202_01",
    "attribute": "0x0000000000000000",
    "text": "{{anim id=\"NpcHoldout\" target=\"actor\" targetSpec=\"\"}}{{capitalizeNextLetter}}{{fun_000E008C arg=\"0x00CD\"}}!{{delay frames=\"40\"}} Autrement dit,{{delay8}} du {{color id=\"6\"}}rouge{{color id=\"65535\"}}!{{delay frames=\"40\"}} {{anim id=\"Clapping\" target=\"actor\" targetSpec=\"\"}}Félicitations!"
  },
  {
    "label": "202_02",
    "attribute": "0x0000000000000000",
    "text": "{{anim id=\"NpcHoldout\" target=\"actor\" targetSpec=\"\"}}{{capitalizeNextLetter}}{{fun_000E008C arg=\"0x00CD\"}}!{{delay frames=\"40\"}} Autrement dit,{{delay8}} du {{color id=\"7\"}}noir{{color id=\"65535\"}}!{{delay frames=\"40\"}}\n{{anim id=\"WrySmile\" target=\"actor\" targetSpec=\"\"}}C'est dommage!"
  },
  {
    "label": "202_03",
    "attribute": "0x0000000000000000",
    "text": "{{anim id=\"NpcHoldout\" target=\"actor\" targetSpec=\"\"}}{{capitalizeNextLetter}}{{fun_000E008C arg=\"0x00CD\"}}!{{delay frames=\"40\"}} Autrement dit,{{delay8}} du {{color id=\"7\"}}noir{{color id=\"65535\"}}!{{delay frames=\"40\"}}{{anim id=\"Clapping\" target=\"actor\" targetSpec=\"\"}} Félicitations!"
  },
  {
    "label": "202_04",
    "attribute": "0x0000000000000000",
    "text": "{{anim id=\"NpcHoldout\" target=\"actor\" targetSpec=\"\"}}{{capitalizeNextLetter}}{{fun_000E008C arg=\"0x00CD\"}}!{{delay frames=\"40\"}} Autrement dit,{{delay8}} du {{color id=\"6\"}}rouge{{color id=\"65535\"}}!{{delay frames=\"40\"}}{{anim id=\"WrySmile\" target=\"actor\" targetSpec=\"\"}} C'est dommage!"
  }
]