﻿[
  {
    "label": "002",
    "attribute": "0x00000000",
    "text": "{{anim id=\"HappyDance\" target=\"actor\" targetSpec=\"\"}}Asjemenou!{{delay20}} Wat een pracht van een\nvakantiehuis heb je ontworpen!{{delay20}} Je\nhebt er echt kijk op, kruimel!{{pageBreak}}{{anim id=\"Explain\" target=\"actor\" targetSpec=\"\"}}In mijn tijd werd je nog beloond voor\nhard werk,{{delay frames=\"40\"}} {{anim id=\"Greeting\" target=\"actor\" targetSpec=\"\"}}dus dit bedankje is voor\njou, {{gender2 m=\"jongeman\" f=\"jongedame\"}}!"
  },
  {
    "label": "002_001",
    "attribute": "0x00000000",
    "text": "{{anim id=\"Grin\" target=\"actor\" targetSpec=\"\"}}Nu ben je net als ik de eigenaar van\n{{wordArticle}}{{fun_0000007D arg=\"0x0000\"}}!"
  },
  {
    "label": "002_002",
    "attribute": "0x00000000",
    "text": "{{anim id=\"Eh\" target=\"actor\" targetSpec=\"\"}}Wat zeg je nou?{{delay20}} Volle zakken?{{delay frames=\"40\"}} {{anim id=\"EmotEnd\" target=\"actor\" targetSpec=\"\"}}Wie\nsleept er dan ook vrijwillig zijn halve\nhuishouden mee?!{{delay20}} {{anim id=\"Laughing\" target=\"actor\" targetSpec=\"\"}}Heheh! HORF!{{pageBreak}}{{anim id=\"Explain\" target=\"actor\" targetSpec=\"\"}}Kun je even wat plek gaan maken?{{delay20}}\nDan krijg je je cadeautje als je\nterugkomt."
  },
  {
    "label": "002_003",
    "attribute": "0x00000000",
    "text": "{{anim id=\"Hello\" target=\"actor\" targetSpec=\"\"}}Daar ben je weer, kruimel!{{delay20}} Gelukkig\nmaar dat ik hier zo goed op gepast\nheb{{string value=\"...\"}}{{delay20}} {{anim id=\"Laughing\" target=\"actor\" targetSpec=\"\"}}Heheh! HORF!"
  }
]