﻿[
  {
    "label": "001",
    "attribute": "0x00000C0100070000",
    "locale": {
      "CNzh": "{{anim id=\"Greeting\" target=\"actor\" targetSpec=\"\"}}早上好！{{delay8}}{{string value=\"NickName\"}}！{{delay20}}\n{{anim id=\"Smiling\" target=\"actor\" targetSpec=\"\"}}要不要一起早锻炼？{{string value=\"6\"}}。{{setNpcTalkChoices chatOption=\"0\" cancelOption=\"1\"}}",
      "EUde": "{{anim id=\"Greeting\" target=\"actor\" targetSpec=\"\"}}Morgen, {{delay8}}{{string value=\"NickName\"}}!{{delay20}}\n{{anim id=\"Smiling\" target=\"actor\" targetSpec=\"\"}}Willst du bei meiner Frühsport-\nRoutine mitmachen, {{delay8}}{{string value=\"Catchphrase\"}}?{{setNpcTalkChoices chatOption=\"0\" cancelOption=\"1\"}}",
      "EUen": "{{anim id=\"Greeting\" target=\"actor\" targetSpec=\"\"}}G'morning, {{string value=\"NickName\"}}!{{delay20}} {{anim id=\"Smiling\" target=\"actor\" targetSpec=\"\"}}Was\njust about to start my routine,\n{{string value=\"Catchphrase\"}}.{{delay20}} Want in?{{setNpcTalkChoices chatOption=\"0\" cancelOption=\"1\"}}",
      "EUes": "{{anim id=\"Greeting\" target=\"actor\" targetSpec=\"\"}}¡Buenos días, {{string value=\"NickName\"}}!{{delay8}}\n{{anim id=\"Smiling\" target=\"actor\" targetSpec=\"\"}}Estaba a punto de empezar\nel entreno.{{delay20}} ¿Te animas?{{setNpcTalkChoices chatOption=\"0\" cancelOption=\"0\"}}",
      "EUfr": "{{anim id=\"Greeting\" target=\"actor\" targetSpec=\"\"}}B'jour,{{delay8}} {{string value=\"NickName\"}} !{{delay20}} {{anim id=\"Smiling\" target=\"actor\" targetSpec=\"\"}}J'allais juste commencer mon entraînement matinal.{{delay20}} Tu veux te joindre à moi ?{{setNpcTalkChoices chatOption=\"0\" cancelOption=\"0\"}}",
      "EUit": "{{anim id=\"Greeting\" target=\"actor\" targetSpec=\"\"}}Buongiorno! {{delay20}}{{anim id=\"Smiling\" target=\"actor\" targetSpec=\"\"}}Stavo per iniziare\na fare le flessioni{{string value=\"...\"}} {{delay8}}Vuoi unirti\na me, {{string value=\"NickName\"}}?{{setNpcTalkChoices chatOption=\"0\" cancelOption=\"0\"}}",
      "EUnl": "{{anim id=\"Greeting\" target=\"actor\" targetSpec=\"\"}}Goedemorgen, {{string value=\"NickName\"}}!{{delay20}} {{anim id=\"Smiling\" target=\"actor\" targetSpec=\"\"}}Ik wilde net met mijn training beginnen, {{string value=\"Catchphrase\"}}. {{delay20}}Doe je mee?{{setNpcTalkChoices chatOption=\"0\" cancelOption=\"1\"}}",
      "EUru": "{{anim id=\"Greeting\" target=\"actor\" targetSpec=\"\"}}Доброе утро, {{string value=\"NickName\"}}!{{delay20}}\n{{anim id=\"Smiling\" target=\"actor\" targetSpec=\"\"}}Я как раз собираюсь зарядку\nделать. {{capitalizeNextLetter}}{{string value=\"Catchphrase\"}}!{{delay20}} Становись!{{setNpcTalkChoices chatOption=\"0\" cancelOption=\"1\"}}",
      "JPja": "{{anim id=\"Greeting\" target=\"actor\" targetSpec=\"\"}}オハヨー！{{delay8}}　{{string value=\"NickName\"}}！{{delay20}}\n{{anim id=\"Smiling\" target=\"actor\" targetSpec=\"\"}}いっしょに　{{ruby charSpan=\"1\" value=\"あさ\"}}朝トレしないかー？　{{string value=\"6\"}}{{setNpcTalkChoices chatOption=\"0\" cancelOption=\"1\"}}",
      "KRko": "{{anim id=\"Greeting\" target=\"actor\" targetSpec=\"\"}}좋은 아침이야－! {{delay8}}{{string value=\"NickName\"}}!{{delay20}}\n{{anim id=\"Smiling\" target=\"actor\" targetSpec=\"\"}}같이 아침 운동 안 할래－? {{string value=\"6\"}}?{{setNpcTalkChoices chatOption=\"0\" cancelOption=\"1\"}}",
      "TWzh": "{{anim id=\"Greeting\" target=\"actor\" targetSpec=\"\"}}{{string value=\"NickName\"}}！早啊！{{delay8}}{{delay20}}\n{{anim id=\"Smiling\" target=\"actor\" targetSpec=\"\"}}你要不要跟我一起進行晨練啊？{{string value=\"6\"}}。{{setNpcTalkChoices chatOption=\"0\" cancelOption=\"1\"}}",
      "USen": "{{anim id=\"Greeting\" target=\"actor\" targetSpec=\"\"}}G'morning, {{string value=\"NickName\"}}!{{delay20}} {{anim id=\"Smiling\" target=\"actor\" targetSpec=\"\"}}Was\njust about to start my routine,\n{{string value=\"Catchphrase\"}}.{{delay20}} Want in?{{setNpcTalkChoices chatOption=\"0\" cancelOption=\"1\"}}",
      "USes": "{{anim id=\"Greeting\" target=\"actor\" targetSpec=\"\"}}¡Buenos días, {{string value=\"NickName\"}}!{{delay8}}\n{{anim id=\"Smiling\" target=\"actor\" targetSpec=\"\"}}Estaba a punto de empezar\na entrenar.{{delay20}} ¿Te animas?{{setNpcTalkChoices chatOption=\"0\" cancelOption=\"0\"}}",
      "USfr": "{{anim id=\"Greeting\" target=\"actor\" targetSpec=\"\"}}Salut,{{delay8}} {{string value=\"NickName\"}}!{{delay20}} {{anim id=\"Smiling\" target=\"actor\" targetSpec=\"\"}}J'allais juste commencer mon entraînement matinal.{{delay20}} Tu veux te joindre à moi?{{setNpcTalkChoices chatOption=\"0\" cancelOption=\"1\"}}"
    }
  },
  {
    "label": "002",
    "attribute": "0x00000C0100030000",
    "locale": {
      "CNzh": "{{anim id=\"Greeting\" target=\"actor\" targetSpec=\"\"}}嘿！{{delay8}}{{string value=\"NickName\"}}！{{delay20}}\n欢迎来到{{string value=\"33\"}}！{{delay frames=\"40\"}}\n{{anim id=\"Smiling\" target=\"actor\" targetSpec=\"\"}}要尽情享受哦！{{string value=\"6\"}}。{{setNpcTalkChoices chatOption=\"1\" cancelOption=\"1\"}}",
      "EUde": "{{anim id=\"Greeting\" target=\"actor\" targetSpec=\"\"}}Yo, {{delay8}}{{string value=\"NickName\"}}!{{delay20}}\nWillkommen auf {{string value=\"OtherIslandName\"}}!{{delay frames=\"40\"}}\n{{anim id=\"Smiling\" target=\"actor\" targetSpec=\"\"}}Genieß deine Zeit hier, {{delay8}}{{string value=\"Catchphrase\"}}!{{setNpcTalkChoices chatOption=\"1\" cancelOption=\"1\"}}",
      "EUen": "{{anim id=\"Hello\" target=\"actor\" targetSpec=\"\"}}What's up, {{string value=\"NickName\"}}?{{delay20}}\nHow's your day going?{{setNpcTalkChoices chatOption=\"1\" cancelOption=\"1\"}}",
      "EUes": "{{anim id=\"Hello\" target=\"actor\" targetSpec=\"\"}}¿Qué pasa, {{string value=\"NickName\"}}?{{delay8}}\n¿Cómo te está yendo el día?{{setNpcTalkChoices chatOption=\"0\" cancelOption=\"0\"}}",
      "EUfr": "{{anim id=\"Hello\" target=\"actor\" targetSpec=\"\"}}Ça va,{{delay8}} {{string value=\"NickName\"}} ?{{delay20}}\nTa journée se passe bien,\n{{string value=\"Catchphrase\"}} ?{{setNpcTalkChoices chatOption=\"1\" cancelOption=\"0\"}}",
      "EUit": "{{anim id=\"Hello\" target=\"actor\" targetSpec=\"\"}}Tutto bene, {{string value=\"NickName\"}}? {{delay20}}Come va la giornata, {{string value=\"6\"}}?{{setNpcTalkChoices chatOption=\"0\" cancelOption=\"0\"}}",
      "EUnl": "{{anim id=\"Hello\" target=\"actor\" targetSpec=\"\"}}Alles goed, {{string value=\"NickName\"}}?{{delay frames=\"30\"}} Hoe is je dag vandaag?{{setNpcTalkChoices chatOption=\"1\" cancelOption=\"1\"}}",
      "EUru": "{{anim id=\"Hello\" target=\"actor\" targetSpec=\"\"}}Как жизнь, {{string value=\"NickName\"}}?{{delay20}}\nКак проводишь день?{{setNpcTalkChoices chatOption=\"1\" cancelOption=\"1\"}}",
      "JPja": "{{anim id=\"Greeting\" target=\"actor\" targetSpec=\"\"}}よっ！{{delay8}}　{{string value=\"NickName\"}}！{{delay20}}\n{{string value=\"33\"}}へ　ようこそー！{{delay frames=\"40\"}}\n{{anim id=\"Smiling\" target=\"actor\" targetSpec=\"\"}}いっぱい　{{ruby charSpan=\"1\" value=\"たの\"}}楽しんでってくれー！　{{string value=\"6\"}}{{setNpcTalkChoices chatOption=\"1\" cancelOption=\"1\"}}",
      "KRko": "{{anim id=\"Greeting\" target=\"actor\" targetSpec=\"\"}}엇! {{delay8}}{{string value=\"NickName\"}}!{{delay20}}\n{{string value=\"33\"}}에 어서 와－!{{delay frames=\"40\"}}\n{{anim id=\"Smiling\" target=\"actor\" targetSpec=\"\"}}재밌게 놀다 가라－! {{string value=\"6\"}}!{{setNpcTalkChoices chatOption=\"1\" cancelOption=\"1\"}}",
      "TWzh": "{{anim id=\"Greeting\" target=\"actor\" targetSpec=\"\"}}嗨！{{delay8}}{{string value=\"NickName\"}}！{{delay20}}\n歡迎來到{{string value=\"33\"}}──！{{delay frames=\"40\"}}\n{{anim id=\"Smiling\" target=\"actor\" targetSpec=\"\"}}盡情享受這裡的生活吧──！{{string value=\"6\"}}。{{setNpcTalkChoices chatOption=\"1\" cancelOption=\"1\"}}",
      "USen": "{{anim id=\"Hello\" target=\"actor\" targetSpec=\"\"}}What's up, {{string value=\"NickName\"}}?{{delay20}}\nHow's your day going?{{setNpcTalkChoices chatOption=\"1\" cancelOption=\"1\"}}",
      "USes": "{{anim id=\"Hello\" target=\"actor\" targetSpec=\"\"}}¿Qué pasó, {{string value=\"NickName\"}}?{{delay8}}\n¿Cómo te está yendo el día?{{setNpcTalkChoices chatOption=\"0\" cancelOption=\"0\"}}",
      "USfr": "{{anim id=\"Hello\" target=\"actor\" targetSpec=\"\"}}Ça va,{{delay8}} {{string value=\"NickName\"}}?{{delay20}}\nTa journée se passe bien,\n{{string value=\"Catchphrase\"}}?{{setNpcTalkChoices chatOption=\"1\" cancelOption=\"1\"}}"
    }
  },
  {
    "label": "003",
    "attribute": "0x00000C0100040000",
    "locale": {
      "CNzh": "{{anim id=\"Laughing\" target=\"actor\" targetSpec=\"\"}}你好哇！{{delay8}}{{string value=\"NickName\"}}！{{delay frames=\"30\"}}\n我一直都在{{delay8}}\n{{anim id=\"Greeting\" target=\"actor\" targetSpec=\"\"}}等你过来哦！{{string value=\"6\"}}。{{setNpcTalkChoices chatOption=\"0\" cancelOption=\"1\"}}",
      "EUde": "{{anim id=\"Laughing\" target=\"actor\" targetSpec=\"\"}}Hallo, {{delay8}}{{string value=\"NickName\"}}!{{delay frames=\"30\"}}\n{{anim id=\"Greeting\" target=\"actor\" targetSpec=\"\"}}Schön, dich zu sehen, {{delay8}}{{string value=\"Catchphrase\"}}!{{setNpcTalkChoices chatOption=\"0\" cancelOption=\"1\"}}",
      "EUen": "{{anim id=\"Greeting\" target=\"actor\" targetSpec=\"\"}}Yo, {{string value=\"NickName\"}}!{{delay20}}\nEnjoying {{string value=\"OtherIslandName\"}}?{{setNpcTalkChoices chatOption=\"0\" cancelOption=\"1\"}}",
      "EUes": "{{anim id=\"Greeting\" target=\"actor\" targetSpec=\"\"}}¡Hola, {{string value=\"NickName\"}}!{{delay8}}\n¿Disfrutando de {{string value=\"OtherIslandName\"}}?{{setNpcTalkChoices chatOption=\"0\" cancelOption=\"1\"}}",
      "EUfr": "{{anim id=\"Greeting\" target=\"actor\" targetSpec=\"\"}}Yo, {{string value=\"NickName\"}} !{{delay20}} Tu te plais bien à {{string value=\"OtherIslandName\"}}, {{string value=\"Catchphrase\"}} ?{{setNpcTalkChoices chatOption=\"0\" cancelOption=\"0\"}}",
      "EUit": "{{anim id=\"Greeting\" target=\"actor\" targetSpec=\"\"}}Ehilà, {{string value=\"NickName\"}}! {{delay20}}Il mio allenamento mentale funziona{{string value=\"...\"}} Stavo giusto pensando a te!{{setNpcTalkChoices chatOption=\"0\" cancelOption=\"1\"}}",
      "EUnl": "{{anim id=\"Greeting\" target=\"actor\" targetSpec=\"\"}}Yo, {{string value=\"NickName\"}}!{{delay20}} Heb je het naar je zin op {{string value=\"OtherIslandName\"}}?{{setNpcTalkChoices chatOption=\"0\" cancelOption=\"1\"}}",
      "EUru": "{{anim id=\"Greeting\" target=\"actor\" targetSpec=\"\"}}Йоу, {{string value=\"NickName\"}}!{{delay20}}\nИсследуешь остров\n{{string value=\"OtherIslandName\"}}?{{setNpcTalkChoices chatOption=\"0\" cancelOption=\"1\"}}",
      "JPja": "{{anim id=\"Laughing\" target=\"actor\" targetSpec=\"\"}}オーッス！{{delay8}}　{{string value=\"NickName\"}}！{{delay frames=\"30\"}}\nオマエが　{{ruby charSpan=\"1\" value=\"き\"}}来てくれるの{{delay8}}\n{{anim id=\"Greeting\" target=\"actor\" targetSpec=\"\"}}{{ruby charSpan=\"1\" value=\"ま\"}}待ってたぞー！　{{string value=\"6\"}}{{setNpcTalkChoices chatOption=\"0\" cancelOption=\"1\"}}",
      "KRko": "{{anim id=\"Laughing\" target=\"actor\" targetSpec=\"\"}}오오! {{delay8}}{{string value=\"NickName\"}}{{gender5 m=\"아\" f=\"야\"}}!{{delay frames=\"30\"}}\n니가 오기를 {{delay8}}{{anim id=\"Greeting\" target=\"actor\" targetSpec=\"\"}}기다렸다구－! {{string value=\"6\"}}!{{setNpcTalkChoices chatOption=\"0\" cancelOption=\"1\"}}",
      "TWzh": "{{anim id=\"Laughing\" target=\"actor\" targetSpec=\"\"}}嘿──！{{delay8}}{{string value=\"NickName\"}}！{{delay frames=\"30\"}}\n我一直{{delay8}}{{anim id=\"Greeting\" target=\"actor\" targetSpec=\"\"}}在等你來耶！{{string value=\"6\"}}。{{setNpcTalkChoices chatOption=\"0\" cancelOption=\"1\"}}",
      "USen": "{{anim id=\"Greeting\" target=\"actor\" targetSpec=\"\"}}Yo, {{string value=\"NickName\"}}!{{delay20}}\nEnjoying {{string value=\"OtherIslandName\"}}?{{setNpcTalkChoices chatOption=\"0\" cancelOption=\"1\"}}",
      "USes": "{{anim id=\"Greeting\" target=\"actor\" targetSpec=\"\"}}¡Hola, {{string value=\"NickName\"}}!{{delay8}}\n¿Disfrutando de {{string value=\"OtherIslandName\"}}?{{setNpcTalkChoices chatOption=\"0\" cancelOption=\"1\"}}",
      "USfr": "{{anim id=\"Greeting\" target=\"actor\" targetSpec=\"\"}}Yo, {{string value=\"NickName\"}}!{{delay20}} Tu te plais bien à {{string value=\"OtherIslandName\"}}, {{string value=\"Catchphrase\"}}?{{setNpcTalkChoices chatOption=\"0\" cancelOption=\"1\"}}"
    }
  },
  {
    "label": "004",
    "attribute": "0x00000C0100090000",
    "locale": {
      "CNzh": "{{i10_12}}{{anim id=\"Cheering\" target=\"actor\" targetSpec=\"\"}}{{delay20}}{{size value=\"150\"}}晚上好！{{delay frames=\"40\"}}{{size value=\"100\"}}\n{{anim id=\"Smiling\" target=\"actor\" targetSpec=\"\"}}嘿嘿，{{delay20}}天色太暗了，\n所以打招呼要精神饱满！{{string value=\"6\"}}。{{setNpcTalkChoices chatOption=\"0\" cancelOption=\"1\"}}",
      "EUde": "{{i10_12}}{{anim id=\"Cheering\" target=\"actor\" targetSpec=\"\"}}{{delay20}}{{size value=\"150\"}}Guten Abend!{{delay frames=\"40\"}}{{size value=\"100\"}}\n{{anim id=\"Smiling\" target=\"actor\" targetSpec=\"\"}}Na, {{delay8}}bist du jetzt wieder munter?{{setNpcTalkChoices chatOption=\"0\" cancelOption=\"1\"}}",
      "EUen": "{{anim id=\"Smiling\" target=\"actor\" targetSpec=\"\"}}How you doing, {{string value=\"NickName\"}}?{{delay20}}\nOut for a late jog, {{string value=\"Catchphrase\"}}?{{setNpcTalkChoices chatOption=\"0\" cancelOption=\"1\"}}",
      "EUes": "{{anim id=\"Smiling\" target=\"actor\" targetSpec=\"\"}}¿Cómo andas, {{string value=\"NickName\"}}?{{delay8}}\n¿De footing vespertino?{{setNpcTalkChoices chatOption=\"0\" cancelOption=\"1\"}}",
      "EUfr": "{{anim id=\"Smiling\" target=\"actor\" targetSpec=\"\"}}Comment ça va,{{delay8}} {{string value=\"NickName\"}} ?{{delay20}}\nIl est jamais trop tard pour faire\nun petit jogging,{{delay8}} pas vrai ?{{setNpcTalkChoices chatOption=\"0\" cancelOption=\"0\"}}",
      "EUit": "{{anim id=\"Smiling\" target=\"actor\" targetSpec=\"\"}}Come stai, {{string value=\"NickName\"}}? {{delay20}}Fai footing serale, {{string value=\"6\"}}?{{setNpcTalkChoices chatOption=\"0\" cancelOption=\"0\"}}",
      "EUnl": "{{anim id=\"Smiling\" target=\"actor\" targetSpec=\"\"}}Hoe gaat het, {{string value=\"NickName\"}}? Nog lekker even joggen in het donker, {{string value=\"Catchphrase\"}}?{{setNpcTalkChoices chatOption=\"0\" cancelOption=\"1\"}}",
      "EUru": "{{anim id=\"Smiling\" target=\"actor\" targetSpec=\"\"}}Что новенького, {{string value=\"NickName\"}}?{{delay20}}\nНа вечернюю пробежку выш{{gender2 m=\"ел\" f=\"ла\"}}?\n{{capitalizeNextLetter}}{{string value=\"Catchphrase\"}}!{{setNpcTalkChoices chatOption=\"0\" cancelOption=\"1\"}}",
      "JPja": "{{i10_12}}{{anim id=\"Cheering\" target=\"actor\" targetSpec=\"\"}}{{delay20}}{{size value=\"150\"}}コンバンハー！{{delay frames=\"40\"}}{{size value=\"100\"}}\n{{anim id=\"Smiling\" target=\"actor\" targetSpec=\"\"}}へへっ、{{delay20}}{{ruby charSpan=\"1\" value=\"くら\"}}暗いから\n{{ruby charSpan=\"2\" value=\"げんき\"}}元気にアイサツしてみたぞー！　{{string value=\"6\"}}{{setNpcTalkChoices chatOption=\"0\" cancelOption=\"1\"}}",
      "KRko": "{{i10_12}}{{anim id=\"Cheering\" target=\"actor\" targetSpec=\"\"}}{{delay20}}{{size value=\"150\"}}안－녕－!{{size value=\"100\"}}{{delay frames=\"40\"}}\n{{anim id=\"Smiling\" target=\"actor\" targetSpec=\"\"}}헤헷, {{delay20}}어두우니까\n기운차게 인사해봤어! {{string value=\"6\"}}!{{setNpcTalkChoices chatOption=\"0\" cancelOption=\"1\"}}",
      "TWzh": "{{i10_12}}{{anim id=\"Cheering\" target=\"actor\" targetSpec=\"\"}}{{delay20}}{{size value=\"150\"}}你好啊──！{{delay frames=\"40\"}}{{size value=\"100\"}}\n{{anim id=\"Smiling\" target=\"actor\" targetSpec=\"\"}}嘿嘿，{{delay20}}因為天色太暗，\n我就試著大聲打招呼了！{{string value=\"6\"}}。{{setNpcTalkChoices chatOption=\"0\" cancelOption=\"1\"}}",
      "USen": "{{anim id=\"Smiling\" target=\"actor\" targetSpec=\"\"}}How you doing, {{string value=\"NickName\"}}?{{delay20}}\nOut for a late jog, {{string value=\"Catchphrase\"}}?{{setNpcTalkChoices chatOption=\"0\" cancelOption=\"1\"}}",
      "USes": "{{anim id=\"Smiling\" target=\"actor\" targetSpec=\"\"}}¿Cómo andas, {{string value=\"NickName\"}}?{{delay8}}\n¿De trote vespertino?{{setNpcTalkChoices chatOption=\"0\" cancelOption=\"1\"}}",
      "USfr": "{{anim id=\"Smiling\" target=\"actor\" targetSpec=\"\"}}Comment ça va,{{delay8}} {{string value=\"NickName\"}}?{{delay20}}\nIl est jamais trop tard pour faire\nun peu de jogging,{{delay8}} pas vrai?{{setNpcTalkChoices chatOption=\"0\" cancelOption=\"1\"}}"
    }
  },
  {
    "label": "011",
    "attribute": "0x00000C0100000000",
    "locale": {
      "CNzh": "{{anim id=\"Eh\" target=\"actor\" targetSpec=\"\"}}噢！{{delay8}}这不是{{string value=\"NickName\"}}吗！{{delay frames=\"30\"}}\n{{anim id=\"EmotEnd\" target=\"actor\" targetSpec=\"\"}}你是到{{string value=\"33\"}}{{delay8}}\n来玩的吗？{{string value=\"6\"}}。{{setNpcTalkChoices chatOption=\"0\" cancelOption=\"1\"}}",
      "EUde": "{{anim id=\"Eh\" target=\"actor\" targetSpec=\"\"}}Hallo, {{delay8}}wen haben wir denn da?{{delay frames=\"30\"}}\n{{capitalizeNextLetter}}{{string value=\"NickName\"}}! {{delay20}}{{anim id=\"EmotEnd\" target=\"actor\" targetSpec=\"\"}}Was bringt dich\nnach {{string value=\"OtherIslandName\"}}?{{setNpcTalkChoices chatOption=\"0\" cancelOption=\"0\"}}",
      "EUen": "{{anim id=\"Eh\" target=\"actor\" targetSpec=\"\"}}Hey!{{delay20}} If it isn't {{string value=\"NickName\"}}!{{delay frames=\"40\"}}\n{{anim id=\"EmotEnd\" target=\"actor\" targetSpec=\"\"}}How's {{string value=\"OtherIslandName\"}} treating\nyou, {{string value=\"Catchphrase\"}}?{{setNpcTalkChoices chatOption=\"0\" cancelOption=\"1\"}}",
      "EUes": "{{anim id=\"Eh\" target=\"actor\" targetSpec=\"\"}}¡Pero si es {{string value=\"NickName\"}}!{{delay8}}\n{{anim id=\"EmotEnd\" target=\"actor\" targetSpec=\"\"}}¿Cómo te está tratando {{string value=\"OtherIslandName\"}}?{{setNpcTalkChoices chatOption=\"0\" cancelOption=\"0\"}}",
      "EUfr": "{{anim id=\"Eh\" target=\"actor\" targetSpec=\"\"}}Hé !{{delay8}} Mais c'est {{string value=\"NickName\"}} !{{delay20}}\n{{anim id=\"EmotEnd\" target=\"actor\" targetSpec=\"\"}}Alors,{{delay8}} {{string value=\"OtherIslandName\"}} te plaît,\n{{string value=\"Catchphrase\"}} ?{{setNpcTalkChoices chatOption=\"0\" cancelOption=\"1\"}}",
      "EUit": "{{anim id=\"Eh\" target=\"actor\" targetSpec=\"\"}}Parli di {{string value=\"NickName\"}} ed {{gender2 m=\"eccolo\" f=\"eccola\"}} spuntare! {{delay frames=\"30\"}}Che si dice di bello oggi {{fun_000F0032 arg=\"\"}} {{string value=\"33\"}}, {{string value=\"6\"}}?{{setNpcTalkChoices chatOption=\"0\" cancelOption=\"0\"}}",
      "EUnl": "{{anim id=\"Eh\" target=\"actor\" targetSpec=\"\"}}Hé! {{delay8}}Als dat {{string value=\"NickName\"}} niet is!{{delay frames=\"30\"}} {{anim id=\"EmotEnd\" target=\"actor\" targetSpec=\"\"}}Hoe bevalt {{string value=\"OtherIslandName\"}} je, {{string value=\"Catchphrase\"}}?{{setNpcTalkChoices chatOption=\"0\" cancelOption=\"1\"}}",
      "EUru": "{{anim id=\"Eh\" target=\"actor\" targetSpec=\"\"}}Эй!{{delay20}} Да это же {{string value=\"NickName\"}}!{{delay frames=\"40\"}}\n{{anim id=\"EmotEnd\" target=\"actor\" targetSpec=\"\"}}Ну как тебе {{string value=\"OtherIslandName\"}}?\n{{capitalizeNextLetter}}{{string value=\"Catchphrase\"}}!{{setNpcTalkChoices chatOption=\"0\" cancelOption=\"1\"}}",
      "JPja": "{{anim id=\"Eh\" target=\"actor\" targetSpec=\"\"}}おー！{{delay8}}　{{string value=\"NickName\"}}じゃんか！{{delay frames=\"30\"}}\n{{anim id=\"EmotEnd\" target=\"actor\" targetSpec=\"\"}}{{string value=\"33\"}}に{{delay8}}\n{{ruby charSpan=\"1\" value=\"あそ\"}}遊びに{{ruby charSpan=\"1\" value=\"き\"}}来てたのかー！　{{string value=\"6\"}}{{setNpcTalkChoices chatOption=\"0\" cancelOption=\"1\"}}",
      "KRko": "{{anim id=\"Eh\" target=\"actor\" targetSpec=\"\"}}오－! {{delay8}}{{string value=\"NickName\"}}{{gender5 m=\"이잖아\" f=\"잖아\"}}!{{delay frames=\"30\"}}\n{{anim id=\"EmotEnd\" target=\"actor\" targetSpec=\"\"}}{{string value=\"33\"}}에{{delay8}}\n놀러왔구나－! {{string value=\"6\"}}!{{setNpcTalkChoices chatOption=\"0\" cancelOption=\"1\"}}",
      "TWzh": "{{anim id=\"Eh\" target=\"actor\" targetSpec=\"\"}}哦！{{delay8}}這不是{{string value=\"NickName\"}}嗎──！{{delay frames=\"30\"}}\n{{anim id=\"EmotEnd\" target=\"actor\" targetSpec=\"\"}}原來你到{{string value=\"33\"}}{{delay8}}\n來玩啦！{{string value=\"6\"}}。{{setNpcTalkChoices chatOption=\"0\" cancelOption=\"1\"}}",
      "USen": "{{anim id=\"Eh\" target=\"actor\" targetSpec=\"\"}}Hey!{{delay20}} If it isn't {{string value=\"NickName\"}}!{{delay frames=\"40\"}}\n{{anim id=\"EmotEnd\" target=\"actor\" targetSpec=\"\"}}How's {{string value=\"OtherIslandName\"}} treating\nyou, {{string value=\"Catchphrase\"}}?{{setNpcTalkChoices chatOption=\"0\" cancelOption=\"1\"}}",
      "USes": "{{anim id=\"Eh\" target=\"actor\" targetSpec=\"\"}}¡Pero si es {{string value=\"NickName\"}}!{{delay8}}\n{{anim id=\"EmotEnd\" target=\"actor\" targetSpec=\"\"}}¿Cómo te está tratando {{string value=\"OtherIslandName\"}}?{{setNpcTalkChoices chatOption=\"0\" cancelOption=\"0\"}}",
      "USfr": "{{anim id=\"Eh\" target=\"actor\" targetSpec=\"\"}}Hé!{{delay8}} Mais c'est {{string value=\"NickName\"}}!{{delay20}}\n{{anim id=\"EmotEnd\" target=\"actor\" targetSpec=\"\"}}Alors,{{delay8}} {{string value=\"OtherIslandName\"}} te plaît,\n{{string value=\"Catchphrase\"}}?{{setNpcTalkChoices chatOption=\"0\" cancelOption=\"1\"}}"
    }
  },
  {
    "label": "012",
    "attribute": "0x00000C0100000000",
    "locale": {
      "CNzh": "{{anim id=\"Greeting\" target=\"actor\" targetSpec=\"\"}}嘿！{{delay8}}你来啦，{{string value=\"NickName\"}}？{{delay frames=\"30\"}}\n{{anim id=\"Smiling\" target=\"actor\" targetSpec=\"\"}}很高兴见到你哦！{{string value=\"6\"}}。{{setNpcTalkChoices chatOption=\"0\" cancelOption=\"1\"}}",
      "EUde": "{{anim id=\"Greeting\" target=\"actor\" targetSpec=\"\"}}{{capitalizeNextLetter}}{{string value=\"NickName\"}}! {{delay20}}Wusste gar nicht, dass du auf der Insel bist!{{delay frames=\"30\"}} {{anim id=\"Smiling\" target=\"actor\" targetSpec=\"\"}}Schön, dich zu sehen, {{delay8}}{{string value=\"Catchphrase\"}}!{{setNpcTalkChoices chatOption=\"0\" cancelOption=\"1\"}}",
      "EUen": "{{anim id=\"Greeting\" target=\"actor\" targetSpec=\"\"}}{{capitalizeNextLetter}}{{string value=\"NickName\"}}!{{delay20}} I didn't know\nyou were on the island!{{delay frames=\"30\"}} {{anim id=\"Smiling\" target=\"actor\" targetSpec=\"\"}}Great\nto see you, {{string value=\"Catchphrase\"}}!{{setNpcTalkChoices chatOption=\"0\" cancelOption=\"1\"}}",
      "EUes": "{{anim id=\"Greeting\" target=\"actor\" targetSpec=\"\"}}¡{{capitalizeNextLetter}}{{string value=\"NickName\"}}!{{delay8}} ¡No sabía que andabas por aquí!{{delay20}} {{anim id=\"Smiling\" target=\"actor\" targetSpec=\"\"}}¡Me alegro de verte!{{setNpcTalkChoices chatOption=\"1\" cancelOption=\"1\"}}",
      "EUfr": "{{anim id=\"Greeting\" target=\"actor\" targetSpec=\"\"}}{{capitalizeNextLetter}}{{string value=\"NickName\"}} !{{delay20}} Je savais pas que t'étais en ville !{{delay20}} {{anim id=\"Smiling\" target=\"actor\" targetSpec=\"\"}}Ça me fait bien plaisir de te voir, {{string value=\"Catchphrase\"}} !{{setNpcTalkChoices chatOption=\"0\" cancelOption=\"0\"}}",
      "EUit": "{{anim id=\"Greeting\" target=\"actor\" targetSpec=\"\"}}Oh, {{string value=\"NickName\"}}! {{delay20}}Non sapevo fossi sull'isola! {{delay frames=\"30\"}}{{anim id=\"Smiling\" target=\"actor\" targetSpec=\"\"}}Che bello vederti, {{string value=\"6\"}}!{{setNpcTalkChoices chatOption=\"1\" cancelOption=\"1\"}}",
      "EUnl": "{{anim id=\"Greeting\" target=\"actor\" targetSpec=\"\"}}{{capitalizeNextLetter}}{{string value=\"NickName\"}}! Ik wist niet dat je er was!{{delay frames=\"30\"}} {{anim id=\"Smiling\" target=\"actor\" targetSpec=\"\"}}Geweldig om je te zien, {{string value=\"Catchphrase\"}}!{{setNpcTalkChoices chatOption=\"0\" cancelOption=\"1\"}}",
      "EUru": "{{anim id=\"Greeting\" target=\"actor\" targetSpec=\"\"}}{{capitalizeNextLetter}}{{string value=\"NickName\"}}!{{delay20}} Я не знал, что\nты на острове!{{delay frames=\"30\"}} {{anim id=\"Smiling\" target=\"actor\" targetSpec=\"\"}}Рад тебя видеть!\n{{capitalizeNextLetter}}{{string value=\"Catchphrase\"}}!{{setNpcTalkChoices chatOption=\"0\" cancelOption=\"1\"}}",
      "JPja": "{{anim id=\"Greeting\" target=\"actor\" targetSpec=\"\"}}よう！{{delay8}}　{{ruby charSpan=\"1\" value=\"き\"}}来てたのか　{{string value=\"NickName\"}}、{{delay frames=\"30\"}}\n{{anim id=\"Smiling\" target=\"actor\" targetSpec=\"\"}}{{ruby charSpan=\"1\" value=\"あ\"}}会えて　うれしいぞー！　{{string value=\"6\"}}{{setNpcTalkChoices chatOption=\"0\" cancelOption=\"1\"}}",
      "KRko": "{{anim id=\"Greeting\" target=\"actor\" targetSpec=\"\"}}여어! {{delay8}}왔구나, {{string value=\"NickName\"}}!{{delay frames=\"30\"}}\n{{anim id=\"Smiling\" target=\"actor\" targetSpec=\"\"}}얼굴 보니까 기쁘다, 야－! {{string value=\"6\"}}!{{setNpcTalkChoices chatOption=\"0\" cancelOption=\"1\"}}",
      "TWzh": "{{anim id=\"Greeting\" target=\"actor\" targetSpec=\"\"}}嗨！{{string value=\"NickName\"}}，{{delay8}}你來啦？{{delay frames=\"30\"}}\n{{anim id=\"Smiling\" target=\"actor\" targetSpec=\"\"}}見到你真是太開心了──！{{string value=\"6\"}}。{{setNpcTalkChoices chatOption=\"0\" cancelOption=\"1\"}}",
      "USen": "{{anim id=\"Greeting\" target=\"actor\" targetSpec=\"\"}}{{capitalizeNextLetter}}{{string value=\"NickName\"}}!{{delay20}} I didn't know\nyou were on the island!{{delay frames=\"30\"}} {{anim id=\"Smiling\" target=\"actor\" targetSpec=\"\"}}Great\nto see you, {{string value=\"Catchphrase\"}}!{{setNpcTalkChoices chatOption=\"0\" cancelOption=\"1\"}}",
      "USes": "{{anim id=\"Greeting\" target=\"actor\" targetSpec=\"\"}}¡{{capitalizeNextLetter}}{{string value=\"NickName\"}}!{{delay8}} ¡No sabía que andabas por aquí!{{delay20}} {{anim id=\"Smiling\" target=\"actor\" targetSpec=\"\"}}¡Me alegro de verte!{{setNpcTalkChoices chatOption=\"1\" cancelOption=\"1\"}}",
      "USfr": "{{anim id=\"Greeting\" target=\"actor\" targetSpec=\"\"}}{{capitalizeNextLetter}}{{string value=\"NickName\"}}!{{delay20}} Je savais pas que t'étais en ville!{{delay20}} {{anim id=\"Smiling\" target=\"actor\" targetSpec=\"\"}}Ça me fait bien plaisir de te voir, {{string value=\"Catchphrase\"}}!{{setNpcTalkChoices chatOption=\"0\" cancelOption=\"1\"}}"
    }
  },
  {
    "label": "013",
    "attribute": "0x00000C0100000000",
    "locale": {
      "CNzh": "{{anim id=\"Smiling\" target=\"actor\" targetSpec=\"\"}}我好想你啊！{{delay8}}{{string value=\"NickName\"}}！{{delay frames=\"30\"}}\n{{anim id=\"EmotEnd\" target=\"actor\" targetSpec=\"\"}}一起来锻炼肌肉吧？{{string value=\"6\"}}。{{setNpcTalkChoices chatOption=\"0\" cancelOption=\"1\"}}",
      "EUde": "{{anim id=\"Smiling\" target=\"actor\" targetSpec=\"\"}}Endlich sehen wir uns mal wieder,{{delay8}}\n{{string value=\"NickName\"}}! {{delay frames=\"30\"}}{{anim id=\"EmotEnd\" target=\"actor\" targetSpec=\"\"}}Wie wär's mit einem schnellen Hanteltraining?{{setNpcTalkChoices chatOption=\"0\" cancelOption=\"1\"}}",
      "EUen": "{{anim id=\"Smiling\" target=\"actor\" targetSpec=\"\"}}Hey, {{string value=\"NickName\"}}!{{delay frames=\"30\"}} {{anim id=\"EmotEnd\" target=\"actor\" targetSpec=\"\"}}You're\nlooking buff, {{string value=\"Catchphrase\"}}.{{delay20}}\nGreat work!{{setNpcTalkChoices chatOption=\"0\" cancelOption=\"1\"}}",
      "EUes": "{{anim id=\"Smiling\" target=\"actor\" targetSpec=\"\"}}¡Hola, {{string value=\"NickName\"}}!{{delay8}}\n{{anim id=\"Nodding\" target=\"actor\" targetSpec=\"\"}}¡Hoy te noto tonificad{{gender2 m=\"o\" f=\"a\"}}!{{setNpcTalkChoices chatOption=\"1\" cancelOption=\"1\"}}",
      "EUfr": "{{anim id=\"Smiling\" target=\"actor\" targetSpec=\"\"}}Hé, {{string value=\"NickName\"}} !{{delay20}} {{anim id=\"EmotEnd\" target=\"actor\" targetSpec=\"\"}}T'as l'air tout{{gender2 m=\"\" f=\"e\"}} musclé{{gender2 m=\"\" f=\"e\"}}.{{delay20}} T'as bien travaillé, {{string value=\"Catchphrase\"}} !{{setNpcTalkChoices chatOption=\"0\" cancelOption=\"0\"}}",
      "EUit": "{{anim id=\"Smiling\" target=\"actor\" targetSpec=\"\"}}Ehi, {{string value=\"NickName\"}}{{string value=\"...\"}} {{delay8}}{{anim id=\"EmotEnd\" target=\"actor\" targetSpec=\"\"}}Sei in gran forma, {{string value=\"6\"}}!{{setNpcTalkChoices chatOption=\"1\" cancelOption=\"1\"}}",
      "EUnl": "{{anim id=\"Smiling\" target=\"actor\" targetSpec=\"\"}}Hé, {{string value=\"NickName\"}}!{{delay frames=\"30\"}} {{anim id=\"EmotEnd\" target=\"actor\" targetSpec=\"\"}}Je ziet er echt gespierd uit, {{string value=\"Catchphrase\"}}. Je hebt flink getraind, hè?{{setNpcTalkChoices chatOption=\"0\" cancelOption=\"1\"}}",
      "EUru": "{{anim id=\"Smiling\" target=\"actor\" targetSpec=\"\"}}Эй, {{string value=\"NickName\"}}!{{delay frames=\"30\"}} {{anim id=\"EmotEnd\" target=\"actor\" targetSpec=\"\"}}Рельефно\nвыглядишь, молодец! {{capitalizeNextLetter}}{{string value=\"Catchphrase\"}}!{{setNpcTalkChoices chatOption=\"0\" cancelOption=\"1\"}}",
      "JPja": "{{anim id=\"Smiling\" target=\"actor\" targetSpec=\"\"}}{{ruby charSpan=\"1\" value=\"あ\"}}会いたかったぞ！{{delay8}}　{{string value=\"NickName\"}}！{{delay frames=\"30\"}}\n{{anim id=\"EmotEnd\" target=\"actor\" targetSpec=\"\"}}いっしょに　キントレするかー？　{{string value=\"6\"}}{{setNpcTalkChoices chatOption=\"0\" cancelOption=\"1\"}}",
      "KRko": "{{anim id=\"Smiling\" target=\"actor\" targetSpec=\"\"}}보고 싶었다! {{delay8}}{{string value=\"NickName\"}}!{{delay frames=\"30\"}}\n{{anim id=\"EmotEnd\" target=\"actor\" targetSpec=\"\"}}같이 운동할래－? {{string value=\"6\"}}?{{setNpcTalkChoices chatOption=\"0\" cancelOption=\"1\"}}",
      "TWzh": "{{anim id=\"Smiling\" target=\"actor\" targetSpec=\"\"}}{{string value=\"NickName\"}}！{{delay8}}我一直很想見你喔！{{delay frames=\"30\"}}\n{{anim id=\"EmotEnd\" target=\"actor\" targetSpec=\"\"}}要跟我一起健身嗎？{{string value=\"6\"}}。{{setNpcTalkChoices chatOption=\"0\" cancelOption=\"1\"}}",
      "USen": "{{anim id=\"Smiling\" target=\"actor\" targetSpec=\"\"}}Hey, {{string value=\"NickName\"}}!{{delay frames=\"30\"}} {{anim id=\"EmotEnd\" target=\"actor\" targetSpec=\"\"}}You're\nlooking buff, {{string value=\"Catchphrase\"}}.{{delay20}}\nGreat work!{{setNpcTalkChoices chatOption=\"0\" cancelOption=\"1\"}}",
      "USes": "{{anim id=\"Smiling\" target=\"actor\" targetSpec=\"\"}}¡Hola, {{string value=\"NickName\"}}!{{delay8}}\n{{anim id=\"Nodding\" target=\"actor\" targetSpec=\"\"}}¡Hoy te noto tonificad{{gender2 m=\"o\" f=\"a\"}}!{{setNpcTalkChoices chatOption=\"1\" cancelOption=\"1\"}}",
      "USfr": "{{anim id=\"Smiling\" target=\"actor\" targetSpec=\"\"}}Hé, {{string value=\"NickName\"}}!{{delay20}} {{anim id=\"EmotEnd\" target=\"actor\" targetSpec=\"\"}}T'as l'air tout{{gender2 m=\"\" f=\"e\"}} musclé{{gender2 m=\"\" f=\"e\"}}.{{delay20}} T'as bien travaillé, {{string value=\"Catchphrase\"}}!{{setNpcTalkChoices chatOption=\"0\" cancelOption=\"1\"}}"
    }
  },
  {
    "label": "014",
    "attribute": "0x00000C0100000000",
    "locale": {
      "CNzh": "{{anim id=\"Smiling\" target=\"actor\" targetSpec=\"\"}}来得好哇！{{string value=\"NickName\"}}！{{delay frames=\"30\"}}\n{{anim id=\"Greeting\" target=\"actor\" targetSpec=\"\"}}唔，{{delay8}}你自己随意哦！{{string value=\"6\"}}。{{setNpcTalkChoices chatOption=\"1\" cancelOption=\"1\"}}",
      "EUde": "{{anim id=\"Smiling\" target=\"actor\" targetSpec=\"\"}}Wie läuft's, {{delay8}}{{string value=\"NickName\"}}?{{delay frames=\"30\"}}\n{{anim id=\"Greeting\" target=\"actor\" targetSpec=\"\"}}Lass es dir gut gehen bei uns,{{delay8}}\n{{string value=\"Catchphrase\"}}!{{setNpcTalkChoices chatOption=\"1\" cancelOption=\"1\"}}",
      "EUen": "{{anim id=\"Smiling\" target=\"actor\" targetSpec=\"\"}}How you doing, {{string value=\"NickName\"}}?{{delay frames=\"40\"}}\n{{anim id=\"Greeting\" target=\"actor\" targetSpec=\"\"}}Takin' it easy, {{string value=\"Catchphrase\"}}?{{setNpcTalkChoices chatOption=\"1\" cancelOption=\"1\"}}",
      "EUes": "{{anim id=\"Smiling\" target=\"actor\" targetSpec=\"\"}}¿Qué tal estás, {{string value=\"NickName\"}}?{{delay8}}\n{{anim id=\"Greeting\" target=\"actor\" targetSpec=\"\"}}¿De campeonato?{{setNpcTalkChoices chatOption=\"0\" cancelOption=\"1\"}}",
      "EUfr": "{{anim id=\"Smiling\" target=\"actor\" targetSpec=\"\"}}Yo, {{string value=\"NickName\"}} !{{delay20}} Comment vas-tu ?{{delay20}} {{anim id=\"Greeting\" target=\"actor\" targetSpec=\"\"}}Tu profites de l'existence, {{string value=\"Catchphrase\"}} ?{{setNpcTalkChoices chatOption=\"1\" cancelOption=\"0\"}}",
      "EUit": "{{anim id=\"Smiling\" target=\"actor\" targetSpec=\"\"}}Come butta, {{string value=\"NickName\"}}?\n{{delay frames=\"40\"}}{{anim id=\"Greeting\" target=\"actor\" targetSpec=\"\"}}Te la stai godendo, {{string value=\"6\"}}?{{setNpcTalkChoices chatOption=\"0\" cancelOption=\"0\"}}",
      "EUnl": "{{anim id=\"Smiling\" target=\"actor\" targetSpec=\"\"}}Hoe gaat het, {{string value=\"NickName\"}}?{{delay frames=\"40\"}} {{anim id=\"Greeting\" target=\"actor\" targetSpec=\"\"}}Ben je aan het chillen, {{string value=\"Catchphrase\"}}?{{setNpcTalkChoices chatOption=\"1\" cancelOption=\"1\"}}",
      "EUru": "{{anim id=\"Smiling\" target=\"actor\" targetSpec=\"\"}}Как жизнь, {{string value=\"NickName\"}}?{{delay frames=\"40\"}}\n{{anim id=\"Greeting\" target=\"actor\" targetSpec=\"\"}}Расслабляешься? {{capitalizeNextLetter}}{{string value=\"Catchphrase\"}}!{{setNpcTalkChoices chatOption=\"1\" cancelOption=\"1\"}}",
      "JPja": "{{anim id=\"Smiling\" target=\"actor\" targetSpec=\"\"}}よく{{ruby charSpan=\"1\" value=\"き\"}}来たな！　{{string value=\"NickName\"}}！{{delay frames=\"30\"}}\n{{anim id=\"Greeting\" target=\"actor\" targetSpec=\"\"}}ま、{{delay8}}ゆっくりしていけよー！　{{string value=\"6\"}}{{setNpcTalkChoices chatOption=\"1\" cancelOption=\"1\"}}",
      "KRko": "{{anim id=\"Smiling\" target=\"actor\" targetSpec=\"\"}}잘 왔어! {{string value=\"NickName\"}}!{{delay frames=\"30\"}}\n{{anim id=\"Greeting\" target=\"actor\" targetSpec=\"\"}}그럼 {{delay8}}편하게 놀다 가라－! {{string value=\"6\"}}!{{setNpcTalkChoices chatOption=\"1\" cancelOption=\"1\"}}",
      "TWzh": "{{anim id=\"Smiling\" target=\"actor\" targetSpec=\"\"}}你來啦，{{string value=\"NickName\"}}──！{{delay frames=\"30\"}}\n{{anim id=\"Greeting\" target=\"actor\" targetSpec=\"\"}}別客氣，{{delay8}}把這當自己家吧！{{string value=\"6\"}}。{{setNpcTalkChoices chatOption=\"1\" cancelOption=\"1\"}}",
      "USen": "{{anim id=\"Smiling\" target=\"actor\" targetSpec=\"\"}}How you doing, {{string value=\"NickName\"}}?{{delay frames=\"40\"}}\n{{anim id=\"Greeting\" target=\"actor\" targetSpec=\"\"}}Takin' it easy, {{string value=\"Catchphrase\"}}?{{setNpcTalkChoices chatOption=\"1\" cancelOption=\"1\"}}",
      "USes": "{{anim id=\"Smiling\" target=\"actor\" targetSpec=\"\"}}¿Cómo estás, {{string value=\"NickName\"}}?{{delay8}}\n{{anim id=\"Greeting\" target=\"actor\" targetSpec=\"\"}}¿De campeonato?{{setNpcTalkChoices chatOption=\"0\" cancelOption=\"1\"}}",
      "USfr": "{{anim id=\"Smiling\" target=\"actor\" targetSpec=\"\"}}Yo, {{string value=\"NickName\"}}!{{delay20}} Comment vas-tu?{{delay20}} {{anim id=\"Greeting\" target=\"actor\" targetSpec=\"\"}}Tu profites de l'existence, {{string value=\"Catchphrase\"}}?{{setNpcTalkChoices chatOption=\"1\" cancelOption=\"1\"}}"
    }
  },
  {
    "label": "015",
    "attribute": "0x00000C0100000000",
    "locale": {
      "CNzh": "{{anim id=\"Greeting\" target=\"actor\" targetSpec=\"\"}}你好哇！{{delay8}}{{string value=\"NickName\"}}！{{delay frames=\"30\"}}\n{{anim id=\"FaintSmile\" target=\"actor\" targetSpec=\"\"}}我早有预感会见到你哦！{{string value=\"6\"}}。{{setNpcTalkChoices chatOption=\"0\" cancelOption=\"1\"}}",
      "EUde": "{{anim id=\"Greeting\" target=\"actor\" targetSpec=\"\"}}Hey, {{string value=\"NickName\"}}!{{delay frames=\"30\"}}\n{{anim id=\"FaintSmile\" target=\"actor\" targetSpec=\"\"}}Ich hab neulich erst zweimal an\ndich gedacht, {{delay8}}{{string value=\"Catchphrase\"}}!{{setNpcTalkChoices chatOption=\"0\" cancelOption=\"1\"}}",
      "EUen": "{{anim id=\"Greeting\" target=\"actor\" targetSpec=\"\"}}Hey, {{string value=\"NickName\"}}!{{delay frames=\"40\"}} {{anim id=\"FaintSmile\" target=\"actor\" targetSpec=\"\"}}I heard you\nwere here, {{string value=\"Catchphrase\"}}.{{delay20}} What's up?{{setNpcTalkChoices chatOption=\"0\" cancelOption=\"1\"}}",
      "EUes": "{{anim id=\"Greeting\" target=\"actor\" targetSpec=\"\"}}¡Saluditos, {{string value=\"NickName\"}}!{{delay8}}\n{{anim id=\"FaintSmile\" target=\"actor\" targetSpec=\"\"}}Tenía la impresión de que hoy iba\na encontrarme contigo{{string value=\"...\"}}{{setNpcTalkChoices chatOption=\"1\" cancelOption=\"1\"}}",
      "EUfr": "{{anim id=\"Greeting\" target=\"actor\" targetSpec=\"\"}}Hé, {{string value=\"NickName\"}} !{{delay20}} {{anim id=\"FaintSmile\" target=\"actor\" targetSpec=\"\"}}On m'avait dit que t'étais dans le coin.{{delay20}} Alors,{{delay8}} quoi de neuf, {{string value=\"Catchphrase\"}} ?{{setNpcTalkChoices chatOption=\"0\" cancelOption=\"0\"}}",
      "EUit": "{{anim id=\"Greeting\" target=\"actor\" targetSpec=\"\"}}Ehi, {{string value=\"NickName\"}}! {{delay frames=\"30\"}}{{anim id=\"FaintSmile\" target=\"actor\" targetSpec=\"\"}}Avevo come il presentimento che oggi ti avrei {{gender2 m=\"incontrato\" f=\"incontrata\"}}, {{string value=\"6\"}}{{string value=\"...\"}}{{setNpcTalkChoices chatOption=\"1\" cancelOption=\"1\"}}",
      "EUnl": "{{anim id=\"Greeting\" target=\"actor\" targetSpec=\"\"}}Ha {{string value=\"NickName\"}}!{{delay frames=\"30\"}} {{anim id=\"FaintSmile\" target=\"actor\" targetSpec=\"\"}}Ik hoorde al dat je er was, {{string value=\"Catchphrase\"}}. Hoe gaat het?{{setNpcTalkChoices chatOption=\"0\" cancelOption=\"1\"}}",
      "EUru": "{{anim id=\"Greeting\" target=\"actor\" targetSpec=\"\"}}Привет, {{string value=\"NickName\"}}!{{delay frames=\"40\"}}\n{{anim id=\"FaintSmile\" target=\"actor\" targetSpec=\"\"}}Я слышал, что ты здесь.\n{{capitalizeNextLetter}}{{string value=\"Catchphrase\"}}! Как дела?{{setNpcTalkChoices chatOption=\"0\" cancelOption=\"1\"}}",
      "JPja": "{{anim id=\"Greeting\" target=\"actor\" targetSpec=\"\"}}チーッス！{{delay8}}　{{string value=\"NickName\"}}！{{delay frames=\"30\"}}\n{{anim id=\"FaintSmile\" target=\"actor\" targetSpec=\"\"}}オマエと　{{ruby charSpan=\"1\" value=\"あ\"}}会える{{ruby charSpan=\"1\" value=\"き\"}}気がしてたんだ！　{{string value=\"6\"}}{{setNpcTalkChoices chatOption=\"0\" cancelOption=\"1\"}}",
      "KRko": "{{anim id=\"Greeting\" target=\"actor\" targetSpec=\"\"}}안녕! {{delay8}}{{string value=\"NickName\"}}!{{delay frames=\"30\"}}\n{{anim id=\"FaintSmile\" target=\"actor\" targetSpec=\"\"}}왠지 널 만날 것 같더라－! {{string value=\"6\"}}!{{setNpcTalkChoices chatOption=\"0\" cancelOption=\"1\"}}",
      "TWzh": "{{anim id=\"Greeting\" target=\"actor\" targetSpec=\"\"}}{{string value=\"NickName\"}}！你好啊！{{delay8}}{{delay frames=\"30\"}}\n{{anim id=\"FaintSmile\" target=\"actor\" targetSpec=\"\"}}我早就覺得會見到你了──！{{string value=\"6\"}}。{{setNpcTalkChoices chatOption=\"0\" cancelOption=\"1\"}}",
      "USen": "{{anim id=\"Greeting\" target=\"actor\" targetSpec=\"\"}}Hey, {{string value=\"NickName\"}}!{{delay frames=\"40\"}} {{anim id=\"FaintSmile\" target=\"actor\" targetSpec=\"\"}}I heard you\nwere here, {{string value=\"Catchphrase\"}}.{{delay20}} What's up?{{setNpcTalkChoices chatOption=\"0\" cancelOption=\"1\"}}",
      "USes": "{{anim id=\"Greeting\" target=\"actor\" targetSpec=\"\"}}¡Saluditos, {{string value=\"NickName\"}}!{{delay8}}\n{{anim id=\"FaintSmile\" target=\"actor\" targetSpec=\"\"}}Tenía la impresión de que hoy iba\na encontrarme contigo{{string value=\"...\"}}{{setNpcTalkChoices chatOption=\"1\" cancelOption=\"1\"}}",
      "USfr": "{{anim id=\"Greeting\" target=\"actor\" targetSpec=\"\"}}Hé, {{string value=\"NickName\"}}!{{delay20}} {{anim id=\"FaintSmile\" target=\"actor\" targetSpec=\"\"}}On m'avait dit que t'étais dans le coin.{{delay20}} Alors,{{delay8}} quoi de neuf, {{string value=\"Catchphrase\"}}?{{setNpcTalkChoices chatOption=\"0\" cancelOption=\"1\"}}"
    }
  }
]