﻿{
  "version": 4,
  "rootNode": {
    "InsectOffsetPosParams": {
      "mPointBuffer[]": [
        {
          "mPointBuffer[].V3f": [
            [-3.4064,6.76,-0.44288],
            [-0.24752,6.523296,3.56584],
            [2.98,7.01782,-1.28042]
          ],
          "mFgKind.Enum": "FlwTulip"
        },
        {
          "mPointBuffer[].V3f": [
            [-2.24,4.36,0.0],
            [-0.24752,3.23344,3.90832],
            [2.98,3.844,0.388]
          ],
          "mFgKind.Enum": "FlwPansy"
        },
        {
          "mPointBuffer[].V3f": [
            [-2.74,5.9,-0.22],
            [-0.24752,4.83184,3.97936],
            [2.98,5.626,0.604]
          ],
          "mFgKind.Enum": "FlwRose"
        },
        {
          "mPointBuffer[].V3f": [
            [-4.02,5.34,-1.84],
            [-1.17104,5.24032,2.8],
            [3.682,5.734,-0.12]
          ],
          "mFgKind.Enum": "FlwLily"
        },
        {
          "mPointBuffer[].V3f": [
            [-2.78,5.0,-2.48],
            [-0.94016,3.88,2.87824],
            [2.854,5.086,-0.422]
          ],
          "mFgKind.Enum": "FlwAnemones"
        },
        {
          "mPointBuffer[].V3f": [
            [-2.74,5.78,-1.02],
            [-0.14096,5.32912,3.34],
            [2.818,6.436,-1.142]
          ],
          "mFgKind.Enum": "FlwMum"
        },
        {
          "mPointBuffer[].V3f": [
            [-3.22,7.56,-2.0],
            [0.12544,6.99856,2.008],
            [3.484,7.192,-2.132]
          ],
          "mFgKind.Enum": "FlwHyacinth"
        },
        {
          "mPointBuffer[].V3f": [
            [-2.3,4.76,-0.94],
            [2.82,3.34,0.68],
            [-1.2,3.62,3.52]
          ],
          "mFgKind.Enum": "FlwCosmos"
        },
        {
          "mPointBuffer[].V3f": [
            [-0.6,6.3,0.0],
            [-0.6,6.3,0.0],
            [-0.6,6.3,0.0]
          ],
          "mFgKind.Enum": "FlwSuzuran"
        }
      ]
    }
  }
}