﻿[
  {
    "label": "002",
    "attribute": "0x0000000000000000",
    "text": "{{anim id=\"Eh\" target=\"actor\" targetSpec=\"\"}}Wauw! {{delay20}}Meen je dat?{{delay frames=\"40\"}} {{anim id=\"Thinking\" target=\"actor\" targetSpec=\"\"}}Hier wonen zou\necht wonderen doen voor mijn\nconditie{{string value=\"...\"}}{{pageBreak}}{{anim id=\"Smiling\" target=\"actor\" targetSpec=\"\"}}Oké, afgesproken!{{delay frames=\"40\"}} {{anim id=\"Nodding\" target=\"actor\" targetSpec=\"\"}}Ik zal de\n{{color id=\"1\"}}servicebalie{{color id=\"65535\"}} bellen om het te regelen."
  },
  {
    "label": "003",
    "attribute": "0x0000000000000000",
    "text": "{{anim id=\"Eh\" target=\"actor\" targetSpec=\"\"}}Wauw! {{delay20}}Je volharding is inspirerend!{{delay frames=\"40\"}}\n{{anim id=\"Nodding\" target=\"actor\" targetSpec=\"\"}}Dat brengt me toch weer aan het\ntwijfelen.{{pageBreak}}{{anim id=\"Smiling\" target=\"actor\" targetSpec=\"\"}}Oké, genoeg getreuzel!{{delay20}} Ik zal de\n{{color id=\"1\"}}servicebalie {{color id=\"65535\"}}even bellen om mijn\nverhuizing in gang te zetten."
  },
  {
    "label": "101",
    "attribute": "0x0000000000000000",
    "text": "{{fun_0014003C arg=\"\"}}"
  },
  {
    "label": "101_01",
    "attribute": "0x0000000000000000",
    "text": "{{anim id=\"Eh\" target=\"actor\" targetSpec=\"\"}}Huh? {{delay20}}Hier wonen? {{delay20}}Klinkt gaaf{{string value=\"...\"}}{{delay frames=\"40\"}}{{anim id=\"Negative\" target=\"actor\" targetSpec=\"\"}} maar\ndat gaat niet.{{pageBreak}}{{anim id=\"OhGeez\" target=\"actor\" targetSpec=\"\"}}Ik heb jaren besteed om mijn\ntrainingsplek in te richten. {{delay20}}Die wil ik\nliever niet overhoop halen."
  },
  {
    "label": "101_02",
    "attribute": "0x0000000000000000",
    "text": "{{anim id=\"Aha\" target=\"actor\" targetSpec=\"\"}}{{delay20}}Huh?! {{delay20}}Hierheen verhuizen? {{delay20}}Wauw, dat zou zo{{string value=\"...\"}}{{delay8}}{{anim id=\"Negative\" target=\"actor\" targetSpec=\"\"}} Eh, nee, dat gaat niet.{{pageBreak}}{{anim id=\"Explain\" target=\"actor\" targetSpec=\"\"}}Ik werk al heel lang aan een recept\nvoor een proteïneshake, {{delay8}}al maanden,\n{{delay20}}en ik ben er bijna uit.{{pageBreak}}{{anim id=\"Restless\" target=\"actor\" targetSpec=\"\"}}De samenstelling is heel ingewikkeld.\n{{delay20}}Ik heb zelfs een schoolbord moeten\nkopen om dingen op te schrijven.{{pageBreak}}{{anim id=\"OhGeez\" target=\"actor\" targetSpec=\"\"}}Sorry, {{delay20}}maar ik wil mijn beginproduct\nniet blootstellen aan een heleboel\nveranderingen."
  },
  {
    "label": "101_03",
    "attribute": "0x0000000000000000",
    "text": "{{anim id=\"Eh\" target=\"actor\" targetSpec=\"\"}}Verhuizen?{{delay frames=\"40\"}} {{anim id=\"Negative\" target=\"actor\" targetSpec=\"\"}}Dat zou gaaf zijn, maar ik\ndenk niet dat dat gaat lukken op het\nmoment.{{pageBreak}}{{anim id=\"Explain\" target=\"actor\" targetSpec=\"\"}}Ik wil anderen helpen om spieren te\nkweken, {{delay20}}maar hier ziet iedereen er al\nuit als een bodybuilder.{{pageBreak}}{{anim id=\"Nodding\" target=\"actor\" targetSpec=\"\"}}Er is vast een eiland waar ze mijn\nhulp wel nodig hebben.{{delay frames=\"40\"}}{{anim id=\"OhGeez\" target=\"actor\" targetSpec=\"\"}} Sorry, {{delay20}}maar\ndat is mijn keuze."
  },
  {
    "label": "201_01",
    "attribute": "0x0000010000000000",
    "text": "{{anim id=\"QuestionMark\" target=\"actor\" targetSpec=\"\"}}Huh?! {{delay20}}Echt? {{delay20}}Wauw, ik weet niet wat\nik moet zeggen{{string value=\"...\"}}{{pageBreak}}Weet je wat.{{delay frames=\"40\"}} {{anim id=\"Nodding\" target=\"actor\" targetSpec=\"\"}}Laten we het overlaten\naan de spierkracht van het lot {{delay20}}met\neen spelletje.{{pageBreak}}{{anim id=\"Explain\" target=\"actor\" targetSpec=\"\"}}Als jij wint, verhuis ik hierheen.\n{{delay20}}Klinkt dat goed?"
  },
  {
    "label": "201_01_a",
    "attribute": "0x0000000000000000",
    "text": "Ja, kom maar op!"
  },
  {
    "label": "201_01_b",
    "attribute": "0x0000000000000000",
    "text": "Nee, dank je."
  },
  {
    "label": "201_02",
    "attribute": "0x0000010000000000",
    "text": "{{anim id=\"QuestionMark\" target=\"actor\" targetSpec=\"\"}}Wat? Wil je dat ik me aansluit bij\nteam {{string value=\"IslandName\"}}?{{pageBreak}}{{anim id=\"Nodding\" target=\"actor\" targetSpec=\"\"}}Nou, als je mijn skills zo graag aan je\nteam wilt toevoegen, {{delay20}}wil je vast wel\neen spelletje met me spelen.{{pageBreak}}{{anim id=\"Explain\" target=\"actor\" targetSpec=\"\"}}Als jij wint, verhuis ik. {{delay20}}Ben je er klaar\nvoor?"
  },
  {
    "label": "201_02_a",
    "attribute": "0x0000000000000000",
    "text": "Reken maar van yes!"
  },
  {
    "label": "201_02_b",
    "attribute": "0x0000000000000000",
    "text": "Ik weet niet..."
  },
  {
    "label": "201_03",
    "attribute": "0x0000010000000000",
    "text": "{{anim id=\"Eh\" target=\"actor\" targetSpec=\"\"}}Ik? {{delay20}}Hier komen wonen?{{delay frames=\"40\"}} {{anim id=\"Grin\" target=\"actor\" targetSpec=\"\"}}Denk je echt\ndat je het aankunt om mijn\n{{gender2 m=\"buurman\" f=\"buurvrouw\"}} te zijn, {{string value=\"Catchphrase\"}}?{{pageBreak}}{{anim id=\"Smiling\" target=\"actor\" targetSpec=\"\"}}Er is maar een manier om dat uit te\nzoeken! {{delay20}}We gaan een wedstrijdje\nhouden.{{pageBreak}}{{anim id=\"Explain\" target=\"actor\" targetSpec=\"\"}}Als jij het spel wint, verhuis ik. {{delay20}}Wat\nzeg je ervan?"
  },
  {
    "label": "201_03_a",
    "attribute": "0x0000000000000000",
    "text": "Ik ga je uitdaging aan!"
  },
  {
    "label": "201_03_b",
    "attribute": "0x0000000000000000",
    "text": "Hm... nee."
  },
  {
    "label": "202_01",
    "attribute": "0x0000000000000000",
    "text": "{{anim id=\"Eh\" target=\"actor\" targetSpec=\"\"}}O! {{delay20}}Meen je dat?{{delay frames=\"40\"}} {{anim id=\"OhGeez\" target=\"actor\" targetSpec=\"\"}}De spieren van het\nlot zijn blijkbaar een beetje verzuurd\nvandaag, {{string value=\"Catchphrase\"}}{{string value=\"...\"}}"
  },
  {
    "label": "202_02",
    "attribute": "0x0000000000000000",
    "text": "{{anim id=\"OhGeez\" target=\"actor\" targetSpec=\"\"}}Nou{{string value=\"...\"}}{{delay20}} goed dan. {{delay20}}Ik wacht wel totdat iemand anders me scout, {{string value=\"Catchphrase\"}}!"
  },
  {
    "label": "202_03",
    "attribute": "0x0000000000000000",
    "text": "{{anim id=\"Negative\" target=\"actor\" targetSpec=\"\"}}O. {{delay20}}Dan niet.{{delay frames=\"40\"}} {{anim id=\"OhGeez\" target=\"actor\" targetSpec=\"\"}}Eerlijk gezegd weet ik\nniet of ik zelf voorbereid ben om mijn\neigen buurman te zijn, {{string value=\"Catchphrase\"}}."
  },
  {
    "label": "203_01",
    "attribute": "0x0000000000000000",
    "text": "{{anim id=\"BigSmile\" target=\"actor\" targetSpec=\"\"}}Dan gaan we nu een kaartspelletje\ndoen!"
  },
  {
    "label": "204",
    "attribute": "0x0000000000000000",
    "text": "{{fun_0014003C arg=\"\"}}"
  },
  {
    "label": "204_01",
    "attribute": "0x0000000000000000",
    "text": "{{anim id=\"SmugFace\" target=\"actor\" targetSpec=\"\"}}Ik heb gewonnen! {{delay frames=\"60\"}}{{anim id=\"SadSpiral\" target=\"actor\" targetSpec=\"\"}}Wat jammer is\naangezien ik eigenlijk best wel zin\nhad om mijn spullen te versjouwen{{string value=\"...\"}}"
  },
  {
    "label": "204_02",
    "attribute": "0x0000000000000000",
    "text": "{{anim id=\"Nodding\" target=\"actor\" targetSpec=\"\"}}Scherp gespeeld, {{delay20}}maar het lijkt erop\ndat ik gewonnen heb."
  },
  {
    "label": "204_03",
    "attribute": "0x0000000000000000",
    "text": "{{anim id=\"Blushing\" target=\"actor\" targetSpec=\"\"}}Soms win je. {{delay20}}En soms verlies je. Maar\nik verlies nooit!"
  },
  {
    "label": "205",
    "attribute": "0x0000000000000000",
    "text": "{{fun_0014003C arg=\"\"}}"
  },
  {
    "label": "205_01",
    "attribute": "0x0000000000000000",
    "text": "{{anim id=\"BigSmile\" target=\"actor\" targetSpec=\"\"}}Dat was gaaf!{{delay frames=\"40\"}} {{anim id=\"Eh\" target=\"actor\" targetSpec=\"\"}}O! {{delay20}}Ik hoop dat jij het\nook leuk vond, {{string value=\"Catchphrase\"}}."
  },
  {
    "label": "205_02",
    "attribute": "0x0000000000000000",
    "text": "{{anim id=\"Nodding\" target=\"actor\" targetSpec=\"\"}}Ik hoop dat je het net zo gaaf vond\nals ik.{{delay frames=\"40\"}}{{anim id=\"BigSmile\" target=\"actor\" targetSpec=\"\"}} Ik vond het in ieder geval\ngeweldig, {{string value=\"Catchphrase\"}}!"
  },
  {
    "label": "205_03",
    "attribute": "0x0000000000000000",
    "text": "{{anim id=\"Smiling\" target=\"actor\" targetSpec=\"\"}}Dus{{string value=\"...\"}} wanneer is de huldiging, {{string value=\"Catchphrase\"}}?"
  },
  {
    "label": "206",
    "attribute": "0x0000000000000000",
    "text": "{{fun_0014003C arg=\"\"}}"
  },
  {
    "label": "206_01",
    "attribute": "0x0000000000000000",
    "text": "{{anim id=\"Serious\" target=\"actor\" targetSpec=\"\"}}Oké, {{delay20}}ik gooi de handdoek in de ring.\nJe houdt toch van handdoeken?{{pageBreak}}{{anim id=\"SmugFace\" target=\"actor\" targetSpec=\"\"}}Jij wilde dat dé {{string value=\"VillagerName\"}} op {{string value=\"IslandName\"}} komt wonen?{{delay20}} Komt in orde, {{string value=\"Catchphrase\"}}!{{pageBreak}}{{anim id=\"OhGeez\" target=\"actor\" targetSpec=\"\"}}Nou ja{{string value=\"...\"}} waarschijnlijk.{{delay20}} Ik moet eerst\nnog bij de {{color id=\"1\"}}servicebalie{{color id=\"65535\"}} vragen of het\nmag."
  },
  {
    "label": "206_02",
    "attribute": "0x0000000000000000",
    "text": "{{anim id=\"Explain\" target=\"actor\" targetSpec=\"\"}}Ik geef me gewonnen, {{string value=\"Catchphrase\"}}.{{pageBreak}}{{anim id=\"SmugFace\" target=\"actor\" targetSpec=\"\"}}Nou, zodra ik alles bij de {{color id=\"1\"}}servicebalie\n{{color id=\"65535\"}}heb geregeld, word ik dus je nieuwe\nbuurman.{{pageBreak}}Ik ben een {{string value=\"VillagerRace\"}} van mijn woord, dus ik ga maar snel inpakken, {{string value=\"Catchphrase\"}}."
  },
  {
    "label": "206_03",
    "attribute": "0x0000000000000000",
    "text": "{{anim id=\"Smiling\" target=\"actor\" targetSpec=\"\"}}Jij neemt je uitdagingen serieus,\nzeg! En je overwinningen ook.{{pageBreak}}{{anim id=\"EmotEnd\" target=\"actor\" targetSpec=\"\"}}Oké, dan zijn we eruit.{{delay20}} {{anim id=\"SmugFace\" target=\"actor\" targetSpec=\"\"}}Maak je borst maar nat, want {{string value=\"VillagerName\"}} zit binnenkort in de selectie!{{pageBreak}}{{anim id=\"ShyBoy\" target=\"actor\" targetSpec=\"\"}}Als ze het tenminste bij de\n{{color id=\"1\"}}servicebalie{{color id=\"65535\"}} goedvinden{{string value=\"...\"}}"
  },
  {
    "label": "207_01",
    "attribute": "0x0000010000000000",
    "text": "{{anim id=\"Aha\" target=\"actor\" targetSpec=\"\"}}{{delay20}}Jemig, je wilt echt HEEL erg graag dat ik naar {{string value=\"IslandName\"}} verhuis, hè?{{pageBreak}}{{anim id=\"IdeaBulb\" target=\"actor\" targetSpec=\"\"}}{{delay20}}Het lot mag het voor ons beslissen.{{delay8}}\n{{anim id=\"Angry\" target=\"actor\" targetSpec=\"\"}}Als je deze ultieme krachtmeting\nwint, verhuis ik hiernaartoe!{{pageBreak}}{{anim id=\"SmugFace\" target=\"actor\" targetSpec=\"\"}}Ben je er klaar voor, {{string value=\"Catchphrase\"}}?"
  },
  {
    "label": "207_01_a",
    "attribute": "0x0000000000000000",
    "text": "Kom maar op!"
  },
  {
    "label": "207_01_b",
    "attribute": "0x0000000000000000",
    "text": "Laat dan maar zitten..."
  },
  {
    "label": "207_02",
    "attribute": "0x0000010000000000",
    "text": "{{anim id=\"ShyBoy\" target=\"actor\" targetSpec=\"\"}}Ik begrijp het volkomen. Atleten van\nmijn kaliber zijn lastig te vinden.{{delay20}} Als\nFC {{string value=\"IslandName\"}} me nog wil{{string value=\"...\"}}{{pageBreak}}{{anim id=\"Nodding\" target=\"actor\" targetSpec=\"\"}}{{string value=\"...\"}}laten we het spelletje dan opnieuw\nspelen.{{delay20}} Als jij wint, krijg je er een\nteamgenoot bij.{{pageBreak}}{{anim id=\"SmugFace\" target=\"actor\" targetSpec=\"\"}}Ben je er klaar voor, {{string value=\"Catchphrase\"}}?"
  },
  {
    "label": "207_02_a",
    "attribute": "0x0000000000000000",
    "text": "De beuk erin!"
  },
  {
    "label": "207_02_b",
    "attribute": "0x0000000000000000",
    "text": "Nee, toch liever niet."
  },
  {
    "label": "207_03",
    "attribute": "0x0000010000000000",
    "text": "{{anim id=\"Grin\" target=\"actor\" targetSpec=\"\"}}Denk je nog steeds cool genoeg te\nzijn om {{delay8}}MIJN{{delay20}} buur{{gender2 m=\"man\" f=\"vrouw\"}} te worden?{{pageBreak}}{{anim id=\"Laughing\" target=\"actor\" targetSpec=\"\"}}Hehehe! Daar komen we maar op één\nmanier achter, {{string value=\"Catchphrase\"}}!{{pageBreak}}{{anim id=\"Eh\" target=\"actor\" targetSpec=\"\"}}Wacht, {{delay8}}waar zijn mijn{{string value=\"...\"}}{{delay20}} {{anim id=\"SadSpiral\" target=\"actor\" targetSpec=\"\"}}Jammer, man!{{pageBreak}}{{anim id=\"Blushing\" target=\"actor\" targetSpec=\"\"}}Ik wilde je uitdagen tot een potje {{randomSports}}, {{delay8}}maar ik heb de juiste uitrusting niet bij me.{{pageBreak}}{{anim id=\"OhGeez\" target=\"actor\" targetSpec=\"\"}}Anders kaarten we erom? {{delay20}}Niet half\nzo cool natuurlijk, {{delay8}}maar als je wint,\nkom ik hier wonen, {{string value=\"Catchphrase\"}}."
  },
  {
    "label": "207_03_a",
    "attribute": "0x0000000000000000",
    "text": "Goed idee!"
  },
  {
    "label": "207_03_b",
    "attribute": "0x0000000000000000",
    "text": "Ik pas."
  },
  {
    "label": "208_01",
    "attribute": "0x0000000000000000",
    "text": "{{anim id=\"Eh\" target=\"actor\" targetSpec=\"\"}}O,{{delay8}} het leek mij wel een goed plan.{{delay frames=\"30\"}}\n{{anim id=\"Nodding\" target=\"actor\" targetSpec=\"\"}}Maakt ook niks uit, we hebben het\ner nog wel over, {{string value=\"6\"}}."
  },
  {
    "label": "208_02",
    "attribute": "0x0000000000000000",
    "text": "{{anim id=\"Shocked\" target=\"actor\" targetSpec=\"\"}}Dat meen je niet! {{delay20}}We hebben het\nnog niet eens gehad over op welke\npositie ik zou spelen!{{delay20}} {{anim id=\"SadSpiral\" target=\"actor\" targetSpec=\"\"}}Jemig{{string value=\"...\"}}"
  },
  {
    "label": "208_03",
    "attribute": "0x0000000000000000",
    "text": "{{anim id=\"Negative\" target=\"actor\" targetSpec=\"\"}}Sorry, man. {{delay20}}De volgende keer zorg ik\ndat ik de juiste uitrusting bij me heb\nvoor een potje {{randomSports}}."
  },
  {
    "label": "302",
    "attribute": "0x0000010000000000",
    "text": "{{anim id=\"Worried\" target=\"actor\" targetSpec=\"\"}}Slecht nieuws.{{delay20}} Ik heb de\n{{color id=\"1\"}}servicebalie{{color id=\"65535\"}} gesproken en die zeggen\ndat het niet gaat lukken.{{pageBreak}}{{anim id=\"OhGeez\" target=\"actor\" targetSpec=\"\"}}Er is gewoon geen plek meer voor\nzowel mij {{delay20}}als mijn enorme armen, {{string value=\"Catchphrase\"}}.{{pageBreak}}{{anim id=\"Serious\" target=\"actor\" targetSpec=\"\"}}Maar ik kan er eventueel bij{{delay20}} als er\niemand anders weggaat{{string value=\"...\"}}{{delay frames=\"60\"}}{{anim id=\"IdeaBulb\" target=\"actor\" targetSpec=\"\"}}{{delay20}} Zal ik\nkijken of ik iemand kan vinden?"
  },
  {
    "label": "302_a",
    "attribute": "0x0000000000000000",
    "text": "Ga je gang!"
  },
  {
    "label": "302_b",
    "attribute": "0x0000000000000000",
    "text": "Doe maar niet."
  },
  {
    "label": "303",
    "attribute": "0x0000000000000000",
    "text": "{{anim id=\"Thinking\" target=\"actor\" targetSpec=\"\"}}Hm{{string value=\"...\"}}{{delay20}} Een spierbonk die op je afkomt\nen je vraagt om weg te gaan?{{delay20}} Nee,\ndat komt vast niet goed over."
  },
  {
    "label": "304",
    "attribute": "0x0000000000000000",
    "text": "{{anim id=\"BigSmile\" target=\"actor\" targetSpec=\"\"}}Komt helemaal goed!{{delay20}} Bij de\n{{color id=\"1\"}}servicebalie{{color id=\"65535\"}} hebben ze me al\nwat namen gegeven.{{pageBreak}}{{anim id=\"QuestionMark\" target=\"actor\" targetSpec=\"\"}}Met wie moet ik volgens jou beginnen, {{string value=\"Catchphrase\"}}?"
  },
  {
    "label": "305",
    "attribute": "0x0000030000000000",
    "text": "{{anim id=\"QuestionMark\" target=\"actor\" targetSpec=\"\"}}Dus ik kan {{selection value=\"SelectedVillager\"}} vragen\nom weg te gaan? {{delay20}}Weet je het zeker?"
  },
  {
    "label": "305_a",
    "attribute": "0x0000000000000000",
    "text": "Ja!"
  },
  {
    "label": "305_b",
    "attribute": "0x0000000000000000",
    "text": "Nee, iemand anders..."
  },
  {
    "label": "305_c",
    "attribute": "0x0000000000000000",
    "text": "Eh... Nee, laat maar."
  },
  {
    "label": "306",
    "attribute": "0x0000000000000000",
    "text": "{{anim id=\"Nodding\" target=\"actor\" targetSpec=\"\"}}Oké, ik ga het proberen. {{delay20}}Misschien\nzegt {{gender8 m=\"hij\" f=\"ze\" n=\"\"}} nee, maar ik kan het op zijn\nminst vragen."
  },
  {
    "label": "307",
    "attribute": "0x0000000000000000",
    "text": "{{anim id=\"Eh\" target=\"actor\" targetSpec=\"\"}}Oef! {{delay20}}Ik was al haast onderweg.{{delay frames=\"40\"}} {{anim id=\"Nodding\" target=\"actor\" targetSpec=\"\"}}Oké,\naan wie zal ik het dan vragen?"
  },
  {
    "label": "308",
    "attribute": "0x0000000000000000",
    "text": "{{anim id=\"Restless\" target=\"actor\" targetSpec=\"\"}}O{{string value=\"...\"}}{{delay20}} O-ké, {{string value=\"6\"}}{{string value=\"...\"}}"
  },
  {
    "label": "309",
    "attribute": "0x0000000000000000",
    "text": "{{anim id=\"BigSmile\" target=\"actor\" targetSpec=\"\"}}Dat ging makkelijk! {{delay20}}Zodra {{selection value=\"SelectedVillager\"}} me zag aankomen, begon {{gender8 m=\"hij\" f=\"ze\" n=\"\"}} in te pakken.{{pageBreak}}{{anim id=\"Explain\" target=\"actor\" targetSpec=\"\"}}Echt, het was zo geregeld!{{delay20}} Ik heb de\nsituatie uitgelegd,{{delay20}} mijn spierballen\nlaten zien {{delay20}}en het was rond!{{pageBreak}}{{anim id=\"FaintSmile\" target=\"actor\" targetSpec=\"\"}}{{gender8 m=\"Hij\" f=\"Ze\" n=\"\"}} leek me heel aardig. {{delay20}}Wel een\nbeetje nerveus.{{delay frames=\"40\"}} {{anim id=\"Smiling\" target=\"actor\" targetSpec=\"\"}}Hopelijk bevalt {{gender8 m=\"zijn\" f=\"haar\" n=\"\"}}\nnieuwe woonplek {{gender8 m=\"hem\" f=\"haar\" n=\"\"}}, {{string value=\"Catchphrase\"}}!{{pageBreak}}{{anim id=\"EmotEnd\" target=\"actor\" targetSpec=\"\"}}Maar{{string value=\"...\"}} {{delay20}}Hoe heet je eigenlijk?{{delay20}}\n{{anim id=\"Aha\" target=\"actor\" targetSpec=\"\"}}{{capitalizeNextLetter}}{{string value=\"NickName\"}}?{{delay frames=\"40\"}} Aangenaam!"
  },
  {
    "label": "309_01",
    "attribute": "0x0000000000000000",
    "text": "{{anim id=\"Explain\" target=\"actor\" targetSpec=\"\"}}Moet je luisteren{{string value=\"...\"}}{{delay20}} Ik heb {{selection value=\"SelectedVillager\"}} overal gezocht, maar {{gender3 m=\"hij\" f=\"ze\"}} is al gevlogen.{{pageBreak}}{{anim id=\"BigSmile\" target=\"actor\" targetSpec=\"\"}}Dat betekent vast dat nu de weg vrij\nis voor een transfer naar jouw eiland,\n{{string value=\"Catchphrase\"}}!{{pageBreak}}{{anim id=\"QuestionMark\" target=\"actor\" targetSpec=\"\"}}Trouwens, jij bent toch {{string value=\"NickName\"}}?{{pageBreak}}{{anim id=\"WrySmile\" target=\"actor\" targetSpec=\"\"}}Nou, maak je borst maar nat, {{string value=\"NickName\"}}. {{delay frames=\"40\"}}{{anim id=\"SmugFace\" target=\"actor\" targetSpec=\"\"}}{{string value=\"VillagerName\"}} komt eraan!"
  },
  {
    "label": "310",
    "attribute": "0x0000010000000000",
    "text": "{{anim id=\"QuestionMark\" target=\"actor\" targetSpec=\"\"}}Huh? {{delay20}}Denk je dat er niemand is die\ninteresse heeft?"
  },
  {
    "label": "310_a",
    "attribute": "0x0000000000000000",
    "text": "Misschien toch iemand..."
  },
  {
    "label": "310_b",
    "attribute": "0x0000000000000000",
    "text": "Nee, ik denk het niet."
  },
  {
    "label": "311",
    "attribute": "0x0000000000000000",
    "text": "{{anim id=\"Nodding\" target=\"actor\" targetSpec=\"\"}}Oké, dan. {{delay20}}Wie kan ik vragen om te\nverhuizen?"
  },
  {
    "label": "312",
    "attribute": "0x0000000000000000",
    "text": "{{anim id=\"Restless\" target=\"actor\" targetSpec=\"\"}}O. {{delay20}}Nou, als jij het zegt,{{delay20}} dan laten we\nhet er hier bij zitten, {{string value=\"Catchphrase\"}}."
  },
  {
    "label": "313",
    "attribute": "0x0000010000000000",
    "text": "{{anim id=\"Aha\" target=\"actor\" targetSpec=\"\"}}{{delay20}}Cool!{{delay20}} We maken een doorstart!{{delay20}} {{anim id=\"Nodding\" target=\"actor\" targetSpec=\"\"}}Wat denk je ervan om {{selection value=\"SelectedVillager\"}} voor mij te ruilen?{{pageBreak}}{{anim id=\"Explain\" target=\"actor\" targetSpec=\"\"}}De {{color id=\"1\"}}servicebalie {{color id=\"65535\"}}gaf aan dat {{gender8 m=\"hij\" f=\"zij\" n=\"\"}} een\ntransfer wel zou zien zitten.{{pageBreak}}{{anim id=\"QuestionMark\" target=\"actor\" targetSpec=\"\"}}Zal ik met {{selection value=\"SelectedVillager\"}} praten over een ruil?"
  },
  {
    "label": "313_a",
    "attribute": "0x0000000000000000",
    "text": "Ja, graag!"
  },
  {
    "label": "313_b",
    "attribute": "0x0000000000000000",
    "text": "Beter van niet..."
  },
  {
    "label": "314",
    "attribute": "0x0000000000000000",
    "text": "{{anim id=\"OhGeez\" target=\"actor\" targetSpec=\"\"}}Je houdt FC {{string value=\"OtherIslandName\"}} liever zoals het is, hè? {{delay20}}Logisch. {{delay20}}Misschien volgend seizoen beter, {{string value=\"Catchphrase\"}}."
  },
  {
    "label": "404",
    "attribute": "0x0000000000000000",
    "text": "{{anim id=\"Negative\" target=\"actor\" targetSpec=\"\"}}Ik heb de {{color id=\"1\"}}servicebalie{{color id=\"65535\"}} gesproken.{{delay20}}\nZe zeggen dat er geen plek meer is\nvoor nog een bewoner, {{string value=\"Catchphrase\"}}.{{pageBreak}}{{anim id=\"Nodding\" target=\"actor\" targetSpec=\"\"}}Dat snap ik best. {{delay20}}Ik ben natuurlijk\nvrij fors{{delay20}} en ik wil niet dat ik met mijn\nspieren iemand van het eiland duw."
  },
  {
    "label": "405",
    "attribute": "0x0000000000000000",
    "text": "{{anim id=\"Worried\" target=\"actor\" targetSpec=\"\"}}Bij de {{color id=\"1\"}}servicebalie{{color id=\"65535\"}} zeiden ze nee\ntegen me.{{delay20}} Er zijn blijkbaar geen\npercelen te koop, {{string value=\"Catchphrase\"}}.{{pageBreak}}{{anim id=\"Negative\" target=\"actor\" targetSpec=\"\"}}Ik heb het nog gevraagd, maar\nschijnbaar mag je ook niet uit je\nkano leven. {{delay frames=\"40\"}}{{delay frames=\"40\"}}{{anim id=\"OhGeez\" target=\"actor\" targetSpec=\"\"}}Jammer, man!"
  },
  {
    "label": "406",
    "attribute": "0x0000000000000000",
    "text": "{{anim id=\"FaintSmile\" target=\"actor\" targetSpec=\"\"}}Hé! Ik heb antwoord gekregen van\nde {{color id=\"1\"}}servicebalie{{color id=\"65535\"}}.{{delay frames=\"40\"}} {{anim id=\"BigSmile\" target=\"actor\" targetSpec=\"\"}}We worden buren,\n{{string value=\"Catchphrase\"}}!{{pageBreak}}{{anim id=\"Smiling\" target=\"actor\" targetSpec=\"\"}}Iedereen op het eiland zal vast\nenorm onder de indruk zijn van mijn\nenorme bicepsen.{{pageBreak}}{{anim id=\"SmugFace\" target=\"actor\" targetSpec=\"\"}}Dat ben ik ook nog steeds,{{delay20}} ook al\nheb ik ze al mijn hele leven!"
  },
  {
    "label": "407",
    "attribute": "0x0000000000000000",
    "text": "{{anim id=\"EmotEnd\" target=\"actor\" targetSpec=\"\"}}Oké, hartstikke goed! {{delay8}}Ik heb bij de\n{{color id=\"1\"}}servicebalie {{color id=\"65535\"}}toestemming gekregen\nom hiernaartoe te verhuizen!{{delay20}}\n{{anim id=\"Nodding\" target=\"actor\" targetSpec=\"\"}}Schijnbaar was mijn timing perfect.{{delay frames=\"40\"}}\n{{anim id=\"Explain\" target=\"actor\" targetSpec=\"\"}}Iemand zou er namelijk net vandoor\nzijn gegaan.{{pageBreak}}{{anim id=\"Thinking\" target=\"actor\" targetSpec=\"\"}}Poeh! {{delay8}}Denk je eens in hoeveel\nverhuisdozen je dan moet tillen{{string value=\"...\"}}{{delay20}}\n{{anim id=\"Love\" target=\"actor\" targetSpec=\"\"}}Genieten, man!{{pageBreak}}{{anim id=\"Aha\" target=\"actor\" targetSpec=\"\"}}{{delay20}}Nu is het mijn beurt om al mijn\nspullen te versjouwen, {{string value=\"Catchphrase\"}}!{{pageBreak}}{{anim id=\"Serious\" target=\"actor\" targetSpec=\"\"}}Had ik me eigenlijk al voorgesteld?{{delay20}}{{anim id=\"Greeting\" target=\"actor\" targetSpec=\"\"}} De naam is {{string value=\"VillagerName\"}}. {{delay8}}En jij bent{{string value=\"...\"}}{{delay20}} {{string value=\"NickName\"}}! {{delay8}}Duidelijk!{{pageBreak}}{{anim id=\"HappyDance\" target=\"actor\" targetSpec=\"\"}}Wat een dag! {{delay8}}Ik heb een nieuwe\nplek om te trainen én een nieuw\ntrainingsmaatje!"
  },
  {
    "label": "410",
    "attribute": "0x0000010000000000",
    "text": "{{anim id=\"Nodding\" target=\"actor\" targetSpec=\"\"}}Weet je wat,{{delay20}} ik zal het nog eens\nproberen bij de {{color id=\"1\"}}servicebalie{{color id=\"65535\"}}.{{pageBreak}}{{anim id=\"BigSmile\" target=\"actor\" targetSpec=\"\"}}Misschien heb ik deze keer wel\ngeluk, {{string value=\"Catchphrase\"}}!"
  },
  {
    "label": "410_a",
    "attribute": "0x0000000000000000",
    "text": "Ja! Succes!"
  },
  {
    "label": "410_b",
    "attribute": "0x0000000000000000",
    "text": "Heeft dat wel zin?"
  },
  {
    "label": "411",
    "attribute": "0x0000000000000000",
    "text": "{{anim id=\"Worried\" target=\"actor\" targetSpec=\"\"}}Je hebt vast gelijk.{{delay frames=\"40\"}} {{anim id=\"Negative\" target=\"actor\" targetSpec=\"\"}}Als ik hier kon\nkomen wonen,{{delay20}} dan hadden ze dat wel\neerder gezegd, {{string value=\"Catchphrase\"}}.{{pageBreak}}{{anim id=\"OhGeez\" target=\"actor\" targetSpec=\"\"}}En{{delay20}} ik wil geen slechte reputatie\nkrijgen.{{delay frames=\"40\"}}{{anim id=\"SmugFace\" target=\"actor\" targetSpec=\"\"}} Dat past niet bij mijn imago\nvan vriendelijke spierbonk."
  },
  {
    "label": "423",
    "attribute": "0x0000000000000000",
    "text": "{{anim id=\"Nodding\" target=\"actor\" targetSpec=\"\"}}Ze zeiden dat er geen plek meer is\nvoor nieuwe bewoners.{{delay20}} Ik had geen\nidee dat het hier zo populair was!{{pageBreak}}{{anim id=\"OhGeez\" target=\"actor\" targetSpec=\"\"}}Met het aantal calorieën dat ik per\ndag verbrand, snap ik dat ze zuinig\nzijn op hun voorraden, {{string value=\"6\"}}!"
  },
  {
    "label": "424",
    "attribute": "0x0000000000000000",
    "text": "{{anim id=\"Nodding\" target=\"actor\" targetSpec=\"\"}}Er is blijkbaar geen enkel perceel\nmeer te koop op het eiland!{{pageBreak}}{{anim id=\"Sighing\" target=\"actor\" targetSpec=\"\"}}Waarom heb je niet gezegd dat het\nhier zo populair is?{{pageBreak}}{{anim id=\"Greeting\" target=\"actor\" targetSpec=\"\"}}Je moet het me maar laten weten als\ner toch nog een plekje voor me\nvrijkomt, {{string value=\"Catchphrase\"}}!"
  },
  {
    "label": "504",
    "attribute": "0x0000010000000000",
    "text": "{{anim id=\"Smiling\" target=\"actor\" targetSpec=\"\"}}Mijn work-outs zijn naar een hoger\nniveau getild {{delay20}}sinds ik hier ben\ngekomen, {{string value=\"Catchphrase\"}}!{{pageBreak}}{{anim id=\"SmugFace\" target=\"actor\" targetSpec=\"\"}}Wat gebeurt er als ik nog langer\nblijf? {{delay8}}Kunnen spieren eigenlijk\nspieren krijgen?!"
  },
  {
    "label": "504_a",
    "attribute": "0x0000000000000000",
    "text": "Anders blijf je gewoon!"
  },
  {
    "label": "504_b",
    "attribute": "0x0000000000000000",
    "text": "Dat is vast op te zoeken."
  },
  {
    "label": "505",
    "attribute": "0x0000000000000000",
    "text": "{{anim id=\"Eh\" target=\"actor\" targetSpec=\"\"}}Hier wonen?{{delay frames=\"40\"}} {{anim id=\"Thinking\" target=\"actor\" targetSpec=\"\"}}Verleidelijk, man.{{delay20}}\nHmm{{string value=\"...\"}}{{pageBreak}}{{anim id=\"Negative\" target=\"actor\" targetSpec=\"\"}}Nee{{string value=\"...\"}}{{delay20}} Sorry, maar ik moet deze\ntransfer afwijzen, {{string value=\"Catchphrase\"}}.{{pageBreak}}{{anim id=\"Explain\" target=\"actor\" targetSpec=\"\"}}Als ik hier zou wonen, {{delay20}}zou ik nooit\nstoppen met trainen{{string value=\"...\"}}{{pageBreak}}{{anim id=\"AbsentMindedness\" target=\"actor\" targetSpec=\"\"}}{{string value=\"...\"}}en dan zou ik nooit meer dat\nzalige gevoel van spierpijn kennen.{{pageBreak}}{{anim id=\"ShyBoy\" target=\"actor\" targetSpec=\"\"}}Maar ik wil best nog eens\nterugkomen. {{delay20}}Vraag het me nog\neens de volgende keer."
  },
  {
    "label": "506",
    "attribute": "0x0000000000000000",
    "text": "{{anim id=\"Explain\" target=\"actor\" targetSpec=\"\"}}Ja! {{delay20}}Goed punt! {{delay20}}Misschien moet ik\neens een boek openen in plaats van\nhet als gewicht te gebruiken{{string value=\"...\"}}{{pageBreak}}{{anim id=\"Hello\" target=\"actor\" targetSpec=\"\"}}Dat is tenminste wat iedereen altijd\ntegen me zegt, {{string value=\"Catchphrase\"}}!"
  },
  {
    "label": "507",
    "attribute": "0x0000010000000000",
    "text": "{{anim id=\"Grin\" target=\"actor\" targetSpec=\"\"}}Deze plek is zo cool! {{delay20}}Ik had niet\nzoveel medefitnessfanaten verwacht, {{string value=\"Catchphrase\"}}.{{pageBreak}}{{anim id=\"ShyBoy\" target=\"actor\" targetSpec=\"\"}}Thuis gaat iedereen op stand-by\nzodra ik over spieren begin,{{delay20}} maar\nhier niet!"
  },
  {
    "label": "507_a",
    "attribute": "0x0000000000000000",
    "text": "Blijf dan gewoon hier!"
  },
  {
    "label": "507_b",
    "attribute": "0x0000000000000000",
    "text": "Onvoorstelbaar..."
  },
  {
    "label": "508",
    "attribute": "0x0000000000000000",
    "text": "{{anim id=\"Eh\" target=\"actor\" targetSpec=\"\"}}Huh, hier wonen?{{delay20}} O.{{delay frames=\"40\"}} {{anim id=\"Hello\" target=\"actor\" targetSpec=\"\"}}Eh, nee, sorry.{{pageBreak}}{{anim id=\"Smiling\" target=\"actor\" targetSpec=\"\"}}Ik heb de luitjes hier al genoeg\nverblijd met mijn spierenkunde,\n{{delay8}}elders hebben ze me meer nodig.{{pageBreak}}{{anim id=\"Thinking\" target=\"actor\" targetSpec=\"\"}}Maar ik heb wel interesse{{string value=\"...\"}}{{delay frames=\"80\"}} {{anim id=\"Negative\" target=\"actor\" targetSpec=\"\"}}Tja,\nik kan geen beslissing maken.{{pageBreak}}{{anim id=\"ShyBoy\" target=\"actor\" targetSpec=\"\"}}Kun je me nog eens uitnodigen en me het dan opnieuw vragen, {{string value=\"Catchphrase\"}}?"
  },
  {
    "label": "509",
    "attribute": "0x0000000000000000",
    "text": "{{anim id=\"Explain\" target=\"actor\" targetSpec=\"\"}}Nou, hè?! {{delay20}}Ik wil alleen maar dat\niedereen zo'n gespierd lichaam heeft\nals het mijn, {{string value=\"Catchphrase\"}}.{{pageBreak}}{{anim id=\"Smiling\" target=\"actor\" targetSpec=\"\"}}Of bijna zo gespierd, {{delay8}}je hebt altijd\nmindere goden{{string value=\"...\"}}"
  }
]