﻿[
  {
    "label": "001",
    "attribute": "0x000021",
    "text": "Guardando{{string value=\"...\"}}{{delay8}}\n{{color id=\"0\"}}No toques .{{color id=\"65535\"}}"
  },
  {
    "label": "002",
    "attribute": "0x000021",
    "text": "Borrando los datos del residente{{string value=\"...\"}}{{delay8}}\n{{color id=\"0\"}}No toques .{{color id=\"65535\"}}"
  },
  {
    "label": "003",
    "attribute": "0x000021",
    "text": "Se han borrado los datos."
  },
  {
    "label": "004",
    "attribute": "0x000021",
    "text": "Cierra el juego desde el menú HOME."
  },
  {
    "label": "005",
    "attribute": "0x000021",
    "text": "Se va a vincular el usuario actual\ncon estos datos de residente.\n{{color id=\"0\"}}No toques .{{color id=\"65535\"}}"
  },
  {
    "label": "006",
    "attribute": "0x000021",
    "text": "Se han vinculado los datos."
  },
  {
    "label": "007",
    "attribute": "0x000021",
    "text": "Se van a reiniciar todas\nlas funciones que usen internet.\n{{color id=\"0\"}}No toques .{{color id=\"65535\"}}"
  },
  {
    "label": "008",
    "attribute": "0x000021",
    "text": "Se van a borrar los datos de sueño\nde {{string value=\"OtherIslandName\"}}. {{color id=\"0\"}}No toques .{{color id=\"65535\"}}"
  },
  {
    "label": "009",
    "attribute": "0x000021",
    "text": "La copia de los datos de guardado\nse está descargando del servidor\ny se va a recuperar. {{color id=\"0\"}}No toques .{{color id=\"65535\"}}"
  },
  {
    "label": "011",
    "attribute": "0x000021",
    "text": "Se está habilitando la recuperación\nde datos de guardado{{string value=\"...\"}}{{delay8}}\n{{color id=\"0\"}}No toques .{{color id=\"65535\"}}"
  },
  {
    "label": "012",
    "attribute": "0x000021",
    "text": "Estableciendo la conexión a internet\npara comprobar la disponibilidad de\n{{color id=\"1\"}}datos de guardado que recuperar{{color id=\"65535\"}}{{string value=\"...\"}}"
  },
  {
    "label": "013",
    "attribute": "0x000021",
    "text": "Comprobando los datos\ndel residente{{string value=\"...\"}}{{delay8}} {{color id=\"0\"}}No toques .{{color id=\"65535\"}}"
  },
  {
    "label": "014",
    "attribute": "0x000021",
    "text": "Estableciendo la conexión a\ninternet para actualizar la copia\nde seguridad{{string value=\"...\"}} {{color id=\"0\"}}No toques .{{color id=\"65535\"}}"
  },
  {
    "label": "015",
    "attribute": "0x000021",
    "text": "Se actualizó la copia de seguridad."
  }
]