﻿[
  {
    "label": "001",
    "attribute": "0x0000000000000000",
    "text": "{{i20_2 arg=\"10\"}}{{anim id=\"Eh\" target=\"actor\" targetSpec=\"\"}}Cariño,{{delay8}} ¡qué buen ojo has tenido!{{i20_2 arg=\"9\"}}{{delay20}}\n{{anim id=\"Sighing\" target=\"actor\" targetSpec=\"\"}}Con lo difícil que es escoger cama{{string value=\"...\"}}{{pageBreak}}{{i20_3 arg=\"6\"}}{{anim id=\"Explain\" target=\"actor\" targetSpec=\"\"}}Tiene que ser cómoda y acogedora,{{i20_3 arg=\"3\"}}{{delay8}}\npero a la vez firme para la espalda{{string value=\"...\"}}{{pageBreak}}{{anim id=\"Thinking\" target=\"actor\" targetSpec=\"\"}}Los materiales,{{delay8}} naturales y a ser\nposible de fuentes ecológicamente\nsostenibles{{string value=\"...\"}}\n{{anim id=\"Shocked\" target=\"actor\" targetSpec=\"\"}}¡Y el tamaño!{{delay20}} Porque mira que si,\n{{anim id=\"OhGeez\" target=\"actor\" targetSpec=\"\"}}al instalarla, ya no puedes abrir\nla puerta del ropero{{string value=\"...\"}}\n{{anim id=\"Serious\" target=\"actor\" targetSpec=\"\"}}Pero la pregunta más importante es:{{delay20}}\n¿hay disponibles {{anim id=\"Grin\" target=\"actor\" targetSpec=\"\"}}mesitas de noche\na juego, {{string value=\"6\"}}?"
  },
  {
    "label": "002",
    "attribute": "0x0000000000000000",
    "text": "{{anim id=\"QuestionMark\" target=\"actor\" targetSpec=\"\"}}¿Ves mucho la tele?{{delay20}} La gente\nse relaja con eso,{{delay8}} {{anim id=\"Shocked\" target=\"actor\" targetSpec=\"\"}}aunque a mí\nme pone tensísima.\n{{anim id=\"OhGeez\" target=\"actor\" targetSpec=\"\"}}Será porque suelo ver dramas{{string value=\"...\"}}{{delay8}}\n¡Me vuelco tanto que sufro yo {{anim id=\"Oops\" target=\"actor\" targetSpec=\"\"}}más\nque los personajes!\n{{anim id=\"Thinking\" target=\"actor\" targetSpec=\"\"}}Si es una serie,{{delay8}} a veces hasta acabo\nperdiendo peso{{string value=\"...\"}} {{anim id=\"WrySmile\" target=\"actor\" targetSpec=\"\"}}No es un programa\nde ejercicio muy sano,{{delay8}} lo sé.\n{{anim id=\"FaintSmile\" target=\"actor\" targetSpec=\"\"}}Pero bueno,{{delay8}} si el episodio final\nde temporada lo merece,{{delay8}} me voy\nuna tarde al spa{{delay8}} {{anim id=\"SmugFace\" target=\"actor\" targetSpec=\"\"}}y como nueva."
  },
  {
    "label": "003",
    "attribute": "0x0000000000000000",
    "text": "{{i20_2 arg=\"10\"}}{{i20_2 arg=\"9\"}}{{anim id=\"FaintSmile\" target=\"actor\" targetSpec=\"\"}}¿Qué música sueles escuchar?{{delay20}}\n¿Te gusta {{fun_00010032 arg=\"\"}}{{randomMusic}}{{delay8}} o eres más de {{randomMusic}}?{{pageBreak}}{{i20_3 arg=\"6\"}}{{i20_3 arg=\"3\"}}{{anim id=\"Explain\" target=\"actor\" targetSpec=\"\"}}A mí me encantan la música clásica\ny la ópera,{{delay8}} ya lo sabrás.{{delay20}} {{anim id=\"HappyDance\" target=\"actor\" targetSpec=\"\"}}¡Son tan\nrefinadas y elegantes{{string value=\"...\"}}{{delay8}}!\n{{anim id=\"AbsentMindedness\" target=\"actor\" targetSpec=\"\"}}Yo tendría que haber sido directora\nde orquesta{{string value=\"...\"}}{{delay8}} {{anim id=\"Scheming\" target=\"actor\" targetSpec=\"\"}}¡Con lo que a mí\nme gusta mandar!\n{{anim id=\"QuestionMark\" target=\"actor\" targetSpec=\"\"}}¿Directora de orquesta?{{delay8}} ¿Directriz?{{delay20}}\n{{anim id=\"TakenAback\" target=\"actor\" targetSpec=\"\"}}¿Cómo se dice?{{delay frames=\"30\"}} {{capitalizeNextLetter}}{{string value=\"NickName\"}},{{delay8}}\n{{anim id=\"Frantic\" target=\"actor\" targetSpec=\"\"}}¡necesito un diccionario,{{delay8}} deprisa!"
  },
  {
    "label": "004",
    "attribute": "0x0000000000000000",
    "text": "{{i20_2 arg=\"10\"}}{{i20_2 arg=\"9\"}}{{anim id=\"Eh\" target=\"actor\" targetSpec=\"\"}}¡Tú también tienes un reloj!{{delay20}}\n{{anim id=\"Sighing\" target=\"actor\" targetSpec=\"\"}}Qué alivio{{string value=\"...\"}}{{i20_3 arg=\"6\"}}{{pageBreak}}{{i20_3 arg=\"3\"}}{{anim id=\"OhGeez\" target=\"actor\" targetSpec=\"\"}}Hay gente en esta isla que piensa\nque prescindiendo de relojes pueden\nvivir como si no pasara el tiempo{{string value=\"...\"}}\n{{anim id=\"FaintSmile\" target=\"actor\" targetSpec=\"\"}}Pero es importante mantener las\ncitas,{{delay8}} ser puntual,{{delay8}} estructurar tu día,{{delay8}}\nsaber cuánto le queda a la lavadora{{string value=\"...\"}}\n{{anim id=\"Explain\" target=\"actor\" targetSpec=\"\"}}Lo que yo hago para que el tiempo\nno pase por mí{{delay8}} {{anim id=\"WrySmile\" target=\"actor\" targetSpec=\"\"}}es prescindir\nde calendarios."
  },
  {
    "label": "005",
    "attribute": "0x0000000000000000",
    "text": "{{i20_2 arg=\"10\"}}{{anim id=\"Explain\" target=\"actor\" targetSpec=\"\"}}Tienes muy bonit{{gender8 m=\"o\" f=\"a\" n=\"\"}} {{i20_2 arg=\"9\"}}{{fun_00010032 arg=\"\"}}{{fun_0000007D arg=\"0x0000\"}},{{delay8}} se nota que l{{gender8 m=\"o\" f=\"a\" n=\"\"}} riegas a diario, {{string value=\"6\"}}.{{pageBreak}}{{i20_3 arg=\"6\"}}{{i20_3 arg=\"3\"}}{{anim id=\"Thinking\" target=\"actor\" targetSpec=\"\"}}Dicen que es importante hablarles\na las plantas.{{delay20}} {{anim id=\"EmotEnd\" target=\"actor\" targetSpec=\"\"}}Yo lo he intentado,{{delay8}}\n{{anim id=\"Sighing\" target=\"actor\" targetSpec=\"\"}}pero es bastante aburrido.\n{{anim id=\"OhGeez\" target=\"actor\" targetSpec=\"\"}}Nunca tienen cotilleos jugosos\nque contarme{{string value=\"...\"}}"
  },
  {
    "label": "006",
    "attribute": "0x0000000000000000",
    "text": "{{i20_2 arg=\"10\"}}{{anim id=\"Eh\" target=\"actor\" targetSpec=\"\"}}Muy bien, {{string value=\"NickName\"}},{{i20_2 arg=\"9\"}}{{delay8}} tienes {{fun_00010032 arg=\"\"}}{{fun_0000007D arg=\"0x0000\"}} {{anim id=\"Nodding\" target=\"actor\" targetSpec=\"\"}}reluciente.{{pageBreak}}{{i20_3 arg=\"6\"}}{{i20_3 arg=\"3\"}}{{anim id=\"Grin\" target=\"actor\" targetSpec=\"\"}}Casi parece que no l{{gender8 m=\"o\" f=\"a\" n=\"\"}} uses{{string value=\"...\"}}"
  },
  {
    "label": "008",
    "attribute": "0x0000000000000000",
    "text": "{{i20_2 arg=\"10\"}}{{anim id=\"FaintSmile\" target=\"actor\" targetSpec=\"\"}}¿Le das mucho uso {{i20_2 arg=\"9\"}}a tu {{fun_0000007D arg=\"0x0000\"}}, {{string value=\"NickName\"}}?{{pageBreak}}{{anim id=\"QuestionMark\" target=\"actor\" targetSpec=\"\"}}¿Te sientas a redactar tus postales?{{delay20}}\n{{i20_3 arg=\"6\"}}¿Repasas libros de arte,{{delay8}} {{i20_3 arg=\"3\"}}álbumes de\nfotos?{{delay20}} ¿Estudias idiomas, quizás?\n{{anim id=\"Explain\" target=\"actor\" targetSpec=\"\"}}Yo solía tener un escritorio similar y\nuna máquina de escribir.{{delay20}} {{anim id=\"AbsentMindedness\" target=\"actor\" targetSpec=\"\"}}Me sentaba\ncada noche a componer mi novela{{string value=\"...\"}}\n{{anim id=\"OhGeez\" target=\"actor\" targetSpec=\"\"}}Me sentaba a eso,{{delay8}} pero se me hacía\nde día leyendo «Miss Nintendique».{{delay20}} {{anim id=\"Sighing\" target=\"actor\" targetSpec=\"\"}}Jamás escribí una línea.\n{{anim id=\"Grin\" target=\"actor\" targetSpec=\"\"}}Supongo que mi sueño no era tanto{{delay8}}\n{{i10_5}}escribir una novela{{endTag}}{{delay20}} como{{delay8}} {{i10_5}}haberla\nescrito{{endTag}},{{delay8}} así,{{delay8}} en pretérito perfecto{{string value=\"...\"}}"
  },
  {
    "label": "009",
    "attribute": "0x0000000000000000",
    "text": "{{i20_2 arg=\"10\"}}{{anim id=\"Thinking\" target=\"actor\" targetSpec=\"\"}}¿Has elegido tu {{fun_0000007D arg=\"0x0000\"}} {{i20_2 arg=\"9\"}}por su diseño o por lo cómod{{gender8 m=\"o\" f=\"a\" n=\"\"}} que es?{{pageBreak}}{{anim id=\"QuestionMark\" target=\"actor\" targetSpec=\"\"}}¿Y a {{gender2 m=\"los amigos\" f=\"las amigas\"}}?{{i20_3 arg=\"6\"}}{{delay20}} {{i20_3 arg=\"3\"}}{{anim id=\"Grin\" target=\"actor\" targetSpec=\"\"}}¿{{gender2 m=\"Los\" f=\"Las\"}} eliges por\nsu aspecto o por lo fácil que sea\nllevarse con {{gender2 m=\"ellos\" f=\"ellas\"}}?\nEs evidente que conmigo no tendrás\nqueja {{anim id=\"SmugFace\" target=\"actor\" targetSpec=\"\"}}en ninguno de los dos casos,\n{{string value=\"6\"}}{{string value=\"...\"}}"
  },
  {
    "label": "010",
    "attribute": "0x0000000000000000",
    "text": "{{i20_2 arg=\"10\"}}{{anim id=\"Shocked\" target=\"actor\" targetSpec=\"\"}}¿Sabes tocar {{i20_2 arg=\"9\"}}{{fun_00010032 arg=\"\"}}{{fun_0000007D arg=\"0x0000\"}}?{{delay20}} {{i20_3 arg=\"6\"}}¡{{gender2 m=\"Chico\" f=\"Chica\"}},{{delay8}} {{i20_3 arg=\"6\"}}qué de talentos ocultas!{{pageBreak}}{{anim id=\"Nodding\" target=\"actor\" targetSpec=\"\"}}Yo me apunté a clases hace años,{{delay20}}\n{{anim id=\"OhGeez\" target=\"actor\" targetSpec=\"\"}}pero nunca llegué a aprenderme\nmás de un villancico o dos{{string value=\"...\"}}"
  },
  {
    "label": "011",
    "attribute": "0x0000000000000000",
    "text": "{{i20_2 arg=\"10\"}}{{i20_2 arg=\"9\"}}{{anim id=\"QuestionMark\" target=\"actor\" targetSpec=\"\"}}¿Usas tu {{fun_0000007D arg=\"0x0000\"}} a diario, {{string value=\"NickName\"}}?{{pageBreak}}{{i20_3 arg=\"3\"}}{{i20_3 arg=\"6\"}}{{anim id=\"Nodding\" target=\"actor\" targetSpec=\"\"}}Adoro una cocina bien equipada.{{delay20}}\nNo hay nada tan saludable y grato\ncomo una comida casera.\n{{anim id=\"OhGeez\" target=\"actor\" targetSpec=\"\"}}Lo que pasa es que a veces le faltan\na una ingredientes{{string value=\"...\"}}{{delay8}} o tiempo{{string value=\"...\"}}{{delay8}}\no ideas{{string value=\"...\"}}{{delay8}} o ganas{{string value=\"...\"}}{{delay8}} {{anim id=\"Grin\" target=\"actor\" targetSpec=\"\"}}o todo a la vez."
  },
  {
    "label": "012",
    "attribute": "0x0000000000000000",
    "text": "{{anim id=\"QuestionMark\" target=\"actor\" targetSpec=\"\"}}{{i20_2 arg=\"10\"}}{{i20_2 arg=\"9\"}}¿{{capitalizeNextLetter}}{{wordArticle}}{{fun_0000007D arg=\"0x0000\"}},{{delay8}} {{string value=\"Catchphrase\"}}?{{pageBreak}}{{i20_3 arg=\"6\"}}{{anim id=\"Thinking\" target=\"actor\" targetSpec=\"\"}}No te tenía {{i20_3 arg=\"3\"}}por {{gender2 m=\"el vecino\" f=\"la vecina\"}} más\ndeportiv{{gender2 m=\"o\" f=\"a\"}} de {{string value=\"OtherIslandName\"}}{{string value=\"...\"}}{{delay8}}\n{{anim id=\"Shocked\" target=\"actor\" targetSpec=\"\"}}¿Qué hace esto aquí?{{pageBreak}}{{anim id=\"Grin\" target=\"actor\" targetSpec=\"\"}}¿Acaso quien yo me sé ya no tenía\nmás sitio en casa y te ha pedido\nque se l{{gender8 m=\"o\" f=\"a\" n=\"\"}} guardes?"
  },
  {
    "label": "016",
    "attribute": "0x0000000000000000",
    "text": "{{i20_2 arg=\"10\"}}{{anim id=\"Eh\" target=\"actor\" targetSpec=\"\"}}{{i20_2 arg=\"9\"}}{{capitalizeNextLetter}}{{wordArticle}}{{fun_0000007D arg=\"0x0000\"}} en casa.{{delay20}} Qué original y{{string value=\"...\"}}{{delay8}} {{anim id=\"FaintSmile\" target=\"actor\" targetSpec=\"\"}}{{string value=\"NickName\"}}-esco.{{pageBreak}}{{anim id=\"Thinking\" target=\"actor\" targetSpec=\"\"}}Es un poco como estar al aire libre\nsin tener que salir de casa.{{i20_3 arg=\"6\"}}{{delay20}} {{i20_3 arg=\"3\"}}{{anim id=\"Grin\" target=\"actor\" targetSpec=\"\"}}Cada cual\ntiene su concepto del confort."
  },
  {
    "label": "017",
    "attribute": "0x0000000000000000",
    "text": "{{i20_2 arg=\"10\"}}{{i20_2 arg=\"9\"}}{{anim id=\"FaintSmile\" target=\"actor\" targetSpec=\"\"}}Me gusta el sitio que has escogido\npara colocar est{{gender8 m=\"e\" f=\"a\" n=\"\"}} {{fun_0000007D arg=\"0x0000\"}}.{{pageBreak}}{{i20_3 arg=\"6\"}}{{i20_3 arg=\"3\"}}{{anim id=\"Clapping\" target=\"actor\" targetSpec=\"\"}}No sabía que tuvieras tan buen\nojo para la decoración, cielo.{{pageBreak}}{{anim id=\"Laughing\" target=\"actor\" targetSpec=\"\"}}Quizá te contrate para hacerme\nalgún arreglo en casa, {{string value=\"6\"}}."
  },
  {
    "label": "018",
    "attribute": "0x0000000000000000",
    "text": "{{i20_3 arg=\"6\"}}{{i20_3 arg=\"3\"}}Ah,{{anim id=\"Grin\" target=\"actor\" targetSpec=\"\"}} ya entiendo por qué siempre\nestás tan estupend{{gender2 m=\"o\" f=\"a\"}}, ricura{{string value=\"...\"}}{{pageBreak}}{{i20_2 arg=\"10\"}}{{i20_2 arg=\"9\"}}{{anim id=\"Clapping\" target=\"actor\" targetSpec=\"\"}}¡Tienes {{wordArticle}}{{fun_0000007D arg=\"0x0000\"}}!{{pageBreak}}{{i20_3 arg=\"6\"}}{{i20_3 arg=\"3\"}}{{anim id=\"QuestionMark\" target=\"actor\" targetSpec=\"\"}}¿Cuánto tardas en arreglarte?{{delay20}}\n{{anim id=\"OhGeez\" target=\"actor\" targetSpec=\"\"}}Porque hay días que yo me podría\npasar horas{{string value=\"...\"}}"
  },
  {
    "label": "019",
    "attribute": "0x0000000000000000",
    "text": "{{i20_2 arg=\"10\"}}{{i20_2 arg=\"9\"}}{{anim id=\"Nodding\" target=\"actor\" targetSpec=\"\"}}Era evidente que tenías {{wordArticle}}{{fun_0000007D arg=\"0x0000\"}} en casa.{{pageBreak}}{{i20_3 arg=\"3\"}}{{i20_3 arg=\"6\"}}{{anim id=\"Grin\" target=\"actor\" targetSpec=\"\"}}No te creas que no me he fijado en\nlo bien vestid{{gender2 m=\"o\" f=\"a\"}} que vas siempre,\ncielo.\n{{anim id=\"FaintSmile\" target=\"actor\" targetSpec=\"\"}}Estaba claro que necesitabas un\nbuen lugar donde guardar todos\ntus conjuntos, {{string value=\"6\"}}.\nPor cierto, {{anim id=\"Smiling\" target=\"actor\" targetSpec=\"\"}}me encanta el que llevas\nahora.{{delay20}} ¡Es divino!"
  },
  {
    "label": "020",
    "attribute": "0x0000000000000000",
    "text": "{{i20_2 arg=\"10\"}}{{i20_2 arg=\"9\"}}{{anim id=\"TakenAback\" target=\"actor\" targetSpec=\"\"}}Pero{{string value=\"...\"}}{{delay20}} ¡qué elección de compañero\nde cuarto tan{{string value=\"...\"}}{{delay20}} digamos{{string value=\"...\"}}{{delay8}} {{anim id=\"ShyBoy\" target=\"actor\" targetSpec=\"\"}}inusual,{{delay8}}\n{{string value=\"NickName\"}}!{{pageBreak}}{{i20_3 arg=\"6\"}}{{i20_3 arg=\"3\"}}{{anim id=\"FaintSmile\" target=\"actor\" targetSpec=\"\"}}Aunque se os ve bien avenidos.{{delay20}}\n{{anim id=\"Grin\" target=\"actor\" targetSpec=\"\"}}Como dos termitas comiéndose una\nmisma pata de silla, {{string value=\"6\"}}."
  },
  {
    "label": "021",
    "attribute": "0x0000000000000000",
    "text": "{{i20_2 arg=\"10\"}}{{anim id=\"TakenAback\" target=\"actor\" targetSpec=\"\"}}¡Cielos, {{string value=\"NickName\"}}!{{delay20}} {{i20_2 arg=\"9\"}}Tu {{fun_0000007D arg=\"0x0000\"}} aquí presente me ha impresionado.{{pageBreak}}{{i20_3 arg=\"6\"}}{{i20_3 arg=\"3\"}}{{anim id=\"Nodding\" target=\"actor\" targetSpec=\"\"}}Cuida bien de {{gender8 m=\"él\" f=\"ella\" n=\"\"}}.{{delay20}} {{anim id=\"FaintSmile\" target=\"actor\" targetSpec=\"\"}}Es una pieza\nirrepetible, {{string value=\"6\"}}."
  },
  {
    "label": "022",
    "attribute": "0x0000000000000000",
    "text": "{{anim id=\"TakenAback\" target=\"actor\" targetSpec=\"\"}}¡Ay, {{string value=\"NickName\"}},{{delay8}} qué atrevimiento!{{pageBreak}}{{anim id=\"Explain\" target=\"actor\" targetSpec=\"\"}}La mayoría de la gente no sabría qué\nhacer con {{wordArticle}}{{fun_0000007D arg=\"0x0000\"}}{{string value=\"...\"}}{{pageBreak}}{{i20_2 arg=\"10\"}}{{i20_2 arg=\"9\"}}{{anim id=\"BigSmile\" target=\"actor\" targetSpec=\"\"}}¡Y tú {{gender8 m=\"lo\" f=\"la\" n=\"\"}} tienes aquí expuest{{gender8 m=\"o\" f=\"a\" n=\"\"}}!{{i10_4}}\n{{i20_3 arg=\"6\"}}{{i20_3 arg=\"3\"}}{{anim id=\"SmugFace\" target=\"actor\" targetSpec=\"\"}}Demuestras tener dominado el\ntema paleontológico, {{string value=\"6\"}}."
  },
  {
    "label": "023",
    "attribute": "0x0000000000000000",
    "text": "{{i20_2 arg=\"10\"}}{{i20_2 arg=\"9\"}}{{anim id=\"Restless\" target=\"actor\" targetSpec=\"\"}}Esto{{string value=\"...\"}}{{delay8}} ¿En serio tienes esta {{anim id=\"Aha\" target=\"actor\" targetSpec=\"\"}}joya\nde la creación artística en tu casa,\n{{string value=\"6\"}}?\n{{i20_2 arg=\"6\"}}{{i20_2 arg=\"3\"}}{{anim id=\"Negative\" target=\"actor\" targetSpec=\"\"}}Aunque tampoco me sorprende.{{delay20}}\n{{anim id=\"SmugFace\" target=\"actor\" targetSpec=\"\"}}Siempre sospeché que tus refinados\ngustos se parecen a los míos."
  },
  {
    "label": "024",
    "attribute": "0x0000000000000000",
    "text": "{{i20_2 arg=\"10\"}}{{i20_2 arg=\"9\"}}{{anim id=\"Eh\" target=\"actor\" targetSpec=\"\"}}Pero, cariño,{{delay8}} ¡qué lugar {{anim id=\"Hello\" target=\"actor\" targetSpec=\"\"}}tan atractivo\npara ubicar {{wordArticle}}{{fun_0000007D arg=\"0x0000\"}}!{{pageBreak}}{{i20_2 arg=\"6\"}}{{i20_2 arg=\"3\"}}{{anim id=\"Thinking\" target=\"actor\" targetSpec=\"\"}}Dime,{{delay8}} ¿cómo haces para moverl{{gender8 m=\"o\" f=\"a\" n=\"\"}}\ncuando necesitas limpiar?{{pageBreak}}{{anim id=\"ShyBoy\" target=\"actor\" targetSpec=\"\"}}Sabes que yo te ayudaría encantada,{{delay8}}\npero lo más seguro es que {{anim id=\"WrySmile\" target=\"actor\" targetSpec=\"\"}}ese día\nme venga mal{{string value=\"...\"}}"
  },
  {
    "label": "025",
    "attribute": "0x0000000000000000",
    "text": "{{i20_2 arg=\"10\"}}{{anim id=\"Eh\" target=\"actor\" targetSpec=\"\"}}¡Vaya {{i20_2 arg=\"9\"}}{{fun_0000007D arg=\"0x0000\"}} te has buscado!{{delay20}} {{anim id=\"Thinking\" target=\"actor\" targetSpec=\"\"}}Es algo{{string value=\"...\"}}{{delay8}} diferente a como yo {{gender8 m=\"lo\" f=\"la\" n=\"\"}} recordaba{{string value=\"...\"}}{{pageBreak}}{{i20_3 arg=\"6\"}}{{i20_3 arg=\"3\"}}{{anim id=\"OhGeez\" target=\"actor\" targetSpec=\"\"}}Pero, si a ti te gusta,{{delay8}} encanto{{string value=\"...\"}}{{delay8}}\n{{anim id=\"FaintSmile\" target=\"actor\" targetSpec=\"\"}}eso es lo único que importa, {{string value=\"6\"}}."
  },
  {
    "label": "026",
    "attribute": "0x0000000000000000",
    "text": "{{i20_2 arg=\"10\"}}{{i20_2 arg=\"9\"}}{{anim id=\"Nodding\" target=\"actor\" targetSpec=\"\"}}Tu {{fun_0000007D arg=\"0x0000\"}} me parece una gran elección para esta sala.{{pageBreak}}{{i20_3 arg=\"6\"}}{{i20_3 arg=\"3\"}}{{anim id=\"Explain\" target=\"actor\" targetSpec=\"\"}}Mantener el aire fresco es vital.{{delay20}}\n{{anim id=\"Smiling\" target=\"actor\" targetSpec=\"\"}}Un hogar también necesita\nrespirar, {{string value=\"6\"}}."
  },
  {
    "label": "027",
    "attribute": "0x0000000000000000",
    "text": "{{anim id=\"OhGeez\" target=\"actor\" targetSpec=\"\"}}Yo vivo muy a gusto sola,{{delay8}} no tengo\nningún problema con eso{{string value=\"...\"}}{{pageBreak}}{{i20_2 arg=\"10\"}}{{i20_2 arg=\"9\"}}Aun así,{{delay8}} {{anim id=\"FaintSmile\" target=\"actor\" targetSpec=\"\"}}la compañía de mi {{fun_0000007D arg=\"0x0000\"}} me hace la vida más agradable.{{pageBreak}}{{i20_3 arg=\"3\"}}{{i20_3 arg=\"6\"}}{{anim id=\"AbsentMindedness\" target=\"actor\" targetSpec=\"\"}}Es que me gusta tanto el mar{{string value=\"...\"}}{{delay20}}\n{{anim id=\"Hesitate\" target=\"actor\" targetSpec=\"\"}}Por eso me mudé a una isla, claro.{{pageBreak}}O quizá es solo que me relaja mirarl{{gender8 m=\"o\" f=\"a\" n=\"\"}}\nfijamente.{{delay20}} {{anim id=\"HappyDance\" target=\"actor\" targetSpec=\"\"}}La verdad es que es una\nmonada, {{string value=\"6\"}}."
  },
  {
    "label": "028",
    "attribute": "0x0000000000000000",
    "text": "{{i20_2 arg=\"10\"}}{{i20_2 arg=\"9\"}}{{anim id=\"Aha\" target=\"actor\" targetSpec=\"\"}}¡Oh!{{delay20}} ¿Tienes mi retrato expuesto\nen tu hogar?{{delay20}} {{i20_3 arg=\"3\"}}{{i20_3 arg=\"6\"}}¡Oh!{{delay20}} {{anim id=\"Hesitate\" target=\"actor\" targetSpec=\"\"}}No sé qué decir{{string value=\"...\"}}{{delay8}}\nMe siento muy honrada{{string value=\"...\"}}\n{{anim id=\"SmugFace\" target=\"actor\" targetSpec=\"\"}}Quiero dar las gracias a mis padres,{{delay8}}\nque siempre me apoyaron, y a toda la\ncomunidad de {{string value=\"OtherIslandName\"}}{{string value=\"...\"}}\n{{anim id=\"Oops\" target=\"actor\" targetSpec=\"\"}}Espera,{{delay8}} ese discurso era para una\nentrega de premios.{{delay20}} {{anim id=\"Blushing\" target=\"actor\" targetSpec=\"\"}}No he preparado\nnada para tal ocasión, {{string value=\"6\"}}."
  },
  {
    "label": "029",
    "attribute": "0x0000000000000000",
    "text": "{{i20_2 arg=\"10\"}}{{i20_2 arg=\"9\"}}{{anim id=\"Eh\" target=\"actor\" targetSpec=\"\"}}Querid{{gender2 m=\"o\" f=\"a\"}},{{delay8}} es adorable verte {{anim id=\"Love\" target=\"actor\" targetSpec=\"\"}}atesorar\n{{wordArticle}}{{fun_0000007D arg=\"0x0000\"}}.{{pageBreak}}{{i20_3 arg=\"6\"}}{{i20_3 arg=\"3\"}}{{anim id=\"FaintSmile\" target=\"actor\" targetSpec=\"\"}}Me gusta esa faceta tuya tan dulce\ny entrañable, {{string value=\"6\"}}{{string value=\"...\"}}"
  },
  {
    "label": "030",
    "attribute": "0x0000000000000000",
    "text": "{{i20_2 arg=\"10\"}}{{i20_2 arg=\"9\"}}{{anim id=\"Eh\" target=\"actor\" targetSpec=\"\"}}Caramba, {{wordArticle}}{{fun_0000007D arg=\"0x0000\"}}.{{delay20}} {{anim id=\"FaintSmile\" target=\"actor\" targetSpec=\"\"}}Tus aficiones son muy variopintas.{{pageBreak}}{{i20_3 arg=\"6\"}}{{i20_3 arg=\"3\"}}{{anim id=\"Explain\" target=\"actor\" targetSpec=\"\"}}Yo hace poco me aficioné a {{randomHobby}},{{delay8}} {{anim id=\"Thinking\" target=\"actor\" targetSpec=\"\"}}pero no me acabó de enganchar{{string value=\"...\"}}{{pageBreak}}{{anim id=\"IdeaBulb\" target=\"actor\" targetSpec=\"\"}}Quizá debería tomar alguna idea\nde ti, {{string value=\"6\"}}."
  },
  {
    "label": "031",
    "attribute": "0x0000000000000000",
    "text": "{{i20_2 arg=\"10\"}}{{i20_2 arg=\"9\"}}{{anim id=\"WrySmile\" target=\"actor\" targetSpec=\"\"}}Ah, los artículos del hogar{{string value=\"...\"}}{{delay20}} {{anim id=\"Explain\" target=\"actor\" targetSpec=\"\"}}Hasta\nel más simple puede traer bellos\nrecuerdos de tiempos pasados.\n{{i20_3 arg=\"6\"}}{{i20_3 arg=\"3\"}}{{anim id=\"Eh\" target=\"actor\" targetSpec=\"\"}}Fíjate, qué tontería,{{delay8}} {{anim id=\"AbsentMindedness\" target=\"actor\" targetSpec=\"\"}}me vienen\na la memoria mi casa de cuando\nera pequeñita, mi familia{{string value=\"...\"}}\n{{anim id=\"Crying\" target=\"actor\" targetSpec=\"\"}}{{capitalizeNextLetter}}{{string value=\"Catchphrase\"}},{{delay8}} ¿cómo es posible que me haya emocionado con {{wordArticle}}{{fun_0000007D arg=\"0x0000\"}}?"
  },
  {
    "label": "032",
    "attribute": "0x0000000000000000",
    "text": "{{i20_2 arg=\"10\"}}{{i20_2 arg=\"9\"}}{{anim id=\"Eh\" target=\"actor\" targetSpec=\"\"}}Veo que has equipado tu hogar\ncon {{wordArticle}}{{fun_0000007D arg=\"0x0000\"}}{{string value=\"...\"}}{{pageBreak}}{{i20_3 arg=\"6\"}}{{i20_3 arg=\"3\"}}{{anim id=\"Thinking\" target=\"actor\" targetSpec=\"\"}}Me estaba planteando hacerme\ncon {{gender8 m=\"uno\" f=\"una\" n=\"\"}}.{{delay20}} {{anim id=\"QuestionMark\" target=\"actor\" targetSpec=\"\"}}¿Tú qué me recomiendas?{{delay20}}\n¿Merece la pena?\n{{anim id=\"ShyBoy\" target=\"actor\" targetSpec=\"\"}}Mi duda es si su utilidad compensará\nese aspecto tan mundano, {{string value=\"6\"}}."
  },
  {
    "label": "033",
    "attribute": "0x0000000000000000",
    "text": "{{i20_2 arg=\"10\"}}{{i20_2 arg=\"9\"}}{{anim id=\"OhGeez\" target=\"actor\" targetSpec=\"\"}}Tienes {{wordArticle}}{{fun_0000007D arg=\"0x0000\"}} y yo aquí pasando frío{{string value=\"...\"}}{{pageBreak}}{{i20_3 arg=\"6\"}}{{i20_3 arg=\"3\"}}{{anim id=\"Grin\" target=\"actor\" targetSpec=\"\"}}Es broma,{{delay8}} querid{{gender2 m=\"o\" f=\"a\"}}.{{delay20}} {{anim id=\"FaintSmile\" target=\"actor\" targetSpec=\"\"}}Aquí se está\nestupendamente, {{string value=\"6\"}}."
  },
  {
    "label": "034",
    "attribute": "0x0000000000000000",
    "text": "{{i20_2 arg=\"10\"}}{{i20_2 arg=\"9\"}}{{anim id=\"Surprised\" target=\"actor\" targetSpec=\"\"}}¡Cielos!{{delay20}} ¿Tienes un retrato de\nuna servidora?{{delay20}}{{i20_3 arg=\"6\"}}{{i20_3 arg=\"3\"}} {{anim id=\"Blushing\" target=\"actor\" targetSpec=\"\"}}No sé qué decir{{string value=\"...\"}}{{pageBreak}}{{anim id=\"OhGeez\" target=\"actor\" targetSpec=\"\"}}Hace mucho que no trabajo como\nmodelo.{{delay20}} {{anim id=\"AbsentMindedness\" target=\"actor\" targetSpec=\"\"}}Esta foto me recuerda\na los viejos tiempos{{string value=\"...\"}}\n{{anim id=\"Hesitate\" target=\"actor\" targetSpec=\"\"}}Me he puesto nerviosa y todo, {{string value=\"6\"}}⁠."
  },
  {
    "label": "035",
    "attribute": "0x0000000000000000",
    "text": "{{i20_2 arg=\"10\"}}{{i20_2 arg=\"9\"}}{{anim id=\"Smiling\" target=\"actor\" targetSpec=\"\"}}Ah, {{fun_0000007D arg=\"0x0000\"}}{{string value=\"...\"}}{{delay20}} Veo que tú también aprecias el arte perdido de las portadas de discos.{{pageBreak}}{{i20_3 arg=\"6\"}}{{i20_3 arg=\"3\"}}{{anim id=\"WrySmile\" target=\"actor\" targetSpec=\"\"}}Aunque fiarse de las apariencias\ntiene sus peligros{{string value=\"...\"}}{{pageBreak}}{{anim id=\"OhGeez\" target=\"actor\" targetSpec=\"\"}}He comprado no pocos álbumes de\nbellas portadas{{string value=\"...\"}}{{delay8}} {{anim id=\"Laughing\" target=\"actor\" targetSpec=\"\"}}que sonaban como\n{{wordArticle}}{{randomObj}} en una trituradora."
  },
  {
    "label": "036",
    "attribute": "0x0000000000000000",
    "text": "{{i20_2 arg=\"10\"}}{{i20_2 arg=\"9\"}}{{anim id=\"Thinking\" target=\"actor\" targetSpec=\"\"}}Dicen que la gente elige las flores\nen función de su personalidad.{{pageBreak}}{{anim id=\"OhGeez\" target=\"actor\" targetSpec=\"\"}}No sé lo que dice tu {{fun_0000007D arg=\"0x0000\"}} {{i20_3 arg=\"6\"}}{{i20_3 arg=\"3\"}}acerca de ti,{{delay8}} {{anim id=\"Nodding\" target=\"actor\" targetSpec=\"\"}}pero creo que te pega mucho."
  },
  {
    "label": "037",
    "attribute": "0x0000000000000000",
    "text": "{{i20_2 arg=\"10\"}}{{i20_2 arg=\"9\"}}{{anim id=\"Smiling\" target=\"actor\" targetSpec=\"\"}}¡Bonito detalle!{{delay8}} Me encanta ver\ntu {{fun_0000007D arg=\"0x0000\"}} aquí expuest{{gender8 m=\"o\" f=\"a\" n=\"\"}}.{{pageBreak}}{{i20_3 arg=\"6\"}}{{i20_3 arg=\"3\"}}{{anim id=\"Confused\" target=\"actor\" targetSpec=\"\"}}El problema es que me están\nentrando unas ganas terribles\nde irme de compras, {{string value=\"6\"}}."
  },
  {
    "label": "038",
    "attribute": "0x0000000000000000",
    "text": "{{i20_2 arg=\"10\"}}{{i20_2 arg=\"9\"}}{{anim id=\"Shocked\" target=\"actor\" targetSpec=\"\"}}Oh,{{delay8}} qué detalle tan distinguido,{{delay8}}\neste de exponer tu {{fun_0000007D arg=\"0x0000\"}}.{{pageBreak}}{{i20_3 arg=\"6\"}}{{i20_3 arg=\"3\"}}{{anim id=\"Explain\" target=\"actor\" targetSpec=\"\"}}Siempre he dicho que se tendría\nque usar la moda como decoración\nmás a menudo.\nAl fin y al cabo,{{delay8}} {{anim id=\"HappyDance\" target=\"actor\" targetSpec=\"\"}}¡no existe nada\nmás hermoso, {{string value=\"6\"}}!"
  },
  {
    "label": "039",
    "attribute": "0x0000000000000000",
    "text": "{{i20_2 arg=\"10\"}}{{i20_2 arg=\"9\"}}{{anim id=\"Pardon\" target=\"actor\" targetSpec=\"\"}}Oh, qué {{fun_0000007D arg=\"0x0000\"}} tan fin{{gender8 m=\"o\" f=\"a\" n=\"\"}}.{{pageBreak}}{{i20_3 arg=\"6\"}}{{i20_3 arg=\"3\"}}{{anim id=\"OhGeez\" target=\"actor\" targetSpec=\"\"}}Me da mucha envidia.{{delay20}} Ojalá alguien\npudiese adaptar un par a mis patas\nde {{string value=\"VillagerRace\"}}, {{string value=\"6\"}}{{string value=\"...\"}}"
  },
  {
    "label": "040",
    "attribute": "0x0000000000000000",
    "text": "{{anim id=\"ShyBoy\" target=\"actor\" targetSpec=\"\"}}Ay,{{delay8}} llevo todo este rato pensando\nque algo olía muy bien y solo ahora\nme he dado cuenta de qué se trata.\n{{i20_2 arg=\"10\"}}{{i20_2 arg=\"9\"}}{{anim id=\"Explain\" target=\"actor\" targetSpec=\"\"}}Es tu {{fun_0000007D arg=\"0x0000\"}}.{{delay20}} Tiene un aspecto delicioso.{{delay20}} {{i20_3 arg=\"6\"}}{{i20_3 arg=\"3\"}}{{anim id=\"QuestionMark\" target=\"actor\" targetSpec=\"\"}}¿{{gender8 m=\"Lo\" f=\"La\" n=\"\"}} has preparado tú mism{{gender2 m=\"o\" f=\"a\"}}?{{pageBreak}}{{anim id=\"FaintSmile\" target=\"actor\" targetSpec=\"\"}}Si es así,{{delay8}} tienes muy buena mano.{{delay20}}\n{{anim id=\"Grin\" target=\"actor\" targetSpec=\"\"}}Casi dan ganas de hacerle fotos, {{string value=\"6\"}}."
  },
  {
    "label": "041",
    "attribute": "0x0000000000000000",
    "text": "{{i20_2 arg=\"10\"}}{{i20_2 arg=\"9\"}}{{anim id=\"Eh\" target=\"actor\" targetSpec=\"\"}}¡Oh!{{delay20}} ¿Te ibas a tomar {{wordArticle}}{{fun_0000007D arg=\"0x0000\"}} cuando he llegado?{{pageBreak}}{{i20_3 arg=\"6\"}}{{i20_3 arg=\"3\"}}{{anim id=\"Frantic\" target=\"actor\" targetSpec=\"\"}}Perdón por la interrupción.{{delay20}}\nQué apuro, {{string value=\"6\"}}.{{pageBreak}}{{anim id=\"WrySmile\" target=\"actor\" targetSpec=\"\"}}Nadie debería interponerse\nentre {{gender2 m=\"un hombre\" f=\"una mujer\"}} y su {{fun_0000007D arg=\"0x0000\"}}{{string value=\"...\"}}"
  },
  {
    "label": "999",
    "attribute": "0x0000000000000000",
    "text": "{{fun_0014003C arg=\"\"}}"
  },
  {
    "label": "999_01",
    "attribute": "0x0000000000000000",
    "text": "{{anim id=\"Explain\" target=\"actor\" targetSpec=\"\"}}Tú sabes que a mí me gusta saberlo\ntodo sobre mis vecinos y amig{{gender2 m=\"o\" f=\"a\"}}s{{string value=\"...\"}}{{pageBreak}}{{anim id=\"Shocked\" target=\"actor\" targetSpec=\"\"}}¡No por morbo ni cotilleo!{{delay20}} {{anim id=\"OhGeez\" target=\"actor\" targetSpec=\"\"}}Se trata\nde un interés sano en la vida de\nquienes me rodean,{{delay8}} {{anim id=\"FaintSmile\" target=\"actor\" targetSpec=\"\"}}por supuesto.\nTu casa dice mucho sobre ti, cariño.{{delay20}}\n{{anim id=\"Nodding\" target=\"actor\" targetSpec=\"\"}}Pienso absorber todos los detalles.{{delay20}}\n{{anim id=\"HappyDance\" target=\"actor\" targetSpec=\"\"}}¡Será revelador, {{string value=\"6\"}}!"
  },
  {
    "label": "999_02",
    "attribute": "0x0000000000000000",
    "text": "{{i20_2 arg=\"10\"}}{{i20_2 arg=\"9\"}}{{anim id=\"Thinking\" target=\"actor\" targetSpec=\"\"}}Qué forma tan interesante\nde integrar en tu hogar\n{{wordArticle}}{{fun_0000007D arg=\"0x0000\"}}{{string value=\"...\"}}\n{{i20_3 arg=\"6\"}}{{i20_3 arg=\"3\"}}{{anim id=\"FaintSmile\" target=\"actor\" targetSpec=\"\"}}Se nota que tienes madera para\ndedicarte profesionalmente al\ndiseño de interiores, {{string value=\"6\"}}."
  },
  {
    "label": "999_03",
    "attribute": "0x0000000000000000",
    "text": "{{anim id=\"QuestionMark\" target=\"actor\" targetSpec=\"\"}}¿Sabes qué es lo más interesante\nde esta sala?{{pageBreak}}{{anim id=\"Silent\" target=\"actor\" targetSpec=\"\"}}Querid{{gender2 m=\"o\" f=\"a\"}}, no hablo de mueble alguno:{{delay20}}\n{{anim id=\"BigSmile\" target=\"actor\" targetSpec=\"\"}}¡eres tú!{{delay20}} Nada de esto tendría\nsentido {{anim id=\"Love\" target=\"actor\" targetSpec=\"\"}}sin tu inimitable presencia."
  }
]