﻿[
  {
    "label": "001",
    "attribute": "0x0000000000000000",
    "text": "{{fun_0014003C arg=\"\"}}"
  },
  {
    "label": "001_01",
    "attribute": "0x0000000000000000",
    "text": "{{anim id=\"Sleepy\" target=\"actor\" targetSpec=\"\"}}Aaah{{string value=\"...\"}} Niente è meglio di un caffè\ndopo un allenamento intensivo.\nMi rilassa.{{pageBreak}}{{anim id=\"SmugFace\" target=\"actor\" targetSpec=\"\"}}Eh, già. I miei allenamenti sono così\nintensi che un caffè al confronto è\ntutto relax, {{string value=\"6\"}}."
  },
  {
    "label": "001_02",
    "attribute": "0x0000000000000000",
    "text": "{{anim id=\"QuestionMark\" target=\"actor\" targetSpec=\"\"}}Sai cosa rende il caffè di {{color id=\"3\"}}Bartolo{{color id=\"65535\"}} così\nbuono?{{delay20}}{{anim id=\"Explain\" target=\"actor\" targetSpec=\"\"}} È il metodo di macinazione!{{pageBreak}}{{anim id=\"Nodding\" target=\"actor\" targetSpec=\"\"}}Ha degli strumenti che lo rendono\nfinissimo, così il caffè diventa bello\nforte, come piace a me!"
  },
  {
    "label": "001_03",
    "attribute": "0x0000000000000000",
    "text": "{{anim id=\"Nodding\" target=\"actor\" targetSpec=\"\"}}Il caffè mi dà la carica. Non riesco\na trattenermi{{string value=\"...\"}}{{pageBreak}}{{i10_12}}{{anim id=\"Greeting\" target=\"actor\" targetSpec=\"\"}}{{size value=\"150\"}}Ehi, {{color id=\"3\"}}Bartolo{{color id=\"65535\"}}!{{size value=\"100\"}}{{delay20}}\n{{size value=\"150\"}}Per me il solito!{{size value=\"100\"}}"
  },
  {
    "label": "101",
    "attribute": "0x0000000000000000",
    "text": "{{anim id=\"AbsentMindedness\" target=\"actor\" targetSpec=\"\"}}Niente è meglio che prendersela con\ncalma davanti a una tazza di caffè{{string value=\"...\"}}{{pageBreak}}{{anim id=\"Smiling\" target=\"actor\" targetSpec=\"\"}}I giorni di riposo sono importanti\ntanto quanto gli allenamenti. {{delay20}}{{anim id=\"Laughing\" target=\"actor\" targetSpec=\"\"}}Basta\nnon farne sette a settimana{{string value=\"...\"}}"
  },
  {
    "label": "102",
    "attribute": "0x0000000000000000",
    "text": "{{anim id=\"Nodding\" target=\"actor\" targetSpec=\"\"}}La settimana non potrebbe iniziare\nmeglio. Il caffè di {{color id=\"3\"}}Bartolo{{color id=\"65535\"}} è il meglio,\n{{string value=\"6\"}}.{{delay20}} {{anim id=\"Cheering\" target=\"actor\" targetSpec=\"\"}}BAM!{{delay20}}{{anim id=\"EmotEnd\" target=\"actor\" targetSpec=\"\"}} {{anim id=\"Nodding\" target=\"actor\" targetSpec=\"\"}}Bello amaro!"
  },
  {
    "label": "103",
    "attribute": "0x0000000000000000",
    "text": "{{anim id=\"Grin\" target=\"actor\" targetSpec=\"\"}}Eh?{{delay20}} Credevi che bevessi solo\nintegratori proteici?{{delay20}} E invece mi\nbevo un caffè!{{delay20}} {{anim id=\"Scheming\" target=\"actor\" targetSpec=\"\"}}{{color id=\"4\"}}E poi gli integratori{{string value=\"...\"}}{{color id=\"65535\"}}"
  },
  {
    "label": "104",
    "attribute": "0x0000000000000000",
    "text": "{{anim id=\"AbsentMindedness\" target=\"actor\" targetSpec=\"\"}}Non ti viene da riflettere sulla vita\nquando senti il profumo del caffè?{{pageBreak}}{{anim id=\"Thinking\" target=\"actor\" targetSpec=\"\"}}Ad esempio{{string value=\"...\"}} Correre o non\ncorrere?{{delay20}} E se facessi ginnastica?{{pageBreak}}{{anim id=\"OhGeez\" target=\"actor\" targetSpec=\"\"}}Anche il cervello è un muscolo, in\nfondo.{{delay20}} Bisogna esercitarlo come gli\naltri muscoli, {{string value=\"6\"}}!"
  },
  {
    "label": "105",
    "attribute": "0x0000000000000000",
    "text": "{{anim id=\"Angry\" target=\"actor\" targetSpec=\"\"}}È nel mezzo della settimana che il\ncaffè di {{color id=\"3\"}}Bartolo{{color id=\"65535\"}} è più buono, non\ntrovi?"
  },
  {
    "label": "106",
    "attribute": "0x0000000000000000",
    "text": "{{anim id=\"HappyFlower\" target=\"actor\" targetSpec=\"\"}}Ed eccoci arrivati a venerdì! {{delay8}}Siamo\ncarichi!{{delay8}} Ginnastica! {{anim id=\"Laughing\" target=\"actor\" targetSpec=\"\"}}Sollevamento pianoforti! {{delay8}}Caffè a tutto spiano!{{pageBreak}}{{anim id=\"Serious\" target=\"actor\" targetSpec=\"\"}}Guarda che sono solo un atleta di\n{{randomSports}}, non un medico. {{delay20}}Non\nfidarti troppo di quello che dico."
  },
  {
    "label": "107",
    "attribute": "0x0000000000000000",
    "text": "{{anim id=\"SmugFace\" target=\"actor\" targetSpec=\"\"}}Oggi io e {{color id=\"3\"}}Bartolo {{color id=\"65535\"}}faremo una gara\na zampa di ferro, {{string value=\"6\"}}.{{pageBreak}}{{anim id=\"Blushing\" target=\"actor\" targetSpec=\"\"}}O ala di ferro. {{delay20}}Insomma, ci siamo\ncapiti, no?"
  },
  {
    "label": "201",
    "attribute": "0x0000000000000000",
    "text": "{{anim id=\"Sleepy\" target=\"actor\" targetSpec=\"\"}}È presto, certo{{string value=\"...\"}} ma ho fiducia nelle\nproprietà corroboranti del caffè.\n{{anim id=\"OhGeez\" target=\"actor\" targetSpec=\"\"}}Diamogli tempo. {{anim id=\"Sleep\" target=\"actor\" targetSpec=\"\"}}Un secondo{{string value=\"...\"}}"
  },
  {
    "label": "202",
    "attribute": "0x0000000000000000",
    "text": "{{anim id=\"Explain\" target=\"actor\" targetSpec=\"\"}}Sono qui per un piccolo aiutino ad\naprire gli occhi, sai? Ci pensa il caffè.{{pageBreak}}{{anim id=\"Angry\" target=\"actor\" targetSpec=\"\"}}Ecco guardami negli occhi{{string value=\"...\"}}{{delay20}} {{anim id=\"Pardon\" target=\"actor\" targetSpec=\"\"}}COSÌ.{{delay20}} NON DISTOGLIERE LO SGUARDO."
  },
  {
    "label": "203",
    "attribute": "0x0000000000000000",
    "text": "{{anim id=\"Sighing\" target=\"actor\" targetSpec=\"\"}}Sto facendo una pausa tra una\nsessione e l'altra.{{delay20}} Un caffè mi darà\nl'energia giusta, {{string value=\"6\"}}.{{pageBreak}}{{anim id=\"SmugFace\" target=\"actor\" targetSpec=\"\"}}Tra un attimo sarò pronto a\nrimettere al lavoro i miei muscoli!"
  },
  {
    "label": "204",
    "attribute": "0x0000000000000000",
    "text": "{{anim id=\"Worried\" target=\"actor\" targetSpec=\"\"}}Uhm.{{delay20}} In effetti, forse ho bevuto\ntroppo caffè nelle ultime ore.{{pageBreak}}{{anim id=\"OhGeez\" target=\"actor\" targetSpec=\"\"}}I miei addominali sono scolpiti come\nsempre, ma al loro interno sento uno\nstrano sciabordio."
  },
  {
    "label": "205",
    "attribute": "0x0000000000000000",
    "text": "{{anim id=\"Aha\" target=\"actor\" targetSpec=\"\"}}Uuuh!{{delay20}} Anche tu bevi il caffè di notte,\n{{string value=\"6\"}}?{{pageBreak}}{{anim id=\"Grin\" target=\"actor\" targetSpec=\"\"}}Credevo di essere l'unico a cercare\nun po' di carica prima del terzo\nallenamento della giornata."
  },
  {
    "label": "206",
    "attribute": "0x0000000000000000",
    "text": "{{anim id=\"OhGeez\" target=\"actor\" targetSpec=\"\"}}Ehi, a quest'ora della notte tutto è\nlecito. {{delay20}}Ancora un caffè? {{delay20}}Un'ultima\nsessione di allenamento?{{delay20}} {{anim id=\"Laughing\" target=\"actor\" targetSpec=\"\"}}Perché no?{{pageBreak}}{{anim id=\"Sleepy\" target=\"actor\" targetSpec=\"\"}}Anche se di solito mi addormento\ndopo averlo detto, {{string value=\"6\"}}."
  }
]