﻿{
  "version": 4,
  "rootNode": {
    "CameraParams": {
      "mParams": {
        "cRoomFar": {
          "mDOFNearEnd.f32": 0.0,
          "mDOFVignettingBlurIntensity.f32": 0.0,
          "mDOFVignettingColorIntensity.f32": 0.0,
          "mOffset.V3f": [0.0,8.0,0.0],
          "mDOFStart.f32": 10000.0,
          "mDrumAngle.f32": 35.0,
          "mDOFIntensity.f32": 3.0,
          "mFovy.f32": 22.0,
          "mDistance.f32": 175.0,
          "mAngle.V3f": [50.0,0.0,0.0],
          "mDOFNearStart.f32": 80.0,
          "mDOFEnd.f32": 10000.0
        },
        "cSharePlayEntranceBehind": {
          "mDOFNearEnd.f32": 0.0,
          "mDOFVignettingBlurIntensity.f32": 0.0,
          "mDOFVignettingColorIntensity.f32": 0.0,
          "mOffset.V3f": [0.0,6.0,0.0],
          "mDOFStart.f32": 220.0,
          "mDrumAngle.f32": 35.0,
          "mDOFIntensity.f32": 2.5,
          "mFovy.f32": 22.0,
          "mDistance.f32": 124.0,
          "mAngle.V3f": [45.0,0.0,0.0],
          "mDOFNearStart.f32": 0.0,
          "mDOFEnd.f32": 500.0
        },
        "cPreGetDemoBehind": {
          "mDOFNearEnd.f32": 0.0,
          "mDOFVignettingBlurIntensity.f32": 0.0,
          "mDOFVignettingColorIntensity.f32": 0.5,
          "mOffset.V3f": [0.0,8.0,0.0],
          "mDOFStart.f32": 4840.0,
          "mDrumAngle.f32": 20.0,
          "mDOFIntensity.f32": 1.3,
          "mFovy.f32": 22.0,
          "mDistance.f32": 120.0,
          "mAngle.V3f": [70.0,0.0,0.0],
          "mDOFNearStart.f32": 0.0,
          "mDOFEnd.f32": 9000.0
        },
        "cRoomSelectAccentWall": {
          "mDOFNearEnd.f32": 0.0,
          "mDOFVignettingBlurIntensity.f32": 0.0,
          "mDOFVignettingColorIntensity.f32": 0.0,
          "mOffset.V3f": [27.0,11.0,0.0],
          "mDOFStart.f32": 4840.0,
          "mDrumAngle.f32": 35.0,
          "mDOFIntensity.f32": 1.3,
          "mFovy.f32": 22.0,
          "mDistance.f32": 220.0,
          "mAngle.V3f": [30.0,0.0,0.0],
          "mDOFNearStart.f32": 0.0,
          "mDOFEnd.f32": 9000.0
        },
        "cSwim": {
          "mDOFNearEnd.f32": 0.0,
          "mDOFVignettingBlurIntensity.f32": 0.0,
          "mDOFVignettingColorIntensity.f32": 0.0,
          "mOffset.V3f": [0.0,8.0,0.0],
          "mDOFStart.f32": 4840.0,
          "mDrumAngle.f32": 35.0,
          "mDOFIntensity.f32": 1.3,
          "mFovy.f32": 22.0,
          "mDistance.f32": 175.0,
          "mAngle.V3f": [32.0,0.0,0.0],
          "mDOFNearStart.f32": 0.0,
          "mDOFEnd.f32": 9000.0
        },
        "cPlayerBDCandleBlow": {
          "mDOFNearEnd.f32": 68.0,
          "mDOFVignettingBlurIntensity.f32": 0.0,
          "mDOFVignettingColorIntensity.f32": 0.0,
          "mOffset.V3f": [0.0,6.0,0.0],
          "mDOFStart.f32": 260.0,
          "mDrumAngle.f32": 35.0,
          "mDOFIntensity.f32": 2.5,
          "mFovy.f32": 22.0,
          "mDistance.f32": 126.0,
          "mAngle.V3f": [27.0,179.8,0.0],
          "mDOFNearStart.f32": 100.0,
          "mDOFEnd.f32": 500.0
        },
        "cFacePanelBehind": {
          "mDOFNearEnd.f32": 0.0,
          "mDOFVignettingBlurIntensity.f32": 0.0,
          "mDOFVignettingColorIntensity.f32": 0.0,
          "mOffset.V3f": [0.0,8.0,0.0],
          "mDOFStart.f32": 10000.0,
          "mDrumAngle.f32": 35.0,
          "mDOFIntensity.f32": 1.3,
          "mFovy.f32": 22.0,
          "mDistance.f32": 115.0,
          "mAngle.V3f": [55.0,0.0,0.0],
          "mDOFNearStart.f32": 0.0,
          "mDOFEnd.f32": 10000.0
        },
        "22f4daf9": {
          "mDOFNearEnd.f32": 0.0,
          "mDOFVignettingBlurIntensity.f32": 0.0,
          "mDOFVignettingColorIntensity.f32": 0.0,
          "mOffset.V3f": [0.0,14.0,0.0],
          "mDOFStart.f32": 4840.0,
          "mDrumAngle.f32": 35.0,
          "mDOFIntensity.f32": 0.0,
          "mFovy.f32": 34.0,
          "mDistance.f32": 5.0,
          "mAngle.V3f": [30.0,0.0,0.0],
          "mDOFNearStart.f32": 0.0,
          "mDOFEnd.f32": 9000.0
        },
        "cItemMenuBehind": {
          "mDOFNearEnd.f32": 0.0,
          "mDOFVignettingBlurIntensity.f32": 0.0,
          "mDOFVignettingColorIntensity.f32": 0.3,
          "mOffset.V3f": [0.0,8.0,-10.0],
          "mDOFStart.f32": 10000.0,
          "mDrumAngle.f32": 20.0,
          "mDOFIntensity.f32": 1.3,
          "mFovy.f32": 18.0,
          "mDistance.f32": 145.0,
          "mAngle.V3f": [70.0,0.0,0.0],
          "mDOFNearStart.f32": 0.0,
          "mDOFEnd.f32": 10000.0
        },
        "cItemShow": {
          "mDOFNearEnd.f32": 105.0,
          "mDOFVignettingBlurIntensity.f32": 0.0,
          "mDOFVignettingColorIntensity.f32": 0.5,
          "mOffset.V3f": [0.0,9.0,4.8],
          "mDOFStart.f32": 180.0,
          "mDrumAngle.f32": 35.0,
          "mDOFIntensity.f32": 2.5,
          "mFovy.f32": 16.0,
          "mDistance.f32": 110.0,
          "mAngle.V3f": [23.0,0.0,0.0],
          "mDOFNearStart.f32": 80.0,
          "mDOFEnd.f32": 380.0
        },
        "cShelf1": {
          "mDOFNearEnd.f32": 69.0,
          "mDOFVignettingBlurIntensity.f32": 0.0,
          "mDOFVignettingColorIntensity.f32": 0.5,
          "mOffset.V3f": [3.0,2.0,0.0],
          "mDOFStart.f32": 103.0,
          "mDrumAngle.f32": 35.0,
          "mDOFIntensity.f32": 1.5,
          "mFovy.f32": 22.0,
          "mDistance.f32": 93.0,
          "mAngle.V3f": [20.0,0.0,0.0],
          "mDOFNearStart.f32": 66.0,
          "mDOFEnd.f32": 149.0
        },
        "cLostItemBox": {
          "mDOFNearEnd.f32": 100.0,
          "mDOFVignettingBlurIntensity.f32": 0.0,
          "mDOFVignettingColorIntensity.f32": 0.5,
          "mOffset.V3f": [9.6,13.0,0.0],
          "mDOFStart.f32": 137.0,
          "mDrumAngle.f32": 35.0,
          "mDOFIntensity.f32": 1.5,
          "mFovy.f32": 18.0,
          "mDistance.f32": 128.0,
          "mAngle.V3f": [13.0,10.0,0.0],
          "mDOFNearStart.f32": 95.0,
          "mDOFEnd.f32": 162.0
        },
        "cFacePanel": {
          "mDOFNearEnd.f32": 0.0,
          "mDOFVignettingBlurIntensity.f32": 0.0,
          "mDOFVignettingColorIntensity.f32": 0.0,
          "mOffset.V3f": [0.0,15.0,0.0],
          "mDOFStart.f32": 260.0,
          "mDrumAngle.f32": 35.0,
          "mDOFIntensity.f32": 2.5,
          "mFovy.f32": 22.0,
          "mDistance.f32": 115.0,
          "mAngle.V3f": [5.0,0.0,0.0],
          "mDOFNearStart.f32": 0.0,
          "mDOFEnd.f32": 500.0
        },
        "342159c4": {
          "mDOFNearEnd.f32": 0.0,
          "mDOFVignettingBlurIntensity.f32": 0.0,
          "mDOFVignettingColorIntensity.f32": 0.0,
          "mOffset.V3f": [0.0,12.0,0.0],
          "mDOFStart.f32": 4840.0,
          "mDrumAngle.f32": 35.0,
          "mDOFIntensity.f32": 0.0,
          "mFovy.f32": 34.0,
          "mDistance.f32": 5.0,
          "mAngle.V3f": [-80.0,0.0,0.0],
          "mDOFNearStart.f32": 0.0,
          "mDOFEnd.f32": 9000.0
        },
        "cRoomEditCeilingFar": {
          "mDOFNearEnd.f32": 0.0,
          "mDOFVignettingBlurIntensity.f32": 0.0,
          "mDOFVignettingColorIntensity.f32": 0.0,
          "mOffset.V3f": [0.0,28.0,0.0],
          "mDOFStart.f32": 10000.0,
          "mDrumAngle.f32": 35.0,
          "mDOFIntensity.f32": 0.0,
          "mFovy.f32": 22.0,
          "mDistance.f32": 260.0,
          "mAngle.V3f": [89.9,0.0,0.0],
          "mDOFNearStart.f32": 0.0,
          "mDOFEnd.f32": 10000.0
        },
        "cSlingShot": {
          "mDOFNearEnd.f32": 0.0,
          "mDOFVignettingBlurIntensity.f32": 0.0,
          "mDOFVignettingColorIntensity.f32": 0.0,
          "mOffset.V3f": [0.0,20.0,0.0],
          "mDOFStart.f32": 4840.0,
          "mDrumAngle.f32": 35.0,
          "mDOFIntensity.f32": 1.3,
          "mFovy.f32": 22.0,
          "mDistance.f32": 130.0,
          "mAngle.V3f": [10.0,0.0,0.0],
          "mDOFNearStart.f32": 0.0,
          "mDOFEnd.f32": 9000.0
        },
        "cBehind": {
          "mDOFNearEnd.f32": 0.0,
          "mDOFVignettingBlurIntensity.f32": 0.0,
          "mDOFVignettingColorIntensity.f32": 0.0,
          "mOffset.V3f": [0.0,8.0,0.0],
          "mDOFStart.f32": 10000.0,
          "mDrumAngle.f32": 20.0,
          "mDOFIntensity.f32": 1.3,
          "mFovy.f32": 22.0,
          "mDistance.f32": 175.0,
          "mAngle.V3f": [70.0,0.0,0.0],
          "mDOFNearStart.f32": 0.0,
          "mDOFEnd.f32": 10000.0
        },
        "42714a08": {
          "mDOFNearEnd.f32": 650.0,
          "mDOFVignettingBlurIntensity.f32": 0.0,
          "mDOFVignettingColorIntensity.f32": 0.8,
          "mOffset.V3f": [0.0,5.0,0.0],
          "mDOFStart.f32": 10000.0,
          "mDrumAngle.f32": 35.0,
          "mDOFIntensity.f32": 0.0,
          "mFovy.f32": 5.0,
          "mDistance.f32": 1200.0,
          "mAngle.V3f": [89.9,0.0,0.0],
          "mDOFNearStart.f32": 680.0,
          "mDOFEnd.f32": 10000.0
        },
        "cTalkIntoShop": {
          "mDOFNearEnd.f32": 0.0,
          "mDOFVignettingBlurIntensity.f32": 0.0,
          "mDOFVignettingColorIntensity.f32": 0.5,
          "mOffset.V3f": [0.0,7.5,-16.0],
          "mDOFStart.f32": 140.0,
          "mDrumAngle.f32": 35.0,
          "mDOFIntensity.f32": 2.0,
          "mFovy.f32": 18.0,
          "mDistance.f32": 108.0,
          "mAngle.V3f": [5.0,0.0,0.0],
          "mDOFNearStart.f32": 0.0,
          "mDOFEnd.f32": 180.0
        },
        "cTalkBehind": {
          "mDOFNearEnd.f32": 0.0,
          "mDOFVignettingBlurIntensity.f32": 0.0,
          "mDOFVignettingColorIntensity.f32": 0.5,
          "mOffset.V3f": [0.0,8.0,4.8],
          "mDOFStart.f32": 10000.0,
          "mDrumAngle.f32": 20.0,
          "mDOFIntensity.f32": 1.3,
          "mFovy.f32": 16.0,
          "mDistance.f32": 145.0,
          "mAngle.V3f": [70.0,0.0,0.0],
          "mDOFNearStart.f32": 0.0,
          "mDOFEnd.f32": 10000.0
        },
        "cDemo": {
          "mDOFNearEnd.f32": 0.0,
          "mDOFVignettingBlurIntensity.f32": 0.0,
          "mDOFVignettingColorIntensity.f32": 0.0,
          "mOffset.V3f": [0.0,0.0,0.0],
          "mDOFStart.f32": 4840.0,
          "mDrumAngle.f32": 35.0,
          "mDOFIntensity.f32": 1.3,
          "mFovy.f32": 22.0,
          "mDistance.f32": 120.0,
          "mAngle.V3f": [25.0,0.0,0.0],
          "mDOFNearStart.f32": 0.0,
          "mDOFEnd.f32": 9000.0
        },
        "5096bc30": {
          "mDOFNearEnd.f32": 650.0,
          "mDOFVignettingBlurIntensity.f32": 0.0,
          "mDOFVignettingColorIntensity.f32": 0.8,
          "mOffset.V3f": [0.0,5.0,0.0],
          "mDOFStart.f32": 10000.0,
          "mDrumAngle.f32": 35.0,
          "mDOFIntensity.f32": 0.0,
          "mFovy.f32": 5.0,
          "mDistance.f32": 1100.0,
          "mAngle.V3f": [50.0,0.0,0.0],
          "mDOFNearStart.f32": 680.0,
          "mDOFEnd.f32": 10000.0
        },
        "cEmoticonMenu": {
          "mDOFNearEnd.f32": 0.0,
          "mDOFVignettingBlurIntensity.f32": 0.0,
          "mDOFVignettingColorIntensity.f32": 0.3,
          "mOffset.V3f": [0.0,16.5,0.0],
          "mDOFStart.f32": 180.0,
          "mDrumAngle.f32": 35.0,
          "mDOFIntensity.f32": 1.5,
          "mFovy.f32": 16.0,
          "mDistance.f32": 145.0,
          "mAngle.V3f": [25.0,0.0,0.0],
          "mDOFNearStart.f32": 0.0,
          "mDOFEnd.f32": 270.0
        },
        "56ecbec9": {
          "mDOFNearEnd.f32": 0.0,
          "mDOFVignettingBlurIntensity.f32": 0.0,
          "mDOFVignettingColorIntensity.f32": 0.0,
          "mOffset.V3f": [0.0,14.0,0.0],
          "mDOFStart.f32": 4840.0,
          "mDrumAngle.f32": 35.0,
          "mDOFIntensity.f32": 0.0,
          "mFovy.f32": 34.0,
          "mDistance.f32": 5.0,
          "mAngle.V3f": [15.0,0.0,0.0],
          "mDOFNearStart.f32": 0.0,
          "mDOFEnd.f32": 9000.0
        },
        "cProfilePhotoRoom": {
          "mDOFNearEnd.f32": 0.0,
          "mDOFVignettingBlurIntensity.f32": 0.0,
          "mDOFVignettingColorIntensity.f32": 0.0,
          "mOffset.V3f": [0.0,9.0,0.0],
          "mDOFStart.f32": 4840.0,
          "mDrumAngle.f32": 35.0,
          "mDOFIntensity.f32": 1.3,
          "mFovy.f32": 22.0,
          "mDistance.f32": 130.0,
          "mAngle.V3f": [32.0,0.0,0.0],
          "mDOFNearStart.f32": 0.0,
          "mDOFEnd.f32": 9000.0
        },
        "578dfd3": {
          "mDOFNearEnd.f32": 0.0,
          "mDOFVignettingBlurIntensity.f32": 0.0,
          "mDOFVignettingColorIntensity.f32": 0.0,
          "mOffset.V3f": [0.0,8.0,0.0],
          "mDOFStart.f32": 10000.0,
          "mDrumAngle.f32": 35.0,
          "mDOFIntensity.f32": 3.0,
          "mFovy.f32": 22.0,
          "mDistance.f32": 165.0,
          "mAngle.V3f": [29.0,0.0,0.0],
          "mDOFNearStart.f32": 80.0,
          "mDOFEnd.f32": 10000.0
        },
        "cStrcCommon": {
          "mDOFNearEnd.f32": 0.0,
          "mDOFVignettingBlurIntensity.f32": 0.0,
          "mDOFVignettingColorIntensity.f32": 0.0,
          "mOffset.V3f": [0.0,10.0,0.0],
          "mDOFStart.f32": 10000.0,
          "mDrumAngle.f32": 35.0,
          "mDOFIntensity.f32": 1.3,
          "mFovy.f32": 22.0,
          "mDistance.f32": 145.0,
          "mAngle.V3f": [27.0,0.0,0.0],
          "mDOFNearStart.f32": 0.0,
          "mDOFEnd.f32": 10000.0
        },
        "cFesTent": {
          "mDOFNearEnd.f32": 100.0,
          "mDOFVignettingBlurIntensity.f32": 0.0,
          "mDOFVignettingColorIntensity.f32": 0.5,
          "mOffset.V3f": [15.0,15.04,15.0],
          "mDOFStart.f32": 225.0,
          "mDrumAngle.f32": 35.0,
          "mDOFIntensity.f32": 2.0,
          "mFovy.f32": 18.0,
          "mDistance.f32": 140.0,
          "mAngle.V3f": [20.0,0.0,0.0],
          "mDOFNearStart.f32": 95.0,
          "mDOFEnd.f32": 160.0
        },
        "5d333327": {
          "mDOFNearEnd.f32": 0.0,
          "mDOFVignettingBlurIntensity.f32": 0.0,
          "mDOFVignettingColorIntensity.f32": 0.0,
          "mOffset.V3f": [0.0,14.0,0.0],
          "mDOFStart.f32": 10000.0,
          "mDrumAngle.f32": 35.0,
          "mDOFIntensity.f32": 0.0,
          "mFovy.f32": 22.0,
          "mDistance.f32": 180.0,
          "mAngle.V3f": [5.0,0.0,0.0],
          "mDOFNearStart.f32": 0.0,
          "mDOFEnd.f32": 10000.0
        },
        "cBuildStructureBehind": {
          "mDOFNearEnd.f32": 0.0,
          "mDOFVignettingBlurIntensity.f32": 0.0,
          "mDOFVignettingColorIntensity.f32": 0.5,
          "mOffset.V3f": [0.0,10.0,15.0],
          "mDOFStart.f32": 260.0,
          "mDrumAngle.f32": 20.0,
          "mDOFIntensity.f32": 2.5,
          "mFovy.f32": 22.0,
          "mDistance.f32": 170.0,
          "mAngle.V3f": [65.0,0.0,0.0],
          "mDOFNearStart.f32": 0.0,
          "mDOFEnd.f32": 500.0
        },
        "cTalkIdr": {
          "mDOFNearEnd.f32": 59.7,
          "mDOFVignettingBlurIntensity.f32": 0.0,
          "mDOFVignettingColorIntensity.f32": 0.5,
          "mOffset.V3f": [0.0,7.0,0.0],
          "mDOFStart.f32": 90.0,
          "mDrumAngle.f32": 35.0,
          "mDOFIntensity.f32": 1.5,
          "mFovy.f32": 22.0,
          "mDistance.f32": 70.0,
          "mAngle.V3f": [10.0,0.0,0.0],
          "mDOFNearStart.f32": 58.0,
          "mDOFEnd.f32": 112.0
        },
        "cRoomEditFloorNormal": {
          "mDOFNearEnd.f32": 650.0,
          "mDOFVignettingBlurIntensity.f32": 0.0,
          "mDOFVignettingColorIntensity.f32": 0.8,
          "mOffset.V3f": [0.0,5.0,0.0],
          "mDOFStart.f32": 10000.0,
          "mDrumAngle.f32": 35.0,
          "mDOFIntensity.f32": 0.0,
          "mFovy.f32": 5.0,
          "mDistance.f32": 900.0,
          "mAngle.V3f": [50.0,0.0,0.0],
          "mDOFNearStart.f32": 680.0,
          "mDOFEnd.f32": 10000.0
        },
        "cFriendList": {
          "mDOFNearEnd.f32": 0.0,
          "mDOFVignettingBlurIntensity.f32": 0.0,
          "mDOFVignettingColorIntensity.f32": 0.0,
          "mOffset.V3f": [-18.0,12.16,5.76],
          "mDOFStart.f32": 180.0,
          "mDrumAngle.f32": 35.0,
          "mDOFIntensity.f32": 1.5,
          "mFovy.f32": 15.0,
          "mDistance.f32": 170.0,
          "mAngle.V3f": [40.0,0.0,0.0],
          "mDOFNearStart.f32": 0.0,
          "mDOFEnd.f32": 270.0
        },
        "cFirstPersonIdrNormal": {
          "mDOFNearEnd.f32": 0.0,
          "mDOFVignettingBlurIntensity.f32": 0.0,
          "mDOFVignettingColorIntensity.f32": 0.0,
          "mOffset.V3f": [0.0,12.0,0.0],
          "mDOFStart.f32": 4840.0,
          "mDrumAngle.f32": 35.0,
          "mDOFIntensity.f32": 0.0,
          "mFovy.f32": 34.0,
          "mDistance.f32": 5.0,
          "mAngle.V3f": [0.0,0.0,0.0],
          "mDOFNearStart.f32": 0.0,
          "mDOFEnd.f32": 9000.0
        },
        "cFirstPersonRoomFar": {
          "mDOFNearEnd.f32": 0.0,
          "mDOFVignettingBlurIntensity.f32": 0.0,
          "mDOFVignettingColorIntensity.f32": 0.0,
          "mOffset.V3f": [0.0,12.0,0.0],
          "mDOFStart.f32": 4840.0,
          "mDrumAngle.f32": 35.0,
          "mDOFIntensity.f32": 0.0,
          "mFovy.f32": 34.0,
          "mDistance.f32": 5.0,
          "mAngle.V3f": [80.0,0.0,0.0],
          "mDOFNearStart.f32": 0.0,
          "mDOFEnd.f32": 9000.0
        },
        "cItemMenu": {
          "mDOFNearEnd.f32": 140.0,
          "mDOFVignettingBlurIntensity.f32": 0.0,
          "mDOFVignettingColorIntensity.f32": 0.3,
          "mOffset.V3f": [0.0,17.5,2.5],
          "mDOFStart.f32": 180.0,
          "mDrumAngle.f32": 35.0,
          "mDOFIntensity.f32": 1.5,
          "mFovy.f32": 15.0,
          "mDistance.f32": 145.0,
          "mAngle.V3f": [27.0,0.0,0.0],
          "mDOFNearStart.f32": 130.0,
          "mDOFEnd.f32": 270.0
        },
        "cTalk": {
          "mDOFNearEnd.f32": 100.0,
          "mDOFVignettingBlurIntensity.f32": 0.0,
          "mDOFVignettingColorIntensity.f32": 0.5,
          "mOffset.V3f": [0.0,7.0,0.0],
          "mDOFStart.f32": 120.0,
          "mDrumAngle.f32": 35.0,
          "mDOFIntensity.f32": 1.5,
          "mFovy.f32": 16.0,
          "mDistance.f32": 108.0,
          "mAngle.V3f": [20.0,0.0,0.0],
          "mDOFNearStart.f32": 95.0,
          "mDOFEnd.f32": 145.0
        },
        "cTalkFtrActionIndoor": {
          "mDOFNearEnd.f32": 90.0,
          "mDOFVignettingBlurIntensity.f32": 0.0,
          "mDOFVignettingColorIntensity.f32": 0.5,
          "mOffset.V3f": [0.0,0.0,0.0],
          "mDOFStart.f32": 121.0,
          "mDrumAngle.f32": 35.0,
          "mDOFIntensity.f32": 1.5,
          "mFovy.f32": 22.0,
          "mDistance.f32": 105.0,
          "mAngle.V3f": [10.0,0.0,0.0],
          "mDOFNearStart.f32": 86.0,
          "mDOFEnd.f32": 141.0
        },
        "cProfilePhotoField": {
          "mDOFNearEnd.f32": 0.0,
          "mDOFVignettingBlurIntensity.f32": 0.0,
          "mDOFVignettingColorIntensity.f32": 0.0,
          "mOffset.V3f": [0.0,14.0,6.0],
          "mDOFStart.f32": 4840.0,
          "mDrumAngle.f32": 35.0,
          "mDOFIntensity.f32": 1.3,
          "mFovy.f32": 22.0,
          "mDistance.f32": 145.0,
          "mAngle.V3f": [32.0,0.0,0.0],
          "mDOFNearStart.f32": 0.0,
          "mDOFEnd.f32": 9000.0
        },
        "7a7a777b": {
          "mDOFNearEnd.f32": 0.0,
          "mDOFVignettingBlurIntensity.f32": 0.0,
          "mDOFVignettingColorIntensity.f32": 0.0,
          "mOffset.V3f": [0.0,12.0,0.0],
          "mDOFStart.f32": 4840.0,
          "mDrumAngle.f32": 35.0,
          "mDOFIntensity.f32": 0.0,
          "mFovy.f32": 32.0,
          "mDistance.f32": 5.0,
          "mAngle.V3f": [-80.0,0.0,0.0],
          "mDOFNearStart.f32": 0.0,
          "mDOFEnd.f32": 9000.0
        },
        "cFriendListBehind": {
          "mDOFNearEnd.f32": 0.0,
          "mDOFVignettingBlurIntensity.f32": 0.0,
          "mDOFVignettingColorIntensity.f32": 0.0,
          "mOffset.V3f": [-22.0,8.0,0.0],
          "mDOFStart.f32": 10000.0,
          "mDrumAngle.f32": 20.0,
          "mDOFIntensity.f32": 1.3,
          "mFovy.f32": 18.0,
          "mDistance.f32": 184.0,
          "mAngle.V3f": [70.0,0.0,0.0],
          "mDOFNearStart.f32": 0.0,
          "mDOFEnd.f32": 10000.0
        },
        "cBirdViewRight": {
          "mDOFNearEnd.f32": 0.0,
          "mDOFVignettingBlurIntensity.f32": 0.0,
          "mDOFVignettingColorIntensity.f32": 0.0,
          "mOffset.V3f": [0.0,8.0,0.0],
          "mDOFStart.f32": 4840.0,
          "mDrumAngle.f32": 10.0,
          "mDOFIntensity.f32": 1.3,
          "mFovy.f32": 17.0,
          "mDistance.f32": 250.0,
          "mAngle.V3f": [45.0,30.0,0.0],
          "mDOFNearStart.f32": 0.0,
          "mDOFEnd.f32": 9000.0
        },
        "cRoomNear": {
          "mDOFNearEnd.f32": 0.0,
          "mDOFVignettingBlurIntensity.f32": 0.0,
          "mDOFVignettingColorIntensity.f32": 0.0,
          "mOffset.V3f": [0.0,10.0,0.0],
          "mDOFStart.f32": 10000.0,
          "mDrumAngle.f32": 35.0,
          "mDOFIntensity.f32": 3.0,
          "mFovy.f32": 22.0,
          "mDistance.f32": 95.0,
          "mAngle.V3f": [8.0,0.0,0.0],
          "mDOFNearStart.f32": 80.0,
          "mDOFEnd.f32": 10000.0
        },
        "cShopItemBehind": {
          "mDOFNearEnd.f32": 69.0,
          "mDOFVignettingBlurIntensity.f32": 0.0,
          "mDOFVignettingColorIntensity.f32": 0.5,
          "mOffset.V3f": [0.0,0.0,10.0],
          "mDOFStart.f32": 113.0,
          "mDrumAngle.f32": 35.0,
          "mDOFIntensity.f32": 2.5,
          "mFovy.f32": 22.0,
          "mDistance.f32": 95.0,
          "mAngle.V3f": [35.0,0.0,0.0],
          "mDOFNearStart.f32": 66.0,
          "mDOFEnd.f32": 149.0
        },
        "cMyDesignMenuBehind": {
          "mDOFNearEnd.f32": 0.0,
          "mDOFVignettingBlurIntensity.f32": 0.0,
          "mDOFVignettingColorIntensity.f32": 0.0,
          "mOffset.V3f": [-20.0,8.0,0.0],
          "mDOFStart.f32": 10000.0,
          "mDrumAngle.f32": 20.0,
          "mDOFIntensity.f32": 1.3,
          "mFovy.f32": 18.0,
          "mDistance.f32": 184.0,
          "mAngle.V3f": [70.0,0.0,0.0],
          "mDOFNearStart.f32": 0.0,
          "mDOFEnd.f32": 10000.0
        },
        "cRoomEditWall": {
          "mDOFNearEnd.f32": 200.0,
          "mDOFVignettingBlurIntensity.f32": 0.0,
          "mDOFVignettingColorIntensity.f32": 0.8,
          "mOffset.V3f": [0.0,16.0,0.0],
          "mDOFStart.f32": 10000.0,
          "mDrumAngle.f32": 35.0,
          "mDOFIntensity.f32": 2.0,
          "mFovy.f32": 17.0,
          "mDistance.f32": 180.0,
          "mAngle.V3f": [1.0,0.0,0.0],
          "mDOFNearStart.f32": 140.0,
          "mDOFEnd.f32": 10000.0
        },
        "8db038c5": {
          "mDOFNearEnd.f32": 200.0,
          "mDOFVignettingBlurIntensity.f32": 0.0,
          "mDOFVignettingColorIntensity.f32": 0.8,
          "mOffset.V3f": [0.0,16.0,0.0],
          "mDOFStart.f32": 10000.0,
          "mDrumAngle.f32": 35.0,
          "mDOFIntensity.f32": 2.0,
          "mFovy.f32": 17.0,
          "mDistance.f32": 180.0,
          "mAngle.V3f": [1.0,0.0,0.0],
          "mDOFNearStart.f32": 140.0,
          "mDOFEnd.f32": 10000.0
        },
        "cFirstPersonRoomNormal": {
          "mDOFNearEnd.f32": 0.0,
          "mDOFVignettingBlurIntensity.f32": 0.0,
          "mDOFVignettingColorIntensity.f32": 0.0,
          "mOffset.V3f": [0.0,12.0,0.0],
          "mDOFStart.f32": 4840.0,
          "mDrumAngle.f32": 35.0,
          "mDOFIntensity.f32": 0.0,
          "mFovy.f32": 34.0,
          "mDistance.f32": 5.0,
          "mAngle.V3f": [0.0,0.0,0.0],
          "mDOFNearStart.f32": 0.0,
          "mDOFEnd.f32": 9000.0
        },
        "cShopRoomItemMax": {
          "mDOFNearEnd.f32": 69.0,
          "mDOFVignettingBlurIntensity.f32": 0.0,
          "mDOFVignettingColorIntensity.f32": 0.5,
          "mOffset.V3f": [0.0,11.0,0.0],
          "mDOFStart.f32": 163.0,
          "mDrumAngle.f32": 10.0,
          "mDOFIntensity.f32": 2.5,
          "mFovy.f32": 22.0,
          "mDistance.f32": 140.0,
          "mAngle.V3f": [25.0,0.0,0.0],
          "mDOFNearStart.f32": 66.0,
          "mDOFEnd.f32": 220.0
        },
        "cBulletinBoard": {
          "mDOFNearEnd.f32": 0.0,
          "mDOFVignettingBlurIntensity.f32": 0.0,
          "mDOFVignettingColorIntensity.f32": 0.8,
          "mOffset.V3f": [0.0,18.0,0.0],
          "mDOFStart.f32": 137.0,
          "mDrumAngle.f32": 32.0,
          "mDOFIntensity.f32": 2.5,
          "mFovy.f32": 22.0,
          "mDistance.f32": 120.0,
          "mAngle.V3f": [10.0,0.0,0.0],
          "mDOFNearStart.f32": 0.0,
          "mDOFEnd.f32": 350.0
        },
        "cStructureEntry": {
          "mDOFNearEnd.f32": 0.0,
          "mDOFVignettingBlurIntensity.f32": 0.0,
          "mDOFVignettingColorIntensity.f32": 0.5,
          "mOffset.V3f": [0.0,2.0,4.16],
          "mDOFStart.f32": 180.0,
          "mDrumAngle.f32": 35.0,
          "mDOFIntensity.f32": 3.0,
          "mFovy.f32": 17.0,
          "mDistance.f32": 101.0,
          "mAngle.V3f": [27.0,0.0,0.0],
          "mDOFNearStart.f32": 0.0,
          "mDOFEnd.f32": 380.0
        },
        "cPlayerBDPinataResult": {
          "mDOFNearEnd.f32": 84.0,
          "mDOFVignettingBlurIntensity.f32": 0.0,
          "mDOFVignettingColorIntensity.f32": 0.0,
          "mOffset.V3f": [0.0,8.0,10.0],
          "mDOFStart.f32": 163.0,
          "mDrumAngle.f32": 35.0,
          "mDOFIntensity.f32": 2.5,
          "mFovy.f32": 22.0,
          "mDistance.f32": 130.0,
          "mAngle.V3f": [45.0,0.0,0.0],
          "mDOFNearStart.f32": 106.0,
          "mDOFEnd.f32": 145.0
        },
        "cFirstPersonRoomNear": {
          "mDOFNearEnd.f32": 0.0,
          "mDOFVignettingBlurIntensity.f32": 0.0,
          "mDOFVignettingColorIntensity.f32": 0.0,
          "mOffset.V3f": [0.0,12.0,0.0],
          "mDOFStart.f32": 4840.0,
          "mDrumAngle.f32": 35.0,
          "mDOFIntensity.f32": 0.0,
          "mFovy.f32": 32.0,
          "mDistance.f32": 5.0,
          "mAngle.V3f": [-80.0,0.0,0.0],
          "mDOFNearStart.f32": 0.0,
          "mDOFEnd.f32": 9000.0
        },
        "cShopRoomItem": {
          "mDOFNearEnd.f32": 69.0,
          "mDOFVignettingBlurIntensity.f32": 0.0,
          "mDOFVignettingColorIntensity.f32": 0.5,
          "mOffset.V3f": [0.0,1.0,0.0],
          "mDOFStart.f32": 103.0,
          "mDrumAngle.f32": 35.0,
          "mDOFIntensity.f32": 2.5,
          "mFovy.f32": 22.0,
          "mDistance.f32": 95.0,
          "mAngle.V3f": [18.0,0.0,0.0],
          "mDOFNearStart.f32": 66.0,
          "mDOFEnd.f32": 149.0
        },
        "cBirdView": {
          "mDOFNearEnd.f32": 0.0,
          "mDOFVignettingBlurIntensity.f32": 0.0,
          "mDOFVignettingColorIntensity.f32": 0.0,
          "mOffset.V3f": [0.0,8.0,0.0],
          "mDOFStart.f32": 200.0,
          "mDrumAngle.f32": 20.0,
          "mDOFIntensity.f32": 1.0,
          "mFovy.f32": 22.0,
          "mDistance.f32": 175.0,
          "mAngle.V3f": [43.0,0.0,0.0],
          "mDOFNearStart.f32": 0.0,
          "mDOFEnd.f32": 240.0
        },
        "cShopRoomItemMin": {
          "mDOFNearEnd.f32": 69.0,
          "mDOFVignettingBlurIntensity.f32": 0.0,
          "mDOFVignettingColorIntensity.f32": 0.5,
          "mOffset.V3f": [0.0,1.0,0.0],
          "mDOFStart.f32": 132.0,
          "mDrumAngle.f32": 10.0,
          "mDOFIntensity.f32": 2.5,
          "mFovy.f32": 22.0,
          "mDistance.f32": 120.0,
          "mAngle.V3f": [18.0,0.0,0.0],
          "mDOFNearStart.f32": 66.0,
          "mDOFEnd.f32": 199.0
        },
        "aa71ddad": {
          "mDOFNearEnd.f32": 0.0,
          "mDOFVignettingBlurIntensity.f32": 0.0,
          "mDOFVignettingColorIntensity.f32": 0.0,
          "mOffset.V3f": [0.0,28.0,0.0],
          "mDOFStart.f32": 10000.0,
          "mDrumAngle.f32": 35.0,
          "mDOFIntensity.f32": 0.0,
          "mFovy.f32": 22.0,
          "mDistance.f32": 260.0,
          "mAngle.V3f": [89.9,0.0,0.0],
          "mDOFNearStart.f32": 0.0,
          "mDOFEnd.f32": 10000.0
        },
        "cSmaphoMenu": {
          "mDOFNearEnd.f32": 140.0,
          "mDOFVignettingBlurIntensity.f32": 0.0,
          "mDOFVignettingColorIntensity.f32": 0.3,
          "mOffset.V3f": [-6.0,9.0,2.5],
          "mDOFStart.f32": 180.0,
          "mDrumAngle.f32": 35.0,
          "mDOFIntensity.f32": 1.5,
          "mFovy.f32": 15.0,
          "mDistance.f32": 145.0,
          "mAngle.V3f": [12.0,0.0,0.0],
          "mDOFNearStart.f32": 130.0,
          "mDOFEnd.f32": 270.0
        },
        "ae2b9d5f": {
          "mDOFNearEnd.f32": 0.0,
          "mDOFVignettingBlurIntensity.f32": 0.0,
          "mDOFVignettingColorIntensity.f32": 0.0,
          "mOffset.V3f": [0.0,12.0,0.0],
          "mDOFStart.f32": 4840.0,
          "mDrumAngle.f32": 35.0,
          "mDOFIntensity.f32": 0.0,
          "mFovy.f32": 34.0,
          "mDistance.f32": 5.0,
          "mAngle.V3f": [80.0,0.0,0.0],
          "mDOFNearStart.f32": 0.0,
          "mDOFEnd.f32": 9000.0
        },
        "cATM": {
          "mDOFNearEnd.f32": 100.0,
          "mDOFVignettingBlurIntensity.f32": 0.0,
          "mDOFVignettingColorIntensity.f32": 0.8,
          "mOffset.V3f": [-9.6,4.0,0.0],
          "mDOFStart.f32": 150.0,
          "mDrumAngle.f32": 35.0,
          "mDOFIntensity.f32": 1.5,
          "mFovy.f32": 18.0,
          "mDistance.f32": 128.0,
          "mAngle.V3f": [13.0,-12.0,0.0],
          "mDOFNearStart.f32": 95.0,
          "mDOFEnd.f32": 199.0
        },
        "afdd9915": {
          "mDOFNearEnd.f32": 0.0,
          "mDOFVignettingBlurIntensity.f32": 0.0,
          "mDOFVignettingColorIntensity.f32": 0.0,
          "mOffset.V3f": [0.0,14.0,0.0],
          "mDOFStart.f32": 4840.0,
          "mDrumAngle.f32": 35.0,
          "mDOFIntensity.f32": 0.0,
          "mFovy.f32": 34.0,
          "mDistance.f32": 5.0,
          "mAngle.V3f": [18.5,0.0,0.0],
          "mDOFNearStart.f32": 0.0,
          "mDOFEnd.f32": 9000.0
        },
        "b09dec12": {
          "mDOFNearEnd.f32": 0.0,
          "mDOFVignettingBlurIntensity.f32": 0.0,
          "mDOFVignettingColorIntensity.f32": 0.0,
          "mOffset.V3f": [0.0,10.0,0.0],
          "mDOFStart.f32": 10000.0,
          "mDrumAngle.f32": 35.0,
          "mDOFIntensity.f32": 3.0,
          "mFovy.f32": 22.0,
          "mDistance.f32": 110.0,
          "mAngle.V3f": [8.0,0.0,0.0],
          "mDOFNearStart.f32": 80.0,
          "mDOFEnd.f32": 10000.0
        },
        "cNormal": {
          "mDOFNearEnd.f32": 0.0,
          "mDOFVignettingBlurIntensity.f32": 0.0,
          "mDOFVignettingColorIntensity.f32": 0.0,
          "mOffset.V3f": [0.0,10.0,9.0],
          "mDOFStart.f32": 260.0,
          "mDrumAngle.f32": 35.0,
          "mDOFIntensity.f32": 2.5,
          "mFovy.f32": 22.0,
          "mDistance.f32": 140.0,
          "mAngle.V3f": [32.0,0.0,0.0],
          "mDOFNearStart.f32": 0.0,
          "mDOFEnd.f32": 500.0
        },
        "b1253f8e": {
          "mDOFNearEnd.f32": 0.0,
          "mDOFVignettingBlurIntensity.f32": 0.0,
          "mDOFVignettingColorIntensity.f32": 0.0,
          "mOffset.V3f": [0.0,21.0,0.0],
          "mDOFStart.f32": 10000.0,
          "mDrumAngle.f32": 35.0,
          "mDOFIntensity.f32": 0.0,
          "mFovy.f32": 22.0,
          "mDistance.f32": 220.0,
          "mAngle.V3f": [47.5,0.0,0.0],
          "mDOFNearStart.f32": 0.0,
          "mDOFEnd.f32": 10000.0
        },
        "b18805e": {
          "mDOFNearEnd.f32": 0.0,
          "mDOFVignettingBlurIntensity.f32": 0.0,
          "mDOFVignettingColorIntensity.f32": 0.0,
          "mOffset.V3f": [0.0,14.0,0.0],
          "mDOFStart.f32": 4840.0,
          "mDrumAngle.f32": 35.0,
          "mDOFIntensity.f32": 0.0,
          "mFovy.f32": 34.0,
          "mDistance.f32": 5.0,
          "mAngle.V3f": [7.0,0.0,0.0],
          "mDOFNearStart.f32": 0.0,
          "mDOFEnd.f32": 9000.0
        },
        "cShelf2": {
          "mDOFNearEnd.f32": 69.0,
          "mDOFVignettingBlurIntensity.f32": 0.0,
          "mDOFVignettingColorIntensity.f32": 0.5,
          "mOffset.V3f": [3.0,2.0,0.0],
          "mDOFStart.f32": 103.0,
          "mDrumAngle.f32": 35.0,
          "mDOFIntensity.f32": 1.5,
          "mFovy.f32": 22.0,
          "mDistance.f32": 93.0,
          "mAngle.V3f": [20.0,0.0,0.0],
          "mDOFNearStart.f32": 66.0,
          "mDOFEnd.f32": 149.0
        },
        "cGetDemoBehind": {
          "mDOFNearEnd.f32": 0.0,
          "mDOFVignettingBlurIntensity.f32": 0.0,
          "mDOFVignettingColorIntensity.f32": 0.5,
          "mOffset.V3f": [0.0,8.0,3.2],
          "mDOFStart.f32": 10000.0,
          "mDrumAngle.f32": 20.0,
          "mDOFIntensity.f32": 1.3,
          "mFovy.f32": 18.0,
          "mDistance.f32": 130.0,
          "mAngle.V3f": [70.0,0.0,0.0],
          "mDOFNearStart.f32": 0.0,
          "mDOFEnd.f32": 10000.0
        },
        "cItemShowBehind": {
          "mDOFNearEnd.f32": 0.0,
          "mDOFVignettingBlurIntensity.f32": 0.0,
          "mDOFVignettingColorIntensity.f32": 0.5,
          "mOffset.V3f": [0.0,8.0,0.0],
          "mDOFStart.f32": 10000.0,
          "mDrumAngle.f32": 20.0,
          "mDOFIntensity.f32": 1.3,
          "mFovy.f32": 18.0,
          "mDistance.f32": 130.0,
          "mAngle.V3f": [70.0,0.0,0.0],
          "mDOFNearStart.f32": 0.0,
          "mDOFEnd.f32": 10000.0
        },
        "cGetDemo": {
          "mDOFNearEnd.f32": 93.0,
          "mDOFVignettingBlurIntensity.f32": 0.0,
          "mDOFVignettingColorIntensity.f32": 0.5,
          "mOffset.V3f": [0.0,5.12,4.8],
          "mDOFStart.f32": 180.0,
          "mDrumAngle.f32": 35.0,
          "mDOFIntensity.f32": 2.5,
          "mFovy.f32": 16.0,
          "mDistance.f32": 110.0,
          "mAngle.V3f": [23.0,0.0,0.0],
          "mDOFNearStart.f32": 78.0,
          "mDOFEnd.f32": 380.0
        },
        "bc2dc82d": {
          "mDOFNearEnd.f32": 0.0,
          "mDOFVignettingBlurIntensity.f32": 0.0,
          "mDOFVignettingColorIntensity.f32": 0.0,
          "mOffset.V3f": [0.0,8.0,0.0],
          "mDOFStart.f32": 10000.0,
          "mDrumAngle.f32": 35.0,
          "mDOFIntensity.f32": 3.0,
          "mFovy.f32": 22.0,
          "mDistance.f32": 220.0,
          "mAngle.V3f": [50.0,0.0,0.0],
          "mDOFNearStart.f32": 80.0,
          "mDOFEnd.f32": 10000.0
        },
        "cBuildStructure": {
          "mDOFNearEnd.f32": 0.0,
          "mDOFVignettingBlurIntensity.f32": 0.0,
          "mDOFVignettingColorIntensity.f32": 0.5,
          "mOffset.V3f": [0.0,10.0,25.0],
          "mDOFStart.f32": 260.0,
          "mDrumAngle.f32": 35.0,
          "mDOFIntensity.f32": 2.5,
          "mFovy.f32": 22.0,
          "mDistance.f32": 140.0,
          "mAngle.V3f": [32.0,0.0,0.0],
          "mDOFNearStart.f32": 0.0,
          "mDOFEnd.f32": 500.0
        },
        "cEmoticonMenuBehind": {
          "mDOFNearEnd.f32": 0.0,
          "mDOFVignettingBlurIntensity.f32": 0.0,
          "mDOFVignettingColorIntensity.f32": 0.0,
          "mOffset.V3f": [0.0,8.0,-10.0],
          "mDOFStart.f32": 4840.0,
          "mDrumAngle.f32": 20.0,
          "mDOFIntensity.f32": 1.5,
          "mFovy.f32": 22.0,
          "mDistance.f32": 105.0,
          "mAngle.V3f": [70.0,0.0,0.0],
          "mDOFNearStart.f32": 0.0,
          "mDOFEnd.f32": 9000.0
        },
        "cPost": {
          "mDOFNearEnd.f32": 0.0,
          "mDOFVignettingBlurIntensity.f32": 0.0,
          "mDOFVignettingColorIntensity.f32": 0.8,
          "mOffset.V3f": [25.0,3.5,0.0],
          "mDOFStart.f32": 158.0,
          "mDrumAngle.f32": 5.0,
          "mDOFIntensity.f32": 2.5,
          "mFovy.f32": 18.0,
          "mDistance.f32": 120.0,
          "mAngle.V3f": [25.0,-30.0,0.0],
          "mDOFNearStart.f32": 0.0,
          "mDOFEnd.f32": 241.0
        },
        "c41d4669": {
          "mDOFNearEnd.f32": 0.0,
          "mDOFVignettingBlurIntensity.f32": 0.0,
          "mDOFVignettingColorIntensity.f32": 0.0,
          "mOffset.V3f": [0.0,14.0,0.0],
          "mDOFStart.f32": 4840.0,
          "mDrumAngle.f32": 35.0,
          "mDOFIntensity.f32": 0.0,
          "mFovy.f32": 34.0,
          "mDistance.f32": 5.0,
          "mAngle.V3f": [80.0,0.0,0.0],
          "mDOFNearStart.f32": 0.0,
          "mDOFEnd.f32": 9000.0
        },
        "cSharePlayEntrance": {
          "mDOFNearEnd.f32": 0.0,
          "mDOFVignettingBlurIntensity.f32": 0.0,
          "mDOFVignettingColorIntensity.f32": 0.0,
          "mOffset.V3f": [0.0,4.0,0.0],
          "mDOFStart.f32": 220.0,
          "mDrumAngle.f32": 35.0,
          "mDOFIntensity.f32": 2.5,
          "mFovy.f32": 22.0,
          "mDistance.f32": 108.0,
          "mAngle.V3f": [25.0,0.0,0.0],
          "mDOFNearStart.f32": 0.0,
          "mDOFEnd.f32": 500.0
        },
        "cRoomEditCeilingNear": {
          "mDOFNearEnd.f32": 0.0,
          "mDOFVignettingBlurIntensity.f32": 0.0,
          "mDOFVignettingColorIntensity.f32": 0.0,
          "mOffset.V3f": [0.0,14.0,0.0],
          "mDOFStart.f32": 10000.0,
          "mDrumAngle.f32": 35.0,
          "mDOFIntensity.f32": 0.0,
          "mFovy.f32": 22.0,
          "mDistance.f32": 180.0,
          "mAngle.V3f": [5.0,0.0,0.0],
          "mDOFNearStart.f32": 0.0,
          "mDOFEnd.f32": 10000.0
        },
        "cSky": {
          "mDOFNearEnd.f32": 0.0,
          "mDOFVignettingBlurIntensity.f32": 0.0,
          "mDOFVignettingColorIntensity.f32": 0.0,
          "mOffset.V3f": [0.0,15.0,0.0],
          "mDOFStart.f32": 260.0,
          "mDrumAngle.f32": 35.0,
          "mDOFIntensity.f32": 2.5,
          "mFovy.f32": 22.0,
          "mDistance.f32": 130.0,
          "mAngle.V3f": [10.0,0.0,0.0],
          "mDOFNearStart.f32": 0.0,
          "mDOFEnd.f32": 500.0
        },
        "cFishBait": {
          "mDOFNearEnd.f32": 0.0,
          "mDOFVignettingBlurIntensity.f32": 0.0,
          "mDOFVignettingColorIntensity.f32": 0.0,
          "mOffset.V3f": [0.0,10.0,9.0],
          "mDOFStart.f32": 160.0,
          "mDrumAngle.f32": 35.0,
          "mDOFIntensity.f32": 2.0,
          "mFovy.f32": 15.0,
          "mDistance.f32": 140.0,
          "mAngle.V3f": [27.0,0.0,0.0],
          "mDOFNearStart.f32": 0.0,
          "mDOFEnd.f32": 400.0
        },
        "cRoomEditCeilingNormal": {
          "mDOFNearEnd.f32": 0.0,
          "mDOFVignettingBlurIntensity.f32": 0.0,
          "mDOFVignettingColorIntensity.f32": 0.0,
          "mOffset.V3f": [0.0,21.0,0.0],
          "mDOFStart.f32": 10000.0,
          "mDrumAngle.f32": 35.0,
          "mDOFIntensity.f32": 0.0,
          "mFovy.f32": 22.0,
          "mDistance.f32": 220.0,
          "mAngle.V3f": [47.5,0.0,0.0],
          "mDOFNearStart.f32": 0.0,
          "mDOFEnd.f32": 10000.0
        },
        "cTitleNpc": {
          "mDOFNearEnd.f32": 0.0,
          "mDOFVignettingBlurIntensity.f32": 0.0,
          "mDOFVignettingColorIntensity.f32": 0.5,
          "mOffset.V3f": [0.0,15.0,-8.0],
          "mDOFStart.f32": 200.0,
          "mDrumAngle.f32": 20.0,
          "mDOFIntensity.f32": 1.5,
          "mFovy.f32": 22.0,
          "mDistance.f32": 150.0,
          "mAngle.V3f": [43.0,0.0,0.0],
          "mDOFNearStart.f32": 0.0,
          "mDOFEnd.f32": 240.0
        },
        "db7caecc": {
          "mDOFNearEnd.f32": 0.0,
          "mDOFVignettingBlurIntensity.f32": 0.0,
          "mDOFVignettingColorIntensity.f32": 0.0,
          "mOffset.V3f": [0.0,12.0,0.0],
          "mDOFStart.f32": 4840.0,
          "mDrumAngle.f32": 35.0,
          "mDOFIntensity.f32": 0.0,
          "mFovy.f32": 34.0,
          "mDistance.f32": 5.0,
          "mAngle.V3f": [0.0,0.0,0.0],
          "mDOFNearStart.f32": 0.0,
          "mDOFEnd.f32": 9000.0
        },
        "cBirdViewLeft": {
          "mDOFNearEnd.f32": 0.0,
          "mDOFVignettingBlurIntensity.f32": 0.0,
          "mDOFVignettingColorIntensity.f32": 0.0,
          "mOffset.V3f": [0.0,8.0,0.0],
          "mDOFStart.f32": 4840.0,
          "mDrumAngle.f32": 10.0,
          "mDOFIntensity.f32": 1.3,
          "mFovy.f32": 17.0,
          "mDistance.f32": 250.0,
          "mAngle.V3f": [45.0,-30.0,0.0],
          "mDOFNearStart.f32": 0.0,
          "mDOFEnd.f32": 9000.0
        },
        "cRoomEditFloorFar": {
          "mDOFNearEnd.f32": 650.0,
          "mDOFVignettingBlurIntensity.f32": 0.0,
          "mDOFVignettingColorIntensity.f32": 0.8,
          "mOffset.V3f": [0.0,5.0,0.0],
          "mDOFStart.f32": 10000.0,
          "mDrumAngle.f32": 35.0,
          "mDOFIntensity.f32": 0.0,
          "mFovy.f32": 5.0,
          "mDistance.f32": 1100.0,
          "mAngle.V3f": [89.9,0.0,0.0],
          "mDOFNearStart.f32": 680.0,
          "mDOFEnd.f32": 10000.0
        },
        "cPreGetDemo": {
          "mDOFNearEnd.f32": 105.0,
          "mDOFVignettingBlurIntensity.f32": 0.0,
          "mDOFVignettingColorIntensity.f32": 0.5,
          "mOffset.V3f": [0.0,5.12,4.8],
          "mDOFStart.f32": 180.0,
          "mDrumAngle.f32": 35.0,
          "mDOFIntensity.f32": 2.5,
          "mFovy.f32": 22.0,
          "mDistance.f32": 120.0,
          "mAngle.V3f": [23.0,0.0,0.0],
          "mDOFNearStart.f32": 80.0,
          "mDOFEnd.f32": 380.0
        },
        "cEmoticonMenuNpc": {
          "mDOFNearEnd.f32": 430.0,
          "mDOFVignettingBlurIntensity.f32": 0.0,
          "mDOFVignettingColorIntensity.f32": 0.5,
          "mOffset.V3f": [0.0,9.0,0.0],
          "mDOFStart.f32": 490.0,
          "mDrumAngle.f32": 35.0,
          "mDOFIntensity.f32": 1.5,
          "mFovy.f32": 5.0,
          "mDistance.f32": 470.0,
          "mAngle.V3f": [15.0,0.0,0.0],
          "mDOFNearStart.f32": 450.0,
          "mDOFEnd.f32": 500.0
        },
        "cMyDesignMenu": {
          "mDOFNearEnd.f32": 0.0,
          "mDOFVignettingBlurIntensity.f32": 0.0,
          "mDOFVignettingColorIntensity.f32": 0.3,
          "mOffset.V3f": [-15.0,12.16,5.76],
          "mDOFStart.f32": 180.0,
          "mDrumAngle.f32": 35.0,
          "mDOFIntensity.f32": 1.5,
          "mFovy.f32": 15.0,
          "mDistance.f32": 170.0,
          "mAngle.V3f": [40.0,0.0,0.0],
          "mDOFNearStart.f32": 0.0,
          "mDOFEnd.f32": 270.0
        },
        "cPlayerBDPinataExplain": {
          "mDOFNearEnd.f32": 69.0,
          "mDOFVignettingBlurIntensity.f32": 0.0,
          "mDOFVignettingColorIntensity.f32": 0.0,
          "mOffset.V3f": [0.0,9.0,0.0],
          "mDOFStart.f32": 200.0,
          "mDrumAngle.f32": 35.0,
          "mDOFIntensity.f32": 2.5,
          "mFovy.f32": 22.0,
          "mDistance.f32": 132.0,
          "mAngle.V3f": [5.0,0.0,0.0],
          "mDOFNearStart.f32": 82.0,
          "mDOFEnd.f32": 140.0
        },
        "cRoomNormal": {
          "mDOFNearEnd.f32": 0.0,
          "mDOFVignettingBlurIntensity.f32": 0.0,
          "mDOFVignettingColorIntensity.f32": 0.0,
          "mOffset.V3f": [0.0,8.0,0.0],
          "mDOFStart.f32": 10000.0,
          "mDrumAngle.f32": 35.0,
          "mDOFIntensity.f32": 3.0,
          "mFovy.f32": 22.0,
          "mDistance.f32": 135.0,
          "mAngle.V3f": [29.0,0.0,0.0],
          "mDOFNearStart.f32": 80.0,
          "mDOFEnd.f32": 10000.0
        },
        "cRoomEditFloorNear": {
          "mDOFNearEnd.f32": 650.0,
          "mDOFVignettingBlurIntensity.f32": 0.0,
          "mDOFVignettingColorIntensity.f32": 0.8,
          "mOffset.V3f": [0.0,14.0,0.0],
          "mDOFStart.f32": 790.0,
          "mDrumAngle.f32": 35.0,
          "mDOFIntensity.f32": 2.0,
          "mFovy.f32": 5.0,
          "mDistance.f32": 700.0,
          "mAngle.V3f": [10.0,0.0,0.0],
          "mDOFNearStart.f32": 680.0,
          "mDOFEnd.f32": 730.0
        },
        "cGetDemoSm": {
          "mDOFNearEnd.f32": 93.0,
          "mDOFVignettingBlurIntensity.f32": 0.0,
          "mDOFVignettingColorIntensity.f32": 0.5,
          "mOffset.V3f": [0.0,5.12,4.8],
          "mDOFStart.f32": 180.0,
          "mDrumAngle.f32": 35.0,
          "mDOFIntensity.f32": 2.5,
          "mFovy.f32": 16.0,
          "mDistance.f32": 110.0,
          "mAngle.V3f": [20.3174,0.0,0.0],
          "mDOFNearStart.f32": 78.0,
          "mDOFEnd.f32": 380.0
        },
        "cTalkFtrActionOutdoor": {
          "mDOFNearEnd.f32": 0.0,
          "mDOFVignettingBlurIntensity.f32": 0.0,
          "mDOFVignettingColorIntensity.f32": 0.5,
          "mOffset.V3f": [0.0,0.0,0.0],
          "mDOFStart.f32": 180.0,
          "mDrumAngle.f32": 35.0,
          "mDOFIntensity.f32": 3.0,
          "mFovy.f32": 18.0,
          "mDistance.f32": 128.0,
          "mAngle.V3f": [26.0,0.0,0.0],
          "mDOFNearStart.f32": 0.0,
          "mDOFEnd.f32": 380.0
        },
        "cSmaphoMenuBehind": {
          "mDOFNearEnd.f32": 0.0,
          "mDOFVignettingBlurIntensity.f32": 0.0,
          "mDOFVignettingColorIntensity.f32": 0.3,
          "mOffset.V3f": [-6.0,9.0,0.0],
          "mDOFStart.f32": 10000.0,
          "mDrumAngle.f32": 20.0,
          "mDOFIntensity.f32": 1.3,
          "mFovy.f32": 18.0,
          "mDistance.f32": 145.0,
          "mAngle.V3f": [70.0,0.0,0.0],
          "mDOFNearStart.f32": 0.0,
          "mDOFEnd.f32": 10000.0
        },
        "f18676bd": {
          "mDOFNearEnd.f32": 0.0,
          "mDOFVignettingBlurIntensity.f32": 0.0,
          "mDOFVignettingColorIntensity.f32": 0.0,
          "mOffset.V3f": [0.0,12.0,0.0],
          "mDOFStart.f32": 4840.0,
          "mDrumAngle.f32": 35.0,
          "mDOFIntensity.f32": 0.0,
          "mFovy.f32": 34.0,
          "mDistance.f32": 5.0,
          "mAngle.V3f": [80.0,0.0,0.0],
          "mDOFNearStart.f32": 0.0,
          "mDOFEnd.f32": 9000.0
        },
        "cDive": {
          "mDOFNearEnd.f32": 0.0,
          "mDOFVignettingBlurIntensity.f32": 0.0,
          "mDOFVignettingColorIntensity.f32": 0.0,
          "mOffset.V3f": [0.0,8.0,0.0],
          "mDOFStart.f32": 4840.0,
          "mDrumAngle.f32": 10.0,
          "mDOFIntensity.f32": 1.3,
          "mFovy.f32": 22.0,
          "mDistance.f32": 175.0,
          "mAngle.V3f": [89.0,0.0,0.0],
          "mDOFNearStart.f32": 0.0,
          "mDOFEnd.f32": 9000.0
        },
        "fb6764d7": {
          "mDOFNearEnd.f32": 650.0,
          "mDOFVignettingBlurIntensity.f32": 0.0,
          "mDOFVignettingColorIntensity.f32": 0.8,
          "mOffset.V3f": [0.0,14.0,0.0],
          "mDOFStart.f32": 1030.0,
          "mDrumAngle.f32": 35.0,
          "mDOFIntensity.f32": 2.0,
          "mFovy.f32": 5.0,
          "mDistance.f32": 800.0,
          "mAngle.V3f": [10.0,0.0,0.0],
          "mDOFNearStart.f32": 680.0,
          "mDOFEnd.f32": 860.0
        },
        "fbf1fa86": {
          "mDOFNearEnd.f32": 0.0,
          "mDOFVignettingBlurIntensity.f32": 0.0,
          "mDOFVignettingColorIntensity.f32": 0.0,
          "mOffset.V3f": [0.0,14.0,0.0],
          "mDOFStart.f32": 4840.0,
          "mDrumAngle.f32": 35.0,
          "mDOFIntensity.f32": 0.0,
          "mFovy.f32": 34.0,
          "mDistance.f32": 5.0,
          "mAngle.V3f": [-80.0,0.0,0.0],
          "mDOFNearStart.f32": 0.0,
          "mDOFEnd.f32": 9000.0
        }
      }
    }
  }
}