﻿{
  "version": 4,
  "rootNode": {
    "MainFieldDemoCeremony_DemoInterporateParams": {
      "mParamsBuffer[]": [
        {
          "mCurvef.Curvef": [7,
            [0.0,0.0,0.298368,0.502468,0.771347,0.511628,1.0,1.0,0.014786]
          ],
          "mKey.Str": "Default",
          "mFrame.s32": 240
        }
      ]
    }
  }
}