﻿{
  "version": 4,
  "rootNode": {
    "OutdoorStageCameraParams": {
      "mParams": {
        "MysteryTour": {
          "mSouthShoreRange.f32": 50.0,
          "mSouthShoreOffset.f32": 10.0,
          "mSouthShoreBaseline.f32": 520.0
        },
        "Invalid": {
          "mSouthShoreRange.f32": 50.0,
          "mSouthShoreOffset.f32": 0.0,
          "mSouthShoreBaseline.f32": 1000.0
        },
        "MainField": {
          "mSouthShoreRange.f32": 50.0,
          "mSouthShoreOffset.f32": 10.0,
          "mSouthShoreBaseline.f32": 1000.0
        },
        "ExtendIsland": {
          "mSouthShoreRange.f32": 50.0,
          "mSouthShoreOffset.f32": 10.0,
          "mSouthShoreBaseline.f32": 360.0
        }
      }
    }
  }
}