﻿{
  "version": 4,
  "rootNode": {
    "PhotoStudio_DemoParams": {
      "mParamsBuffer[]": [
        {
          "mDOFNearEnd.f32": 58.0,
          "mKey.Str": "CeremonyJuneBride",
          "mDOFVignettingBlurIntensity.f32": 0.0,
          "mDOFVignettingColorIntensity.f32": 1.0,
          "mOffset.V3f": [0.0,20.0,0.0],
          "mDOFStart.f32": 4840.0,
          "mDrumAngle.f32": 35.0,
          "mDOFIntensity.f32": 1.3,
          "mFovy.f32": 22.0,
          "mDistance.f32": 120.0,
          "mAngle.V3f": [30.0,0.0,0.0],
          "mDOFNearStart.f32": 133.0,
          "mDOFEnd.f32": 9000.0
        },
        {
          "mDOFNearEnd.f32": 0.0,
          "mKey.Str": "JBTakePhotoRoomNear",
          "mDOFVignettingBlurIntensity.f32": 0.0,
          "mDOFVignettingColorIntensity.f32": 0.0,
          "mOffset.V3f": [0.0,10.0,0.0],
          "mDOFStart.f32": 10000.0,
          "mDrumAngle.f32": 35.0,
          "mDOFIntensity.f32": 3.0,
          "mFovy.f32": 22.0,
          "mDistance.f32": 150.0,
          "mAngle.V3f": [3.0,0.0,0.0],
          "mDOFNearStart.f32": 80.0,
          "mDOFEnd.f32": 10000.0
        },
        {
          "mDOFNearEnd.f32": 0.0,
          "mKey.Str": "JBTakePhotoRoomNormal",
          "mDOFVignettingBlurIntensity.f32": 0.0,
          "mDOFVignettingColorIntensity.f32": 0.0,
          "mOffset.V3f": [0.0,8.0,0.0],
          "mDOFStart.f32": 10000.0,
          "mDrumAngle.f32": 35.0,
          "mDOFIntensity.f32": 3.0,
          "mFovy.f32": 22.0,
          "mDistance.f32": 160.0,
          "mAngle.V3f": [29.0,0.0,0.0],
          "mDOFNearStart.f32": 80.0,
          "mDOFEnd.f32": 10000.0
        },
        {
          "mDOFNearEnd.f32": 0.0,
          "mKey.Str": "JBTakePhotoRoomFar",
          "mDOFVignettingBlurIntensity.f32": 0.0,
          "mDOFVignettingColorIntensity.f32": 0.0,
          "mOffset.V3f": [0.0,8.0,0.0],
          "mDOFStart.f32": 10000.0,
          "mDrumAngle.f32": 35.0,
          "mDOFIntensity.f32": 3.0,
          "mFovy.f32": 22.0,
          "mDistance.f32": 170.0,
          "mAngle.V3f": [50.0,0.0,0.0],
          "mDOFNearStart.f32": 80.0,
          "mDOFEnd.f32": 10000.0
        }
      ]
    }
  }
}