﻿[
  {
    "label": "001",
    "attribute": "0x0000020000000000",
    "text": "{{anim id=\"Worried\" target=\"actor\" targetSpec=\"\"}}I still haven't gotten around to\nreturning something{{delay20}} I borrowed\nfrom {{selection value=\"SelectedVillager\"}}{{delay8}}{{string value=\"...\"}}{{pageBreak}}{{anim id=\"Restless\" target=\"actor\" targetSpec=\"\"}}I never meant to keep it so long,{{delay20}}\nbut now that I have,{{delay20}} {{anim id=\"Hesitate\" target=\"actor\" targetSpec=\"\"}}it's awkward\nto even bring it up."
  },
  {
    "label": "001_a",
    "attribute": "0x0000000000000000",
    "text": "Let me return it, then."
  },
  {
    "label": "001_b",
    "attribute": "0x0000000000000000",
    "text": "{{anim id=\"EmotEnd\" target=\"actor\" targetSpec=\"\"}}I'm sure it'll be fine."
  },
  {
    "label": "002",
    "attribute": "0x0000020000000000",
    "text": "{{anim id=\"Explain\" target=\"actor\" targetSpec=\"\"}}Just recently,{{delay20}} {{selection value=\"SelectedVillager\"}} was\nover at my house for lunch,{{delay20}}\nand {{gender3 m=\"he\" f=\"she\"}} left something behind.{{pageBreak}}I want to get it back to {{gender3 m=\"him\" f=\"her\"}},{{delay20}}\n{{anim id=\"Restless\" target=\"actor\" targetSpec=\"\"}}but I keep forgetting,{{delay20}} and\nI can't return it just now.\n{{anim id=\"Hesitate\" target=\"actor\" targetSpec=\"\"}}Would you mind returning this\nbefore I forget I have it again?"
  },
  {
    "label": "002_a",
    "attribute": "0x0000000000000000",
    "text": "Sure, I can do that."
  },
  {
    "label": "002_b",
    "attribute": "0x0000000000000000",
    "text": "Sorry, I can't."
  },
  {
    "label": "003",
    "attribute": "0x0000020000000000",
    "text": "{{anim id=\"Eh\" target=\"actor\" targetSpec=\"\"}}I wonder if you'd mind helping\nme out,{{delay20}} {{string value=\"NickName\"}}{{delay8}}{{string value=\"...\"}}{{pageBreak}}{{anim id=\"Explain\" target=\"actor\" targetSpec=\"\"}}I got an unexpected package and was\nabout to open it,{{delay20}} when {{anim id=\"Worried\" target=\"actor\" targetSpec=\"\"}}I noticed it\nwas meant for {{selection value=\"SelectedVillager\"}}.\n{{anim id=\"Serious\" target=\"actor\" targetSpec=\"\"}}I bet {{gender3 m=\"he's\" f=\"she's\"}} waiting around for this.{{delay40}}\n{{anim id=\"Hesitate\" target=\"actor\" targetSpec=\"\"}}Could you bring it to {{gender3 m=\"him\" f=\"her\"}} for me?{{delay40}}\nI'd do it myself, but I had plans{{delay8}}{{string value=\"...\"}}"
  },
  {
    "label": "003_a",
    "attribute": "0x0000000000000000",
    "text": "Sure, I don't mind."
  },
  {
    "label": "003_b",
    "attribute": "0x0000000000000000",
    "text": "{{anim id=\"EmotEnd\" target=\"actor\" targetSpec=\"\"}}I can't do it either."
  },
  {
    "label": "004",
    "attribute": "0x0000000000000000",
    "text": "{{anim id=\"Aha\" target=\"actor\" targetSpec=\"\"}}Really?{{delay20}} You'd do that for me?{{delay frames=\"30\"}}\n{{anim id=\"FaintSmile\" target=\"actor\" targetSpec=\"\"}}Here,{{delay20}} and thank you so much!"
  },
  {
    "label": "005",
    "attribute": "0x0000000000000000",
    "text": "{{anim id=\"BigSmile\" target=\"actor\" targetSpec=\"\"}}Thanks,{{delay20}} that's one less thing for\nme to worry about!{{delay frames=\"30\"}} {{anim id=\"FaintSmile\" target=\"actor\" targetSpec=\"\"}}Here you go."
  },
  {
    "label": "006",
    "attribute": "0x0000000000000000",
    "text": "{{anim id=\"BigSmile\" target=\"actor\" targetSpec=\"\"}}You're the best!{{delay frames=\"30\"}} {{anim id=\"FaintSmile\" target=\"actor\" targetSpec=\"\"}}Here's the package."
  },
  {
    "label": "007",
    "attribute": "0x0000000000000000",
    "text": "{{anim id=\"Sighing\" target=\"actor\" targetSpec=\"\"}}You know, I think you're right{{delay8}}{{string value=\"...\"}}\n{{anim id=\"Worried\" target=\"actor\" targetSpec=\"\"}}I really should just go admit I've\nhad it all this time{{delay20}} and return it."
  },
  {
    "label": "008",
    "attribute": "0x0000000000000000",
    "text": "{{anim id=\"FaintSmile\" target=\"actor\" targetSpec=\"\"}}No need to apologize,{{delay20}} I understand.{{delay frames=\"30\"}}\nI'll just make time to return it myself."
  },
  {
    "label": "009",
    "attribute": "0x0000000000000000",
    "text": "{{anim id=\"Nodding\" target=\"actor\" targetSpec=\"\"}}I understand,{{delay20}} no worries.{{delay frames=\"30\"}}\n{{anim id=\"FaintSmile\" target=\"actor\" targetSpec=\"\"}}I should really be the one\nto return this anyway{{delay8}}{{string value=\"...\"}}"
  },
  {
    "label": "101",
    "attribute": "0x0000020000000000",
    "text": "{{anim id=\"Pardon\" target=\"actor\" targetSpec=\"\"}}Can I get your help with something?{{pageBreak}}{{anim id=\"Explain\" target=\"actor\" targetSpec=\"\"}}{{selection value=\"SelectedVillager\"}} is always helping\nme out,{{delay20}} so I bought\n{{gender3 m=\"him\" f=\"her\"}} a present{{delay8}}{{string value=\"...\"}}{{pageBreak}}{{anim id=\"Worried\" target=\"actor\" targetSpec=\"\"}}But now I feel funny just walking up\nto {{gender3 m=\"him\" f=\"her\"}} with a gift,{{delay20}} out of the blue.{{pageBreak}}{{anim id=\"Hesitate\" target=\"actor\" targetSpec=\"\"}}I wonder if you'd mind\ngiving it to {{gender3 m=\"him\" f=\"her\"}} for me?"
  },
  {
    "label": "101_a",
    "attribute": "0x0000000000000000",
    "text": "I don't mind at all."
  },
  {
    "label": "101_b",
    "attribute": "0x0000000000000000",
    "text": "{{anim id=\"EmotEnd\" target=\"actor\" targetSpec=\"\"}}You should do it!"
  },
  {
    "label": "102",
    "attribute": "0x0000020000000000",
    "text": "{{anim id=\"Hesitate\" target=\"actor\" targetSpec=\"\"}}{{capitalizeNextLetter}}{{string value=\"NickName\"}},{{delay20}} I need a favor.{{pageBreak}}{{anim id=\"Sighing\" target=\"actor\" targetSpec=\"\"}}Maybe you've heard,{{delay20}} but {{anim id=\"Worried\" target=\"actor\" targetSpec=\"\"}}I had\na fight with {{selection value=\"SelectedVillager\"}} over\nsomething unimportant.{{pageBreak}}{{anim id=\"SadSpiral\" target=\"actor\" targetSpec=\"\"}}I said something I shouldn't have\nand I felt really bad about that,\nso I got {{gender3 m=\"him\" f=\"her\"}} a gift to make up{{delay8}}{{string value=\"...\"}}\n{{anim id=\"Worried\" target=\"actor\" targetSpec=\"\"}}I'm having a hard time facing {{gender3 m=\"him\" f=\"her\"}}\nright now though,{{delay20}} so I was hoping\n{{anim id=\"Hesitate\" target=\"actor\" targetSpec=\"\"}}maybe you could deliver it for me?"
  },
  {
    "label": "102_a",
    "attribute": "0x0000000000000000",
    "text": "Sure, I can do that."
  },
  {
    "label": "102_b",
    "attribute": "0x0000000000000000",
    "text": "{{anim id=\"EmotEnd\" target=\"actor\" targetSpec=\"\"}}You should deliver it."
  },
  {
    "label": "103",
    "attribute": "0x0000000000000000",
    "text": "{{anim id=\"BigSmile\" target=\"actor\" targetSpec=\"\"}}Thanks so much!{{delay frames=\"30\"}}\n{{anim id=\"FaintSmile\" target=\"actor\" targetSpec=\"\"}}Here,{{delay20}} this is it."
  },
  {
    "label": "104",
    "attribute": "0x0000000000000000",
    "text": "{{anim id=\"HappyDance\" target=\"actor\" targetSpec=\"\"}}Oh, this means so much!{{delay frames=\"40\"}}\nThank you.{{delay frames=\"30\"}} {{anim id=\"FaintSmile\" target=\"actor\" targetSpec=\"\"}}Here's the gift."
  },
  {
    "label": "105",
    "attribute": "0x0000000000000000",
    "text": "{{anim id=\"Hesitate\" target=\"actor\" targetSpec=\"\"}}Thanks for the encouragement.{{delay frames=\"30\"}}\n{{anim id=\"Blushing\" target=\"actor\" targetSpec=\"\"}}I just hope it isn't too awkward."
  },
  {
    "label": "106",
    "attribute": "0x0000000000000000",
    "text": "{{anim id=\"Nodding\" target=\"actor\" targetSpec=\"\"}}I guess you're right{{delay8}}{{string value=\"...\"}}{{pageBreak}}{{anim id=\"EmotEnd\" target=\"actor\" targetSpec=\"\"}}I should just be brave\n{{anim id=\"Worried\" target=\"actor\" targetSpec=\"\"}}and deliver this myself!"
  },
  {
    "label": "108",
    "attribute": "0x0000000000000000",
    "text": "{{anim id=\"Hesitate\" target=\"actor\" targetSpec=\"\"}}I know this is a lot to ask,{{delay20}} but could\nyou {{anim id=\"Worried\" target=\"actor\" targetSpec=\"\"}}deliver it today,{{delay20}} {{string value=\"Catchphrase\"}}?"
  },
  {
    "label": "109",
    "attribute": "0x0000000000000000",
    "text": "{{anim id=\"Worried\" target=\"actor\" targetSpec=\"\"}}I know it's getting too late to do\nit tonight,{{delay20}} but do you think {{anim id=\"Hesitate\" target=\"actor\" targetSpec=\"\"}}you'll\nbe able to deliver this tomorrow?"
  },
  {
    "label": "201",
    "attribute": "0x0000000000000000",
    "text": "{{anim id=\"Explain\" target=\"actor\" targetSpec=\"\"}}You said you'd bring back what\nI borrowed from {{selection value=\"SelectedVillager\"}}.{{pageBreak}}{{anim id=\"FaintSmile\" target=\"actor\" targetSpec=\"\"}}Thanks again for helping me out!"
  },
  {
    "label": "202",
    "attribute": "0x0000000000000000",
    "text": "{{anim id=\"Explain\" target=\"actor\" targetSpec=\"\"}}You offered to return what\n{{selection value=\"SelectedVillager\"}} left over at my\nplace.{{delay40}} {{anim id=\"FaintSmile\" target=\"actor\" targetSpec=\"\"}}Thanks again!"
  },
  {
    "label": "203",
    "attribute": "0x0000000000000000",
    "text": "{{anim id=\"Hesitate\" target=\"actor\" targetSpec=\"\"}}You said you'd bring that package{{delay20}}\nthat got delivered to me by mistake\nto {{selection value=\"SelectedVillager\"}},{{delay20}} remember?"
  },
  {
    "label": "204",
    "attribute": "0x0000000000000000",
    "text": "{{anim id=\"Hesitate\" target=\"actor\" targetSpec=\"\"}}If you could just drop my gift off with\n{{selection value=\"SelectedVillager\"}},{{delay20}} I'd appreciate it."
  },
  {
    "label": "205",
    "attribute": "0x0000000000000000",
    "text": "{{anim id=\"Hesitate\" target=\"actor\" targetSpec=\"\"}}You said you wouldn't mind dropping\nthat gift off{{anim id=\"Worried\" target=\"actor\" targetSpec=\"\"}}{{delay20}} to help me smooth things\nover with {{selection value=\"SelectedVillager\"}}."
  }
]