﻿[
  {
    "label": "100",
    "attribute": "0x0000000000000000",
    "text": "{{anim id=\"HappyDance\" target=\"actor\" targetSpec=\"\"}}{{selection value=\"SelectedVillager\"}}那傢伙，{{delay20}}\n看到我肱二頭肌的時候，{{delay8}}\n忍不住說了{{delay20}}「好驚人」喔！{{pageBreak}}{{anim id=\"Nodding\" target=\"actor\" targetSpec=\"\"}}看樣子，{{delay8}}我總算讓那傢伙{{delay20}}\n{{anim id=\"BigSmile\" target=\"actor\" targetSpec=\"\"}}開始體會到伏地挺身的\n美好之處了──！{{string value=\"6\"}}。{{anim id=\"FaintSmile\" target=\"actor\" targetSpec=\"\"}}{{anim id=\"EmotEnd\" target=\"actor\" targetSpec=\"\"}}"
  },
  {
    "label": "101",
    "attribute": "0x0000000000000000",
    "text": "{{anim id=\"SmugFace\" target=\"actor\" targetSpec=\"\"}}怎麼樣啊～？{{string value=\"NickName\"}}？{{delay40}}\n看看我這揮灑的汗水！{{delay20}}{{anim id=\"BigSmile\" target=\"actor\" targetSpec=\"\"}}是不是很帥啊──！{{pageBreak}}{{anim id=\"HappyDance\" target=\"actor\" targetSpec=\"\"}}{{selection value=\"SelectedVillager\"}}{{delay20}}之前還稱讚我說{{delay8}}\n「隨時都看起來很熱血」耶！{{string value=\"6\"}}。{{anim id=\"EmotEnd\" target=\"actor\" targetSpec=\"\"}}"
  },
  {
    "label": "102",
    "attribute": "0x0000000000000000",
    "text": "{{anim id=\"Nodding\" target=\"actor\" targetSpec=\"\"}}雖然{{delay8}}我總是只會\n聊一些跟肌肉相關的話題，{{pageBreak}}可是{{selection value=\"SelectedVillager\"}}那傢伙，{{delay20}}\n{{anim id=\"Blushing\" target=\"actor\" targetSpec=\"\"}}還是每次都會稱讚我說{{delay8}}\n「你每天都很努力耶」！{{pageBreak}}{{anim id=\"BigSmile\" target=\"actor\" targetSpec=\"\"}}這應該就是{{delay20}}所謂的{{delay8}}\n「摯友」吧──！{{string value=\"6\"}}。{{anim id=\"EmotEnd\" target=\"actor\" targetSpec=\"\"}}"
  },
  {
    "label": "200",
    "attribute": "0x0000000000000000",
    "text": "{{anim id=\"HappyFlower\" target=\"actor\" targetSpec=\"\"}}我啊，還想跟{{delay8}}{{string value=\"NickName\"}}{{delay8}}\n再熱烈討論更多更多{{delay20}}\n關於筋肉的事情！{{pageBreak}}{{anim id=\"Greeting\" target=\"actor\" targetSpec=\"\"}}今後也多多指教啦！{{string value=\"6\"}}。{{anim id=\"EmotEnd\" target=\"actor\" targetSpec=\"\"}}"
  },
  {
    "label": "201",
    "attribute": "0x0000000000000000",
    "text": "{{anim id=\"Greeting\" target=\"actor\" targetSpec=\"\"}}{{string value=\"NickName\"}}！{{delay40}}\n{{anim id=\"HappyDance\" target=\"actor\" targetSpec=\"\"}}我啊，{{delay20}}很想繼續跟你{{delay8}}\n加深彼此的友誼！{{pageBreak}}{{anim id=\"Hesitate\" target=\"actor\" targetSpec=\"\"}}從今以後{{delay20}}你也要{{delay8}}\n常常來找我聊天喔！{{string value=\"6\"}}。{{anim id=\"EmotEnd\" target=\"actor\" targetSpec=\"\"}}"
  },
  {
    "label": "202",
    "attribute": "0x0000000000000000",
    "text": "{{anim id=\"Serious\" target=\"actor\" targetSpec=\"\"}}{{string value=\"NickName\"}}！{{delay40}}\n{{anim id=\"Nodding\" target=\"actor\" targetSpec=\"\"}}你真的是我{{delay8}}\n非常重要的朋友！{{pageBreak}}{{anim id=\"HappyFlower\" target=\"actor\" targetSpec=\"\"}}所以從今以後，{{delay8}}\n我們也要繼續一起{{delay8}}\n鍛鍊深層肌肉喔──！{{string value=\"6\"}}。{{anim id=\"EmotEnd\" target=\"actor\" targetSpec=\"\"}}"
  }
]