﻿[
  {
    "label": "001",
    "text": "Dis, {{string value=\"NickName\"}},"
  },
  {
    "label": "002",
    "text": "{{capitalizeNextLetter}}{{string value=\"NickName\"}}..."
  },
  {
    "label": "003",
    "text": "Bonjour, {{string value=\"NickName\"}}!"
  },
  {
    "label": "004",
    "text": "Bonjour, {{string value=\"NickName\"}}!"
  },
  {
    "label": "005",
    "text": "Dis, {{string value=\"NickName\"}},"
  },
  {
    "label": "006",
    "text": "{{capitalizeNextLetter}}{{string value=\"NickName\"}}..."
  },
  {
    "label": "101",
    "text": "Merci pour ta carte de bienvenue.\n\nMaintenant que je suis bien venu,\nest-ce que je peux quand même\ngarder le cadeau que tu m'as\nenvoyé?"
  },
  {
    "label": "102",
    "text": "Merci pour la carte de bienvenue!\nJe l'ai adorée et j'ai aussi adoré\nle cadeau! Moi aussi, je voulais\nte faire un cadeau alors je te\nl'envoie avec cette carte!"
  },
  {
    "label": "103",
    "text": "C'était vraiment gentil de ta part\nde m'envoyer un cadeau de\nbienvenue, {{string value=\"NickName\"}}!\nMoi aussi j'ai un petit cadeau pour\ntoi, j'espère qu'il te plaira!"
  },
  {
    "label": "104",
    "text": "Ta carte de bienvenue m'a fait tout\nchaud à mon petit cœur! Merci\ntout plein! Je crois que je vais\nvraiment me plaire sur cette île!"
  },
  {
    "label": "105",
    "text": "J'étais vraiment nerveux quand\nj'ai emménagé ici, mais ta carte\nm'a aidé à me détendre! Merci,\n{{string value=\"NickName\"}}!\nTu devrais venir chez moi un de\nces quatre, j'ai des friandises!"
  },
  {
    "label": "106",
    "text": "C'était vraiment sympa de ta part\nde m'envoyer une carte!\nJe viens juste d'emménager et je\nconnais même pas encore mon\nadresse, alors je sais même pas\ncomment t'as fait pour la trouver!"
  },
  {
    "label": "201",
    "text": "Hé hé, je rigole. {{string value=\"VillagerName\"}}"
  },
  {
    "label": "202",
    "text": "Ça te plaît? {{string value=\"VillagerName\"}}"
  },
  {
    "label": "203",
    "text": "Merci tout plein! {{string value=\"VillagerName\"}}"
  },
  {
    "label": "204",
    "text": "{{string value=\"VillagerName\"}} le nouveau"
  },
  {
    "label": "205",
    "text": "Qui dit {{string value=\"VillagerName\"}} dit bonbons!"
  },
  {
    "label": "206",
    "text": "T'es super futé{{gender2 m=\"\" f=\"e\"}}! {{string value=\"VillagerName\"}}"
  }
]