﻿[
  {
    "label": "001",
    "attribute": "0x0000000000000000",
    "text": "{{fun_0001003C arg=\"0x650066006700\"}}"
  },
  {
    "label": "002",
    "attribute": "0x0000000000000000",
    "text": "{{fun_0001003C arg=\"0x680069006A00\"}}"
  },
  {
    "label": "003",
    "attribute": "0x0000000000000000",
    "text": "{{fun_0001003C arg=\"0x6B006C006D00\"}}"
  },
  {
    "label": "004",
    "attribute": "0x0000000000000000",
    "text": "{{fun_0001003C arg=\"0x6E006F007000\"}}"
  },
  {
    "label": "101",
    "attribute": "0x0000000000000000",
    "text": "{{anim id=\"Greeting\" target=\"actor\" targetSpec=\"\"}}あ、{{delay8}}{{string value=\"4\"}}{{string value=\"38\"}}{{delay40}}\n{{anim id=\"EmotEnd\" target=\"actor\" targetSpec=\"\"}}{{ruby charSpan=\"3\" value=\"さんぽちゅう\"}}散歩中に　いいカンジの{{ruby charSpan=\"2\" value=\"ばしょ\"}}場所{{ruby charSpan=\"1\" value=\"み\"}}見つけたから{{delay20}}\n{{anim id=\"FaintSmile\" target=\"actor\" targetSpec=\"\"}}ひと{{ruby charSpan=\"1\" value=\"やす\"}}休みしてるんだー！　{{string value=\"6\"}}"
  },
  {
    "label": "102",
    "attribute": "0x0000000000000000",
    "text": "{{anim id=\"Hello\" target=\"actor\" targetSpec=\"\"}}{{string value=\"4\"}}{{delay8}}　{{ruby charSpan=\"2\" value=\"げんき\"}}元気～？{{delay40}}\n{{anim id=\"EmotEnd\" target=\"actor\" targetSpec=\"\"}}アタイも{{ruby charSpan=\"2\" value=\"げんき\"}}元気に　{{anim id=\"FaintSmile\" target=\"actor\" targetSpec=\"\"}}{{ruby charSpan=\"1\" value=\"きゅう\"}}休けい{{ruby charSpan=\"1\" value=\"ちゅう\"}}中ー！　{{string value=\"6\"}}"
  },
  {
    "label": "103",
    "attribute": "0x0000000000000000",
    "text": "{{anim id=\"ShyBoy\" target=\"actor\" targetSpec=\"\"}}みんなでワイワイするのも　{{ruby charSpan=\"2\" value=\"だいす\"}}大好きだけど、{{delay20}}\n{{anim id=\"EmotEnd\" target=\"actor\" targetSpec=\"\"}}ひとりで　ボーッとする{{ruby charSpan=\"2\" value=\"じかん\"}}時間も{{delay8}}\n{{anim id=\"Love\" target=\"actor\" targetSpec=\"\"}}{{ruby charSpan=\"1\" value=\"す\"}}好きなんだよね～、{{string value=\"6\"}}"
  },
  {
    "label": "104",
    "attribute": "0x0000000000000000",
    "text": "{{fun_000C003C arg=\"0x71007200\"}}"
  },
  {
    "label": "105",
    "attribute": "0x0000000000000000",
    "text": "{{anim id=\"Sleepy\" target=\"actor\" targetSpec=\"\"}}ふわぁ～{{string value=\"...\"}}{{delay40}}　ひとりで{{ruby charSpan=\"1\" value=\"きゅう\"}}休けいしてると\nねむくなってきちゃうなー{{pageBreak}}{{anim id=\"Eh\" target=\"actor\" targetSpec=\"\"}}{{string value=\"4\"}}、{{delay20}}\n{{anim id=\"Greeting\" target=\"actor\" targetSpec=\"\"}}もしヒマだったら{{delay8}}　となりすわりなよー{{delay40}}\n{{anim id=\"Hesitate\" target=\"actor\" targetSpec=\"\"}}{{ruby charSpan=\"1\" value=\"はな\"}}話し{{ruby charSpan=\"2\" value=\"あいて\"}}相手になってくんない？　{{string value=\"6\"}}"
  },
  {
    "label": "106",
    "attribute": "0x0000000000000000",
    "text": "{{anim id=\"FaintSmile\" target=\"actor\" targetSpec=\"\"}}ねぇねぇ　{{string value=\"4\"}}、{{delay20}}\n{{anim id=\"EmotEnd\" target=\"actor\" targetSpec=\"\"}}ベンチにすわりながら{{delay8}}\n{{anim id=\"Hello\" target=\"actor\" targetSpec=\"\"}}まったり　トークでもしようよ～！　{{string value=\"6\"}}"
  },
  {
    "label": "107",
    "attribute": "0x0000000000000000",
    "text": "{{anim id=\"Eh\" target=\"actor\" targetSpec=\"\"}}あっ　ごめーん、{{delay20}}{{ruby charSpan=\"1\" value=\"いま\"}}今は{{ruby charSpan=\"2\" value=\"まんせき\"}}満席なんだー！{{delay40}}\n{{anim id=\"Explain\" target=\"actor\" targetSpec=\"\"}}ゆずってあげたいのは　ヤマヤマなんだけど{{delay20}}\n{{anim id=\"EmotEnd\" target=\"actor\" targetSpec=\"\"}}アタイのおしりが{{delay8}}　{{anim id=\"Laughing\" target=\"actor\" targetSpec=\"\"}}{{ruby charSpan=\"1\" value=\"おも\"}}重くってさ～、{{string value=\"6\"}}"
  },
  {
    "label": "108",
    "attribute": "0x0000000000000000",
    "text": "{{anim id=\"Hello\" target=\"actor\" targetSpec=\"\"}}ヤッホ～　{{string value=\"4\"}}{{delay40}}\n{{anim id=\"EmotEnd\" target=\"actor\" targetSpec=\"\"}}{{ruby charSpan=\"1\" value=\"いま\"}}今、アタイら{{delay8}}　{{anim id=\"Explain\" target=\"actor\" targetSpec=\"\"}}{{randomObj}}の{{ruby charSpan=\"1\" value=\"つか\"}}使い{{ruby charSpan=\"1\" value=\"みち\"}}道について{{delay20}}\nトークバトル{{ruby charSpan=\"1\" value=\"ちゅう\"}}中なんだ～！　{{string value=\"6\"}}"
  },
  {
    "label": "109",
    "attribute": "0x0000000000000000",
    "text": "{{anim id=\"Thinking\" target=\"actor\" targetSpec=\"\"}}うーん、{{delay20}}\n{{ruby charSpan=\"2\" value=\"さんにん\"}}三人で　すわるのはキビシイかな～{{pageBreak}}{{string value=\"...\"}}{{string value=\"...\"}}{{anim id=\"Shocked\" target=\"actor\" targetSpec=\"\"}}！{{delay40}}\nアタイのおしりが　{{ruby charSpan=\"1\" value=\"おお\"}}大きいからじゃないよ？{{delay40}}\n{{anim id=\"Confused\" target=\"actor\" targetSpec=\"\"}}このベンチが{{delay8}}　ふたり{{ruby charSpan=\"1\" value=\"よう\"}}用だから！　{{string value=\"6\"}}"
  },
  {
    "label": "110",
    "attribute": "0x0000000000000000",
    "text": "{{anim id=\"AbsentMindedness\" target=\"actor\" targetSpec=\"\"}}ひとり{{delay8}}　{{ruby charSpan=\"1\" value=\"そら\"}}空を{{ruby charSpan=\"2\" value=\"みあ\"}}見上げて\n{{ruby charSpan=\"2\" value=\"ものおも\"}}物思いに　ふけってるアタイって{{delay20}}\nちょーオトナっぽくない？\n{{anim id=\"EmotEnd\" target=\"actor\" targetSpec=\"\"}}ま、{{delay20}}{{ruby charSpan=\"2\" value=\"きょう\"}}今日のオヤツを　{{ruby charSpan=\"1\" value=\"なに\"}}何にしようか{{delay8}}\n{{anim id=\"Laughing\" target=\"actor\" targetSpec=\"\"}}{{ruby charSpan=\"1\" value=\"かんが\"}}考えてただけなんだけど～！　{{string value=\"6\"}}"
  },
  {
    "label": "111",
    "attribute": "0x0000000000000000",
    "text": "{{anim id=\"Negative\" target=\"actor\" targetSpec=\"\"}}この　{{fun_0000007D arg=\"0x0000\"}}、{{delay20}}\nちょーすわり{{ruby charSpan=\"2\" value=\"ごこち\"}}心地よくってさ～{{delay frames=\"60\"}}\n{{anim id=\"Sleepy\" target=\"actor\" targetSpec=\"\"}}なんだか　ねむくなってきちゃった、{{string value=\"6\"}}"
  },
  {
    "label": "112",
    "attribute": "0x0000000000000000",
    "text": "{{anim id=\"Smiling\" target=\"actor\" targetSpec=\"\"}}ダンスレッスンの　{{ruby charSpan=\"1\" value=\"きゅう\"}}休けい{{ruby charSpan=\"1\" value=\"ちゅう\"}}中なんだー！{{delay40}}\n{{anim id=\"EmotEnd\" target=\"actor\" targetSpec=\"\"}}{{ruby charSpan=\"1\" value=\"やす\"}}休むときは{{delay8}}　{{anim id=\"Nodding\" target=\"actor\" targetSpec=\"\"}}しっかり{{ruby charSpan=\"1\" value=\"やす\"}}休まないとね、{{string value=\"6\"}}"
  },
  {
    "label": "113",
    "attribute": "0x0000000000000000",
    "text": "{{anim id=\"Eh\" target=\"actor\" targetSpec=\"\"}}あっ{{delay8}}　{{string value=\"4\"}}！{{delay40}}\n{{anim id=\"Hello\" target=\"actor\" targetSpec=\"\"}}よかったら　いっしょに{{ruby charSpan=\"1\" value=\"やす\"}}休んでかない？{{pageBreak}}{{anim id=\"FaintSmile\" target=\"actor\" targetSpec=\"\"}}ほらっ{{delay8}}　エンリョしないでさ！{{delay40}}\n{{anim id=\"Hesitate\" target=\"actor\" targetSpec=\"\"}}アタイみたいな　アイドルのとなりに\nすわれるなんて、{{delay20}}ちょーラッキーだよ？　{{string value=\"6\"}}"
  },
  {
    "label": "114",
    "attribute": "0x0000000000000000",
    "text": "{{anim id=\"Eh\" target=\"actor\" targetSpec=\"\"}}{{string value=\"4\"}}っ{{delay40}}\n{{anim id=\"FaintSmile\" target=\"actor\" targetSpec=\"\"}}おとなり　{{ruby charSpan=\"1\" value=\"あ\"}}空いてるよー！{{pageBreak}}{{anim id=\"Scheming\" target=\"actor\" targetSpec=\"\"}}アタイと、{{delay8}}ヒミツの\nガールズトークでも　しない～？　{{string value=\"6\"}}"
  }
]