﻿[
  {
    "label": "001",
    "text": "Yo {{string value=\"NickName\"}},"
  },
  {
    "label": "002",
    "text": "Hoestie, {{string value=\"NickName\"}}?"
  },
  {
    "label": "003",
    "text": "Aan mijn steengoeie {{string value=\"NickName\"}},"
  },
  {
    "label": "101",
    "text": "Bedankt dat je er altijd voor me\nbent! Je bent een echt maatje.\nDat wilde ik je al een tijd zeggen,\ndus nu, in een brief bij het cadeau\ndat ik je eerder niet kon geven,\npak ik mooi die kans!"
  },
  {
    "label": "102",
    "text": "Zoals beloofd, stuur ik je het\ncadeau dat ik je laatst niet kon\ngeven. Hopelijk vind je het top!\nEven zonder ongein, ik ben blij dat\nwe maatjes zijn. Met jou erbij is het\ngewoon toffer! Bedankt voor alles!"
  },
  {
    "label": "103",
    "text": "Ik krijg niet vaak de kans om je dit\nte zeggen, maar ik ben blij dat ik je\nken. Ik stuur het cadeau mee dat ik\nje eerder niet kon geven. Hopelijk\nmaakt dat nog harder duidelijk hoe\ntof ik je vind!"
  },
  {
    "label": "201",
    "text": "Voor altijd je maatje, {{string value=\"VillagerName\"}}"
  },
  {
    "label": "202",
    "text": "Blijf rocken, {{string value=\"VillagerName\"}}"
  },
  {
    "label": "203",
    "text": "Rockersschreeuw van {{string value=\"VillagerName\"}}"
  }
]