﻿[
  {
    "label": "001",
    "attribute": "0x00000000",
    "text": "{{anim id=\"Shocked\" target=\"actor\" targetSpec=\"\"}}Ma guarda che bel posto, {{delay8}}niuk!{{delay20}}\n{{anim id=\"QuestionMark\" target=\"actor\" targetSpec=\"\"}}E ti occupi anche dei mobili, dico\nbene?\n{{anim id=\"HappyDance\" target=\"actor\" targetSpec=\"\"}}Non vedo l'ora di ammirare\nil risultato, {{delay8}}niuuuk!"
  },
  {
    "label": "001_01",
    "attribute": "0x00000000",
    "text": "{{anim id=\"Greeting\" target=\"actor\" targetSpec=\"\"}}Bene, lascio tutto nelle tue zampe!"
  },
  {
    "label": "002",
    "attribute": "0x02000000",
    "text": "{{anim id=\"Hello\" target=\"actor\" targetSpec=\"\"}}Ehilà! {{delay8}}Come va con la mia casa\nvacanze? {{delay20}}È finita?"
  },
  {
    "label": "002_01",
    "attribute": "0x04000000",
    "text": "{{anim id=\"Hello\" target=\"actor\" targetSpec=\"\"}}Ehilà! {{delay8}}Come va con la mia casa\nvacanze? {{delay20}}È finita?"
  },
  {
    "label": "002_01_a",
    "attribute": "0x00000000",
    "text": "È pronta!"
  },
  {
    "label": "002_01_b",
    "attribute": "0x00000000",
    "text": "Aggiungiamo un piano!"
  },
  {
    "label": "002_01_c",
    "attribute": "0x00000000",
    "text": "{{anim id=\"EmotEnd\" target=\"player\" targetSpec=\"\"}}Ancora non è pronta..."
  },
  {
    "label": "002_a",
    "attribute": "0x00000000",
    "text": "È pronta!"
  },
  {
    "label": "002_b",
    "attribute": "0x00000000",
    "text": "{{anim id=\"EmotEnd\" target=\"player\" targetSpec=\"\"}}Ancora non è pronta..."
  },
  {
    "label": "003_01",
    "attribute": "0x00000000",
    "text": "{{anim id=\"QuestionMark\" target=\"actor\" targetSpec=\"\"}}Beh, non vuoi dare un'occhiata\ndentro?{{delay20}} {{anim id=\"Nodding\" target=\"actor\" targetSpec=\"\"}}Preferirei che lo facessi,\nsai?"
  },
  {
    "label": "003_02",
    "attribute": "0x00000000",
    "text": "{{anim id=\"WrySmile\" target=\"actor\" targetSpec=\"\"}}Non ti pare un po' troppo piena\nquesta stanza?{{delay20}} {{anim id=\"Frantic\" target=\"actor\" targetSpec=\"\"}}Mi sento come\nuna sardina in scatola qua dentro!"
  },
  {
    "label": "003_03",
    "attribute": "0x00000000",
    "text": "{{anim id=\"Frantic\" target=\"actor\" targetSpec=\"\"}}Un po' di confusione lì dentro, eh?\n{{delay20}}{{anim id=\"Laughing\" target=\"actor\" targetSpec=\"\"}}L'unico modo per trovare qualcosa\nsarebbe pescarlo fuori con la canna!"
  },
  {
    "label": "003_04",
    "attribute": "0x00000000",
    "text": "{{anim id=\"WrySmile\" target=\"actor\" targetSpec=\"\"}}Se vuoi la mia opinione, l'altra stanza\nè un po' stipata{{string value=\"...\"}} {{anim id=\"Laughing\" target=\"actor\" targetSpec=\"\"}}Alla mia roba serve\nspazio per respirare, niaaak!"
  },
  {
    "label": "004",
    "attribute": "0x00000000",
    "text": "{{anim id=\"Aha\" target=\"actor\" targetSpec=\"\"}}Grande notizia! Grazie mille!"
  },
  {
    "label": "005",
    "attribute": "0x00000000",
    "text": "{{anim id=\"FaintSmile\" target=\"actor\" targetSpec=\"\"}}Va bene! {{delay8}}In bocca al luccio per\ntutto il resto!"
  },
  {
    "label": "006",
    "attribute": "0x02000000",
    "text": "{{anim id=\"Aha\" target=\"actor\" targetSpec=\"\"}}Quindi alla fine costruiamo un\nnuovo piano?{{delay20}}{{anim id=\"HappyDance\" target=\"actor\" targetSpec=\"\"}} A un'esca del\ngenere abbocco volentieri, niuk!"
  },
  {
    "label": "006_a",
    "attribute": "0x00000000",
    "text": "Lascia fare a me!"
  },
  {
    "label": "006_b",
    "attribute": "0x00000000",
    "text": "Meglio lasciar stare..."
  },
  {
    "label": "007",
    "attribute": "0x00000000",
    "text": "{{anim id=\"Laughing\" target=\"actor\" targetSpec=\"\"}}Niuk, conto su di te!"
  },
  {
    "label": "008",
    "attribute": "0x00000000",
    "text": "{{anim id=\"QuestionMark\" target=\"actor\" targetSpec=\"\"}}Hai cambiato idea?{{delay20}}{{anim id=\"Laughing\" target=\"actor\" targetSpec=\"\"}} Forse è un pesce\ntroppo grosso per te, capisco.{{delay20}} Fammi\nsapere se torni sui tuoi passi!"
  },
  {
    "label": "011",
    "attribute": "0x00000000",
    "text": "{{anim id=\"Nodding\" target=\"actor\" targetSpec=\"\"}}Si vede che hai dedicato attenzione\nparticolare a questa casa.{{delay20}}{{anim id=\"Smiling\" target=\"actor\" targetSpec=\"\"}} Grazie\ninfinite!"
  },
  {
    "label": "013",
    "attribute": "0x00000000",
    "text": "{{anim id=\"Aha\" target=\"actor\" targetSpec=\"\"}}Wow, che rapidità! {{delay20}}{{anim id=\"Laughing\" target=\"actor\" targetSpec=\"\"}}Sei stat{{gender2 m=\"o\" f=\"a\"}} veloce\ncome un pesce volante, {{delay8}}niuk niuk!"
  },
  {
    "label": "016",
    "attribute": "0x00000000",
    "text": "{{fun_0014003C arg=\"\"}}"
  },
  {
    "label": "016_01",
    "attribute": "0x00000000",
    "text": "{{anim id=\"HappyFlower\" target=\"actor\" targetSpec=\"\"}}I professionisti come te sanno come\nfare il proprio lavoro."
  },
  {
    "label": "017",
    "attribute": "0x02000000",
    "text": "{{anim id=\"AbsentMindedness\" target=\"actor\" targetSpec=\"\"}}Questo posto brilla come l'occhio\ndi un pesce fresco. {{delay8}}Ora quale sarà\nla tua prossima mossa?"
  },
  {
    "label": "017_01",
    "attribute": "0x00000000",
    "text": "{{anim id=\"Eh\" target=\"actor\" targetSpec=\"\"}}Ah, capisco. {{delay8}}Allora, buon rientro\na casa.{{delay20}}{{anim id=\"Smiling\" target=\"actor\" targetSpec=\"\"}} E grazie tante per oggi!"
  },
  {
    "label": "017_02",
    "attribute": "0x00000000",
    "text": "{{anim id=\"Nodding\" target=\"actor\" targetSpec=\"\"}}Ma certo.{{delay20}}{{anim id=\"BigSmile\" target=\"actor\" targetSpec=\"\"}} Una casa così bella si\nmerita foto a mulinello! {{delay8}}Fammi\nsapere quando hai finito, niuk!"
  },
  {
    "label": "017_04",
    "attribute": "0x02000000",
    "text": "{{anim id=\"IdeaBulb\" target=\"actor\" targetSpec=\"\"}}Niuk! Ora che i lavori sono finiti,\nperché non fai qualche foto?{{pageBreak}}{{anim id=\"ShyBoy\" target=\"actor\" targetSpec=\"\"}}Io non sono bravo a farne{{string value=\"...\"}}{{pageBreak}}Però, se le facessi tu, sarei\nfelice come un pesce gatto con\nun rocchetto di lenza!"
  },
  {
    "label": "017_04_a",
    "attribute": "0x00000000",
    "text": "{{anim id=\"EmotEnd\" target=\"player\" targetSpec=\"\"}}Sì, grazie!"
  },
  {
    "label": "017_04_b",
    "attribute": "0x00000000",
    "text": "{{anim id=\"EmotEnd\" target=\"player\" targetSpec=\"\"}}Devo proprio andare."
  },
  {
    "label": "017_05",
    "attribute": "0x00000000",
    "text": "{{anim id=\"Aha\" target=\"actor\" targetSpec=\"\"}}Ottimo, niuk!{{delay20}}{{anim id=\"Greeting\" target=\"actor\" targetSpec=\"\"}} Fai tutte le foto che\nvuoi e, quando hai finito, fammi\nsapere."
  },
  {
    "label": "017_06",
    "attribute": "0x00000000",
    "text": "{{anim id=\"Eh\" target=\"actor\" targetSpec=\"\"}}Ah, capisco. {{delay8}}Allora, buon rientro\na casa.{{delay20}}{{anim id=\"Smiling\" target=\"actor\" targetSpec=\"\"}} E grazie tante per oggi!"
  },
  {
    "label": "017_a",
    "attribute": "0x00000000",
    "text": "{{anim id=\"EmotEnd\" target=\"player\" targetSpec=\"\"}}Posso fare delle {{color id=\"1\"}} {{color id=\"65535\"}}foto?"
  },
  {
    "label": "017_b",
    "attribute": "0x00000000",
    "text": "{{anim id=\"EmotEnd\" target=\"player\" targetSpec=\"\"}}Vado via."
  },
  {
    "label": "018",
    "attribute": "0x02000000",
    "text": "{{anim id=\"Hello\" target=\"actor\" targetSpec=\"\"}}Ti serve qualcosa?"
  },
  {
    "label": "018_a",
    "attribute": "0x00000000",
    "text": "{{anim id=\"EmotEnd\" target=\"player\" targetSpec=\"\"}}Me ne vado."
  },
  {
    "label": "018_b",
    "attribute": "0x00000000",
    "text": "{{anim id=\"EmotEnd\" target=\"player\" targetSpec=\"\"}}È tutto OK."
  },
  {
    "label": "020",
    "attribute": "0x00000000",
    "text": "{{anim id=\"FaintSmile\" target=\"actor\" targetSpec=\"\"}}Fai un sacco di belle foto!"
  },
  {
    "label": "021",
    "attribute": "0x00000000",
    "text": "{{anim id=\"Nodding\" target=\"actor\" targetSpec=\"\"}}Va bene, buon rientro a casa.{{delay20}}\n{{anim id=\"Smiling\" target=\"actor\" targetSpec=\"\"}}E grazie di tutto, {{delay8}}niaaak!"
  },
  {
    "label": "022",
    "attribute": "0x00000000",
    "text": "{{anim id=\"QuestionMark\" target=\"actor\" targetSpec=\"\"}}Di' un po', {{delay8}}hai già scelto un nome\nper il tema di questa casa?{{delay20}}{{anim id=\"FaintSmile\" target=\"actor\" targetSpec=\"\"}} Perché\nnon lo fai ora, in caso?"
  },
  {
    "label": "023",
    "attribute": "0x02000000",
    "text": "{{anim id=\"IdeaBulb\" target=\"actor\" targetSpec=\"\"}}OK! Quindi adesso il tema si chiama\n{{color id=\"1\"}}{{fun_00000096 arg=\"0x00CD\"}}{{color id=\"65535\"}}, giusto?"
  },
  {
    "label": "023_a",
    "attribute": "0x00000000",
    "text": "{{anim id=\"EmotEnd\" target=\"player\" targetSpec=\"\"}}Scelgo un altro nome."
  },
  {
    "label": "023_b",
    "attribute": "0x00000000",
    "text": "{{anim id=\"EmotEnd\" target=\"player\" targetSpec=\"\"}}Va bene questo nome."
  },
  {
    "label": "024",
    "attribute": "0x00000000",
    "text": "{{anim id=\"FaintSmile\" target=\"actor\" targetSpec=\"\"}}Va bene! {{delay8}}Allora sentiamo, {{delay8}}come\nsi chiamerà questo tema?"
  },
  {
    "label": "025",
    "attribute": "0x00000000",
    "text": "{{anim id=\"Nodding\" target=\"actor\" targetSpec=\"\"}}Benissimo, quindi il tema non\ncambia!{{delay8}} Chiaro come le acque\ncristalline dell'oceano."
  },
  {
    "label": "026",
    "attribute": "0x02000000",
    "text": "{{anim id=\"Shocked\" target=\"actor\" targetSpec=\"\"}}Alla fine non lo cambi?"
  },
  {
    "label": "026_a",
    "attribute": "0x00000000",
    "text": "Teniamo lo stesso."
  },
  {
    "label": "026_b",
    "attribute": "0x00000000",
    "text": "Usiamo un nuovo nome."
  },
  {
    "label": "027",
    "attribute": "0x00000000",
    "text": "{{anim id=\"FaintSmile\" target=\"actor\" targetSpec=\"\"}}Ah, OK. {{delay8}}Allora qual è il nome\ndel nuovo tema?"
  },
  {
    "label": "028",
    "attribute": "0x00000000",
    "text": "{{color id=\"1\"}}{{fun_00000096 arg=\"0x00CD\"}}{{color id=\"65535\"}}?\n{{anim id=\"Clapping\" target=\"actor\" targetSpec=\"\"}}Mi piace, {{delay8}}niaaak!"
  },
  {
    "label": "101",
    "attribute": "0x06000000",
    "text": "{{anim id=\"QuestionMark\" target=\"actor\" targetSpec=\"\"}}Sì?{{delay20}} Che c'è?"
  },
  {
    "label": "101_01",
    "attribute": "0x06000000",
    "text": "{{anim id=\"Smiling\" target=\"actor\" targetSpec=\"\"}}Non mi lamento!{{delay20}} {{anim id=\"QuestionMark\" target=\"actor\" targetSpec=\"\"}}Cosa vuoi sapere?"
  },
  {
    "label": "101_01_a",
    "attribute": "0x00000000",
    "text": "Parliamo di ristrutturare."
  },
  {
    "label": "101_01_b",
    "attribute": "0x00000000",
    "text": "Parliamo di trasloco."
  },
  {
    "label": "101_01_c",
    "attribute": "0x00000000",
    "text": "Parliamo di coinquilini."
  },
  {
    "label": "101_01_d",
    "attribute": "0x00000000",
    "text": "Niente, lascia stare."
  },
  {
    "label": "101_a",
    "attribute": "0x00000000",
    "text": "Come va?"
  },
  {
    "label": "101_b",
    "attribute": "0x00000000",
    "text": "Come va con la casa?"
  },
  {
    "label": "101_c",
    "attribute": "0x00000000",
    "text": "Me ne vado."
  },
  {
    "label": "101_d",
    "attribute": "0x00000000",
    "text": "Volevo solo salutarti."
  },
  {
    "label": "102_01",
    "attribute": "0x02000000",
    "text": "{{anim id=\"Thinking\" target=\"actor\" targetSpec=\"\"}}Una ristrutturazione, eh?{{delay20}}{{anim id=\"Nodding\" target=\"actor\" targetSpec=\"\"}}\nE ti occuperai tu di tutto\nil progetto, vero?"
  },
  {
    "label": "102_01_a",
    "attribute": "0x00000000",
    "text": "Lascia fare a me!"
  },
  {
    "label": "102_01_b",
    "attribute": "0x00000000",
    "text": "Meglio lasciar stare..."
  },
  {
    "label": "104_01",
    "attribute": "0x00000000",
    "text": "{{anim id=\"Greeting\" target=\"actor\" targetSpec=\"\"}}OK, {{delay8}}pensaci tu, allora!"
  },
  {
    "label": "107",
    "attribute": "0x00000000",
    "text": "{{anim id=\"Oops\" target=\"actor\" targetSpec=\"\"}}Ah, che peccato. {{delay8}}Magari un'altra\nvolta, allora."
  },
  {
    "label": "108",
    "attribute": "0x02000000",
    "text": "{{anim id=\"TakenAback\" target=\"actor\" targetSpec=\"\"}}Cambiare casa?!{{delay20}}{{anim id=\"BigSmile\" target=\"actor\" targetSpec=\"\"}} Beh, le tue idee\nsono sempre freschissime, {{delay8}}quindi\nperché no?"
  },
  {
    "label": "108_01",
    "attribute": "0x00000000",
    "text": "{{anim id=\"Greeting\" target=\"actor\" targetSpec=\"\"}}Se riesci a trovare un posticino\nbello come questo, meglio{{string value=\"...\"}}\nSennò pazienza!{{delay20}}{{anim id=\"Laughing\" target=\"actor\" targetSpec=\"\"}} Niuk, niuk!"
  },
  {
    "label": "108_a",
    "attribute": "0x00000000",
    "text": "Lascia fare a me!"
  },
  {
    "label": "108_b",
    "attribute": "0x00000000",
    "text": "Meglio lasciar stare..."
  },
  {
    "label": "109",
    "attribute": "0x00000000",
    "text": "{{anim id=\"TakenAback\" target=\"actor\" targetSpec=\"\"}}Andare in vacanza con qualcuno?\n{{delay20}}{{anim id=\"ShyBoy\" target=\"actor\" targetSpec=\"\"}}Uhm, non saprei{{string value=\"...\"}} Le mie abitudini\nalimentari potrebbero infastidirlo{{string value=\"...\"}}\n{{anim id=\"OhGeez\" target=\"actor\" targetSpec=\"\"}}Non penso di essere il coinquilino\nideale, sai.{{delay20}}{{anim id=\"Negative\" target=\"actor\" targetSpec=\"\"}} Mi dispiace deluderti."
  },
  {
    "label": "110",
    "attribute": "0x00000000",
    "text": "{{anim id=\"Aha\" target=\"actor\" targetSpec=\"\"}}OK! {{delay8}}Grazie di essere passat{{gender2 m=\"o\" f=\"a\"}}."
  },
  {
    "label": "110_01",
    "attribute": "0x00000000",
    "text": "{{anim id=\"Eh\" target=\"actor\" targetSpec=\"\"}}Beh, mettiti pure comod{{gender2 m=\"o\" f=\"a\"}}.{{delay20}}{{anim id=\"Laughing\" target=\"actor\" targetSpec=\"\"}} Come si\nsuol dire, {{delay8}}quel che è mio è mio, ma\nte lo posso prestare! {{delay8}}Niuk niuk!"
  },
  {
    "label": "111",
    "attribute": "0x00000000",
    "text": "{{fun_0014003C arg=\"\"}}"
  },
  {
    "label": "111_01",
    "attribute": "0x00000000",
    "text": "{{anim id=\"AbsentMindedness\" target=\"actor\" targetSpec=\"\"}}Questa stanza la uso per lucidare\nla mia attrezzatura! {{delay20}}Tiro su più\npesci con una canna splendente!\n{{size value=\"75\"}}{{anim id=\"SadSpiral\" target=\"actor\" targetSpec=\"\"}}Mi piace pensare che sia così{{string value=\"...\"}} Magari funziona.{{size value=\"100\"}}"
  },
  {
    "label": "111_02",
    "attribute": "0x00000000",
    "text": "{{anim id=\"Silent\" target=\"actor\" targetSpec=\"\"}}Non mi preoccupo del tempo che fa\nquando pesco.{{delay20}}{{anim id=\"BigSmile\" target=\"actor\" targetSpec=\"\"}} Appena sono libero,\nmi fiondo fuori come una lenza!\n{{anim id=\"Thinking\" target=\"actor\" targetSpec=\"\"}}Tranne quando ho la pancia piena{{string value=\"...\"}}\n{{delay20}}{{anim id=\"Laughing\" target=\"actor\" targetSpec=\"\"}}In quel caso i pesci possono, ehm{{string value=\"...\"}}\nnuotare pure tranquilli, {{delay8}}niuk niuk!"
  },
  {
    "label": "111_03",
    "attribute": "0x00000000",
    "text": "{{anim id=\"BigSmile\" target=\"actor\" targetSpec=\"\"}}Aaah, se ci fosse un incenso che sa\ndi pesce!{{delay20}}{{anim id=\"Thinking\" target=\"actor\" targetSpec=\"\"}} {{size value=\"75\"}}Magari mi basterebbe tenere un\npescione sotto al divano{{string value=\"...\"}}{{size value=\"100\"}}"
  },
  {
    "label": "111_04",
    "attribute": "0x00000000",
    "text": "{{anim id=\"Nodding\" target=\"actor\" targetSpec=\"\"}}Credo sarebbe bello mangiare\nin questa stanza, {{delay8}}ma non penso\naccadrà mai.\n{{anim id=\"Laughing\" target=\"actor\" targetSpec=\"\"}}Di solito appena pesco qualcosa\ndall'acqua me lo pappo{{string value=\"...\"}} ehm,\nlo ributto subito dentro, {{delay8}}niuk!"
  },
  {
    "label": "119",
    "attribute": "0x00000000",
    "text": "{{fun_0014003C arg=\"\"}}"
  },
  {
    "label": "119_01",
    "attribute": "0x00000000",
    "text": "{{anim id=\"BigSmile\" target=\"actor\" targetSpec=\"\"}}Se sto così bene è solo grazie a te!{{delay20}}\n{{anim id=\"HappyFlower\" target=\"actor\" targetSpec=\"\"}}Un giardino è un po' come una barca,\nnon credi?\n{{anim id=\"Oops\" target=\"actor\" targetSpec=\"\"}}Ah, dici di no? {{delay20}}{{anim id=\"Laughing\" target=\"actor\" targetSpec=\"\"}}Beh, la vedo solo io\ncosì, allora{{string value=\"...\"}} {{delay8}}Niuk niuk niuuuk!"
  },
  {
    "label": "119_02",
    "attribute": "0x00000000",
    "text": "{{anim id=\"Explain\" target=\"actor\" targetSpec=\"\"}}Mi alleno a lanciare la lenza qui in\ngiardino, {{delay8}}ma l'altro giorno mi si è\nimpigliata sul tetto.\n{{anim id=\"WrySmile\" target=\"actor\" targetSpec=\"\"}}Forse basterebbe allenarmi senza\nl'amo, vero?"
  },
  {
    "label": "119_03",
    "attribute": "0x00000000",
    "text": "{{anim id=\"Nodding\" target=\"actor\" targetSpec=\"\"}}I giovani d'oggi fanno una foto\na tutto quello che mangiano.{{delay20}}{{anim id=\"ShyBoy\" target=\"actor\" targetSpec=\"\"}} Io\nnon avrei mai la pazienza di farlo.\n{{anim id=\"Laughing\" target=\"actor\" targetSpec=\"\"}}Così rimango sempre con la pancia\npiena{{string value=\"...\"}} e una galleria fotografica\nvuota!{{delay8}} Niuk niuk!"
  },
  {
    "label": "119_04",
    "attribute": "0x00000000",
    "text": "{{anim id=\"SmugFace\" target=\"actor\" targetSpec=\"\"}}Ero sempre occupato a promuovere\nla pesca, {{delay8}}ma ora ci pensa mio figlio.{{delay20}}\n{{anim id=\"Laughing\" target=\"actor\" targetSpec=\"\"}}Così io posso rilassarmi, {{delay8}}niuk niuk!"
  },
  {
    "label": "124",
    "attribute": "0x00000000",
    "text": "{{anim id=\"HappyDance\" target=\"actor\" targetSpec=\"\"}}Che posto magnifico!{{delay20}}\nÈ una meraviglia!"
  },
  {
    "label": "124_01",
    "attribute": "0x00000000",
    "text": "{{anim id=\"QuestionMark\" target=\"actor\" targetSpec=\"\"}}Ti occuperai anche di ristrutturare,\nvero?{{delay20}} Non vedo l'ora!"
  },
  {
    "label": "129_06",
    "attribute": "0x00000000",
    "text": "{{anim id=\"Aha\" target=\"actor\" targetSpec=\"\"}}Niuk, un bel piano nuovo dove\npascere!{{delay20}} {{anim id=\"Thinking\" target=\"actor\" targetSpec=\"\"}}Pascere{{string value=\"...\"}} pesce{{string value=\"...\"}} re{{string value=\"...\"}} {{delay20}}{{anim id=\"Aha\" target=\"actor\" targetSpec=\"\"}}Ah\nsì, brav{{gender2 m=\"o\" f=\"a\"}}! {{delay20}}{{anim id=\"AbsentMindedness\" target=\"actor\" targetSpec=\"\"}}Questa devo segnarmela{{string value=\"...\"}}"
  },
  {
    "label": "129_07",
    "attribute": "0x00000000",
    "text": "{{anim id=\"Hello\" target=\"actor\" targetSpec=\"\"}}Hai in mente altri lavori per questa\nstanza, vero?{{delay20}}{{anim id=\"FaintSmile\" target=\"actor\" targetSpec=\"\"}} Non vedo l'ora,{{delay20}} niuk!"
  },
  {
    "label": "148",
    "attribute": "0x00000000",
    "text": "{{anim id=\"Shocked\" target=\"actor\" targetSpec=\"\"}}Vai a casa?{{delay20}}{{anim id=\"Smiling\" target=\"actor\" targetSpec=\"\"}} Beh, torna a trovarmi\npresto, {{delay8}}niuk!"
  }
]