﻿[
  {
    "label": "001",
    "attribute": "0x0000000000000000",
    "text": "{{anim id=\"Pardon\" target=\"actor\" targetSpec=\"\"}}{{capitalizeNextLetter}}{{string value=\"NickName\"}}!{{delay20}} Ты знал{{gender2 m=\"\" f=\"а\"}}, что\n{{string value=\"31\"}} в прошлом звезда\n{{fun_00170032 arg=\"0x03CD\"}}{{randomSports}}?!"
  },
  {
    "label": "002",
    "attribute": "0x0000000000000000",
    "text": "{{anim id=\"Negative\" target=\"actor\" targetSpec=\"\"}}Это роль в фильме,{{delay20}} {{string value=\"31\"}}!{{pageBreak}}{{anim id=\"Explain\" target=\"actor\" targetSpec=\"\"}}Я играю ворчливого, {{delay20}}но милого{{delay20}}\nбывшего профи по {{fun_00170032 arg=\"0x02CD\"}}{{randomSports}},{{delay20}}\nжаждущего прославиться!{{pageBreak}}{{anim id=\"FaintSmile\" target=\"actor\" targetSpec=\"\"}}И я хочу, чтобы ты, {{string value=\"31\"}},\nсыграл сурового,{{delay20}} но справедливого\nтренера по {{fun_00170032 arg=\"0x02CD\"}}{{randomSports}}!{{pageBreak}}{{anim id=\"Smiling\" target=\"actor\" targetSpec=\"\"}}Один телефонный звонок —\nи роль твоя.{{delay frames=\"40\"}} {{anim id=\"BigSmile\" target=\"actor\" targetSpec=\"\"}}Что скажешь?"
  },
  {
    "label": "003",
    "attribute": "0x0000020000000000",
    "text": "{{anim id=\"BigSmile\" target=\"actor\" targetSpec=\"\"}}Мне?{{delay20}} Сняться в фильме?{{delay frames=\"60\"}} {{anim id=\"Worried\" target=\"actor\" targetSpec=\"\"}}Постой{{string value=\"...\"}}{{delay20}}\nЕсли уж кто и должен сыграть роль\nзвезды {{fun_00170032 arg=\"0x03CD\"}}{{randomSports}},{{delay20}} так это я.{{pageBreak}}{{i20_2 arg=\"6\"}}{{anim id=\"EmotEnd\" target=\"actor\" targetSpec=\"\"}}{{capitalizeNextLetter}}{{string value=\"NickName\"}}, {{delay20}}а ты как\nсчитаешь? {{capitalizeNextLetter}}{{string value=\"Catchphrase\"}}!{{pageBreak}}{{i20_2 arg=\"8\"}}{{anim id=\"QuestionMark\" target=\"actor\" targetSpec=\"\"}}Кого мне сыграть: тренера по\n{{fun_00170032 arg=\"0x02CD\"}}{{randomSports}}{{delay20}} или бывшую звезду?"
  },
  {
    "label": "003_a",
    "attribute": "0x0000000000000000",
    "text": "{{anim id=\"EmotEnd\" target=\"player\" targetSpec=\"\"}}Тренера!"
  },
  {
    "label": "003_b",
    "attribute": "0x0000000000000000",
    "text": "{{anim id=\"EmotEnd\" target=\"player\" targetSpec=\"\"}}Бывшую звезду!"
  },
  {
    "label": "004",
    "attribute": "0x0000000000000000",
    "text": "{{i20_2 arg=\"4\"}}{{anim id=\"Smiling\" target=\"actor\" targetSpec=\"\"}}Мощный выбор, {{string value=\"NickName\"}}!{{delay frames=\"60\"}}\n{{anim id=\"Negative\" target=\"actor\" targetSpec=\"\"}}Но неправильный.{{pageBreak}}{{anim id=\"Explain\" target=\"actor\" targetSpec=\"\"}}{{string value=\"31\"}} прав:{{delay20}} он должен\nсыграть звезду {{fun_00170032 arg=\"0x03CD\"}}{{randomSports}},\n{{anim id=\"SmugFace\" target=\"mainNpc\" targetSpec=\"\"}}{{delay frames=\"40\"}}а я буду тренером.{{anim id=\"EmotEnd\" target=\"mainNpc\" targetSpec=\"\"}}{{pageBreak}}{{anim id=\"AbsentMindedness\" target=\"actor\" targetSpec=\"\"}}Представь, сколько вдохновляющих\nречей я произнесу. {{delay frames=\"40\"}}И это еще до\nначала сезона кинопремий!{{delay frames=\"60\"}} {{anim id=\"Laughing\" target=\"actor\" targetSpec=\"\"}}{{delay20}}Хо-хо!{{pageBreak}}{{anim id=\"Nodding\" target=\"actor\" targetSpec=\"\"}}Так, {{delay20}}с этим разобрались{{string value=\"...\"}}{{delay20}} {{i20_3 arg=\"7\"}}{{anim id=\"Hesitate\" target=\"actor\" targetSpec=\"\"}}А теперь,\n{{string value=\"31\"}}, расскажи вкратце,\nкак быть тренером.{{anim id=\"Eh\" target=\"mainNpc\" targetSpec=\"\"}}{{delay frames=\"40\"}}{{anim id=\"Worried\" target=\"actor\" targetSpec=\"\"}} Я без понятия!{{anim id=\"EmotEnd\" target=\"actor\" targetSpec=\"\"}}"
  },
  {
    "label": "005",
    "attribute": "0x0000000000000000",
    "text": "{{anim id=\"Thinking\" target=\"actor\" targetSpec=\"\"}}Значит, я одновременно и звезда,{{delay20}}\nи тренер по {{fun_00170032 arg=\"0x02CD\"}}{{randomSports}}{{string value=\"...\"}}{{delay20}} Да?{{delay frames=\"40\"}}\n{{anim id=\"Eh\" target=\"actor\" targetSpec=\"\"}}Ого.{{delay20}} Быть актером непросто!{{anim id=\"EmotEnd\" target=\"actor\" targetSpec=\"\"}}"
  },
  {
    "label": "006",
    "attribute": "0x0000000000000000",
    "text": "{{i20_3 arg=\"8\"}}{{anim id=\"BigSmile\" target=\"actor\" targetSpec=\"\"}}{{capitalizeNextLetter}}{{string value=\"NickName\"}}, как четко\nподмечено!{{delay frames=\"40\"}} {{string value=\"31\"}} просто\nсоздан для роли тренера.{{pageBreak}}{{anim id=\"EmotEnd\" target=\"actor\" targetSpec=\"\"}}К тому же,{{delay20}} если бы мне нравил{{gender7 m=\"ся\" f=\"ась\" n=\"ось\" pl=\"ись\"}}\n{{randomSports}}, то роль звезды\n{{fun_00170032 arg=\"0x03CD\"}}{{randomSports}} точно была бы моей.{{pageBreak}}{{anim id=\"Blushing\" target=\"actor\" targetSpec=\"\"}}Окей! {{delay20}}Роли распределили,{{delay20}} пойду\nпочитаю, что такое {{randomSports}}{{anim id=\"Negative\" target=\"mainNpc\" targetSpec=\"\"}}{{string value=\"...\"}}{{delay frames=\"40\"}}\nЯ ничего о н{{gender7 m=\"ем\" f=\"ей\" n=\"ем\" pl=\"их\"}} не знаю.{{anim id=\"EmotEnd\" target=\"actor\" targetSpec=\"\"}}{{anim id=\"EmotEnd\" target=\"mainNpc\" targetSpec=\"\"}}"
  },
  {
    "label": "007",
    "attribute": "0x0000000000000000",
    "text": "{{anim id=\"OhGeez\" target=\"actor\" targetSpec=\"\"}}Так что же{{string value=\"...\"}}{{delay20}} мне по сюжету\nпридется еще и объяснять тебе,\nчто такое {{randomSports}}?{{delay20}}{{pageBreak}}Сколько длится этот фильм?\n{{capitalizeNextLetter}}{{string value=\"Catchphrase\"}}!{{anim id=\"EmotEnd\" target=\"actor\" targetSpec=\"\"}}{{anim id=\"EmotEnd\" target=\"subNpc\" targetSpec=\"\"}}"
  },
  {
    "label": "008",
    "attribute": "0x0000000000000000",
    "text": "{{anim id=\"QuestionMark\" target=\"actor\" targetSpec=\"\"}}Что?{{i20_2 arg=\"5\"}}{{delay frames=\"40\"}} {{capitalizeNextLetter}}{{string value=\"NickName\"}},{{delay20}} ты\nдумаешь, {{string value=\"31\"}} весь\nфильм на себе вывезет?"
  },
  {
    "label": "009",
    "attribute": "0x0000000000000000",
    "text": "{{anim id=\"Eh\" target=\"actor\" targetSpec=\"\"}}Весь фильм? {{capitalizeNextLetter}}{{string value=\"Catchphrase\"}}!{{i20_2 arg=\"7\"}}{{delay frames=\"40\"}} {{anim id=\"SmugFace\" target=\"actor\" targetSpec=\"\"}}Ты мои\nмышцы видел?{{delay frames=\"40\"}} Я что угодно на себе\nвывезу!{{anim id=\"EmotEnd\" target=\"actor\" targetSpec=\"\"}}"
  },
  {
    "label": "101",
    "attribute": "0x0000000000000000",
    "text": "{{anim id=\"FaintSmile\" target=\"actor\" targetSpec=\"\"}}Слушай, {{string value=\"31\"}}, {{delay20}}мне вот\nинтересно{{string value=\"...\"}}{{delay20}} {{anim id=\"QuestionMark\" target=\"actor\" targetSpec=\"\"}}Чем ты занимаешься\nв свободное время?{{anim id=\"EmotEnd\" target=\"actor\" targetSpec=\"\"}}"
  },
  {
    "label": "102",
    "attribute": "0x0000000000000000",
    "text": "{{anim id=\"Hello\" target=\"actor\" targetSpec=\"\"}}Наконец-то ты спросил!{{delay frames=\"40\"}} {{anim id=\"Nodding\" target=\"actor\" targetSpec=\"\"}}Интересно\nвсе-таки узнать что-нибудь о жизни{{delay20}}\nтакого светского персонажа, да?"
  },
  {
    "label": "103",
    "attribute": "0x0000000000000000",
    "text": "{{anim id=\"Greeting\" target=\"actor\" targetSpec=\"\"}}К примеру, вчера вечером я как раз\nперечитывал стопку своих свежих\nсценариев.{{delay frames=\"60\"}} {{anim id=\"Negative\" target=\"actor\" targetSpec=\"\"}}Работы невпроворот!{{pageBreak}}{{anim id=\"Nodding\" target=\"actor\" targetSpec=\"\"}}Позволь заметить, {{delay20}}что это все равно\nчто{{delay20}} читать увлекательный роман,{{delay20}}\nполный приключений.{{delay frames=\"40\"}} {{anim id=\"Smiling\" target=\"actor\" targetSpec=\"\"}}Я гений.{{pageBreak}}{{anim id=\"Explain\" target=\"actor\" targetSpec=\"\"}}Ну а потом {{delay20}}я налил себе бокальчик\n{{fun_00170032 arg=\"0x03CD\"}}{{randomDrink}} и пошел до самого\nутра {{randomHobby}}."
  },
  {
    "label": "104",
    "attribute": "0x0000000000000000",
    "text": "{{anim id=\"Eh\" target=\"actor\" targetSpec=\"\"}}Как?{{delay20}} Когда ты успел?{{delay20}} {{anim id=\"Worried\" target=\"actor\" targetSpec=\"\"}}Мы же{{string value=\"...\"}}{{delay20}} мы\nже с тобой вчера весь вечер вместе\nтусовались. {{capitalizeNextLetter}}{{string value=\"Catchphrase\"}}!{{anim id=\"EmotEnd\" target=\"actor\" targetSpec=\"\"}}"
  },
  {
    "label": "105",
    "attribute": "0x0000000000000600",
    "text": "{{anim id=\"TakenAback\" target=\"actor\" targetSpec=\"\"}}А!{{delay frames=\"40\"}} Ах да!{{i10_9}}{{delay20}} Э{{string value=\"...\"}}{{delay20}} т-точно.{{delay20}} Э{{string value=\"...\"}}{{pageBreak}}{{anim id=\"IdeaBulb\" target=\"actor\" targetSpec=\"\"}}{{delay20}}Ну да!{{delay20}} Ты вдохновил меня на новый\nсценарий о качке с мышцами\nатланта. {{anim id=\"Eh\" target=\"mainNpc\" targetSpec=\"\"}}{{pageBreak}}{{anim id=\"Smiling\" target=\"actor\" targetSpec=\"\"}}И-и угадай, кого я вижу в главной\nроли?!{{i10_4}} {{anim id=\"EmotEnd\" target=\"actor\" targetSpec=\"\"}}Правильно!{{delay20}} Конечно же,\nсебя!{{delay frames=\"60\"}}{{pageBreak}}{{anim id=\"Greeting\" target=\"actor\" targetSpec=\"\"}}А теперь внимание!{{delay20}} Угадай, кого\nя вижу в роли второго заместителя\nтретьего кассира?{{delay20}}{{anim id=\"OhGeez\" target=\"mainNpc\" targetSpec=\"\"}}"
  },
  {
    "label": "106",
    "attribute": "0x0000000000000000",
    "text": "{{anim id=\"Grin\" target=\"actor\" targetSpec=\"\"}}Вот вчера вечером, например,{{delay20}}\nя допоздна изобретал новый вид\nпоэзии.{{pageBreak}}{{anim id=\"Explain\" target=\"actor\" targetSpec=\"\"}}Если я хоть что-то смыслю в поэзии{{delay20}}\n(а я еще как смыслю),{{delay20}} когда народ\nуслышит мои рифмы{{string value=\"...\"}}{{delay20}}{{pageBreak}}{{anim id=\"EmotEnd\" target=\"actor\" targetSpec=\"\"}}Мир поэзии{{delay20}} перевернется!{{pageBreak}}{{anim id=\"AbsentMindedness\" target=\"actor\" targetSpec=\"\"}}{{delay20}}Для меня придумают совершенно\nновый вид премии. {{delay20}}Толпы{{delay8}} фанатов\nбудут вымаливать у меня автограф.{{anim id=\"EmotEnd\" target=\"actor\" targetSpec=\"\"}}"
  },
  {
    "label": "107",
    "attribute": "0x0000000000000000",
    "text": "{{anim id=\"Thinking\" target=\"actor\" targetSpec=\"\"}}Но{{string value=\"...\"}}{{delay20}} мы с тобой весь вечер были\nвместе. {{anim id=\"Silent\" target=\"subNpc\" targetSpec=\"\"}}{{delay20}}{{capitalizeNextLetter}}{{fun_00170032 arg=\"0x01CD\"}}{{randomMusic}} слушали,\nпока я твою кухню убирал!{{anim id=\"EmotEnd\" target=\"actor\" targetSpec=\"\"}}"
  },
  {
    "label": "108",
    "attribute": "0x0000000000000600",
    "text": "{{anim id=\"TakenAback\" target=\"actor\" targetSpec=\"\"}}Ой! Э{{string value=\"...\"}}{{delay20}}{{i10_9}} Ну да. {{delay20}}Точно.{{anim id=\"EmotEnd\" target=\"mainNpc\" targetSpec=\"\"}}{{pageBreak}}{{anim id=\"IdeaBulb\" target=\"actor\" targetSpec=\"\"}}{{delay20}}А! {{delay20}}Так уборка как раз и делает\nмои стихи такими уникальными\nи необычными. {{capitalizeNextLetter}}{{string value=\"Catchphrase\"}}!{{anim id=\"EmotEnd\" target=\"mainNpc\" targetSpec=\"\"}}{{pageBreak}}{{anim id=\"Worried\" target=\"actor\" targetSpec=\"\"}}Я{{string value=\"...\"}} э{{string value=\"...\"}}{{delay frames=\"40\"}}{{anim id=\"BigSmile\" target=\"actor\" targetSpec=\"\"}} называю это поэзией веника\nи швабры!{{delay20}} Отпад, да?{{delay frames=\"40\"}} Только пока\nне рассказывай никому, ладно?"
  },
  {
    "label": "201",
    "attribute": "0x0000000000000000",
    "text": "{{anim id=\"Smiling\" target=\"actor\" targetSpec=\"\"}}Йоу, {{string value=\"31\"}}!{{delay frames=\"40\"}} {{anim id=\"FaintSmile\" target=\"actor\" targetSpec=\"\"}}Что мощнее:{{delay frames=\"40\"}}\nбицепсы или трицепсы?\n{{capitalizeNextLetter}}{{string value=\"Catchphrase\"}}!"
  },
  {
    "label": "202",
    "attribute": "0x0000000000000000",
    "text": "{{anim id=\"Thinking\" target=\"actor\" targetSpec=\"\"}}{{delay20}}Ну и ну{{string value=\"...\"}}{{delay frames=\"40\"}} Непростой выбор{{string value=\"...\"}}{{pageBreak}}{{anim id=\"Aha\" target=\"actor\" targetSpec=\"\"}}{{delay20}}Постой{{string value=\"...\"}}{{delay20}} {{string value=\"31\"}},{{delay frames=\"40\"}} я не\nослышался? Ты сказал\n«{{capitalizeNextLetter}}{{string value=\"Catchphrase\"}}»?"
  },
  {
    "label": "203",
    "attribute": "0x0000000000000000",
    "text": "{{anim id=\"QuestionMark\" target=\"actor\" targetSpec=\"\"}}«{{capitalizeNextLetter}}{{string value=\"Catchphrase\"}}»?{{delay frames=\"40\"}} Да, есть у меня\nтакая фразочка.{{delay frames=\"40\"}} {{anim id=\"SmugFace\" target=\"actor\" targetSpec=\"\"}}Я так даже свой\nлевый бицепс назвал.{{anim id=\"EmotEnd\" target=\"actor\" targetSpec=\"\"}}"
  },
  {
    "label": "204",
    "attribute": "0x0000000000000000",
    "text": "{{anim id=\"Eh\" target=\"actor\" targetSpec=\"\"}}Вот как!{{delay20}} Тогда все просто!{{delay20}} Ничего\nмощнее мышцы «{{string value=\"Catchphrase\"}}»\nи быть не может.{{delay frames=\"40\"}} {{anim id=\"BigSmile\" target=\"actor\" targetSpec=\"\"}}Я говорю: бицепс!{{pageBreak}}{{anim id=\"QuestionMark\" target=\"actor\" targetSpec=\"\"}}Слушай, {{anim id=\"EmotEnd\" target=\"mainNpc\" targetSpec=\"\"}}{{delay20}}а ты не продаешь право на\nиспользование торговой марки\n«{{string value=\"Catchphrase\"}}»,{{delay20}} случайно?{{pageBreak}}{{anim id=\"Explain\" target=\"actor\" targetSpec=\"\"}}Я ищу название для своей новой\nлинейки ароматов, {{delay20}}и «{{string value=\"Catchphrase\"}}»\nподходит идеально."
  },
  {
    "label": "205",
    "attribute": "0x0000000000000000",
    "text": "{{anim id=\"Restless\" target=\"actor\" targetSpec=\"\"}}Но{{string value=\"...\"}}{{delay20}} мне и самому «{{string value=\"Catchphrase\"}}»\nнравится.{{delay20}} Пусть и мой бицепс,\nи твои духи так называются, а?{{anim id=\"EmotEnd\" target=\"actor\" targetSpec=\"\"}}"
  },
  {
    "label": "206",
    "attribute": "0x0000000000000000",
    "text": "{{anim id=\"Hello\" target=\"actor\" targetSpec=\"\"}}А что если{{string value=\"...\"}}{{delay frames=\"40\"}} {{anim id=\"Nodding\" target=\"actor\" targetSpec=\"\"}}я получу эксклюзивное\nправо на «{{string value=\"Catchphrase\"}}», {{delay20}}но выдам\nлицензию для твоего бицепса?{{pageBreak}}{{anim id=\"Grin\" target=\"actor\" targetSpec=\"\"}}Ты сколько угодно называешь свой\nбицепс «{{string value=\"Catchphrase\"}}»,{{delay20}} но платишь\nмне гонорар за каждое отжимание!{{delay frames=\"40\"}}{{pageBreak}}{{anim id=\"Smiling\" target=\"actor\" targetSpec=\"\"}}Идет? {{capitalizeNextLetter}}{{string value=\"Catchphrase\"}}!{{delay20}}{{anim id=\"Negative\" target=\"mainNpc\" targetSpec=\"\"}}"
  }
]