﻿[
  {
    "label": "000",
    "attribute": "0x00000000",
    "text": "Abraaa cadaaabra{{string value=\"...\"}} magiii kabula{{string value=\"...\"}}{{delay20}}\nAbraaa cadaaabra{{string value=\"...\"}} magiii kabula{{string value=\"...\"}}"
  },
  {
    "label": "001",
    "attribute": "0x02000000",
    "text": "{{anim id=\"Eh\" target=\"actor\" targetSpec=\"\"}}Mmmh{{string value=\"...\"}} Avverto qualcosa in te{{string value=\"...\"}}{{delay8}}\n{{anim id=\"Nodding\" target=\"actor\" targetSpec=\"\"}}Lo vedo{{string value=\"...\"}}{{delay8}} Sì, lo vedo{{string value=\"...\"}} La sfortuna\nrischia di abbattersi su di te.{{pageBreak}}{{anim id=\"Nodding\" target=\"actor\" targetSpec=\"\"}}Solo io, {{color id=\"3\"}}Vanda{{color id=\"65535\"}},{{color id=\"3\"}} {{color id=\"65535\"}}posso svelarti\nil futuro {{delay8}}e il modo per sfuggire\nalla malasorte{{string value=\"...\"}}\nE lo farò per l'irrisoria cifra\ndi{{string value=\"...\"}} {{color id=\"1\"}}1000 stelline{{color id=\"65535\"}}."
  },
  {
    "label": "001_a",
    "attribute": "0x00000000",
    "text": "{{anim id=\"Nodding\" target=\"player\" targetSpec=\"\"}}Sì, ti prego!"
  },
  {
    "label": "001_b",
    "attribute": "0x00000000",
    "text": "No, grazie..."
  },
  {
    "label": "002",
    "attribute": "0x04000000",
    "text": "{{anim id=\"Nodding\" target=\"actor\" targetSpec=\"\"}}Solo io, {{color id=\"3\"}}Vanda{{color id=\"65535\"}},{{color id=\"3\"}} {{color id=\"65535\"}}posso svelarti\nil futuro {{delay8}}e il modo per sfuggire\nalla malasorte{{string value=\"...\"}}\nE lo farò per l'irrisoria cifra\ndi{{string value=\"...\"}} {{color id=\"1\"}}1000 stelline{{color id=\"65535\"}}."
  },
  {
    "label": "002_a",
    "attribute": "0x00000000",
    "text": "Svelami il futuro!"
  },
  {
    "label": "002_b",
    "attribute": "0x00000000",
    "text": "Parliamo di affinità."
  },
  {
    "label": "002_c",
    "attribute": "0x00000000",
    "text": "No, grazie..."
  },
  {
    "label": "003",
    "attribute": "0x04000000",
    "text": "{{anim id=\"Explain\" target=\"actor\" targetSpec=\"\"}}Posso svelare ciò che gli astri hanno\nin serbo per te oggi{{string value=\"...\"}}{{delay8}}{{anim id=\"EmotEnd\" target=\"actor\" targetSpec=\"\"}} O vuoi sapere\ndella tua amicizia con qualcuno?\nRivelami i tuoi più reconditi desideri!"
  },
  {
    "label": "003_a",
    "attribute": "0x00000000",
    "text": "Svelami il futuro!"
  },
  {
    "label": "003_b",
    "attribute": "0x00000000",
    "text": "Parliamo di affinità."
  },
  {
    "label": "003_c",
    "attribute": "0x00000000",
    "text": "Non mi serve nulla..."
  },
  {
    "label": "004",
    "attribute": "0x02000000",
    "text": "{{anim id=\"QuestionMark\" target=\"actor\" targetSpec=\"\"}}Dimmi, {{delay8}}cosa ti angustia?{{pageBreak}}Se vuoi sapere ciò che gli astri\nhanno in serbo per te oggi, {{delay8}}lo farò\nper la modica cifra di{{color id=\"1\"}} 1000 stelline{{color id=\"65535\"}}."
  },
  {
    "label": "004_a",
    "attribute": "0x00000000",
    "text": "{{anim id=\"Nodding\" target=\"player\" targetSpec=\"\"}}Va bene!"
  },
  {
    "label": "004_b",
    "attribute": "0x00000000",
    "text": "Non mi interessa..."
  },
  {
    "label": "005",
    "attribute": "0x02000000",
    "text": "{{anim id=\"QuestionMark\" target=\"actor\" targetSpec=\"\"}}Dimmi, {{delay8}}cosa ti angustia?{{pageBreak}}Se vuoi che riveli il tuo grado di\namicizia con qualcuno in particolare,\n{{delay8}}lo farò per sole{{color id=\"1\"}} 1000 stelline{{color id=\"65535\"}}."
  },
  {
    "label": "005_a",
    "attribute": "0x00000000",
    "text": "{{anim id=\"Nodding\" target=\"player\" targetSpec=\"\"}}Va bene!"
  },
  {
    "label": "005_b",
    "attribute": "0x00000000",
    "text": "Non mi interessa..."
  },
  {
    "label": "011_01",
    "attribute": "0x00000000",
    "text": "{{anim id=\"Nodding\" target=\"actor\" targetSpec=\"\"}}Hai scelto di affrontare gli\naccadimenti della vita come vengono,\n{{delay8}}senza preparazione{{string value=\"...\"}}\nÈ un altro modo di fare le cose.{{delay8}}\nA presto!"
  },
  {
    "label": "011_02",
    "attribute": "0x00000000",
    "text": "{{anim id=\"Nodding\" target=\"actor\" targetSpec=\"\"}}Segui il tuo intuito, {{delay8}}senza farti\ncondizionare{{string value=\"...\"}}{{delay8}} È un modo di fare\nle cose. {{delay20}}A presto!"
  },
  {
    "label": "012",
    "attribute": "0x00000000",
    "text": "Bibbidiii bobbidiii bùùù{{string value=\"...\"}} Magiii{{string value=\"...\"}}\nkabulaaa{{string value=\"...\"}} Vedo qualcosa nella mia\nsfera di cristallo{{string value=\"...\"}}\n{{anim id=\"Serious\" target=\"actor\" targetSpec=\"\"}}Ecco, sì{{string value=\"...\"}} Vedo un grande vuoto\nnel tuo portafoglio{{string value=\"...\"}}{{delay8}} Pare che tu\nnon abbia {{color id=\"1\"}}1000 stelline{{color id=\"65535\"}}.\n{{anim id=\"Negative\" target=\"actor\" targetSpec=\"\"}}Sono desolata, {{delay8}}ma le stelle non si\npronunciano gratuitamente{{string value=\"...\"}}{{pageBreak}}Che la sorte sia benevola verso\ndi te{{string value=\"...\"}} e il tuo portafoglio."
  },
  {
    "label": "013",
    "attribute": "0x00000000",
    "text": "{{anim id=\"Nodding\" target=\"actor\" targetSpec=\"\"}}Il domani porterà nuovo consiglio, ne\nsono certa. {{delay20}}Se vuoi sapere di cosa si\ntratta, {{delay8}}torna a trovarmi.\nFino ad allora, {{delay8}}possano gli astri\nguidare i tuoi passi nel corso di\nquesta giornata."
  },
  {
    "label": "021_01",
    "attribute": "0x00000000",
    "text": "In questo caso{{string value=\"...\"}}{{delay8}} chiudi gli occhi{{string value=\"...\"}}"
  },
  {
    "label": "021_02",
    "attribute": "0x00000000",
    "text": "D'accordo{{string value=\"...\"}}{{delay8}} Rilassa le palpebre\ne chiudi di nuovo gli occhi{{string value=\"...\"}}"
  },
  {
    "label": "022_01",
    "attribute": "0x0000002C",
    "text": "{{fun_00020064 arg=\"\"}}Aaa{{delay frames=\"5\"}}bra{{delay frames=\"5\"}}ca{{delay frames=\"10\"}}daaa{{delay frames=\"5\"}}bra!{{delay frames=\"10\"}} Ma{{delay frames=\"5\"}}gi{{delay frames=\"5\"}}ka{{delay frames=\"10\"}}buuu{{delay frames=\"5\"}}la!{{delay frames=\"10\"}}\n!OTTUT {{delay frames=\"5\"}}EDEV{{delay frames=\"5\"}} AREFS{{delay frames=\"10\"}} AL{{delay frames=\"5\"}}{{endTag}}{{i10_8 arg=\"60\"}}"
  },
  {
    "label": "022_02",
    "attribute": "0x0000002C",
    "text": "{{fun_00020064 arg=\"\"}}Aaa{{delay frames=\"5\"}}bra{{delay frames=\"5\"}}ca{{delay frames=\"10\"}}daaa{{delay frames=\"5\"}}bra!{{delay frames=\"10\"}} Ma{{delay frames=\"5\"}}gi{{delay frames=\"5\"}}ka{{delay frames=\"10\"}}buuu{{delay frames=\"5\"}}la!{{delay frames=\"10\"}}\n!ETRO{{delay frames=\"5\"}}SALAM{{delay frames=\"5\"}} AL{{delay frames=\"5\"}} OS{{delay frames=\"10\"}}SA{{delay frames=\"5\"}}BBA{{endTag}}{{i10_8 arg=\"60\"}}"
  },
  {
    "label": "022_03",
    "attribute": "0x0000002C",
    "text": "{{fun_00020064 arg=\"\"}}Aaa{{delay frames=\"5\"}}bra{{delay frames=\"5\"}}ca{{delay frames=\"10\"}}daaa{{delay frames=\"5\"}}bra!{{delay frames=\"10\"}} Ma{{delay frames=\"5\"}}gi{{delay frames=\"5\"}}ka{{delay frames=\"10\"}}buuu{{delay frames=\"5\"}}la!{{delay frames=\"10\"}}\n!AIZI{{delay frames=\"5\"}}CIMA'L{{delay frames=\"10\"}} AV{{delay frames=\"5\"}}IV{{delay frames=\"5\"}}{{endTag}}{{i10_8 arg=\"60\"}}"
  },
  {
    "label": "023",
    "attribute": "0x0000002C",
    "text": "{{i10_10}}{{fun_00020064 arg=\"\"}}{{i10_12}}{{fun_000D0064 arg=\"\"}}{{size value=\"200\"}}Yaaaaaaaaa!{{size value=\"100\"}}{{endTag}}{{endTag}}"
  },
  {
    "label": "024",
    "attribute": "0x0000002D",
    "text": "{{anim id=\"Serious\" target=\"actor\" targetSpec=\"\"}}Oh{{string value=\"...\"}} vedo qualcosa{{string value=\"...\"}} Sì{{string value=\"...\"}}"
  },
  {
    "label": "101",
    "attribute": "0x00000000",
    "text": "{{anim id=\"Nodding\" target=\"actor\" targetSpec=\"\"}}D'accordo. {{delay20}}Ora scruterò nella mia\nsfera e ti svelerò cosa ti riserva il\ndestino per oggi{{string value=\"...\"}}"
  },
  {
    "label": "102_01",
    "attribute": "0x00000000",
    "text": "Bene, {{delay20}}oggi ti accadrà qualcosa\ndi bello.{{delay20}}\n          {{size value=\"75\"}}Forse{{string value=\"...\"}}{{size value=\"100\"}}"
  },
  {
    "label": "102_02",
    "attribute": "0x00000000",
    "text": "Possano gli astri guidare il tuo\ncammino{{string value=\"...\"}}"
  },
  {
    "label": "103",
    "attribute": "0x00000000",
    "text": "La vita ha i suoi alti e bassi,\n{{delay8}}le sue colline e le sue valli{{string value=\"...\"}}{{pageBreak}}Oggi potresti essere baciat{{gender2 m=\"o\" f=\"a\"}}\nin fronte dalla{{string value=\"...\"}}{{delay8}} sfortuna."
  },
  {
    "label": "104_01",
    "attribute": "0x00000000",
    "text": "Spero che eviterai i disastri{{string value=\"...\"}}{{delay8}} I miei\nconsigli possono essere accettati o\nignorati, ma mai rimborsati!"
  },
  {
    "label": "104_02",
    "attribute": "0x00000000",
    "text": "{{anim id=\"Serious\" target=\"actor\" targetSpec=\"\"}}Tuttavia{{string value=\"...\"}}{{pageBreak}}{{anim id=\"Nodding\" target=\"actor\" targetSpec=\"\"}}Se desideri liberarti dai nefasti\ninflussi della malasorte, {{delay8}}io potrei{{string value=\"...\"}}\npurificarti.{{pageBreak}}È un difficile processo {{delay8}}che abbisogna\ndi molta energia{{delay8}}, quindi serve un\ncontributo adeguato{{string value=\"...\"}}"
  },
  {
    "label": "105",
    "attribute": "0x02000000",
    "text": "{{anim id=\"Silent\" target=\"actor\" targetSpec=\"\"}}Il costo per la purificazione ammonta\na{{string value=\"...\"}} {{color id=\"1\"}}10.000 stelline{{color id=\"65535\"}}.{{delay20}} Ti interessa?"
  },
  {
    "label": "105_a",
    "attribute": "0x00000000",
    "text": "{{anim id=\"Nodding\" target=\"player\" targetSpec=\"\"}}Sì, usa la tua magia!"
  },
  {
    "label": "105_b",
    "attribute": "0x00000000",
    "text": "No, grazie..."
  },
  {
    "label": "106",
    "attribute": "0x00000000",
    "text": "{{anim id=\"Nodding\" target=\"actor\" targetSpec=\"\"}}Affronta gli accadimenti della vita\ncome vengono, {{delay8}}senza remore{{string value=\"...\"}}{{delay8}} È\nun modo di fare le cose.\n{{anim id=\"Thinking\" target=\"actor\" targetSpec=\"\"}}Magari sfrutterai la situazione\na tuo vantaggio o imparerai una\npreziosa lezione{{string value=\"...\"}}{{pageBreak}}Qualunque sia l'esito, {{delay8}}possano gli\nastri guidarti sempre. {{delay20}}A presto!"
  },
  {
    "label": "107",
    "attribute": "0x00000000",
    "text": "{{anim id=\"Nodding\" target=\"actor\" targetSpec=\"\"}}Capisco.{{delay20}} Non temere, {{delay8}}ti purificherò\nal meglio delle mie possibilità{{string value=\"...\"}}{{pageBreak}}{{delay20}}In questo modo, {{delay8}}la malasorte non\nti colpirà."
  },
  {
    "label": "108",
    "attribute": "0x00000000",
    "text": "{{anim id=\"Nodding\" target=\"actor\" targetSpec=\"\"}}Sì, {{delay8}}la tua aura appare ora pura\ne libera da ogni influsso nefasto.\n{{delay20}}Che la sua luce ti guidi{{string value=\"...\"}}"
  },
  {
    "label": "111",
    "attribute": "0x0000002D",
    "text": "{{fun_0014003C arg=\"\"}}"
  },
  {
    "label": "111_01",
    "attribute": "0x0000002D",
    "text": "Vedo{{string value=\"...\"}}{{delay8}} una nonna e sua nipote{{string value=\"...\"}}{{delay8}} con\nvolti sorridenti e rape nutrienti nelle\nloro zampe.\nMa dove si trovano?{{delay20}} Sembrerebbe un\nluogo che non appare sulle mappe{{string value=\"...\"}}"
  },
  {
    "label": "111_02",
    "attribute": "0x0000002D",
    "text": "Nel cuore della notte,{{delay8}} il presidente\ndi Nook Inc. ne conta una dopo\nl'altra{{string value=\"...\"}}{{pageBreak}}Non parlo di pecore, {{delay8}}bensì di\nstelline."
  },
  {
    "label": "111_03",
    "attribute": "0x0000002D",
    "text": "Scuoti un albero e cadranno le\nstelline.{{delay20}} Colpisci una roccia e le\nvedrai saltare fuori.{{pageBreak}}Viaggiatori si accalcano alla scoperta\ndelle ricchezze di un'isola{{string value=\"...\"}}"
  },
  {
    "label": "112",
    "attribute": "0x0000002D",
    "text": "Questa visione{{string value=\"...\"}}{{delay8}} Il suo messaggio\nè chiaro:{{delay20}} avrai {{color id=\"1\"}}fortuna con i soldi{{color id=\"65535\"}}!"
  },
  {
    "label": "121",
    "attribute": "0x0000002D",
    "text": "{{fun_0014003C arg=\"\"}}"
  },
  {
    "label": "121_01",
    "attribute": "0x0000002D",
    "text": "Vedo{{string value=\"...\"}}{{delay8}} una nonna e sua nipote{{string value=\"...\"}}{{delay8}}\nche piangono sconsolate di fronte\na una pila di rape marce{{string value=\"...\"}}\nMa dove si trovano?{{delay20}} Le mappe\nnon sembrano contemplare un\nsimile luogo{{string value=\"...\"}}"
  },
  {
    "label": "121_02",
    "attribute": "0x0000002D",
    "text": "Vedo un'isola{{string value=\"...\"}}{{delay8}} i cui residenti\npreferiscono vivere nelle tende\npiuttosto che costruirsi una casa.\nIl presidente di Nook Inc.{{delay8}} è\nquantomeno perplesso da questa\npiega degli eventi{{string value=\"...\"}}"
  },
  {
    "label": "121_03",
    "attribute": "0x0000002D",
    "text": "Vedo{{string value=\"...\"}}{{delay8}} tempi di riciclo,{{delay8}} in cui\ntutta un'isola ricorre al fai da te\ne non compra quasi più nulla{{string value=\"...\"}}\nE vedo anche{{string value=\"...\"}}{{delay8}} oh, che tristezza{{string value=\"...\"}}{{delay8}}\ndue piccoli procioni che inzuppano\ni propri cuscini di amare lacrime{{string value=\"...\"}}"
  },
  {
    "label": "122",
    "attribute": "0x0000002D",
    "text": "Questa visione{{string value=\"...\"}}{{delay8}} Il suo messaggio\nè chiaro:{{delay20}} avrai {{color id=\"1\"}}sfortuna con i soldi{{color id=\"65535\"}}!"
  },
  {
    "label": "131",
    "attribute": "0x0000002D",
    "text": "{{fun_0014003C arg=\"\"}}"
  },
  {
    "label": "131_01",
    "attribute": "0x0000002D",
    "text": "I residenti di una certa isola{{delay8}} si\nriuniscono nello studio fotografico\ndi un piccolo isolotto{{string value=\"...\"}}\nPosano di fronte all'obiettivo{{delay8}} con\nsorrisi smaglianti che illuminano\ni loro volti{{string value=\"...\"}}"
  },
  {
    "label": "131_02",
    "attribute": "0x0000002D",
    "text": "Vedo{{string value=\"...\"}} un gabbiano svenuto{{string value=\"...\"}}\nSi tratta di un marinaio disperso.{{pageBreak}}I suoi compagni di viaggio,{{delay8}} che di\nsolito ignorano i suoi messaggi di\naiuto,{{delay8}} questa volta rispondono{{string value=\"...\"}}"
  },
  {
    "label": "131_03",
    "attribute": "0x0000002D",
    "text": "Un giovane amante della pesca {{delay8}}e un\naltro con la passione per gli insetti{{delay8}}\nsu un'isola ricca di entrambi{{string value=\"...\"}}\nVedo{{string value=\"...\"}} che condividono i loro hobby\nl'uno con l'altro{{delay8}} e si intendono a\nmeraviglia."
  },
  {
    "label": "132",
    "attribute": "0x0000002D",
    "text": "Questa visione{{string value=\"...\"}}{{delay8}} Il suo messaggio\nè chiaro:{{delay20}} avrai {{color id=\"1\"}}fortuna con gli amici{{color id=\"65535\"}}!"
  },
  {
    "label": "141",
    "attribute": "0x0000002D",
    "text": "{{fun_0014003C arg=\"\"}}"
  },
  {
    "label": "141_01",
    "attribute": "0x0000002D",
    "text": "Vedo{{string value=\"...\"}} un gabbiano svenuto{{string value=\"...\"}}\nSi tratta di un marinaio disperso.{{pageBreak}}I suoi compagni di viaggio,{{delay8}} che di\nsolito ignorano i suoi messaggi di\naiuto,{{delay8}} lo hanno bloccato del tutto{{string value=\"...\"}}"
  },
  {
    "label": "141_02",
    "attribute": "0x0000002D",
    "text": "Vedo{{string value=\"...\"}} due adorabili procioni,\n{{delay8}}identici come due gocce d'acqua{{string value=\"...\"}}{{pageBreak}}Discutono su come gestire il loro\nnegozio{{string value=\"...\"}} Tanto simile è l'aspetto,\n{{delay8}}quanto diverse le loro opinioni{{string value=\"...\"}}"
  },
  {
    "label": "141_03",
    "attribute": "0x0000002D",
    "text": "Un giovane amante della pesca {{delay8}}e un\naltro con la passione per gli insetti\n{{delay8}}su un'isola ricca di entrambi{{string value=\"...\"}}\nDi solito si intendono a meraviglia,\n{{delay8}}ma oggi discutono:{{delay20}} gli insetti sono\namici{{string value=\"...\"}}{{delay8}} o esche?"
  },
  {
    "label": "142",
    "attribute": "0x0000002D",
    "text": "Questa visione{{string value=\"...\"}}{{delay8}} Il suo messaggio\nè chiaro:{{delay20}} avrai {{color id=\"1\"}}sfortuna con gli amici{{color id=\"65535\"}}!"
  },
  {
    "label": "151",
    "attribute": "0x0000002D",
    "text": "{{fun_0014003C arg=\"\"}}"
  },
  {
    "label": "151_01",
    "attribute": "0x0000002D",
    "text": "Vedo{{string value=\"...\"}}{{delay8}} un regalo inaspettato{{string value=\"...\"}}{{delay8}}\ne chi lo riceve {{delay8}}aprirsi in un sorriso{{string value=\"...\"}}{{delay8}}\nsei tu!"
  },
  {
    "label": "151_02",
    "attribute": "0x0000002D",
    "text": "Sembra che questo strumento debba\nrompersi{{string value=\"...\"}}{{delay8}} però resiste!{{delay20}} Oh,\nmeraviglia!{{delay8}} Come mai non si rompe?\nSei pervas{{gender2 m=\"o\" f=\"a\"}} prima dallo stupore,{{delay8}} poi\ndalla felicità,{{delay8}} mentre passeggi con il\ntuo oggetto infrangibile{{string value=\"...\"}}"
  },
  {
    "label": "151_03",
    "attribute": "0x0000002D",
    "text": "Vedo{{string value=\"...\"}}{{delay8}} due sorelle{{delay8}} molto felici nella\nloro sartoria:{{delay20}} sono alle prese con una\nmacchina da cucire nuova di zecca!\nIl loro lavoro è adesso più rapido,{{delay8}}\npiù efficiente{{string value=\"...\"}}{{delay8}} In poco tempo,\n{{delay8}}hanno pronta una montagna di abiti."
  },
  {
    "label": "152",
    "attribute": "0x0000002D",
    "text": "Questa visione{{string value=\"...\"}}{{delay8}} Il suo messaggio è\nchiaro:{{delay20}} avrai {{color id=\"1\"}}fortuna con gli oggetti{{color id=\"65535\"}}!"
  },
  {
    "label": "161",
    "attribute": "0x0000002D",
    "text": "{{fun_0014003C arg=\"\"}}"
  },
  {
    "label": "161_01",
    "attribute": "0x0000002D",
    "text": "Vedo{{string value=\"...\"}}{{delay8}} il sole che sorge {{delay8}}e un negozio\nche si prepara all'apertura{{string value=\"...\"}}{{pageBreak}}Di fronte alla porta,{{delay8}} due giovani\ngemelli in preda al panico {{delay8}}perché\nhanno scordato di fare scorta{{string value=\"...\"}}"
  },
  {
    "label": "161_02",
    "attribute": "0x0000002D",
    "text": "Vedo{{string value=\"...\"}}{{delay8}} una lontra marina che stringe\nuna conchiglia{{string value=\"...\"}}{{delay8}} È solo questione di\ntempo, {{delay8}}ma scoprirà che è vuota{{string value=\"...\"}}"
  },
  {
    "label": "161_03",
    "attribute": "0x0000002D",
    "text": "Vedo{{string value=\"...\"}}{{delay8}} Aspetta{{string value=\"...\"}}{{delay8}} Sei tu!{{delay20}} Hai creato\nun oggetto{{string value=\"...\"}}{{delay8}} ma si rompe al primo\nutilizzo!\nChe è accaduto?{{delay20}} Colpa di materiali\nscadenti?{{delay20}} O si è trattato di un errore\ndi fabbricazione?"
  },
  {
    "label": "162",
    "attribute": "0x0000002D",
    "text": "Questa visione{{string value=\"...\"}}{{delay8}} Il suo messaggio è\nchiaro:{{delay20}} avrai {{color id=\"1\"}}sfortuna con gli oggetti{{color id=\"65535\"}}!"
  },
  {
    "label": "171",
    "attribute": "0x0000002D",
    "text": "{{fun_0014003C arg=\"\"}}"
  },
  {
    "label": "171_01",
    "attribute": "0x0000002D",
    "text": "Vedo{{string value=\"...\"}}{{delay8}} un gruppo di amici che\nsi raduna in piazza{{string value=\"...\"}}{{delay8}} per fare\nstretching di gruppo{{string value=\"...\"}}\nAlcuni corrono con le braccia\naperte,{{delay8}} a ricordare un aereo{{string value=\"...\"}}\n{{delay8}}Tutti sorridono felici."
  },
  {
    "label": "171_02",
    "attribute": "0x0000002D",
    "text": "Vedo{{string value=\"...\"}}{{delay8}} sì, sei tu{{string value=\"...\"}} sollevi un boccone\ndi cibo sano e delizioso{{string value=\"...\"}}{{pageBreak}}Nutrimento e felicità{{delay8}} vanno\na braccetto{{string value=\"...\"}}"
  },
  {
    "label": "171_03",
    "attribute": "0x0000002D",
    "text": "Giaci comodamente sul tuo letto{{string value=\"...\"}}{{delay8}}\ne ti fanno visita placidi sogni{{delay8}} di una\npacifica e rigogliosa isola deserta{{string value=\"...\"}}\nAl mattino ti risvegli rigenerat{{gender2 m=\"o\" f=\"a\"}},{{delay8}}\nriposat{{gender2 m=\"o\" f=\"a\"}}{{delay8}} e traboccante di energia{{string value=\"...\"}}"
  },
  {
    "label": "172",
    "attribute": "0x0000002D",
    "text": "Questa visione{{string value=\"...\"}}{{delay8}} Il suo messaggio è\nchiaro:{{delay20}} avrai {{color id=\"1\"}}fortuna con la salute{{color id=\"65535\"}}!"
  },
  {
    "label": "181",
    "attribute": "0x0000002D",
    "text": "{{fun_0014003C arg=\"\"}}"
  },
  {
    "label": "181_01",
    "attribute": "0x0000002D",
    "text": "Vedo{{string value=\"...\"}}{{delay8}} mentre corri allegr{{gender2 m=\"o\" f=\"a\"}} in un\ngrande campo{{string value=\"...\"}}{{delay8}} Ma, {{delay8}}oh sventura,{{delay8}}\ncadi in un buco nel terreno!"
  },
  {
    "label": "181_02",
    "attribute": "0x0000002D",
    "text": "Vedo{{string value=\"...\"}}{{delay8}} una tapira che divora incubi{{string value=\"...\"}}{{delay8}}\nma non riesce a fare lo stesso con i\nsuoi{{delay8}} e si dispera preda dell'insonnia."
  },
  {
    "label": "181_03",
    "attribute": "0x0000002D",
    "text": "Vedo{{string value=\"...\"}}{{delay8}} uno stomaco che ruggisce\ninquieto{{string value=\"...\"}}{{delay8}} e un bagno che chiama\ncon insistenza{{string value=\"...\"}}\nChe tu abbia mangiato troppo?"
  },
  {
    "label": "182",
    "attribute": "0x0000002D",
    "text": "Questa visione{{string value=\"...\"}}{{delay8}} Il suo messaggio è\nchiaro:{{delay20}} avrai {{color id=\"1\"}}sfortuna con la salute{{color id=\"65535\"}}!"
  },
  {
    "label": "201",
    "attribute": "0x00000000",
    "text": "Sono tanti i volti che affollano la mia\nsfera{{string value=\"...\"}}{{delay8}} Con quale vuoi che visualizzi\nla tua amicizia?"
  },
  {
    "label": "202",
    "attribute": "0x00000000",
    "text": "{{anim id=\"Eh\" target=\"actor\" targetSpec=\"\"}}Oh{{string value=\"...\"}} Alla fine ti tiri indietro?{{pageBreak}}Ti relazioni con gli altri basandoti\nsolo sull'istinto. {{delay20}}È{{string value=\"...\"}}{{delay8}} un modo di\nfare le cose. {{delay20}}A presto!"
  },
  {
    "label": "203",
    "attribute": "0x00000000",
    "text": "{{anim id=\"Nodding\" target=\"actor\" targetSpec=\"\"}}Oh,{{delay8}} molto bene{{string value=\"...\"}}{{delay8}} Vediamo cosa dice\nla mia sfera {{delay8}}sulla tua amicizia con\n{{color id=\"3\"}}{{selection value=\"SelectedVillager\"}}{{color id=\"65535\"}}{{string value=\"...\"}}"
  },
  {
    "label": "211",
    "attribute": "0x0000002D",
    "text": "Sono in contatto con l'aura\ndi {{color id=\"3\"}}{{selection value=\"SelectedVillager\"}}{{color id=\"65535\"}}{{string value=\"...\"}}{{pageBreak}}{{anim id=\"Thinking\" target=\"actor\" targetSpec=\"\"}}Nella sua coscienza vedo numerosi\nvolti{{string value=\"...\"}}{{delay20}}{{anim id=\"Negative\" target=\"actor\" targetSpec=\"\"}} ma non il tuo!{{delay20}} A questo punto\nmi chiedo {{delay8}}se vi conosciate davvero{{string value=\"...\"}}\n{{anim id=\"Serious\" target=\"actor\" targetSpec=\"\"}}Se desideri fare la conoscenza\ndi qualcuno,{{delay8}} parlaci insieme, non\naspettare che prenda l'iniziativa!"
  },
  {
    "label": "212",
    "attribute": "0x0000002D",
    "text": "{{anim id=\"Nodding\" target=\"actor\" targetSpec=\"\"}}Come un vicino riconosce un altro,{{delay8}}\ncosì {{color id=\"3\"}}{{selection value=\"SelectedVillager\"}}{{color id=\"65535\"}} riconosce il tuo volto{{string value=\"...\"}}{{pageBreak}}{{anim id=\"Serious\" target=\"actor\" targetSpec=\"\"}}Tutto ciò è piacevole{{string value=\"...\"}}{{delay8}} ma forse\npensa che sarebbe bello conoscerti\nmeglio{{string value=\"...\"}} Chissà{{string value=\"...\"}}"
  },
  {
    "label": "213",
    "attribute": "0x0000002D",
    "text": "Poiché vivete sulla stessa isola, {{color id=\"3\"}}{{selection value=\"SelectedVillager\"}}{{color id=\"65535\"}}{{anim id=\"Nodding\" target=\"actor\" targetSpec=\"\"}} ti conosce molto bene.{{anim id=\"EmotEnd\" target=\"actor\" targetSpec=\"\"}}{{pageBreak}}Se vuoi approfondire l'amicizia,\nparla{{gender8 m=\"gli\" f=\"le\" n=\"\"}} con la gentilezza tipica\ndella gente di {{string value=\"34\"}}."
  },
  {
    "label": "214",
    "attribute": "0x0000002D",
    "text": "Vedo{{string value=\"...\"}} molti volti davanti a me{{string value=\"...\"}}\nSto esplorando la coscienza di\n{{color id=\"3\"}}{{selection value=\"SelectedVillager\"}}{{color id=\"65535\"}}{{string value=\"...\"}}{{pageBreak}}Oh, e vedo anche il tuo volto{{string value=\"...\"}}{{delay20}}{{anim id=\"Thinking\" target=\"actor\" targetSpec=\"\"}} anche\nse non con la stessa intensità{{string value=\"...\"}}{{pageBreak}}{{anim id=\"EmotEnd\" target=\"actor\" targetSpec=\"\"}}Nella mia visione, sento che {{color id=\"3\"}}{{selection value=\"SelectedVillager\"}}{{color id=\"65535\"}} ti conosce piuttosto bene.{{pageBreak}}{{anim id=\"Nodding\" target=\"actor\" targetSpec=\"\"}}Ed è solo l'inizio di un legame che\npotrebbe diventare molto più forte di\nquello di due semplici compaesani{{string value=\"...\"}}"
  },
  {
    "label": "215",
    "attribute": "0x0000002D",
    "text": "Sto scrutando la coscienza di\n{{color id=\"3\"}}{{selection value=\"SelectedVillager\"}}{{color id=\"65535\"}}{{string value=\"...\"}}{{pageBreak}}{{anim id=\"Thinking\" target=\"actor\" targetSpec=\"\"}}Vedo che sei sempre al centro\ndei suoi pensieri,{{delay20}} in molti momenti\ndella giornata{{string value=\"...\"}}{{pageBreak}}{{anim id=\"EmotEnd\" target=\"actor\" targetSpec=\"\"}}La mente di {{color id=\"3\"}}{{selection value=\"SelectedVillager\"}}{{color id=\"65535\"}} è naturalmente curiosa, ma tu la occupi per gran parte{{string value=\"...\"}}{{pageBreak}}Ti considera davvero importante e\nvorrebbe esserti ancora più amic{{gender8 m=\"o\" f=\"a\" n=\"\"}},\n{{anim id=\"Nodding\" target=\"actor\" targetSpec=\"\"}}lo sento chiaramente."
  },
  {
    "label": "216",
    "attribute": "0x0000002D",
    "text": "Sto scrutando la mente di\n{{color id=\"3\"}}{{selection value=\"SelectedVillager\"}}{{color id=\"65535\"}}{{string value=\"...\"}}{{pageBreak}}{{anim id=\"Thinking\" target=\"actor\" targetSpec=\"\"}}E ho visto il tuo volto{{string value=\"...\"}} Ti vedo\nsorridere{{string value=\"...\"}} Accigliarti{{string value=\"...\"}} Passare da\nun'emozione all'altra{{string value=\"...\"}}{{pageBreak}}{{anim id=\"Nodding\" target=\"actor\" targetSpec=\"\"}}È chiaro che tu occupi grande parte\ndei pensieri di {{color id=\"3\"}}{{selection value=\"SelectedVillager\"}}{{color id=\"65535\"}}.{{pageBreak}}{{anim id=\"Nodding\" target=\"actor\" targetSpec=\"\"}}Il vostro legame è molto più forte\ndi quanto credi{{string value=\"...\"}}"
  },
  {
    "label": "221",
    "attribute": "0x00000000",
    "text": "La sfera di cristallo ha parlato.\n{{delay20}}Il resto dipende da te{{string value=\"...\"}}{{delay8}} e da\n{{color id=\"3\"}}{{selection value=\"SelectedVillager\"}}{{color id=\"65535\"}}{{string value=\"...\"}}"
  },
  {
    "label": "222",
    "attribute": "0x00000000",
    "text": "Dunque{{string value=\"...\"}}{{delay8}} se lo desideri{{string value=\"...\"}}{{delay8}} potrei\nrecitare uno speciale incantesimo\nper l'amicizia{{string value=\"...\"}}\n{{anim id=\"Nodding\" target=\"actor\" targetSpec=\"\"}}È un difficile processo {{delay8}}che abbisogna\ndi molta energia{{delay8}}, quindi serve un\ncontributo adeguato{{string value=\"...\"}}"
  },
  {
    "label": "223",
    "attribute": "0x02000000",
    "text": "{{anim id=\"Silent\" target=\"actor\" targetSpec=\"\"}}Vediamo{{string value=\"...\"}}{{delay8}} Richiamare energie\nmistiche di tale potenza richiede{{string value=\"...\"}}\n{{color id=\"1\"}}10.000 stelline{{color id=\"65535\"}}. {{delay20}}Ti interessa?"
  },
  {
    "label": "223_a",
    "attribute": "0x00000000",
    "text": "{{anim id=\"Nodding\" target=\"player\" targetSpec=\"\"}}Sì, usa la tua magia!"
  },
  {
    "label": "223_b",
    "attribute": "0x00000000",
    "text": "No, grazie..."
  },
  {
    "label": "224",
    "attribute": "0x00000000",
    "text": "{{anim id=\"Nodding\" target=\"actor\" targetSpec=\"\"}}Vuoi percorrere la tua strada{{string value=\"...\"}}{{delay8}}\nsenza dipendere da nessuno.\n{{delay20}}È{{string value=\"...\"}}{{delay8}} un modo di fare le cose.\nLa sfera di cristallo ha parlato.\n{{delay20}}Il resto dipende da te{{string value=\"...\"}}{{delay8}} e da\n{{color id=\"3\"}}{{selection value=\"SelectedVillager\"}}{{color id=\"65535\"}}{{string value=\"...\"}} A presto!"
  },
  {
    "label": "225",
    "attribute": "0x00000000",
    "text": "{{anim id=\"Nodding\" target=\"actor\" targetSpec=\"\"}}Molto bene.{{delay20}} Questo rafforzerà la tua\namicizia con {{color id=\"3\"}}{{selection value=\"SelectedVillager\"}}{{color id=\"65535\"}}{{string value=\"...\"}}"
  },
  {
    "label": "226",
    "attribute": "0x00000000",
    "text": "Ecco fatto, {{delay8}}la sfera di cristallo\nha parlato.{{pageBreak}}Possano le sue parole {{delay8}}rafforzare la\ntua amicizia con {{color id=\"3\"}}{{selection value=\"SelectedVillager\"}}{{color id=\"65535\"}}{{string value=\"...\"}} {{delay20}}A presto!"
  },
  {
    "label": "301",
    "attribute": "0x00000000",
    "text": "Vieni di fronte a me se vuoi\nsapere cosa ti riserva il destino{{string value=\"...\"}}"
  },
  {
    "label": "401",
    "attribute": "0x00000000",
    "text": "Per oggi, il mio orario di ricevimento\nè terminato{{string value=\"...\"}} Ti prego di tornare\ndomani{{string value=\"...\"}}"
  }
]