﻿[
  {
    "label": "001",
    "attribute": "0x00000000",
    "text": "{{fun_0014003C arg=\"\"}}"
  },
  {
    "label": "001_01",
    "attribute": "0x00000000",
    "text": "{{anim id=\"Smiling\" target=\"actor\" targetSpec=\"\"}}Bedankt, hoor, voor je uitnodiging,\necht heel lief van je! We zijn hier met\nz'n allen!"
  },
  {
    "label": "002",
    "attribute": "0x00000000",
    "text": "{{fun_0014003C arg=\"\"}}"
  },
  {
    "label": "002_01",
    "attribute": "0x00000000",
    "text": "{{anim id=\"Shocked\" target=\"actor\" targetSpec=\"\"}}Aye-aye!{{delay20}} Alweer 'n uitnodiging!{{delay20}}{{anim id=\"Smiling\" target=\"actor\" targetSpec=\"\"}}\nNou, dan ga ik natuurlijk meteen\noverstag!"
  },
  {
    "label": "003",
    "attribute": "0x00000000",
    "text": "{{fun_0014003C arg=\"\"}}"
  },
  {
    "label": "003_01",
    "attribute": "0x00000000",
    "text": "{{anim id=\"Smiling\" target=\"actor\" targetSpec=\"\"}}Ik heb meteen de hele bemanning\nmaar in m'n kielzog meegenomen."
  },
  {
    "label": "101",
    "attribute": "0x00000000",
    "text": "{{fun_0014003C arg=\"\"}}"
  },
  {
    "label": "101_01",
    "attribute": "0x00000000",
    "text": "{{anim id=\"Nodding\" target=\"actor\" targetSpec=\"\"}}Dat dit eiland m'n man z'n thuis-\nhaven is!{{delay20}} {{anim id=\"Smiling\" target=\"actor\" targetSpec=\"\"}}Ik kan 't haast niet geloven!"
  },
  {
    "label": "101_02",
    "attribute": "0x00000000",
    "text": "{{anim id=\"Smiling\" target=\"actor\" targetSpec=\"\"}}Vraag ons gerust nog 's, als je 't niet\nerg vindt om met ons opgescheept te\nzitten, {{string value=\"PlayerName\"}}!"
  },
  {
    "label": "101_03",
    "attribute": "0x00000000",
    "text": "{{anim id=\"Smiling\" target=\"actor\" targetSpec=\"\"}}Aye, {{color id=\"3\"}}Kapp'n{{color id=\"65535\"}} had zoveel goeds verteld\nover De Til{{delay20}}! Blij dat ik die koffie nou\neindelijk zelf 's kan proberen!"
  },
  {
    "label": "101_04",
    "attribute": "0x00000000",
    "text": "{{anim id=\"Surprised\" target=\"actor\" targetSpec=\"\"}}Nou hoor ik dat ze hier ook koffie-\nbonen bij de vleet verkopen{{delay20}}{{anim id=\"Smiling\" target=\"actor\" targetSpec=\"\"}} om thuis\nzelf zo'n lekker bakkie te zetten!"
  },
  {
    "label": "101_05",
    "attribute": "0x00000000",
    "text": "{{anim id=\"Nodding\" target=\"actor\" targetSpec=\"\"}}Aye, ik kan niet wachten tot ik 't\neiland aan {{color id=\"3\"}}Leila {{color id=\"65535\"}}kan laten zien.{{delay20}}\nMaken we d'r 'n familie-uitje van!"
  }
]