﻿[
  {
    "label": "001",
    "attribute": "0x0000000000000000",
    "text": "{{fun_0014003C arg=\"\"}}"
  },
  {
    "label": "001_01",
    "attribute": "0x0000000000000000",
    "text": "Bugs are soooo tiny.{{delay20}} {{anim id=\"Negative\" target=\"actor\" targetSpec=\"\"}}But they\ndon't let that slow them down!{{pageBreak}}{{anim id=\"SmugFace\" target=\"actor\" targetSpec=\"\"}}{{delay20}}Bugs say, \"Hey, big world! I'm here,\ndoing my thing! Get out of my way!\nAnd also, {{anim id=\"Hesitate\" target=\"actor\" targetSpec=\"\"}}{{delay20}}please don't step on me!\"{{pageBreak}}{{anim id=\"HappyDance\" target=\"actor\" targetSpec=\"\"}}{{delay20}}You have to respect that\ninsect attitude!"
  },
  {
    "label": "001_02",
    "attribute": "0x0000000000000000",
    "text": "Bugs are so cool. {{anim id=\"QuestionMark\" target=\"actor\" targetSpec=\"\"}}{{delay20}}Did you know\nthere are more bugs in the world\nthan any other creature?{{anim id=\"EmotEnd\" target=\"actor\" targetSpec=\"\"}}{{anim id=\"Greeting\" target=\"actor\" targetSpec=\"\"}}\nSuper crazy, right? And also{{string value=\"...\"}}{{anim id=\"QuestionMark\" target=\"actor\" targetSpec=\"\"}}{{delay20}}\nwho counted all the bugs?{{delay20}}\nWhat a weird job."
  },
  {
    "label": "001_03",
    "attribute": "0x0000000000000000",
    "text": "{{anim id=\"Nodding\" target=\"actor\" targetSpec=\"\"}}The display cases are so big and the\nbugs look like they're having fun{{string value=\"...\"}}{{delay frames=\"60\"}}\n{{anim id=\"Laughing\" target=\"actor\" targetSpec=\"\"}}{{delay20}}It's a bug amusement park!"
  },
  {
    "label": "002",
    "attribute": "0x0000000000000000",
    "text": "{{fun_0014003C arg=\"\"}}"
  },
  {
    "label": "002_01",
    "attribute": "0x0000000000000000",
    "text": "{{anim id=\"Love\" target=\"actor\" targetSpec=\"\"}}{{delay20}}I could stare at bugs all day.{{i10_4}} {{anim id=\"Eh\" target=\"actor\" targetSpec=\"\"}}{{delay20}}Hang\non. {{delay20}}Are they staring at me too?\n{{anim id=\"BigSmile\" target=\"actor\" targetSpec=\"\"}}{{delay20}}I mean, I am pretty cute{{string value=\"...\"}}"
  },
  {
    "label": "002_02",
    "attribute": "0x0000000000000000",
    "text": "When I see these bugs, {{anim id=\"Scheming\" target=\"actor\" targetSpec=\"\"}}{{delay20}}I just want to\ngrab my net and—{{anim id=\"Eh\" target=\"actor\" targetSpec=\"\"}}{{delay20}} No!{{delay20}} {{anim id=\"Negative\" target=\"actor\" targetSpec=\"\"}}{{delay20}}I'm not doing\nthat in the {{color id=\"1\"}}museum{{color id=\"65535\"}}{{string value=\"...\"}}{{delay frames=\"80\"}} {{size value=\"75\"}}Again.{{size value=\"100\"}}"
  },
  {
    "label": "002_03",
    "attribute": "0x0000000000000000",
    "text": "{{anim id=\"Explain\" target=\"actor\" targetSpec=\"\"}}It's great watching the bugs and not\nworrying if they'll run away. {{delay20}}{{anim id=\"BigSmile\" target=\"actor\" targetSpec=\"\"}}{{delay20}}I do love\nthe thrill of the chase, though!"
  },
  {
    "label": "003",
    "attribute": "0x0000000000000000",
    "text": "{{fun_0014003C arg=\"\"}}"
  },
  {
    "label": "003_01",
    "attribute": "0x0000000000000000",
    "text": "{{anim id=\"Love\" target=\"actor\" targetSpec=\"\"}}It's so warm in here!{{delay frames=\"60\"}} I'm legit\nsnug as a bug!"
  },
  {
    "label": "003_02",
    "attribute": "0x0000000000000000",
    "text": "The butterflies keep staring at me\nlike they recognize my face{{string value=\"...\"}}{{delay20}}{{anim id=\"Eh\" target=\"actor\" targetSpec=\"\"}}{{delay frames=\"40\"}}{{anim id=\"Blushing\" target=\"actor\" targetSpec=\"\"}}{{delay20}} This\nmust be what it's like to be famous!"
  },
  {
    "label": "003_03",
    "attribute": "0x0000000000000000",
    "text": "{{anim id=\"Sleepy\" target=\"actor\" targetSpec=\"\"}}Yaaaaaawn{{string value=\"...\"}}{{delay40}} It's so warm and cozy{{string value=\"...\"}}{{delay40}}\nDon't the butterflies get sleepy too?"
  },
  {
    "label": "100",
    "attribute": "0x0000000000000000",
    "text": "{{fun_0014003C arg=\"\"}}"
  },
  {
    "label": "100_01",
    "attribute": "0x0000000000000000",
    "text": "{{anim id=\"Smiling\" target=\"actor\" targetSpec=\"\"}}The bugs here look so happy.{{delay20}} I could\nwatch them living their best bug lives\nall day long!"
  },
  {
    "label": "100_02",
    "attribute": "0x0000000000000000",
    "text": "{{anim id=\"Eh\" target=\"actor\" targetSpec=\"\"}}Hey! You like bugs too,\n{{string value=\"NickName\"}}? {{anim id=\"BigSmile\" target=\"actor\" targetSpec=\"\"}}{{delay20}}TWINSIES!{{pageBreak}}Yeah, the bugs on {{string value=\"OtherIslandName\"}}\nare le tops."
  },
  {
    "label": "100_03",
    "attribute": "0x0000000000000000",
    "text": "{{color id=\"3\"}}Blathers {{color id=\"65535\"}}makes sure we've got an\namazing museum so we can see\nall kinds of a cool bugs.{{pageBreak}}{{anim id=\"QuestionMark\" target=\"actor\" targetSpec=\"\"}}I wonder who catches the bugs for\nhim? {{anim id=\"WrySmile\" target=\"actor\" targetSpec=\"\"}}{{delay20}}Must be somebody pretty great."
  },
  {
    "label": "200",
    "attribute": "0x0000000000000000",
    "text": "{{fun_0014003C arg=\"\"}}"
  },
  {
    "label": "200_01",
    "attribute": "0x0000000000000000",
    "text": "{{anim id=\"Greeting\" target=\"actor\" targetSpec=\"\"}}Check out this juicy new {{color id=\"1\"}}museum{{color id=\"65535\"}},\n{{string value=\"NickName\"}}! It's so way big,\nI forgot I was indoors!{{pageBreak}}{{anim id=\"FaintSmile\" target=\"actor\" targetSpec=\"\"}}You can tell the bugs are full-on\nloving it too. {{delay20}}I think I even\nheard one singing!"
  },
  {
    "label": "200_02",
    "attribute": "0x0000000000000000",
    "text": "{{anim id=\"FaintSmile\" target=\"actor\" targetSpec=\"\"}}I'm super in the know when it comes\nto hot new things, so I'm here to\nput eyes on the new {{color id=\"1\"}}museum{{color id=\"65535\"}}!\n{{anim id=\"Eh\" target=\"actor\" targetSpec=\"\"}}Hang on! {{delay20}}What if, instead of calling it the \"{{color id=\"1\"}}museum{{color id=\"65535\"}},\" we called it the\n\"newseum\"? {{anim id=\"SmugFace\" target=\"actor\" targetSpec=\"\"}}{{delay20}}Huh? {{delay20}}Huh?{{pageBreak}}{{anim id=\"BigSmile\" target=\"actor\" targetSpec=\"\"}}Who's adorable to the max AND a\nmaster of branding? There's only\none answer! {{anim id=\"EmotEnd\" target=\"actor\" targetSpec=\"\"}}{{delay20}}{{capitalizeNextLetter}}{{string value=\"VillagerName\"}}!"
  },
  {
    "label": "200_03",
    "attribute": "0x0000000000000000",
    "text": "{{anim id=\"Explain\" target=\"actor\" targetSpec=\"\"}}{{capitalizeNextLetter}}{{string value=\"OtherIslandName\"}} used to be\ndeserted. Now it has a {{color id=\"1\"}}museum{{color id=\"65535\"}}!\n{{anim id=\"Laughing\" target=\"actor\" targetSpec=\"\"}}{{delay20}}Like, what?! That's so fab."
  }
]