﻿[
  {
    "label": "001",
    "attribute": "0x0000000000000000",
    "text": "{{fun_0014003C arg=\"\"}}"
  },
  {
    "label": "001_01",
    "attribute": "0x0000000000000000",
    "text": "{{anim id=\"Nodding\" target=\"actor\" targetSpec=\"\"}}This island totally relaxes me.{{delay40}}\n{{anim id=\"AbsentMindedness\" target=\"actor\" targetSpec=\"\"}}Maybe I, like, lived here in a\npast life?"
  },
  {
    "label": "001_02",
    "attribute": "0x0000000000000000",
    "text": "{{anim id=\"Hello\" target=\"actor\" targetSpec=\"\"}}Do you visit this island a lot?{{delay40}} It's\npretty fab, right? I've got to come\nhere more often, {{string value=\"Catchphrase\"}}."
  },
  {
    "label": "001_03",
    "attribute": "0x0000000000000000",
    "text": "{{anim id=\"ShyBoy\" target=\"actor\" targetSpec=\"\"}}To be all the way honest, I'm so in\nlove with this island {{anim id=\"Blushing\" target=\"actor\" targetSpec=\"\"}}I don't want\nto ever leave, {{string value=\"Catchphrase\"}}{{string value=\"...\"}}"
  },
  {
    "label": "002",
    "attribute": "0x0000000000000000",
    "text": "{{fun_0014003C arg=\"\"}}"
  },
  {
    "label": "002_01",
    "attribute": "0x0000000000000000",
    "text": "{{anim id=\"Nodding\" target=\"actor\" targetSpec=\"\"}}This island totally relaxes me.{{delay40}}\n{{anim id=\"AbsentMindedness\" target=\"actor\" targetSpec=\"\"}}Maybe I, like, lived here in a\npast life?"
  },
  {
    "label": "002_02",
    "attribute": "0x0000000000000000",
    "text": "{{anim id=\"Hello\" target=\"actor\" targetSpec=\"\"}}Do you visit this island a lot?{{delay40}} It's\npretty fab, right? I've got to come\nhere more often, {{string value=\"Catchphrase\"}}."
  },
  {
    "label": "002_03",
    "attribute": "0x0000000000000000",
    "text": "{{anim id=\"ShyBoy\" target=\"actor\" targetSpec=\"\"}}To be all the way honest, I'm so in\nlove with this island {{anim id=\"Blushing\" target=\"actor\" targetSpec=\"\"}}I don't want\nto ever leave, {{string value=\"Catchphrase\"}}{{string value=\"...\"}}"
  },
  {
    "label": "002_04",
    "attribute": "0x0000000000000000",
    "text": "{{anim id=\"Explain\" target=\"actor\" targetSpec=\"\"}}The old saying is true about diff\nkinds of air, you know? {{delay20}}Air really\nis très unique in different places.{{pageBreak}}And my voice box{{anim id=\"FaintSmile\" target=\"actor\" targetSpec=\"\"}} is mad loving\nthe {{string value=\"OtherIslandName\"}} air!{{pageBreak}}{{anim id=\"AbsentMindedness\" target=\"actor\" targetSpec=\"\"}}Maybe this air's exactly what I\nneed to jump-start my pop-star\ncareer, {{string value=\"Catchphrase\"}}?"
  },
  {
    "label": "002_05",
    "attribute": "0x0000000000000000",
    "text": "{{size value=\"75\"}}She is a lone figure, traveling the world in search\nof new food, new fashion, and new experiences{{string value=\"...\"}}{{i10_4}}\nHer name? {{anim id=\"Grin\" target=\"actor\" targetSpec=\"\"}}{{delay20}}{{capitalizeNextLetter}}{{string value=\"VillagerName\"}}!{{size value=\"100\"}}{{pageBreak}}{{anim id=\"Laughing\" target=\"actor\" targetSpec=\"\"}}{{delay20}}I'm practicing hosting a travel show.\n{{delay20}}{{anim id=\"EmotEnd\" target=\"actor\" targetSpec=\"\"}}Once I'm famous, I'll totes host all\nkinds of reality shows, {{string value=\"6\"}}!"
  },
  {
    "label": "003",
    "attribute": "0x0000000000000000",
    "text": "{{fun_0014003C arg=\"\"}}"
  },
  {
    "label": "003_01",
    "attribute": "0x0000000000000000",
    "text": "{{anim id=\"BigSmile\" target=\"actor\" targetSpec=\"\"}}Guess what?! {{delay20}}{{anim id=\"Smiling\" target=\"actor\" targetSpec=\"\"}}I'm moving to this\nisland!{{delay frames=\"40\"}} {{anim id=\"AbsentMindedness\" target=\"actor\" targetSpec=\"\"}}Ohmigosh, what if I came\nhere because of, like, fate?\n{{anim id=\"HappyDance\" target=\"actor\" targetSpec=\"\"}}Destiny wanted us to meet!{{delay frames=\"40\"}}\nOhmigosh, I'm all CHILLS\nright now, {{string value=\"6\"}}!"
  },
  {
    "label": "003_02",
    "attribute": "0x0000000000000000",
    "text": "{{anim id=\"Explain\" target=\"actor\" targetSpec=\"\"}}The old saying is true about diff\nkinds of air, you know? {{delay20}}Air really\nis très unique in different places.{{pageBreak}}And my voice box{{anim id=\"FaintSmile\" target=\"actor\" targetSpec=\"\"}} is mad loving\nthe {{string value=\"OtherIslandName\"}} air!{{pageBreak}}{{anim id=\"AbsentMindedness\" target=\"actor\" targetSpec=\"\"}}Maybe this air's exactly what I\nneed to jump-start my pop-star\ncareer, {{string value=\"Catchphrase\"}}?"
  },
  {
    "label": "003_03",
    "attribute": "0x0000000000000000",
    "text": "{{anim id=\"ShyBoy\" target=\"actor\" targetSpec=\"\"}}To be all the way honest, I'm so in\nlove with this island {{anim id=\"Blushing\" target=\"actor\" targetSpec=\"\"}}I don't want\nto ever leave, {{string value=\"Catchphrase\"}}{{string value=\"...\"}}"
  },
  {
    "label": "101",
    "attribute": "0x0000000000000000",
    "text": "{{fun_0014003C arg=\"\"}}"
  },
  {
    "label": "101_01",
    "attribute": "0x0000000000000000",
    "text": "{{anim id=\"Greeting\" target=\"actor\" targetSpec=\"\"}}{{delay20}}Hey! It's nice to meet you!\n{{delay20}}I'm {{string value=\"VillagerName\"}}! {{anim id=\"FaintSmile\" target=\"actor\" targetSpec=\"\"}}You live\non this island, right?{{pageBreak}}{{anim id=\"Nodding\" target=\"actor\" targetSpec=\"\"}}I'm camping here! Going to kick back\nand chill on {{string value=\"OtherIslandName\"}} for\na bit. {{delay20}}Let's hang out while I'm here!"
  },
  {
    "label": "101_02",
    "attribute": "0x0000000000000000",
    "text": "{{anim id=\"BigSmile\" target=\"actor\" targetSpec=\"\"}}{{delay20}}Hi there! {{delay20}}I'm {{string value=\"VillagerName\"}}!\nI'm here on a camping trip!{{anim id=\"Smiling\" target=\"actor\" targetSpec=\"\"}} You\nlive on this island? {{delay20}}{{anim id=\"Surprised\" target=\"actor\" targetSpec=\"\"}}Très cool.{{pageBreak}}It's legit fantastic here!{{delay20}} I'm going\nto be camping for a bit, so {{anim id=\"Greeting\" target=\"actor\" targetSpec=\"\"}}let's\nhang out, {{string value=\"6\"}}!"
  },
  {
    "label": "101_03",
    "attribute": "0x0000000000000000",
    "text": "{{anim id=\"Greeting\" target=\"actor\" targetSpec=\"\"}}Hi there! I'm {{string value=\"VillagerName\"}},\nand I'm totes camping on\nyour awesome island!{{anim id=\"FaintSmile\" target=\"actor\" targetSpec=\"\"}}{{pageBreak}}It's kind of random that I came over\nto {{string value=\"33\"}}, but I'm way\nglad I did!{{anim id=\"BigSmile\" target=\"actor\" targetSpec=\"\"}}{{delay20}} This place is the bomb!{{pageBreak}}{{anim id=\"FaintSmile\" target=\"actor\" targetSpec=\"\"}}I'm so jelly of everyone who lives\nhere full-time!{{delay40}} Let's hang out while\nI'm here, {{string value=\"6\"}}. It'll be fun!{{anim id=\"FaintSmile\" target=\"actor\" targetSpec=\"\"}}"
  },
  {
    "label": "201",
    "attribute": "0x0000000000000000",
    "text": "{{fun_0014003C arg=\"\"}}"
  },
  {
    "label": "201_01",
    "attribute": "0x0000000000000000",
    "text": "{{anim id=\"FaintSmile\" target=\"actor\" targetSpec=\"\"}}Hey!{{delay20}} {{anim id=\"Assent\" target=\"actor\" targetSpec=\"\"}}Your fave {{string value=\"VillagerRace\"}} is{{delay20}}{{string value=\"...\"}}{{anim id=\"EmotEnd\" target=\"actor\" targetSpec=\"\"}}{{delay20}}on the\nscene! {{anim id=\"Greeting\" target=\"actor\" targetSpec=\"\"}}Thanks for the invite!"
  },
  {
    "label": "201_02",
    "attribute": "0x0000000000000000",
    "text": "{{anim id=\"Greeting\" target=\"actor\" targetSpec=\"\"}}Hey!{{delay20}} Thanks for inviting me!{{delay40}} {{anim id=\"Blushing\" target=\"actor\" targetSpec=\"\"}}I was\nso excited, I just had to zip right\nover, {{string value=\"Catchphrase\"}}!"
  },
  {
    "label": "201_03",
    "attribute": "0x0000000000000000",
    "text": "{{anim id=\"Cheering\" target=\"actor\" targetSpec=\"\"}}Heeere I am!{{delay40}} Thanks sooo much {{anim id=\"Greeting\" target=\"actor\" targetSpec=\"\"}}for\ninviting me, {{string value=\"Catchphrase\"}}!"
  },
  {
    "label": "202",
    "attribute": "0x0000000000000000",
    "text": "{{fun_0014003C arg=\"\"}}"
  },
  {
    "label": "202_01",
    "attribute": "0x0000000000000000",
    "text": "{{anim id=\"Greeting\" target=\"actor\" targetSpec=\"\"}}It's {{string value=\"VillagerName\"}}! Celebrity in\nthe making! {{anim id=\"FaintSmile\" target=\"actor\" targetSpec=\"\"}}{{delay20}}{{capitalizeNextLetter}}{{selection value=\"SelectedName\"}} said\nto come hang!"
  },
  {
    "label": "202_02",
    "attribute": "0x0000000000000000",
    "text": "{{anim id=\"Greeting\" target=\"actor\" targetSpec=\"\"}}{{delay20}}{{capitalizeNextLetter}}{{selection value=\"SelectedName\"}}, one of my\nbesties, invited me to\ncome hang out!"
  },
  {
    "label": "202_03",
    "attribute": "0x0000000000000000",
    "text": "{{anim id=\"Greeting\" target=\"actor\" targetSpec=\"\"}}{{capitalizeNextLetter}}{{selection value=\"SelectedName\"}} said, \"Come on\nover!\" So, boom! Vacation!\nHi, {{string value=\"6\"}}!"
  },
  {
    "label": "301",
    "attribute": "0x0000000000000000",
    "text": "{{fun_0014003C arg=\"\"}}"
  },
  {
    "label": "301_01",
    "attribute": "0x0000000000000000",
    "text": "{{anim id=\"Explain\" target=\"actor\" targetSpec=\"\"}}{{delay20}}The air here on {{string value=\"33\"}}\nmeshes real well with me.{{delay40}}{{anim id=\"Love\" target=\"actor\" targetSpec=\"\"}}{{delay20}} For real.\nThis is great air, {{string value=\"Catchphrase\"}}."
  },
  {
    "label": "301_02",
    "attribute": "0x0000000000000000",
    "text": "{{anim id=\"AbsentMindedness\" target=\"actor\" targetSpec=\"\"}}{{delay20}}When it comes to being outdoors,\nI usually go glamping, because reg\ncamping isn't glam enough.{{pageBreak}}{{anim id=\"HappyDance\" target=\"actor\" targetSpec=\"\"}}{{delay20}}If my camp isn't glamp, then I usually\nrevamp my, um, plan{{string value=\"...\"}}{{anim id=\"Confused\" target=\"actor\" targetSpec=\"\"}}{{delay20}}p? {{i10_4}}Sorry,{{anim id=\"Laughing\" target=\"actor\" targetSpec=\"\"}}{{delay20}} I lost the rhyme there, {{string value=\"Catchphrase\"}}!"
  },
  {
    "label": "301_03",
    "attribute": "0x0000000000000000",
    "text": "{{anim id=\"Smiling\" target=\"actor\" targetSpec=\"\"}}Camping alone is so laid-back.{{delay40}}\nI can do whatever, whenever,\nyou know, {{string value=\"Catchphrase\"}}?"
  },
  {
    "label": "301_04",
    "attribute": "0x0000000000000000",
    "text": "Is there a word for when the same\nfood you eat at home tastes {{anim id=\"Pardon\" target=\"actor\" targetSpec=\"\"}}{{delay20}}waaay\nmore delish at a campsite?!{{pageBreak}}{{anim id=\"Thinking\" target=\"actor\" targetSpec=\"\"}}Camplicious?{{delay20}} Eatdoors?{{delay20}} Envirotasty?\n{{delay20}}{{anim id=\"EmotEnd\" target=\"actor\" targetSpec=\"\"}}Ha! No. {{anim id=\"BigSmile\" target=\"actor\" targetSpec=\"\"}}That one doesn't even make\nsense, {{string value=\"Catchphrase\"}}."
  },
  {
    "label": "301_05",
    "attribute": "0x0000000000000000",
    "text": "{{anim id=\"Smiling\" target=\"actor\" targetSpec=\"\"}}This island's vibe is fab-tast-ulous!\nI'm going to take a ton of selfies and\nmake a scrapbook out of them!"
  },
  {
    "label": "302",
    "attribute": "0x0000000000000000",
    "text": "{{fun_0014003C arg=\"\"}}"
  },
  {
    "label": "302_01",
    "attribute": "0x0000000000000000",
    "text": "{{anim id=\"Explain\" target=\"actor\" targetSpec=\"\"}}{{delay20}}The air here on {{string value=\"33\"}}\nmeshes real well with me.{{delay40}}{{anim id=\"Love\" target=\"actor\" targetSpec=\"\"}}{{delay20}} For real.\nThis is great air, {{string value=\"Catchphrase\"}}."
  },
  {
    "label": "302_02",
    "attribute": "0x0000000000000000",
    "text": "{{anim id=\"AbsentMindedness\" target=\"actor\" targetSpec=\"\"}}{{delay20}}When it comes to being outdoors,\nI usually go glamping, because reg\ncamping isn't glam enough.{{pageBreak}}{{anim id=\"HappyDance\" target=\"actor\" targetSpec=\"\"}}{{delay20}}If my camp isn't glamp, then I usually\nrevamp my, um, plan{{string value=\"...\"}}{{anim id=\"Confused\" target=\"actor\" targetSpec=\"\"}}{{delay20}}p? {{i10_4}}Sorry,{{anim id=\"Laughing\" target=\"actor\" targetSpec=\"\"}}{{delay20}} I lost the rhyme there, {{string value=\"Catchphrase\"}}!"
  },
  {
    "label": "302_03",
    "attribute": "0x0000000000000000",
    "text": "{{anim id=\"Smiling\" target=\"actor\" targetSpec=\"\"}}Camping alone is so laid-back.{{delay40}}\nI can do whatever, whenever,\nyou know, {{string value=\"Catchphrase\"}}?"
  },
  {
    "label": "401",
    "attribute": "0x0000000000000000",
    "text": "{{fun_0014003C arg=\"\"}}"
  },
  {
    "label": "401_01",
    "attribute": "0x0000000000000000",
    "text": "{{anim id=\"Smiling\" target=\"actor\" targetSpec=\"\"}}How should I, an aspiring soon-to-be\npop star, design my new home?{{pageBreak}}{{anim id=\"AbsentMindedness\" target=\"actor\" targetSpec=\"\"}}I def have to find a place to buy gold\nrecords so I can hang them up and\npractice having gold records around.{{pageBreak}}{{anim id=\"HappyDance\" target=\"actor\" targetSpec=\"\"}}And I'll build a stage on the roof!\n{{delay20}}And surround my house with garden\ngnomes to play my adoring fans!{{pageBreak}}Ohmigosh! I have way too many\nideas! I have to start writing\nthese down, {{string value=\"6\"}}."
  },
  {
    "label": "401_02",
    "attribute": "0x0000000000000000",
    "text": "{{anim id=\"FaintSmile\" target=\"actor\" targetSpec=\"\"}}When I move here, I'll have to check\nout the scene. {{delay20}}Which scene? Well{{string value=\"...\"}}\nThat's the question.{{pageBreak}}{{anim id=\"Explain\" target=\"actor\" targetSpec=\"\"}}I have to find the scene-scene.\nThen I'll know where the scene\nis and {{anim id=\"EmotEnd\" target=\"actor\" targetSpec=\"\"}}{{delay20}}I'll check it out!"
  },
  {
    "label": "401_03",
    "attribute": "0x0000000000000000",
    "text": "{{anim id=\"Smiling\" target=\"actor\" targetSpec=\"\"}}I want to make a bunch of friends\nand live it up on this island!{{pageBreak}}{{anim id=\"HappyDance\" target=\"actor\" targetSpec=\"\"}}Do you think there are peeps here\nwho are into pop stars or dancing?"
  },
  {
    "label": "402",
    "attribute": "0x0000000000000000",
    "text": "{{fun_0014003C arg=\"\"}}"
  },
  {
    "label": "402_01",
    "attribute": "0x0000000000000000",
    "text": "{{anim id=\"WrySmile\" target=\"actor\" targetSpec=\"\"}}Want to hear some BIG-O news?{{i10_4}}\n{{anim id=\"Greeting\" target=\"actor\" targetSpec=\"\"}}I'm{{delay20}}{{anim id=\"BigSmile\" target=\"actor\" targetSpec=\"\"}} going to be living on this island!{{pageBreak}}{{anim id=\"Explain\" target=\"actor\" targetSpec=\"\"}}{{delay20}}{{capitalizeNextLetter}}{{selection value=\"SelectedName\"}} invited me, and\n{{string value=\"OtherIslandName\"}} is pretty neat,{{anim id=\"Clapping\" target=\"actor\" targetSpec=\"\"}}{{delay20}}\nso I shouted YES, {{string value=\"6\"}}!"
  },
  {
    "label": "402_02",
    "attribute": "0x0000000000000000",
    "text": "{{anim id=\"Smiling\" target=\"actor\" targetSpec=\"\"}}{{delay20}}Guess what?! I'm going to be living\non this island! Full-time! {{anim id=\"BigSmile\" target=\"actor\" targetSpec=\"\"}}HA!{{delay20}}\nAre you surprised?{{pageBreak}}{{anim id=\"Explain\" target=\"actor\" targetSpec=\"\"}}{{capitalizeNextLetter}}{{selection value=\"SelectedName\"}} invited me\nand I went for it!{{pageBreak}}{{anim id=\"HappyDance\" target=\"actor\" targetSpec=\"\"}}{{delay20}}I'm sooo psyched to part of the celeb\nlife of {{string value=\"OtherIslandName\"}}! {{delay20}}This is\ngoing to be fabtaculicious!"
  },
  {
    "label": "402_03",
    "attribute": "0x0000000000000000",
    "text": "Ohmigosh, {{anim id=\"Pardon\" target=\"actor\" targetSpec=\"\"}}guess what!{{delay40}}\n{{anim id=\"Explain\" target=\"actor\" targetSpec=\"\"}}{{capitalizeNextLetter}}{{selection value=\"SelectedName\"}} invited me\nto come live on this island!\n{{anim id=\"Hello\" target=\"actor\" targetSpec=\"\"}}Mondo news, right?{{delay40}} I can't wait to\nget to know everybody!"
  },
  {
    "label": "403",
    "attribute": "0x0000000000000000",
    "text": "{{fun_0014003C arg=\"\"}}"
  },
  {
    "label": "403_01",
    "attribute": "0x0000000000000000",
    "text": "Hey, want to hear some hot news?{{delay40}}\nGet this{{string value=\"...\"}}{{i10_4}}{{anim id=\"EmotEnd\" target=\"actor\" targetSpec=\"\"}}{{anim id=\"BigSmile\" target=\"actor\" targetSpec=\"\"}} I'm going to be living on\nthis super amazing island!"
  },
  {
    "label": "403_02",
    "attribute": "0x0000000000000000",
    "text": "Sooo {{delay20}}{{anim id=\"Smiling\" target=\"actor\" targetSpec=\"\"}}{{delay20}}guess what? {{delay frames=\"40\"}}I'm going to be\nyour new neighbor!{{delay frames=\"40\"}} Now when you\nsee me, you can be all{{string value=\"...\"}}{{pageBreak}}\"It's my famous neighbor!\" {{delay frames=\"40\"}}{{anim id=\"Explain\" target=\"actor\" targetSpec=\"\"}}Practice\nsaying that, 'K? Some folks can get\ntongue-tied when they see celebs."
  },
  {
    "label": "403_03",
    "attribute": "0x0000000000000000",
    "text": "Ohmigosh, {{anim id=\"Pardon\" target=\"actor\" targetSpec=\"\"}}guess what!{{delay40}} I decided to\nmove to {{string value=\"OtherIslandName\"}}!{{delay frames=\"40\"}}\n{{anim id=\"Smiling\" target=\"actor\" targetSpec=\"\"}}Hi, new neighbor!"
  },
  {
    "label": "501_01",
    "attribute": "0x0000010000000000",
    "text": "{{anim id=\"AbsentMindedness\" target=\"actor\" targetSpec=\"\"}}Personally?{{delay20}} This island is definitely\nthe best island I've ever seen, or\nheard of, or imagined, or been to.{{pageBreak}}{{anim id=\"Hesitate\" target=\"actor\" targetSpec=\"\"}}I don't want to oversell it, you know.\nI can do that sometimes.{{pageBreak}}{{anim id=\"Smiling\" target=\"actor\" targetSpec=\"\"}}But I feel like my life would be WAY\nglam if I lived on an island like this!"
  },
  {
    "label": "501_01_a",
    "attribute": "0x0000000000000000",
    "text": "Glam it up here!"
  },
  {
    "label": "501_01_b",
    "attribute": "0x0000000000000000",
    "text": "Have a safe trip home."
  },
  {
    "label": "501_02",
    "attribute": "0x0000010000000000",
    "text": "{{anim id=\"SadSpiral\" target=\"actor\" targetSpec=\"\"}}Bluuuurgh{{string value=\"...\"}}{{delay40}} Camping here is so fun,\nI don't want to go home!{{pageBreak}}But, like they say, \"Home is where\nyour stuff is.\" {{delay20}}Too bad my stuff\nisn't here, {{string value=\"6\"}}.{{anim id=\"EmotEnd\" target=\"actor\" targetSpec=\"\"}}"
  },
  {
    "label": "501_02_a",
    "attribute": "0x0000000000000000",
    "text": "You could move here!"
  },
  {
    "label": "501_02_b",
    "attribute": "0x0000000000000000",
    "text": "I'll be seeing ya."
  },
  {
    "label": "501_03",
    "attribute": "0x0000010000000000",
    "text": "{{anim id=\"Explain\" target=\"actor\" targetSpec=\"\"}}The scenery and vibe and general\noverall fab-osity of this island speak\nto me so loud I can barely stand it.{{pageBreak}}{{anim id=\"Love\" target=\"actor\" targetSpec=\"\"}}I could stay on {{string value=\"OtherIslandName\"}}\nforever and be so happy{{string value=\"...\"}}"
  },
  {
    "label": "501_03_a",
    "attribute": "0x0000000000000000",
    "text": "Why not stay?"
  },
  {
    "label": "501_03_b",
    "attribute": "0x0000000000000000",
    "text": "Well, good luck."
  },
  {
    "label": "502_01",
    "attribute": "0x0000000000000000",
    "text": "{{anim id=\"Nodding\" target=\"actor\" targetSpec=\"\"}}I will, thanks. {{anim id=\"ShyBoy\" target=\"actor\" targetSpec=\"\"}}{{delay20}}Well, it's going to be\ntotes sad to leave, but I've made a\nbunch of good memories!{{pageBreak}}{{anim id=\"Blushing\" target=\"actor\" targetSpec=\"\"}}{{delay20}}I'm glad I came here!"
  },
  {
    "label": "502_02",
    "attribute": "0x0000000000000000",
    "text": "{{anim id=\"Smiling\" target=\"actor\" targetSpec=\"\"}}See you later! I'm going tell my\nfriends all about {{string value=\"OtherIslandName\"}}\nonce I'm home, {{string value=\"6\"}}!"
  },
  {
    "label": "502_03",
    "attribute": "0x0000000000000000",
    "text": "{{anim id=\"Serious\" target=\"actor\" targetSpec=\"\"}}{{delay20}}I should think about writing a song\nabout my time here!{{pageBreak}}{{anim id=\"HappyDance\" target=\"actor\" targetSpec=\"\"}}{{delay20}}I'm glad I came to {{string value=\"OtherIslandName\"}}\neven if I didn't get to stay very long.\n{{anim id=\"Greeting\" target=\"actor\" targetSpec=\"\"}}Thanks for everything, {{string value=\"6\"}}!"
  },
  {
    "label": "601_01",
    "attribute": "0x0000010000000000",
    "text": "{{anim id=\"Blushing\" target=\"actor\" targetSpec=\"\"}}I can't believe this sweet souvenir\nwas made just for me. {{delay20}}{{anim id=\"Smiling\" target=\"actor\" targetSpec=\"\"}}{{delay20}}The folks on\n{{string value=\"IslandName\"}} are beyond fab!{{pageBreak}}I bet every day would be le bonkers\nif I lived here, {{string value=\"6\"}}."
  },
  {
    "label": "601_01_a",
    "attribute": "0x0000000000000000",
    "text": "Why not move here?"
  },
  {
    "label": "601_01_b",
    "attribute": "0x0000000000000000",
    "text": "It's a nice dream."
  },
  {
    "label": "601_02",
    "attribute": "0x0000010000000000",
    "text": "I never thought I'd take a vacation\nand be given such fab souvenirs{{string value=\"...\"}}{{anim id=\"QuestionMark\" target=\"actor\" targetSpec=\"\"}}\n{{delay20}}Actually, who WOULD think that?{{pageBreak}}Anyhoo,{{anim id=\"Love\" target=\"actor\" targetSpec=\"\"}} {{string value=\"IslandName\"}} is the\nbest! {{delay20}}I want to have friends as\nsuper nice as everyone here is{{string value=\"...\"}}"
  },
  {
    "label": "601_02_a",
    "attribute": "0x0000000000000000",
    "text": "Stay with us!"
  },
  {
    "label": "601_02_b",
    "attribute": "0x0000000000000000",
    "text": "We'll still be friends."
  },
  {
    "label": "601_03",
    "attribute": "0x0000010000000000",
    "text": "{{anim id=\"FaintSmile\" target=\"actor\" targetSpec=\"\"}}I have this fab souvenir to always\nremember {{string value=\"34\"}} and\nhow sweet everyone here is!{{pageBreak}}{{anim id=\"ShyBoy\" target=\"actor\" targetSpec=\"\"}}But I don't want to go home and\nremember, {{string value=\"6\"}}. I wish\nI could stay here for always."
  },
  {
    "label": "601_03_a",
    "attribute": "0x0000000000000000",
    "text": "Why not live here?"
  },
  {
    "label": "601_03_b",
    "attribute": "0x0000000000000000",
    "text": "Have a good flight."
  },
  {
    "label": "602_01",
    "attribute": "0x0000000000000000",
    "text": "{{anim id=\"FaintSmile\" target=\"actor\" targetSpec=\"\"}}Yeah. I just have to remind myself\nthat my home island is totally as\nchic as {{string value=\"IslandName\"}} is."
  },
  {
    "label": "602_02",
    "attribute": "0x0000000000000000",
    "text": "{{anim id=\"Smiling\" target=\"actor\" targetSpec=\"\"}}That's right! We may live on different\nislands, but I'll never forget my time\nhere, {{string value=\"6\"}}!"
  },
  {
    "label": "602_03",
    "attribute": "0x0000000000000000",
    "text": "{{anim id=\"FaintSmile\" target=\"actor\" targetSpec=\"\"}}I will. I hope I come back someday.{{delay20}}\nMaybe on a tour promoting my\nnew album, {{string value=\"6\"}}!"
  }
]