﻿[
  {
    "label": "001",
    "attribute": "0x00000B0000000000",
    "text": "{{anim id=\"IdeaBulb\" target=\"actor\" targetSpec=\"\"}}{{delay20}}This gives me an idea for a\nlittle game!{{pageBreak}}{{anim id=\"HappyDance\" target=\"actor\" targetSpec=\"\"}}Whaddaya think's in the box you\nbrought me? {{delay frames=\"40\"}}{{anim id=\"Smiling\" target=\"actor\" targetSpec=\"\"}}Guess right and you'll\nwin a prize, {{string value=\"Catchphrase\"}}!"
  },
  {
    "label": "002",
    "attribute": "0x0000000000000000",
    "text": "{{anim id=\"Pardon\" target=\"actor\" targetSpec=\"\"}}{{capitalizeNextLetter}}{{fun_00000082 arg=\"0x00CD\"}}? You sure about that?{{delay frames=\"40\"}}\n{{anim id=\"Grin\" target=\"actor\" targetSpec=\"\"}}Then let's open 'er up and find out\nif you're right!"
  },
  {
    "label": "003",
    "attribute": "0x0000000000000000",
    "text": "{{anim id=\"Aha\" target=\"actor\" targetSpec=\"\"}}Aaaaand{{string value=\"...\"}}{{delay frames=\"40\"}}it's {{wordArticle}}{{fun_00000082 arg=\"0x01CD\"}}!{{delay frames=\"40\"}}\n{{anim id=\"FaintSmile\" target=\"actor\" targetSpec=\"\"}}Oh yeah, that thing.{{pageBreak}}{{anim id=\"HappyDance\" target=\"actor\" targetSpec=\"\"}}Great guess! {{delay20}}And nope, I didn't\nforget about the prize I promised.{{delay frames=\"40\"}}\n{{anim id=\"Nodding\" target=\"actor\" targetSpec=\"\"}}Here you go!"
  },
  {
    "label": "004",
    "attribute": "0x0000000000000000",
    "text": "{{anim id=\"Aha\" target=\"actor\" targetSpec=\"\"}}Aaaaand{{string value=\"...\"}}{{delay frames=\"40\"}}it's {{wordArticle}}{{fun_00000082 arg=\"0x01CD\"}}.{{delay frames=\"40\"}}\n{{anim id=\"ColdChill\" target=\"actor\" targetSpec=\"\"}}You swung{{string value=\"...\"}}{{delay20}}and you missed."
  },
  {
    "label": "005",
    "attribute": "0x0000000000000000",
    "text": "{{anim id=\"ShyBoy\" target=\"actor\" targetSpec=\"\"}}I know, I know. {{delay20}}I JUST got my\n{{fun_0000007D arg=\"0x0000\"}} back{{string value=\"...\"}}{{delay20}}\n{{anim id=\"FaintSmile\" target=\"actor\" targetSpec=\"\"}}but I think you oughta have it!"
  },
  {
    "label": "006",
    "attribute": "0x0000000000000000",
    "text": "{{anim id=\"ShyBoy\" target=\"actor\" targetSpec=\"\"}}Eh{{string value=\"...\"}}{{delay20}}it's been so long since I had my\n{{fun_0000007D arg=\"0x0000\"}} that you\nmight as well keep it."
  },
  {
    "label": "007",
    "attribute": "0x0000000000000000",
    "text": "{{anim id=\"Serious\" target=\"actor\" targetSpec=\"\"}}I'd kinda written off getting my\n{{fun_0000007D arg=\"0x0000\"}}. {{delay frames=\"40\"}}{{anim id=\"HappyDance\" target=\"actor\" targetSpec=\"\"}}So I\ndon't mind if you keep it!"
  },
  {
    "label": "008",
    "attribute": "0x0000000000000000",
    "text": "{{anim id=\"FaintSmile\" target=\"actor\" targetSpec=\"\"}}Thanks for the delivery, buddy!{{delay20}} Looks\nlike it worked out OK for you.{{delay20}} {{anim id=\"EmotEnd\" target=\"actor\" targetSpec=\"\"}}Tell\n{{selection value=\"SelectedVillager\"}} I said thanks!"
  },
  {
    "label": "009",
    "attribute": "0x0000000000000000",
    "text": "{{anim id=\"ShyBoy\" target=\"actor\" targetSpec=\"\"}}Hey, so what if you didn't guess\nright? {{delay20}}I appreciate the delivery\nall the same, {{string value=\"Catchphrase\"}}!{{pageBreak}}{{anim id=\"FaintSmile\" target=\"actor\" targetSpec=\"\"}}Let {{selection value=\"SelectedVillager\"}} know I said\nthanks, will you?"
  },
  {
    "label": "101",
    "attribute": "0x0000000000000000",
    "text": "{{anim id=\"FaintSmile\" target=\"actor\" targetSpec=\"\"}}Thanks for bringin' it by. {{delay frames=\"40\"}}{{anim id=\"Laughing\" target=\"actor\" targetSpec=\"\"}}Don't\nworry,{{delay20}} I ain't gonna forget to tip\nmy courier!"
  },
  {
    "label": "102",
    "attribute": "0x0000000000000000",
    "text": "{{capitalizeNextLetter}}{{string value=\"NickName\"}}{{string value=\"...\"}}{{delay20}}{{anim id=\"ShyBoy\" target=\"actor\" targetSpec=\"\"}}you rock for\nhelpin' us get through\nthis rough patch.{{pageBreak}}{{anim id=\"FaintSmile\" target=\"actor\" targetSpec=\"\"}}I think me and {{selection value=\"SelectedVillager\"}}'ll\nbe OK. {{delay frames=\"40\"}}{{anim id=\"BigSmile\" target=\"actor\" targetSpec=\"\"}}But you deserve\nsomethin' for what you did!"
  },
  {
    "label": "103",
    "attribute": "0x0000000000000000",
    "text": "{{anim id=\"Nodding\" target=\"actor\" targetSpec=\"\"}}I bet you wouldn't turn down a photo\nof me, eh?{{delay frames=\"40\"}} {{anim id=\"Serious\" target=\"actor\" targetSpec=\"\"}}{{size value=\"75\"}}Not to my face, anyway{{string value=\"...\"}}{{delay frames=\"60\"}} {{size value=\"100\"}}{{anim id=\"SmugFace\" target=\"actor\" targetSpec=\"\"}}It's all\nyours, {{string value=\"Catchphrase\"}}!"
  },
  {
    "label": "104",
    "attribute": "0x0000000000000000",
    "text": "{{anim id=\"SmugFace\" target=\"actor\" targetSpec=\"\"}}I dunno whether you'd want {{wordArticle}}\n{{fun_0004007D arg=\"0x0000\"}} or not,{{delay frames=\"40\"}}\n{{anim id=\"FaintSmile\" target=\"actor\" targetSpec=\"\"}}but that's what you're gettin'!"
  },
  {
    "label": "105",
    "attribute": "0x0000000000000000",
    "text": "{{anim id=\"SmugFace\" target=\"actor\" targetSpec=\"\"}}I bet you'd look snazzy as all get out\nin {{wordArticle}}{{fun_0004007D arg=\"0x0000\"}}.{{delay frames=\"40\"}}\n{{anim id=\"FaintSmile\" target=\"actor\" targetSpec=\"\"}}Try it on, {{string value=\"Catchphrase\"}}!"
  },
  {
    "label": "106",
    "attribute": "0x0000000000000000",
    "text": "{{anim id=\"SmugFace\" target=\"actor\" targetSpec=\"\"}}I bet you're starved after all that\nrunnin' around. {{delay frames=\"40\"}}{{anim id=\"FaintSmile\" target=\"actor\" targetSpec=\"\"}}Here, you can have\n{{wordArticle}}{{fun_0004007D arg=\"0x0000\"}}."
  },
  {
    "label": "107",
    "attribute": "0x0000000000000000",
    "text": "{{anim id=\"IdeaBulb\" target=\"actor\" targetSpec=\"\"}}{{delay20}}Can't forget your tip! {{delay frames=\"60\"}}{{anim id=\"FaintSmile\" target=\"actor\" targetSpec=\"\"}}What kinda\njerk would I be if I didn't leave a li'l\nsomethin' for the courier?"
  },
  {
    "label": "108",
    "attribute": "0x0000000000000000",
    "text": "{{anim id=\"HappyFlower\" target=\"actor\" targetSpec=\"\"}}Thanks for playin' peacemaker for\nme and {{selection value=\"SelectedVillager\"}}!{{delay frames=\"40\"}} {{anim id=\"Nodding\" target=\"actor\" targetSpec=\"\"}}This\nis for your trouble."
  },
  {
    "label": "109",
    "attribute": "0x0000000000000000",
    "text": "{{anim id=\"Smiling\" target=\"actor\" targetSpec=\"\"}}Here, {{delay20}}you can have the\n{{fun_0004007D arg=\"0x0000\"}} I put\non this morning."
  },
  {
    "label": "110",
    "attribute": "0x0000000000000000",
    "text": "{{anim id=\"ShyBoy\" target=\"actor\" targetSpec=\"\"}}Sorry for the hand-me-down{{string value=\"...\"}}{{delay20}}but it's\ncool. {{delay frames=\"40\"}}{{anim id=\"BigSmile\" target=\"actor\" targetSpec=\"\"}}All the grease stains should be\nwashed outta that one!"
  },
  {
    "label": "111",
    "attribute": "0x0000000000000000",
    "text": "{{anim id=\"Smiling\" target=\"actor\" targetSpec=\"\"}}I figured you might want {{wordArticle}}\n{{fun_0004007D arg=\"0x0000\"}}, {{delay20}}so\nthat's what I got you, {{string value=\"Catchphrase\"}}!"
  },
  {
    "label": "112",
    "attribute": "0x0000000000000000",
    "text": "{{anim id=\"ShyBoy\" target=\"actor\" targetSpec=\"\"}}At least, that's the best thing\nI could think of. {{delay20}}And thinkin's\nwhat counts, {{string value=\"Catchphrase\"}}!"
  },
  {
    "label": "201",
    "attribute": "0x0000000000000000",
    "text": "{{anim id=\"Aha\" target=\"actor\" targetSpec=\"\"}}Oh, my {{fun_0000007D arg=\"0x0000\"}}!{{delay frames=\"40\"}}\n{{anim id=\"EmotEnd\" target=\"actor\" targetSpec=\"\"}}Wasn't {{selection value=\"SelectedVillager\"}}\nborrowin' this?"
  },
  {
    "label": "202",
    "attribute": "0x0000000000000000",
    "text": "{{anim id=\"QuestionMark\" target=\"actor\" targetSpec=\"\"}}My {{fun_0000007D arg=\"0x0000\"}}?{{pageBreak}}{{anim id=\"Aha\" target=\"actor\" targetSpec=\"\"}}That's been at {{selection value=\"SelectedVillager\"}}'s\nplace all this time?!"
  },
  {
    "label": "203",
    "attribute": "0x0000010000000000",
    "text": "{{anim id=\"Shocked\" target=\"actor\" targetSpec=\"\"}}It's the {{fun_0000007D arg=\"0x0000\"}}\nI ordered!{{pageBreak}}{{anim id=\"EmotEnd\" target=\"actor\" targetSpec=\"\"}}Did they slip up and send it to\n{{selection value=\"SelectedVillager\"}} instead?{{pageBreak}}{{anim id=\"QuestionMark\" target=\"actor\" targetSpec=\"\"}}Actually, a better question is{{string value=\"...\"}}{{delay20}}how\ncome it's open, {{string value=\"Catchphrase\"}}?"
  },
  {
    "label": "203_a",
    "attribute": "0x0000000000000000",
    "text": "I, uh...opened it..."
  },
  {
    "label": "203_b",
    "attribute": "0x0000000000000000",
    "text": "Great question!"
  },
  {
    "label": "204",
    "attribute": "0x0000000000000000",
    "text": "{{anim id=\"Aha\" target=\"actor\" targetSpec=\"\"}}This is from {{selection value=\"SelectedVillager\"}}?{{delay frames=\"40\"}}\n{{anim id=\"HappyDance\" target=\"actor\" targetSpec=\"\"}}How'd {{gender3 m=\"he\" f=\"she\"}} know I wanted {{wordArticle}}\n{{fun_0000007D arg=\"0x0000\"}}?!"
  },
  {
    "label": "205",
    "attribute": "0x0000000000000000",
    "text": "{{anim id=\"Shocked\" target=\"actor\" targetSpec=\"\"}}{{capitalizeNextLetter}}{{wordArticle}}{{fun_0000007D arg=\"0x0000\"}}?!{{delay20}}\n{{anim id=\"Nodding\" target=\"actor\" targetSpec=\"\"}}Wow. {{delay20}}If {{selection value=\"SelectedVillager\"}} is out to\napologize, then what a start!"
  },
  {
    "label": "206",
    "attribute": "0x0000000000000000",
    "text": "{{anim id=\"Smiling\" target=\"actor\" targetSpec=\"\"}}I dunno how you got involved here\nexactly, {{delay20}}but thanks for bringin' it\nback, {{string value=\"NickName\"}}."
  },
  {
    "label": "207",
    "attribute": "0x0000000000000000",
    "text": "{{anim id=\"WrySmile\" target=\"actor\" targetSpec=\"\"}}I figured that thing was gone\nfor good. {{delay frames=\"40\"}}{{anim id=\"FaintSmile\" target=\"actor\" targetSpec=\"\"}}Thanks for provin'\notherwise, {{string value=\"Catchphrase\"}}!"
  },
  {
    "label": "208",
    "attribute": "0x0000000000000000",
    "text": "{{anim id=\"Sighing\" target=\"actor\" targetSpec=\"\"}}Well, {{delay20}}I can't say I usually look at the\nlabel on stuff that gets delivered to\nme before tearin' it open.{{pageBreak}}{{anim id=\"WrySmile\" target=\"actor\" targetSpec=\"\"}}I can't blame {{selection value=\"SelectedVillager\"}} for\nbein' a little eager{{string value=\"...\"}}{{delay frames=\"40\"}} {{anim id=\"FaintSmile\" target=\"actor\" targetSpec=\"\"}}Thanks\nfor gettin' it to me!"
  },
  {
    "label": "209",
    "attribute": "0x0000000000000000",
    "text": "{{anim id=\"Smiling\" target=\"actor\" targetSpec=\"\"}}Thanks for the special delivery!"
  },
  {
    "label": "210",
    "attribute": "0x0000000000000000",
    "text": "{{anim id=\"WrySmile\" target=\"actor\" targetSpec=\"\"}}Sorry you got roped into handling\nthis, but I appreciate you lookin'\nout for us.{{pageBreak}}{{anim id=\"EmotEnd\" target=\"actor\" targetSpec=\"\"}}I'd better go make up with\n{{selection value=\"SelectedVillager\"}}, huh? {{delay20}}{{anim id=\"Assent\" target=\"actor\" targetSpec=\"\"}}See you\naround, {{string value=\"Catchphrase\"}}!"
  },
  {
    "label": "220",
    "attribute": "0x0000020000000000",
    "text": "{{anim id=\"WrySmile\" target=\"actor\" targetSpec=\"\"}}Guess {{gender8 m=\"he\" f=\"she\" n=\"\"}} didn't feel like wrappin' it\nup first. {{delay20}}{{anim id=\"EmotEnd\" target=\"actor\" targetSpec=\"\"}}Not sayin' I'm perfect on\nthat score{{string value=\"...\"}}{{delay20}}{{anim id=\"QuestionMark\" target=\"actor\" targetSpec=\"\"}}but ain't that weird?"
  },
  {
    "label": "220_a",
    "attribute": "0x0000000000000000",
    "text": "{{anim id=\"EmotEnd\" target=\"player\" targetSpec=\"\"}}So, about that..."
  },
  {
    "label": "220_b",
    "attribute": "0x0000000000000000",
    "text": "{{anim id=\"EmotEnd\" target=\"player\" targetSpec=\"\"}}Uh, yeah. Weird!"
  },
  {
    "label": "221",
    "attribute": "0x0000000000000000",
    "text": "{{anim id=\"Surprised\" target=\"actor\" targetSpec=\"\"}}You serious?! {{delay20}}Huh. {{delay20}}Well, that\nexplains that.{{pageBreak}}{{anim id=\"WrySmile\" target=\"actor\" targetSpec=\"\"}}Credit for bein' straight with me,\nat least. {{delay20}}That can be tough to admit."
  },
  {
    "label": "222",
    "attribute": "0x0000000000000000",
    "text": "{{anim id=\"Silent\" target=\"actor\" targetSpec=\"\"}}But listen. {{delay20}}You and me both know\nthat wasn't cool. {{delay20}}{{anim id=\"Nodding\" target=\"actor\" targetSpec=\"\"}}Don't lemme catch\nyou doin' it again, you get me?"
  },
  {
    "label": "223",
    "attribute": "0x0000000000000000",
    "text": "Well{{string value=\"...\"}}{{delay20}}{{anim id=\"Explain\" target=\"actor\" targetSpec=\"\"}}you did make the delivery, and\nI hate leavin' you empty-handed,\n{{delay20}}even if you were nosy about it."
  },
  {
    "label": "224",
    "attribute": "0x0000000000000000",
    "text": "Alright, {{delay20}}so here's {{wordArticle}}\n{{fun_0004007D arg=\"0x0000\"}}.{{pageBreak}}{{anim id=\"Angry\" target=\"actor\" targetSpec=\"\"}}But if I catch you openin' anyone\nelse's packages, there's gonna be\ntrouble! {{delay20}}{{anim id=\"FaintSmile\" target=\"actor\" targetSpec=\"\"}}Got it, {{string value=\"Catchphrase\"}}?"
  },
  {
    "label": "225",
    "attribute": "0x0000000000000000",
    "text": "{{anim id=\"Eh\" target=\"actor\" targetSpec=\"\"}}Yeah, what's up? {{delay frames=\"40\"}}{{anim id=\"EmotEnd\" target=\"actor\" targetSpec=\"\"}}You know what I'm\ntalkin' about, right? {{delay20}}Presentation\nmatters, {{string value=\"Catchphrase\"}}!{{pageBreak}}{{anim id=\"FaintSmile\" target=\"actor\" targetSpec=\"\"}}But it ain't the end of the world.\nAt least I got my stuff back.{{delay20}} Thanks!"
  },
  {
    "label": "226",
    "attribute": "0x0000000000000000",
    "text": "{{anim id=\"Eh\" target=\"actor\" targetSpec=\"\"}}You're tellin' me! {{delay frames=\"40\"}}{{anim id=\"EmotEnd\" target=\"actor\" targetSpec=\"\"}}I ain't gonna judge\na package by its wrapping, but that\ndoesn't mean it should come bare!{{pageBreak}}{{anim id=\"FaintSmile\" target=\"actor\" targetSpec=\"\"}}Well, {{delay20}}no big, I guess. {{delay20}}Thanks for\ncarryin' it out to me, {{string value=\"Catchphrase\"}}!"
  },
  {
    "label": "227",
    "attribute": "0x0000000000000000",
    "text": "{{anim id=\"Eh\" target=\"actor\" targetSpec=\"\"}}Weird is right! {{delay frames=\"40\"}}{{anim id=\"EmotEnd\" target=\"actor\" targetSpec=\"\"}}Tearin' apart gift\nwrapping is one of the only ways left\nfor me to go crazy on somethin'!{{pageBreak}}But it's cool. {{delay20}}{{anim id=\"FaintSmile\" target=\"actor\" targetSpec=\"\"}}Thanks for doin'\nyour part and gettin' it to me\nsafe, {{string value=\"Catchphrase\"}}!"
  },
  {
    "label": "228",
    "attribute": "0x0000000000000000",
    "text": "{{anim id=\"Eh\" target=\"actor\" targetSpec=\"\"}}No kiddin', it's weird. {{delay20}}You'd think\n{{gender8 m=\"he\" f=\"she\" n=\"\"}}'d be worried {{gender8 m=\"his\" f=\"her\" n=\"\"}} apology would\nbe off to a bad start!{{pageBreak}}But I ain't too mad. {{delay20}}{{anim id=\"FaintSmile\" target=\"actor\" targetSpec=\"\"}}Besides, that's\nbetween me and {{gender8 m=\"his\" f=\"her\" n=\"\"}}. {{delay20}}You did a bang-\nup job with your part, {{string value=\"Catchphrase\"}}!"
  },
  {
    "label": "230",
    "attribute": "0x0000000000000000",
    "text": "{{anim id=\"Surprised\" target=\"actor\" targetSpec=\"\"}}Yo, WHAT?! {{delay frames=\"40\"}}{{anim id=\"Frantic\" target=\"actor\" targetSpec=\"\"}}I get {{selection value=\"SelectedVillager\"}}\nopening it, since it went to {{gender3 m=\"his\" f=\"her\"}}\nhouse, {{delay20}}but what's YOUR excuse?!"
  },
  {
    "label": "231",
    "attribute": "0x0000000000000000",
    "text": "I dunno what's more messed up{{string value=\"...\"}}{{delay20}}\n{{anim id=\"OhGeez\" target=\"actor\" targetSpec=\"\"}}that you did it, {{delay20}}or you tellin' me so\nlike it's no big deal."
  },
  {
    "label": "232",
    "attribute": "0x0000000000000000",
    "text": "{{anim id=\"Angry\" target=\"actor\" targetSpec=\"\"}}If you got a brain in that skull of\nyours, {{delay20}}use it next time, {{string value=\"Catchphrase\"}}!"
  },
  {
    "label": "233",
    "attribute": "0x0000000000000000",
    "text": "{{anim id=\"Serious\" target=\"actor\" targetSpec=\"\"}}Then again{{string value=\"...\"}}{{delay20}}you still got it to me in\nthe end. {{delay20}}So I GUESS you deserve\nsomethin' for your trouble."
  },
  {
    "label": "234",
    "attribute": "0x0000000000000000",
    "text": "OK, I'm lettin' you have {{wordArticle}}\n{{fun_0004007D arg=\"0x0000\"}}, {{delay20}}{{anim id=\"Angry\" target=\"actor\" targetSpec=\"\"}}but use\nsome common sense next time!"
  },
  {
    "label": "235",
    "attribute": "0x0000000000000000",
    "text": "I don't care how tight we are,{{delay20}}\n{{anim id=\"Angry\" target=\"actor\" targetSpec=\"\"}}you DON'T go openin' other\nfolks' stuff!"
  },
  {
    "label": "236",
    "attribute": "0x0000000000000000",
    "text": "{{anim id=\"Sighing\" target=\"actor\" targetSpec=\"\"}}You ever think there might've been\nsomethin' in that package I didn't\nwant just anybody seein'?!{{pageBreak}}{{anim id=\"Angry\" target=\"actor\" targetSpec=\"\"}}Repeat after me—I. {{delay20}}Will. {{delay20}}Not. {{delay20}}Open.{{delay20}}\nOther. {{delay20}}Folks'. {{delay20}}{{anim id=\"Outraged\" target=\"actor\" targetSpec=\"\"}}MAIL!"
  },
  {
    "label": "237",
    "attribute": "0x0000000000000000",
    "text": "I'm mad about that{{string value=\"...\"}}{{delay20}}{{anim id=\"WrySmile\" target=\"actor\" targetSpec=\"\"}}but I shouldn't\nbe mad you owned up to it. {{delay20}}{{anim id=\"EmotEnd\" target=\"actor\" targetSpec=\"\"}}Way to\nfly straight, {{string value=\"Catchphrase\"}}."
  },
  {
    "label": "238",
    "attribute": "0x0000000000000000",
    "text": "{{anim id=\"Hesitate\" target=\"actor\" targetSpec=\"\"}}Ugh, sorry. {{delay20}}I'm just mad 'cause I got\nthis for you and I was hopin' it would\nbe a surprise.{{pageBreak}}{{anim id=\"WrySmile\" target=\"actor\" targetSpec=\"\"}}But since you know what's inside\nalready, {{delay20}}I guess you can just go\nahead and keep it."
  },
  {
    "label": "239",
    "attribute": "0x0000000000000000",
    "text": "{{anim id=\"Negative\" target=\"actor\" targetSpec=\"\"}}I'd apologize for the surprise bein'\nruined and all, {{delay20}}but that's kinda\non you, {{string value=\"Catchphrase\"}}.{{pageBreak}}{{anim id=\"EmotEnd\" target=\"actor\" targetSpec=\"\"}}Oh well. {{delay20}}These things happen{{string value=\"...\"}}{{delay20}}\n{{anim id=\"Angry\" target=\"actor\" targetSpec=\"\"}}once. {{delay20}}And then they don't happen\nagain, {{delay20}}RIGHT?"
  }
]