﻿[
  {
    "label": "001",
    "attribute": "0x0000020000000000",
    "text": "{{anim id=\"Aha\" target=\"actor\" targetSpec=\"\"}}Whoa, this is a surprise!{{delay frames=\"40\"}}\n{{capitalizeNextLetter}}{{wordArticle}}{{fun_0000007D arg=\"0x0000\"}}!{{pageBreak}}{{anim id=\"FaintSmile\" target=\"actor\" targetSpec=\"\"}}We must be readin' the same\ncatalogs. {{delay frames=\"40\"}}{{anim id=\"Hello\" target=\"actor\" targetSpec=\"\"}}This is so great that\nI kinda wanna put it on right now!"
  },
  {
    "label": "001_a",
    "attribute": "0x0000000000000000",
    "text": "So go ahead!"
  },
  {
    "label": "001_b",
    "attribute": "0x0000000000000000",
    "text": "Yeah...but don't."
  },
  {
    "label": "002",
    "attribute": "0x0000020000000000",
    "text": "{{anim id=\"Shocked\" target=\"actor\" targetSpec=\"\"}}Oh yeah! {{delay20}}This is nice!{{delay frames=\"40\"}} {{anim id=\"Hesitate\" target=\"actor\" targetSpec=\"\"}}I always\nwondered what I'd look like in\n{{wordArticle}}{{fun_0000007D arg=\"0x0000\"}}."
  },
  {
    "label": "002_a",
    "attribute": "0x0000000000000000",
    "text": "Try it on and find out!"
  },
  {
    "label": "002_b",
    "attribute": "0x0000000000000000",
    "text": "{{anim id=\"EmotEnd\" target=\"player\" targetSpec=\"\"}}Hope it's OK..."
  },
  {
    "label": "003",
    "attribute": "0x0000000000000000",
    "text": "{{anim id=\"Eh\" target=\"actor\" targetSpec=\"\"}}{{capitalizeNextLetter}}{{wordArticle}}{{fun_0000007D arg=\"0x0000\"}}?{{delay frames=\"40\"}}\n{{anim id=\"Laughing\" target=\"actor\" targetSpec=\"\"}}Ha!{{delay20}} That's awesome!{{pageBreak}}{{anim id=\"Nodding\" target=\"actor\" targetSpec=\"\"}}Now I've got a spare for when\nI wash the other!{{pageBreak}}{{anim id=\"Smiling\" target=\"actor\" targetSpec=\"\"}}This is so cool, {{string value=\"Catchphrase\"}}!{{delay frames=\"40\"}} {{anim id=\"Hesitate\" target=\"actor\" targetSpec=\"\"}}Oh,{{delay20}}\nhey{{string value=\"...\"}}{{delay20}}don't mention that I already\nhad one,{{delay20}} alright?"
  },
  {
    "label": "004",
    "attribute": "0x0000000000000000",
    "text": "{{anim id=\"Assent\" target=\"actor\" targetSpec=\"\"}}You know what, yeah! {{delay20}}Why wait?!{{delay frames=\"40\"}}\n{{anim id=\"Grin\" target=\"actor\" targetSpec=\"\"}}Close your eyes and I'll toss it on!"
  },
  {
    "label": "005",
    "attribute": "0x0000000000000000",
    "text": "{{anim id=\"Oops\" target=\"actor\" targetSpec=\"\"}}Ha, sorry. {{delay20}}Sometimes I get carried\naway when no one stops me.{{pageBreak}}{{anim id=\"EmotEnd\" target=\"actor\" targetSpec=\"\"}}But don't worry. {{delay20}}{{anim id=\"FaintSmile\" target=\"actor\" targetSpec=\"\"}}When the time is\nright, {{delay20}}this bad boy is going on so\neveryone can see me in it!"
  },
  {
    "label": "006",
    "attribute": "0x0000000000000000",
    "text": "{{anim id=\"Assent\" target=\"actor\" targetSpec=\"\"}}Well, {{delay20}}if you say so, I guess that's\nwhat we're doin'! {{delay frames=\"40\"}}{{anim id=\"Grin\" target=\"actor\" targetSpec=\"\"}}Turn around for a\nsec and we'll find out."
  },
  {
    "label": "007",
    "attribute": "0x0000000000000000",
    "text": "{{anim id=\"FaintSmile\" target=\"actor\" targetSpec=\"\"}}I mean, it's fine. {{delay20}}I'm not gonna turn\ndown a gift! {{delay20}}{{anim id=\"EmotEnd\" target=\"actor\" targetSpec=\"\"}}But, uh, {{delay20}}I might save it\nfor{{string value=\"...\"}}{{delay20}}{{anim id=\"ColdChill\" target=\"actor\" targetSpec=\"\"}}special occasions."
  },
  {
    "label": "100",
    "attribute": "0x0000020000000000",
    "text": "{{anim id=\"Hesitate\" target=\"actor\" targetSpec=\"\"}}So, uh{{string value=\"...\"}}{{delay20}}do I look OK in this?{{delay20}}\nIt ain't too out of character?"
  },
  {
    "label": "100_a",
    "attribute": "0x0000000000000000",
    "text": "It looks great!"
  },
  {
    "label": "100_b",
    "attribute": "0x0000000000000000",
    "text": "Well..."
  },
  {
    "label": "101",
    "attribute": "0x0000000000000000",
    "text": "{{anim id=\"HappyFlower\" target=\"actor\" targetSpec=\"\"}}NICE!{{delay20}} Just what I was hopin' to hear!"
  },
  {
    "label": "102",
    "attribute": "0x0000020000000000",
    "text": "{{anim id=\"Frantic\" target=\"actor\" targetSpec=\"\"}}C'mon. {{delay20}}All I'm askin' for is some\nhonesty. {{delay frames=\"40\"}}{{anim id=\"Sighing\" target=\"actor\" targetSpec=\"\"}}I look like I'm wearin' a\ntrash bag, don't I?"
  },
  {
    "label": "102_a",
    "attribute": "0x0000000000000000",
    "text": "{{anim id=\"EmotEnd\" target=\"player\" targetSpec=\"\"}}No, no! It's fine!"
  },
  {
    "label": "102_b",
    "attribute": "0x0000000000000000",
    "text": "{{anim id=\"EmotEnd\" target=\"player\" targetSpec=\"\"}}Um, uh, n-not really..."
  },
  {
    "label": "103",
    "attribute": "0x0000000000000000",
    "text": "{{anim id=\"HappyDance\" target=\"actor\" targetSpec=\"\"}}Sweet! {{delay20}}I wasn't too sure about it\nmyself, {{delay20}}but if it gets your OK, then\nI'm good with it!{{pageBreak}}{{anim id=\"FaintSmile\" target=\"actor\" targetSpec=\"\"}}I think I'll keep it on for a while to\nget used to it quicker."
  },
  {
    "label": "104",
    "attribute": "0x0000000000000000",
    "text": "{{anim id=\"ColdChill\" target=\"actor\" targetSpec=\"\"}}Y{{string value=\"...\"}}{{delay20}}yeah?{{delay20}} Sheesh, {{delay20}}I feel like a wilted\nflower. {{delay20}}Let's just forget this ever\nhappened, alright?"
  },
  {
    "label": "105",
    "attribute": "0x0000000000000000",
    "text": "{{anim id=\"OhGeez\" target=\"actor\" targetSpec=\"\"}}It'd be nice if I was the kinda girl\nwho looks good in that stuff, {{delay20}}but\nI'm me and that's that."
  },
  {
    "label": "201",
    "attribute": "0x0000000000000000",
    "text": "{{anim id=\"Blushing\" target=\"actor\" targetSpec=\"\"}}I'd say {{selection value=\"SelectedVillager\"}} picked\nout some good threads. {{delay frames=\"40\"}}{{anim id=\"BigSmile\" target=\"actor\" targetSpec=\"\"}}Girl\nknows what she's doin'!"
  },
  {
    "label": "202",
    "attribute": "0x0000000000000000",
    "text": "{{anim id=\"Blushing\" target=\"actor\" targetSpec=\"\"}}I feel like {{selection value=\"SelectedVillager\"}} knows\nmy tastes even better than\nI do.{{delay frames=\"40\"}} {{anim id=\"SmugFace\" target=\"actor\" targetSpec=\"\"}}It's even the right fit!"
  },
  {
    "label": "203",
    "attribute": "0x0000000000000000",
    "text": "{{anim id=\"Blushing\" target=\"actor\" targetSpec=\"\"}}These clothes are wild. {{delay20}}You think\n{{selection value=\"SelectedVillager\"}} made this all by\nherself? {{delay20}}Wouldn't put it past her.{{pageBreak}}{{anim id=\"Pardon\" target=\"actor\" targetSpec=\"\"}}I can hear her now. {{delay20}}\"Oh, no, darling!{{delay20}}\nIt was an afternoon's trifle!\" {{delay frames=\"40\"}}{{anim id=\"Sighing\" target=\"actor\" targetSpec=\"\"}}She's,\nlike, {{delay20}}suspiciously good at gifting."
  },
  {
    "label": "204",
    "attribute": "0x0000000000000000",
    "text": "{{anim id=\"Blushing\" target=\"actor\" targetSpec=\"\"}}I ain't surprised {{selection value=\"SelectedVillager\"}}\npicked these out for me. {{delay frames=\"40\"}}{{anim id=\"SmugFace\" target=\"actor\" targetSpec=\"\"}}That girl's\ntaste is REVVED. UP."
  },
  {
    "label": "205",
    "attribute": "0x0000000000000000",
    "text": "{{anim id=\"Blushing\" target=\"actor\" targetSpec=\"\"}}So {{selection value=\"SelectedVillager\"}} picked this\nout, huh?{{delay frames=\"40\"}}{{anim id=\"SmugFace\" target=\"actor\" targetSpec=\"\"}} I gotta hand it to the\nkid{{string value=\"...\"}}{{delay20}} Sometimes he nails it."
  },
  {
    "label": "206",
    "attribute": "0x0000000000000000",
    "text": "{{anim id=\"Blushing\" target=\"actor\" targetSpec=\"\"}}Hey, did {{selection value=\"SelectedVillager\"}} really\npick this out? {{delay frames=\"40\"}}{{anim id=\"SmugFace\" target=\"actor\" targetSpec=\"\"}}It's better than\nI'd have given him credit for!"
  },
  {
    "label": "207",
    "attribute": "0x0000000000000000",
    "text": "{{anim id=\"Blushing\" target=\"actor\" targetSpec=\"\"}}This was {{selection value=\"SelectedVillager\"}}'s idea?{{delay frames=\"40\"}}\n{{anim id=\"Confused\" target=\"actor\" targetSpec=\"\"}}We're talking about the same\n{{selection value=\"SelectedVillager\"}}, right?"
  },
  {
    "label": "208",
    "attribute": "0x0000000000000000",
    "text": "{{anim id=\"Blushing\" target=\"actor\" targetSpec=\"\"}}Clothes from {{selection value=\"SelectedVillager\"}},\nhuh? {{delay frames=\"40\"}}{{anim id=\"Nodding\" target=\"actor\" targetSpec=\"\"}}Not what I expected,\nbut I'm into it!"
  },
  {
    "label": "209",
    "attribute": "0x0000000000000000",
    "text": "{{anim id=\"Blushing\" target=\"actor\" targetSpec=\"\"}}Straight up, {{delay20}}I wasn't expectin' to get\nthis from {{selection value=\"SelectedVillager\"}} today.{{pageBreak}}{{anim id=\"EmotEnd\" target=\"actor\" targetSpec=\"\"}}I'd better go over and patch things\nup with her. {{delay20}}{{anim id=\"Nodding\" target=\"actor\" targetSpec=\"\"}}Lookin' back, it all got\nway outta hand, {{string value=\"Catchphrase\"}}."
  },
  {
    "label": "210",
    "attribute": "0x0000000000000000",
    "text": "{{anim id=\"Blushing\" target=\"actor\" targetSpec=\"\"}}Gotta admit{{string value=\"...\"}}{{delay20}}it was big of\n{{selection value=\"SelectedVillager\"}} to get\nthis for me.{{pageBreak}}{{anim id=\"EmotEnd\" target=\"actor\" targetSpec=\"\"}}What was I thinkin'? {{delay20}}{{anim id=\"Assent\" target=\"actor\" targetSpec=\"\"}}I gotta go\napologize so we can put this dumb\nthing behind us, {{string value=\"Catchphrase\"}}."
  },
  {
    "label": "211",
    "attribute": "0x0000000000000000",
    "text": "{{anim id=\"Blushing\" target=\"actor\" targetSpec=\"\"}}Wow, this is one tuned-up way to\napologize. {{delay20}}{{selection value=\"SelectedVillager\"}} can't\nbe outdone, huh?{{pageBreak}}{{anim id=\"EmotEnd\" target=\"actor\" targetSpec=\"\"}}Well, I'm gonna give her a run for her\nmoney! {{delay20}}{{anim id=\"SmugFace\" target=\"actor\" targetSpec=\"\"}}My apology to her is gonna\nblow this out of the water!"
  },
  {
    "label": "212",
    "attribute": "0x0000000000000000",
    "text": "{{anim id=\"Blushing\" target=\"actor\" targetSpec=\"\"}}You're sayin' {{selection value=\"SelectedVillager\"}} got\nthis{{string value=\"...\"}}{{delay20}}just for me?{{pageBreak}}{{anim id=\"Nodding\" target=\"actor\" targetSpec=\"\"}}Well, if she's gonna go that far to\nbury that hatchet, {{delay20}}I ain't diggin' it\nback up. {{delay20}}{{anim id=\"FaintSmile\" target=\"actor\" targetSpec=\"\"}}Time for me to apologize!"
  },
  {
    "label": "213",
    "attribute": "0x0000000000000000",
    "text": "{{anim id=\"Blushing\" target=\"actor\" targetSpec=\"\"}}{{selection value=\"SelectedVillager\"}} got these, you\nsaid? {{delay20}}Who'd have thunk it?{{pageBreak}}{{anim id=\"EmotEnd\" target=\"actor\" targetSpec=\"\"}}I should probably go apologize to\nthe dude. {{delay20}}{{anim id=\"Nodding\" target=\"actor\" targetSpec=\"\"}}Stayin' mad at that guy\ntakes too much effort, y'know?"
  },
  {
    "label": "214",
    "attribute": "0x0000000000000000",
    "text": "{{anim id=\"Blushing\" target=\"actor\" targetSpec=\"\"}}Did {{selection value=\"SelectedVillager\"}} really send\nyou to fix things up? {{delay frames=\"40\"}}{{anim id=\"Laughing\" target=\"actor\" targetSpec=\"\"}}Must've been\nthe protein talkin'.{{pageBreak}}{{anim id=\"EmotEnd\" target=\"actor\" targetSpec=\"\"}}Ahh, who am I kiddin'? {{delay20}}I know that\nlunkhead means well. {{delay20}}{{anim id=\"FaintSmile\" target=\"actor\" targetSpec=\"\"}}I gotta suck it\nup and tell him I'm sorry."
  },
  {
    "label": "215",
    "attribute": "0x0000000000000000",
    "text": "{{anim id=\"Grin\" target=\"actor\" targetSpec=\"\"}}Hang on, {{selection value=\"SelectedVillager\"}} went\nclothes shoppin' for me?{{pageBreak}}{{anim id=\"Laughing\" target=\"actor\" targetSpec=\"\"}}Wow! {{delay frames=\"40\"}}I'd love to have been a fly on\nthe wall for THAT!{{pageBreak}}{{anim id=\"Hesitate\" target=\"actor\" targetSpec=\"\"}}Well, if he's gonna go to that much\ntrouble, {{delay20}}I guess tellin' him I'm sorry\nis the least I can do, {{string value=\"Catchphrase\"}}."
  },
  {
    "label": "216",
    "attribute": "0x0000000000000000",
    "text": "{{anim id=\"Blushing\" target=\"actor\" targetSpec=\"\"}}{{selection value=\"SelectedVillager\"}} picked this out\nhimself, huh?{{delay20}} It's real nice.{{pageBreak}}{{anim id=\"WrySmile\" target=\"actor\" targetSpec=\"\"}}I was way outta line, but he went\nand gave me this anyway{{string value=\"...\"}}{{delay frames=\"40\"}}{{anim id=\"FaintSmile\" target=\"actor\" targetSpec=\"\"}} Yeah, it's\npast time for me to apologize."
  },
  {
    "label": "300",
    "attribute": "0x0000000000000000",
    "text": "{{anim id=\"Smiling\" target=\"actor\" targetSpec=\"\"}}Still, {{selection value=\"SelectedVillager\"}} was thinkin'\nof me. {{delay20}}Can't beat that for\na present, {{string value=\"Catchphrase\"}}!"
  },
  {
    "label": "301",
    "attribute": "0x0000000000000000",
    "text": "{{anim id=\"Thinking\" target=\"actor\" targetSpec=\"\"}}Still, {{selection value=\"SelectedVillager\"}} is reachin'\nout and tryin' to patch things up.{{delay20}}\nShe must be feelin' raw.{{pageBreak}}{{anim id=\"FaintSmile\" target=\"actor\" targetSpec=\"\"}}I better go visit and let her know\neverything's good between us before\nthe poor kid cries her eyes out."
  },
  {
    "label": "302",
    "attribute": "0x0000000000000000",
    "text": "{{anim id=\"Thinking\" target=\"actor\" targetSpec=\"\"}}Sheesh, {{delay20}}how'd {{selection value=\"SelectedVillager\"}}\nbeat me to the punch here?{{pageBreak}}{{anim id=\"EmotEnd\" target=\"actor\" targetSpec=\"\"}}Well, I'll show her! {{delay20}}{{anim id=\"FaintSmile\" target=\"actor\" targetSpec=\"\"}}I can apologize\nwith the best of 'em!"
  },
  {
    "label": "303",
    "attribute": "0x0000000000000000",
    "text": "I shoulda guessed {{selection value=\"SelectedVillager\"}}\nwould cool down first. {{delay20}}{{anim id=\"Nodding\" target=\"actor\" targetSpec=\"\"}}She's got it\nso together, y'know?{{pageBreak}}{{anim id=\"FaintSmile\" target=\"actor\" targetSpec=\"\"}}Time for me to quit bein' so childish\nand go apologize, {{string value=\"Catchphrase\"}}."
  },
  {
    "label": "304",
    "attribute": "0x0000000000000000",
    "text": "{{anim id=\"Thinking\" target=\"actor\" targetSpec=\"\"}}Yikes. {{delay20}}If {{selection value=\"SelectedVillager\"}} of all\nfolks sent me somethin to show\nshe's sorry{{string value=\"...\"}}{{pageBreak}}{{anim id=\"EmotEnd\" target=\"actor\" targetSpec=\"\"}}Yeah, OK, she wins. {{delay20}}I can't stay mad\nat that. {{delay20}}{{anim id=\"FaintSmile\" target=\"actor\" targetSpec=\"\"}}I'm gonna go let her know!"
  },
  {
    "label": "305",
    "attribute": "0x0000000000000000",
    "text": "{{anim id=\"Thinking\" target=\"actor\" targetSpec=\"\"}}I gotta say, {{delay20}}this is still a way\nbetter apology than I expected\nfrom {{selection value=\"SelectedVillager\"}}.\n{{anim id=\"EmotEnd\" target=\"actor\" targetSpec=\"\"}}If he's makin' the effort, I oughta\ndo the same. {{delay20}}{{anim id=\"FaintSmile\" target=\"actor\" targetSpec=\"\"}}I'm gonna go put this\nwhole mess behind us."
  },
  {
    "label": "306",
    "attribute": "0x0000000000000000",
    "text": "{{anim id=\"Thinking\" target=\"actor\" targetSpec=\"\"}}A gift seems real formal for a guy\nlike {{selection value=\"SelectedVillager\"}} though.{{pageBreak}}{{anim id=\"EmotEnd\" target=\"actor\" targetSpec=\"\"}}He must really be torn up over our\nfight{{string value=\"...\"}}{{delay20}}{{anim id=\"FaintSmile\" target=\"actor\" targetSpec=\"\"}}I better go tell him it's OK."
  },
  {
    "label": "307",
    "attribute": "0x0000000000000000",
    "text": "{{anim id=\"Thinking\" target=\"actor\" targetSpec=\"\"}}Y'know, {{delay20}}we both got bent outta\nshape, {{delay20}}but {{selection value=\"SelectedVillager\"}} sent\nthis gift and I didn't do anything.{{pageBreak}}{{anim id=\"Blushing\" target=\"actor\" targetSpec=\"\"}}Doesn't make me look too good,\ndoes it? {{delay20}}I better go makes things\nright with him, {{string value=\"Catchphrase\"}}."
  },
  {
    "label": "308",
    "attribute": "0x0000000000000000",
    "text": "{{anim id=\"Thinking\" target=\"actor\" targetSpec=\"\"}}Weird to think of {{selection value=\"SelectedVillager\"}}\nbackin' down first.{{pageBreak}}{{anim id=\"Worried\" target=\"actor\" targetSpec=\"\"}}I ain't too proud of some stuff I said\nto the guy{{string value=\"...\"}}{{delay frames=\"40\"}}{{anim id=\"FaintSmile\" target=\"actor\" targetSpec=\"\"}} If he's ready to start\nbein' friends again, then so am I!"
  }
]