﻿[
  {
    "label": "001",
    "attribute": "0x0000000100000000",
    "text": "{{anim id=\"Eh\" target=\"actor\" targetSpec=\"\"}}あ、そう？{{delay frames=\"40\"}}\n{{anim id=\"FaintSmile\" target=\"actor\" targetSpec=\"\"}}そんじゃ、またなー！　{{string value=\"6\"}}"
  },
  {
    "label": "002",
    "attribute": "0x0000000100000000",
    "text": "{{anim id=\"Smiling\" target=\"actor\" targetSpec=\"\"}}いいよ　いいよ、{{delay20}}{{ruby charSpan=\"1\" value=\"き\"}}気にすんなー！　{{string value=\"6\"}}"
  },
  {
    "label": "003",
    "attribute": "0x0000000100000000",
    "text": "{{anim id=\"Pardon\" target=\"actor\" targetSpec=\"\"}}なんだー？{{delay frames=\"30\"}}\n{{anim id=\"FaintSmile\" target=\"actor\" targetSpec=\"\"}}ま、{{delay20}}いいかー！　{{string value=\"6\"}}"
  }
]