﻿[
  {
    "label": "002",
    "attribute": "0x00000000",
    "text": "{{anim id=\"ShyBoy\" target=\"actor\" targetSpec=\"\"}}Дачи строить меня не учили{{string value=\"...\"}}{{delay20}}\n{{anim id=\"Nodding\" target=\"actor\" targetSpec=\"\"}}Предпочитаю поручить это дело\nквалифицированному специалисту."
  },
  {
    "label": "003",
    "attribute": "0x01000000",
    "text": "{{anim id=\"Thinking\" target=\"actor\" targetSpec=\"\"}}Хм, даже не знаю{{string value=\"...\"}}{{delay frames=\"30\"}} Никогда бы не\nподумал, что кто-то обратится ко\nмне с таким вопросом. {{anim id=\"QuestionMark\" target=\"actor\" targetSpec=\"\"}}Дашь совет?"
  },
  {
    "label": "003_01",
    "attribute": "0x00000000",
    "text": "Твое предложение застало меня\nврасплох.{{delay frames=\"30\"}}{{pageBreak}}{{anim id=\"Serious\" target=\"actor\" targetSpec=\"\"}}Но если все оформлено как надо\nи есть разрешение, прошу\nприступать. Спасибо!"
  },
  {
    "label": "003_03",
    "attribute": "0x00000000",
    "text": "{{anim id=\"Smiling\" target=\"actor\" targetSpec=\"\"}}Ого!{{delay frames=\"30\"}} Может, это и неплохая\nдислокация. {{anim id=\"Nodding\" target=\"actor\" targetSpec=\"\"}}Отработаем\nэту зацепку!"
  },
  {
    "label": "003_04",
    "attribute": "0x00000000",
    "text": "{{anim id=\"Nodding\" target=\"actor\" targetSpec=\"\"}}Еще раз спасибо! А теперь\nпрошу исполнять!{{delay frames=\"40\"}}{{anim id=\"EmotEnd\" target=\"actor\" targetSpec=\"\"}}"
  },
  {
    "label": "003_a",
    "attribute": "0x00000000",
    "text": "Пусть будет 1 этаж."
  },
  {
    "label": "003_b",
    "attribute": "0x00000000",
    "text": "Пусть будут 2 этажа."
  },
  {
    "label": "004",
    "attribute": "0x00000000",
    "text": "{{anim id=\"Aha\" target=\"actor\" targetSpec=\"\"}}Ясно!{{delay20}} Один этаж.{{delay40}} {{anim id=\"EmotEnd\" target=\"actor\" targetSpec=\"\"}}У меня нет причин\nне прислушаться к профессионалу\n{{anim id=\"Nodding\" target=\"actor\" targetSpec=\"\"}}и не согласиться."
  },
  {
    "label": "005",
    "attribute": "0x00000000",
    "text": "{{anim id=\"Aha\" target=\"actor\" targetSpec=\"\"}}Ясно!{{delay20}} Два этажа.{{delay40}} {{anim id=\"EmotEnd\" target=\"actor\" targetSpec=\"\"}}У меня нет причин\nне прислушаться к профессионалу\n{{anim id=\"Nodding\" target=\"actor\" targetSpec=\"\"}}и не согласиться."
  }
]