﻿[
  {
    "label": "001",
    "attribute": "0x0000000000000000",
    "text": "{{anim id=\"Smiling\" target=\"actor\" targetSpec=\"\"}}¿Viste qué {{wordInfo gender=\"1\" indefArticle=\"1\" defArticle=\"3\"}}escarabajo astado japonés?{{delay40}} {{anim id=\"Worried\" target=\"actor\" targetSpec=\"\"}}Con esa cornamenta,{{delay8}} si te\ngolpea,{{delay8}} te deja \"dev-astado\"."
  },
  {
    "label": "002",
    "attribute": "0x0000000000000000",
    "text": "{{anim id=\"Smiling\" target=\"actor\" targetSpec=\"\"}}Las pinzas del {{wordInfo gender=\"1\" indefArticle=\"1\" defArticle=\"3\"}}escarabajo ciervo gigante impresionan.{{delay20}} Debe tener\nun carácter \"mordiente\".{{delay20}} ¡Je,{{delay8}} je,{{delay8}} je!"
  },
  {
    "label": "003",
    "attribute": "0x0000000000000000",
    "text": "{{anim id=\"Serious\" target=\"actor\" targetSpec=\"\"}}Esto es un {{wordInfo gender=\"1\" indefArticle=\"1\" defArticle=\"3\"}}escarabajo ciervo sierra.{{delay20}}\n{{anim id=\"FaintSmile\" target=\"actor\" targetSpec=\"\"}}¿Te imaginas a un ciervo carpintero?{{delay20}}\nPues parecido pero en insecto."
  },
  {
    "label": "004",
    "attribute": "0x0000000000000000",
    "text": "{{anim id=\"Shocked\" target=\"actor\" targetSpec=\"\"}}El {{wordInfo gender=\"1\" indefArticle=\"1\" defArticle=\"3\"}}escarabajo astado hércules debe\ntener muchísima fuerza{{string value=\"...\"}}{{i10_4}} {{anim id=\"Serious\" target=\"actor\" targetSpec=\"\"}}¿O se\nhabrá puesto ese nombre porque sí?\n{{anim id=\"Smiling\" target=\"actor\" targetSpec=\"\"}}En ese caso,{{delay8}} está bien asesorado en\ncuanto a promocionar su imagen de\nmarca.{{delay20}} ¡Bien elegido,{{delay8}} {{string value=\"Catchphrase\"}}!"
  },
  {
    "label": "005",
    "attribute": "0x0000000000000000",
    "text": "{{anim id=\"Eh\" target=\"actor\" targetSpec=\"\"}}No me gusta nada cómo me mira\nesta {{wordInfo gender=\"2\" indefArticle=\"2\" defArticle=\"4\"}}mantis religiosa{{string value=\"...\"}}{{delay20}}\n¡ni cómo se frota las garras!"
  },
  {
    "label": "006",
    "attribute": "0x0000000000000000",
    "text": "{{anim id=\"Shocked\" target=\"actor\" targetSpec=\"\"}}¡Qué preciosidad de mariposa!{{delay20}} \n{{anim id=\"Angry\" target=\"actor\" targetSpec=\"\"}}¿Cómo?{{delay20}} ¿Que no es una mariposa,{{delay8}}\nsino una {{wordInfo gender=\"2\" indefArticle=\"2\" defArticle=\"4\"}}polilla crepuscular?\n{{anim id=\"Worried\" target=\"actor\" targetSpec=\"\"}}Pues no me imagino un insecto con\nsemejante estilo visual comiendo\ntelas,{{delay8}} {{string value=\"Catchphrase\"}}{{string value=\"...\"}}"
  },
  {
    "label": "007",
    "attribute": "0x0000000000000000",
    "text": "{{anim id=\"Smiling\" target=\"actor\" targetSpec=\"\"}}Me identifico mucho con este tipo de\nescarabajo:{{delay20}} brillo personal cegador\ny valor incalculable."
  },
  {
    "label": "008",
    "attribute": "0x0000000000000000",
    "text": "{{anim id=\"Smiling\" target=\"actor\" targetSpec=\"\"}}Qué imagen tan majestuosa\nla de estas mariposas cuando\nflotan en grupo por el aire{{string value=\"...\"}}\n{{anim id=\"Eh\" target=\"actor\" targetSpec=\"\"}}Aunque{{string value=\"...\"}}{{delay20}} ¿cuántos emperadores \npuede haber a la vez?{{delay20}} ¿Serán unas\nmás \"emperador\" japonés que otras?"
  },
  {
    "label": "009",
    "attribute": "0x0000000000000000",
    "text": "{{anim id=\"Smiling\" target=\"actor\" targetSpec=\"\"}}El colorido del {{wordInfo gender=\"1\" indefArticle=\"1\" defArticle=\"3\"}}escarabajo joya es\nespectacular.{{delay20}} Es como si se reflejaran\nlos colores del arcoíris."
  },
  {
    "label": "010",
    "attribute": "0x0000000000000000",
    "text": "{{anim id=\"Serious\" target=\"actor\" targetSpec=\"\"}}La {{wordInfo gender=\"2\" indefArticle=\"2\" defArticle=\"4\"}}mariposa narciso mezcla en sus\nalas el azul del agua con el rojo del\nfuego.{{delay20}} {{anim id=\"FaintSmile\" target=\"actor\" targetSpec=\"\"}}¡Una combinación con clase!"
  },
  {
    "label": "011",
    "attribute": "0x0000000000000000",
    "text": "{{anim id=\"Smiling\" target=\"actor\" targetSpec=\"\"}}Cómo atrae las miradas la {{wordInfo gender=\"2\" indefArticle=\"2\" defArticle=\"4\"}}mariposa celeste{{string value=\"...\"}}{{delay20}} {{anim id=\"Angry\" target=\"actor\" targetSpec=\"\"}}¡Tanto protagonismo hace\nque me ponga verde de envidia!"
  },
  {
    "label": "012",
    "attribute": "0x0000000000000000",
    "text": "{{anim id=\"Eh\" target=\"actor\" targetSpec=\"\"}}Me encanta cómo las luciérnagas\niluminan la noche con su presencia{{string value=\"...\"}}{{pageBreak}}{{anim id=\"Smiling\" target=\"actor\" targetSpec=\"\"}}Por lo radiante de su personalidad,{{delay8}}\npodría decir que incluso me hacen\ncompetencia,{{delay8}} ¡{{string value=\"Catchphrase\"}}!"
  },
  {
    "label": "013",
    "attribute": "0x0000000000000000",
    "text": "{{anim id=\"Shocked\" target=\"actor\" targetSpec=\"\"}}¡Qué mariposa tan enorme!{{i10_4}} {{anim id=\"Serious\" target=\"actor\" targetSpec=\"\"}}Ah,{{delay8}} ¿es una {{wordInfo gender=\"2\" indefArticle=\"2\" defArticle=\"4\"}}polilla atlas?{{delay40}} Bueno,{{delay8}} en ese caso\ncreo que he visto más grandes{{string value=\"...\"}}"
  },
  {
    "label": "014",
    "attribute": "0x0000000000000000",
    "text": "{{anim id=\"Shocked\" target=\"actor\" targetSpec=\"\"}}No me digas que esta mariposa\nno tiene un aire aristocrático.{{pageBreak}}{{anim id=\"Smiling\" target=\"actor\" targetSpec=\"\"}}Por su tamaño,{{delay8}} debe pertenecer\na algún linaje real o algo."
  },
  {
    "label": "015",
    "attribute": "0x0000000000000000",
    "text": "{{anim id=\"Worried\" target=\"actor\" targetSpec=\"\"}}Nunca me fío de los escorpiones,{{delay8}}\npero sobre todo de los que,{{delay8}} como\neste,{{delay8}} tienen pinta de{{string value=\"...\"}} {{wordInfo gender=\"1\" indefArticle=\"1\" defArticle=\"3\"}}escorpión."
  },
  {
    "label": "016",
    "attribute": "0x0000000000000000",
    "text": "{{anim id=\"Shocked\" target=\"actor\" targetSpec=\"\"}}¡Uah!{{delay20}} ¡Una avispa!{{delay20}} ¡Les tengo una\nfobia tremenda!{{delay40}} {{anim id=\"Worried\" target=\"actor\" targetSpec=\"\"}}¡Y además soy\nalérgico a la fobia a las avispas!"
  },
  {
    "label": "017",
    "attribute": "0x0000000000000000",
    "text": "{{anim id=\"Silent\" target=\"actor\" targetSpec=\"\"}}Mmm{{string value=\"...\"}}{{delay20}} Durante el día no se\ndestacan nada las luciérnagas.{{delay20}}\n{{anim id=\"Eh\" target=\"actor\" targetSpec=\"\"}}¡Pero ya verás cuando se vaya el sol!"
  },
  {
    "label": "018",
    "attribute": "0x0000000000000000",
    "text": "{{anim id=\"Shocked\" target=\"actor\" targetSpec=\"\"}}¡Una {{wordInfo gender=\"2\" indefArticle=\"2\" defArticle=\"4\"}}chinche con rostro humano!{{delay20}}\nQué extraño{{string value=\"...\"}}{{delay20}} Me recuerda algo\na mi tío."
  },
  {
    "label": "019",
    "attribute": "0x0000000000000000",
    "text": "{{anim id=\"Worried\" target=\"actor\" targetSpec=\"\"}}No sabría decirte si esto es\nun insecto con forma de hoja o una\nhoja con personalidad de insecto{{string value=\"...\"}}"
  },
  {
    "label": "020",
    "attribute": "0x0000000000000000",
    "text": "{{anim id=\"Angry\" target=\"actor\" targetSpec=\"\"}}¡\"Silence\"!{{delay8}} Estoy concentrado en el\ncanto del {{wordInfo gender=\"1\" indefArticle=\"1\" defArticle=\"3\"}}grillo campana{{string value=\"...\"}}{{pageBreak}}{{anim id=\"HappyFlower\" target=\"actor\" targetSpec=\"\"}}Hipnotizante,{{delay20}} ¿verdad? {{delay20}}¡Escucha\nesos armónicos,{{delay20}} ese \"glissando\"!{{delay20}}{{pageBreak}}{{anim id=\"QuestionMark\" target=\"actor\" targetSpec=\"\"}}¿Lo oyes?{{i10_4}} {{anim id=\"OhGeez\" target=\"actor\" targetSpec=\"\"}}Yo tampoco{{string value=\"...\"}}"
  },
  {
    "label": "021",
    "attribute": "0x0000000000000000",
    "text": "{{anim id=\"Serious\" target=\"actor\" targetSpec=\"\"}}¿Te imaginas cambiar la piel y poder\ndeshacerte de la vieja?{{pageBreak}}{{anim id=\"Smiling\" target=\"actor\" targetSpec=\"\"}}Debe ser una sensación parecida\na quitarte los zapatos que\nte aprietan{{string value=\"...\"}}"
  },
  {
    "label": "022",
    "attribute": "0x0000000000000000",
    "text": "{{anim id=\"Smiling\" target=\"actor\" targetSpec=\"\"}}En originalidad de vestuario,{{delay8}} este\nescarabajo está a mi nivel{{string value=\"...\"}}{{delay20}} {{anim id=\"Serious\" target=\"actor\" targetSpec=\"\"}}pero\nen carisma creo que lo supero."
  },
  {
    "label": "023",
    "attribute": "0x0000000000000000",
    "text": "{{anim id=\"Smiling\" target=\"actor\" targetSpec=\"\"}}Si hay un insecto que puede\ncompetir conmigo en elegancia,{{delay8}}\ncarisma{{delay8}} y gustos exclusivos,{{delay8}} es este."
  },
  {
    "label": "024",
    "attribute": "0x0000000000000000",
    "text": "{{anim id=\"Serious\" target=\"actor\" targetSpec=\"\"}}No me da nada de lástima ver a ese\n{{wordInfo gender=\"1\" indefArticle=\"1\" defArticle=\"3\"}}mosquito ahí atrapado.{{delay20}} {{anim id=\"Angry\" target=\"actor\" targetSpec=\"\"}}Si no,{{delay8}} seguro\nque estaría dando picotazos por ahí."
  },
  {
    "label": "101",
    "attribute": "0x0000000000000000",
    "text": "{{anim id=\"Shocked\" target=\"actor\" targetSpec=\"\"}}Este ejemplar lo trajiste tú,{{delay8}} ¿no?{{delay20}}\n{{anim id=\"Smiling\" target=\"actor\" targetSpec=\"\"}}Ahora puedo alardear de codearme\ncon {{gender2 m=\"uno\" f=\"una\"}} de los donantes del museo."
  },
  {
    "label": "102",
    "attribute": "0x0000000000000000",
    "text": "{{anim id=\"Shocked\" target=\"actor\" targetSpec=\"\"}}¡{{capitalizeNextLetter}}{{fun_00010032 arg=\"\"}}{{fun_0002007D arg=\"0x00CD\"}} y {{fun_00010032 arg=\"\"}}{{fun_0002007D arg=\"0x01CD\"}} se están peleando!"
  }
]