﻿[
  {
    "label": "001",
    "attribute": "0x0000000000000000",
    "text": "{{anim id=\"Eh\" target=\"actor\" targetSpec=\"\"}}¿Qué tal, {{string value=\"NickName\"}}?{{delay20}}\n¿Estás ocupad{{gender2 m=\"o\" f=\"a\"}},{{delay8}} verdad?{{pageBreak}}{{anim id=\"Explain\" target=\"actor\" targetSpec=\"\"}}Quería hablar contigo a solas,{{delay8}}\npero puede ser más tarde.{{delay20}} Total,{{delay8}}\n{{anim id=\"Serious\" target=\"actor\" targetSpec=\"\"}}ya estoy acostumbrado a esperar.\n{{anim id=\"Laughing\" target=\"actor\" targetSpec=\"\"}}¡Je, je!{{delay20}} ¿Sonó pasivo agresivo?{{delay20}}\n{{anim id=\"OhGeez\" target=\"actor\" targetSpec=\"\"}}No me hagas caso,{{delay8}} a veces tengo\nesos \"exaructos\".\n{{anim id=\"Nodding\" target=\"actor\" targetSpec=\"\"}}No te olvides de buscarme cuando\nterminen de jugar,{{delay8}} ¿sí, {{string value=\"6\"}}?"
  },
  {
    "label": "002",
    "attribute": "0x0000000000000000",
    "text": "{{anim id=\"Hesitate\" target=\"actor\" targetSpec=\"\"}}Ah,{{delay8}} hola,{{delay8}} {{string value=\"NickName\"}}{{string value=\"...\"}}{{delay20}} Tú eres muy amig{{gender2 m=\"o\" f=\"a\"}} de {{selection value=\"SelectedName\"}}, ¿verdad?{{pageBreak}}{{anim id=\"Explain\" target=\"actor\" targetSpec=\"\"}}Bien, hay alguien que quiere hablar\ncon {{gender8 m=\"él\" f=\"ella\" n=\"\"}} lo antes posible.{{pageBreak}}{{anim id=\"OhGeez\" target=\"actor\" targetSpec=\"\"}}Tiene que ser hoy.{{delay20}} {{anim id=\"Eh\" target=\"actor\" targetSpec=\"\"}}Es por una\nentrevista de trabajo, una audición\no algo.{{delay20}} {{anim id=\"Nodding\" target=\"actor\" targetSpec=\"\"}}O sea,{{delay8}} es importante.\n{{anim id=\"Smiling\" target=\"actor\" targetSpec=\"\"}}Eso entonces,{{delay8}} dile que alguien\nquiere hablar con {{gender8 m=\"él\" f=\"ella\" n=\"\"}} a solas.{{delay20}}\n{{anim id=\"WrySmile\" target=\"actor\" targetSpec=\"\"}}Y no,{{delay8}} no es ningún engaño."
  }
]