﻿[
  {
    "label": "001",
    "attribute": "0x0000000000000000",
    "text": "In this spring weather,{{delay20}} {{anim id=\"AbsentMindedness\" target=\"actor\" targetSpec=\"\"}}I could\nimagine myself wearing {{wordArticle}}\n{{fun_0000007D arg=\"0x0000\"}}."
  },
  {
    "label": "002",
    "attribute": "0x0000000000000000",
    "text": "{{anim id=\"Thinking\" target=\"actor\" targetSpec=\"\"}}I've read that you should try to\nmatch the materials you're wearing{{delay20}}\nto the season,{{delay20}} {{string value=\"Catchphrase\"}}.{{pageBreak}}{{anim id=\"Explain\" target=\"actor\" targetSpec=\"\"}}So I think it just makes sense in\nsummer{{delay20}} to wear something like\n{{wordArticle}}{{fun_0000007D arg=\"0x0000\"}}."
  },
  {
    "label": "003",
    "attribute": "0x0000000000000000",
    "text": "This fall,{{delay20}} I think {{anim id=\"Nodding\" target=\"actor\" targetSpec=\"\"}}it'd be stylish and\npractical to go with something{{delay20}} like\n{{wordArticle}}{{fun_0000007D arg=\"0x0000\"}}."
  },
  {
    "label": "004",
    "attribute": "0x0000000000000000",
    "text": "{{anim id=\"FaintSmile\" target=\"actor\" targetSpec=\"\"}}I'm getting a real wintry vibe{{delay20}} from\n{{wordArticle}}{{fun_0000007D arg=\"0x0000\"}}!"
  },
  {
    "label": "005",
    "attribute": "0x0000000000000000",
    "text": "{{color id=\"4\"}}Nice style,{{delay20}} {{anim id=\"Thinking\" target=\"actor\" targetSpec=\"\"}}but would I look good in\n{{wordArticle}}{{fun_0000007D arg=\"0x0000\"}}?{{color id=\"65535\"}}"
  },
  {
    "label": "006",
    "attribute": "0x0000000000000000",
    "text": "{{anim id=\"Worried\" target=\"actor\" targetSpec=\"\"}}I'd never be able to wear {{wordArticle}}{{fun_0000007D arg=\"0x0000\"}}.{{pageBreak}}{{anim id=\"FaintSmile\" target=\"actor\" targetSpec=\"\"}}I still like the style,{{delay20}} {{string value=\"Catchphrase\"}}."
  },
  {
    "label": "007",
    "attribute": "0x0000000000000000",
    "text": "{{anim id=\"Worried\" target=\"actor\" targetSpec=\"\"}}I envy anyone who could pull off\n{{wordArticle}}{{fun_0000007D arg=\"0x0000\"}}.{{pageBreak}}{{anim id=\"EmotEnd\" target=\"actor\" targetSpec=\"\"}}Not my thing,{{delay20}} but {{anim id=\"Nodding\" target=\"actor\" targetSpec=\"\"}}still a good\nfashion choice,{{delay20}} {{string value=\"Catchphrase\"}}."
  },
  {
    "label": "008",
    "attribute": "0x0000000000000000",
    "text": "{{anim id=\"Restless\" target=\"actor\" targetSpec=\"\"}}I wish I looked good wearing {{wordArticle}}\n{{fun_0000007D arg=\"0x0000\"}}{{delay8}}{{string value=\"...\"}}"
  },
  {
    "label": "009",
    "attribute": "0x0000000000000000",
    "text": "{{anim id=\"Smiling\" target=\"actor\" targetSpec=\"\"}}I'm charmed by the style of this\n{{fun_0000007D arg=\"0x0000\"}}{{delay20}}!{{pageBreak}}{{anim id=\"Love\" target=\"actor\" targetSpec=\"\"}}What an adorable look,{{delay20}} {{string value=\"Catchphrase\"}}!"
  },
  {
    "label": "010",
    "attribute": "0x0000000000000000",
    "text": "{{anim id=\"Hesitate\" target=\"actor\" targetSpec=\"\"}}I'm intrigued by the lightweight look\nof this {{fun_0000007D arg=\"0x0000\"}}.{{pageBreak}}{{anim id=\"Love\" target=\"actor\" targetSpec=\"\"}}And it seems comfy,{{delay20}} {{string value=\"Catchphrase\"}}{{delay8}}{{string value=\"...\"}}"
  },
  {
    "label": "011",
    "attribute": "0x0000000000000000",
    "text": "{{anim id=\"Smiling\" target=\"actor\" targetSpec=\"\"}}I feel like I'd get a lot of use from\n{{wordArticle}}{{fun_0000007D arg=\"0x0000\"}}.{{pageBreak}}{{anim id=\"AbsentMindedness\" target=\"actor\" targetSpec=\"\"}}I like the idea of clothing{{delay20}} that's so\neasy and versatile,{{delay20}} {{string value=\"Catchphrase\"}}."
  },
  {
    "label": "012",
    "attribute": "0x0000000000000000",
    "text": "{{anim id=\"Serious\" target=\"actor\" targetSpec=\"\"}}I remember just recently admiring\n{{fun_00010032 arg=\"\"}}{{fun_0000007D arg=\"0x0000\"}}\nin a magazine{{delay8}}{{string value=\"...\"}}\n{{anim id=\"Pardon\" target=\"actor\" targetSpec=\"\"}}Looks even better in person than in\nthat ad,{{delay20}} {{string value=\"Catchphrase\"}}{{anim id=\"Smiling\" target=\"actor\" targetSpec=\"\"}}!"
  },
  {
    "label": "013",
    "attribute": "0x0000000000000000",
    "text": "{{anim id=\"Smiling\" target=\"actor\" targetSpec=\"\"}}Imagine topping off an outfit with\n{{wordArticle}}{{fun_0000007D arg=\"0x0000\"}}{{delay8}}{{string value=\"...\"}}{{pageBreak}}{{anim id=\"HappyFlower\" target=\"actor\" targetSpec=\"\"}}Like a dab of whipped cream on your\n{{randomSweets}},{{delay20}} {{string value=\"Catchphrase\"}}!"
  },
  {
    "label": "014",
    "attribute": "0x0000000000000000",
    "text": "{{anim id=\"Worried\" target=\"actor\" targetSpec=\"\"}}Might be hard to find my way around\nin {{wordArticle}}{{fun_0000007D arg=\"0x0000\"}}.{{pageBreak}}{{anim id=\"Thinking\" target=\"actor\" targetSpec=\"\"}}But there must be a situation where\nthat'd make sense,{{delay20}} {{string value=\"Catchphrase\"}}{{delay8}}{{string value=\"...\"}}"
  },
  {
    "label": "015",
    "attribute": "0x0000000000000000",
    "text": "{{anim id=\"AbsentMindedness\" target=\"actor\" targetSpec=\"\"}}Imagine me{{delay20}} starting a trend in my\nstylish {{fun_0000007D arg=\"0x0000\"}}!\n{{anim id=\"EmotEnd\" target=\"actor\" targetSpec=\"\"}}Hey,{{delay20}} {{anim id=\"Grin\" target=\"actor\" targetSpec=\"\"}}I can dream,{{delay20}} {{string value=\"Catchphrase\"}}{{delay8}}{{string value=\"...\"}}"
  },
  {
    "label": "016",
    "attribute": "0x0000000000000000",
    "text": "Wonder if {{anim id=\"QuestionMark\" target=\"actor\" targetSpec=\"\"}}it might be possible to\nbuild an entire outfit{{delay20}} around {{wordArticle}}\n{{fun_0000007D arg=\"0x0000\"}}?"
  },
  {
    "label": "018",
    "attribute": "0x0000000000000000",
    "text": "{{anim id=\"Eh\" target=\"actor\" targetSpec=\"\"}}Such a neat style,{{delay20}} {{string value=\"Catchphrase\"}}{{delay8}}{{string value=\"...\"}}\n{{anim id=\"Worried\" target=\"actor\" targetSpec=\"\"}}I only wish I could wear {{wordArticle}}\n{{fun_0000007D arg=\"0x0000\"}}."
  },
  {
    "label": "020",
    "attribute": "0x0000000000000000",
    "text": "{{anim id=\"Grin\" target=\"actor\" targetSpec=\"\"}}How do you think you'd react{{delay20}} if I\njumped out at you{{delay20}} wearing {{wordArticle}}\n{{fun_0000007D arg=\"0x0000\"}}?"
  },
  {
    "label": "051",
    "attribute": "0x0000000000000000",
    "text": "{{i20_2 arg=\"6\"}}{{anim id=\"Greeting\" target=\"actor\" targetSpec=\"\"}}{{capitalizeNextLetter}}{{string value=\"NickName\"}}!{{pageBreak}}{{anim id=\"Smiling\" target=\"actor\" targetSpec=\"\"}}I was just admiring some of your\namazing design work,{{delay20}} {{string value=\"Catchphrase\"}}!"
  },
  {
    "label": "052",
    "attribute": "0x0000000000000000",
    "text": "{{i20_2 arg=\"6\"}}{{anim id=\"Explain\" target=\"actor\" targetSpec=\"\"}}So apparently,{{delay20}} this item was custom-\ndesigned by {{selection value=\"SelectedName\"}}!{{pageBreak}}{{anim id=\"Smiling\" target=\"actor\" targetSpec=\"\"}}Nice work,{{delay20}} isn't it,{{delay20}} {{string value=\"Catchphrase\"}}?"
  },
  {
    "label": "053",
    "attribute": "0x0000000000000000",
    "text": "{{i20_2 arg=\"6\"}}{{anim id=\"Explain\" target=\"actor\" targetSpec=\"\"}}I understand this was designed\nby {{selection value=\"SelectedName\"}},{{delay20}} from\n{{selection value=\"SelectedIslandName\"}}!\n{{anim id=\"Smiling\" target=\"actor\" targetSpec=\"\"}}It's a unique style,{{delay20}} {{string value=\"Catchphrase\"}}."
  }
]