﻿[
  {
    "label": "001",
    "text": "Apreciad{{gender2 m=\"o\" f=\"a\"}} {{string value=\"NickName\"}}:"
  },
  {
    "label": "002",
    "text": "Amig{{gender2 m=\"o\" f=\"a\"}} {{string value=\"NickName\"}}:"
  },
  {
    "label": "003",
    "text": "Deslumbrante {{string value=\"NickName\"}}:"
  },
  {
    "label": "004",
    "text": "Es{{gender2 m=\"e\" f=\"a\"}} {{string value=\"NickName\"}}:"
  },
  {
    "label": "101",
    "text": "Tu visita me produjo tal subidón\nque aún no he podido recuperarme\ny ordenar la casa. Ah, por cierto,\nte envío el regalo que no pude\ndarte en su momento. ¡Es tuyo\ny no pensaba quedármelo!"
  },
  {
    "label": "102",
    "text": "Aquí tienes el regalo que no te\npudiste llevar cuando estuviste\nde visita en mi ciberhogar. Por\ncierto, me fijé en que tenemos\ngustos muy parecidos en lo que\na tendencias culturales se refiere."
  },
  {
    "label": "103",
    "text": "Gracias por pasarte a verme el\notro día. Te envío con algo de\nretraso el regalo que quería darte.\nEspero que te guste y que nos\nvolvamos a ver pronto."
  },
  {
    "label": "104",
    "text": "Aquí tienes este recuerdo que\nprometí enviarte el otro día en mi\ncasa. Siento que hayas tenido que\nesperar, pero seguro que así te\nhabré creado más expectación.\n¡Gracias de nuevo por visitarme!"
  },
  {
    "label": "201",
    "text": "Saludetes de {{string value=\"VillagerName\"}}"
  },
  {
    "label": "202",
    "text": "El incombustible {{string value=\"VillagerName\"}}"
  },
  {
    "label": "203",
    "text": "Hasta otra, {{string value=\"VillagerName\"}}"
  },
  {
    "label": "204",
    "text": "Hasta la próxima, {{string value=\"VillagerName\"}}"
  }
]