﻿[
  {
    "label": "001",
    "attribute": "0x02000018",
    "text": "Stop {{selection value=\"SelectedName\"}}'s song,\n{{fun_0000007D arg=\"0x0100\"}}, and\nregister a different song?"
  },
  {
    "label": "001_a",
    "attribute": "0x00000000",
    "text": "Register a new song."
  },
  {
    "label": "001_b",
    "attribute": "0x00000000",
    "text": "Nah, it's fine."
  },
  {
    "label": "002",
    "attribute": "0x00000018",
    "text": "It's currently playing\n{{fun_0000007D arg=\"0x0000\"}}."
  },
  {
    "label": "003",
    "attribute": "0x00000018",
    "text": "Nothing's playing."
  }
]