﻿[
  {
    "label": "001",
    "text": "안녕, {{string value=\"4\"}}?"
  },
  {
    "label": "002",
    "text": "{{string value=\"4\"}} 앞"
  },
  {
    "label": "003",
    "text": "저기, {{string value=\"4\"}}!"
  },
  {
    "label": "004",
    "text": "하이! {{string value=\"4\"}}!"
  },
  {
    "label": "005",
    "text": "{{string value=\"4\"}}에게"
  },
  {
    "label": "101",
    "text": "나한테 선물을 주다니\n정말 상냥하네, 고마워."
  },
  {
    "label": "102",
    "text": "당신이 보내준 선물,\n정말 센스가 좋은걸?"
  },
  {
    "label": "103",
    "text": "보내준 선물 말인데,\n정말 내가 받아도 괜찮니?"
  },
  {
    "label": "104",
    "text": "당신이 보내준 선물,\n내가 확실히 받았어."
  },
  {
    "label": "105",
    "text": "메시지 카드에다 멋진 선물까지,\n정말 당신의 배려에 감사해."
  },
  {
    "label": "201",
    "text": "사실은 나도 당신 몰래\n선물을 고르고 있었어.\n소소하지만 서프라이즈로 선물할게."
  },
  {
    "label": "202",
    "text": "내 나름대로 당신한테 딱 맞는\n답례품을 생각해봤어.\n부디 받아주겠어?"
  },
  {
    "label": "203",
    "text": "감사하는 마음을 담아서\n나도 선물을 함께 보낼게.\n우후훗, 뭔지는 직접 확인해봐."
  },
  {
    "label": "204",
    "text": "당신이 기뻐했으면 해서\n나도 살짝 답례로 줄 만한\n선물을 골라봤어."
  },
  {
    "label": "205",
    "text": "신기한 우연이네～\n나도 당신한테 선물을\n보내려고 생각 중이었거든."
  },
  {
    "label": "301",
    "text": "마음에 들었으면 좋겠어."
  },
  {
    "label": "302",
    "text": "예쁘게 써주면 기쁘겠어."
  },
  {
    "label": "303",
    "text": "당신 마음에도 들려나?"
  },
  {
    "label": "304",
    "text": "마음에 들면 한번 써봐."
  },
  {
    "label": "305",
    "text": "소중히 잘 써주면 고맙겠어."
  },
  {
    "label": "401",
    "text": "{{string value=\"VillagerName\"}}"
  },
  {
    "label": "402",
    "text": "From. {{string value=\"VillagerName\"}}"
  },
  {
    "label": "403",
    "text": "{{string value=\"VillagerName\"}}{{gender5 m=\"이야\" f=\"야\"}}～"
  },
  {
    "label": "404",
    "text": "마음을 담아 {{string value=\"VillagerName\"}}{{gender6 m=\"으로부터\" f=\"로부터\"}}"
  },
  {
    "label": "405",
    "text": "{{string value=\"VillagerName\"}}{{gender5 m=\"이\" f=\"가\"}}"
  }
]