﻿[
  {
    "label": "001",
    "attribute": "0x00000000",
    "text": "{{fun_0014003C arg=\"\"}}"
  },
  {
    "label": "001_01",
    "attribute": "0x00000000",
    "text": "{{anim id=\"Aha\" target=\"actor\" targetSpec=\"\"}}{{delay20}}Alors, comment ça va ?{{delay20}} J'ai filé\nici dès que j'ai reçu ton appel !"
  },
  {
    "label": "002",
    "attribute": "0x00000000",
    "text": "{{fun_0014003C arg=\"\"}}"
  },
  {
    "label": "002_01",
    "attribute": "0x00000000",
    "text": "{{anim id=\"BigSmile\" target=\"actor\" targetSpec=\"\"}}J'adore taquiner le goujon ici !{{delay20}}\nMerci de m'avoir réinvité !"
  },
  {
    "label": "003",
    "attribute": "0x00000000",
    "text": "{{fun_0014003C arg=\"\"}}"
  },
  {
    "label": "003_01",
    "attribute": "0x00000000",
    "text": "{{anim id=\"Aha\" target=\"actor\" targetSpec=\"\"}}{{delay20}}On dirait que tu as une prise\nsurprise{{string value=\"...\"}} Moi,{{delay20}} ha ha !{{delay20}} {{anim id=\"BigSmile\" target=\"actor\" targetSpec=\"\"}}Alors,{{delay8}}\ncomment ça va sinon ?"
  },
  {
    "label": "101",
    "attribute": "0x00000000",
    "text": "{{fun_0014003C arg=\"\"}}"
  },
  {
    "label": "101_01",
    "attribute": "0x00000000",
    "text": "{{anim id=\"FaintSmile\" target=\"actor\" targetSpec=\"\"}}C'est quand même fou que {{color id=\"3\"}}Djason{{color id=\"65535\"}} et\nmoi, on se retrouve toujours à traîner aux mêmes endroits.{{pageBreak}}{{anim id=\"EmotEnd\" target=\"actor\" targetSpec=\"\"}}Bon après,{{delay20}} un coin où on trouve{{anim id=\"Smiling\" target=\"actor\" targetSpec=\"\"}} à la\nfois des insectes ET des poissons,{{delay frames=\"40\"}}{{anim id=\"Laughing\" target=\"actor\" targetSpec=\"\"}}\nc'est logique qu'on s'y croise !"
  },
  {
    "label": "101_02",
    "attribute": "0x00000000",
    "text": "{{anim id=\"BigSmile\" target=\"actor\" targetSpec=\"\"}}Côté talents, on peut dire que\n{{color id=\"3\"}}Djason{{color id=\"65535\"}} a de quoi faire.{{delay20}} Pour te dire,\nil fabrique même mes appâts !"
  },
  {
    "label": "101_03",
    "attribute": "0x00000000",
    "text": "{{anim id=\"Nodding\" target=\"actor\" targetSpec=\"\"}}J'ai rarement l'occasion de venir ici\navec {{color id=\"3\"}}Djason{{color id=\"65535\"}}.{{delay frames=\"40\"}} {{anim id=\"Smiling\" target=\"actor\" targetSpec=\"\"}}Et ce qui est rare est\ncher, alors j'en profite !"
  },
  {
    "label": "101_04",
    "attribute": "0x00000000",
    "text": "{{anim id=\"Nodding\" target=\"actor\" targetSpec=\"\"}}Même quand je rentre éreinté du\ntournoi de pêche,{{delay8}} j'adore tailler le\nbout de gras autour d'un bon café !"
  },
  {
    "label": "101_05",
    "attribute": "0x00000000",
    "text": "{{anim id=\"Smiling\" target=\"actor\" targetSpec=\"\"}}Ça me fait toujours plaisir de\nrencontrer un{{gender2 m=\"\" f=\"e\"}} fan !{{pageBreak}}Si tu veux prendre quelques selfies\navec nous,{{delay20}} te gêne surtout pas !"
  },
  {
    "label": "401",
    "attribute": "0x00000000",
    "text": "{{anim id=\"Aha\" target=\"actor\" targetSpec=\"\"}}Wahou !{{delay40}} {{anim id=\"BigSmile\" target=\"actor\" targetSpec=\"\"}}Y a pas mieux que passer\nun moment en bonne compagnie !"
  }
]