﻿[
  {
    "label": "001",
    "attribute": "0x0000000000000000",
    "text": "{{fun_0014003C arg=\"\"}}"
  },
  {
    "label": "001_01",
    "attribute": "0x0000000000000000",
    "text": "{{anim id=\"Smiling\" target=\"actor\" targetSpec=\"\"}}이 {{string value=\"32\"}} 말야, {{delay20}}되게 좋지 않아～?{{delay frames=\"40\"}}\n나 {{delay8}}여기서는 며칠이든 있을 수 있어～{{delay frames=\"40\"}}\n{{anim id=\"Laughing\" target=\"actor\" targetSpec=\"\"}}그냥 이대로 여기서 살까～? {{string value=\"6\"}}?{{anim id=\"FaintSmile\" target=\"actor\" targetSpec=\"\"}}"
  },
  {
    "label": "001_02",
    "attribute": "0x0000000000000000",
    "text": "{{anim id=\"AbsentMindedness\" target=\"actor\" targetSpec=\"\"}}흐으음～ {{delay20}}그리운 냄새가 나아～{{string value=\"...\"}}{{i10_4}}\n{{anim id=\"EmotEnd\" target=\"actor\" targetSpec=\"\"}}이 {{string value=\"32\"}}은 {{delay8}}내가 어렸을 때 살던 데랑\n똑같은 냄새가 나서 {{delay8}}{{anim id=\"Greeting\" target=\"actor\" targetSpec=\"\"}}마음이 편해, {{string value=\"6\"}}!"
  },
  {
    "label": "001_03",
    "attribute": "0x0000000000000000",
    "text": "{{anim id=\"Smiling\" target=\"actor\" targetSpec=\"\"}}나{{delay8}} 여기가 정말 좋아～{{delay frames=\"40\"}}\n다음에 이사 가게 되면{{delay20}}\n이런 데로 가야지이～ {{string value=\"6\"}}!"
  },
  {
    "label": "002",
    "attribute": "0x0000000000000000",
    "text": "{{fun_0014003C arg=\"\"}}"
  },
  {
    "label": "002_01",
    "attribute": "0x0000000000000000",
    "text": "{{anim id=\"Smiling\" target=\"actor\" targetSpec=\"\"}}이 {{string value=\"32\"}} 말야, {{delay20}}되게 좋지 않아～?{{delay frames=\"40\"}}\n나 {{delay8}}여기서는 며칠이든 있을 수 있어～{{delay frames=\"40\"}}\n{{anim id=\"Laughing\" target=\"actor\" targetSpec=\"\"}}그냥 이대로 여기서 살까～? {{string value=\"6\"}}?{{anim id=\"FaintSmile\" target=\"actor\" targetSpec=\"\"}}"
  },
  {
    "label": "002_02",
    "attribute": "0x0000000000000000",
    "text": "{{anim id=\"AbsentMindedness\" target=\"actor\" targetSpec=\"\"}}흐으음～ {{delay20}}그리운 냄새가 나아～{{string value=\"...\"}}{{i10_4}}\n{{anim id=\"EmotEnd\" target=\"actor\" targetSpec=\"\"}}이 {{string value=\"32\"}}은 {{delay8}}내가 어렸을 때 살던 데랑\n똑같은 냄새가 나서 {{delay8}}{{anim id=\"Greeting\" target=\"actor\" targetSpec=\"\"}}마음이 편해, {{string value=\"6\"}}!"
  },
  {
    "label": "002_03",
    "attribute": "0x0000000000000000",
    "text": "{{anim id=\"Smiling\" target=\"actor\" targetSpec=\"\"}}나{{delay8}} 여기가 정말 좋아～{{delay frames=\"40\"}}\n다음에 이사 가게 되면{{delay20}}\n이런 데로 가야지이～ {{string value=\"6\"}}!"
  },
  {
    "label": "002_04",
    "attribute": "0x0000000000000000",
    "text": "{{anim id=\"Explain\" target=\"actor\" targetSpec=\"\"}}캠핑에서 제일{{delay8}} 기대되는 거라면{{delay20}}\n역시 밥이지이～{{pageBreak}}{{anim id=\"Blushing\" target=\"actor\" targetSpec=\"\"}}난 {{delay8}}밖에서 밥을 먹으면\n평소보다 더 많이 먹게 되더라구우～{{delay frames=\"40\"}}\n{{anim id=\"BigSmile\" target=\"actor\" targetSpec=\"\"}}집에서 먹는 것보다 맛있잖아～! {{string value=\"6\"}}!{{delay8}}{{anim id=\"FaintSmile\" target=\"actor\" targetSpec=\"\"}}"
  },
  {
    "label": "002_05",
    "attribute": "0x0000000000000000",
    "text": "{{anim id=\"Smiling\" target=\"actor\" targetSpec=\"\"}}집에서 느긋하게 쉬는 것도 좋지마안{{delay20}}\n가끔 이렇게 {{delay8}}캠핑을 하면서\n밖에서 노는 것도 좋다아～ {{string value=\"6\"}}!"
  },
  {
    "label": "003",
    "attribute": "0x0000000000000000",
    "text": "{{fun_0014003C arg=\"\"}}"
  },
  {
    "label": "003_01",
    "attribute": "0x0000000000000000",
    "text": "{{anim id=\"Smiling\" target=\"actor\" targetSpec=\"\"}}이 {{string value=\"32\"}}의 공기를 깊이 들이마시면{{delay20}}\n왠지 기분이 상쾌해져어～!{{delay frames=\"40\"}}\n{{anim id=\"HappyDance\" target=\"actor\" targetSpec=\"\"}}좋은 냄새가 나거드은, {{string value=\"6\"}}!"
  },
  {
    "label": "003_02",
    "attribute": "0x0000000000000000",
    "text": "{{anim id=\"Smiling\" target=\"actor\" targetSpec=\"\"}}캠핑에서 제일 좋은 게{{delay8}} 뭐냐면{{delay20}}\n역시 밥이지이～{{pageBreak}}{{anim id=\"Explain\" target=\"actor\" targetSpec=\"\"}}밖에서 먹는 밥은{{delay20}}\n평소보다 더 맛있게 느껴져서어{{delay20}}\n{{anim id=\"SmugFace\" target=\"actor\" targetSpec=\"\"}}많이 먹게 돼～ {{string value=\"6\"}}!"
  },
  {
    "label": "003_03",
    "attribute": "0x0000000000000000",
    "text": "{{anim id=\"Smiling\" target=\"actor\" targetSpec=\"\"}}집에서 뒹굴뒹굴 쉬는 것도 좋지마안{{delay20}}\n가끔 이렇게 서바이벌을 즐기고 싶어서{{delay20}}\n캠핑하러 나오곤 해～ {{string value=\"6\"}}!"
  },
  {
    "label": "101",
    "attribute": "0x0000000000000000",
    "text": "{{fun_0014003C arg=\"\"}}"
  },
  {
    "label": "101_01",
    "attribute": "0x0000000000000000",
    "text": "{{anim id=\"Smiling\" target=\"actor\" targetSpec=\"\"}}안녀엉～!{{delay frames=\"40\"}} 너{{delay20}} 이 {{string value=\"32\"}}에 사니이?{{delay frames=\"40\"}}\n난 여기에 캠핑하러 왔어～{{delay8}}{{anim id=\"FaintSmile\" target=\"actor\" targetSpec=\"\"}}{{pageBreak}}{{anim id=\"EmotEnd\" target=\"actor\" targetSpec=\"\"}}나중에 뒷정리도 하고 갈 테니까{{delay20}}\n{{anim id=\"FaintSmile\" target=\"actor\" targetSpec=\"\"}}잠깐만 {{delay8}}신세 좀 질게에!{{delay frames=\"40\"}}\n{{anim id=\"Greeting\" target=\"actor\" targetSpec=\"\"}}잘 부탁해～ {{string value=\"6\"}}!"
  },
  {
    "label": "101_02",
    "attribute": "0x0000000000000000",
    "text": "{{anim id=\"Greeting\" target=\"actor\" targetSpec=\"\"}}안녀엉～{{delay20}} 어서 와아～{{delay frames=\"40\"}}\n내 텐트에 온 걸 환영해～!{{delay frames=\"40\"}}\n즐겁게 {{delay20}}캠핑을 즐기는 중이야아～{{pageBreak}}{{anim id=\"Nodding\" target=\"actor\" targetSpec=\"\"}}이 {{string value=\"32\"}}은 공기도 맑고{{delay frames=\"40\"}}\n음식도 되게 맛있을 것 같아～{{delay frames=\"40\"}}\n{{anim id=\"Love\" target=\"actor\" targetSpec=\"\"}}부러워어～! {{string value=\"6\"}}!"
  },
  {
    "label": "101_03",
    "attribute": "0x0000000000000000",
    "text": "{{anim id=\"BigSmile\" target=\"actor\" targetSpec=\"\"}}안녀엉～!{{delay frames=\"40\"}}\n{{anim id=\"Smiling\" target=\"actor\" targetSpec=\"\"}}난 맛있는 음식을 찾아서{{delay20}}\n캠핑하러 왔어～!{{pageBreak}}{{anim id=\"EmotEnd\" target=\"actor\" targetSpec=\"\"}}있지,{{anim id=\"Hello\" target=\"actor\" targetSpec=\"\"}} 이 {{string value=\"32\"}}에서는 뭐가 젤 맛있어?{{delay frames=\"40\"}}\n{{anim id=\"HappyDance\" target=\"actor\" targetSpec=\"\"}}추천 좀 해주라아～ {{string value=\"6\"}}!!"
  },
  {
    "label": "201",
    "attribute": "0x0000000000000000",
    "text": "{{fun_0014003C arg=\"\"}}"
  },
  {
    "label": "201_01",
    "attribute": "0x0000000000000000",
    "text": "{{anim id=\"Smiling\" target=\"actor\" targetSpec=\"\"}}안녀엉～{{delay20}} 나 놀러왔어～!{{delay frames=\"40\"}}\n초대해줘서 고마워어～ {{string value=\"6\"}}!"
  },
  {
    "label": "201_02",
    "attribute": "0x0000000000000000",
    "text": "{{anim id=\"BigSmile\" target=\"actor\" targetSpec=\"\"}}안녀엉～ {{delay8}}초대해줘서 고마워～!{{delay frames=\"40\"}}\n{{anim id=\"Blushing\" target=\"actor\" targetSpec=\"\"}}네 연락을 받자마자{{delay20}} 후다닥\n준비하고 {{delay8}}달려왔어～ {{string value=\"6\"}}!"
  },
  {
    "label": "201_03",
    "attribute": "0x0000000000000000",
    "text": "{{anim id=\"Greeting\" target=\"actor\" targetSpec=\"\"}}안녀엉～!{{delay frames=\"40\"}}\n{{anim id=\"Smiling\" target=\"actor\" targetSpec=\"\"}}초대받고 넘 기뻐서{{delay20}}\n재빨리 놀러왔어～ {{string value=\"6\"}}!"
  },
  {
    "label": "202",
    "attribute": "0x0000000000000000",
    "text": "{{fun_0014003C arg=\"\"}}"
  },
  {
    "label": "202_01",
    "attribute": "0x0000000000000000",
    "text": "{{anim id=\"Greeting\" target=\"actor\" targetSpec=\"\"}}안녀엉～ {{delay20}}어서 와아～!{{delay frames=\"40\"}}\n{{anim id=\"FaintSmile\" target=\"actor\" targetSpec=\"\"}}이 {{string value=\"32\"}}에 사는 애한테 초대받아서{{delay20}}\n캠핑하러 왔어～ {{string value=\"6\"}}!"
  },
  {
    "label": "202_02",
    "attribute": "0x0000000000000000",
    "text": "{{anim id=\"BigSmile\" target=\"actor\" targetSpec=\"\"}}만나서 반가워어～!{{delay frames=\"40\"}}\n{{anim id=\"FaintSmile\" target=\"actor\" targetSpec=\"\"}}이 {{string value=\"32\"}}에 사는 애한테 초대받아서\n놀러왔어～ {{string value=\"6\"}}!"
  },
  {
    "label": "202_03",
    "attribute": "0x0000000000000000",
    "text": "{{anim id=\"FaintSmile\" target=\"actor\" targetSpec=\"\"}}오늘은 이 {{string value=\"32\"}}에 사는 애가 불러서{{delay20}}\n놀러오게 됐어～!{{delay frames=\"40\"}}\n{{anim id=\"Greeting\" target=\"actor\" targetSpec=\"\"}}잘 부탁할게에～ {{string value=\"6\"}}!"
  },
  {
    "label": "301",
    "attribute": "0x0000000000000000",
    "text": "{{fun_0014003C arg=\"\"}}"
  },
  {
    "label": "301_01",
    "attribute": "0x0000000000000000",
    "text": "{{anim id=\"SmugFace\" target=\"actor\" targetSpec=\"\"}}텐트 말이야, {{delay8}}되게 멋지지이～?{{delay frames=\"40\"}}\n나 혼자서 세웠다아～!{{delay frames=\"40\"}}\n{{anim id=\"Blushing\" target=\"actor\" targetSpec=\"\"}}펼치기만 하면 되는 거지만{{string value=\"...\"}}\n{{anim id=\"Worried\" target=\"actor\" targetSpec=\"\"}}근데 {{delay20}}집에 갈 때가 문제야아～{{delay frames=\"40\"}}\n이거 {{delay8}}접는 게 어렵거드은～{{delay frames=\"40\"}}\n{{anim id=\"Confused\" target=\"actor\" targetSpec=\"\"}}혼자선 힘들 것 같아～ {{string value=\"6\"}}～"
  },
  {
    "label": "301_02",
    "attribute": "0x0000000000000000",
    "text": "캠핑 때마다{{delay8}}\n준비물은 꼼꼼히 챙기는데도{{delay20}}\n{{anim id=\"Thinking\" target=\"actor\" targetSpec=\"\"}}꼭 빠뜨리는 물건이 나와아～{{pageBreak}}{{anim id=\"Serious\" target=\"actor\" targetSpec=\"\"}}근데 나 {{delay8}}성냥은 절대 안 잊어버린다아～?{{delay frames=\"40\"}}\n{{anim id=\"Frantic\" target=\"actor\" targetSpec=\"\"}}불을 못 피워서{{delay8}} 밥을 못 하면{{delay8}}\n큰일이잖아～ {{string value=\"6\"}}!"
  },
  {
    "label": "301_03",
    "attribute": "0x0000000000000000",
    "text": "{{anim id=\"Explain\" target=\"actor\" targetSpec=\"\"}}캠핑 메뉴 하면{{delay20}}\n역시 {{delay8}}{{anim id=\"Love\" target=\"actor\" targetSpec=\"\"}}카레라이스지이～!{{pageBreak}}{{anim id=\"Smiling\" target=\"actor\" targetSpec=\"\"}}근데{{delay8}} 카레라이스만 먹으면 질리니까{{delay20}}\n이번에는 카레 우동을 해보려구우～{{delay frames=\"40\"}}\n{{anim id=\"Eh\" target=\"actor\" targetSpec=\"\"}}{{string value=\"...\"}}그게 그거라구? {{string value=\"6\"}}?"
  },
  {
    "label": "301_04",
    "attribute": "0x0000000000000000",
    "text": "{{anim id=\"Explain\" target=\"actor\" targetSpec=\"\"}}텐트 안에 있으면{{delay20}} 집에 있을 때보다\n바깥 소리가 많이 들리더라구우{{delay frames=\"40\"}}\n{{anim id=\"Shocked\" target=\"actor\" targetSpec=\"\"}}{{string value=\"...\"}}헉!{{pageBreak}}{{anim id=\"Confused\" target=\"actor\" targetSpec=\"\"}}설마 텐트 안 소리도 {{delay8}}밖에 다 들리나아～?!{{delay frames=\"40\"}}\n으아아～ {{delay20}}내 배꼽시계 소리{{delay8}}\n누가 듣진 않았겠지이～?! {{string value=\"6\"}}!"
  },
  {
    "label": "301_05",
    "attribute": "0x0000000000000000",
    "text": "{{anim id=\"Smiling\" target=\"actor\" targetSpec=\"\"}}낯선 곳에 놀러다니면서{{delay8}}\n새로운 친구를 사귀는 것도{{delay20}}\n캠핑의 재미 중 하나지이～{{pageBreak}}{{anim id=\"HappyDance\" target=\"actor\" targetSpec=\"\"}}온 세상 여기저기에{{delay8}}\n친구가 있다고 생각하며언{{delay20}}\n넘 멋지지 않아～? {{string value=\"6\"}}?"
  },
  {
    "label": "302",
    "attribute": "0x0000000000000000",
    "text": "{{fun_0014003C arg=\"\"}}"
  },
  {
    "label": "302_01",
    "attribute": "0x0000000000000000",
    "text": "{{anim id=\"SmugFace\" target=\"actor\" targetSpec=\"\"}}텐트 말이야, {{delay8}}되게 멋지지이～?{{delay frames=\"40\"}}\n나 혼자서 세웠다아～!{{delay frames=\"40\"}}\n{{anim id=\"Blushing\" target=\"actor\" targetSpec=\"\"}}펼치기만 하면 되는 거지만{{string value=\"...\"}}\n{{anim id=\"Worried\" target=\"actor\" targetSpec=\"\"}}근데 {{delay20}}집에 갈 때가 문제야아～{{delay frames=\"40\"}}\n이거 {{delay8}}접는 게 어렵거드은～{{delay frames=\"40\"}}\n{{anim id=\"Confused\" target=\"actor\" targetSpec=\"\"}}혼자선 힘들 것 같아～ {{string value=\"6\"}}～"
  },
  {
    "label": "302_02",
    "attribute": "0x0000000000000000",
    "text": "캠핑 때마다{{delay8}}\n준비물은 꼼꼼히 챙기는데도{{delay20}}\n{{anim id=\"Thinking\" target=\"actor\" targetSpec=\"\"}}꼭 빠뜨리는 물건이 나와아～{{pageBreak}}{{anim id=\"Serious\" target=\"actor\" targetSpec=\"\"}}근데 나 {{delay8}}성냥은 절대 안 잊어버린다아～?{{delay frames=\"40\"}}\n{{anim id=\"Frantic\" target=\"actor\" targetSpec=\"\"}}불을 못 피워서{{delay8}} 밥을 못 하면{{delay8}}\n큰일이잖아～ {{string value=\"6\"}}!"
  },
  {
    "label": "302_03",
    "attribute": "0x0000000000000000",
    "text": "{{anim id=\"Explain\" target=\"actor\" targetSpec=\"\"}}캠핑 메뉴 하면{{delay20}}\n역시 {{delay8}}{{anim id=\"Love\" target=\"actor\" targetSpec=\"\"}}카레라이스지이～!{{pageBreak}}{{anim id=\"Smiling\" target=\"actor\" targetSpec=\"\"}}근데{{delay8}} 카레라이스만 먹으면 질리니까{{delay20}}\n이번에는 카레 우동을 해보려구우～{{delay frames=\"40\"}}\n{{anim id=\"Eh\" target=\"actor\" targetSpec=\"\"}}{{string value=\"...\"}}그게 그거라구? {{string value=\"6\"}}?"
  },
  {
    "label": "401",
    "attribute": "0x0000000000000000",
    "text": "{{fun_0014003C arg=\"\"}}"
  },
  {
    "label": "401_01",
    "attribute": "0x0000000000000000",
    "text": "{{anim id=\"AbsentMindedness\" target=\"actor\" targetSpec=\"\"}}이 {{string value=\"32\"}}에 세울 새 집은{{delay20}}\n어떻게 꾸미면 좋을까아～{{pageBreak}}{{anim id=\"HappyDance\" target=\"actor\" targetSpec=\"\"}}모두가 놀러오고 싶어질 정도로{{delay20}}\n멋진 집으로 만들고 싶으니깐{{delay20}}\n{{anim id=\"SmugFace\" target=\"actor\" targetSpec=\"\"}}미리 생각해 놔야지이～ {{string value=\"6\"}}!"
  },
  {
    "label": "401_02",
    "attribute": "0x0000000000000000",
    "text": "{{anim id=\"FaintSmile\" target=\"actor\" targetSpec=\"\"}}이 {{string value=\"32\"}}에 이사 오기로 정해졌겠다{{delay20}}\n집에 돌아가면 {{delay8}}바로\n준비 시작해야지이～ {{string value=\"6\"}}!"
  },
  {
    "label": "401_03",
    "attribute": "0x0000000000000000",
    "text": "{{anim id=\"Nodding\" target=\"actor\" targetSpec=\"\"}}새로운 {{string value=\"32\"}}에서 {{delay8}}새로운 생활{{string value=\"...\"}}{{delay frames=\"40\"}}\n이것저것 생각하다 보니까 너무 신나아～{{delay20}}\n{{anim id=\"ShyBoy\" target=\"actor\" targetSpec=\"\"}}오늘은 잠도 못 자겠어～ {{string value=\"6\"}}～"
  },
  {
    "label": "402",
    "attribute": "0x0000000000000000",
    "text": "{{fun_0014003C arg=\"\"}}"
  },
  {
    "label": "402_01",
    "attribute": "0x0000000000000000",
    "text": "내 얘기 좀 들어봐아～!{{delay frames=\"40\"}}\n{{anim id=\"Hesitate\" target=\"actor\" targetSpec=\"\"}}중요한 소식이 있어～{{delay frames=\"40\"}}\n있잖아,{{delay8}} 나{{string value=\"...\"}}{{pageBreak}}{{anim id=\"FaintSmile\" target=\"actor\" targetSpec=\"\"}}{{selection value=\"SelectedName\"}}{{gender5 m=\"이\" f=\"가\"}} 오라구 해서{{delay20}}\n{{anim id=\"BigSmile\" target=\"actor\" targetSpec=\"\"}}이 {{string value=\"32\"}}에 이사 오게 됐다아～!{{delay8}}{{anim id=\"FaintSmile\" target=\"actor\" targetSpec=\"\"}}{{pageBreak}}우후후, {{delay20}}다음에 또 보면{{delay8}}\n그땐 같은 {{string value=\"32\"}} 이웃이 돼 있을 거야아～{{delay frames=\"40\"}}\n{{anim id=\"Greeting\" target=\"actor\" targetSpec=\"\"}}앞으로 더 사이좋게 지내자아～ {{string value=\"6\"}}!"
  },
  {
    "label": "402_02",
    "attribute": "0x0000000000000000",
    "text": "{{anim id=\"Explain\" target=\"actor\" targetSpec=\"\"}}사실 나 {{delay8}}이 {{string value=\"32\"}}에\n이사 오게 됐어～{{delay frames=\"40\"}}\n{{anim id=\"BigSmile\" target=\"actor\" targetSpec=\"\"}}{{selection value=\"SelectedName\"}} 덕분이야아!{{delay8}}{{anim id=\"FaintSmile\" target=\"actor\" targetSpec=\"\"}}{{pageBreak}}{{anim id=\"Hesitate\" target=\"actor\" targetSpec=\"\"}}이사 오면{{delay20}} 너랑도\n많이많이 얘기하고 {{delay8}}친해지고 싶어～{{delay frames=\"50\"}}\n{{anim id=\"Apologize\" target=\"actor\" targetSpec=\"\"}}잘 부탁해에～! {{string value=\"6\"}}!{{anim id=\"FaintSmile\" target=\"actor\" targetSpec=\"\"}}"
  },
  {
    "label": "402_03",
    "attribute": "0x0000000000000000",
    "text": "{{anim id=\"Smiling\" target=\"actor\" targetSpec=\"\"}}{{selection value=\"SelectedName\"}}하고 얘기하다가아{{delay20}}\n이 {{string value=\"32\"}}에 살기로 결심했어～{{pageBreak}}{{anim id=\"EmotEnd\" target=\"actor\" targetSpec=\"\"}}이제 나도 여기 주민이 돼서{{delay20}}\n{{anim id=\"Pardon\" target=\"actor\" targetSpec=\"\"}}너랑 이웃이 된다는 뜻이야아～!{{delay frames=\"50\"}}\n{{anim id=\"HappyDance\" target=\"actor\" targetSpec=\"\"}}벌써 이삿날이 기다려져어～ {{string value=\"6\"}}～!"
  },
  {
    "label": "403",
    "attribute": "0x0000000000000000",
    "text": "{{fun_0014003C arg=\"\"}}"
  },
  {
    "label": "403_01",
    "attribute": "0x0000000000000000",
    "text": "{{anim id=\"HappyDance\" target=\"actor\" targetSpec=\"\"}}내 얘기 좀 들어봐아～{{delay frames=\"40\"}}\n{{string value=\"VillagerName\"}}의 {{delay20}}\n중대 발표가 있다구우～!{{pageBreak}}{{anim id=\"EmotEnd\" target=\"actor\" targetSpec=\"\"}}있지이, 나{{string value=\"...\"}}{{delay20}}\n{{anim id=\"BigSmile\" target=\"actor\" targetSpec=\"\"}}이 {{string value=\"32\"}}에{{delay8}} 이사 오게 됐다아～!{{delay8}}{{anim id=\"FaintSmile\" target=\"actor\" targetSpec=\"\"}}{{pageBreak}}{{anim id=\"Smiling\" target=\"actor\" targetSpec=\"\"}}우후후,{{delay20}} 다음에 만날 때는{{delay8}}\n같은 {{string value=\"32\"}} 이웃이 돼 있을 거야아～{{delay frames=\"40\"}}\n앞으로 더 사이좋게 지내자아～ {{string value=\"6\"}}!"
  },
  {
    "label": "403_02",
    "attribute": "0x0000000000000000",
    "text": "{{anim id=\"HappyFlower\" target=\"actor\" targetSpec=\"\"}}빅 뉴스～ {{delay8}}빅 뉴스야아～!{{delay frames=\"40\"}}\n사실 나 {{delay8}}조만간 이 {{string value=\"32\"}}에\n이사 오게 됐다아～!{{pageBreak}}{{anim id=\"Smiling\" target=\"actor\" targetSpec=\"\"}}나 이사 오면{{delay20}}\n매일매일 많이많이 놀자아～{{delay frames=\"40\"}}\n우후후,{{delay8}} 벌써 기대된다아～! {{string value=\"6\"}}!"
  },
  {
    "label": "403_03",
    "attribute": "0x0000000000000000",
    "text": "{{anim id=\"Serious\" target=\"actor\" targetSpec=\"\"}}있잖아{{string value=\"...\"}}{{delay20}}\n놀라지 말고 들어～{{delay frames=\"40\"}}\n사실 있지이{{string value=\"...\"}}{{pageBreak}}{{anim id=\"HappyDance\" target=\"actor\" targetSpec=\"\"}}나 이번에 {{delay8}}이 {{string value=\"32\"}}에 살게 됐어～{{delay frames=\"40\"}}\n너랑 이웃이 돼서{{delay20}} 여기 사는 거야아～!{{pageBreak}}{{anim id=\"EmotEnd\" target=\"actor\" targetSpec=\"\"}}이사 오면 이 {{string value=\"32\"}}에 대해서{{delay20}}\n많이많이 가르쳐주라아～{{delay frames=\"40\"}}\n{{anim id=\"Greeting\" target=\"actor\" targetSpec=\"\"}}앞으로 잘 부탁해～! {{string value=\"6\"}}!"
  },
  {
    "label": "501_01",
    "attribute": "0x0000010000000000",
    "text": "{{anim id=\"Smiling\" target=\"actor\" targetSpec=\"\"}}딱 하루 캠핑하러 온 건데에{{delay20}}\n이 {{string value=\"32\"}}이 얼마나 살기 좋은 곳인지{{delay8}}\n알게 돼버렸어～{{pageBreak}}{{anim id=\"Hesitate\" target=\"actor\" targetSpec=\"\"}}나도 언젠가는 {{delay8}}이런 {{string value=\"32\"}}에서\n살고 싶어～ {{string value=\"6\"}}～"
  },
  {
    "label": "501_01_a",
    "attribute": "0x0000000000000000",
    "text": "여기로 이사 와!"
  },
  {
    "label": "501_01_b",
    "attribute": "0x0000000000000000",
    "text": "파이팅!"
  },
  {
    "label": "501_02",
    "attribute": "0x0000010000000000",
    "text": "어쩌다 캠핑하러 온 {{string value=\"32\"}}에서{{delay20}}\n멋진 친구가 생겼는데에{{string value=\"...\"}}{{pageBreak}}{{anim id=\"Worried\" target=\"actor\" targetSpec=\"\"}}내일이면 다시 돌아가야 해서{{delay20}}\n넘 아쉬워어～{{string value=\"...\"}} {{string value=\"6\"}}{{string value=\"...\"}}"
  },
  {
    "label": "501_02_a",
    "attribute": "0x0000000000000000",
    "text": "여기서 살자!"
  },
  {
    "label": "501_02_b",
    "attribute": "0x0000000000000000",
    "text": "그러게…"
  },
  {
    "label": "501_03",
    "attribute": "0x0000010000000000",
    "text": "내가 이 {{string value=\"32\"}}에 캠핑하러 온 건 말이지이{{delay20}}\n{{anim id=\"Explain\" target=\"actor\" targetSpec=\"\"}}내가 여기 살면서 즐겁게 지내는{{delay8}}\n꿈을 꿨기 때문이야아～{{pageBreak}}{{anim id=\"EmotEnd\" target=\"actor\" targetSpec=\"\"}}내가 꾼 꿈에 대해서{{delay20}}\n{{anim id=\"QuestionMark\" target=\"actor\" targetSpec=\"\"}}너는 어떻게 생각해에～? {{string value=\"6\"}}?"
  },
  {
    "label": "501_03_a",
    "attribute": "0x0000000000000000",
    "text": "꿈을 현실로 만들자!"
  },
  {
    "label": "501_03_b",
    "attribute": "0x0000000000000000",
    "text": "신기한 꿈이네…"
  },
  {
    "label": "502_01",
    "attribute": "0x0000000000000000",
    "text": "응원해줘서 고마워어～!{{delay frames=\"40\"}}\n앞으로도 멋진 {{string value=\"32\"}}을 찾아서{{delay20}}\n{{anim id=\"SmugFace\" target=\"actor\" targetSpec=\"\"}}여기저기 캠핑해야지이～! {{string value=\"6\"}}!"
  },
  {
    "label": "502_02",
    "attribute": "0x0000000000000000",
    "text": "{{anim id=\"FaintSmile\" target=\"actor\" targetSpec=\"\"}}그치만 {{delay8}}날 기다리는\n친구가 있으니까 {{delay8}}돌아갈 거야아～!{{delay frames=\"40\"}}\n언젠가 또 만나자아～ {{string value=\"6\"}}!"
  },
  {
    "label": "502_03",
    "attribute": "0x0000000000000000",
    "text": "{{anim id=\"Hello\" target=\"actor\" targetSpec=\"\"}}그치～{{delay20}} 신기하지이～?{{delay frames=\"40\"}}\n{{anim id=\"EmotEnd\" target=\"actor\" targetSpec=\"\"}}그래도 그 꿈 덕분에 너랑 만났으니깐{{delay20}}\n{{anim id=\"BigSmile\" target=\"actor\" targetSpec=\"\"}}좋은 꿈이었던 것 같애～ {{string value=\"6\"}}!{{delay8}}{{anim id=\"FaintSmile\" target=\"actor\" targetSpec=\"\"}}"
  },
  {
    "label": "601_01",
    "attribute": "0x0000010000000000",
    "text": "{{anim id=\"Thinking\" target=\"actor\" targetSpec=\"\"}}멋진 물건을 만들 수 있는 자연에다가{{delay20}}\n그걸 만들어주는 좋은 사람까지 있는\n{{string value=\"34\"}}{{string value=\"...\"}}{{pageBreak}}{{anim id=\"HappyDance\" target=\"actor\" targetSpec=\"\"}}나 {{delay8}}이 {{string value=\"32\"}}이 더 더 좋아졌어～{{delay frames=\"40\"}}\n앞으로도 계～속 여기서\n살고 싶을 정도야아～ {{string value=\"6\"}}!"
  },
  {
    "label": "601_01_a",
    "attribute": "0x0000000000000000",
    "text": "살아도 돼!"
  },
  {
    "label": "601_01_b",
    "attribute": "0x0000000000000000",
    "text": "고마워"
  },
  {
    "label": "601_02",
    "attribute": "0x0000010000000000",
    "text": "{{anim id=\"Hesitate\" target=\"actor\" targetSpec=\"\"}}{{string value=\"34\"}} 사람이\n멋진 물건을 많이많이 만들어줘서어{{delay20}}\n나 {{delay8}}넘 기뻤어～{{pageBreak}}{{anim id=\"FaintSmile\" target=\"actor\" targetSpec=\"\"}}그런 좋은 사람이 사는 곳이니까{{delay20}}\n여긴 정말 좋은 {{string value=\"32\"}}이야아～{{delay frames=\"40\"}}\n돌아가기 싫어질 거 같아～ {{string value=\"6\"}}!"
  },
  {
    "label": "601_02_a",
    "attribute": "0x0000000000000000",
    "text": "여기로 이사 오지 그래?"
  },
  {
    "label": "601_02_b",
    "attribute": "0x0000000000000000",
    "text": "고마워"
  },
  {
    "label": "601_03",
    "attribute": "0x0000010000000000",
    "text": "{{anim id=\"Restless\" target=\"actor\" targetSpec=\"\"}}{{string value=\"34\"}}의 사람이{{delay8}}\n만들어준 물건을 보니까{{delay20}}\n이런 {{delay8}}생각이 들더라아～{{pageBreak}}{{anim id=\"EmotEnd\" target=\"actor\" targetSpec=\"\"}}나도 이 {{string value=\"32\"}}의 자연에 둘러싸여서{{delay8}}\n이렇게 좋은 물건을 만들 수 있다면{{delay20}}\n{{anim id=\"BigSmile\" target=\"actor\" targetSpec=\"\"}}넘 행복할 텐데에～! 하는 생각～ {{string value=\"6\"}}!{{delay8}}{{anim id=\"FaintSmile\" target=\"actor\" targetSpec=\"\"}}"
  },
  {
    "label": "601_03_a",
    "attribute": "0x0000000000000000",
    "text": "여기 살면 돼!"
  },
  {
    "label": "601_03_b",
    "attribute": "0x0000000000000000",
    "text": "고마워"
  },
  {
    "label": "602_01",
    "attribute": "0x0000000000000000",
    "text": "{{anim id=\"Greeting\" target=\"actor\" targetSpec=\"\"}}그치만 내가 사는 곳도 멋진 곳이야～{{delay frames=\"40\"}}\n다정한 친구들도 많이 있고{{delay20}}\n{{anim id=\"SmugFace\" target=\"actor\" targetSpec=\"\"}}자연환경도 좋은거얼～ {{string value=\"6\"}}!"
  },
  {
    "label": "602_02",
    "attribute": "0x0000000000000000",
    "text": "{{anim id=\"Worried\" target=\"actor\" targetSpec=\"\"}}그치만 {{delay8}}만약 내가 안 돌아가면{{delay20}}\n틀림없이 친구들이 외로워할 테니까아{{delay20}}\n{{anim id=\"EmotEnd\" target=\"actor\" targetSpec=\"\"}}돌아가야지이! {{string value=\"6\"}}!{{anim id=\"FaintSmile\" target=\"actor\" targetSpec=\"\"}}"
  },
  {
    "label": "602_03",
    "attribute": "0x0000000000000000",
    "text": "{{anim id=\"Nodding\" target=\"actor\" targetSpec=\"\"}}그치만 내가 사는 곳에서도{{delay20}}\n좋은 가구를 만들 수 있으니까 괜찮아～{{delay frames=\"40\"}}\n{{anim id=\"Greeting\" target=\"actor\" targetSpec=\"\"}}너한테도 보여주고 싶다아～ {{string value=\"6\"}}!"
  }
]