﻿[
  {
    "label": "001",
    "attribute": "0x0000000000000000",
    "text": "{{anim id=\"FaintSmile\" target=\"actor\" targetSpec=\"\"}}Dis, {{gender2 m=\"le jeune\" f=\"la jeune\"}}! {{delay8}}Qu'est-ce que tu dirais\nd'une {{color id=\"1\"}}bougie magique{{color id=\"65535\"}}?{{delay20}} {{anim id=\"Greeting\" target=\"actor\" targetSpec=\"\"}}Parce que\nj'en ai justement une à t'offrir!"
  },
  {
    "label": "002",
    "attribute": "0x0000000000000000",
    "text": "{{anim id=\"Nodding\" target=\"actor\" targetSpec=\"\"}}Maintenant, on va pouvoir profiter\nd'un grand spectacle en haut, {{delay8}}et d'un\npetit en bas, {{string value=\"6\"}}.{{delay20}}{{anim id=\"HappyDance\" target=\"actor\" targetSpec=\"\"}} Wouhou!"
  },
  {
    "label": "003",
    "attribute": "0x0000000000000000",
    "text": "{{anim id=\"Eh\" target=\"actor\" targetSpec=\"\"}}Ah, mais{{string value=\"...\"}} tes poches sont pleines,\n{{string value=\"Catchphrase\"}}!{{pageBreak}}{{anim id=\"BigSmile\" target=\"actor\" targetSpec=\"\"}}Écoute, va y faire un peu de place\net reviens.{{delay20}} Je resterai là à bayer aux\ncorneilles en attendant."
  }
]