﻿[
  {
    "label": "001",
    "attribute": "0x00000000",
    "text": "{{fun_0014003C arg=\"\"}}"
  },
  {
    "label": "001_01",
    "attribute": "0x00000000",
    "text": "{{anim id=\"Smiling\" target=\"actor\" targetSpec=\"\"}}Так здорово сидеть вместе со всеми\nза большим столом!"
  },
  {
    "label": "001_02",
    "attribute": "0x00000000",
    "text": "{{anim id=\"Blushing\" target=\"actor\" targetSpec=\"\"}}Ты знал{{gender2 m=\"\" f=\"а\"}}, что именно я показывал\nвсе тут {{color id=\"3\"}}Лотти{{color id=\"65535\"}},{{delay20}} когда она приехала\nтуристкой на остров?"
  },
  {
    "label": "001_03",
    "attribute": "0x00000000",
    "text": "{{color id=\"3\"}}{{anim id=\"Explain\" target=\"actor\" targetSpec=\"\"}}Ворделл {{color id=\"65535\"}}не любит хвастаться, но он\nможет провести под водой целых\n30 минут!{{pageBreak}}Он как рыба в воде!{{anim id=\"Laughing\" target=\"actor\" targetSpec=\"\"}} Он для воды{{string value=\"...\"}}\nпочетный гость."
  },
  {
    "label": "002",
    "attribute": "0x00000000",
    "text": "{{fun_0014003C arg=\"\"}}"
  },
  {
    "label": "002_01",
    "attribute": "0x00000000",
    "text": "{{anim id=\"HappyDance\" target=\"actor\" targetSpec=\"\"}}Обожаю вечеринки! {{delay20}}Тут такие\nинтересные личности собрались,\nчто{{delay8}} это будет мегакруто!"
  },
  {
    "label": "002_02",
    "attribute": "0x00000000",
    "text": "{{anim id=\"Smiling\" target=\"actor\" targetSpec=\"\"}}Ты уже попробовал{{gender2 m=\"\" f=\"а\"}} еду?{{delay frames=\"30\"}}\n{{anim id=\"Pardon\" target=\"actor\" targetSpec=\"\"}}Просто пальчики оближешь!{{delay8}}\nИ не раз!{{i10_4}}{{anim id=\"Worried\" target=\"actor\" targetSpec=\"\"}} {{size value=\"75\"}}Ой.{{size value=\"100\"}}"
  },
  {
    "label": "002_03",
    "attribute": "0x00000000",
    "text": "{{anim id=\"Nodding\" target=\"actor\" targetSpec=\"\"}}Когда я был поменьше,{{color id=\"4\"}} ну, еще\nменьше, чем сейчас{{color id=\"65535\"}},{{delay20}}{{anim id=\"FaintSmile\" target=\"actor\" targetSpec=\"\"}} бабушка\nрассказывала о фестивалях.{{pageBreak}}{{anim id=\"Thinking\" target=\"actor\" targetSpec=\"\"}}Думаю, они проходили на острове\nво времена моей пра-{{delay8}}пра-{{delay20}}пра-пра-\nбабушки."
  },
  {
    "label": "003",
    "attribute": "0x00000000",
    "text": "{{fun_0014003C arg=\"\"}}"
  },
  {
    "label": "003_01",
    "attribute": "0x00000000",
    "text": "{{anim id=\"Nodding\" target=\"actor\" targetSpec=\"\"}}Место проведения фестиваля\nготово!{{delay frames=\"40\"}}{{anim id=\"BigSmile\" target=\"actor\" targetSpec=\"\"}} Ты тоже в предвкушении\nпраздника?"
  },
  {
    "label": "003_02",
    "attribute": "0x00000000",
    "text": "{{anim id=\"ShyBoy\" target=\"actor\" targetSpec=\"\"}}Без {{color id=\"3\"}}Лотти {{color id=\"65535\"}}было непросто, да?"
  },
  {
    "label": "003_03",
    "attribute": "0x00000000",
    "text": "{{anim id=\"Explain\" target=\"actor\" targetSpec=\"\"}}Ты же знаешь, какой наш {{color id=\"3\"}}Ворделл\n{{color id=\"65535\"}}расслабленный, спокойный\nи неторопливый?{{pageBreak}}{{anim id=\"Aha\" target=\"actor\" targetSpec=\"\"}}Он так быстро плавает. Страшно\nбыстро! Тебе бы на него поглядеть.\nЯ до сих пор под впечатлением."
  },
  {
    "label": "101",
    "attribute": "0x00000000",
    "text": "{{fun_0014003C arg=\"\"}}"
  },
  {
    "label": "101_01",
    "attribute": "0x00000000",
    "text": "{{anim id=\"AbsentMindedness\" target=\"actor\" targetSpec=\"\"}}Ух ты. Мы закончили {{number value=\"Count\" index=\"0\"}} {{i50_9 x=\"0\" y=\"0\" a=\"проект\" b=\"проекта\" c=\"проектов\"}}?\nПравда?{{delay frames=\"40\"}} {{anim id=\"ShyBoy\" target=\"actor\" targetSpec=\"\"}}Или я сплю?{{delay8}} Ущипните\nменя."
  },
  {
    "label": "101_02",
    "attribute": "0x00000000",
    "text": "Когда-то{{delay8}} давно {{delay20}}{{anim id=\"Nodding\" target=\"actor\" targetSpec=\"\"}}{{color id=\"3\"}}Ворделл {{color id=\"65535\"}}играл на\nмузыкальном инструменте{{string value=\"...\"}}{{delay frames=\"30\"}} {{anim id=\"Love\" target=\"actor\" targetSpec=\"\"}}Как\nклассно! Может, он нам сыграет."
  },
  {
    "label": "101_03",
    "attribute": "0x00000000",
    "text": "Когда {{color id=\"3\"}}Лотти{{color id=\"65535\"}} плавает, ей никогда\nне попадает вода в лицо. {{delay20}}{{anim id=\"Thinking\" target=\"actor\" targetSpec=\"\"}}Как это\nу нее получается?"
  },
  {
    "label": "201",
    "attribute": "0x00000000",
    "text": "{{fun_0014003C arg=\"\"}}"
  },
  {
    "label": "201_01",
    "attribute": "0x00000000",
    "text": "{{anim id=\"Greeting\" target=\"actor\" targetSpec=\"\"}}Ура! {{delay20}}Да это же наш {{color id=\"1\"}}Легендарный\nкоординатор{{color id=\"65535\"}}!"
  },
  {
    "label": "201_02",
    "attribute": "0x00000000",
    "text": "Я тоже счастлив,{{anim id=\"Smiling\" target=\"actor\" targetSpec=\"\"}} что ты хорошие\nпроекты один за другим варганишь!"
  },
  {
    "label": "201_03",
    "attribute": "0x00000000",
    "text": "Правда, {{anim id=\"FaintSmile\" target=\"actor\" targetSpec=\"\"}}у {{color id=\"3\"}}Уилбура {{color id=\"65535\"}}здоровские\nсолнечные очки?{{i10_4}} {{anim id=\"Blushing\" target=\"actor\" targetSpec=\"\"}}Вот бы и мне\nв таких покрасоваться."
  }
]