﻿[
  {
    "label": "002",
    "attribute": "0x00000000",
    "text": "{{anim id=\"Love\" target=\"actor\" targetSpec=\"\"}}I be pleased as a porpoise that ye're\n{{anim id=\"EmotEnd\" target=\"actor\" targetSpec=\"\"}}takin' care o' everything.{{anim id=\"Smiling\" target=\"actor\" targetSpec=\"\"}} That works\nfer me!"
  },
  {
    "label": "003",
    "attribute": "0x01000000",
    "text": "{{anim id=\"Shocked\" target=\"actor\" targetSpec=\"\"}}Yer tellin' me I can choose?!{{delay frames=\"40\"}}{{anim id=\"EmotEnd\" target=\"actor\" targetSpec=\"\"}} Hrm{{string value=\"...\"}}\nWhat do ye think?{{delay20}}{{anim id=\"Hello\" target=\"actor\" targetSpec=\"\"}} What be the right\nway to go, {{string value=\"PlayerName\"}}?"
  },
  {
    "label": "003_01",
    "attribute": "0x00000000",
    "text": "{{anim id=\"Smiling\" target=\"actor\" targetSpec=\"\"}}I be in yer care today."
  },
  {
    "label": "003_03",
    "attribute": "0x00000000",
    "text": "{{anim id=\"Laughing\" target=\"actor\" targetSpec=\"\"}}{{color id=\"3\"}}Grams{{color id=\"65535\"}}'ll have a hard time comin' up\nwith any complaints about this place!\n{{delay frames=\"40\"}}Let's get to it!"
  },
  {
    "label": "003_04",
    "attribute": "0x00000000",
    "text": "{{anim id=\"Smiling\" target=\"actor\" targetSpec=\"\"}}Ye're such a help to those in need,{{delay20}}\n{{string value=\"PlayerName\"}}!"
  },
  {
    "label": "003_a",
    "attribute": "0x00000000",
    "text": "A one-level home."
  },
  {
    "label": "003_b",
    "attribute": "0x00000000",
    "text": "A big two-level home."
  },
  {
    "label": "004",
    "attribute": "0x00000000",
    "text": "{{anim id=\"Smiling\" target=\"actor\" targetSpec=\"\"}}Aye!{{delay20}} One story it is,{{delay20}} then!"
  },
  {
    "label": "005",
    "attribute": "0x00000000",
    "text": "{{anim id=\"Smiling\" target=\"actor\" targetSpec=\"\"}}Aye!{{delay20}} Two stories it is,{{delay20}} then!"
  }
]