﻿[
  {
    "label": "001",
    "attribute": "0x0000000000000000",
    "text": "{{fun_0014003C arg=\"\"}}"
  },
  {
    "label": "001_01",
    "attribute": "0x0000000000000000",
    "text": "{{anim id=\"Greeting\" target=\"actor\" targetSpec=\"\"}}嗨，{{delay8}}你好～！{{delay frames=\"40\"}}\n我叫做{{delay20}}{{string value=\"VillagerName\"}}喔～{{delay frames=\"40\"}}\n{{anim id=\"FaintSmile\" target=\"actor\" targetSpec=\"\"}}今天是來這座島玩的～{{pageBreak}}{{anim id=\"EmotEnd\" target=\"actor\" targetSpec=\"\"}}你是{{string value=\"...\"}}{{delay20}}\n{{anim id=\"Nodding\" target=\"actor\" targetSpec=\"\"}}{{string value=\"4\"}}？{{delay frames=\"40\"}}\n是從{{string value=\"34\"}}來的呀～{{pageBreak}}{{anim id=\"FaintSmile\" target=\"actor\" targetSpec=\"\"}}既然都認識了，{{delay20}}\n我們就一起玩吧～{{delay frames=\"40\"}}\n{{anim id=\"BigSmile\" target=\"actor\" targetSpec=\"\"}}雖然時間不多，還是請多指教喔～{{string value=\"6\"}}。{{delay8}}{{anim id=\"FaintSmile\" target=\"actor\" targetSpec=\"\"}}"
  },
  {
    "label": "001_02",
    "attribute": "0x0000000000000000",
    "text": "{{anim id=\"Shocked\" target=\"actor\" targetSpec=\"\"}}哇～{{delay20}}這座島有其他人在耶～！{{delay frames=\"40\"}}\n{{anim id=\"EmotEnd\" target=\"actor\" targetSpec=\"\"}}{{string value=\"...\"}}什麼嘛，{{delay20}}\n{{anim id=\"Laughing\" target=\"actor\" targetSpec=\"\"}}原來你也是來玩的喔～{{pageBreak}}{{anim id=\"FaintSmile\" target=\"actor\" targetSpec=\"\"}}你好！{{delay frames=\"40\"}}我是{{delay8}}{{string value=\"VillagerName\"}}～！{{delay frames=\"40\"}}\n{{anim id=\"EmotEnd\" target=\"actor\" targetSpec=\"\"}}你是從{{string value=\"34\"}}來的{{delay20}}\n{{anim id=\"Nodding\" target=\"actor\" targetSpec=\"\"}}{{string value=\"4\"}}呀～{{pageBreak}}{{anim id=\"ShyBoy\" target=\"actor\" targetSpec=\"\"}}我完全沒想到{{delay8}}\n會在這裡交到朋友耶～{{delay frames=\"40\"}}\n{{anim id=\"Greeting\" target=\"actor\" targetSpec=\"\"}}欸嘿嘿，{{delay20}}我們要好好相處喔！{{string value=\"6\"}}。"
  },
  {
    "label": "001_03",
    "attribute": "0x0000000000000000",
    "text": "{{anim id=\"Aha\" target=\"actor\" targetSpec=\"\"}}啊，{{delay20}}你好～！{{delay frames=\"40\"}}\n{{anim id=\"FaintSmile\" target=\"actor\" targetSpec=\"\"}}我是{{delay20}}{{string value=\"VillagerName\"}}喔～{{delay frames=\"40\"}}\n{{anim id=\"Greeting\" target=\"actor\" targetSpec=\"\"}}不好意思打擾了～！{{pageBreak}}{{anim id=\"EmotEnd\" target=\"actor\" targetSpec=\"\"}}{{string value=\"...\"}}{{anim id=\"Eh\" target=\"actor\" targetSpec=\"\"}}咦？{{delay20}}你也是來玩的？{{delay frames=\"40\"}}\n{{anim id=\"Laughing\" target=\"actor\" targetSpec=\"\"}}什麼嘛～{{delay20}}那就和我一樣啦～{{pageBreak}}{{anim id=\"Smiling\" target=\"actor\" targetSpec=\"\"}}嗯嗯，{{delay20}}你是{{string value=\"34\"}}的\n{{string value=\"4\"}}呀～{{delay frames=\"40\"}}\n{{anim id=\"BigSmile\" target=\"actor\" targetSpec=\"\"}}我們要好好相處喔！{{string value=\"6\"}}。{{delay8}}{{anim id=\"FaintSmile\" target=\"actor\" targetSpec=\"\"}}"
  },
  {
    "label": "004",
    "attribute": "0x0000020000000000",
    "text": "{{anim id=\"Explain\" target=\"actor\" targetSpec=\"\"}}這座島有很豐富的大自然，{{delay20}}\n所以待在這裡感覺很舒服，{{delay20}}\n{{anim id=\"Greeting\" target=\"actor\" targetSpec=\"\"}}好想一直留在這裡喔～{{pageBreak}}{{anim id=\"Hesitate\" target=\"actor\" targetSpec=\"\"}}其實我啊～{{delay20}}\n從以前就一直夢想著{{delay8}}\n{{anim id=\"Love\" target=\"actor\" targetSpec=\"\"}}可以住在這樣的島喔～{{string value=\"6\"}}。"
  },
  {
    "label": "004_a",
    "attribute": "0x0000000000000000",
    "text": "{{anim id=\"EmotEnd\" target=\"player\" targetSpec=\"\"}}要不要來我住的島看看？"
  },
  {
    "label": "004_b",
    "attribute": "0x0000000000000000",
    "text": "{{anim id=\"EmotEnd\" target=\"player\" targetSpec=\"\"}}對呀，這裡很棒呢"
  },
  {
    "label": "005",
    "attribute": "0x0000000000000000",
    "text": "{{anim id=\"Smiling\" target=\"actor\" targetSpec=\"\"}}呵呵，{{delay20}}我說的沒錯吧～{{delay frames=\"40\"}}\n{{anim id=\"HappyDance\" target=\"actor\" targetSpec=\"\"}}既然今天都來這裡了，{{delay20}}\n那就玩得開心點吧～{{string value=\"6\"}}。"
  },
  {
    "label": "006",
    "attribute": "0x0000000000000000",
    "text": "{{anim id=\"Eh\" target=\"actor\" targetSpec=\"\"}}咦！？{{delay frames=\"40\"}}我記得你住的島{{string value=\"...\"}}{{delay frames=\"40\"}}\n{{anim id=\"QuestionMark\" target=\"actor\" targetSpec=\"\"}}是{{string value=\"34\"}}嗎？{{i10_4}}\n{{anim id=\"Thinking\" target=\"actor\" targetSpec=\"\"}}嗯？{{delay frames=\"40\"}}我好像有聽過{{string value=\"...\"}}{{pageBreak}}{{anim id=\"TakenAback\" target=\"actor\" targetSpec=\"\"}}啊～！{{delay frames=\"40\"}}\n{{anim id=\"Restless\" target=\"actor\" targetSpec=\"\"}}那座島，{{delay20}}因為我之前想搬去，{{delay20}}\n所以有打電話到那裡喔～{{pageBreak}}{{anim id=\"Serious\" target=\"actor\" targetSpec=\"\"}}我想住的島{{delay20}}\n竟然就是你住的島{{string value=\"...\"}}{{delay frames=\"40\"}}\n{{anim id=\"EmotEnd\" target=\"actor\" targetSpec=\"\"}}這一定就是{{delay8}}命中注定～！{{pageBreak}}{{anim id=\"Nodding\" target=\"actor\" targetSpec=\"\"}}既然這樣，{{delay8}}那我立刻就搬！{{delay frames=\"40\"}}\n{{anim id=\"FaintSmile\" target=\"actor\" targetSpec=\"\"}}下次就在{{string value=\"34\"}}見面吧，{{delay frames=\"40\"}}\n我很期待喔～{{string value=\"6\"}}。"
  },
  {
    "label": "007",
    "attribute": "0x0000010000000000",
    "text": "{{anim id=\"Eh\" target=\"actor\" targetSpec=\"\"}}咦！？{{delay frames=\"40\"}}我記得你住的島{{string value=\"...\"}}{{delay20}}\n是{{string value=\"34\"}}吧？{{delay frames=\"40\"}}\n{{anim id=\"QuestionMark\" target=\"actor\" targetSpec=\"\"}}那座島也像這樣嗎？{{pageBreak}}{{anim id=\"Aha\" target=\"actor\" targetSpec=\"\"}}哇～！{{delay20}}{{anim id=\"Smiling\" target=\"actor\" targetSpec=\"\"}}那我想去看看～！{{delay frames=\"40\"}}\n如果有{{string value=\"4\"}}的話，{{delay20}}\n就算是陌生的島我也不擔心～{{string value=\"6\"}}。"
  },
  {
    "label": "007_a",
    "attribute": "0x0000000000000000",
    "text": "那我等你來喔"
  },
  {
    "label": "007_b",
    "attribute": "0x0000000000000000",
    "text": "我很期待你來"
  },
  {
    "label": "008",
    "attribute": "0x0000000000000000",
    "text": "{{anim id=\"EmotEnd\" target=\"actor\" targetSpec=\"\"}}{{string value=\"...\"}}話說回來，{{delay20}}\n{{anim id=\"ShyBoy\" target=\"actor\" targetSpec=\"\"}}我要怎麼做{{delay8}}\n才可以搬去{{string value=\"34\"}}呢？{{pageBreak}}{{anim id=\"Nodding\" target=\"actor\" targetSpec=\"\"}}哦～{{delay20}}只要打電話給叫做{{color id=\"3\"}}狸克{{color id=\"65535\"}}的人，{{delay20}}\n就可以知道很多事情嗎？{{delay frames=\"40\"}}\n{{anim id=\"BigSmile\" target=\"actor\" targetSpec=\"\"}}謝謝你！{{delay20}}那我立刻打去問～{{pageBreak}}{{anim id=\"HappyDance\" target=\"actor\" targetSpec=\"\"}}今天真的是很幸運的一天耶～{{delay frames=\"40\"}}\n不只認識了新朋友，{{delay20}}\n還實現了我的夢想耶～{{string value=\"6\"}}。"
  },
  {
    "label": "009",
    "attribute": "0x0000000000000000",
    "text": "{{fun_0014003C arg=\"\"}}"
  },
  {
    "label": "009_01",
    "attribute": "0x0000000000000000",
    "text": "{{anim id=\"Explain\" target=\"actor\" targetSpec=\"\"}}這座島上{{delay8}}到處都有樹木和花朵，{{delay20}}\n如果收集很多帶回家，{{delay20}}\n{{anim id=\"Nodding\" target=\"actor\" targetSpec=\"\"}}感覺會是很棒的材料耶～{{string value=\"6\"}}。"
  },
  {
    "label": "009_02",
    "attribute": "0x0000000000000000",
    "text": "{{anim id=\"Smiling\" target=\"actor\" targetSpec=\"\"}}這座島雖然小小的，{{delay20}}\n但有豐富的大自然，{{delay20}}\n所以我覺得{{delay20}}{{anim id=\"Greeting\" target=\"actor\" targetSpec=\"\"}}很適合給蟲蟲和魚兒住喔～{{string value=\"6\"}}。"
  },
  {
    "label": "009_03",
    "attribute": "0x0000000000000000",
    "text": "{{anim id=\"Explain\" target=\"actor\" targetSpec=\"\"}}我本來很煩惱，因為帶來的道具壞掉了，{{delay20}}\n結果{{color id=\"3\"}}陸德里{{color id=\"65535\"}}把自己的分給我耶～{{delay frames=\"40\"}}\n{{anim id=\"WrySmile\" target=\"actor\" targetSpec=\"\"}}可是是用哩數交換的{{string value=\"...\"}}{{string value=\"6\"}}。"
  },
  {
    "label": "010",
    "attribute": "0x0000000000000000",
    "text": "{{fun_0014003C arg=\"\"}}"
  },
  {
    "label": "010_01",
    "attribute": "0x0000000000000000",
    "text": "{{anim id=\"AbsentMindedness\" target=\"actor\" targetSpec=\"\"}}{{string value=\"34\"}}呀{{string value=\"...\"}}{{delay frames=\"40\"}}\n一定是很棒的地方吧～{{delay frames=\"60\"}}\n{{anim id=\"FaintSmile\" target=\"actor\" targetSpec=\"\"}}呵呵，{{delay20}}{{anim id=\"BigSmile\" target=\"actor\" targetSpec=\"\"}}我好想快點去～！{{string value=\"6\"}}。{{delay8}}{{anim id=\"FaintSmile\" target=\"actor\" targetSpec=\"\"}}"
  },
  {
    "label": "010_02",
    "attribute": "0x0000000000000000",
    "text": "{{anim id=\"Thinking\" target=\"actor\" targetSpec=\"\"}}來這座島上玩碰巧受到邀請，{{delay20}}\n還決定了搬家的事情{{string value=\"...\"}}{{i10_4}}\n{{anim id=\"Laughing\" target=\"actor\" targetSpec=\"\"}}簡直就像是電視劇的情節耶～{{string value=\"6\"}}。{{anim id=\"FaintSmile\" target=\"actor\" targetSpec=\"\"}}"
  },
  {
    "label": "010_03",
    "attribute": "0x0000000000000000",
    "text": "{{anim id=\"FaintSmile\" target=\"actor\" targetSpec=\"\"}}偶爾一個人{{delay8}}隨興旅行也很好耶～{{delay frames=\"40\"}}\n{{anim id=\"Love\" target=\"actor\" targetSpec=\"\"}}而且還可以交到新朋友，{{string value=\"6\"}}。"
  }
]