﻿[
  {
    "label": "001",
    "attribute": "0x0000000000000000",
    "text": "{{fun_0014003C arg=\"\"}}"
  },
  {
    "label": "001_01",
    "attribute": "0x0000000000000000",
    "text": "{{anim id=\"Thinking\" target=\"actor\" targetSpec=\"\"}}Aux yeux des insectes,{{delay8}} on doit avoir\nl'air gros{{string value=\"...\"}}{{delay8}} Pas forcément super\ncostauds,{{delay8}} mais plutôt{{delay8}} gigantesques!{{pageBreak}}{{anim id=\"SmugFace\" target=\"actor\" targetSpec=\"\"}}Même si on peut être gros{{delay8}} à la fois\npar la taille ET par les muscles!"
  },
  {
    "label": "001_02",
    "attribute": "0x0000000000000000",
    "text": "{{anim id=\"QuestionMark\" target=\"actor\" targetSpec=\"\"}}Je me demande si ramper et sauter\ntoute la journée est un bon exercice\nde développement musculaire{{string value=\"...\"}}{{pageBreak}}{{anim id=\"Nodding\" target=\"actor\" targetSpec=\"\"}}Les muscles d'insectes sont si petits\nque j'ai du mal à donner mon avis,\n{{string value=\"Catchphrase\"}}."
  },
  {
    "label": "001_03",
    "attribute": "0x0000000000000000",
    "text": "{{anim id=\"Explain\" target=\"actor\" targetSpec=\"\"}}Certains insectes sont capables de\nsoulever plusieurs fois leur propre\npoids{{string value=\"...\"}}{{delay8}} {{anim id=\"HappyDance\" target=\"actor\" targetSpec=\"\"}}De vrais modèles à suivre!"
  },
  {
    "label": "002",
    "attribute": "0x0000000000000000",
    "text": "{{fun_0014003C arg=\"\"}}"
  },
  {
    "label": "002_01",
    "attribute": "0x0000000000000000",
    "text": "{{anim id=\"Explain\" target=\"actor\" targetSpec=\"\"}}Un insecte doit être suffisamment\ncostaud pour faire face à tout ce qui\nl'attend{{string value=\"...\"}}{{delay8}} La nature est sauvage!"
  },
  {
    "label": "002_02",
    "attribute": "0x0000000000000000",
    "text": "{{anim id=\"Thinking\" target=\"actor\" targetSpec=\"\"}}Si j'étais un insecte,{{delay8}} j'aurais peur de\nperdre la forme,{{delay8}} enfermé ici.{{delay20}} {{anim id=\"WrySmile\" target=\"actor\" targetSpec=\"\"}}Je suis\nsûr qu'il leur faudrait un entraîneur."
  },
  {
    "label": "002_03",
    "attribute": "0x0000000000000000",
    "text": "{{anim id=\"Nodding\" target=\"actor\" targetSpec=\"\"}}Les insectes maîtrisent tout plein de\ntechniques incroyables.{{delay20}} {{anim id=\"SmugFace\" target=\"actor\" targetSpec=\"\"}}J'aimerais\ncopier certains de leurs mouvements.{{pageBreak}}{{anim id=\"WrySmile\" target=\"actor\" targetSpec=\"\"}}Et maintenant,{{delay8}} j'ai des courbatures à\ndes muscles totalement nouveaux,\n{{string value=\"Catchphrase\"}}!"
  },
  {
    "label": "003",
    "attribute": "0x0000000000000000",
    "text": "{{fun_0014003C arg=\"\"}}"
  },
  {
    "label": "003_01",
    "attribute": "0x0000000000000000",
    "text": "{{anim id=\"Hot\" target=\"actor\" targetSpec=\"\"}}Ouah,{{delay8}} c'est un vrai sauna,{{delay8}} ici!{{delay20}}\nLes insectes doivent tous sentir la\ntranspiration!{{delay20}} {{anim id=\"WrySmile\" target=\"actor\" targetSpec=\"\"}}Moi oui en tout cas."
  },
  {
    "label": "003_02",
    "attribute": "0x0000000000000000",
    "text": "{{anim id=\"WrySmile\" target=\"actor\" targetSpec=\"\"}}J'adore venir flâner ici{{delay8}} après un bon\nentraînement.{{delay20}} {{anim id=\"BigSmile\" target=\"actor\" targetSpec=\"\"}}La chaleur dans cette\npièce fait un bien fou à mes muscles."
  },
  {
    "label": "003_03",
    "attribute": "0x0000000000000000",
    "text": "{{anim id=\"Smiling\" target=\"actor\" targetSpec=\"\"}}Entre la chaleur et le bon parfum\ndes fleurs{{string value=\"...\"}}{{delay8}} {{anim id=\"Sleepy\" target=\"actor\" targetSpec=\"\"}}c'est pas toujours facile\nde garder les yeux ouverts,{{delay8}} ici."
  },
  {
    "label": "100",
    "attribute": "0x0000000000000000",
    "text": "{{fun_0014003C arg=\"\"}}"
  },
  {
    "label": "100_01",
    "attribute": "0x0000000000000000",
    "text": "{{anim id=\"Smiling\" target=\"actor\" targetSpec=\"\"}}Belle collection,{{delay8}} hein?{{delay20}} Ça fait\nlongtemps que les insectes\nt'ont piqué?{{delay20}}\n{{anim id=\"Restless\" target=\"actor\" targetSpec=\"\"}}Euh{{string value=\"...\"}} qu'ils ont piqué ta curiosité?"
  },
  {
    "label": "100_02",
    "attribute": "0x0000000000000000",
    "text": "{{anim id=\"QuestionMark\" target=\"actor\" targetSpec=\"\"}}Que penses-tu de notre collection\nd'insectes?{{delay20}} {{anim id=\"BigSmile\" target=\"actor\" targetSpec=\"\"}}{{capitalizeNextLetter}}{{string value=\"OtherIslandName\"}} est\nenvahie d'insectes super malades!"
  },
  {
    "label": "100_03",
    "attribute": "0x0000000000000000",
    "text": "{{anim id=\"Nodding\" target=\"actor\" targetSpec=\"\"}}T'es venu{{gender2 m=\"\" f=\"e\"}} jusqu'ici à la nage?{{delay20}}\n{{anim id=\"EmotEnd\" target=\"actor\" targetSpec=\"\"}}Moi,{{delay8}} c'est comme ça que j'aime\nvoyager d'île en île!"
  },
  {
    "label": "200",
    "attribute": "0x0000000000000000",
    "text": "{{fun_0014003C arg=\"\"}}"
  },
  {
    "label": "200_01",
    "attribute": "0x0000000000000000",
    "text": "{{anim id=\"Smiling\" target=\"actor\" targetSpec=\"\"}}Comment tu trouves notre nouveau\n{{color id=\"1\"}}musée{{color id=\"65535\"}}?{{delay20}} {{anim id=\"Nodding\" target=\"actor\" targetSpec=\"\"}}Il est trop malade, hein?!{{pageBreak}}{{anim id=\"AbsentMindedness\" target=\"actor\" targetSpec=\"\"}}Même quand il pleut,{{delay8}} tu peux voir\nplein d'insectes s'agiter tout autour\nde toi, {{string value=\"6\"}}!"
  },
  {
    "label": "200_02",
    "attribute": "0x0000000000000000",
    "text": "{{anim id=\"AbsentMindedness\" target=\"actor\" targetSpec=\"\"}}Notre {{color id=\"1\"}}musée{{color id=\"65535\"}} est si grand que les\ninsectes peuvent voler et virevolter\ndans tous les sens à leur guise.{{pageBreak}}{{anim id=\"Nodding\" target=\"actor\" targetSpec=\"\"}}Je parie qu'ils apprécient de pouvoir\nfaire autant d'exercice, {{string value=\"6\"}}."
  },
  {
    "label": "200_03",
    "attribute": "0x0000000000000000",
    "text": "{{anim id=\"Smiling\" target=\"actor\" targetSpec=\"\"}}Le {{color id=\"1\"}}musée{{color id=\"65535\"}} est vraiment génial!{{delay20}} {{anim id=\"AbsentMindedness\" target=\"actor\" targetSpec=\"\"}}Dans\nl'exposition d'insectes,{{delay8}} on retrouve\nun peu la température d'un sauna{{string value=\"...\"}}{{pageBreak}}{{anim id=\"SmugFace\" target=\"actor\" targetSpec=\"\"}}Comme ça,{{delay8}} je m'instruis{{delay8}} et en même\ntemps,{{delay8}} je transpire un bon coup,\n{{string value=\"6\"}}!"
  }
]