﻿[
  {
    "label": "002",
    "attribute": "0x0000000000000000",
    "text": "{{anim id=\"FaintSmile\" target=\"actor\" targetSpec=\"\"}}刚才{{delay8}}我看到{{delay8}}\n{{string value=\"32\"}}上的土地又在出售。{{pageBreak}}{{anim id=\"HappyDance\" target=\"actor\" targetSpec=\"\"}}莫非，{{delay8}}终于要有新的伙伴\n搬来这里了吗？！{{delay20}}\n{{anim id=\"BigSmile\" target=\"actor\" targetSpec=\"\"}}我已经迫不及待了！{{string value=\"6\"}}。{{delay8}}{{anim id=\"FaintSmile\" target=\"actor\" targetSpec=\"\"}}"
  },
  {
    "label": "003",
    "attribute": "0x0000000000000000",
    "text": "{{fun_0014003C arg=\"\"}}"
  },
  {
    "label": "003_01",
    "attribute": "0x0000000000000000",
    "text": "{{anim id=\"BigSmile\" target=\"actor\" targetSpec=\"\"}}说起来，{{delay8}}\n{{string value=\"32\"}}上的土地{{delay8}}又在出售！{{anim id=\"FaintSmile\" target=\"actor\" targetSpec=\"\"}}{{pageBreak}}{{anim id=\"AbsentMindedness\" target=\"actor\" targetSpec=\"\"}}这次搬来的会是怎样的人呢～{{delay20}}\n这个问题每次都让我兴奋不已。{{string value=\"6\"}}。"
  },
  {
    "label": "003_02",
    "attribute": "0x0000000000000000",
    "text": "{{anim id=\"FaintSmile\" target=\"actor\" targetSpec=\"\"}}刚才，{{delay8}}我看到{{delay8}}\n{{string value=\"32\"}}上的土地又在出售。{{pageBreak}}{{anim id=\"ShyBoy\" target=\"actor\" targetSpec=\"\"}}好像还没有找到买家，{{delay20}}\n{{anim id=\"FaintSmile\" target=\"actor\" targetSpec=\"\"}}不过{{color id=\"3\"}}狸克{{color id=\"65535\"}}一定会{{delay8}}\n{{anim id=\"Hello\" target=\"actor\" targetSpec=\"\"}}努力把它卖出去的。{{string value=\"6\"}}。"
  },
  {
    "label": "003_03",
    "attribute": "0x0000000000000000",
    "text": "{{anim id=\"FaintSmile\" target=\"actor\" targetSpec=\"\"}}说起来，{{delay8}}刚才我看到{{delay8}}\n{{string value=\"32\"}}上的土地在出售！{{pageBreak}}{{anim id=\"Love\" target=\"actor\" targetSpec=\"\"}}也就是说，不久之后{{delay8}}\n岛上又会增加一位可爱的伙伴！{{delay20}}\n{{anim id=\"HappyDance\" target=\"actor\" targetSpec=\"\"}}买家能不能快点出现呢？{{string value=\"6\"}}。"
  },
  {
    "label": "005",
    "attribute": "0x0000000000000000",
    "text": "{{fun_0014003C arg=\"\"}}"
  },
  {
    "label": "005_01",
    "attribute": "0x0000000000000000",
    "text": "{{anim id=\"FaintSmile\" target=\"actor\" targetSpec=\"\"}}说起来，{{delay8}}正在出售的土地{{delay8}}\n{{anim id=\"Greeting\" target=\"actor\" targetSpec=\"\"}}已经签好买卖契约了！{{pageBreak}}{{anim id=\"Explain\" target=\"actor\" targetSpec=\"\"}}好像是一个叫做{{selection value=\"SelectedVillager\"}}的人{{delay8}}\n会搬到这里来{{string value=\"...\"}}{{delay8}}\n{{anim id=\"AbsentMindedness\" target=\"actor\" targetSpec=\"\"}}究竟会是怎样的人～？{{string value=\"6\"}}。"
  },
  {
    "label": "005_02",
    "attribute": "0x0000000000000000",
    "text": "这座{{string value=\"32\"}}上不是有土地\n正在售卖吗？{{delay frames=\"40\"}}\n{{anim id=\"BigSmile\" target=\"actor\" targetSpec=\"\"}}那块地{{delay8}}似乎卖出去了！{{delay8}}{{anim id=\"FaintSmile\" target=\"actor\" targetSpec=\"\"}}{{pageBreak}}{{anim id=\"AbsentMindedness\" target=\"actor\" targetSpec=\"\"}}写在招牌上的名字叫做{{selection value=\"SelectedVillager\"}}{{string value=\"13\"}}，{{delay20}}\n让我不禁浮想联翩{{string value=\"...\"}}{{delay8}}我也真是的，\n{{anim id=\"ShyBoy\" target=\"actor\" targetSpec=\"\"}}竟然在见面之前做这么失礼的事。{{string value=\"6\"}}。"
  },
  {
    "label": "005_03",
    "attribute": "0x0000000000000000",
    "text": "{{anim id=\"FaintSmile\" target=\"actor\" targetSpec=\"\"}}说起来！{{delay20}}这座{{string value=\"32\"}}上的土地\n{{anim id=\"Greeting\" target=\"actor\" targetSpec=\"\"}}终于找到买家了！{{pageBreak}}{{anim id=\"Explain\" target=\"actor\" targetSpec=\"\"}}一个名叫{{selection value=\"SelectedVillager\"}}{{delay8}}的人{{delay8}}\n会搬到这里来！{{delay frames=\"40\"}}\n{{anim id=\"HappyDance\" target=\"actor\" targetSpec=\"\"}}好期待我们见面呀！{{string value=\"6\"}}。"
  },
  {
    "label": "008",
    "attribute": "0x0000000000000000",
    "text": "{{fun_0014003C arg=\"\"}}"
  },
  {
    "label": "008_01",
    "attribute": "0x8503000000000000",
    "text": "{{anim id=\"FaintSmile\" target=\"actor\" targetSpec=\"\"}}说起来，{{delay8}}\n{{anim id=\"Hello\" target=\"actor\" targetSpec=\"\"}}{{selection value=\"SelectedVillager\"}}{{string value=\"13\"}}的生日马上就到了吧？"
  },
  {
    "label": "008_02",
    "attribute": "0x8503000000000000",
    "text": "{{anim id=\"Aha\" target=\"actor\" targetSpec=\"\"}}对了！{{delay20}}\n{{anim id=\"FaintSmile\" target=\"actor\" targetSpec=\"\"}}{{selection value=\"SelectedVillager\"}}{{string value=\"13\"}}的生日{{delay8}}\n是不是就快到了？"
  },
  {
    "label": "008_03",
    "attribute": "0x8503000000000000",
    "text": "{{anim id=\"FaintSmile\" target=\"actor\" targetSpec=\"\"}}{{selection value=\"SelectedVillager\"}}{{string value=\"13\"}}的生日，{{delay20}}\n{{anim id=\"Hello\" target=\"actor\" targetSpec=\"\"}}马上就到了对吧？"
  },
  {
    "label": "009",
    "attribute": "0x0000000000000000",
    "text": "{{fun_0014003C arg=\"\"}}"
  },
  {
    "label": "009_01",
    "attribute": "0x0A00000000000000",
    "text": "{{anim id=\"FaintSmile\" target=\"actor\" targetSpec=\"\"}}说起来，{{delay8}}\n{{anim id=\"Hello\" target=\"actor\" targetSpec=\"\"}}{{selection value=\"SelectedVillager\"}}{{string value=\"13\"}}的生日马上就到了吧？"
  },
  {
    "label": "009_02",
    "attribute": "0x0A00000000000000",
    "text": "{{anim id=\"Aha\" target=\"actor\" targetSpec=\"\"}}对了！{{delay20}}\n{{anim id=\"FaintSmile\" target=\"actor\" targetSpec=\"\"}}{{selection value=\"SelectedVillager\"}}{{string value=\"13\"}}的生日{{delay8}}\n是不是就快到了？"
  },
  {
    "label": "009_03",
    "attribute": "0x0A00000000000000",
    "text": "{{anim id=\"FaintSmile\" target=\"actor\" targetSpec=\"\"}}{{selection value=\"SelectedVillager\"}}{{string value=\"13\"}}的生日，{{delay20}}\n{{anim id=\"Hello\" target=\"actor\" targetSpec=\"\"}}马上就到了对吧？"
  },
  {
    "label": "010",
    "attribute": "0x0000000000000000",
    "text": "{{anim id=\"Thinking\" target=\"actor\" targetSpec=\"\"}}嗯{{string value=\"...\"}}{{delay frames=\"40\"}}{{anim id=\"FaintSmile\" target=\"actor\" targetSpec=\"\"}}应该是在下个月的{{number value=\"Day\" index=\"0\"}}号！{{delay frames=\"40\"}}\n{{anim id=\"Nodding\" target=\"actor\" targetSpec=\"\"}}为了防止自己忘掉，{{delay8}}\n我要把它记在行事历上！{{string value=\"6\"}}。"
  },
  {
    "label": "012",
    "attribute": "0x0000000000000000",
    "text": "{{fun_0014003C arg=\"\"}}"
  },
  {
    "label": "012_01",
    "attribute": "0x0000000000000000",
    "text": "{{anim id=\"Eh\" target=\"actor\" targetSpec=\"\"}}说起来，{{delay8}}{{selection value=\"SelectedVillager\"}}{{string value=\"13\"}}{{delay20}}\n明天要打包搬家的行李了！{{delay frames=\"40\"}}\n{{anim id=\"Worried\" target=\"actor\" targetSpec=\"\"}}你知道这事吗？{{pageBreak}}{{anim id=\"Sighing\" target=\"actor\" targetSpec=\"\"}}我们好不容易在这座{{string value=\"32\"}}上相识了，真可惜呢。{{delay frames=\"40\"}}\n{{anim id=\"EmotEnd\" target=\"actor\" targetSpec=\"\"}}但是，{{delay8}}我们还是要全力支持{{selection value=\"SelectedVillager\"}}{{string value=\"13\"}}{{delay20}}\n{{anim id=\"Nodding\" target=\"actor\" targetSpec=\"\"}}踏上新的道路！{{string value=\"6\"}}。"
  },
  {
    "label": "012_02",
    "attribute": "0x0000000000000000",
    "text": "{{anim id=\"Serious\" target=\"actor\" targetSpec=\"\"}}嘿，你听说了吗？{{delay frames=\"40\"}}\n{{anim id=\"Worried\" target=\"actor\" targetSpec=\"\"}}{{selection value=\"SelectedVillager\"}}{{string value=\"13\"}}{{delay8}}就要搬离这座{{string value=\"32\"}}了，{{delay8}}\n所以明天要打包行李{{string value=\"...\"}}{{pageBreak}}{{anim id=\"QuestionMark\" target=\"actor\" targetSpec=\"\"}}会搬去哪里呢？{{delay frames=\"40\"}}\n{{string value=\"...\"}}{{anim id=\"Worried\" target=\"actor\" targetSpec=\"\"}}我略微有些担心呢。{{string value=\"6\"}}。"
  },
  {
    "label": "012_03",
    "attribute": "0x0000000000000000",
    "text": "{{anim id=\"Shocked\" target=\"actor\" targetSpec=\"\"}}对了对了！{{delay8}}{{selection value=\"SelectedVillager\"}}{{string value=\"13\"}}说，{{delay8}}\n明天要做些搬家的准备！{{delay20}}\n{{anim id=\"Worried\" target=\"actor\" targetSpec=\"\"}}应该是要从这座{{string value=\"32\"}}上搬走了{{string value=\"...\"}}{{pageBreak}}竟然走得这么匆忙，{{delay20}}\n{{anim id=\"Sighing\" target=\"actor\" targetSpec=\"\"}}真是太见外啦{{string value=\"...\"}}{{string value=\"6\"}}。"
  },
  {
    "label": "201",
    "attribute": "0x0000000000000000",
    "text": "{{anim id=\"BigSmile\" target=\"actor\" targetSpec=\"\"}}你听说了吗？{{delay frames=\"30\"}}今天有客人{{delay8}}\n{{anim id=\"FaintSmile\" target=\"actor\" targetSpec=\"\"}}来{{color id=\"1\"}}露营地{{color id=\"65535\"}}了哦？！{{pageBreak}}{{anim id=\"EmotEnd\" target=\"actor\" targetSpec=\"\"}}{{string value=\"4\"}}，{{delay20}}\n{{anim id=\"Pardon\" target=\"actor\" targetSpec=\"\"}}你去见过{{delay8}}这位客人了吗？{{delay frames=\"40\"}}\n{{anim id=\"Hesitate\" target=\"actor\" targetSpec=\"\"}}我很好奇对方是什么样的人呢～！{{string value=\"6\"}}。"
  },
  {
    "label": "901",
    "attribute": "0x0000000000000000",
    "text": "{{anim id=\"FaintSmile\" target=\"actor\" targetSpec=\"\"}}是在这个月的{{number value=\"Day\" index=\"0\"}}号，{{delay8}}\n{{anim id=\"Nodding\" target=\"actor\" targetSpec=\"\"}}大家来一起庆祝吧！{{string value=\"6\"}}。"
  }
]