﻿[
  {
    "label": "001",
    "attribute": "0x0000000000000000",
    "text": "{{anim id=\"Smiling\" target=\"actor\" targetSpec=\"\"}}來吧，{{delay8}}請進喔～{{string value=\"6\"}}。"
  },
  {
    "label": "002",
    "attribute": "0x0000000000000000",
    "text": "{{anim id=\"Smiling\" target=\"actor\" targetSpec=\"\"}}請進請進，{{delay20}}\n雖然可能有點窄就是了，{{string value=\"6\"}}。"
  },
  {
    "label": "003",
    "attribute": "0x0000000000000000",
    "text": "{{anim id=\"Smiling\" target=\"actor\" targetSpec=\"\"}}不用客氣，{{delay8}}請進吧，{{string value=\"6\"}}。"
  },
  {
    "label": "004",
    "attribute": "0x0000000000000000",
    "text": "{{anim id=\"Smiling\" target=\"actor\" targetSpec=\"\"}}早安！{{delay frames=\"40\"}}\n看到你來{{delay8}}真讓我開心！{{string value=\"6\"}}。"
  },
  {
    "label": "005",
    "attribute": "0x0000000000000000",
    "text": "{{anim id=\"Smiling\" target=\"actor\" targetSpec=\"\"}}{{string value=\"4\"}}，歡迎你來！{{delay frames=\"40\"}}\n我等你很久囉～{{string value=\"6\"}}。"
  },
  {
    "label": "006",
    "attribute": "0x0000000000000000",
    "text": "{{anim id=\"Smiling\" target=\"actor\" targetSpec=\"\"}}晚安呀，{{delay8}}{{string value=\"4\"}}。{{delay frames=\"40\"}}\n真高興{{delay8}}看到你來！{{string value=\"6\"}}。"
  },
  {
    "label": "007",
    "attribute": "0x0000000000000000",
    "text": "{{anim id=\"Smiling\" target=\"actor\" targetSpec=\"\"}}{{string value=\"4\"}}，{{delay8}}歡迎你來！{{delay frames=\"60\"}}\n{{anim id=\"EmotEnd\" target=\"actor\" targetSpec=\"\"}}為了讓你隨時都能過來，{{delay20}}\n{{anim id=\"Assent\" target=\"actor\" targetSpec=\"\"}}我今天一整天{{delay8}}都待在家裡等你呢！{{string value=\"6\"}}。"
  },
  {
    "label": "100",
    "attribute": "0x0000000000000000",
    "text": "{{anim id=\"FaintSmile\" target=\"actor\" targetSpec=\"\"}}你就當作在自己家一樣，{{delay20}}\n儘管放輕鬆就行囉，{{string value=\"6\"}}。"
  },
  {
    "label": "101",
    "attribute": "0x0000000000000000",
    "text": "{{anim id=\"FaintSmile\" target=\"actor\" targetSpec=\"\"}}如果有想參觀的地方，{{delay20}}請隨意喔！{{string value=\"6\"}}。"
  },
  {
    "label": "102",
    "attribute": "0x0000000000000000",
    "text": "{{anim id=\"Laughing\" target=\"actor\" targetSpec=\"\"}}呵呵呵，{{delay20}}請別太拘束，{{delay20}}\n放輕鬆就行囉！{{string value=\"6\"}}。"
  },
  {
    "label": "103",
    "attribute": "0x0000000000000000",
    "text": "{{anim id=\"Love\" target=\"actor\" targetSpec=\"\"}}你真的沒忘記{{delay20}}\n跟我的約定呢！{{string value=\"6\"}}。"
  },
  {
    "label": "104",
    "attribute": "0x0000000000000000",
    "text": "因為時間滿充足的，{{delay20}}\n{{anim id=\"SmugFace\" target=\"actor\" targetSpec=\"\"}}所以我就{{delay8}}仔細打掃過囉！{{string value=\"6\"}}。"
  },
  {
    "label": "105",
    "attribute": "0x0000000000000000",
    "text": "{{anim id=\"HappyFlower\" target=\"actor\" targetSpec=\"\"}}你真的記得{{delay8}}我們的約定呢，{{delay20}}\n非常感謝你，{{string value=\"6\"}}。"
  },
  {
    "label": "200",
    "attribute": "0x0000020000000000",
    "text": "{{string value=\"4\"}}，{{delay20}}\n{{anim id=\"Hello\" target=\"actor\" targetSpec=\"\"}}難得有這個機會，{{delay20}}\n要不要玩個遊戲呢？{{string value=\"6\"}}。"
  },
  {
    "label": "200_a",
    "attribute": "0x0000000000000000",
    "text": "我要玩！"
  },
  {
    "label": "200_b",
    "attribute": "0x0000000000000000",
    "text": "現在先不用"
  },
  {
    "label": "201",
    "attribute": "0x0000020000000000",
    "text": "{{anim id=\"IdeaBulb\" target=\"actor\" targetSpec=\"\"}}對了！{{delay frames=\"40\"}}可以的話，{{delay20}}\n{{anim id=\"Hello\" target=\"actor\" targetSpec=\"\"}}要不要跟我{{delay20}}玩個遊戲呢？{{string value=\"6\"}}。"
  },
  {
    "label": "201_a",
    "attribute": "0x0000000000000000",
    "text": "我要玩！"
  },
  {
    "label": "201_b",
    "attribute": "0x0000000000000000",
    "text": "現在先不玩"
  },
  {
    "label": "202",
    "attribute": "0x0000020000000000",
    "text": "{{string value=\"4\"}}，{{delay frames=\"40\"}}\n{{anim id=\"FaintSmile\" target=\"actor\" targetSpec=\"\"}}可以的話，{{delay20}}\n{{anim id=\"Hello\" target=\"actor\" targetSpec=\"\"}}要不要和我玩個遊戲呢？{{string value=\"6\"}}。"
  },
  {
    "label": "202_a",
    "attribute": "0x0000000000000000",
    "text": "我要玩！"
  },
  {
    "label": "202_b",
    "attribute": "0x0000000000000000",
    "text": "不用了"
  },
  {
    "label": "203",
    "attribute": "0x0000000000000000",
    "text": "{{anim id=\"FaintSmile\" target=\"actor\" targetSpec=\"\"}}這樣啊，{{delay frames=\"30\"}}\n{{anim id=\"EmotEnd\" target=\"actor\" targetSpec=\"\"}}那你放輕鬆慢慢坐喔，{{string value=\"6\"}}。"
  },
  {
    "label": "204",
    "attribute": "0x0000000000000000",
    "text": "{{anim id=\"Nodding\" target=\"actor\" targetSpec=\"\"}}我知道了，{{delay frames=\"40\"}}\n{{anim id=\"FaintSmile\" target=\"actor\" targetSpec=\"\"}}那就請你{{delay8}}慢慢參觀房間吧，{{string value=\"6\"}}。{{anim id=\"EmotEnd\" target=\"actor\" targetSpec=\"\"}}"
  },
  {
    "label": "205",
    "attribute": "0x0000000000000000",
    "text": "{{anim id=\"FaintSmile\" target=\"actor\" targetSpec=\"\"}}這樣啊，{{delay20}}{{anim id=\"EmotEnd\" target=\"actor\" targetSpec=\"\"}}我知道了，{{string value=\"6\"}}。"
  }
]