﻿[
  {
    "label": "000",
    "attribute": "0x0000000000000000",
    "text": "{{anim id=\"Smiling\" target=\"actor\" targetSpec=\"\"}}Добрый вечер. {{delay frames=\"40\"}}{{anim id=\"Greeting\" target=\"actor\" targetSpec=\"\"}}Наслаждаешься\nХэллоуином, {{string value=\"NickName\"}}?{{pageBreak}}{{anim id=\"FaintSmile\" target=\"actor\" targetSpec=\"\"}}Все изо всех сил хотят сегодня\nполучить конфеты. {{delay frames=\"40\"}}Так что\nбудь осторож{{gender2 m=\"ен\" f=\"на\"}}.{{pageBreak}}{{anim id=\"ColdChill\" target=\"actor\" targetSpec=\"\"}}Если не дашь конфету,\nто тебе достанется.{{pageBreak}}{{anim id=\"EmotEnd\" target=\"actor\" targetSpec=\"\"}}Просто предупреждаю, дорогуша.\n{{delay frames=\"40\"}}{{anim id=\"FaintSmile\" target=\"actor\" targetSpec=\"\"}}Раз уж мы об этом заговорили{{string value=\"...\"}}"
  },
  {
    "label": "001",
    "attribute": "0x0000020000000000",
    "text": "{{i10_14 arg=\"20\"}}{{anim id=\"EmotEnd\" target=\"actor\" targetSpec=\"\"}}Сладость или гадость?!{{delay frames=\"40\"}}{{anim id=\"EmotEnd\" target=\"actor\" targetSpec=\"\"}} Что же\nбудет мне?{{delay8}} Конфета?{{delay8}}{{anim id=\"Grin\" target=\"actor\" targetSpec=\"\"}} Пугать\nя тоже умею. {{capitalizeNextLetter}}{{string value=\"6\"}}!"
  },
  {
    "label": "001_01",
    "attribute": "0x0000000000000000",
    "text": "{{i10_14 arg=\"20\"}}{{anim id=\"EmotEnd\" target=\"actor\" targetSpec=\"\"}}Сладость или гадость?!{{delay frames=\"40\"}}{{anim id=\"EmotEnd\" target=\"actor\" targetSpec=\"\"}} Что же\nбудет мне?{{delay8}} Конфета?{{delay8}}{{anim id=\"Grin\" target=\"actor\" targetSpec=\"\"}} Пугать\nя тоже умею. {{capitalizeNextLetter}}{{string value=\"6\"}}!"
  },
  {
    "label": "001_a",
    "attribute": "0x0000000000000000",
    "text": "Держи!"
  },
  {
    "label": "001_b",
    "attribute": "0x0000000000000000",
    "text": "Тебе не дам."
  },
  {
    "label": "002_01",
    "attribute": "0x0000000000000000",
    "text": "{{anim id=\"HappyDance\" target=\"actor\" targetSpec=\"\"}}Спасибо!{{delay frames=\"40\"}} Похвально, что ты\nпоступил{{gender2 m=\"\" f=\"а\"}} так, как надо,\n{{string value=\"NickName\"}}!"
  },
  {
    "label": "002_02",
    "attribute": "0x0000000000000000",
    "text": "{{anim id=\"HappyFlower\" target=\"actor\" targetSpec=\"\"}}Спасибо!{{delay frames=\"40\"}} Конфеты — отличный\nвыбор! {{capitalizeNextLetter}}{{string value=\"6\"}}!"
  },
  {
    "label": "003_01",
    "attribute": "0x0000000000000000",
    "text": "Вот и подарок для тебя{{string value=\"...\"}}{{delay20}}\n{{color id=\"1\"}}{{capitalizeNextLetter}}{{anim id=\"Smiling\" target=\"actor\" targetSpec=\"\"}}{{fun_0000007D arg=\"0x0000\"}}{{color id=\"65535\"}}."
  },
  {
    "label": "003_02",
    "attribute": "0x0000000000000000",
    "text": "У меня для тебя кое-что есть{{string value=\"...\"}}{{delay20}}\n{{anim id=\"BigSmile\" target=\"actor\" targetSpec=\"\"}}{{color id=\"1\"}}Леденец на палочке{{color id=\"65535\"}}! {{delay frames=\"40\"}}{{anim id=\"Laughing\" target=\"actor\" targetSpec=\"\"}}Не простая\nконфета, а особенная!"
  },
  {
    "label": "003_03",
    "attribute": "0x0000000000000000",
    "text": "У меня для тебя подарок, дорогуша.{{delay8}}\n{{anim id=\"Smiling\" target=\"actor\" targetSpec=\"\"}}Серьезно, эта{{delay8}} {{color id=\"1\"}}инструкция {{color id=\"65535\"}}для\n{{fun_00170032 arg=\"0x03CD\"}}{{fun_0000007D arg=\"0x0000\"}} твоя!"
  },
  {
    "label": "003_04",
    "attribute": "0x0000000000000000",
    "text": "А теперь{{delay8}} я тебе кое-что дам!\n{{anim id=\"EmotEnd\" target=\"actor\" targetSpec=\"\"}}{{number value=\"1\" index=\"0\"}} {{color id=\"1\"}}{{fun_00170032 arg=\"0x03CD\"}}{{fun_0000007D arg=\"0x0002\"}}{{color id=\"65535\"}}!"
  },
  {
    "label": "004_01",
    "attribute": "0x0000000000000000",
    "text": "{{anim id=\"Hello\" target=\"actor\" targetSpec=\"\"}}Сегодня так весело!\n{{capitalizeNextLetter}}{{string value=\"6\"}}!"
  },
  {
    "label": "004_02",
    "attribute": "0x0000000000000000",
    "text": "{{anim id=\"Greeting\" target=\"actor\" targetSpec=\"\"}}Веселого Хэллоуина!\n{{capitalizeNextLetter}}{{string value=\"6\"}}!"
  },
  {
    "label": "005",
    "attribute": "0x0000000000000000",
    "text": "{{anim id=\"Sighing\" target=\"actor\" targetSpec=\"\"}}У тебя все еще нет места?{{delay frames=\"40\"}} {{anim id=\"EmotEnd\" target=\"actor\" targetSpec=\"\"}}Тогда\nосвободи его и приходи позже\nза подарком. {{delay frames=\"30\"}}{{anim id=\"Nodding\" target=\"actor\" targetSpec=\"\"}}{{capitalizeNextLetter}}{{string value=\"6\"}}!"
  },
  {
    "label": "006",
    "attribute": "0x0000000000000000",
    "text": "{{anim id=\"Frantic\" target=\"actor\" targetSpec=\"\"}}Подожди-ка!{{delay8}} У тебя нет места\nдля подарка! {{capitalizeNextLetter}}{{string value=\"6\"}}.{{pageBreak}}{{anim id=\"Worried\" target=\"actor\" targetSpec=\"\"}}Я бы хотела тебе его отдать, пока\nидет празднование Хэллоуина.\n{{delay frames=\"40\"}}{{anim id=\"Explain\" target=\"actor\" targetSpec=\"\"}}Приходи, когда у тебя будет место."
  },
  {
    "label": "007",
    "attribute": "0x0000000000000000",
    "text": "{{anim id=\"Shocked\" target=\"actor\" targetSpec=\"\"}}О! Ты вернул{{gender2 m=\"ся\" f=\"ась\"}} за подарком!\n{{delay frames=\"40\"}}{{anim id=\"Smiling\" target=\"actor\" targetSpec=\"\"}}Вот, забирай {{color id=\"1\"}}{{fun_00170032 arg=\"0x01CD\"}}{{fun_0000007D arg=\"0x0000\"}}{{color id=\"65535\"}}."
  },
  {
    "label": "007_01",
    "attribute": "0x0000000000000000",
    "text": "{{anim id=\"Shocked\" target=\"actor\" targetSpec=\"\"}}О! Ты вернул{{gender2 m=\"ся\" f=\"ась\"}} за подарком!\n{{delay frames=\"40\"}}{{anim id=\"Smiling\" target=\"actor\" targetSpec=\"\"}}Вот, забирай свою {{color id=\"1\"}}инструкцию{{color id=\"65535\"}} для\n{{color id=\"1\"}}{{fun_00170032 arg=\"0x03CD\"}}{{fun_0000007D arg=\"0x0000\"}}{{color id=\"65535\"}}."
  },
  {
    "label": "007_pl",
    "attribute": "0x0000000000000000",
    "text": "{{anim id=\"Shocked\" target=\"actor\" targetSpec=\"\"}}Прекрасно! Ты вернул{{gender2 m=\"ся\" f=\"ась\"}} за\nподарком! {{delay frames=\"40\"}}{{anim id=\"Smiling\" target=\"actor\" targetSpec=\"\"}}Держи {{color id=\"1\"}}{{fun_00170032 arg=\"0x01CD\"}}{{fun_0000007D arg=\"0x0002\"}}{{color id=\"65535\"}}."
  },
  {
    "label": "008",
    "attribute": "0x0000000000000000",
    "text": "{{anim id=\"Eh\" target=\"actor\" targetSpec=\"\"}}Подожди! {{delay8}}Неужели {{delay20}}{{anim id=\"OhGeez\" target=\"actor\" targetSpec=\"\"}}у тебя нет ни\nодной праздничной конфеты?{{pageBreak}}{{anim id=\"Worried\" target=\"actor\" targetSpec=\"\"}}Я хотела припугнуть тебя, {{delay8}}{{anim id=\"Negative\" target=\"actor\" targetSpec=\"\"}}но как\nможно пугать того, у кого нет\nконфет?{{pageBreak}}{{anim id=\"FaintSmile\" target=\"actor\" targetSpec=\"\"}}Хэллоуин без конфет? Абсурд!\nНадеюсь, ты найдешь конфеты, {{delay20}}а я\nпотом тебя попугаю. {{capitalizeNextLetter}}{{string value=\"6\"}}!"
  },
  {
    "label": "009",
    "attribute": "0x0000000000000000",
    "text": "{{anim id=\"Frantic\" target=\"actor\" targetSpec=\"\"}}Подожди. {{delay8}}Я тебе про конфеты,\n{{delay frames=\"40\"}}а у тебя{{string value=\"...\"}}{{anim id=\"Worried\" target=\"actor\" targetSpec=\"\"}} их нет!{{pageBreak}}{{anim id=\"Sighing\" target=\"actor\" targetSpec=\"\"}}Тогда сейчас не время тебя пугать.{{delay20}}\n{{anim id=\"Restless\" target=\"actor\" targetSpec=\"\"}}Уверена, ты найдешь конфету.{{pageBreak}}{{anim id=\"EmotEnd\" target=\"actor\" targetSpec=\"\"}}Хэллоуин бывает только раз\nв году,{{delay20}}{{anim id=\"Greeting\" target=\"actor\" targetSpec=\"\"}} так что давай не будем\nрасслабляться. {{capitalizeNextLetter}}{{string value=\"6\"}}!"
  },
  {
    "label": "010",
    "attribute": "0x0000000000000000",
    "text": "{{anim id=\"Surprised\" target=\"actor\" targetSpec=\"\"}}Прошу прощения?{{delay frames=\"50\"}} {{anim id=\"Worried\" target=\"actor\" targetSpec=\"\"}}А ты дерз{{gender2 m=\"кий\" f=\"кая\"}}!{{pageBreak}}{{anim id=\"Silent\" target=\"actor\" targetSpec=\"\"}}Теперь твоя судьба решена.{{delay frames=\"40\"}}\nВремя{{string value=\"...\"}}{{i10_10}}{{anim id=\"Outraged\" target=\"actor\" targetSpec=\"\"}} пугаться!{{i10_7 arg=\"60\"}}"
  },
  {
    "label": "011",
    "attribute": "0x0000000000000000",
    "text": "{{anim id=\"ColdChill\" target=\"actor\" targetSpec=\"\"}}Понимаю.{{delay20}} Это твое решение,\n{{string value=\"NickName\"}}.{{pageBreak}}{{anim id=\"Silent\" target=\"actor\" targetSpec=\"\"}}Теперь очередь за мной{{string value=\"...\"}}{{delay frames=\"40\"}} {{i10_10}}{{anim id=\"Outraged\" target=\"actor\" targetSpec=\"\"}}Получай!{{i10_7 arg=\"60\"}}"
  },
  {
    "label": "012",
    "attribute": "0x0000000000000000",
    "text": "{{anim id=\"Grin\" target=\"actor\" targetSpec=\"\"}}Ну как, нравится?{{delay frames=\"40\"}} {{anim id=\"Nodding\" target=\"actor\" targetSpec=\"\"}}Чувство стиля\nу меня отменное. {{anim id=\"Eh\" target=\"actor\" targetSpec=\"\"}}Что?{{delay8}} Ты хочешь\nвсе вернуть?{{pageBreak}}{{anim id=\"BigSmile\" target=\"actor\" targetSpec=\"\"}}Тогда воспользуйся зеркалом или\nтрюмо, как обычно. {{capitalizeNextLetter}}{{string value=\"6\"}}."
  },
  {
    "label": "013",
    "attribute": "0x0000000000000000",
    "text": "{{anim id=\"EmotEnd\" target=\"actor\" targetSpec=\"\"}}Если у тебя дела совсем плохи,\nу меня есть для тебя кое-что:{{delay frames=\"40\"}}{{anim id=\"FaintSmile\" target=\"actor\" targetSpec=\"\"}}\n{{wordArticle}}{{color id=\"1\"}}{{fun_0000007D arg=\"0x0000\"}}{{color id=\"65535\"}}!{{pageBreak}}{{anim id=\"Greeting\" target=\"actor\" targetSpec=\"\"}}Удобно освежать макияж{{string value=\"...\"}}\nи исправлять огрехи!"
  },
  {
    "label": "014",
    "attribute": "0x0000000000000000",
    "text": "{{anim id=\"Explain\" target=\"actor\" targetSpec=\"\"}}Убрать {{color id=\"1\"}}краску для лица{{color id=\"65535\"}} можно,\nзаглянув в ту часть твоих карманов,\nгде можно менять одежду.{{pageBreak}}{{anim id=\"Smiling\" target=\"actor\" targetSpec=\"\"}}Я ведь такая заботливая, правда,\nдорогуша? {{capitalizeNextLetter}}{{string value=\"6\"}}?"
  },
  {
    "label": "015",
    "attribute": "0x0000000000000000",
    "text": "{{anim id=\"ShyBoy\" target=\"actor\" targetSpec=\"\"}}Прошу прощения, но сейчас\nХэллоуин, {{string value=\"NickName\"}}.{{pageBreak}}{{anim id=\"EmotEnd\" target=\"actor\" targetSpec=\"\"}}Ты не обижайся.{{delay20}} {{anim id=\"Greeting\" target=\"actor\" targetSpec=\"\"}}Я это не со зла.\n{{capitalizeNextLetter}}{{string value=\"6\"}}!"
  },
  {
    "label": "016",
    "attribute": "0x0000000000000000",
    "text": "{{anim id=\"FaintSmile\" target=\"actor\" targetSpec=\"\"}}Знаешь, в контексте Хэллоуина,{{delay20}}\nдумаю, тебе пригодится одна\n{{color id=\"1\"}}реакция{{color id=\"65535\"}}.{{pageBreak}}{{anim id=\"62\" target=\"actor\" targetSpec=\"\"}}Давай конфету! Или я как у-у-ух!{{pageBreak}}{{anim id=\"FaintSmile\" target=\"actor\" targetSpec=\"\"}}Реакция «{{color id=\"1\"}}Устрашение{{color id=\"65535\"}}» идеальна,\nчтобы пугать друзей.{{delay frames=\"40\"}} {{anim id=\"Greeting\" target=\"actor\" targetSpec=\"\"}}Попробуй ее!"
  },
  {
    "label": "017",
    "attribute": "0x0000000000000000",
    "text": "{{anim id=\"Explain\" target=\"actor\" targetSpec=\"\"}}Да, для того чтобы использовать\nреакцию,{{delay8}} нажми {{color id=\"1\"}}{{color id=\"65535\"}} и выбери\nподходящую.{{delay frames=\"40\"}} {{anim id=\"Hello\" target=\"actor\" targetSpec=\"\"}}Очень удобно!"
  },
  {
    "label": "018",
    "attribute": "0x0000000000000000",
    "text": "{{anim id=\"Silent\" target=\"actor\" targetSpec=\"\"}}Прошу прощения{{string value=\"...\"}}{{delay20}}{{anim id=\"Surprised\" target=\"actor\" targetSpec=\"\"}} у тебя что,\nдействительно нет ни одной\n{{color id=\"1\"}}конфеты{{color id=\"65535\"}}?{{delay20}} {{anim id=\"OhGeez\" target=\"actor\" targetSpec=\"\"}}Так не пойдет.{{pageBreak}}{{anim id=\"Sighing\" target=\"actor\" targetSpec=\"\"}}Что же мне с тобой сделать?{{delay20}}\nА возьми-ка ты мои!"
  },
  {
    "label": "019",
    "attribute": "0x0000000000000000",
    "text": "{{anim id=\"FaintSmile\" target=\"actor\" targetSpec=\"\"}}Вот,{{delay8}} это поможет.{{delay20}} Но в следующий\nраз{{string value=\"...\"}}{{delay8}}{{anim id=\"Scheming\" target=\"actor\" targetSpec=\"\"}} когда мы встретимся, все\nбудет по-другому! {{capitalizeNextLetter}}{{string value=\"6\"}}!"
  },
  {
    "label": "050",
    "attribute": "0x0000000000000000",
    "text": "{{anim id=\"FaintSmile\" target=\"actor\" targetSpec=\"\"}}Ну,{{delay20}} что думаешь?{{delay frames=\"40\"}} {{anim id=\"FaintSmile\" target=\"actor\" targetSpec=\"\"}}Надеюсь, тебе\nнравится мой праздничный\nкостюм.{{pageBreak}}{{anim id=\"BigSmile\" target=\"actor\" targetSpec=\"\"}}Благодаря Хэллоуину можно\nпомодничать. {{capitalizeNextLetter}}{{string value=\"6\"}}!"
  },
  {
    "label": "051",
    "attribute": "0x0000000000000000",
    "text": "{{anim id=\"Explain\" target=\"actor\" targetSpec=\"\"}}Если у тебя закончатся конфеты,{{delay8}}\nзайди к кому-нибудь домой.{{pageBreak}}{{anim id=\"Nodding\" target=\"actor\" targetSpec=\"\"}}Сегодня они должны быть\nу всех. {{capitalizeNextLetter}}{{string value=\"6\"}}!"
  },
  {
    "label": "052",
    "attribute": "0x0000000000000000",
    "text": "{{anim id=\"AbsentMindedness\" target=\"actor\" targetSpec=\"\"}}Ах!{{delay8}} Из-за запаха конфет наш остров\nстал похож на кондитерскую.{{pageBreak}}{{anim id=\"Smiling\" target=\"actor\" targetSpec=\"\"}}Даже не знаю, что мне нравится\nбольше — вкус или запах!\n{{delay8}}{{capitalizeNextLetter}}{{string value=\"6\"}}!"
  },
  {
    "label": "053",
    "attribute": "0x0000000000000000",
    "text": "{{anim id=\"Explain\" target=\"actor\" targetSpec=\"\"}}День подошел к концу, {{delay8}}и наше\nпразднование Хэллоуина стало\nеще атмосфернее!{{pageBreak}}{{anim id=\"Nodding\" target=\"actor\" targetSpec=\"\"}}Сегодня{{delay8}} все мрачное становится{{string value=\"...\"}}\nтаким интересным.{{delay20}} Даже лохмотья\nрадуют глаз! {{capitalizeNextLetter}}{{string value=\"6\"}}!"
  },
  {
    "label": "100",
    "attribute": "0x0000000000000000",
    "text": "{{anim id=\"Greeting\" target=\"actor\" targetSpec=\"\"}}Веселого Хэллоуина, {{string value=\"NickName\"}}!{{delay frames=\"40\"}} {{anim id=\"Smiling\" target=\"actor\" targetSpec=\"\"}}Очень рада нашей встрече!"
  },
  {
    "label": "101",
    "attribute": "0x0000000000000000",
    "text": "O, {{string value=\"NickName\"}}!{{delay20}} {{anim id=\"Smiling\" target=\"actor\" targetSpec=\"\"}}Вернул{{gender2 m=\"ся\" f=\"ась\"}},\nдорогуша?"
  },
  {
    "label": "102",
    "attribute": "0x0000000000000000",
    "text": "{{anim id=\"Hello\" target=\"actor\" targetSpec=\"\"}}Тебе ведь конфеты нужны,{{delay8}}\nне так ли?{{delay frames=\"40\"}} {{anim id=\"Thinking\" target=\"actor\" targetSpec=\"\"}}Но на тебе нет\nкостюма.{{pageBreak}}{{anim id=\"AbsentMindedness\" target=\"actor\" targetSpec=\"\"}}Я говорю о внушающем {{color id=\"1\"}}страх\n{{color id=\"65535\"}}костюме{{delay8}}, подходящем по теме\nк Хэллоуину. {{capitalizeNextLetter}}{{string value=\"6\"}}.{{pageBreak}}{{anim id=\"Greeting\" target=\"actor\" targetSpec=\"\"}}Придешь в таком, получишь\nот меня конфеты."
  },
  {
    "label": "103",
    "attribute": "0x0000000000000000",
    "text": "{{anim id=\"Eh\" target=\"actor\" targetSpec=\"\"}}Прошу прощения?{{delay20}} Хочешь еще\nконфет?{{delay frames=\"40\"}} {{anim id=\"Laughing\" target=\"actor\" targetSpec=\"\"}}От меня ты их уже\nполучил{{gender2 m=\"\" f=\"а\"}}!{{pageBreak}}{{anim id=\"EmotEnd\" target=\"actor\" targetSpec=\"\"}}Приходи попозже.{{delay20}} {{anim id=\"Grin\" target=\"actor\" targetSpec=\"\"}}Чем дольше\nждешь, тем слаще. {{capitalizeNextLetter}}{{string value=\"6\"}}!"
  },
  {
    "label": "104",
    "attribute": "0x0000000000000000",
    "text": "{{anim id=\"Smiling\" target=\"actor\" targetSpec=\"\"}}Я знаю, чего ты хочешь.\n{{delay frames=\"40\"}}{{color id=\"1\"}}Конфету{{color id=\"65535\"}}, да?{{delay frames=\"40\"}} {{anim id=\"BigSmile\" target=\"actor\" targetSpec=\"\"}}Ну тогда бери!{{delay frames=\"40\"}}"
  },
  {
    "label": "105",
    "attribute": "0x0000000000000000",
    "text": "{{anim id=\"Laughing\" target=\"actor\" targetSpec=\"\"}}Не терпится получить еще одну\n{{color id=\"1\"}}конфету{{color id=\"65535\"}}? {{delay frames=\"40\"}}Получай, дорогуша."
  },
  {
    "label": "106_01",
    "attribute": "0x0000000000000000",
    "text": "{{anim id=\"Greeting\" target=\"actor\" targetSpec=\"\"}}Если конфеты закончатся,{{delay8}}\nприходи. {{capitalizeNextLetter}}{{string value=\"6\"}}!"
  },
  {
    "label": "106_02",
    "attribute": "0x0000000000000000",
    "text": "{{anim id=\"Greeting\" target=\"actor\" targetSpec=\"\"}}Хорошего вечера! {{capitalizeNextLetter}}{{string value=\"6\"}}!"
  },
  {
    "label": "107",
    "attribute": "0x0000000000000000",
    "text": "{{anim id=\"OhGeez\" target=\"actor\" targetSpec=\"\"}}Дорогуша{{string value=\"...\"}} у тебя карманы полные.\n{{delay frames=\"40\"}}Нет места.{{pageBreak}}{{anim id=\"EmotEnd\" target=\"actor\" targetSpec=\"\"}}Давай сначала разберись с ними,\n{{delay8}}{{anim id=\"Hello\" target=\"actor\" targetSpec=\"\"}}а потом уж приходи. {{capitalizeNextLetter}}{{string value=\"6\"}}!"
  },
  {
    "label": "108",
    "attribute": "0x0000000000000000",
    "text": "Один вопрос{{string value=\"...\"}}{{anim id=\"TakenAback\" target=\"actor\" targetSpec=\"\"}} У тебя на самом деле\nнет ни единой {{color id=\"1\"}}конфеты{{color id=\"65535\"}}?\n{{anim id=\"WrySmile\" target=\"actor\" targetSpec=\"\"}}{{size value=\"75\"}}В этом в{{gender2 m=\"есь\" f=\"ся\"}} ты. Я от тебя в восторге,{{delay8}} честно.{{size value=\"100\"}}{{pageBreak}}{{anim id=\"Serious\" target=\"actor\" targetSpec=\"\"}}Ладно,{{delay8}} хоть ты и не в том костюме,\nодарю тебя {{color id=\"1\"}}конфеткой{{color id=\"65535\"}}.{{pageBreak}}Ну а теперь иди, и постарайся\nугодить {{color id=\"3\"}}Джеку{{color id=\"65535\"}}, хорошо?"
  },
  {
    "label": "109",
    "attribute": "0x0000000000000000",
    "text": "{{anim id=\"BigSmile\" target=\"actor\" targetSpec=\"\"}}Приходи в костюме, достойном\nХэллоуина!{{delay frames=\"40\"}} {{anim id=\"FaintSmile\" target=\"actor\" targetSpec=\"\"}}Тогда ты{{delay8}} получишь еще\nодну {{color id=\"1\"}}конфету{{color id=\"65535\"}}. {{capitalizeNextLetter}}{{string value=\"6\"}}!"
  },
  {
    "label": "150",
    "attribute": "0x0000000000000000",
    "text": "{{anim id=\"Laughing\" target=\"actor\" targetSpec=\"\"}}Вообще-то мне совсем не страшно.{{delay8}}\nПросто я люблю наряды!{{delay20}}\nИ конфеты раздавать.{{pageBreak}}{{anim id=\"AbsentMindedness\" target=\"actor\" targetSpec=\"\"}}А еще я жду,{{delay8}}{{delay8}} что же принесет нам\nночь! {{capitalizeNextLetter}}{{string value=\"6\"}}!"
  },
  {
    "label": "151",
    "attribute": "0x0000000000000000",
    "text": "{{anim id=\"FaintSmile\" target=\"actor\" targetSpec=\"\"}}Я решила тоже приодеться\nна Хэллоуин.{{delay frames=\"40\"}} {{anim id=\"Dance\" target=\"actor\" targetSpec=\"\"}}Как я выгляжу?{{delay frames=\"40\"}}\nПревосходно, не правда ли?"
  },
  {
    "label": "152",
    "attribute": "0x0000000000000000",
    "text": "{{anim id=\"Laughing\" target=\"actor\" targetSpec=\"\"}}Я очень рада, что у меня сегодня\nстолько конфет!{{pageBreak}}{{anim id=\"EmotEnd\" target=\"actor\" targetSpec=\"\"}}Когда сидишь дома на Хэллоуин,\nникогда не знаешь, кто заглянет\nна огонек. {{capitalizeNextLetter}}{{string value=\"6\"}}!"
  },
  {
    "label": "153",
    "attribute": "0x0000000000000000",
    "text": "{{anim id=\"QuestionMark\" target=\"actor\" targetSpec=\"\"}}Кстати, ты{{delay20}} сегодня {{color id=\"3\"}}Джеку {{color id=\"65535\"}}служишь?{{pageBreak}}{{anim id=\"Explain\" target=\"actor\" targetSpec=\"\"}}В любом случае{{delay8}} по конфетам тебе\nсегодня нет равных.{{delay20}} {{anim id=\"Nodding\" target=\"actor\" targetSpec=\"\"}}Успех у тебя\nв кармане! {{capitalizeNextLetter}}{{string value=\"6\"}}!"
  },
  {
    "label": "200",
    "attribute": "0x0000000000000000",
    "text": "{{anim id=\"Surprised\" target=\"actor\" targetSpec=\"\"}}О нет! {{color id=\"3\"}}{{delay20}}Джек{{color id=\"65535\"}}?!{{delay frames=\"40\"}} {{anim id=\"Frantic\" target=\"actor\" targetSpec=\"\"}}Если {{color id=\"1\"}}конфеты{{color id=\"65535\"}}\nнужны, прошу, забирай! {{delay frames=\"30\"}}Только\nне пугай меня!"
  },
  {
    "label": "201",
    "attribute": "0x0000000000000000",
    "text": "Забирай, {{color id=\"3\"}}Джек{{color id=\"65535\"}}.{{delay20}} {{anim id=\"Grin\" target=\"actor\" targetSpec=\"\"}}Или тебя зовут{{string value=\"...\"}}\n{{string value=\"NickName\"}}?{{pageBreak}}{{anim id=\"Laughing\" target=\"actor\" targetSpec=\"\"}}Да,{{delay8}} меня не провести,{{delay8}} но твой\nкостюм {{color id=\"3\"}}Джека{{color id=\"65535\"}} просто великолепен.{{delay20}}{{anim id=\"FaintSmile\" target=\"actor\" targetSpec=\"\"}}\nТы честно заслужил{{gender2 m=\"\" f=\"а\"}} свою {{color id=\"1\"}}конфету{{color id=\"65535\"}}."
  },
  {
    "label": "201_01",
    "attribute": "0x0000000000000000",
    "text": "{{anim id=\"Scheming\" target=\"actor\" targetSpec=\"\"}}Ну что ж, забирай. Конечно,\nникакой ты не {{color id=\"3\"}}Джек{{color id=\"65535\"}}.{{delay20}} {{anim id=\"Nodding\" target=\"actor\" targetSpec=\"\"}}Меня так\nпросто не проведешь.{{pageBreak}}{{anim id=\"Worried\" target=\"actor\" targetSpec=\"\"}}Так, посмотрим{{string value=\"...\"}}{{delay20}} {{anim id=\"FaintSmile\" target=\"actor\" targetSpec=\"\"}}О! {{delay8}}Мне кажется,\nмы еще не знакомы. {{delay8}}Исправим это\nупущение!{{delay20}} {{anim id=\"Greeting\" target=\"actor\" targetSpec=\"\"}}Я {{string value=\"VillagerName\"}}.{{pageBreak}}{{anim id=\"Smiling\" target=\"actor\" targetSpec=\"\"}}Очень приятно! Надеюсь, мы\nс тобой поладим. {{delay20}}Только оставь\nкостюм {{color id=\"3\"}}Джека{{color id=\"65535\"}} дома, ладно?"
  },
  {
    "label": "202",
    "attribute": "0x0000000000000000",
    "text": "{{anim id=\"Angry\" target=\"actor\" targetSpec=\"\"}}Со всем уважением,{{delay8}} {{delay20}}{{color id=\"3\"}}Джек{{color id=\"65535\"}},{{delay8}} почему\nу тебя нет места в карманах?{{delay frames=\"40\"}} {{anim id=\"OhGeez\" target=\"actor\" targetSpec=\"\"}}Они\nу тебя разве не бездонные?{{pageBreak}}{{anim id=\"Frantic\" target=\"actor\" targetSpec=\"\"}}Ох!{{delay8}} Мне очень жаль!{{delay frames=\"40\"}}{{anim id=\"EmotEnd\" target=\"actor\" targetSpec=\"\"}} {{anim id=\"Restless\" target=\"actor\" targetSpec=\"\"}}Но это не моя\nвина, что у тебя нет места для\nконфет! {{capitalizeNextLetter}}{{string value=\"6\"}}."
  }
]