﻿[
  {
    "label": "000_0",
    "text": "Рыбаку море по колено"
  },
  {
    "label": "000_1",
    "text": "Умение рыбачить — важнейший навык\nдля жизни на уединенном острове.\nNook Inc. поощряет всех островитян,\nжелающих овладеть этим навыком!"
  },
  {
    "label": "001_0",
    "text": "У каждого свои тараканы"
  },
  {
    "label": "001_1",
    "text": "Зарабатывай мили, просто отлавливая\nвсяких жучков-паучков. Пойманная\nживность уже не заберется тайком\nв твой ящик с носками."
  },
  {
    "label": "002_0",
    "text": "Мастер лески"
  },
  {
    "label": "002_1",
    "text": "Внимательно следи за поплавком, если\nхочешь выудить эту награду. Чтобы\nзаработать эти мили, нужно выловить\nподряд несколько рыбин и не упустить\nни одной."
  },
  {
    "label": "003_0",
    "text": "Главный ихтиолог"
  },
  {
    "label": "003_1",
    "text": "Пополняй атлас живности информацией\nо рыбах и зарабатывай между делом мили.\nСможешь ли ты собрать сведения обо\nвсех видах рыб, обитающих в местных\nводах?"
  },
  {
    "label": "004_0",
    "text": "Главный энтомолог"
  },
  {
    "label": "004_1",
    "text": "Получай мили, заполняя атлас живности!\nИнтересно, получится ли у тебя поймать\nвсех насекомых? Да-да, я в тебя верю!\nПоддержи начинания {{color id=\"3\"}}Блезерса{{color id=\"65535\"}}, жертвуя\nотловленных насекомых музею!"
  },
  {
    "label": "005_0",
    "text": "Сокровища с неба"
  },
  {
    "label": "005_1",
    "text": "Кто запускает в небо подарки на\nвоздушных шарах — неизвестно.\nНо ты можешь заработать мили,\nсбивая и собирая их."
  },
  {
    "label": "006_0",
    "text": "Красота — сила"
  },
  {
    "label": "006_1",
    "text": "Рассаживай цветы, чтобы сделать наш\nостров еще красивее, и получай за это\nмили. Да-да!"
  },
  {
    "label": "007_0",
    "text": "Фруктовые заботы"
  },
  {
    "label": "007_1",
    "text": "На свете много разных видов фруктов.\nСажай их на острове, и тогда вырастут и\nмили Нука. А с урожаем делай что угодно!"
  },
  {
    "label": "008_0",
    "text": "Рощи да леса"
  },
  {
    "label": "008_1",
    "text": "Экологически устойчивое развитие\nострова невозможно без деревьев!\nЧем больше деревьев посадишь,\nтем больше миль получишь!"
  },
  {
    "label": "009_0",
    "text": "Мили для биржевиков"
  },
  {
    "label": "009_1",
    "text": "Мы начисляем мили Нука островитянам,\nкупившим репу. Покупай задешево,\nпродавай втридорога — вот и весь\nсекрет! Но не мешкай: через неделю\nрепа сгниет."
  },
  {
    "label": "010_0",
    "text": "Экономист"
  },
  {
    "label": "010_1",
    "text": "Твои заслуги на рынке репы заслуживают\nособого внимания! И миль Нука —\nза развитие экономики острова."
  },
  {
    "label": "011_0",
    "text": "Перезвон диней"
  },
  {
    "label": "011_1",
    "text": "Трата диней на острове оживляет\nместную экономику, да-да! Я буду\nнаграждать тебя милями Нука за\nпотраченные суммы."
  },
  {
    "label": "012_0",
    "text": "Первая покупка"
  },
  {
    "label": "012_1",
    "text": "Мили не начисляются за каждую покупку\nна острове, но первый раз — это нечто\nособенное! Прими в подарок мили от\nNook Inc."
  },
  {
    "label": "013_0",
    "text": "Продажа лишнего"
  },
  {
    "label": "013_1",
    "text": "Продавая ненужные вещи, можно\nизбавиться от ненужного хлама\nи заработать пару диней или даже миль!\nПоздравляем с первой продажей!"
  },
  {
    "label": "014_0",
    "text": "Освежитель мебели"
  },
  {
    "label": "014_1",
    "text": "Придай своей мебели уникальный вид\nи заработай мили. Чем больше предметов\nты изменишь, тем больше миль\nзаработаешь, по рукам?"
  },
  {
    "label": "015_0",
    "text": "Растущая коллекция"
  },
  {
    "label": "015_1",
    "text": "Купленные тобой предметы и одежда\nдобавляются в регистр приложения\n«Каталог Нука». Мы начисляем мили\nза расширение каталога."
  },
  {
    "label": "016_0",
    "text": "Красиво жить не запретишь"
  },
  {
    "label": "016_1",
    "text": "Жизнь на дальнем острове не означает\nотказ от роскоши. Ни в чем себе не\nотказывай: зарабатывай мили Нука,\nприобретая товары из {{color id=\"1\"}}каталога Нука{{color id=\"65535\"}}."
  },
  {
    "label": "017_0",
    "text": "Мания К. К."
  },
  {
    "label": "017_1",
    "text": "Своими концертами К. К. поддерживает\nкультурный уровень острова на высоте,\nи мы просто обязаны поддержать его.\nХоди на концерты К. К. и зарабатывай\nмили Нука."
  },
  {
    "label": "018_0",
    "text": "Доброе соседство"
  },
  {
    "label": "018_1",
    "text": "Посещай время от времени соседние\nострова, чтобы поддержать развитие\nтуризма. За путешествия начисляются\nмили Нука. Компания Nook Inc. поощряет\nлюбителей приключений!"
  },
  {
    "label": "019_0",
    "text": "Все флаги в гости к нам"
  },
  {
    "label": "019_1",
    "text": "В целях поощрения приглашений на\nостров, мы начисляем мили Нука за\nвизиты друзей."
  },
  {
    "label": "021_0",
    "text": "Активн{{gender2 m=\"ый\" f=\"ая\"}} островитян{{gender2 m=\"ин\" f=\"ка\"}}"
  },
  {
    "label": "021_1",
    "text": "Жизнь на острове сулит новые\nвозможности. Для наглядности я буду\nначислять тебе мили Нука за дни,\nкоторые ты активно проводишь на\nострове. Используй их себе на пользу!"
  },
  {
    "label": "023_0",
    "text": "Любовь к цветам"
  },
  {
    "label": "023_1",
    "text": "Если ты будешь обеспечивать рост\nцветов, поливая их водой, я буду\nобеспечивать твой рост, осыпая\nтебе милями Нука!"
  },
  {
    "label": "024_0",
    "text": "Где жужжит, там и жало"
  },
  {
    "label": "024_1",
    "text": "Осы больно кусаются! Если тебя снова\nукусят, пока не зажил первый укус,\nты упадешь в обморок. В утешение\nты получаешь пару миль и {{color id=\"1\"}}лекарство{{color id=\"65535\"}},\nкоторое поможет быстро поправиться."
  },
  {
    "label": "025_0",
    "text": "Цикада на память"
  },
  {
    "label": "025_1",
    "text": "Летом часто попадаются коконы цикад.\nПользы от них не то чтобы очень много,\nвсего то приятные воспоминания\nо лете... ну и мили, конечно."
  },
  {
    "label": "026_0",
    "text": "Ловец блох"
  },
  {
    "label": "026_1",
    "text": "Блохи — это зудящая напасть. Если тебе\nпопадется блохастый островитянин,\nобязательно выручи его. Доброе дело\nсделаешь и мили заработаешь."
  },
  {
    "label": "027_0",
    "text": "Опасная живность"
  },
  {
    "label": "027_1",
    "text": "На острове живет много ползучей\nживности не для слабонервных.\nПопробуй поймать ее сачком, может,\nона не такая уж и страшная..."
  },
  {
    "label": "031_0",
    "text": "Отличная реакция"
  },
  {
    "label": "031_1",
    "text": "Реакции помогают выразить себя!\nЗа использование реакции полагается\nпремия в виде миль Нука. Учись разным\nреакциям и зарабатывай мили!"
  },
  {
    "label": "032_0",
    "text": "Ловля мусора"
  },
  {
    "label": "032_1",
    "text": "Ты постоянно борешься за чистоту на\nнашем острове. Ты даже вылавливаешь\nмусор из наших прекрасных водоемов.\nЗа твои старания тебе полагаются\nмили Нука!"
  },
  {
    "label": "033_0",
    "text": "Ссуда за переезд"
  },
  {
    "label": "033_1",
    "text": "Спасибо, что погасил{{gender2 m=\"\" f=\"а\"}} ссуду за\nпереезд на остров! В благодарность\nмы начисляем тебе мили Нука.\nПобалуй себя!"
  },
  {
    "label": "034_0",
    "text": "Жизнь без долгов"
  },
  {
    "label": "034_1",
    "text": "Принцип тебе понятен: возвращаешь\nдолг — получаешь мили Нука!\nБлагодарим за сотрудничество\nс Nook Inc."
  },
  {
    "label": "035_0",
    "text": "Начинающий дизайнер"
  },
  {
    "label": "035_1",
    "text": "Научившись работать с приложением\n«Дизайнер», ты сможешь придавать\nиндивидуальность своей одежде\nи мебели. Все просто! Дерзай!"
  },
  {
    "label": "036_0",
    "text": "Заправский дизайнер"
  },
  {
    "label": "036_1",
    "text": "Ты обновил{{gender2 m=\"\" f=\"а\"}} приложение «Дизайнер»\nдо профессиональной версии? Значит,\nты теперь дизайнер-профи! В честь\nэтого тебе награда — мили Нука!"
  },
  {
    "label": "037_0",
    "text": "Мастер прополки"
  },
  {
    "label": "037_1",
    "text": "Nook Inc. приветствует старания по\nоблагораживанию острова и поощряет\nпродажу сорняков милями Нука."
  },
  {
    "label": "039_0",
    "text": "Золотая веха"
  },
  {
    "label": "039_1",
    "text": "От золотых инструментов в золотых руках\nодин шаг до стабильного благополучия.\nПолучи мили Нука за полную коллекцию\nзолотых инструментов."
  },
  {
    "label": "040_0",
    "text": "Интерьер с отличием"
  },
  {
    "label": "040_1",
    "text": "Академия домашнего уюта присвоила\nтебе категорию S! Своим дизайнерским\nталантом ты вдохновляешь других на\nдостижение новых высот в дизайне\nинтерьеров и заслуживаешь мили Нука."
  },
  {
    "label": "041_0",
    "text": "«Мастер удочки»! "
  },
  {
    "label": "041_1",
    "text": "Участвуй в турнирах «Мастер удочки»\nвесной, летом, осенью и зимой!\nЗа первое участие в турнирах в каждое\nиз времен года ты получишь мили Нука!"
  },
  {
    "label": "042_0",
    "text": "«Мастер сачка»! "
  },
  {
    "label": "042_1",
    "text": "Не знаешь, куда податься летом?\nКонечно же, на турнир «Мастер сачка»!\nNook Inc. начисляет мили участникам,\nтак что присоединяйся!"
  },
  {
    "label": "043_0",
    "text": "Злоключения Гулливера"
  },
  {
    "label": "043_1",
    "text": "Оказывая помощь потерпевшим крушение\nна пляже, ты подаешь хороший пример\nвсем островитянам. Твое чуткое сердце\nне останется без награды."
  },
  {
    "label": "044_0",
    "text": "Тайны острова"
  },
  {
    "label": "044_1",
    "text": "Узнав тайны острова, не стоит\nразглашать их остальным. Вдруг они\nиспугаются и сбегут? В твоем договоре\nэто тоже прописано..."
  },
  {
    "label": "045_0",
    "text": "Снежный маэстро"
  },
  {
    "label": "045_1",
    "text": "Вот это да! Мили Нука за снеговиков?!\nОтличная возможность заработать\nмили Нука, резвясь в снегу."
  },
  {
    "label": "046_0",
    "text": "С днем рождения!"
  },
  {
    "label": "046_1",
    "text": "Поздравляем с днем рождения! На твои\nна именины испекли тебе мы миль, вот\nтакой ширины, вот такой вышины!\n(Ни в чем себе не отказывай.)"
  },
  {
    "label": "047_0",
    "text": "Бонус за праздник"
  },
  {
    "label": "047_1",
    "text": "Устроить праздник имениннику на\nострове — это дело чести. Nook Inc.\nпоощряет дружбу милями Нука."
  },
  {
    "label": "048_0",
    "text": "Новогодний отсчет"
  },
  {
    "label": "048_1",
    "text": "Лучше встречи нового года может быть\nтолько встреча нового года с новыми\nмилями Нука! Желаем долгих лет и кучу\nмиль!"
  },
  {
    "label": "049_0",
    "text": "Рабочий износ"
  },
  {
    "label": "049_1",
    "text": "Сломанный инструмент — знак усердия!\nЗа трудолюбие мы начисляем мили Нука\nв зависимости от количества\nсломанных инструментов."
  },
  {
    "label": "050_0",
    "text": "Дружба по переписке"
  },
  {
    "label": "050_1",
    "text": "Мы поощряем переписку милями Нука.\nОтправляй всем открытки и завязывай\nдружбу с другими островитянами."
  },
  {
    "label": "051_0",
    "text": "Проказы"
  },
  {
    "label": "051_1",
    "text": "За создание первой ловушки мы\nначисляем мили Нука. Не попади только\nв собственноручно вырытую яму!"
  },
  {
    "label": "052_0",
    "text": "Ловушки на пути"
  },
  {
    "label": "052_1",
    "text": "Жизнь полна взлетов и падений. Попав\nв ловушку, не сердись, а гляди впредь\nсебе под ноги. В утешение ты получаешь\nнесколько миль Нука."
  },
  {
    "label": "053_0",
    "text": "{{capitalizeNextLetter}}{{string value=\"IslandName\"}} — мили"
  },
  {
    "label": "053_1",
    "text": "Не побоявшись долгого пути на этот\nостровок, ты теперь участвуешь\nв программе накопления миль Нука. Ты\nчестно заслужил{{gender2 m=\"\" f=\"а\"}} первые мили Нука!\nЗарабатывай мили, наслаждаясь жизнью!"
  },
  {
    "label": "054_0",
    "text": "Верные друзья"
  },
  {
    "label": "054_1",
    "text": "Nook Inc. поощряет добрососедство.\nХорошие отношения между\nостровитянами способствуют\nуспешному развитию острова."
  },
  {
    "label": "055_0",
    "text": "За дело!"
  },
  {
    "label": "055_1",
    "text": "Nook Inc. начисляет мили Нука за\nсобранные инструкции «Сделай сам».\nУчение — свет... и много миль!"
  },
  {
    "label": "056_0",
    "text": "Умный нукофон"
  },
  {
    "label": "056_1",
    "text": "Лучший пользователь всегда использует\nсвое смарт-устройство по максимуму!\nПо крайней мере, так считает Nook Inc.,\nесли речь идет о нукофоне, и начисляет\nмили Нука за его использование!"
  },
  {
    "label": "057_0",
    "text": "Камнекол"
  },
  {
    "label": "057_1",
    "text": "Ты ударил{{gender2 m=\"\" f=\"а\"}} по камню восемь раз подряд\nи выбил{{gender2 m=\"\" f=\"а\"}} из него множество предметов.\nНо это еще не все сюрпризы! Вот тебе\nмили Нука в придачу!"
  },
  {
    "label": "058_0",
    "text": "Мили Нука за мили!"
  },
  {
    "label": "058_1",
    "text": "Как интересно! Ты получаешь мили Нука\nза мили Нука. К чему это приведет? Еще\nбольше миль Нука за мили Нука..."
  },
  {
    "label": "059_0",
    "text": "Жизнь дана на добрые дела"
  },
  {
    "label": "059_1",
    "text": "За добрые дела тебе почет! Но не только!\nВзаимопомощь среди островитян\nмы поощряем милями Нука."
  },
  {
    "label": "060_0",
    "text": "Кладоискатель"
  },
  {
    "label": "060_1",
    "text": "Не ожидал{{gender2 m=\"\" f=\"а\"}} обнаружить на острове\nзарытые дини? Сокровища на островах\nне редкость. Вот несколько миль Нука\nот Nook Inc. в честь ценной находки."
  },
  {
    "label": "061_0",
    "text": "Палеонтолог-стажер"
  },
  {
    "label": "061_1",
    "text": "Поздравляем с находкой первой\nокаменелости! Как же тут без миль Нука?\nНо не останавливайся на достигнутом:\nнедра острова таят еще не одну\nокаменелость."
  },
  {
    "label": "062_0",
    "text": "Оценка окаменелостей"
  },
  {
    "label": "062_1",
    "text": "Мы начисляем мили Нука за оценку\nокаменелостей. Выкапывай и узнавай,\nчто таят в себе недра острова."
  },
  {
    "label": "063_0",
    "text": "Собиратель ракушек"
  },
  {
    "label": "063_1",
    "text": "Собирай ракушки, получай мили Нука.\nПростая арифметика! Дополнительный\nбонус — прогулки по пляжу под шум\nприбоя."
  },
  {
    "label": "064_0",
    "text": "Ландшафтный дизайн"
  },
  {
    "label": "064_1",
    "text": "Мебель можно выносить наружу.\nПокажи всем, что у тебя есть. За мебель\nна улице ты получишь мили Нука.\nЧем больше мебели, тем больше миль."
  },
  {
    "label": "067_0",
    "text": "Усердный дровосек"
  },
  {
    "label": "067_1",
    "text": "Цель компании Nook Inc. — развитие\nострова. Тут не обойтись без сырья.\nМы начисляем мили Нука за количество\nдревесины, полученной из деревьев."
  },
  {
    "label": "068_0",
    "text": "Дружба на острове"
  },
  {
    "label": "068_1",
    "text": "Одной из целей Nook Inc. является\nсплоченность среди островитян.\nМы начисляем мили Нука за беседы\nс островитянами. Попробуй ежедневно\nпоговорить со всеми соседями!"
  },
  {
    "label": "069_0",
    "text": "Лучший продавец"
  },
  {
    "label": "069_1",
    "text": "Ты зарабатываешь мили Нука за продажу\nракушек. Имей в виду: количество миль\nзависит не только от количества, но и от\nвида ракушек."
  },
  {
    "label": "070_0",
    "text": "Плоды труда"
  },
  {
    "label": "070_1",
    "text": "Ты зарабатываешь мили в зависимости\nот количества проданных фруктов.\nПомни: за экспорт наших родных фруктов\nна другие острова можно требовать\nболее высокую сумму!"
  },
  {
    "label": "071_0",
    "text": "Укротитель ос"
  },
  {
    "label": "071_1",
    "text": "Поймать пять ос подряд под силу\nне каждому! За это полагаются\nмили Нука."
  },
  {
    "label": "072_0",
    "text": "Инструменты «Сделай сам»"
  },
  {
    "label": "072_1",
    "text": "Если инструмент сломается, сделай\nеще один! Создание собственных\nинструментов поощряется милями Нука!\nЧем больше сделанных инструментов,\nтем больше миль!"
  },
  {
    "label": "073_0",
    "text": "Проекты «Сделай сам»"
  },
  {
    "label": "073_1",
    "text": "Тройной выигрыш! Новые предметы\n(выигрыш!), сделанные собственными\nруками (выигрыш!), и мили Нука\n(выигрыш!) — что может быть лучше?!"
  },
  {
    "label": "075_0",
    "text": "Фотограф-энтузиаст"
  },
  {
    "label": "075_1",
    "text": "Любишь фотографировать? Выставляй\nсвои чудесные работы напоказ: как\nпостановочные, так и спонтанные снимки."
  },
  {
    "label": "076_0",
    "text": "Твой нукофон"
  },
  {
    "label": "076_1",
    "text": "Научил{{gender2 m=\"ся\" f=\"ась\"}} пользоваться нукофоном?\nНаверное, да, раз добрал{{gender2 m=\"ся\" f=\"ась\"}} сюда.\nПользуйся преимуществами нукофона\nдля жизни на острове и получи мили Нука\nза освоение нукофона."
  },
  {
    "label": "077_0",
    "text": "Тащи в норку!"
  },
  {
    "label": "077_1",
    "text": "Мы начисляем мили за количество\nпредметов в хранилище. Эта удобная\nфункция делает жизнь на острове\nкомфортней!"
  },
  {
    "label": "078_0",
    "text": "Награда за изобилие"
  },
  {
    "label": "078_1",
    "text": "Заставляй свой дом мебелью! Nook Inc.\nначисляет мили Нука за количество\nмебели и предметов интерьера. Делай\nсвой дом уютнее и зарабатывай награды!"
  },
  {
    "label": "079_0",
    "text": "Тенистая встряска"
  },
  {
    "label": "079_1",
    "text": "Ходят слухи, что кто-то прячет мебель\nв деревьях на этом острове. Да-да!\nТы получишь мили в зависимости от\nколичества предметов мебели, которые\nты стряс{{gender2 m=\"\" f=\"ла\"}} с деревьев. Тряси вовсю!"
  },
  {
    "label": "080_0",
    "text": "Утонувшее сокровище"
  },
  {
    "label": "080_1",
    "text": "Вот те раз! Ты сбил{{gender2 m=\"\" f=\"а\"}} шарик метким\nпопаданием из рогатки, но\nприкрепленный приз упал в воду!\nПрими мили Нука и не ходи как в воду\nопущенн{{gender2 m=\"ый\" f=\"ая\"}}!"
  },
  {
    "label": "081_0",
    "text": "Мастер ремонта"
  },
  {
    "label": "081_1",
    "text": "Ремонт дома сделан? Твой дом выглядит\nтеперь совсем по-другому! Продолжай\nв том же духе, потому что мы начисляем\nмили Нука в зависимости от количества\nпроведенных ремонтов."
  },
  {
    "label": "082_0",
    "text": "Дом мечты"
  },
  {
    "label": "082_1",
    "text": "Настоящий дом — это новый уровень\nобитаемости острова! Мы начисляем\nмили Нука за постройку и расширение\nдомов. Пусть жизнь на острове\nстановится все уютнее."
  },
  {
    "label": "083_0",
    "text": "Преимущества объявлений"
  },
  {
    "label": "083_1",
    "text": "За первое объявление на островной\nдоске объявлений Nook Inc. начисляет\nмили Нука. Пользуйся доской объявлений\nдля общения со всеми жителями острова."
  },
  {
    "label": "084_0",
    "text": "По одежке встречают"
  },
  {
    "label": "084_1",
    "text": "Ни од{{gender2 m=\"ин\" f=\"на\"}} модни{{gender2 m=\"к\" f=\"ца\"}} не обойдется без шкафа. Мы начисляем мили Нука всем,\nу кого есть шкаф и кто носит разные\nнаряды, тем самым внося в свой вклад\nв развитие модных трендов на острове."
  },
  {
    "label": "085_0",
    "text": "Исполнение мечты"
  },
  {
    "label": "085_1",
    "text": "Ты не желал{{gender2 m=\"\" f=\"а\"}} себе больше миль Нука\nпри виде падающей звезды? Nook Inc.\nвыполняет это желание. Чем больше\nжеланий, тем больше миль!"
  },
  {
    "label": "086_0",
    "text": "Остров {{string value=\"IslandName\"}}"
  },
  {
    "label": "086_1",
    "text": "Мы в бюро услуг приветствуем новые\nидеи для флага и мелодии острова. Все\nтворческие личности будут награждены\nмилями Нука! Символы острова имеют\nогромное значение для всех нас!"
  },
  {
    "label": "087_0",
    "text": "Индивидуальный паспорт"
  },
  {
    "label": "087_1",
    "text": "В паспорте можно самостоятельно\nменять некоторую информацию. Nook Inc.\nначисляет мили Нука островитянам,\nкоторые проявляют индивидуальность\nво всем, даже в документах!"
  },
  {
    "label": "088_0",
    "text": "Редактор острова"
  },
  {
    "label": "088_1",
    "text": "Nook Inc. приветствует активное\nиспользование приложения «{{color id=\"1\"}}Редактор\nострова{{color id=\"65535\"}}». Мы начисляем мили за первое\nиспользование лицензии на дорогу,\nна реки и озера или скалы."
  },
  {
    "label": "089_0",
    "text": "Заборы — цивилизация!"
  },
  {
    "label": "089_1",
    "text": "Установив забор, можно в два счета\nпревратить дикую природу в уютный сад.\nNook Inc. награждает строителей заборов\nмилями Нука."
  },
  {
    "label": "090_0",
    "text": "Берегись подделок!"
  },
  {
    "label": "090_1",
    "text": "Тебя обвели вокруг пальца, подсунув\nподделку? Конечно, это обидно. От\nобмана спасает только наметанный\nглаз, да-да! Надеюсь, мили Нука\nтебя утешат."
  },
  {
    "label": "091_0",
    "text": "Слава меценатам!"
  },
  {
    "label": "091_1",
    "text": "Коллекционирование предметов\nискусства повышает культурный уровень\nострова {{string value=\"IslandName\"}}! Nook Inc.\nнаграждает знатоков и меценатов\nмилями Нука."
  },
  {
    "label": "092_0",
    "text": "Цветущий сезон"
  },
  {
    "label": "092_1",
    "text": "Каждому сезону — свои цветущие кусты,\nда-да! Награда за посадку большого\nколичества цветущих растений — не\nтолько радость для глаз, но и мили Нука!"
  },
  {
    "label": "095_0",
    "text": "Подводные поиски"
  },
  {
    "label": "095_1",
    "text": "В глубинах моря водится множество\nинтересных существ! Ныряй, лови их\nи заполняй атлас живности, чтобы\nзаработать мили Нука! Да-да!"
  },
  {
    "label": "096_0",
    "text": "Выдра мудра!"
  },
  {
    "label": "096_1",
    "text": "Если встретишь в море выдру-философа,\nне пожалей для него гребешка. Никогда\nне знаешь, какой мудростью он с тобой\nподелится... или даже чем-то еще!"
  },
  {
    "label": "098_0",
    "text": "Загадки глубин"
  },
  {
    "label": "098_1",
    "text": "Величественный океан, окружающий наш\nостров — дом для разных удивительных\nживотных. Надевай гидрокостюм и маску\nподводную, добывай глубоководную\nживность и зарабатывай мили Нука!"
  },
  {
    "label": "100_0",
    "text": "Бег за побегами"
  },
  {
    "label": "100_1",
    "text": "Рассаживай свои растения по всему\nострову и снимай с них свежий и яркий\nурожай! Скромный огородик и огромные\nсельскохозяйственные поля — все\nидет на пользу Nook Inc. Да-да! Спасибо!"
  },
  {
    "label": "102_0",
    "text": "Отменный производитель"
  },
  {
    "label": "102_1",
    "text": "Как приятно собирать урожай, ради\nкоторого трудишься в поте лица!\nДа-да! Наслаждайся плодами своих\nтрудов, а еще и тыквами, морковью,\nсахарным тростником и картофелем!"
  },
  {
    "label": "103_0",
    "text": "Курс на приключения!"
  },
  {
    "label": "103_1",
    "text": "Все удивительные приключения и редкие\nпредметы достанутся тебе, если ты\nотправишься в особый круиз с нашим\nкапитаном дальнего плавания, да-да!"
  },
  {
    "label": "104_0",
    "text": "Гироидомания"
  },
  {
    "label": "104_1",
    "text": "Собирай разные виды гироидов\nи зарабатывай мили! Уверяю, стоит\nтолько откопать одного — и жажду\nохоты будет не утолить."
  },
  {
    "label": "105_0",
    "text": "Рецепт успеха"
  },
  {
    "label": "105_1",
    "text": "Если сложить вместе все рецепты в твоей\nколлекции, их длины хватит на мили,\nи за это я даю... мили! Твои кулинарные\nшедевры — услада для глаз и желудка.\nНу что, порадуешь соседей?"
  },
  {
    "label": "106_0",
    "text": "Гип-гип, гироид!"
  },
  {
    "label": "106_1",
    "text": "Твой первый гироид! Это знаменательное\nсобытие мы отпразднуем милями, да-да!\nНадеюсь, эта находка вдохновит тебя\nна поиски остальных чудесных гироидов."
  },
  {
    "label": "107_0",
    "text": "М-м-м! М-м-мили!"
  },
  {
    "label": "107_1",
    "text": "Как же весело собирать ингредиенты\nи готовить из них всякие вкусности,\nправда? Да-да, я считаю, что за все\nаппетитные угощения наши шеф-повара\nобязательно должны получать мили!"
  },
  {
    "label": "108_0",
    "text": "На месте в «Насесте»"
  },
  {
    "label": "108_1",
    "text": "В кафе «{{color id=\"1\"}}Насест{{color id=\"65535\"}}», расположившемся\nна втором этаже {{color id=\"1\"}}музея{{color id=\"65535\"}}, кофейные зерна\nдля твоей будущей чашки кофе выбирают\nочень придирчиво, да-да! Обязательно\nзаходи — и зарабатывай ароматные мили!"
  },
  {
    "label": "109_0",
    "text": "Растяжка удовольствия"
  },
  {
    "label": "109_1",
    "text": "Здоровье наших жителей для нас важнее\nвсего, да-да! Поэтому на площади их\nждут групповые занятия по гимнастике.\nЗа участие дарю мили! И у нас даже есть\nмагнитофон. Так что дерзай!"
  }
]