﻿[
  {
    "label": "101",
    "attribute": "0x0000020000000000",
    "text": "{{i20_2 arg=\"6\"}}{{anim id=\"Grin\" target=\"actor\" targetSpec=\"\"}}Vaya, vaya{{string value=\"...\"}}{{delay8}} ¡Pero mira quién se ha\ndejado caer por aquí!{{delay20}} Gracias por\nvenir, {{fun_00060096 arg=\"\"}}.{{pageBreak}}{{anim id=\"ShyBoy\" target=\"actor\" targetSpec=\"\"}}Por cierto,{{delay8}} ¿no te interesará una\n{{color id=\"1\"}}plumeria de vivero{{color id=\"65535\"}}?{{delay8}} Es que tengo un\nmontón y no sé qué hacer con ellas."
  },
  {
    "label": "101_a",
    "attribute": "0x0000000000000000",
    "text": "¡Gracias!"
  },
  {
    "label": "101_b",
    "attribute": "0x0000000000000000",
    "text": "{{anim id=\"EmotEnd\" target=\"actor\" targetSpec=\"\"}}Ahora no, gracias"
  },
  {
    "label": "102",
    "attribute": "0x0000020000000000",
    "text": "{{i20_2 arg=\"6\"}}{{anim id=\"FaintSmile\" target=\"actor\" targetSpec=\"\"}}Me gusta cuando los jóvenes os\ntomáis en serio vuestra educación.{{pageBreak}}Por cierto,{{delay8}} {{anim id=\"QuestionMark\" target=\"actor\" targetSpec=\"\"}}¿te gustan las plantas?{{delay8}}\n{{anim id=\"Explain\" target=\"actor\" targetSpec=\"\"}}Es que me salen {{color id=\"1\"}}plumerias{{color id=\"65535\"}} hasta por\nlas orejas.{{delay20}} {{anim id=\"Laughing\" target=\"actor\" targetSpec=\"\"}}En sentido figurado,{{delay8}} claro.{{pageBreak}}{{anim id=\"ShyBoy\" target=\"actor\" targetSpec=\"\"}}¿Quieres llevarte una {{color id=\"1\"}}plumeria\nde vivero{{color id=\"65535\"}}?"
  },
  {
    "label": "102_a",
    "attribute": "0x0000000000000000",
    "text": "¡Gracias!"
  },
  {
    "label": "102_b",
    "attribute": "0x0000000000000000",
    "text": "{{anim id=\"EmotEnd\" target=\"actor\" targetSpec=\"\"}}Ahora no, gracias"
  },
  {
    "label": "103",
    "attribute": "0x0000020000000000",
    "text": "{{i20_2 arg=\"6\"}}{{anim id=\"Greeting\" target=\"actor\" targetSpec=\"\"}}¡Buenas,{{delay8}} jovencit{{gender2 m=\"o\" f=\"a\"}}!{{delay8}} Chiste del día:{{delay8}}\nla escuela huele a {{color id=\"1\"}}plumerias de\nvivero {{color id=\"65535\"}}y no he sido yo,{{delay8}} {{anim id=\"Laughing\" target=\"actor\" targetSpec=\"\"}}¡ja,{{delay8}} ja,{{delay8}} ja!{{pageBreak}}{{anim id=\"Explain\" target=\"actor\" targetSpec=\"\"}}Bromas aparte,{{delay8}} habrás visto que\ntenemos una invasión de {{color id=\"1\"}}plumerias\n{{color id=\"65535\"}}en toda regla{{string value=\"...\"}}{{pageBreak}}{{anim id=\"Explain\" target=\"actor\" targetSpec=\"\"}}Así que he aprovechado para coger\nunas cuantas y se las estoy dando\na cualquiera que pase por aquí.{{pageBreak}}{{anim id=\"QuestionMark\" target=\"actor\" targetSpec=\"\"}}¿Qué me dices?{{delay20}} ¿Quieres una?{{delay20}}\n{{anim id=\"Nodding\" target=\"actor\" targetSpec=\"\"}}Lo mismo te da clases de algo,{{delay8}}\n{{anim id=\"Laughing\" target=\"actor\" targetSpec=\"\"}}¡ja,{{delay8}} ja,{{delay8}} ja!"
  },
  {
    "label": "103_a",
    "attribute": "0x0000000000000000",
    "text": "¡Gracias!"
  },
  {
    "label": "103_b",
    "attribute": "0x0000000000000000",
    "text": "{{anim id=\"EmotEnd\" target=\"actor\" targetSpec=\"\"}}Ahora no, gracias"
  },
  {
    "label": "106_01",
    "attribute": "0x0000000000000000",
    "text": "{{anim id=\"Smiling\" target=\"actor\" targetSpec=\"\"}}¡Así me gusta!{{delay20}} Aquí tienes tu\n{{color id=\"1\"}}plumeria blanca de vivero{{color id=\"65535\"}}."
  },
  {
    "label": "106_02",
    "attribute": "0x0000000000000000",
    "text": "{{anim id=\"Smiling\" target=\"actor\" targetSpec=\"\"}}Toma.{{delay20}} {{anim id=\"FaintSmile\" target=\"actor\" targetSpec=\"\"}}¡Vas a causar sensación\nentre tus vecinos con esta\n{{color id=\"1\"}}plumeria rosa de vivero{{color id=\"65535\"}}! "
  },
  {
    "label": "107",
    "attribute": "0x0000000000000000",
    "text": "{{fun_0014003C arg=\"\"}}"
  },
  {
    "label": "107_01",
    "attribute": "0x0000000000000000",
    "text": "{{anim id=\"Explain\" target=\"actor\" targetSpec=\"\"}}Esta planta es muy agradecida{{string value=\"...\"}}{{delay8}} {{anim id=\"AbsentMindedness\" target=\"actor\" targetSpec=\"\"}}Si\nla cuidas bien,{{delay8}} ¡ya verás la de flores\nque te va a regalar, {{string value=\"6\"}}!"
  },
  {
    "label": "107_02",
    "attribute": "0x0000000000000000",
    "text": "{{anim id=\"Explain\" target=\"actor\" targetSpec=\"\"}}Si no sabes qué hacer con ella,{{delay8}}\npuedes hablarle o cantarle.{{delay20}} {{anim id=\"Laughing\" target=\"actor\" targetSpec=\"\"}}Ten por\nseguro que no se quejará,{{delay8}} ja,{{delay8}} ja,{{delay8}} ja."
  },
  {
    "label": "107_03",
    "attribute": "0x0000000000000000",
    "text": "{{anim id=\"Explain\" target=\"actor\" targetSpec=\"\"}}Estas amiguitas crecen muy rápido,{{delay8}}\nasí que,{{delay8}} como te descuides,{{delay8}} {{anim id=\"Laughing\" target=\"actor\" targetSpec=\"\"}}se te\nmeterán hasta la cocina,{{delay8}} ¡ja,{{delay8}} ja,{{delay8}} ja!"
  },
  {
    "label": "108",
    "attribute": "0x0000000000000000",
    "text": "{{fun_0014003C arg=\"\"}}"
  },
  {
    "label": "108_01",
    "attribute": "0x0000000000000000",
    "text": "{{anim id=\"Negative\" target=\"actor\" targetSpec=\"\"}}Lástima{{string value=\"...\"}}{{delay8}} En fin,{{delay8}} no puedo\nobligarte.{{delay20}} {{anim id=\"FaintSmile\" target=\"actor\" targetSpec=\"\"}}Avísame si cambias\nde opinión,{{delay8}} joven."
  },
  {
    "label": "108_02",
    "attribute": "0x0000000000000000",
    "text": "{{anim id=\"Negative\" target=\"actor\" targetSpec=\"\"}}Tú te lo pierdes{{string value=\"...\"}} {{anim id=\"OhGeez\" target=\"actor\" targetSpec=\"\"}}Podrías aprender\nmucho de ellas{{string value=\"...\"}} En fin,{{delay8}} {{anim id=\"FaintSmile\" target=\"actor\" targetSpec=\"\"}}ya sabes\ndónde estoy si cambias de idea."
  },
  {
    "label": "108_03",
    "attribute": "0x0000000000000000",
    "text": "{{anim id=\"Negative\" target=\"actor\" targetSpec=\"\"}}Tú verás,{{delay8}} jovencit{{gender2 m=\"o\" f=\"a\"}}.{{delay20}} {{anim id=\"OhGeez\" target=\"actor\" targetSpec=\"\"}}Luego querrás\ntener una cuando las veas tan\nbonitas por ahí{{string value=\"...\"}}{{pageBreak}}{{anim id=\"FaintSmile\" target=\"actor\" targetSpec=\"\"}}En ese caso,{{delay8}} no dudes en venir\na verme.{{delay20}} {{anim id=\"Laughing\" target=\"actor\" targetSpec=\"\"}}Con todas las que tengo,{{delay8}}\nseguro que podré darte una."
  },
  {
    "label": "113",
    "attribute": "0x0000000000000000",
    "text": "{{anim id=\"Shocked\" target=\"actor\" targetSpec=\"\"}}Un segundo{{string value=\"...\"}}{{delay8}} {{anim id=\"QuestionMark\" target=\"actor\" targetSpec=\"\"}}¿Cómo es que llevas\nlos bolsillos tan llenos?{{delay8}} {{anim id=\"OhGeez\" target=\"actor\" targetSpec=\"\"}}¿No tienes\notro sitio donde guardar cosas?{{pageBreak}}{{anim id=\"Negative\" target=\"actor\" targetSpec=\"\"}}El caso es que no podré darte\nnada hasta que no hagas algo\nde espacio{{string value=\"...\"}}"
  },
  {
    "label": "115_01",
    "attribute": "0x0000000000000000",
    "text": "{{anim id=\"Smiling\" target=\"actor\" targetSpec=\"\"}}¡Buenas!{{delay8}} ¡Te estaba esperando,{{delay8}} \njoven!{{delay20}} {{anim id=\"BigSmile\" target=\"actor\" targetSpec=\"\"}}Aquí tienes tu {{color id=\"1\"}}plumeria\nblanca de vivero{{color id=\"65535\"}}.{{delay20}} {{anim id=\"Greeting\" target=\"actor\" targetSpec=\"\"}}¡Cuídala bien!"
  },
  {
    "label": "115_02",
    "attribute": "0x0000000000000000",
    "text": "{{anim id=\"Smiling\" target=\"actor\" targetSpec=\"\"}}Aquí tienes.{{delay20}} {{anim id=\"BigSmile\" target=\"actor\" targetSpec=\"\"}}¡Ya puedes presumir\nde tu {{color id=\"1\"}}plumeria rosa de vivero{{color id=\"65535\"}}!"
  }
]