﻿[
  {
    "label": "001",
    "attribute": "0x0000000000000000",
    "text": "{{anim id=\"Thinking\" target=\"actor\" targetSpec=\"\"}}{{selection value=\"SelectedVillager\"}} geht's echt dreckig. {{delay20}}Haste das mitbekommen?{{delay20}} Hat sich wohl was eingefangen...{{pageBreak}}{{anim id=\"IdeaBulb\" target=\"actor\" targetSpec=\"\"}}Warum stattest du {{gender8 m=\"ihm\" f=\"ihr\" n=\"\"}} nich' mal\n'nen Besuch ab, {{delay8}}Gänseblümchen.{{pageBreak}}{{anim id=\"Explain\" target=\"actor\" targetSpec=\"\"}}Ich garantier dir, {{delay8}}wenn {{gender8 m=\"er\" f=\"sie\" n=\"\"}} deine\nNase sieht, {{delay8}}wird {{gender8 m=\"er\" f=\"sie\" n=\"\"}} {{anim id=\"Assent\" target=\"actor\" targetSpec=\"\"}}rucki-zucki\nwieder gesund."
  },
  {
    "label": "002",
    "attribute": "0x0000000000000000",
    "text": "{{anim id=\"Aha\" target=\"actor\" targetSpec=\"\"}}Haste mitgekriegt?{{delay20}} {{gender8 m=\"Der\" f=\"Die\" n=\"\"}} {{selection value=\"SelectedVillager\"}} hat die Krätze.{{i10_4}} {{anim id=\"Grin\" target=\"actor\" targetSpec=\"\"}}Vielleicht übertreibe ich ein wenig...{{pageBreak}}{{anim id=\"WrySmile\" target=\"actor\" targetSpec=\"\"}}Das wirste nur rausfinden, wenn du\n{{gender8 m=\"ihn\" f=\"sie\" n=\"\"}} besuchen gehst.{{delay20}} Weißt schon...{{delay20}}{{anim id=\"Nodding\" target=\"actor\" targetSpec=\"\"}}\nWas man als guter Kumpel so macht."
  },
  {
    "label": "003",
    "attribute": "0x0000000000000000",
    "text": "Jemand hat mir gesteckt,{{delay8}} dass {{selection value=\"SelectedVillager\"}} sich was eingefangen hat.{{pageBreak}}{{anim id=\"Shocked\" target=\"actor\" targetSpec=\"\"}}Nich' eine gefangen...{{delay20}} Was einge-\nfangen!{{delay20}}{{anim id=\"Explain\" target=\"actor\" targetSpec=\"\"}} Sprich: {{delay8}}{{gender8 m=\"Ihm\" f=\"Ihr\" n=\"\"}} geht's nich'\ngut. {{delay20}}{{gender8 m=\"Er\" f=\"Sie\" n=\"\"}} is' krank.{{delay20}} Fertig.{{delay20}} Kaputt.\n{{anim id=\"QuestionMark\" target=\"actor\" targetSpec=\"\"}}Warum schauste nich' vorbei,{{delay8}}\num {{gender8 m=\"ihn\" f=\"sie\" n=\"\"}} ein wenig aufzumuntern?{{delay20}}\n{{anim id=\"WrySmile\" target=\"actor\" targetSpec=\"\"}}Das kannste doch so gut."
  }
]