﻿[
  {
    "label": "001",
    "attribute": "0x0000000000000000",
    "text": "{{i20_2 arg=\"10\"}}{{i20_2 arg=\"9\"}}C'est drôle,{{delay20}} {{anim id=\"Nodding\" target=\"actor\" targetSpec=\"\"}}moi aussi j'ai {{wordArticle}}{{fun_0000007D arg=\"0x0000\"}} !{{pageBreak}}{{anim id=\"FaintSmile\" target=\"actor\" targetSpec=\"\"}}Enfin,{{delay8}} {{gender8 m=\"le tien\" f=\"la tienne\" n=\"\"}} est un peu différent{{gender8 m=\"\" f=\"e\" n=\"\"}}\n{{gender8 m=\"du mien\" f=\"de la mienne\" n=\"\"}}{{string value=\"...\"}}{{pageBreak}}{{i20_3 arg=\"3\"}}{{i20_3 arg=\"6\"}}{{anim id=\"IdeaBulb\" target=\"actor\" targetSpec=\"\"}}Tu l'as personnalisé{{gender8 m=\"\" f=\"e\" n=\"\"}}, n'est-ce pas ?{{delay8}}\n{{anim id=\"Smiling\" target=\"actor\" targetSpec=\"\"}}Ça lui donne tout de suite une autre\nallure, {{string value=\"6\"}}."
  },
  {
    "label": "002",
    "attribute": "0x0000000000000000",
    "text": "{{i20_2 arg=\"10\"}}{{i20_2 arg=\"9\"}}{{anim id=\"Thinking\" target=\"actor\" targetSpec=\"\"}}Tiens donc{{string value=\"...\"}} J'ai l{{gender8 m=\"e\" f=\"a\" n=\"\"}} même {{fun_0000007D arg=\"0x0000\"}}{{anim id=\"Smiling\" target=\"actor\" targetSpec=\"\"}}, mais {{gender8 m=\"il\" f=\"elle\" n=\"\"}} n'a pas tout à fait la même tête.{{pageBreak}}{{i20_3 arg=\"3\"}}{{i20_3 arg=\"6\"}}{{anim id=\"Thinking\" target=\"actor\" targetSpec=\"\"}}Comme quoi, grâce au bricolage,{{delay8}} on\npeut changer le style d'un meuble {{delay8}}{{anim id=\"Nodding\" target=\"actor\" targetSpec=\"\"}}du\ntout au tout, {{string value=\"6\"}}.{{pageBreak}}{{anim id=\"FaintSmile\" target=\"actor\" targetSpec=\"\"}}Il faut juste se donner un peu de\nmal,{{delay8}} mais ça en vaut toujours\nla peine."
  },
  {
    "label": "003",
    "attribute": "0x0000000000000000",
    "text": "{{i20_2 arg=\"10\"}}{{i20_2 arg=\"9\"}}{{anim id=\"Aha\" target=\"actor\" targetSpec=\"\"}}Tu sais qu'à la maison,{{delay8}} j'ai {{wordArticle}}{{fun_0000007D arg=\"0x0000\"}} identique {{gender8 m=\"au tien\" f=\"à la tienne\" n=\"\"}} ?{{pageBreak}}{{i20_3 arg=\"6\"}}{{i20_3 arg=\"3\"}}{{anim id=\"Hesitate\" target=\"actor\" targetSpec=\"\"}}On dirait qu'on a les mêmes\ngoûts{{string value=\"...\"}}{{delay20}} {{anim id=\"Smiling\" target=\"actor\" targetSpec=\"\"}}Ça me fait plaisir !"
  },
  {
    "label": "004",
    "attribute": "0x0000000000000000",
    "text": "{{i20_2 arg=\"10\"}}{{i20_2 arg=\"9\"}}{{anim id=\"Aha\" target=\"actor\" targetSpec=\"\"}}J'ai presque {{gender8 m=\"le\" f=\"la\" n=\"\"}} même {{fun_0000007D arg=\"0x0000\"}} que toi !{{pageBreak}}{{i20_3 arg=\"3\"}}{{i20_3 arg=\"6\"}}{{anim id=\"Explain\" target=\"actor\" targetSpec=\"\"}}La seule chose qui les différencie,{{delay8}}\nc'est le motif{{string value=\"...\"}}{{pageBreak}}{{anim id=\"FaintSmile\" target=\"actor\" targetSpec=\"\"}}Je suis toujours étonnée de voir\ncomment on peut s'approprier un\nmeuble en le personnalisant."
  },
  {
    "label": "005",
    "attribute": "0x0000000000000000",
    "text": "{{i20_2 arg=\"10\"}}{{i20_2 arg=\"9\"}}{{anim id=\"Pardon\" target=\"actor\" targetSpec=\"\"}}J'ai exactement {{gender8 m=\"le\" f=\"la\" n=\"\"}} même {{fun_0000007D arg=\"0x0000\"}} !{{pageBreak}}{{i20_3 arg=\"6\"}}{{i20_3 arg=\"3\"}}{{anim id=\"FaintSmile\" target=\"actor\" targetSpec=\"\"}}Je suis contente qu'on ait les mêmes\ngoûts, {{string value=\"6\"}}."
  }
]