﻿[
  {
    "label": "001",
    "attribute": "0x0000000000000000",
    "text": "{{anim id=\"TakenAback\" target=\"actor\" targetSpec=\"\"}}Jemig! {{capitalizeNextLetter}}{{string value=\"NickName\"}}! Jij bent het! Je bent terug!{{pageBreak}}{{anim id=\"Pardon\" target=\"actor\" targetSpec=\"\"}}Hoelang geleden zagen wij elkaar\nvoor het laatst? {{anim id=\"Eh\" target=\"actor\" targetSpec=\"\"}}{{number value=\"1\" index=\"2\"}} jaar? Zoiets?\n{{delay8}}Dat er al zoveel tijd voorbij is, zeg.{{pageBreak}}{{anim id=\"WrySmile\" target=\"actor\" targetSpec=\"\"}}Kijk niet zo. Jou herken ik altijd!{{delay frames=\"40\"}} {{anim id=\"Explain\" target=\"actor\" targetSpec=\"\"}}Jij bent degene die {{string value=\"OtherIslandName\"}} \"⁠{{string value=\"OtherIslandName\"}}⁠\" genoemd heeft!{{pageBreak}}{{anim id=\"Smiling\" target=\"actor\" targetSpec=\"\"}}Nou ja, het is in ieder geval goed om je weer te zien! Ik zie je later! {{capitalizeNextLetter}}{{string value=\"6\"}}!"
  },
  {
    "label": "002",
    "attribute": "0x0000000000000000",
    "text": "{{anim id=\"TakenAback\" target=\"actor\" targetSpec=\"\"}}Zo zeg! {{delay8}}{{capitalizeNextLetter}}{{string value=\"NickName\"}}! {{delay8}}Is dat even lang geleden! {{pageBreak}}{{delay8}}{{anim id=\"Explain\" target=\"actor\" targetSpec=\"\"}}{{number value=\"1\" index=\"2\"}} jaar en {{number value=\"1\" index=\"1\"}} {{i50_8 x=\"0\" y=\"1\" a=\"maanden\" b=\"maand\" c=\"maanden\"}} om precies\nte zijn!{{pageBreak}}{{anim id=\"QuestionMark\" target=\"actor\" targetSpec=\"\"}}Dacht je dat ik je vergeten was?{{delay frames=\"40\"}} {{anim id=\"BigSmile\" target=\"actor\" targetSpec=\"\"}}Dit is {{string value=\"OtherIslandName\"}}! Jij hebt het zo genoemd en dat is nogal wat, hoor!{{pageBreak}}{{anim id=\"Nodding\" target=\"actor\" targetSpec=\"\"}}In ieder geval is het leuk om je weer\nte zien. Pas goed op jezelf, oké?\n{{capitalizeNextLetter}}{{string value=\"6\"}}!"
  },
  {
    "label": "003",
    "attribute": "0x0000000000000000",
    "text": "{{fun_0014003C arg=\"\"}}"
  },
  {
    "label": "003_01",
    "attribute": "0x0000000000000000",
    "text": "{{anim id=\"TakenAback\" target=\"actor\" targetSpec=\"\"}}Kanonnen! {{delay8}}{{capitalizeNextLetter}}{{string value=\"NickName\"}}!{{delay8}} Je bent helemaal in orde!{{pageBreak}}{{anim id=\"Confused\" target=\"actor\" targetSpec=\"\"}}Ze zeiden dat je was aangevallen\ndoor haaien, of ontvoerd door aliens,\nof bij een alien haaiencircus zat.{{pageBreak}}{{anim id=\"Nodding\" target=\"actor\" targetSpec=\"\"}}Maar goed, wat zie je er anders\nuit, joh. {{delay8}}Ben je gegroeid of zo?\n{{anim id=\"Smiling\" target=\"actor\" targetSpec=\"\"}}Toppie, hoor! {{capitalizeNextLetter}}{{string value=\"6\"}}!"
  },
  {
    "label": "003_02",
    "attribute": "0x0000000000000000",
    "text": "{{anim id=\"Negative\" target=\"actor\" targetSpec=\"\"}}Ik zie ze vliegen.{{delay20}} Ik zou zweren dat ik\n{{string value=\"NickName\"}} voor me zie staan.{{pageBreak}}{{anim id=\"Serious\" target=\"actor\" targetSpec=\"\"}}Wat een waanbeeld. Het voelt zo{{delay8}}{{string value=\"...\"}}\nécht.{{delay frames=\"40\"}} {{anim id=\"Pardon\" target=\"actor\" targetSpec=\"\"}}Heel echt. Enorm echt.\nHet ruikt zelfs echt.{{pageBreak}}{{anim id=\"OhGeez\" target=\"actor\" targetSpec=\"\"}}Jammer dat ik het me maar inbeeld.{{delay20}} Ik zou {{string value=\"NickName\"}} graag zien.{{delay frames=\"40\"}} Ik mis {{gender2 m=\"hem\" f=\"haar\"}}. {{capitalizeNextLetter}}{{string value=\"6\"}}."
  },
  {
    "label": "004",
    "attribute": "0x0000000000000000",
    "text": "{{fun_0014003C arg=\"\"}}"
  },
  {
    "label": "004_01",
    "attribute": "0x0000000000000000",
    "text": "{{anim id=\"Aha\" target=\"actor\" targetSpec=\"\"}}Hallo, {{string value=\"NickName\"}}! Lang niet gezien, joh!{{delay frames=\"40\"}} {{anim id=\"HappyDance\" target=\"actor\" targetSpec=\"\"}}Wat tof dat je weer op {{string value=\"OtherIslandName\"}} bent.{{pageBreak}}{{anim id=\"Explain\" target=\"actor\" targetSpec=\"\"}}We hadden het gisteren nog over je.\nWe vroegen ons af waar je gebleven\nwas, {{string value=\"6\"}}!{{pageBreak}}{{anim id=\"Hello\" target=\"actor\" targetSpec=\"\"}}Heb je de rest al gedag gezegd? Dat\nzou ik zeker nog even doen.{{delay frames=\"40\"}} {{anim id=\"Smiling\" target=\"actor\" targetSpec=\"\"}}Ze\nzullen heel blij zijn om je te zien!{{pageBreak}}{{anim id=\"BigSmile\" target=\"actor\" targetSpec=\"\"}}In ieder geval, welkom terug, {{string value=\"NickName\"}}!"
  },
  {
    "label": "004_02",
    "attribute": "0x0000000000000000",
    "text": "{{anim id=\"Aha\" target=\"actor\" targetSpec=\"\"}}{{capitalizeNextLetter}}{{string value=\"NickName\"}}?! Kijk nou toch!{{delay frames=\"40\"}} {{anim id=\"Greeting\" target=\"actor\" targetSpec=\"\"}}Jou heb ik al in geen eeuwen gezien!{{pageBreak}}{{anim id=\"Thinking\" target=\"actor\" targetSpec=\"\"}}Nou ja, op zijn minst {{number value=\"1\" index=\"1\"}} {{i50_8 x=\"0\" y=\"1\" a=\"\" b=\"maand\" c=\"maanden\"}} niet.{{delay frames=\"40\"}} Ik wist dat je uiteindelijk terug zou komen, maar dat duurde even!{{pageBreak}}{{anim id=\"Blushing\" target=\"actor\" targetSpec=\"\"}}Het was niet hetzelfde zonder jou,\nweet je?{{delay frames=\"40\"}} {{anim id=\"Assent\" target=\"actor\" targetSpec=\"\"}}Ik heb mijn feestmaatje\necht gemist! {{capitalizeNextLetter}}{{string value=\"6\"}}!"
  },
  {
    "label": "004_03",
    "attribute": "0x0000000000000000",
    "text": "{{anim id=\"Eh\" target=\"actor\" targetSpec=\"\"}}Als we daar {{string value=\"NickName\"}} niet hebben!{{delay frames=\"40\"}} {{anim id=\"Thinking\" target=\"actor\" targetSpec=\"\"}}Hoelang ben jij wel niet weggeweest? {{number value=\"1\" index=\"1\"}} {{i50_8 x=\"0\" y=\"1\" a=\"\" b=\"maand\" c=\"maanden\"}}, zoiets?{{pageBreak}}{{anim id=\"Serious\" target=\"actor\" targetSpec=\"\"}}Het is heerlijk om je weer te zien\nmaar ik maakte me echt even zorgen.\n{{delay frames=\"40\"}}{{anim id=\"Worried\" target=\"actor\" targetSpec=\"\"}}Je verdween zomaar.{{pageBreak}}{{anim id=\"Grin\" target=\"actor\" targetSpec=\"\"}}Je bent in ieder geval terug nu. Blijf\nje nog even? {{anim id=\"Smiling\" target=\"actor\" targetSpec=\"\"}}Zo ja, dan stel ik een\nfeestje voor! {{capitalizeNextLetter}}{{string value=\"6\"}}!"
  },
  {
    "label": "005",
    "attribute": "0x0000000000000000",
    "text": "{{fun_0014003C arg=\"\"}}"
  },
  {
    "label": "005_01",
    "attribute": "0x0000000000000000",
    "text": "{{anim id=\"Greeting\" target=\"actor\" targetSpec=\"\"}}Hoi, {{string value=\"NickName\"}}! Jou heb ik al even niet gezien.{{delay frames=\"40\"}} {{anim id=\"Smiling\" target=\"actor\" targetSpec=\"\"}}Hoe is het met je?{{pageBreak}}{{anim id=\"FaintSmile\" target=\"actor\" targetSpec=\"\"}}Ben je even niet in een sociale bui?{{delay frames=\"40\"}}\n{{anim id=\"Nodding\" target=\"actor\" targetSpec=\"\"}}Geen probleem, joh. Dat heb ik af en\ntoe ook.{{pageBreak}}{{anim id=\"Smiling\" target=\"actor\" targetSpec=\"\"}}Als je zin hebt in een praatje, aarzel\ndan vooral niet!{{delay frames=\"40\"}} {{anim id=\"Grin\" target=\"actor\" targetSpec=\"\"}}{{capitalizeNextLetter}}{{string value=\"6\"}}!"
  },
  {
    "label": "005_02",
    "attribute": "0x0000000000000000",
    "text": "{{anim id=\"Aha\" target=\"actor\" targetSpec=\"\"}}Hallo daar, {{string value=\"NickName\"}}!{{delay frames=\"40\"}} {{anim id=\"Hello\" target=\"actor\" targetSpec=\"\"}}Eindelijk kom je een praatje maken!{{pageBreak}}{{anim id=\"Restless\" target=\"actor\" targetSpec=\"\"}}Ik was al bezorgd dat je boos op me\nwas.{{delay frames=\"40\"}} {{anim id=\"Negative\" target=\"actor\" targetSpec=\"\"}}Meestal vraag ik of dat zo is,\nmaar ik was te nerveus.{{pageBreak}}{{anim id=\"Explain\" target=\"actor\" targetSpec=\"\"}}Het is wel een enorme opluchting\ndat we nog maatjes zijn!{{delay frames=\"40\"}} {{anim id=\"Blushing\" target=\"actor\" targetSpec=\"\"}}Kom vooral\nbij me langs. {{capitalizeNextLetter}}{{string value=\"6\"}}!"
  },
  {
    "label": "005_03",
    "attribute": "0x0000000000000000",
    "text": "{{anim id=\"QuestionMark\" target=\"actor\" targetSpec=\"\"}}Zeg, eh{{string value=\"...\"}}{{delay20}} jij bent toch {{string value=\"NickName\"}}?{{pageBreak}}{{anim id=\"ShyBoy\" target=\"actor\" targetSpec=\"\"}}Grapje, joh!{{delay20}} Hoestie?{{delay20}} Dat is alweer\neven geleden!{{pageBreak}}{{anim id=\"Nodding\" target=\"actor\" targetSpec=\"\"}}Ik ben zo met de tuin bezig in mijn\nhoofd{{delay20}} dat ik helemaal ben vergeten\nhoe sociaal zijn werkt.\n{{anim id=\"Thinking\" target=\"actor\" targetSpec=\"\"}}Wanneer zagen wij elkaar voor het\nlaatst?{{delay frames=\"60\"}} {{anim id=\"Surprised\" target=\"actor\" targetSpec=\"\"}}Nee!{{delay20}} {{number value=\"1\" index=\"1\"}} {{i50_8 x=\"0\" y=\"1\" a=\"\" b=\"maand\" c=\"maanden\"}} geleden?!{{pageBreak}}{{anim id=\"SadSpiral\" target=\"actor\" targetSpec=\"\"}}Alle slakken nog aan toe, {{string value=\"Catchphrase\"}}{{string value=\"...\"}}"
  }
]