﻿[
  {
    "label": "200",
    "text": "タクミライフの{{ruby charSpan=\"2\" value=\"なかま\"}}仲間になってくれて　ありがとう！\n{{ruby charSpan=\"2\" value=\"こんご\"}}今後はワタシからも、お{{ruby charSpan=\"2\" value=\"しごと\"}}仕事に{{ruby charSpan=\"2\" value=\"やくだ\"}}役立つアドバイスを{{ruby charSpan=\"1\" value=\"おく\"}}送るわね♪"
  },
  {
    "label": "201",
    "text": "ウチの{{ruby charSpan=\"3\" value=\"じむしょ\"}}事務所の1{{ruby charSpan=\"1\" value=\"かい\"}}階では、お{{ruby charSpan=\"2\" value=\"みやげ\"}}土産ショップをやってるの！\nもちろん、スタッフのみんなも　お{{ruby charSpan=\"1\" value=\"か\"}}買い{{ruby charSpan=\"1\" value=\"もの\"}}物してくれてオッケーよ♪"
  },
  {
    "label": "202",
    "text": "リゾート{{ruby charSpan=\"1\" value=\"ち\"}}地の{{ruby charSpan=\"2\" value=\"しまじま\"}}島々の{{ruby charSpan=\"2\" value=\"つうか\"}}通貨は　ベルじゃなくて、{{color id=\"1\"}}ポキ{{color id=\"65535\"}}なの！\nお{{ruby charSpan=\"2\" value=\"きゅうりょう\"}}給料もポキで{{ruby charSpan=\"2\" value=\"しはら\"}}支払うから　そこんトコ、よろしくね！"
  },
  {
    "label": "203",
    "text": "{{ruby charSpan=\"3\" value=\"じむしょ\"}}事務所の2{{ruby charSpan=\"1\" value=\"かい\"}}階はスタッフルームだから、{{ruby charSpan=\"2\" value=\"じゆう\"}}自由に{{ruby charSpan=\"1\" value=\"つか\"}}使ってね！\nアナタの{{color id=\"1\"}}ロッカー{{color id=\"65535\"}}では、{{ruby charSpan=\"2\" value=\"せいふく\"}}制服を{{ruby charSpan=\"2\" value=\"じゆう\"}}自由にコーデできるわよ！"
  },
  {
    "label": "204",
    "text": "{{ruby charSpan=\"3\" value=\"じむしょ\"}}事務所の2{{ruby charSpan=\"1\" value=\"かい\"}}階はスタッフルームだから、{{ruby charSpan=\"2\" value=\"じゆう\"}}自由に{{ruby charSpan=\"1\" value=\"つか\"}}使ってね！\n{{color id=\"1\"}}{{ruby charSpan=\"1\" value=\"かがみ\"}}鏡{{color id=\"65535\"}}では、{{ruby charSpan=\"2\" value=\"ようし\"}}容姿のイメチェンができるわよ！"
  },
  {
    "label": "205",
    "text": "{{ruby charSpan=\"3\" value=\"じむしょ\"}}事務所の2{{ruby charSpan=\"1\" value=\"かい\"}}階はスタッフルームだから、{{ruby charSpan=\"2\" value=\"じゆう\"}}自由に{{ruby charSpan=\"1\" value=\"つか\"}}使ってね！\n{{color id=\"1\"}}キャビネット{{color id=\"65535\"}}では、お{{ruby charSpan=\"1\" value=\"うち\"}}家の{{ruby charSpan=\"2\" value=\"しゅうのう\"}}収納の{{ruby charSpan=\"2\" value=\"にもつ\"}}荷物を{{ruby charSpan=\"1\" value=\"だ\"}}出し{{ruby charSpan=\"1\" value=\"い\"}}入れできるわよ！"
  },
  {
    "label": "206",
    "text": "ウチのショップで{{ruby charSpan=\"1\" value=\"う\"}}売ってる　{{color id=\"1\"}}おみやげチョコレート{{color id=\"65535\"}}、\nよかったら　アナタの{{ruby charSpan=\"1\" value=\"しま\"}}島の{{ruby charSpan=\"2\" value=\"じゅうみん\"}}住民の{{ruby charSpan=\"1\" value=\"かた\"}}方に　{{ruby charSpan=\"1\" value=\"くば\"}}配ってみてね！\nついでに、{{ruby charSpan=\"2\" value=\"べっそう\"}}別荘を{{ruby charSpan=\"1\" value=\"つく\"}}作らないか　{{ruby charSpan=\"1\" value=\"さそ\"}}誘ってみるのもいいと{{ruby charSpan=\"1\" value=\"おも\"}}思うの！"
  },
  {
    "label": "207",
    "text": "{{ruby charSpan=\"2\" value=\"べっそう\"}}別荘を{{ruby charSpan=\"1\" value=\"た\"}}建てるロケーションを{{ruby charSpan=\"1\" value=\"えら\"}}選ぶ{{ruby charSpan=\"1\" value=\"とき\"}}時は、{{ruby charSpan=\"2\" value=\"いっしょ\"}}一緒に{{color id=\"1\"}}{{ruby charSpan=\"2\" value=\"きせつ\"}}季節{{color id=\"65535\"}}も{{ruby charSpan=\"1\" value=\"えら\"}}選べるわよ！\n{{ruby charSpan=\"2\" value=\"きせつ\"}}季節が{{ruby charSpan=\"1\" value=\"か\"}}変われば{{ruby charSpan=\"2\" value=\"いんしょう\"}}印象も{{ruby charSpan=\"1\" value=\"か\"}}変わるから、いろいろ{{ruby charSpan=\"1\" value=\"み\"}}見てみてね！"
  },
  {
    "label": "208",
    "text": "{{ruby charSpan=\"1\" value=\"しま\"}}島の{{color id=\"1\"}}{{ruby charSpan=\"2\" value=\"きせつ\"}}季節{{color id=\"65535\"}}は　{{ruby charSpan=\"2\" value=\"べっそう\"}}別荘づくりの{{ruby charSpan=\"2\" value=\"とちゅう\"}}途中でも{{ruby charSpan=\"2\" value=\"へんこう\"}}変更できるわよ！\nお{{ruby charSpan=\"1\" value=\"にわ\"}}庭で　{{color id=\"1\"}}{{color id=\"65535\"}}をチェックしてみてね！"
  },
  {
    "label": "209",
    "text": "ひとつの{{ruby charSpan=\"1\" value=\"しま\"}}島に{{ruby charSpan=\"1\" value=\"た\"}}建てられる{{ruby charSpan=\"2\" value=\"べっそう\"}}別荘の{{ruby charSpan=\"1\" value=\"かず\"}}数に、{{ruby charSpan=\"1\" value=\"かぎ\"}}限りはないの！\n{{ruby charSpan=\"1\" value=\"き\"}}気にせず　{{ruby charSpan=\"2\" value=\"いらい\"}}依頼ごとに　{{ruby charSpan=\"1\" value=\"す\"}}好きなロケーションを{{ruby charSpan=\"1\" value=\"えら\"}}選んでね♪"
  },
  {
    "label": "210",
    "text": "{{ruby charSpan=\"2\" value=\"べっそう\"}}別荘の{{ruby charSpan=\"2\" value=\"しゃしん\"}}写真を{{ruby charSpan=\"1\" value=\"と\"}}撮る{{ruby charSpan=\"1\" value=\"とき\"}}時、{{color id=\"1\"}}{{color id=\"65535\"}}を{{ruby charSpan=\"1\" value=\"お\"}}押すと　{{color id=\"1\"}}{{ruby charSpan=\"2\" value=\"きが\"}}着替え{{color id=\"65535\"}}もできるわよ！\nお{{ruby charSpan=\"2\" value=\"へや\"}}部屋に{{ruby charSpan=\"1\" value=\"あ\"}}合わせた{{ruby charSpan=\"2\" value=\"いしょう\"}}衣装で　{{ruby charSpan=\"2\" value=\"さつえい\"}}撮影を{{ruby charSpan=\"1\" value=\"たの\"}}楽しんでね♪"
  },
  {
    "label": "211",
    "text": "{{ruby charSpan=\"2\" value=\"べっそう\"}}別荘の{{ruby charSpan=\"2\" value=\"しゃしん\"}}写真を{{ruby charSpan=\"1\" value=\"と\"}}撮る{{ruby charSpan=\"1\" value=\"とき\"}}時、{{color id=\"1\"}}{{color id=\"65535\"}}で　そこにいる{{ruby charSpan=\"1\" value=\"ひと\"}}人の{{ruby charSpan=\"2\" value=\"ばしょ\"}}場所を{{ruby charSpan=\"1\" value=\"か\"}}変えられるわよ！\n{{ruby charSpan=\"2\" value=\"さいこう\"}}最高の{{ruby charSpan=\"2\" value=\"いちまい\"}}一枚にふさわしい　ベストポジションを{{ruby charSpan=\"1\" value=\"き\"}}決めてちょうだい♪"
  },
  {
    "label": "212",
    "text": "{{ruby charSpan=\"2\" value=\"べっそう\"}}別荘の{{ruby charSpan=\"2\" value=\"しゃしん\"}}写真は　お{{ruby charSpan=\"2\" value=\"へや\"}}部屋でも　お{{ruby charSpan=\"1\" value=\"にわ\"}}庭でも　どちらでも{{ruby charSpan=\"1\" value=\"と\"}}撮れるわよ！\nテーマに{{ruby charSpan=\"1\" value=\"あ\"}}合う{{ruby charSpan=\"2\" value=\"ばしょ\"}}場所を　{{ruby charSpan=\"1\" value=\"えら\"}}選んでね♪"
  },
  {
    "label": "213",
    "text": "お{{ruby charSpan=\"3\" value=\"しごとちゅう\"}}仕事中、お{{ruby charSpan=\"1\" value=\"にわ\"}}庭の{{color id=\"1\"}}{{color id=\"65535\"}}から　{{color id=\"1\"}}{{ruby charSpan=\"2\" value=\"じかん\"}}時間{{color id=\"65535\"}}や{{color id=\"1\"}}{{ruby charSpan=\"2\" value=\"てんき\"}}天気{{color id=\"65535\"}}を{{ruby charSpan=\"1\" value=\"えら\"}}選べるわよ！\n{{ruby charSpan=\"2\" value=\"いらい\"}}依頼テーマに{{ruby charSpan=\"1\" value=\"あ\"}}合わせた　ムード{{ruby charSpan=\"1\" value=\"づく\"}}作りも　{{ruby charSpan=\"2\" value=\"だいじ\"}}大事よね♪"
  },
  {
    "label": "214",
    "text": "お{{ruby charSpan=\"1\" value=\"にわ\"}}庭の　もようがえモードでは　{{color id=\"1\"}}{{ruby charSpan=\"2\" value=\"べっそう\"}}別荘の{{ruby charSpan=\"2\" value=\"がいかん\"}}外観{{color id=\"65535\"}}も{{ruby charSpan=\"1\" value=\"き\"}}決められるわよ！\n{{ruby charSpan=\"2\" value=\"べっそう\"}}別荘を{{ruby charSpan=\"1\" value=\"えら\"}}選んで　{{color id=\"1\"}}{{color id=\"65535\"}}を{{ruby charSpan=\"1\" value=\"お\"}}押してみてね！"
  },
  {
    "label": "215",
    "text": "{{color id=\"1\"}}{{ruby charSpan=\"2\" value=\"べっそう\"}}別荘の{{ruby charSpan=\"2\" value=\"がいかん\"}}外観{{color id=\"65535\"}}を{{ruby charSpan=\"1\" value=\"か\"}}変える{{ruby charSpan=\"1\" value=\"とき\"}}時は、{{ruby charSpan=\"2\" value=\"たてもの\"}}建物の{{ruby charSpan=\"1\" value=\"かたち\"}}形ごとに　{{ruby charSpan=\"1\" value=\"えら\"}}選べる{{ruby charSpan=\"2\" value=\"やね\"}}屋根や{{ruby charSpan=\"1\" value=\"かべ\"}}壁が{{ruby charSpan=\"1\" value=\"ちが\"}}違うの。\nいろいろ{{ruby charSpan=\"1\" value=\"ため\"}}試して　こだわってみて♪"
  },
  {
    "label": "216",
    "text": "{{ruby charSpan=\"2\" value=\"べっそう\"}}別荘に{{color id=\"1\"}}オーディオ{{color id=\"65535\"}}を{{ruby charSpan=\"1\" value=\"かざ\"}}飾れば、お{{ruby charSpan=\"2\" value=\"へや\"}}部屋に{{ruby charSpan=\"3\" value=\"ビージーエム\"}}BGMを{{ruby charSpan=\"1\" value=\"なが\"}}流せるわよ！\nテーマにあった{{ruby charSpan=\"1\" value=\"きょく\"}}曲をかけて　{{ruby charSpan=\"3\" value=\"ふんいき\"}}雰囲気を{{ruby charSpan=\"1\" value=\"も\"}}盛り{{ruby charSpan=\"1\" value=\"あ\"}}上げてね♪"
  },
  {
    "label": "217",
    "text": "お{{ruby charSpan=\"3\" value=\"しごとちゅう\"}}仕事中、{{color id=\"1\"}}{{color id=\"65535\"}}で　{{color id=\"1\"}}{{ruby charSpan=\"2\" value=\"かぐ\"}}家具をみがける{{color id=\"65535\"}}ようになるわよ！"
  },
  {
    "label": "218",
    "text": "お{{ruby charSpan=\"3\" value=\"しごとちゅう\"}}仕事中は　{{color id=\"1\"}}ボタン{{color id=\"65535\"}}で{{color id=\"1\"}}{{ruby charSpan=\"2\" value=\"ちゅうだん\"}}中断セーブ{{color id=\"65535\"}}できるわよ！\nただし、{{ruby charSpan=\"5\" value=\"しゃしんさつえいちゅう\"}}写真撮影中はできないから　{{ruby charSpan=\"1\" value=\"き\"}}気をつけてね。"
  },
  {
    "label": "219",
    "text": "{{color id=\"1\"}}{{ruby charSpan=\"2\" value=\"かぐ\"}}家具をみがく{{color id=\"65535\"}}{{ruby charSpan=\"1\" value=\"とき\"}}時、{{color id=\"1\"}}ボタン{{color id=\"65535\"}}を{{ruby charSpan=\"1\" value=\"お\"}}押せば　みがき{{ruby charSpan=\"1\" value=\"かた\"}}方を{{ruby charSpan=\"1\" value=\"えら\"}}選べるの！\n{{ruby charSpan=\"2\" value=\"かぐ\"}}家具や{{ruby charSpan=\"2\" value=\"ざっか\"}}雑貨にあわせて　みがき{{ruby charSpan=\"1\" value=\"かた\"}}方も{{ruby charSpan=\"1\" value=\"か\"}}変えてみるといいわよ！"
  },
  {
    "label": "220",
    "text": "{{color id=\"1\"}}{{ruby charSpan=\"2\" value=\"しせつ\"}}施設のコーディネート{{color id=\"65535\"}}{{ruby charSpan=\"1\" value=\"ちゅう\"}}中に　{{ruby charSpan=\"2\" value=\"がいかん\"}}外観も{{ruby charSpan=\"1\" value=\"か\"}}変えたくなったら、\nワタシに　{{ruby charSpan=\"1\" value=\"はな\"}}話しかけてちょうだいね！"
  },
  {
    "label": "221",
    "text": "{{color id=\"1\"}}{{ruby charSpan=\"2\" value=\"かぐ\"}}家具をみがく{{color id=\"65535\"}}{{ruby charSpan=\"1\" value=\"とき\"}}時、{{color id=\"1\"}}{{color id=\"65535\"}}を{{ruby charSpan=\"1\" value=\"お\"}}押し{{ruby charSpan=\"1\" value=\"つづ\"}}続けると　しっかりみがけるわよ！"
  },
  {
    "label": "222",
    "text": "{{color id=\"1\"}}{{ruby charSpan=\"2\" value=\"かぐ\"}}家具をみがきすぎた{{color id=\"65535\"}}{{ruby charSpan=\"1\" value=\"とき\"}}時は　{{ruby charSpan=\"2\" value=\"ちょうせつ\"}}調節もできるわよ！\nもう{{ruby charSpan=\"2\" value=\"いちど\"}}一度{{color id=\"1\"}}{{color id=\"65535\"}}で{{ruby charSpan=\"1\" value=\"すこ\"}}少し{{ruby charSpan=\"1\" value=\"ふ\"}}拭きとるか、{{color id=\"1\"}}{{color id=\"65535\"}}ではたけばオッケー！"
  },
  {
    "label": "223",
    "text": "{{color id=\"3\"}}たぬきち{{color id=\"65535\"}}さんの　{{color id=\"1\"}}リメイク{{ruby charSpan=\"2\" value=\"たいけん\"}}体験ワークショップ{{color id=\"65535\"}}に{{ruby charSpan=\"2\" value=\"さんか\"}}参加すれば、\nお{{ruby charSpan=\"3\" value=\"しごとちゅう\"}}仕事中に　{{color id=\"1\"}}{{ruby charSpan=\"2\" value=\"かぐ\"}}家具のカラーバリエーション{{color id=\"65535\"}}を　{{ruby charSpan=\"1\" value=\"えら\"}}選べるようになるわよ！"
  },
  {
    "label": "224",
    "text": "カメラアプリでの{{ruby charSpan=\"3\" value=\"さつえいちゅう\"}}撮影中、{{color id=\"1\"}}{{color id=\"65535\"}}で　ヒトを{{ruby charSpan=\"1\" value=\"うつ\"}}写さないようにできるの！\nお{{ruby charSpan=\"2\" value=\"へや\"}}部屋やお{{ruby charSpan=\"1\" value=\"にわ\"}}庭だけを{{ruby charSpan=\"2\" value=\"さつえい\"}}撮影したい{{ruby charSpan=\"1\" value=\"とき\"}}時に　{{ruby charSpan=\"1\" value=\"つか\"}}使ってみて！"
  },
  {
    "label": "225",
    "text": "{{color id=\"1\"}}カメラアプリ{{ruby charSpan=\"3\" value=\"プロ\"}}PRO{{color id=\"65535\"}}があれば、もっと{{ruby charSpan=\"2\" value=\"じゆう\"}}自由な{{ruby charSpan=\"2\" value=\"さつえい\"}}撮影が{{ruby charSpan=\"1\" value=\"たの\"}}楽しめるわよ！\n{{color id=\"1\"}}タヌポート{{color id=\"65535\"}}でマイルと{{ruby charSpan=\"2\" value=\"こうかん\"}}交換できるから、チェックしてみてね♪"
  },
  {
    "label": "226",
    "text": "もようがえモードで　{{color id=\"1\"}}{{color id=\"65535\"}}を{{ruby charSpan=\"1\" value=\"えら\"}}選ぶと\n{{color id=\"1\"}}{{ruby charSpan=\"2\" value=\"へや\"}}部屋のサイズ{{color id=\"65535\"}}や、{{color id=\"1\"}}{{ruby charSpan=\"1\" value=\"まど\"}}窓{{color id=\"65535\"}}・{{color id=\"1\"}}エントランスの{{ruby charSpan=\"1\" value=\"ゆか\"}}床{{color id=\"65535\"}}を　アレンジできるわよ！"
  },
  {
    "label": "227",
    "text": "もようがえモードの　{{color id=\"1\"}}{{color id=\"65535\"}}では、{{color id=\"1\"}}{{ruby charSpan=\"2\" value=\"へや\"}}部屋のサイズ{{color id=\"65535\"}}や、{{color id=\"1\"}}{{ruby charSpan=\"1\" value=\"まど\"}}窓{{color id=\"65535\"}}・{{color id=\"1\"}}エントランス{{color id=\"65535\"}}、\nそれに{{color id=\"1\"}}ライトの{{ruby charSpan=\"1\" value=\"いろ\"}}色や{{ruby charSpan=\"1\" value=\"あか\"}}明るさ{{color id=\"65535\"}}を　アレンジできるわよ！"
  },
  {
    "label": "228",
    "text": "もようがえモードの　{{color id=\"1\"}}{{color id=\"65535\"}}では、{{color id=\"1\"}}{{ruby charSpan=\"2\" value=\"へや\"}}部屋のサイズ{{color id=\"65535\"}}や、{{color id=\"1\"}}{{ruby charSpan=\"1\" value=\"まど\"}}窓{{color id=\"65535\"}}・{{color id=\"1\"}}エントランス{{color id=\"65535\"}}、\nそれに{{color id=\"1\"}}ライト{{color id=\"65535\"}}や{{color id=\"1\"}}{{ruby charSpan=\"3\" value=\"かんきょうおん\"}}環境音{{color id=\"65535\"}}も　アレンジできるわよ！"
  },
  {
    "label": "229",
    "text": "{{ruby charSpan=\"3\" value=\"こうはいしゅ\"}}交配種の{{ruby charSpan=\"3\" value=\"はなどうし\"}}花同士の{{ruby charSpan=\"2\" value=\"こうはい\"}}交配で{{ruby charSpan=\"1\" value=\"さ\"}}咲く　{{ruby charSpan=\"1\" value=\"めずら\"}}珍しい{{ruby charSpan=\"1\" value=\"いろ\"}}色の{{ruby charSpan=\"1\" value=\"はな\"}}花を{{ruby charSpan=\"1\" value=\"て\"}}手に{{ruby charSpan=\"1\" value=\"い\"}}入れると、\n{{ruby charSpan=\"2\" value=\"べっそう\"}}別荘づくりでも　オーダーできるようになるそうよ！"
  },
  {
    "label": "230",
    "text": "お{{ruby charSpan=\"2\" value=\"きゃくさま\"}}客様の{{ruby charSpan=\"2\" value=\"べっそう\"}}別荘を{{ruby charSpan=\"1\" value=\"たず\"}}訪ねれば、{{color id=\"1\"}}リフォーム{{color id=\"65535\"}}や\n{{ruby charSpan=\"1\" value=\"べつ\"}}別のロケーションへの{{color id=\"1\"}}{{ruby charSpan=\"2\" value=\"ひっこ\"}}引越し{{color id=\"65535\"}}も　ご{{ruby charSpan=\"2\" value=\"ていあん\"}}提案できるわよ！"
  },
  {
    "label": "231",
    "text": "{{color id=\"1\"}}{{ruby charSpan=\"2\" value=\"かぐ\"}}家具をみがく{{color id=\"65535\"}}{{ruby charSpan=\"2\" value=\"こうか\"}}効果には　{{color id=\"1\"}}マイデザイン{{color id=\"65535\"}}を{{ruby charSpan=\"1\" value=\"つか\"}}使うこともできるのよ！\nちょっとコツがいるけど、{{ruby charSpan=\"1\" value=\"つか\"}}使いこなせば{{ruby charSpan=\"3\" value=\"ひょうげんりょく\"}}表現力アップ{{ruby charSpan=\"2\" value=\"まちが\"}}間違いなしね♪"
  },
  {
    "label": "232",
    "text": "{{ruby charSpan=\"3\" value=\"じむしょ\"}}事務所のカウンターにある　{{color id=\"1\"}}{{ruby charSpan=\"6\" value=\"アミーボ\"}}amiiboリーダー{{color id=\"65535\"}}を{{ruby charSpan=\"1\" value=\"つか\"}}使えば、\n{{color id=\"1\"}}{{ruby charSpan=\"6\" value=\"アミーボ\"}}amiibo{{color id=\"65535\"}}で　ビーチにいないお{{ruby charSpan=\"2\" value=\"きゃくさま\"}}客様も{{ruby charSpan=\"2\" value=\"かんゆう\"}}勧誘できるわよ！"
  },
  {
    "label": "233",
    "text": "{{color id=\"1\"}}ツル{{color id=\"65535\"}}や{{color id=\"1\"}}ヒカリゴケ{{color id=\"65535\"}}は　この{{ruby charSpan=\"2\" value=\"ちほう\"}}地方で{{ruby charSpan=\"1\" value=\"み\"}}見られる{{ruby charSpan=\"1\" value=\"めずら\"}}珍しい{{ruby charSpan=\"2\" value=\"しょくぶつ\"}}植物なの！\n{{ruby charSpan=\"3\" value=\"じむしょ\"}}事務所の{{ruby charSpan=\"1\" value=\"まわ\"}}周りにも{{ruby charSpan=\"1\" value=\"は\"}}生えてるし、{{ruby charSpan=\"2\" value=\"じゆう\"}}自由に{{ruby charSpan=\"1\" value=\"も\"}}持ち{{ruby charSpan=\"1\" value=\"かえ\"}}帰ってオッケーよ♪"
  },
  {
    "label": "234",
    "text": "お{{ruby charSpan=\"2\" value=\"しごと\"}}仕事に{{ruby charSpan=\"1\" value=\"き\"}}来たら　たまには{{ruby charSpan=\"3\" value=\"じむしょ\"}}事務所の{{ruby charSpan=\"1\" value=\"まわ\"}}周りも{{ruby charSpan=\"2\" value=\"さんさく\"}}散策してみてね！\n{{color id=\"1\"}}{{ruby charSpan=\"1\" value=\"きた\"}}北のビーチ{{color id=\"65535\"}}も{{ruby charSpan=\"2\" value=\"にんき\"}}人気の{{ruby charSpan=\"2\" value=\"かんこう\"}}観光スポットなの♪"
  },
  {
    "label": "235",
    "text": "{{ruby charSpan=\"2\" value=\"じかん\"}}時間のある{{ruby charSpan=\"1\" value=\"とき\"}}時は　ビーチを{{ruby charSpan=\"2\" value=\"さんさく\"}}散策してみるのもいいわよ！\nたまに　{{color id=\"1\"}}メッセージボトル{{color id=\"65535\"}}を{{ruby charSpan=\"1\" value=\"ひろ\"}}拾うこともあるの♪"
  },
  {
    "label": "236",
    "text": "{{ruby charSpan=\"1\" value=\"しま\"}}島に{{ruby charSpan=\"1\" value=\"つく\"}}作った{{color id=\"1\"}}{{ruby charSpan=\"2\" value=\"しせつ\"}}施設{{color id=\"65535\"}}を{{ruby charSpan=\"2\" value=\"ほうもん\"}}訪問すれば、{{color id=\"1\"}}{{color id=\"65535\"}}で　{{ruby charSpan=\"1\" value=\"はたら\"}}働くヒトを\n{{ruby charSpan=\"2\" value=\"こうたい\"}}交代することもできるのよ！"
  },
  {
    "label": "237",
    "text": "{{color id=\"1\"}}{{ruby charSpan=\"1\" value=\"あたら\"}}新しい{{ruby charSpan=\"2\" value=\"しせつ\"}}施設{{color id=\"65535\"}}を{{ruby charSpan=\"1\" value=\"つく\"}}作りたい{{ruby charSpan=\"1\" value=\"とき\"}}時は、{{ruby charSpan=\"3\" value=\"じむしょ\"}}事務所でワタシに{{ruby charSpan=\"1\" value=\"こえ\"}}声をかけてね！"
  },
  {
    "label": "238",
    "text": "アナタが　{{color id=\"1\"}}{{ruby charSpan=\"3\" value=\"ディアイワイ\"}}ＤＩＹ{{color id=\"65535\"}}したことある{{ruby charSpan=\"2\" value=\"かぐ\"}}家具も　{{ruby charSpan=\"2\" value=\"べっそう\"}}別荘づくりに{{ruby charSpan=\"1\" value=\"つか\"}}使えるわよ！\nたくさん{{ruby charSpan=\"3\" value=\"ディアイワイ\"}}ＤＩＹして　レパートリーを{{ruby charSpan=\"1\" value=\"ふ\"}}増やしておいてね♪"
  },
  {
    "label": "239",
    "text": "{{ruby charSpan=\"3\" value=\"じむしょ\"}}事務所の2{{ruby charSpan=\"1\" value=\"かい\"}}階はスタッフルームだから、{{ruby charSpan=\"2\" value=\"じゆう\"}}自由に{{ruby charSpan=\"1\" value=\"つか\"}}使ってね！\n{{ruby charSpan=\"3\" value=\"ディアイワイ\"}}ＤＩＹのための　{{color id=\"1\"}}{{ruby charSpan=\"3\" value=\"さぎょうだい\"}}作業台{{color id=\"65535\"}}もあるわよ！"
  },
  {
    "label": "240",
    "text": "お{{ruby charSpan=\"2\" value=\"きゃくさま\"}}客様の{{ruby charSpan=\"2\" value=\"べっそう\"}}別荘を{{ruby charSpan=\"1\" value=\"たず\"}}訪ねれば、{{color id=\"1\"}}リフォーム{{color id=\"65535\"}}や　{{ruby charSpan=\"1\" value=\"べつ\"}}別のロケーションへの{{color id=\"1\"}}{{ruby charSpan=\"2\" value=\"ひっこ\"}}引越し{{color id=\"65535\"}}\nそれに{{color id=\"1\"}}ハウスシェア{{color id=\"65535\"}}を　ご{{ruby charSpan=\"2\" value=\"ていあん\"}}提案できるわよ！"
  },
  {
    "label": "241",
    "text": "{{color id=\"1\"}}カフェ{{color id=\"65535\"}}の{{ruby charSpan=\"2\" value=\"てんいん\"}}店員さんに{{ruby charSpan=\"1\" value=\"はな\"}}話しかければ、\nテイクアウトメニューを　オーダーできるわよ！"
  },
  {
    "label": "242",
    "text": "{{color id=\"1\"}}{{ruby charSpan=\"2\" value=\"びょういん\"}}病院{{color id=\"65535\"}}にいけば　ちょっとした{{ruby charSpan=\"2\" value=\"しんさつ\"}}診察をしてもらえるわよ！"
  },
  {
    "label": "243",
    "text": "{{color id=\"1\"}}{{ruby charSpan=\"2\" value=\"びょういん\"}}病院{{color id=\"65535\"}}では、{{ruby charSpan=\"2\" value=\"ぞうちく\"}}増築のための{{ruby charSpan=\"4\" value=\"ぼきんかつどう\"}}募金活動を　してるみたいよ！\nよかったら{{ruby charSpan=\"2\" value=\"きょうりょく\"}}協力してあげてね！"
  },
  {
    "label": "244",
    "text": "{{color id=\"1\"}}アパレルショップ{{color id=\"65535\"}}の{{ruby charSpan=\"2\" value=\"しょうひん\"}}商品は　{{ruby charSpan=\"2\" value=\"ひが\"}}日替わりなのよ！\nお{{ruby charSpan=\"2\" value=\"しごと\"}}仕事に{{ruby charSpan=\"1\" value=\"き\"}}来たついでに　お{{ruby charSpan=\"1\" value=\"か\"}}買い{{ruby charSpan=\"1\" value=\"もの\"}}物していってね♪"
  },
  {
    "label": "245",
    "text": "{{color id=\"3\"}}DJ K.K{{color id=\"65535\"}}の{{ruby charSpan=\"2\" value=\"おんがく\"}}音楽イベントは　{{ruby charSpan=\"1\" value=\"きた\"}}北の{{ruby charSpan=\"2\" value=\"はまべ\"}}浜辺で　{{ruby charSpan=\"3\" value=\"ふていき\"}}不定期に{{ruby charSpan=\"2\" value=\"かいさい\"}}開催するわよ！\n{{ruby charSpan=\"2\" value=\"ぜんじつ\"}}前日には　{{ruby charSpan=\"2\" value=\"せつえい\"}}設営が{{ruby charSpan=\"1\" value=\"はじ\"}}始まるから、チェックしておいて♪"
  },
  {
    "label": "246",
    "text": "{{ruby charSpan=\"3\" value=\"じむしょ\"}}事務所の{{color id=\"1\"}}ATM{{color id=\"65535\"}}では、ポキの{{ruby charSpan=\"1\" value=\"あず\"}}預け{{ruby charSpan=\"1\" value=\"い\"}}入れと{{ruby charSpan=\"1\" value=\"ひ\"}}引き{{ruby charSpan=\"1\" value=\"だ\"}}出し、\nそれにポキとベルの　{{ruby charSpan=\"2\" value=\"りょうがえ\"}}両替もできるわよ！"
  },
  {
    "label": "247",
    "text": "{{color id=\"1\"}}ATM{{color id=\"65535\"}}のポキ・ベルの{{ruby charSpan=\"2\" value=\"りょうがえ\"}}両替レートは　{{ruby charSpan=\"1\" value=\"ひ\"}}日によって{{ruby charSpan=\"1\" value=\"か\"}}変わるのよ！\n{{ruby charSpan=\"2\" value=\"りょうがえ\"}}両替はレートのよい{{ruby charSpan=\"1\" value=\"ひ\"}}日が　ねらい{{ruby charSpan=\"1\" value=\"め\"}}目ね！"
  },
  {
    "label": "248",
    "text": "{{color id=\"1\"}}ATM{{color id=\"65535\"}}のポキ・ベルの{{ruby charSpan=\"2\" value=\"りょうがえ\"}}両替は　１{{ruby charSpan=\"1\" value=\"にち\"}}日の{{ruby charSpan=\"3\" value=\"げんどがく\"}}限度額が{{ruby charSpan=\"1\" value=\"き\"}}決まっているの。\n{{ruby charSpan=\"2\" value=\"ひつよう\"}}必要な{{ruby charSpan=\"1\" value=\"とき\"}}時に{{ruby charSpan=\"1\" value=\"こま\"}}困らないよう、こまめに{{ruby charSpan=\"2\" value=\"りょうがえ\"}}両替するといいかもね！"
  },
  {
    "label": "249",
    "text": "{{color id=\"3\"}}ナッティー{{color id=\"65535\"}}さんに{{ruby charSpan=\"1\" value=\"たの\"}}頼めば、ウチのショップで{{ruby charSpan=\"1\" value=\"と\"}}取り{{ruby charSpan=\"1\" value=\"あつか\"}}扱ってる{{ruby charSpan=\"2\" value=\"しょうひん\"}}商品を\n{{ruby charSpan=\"1\" value=\"す\"}}好きな{{ruby charSpan=\"1\" value=\"とき\"}}時にオーダーできるわよ♪"
  }
]