﻿[
  {
    "label": "001",
    "attribute": "0x0000000000000000",
    "text": "{{anim id=\"Eh\" target=\"actor\" targetSpec=\"\"}}Vai già via?{{delay40}} {{anim id=\"Smiling\" target=\"actor\" targetSpec=\"\"}}Beh, è stato un piacere\nallucinante averti qui!{{delay40}}\n{{anim id=\"Hello\" target=\"actor\" targetSpec=\"\"}}Torna a trovarmi quando vuoi!"
  },
  {
    "label": "002",
    "attribute": "0x0000000000000000",
    "text": "{{anim id=\"Eh\" target=\"actor\" targetSpec=\"\"}}Oh, {{delay20}}è già l'ora di dirsi ciao?{{delay40}}\n{{anim id=\"Smiling\" target=\"actor\" targetSpec=\"\"}}Mi sono divertita una cifra!\n{{delay40}}{{anim id=\"Hello\" target=\"actor\" targetSpec=\"\"}}Dobbiamo ripetere al più presto!"
  },
  {
    "label": "003",
    "attribute": "0x0000000000000000",
    "text": "{{anim id=\"Eh\" target=\"actor\" targetSpec=\"\"}}Oh, {{delay20}}te ne vai?{{delay40}}\n{{anim id=\"EmotEnd\" target=\"actor\" targetSpec=\"\"}}Beh, è stato sconvolgente averti qui.{{delay40}}\n{{anim id=\"Greeting\" target=\"actor\" targetSpec=\"\"}}Rivediamoci di nuovo al più presto!"
  },
  {
    "label": "004",
    "attribute": "0x0000000000000000",
    "text": "{{anim id=\"Eh\" target=\"actor\" targetSpec=\"\"}}Oooh, {{delay8}}devi già andare?!{{delay20}} {{anim id=\"Explain\" target=\"actor\" targetSpec=\"\"}}Però, cioè,\n{{delay8}}è come se fossi appena arrivat{{gender2 m=\"o\" f=\"a\"}}! {{delay20}}{{anim id=\"FaintSmile\" target=\"actor\" targetSpec=\"\"}}Stai\nancora un po', dai!"
  },
  {
    "label": "005",
    "attribute": "0x0000000000000000",
    "text": "{{anim id=\"OhGeez\" target=\"actor\" targetSpec=\"\"}}Nooo, {{delay8}}non andartene ancora!{{delay20}}{{anim id=\"FaintSmile\" target=\"actor\" targetSpec=\"\"}} Cioè, {{delay8}}è\nsempre tutta una frenesia {{delay8}}e abbiamo\npoche occasioni per chiacchierare{{string value=\"...\"}}"
  },
  {
    "label": "006",
    "attribute": "0x0000000000000000",
    "text": "{{anim id=\"Restless\" target=\"actor\" targetSpec=\"\"}}Visto che sei già qui{{string value=\"...\"}} resteresti\nun altro po', {{string value=\"6\"}}?{{pageBreak}}{{anim id=\"Blushing\" target=\"actor\" targetSpec=\"\"}}Mi farebbe troppo piacere, {{delay8}}cioè,\n{{delay8}}avere più di tempo da passare con\nte.{{delay20}} Sarebbe una cifra carino."
  },
  {
    "label": "100",
    "attribute": "0x0000000000000000",
    "text": "{{anim id=\"Aha\" target=\"actor\" targetSpec=\"\"}}Oh!{{delay40}} {{anim id=\"Nodding\" target=\"actor\" targetSpec=\"\"}}Ho un regaluccio per te!\nÈ {{wordArticle}}{{fun_0004007D arg=\"0x0000\"}}!{{delay20}}\n{{anim id=\"FaintSmile\" target=\"actor\" targetSpec=\"\"}}Un pensierino per ricordarti di me."
  },
  {
    "label": "101",
    "attribute": "0x0000000000000000",
    "text": "{{anim id=\"HappyDance\" target=\"actor\" targetSpec=\"\"}}Ho un regaluccio per te.\nÈ {{wordArticle}}{{delay frames=\"40\"}}{{anim id=\"EmotEnd\" target=\"actor\" targetSpec=\"\"}}{{fun_0004007D arg=\"0x0000\"}}!"
  },
  {
    "label": "102",
    "attribute": "0x0000000000000000",
    "text": "{{anim id=\"Smiling\" target=\"actor\" targetSpec=\"\"}}Ma certo, {{delay8}}ti ho preso un regaluccio.\nÈ {{wordArticle}}{{delay frames=\"30\"}}{{anim id=\"EmotEnd\" target=\"actor\" targetSpec=\"\"}}{{fun_0004007D arg=\"0x0000\"}}!{{delay frames=\"40\"}}\n{{anim id=\"BigSmile\" target=\"actor\" targetSpec=\"\"}}Spero troppo che ti piaccia!{{anim id=\"FaintSmile\" target=\"actor\" targetSpec=\"\"}}"
  },
  {
    "label": "103",
    "attribute": "0x0000000000000000",
    "text": "{{anim id=\"Smiling\" target=\"actor\" targetSpec=\"\"}}Grazie una cifra per essere venut{{gender2 m=\"o\" f=\"a\"}}\na trovarmi oggi, {{string value=\"6\"}}!"
  },
  {
    "label": "104",
    "attribute": "0x0000000000000000",
    "text": "{{anim id=\"HappyDance\" target=\"actor\" targetSpec=\"\"}}È stato sconvolgente averti\nqui. {{delay20}}{{anim id=\"Hello\" target=\"actor\" targetSpec=\"\"}}Mi sono divertita una\ncifra, {{string value=\"6\"}}!"
  },
  {
    "label": "105",
    "attribute": "0x0000000000000000",
    "text": "{{anim id=\"Love\" target=\"actor\" targetSpec=\"\"}}Che storia ricevere una tua visita!\n{{delay20}}Il tempo passato insieme è stato\ntroppo da paura, {{string value=\"6\"}}!"
  },
  {
    "label": "106",
    "attribute": "0x0000000000000000",
    "text": "{{anim id=\"Greeting\" target=\"actor\" targetSpec=\"\"}}Peccato che tu abbia le tasche\nstracolme! {{delay20}}{{anim id=\"FaintSmile\" target=\"actor\" targetSpec=\"\"}}Tranquill{{gender2 m=\"o\" f=\"a\"}}, {{delay8}}ti mando il\nregalino per posta.{{pageBreak}}{{anim id=\"BigSmile\" target=\"actor\" targetSpec=\"\"}}Grazie di essere venut{{gender2 m=\"o\" f=\"a\"}}. {{delay20}}Mi sono\ndivertita una cifra, {{string value=\"6\"}}!"
  },
  {
    "label": "200",
    "attribute": "0x0000000000000000",
    "text": "{{anim id=\"Eh\" target=\"actor\" targetSpec=\"\"}}Ah sì! Per festeggiare la prima\nvolta che ti ho invitat{{gender2 m=\"o\" f=\"a\"}} da me{{string value=\"...\"}}\n{{delay8}}{{anim id=\"Smiling\" target=\"actor\" targetSpec=\"\"}}ti do la mia canzone preferita!\n{{anim id=\"HappyDance\" target=\"actor\" targetSpec=\"\"}}Cioè, \"{{fun_0000007D arg=\"0x0000\"}}\" mi dà la carica per diventare una pop star, capisci?{{pageBreak}}Spero che sia d'ispirazione anche\nper te, {{string value=\"NickName\"}}!"
  },
  {
    "label": "201",
    "attribute": "0x0000000000000000",
    "text": "{{anim id=\"Eh\" target=\"actor\" targetSpec=\"\"}}Oooh! Prima che mi dimentichi!{{pageBreak}}{{delay20}}{{anim id=\"Smiling\" target=\"actor\" targetSpec=\"\"}}Voglio troppo darti la mia canzone preferita, \"⁠{{fun_0000007D arg=\"0x0000\"}}⁠\"!{{pageBreak}}{{anim id=\"Hesitate\" target=\"actor\" targetSpec=\"\"}}Cioè, è solo un pensierino per\nricordarti della prima volta che ti\nho invitat{{gender2 m=\"o\" f=\"a\"}} a casa mia, {{string value=\"6\"}}."
  },
  {
    "label": "202",
    "attribute": "0x0000000000000000",
    "text": "{{anim id=\"Hesitate\" target=\"actor\" targetSpec=\"\"}}Sto già pensando alla prossima\nvolta che passeremo del tempo\ninsieme! Mi sono troppo divertita!"
  },
  {
    "label": "203",
    "attribute": "0x0000000000000000",
    "text": "Non voglio che tu te ne vada, {{anim id=\"BigSmile\" target=\"actor\" targetSpec=\"\"}}ma\npossiamo vederci quando vogliamo!\n{{anim id=\"Greeting\" target=\"actor\" targetSpec=\"\"}}Buon ritorno, {{string value=\"NickName\"}}!"
  }
]