﻿[
  {
    "label": "001",
    "attribute": "0x0000000000000000",
    "text": "{{anim id=\"Surprised\" target=\"actor\" targetSpec=\"\"}}Whoa-whoa-whoa! {{delay20}}What's up with\nyour face?{{delay frames=\"40\"}} {{anim id=\"Confused\" target=\"actor\" targetSpec=\"\"}}Did you get stung by a\nwasp? {{delay20}}Does it hurt? {{delay20}}You OK?{{pageBreak}}{{anim id=\"Nodding\" target=\"actor\" targetSpec=\"\"}}Yeah, they can be mean sometimes.\n{{delay20}}Or, uh{{string value=\"...\"}}{{delay20}}all times. {{delay20}}{{anim id=\"Negative\" target=\"actor\" targetSpec=\"\"}}Gotta be careful\naround 'em, y'know?{{pageBreak}}{{anim id=\"EmotEnd\" target=\"actor\" targetSpec=\"\"}}Um{{string value=\"...\"}}{{delay20}} {{anim id=\"OhGeez\" target=\"actor\" targetSpec=\"\"}}Well, it's kinda too late to\nbe careful NOW, but you know what\nI mean, {{string value=\"Catchphrase\"}}."
  },
  {
    "label": "002",
    "attribute": "0x0000000000000000",
    "text": "{{anim id=\"TakenAback\" target=\"actor\" targetSpec=\"\"}}Waah! {{delay20}}Why's your face all gnarly?{{delay frames=\"40\"}}\n{{anim id=\"Serious\" target=\"actor\" targetSpec=\"\"}}Were you in a fight? {{delay20}}Who was it?\n{{delay20}}Where are they?!{{pageBreak}}{{anim id=\"Eh\" target=\"actor\" targetSpec=\"\"}}Oh! {{delay20}}A wasp stung you!{{delay frames=\"40\"}} {{anim id=\"Laughing\" target=\"actor\" targetSpec=\"\"}}Bwa ha ha!{{pageBreak}}{{anim id=\"FaintSmile\" target=\"actor\" targetSpec=\"\"}}Well, that's a cinch! {{delay20}}You just gotta\ndab a bit of {{color id=\"1\"}}medicine{{color id=\"65535\"}} on the stings.\n{{delay20}}That'll fix you right up!"
  },
  {
    "label": "005",
    "attribute": "0x0000000000000000",
    "text": "{{anim id=\"TakenAback\" target=\"actor\" targetSpec=\"\"}}Wow! {{delay20}}Is your face OK? {{delay20}}It's SUPER\ncreepy. {{delay20}}Looks like some kind of\nHalloween mask!{{pageBreak}}{{anim id=\"QuestionMark\" target=\"actor\" targetSpec=\"\"}}Hang on. {{delay20}}You didn't worry the wasps,\ndid you? {{delay20}}Those little buzzy-bodies\njust LOVE to go off, {{string value=\"Catchphrase\"}}.{{pageBreak}}{{anim id=\"Nodding\" target=\"actor\" targetSpec=\"\"}}If you don't touch the stings, they'll\nheal eventually.{{delay frames=\"40\"}} {{anim id=\"Greeting\" target=\"actor\" targetSpec=\"\"}}Or if you wanna\nspeed things along, use {{color id=\"1\"}}medicine{{color id=\"65535\"}}!"
  },
  {
    "label": "006",
    "attribute": "0x0000000000000000",
    "text": "{{anim id=\"Eh\" target=\"actor\" targetSpec=\"\"}}Um{{string value=\"...\"}}{{delay20}} You know your face is all\nswollen, right? {{delay20}}Was it wasps?{{delay frames=\"40\"}}\n{{anim id=\"Nodding\" target=\"actor\" targetSpec=\"\"}}I bet it was wasps.{{pageBreak}}{{anim id=\"Explain\" target=\"actor\" targetSpec=\"\"}}I've got some {{color id=\"1\"}}medicine{{color id=\"65535\"}} if you want it.{{delay frames=\"40\"}}\n{{anim id=\"Grin\" target=\"actor\" targetSpec=\"\"}}Just, y'know,{{delay20}} run faster next time!"
  },
  {
    "label": "007",
    "attribute": "0x0000000000000000",
    "text": "{{anim id=\"Nodding\" target=\"actor\" targetSpec=\"\"}}I'm just giving you a hard time.{{delay frames=\"40\"}}\n{{anim id=\"ShyBoy\" target=\"actor\" targetSpec=\"\"}}I used to mess with wasp nests as a\nkid, so that's happened to me a lot.{{pageBreak}}{{anim id=\"WrySmile\" target=\"actor\" targetSpec=\"\"}}Eventually Mom wouldn't even let\nme go outside unless she knew I had\nsome {{color id=\"1\"}}medicine{{color id=\"65535\"}} handy.{{pageBreak}}{{anim id=\"Laughing\" target=\"actor\" targetSpec=\"\"}}Of all the weird habits for me to\nhang on to, {{string value=\"Catchphrase\"}}{{string value=\"...\"}}"
  },
  {
    "label": "011",
    "attribute": "0x0000000000000000",
    "text": "{{anim id=\"Surprised\" target=\"actor\" targetSpec=\"\"}}Whoa-whoa-whoa! {{delay20}}What's up with\nyour face?{{delay frames=\"40\"}} {{anim id=\"Confused\" target=\"actor\" targetSpec=\"\"}}Did you get stung by a\nwasp? {{delay20}}Does it hurt? {{delay20}}You OK?{{pageBreak}}{{anim id=\"Nodding\" target=\"actor\" targetSpec=\"\"}}Yeah, they can be mean sometimes.\n{{delay20}}Or, uh{{string value=\"...\"}}{{delay20}}all times. {{delay20}}{{anim id=\"Negative\" target=\"actor\" targetSpec=\"\"}}Gotta be careful\naround 'em, y'know?{{pageBreak}}{{anim id=\"EmotEnd\" target=\"actor\" targetSpec=\"\"}}Um{{string value=\"...\"}}{{delay20}} {{anim id=\"OhGeez\" target=\"actor\" targetSpec=\"\"}}Well, it's kinda too late to\nbe careful NOW, but you know what\nI mean, {{string value=\"Catchphrase\"}}."
  },
  {
    "label": "012",
    "attribute": "0x0000000000000000",
    "text": "{{anim id=\"Worried\" target=\"actor\" targetSpec=\"\"}}I bet that does hurt, though.{{delay frames=\"40\"}} {{anim id=\"Negative\" target=\"actor\" targetSpec=\"\"}}If I had\n{{color id=\"1\"}}medicine{{color id=\"65535\"}} with me, I'd give it to you.{{pageBreak}}{{anim id=\"Explain\" target=\"actor\" targetSpec=\"\"}}But tell you what, {{delay20}}I'll show you how\nto {{delay8}}MAKE{{delay8}} {{color id=\"1\"}}medicine{{color id=\"65535\"}}. {{delay20}}My mom taught\nme when I was little."
  },
  {
    "label": "013",
    "attribute": "0x0000000000000000",
    "text": "{{anim id=\"Nodding\" target=\"actor\" targetSpec=\"\"}}Just get all the stuff for the recipe\ntogether and you can whip up some\n{{color id=\"1\"}}medicine{{color id=\"65535\"}} in no time.{{delay frames=\"40\"}} {{anim id=\"Smiling\" target=\"actor\" targetSpec=\"\"}}Good luck!"
  }
]