﻿[
  {
    "label": "001",
    "attribute": "0x00000000",
    "locale": {
      "CNzh": "{{anim id=\"Grin\" target=\"actor\" targetSpec=\"\"}}{{string value=\"PlayerName\"}}，{{delay20}}其实呢{{string value=\"...\"}}{{delay frames=\"40\"}}\n{{anim id=\"HappyFlower\" target=\"actor\" targetSpec=\"\"}}又有打造新设施的许可{{delay8}}发下来啦！{{pageBreak}}{{anim id=\"FaintSmile\" target=\"actor\" targetSpec=\"\"}}这次获得许可的是{{color id=\"1\"}}{{delay8}}医院{{color id=\"65535\"}}哦！{{delay frames=\"40\"}}\n{{anim id=\"Explain\" target=\"actor\" targetSpec=\"\"}}这座岛上只要有了医院，{{delay20}}就算身体状况不佳\n也能得到及时诊治，{{delay8}}会令人放心{{string value=\"...\"}}{{anim id=\"EmotEnd\" target=\"actor\" targetSpec=\"\"}}{{pageBreak}}{{anim id=\"Nodding\" target=\"actor\" targetSpec=\"\"}}而且要聚集人群举办活动的话，{{delay20}}\n{{anim id=\"FaintSmile\" target=\"actor\" targetSpec=\"\"}}也必须得做好完善的准备，以防万一呢。",
      "EUde": "{{anim id=\"HappyFlower\" target=\"actor\" targetSpec=\"\"}}Wir haben die Genehmigung, {{delay8}}an einer\nweiteren Einrichtung zu arbeiten.{{delay frames=\"40\"}}\n{{anim id=\"FaintSmile\" target=\"actor\" targetSpec=\"\"}}Diesmal bauen wir ein {{color id=\"1\"}}Krankenhaus{{color id=\"65535\"}}!{{pageBreak}}{{anim id=\"Explain\" target=\"actor\" targetSpec=\"\"}}Es würde viele Inselbewohner sicher\nberuhigen, {{delay8}}ganz in der Nähe\närztlichen Rat einholen zu können.{{pageBreak}}{{anim id=\"Nodding\" target=\"actor\" targetSpec=\"\"}}Wenn wir versuchen, {{delay8}}Besucher und\nKunden anzulocken, {{delay8}}{{anim id=\"FaintSmile\" target=\"actor\" targetSpec=\"\"}}sollten wir auf\nalle Eventualitäten vorbereitet sein.",
      "EUen": "{{anim id=\"HappyFlower\" target=\"actor\" targetSpec=\"\"}}We've gotten permission to work on\nanother facility!{{delay frames=\"40\"}} {{anim id=\"FaintSmile\" target=\"actor\" targetSpec=\"\"}}This time, we're\ncreating a {{color id=\"1\"}}hospital{{color id=\"65535\"}}!{{pageBreak}}{{anim id=\"Explain\" target=\"actor\" targetSpec=\"\"}}Having a hospital here will give folks\npeace of mind since they can be seen\nright away if they don't feel well{{string value=\"...\"}}{{anim id=\"EmotEnd\" target=\"actor\" targetSpec=\"\"}}{{pageBreak}}{{anim id=\"Nodding\" target=\"actor\" targetSpec=\"\"}}With our new visitors and clients, as\nwell as our plans to hold a big event,\n{{anim id=\"FaintSmile\" target=\"actor\" targetSpec=\"\"}}it only makes sense to be prepared.",
      "EUes": "{{anim id=\"FaintSmile\" target=\"actor\" targetSpec=\"\"}}Me alegra anunciarte que\nhe obtenido los permisos necesarios\npara construir otra instalación.\n{{anim id=\"HappyFlower\" target=\"actor\" targetSpec=\"\"}}¡Esta vez se trata de un {{color id=\"1\"}}hospital{{color id=\"65535\"}}!{{pageBreak}}{{anim id=\"Explain\" target=\"actor\" targetSpec=\"\"}}Todo el mundo estará más tranquilo\nsi disponemos de un lugar donde\npoder recibir atención médica.\n{{anim id=\"Nodding\" target=\"actor\" targetSpec=\"\"}}Cada vez llegan más turistas y\nmás clientes,{{delay8}} además está el gran\nevento que estamos planeando{{string value=\"...\"}}\n{{anim id=\"FaintSmile\" target=\"actor\" targetSpec=\"\"}}Debemos estar preparados\npara todo.",
      "EUfr": "{{anim id=\"HappyFlower\" target=\"actor\" targetSpec=\"\"}}On a reçu l'autorisation de construire\nune nouvelle infrastructure !{{delay frames=\"40\"}} {{anim id=\"FaintSmile\" target=\"actor\" targetSpec=\"\"}}Cette\nfois,{{delay8}} on va bâtir un {{color id=\"1\"}}hôpital {{color id=\"65535\"}}!{{pageBreak}}{{anim id=\"Explain\" target=\"actor\" targetSpec=\"\"}}Tout le monde sera plus tranquille\nd'avoir la possibilité de se faire\nsoigner en cas de besoin{{string value=\"...\"}}{{anim id=\"EmotEnd\" target=\"actor\" targetSpec=\"\"}}{{pageBreak}}{{anim id=\"Nodding\" target=\"actor\" targetSpec=\"\"}}Avec tout ce passage et tous ces\névénements qui se préparent,{{delay20}} {{anim id=\"FaintSmile\" target=\"actor\" targetSpec=\"\"}}mieux\nvaut être parés à toute éventualité.",
      "EUit": "{{anim id=\"HappyFlower\" target=\"actor\" targetSpec=\"\"}}Abbiamo ricevuto l'autorizzazione\nper lavorare a una nuova struttura!{{delay frames=\"40\"}}\n{{anim id=\"FaintSmile\" target=\"actor\" targetSpec=\"\"}}Questa volta si tratta di un {{color id=\"1\"}}ospedale{{color id=\"65535\"}}!{{pageBreak}}{{anim id=\"Explain\" target=\"actor\" targetSpec=\"\"}}In questo modo, la gente del posto\nsi sentirà più tranquilla, nel caso in\ncui dovesse ammalarsi{{string value=\"...\"}}{{anim id=\"EmotEnd\" target=\"actor\" targetSpec=\"\"}}{{pageBreak}}{{anim id=\"Nodding\" target=\"actor\" targetSpec=\"\"}}E poi, con tutti i visitatori e i nostri\nclienti e i piani organizzativi che\nabbiamo, {{anim id=\"FaintSmile\" target=\"actor\" targetSpec=\"\"}}è molto saggio averne uno.",
      "EUnl": "{{anim id=\"HappyFlower\" target=\"actor\" targetSpec=\"\"}}We hebben toestemming voor nog\neen voorziening gekregen.{{delay frames=\"40\"}} {{anim id=\"FaintSmile\" target=\"actor\" targetSpec=\"\"}}Deze keer\nrealiseren we een {{color id=\"1\"}}ziekenhuis{{color id=\"65535\"}}!{{pageBreak}}{{anim id=\"Explain\" target=\"actor\" targetSpec=\"\"}}Met een {{color id=\"1\"}}ziekenhuis{{color id=\"65535\"}} weten de\neilandbezoekers dat er hulp nabij is\nals ze zich eens niet goed voelen{{string value=\"...\"}}{{anim id=\"EmotEnd\" target=\"actor\" targetSpec=\"\"}}{{pageBreak}}{{anim id=\"Nodding\" target=\"actor\" targetSpec=\"\"}}Met de toename in bezoekers en\nklanten plus ons grote evenement{{anim id=\"FaintSmile\" target=\"actor\" targetSpec=\"\"}} is\nhet beter om goed voorbereid te zijn.",
      "EUru": "{{anim id=\"HappyFlower\" target=\"actor\" targetSpec=\"\"}}Мы получили разрешение на\nочередное учреждение!{{delay frames=\"40\"}} {{anim id=\"FaintSmile\" target=\"actor\" targetSpec=\"\"}}В этот\nраз мы создадим {{color id=\"1\"}}больницу{{color id=\"65535\"}}!{{pageBreak}}{{anim id=\"Explain\" target=\"actor\" targetSpec=\"\"}}Курортникам будет намного\nспокойнее, если рядом есть место,\nгде можно пройти медосмотр{{string value=\"...\"}}{{anim id=\"EmotEnd\" target=\"actor\" targetSpec=\"\"}}{{pageBreak}}{{anim id=\"Nodding\" target=\"actor\" targetSpec=\"\"}}У нас столько гостей и клиентов,\nда и большое событие намечается.\n{{anim id=\"FaintSmile\" target=\"actor\" targetSpec=\"\"}}Нужно подготовиться ко всему!",
      "JPja": "{{anim id=\"Grin\" target=\"actor\" targetSpec=\"\"}}{{string value=\"PlayerName\"}}ちゃん、{{delay20}}{{ruby charSpan=\"1\" value=\"じつ\"}}実はね{{string value=\"...\"}}{{delay frames=\"40\"}}\n{{anim id=\"HappyFlower\" target=\"actor\" targetSpec=\"\"}}また　{{ruby charSpan=\"1\" value=\"あたら\"}}新しい{{ruby charSpan=\"2\" value=\"しせつ\"}}施設を{{ruby charSpan=\"1\" value=\"つく\"}}作る　{{delay8}}{{ruby charSpan=\"2\" value=\"きょか\"}}許可が{{ruby charSpan=\"1\" value=\"お\"}}下りたの！{{pageBreak}}{{anim id=\"FaintSmile\" target=\"actor\" targetSpec=\"\"}}{{ruby charSpan=\"2\" value=\"こんかい\"}}今回　{{ruby charSpan=\"2\" value=\"きょか\"}}許可をもらえたのは　{{color id=\"1\"}}{{delay8}}{{ruby charSpan=\"2\" value=\"びょういん\"}}病院{{color id=\"65535\"}}よ！{{delay frames=\"40\"}}\n{{anim id=\"Explain\" target=\"actor\" targetSpec=\"\"}}この{{ruby charSpan=\"1\" value=\"しま\"}}島に　{{ruby charSpan=\"2\" value=\"びょういん\"}}病院があれば、{{delay20}}{{ruby charSpan=\"2\" value=\"たいちょう\"}}体調を{{ruby charSpan=\"1\" value=\"くず\"}}崩しても\nすぐ{{ruby charSpan=\"1\" value=\"み\"}}診てもらえるから　{{delay8}}{{ruby charSpan=\"2\" value=\"あんしん\"}}安心だし{{string value=\"...\"}}{{anim id=\"EmotEnd\" target=\"actor\" targetSpec=\"\"}}{{pageBreak}}{{anim id=\"Nodding\" target=\"actor\" targetSpec=\"\"}}ヒトを{{ruby charSpan=\"1\" value=\"あつ\"}}集めて　イベントを{{ruby charSpan=\"2\" value=\"かいさい\"}}開催するなら{{delay20}}\n{{anim id=\"FaintSmile\" target=\"actor\" targetSpec=\"\"}}{{ruby charSpan=\"2\" value=\"まんいち\"}}万一のトラブルには　{{ruby charSpan=\"1\" value=\"そな\"}}備えておかなくちゃね",
      "KRko": "{{anim id=\"Grin\" target=\"actor\" targetSpec=\"\"}}{{string value=\"PlayerName\"}}{{gender2 m=\"군\" f=\"양\"}}, {{delay20}}실은 말야{{string value=\"...\"}}{{delay frames=\"40\"}}\n{{anim id=\"HappyFlower\" target=\"actor\" targetSpec=\"\"}}또 새로운 시설의 {{delay8}}공사 허가가 났어!{{pageBreak}}{{anim id=\"FaintSmile\" target=\"actor\" targetSpec=\"\"}}이번에 허가를 받은 시설은 {{color id=\"1\"}}{{delay8}}병원{{color id=\"65535\"}}이야!{{delay frames=\"40\"}}\n{{anim id=\"Explain\" target=\"actor\" targetSpec=\"\"}}이 섬에 병원이 있으면{{delay20}} 몸이 안 좋아져도\n바로 진료받을 수 있으니까 {{delay8}}안심도 될 거고{{string value=\"...\"}}{{anim id=\"EmotEnd\" target=\"actor\" targetSpec=\"\"}}{{pageBreak}}{{anim id=\"Nodding\" target=\"actor\" targetSpec=\"\"}}사람들을 모아서 이벤트를 개최하려면{{delay20}}\n{{anim id=\"FaintSmile\" target=\"actor\" targetSpec=\"\"}}혹시 모를 트러블에 대비해둬야지 않겠어?",
      "TWzh": "{{anim id=\"Grin\" target=\"actor\" targetSpec=\"\"}}{{string value=\"PlayerName\"}}，{{delay20}}其實{{string value=\"...\"}}{{delay frames=\"40\"}}\n{{anim id=\"HappyFlower\" target=\"actor\" targetSpec=\"\"}}我又拿到{{delay8}}新的設施建造許可了！{{pageBreak}}{{anim id=\"FaintSmile\" target=\"actor\" targetSpec=\"\"}}這次拿到的許可是{{color id=\"1\"}}{{delay8}}醫院{{color id=\"65535\"}}的！{{delay frames=\"40\"}}\n{{anim id=\"Explain\" target=\"actor\" targetSpec=\"\"}}如果島上有醫院的話，{{delay20}}當身體不舒服的時候，\n就可以馬上去看醫生，{{delay8}}真的很讓人安心呢{{string value=\"...\"}}{{anim id=\"EmotEnd\" target=\"actor\" targetSpec=\"\"}}{{pageBreak}}{{anim id=\"Nodding\" target=\"actor\" targetSpec=\"\"}}而且如果要舉辦活動讓大家聚集在一起的話，{{delay20}}\n{{anim id=\"FaintSmile\" target=\"actor\" targetSpec=\"\"}}還是要以防萬一才行。",
      "USen": "{{anim id=\"HappyFlower\" target=\"actor\" targetSpec=\"\"}}We've gotten permission to work on\nanother facility!{{delay frames=\"40\"}} {{anim id=\"FaintSmile\" target=\"actor\" targetSpec=\"\"}}This time, we're\ncreating a {{color id=\"1\"}}hospital{{color id=\"65535\"}}!{{pageBreak}}{{anim id=\"Explain\" target=\"actor\" targetSpec=\"\"}}Having a hospital here will give folks\npeace of mind since they can be seen\nright away if they don't feel well{{string value=\"...\"}}{{anim id=\"EmotEnd\" target=\"actor\" targetSpec=\"\"}}{{pageBreak}}{{anim id=\"Nodding\" target=\"actor\" targetSpec=\"\"}}With our new visitors and clients, as\nwell as our plans to hold a big event,\n{{anim id=\"FaintSmile\" target=\"actor\" targetSpec=\"\"}}it only makes sense to be prepared.",
      "USes": "{{anim id=\"FaintSmile\" target=\"actor\" targetSpec=\"\"}}Me alegra contarte que conseguí\nlos permisos necesarios para\nconstruir otra instalación.\n{{anim id=\"HappyFlower\" target=\"actor\" targetSpec=\"\"}}¡Esta vez será un {{color id=\"1\"}}{{wordInfo gender=\"1\" indefArticle=\"1\" defArticle=\"3\"}}hospital{{color id=\"65535\"}}!{{pageBreak}}{{anim id=\"Explain\" target=\"actor\" targetSpec=\"\"}}Todo el mundo estará más tranquilo\nsabiendo que tenemos un lugar\ndonde se ofrece atención médica.\n{{anim id=\"Nodding\" target=\"actor\" targetSpec=\"\"}}Cada vez llegan más turistas y más\nclientes{{delay8}} y, teniendo en cuenta el gran\nevento que estamos planeando{{string value=\"...\"}}\n{{anim id=\"FaintSmile\" target=\"actor\" targetSpec=\"\"}}Debemos estar preparados\npara todo.",
      "USfr": "{{anim id=\"HappyFlower\" target=\"actor\" targetSpec=\"\"}}On a reçu l'autorisation de construire\nune nouvelle infrastructure!{{delay frames=\"40\"}} {{anim id=\"FaintSmile\" target=\"actor\" targetSpec=\"\"}}Cette\nfois,{{delay8}} on va bâtir un {{color id=\"1\"}}hôpital{{color id=\"65535\"}}!{{pageBreak}}{{anim id=\"Explain\" target=\"actor\" targetSpec=\"\"}}Tout le monde sera plus tranquille\nd'avoir la possibilité de se faire\nsoigner en cas de besoin{{string value=\"...\"}}{{anim id=\"EmotEnd\" target=\"actor\" targetSpec=\"\"}}{{pageBreak}}{{anim id=\"Nodding\" target=\"actor\" targetSpec=\"\"}}Avec tout ce passage et tous ces\névénements qui se préparent,{{delay20}} {{anim id=\"FaintSmile\" target=\"actor\" targetSpec=\"\"}}mieux\nvaut être parés à toute éventualité."
    }
  },
  {
    "label": "004",
    "attribute": "0x00000000",
    "locale": {
      "CNzh": "{{anim id=\"ShyBoy\" target=\"actor\" targetSpec=\"\"}}如果没有医院的话，\n万一有个头疼脑热的可不得了，{{delay frames=\"40\"}}\n这是我最近才深切体会过的{{string value=\"...\"}}{{pageBreak}}{{anim id=\"EmotEnd\" target=\"actor\" targetSpec=\"\"}}所以，{{delay8}}{{string value=\"PlayerName\"}}，{{delay frames=\"40\"}}\n{{anim id=\"Nodding\" target=\"actor\" targetSpec=\"\"}}我想请你帮忙打造医院。{{i10_4}}\n{{anim id=\"Greeting\" target=\"actor\" targetSpec=\"\"}}赶紧去现场看看吧！",
      "EUde": "{{anim id=\"ShyBoy\" target=\"actor\" targetSpec=\"\"}}Neulich musste ich selbst erfahren,{{delay8}}\nwie schlimm es sein kann, {{delay8}}wenn kein\nKrankenhaus in der Nähe ist{{string value=\"...\"}}{{pageBreak}}{{anim id=\"EmotEnd\" target=\"actor\" targetSpec=\"\"}}Ich möchte, {{delay8}}dass wir unseren Kunden\nund Besuchern zuliebe das beste\nKrankenhaus aller Zeiten entwerfen.{{pageBreak}}{{anim id=\"Greeting\" target=\"actor\" targetSpec=\"\"}}Gehen wir zu dem Grundstück,{{delay8}}\nauf dem es errichtet werden soll.",
      "EUen": "{{anim id=\"ShyBoy\" target=\"actor\" targetSpec=\"\"}}The other day, I experienced how dire\nthings can get when you don't have a\nhospital nearby{{string value=\"...\"}}{{pageBreak}}{{anim id=\"EmotEnd\" target=\"actor\" targetSpec=\"\"}}I want us to work to design the\nbest {{anim id=\"Nodding\" target=\"actor\" targetSpec=\"\"}}possible hospital facility for\nour clients and visitors.{{pageBreak}}{{anim id=\"Greeting\" target=\"actor\" targetSpec=\"\"}}Let's head to the site now.",
      "EUes": "{{anim id=\"ShyBoy\" target=\"actor\" targetSpec=\"\"}}Hace muy poco pude comprobar\npor mí misma lo importante que\nes contar con un hospital cerca{{string value=\"...\"}}\n{{anim id=\"Nodding\" target=\"actor\" targetSpec=\"\"}}Quiero que construyamos el mejor\nposible para nuestros clientes\ny turistas.\n{{anim id=\"Greeting\" target=\"actor\" targetSpec=\"\"}}¡Vayamos al lugar donde se ubicará!",
      "EUfr": "{{anim id=\"ShyBoy\" target=\"actor\" targetSpec=\"\"}}L'autre jour,{{delay8}} je me suis rendu compte\ncomme c'était compliqué de ne pas\navoir d'hôpital à proximité{{string value=\"...\"}}{{pageBreak}}{{anim id=\"EmotEnd\" target=\"actor\" targetSpec=\"\"}}Je veux que tu m'aides à réaliser\n{{anim id=\"Nodding\" target=\"actor\" targetSpec=\"\"}}le meilleur hôpital possible pour nos\nclients et nos visiteurs.{{pageBreak}}{{anim id=\"Greeting\" target=\"actor\" targetSpec=\"\"}}Allons voir le site !",
      "EUit": "{{anim id=\"ShyBoy\" target=\"actor\" targetSpec=\"\"}}Proprio l'altro giorno ho provato\nsulla mia pelle quanto sia necessario\navere vicino un ospedale{{string value=\"...\"}}{{pageBreak}}{{anim id=\"EmotEnd\" target=\"actor\" targetSpec=\"\"}}Ho intenzione di pianificarne uno,\n{{anim id=\"Nodding\" target=\"actor\" targetSpec=\"\"}}il migliore che i nostri clienti e\nvisitatori possano avere.{{pageBreak}}{{anim id=\"Greeting\" target=\"actor\" targetSpec=\"\"}}Forza, andiamo al cantiere!",
      "EUnl": "{{anim id=\"ShyBoy\" target=\"actor\" targetSpec=\"\"}}Ik heb onlangs zelf ervaren hoe\nproblematisch het kan zijn als er\ngeen {{color id=\"1\"}}ziekenhuis{{color id=\"65535\"}} in de buurt is{{string value=\"...\"}}{{pageBreak}}{{anim id=\"EmotEnd\" target=\"actor\" targetSpec=\"\"}}Daarom wil ik hier voor onze klanten\nen bezoekers {{anim id=\"Nodding\" target=\"actor\" targetSpec=\"\"}}het best mogelijke\n{{color id=\"1\"}}ziekenhuis{{color id=\"65535\"}} neerzetten.{{pageBreak}}{{anim id=\"Greeting\" target=\"actor\" targetSpec=\"\"}}Laten we maar meteen naar de\nlocatie gaan.",
      "EUru": "{{anim id=\"ShyBoy\" target=\"actor\" targetSpec=\"\"}}Недавно мне как раз довелось\nна себе испытать то, как важна\nсвоевременная помощь{{string value=\"...\"}}{{pageBreak}}{{anim id=\"EmotEnd\" target=\"actor\" targetSpec=\"\"}}Так что,{{delay20}} {{string value=\"PlayerName\"}},{{delay20}} {{anim id=\"Nodding\" target=\"actor\" targetSpec=\"\"}}прошу, помоги мне создать больницу.{{pageBreak}}{{anim id=\"Greeting\" target=\"actor\" targetSpec=\"\"}}Давай отправимся на участок!",
      "JPja": "{{anim id=\"ShyBoy\" target=\"actor\" targetSpec=\"\"}}{{ruby charSpan=\"2\" value=\"びょういん\"}}病院がないと　{{ruby charSpan=\"1\" value=\"なに\"}}何かあった{{ruby charSpan=\"1\" value=\"とき\"}}時に　{{ruby charSpan=\"2\" value=\"たいへん\"}}大変だって{{ruby charSpan=\"1\" value=\"こと\"}}事{{delay frames=\"40\"}}\nこないだ　{{ruby charSpan=\"1\" value=\"み\"}}身をもって　{{ruby charSpan=\"2\" value=\"たいけん\"}}体験したもの{{string value=\"...\"}}{{pageBreak}}{{anim id=\"EmotEnd\" target=\"actor\" targetSpec=\"\"}}というワケで　さっそくだけど、{{delay20}}\n{{anim id=\"Nodding\" target=\"actor\" targetSpec=\"\"}}{{ruby charSpan=\"1\" value=\"いま\"}}今から　{{ruby charSpan=\"2\" value=\"びょういん\"}}病院づくりに　{{ruby charSpan=\"1\" value=\"ちから\"}}力を{{ruby charSpan=\"1\" value=\"か\"}}貸してちょうだい{{delay20}}\n{{anim id=\"Hello\" target=\"actor\" targetSpec=\"\"}}{{string value=\"PlayerName\"}}ちゃん！",
      "KRko": "{{anim id=\"ShyBoy\" target=\"actor\" targetSpec=\"\"}}병원이 없으면 {{delay8}}\n무슨 일이 생겼을 때 큰일 난다는 걸{{delay frames=\"40\"}}\n지난번 경험으로 몸소 깨달았고 말야{{string value=\"...\"}}{{pageBreak}}{{anim id=\"EmotEnd\" target=\"actor\" targetSpec=\"\"}}그렇게 됐으니까 {{delay8}}{{string value=\"PlayerName\"}}{{gender2 m=\"군\" f=\"양\"}}{{delay frames=\"40\"}}\n{{anim id=\"Nodding\" target=\"actor\" targetSpec=\"\"}}병원 만드는 걸 도와줘{{i10_4}}\n{{anim id=\"Greeting\" target=\"actor\" targetSpec=\"\"}}바로 현장으로 가보자!",
      "TWzh": "{{anim id=\"ShyBoy\" target=\"actor\" targetSpec=\"\"}}前陣子我才深切體會到，\n如果附近沒有醫院，{{delay frames=\"40\"}}\n身體不舒服的時候，真的很不方便{{string value=\"...\"}}{{pageBreak}}{{anim id=\"EmotEnd\" target=\"actor\" targetSpec=\"\"}}所以呢，{{delay8}}{{string value=\"PlayerName\"}}，{{delay frames=\"40\"}}\n{{anim id=\"Nodding\" target=\"actor\" targetSpec=\"\"}}請你跟我一起打造醫院吧。{{i10_4}}\n{{anim id=\"Greeting\" target=\"actor\" targetSpec=\"\"}}我們馬上去現場看看！",
      "USen": "{{anim id=\"ShyBoy\" target=\"actor\" targetSpec=\"\"}}The other day, I experienced how dire\nthings can get when you don't have a\nhospital nearby{{string value=\"...\"}}{{pageBreak}}{{anim id=\"EmotEnd\" target=\"actor\" targetSpec=\"\"}}I want us to work to design the\nbest {{anim id=\"Nodding\" target=\"actor\" targetSpec=\"\"}}possible hospital facility for\nour clients and visitors.{{pageBreak}}{{anim id=\"Greeting\" target=\"actor\" targetSpec=\"\"}}Let's head to the site now.",
      "USes": "{{anim id=\"ShyBoy\" target=\"actor\" targetSpec=\"\"}}Hace muy poco pude ver por mis\npropios ojos lo importante que es\ncontar con un hospital cerca{{string value=\"...\"}}\n{{anim id=\"Nodding\" target=\"actor\" targetSpec=\"\"}}Quiero que construyamos el mejor\nhospital posible para nuestros\nclientes y turistas.\n{{anim id=\"Greeting\" target=\"actor\" targetSpec=\"\"}}¡Vayamos al lugar donde se ubicará!",
      "USfr": "{{anim id=\"ShyBoy\" target=\"actor\" targetSpec=\"\"}}L'autre jour,{{delay8}} je me suis rendu compte\ncomme c'était compliqué de ne pas\navoir d'hôpital à proximité{{string value=\"...\"}}{{pageBreak}}{{anim id=\"EmotEnd\" target=\"actor\" targetSpec=\"\"}}Je veux que tu m'aides à réaliser\n{{anim id=\"Nodding\" target=\"actor\" targetSpec=\"\"}}le meilleur hôpital possible pour\nnos clients et nos visiteurs.{{pageBreak}}{{anim id=\"Greeting\" target=\"actor\" targetSpec=\"\"}}Allons voir le site!"
    }
  },
  {
    "label": "021",
    "attribute": "0x00000000",
    "locale": {
      "CNzh": "{{anim id=\"BigSmile\" target=\"actor\" targetSpec=\"\"}}好了，{{delay8}}到啦～！{{delay frames=\"40\"}}\n{{anim id=\"EmotEnd\" target=\"actor\" targetSpec=\"\"}}这里是医院的用地哦。",
      "EUde": "{{anim id=\"BigSmile\" target=\"actor\" targetSpec=\"\"}}Wunderbar, {{delay8}}da wären wir! {{delay20}}{{anim id=\"EmotEnd\" target=\"actor\" targetSpec=\"\"}}Dieses\nGrundstück ist für das Krankenhaus\nreserviert.",
      "EUen": "{{anim id=\"BigSmile\" target=\"actor\" targetSpec=\"\"}}Alright, we've arrived!{{delay frames=\"40\"}}{{anim id=\"EmotEnd\" target=\"actor\" targetSpec=\"\"}} This is the\nspot we've reserved for the hospital.",
      "EUes": "{{anim id=\"BigSmile\" target=\"actor\" targetSpec=\"\"}}¡Aquí estamos!{{delay20}} Este es el lugar que\nhe reservado para el hospital.",
      "EUfr": "{{anim id=\"BigSmile\" target=\"actor\" targetSpec=\"\"}}Nous y voilà.{{delay frames=\"40\"}}{{anim id=\"EmotEnd\" target=\"actor\" targetSpec=\"\"}} C'est ce bâtiment qui\naccueillera l'hôpital.",
      "EUit": "{{anim id=\"BigSmile\" target=\"actor\" targetSpec=\"\"}}Eccoci arrivat{{gender2 m=\"i\" f=\"e\"}}!{{delay20}} Questo è il lotto di\nterreno destinato all'ospedale.",
      "EUnl": "{{anim id=\"BigSmile\" target=\"actor\" targetSpec=\"\"}}Hier is het dan!{{delay frames=\"40\"}}{{anim id=\"EmotEnd\" target=\"actor\" targetSpec=\"\"}} Dit is de plek die we\nvoor het {{color id=\"1\"}}ziekenhuis{{color id=\"65535\"}} hebben\ngereserveerd.",
      "EUru": "{{anim id=\"BigSmile\" target=\"actor\" targetSpec=\"\"}}Ну вот мы и прибыли!{{delay frames=\"40\"}}{{anim id=\"EmotEnd\" target=\"actor\" targetSpec=\"\"}} Как раз\nэтот участок мы и выбрали\nпод больницу.",
      "JPja": "{{anim id=\"BigSmile\" target=\"actor\" targetSpec=\"\"}}はいっ、{{delay8}}{{ruby charSpan=\"2\" value=\"とうちゃく\"}}到着～！{{delay frames=\"40\"}}\n{{anim id=\"EmotEnd\" target=\"actor\" targetSpec=\"\"}}ここが　{{ruby charSpan=\"2\" value=\"びょういん\"}}病院の{{ruby charSpan=\"3\" value=\"よていち\"}}予定地よ",
      "KRko": "{{anim id=\"BigSmile\" target=\"actor\" targetSpec=\"\"}}짠, {{delay8}}도착했어～!{{delay frames=\"40\"}}\n{{anim id=\"EmotEnd\" target=\"actor\" targetSpec=\"\"}}여기가 병원 건설 예정지야",
      "TWzh": "{{anim id=\"BigSmile\" target=\"actor\" targetSpec=\"\"}}好，{{delay8}}我們到了～！{{delay frames=\"40\"}}\n{{anim id=\"EmotEnd\" target=\"actor\" targetSpec=\"\"}}這裡就是醫院的預定地。",
      "USen": "{{anim id=\"BigSmile\" target=\"actor\" targetSpec=\"\"}}Alright, we've arrived!{{delay frames=\"40\"}}{{anim id=\"EmotEnd\" target=\"actor\" targetSpec=\"\"}} This is the\nspot we've reserved for the hospital.",
      "USes": "{{anim id=\"BigSmile\" target=\"actor\" targetSpec=\"\"}}¡Aquí estamos!{{delay20}} Este es el lugar que\nreservé para el hospital.",
      "USfr": "{{anim id=\"BigSmile\" target=\"actor\" targetSpec=\"\"}}Nous y voilà.{{delay frames=\"40\"}}{{anim id=\"EmotEnd\" target=\"actor\" targetSpec=\"\"}} C'est ce bâtiment qui\naccueillera l'hôpital."
    }
  },
  {
    "label": "022",
    "attribute": "0x00000000",
    "locale": {
      "CNzh": "{{anim id=\"Nodding\" target=\"actor\" targetSpec=\"\"}}那么，{{delay20}}先来决定外观吧。{{delay frames=\"40\"}}\n{{anim id=\"FaintSmile\" target=\"actor\" targetSpec=\"\"}}{{string value=\"PlayerName\"}}，{{delay20}}拜托你了！",
      "EUde": "{{anim id=\"Nodding\" target=\"actor\" targetSpec=\"\"}}Kümmern wir uns als Erstes um das\nÄußere. {{delay20}}{{anim id=\"FaintSmile\" target=\"actor\" targetSpec=\"\"}}Dann zeig mal, {{delay8}}was du\nkannst, {{delay8}}{{string value=\"PlayerName\"}}!",
      "EUen": "{{anim id=\"Nodding\" target=\"actor\" targetSpec=\"\"}}Let's start on the exterior first.\n{{delay frames=\"40\"}}{{anim id=\"FaintSmile\" target=\"actor\" targetSpec=\"\"}}Go ahead and work your magic,\n{{string value=\"PlayerName\"}}!",
      "EUes": "{{anim id=\"Nodding\" target=\"actor\" targetSpec=\"\"}}Primero habrá que decidir el aspecto\nexterior.{{delay20}} {{anim id=\"FaintSmile\" target=\"actor\" targetSpec=\"\"}}Adelante,{{delay8}} lo dejo todo\nen tus manos.",
      "EUfr": "{{anim id=\"Nodding\" target=\"actor\" targetSpec=\"\"}}Commençons tout d'abord par\nl'aménagement extérieur.{{delay20}} {{anim id=\"FaintSmile\" target=\"actor\" targetSpec=\"\"}}À toi\nde jouer, {{string value=\"PlayerName\"}} !",
      "EUit": "{{anim id=\"Nodding\" target=\"actor\" targetSpec=\"\"}}Per ora concentriamoci sugli\nesterni. {{anim id=\"FaintSmile\" target=\"actor\" targetSpec=\"\"}}Coraggio, fai la tua magia,\n{{string value=\"PlayerName\"}}!",
      "EUnl": "{{anim id=\"Nodding\" target=\"actor\" targetSpec=\"\"}}Laten we met de buitenkant van het\ngebouw beginnen.{{delay frames=\"40\"}}{{anim id=\"FaintSmile\" target=\"actor\" targetSpec=\"\"}} Doe maar waar je\ngoed in bent, {{string value=\"PlayerName\"}}!",
      "EUru": "{{anim id=\"Nodding\" target=\"actor\" targetSpec=\"\"}}Сначала давай определимся\nс фасадом.{{delay20}} {{anim id=\"FaintSmile\" target=\"actor\" targetSpec=\"\"}}{{capitalizeNextLetter}}{{string value=\"PlayerName\"}}, вперед! Покажи, на что способ{{gender2 m=\"ен\" f=\"на\"}}!",
      "JPja": "{{anim id=\"Nodding\" target=\"actor\" targetSpec=\"\"}}じゃあ、{{delay20}}まずは　{{ruby charSpan=\"2\" value=\"がいかん\"}}外観を{{ruby charSpan=\"1\" value=\"き\"}}決めましょうか{{delay frames=\"40\"}}\n{{anim id=\"FaintSmile\" target=\"actor\" targetSpec=\"\"}}{{string value=\"PlayerName\"}}ちゃん、{{delay20}}よろしくね！",
      "KRko": "{{anim id=\"Nodding\" target=\"actor\" targetSpec=\"\"}}그럼 {{delay20}}먼저 외관부터 정해보자!{{delay frames=\"40\"}}\n{{anim id=\"FaintSmile\" target=\"actor\" targetSpec=\"\"}}{{string value=\"PlayerName\"}}{{gender2 m=\"군\" f=\"양\"}}, {{delay20}}잘 부탁해!",
      "TWzh": "{{anim id=\"Nodding\" target=\"actor\" targetSpec=\"\"}}那麼，{{delay20}}先來決定外觀吧。{{delay frames=\"40\"}}\n{{anim id=\"FaintSmile\" target=\"actor\" targetSpec=\"\"}}{{string value=\"PlayerName\"}}，{{delay20}}麻煩你了！",
      "USen": "{{anim id=\"Nodding\" target=\"actor\" targetSpec=\"\"}}Let's start on the exterior first.\n{{delay frames=\"40\"}}{{anim id=\"FaintSmile\" target=\"actor\" targetSpec=\"\"}}Go ahead and work your magic,\n{{string value=\"PlayerName\"}}!",
      "USes": "{{anim id=\"Nodding\" target=\"actor\" targetSpec=\"\"}}Primero tendremos que decidir cómo\nserá el exterior.{{delay20}} {{anim id=\"FaintSmile\" target=\"actor\" targetSpec=\"\"}}Adelante,{{delay8}} lo dejo\ntodo en tus manos.",
      "USfr": "{{anim id=\"Nodding\" target=\"actor\" targetSpec=\"\"}}Commençons tout d'abord par\nl'aménagement extérieur.{{delay20}} {{anim id=\"FaintSmile\" target=\"actor\" targetSpec=\"\"}}À toi\nde jouer, {{string value=\"PlayerName\"}}!"
    }
  },
  {
    "label": "041",
    "attribute": "0x00000000",
    "locale": {
      "CNzh": "{{anim id=\"Hello\" target=\"actor\" targetSpec=\"\"}}接下来，{{delay20}}就拜托你进行室内的布置了！{{pageBreak}}{{anim id=\"Explain\" target=\"actor\" targetSpec=\"\"}}医院所必需的是{{delay20}}\n{{color id=\"1\"}}候诊室{{color id=\"65535\"}}和{{color id=\"1\"}}诊疗室{{color id=\"65535\"}}这2个房间哦。{{anim id=\"EmotEnd\" target=\"actor\" targetSpec=\"\"}}{{pageBreak}}各个房间所必需的物品{{delay20}}\n{{anim id=\"Nodding\" target=\"actor\" targetSpec=\"\"}}请在{{color id=\"1\"}}{{color id=\"65535\"}}的{{delay8}}“{{color id=\"1\"}}订购{{color id=\"65535\"}}”里查看吧。{{pageBreak}}{{anim id=\"Greeting\" target=\"actor\" targetSpec=\"\"}}那么，{{delay20}}作业结束后就告诉我！{{delay frames=\"40\"}}\n{{anim id=\"Smiling\" target=\"actor\" targetSpec=\"\"}}我很期待看看，{{delay20}}\n你能打造出怎样的医院呢！",
      "EUde": "{{anim id=\"Hello\" target=\"actor\" targetSpec=\"\"}}Kümmern wir uns nun um das\nInnere!{{pageBreak}}{{anim id=\"Explain\" target=\"actor\" targetSpec=\"\"}}Wir benötigen natürlich ein\n{{color id=\"1\"}}Wartezimmer {{color id=\"65535\"}}und auch ein\n{{color id=\"1\"}}Untersuchungszimmer{{color id=\"65535\"}}.{{anim id=\"EmotEnd\" target=\"actor\" targetSpec=\"\"}}{{pageBreak}}{{anim id=\"Nodding\" target=\"actor\" targetSpec=\"\"}}Wähle mit {{color id=\"1\"}} {{color id=\"65535\"}}den {{color id=\"1\"}}Auftrag{{color id=\"65535\"}}, {{delay8}}um dir\nanzusehen, {{delay8}}was in diesen Bereichen\nso alles benötigt wird.{{pageBreak}}{{anim id=\"Greeting\" target=\"actor\" targetSpec=\"\"}}Sag Bescheid, {{delay8}}wenn du fertig bist!{{delay frames=\"40\"}}\n{{anim id=\"Smiling\" target=\"actor\" targetSpec=\"\"}}Ich bin wirklich gespannt, {{delay8}}wie du\nalles gestalten wirst!",
      "EUen": "{{anim id=\"Hello\" target=\"actor\" targetSpec=\"\"}}Next up, the interior design!{{pageBreak}}{{anim id=\"Explain\" target=\"actor\" targetSpec=\"\"}}The hospital needs two areas:{{delay20}}\na {{color id=\"1\"}}waiting area {{color id=\"65535\"}}and {{color id=\"1\"}}examination room{{color id=\"65535\"}}.{{anim id=\"EmotEnd\" target=\"actor\" targetSpec=\"\"}}{{pageBreak}}{{anim id=\"Nodding\" target=\"actor\" targetSpec=\"\"}}Press {{color id=\"1\"}} {{color id=\"65535\"}}and look in {{color id=\"1\"}}Order {{color id=\"65535\"}}to see\nwhat's needed in each of the areas.{{pageBreak}}{{anim id=\"Greeting\" target=\"actor\" targetSpec=\"\"}}Let me know when you're done!{{delay frames=\"40\"}}\n{{anim id=\"Smiling\" target=\"actor\" targetSpec=\"\"}}I'm excited to see your approach\nto designing these spaces!",
      "EUes": "{{anim id=\"Hello\" target=\"actor\" targetSpec=\"\"}}Bien, sigamos ahora con el interior.{{pageBreak}}{{anim id=\"Greeting\" target=\"actor\" targetSpec=\"\"}}Todo hospital que se precie debe\ntener una {{anim id=\"Nodding\" target=\"actor\" targetSpec=\"\"}}{{color id=\"1\"}}sala de espera {{color id=\"65535\"}}y una\n{{color id=\"1\"}}consulta médica {{color id=\"65535\"}}en condiciones.\n{{anim id=\"Explain\" target=\"actor\" targetSpec=\"\"}}Puedes consultar qué necesita\ncada sala si pulsas {{color id=\"1\"}} {{color id=\"65535\"}}y seleccionas\n{{color id=\"1\"}}Encargo{{color id=\"65535\"}}.\n{{anim id=\"Smiling\" target=\"actor\" targetSpec=\"\"}}Ya te dejo trabajar tranquil{{gender2 m=\"o\" f=\"a\"}}.{{delay20}}\nAvísame cuando hayas terminado.",
      "EUfr": "{{anim id=\"Hello\" target=\"actor\" targetSpec=\"\"}}À présent, passons aux\naménagements intérieurs !{{pageBreak}}{{anim id=\"Explain\" target=\"actor\" targetSpec=\"\"}}L'hôpital doit disposer de deux\nzones :{{delay20}} une {{color id=\"1\"}}salle d'attente {{color id=\"65535\"}}et une\n{{color id=\"1\"}}salle d'examen{{color id=\"65535\"}}.{{anim id=\"EmotEnd\" target=\"actor\" targetSpec=\"\"}}{{pageBreak}}{{anim id=\"Nodding\" target=\"actor\" targetSpec=\"\"}}Pour voir ce que tu dois installer\ndans chacune de ces zones, appuie\nsur{{color id=\"1\"}}  {{color id=\"65535\"}}et sélectionne {{color id=\"1\"}}Commande{{color id=\"65535\"}}.{{pageBreak}}{{anim id=\"Greeting\" target=\"actor\" targetSpec=\"\"}}Quand tu auras terminé, viens me le\ndire !{{delay frames=\"40\"}} {{anim id=\"Smiling\" target=\"actor\" targetSpec=\"\"}}Il me tarde de voir le résultat !",
      "EUit": "{{anim id=\"Hello\" target=\"actor\" targetSpec=\"\"}}Poi, si passa agli interni!{{pageBreak}}{{anim id=\"Explain\" target=\"actor\" targetSpec=\"\"}}Per prima cosa, {{delay8}}ogni ospedale che\nsi rispetti ha bisogno {{anim id=\"Nodding\" target=\"actor\" targetSpec=\"\"}}di una {{color id=\"1\"}}sala\nd'attesa{{color id=\"65535\"}} e di un {{color id=\"1\"}}ambulatorio{{color id=\"65535\"}}.{{anim id=\"EmotEnd\" target=\"actor\" targetSpec=\"\"}}{{pageBreak}}{{anim id=\"Nodding\" target=\"actor\" targetSpec=\"\"}}Premi {{color id=\"1\"}} {{color id=\"65535\"}}e seleziona {{color id=\"1\"}}Requisiti\n{{color id=\"65535\"}}per vedere di cosa necessitano\nle due aree.{{pageBreak}}{{anim id=\"Greeting\" target=\"actor\" targetSpec=\"\"}}Fammi sapere quando hai finito!{{delay frames=\"40\"}}\nNon vedo l'ora di scoprire come te\nla caverai ad arredare quegli spazi!",
      "EUnl": "{{anim id=\"Hello\" target=\"actor\" targetSpec=\"\"}}En dan nu de inrichting!{{pageBreak}}{{anim id=\"Explain\" target=\"actor\" targetSpec=\"\"}}Ons {{color id=\"1\"}}ziekenhuis{{color id=\"65535\"}} krijgt twee\ngedeeltes:{{delay20}} een {{color id=\"1\"}}wachtkamer {{color id=\"65535\"}}en een\n{{color id=\"1\"}}behandelkamer{{color id=\"65535\"}}.{{anim id=\"EmotEnd\" target=\"actor\" targetSpec=\"\"}}{{pageBreak}}{{anim id=\"Nodding\" target=\"actor\" targetSpec=\"\"}}Druk op {{color id=\"1\"}}{{color id=\"65535\"}} om bij {{color id=\"1\"}}WENSEN {{color id=\"65535\"}}te zien\nwat er in beide gedeeltes nodig is.{{pageBreak}}{{anim id=\"Greeting\" target=\"actor\" targetSpec=\"\"}}Ik hoor het wel wanneer je klaar\nbent.{{delay frames=\"40\"}} {{anim id=\"Smiling\" target=\"actor\" targetSpec=\"\"}}Ik ben benieuwd hoe je beide\nruimtes in zult richten!",
      "EUru": "{{anim id=\"Hello\" target=\"actor\" targetSpec=\"\"}}Итак. {{anim id=\"Explain\" target=\"actor\" targetSpec=\"\"}}Любой хорошей больнице\nнужны{{string value=\"...\"}}{{delay20}} приличный {{color id=\"1\"}}приемный\nпокой{{color id=\"65535\"}}, а еще — {{color id=\"1\"}}кабинет{{color id=\"65535\"}}.{{anim id=\"EmotEnd\" target=\"actor\" targetSpec=\"\"}}{{pageBreak}}{{anim id=\"Nodding\" target=\"actor\" targetSpec=\"\"}}Нажми {{color id=\"1\"}} {{color id=\"65535\"}}и загляни в {{color id=\"1\"}}заказ{{color id=\"65535\"}},\nчтобы узнать, что требуется для\nэтих помещений.{{pageBreak}}{{anim id=\"Greeting\" target=\"actor\" targetSpec=\"\"}}Скажи мне, когда все будет готово!{{delay frames=\"40\"}}\n{{anim id=\"Smiling\" target=\"actor\" targetSpec=\"\"}}Так интересно полюбоваться на\nвоплощение твоих идей!",
      "JPja": "{{anim id=\"Hello\" target=\"actor\" targetSpec=\"\"}}{{ruby charSpan=\"1\" value=\"つぎ\"}}次は、{{delay20}}{{ruby charSpan=\"2\" value=\"ないそう\"}}内装のコーディネートを　お{{ruby charSpan=\"1\" value=\"ねが\"}}願いね！{{pageBreak}}{{anim id=\"Explain\" target=\"actor\" targetSpec=\"\"}}{{ruby charSpan=\"2\" value=\"びょういん\"}}病院に{{ruby charSpan=\"2\" value=\"ひつよう\"}}必要なのは、{{delay20}}\n{{color id=\"1\"}}{{ruby charSpan=\"3\" value=\"まちあいしつ\"}}待合室{{color id=\"65535\"}}と　{{color id=\"1\"}}{{ruby charSpan=\"3\" value=\"しんさつしつ\"}}診察室{{color id=\"65535\"}}の　2{{ruby charSpan=\"2\" value=\"へや\"}}部屋よ{{anim id=\"EmotEnd\" target=\"actor\" targetSpec=\"\"}}{{pageBreak}}それぞれの{{ruby charSpan=\"2\" value=\"へや\"}}部屋に　{{ruby charSpan=\"2\" value=\"ひつよう\"}}必要な{{ruby charSpan=\"2\" value=\"びひん\"}}備品は、{{delay20}}\n{{anim id=\"Nodding\" target=\"actor\" targetSpec=\"\"}}{{color id=\"1\"}}{{color id=\"65535\"}}の{{ruby charSpan=\"1\" value=\"なか\"}}中の{{delay8}}「{{color id=\"1\"}}オーダー{{color id=\"65535\"}}」で　チェックしてね{{pageBreak}}{{anim id=\"Greeting\" target=\"actor\" targetSpec=\"\"}}じゃ、{{delay20}}{{ruby charSpan=\"2\" value=\"さぎょう\"}}作業が{{ruby charSpan=\"1\" value=\"お\"}}終わったら　{{ruby charSpan=\"1\" value=\"おし\"}}教えてちょうだい！{{delay frames=\"40\"}}\n{{anim id=\"Smiling\" target=\"actor\" targetSpec=\"\"}}アナタが　どんな{{ruby charSpan=\"2\" value=\"びょういん\"}}病院を{{ruby charSpan=\"1\" value=\"つく\"}}作り{{ruby charSpan=\"1\" value=\"あ\"}}上げるのか、{{delay20}}\n{{ruby charSpan=\"1\" value=\"たの\"}}楽しみにしてる！",
      "KRko": "{{anim id=\"Hello\" target=\"actor\" targetSpec=\"\"}}다음은 {{delay20}}내부 인테리어를 부탁해!{{pageBreak}}{{anim id=\"Explain\" target=\"actor\" targetSpec=\"\"}}병원에 필요한 건{{delay20}}\n{{color id=\"1\"}}대기실{{color id=\"65535\"}}과 {{color id=\"1\"}}진료실{{color id=\"65535\"}}이야{{anim id=\"EmotEnd\" target=\"actor\" targetSpec=\"\"}}{{pageBreak}}두 방에 각각 어떤 비품이 있어야 하는지는{{delay20}}\n{{anim id=\"Nodding\" target=\"actor\" targetSpec=\"\"}}{{color id=\"1\"}}{{color id=\"65535\"}} 안의{{delay8}} '{{color id=\"1\"}}오더{{color id=\"65535\"}}'에서 확인해봐{{pageBreak}}{{anim id=\"Greeting\" target=\"actor\" targetSpec=\"\"}}그럼 {{delay20}}작업이 끝나면 알려줘!{{delay frames=\"40\"}}\n{{anim id=\"Smiling\" target=\"actor\" targetSpec=\"\"}}네가 어떤 병원을 만들지{{delay20}}\n너무 기대된다!",
      "TWzh": "{{anim id=\"Hello\" target=\"actor\" targetSpec=\"\"}}接下來{{delay20}}就是室內布置囉！{{pageBreak}}{{anim id=\"Explain\" target=\"actor\" targetSpec=\"\"}}醫院需要有{{color id=\"1\"}}候診室{{color id=\"65535\"}}和{{color id=\"1\"}}診療室{{color id=\"65535\"}}\n這兩個房間喔。{{anim id=\"EmotEnd\" target=\"actor\" targetSpec=\"\"}}{{pageBreak}}而各房間所需的物品{{delay20}}\n{{anim id=\"Nodding\" target=\"actor\" targetSpec=\"\"}}都可以在{{color id=\"1\"}}{{color id=\"65535\"}}的{{delay8}}「{{color id=\"1\"}}訂單{{color id=\"65535\"}}」裡查看喔。{{pageBreak}}{{anim id=\"Greeting\" target=\"actor\" targetSpec=\"\"}}那麼，{{delay20}}作業結束後再來告訴我吧！{{delay frames=\"40\"}}\n{{anim id=\"Smiling\" target=\"actor\" targetSpec=\"\"}}我很期待看到{{delay20}}你親手打造的醫院！",
      "USen": "{{anim id=\"Hello\" target=\"actor\" targetSpec=\"\"}}Next up, the interior design!{{pageBreak}}{{anim id=\"Explain\" target=\"actor\" targetSpec=\"\"}}The hospital needs two areas:{{delay20}}\na {{color id=\"1\"}}waiting area {{color id=\"65535\"}}and {{color id=\"1\"}}examination room{{color id=\"65535\"}}.{{anim id=\"EmotEnd\" target=\"actor\" targetSpec=\"\"}}{{pageBreak}}{{anim id=\"Nodding\" target=\"actor\" targetSpec=\"\"}}Press {{color id=\"1\"}} {{color id=\"65535\"}}and look in {{color id=\"1\"}}Order {{color id=\"65535\"}}to see\nwhat's needed in each of the areas.{{pageBreak}}{{anim id=\"Greeting\" target=\"actor\" targetSpec=\"\"}}Let me know when you're done!{{delay frames=\"40\"}}\n{{anim id=\"Smiling\" target=\"actor\" targetSpec=\"\"}}I'm excited to see your approach\nto designing these spaces!",
      "USes": "{{anim id=\"Hello\" target=\"actor\" targetSpec=\"\"}}Bien, sigamos ahora con el interior.{{pageBreak}}{{anim id=\"Greeting\" target=\"actor\" targetSpec=\"\"}}Todo hospital serio debe tener \nuna {{anim id=\"Nodding\" target=\"actor\" targetSpec=\"\"}}{{color id=\"1\"}}{{wordInfo gender=\"2\" indefArticle=\"2\" defArticle=\"4\"}}sala de espera {{color id=\"65535\"}}y una {{color id=\"1\"}}{{wordInfo gender=\"2\" indefArticle=\"2\" defArticle=\"4\"}}sala de consultas {{color id=\"65535\"}}adecuadas.{{pageBreak}}{{anim id=\"Explain\" target=\"actor\" targetSpec=\"\"}}Puedes consultar qué necesita cada\nsala oprimiendo {{color id=\"1\"}} {{color id=\"65535\"}}y seleccionando\n{{color id=\"1\"}}Encargo{{color id=\"65535\"}}.\n{{anim id=\"Smiling\" target=\"actor\" targetSpec=\"\"}}Ahora te dejo trabajar tranquil{{gender2 m=\"o\" f=\"a\"}}.{{delay20}}\nAvísame cuando hayas terminado.",
      "USfr": "{{anim id=\"Hello\" target=\"actor\" targetSpec=\"\"}}À présent, passons aux\naménagements intérieurs!{{pageBreak}}{{anim id=\"Explain\" target=\"actor\" targetSpec=\"\"}}L'hôpital doit disposer de deux\nzones :{{delay20}} une {{color id=\"1\"}}salle d'attente {{color id=\"65535\"}}et une\n{{color id=\"1\"}}salle d'examen{{color id=\"65535\"}}.{{anim id=\"EmotEnd\" target=\"actor\" targetSpec=\"\"}}{{pageBreak}}{{anim id=\"Nodding\" target=\"actor\" targetSpec=\"\"}}Pour voir ce que tu dois installer\ndans chacune de ces zones, appuie\nsur{{color id=\"1\"}}  {{color id=\"65535\"}}et sélectionne {{color id=\"1\"}}Commande{{color id=\"65535\"}}.{{pageBreak}}{{anim id=\"Greeting\" target=\"actor\" targetSpec=\"\"}}Quand tu auras terminé, viens me le\ndire!{{delay frames=\"40\"}} {{anim id=\"Smiling\" target=\"actor\" targetSpec=\"\"}}Il me tarde de voir le résultat!"
    }
  },
  {
    "label": "051",
    "attribute": "0x00000000",
    "locale": {
      "CNzh": "那么，{{delay20}}就拜托你\n{{anim id=\"Hello\" target=\"actor\" targetSpec=\"\"}}继续打造医院啦！{{pageBreak}}{{anim id=\"Explain\" target=\"actor\" targetSpec=\"\"}}或许你还记得，{{delay20}}医院里有\n{{color id=\"1\"}}候诊室{{color id=\"65535\"}}和{{color id=\"1\"}}诊疗室{{color id=\"65535\"}}2个房间，{{delay20}}\n{{anim id=\"FaintSmile\" target=\"actor\" targetSpec=\"\"}}2个都要布置哦。{{pageBreak}}{{anim id=\"EmotEnd\" target=\"actor\" targetSpec=\"\"}}各个房间所必需的物品{{delay20}}\n{{anim id=\"Nodding\" target=\"actor\" targetSpec=\"\"}}就在{{color id=\"1\"}}{{color id=\"65535\"}}的{{delay8}}“{{color id=\"1\"}}订购{{color id=\"65535\"}}”中查看吧。{{pageBreak}}{{anim id=\"Greeting\" target=\"actor\" targetSpec=\"\"}}那么，{{delay20}}作业结束后\n就跟我说一声吧！",
      "EUde": "{{anim id=\"Hello\" target=\"actor\" targetSpec=\"\"}}Gut, {{delay8}}setzen wir den Bau\ndes Krankenhauses fort.{{pageBreak}}{{anim id=\"Explain\" target=\"actor\" targetSpec=\"\"}}Wir benötigen ein {{color id=\"1\"}}Wartezimmer {{color id=\"65535\"}}und\nein {{color id=\"1\"}}Untersuchungszimmer{{color id=\"65535\"}}.{{anim id=\"EmotEnd\" target=\"actor\" targetSpec=\"\"}}{{pageBreak}}{{anim id=\"Nodding\" target=\"actor\" targetSpec=\"\"}}Wähle mit {{color id=\"1\"}} {{color id=\"65535\"}}den {{color id=\"1\"}}Auftrag{{color id=\"65535\"}}, {{delay8}}um dir\nanzusehen, {{delay8}}was in diesen\nBereichen benötigt wird.{{pageBreak}}{{anim id=\"Greeting\" target=\"actor\" targetSpec=\"\"}}Sag Bescheid, {{delay8}}wenn du fertig bist!{{delay frames=\"40\"}}",
      "EUen": "Alright then, let's continue {{anim id=\"Hello\" target=\"actor\" targetSpec=\"\"}}designing\nthe hospital.{{pageBreak}}{{anim id=\"Explain\" target=\"actor\" targetSpec=\"\"}}The hospital needs a {{color id=\"1\"}}waiting area\n{{color id=\"65535\"}}and {{color id=\"1\"}}examination room{{color id=\"65535\"}}.{{delay20}} {{anim id=\"Nodding\" target=\"actor\" targetSpec=\"\"}}Press {{color id=\"1\"}} {{color id=\"65535\"}}and\nlook in {{color id=\"1\"}}Order {{color id=\"65535\"}}to see what we'll need.{{pageBreak}}{{anim id=\"Greeting\" target=\"actor\" targetSpec=\"\"}}Let me know when you're done!",
      "EUes": "Muy bien,{{anim id=\"Hello\" target=\"actor\" targetSpec=\"\"}}{{delay8}} ya puedes seguir\ndiseñando el hospital.{{pageBreak}}{{anim id=\"FaintSmile\" target=\"actor\" targetSpec=\"\"}}Hay que crear una {{color id=\"1\"}}sala de espera\n{{color id=\"65535\"}}y una {{color id=\"1\"}}consulta médica{{color id=\"65535\"}}.{{pageBreak}}{{anim id=\"Explain\" target=\"actor\" targetSpec=\"\"}}Pulsa {{color id=\"1\"}} {{color id=\"65535\"}}y selecciona {{color id=\"1\"}}Encargo {{color id=\"65535\"}}para\nver los objetos que debes usar.{{pageBreak}}{{anim id=\"Hello\" target=\"actor\" targetSpec=\"\"}}Eso es todo.{{delay20}} ¡Avísame cuando\nhayas terminado!",
      "EUfr": "Bien,{{anim id=\"Hello\" target=\"actor\" targetSpec=\"\"}} reprenons l'aménagement de\nnotre hôpital.{{pageBreak}}{{anim id=\"Explain\" target=\"actor\" targetSpec=\"\"}}Il doit disposer d'une {{color id=\"1\"}}salle d'attente\n{{color id=\"65535\"}}et d'une {{color id=\"1\"}}salle d'examen{{color id=\"65535\"}}.{{pageBreak}}{{anim id=\"Nodding\" target=\"actor\" targetSpec=\"\"}}Pour voir ce que tu dois installer\ndans chacune de ces zones, appuie\nsur{{color id=\"1\"}}  {{color id=\"65535\"}}et sélectionne {{color id=\"1\"}}Commande{{color id=\"65535\"}}.{{pageBreak}}{{anim id=\"Greeting\" target=\"actor\" targetSpec=\"\"}}Quand tu auras terminé, viens me\nle dire !",
      "EUit": "Molto bene,{{delay8}}{{anim id=\"Hello\" target=\"actor\" targetSpec=\"\"}} ora puoi continuare\na pianificare l'ospedale.{{pageBreak}}{{anim id=\"Explain\" target=\"actor\" targetSpec=\"\"}}Servono una {{color id=\"1\"}}sala d'attesa {{color id=\"65535\"}}e un\n{{color id=\"1\"}}ambulatorio{{color id=\"65535\"}}.{{pageBreak}}{{anim id=\"Nodding\" target=\"actor\" targetSpec=\"\"}}Premi {{color id=\"1\"}} {{color id=\"65535\"}}e seleziona {{color id=\"1\"}}Requisiti\n{{color id=\"65535\"}}per scoprire di cosa necessitano.\n{{delay20}}{{anim id=\"Greeting\" target=\"actor\" targetSpec=\"\"}}Fammi sapere quando hai finito!",
      "EUnl": "Oké, laten we verdergaan {{anim id=\"Hello\" target=\"actor\" targetSpec=\"\"}}met het\n{{color id=\"1\"}}ziekenhuis{{color id=\"65535\"}}. {{anim id=\"Explain\" target=\"actor\" targetSpec=\"\"}}We moeten een {{color id=\"1\"}}wacht-\nkamer {{color id=\"65535\"}}en een {{color id=\"1\"}}behandelkamer {{color id=\"65535\"}}maken.{{pageBreak}}{{anim id=\"Nodding\" target=\"actor\" targetSpec=\"\"}}Druk op {{color id=\"1\"}}{{color id=\"65535\"}} om bij {{color id=\"1\"}}WENSEN {{color id=\"65535\"}}te zien\nwat er in beide ruimtes nodig is.{{pageBreak}}{{anim id=\"Greeting\" target=\"actor\" targetSpec=\"\"}}Laat me maar weten als je klaar bent!",
      "EUru": "Ну что ж, продолжим {{anim id=\"Hello\" target=\"actor\" targetSpec=\"\"}}работу над\nбольницей.{{pageBreak}}{{anim id=\"Explain\" target=\"actor\" targetSpec=\"\"}}Каждой больнице нужен {{color id=\"1\"}}приемный\nпокой{{color id=\"65535\"}} и {{color id=\"1\"}}кабинет{{color id=\"65535\"}}.{{delay20}} {{anim id=\"Nodding\" target=\"actor\" targetSpec=\"\"}}Нажми {{color id=\"1\"}}\n{{color id=\"65535\"}}и загляни в {{color id=\"1\"}}заказ{{color id=\"65535\"}}. Там все указано. {{pageBreak}}{{anim id=\"Greeting\" target=\"actor\" targetSpec=\"\"}}Скажи мне, когда все будет готово!",
      "JPja": "それじゃ、{{delay20}}\n{{ruby charSpan=\"2\" value=\"びょういん\"}}病院づくりの　{{anim id=\"Hello\" target=\"actor\" targetSpec=\"\"}}{{ruby charSpan=\"1\" value=\"つづ\"}}続きを　お{{ruby charSpan=\"1\" value=\"ねが\"}}願いね！{{pageBreak}}{{anim id=\"Explain\" target=\"actor\" targetSpec=\"\"}}{{ruby charSpan=\"1\" value=\"おぼ\"}}覚えてるかもしれないけど、{{delay20}}{{ruby charSpan=\"2\" value=\"びょういん\"}}病院には\n{{color id=\"1\"}}{{ruby charSpan=\"3\" value=\"まちあいしつ\"}}待合室と　{{ruby charSpan=\"3\" value=\"しんさつしつ\"}}診察室{{color id=\"65535\"}}の　2{{ruby charSpan=\"2\" value=\"へや\"}}部屋があるから、{{delay20}}\n{{anim id=\"FaintSmile\" target=\"actor\" targetSpec=\"\"}}どっちも　コーディネートしてね{{pageBreak}}{{anim id=\"EmotEnd\" target=\"actor\" targetSpec=\"\"}}それぞれの{{ruby charSpan=\"2\" value=\"へや\"}}部屋に　{{ruby charSpan=\"2\" value=\"ひつよう\"}}必要な{{ruby charSpan=\"2\" value=\"びひん\"}}備品は{{delay20}}\n{{anim id=\"Nodding\" target=\"actor\" targetSpec=\"\"}}{{color id=\"1\"}}{{color id=\"65535\"}}の{{ruby charSpan=\"1\" value=\"なか\"}}中の{{delay8}}「{{color id=\"1\"}}オーダー{{color id=\"65535\"}}」でチェックできるわよ{{pageBreak}}{{anim id=\"Greeting\" target=\"actor\" targetSpec=\"\"}}じゃ、{{delay20}}{{ruby charSpan=\"2\" value=\"さぎょう\"}}作業が{{ruby charSpan=\"1\" value=\"お\"}}終わったら\nワタシに{{ruby charSpan=\"1\" value=\"こえ\"}}声をかけてちょうだい！",
      "KRko": "그럼{{delay20}} 계속해서\n{{anim id=\"Hello\" target=\"actor\" targetSpec=\"\"}}병원을 만들어줘!{{pageBreak}}{{anim id=\"Explain\" target=\"actor\" targetSpec=\"\"}}기억하고 있을지도 모르겠지만 {{delay20}}병원에는\n{{color id=\"1\"}}대기실{{color id=\"65535\"}}과 {{color id=\"1\"}}진료실{{color id=\"65535\"}}이 있으니까{{delay20}}\n{{anim id=\"FaintSmile\" target=\"actor\" targetSpec=\"\"}}양쪽 다 인테리어 부탁해{{pageBreak}}{{anim id=\"EmotEnd\" target=\"actor\" targetSpec=\"\"}}각각 어떤 비품이 필요한지는{{delay20}}\n{{anim id=\"Nodding\" target=\"actor\" targetSpec=\"\"}}{{color id=\"1\"}}{{color id=\"65535\"}} 안의{{delay8}} '{{color id=\"1\"}}오더{{color id=\"65535\"}}'에서 확인할 수 있어{{pageBreak}}{{anim id=\"Greeting\" target=\"actor\" targetSpec=\"\"}}작업이 다 끝나면\n나한테 말을 걸어줘!",
      "TWzh": "那麼，{{delay20}}就拜託你\n{{anim id=\"Hello\" target=\"actor\" targetSpec=\"\"}}繼續打造醫院囉！{{pageBreak}}{{anim id=\"Explain\" target=\"actor\" targetSpec=\"\"}}我想你應該還記得，{{delay20}}醫院是由{{color id=\"1\"}}候診室{{color id=\"65535\"}}和{{color id=\"1\"}}診療室{{color id=\"65535\"}}\n這兩個房間所組成的吧。{{delay20}}\n{{anim id=\"FaintSmile\" target=\"actor\" targetSpec=\"\"}}所以請你兩邊都要布置喔。{{pageBreak}}{{anim id=\"EmotEnd\" target=\"actor\" targetSpec=\"\"}}各房間所需的物品{{delay20}}\n{{anim id=\"Nodding\" target=\"actor\" targetSpec=\"\"}}都可以在{{color id=\"1\"}}{{color id=\"65535\"}}的{{delay8}}「{{color id=\"1\"}}訂單{{color id=\"65535\"}}」裡查看喔。{{pageBreak}}{{anim id=\"Greeting\" target=\"actor\" targetSpec=\"\"}}那麼，{{delay20}}作業結束後\n再來跟我說一聲吧！",
      "USen": "Alright then, let's continue {{anim id=\"Hello\" target=\"actor\" targetSpec=\"\"}}designing\nthe hospital.{{pageBreak}}{{anim id=\"Explain\" target=\"actor\" targetSpec=\"\"}}The hospital needs a {{color id=\"1\"}}waiting area\n{{color id=\"65535\"}}and {{color id=\"1\"}}examination room{{color id=\"65535\"}}.{{delay20}} {{anim id=\"Nodding\" target=\"actor\" targetSpec=\"\"}}Press {{color id=\"1\"}} {{color id=\"65535\"}}and\nlook in {{color id=\"1\"}}Order {{color id=\"65535\"}}to see what we'll need.{{pageBreak}}{{anim id=\"Greeting\" target=\"actor\" targetSpec=\"\"}}Let me know when you're done!",
      "USes": "Muy bien,{{anim id=\"Hello\" target=\"actor\" targetSpec=\"\"}}{{delay8}} ya puedes seguir\ndiseñando el hospital.{{pageBreak}}{{anim id=\"FaintSmile\" target=\"actor\" targetSpec=\"\"}}Hay que crear una {{color id=\"1\"}}{{wordInfo gender=\"2\" indefArticle=\"2\" defArticle=\"4\"}}sala de espera\n{{color id=\"65535\"}}y una {{color id=\"1\"}}{{wordInfo gender=\"2\" indefArticle=\"2\" defArticle=\"4\"}}sala de consultas{{color id=\"65535\"}}.{{pageBreak}}{{anim id=\"Explain\" target=\"actor\" targetSpec=\"\"}}Oprime {{color id=\"1\"}} {{color id=\"65535\"}}y selecciona {{color id=\"1\"}}Encargo\n{{color id=\"65535\"}}para ver los objetos que debes usar.{{pageBreak}}{{anim id=\"Hello\" target=\"actor\" targetSpec=\"\"}}Eso es todo.{{delay20}} ¡Avísame cuando\nhayas terminado!",
      "USfr": "Bien,{{anim id=\"Hello\" target=\"actor\" targetSpec=\"\"}} reprenons l'aménagement de\nnotre hôpital.{{pageBreak}}{{anim id=\"Explain\" target=\"actor\" targetSpec=\"\"}}Il doit disposer d'une {{color id=\"1\"}}salle d'attente\n{{color id=\"65535\"}}et d'une {{color id=\"1\"}}salle d'examen{{color id=\"65535\"}}.{{pageBreak}}{{anim id=\"Nodding\" target=\"actor\" targetSpec=\"\"}}Pour voir ce que tu dois installer\ndans chacune de ces zones, appuie\nsur{{color id=\"1\"}}  {{color id=\"65535\"}}et sélectionne {{color id=\"1\"}}Commande{{color id=\"65535\"}}.{{pageBreak}}{{anim id=\"Greeting\" target=\"actor\" targetSpec=\"\"}}Quand tu auras terminé, viens me\nle dire!"
    }
  },
  {
    "label": "061",
    "attribute": "0x00000000",
    "locale": {
      "CNzh": "{{anim id=\"Smiling\" target=\"actor\" targetSpec=\"\"}}辛苦了～！{{delay frames=\"40\"}}\n{{anim id=\"Nodding\" target=\"actor\" targetSpec=\"\"}}多亏了{{string value=\"PlayerName\"}}，{{delay20}}\n气派的医院终于完工了呢！{{pageBreak}}{{anim id=\"Explain\" target=\"actor\" targetSpec=\"\"}}这样一来，即使来度假的客人{{delay20}}\n或是这里的员工有什么身体不适，{{delay20}}\n{{anim id=\"Smiling\" target=\"actor\" targetSpec=\"\"}}也能得到妥善地治疗，总算放心了～",
      "EUde": "{{anim id=\"Smiling\" target=\"actor\" targetSpec=\"\"}}Tolle Arbeit! {{delay20}}{{anim id=\"Nodding\" target=\"actor\" targetSpec=\"\"}}Dank dir konnten wir\ndieses beeindruckende Krankenhaus\nfertigstellen, {{delay8}}{{string value=\"PlayerName\"}}!{{pageBreak}}{{anim id=\"Explain\" target=\"actor\" targetSpec=\"\"}}Wenn nun ein Kunde oder Kollege\nkrank wird, {{delay8}}{{anim id=\"Smiling\" target=\"actor\" targetSpec=\"\"}}kann man ihm dort\nhelfen. {{delay20}}Das ist ein gutes Gefühl!",
      "EUen": "{{anim id=\"Smiling\" target=\"actor\" targetSpec=\"\"}}Great job!{{delay frames=\"40\"}}{{anim id=\"Nodding\" target=\"actor\" targetSpec=\"\"}} Because of you, we were\nable to complete this impressive\nhospital, {{string value=\"PlayerName\"}}!{{pageBreak}}{{anim id=\"Explain\" target=\"actor\" targetSpec=\"\"}}Now if a client or staff member falls\nill,{{delay20}}{{anim id=\"Smiling\" target=\"actor\" targetSpec=\"\"}} we can take good care of them.\nWhat a relief!",
      "EUes": "{{anim id=\"Smiling\" target=\"actor\" targetSpec=\"\"}}¡Has hecho un gran trabajo!{{delay20}}{{anim id=\"Nodding\" target=\"actor\" targetSpec=\"\"}} Gracias\na ti, {{delay8}}al fin contamos con un hospital,\n{{string value=\"PlayerName\"}}.\n{{anim id=\"Explain\" target=\"actor\" targetSpec=\"\"}}A partir de ahora,{{delay8}} si alguno de\nlos clientes o empleados se pone\nenfermo,{{delay8}} todo estará bajo control.\n{{anim id=\"Smiling\" target=\"actor\" targetSpec=\"\"}}¡Es todo un alivio!",
      "EUfr": "{{anim id=\"Smiling\" target=\"actor\" targetSpec=\"\"}}Impressionnant !{{delay frames=\"40\"}}{{anim id=\"Nodding\" target=\"actor\" targetSpec=\"\"}} Grâce à toi, nous\ndisposons d'un magnifique hôpital !{{pageBreak}}{{anim id=\"Explain\" target=\"actor\" targetSpec=\"\"}}À présent, si un client ou l'un d'entre\nnous a un problème de santé, il se\nfera soigner ici.{{delay20}} Quel soulagement !",
      "EUit": "{{anim id=\"Smiling\" target=\"actor\" targetSpec=\"\"}}Congratulazioni!{{delay20}}{{anim id=\"Nodding\" target=\"actor\" targetSpec=\"\"}} Hai fatto davvero\nun ottimo lavoro con l'{{color id=\"1\"}}ospedale{{color id=\"65535\"}},\n{{string value=\"PlayerName\"}}!{{pageBreak}}{{anim id=\"Clapping\" target=\"actor\" targetSpec=\"\"}}Ti meriteresti un certificato che\nattesta il tuo indiscutibile talento!{{pageBreak}}{{anim id=\"Explain\" target=\"actor\" targetSpec=\"\"}}Ora se qualche cliente o dipendente\nsi ammala, {{delay8}}ci sarà chi se ne prenderà\ncura. {{delay20}}{{anim id=\"Smiling\" target=\"actor\" targetSpec=\"\"}}Che sollievo!",
      "EUnl": "{{anim id=\"Smiling\" target=\"actor\" targetSpec=\"\"}}Goed werk!{{delay frames=\"40\"}}{{anim id=\"Nodding\" target=\"actor\" targetSpec=\"\"}} Dankzij jou hebben we nu een indrukwekkend {{color id=\"1\"}}ziekenhuis{{color id=\"65535\"}}, {{string value=\"PlayerName\"}}!{{pageBreak}}{{anim id=\"Explain\" target=\"actor\" targetSpec=\"\"}}Als er nu klanten of personeelsleden\nziek worden,{{delay20}}{{anim id=\"Smiling\" target=\"actor\" targetSpec=\"\"}} kunnen we goed voor\nhen zorgen! Gelukkig!",
      "EUru": "{{anim id=\"Smiling\" target=\"actor\" targetSpec=\"\"}}Молодец, {{string value=\"PlayerName\"}}!{{delay frames=\"40\"}}{{anim id=\"Nodding\" target=\"actor\" targetSpec=\"\"}}\nТвоими стараниями у нас появилась\nтакая шикарная больница!{{pageBreak}}{{anim id=\"Explain\" target=\"actor\" targetSpec=\"\"}}Если клиент или коллега заболеет,{{delay20}}{{anim id=\"Smiling\" target=\"actor\" targetSpec=\"\"}}\nто теперь им окажут надлежащую\nпомощь. Какое облегчение!",
      "JPja": "{{anim id=\"Smiling\" target=\"actor\" targetSpec=\"\"}}お{{ruby charSpan=\"1\" value=\"つか\"}}疲れさま～！{{delay frames=\"40\"}}\n{{anim id=\"Nodding\" target=\"actor\" targetSpec=\"\"}}{{string value=\"PlayerName\"}}ちゃんの　おかげで{{delay20}}\n{{ruby charSpan=\"2\" value=\"りっぱ\"}}立派な　{{ruby charSpan=\"2\" value=\"びょういん\"}}病院が{{ruby charSpan=\"2\" value=\"かんせい\"}}完成したわね！{{pageBreak}}{{anim id=\"Explain\" target=\"actor\" targetSpec=\"\"}}これで　バカンスに{{ruby charSpan=\"1\" value=\"こ\"}}来られた　お{{ruby charSpan=\"2\" value=\"きゃくさま\"}}客様や{{delay20}}\nここのスタッフが　{{ruby charSpan=\"1\" value=\"まん\"}}万が{{ruby charSpan=\"1\" value=\"いち\"}}一　{{ruby charSpan=\"2\" value=\"たいちょう\"}}体調を{{ruby charSpan=\"1\" value=\"くず\"}}崩しても{{delay20}}\n{{anim id=\"Smiling\" target=\"actor\" targetSpec=\"\"}}しっかり{{ruby charSpan=\"2\" value=\"たいおう\"}}対応できて　ひと{{ruby charSpan=\"2\" value=\"あんしん\"}}安心だわ～",
      "KRko": "{{anim id=\"Smiling\" target=\"actor\" targetSpec=\"\"}}수고했어～!{{delay frames=\"40\"}}\n{{anim id=\"Nodding\" target=\"actor\" targetSpec=\"\"}}{{string value=\"PlayerName\"}}{{gender2 m=\"군\" f=\"양\"}} 덕분에{{delay20}}\n훌륭한 병원이 완성됐어!{{pageBreak}}{{anim id=\"Explain\" target=\"actor\" targetSpec=\"\"}}이제 바캉스를 즐기러 온 고객님이나{{delay20}}\n여기 스태프가 혹시라도 몸이 안 좋을 때{{delay20}}\n{{anim id=\"Smiling\" target=\"actor\" targetSpec=\"\"}}갈 곳이 생겨서 안심이야～",
      "TWzh": "{{anim id=\"Smiling\" target=\"actor\" targetSpec=\"\"}}辛苦了～！{{delay frames=\"40\"}}\n{{anim id=\"Nodding\" target=\"actor\" targetSpec=\"\"}}多虧了{{string value=\"PlayerName\"}}的幫忙，{{delay20}}\n這間氣派的醫院才能順利落成！{{pageBreak}}{{anim id=\"Explain\" target=\"actor\" targetSpec=\"\"}}這樣一來，來度假的客人{{delay20}}或是這裡的員工，\n萬一身體有什麼不適，{{delay20}}\n{{anim id=\"Smiling\" target=\"actor\" targetSpec=\"\"}}也都能到醫院看病，我總算放心了～",
      "USen": "{{anim id=\"Smiling\" target=\"actor\" targetSpec=\"\"}}Great job!{{delay frames=\"40\"}}{{anim id=\"Nodding\" target=\"actor\" targetSpec=\"\"}} Because of you, we were\nable to complete this impressive\nhospital, {{string value=\"PlayerName\"}}!{{pageBreak}}{{anim id=\"Explain\" target=\"actor\" targetSpec=\"\"}}Now if a client or staff member falls\nill,{{delay20}}{{anim id=\"Smiling\" target=\"actor\" targetSpec=\"\"}} we can take good care of them.\nWhat a relief!",
      "USes": "{{anim id=\"Smiling\" target=\"actor\" targetSpec=\"\"}}¡Qué gran trabajo!{{delay20}}{{anim id=\"Nodding\" target=\"actor\" targetSpec=\"\"}} Gracias a ti,\n{{delay8}}por fin tenemos un hospital,\n{{string value=\"PlayerName\"}}.\n{{anim id=\"Explain\" target=\"actor\" targetSpec=\"\"}}Ahora,{{delay8}} si alguno de los clientes\no de los empleados se enferma,{{delay8}}\ntodo estará bajo control.\n{{anim id=\"Smiling\" target=\"actor\" targetSpec=\"\"}}¡Qué alivio!",
      "USfr": "{{anim id=\"Smiling\" target=\"actor\" targetSpec=\"\"}}Impressionnant!{{delay frames=\"40\"}}{{anim id=\"Nodding\" target=\"actor\" targetSpec=\"\"}} Grâce à toi, nous\ndisposons d'un magnifique hôpital!{{pageBreak}}{{anim id=\"Explain\" target=\"actor\" targetSpec=\"\"}}À présent, si un client ou l'un d'entre\nnous a un problème de santé, il se\nfera soigner ici.{{delay20}} Quel soulagement!"
    }
  },
  {
    "label": "062",
    "attribute": "0x00000000",
    "locale": {
      "CNzh": "{{anim id=\"Frantic\" target=\"actor\" targetSpec=\"\"}}所以说，{{color id=\"3\"}}巧美{{color id=\"65535\"}}，{{delay20}}\n请小心不要吃太多哦～",
      "EUde": "{{anim id=\"Frantic\" target=\"actor\" targetSpec=\"\"}}Das stimmt ja... {{delay20}}Aber gib trotzdem\nacht, {{delay8}}was du isst, {{delay8}}{{color id=\"3\"}}Karlotta{{color id=\"65535\"}}!",
      "EUen": "{{anim id=\"Frantic\" target=\"actor\" targetSpec=\"\"}}True, true. But just be careful to\nwatch what you eat, {{color id=\"3\"}}Lottie{{color id=\"65535\"}}!",
      "EUes": "{{anim id=\"Frantic\" target=\"actor\" targetSpec=\"\"}}¡Uh!{{delay8}} ¡Ah!{{delay8}} ¡Pero aun así debes tener\ncuidado con los excesos,{{delay8}} {{color id=\"3\"}}Nuria{{color id=\"65535\"}}!",
      "EUfr": "{{anim id=\"Frantic\" target=\"actor\" targetSpec=\"\"}}Sans doute, mais fais tout de même\nattention à ce que tu manges, {{color id=\"3\"}}Lou {{color id=\"65535\"}}!",
      "EUit": "{{anim id=\"Frantic\" target=\"actor\" targetSpec=\"\"}}Uh, uh, {{delay8}}esatto{{string value=\"...\"}} Ma stai comunque\nattenta a cosa mangi, {{color id=\"3\"}}Casimira{{color id=\"65535\"}}!",
      "EUnl": "{{anim id=\"Frantic\" target=\"actor\" targetSpec=\"\"}}Zo is het maar net. Maar wees ook\nvoorzichtig met wat je eet, {{color id=\"3\"}}Lottie{{color id=\"65535\"}}!",
      "EUru": "{{anim id=\"Frantic\" target=\"actor\" targetSpec=\"\"}}Верно, верно. Но все равно, {{color id=\"3\"}}Лотти{{color id=\"65535\"}},\nза питанием надо следить!",
      "JPja": "{{anim id=\"Frantic\" target=\"actor\" targetSpec=\"\"}}だからって　{{color id=\"3\"}}タクミ{{color id=\"65535\"}}さん、{{delay20}}\n{{ruby charSpan=\"1\" value=\"た\"}}食べ{{ruby charSpan=\"1\" value=\"す\"}}過ぎには　{{ruby charSpan=\"1\" value=\"き\"}}気を{{ruby charSpan=\"1\" value=\"つ\"}}付けてくださいねぇ～",
      "KRko": "{{anim id=\"Frantic\" target=\"actor\" targetSpec=\"\"}}{{color id=\"3\"}}솜이{{color id=\"65535\"}}씨{{delay20}}\n그렇다고 또 과식하면 안 돼～",
      "TWzh": "{{anim id=\"Frantic\" target=\"actor\" targetSpec=\"\"}}就算是這樣，{{delay20}}\n{{color id=\"3\"}}巧美{{color id=\"65535\"}}你也要小心不要吃得太多喔～",
      "USen": "{{anim id=\"Frantic\" target=\"actor\" targetSpec=\"\"}}True, true. But just be careful to\nwatch what you eat, {{color id=\"3\"}}Lottie{{color id=\"65535\"}}!",
      "USes": "{{anim id=\"Frantic\" target=\"actor\" targetSpec=\"\"}}¡Uh!{{delay8}} ¡Ah!{{delay8}} ¡Pero de todas formas hay\nque tener cuidado y no excederse,{{delay8}}\n{{color id=\"3\"}}Nuria{{color id=\"65535\"}}!",
      "USfr": "{{anim id=\"Frantic\" target=\"actor\" targetSpec=\"\"}}Sans doute, mais fais tout de même\nattention à ce que tu manges, {{color id=\"3\"}}Lou{{color id=\"65535\"}}!"
    }
  },
  {
    "label": "063",
    "attribute": "0x00000000",
    "locale": {
      "CNzh": "{{anim id=\"ShyBoy\" target=\"actor\" targetSpec=\"\"}}当时让大家担心了～{{delay frames=\"40\"}}\n{{anim id=\"Nodding\" target=\"actor\" targetSpec=\"\"}}现在已经没事了，请放心吧。",
      "EUde": "{{anim id=\"ShyBoy\" target=\"actor\" targetSpec=\"\"}}Ich habe dir neulich einen ziemlichen\nSchrecken eingejagt, {{delay8}}oder? {{delay20}}{{anim id=\"Nodding\" target=\"actor\" targetSpec=\"\"}}Jetzt\ngeht es mir wieder besser.{{pageBreak}}{{anim id=\"FaintSmile\" target=\"actor\" targetSpec=\"\"}}Mach dir bitte keine Sorgen mehr.",
      "EUen": "{{anim id=\"ShyBoy\" target=\"actor\" targetSpec=\"\"}}I really made you all worry that time,\ndidn't I?{{delay frames=\"40\"}}{{anim id=\"Nodding\" target=\"actor\" targetSpec=\"\"}} Well, I'm all better now.{{delay20}}\nThere's no need to worry anymore.",
      "EUes": "{{anim id=\"ShyBoy\" target=\"actor\" targetSpec=\"\"}}Vaya,{{delay8}} todavía os acordáis de eso,\n{{delay8}}¿eh?{{delay20}}{{anim id=\"Nodding\" target=\"actor\" targetSpec=\"\"}} No te preocupes.{{delay20}} ¡Sé que debo\ntener más cuidado en el futuro!",
      "EUfr": "{{anim id=\"ShyBoy\" target=\"actor\" targetSpec=\"\"}}Je vous ai vraiment fait une frayeur\nl'autre fois, pas vrai ?{{delay frames=\"40\"}}{{pageBreak}}{{anim id=\"Nodding\" target=\"actor\" targetSpec=\"\"}}Mais je vais beaucoup mieux\nmaintenant.{{delay20}}{{delay20}} Plus besoin de\ns'inquiéter !",
      "EUit": "{{anim id=\"ShyBoy\" target=\"actor\" targetSpec=\"\"}}Vi ho fatti proprio preoccupare\nquella volta, eh?{{delay20}}{{anim id=\"Nodding\" target=\"actor\" targetSpec=\"\"}} Per fortuna, ora\nsto bene{{string value=\"...\"}} Non pensiamoci più.",
      "EUnl": "{{anim id=\"ShyBoy\" target=\"actor\" targetSpec=\"\"}}Ik heb jullie wel flink laten schrikken,\nhè?{{delay frames=\"40\"}}{{anim id=\"Nodding\" target=\"actor\" targetSpec=\"\"}} Nou, ik ben weer helemaal beter\n{{delay20}}{{anim id=\"Laughing\" target=\"actor\" targetSpec=\"\"}}en zo gezond als een otter!{{pageBreak}}{{anim id=\"Smiling\" target=\"actor\" targetSpec=\"\"}}Maak je dus geen zorgen over mij.",
      "EUru": "{{anim id=\"ShyBoy\" target=\"actor\" targetSpec=\"\"}}Я вас тогда сильно напугала, да?{{delay frames=\"40\"}}{{anim id=\"Nodding\" target=\"actor\" targetSpec=\"\"}}\nНо я уже чувствую себя нормально.\nЧто было, то прошло!",
      "JPja": "{{anim id=\"Serious\" target=\"actor\" targetSpec=\"\"}}あの{{ruby charSpan=\"1\" value=\"とき\"}}時は　{{ruby charSpan=\"2\" value=\"しんぱい\"}}心配かけてごめんね！{{delay frames=\"40\"}}\n{{anim id=\"Smiling\" target=\"actor\" targetSpec=\"\"}}もう{{ruby charSpan=\"3\" value=\"だいじょうぶ\"}}大丈夫だから　{{ruby charSpan=\"2\" value=\"あんしん\"}}安心してちょうだい",
      "KRko": "{{anim id=\"ShyBoy\" target=\"actor\" targetSpec=\"\"}}걱정 끼쳐서 미안했어～{{delay frames=\"40\"}}\n{{anim id=\"Nodding\" target=\"actor\" targetSpec=\"\"}}이제 괜찮으니까 안심해줘",
      "TWzh": "{{anim id=\"ShyBoy\" target=\"actor\" targetSpec=\"\"}}抱歉那時候讓大家擔心了～{{delay frames=\"40\"}}\n{{anim id=\"Nodding\" target=\"actor\" targetSpec=\"\"}}現在不會再那樣了，放心吧。",
      "USen": "{{anim id=\"ShyBoy\" target=\"actor\" targetSpec=\"\"}}I really made you all worry that time,\ndidn't I?{{delay frames=\"40\"}}{{anim id=\"Nodding\" target=\"actor\" targetSpec=\"\"}} Well, I'm all better now.{{delay20}}\nThere's no need to worry anymore.",
      "USes": "{{anim id=\"ShyBoy\" target=\"actor\" targetSpec=\"\"}}Vaya,{{delay8}} todavía se acuerdan de eso,\n{{delay8}}¿eh?{{delay20}}{{anim id=\"Nodding\" target=\"actor\" targetSpec=\"\"}} No se preocupen.{{delay20}} ¡Sé que debo\ntener más cuidado en el futuro!",
      "USfr": "{{anim id=\"ShyBoy\" target=\"actor\" targetSpec=\"\"}}Je vous ai vraiment fait une frayeur\nl'autre fois, pas vrai?{{delay frames=\"40\"}}{{pageBreak}}{{anim id=\"Nodding\" target=\"actor\" targetSpec=\"\"}}Mais je vais beaucoup mieux\nmaintenant.{{delay20}}{{delay20}} Plus besoin de\ns'inquiéter!"
    }
  },
  {
    "label": "064",
    "attribute": "0x00000000",
    "locale": {
      "CNzh": "{{anim id=\"Smiling\" target=\"actor\" targetSpec=\"\"}}好了！{{delay frames=\"30\"}}\n这次{{delay8}}也会根据你的努力给你回报哦。{{delay frames=\"40\"}}\n{{anim id=\"Greeting\" target=\"actor\" targetSpec=\"\"}}那么，{{delay20}}收下{{number value=\"44\" index=\"0\"}}的薪水吧。",
      "EUde": "{{anim id=\"Hello\" target=\"actor\" targetSpec=\"\"}}Da du wie immer hart gearbeitet\nhast, {{delay8}}solltest du anständig entlohnt\nwerden, {{delay20}}mit {{anim id=\"Greeting\" target=\"actor\" targetSpec=\"\"}}{{number value=\"44\" index=\"0\"}}!",
      "EUen": "{{anim id=\"Smiling\" target=\"actor\" targetSpec=\"\"}}Moving on!{{delay frames=\"30\"}} As always, you worked\nreally hard. Your pay should reflect\nthat! So here's {{delay20}}{{anim id=\"Greeting\" target=\"actor\" targetSpec=\"\"}}{{number value=\"44\" index=\"0\"}}!",
      "EUes": "{{anim id=\"Hello\" target=\"actor\" targetSpec=\"\"}}En fin, {{delay8}}¡hora de cobrar!{{delay20}} Como has\ntrabajado muchísimo,{{delay8}} he añadido\nun extra.\n{{anim id=\"BigSmile\" target=\"actor\" targetSpec=\"\"}}Aquí tienes{{string value=\"...\"}}{{delay8}} ¡⁠{{color id=\"1\"}}{{number value=\"44\" index=\"0\"}}{{color id=\"65535\"}}!",
      "EUfr": "{{anim id=\"Smiling\" target=\"actor\" targetSpec=\"\"}}Passons aux choses sérieuses !{{delay frames=\"30\"}} Tu as\ntravaillé dur.{{delay20}}{{anim id=\"Nodding\" target=\"actor\" targetSpec=\"\"}} Assez pour mériter un\nbonus !{{delay20}} Voilà {{delay20}}{{anim id=\"Greeting\" target=\"actor\" targetSpec=\"\"}}{{number value=\"44\" index=\"0\"}} !",
      "EUit": "{{anim id=\"Smiling\" target=\"actor\" targetSpec=\"\"}}Bene!{{delay frames=\"30\"}} Come sempre hai lavorato\nsodo e meriti la giusta retribuzione!\nEccoti {{delay20}}{{anim id=\"Greeting\" target=\"actor\" targetSpec=\"\"}}{{number value=\"44\" index=\"0\"}}!",
      "EUnl": "{{anim id=\"Smiling\" target=\"actor\" targetSpec=\"\"}}Volgende onderwerp!{{delay frames=\"30\"}} Je hebt weer\nhard gewerkt en daar is je loon dan\nook naar. Kijk: {{delay20}}{{anim id=\"Greeting\" target=\"actor\" targetSpec=\"\"}}{{number value=\"44\" index=\"0\"}}!",
      "EUru": "{{anim id=\"Smiling\" target=\"actor\" targetSpec=\"\"}}Ты потрудил{{gender2 m=\"ся\" f=\"ась\"}} на славу, как\nвсегда. Зарплата соответствует\nусилиям: {{delay20}}{{anim id=\"Greeting\" target=\"actor\" targetSpec=\"\"}}вот {{number value=\"44\" index=\"0\"}}!",
      "JPja": "{{anim id=\"Smiling\" target=\"actor\" targetSpec=\"\"}}さてと！{{delay frames=\"30\"}}\n{{ruby charSpan=\"2\" value=\"こんかい\"}}今回も　{{delay8}}アナタの　がんばりに{{ruby charSpan=\"1\" value=\"こた\"}}応えなくちゃ{{delay frames=\"40\"}}\n{{anim id=\"Greeting\" target=\"actor\" targetSpec=\"\"}}さぁ、{{delay20}}お{{ruby charSpan=\"2\" value=\"きゅうりょう\"}}給料の　{{number value=\"44\" index=\"0\"}}を{{ruby charSpan=\"1\" value=\"う\"}}受け{{ruby charSpan=\"1\" value=\"と\"}}取って",
      "KRko": "{{anim id=\"Smiling\" target=\"actor\" targetSpec=\"\"}}자!{{delay8}} 중요한 게 남았지?{{delay frames=\"30\"}}\n이번에도 {{delay8}}열심히 해준 만큼 더 넣었어{{delay frames=\"40\"}}\n{{anim id=\"Greeting\" target=\"actor\" targetSpec=\"\"}}여기, {{delay20}}이번 급여 {{number value=\"44\" index=\"0\"}}를 받아줘",
      "TWzh": "{{anim id=\"Smiling\" target=\"actor\" targetSpec=\"\"}}好了！{{delay frames=\"30\"}}\n這次也要根據{{delay8}}你的努力程度來給你薪水才行。{{delay frames=\"40\"}}\n{{anim id=\"Greeting\" target=\"actor\" targetSpec=\"\"}}來，{{delay20}}請收下{{number value=\"44\" index=\"0\"}}吧。",
      "USen": "{{anim id=\"Smiling\" target=\"actor\" targetSpec=\"\"}}Moving on!{{delay frames=\"30\"}} As always, you worked\nreally hard. Your pay should reflect\nthat! So here's {{delay20}}{{anim id=\"Greeting\" target=\"actor\" targetSpec=\"\"}}{{number value=\"44\" index=\"0\"}}!",
      "USes": "{{anim id=\"Hello\" target=\"actor\" targetSpec=\"\"}}En fin, {{delay8}}¡es hora de cobrar!{{delay20}} Como\ntrabajaste muchísimo,{{delay8}} añadí un extra.\n{{anim id=\"BigSmile\" target=\"actor\" targetSpec=\"\"}}Aquí tienes{{string value=\"...\"}}{{delay8}} ¡⁠{{color id=\"1\"}}{{number value=\"44\" index=\"0\"}}{{color id=\"65535\"}}!",
      "USfr": "{{anim id=\"Smiling\" target=\"actor\" targetSpec=\"\"}}Passons aux choses sérieuses!{{delay frames=\"30\"}} Tu as\ntravaillé dur.{{delay20}}{{anim id=\"Nodding\" target=\"actor\" targetSpec=\"\"}} Assez pour mériter un\nbonus!{{delay20}} Voilà {{delay20}}{{anim id=\"Greeting\" target=\"actor\" targetSpec=\"\"}}{{number value=\"44\" index=\"0\"}}!"
    }
  }
]