﻿[
  {
    "label": "001",
    "text": "À l'attention {{gender4 m=\"de \" f=\"d'\"}}{{string value=\"NickName\"}},"
  },
  {
    "label": "002",
    "text": "À {{gender2 m=\"mon cher ami\" f=\"ma chère amie\"}} {{string value=\"NickName\"}},"
  },
  {
    "label": "003",
    "text": "Hé, {{string value=\"NickName\"}},"
  },
  {
    "label": "004",
    "text": "Pour {{gender2 m=\"mon cher\" f=\"ma chère\"}} {{string value=\"NickName\"}},"
  },
  {
    "label": "005",
    "text": "{{gender2 m=\"Cher\" f=\"Chère\"}} {{string value=\"NickName\"}},"
  },
  {
    "label": "006",
    "text": "À toi, {{gender2 m=\"génial\" f=\"géniale\"}} {{string value=\"NickName\"}},"
  },
  {
    "label": "101",
    "text": "Je tenais à te remercier de ton\ncadeau et de ton gentil message.\nTes mots étaient si bien pensés!\nJ'aimerais te rendre la pareille\net te dire que je suis extrêmement\nheureuse d'être ton amie."
  },
  {
    "label": "102",
    "text": "Les mots ne suffisent pas pour\nexprimer mon émotion lorsque j'ai\nreçu ton cadeau et ta si gentille\ncarte. Tu es si {{gender2 m=\"généreux\" f=\"généreuse\"}}!\nEn guise d'appréciation, j'ai joint\nun cadeau à la présente missive."
  },
  {
    "label": "103",
    "text": "Merci pour ton cadeau, j'ai bien vu\nque tu l'avais choisi avec grand\nsoin. De même, tu m'as rédigé une\ntrès gentille carte. Le moins que\nje puisse faire, c'est te rendre la\npareille avec ce modeste présent."
  },
  {
    "label": "104",
    "text": "Par ta carte, tu m'as tendu la main,\net je tiens à t'en remercier. Elle m'a\nfait beaucoup de bien. Tu sais\ntoujours trouver les mots pour me\nréconforter!"
  },
  {
    "label": "105",
    "text": "Tes cartes sont pleines d'attention,\nsi bien que j'ai bien du mal à te\nrépondre. Je crois que je ne\npourrai jamais égaler ton style,\nmais je compte bien m'en inspirer."
  },
  {
    "label": "106",
    "text": "C'est un plaisir de correspondre\navec quelqu'un d'aussi attentionné\net expressif que toi! J'essaie de\nsuivre ton exemple en m'exprimant\nplus clairement. Dis-moi si je m'en\ntire bien!"
  },
  {
    "label": "201",
    "text": "Merci, {{string value=\"VillagerName\"}}"
  },
  {
    "label": "202",
    "text": "Cordialement, {{string value=\"VillagerName\"}}"
  },
  {
    "label": "203",
    "text": "À très bientôt, {{string value=\"VillagerName\"}}"
  },
  {
    "label": "204",
    "text": "Affectueusement, {{string value=\"VillagerName\"}}"
  },
  {
    "label": "205",
    "text": "Gros bisous, {{string value=\"VillagerName\"}}"
  },
  {
    "label": "206",
    "text": "Réponds-moi! {{capitalizeNextLetter}}{{string value=\"VillagerName\"}}"
  }
]