﻿[
  {
    "label": "Blushing",
    "attribute": "0x0000000000000000",
    "text": "{{anim id=\"QuestionMark\" target=\"actor\" targetSpec=\"\"}}Imagine qu'on te dise : « Bravo, tu\nt'es pas taché{{gender2 m=\"\" f=\"e\"}}, aujourd'hui ! »{{delay frames=\"40\"}}{{anim id=\"Restless\" target=\"actor\" targetSpec=\"\"}} mais\nque tu oses pas dire merci{{string value=\"...\"}}{{pageBreak}}{{anim id=\"BigSmile\" target=\"actor\" targetSpec=\"\"}}Eh bien, ne t'en fais pas !{{delay20}}{{anim id=\"FaintSmile\" target=\"actor\" targetSpec=\"\"}} Il existe\nune mimique parfaite pour ce genre\nde situations !{{delay20}} Regarde !\n{{anim id=\"Blushing\" target=\"actor\" targetSpec=\"\"}}{{string value=\"...\"}}{{string value=\"...\"}}\n{{string value=\"...\"}}{{string value=\"...\"}}{{pageBreak}}{{anim id=\"EmotEnd\" target=\"actor\" targetSpec=\"\"}}Tu vois ?{{delay20}}{{anim id=\"Greeting\" target=\"actor\" targetSpec=\"\"}} On comprend que je suis\nflatté, même si je n'ai pas dit un mot.{{pageBreak}}{{anim id=\"Smiling\" target=\"actor\" targetSpec=\"\"}}Alors, si jamais ta timidité te met\ndans l'{{color id=\"1\"}}embarras{{color id=\"65535\"}}, tu sais quoi faire,\n{{string value=\"6\"}} !"
  },
  {
    "label": "Crying",
    "attribute": "0x0000000000000000",
    "text": "{{anim id=\"Serious\" target=\"actor\" targetSpec=\"\"}}{{capitalizeNextLetter}}{{string value=\"NickName\"}} !{{delay frames=\"40\"}}{{anim id=\"Worried\" target=\"actor\" targetSpec=\"\"}} Je suis sûr que toi aussi, tu as envie de pleurer, des fois, c'est normal !{{pageBreak}}{{anim id=\"Explain\" target=\"actor\" targetSpec=\"\"}}Dans ces moments-là, ne te retiens\npas ! {{delay20}}Laisse-toi aller et pleure autant\nque tu veux !{{pageBreak}}{{anim id=\"Crying\" target=\"actor\" targetSpec=\"\"}}Comme ça !{{pageBreak}}{{anim id=\"EmotEnd\" target=\"actor\" targetSpec=\"\"}}Si tu en as gros sur le cœur, surtout,\nne retiens pas tes {{color id=\"1\"}}pleurs{{color id=\"65535\"}},{{delay20}}{{anim id=\"Greeting\" target=\"actor\" targetSpec=\"\"}} tu verras,\nça soulage."
  },
  {
    "label": "HappyFlower",
    "attribute": "0x0000000000000000",
    "text": "Dis, {{string value=\"NickName\"}},{{delay20}} tu as déjà entendu parler des mimiques ?{{pageBreak}}{{anim id=\"HappyFlower\" target=\"actor\" targetSpec=\"\"}}Par exemple, c'est quand tu es\ncontent et que tu bouges comme ça !{{pageBreak}}{{anim id=\"EmotEnd\" target=\"actor\" targetSpec=\"\"}}Tu as vu ? C'est plus facile de savoir\ncomment je me sens{{delay20}} {{anim id=\"Hello\" target=\"actor\" targetSpec=\"\"}}que si je ne fais\nque parler.{{pageBreak}}{{anim id=\"Smiling\" target=\"actor\" targetSpec=\"\"}}Si tu veux utiliser une mimique,\nappuie sur {{color id=\"1\"}}{{color id=\"65535\"}} !{{delay frames=\"40\"}} Tu verras, c'est super\nrigolo, {{string value=\"6\"}} !"
  },
  {
    "label": "Hesitate",
    "attribute": "0x0000000000000000",
    "text": "{{anim id=\"Hesitate\" target=\"actor\" targetSpec=\"\"}}Dis-moi, {{string value=\"NickName\"}},{{delay20}} est-ce que ça se voit que je suis tout timide en ce moment ?{{pageBreak}}{{anim id=\"Smiling\" target=\"actor\" targetSpec=\"\"}}Hé hé,{{delay20}} si jamais parfois tu te sens\nenvahi par la {{color id=\"1\"}}timidité{{color id=\"65535\"}}, c'est la\nmimique parfaite pour le montrer.{{pageBreak}}{{anim id=\"Hesitate\" target=\"actor\" targetSpec=\"\"}}Enfin{{string value=\"...\"}} si tu veux{{string value=\"...\"}}{{i10_4}} {{anim id=\"Laughing\" target=\"actor\" targetSpec=\"\"}}J'adore les\nmimiques,{{delay8}} pas toi ?"
  },
  {
    "label": "Oops",
    "attribute": "0x0000000000000000",
    "text": "{{anim id=\"Thinking\" target=\"actor\" targetSpec=\"\"}}Aujourd'hui, j'avais envie de te\nmontrer une {{color id=\"1\"}}mimique{{color id=\"65535\"}}{{string value=\"...\"}} C'était quoi,\ndéjà{{string value=\"...\"}}?{{pageBreak}}{{anim id=\"Worried\" target=\"actor\" targetSpec=\"\"}}Hmm{{string value=\"...\"}}{{delay frames=\"40\"}}{{anim id=\"Oops\" target=\"actor\" targetSpec=\"\"}} Zut, j'ai oublié !{{pageBreak}}{{anim id=\"EmotEnd\" target=\"actor\" targetSpec=\"\"}}{{string value=\"...\"}}{{anim id=\"Aha\" target=\"actor\" targetSpec=\"\"}} Ah ben c'était celle-là !{{delay20}} Si tu as\noublié quelque chose, ou que tu as\nfait une {{color id=\"1\"}}gaffe{{color id=\"65535\"}}, ferme les yeux et{{string value=\"...\"}}{{delay20}}{{anim id=\"Oops\" target=\"actor\" targetSpec=\"\"}}{{pageBreak}}{{anim id=\"EmotEnd\" target=\"actor\" targetSpec=\"\"}}Des fois{{string value=\"...\"}}{{delay20}}{{anim id=\"Oops\" target=\"actor\" targetSpec=\"\"}} c'est rigolo de le faire\njuste comme ça{{string value=\"...\"}}{{delay20}}{{anim id=\"Oops\" target=\"actor\" targetSpec=\"\"}} pour voir la petite\nétoile qui tombe d'on sait pas où !"
  },
  {
    "label": "SmugFace",
    "attribute": "0x0000000000000000",
    "text": "{{anim id=\"Pardon\" target=\"actor\" targetSpec=\"\"}}{{capitalizeNextLetter}}{{string value=\"NickName\"}}, aujourd'hui, je vais t'apprendre ma mimique préférée !{{pageBreak}}{{anim id=\"Nodding\" target=\"actor\" targetSpec=\"\"}}Tu peux l'utiliser quand tu veux te\nvanter,{{delay20}}{{anim id=\"Greeting\" target=\"actor\" targetSpec=\"\"}} ou qu'il t'arrive quelque\nchose de super cool !{{pageBreak}}{{anim id=\"EmotEnd\" target=\"actor\" targetSpec=\"\"}}Tu es prêt{{gender2 m=\"\" f=\"e\"}} ?{{delay20}}{{anim id=\"SmugFace\" target=\"actor\" targetSpec=\"\"}} « J'ai gagné mon poids\nen {{randomSweets}} ! »{{pageBreak}}{{anim id=\"Smiling\" target=\"actor\" targetSpec=\"\"}}Hé hé !{{delay20}} Si tu te sens plein{{gender2 m=\"\" f=\"e\"}} de{{color id=\"1\"}} fierté{{color id=\"65535\"}},{{delay20}}\nn'hésite pas à bomber le torse\ncomme ça, {{string value=\"6\"}} !"
  }
]