﻿[
  {
    "label": "001",
    "attribute": "0x0000000100000000",
    "text": "{{anim id=\"Greeting\" target=\"actor\" targetSpec=\"\"}}Dis{{string value=\"...\"}} tu aurais une seconde ?{{pageBreak}}Voilà, je voulais te dire{{string value=\"...\"}} Euh{{string value=\"...\"}}{{delay40}}\n{{anim id=\"QuestionMark\" target=\"actor\" targetSpec=\"\"}}Qu'est-ce que je voulais te dire,\ndéjà ?{{delay20}}{{anim id=\"EmotEnd\" target=\"actor\" targetSpec=\"\"}} Désolé, j'ai oublié{{string value=\"...\"}}"
  },
  {
    "label": "002",
    "attribute": "0x0000000100000000",
    "text": "{{anim id=\"Aha\" target=\"actor\" targetSpec=\"\"}}Tu devineras jamais !{{delay40}}{{anim id=\"Thinking\" target=\"actor\" targetSpec=\"\"}} Euh{{string value=\"...\"}} Eh ben,\nen fait, euh{{string value=\"...\"}}{{delay40}}{{anim id=\"Blushing\" target=\"actor\" targetSpec=\"\"}} Moi non plus{{string value=\"...\"}}"
  },
  {
    "label": "003",
    "attribute": "0x0000000100000000",
    "text": "{{anim id=\"Thinking\" target=\"actor\" targetSpec=\"\"}}Il y avait un truc qui me tracassait{{string value=\"...\"}}{{delay20}}\nC'est bizarre.{{delay frames=\"80\"}}{{anim id=\"ShyBoy\" target=\"actor\" targetSpec=\"\"}} J'arrive pas à me\nsouvenir ce que c'était{{string value=\"...\"}}"
  },
  {
    "label": "004",
    "attribute": "0x0000000100000000",
    "text": "{{anim id=\"Thinking\" target=\"actor\" targetSpec=\"\"}}Euh{{string value=\"...\"}}{{delay frames=\"80\"}}{{anim id=\"WrySmile\" target=\"actor\" targetSpec=\"\"}} J'ai été tellement surpris de\ntomber sur toi que j'ai oublié\npourquoi je voulais te voir."
  }
]