﻿[
  {
    "label": "002",
    "attribute": "0x00000000",
    "text": "{{anim id=\"Nodding\" target=\"actor\" targetSpec=\"\"}}Mi sento tranquillo a lasciar fare a te,\ntigrott{{gender2 m=\"o\" f=\"a\"}}.{{delay20}} {{anim id=\"Smiling\" target=\"actor\" targetSpec=\"\"}}Buona fortuna!"
  },
  {
    "label": "003",
    "attribute": "0x01000000",
    "text": "{{anim id=\"Smiling\" target=\"actor\" targetSpec=\"\"}}Che delizia!{{delay20}} Che duplice delizia,{{delay8}}\noserei dire!{{delay20}} {{anim id=\"Thinking\" target=\"actor\" targetSpec=\"\"}}Ora ho l'imbarazzo\ndella scelta{{string value=\"...\"}}{{pageBreak}}Toglimi una curiosità,{{delay8}} tigrott{{gender2 m=\"o\" f=\"a\"}}:{{anim id=\"QuestionMark\" target=\"actor\" targetSpec=\"\"}}{{delay20}}\ntu cosa mi consiglieresti?"
  },
  {
    "label": "003_01",
    "attribute": "0x00000000",
    "text": "{{anim id=\"FaintSmile\" target=\"actor\" targetSpec=\"\"}}Sapere di essere nei tuoi pensieri\nmi scalda il cuore.{{delay20}} {{anim id=\"Smiling\" target=\"actor\" targetSpec=\"\"}}Sono emozionato\nall'idea di scoprire cosa mi proporrai!"
  },
  {
    "label": "003_03",
    "attribute": "0x00000000",
    "text": "{{anim id=\"Nodding\" target=\"actor\" targetSpec=\"\"}}Hai scelto una località sopraffina!{{delay20}}\n{{anim id=\"FaintSmile\" target=\"actor\" targetSpec=\"\"}}Questo vecchio leone di mare è\nansioso di vederla con i suoi occhi!"
  },
  {
    "label": "003_04",
    "attribute": "0x00000000",
    "text": "Ebbene sì,{{delay8}}{{anim id=\"Nodding\" target=\"actor\" targetSpec=\"\"}} si direbbe che io\nabbia nuovamente bisogno\ndei tuoi servigi, tigrott{{gender2 m=\"o\" f=\"a\"}}."
  },
  {
    "label": "003_a",
    "attribute": "0x00000000",
    "text": "Una casa a un piano."
  },
  {
    "label": "003_b",
    "attribute": "0x00000000",
    "text": "Una casa a due piani."
  },
  {
    "label": "004",
    "attribute": "0x00000000",
    "text": "{{anim id=\"Laughing\" target=\"actor\" targetSpec=\"\"}}Uah ah ah!{{delay20}}{{anim id=\"Smiling\" target=\"actor\" targetSpec=\"\"}} Perché arrovellarmi\nil cervello quando posso contare\nsull'aiuto di {{gender2 m=\"un\" f=\"una\"}} professionista?\n{{anim id=\"Nodding\" target=\"actor\" targetSpec=\"\"}}Che la casa abbia un piano, {{delay8}}dunque."
  },
  {
    "label": "005",
    "attribute": "0x00000000",
    "text": "{{anim id=\"Laughing\" target=\"actor\" targetSpec=\"\"}}Uah ah ah!{{delay20}}{{anim id=\"Smiling\" target=\"actor\" targetSpec=\"\"}} Perché arrovellarmi\nil cervello quando posso contare\nsull'aiuto di {{gender2 m=\"un\" f=\"una\"}} professionista?\n{{anim id=\"Nodding\" target=\"actor\" targetSpec=\"\"}}Che la casa abbia due piani, {{delay8}}dunque."
  }
]