﻿[
  {
    "label": "001",
    "attribute": "0x0000000000000000",
    "text": "{{fun_0014003C arg=\"\"}}"
  },
  {
    "label": "001_01",
    "attribute": "0x0000000000000000",
    "text": "{{anim id=\"Explain\" target=\"actor\" targetSpec=\"\"}}昨天因为收到了圣诞老人的礼物，{{delay8}}\n实在太开心了，{{delay20}}\n{{anim id=\"HappyDance\" target=\"actor\" targetSpec=\"\"}}于是睡觉的时候梦见了圣诞老人！{{pageBreak}}{{anim id=\"Nodding\" target=\"actor\" targetSpec=\"\"}}这都是多亏了你{{delay20}}\n平安把礼物送到我手上啊！{{delay40}}\n{{anim id=\"BigSmile\" target=\"actor\" targetSpec=\"\"}}谢谢你啦！{{delay8}}{{string value=\"NickName\"}}！{{anim id=\"FaintSmile\" target=\"actor\" targetSpec=\"\"}}"
  },
  {
    "label": "001_02",
    "attribute": "0x0000000000000000",
    "text": "{{anim id=\"Smiling\" target=\"actor\" targetSpec=\"\"}}因为昨天{{delay20}}收到了\n圣诞老人的礼物，{{delay frames=\"30\"}}\n{{anim id=\"HappyFlower\" target=\"actor\" targetSpec=\"\"}}所以我今天也还是很兴奋哦！{{pageBreak}}{{anim id=\"EmotEnd\" target=\"actor\" targetSpec=\"\"}}借着这股劲，{{delay20}}\n明年我也要获得礼物！{{string value=\"6\"}}。"
  },
  {
    "label": "002",
    "attribute": "0x0000000000000000",
    "text": "{{fun_0014003C arg=\"\"}}"
  },
  {
    "label": "002_01",
    "attribute": "0x0000000000000000",
    "text": "{{anim id=\"Nodding\" target=\"actor\" targetSpec=\"\"}}{{string value=\"NickName\"}}，{{delay20}}\n谢谢你送来圣诞礼物！{{delay40}}\n{{anim id=\"Smiling\" target=\"actor\" targetSpec=\"\"}}我超开心的哦！{{pageBreak}}{{anim id=\"ShyBoy\" target=\"actor\" targetSpec=\"\"}}因为这个，{{delay8}}你变成了圣诞老人，{{delay20}}\n出现在我梦里啦！{{string value=\"6\"}}。"
  },
  {
    "label": "002_02",
    "attribute": "0x0000000000000000",
    "text": "{{anim id=\"Hello\" target=\"actor\" targetSpec=\"\"}}昨天的圣诞礼物，{{delay20}}\n谢谢你啦！{{pageBreak}}{{anim id=\"Blushing\" target=\"actor\" targetSpec=\"\"}}我实在太高兴了，{{delay20}}醒过来的时候\n才发现竟然抱着礼物睡着了！{{delay40}}\n{{anim id=\"Greeting\" target=\"actor\" targetSpec=\"\"}}那么明年也拜托你啦！{{string value=\"6\"}}。"
  },
  {
    "label": "003",
    "attribute": "0x0000000000000000",
    "text": "{{fun_0014003C arg=\"\"}}"
  },
  {
    "label": "003_01",
    "attribute": "0x0000000000000000",
    "text": "{{anim id=\"Nodding\" target=\"actor\" targetSpec=\"\"}}嘿嘿，{{delay20}}昨天收到了{{string value=\"NickName\"}}{{delay8}}\n和圣诞老人的双重礼物，{{delay8}}\n{{anim id=\"FaintSmile\" target=\"actor\" targetSpec=\"\"}}真是超级棒的一天啊！{{pageBreak}}{{anim id=\"Explain\" target=\"actor\" targetSpec=\"\"}}圣诞老人给的礼物当然很叫人高兴，{{delay frames=\"30\"}}\n{{anim id=\"HappyFlower\" target=\"actor\" targetSpec=\"\"}}但还是{{delay8}}来自对手的礼物{{delay20}}\n能让人感受到成倍的快乐呢！{{string value=\"6\"}}。"
  },
  {
    "label": "003_02",
    "attribute": "0x0000000000000000",
    "text": "{{anim id=\"BigSmile\" target=\"actor\" targetSpec=\"\"}}昨天的礼物，谢谢啦！{{delay40}}\n{{anim id=\"Blushing\" target=\"actor\" targetSpec=\"\"}}能收到你和圣诞老人的\n双重礼物，{{delay20}}我很开心哦！{{pageBreak}}{{anim id=\"Nodding\" target=\"actor\" targetSpec=\"\"}}你果然是我最棒的对手，{{delay20}}\n同时也是我最好的朋友！{{delay40}}\n{{anim id=\"Hello\" target=\"actor\" targetSpec=\"\"}}期待你明年的礼物哦！{{string value=\"6\"}}。"
  },
  {
    "label": "004",
    "attribute": "0x0000000000000000",
    "text": "{{fun_0014003C arg=\"\"}}"
  },
  {
    "label": "004_01",
    "attribute": "0x0000000000000000",
    "text": "今天是圣诞节，{{delay20}}\n{{anim id=\"Hello\" target=\"actor\" targetSpec=\"\"}}你有没有{{delay8}}什么计划啊？{{pageBreak}}{{anim id=\"Nodding\" target=\"actor\" targetSpec=\"\"}}唔，{{delay8}}不管是不是圣诞节，{{delay20}}\n{{anim id=\"Laughing\" target=\"actor\" targetSpec=\"\"}}我的锻炼计划\n都排得满满当当啊！{{string value=\"6\"}}。"
  },
  {
    "label": "004_02",
    "attribute": "0x0000000000000000",
    "text": "昨天不是平安夜吗？{{delay40}}\n{{anim id=\"ShyBoy\" target=\"actor\" targetSpec=\"\"}}我想着{{delay8}}要是能见到圣诞老人就好了，{{delay20}}\n{{anim id=\"Negative\" target=\"actor\" targetSpec=\"\"}}于是晚上一直在努力熬夜。{{pageBreak}}{{anim id=\"WrySmile\" target=\"actor\" targetSpec=\"\"}}醒过来才发现原来还是睡着了，{{delay frames=\"30\"}}\n{{anim id=\"OhGeez\" target=\"actor\" targetSpec=\"\"}}结果今年也没能见到圣诞老人啊。{{string value=\"6\"}}。"
  }
]