﻿[
  {
    "label": "002",
    "attribute": "0x0000000000000000",
    "text": "{{anim id=\"Eh\" target=\"actor\" targetSpec=\"\"}}Meen je dat echt, lieve schat?{{delay frames=\"40\"}}{{anim id=\"Blushing\" target=\"actor\" targetSpec=\"\"}} Dat wij\ntweetjes hier allebei zouden wonen?{{pageBreak}}{{anim id=\"HappyDance\" target=\"actor\" targetSpec=\"\"}}Dit eiland heeft geen idee wat het te\nwachten staat, {{string value=\"6\"}}!{{pageBreak}}{{anim id=\"Smiling\" target=\"actor\" targetSpec=\"\"}}Ik zal natuurlijk bij de {{color id=\"1\"}}servicebalie{{color id=\"65535\"}}\ninformeren of het geen probleem is,\nmaar mij lijkt het fantastisch!"
  },
  {
    "label": "003",
    "attribute": "0x0000000000000000",
    "text": "{{anim id=\"Surprised\" target=\"actor\" targetSpec=\"\"}}Ik heb je uitnodiging afgewezen,{{delay8}}\nmaar je wilt nog steeds dat ik naar\nje eiland verhuis!{{pageBreak}}{{anim id=\"Love\" target=\"actor\" targetSpec=\"\"}}Ik moet eerlijk toegeven dat dat\nvreselijk goed voelt. {{delay frames=\"40\"}}{{anim id=\"Grin\" target=\"actor\" targetSpec=\"\"}}Een heuse\noppepper voor mijn ego!{{pageBreak}}{{anim id=\"Nodding\" target=\"actor\" targetSpec=\"\"}}Goed dan, {{delay20}}ik zal even informeren bij\nde {{color id=\"1\"}}servicebalie{{color id=\"65535\"}}.{{pageBreak}}{{anim id=\"Smiling\" target=\"actor\" targetSpec=\"\"}}Als ik van hen toestemming krijg,\nzet ik de verhuizing in gang, {{string value=\"6\"}}."
  },
  {
    "label": "101",
    "attribute": "0x0000000000000000",
    "text": "{{fun_0014003C arg=\"\"}}"
  },
  {
    "label": "101_01",
    "attribute": "0x0000000000000000",
    "text": "{{anim id=\"Smiling\" target=\"actor\" targetSpec=\"\"}}Wat ben je toch een schat!{{delay frames=\"40\"}}{{anim id=\"Negative\" target=\"actor\" targetSpec=\"\"}} Helaas{{string value=\"...\"}}{{delay frames=\"13\"}}\nmoet ik nee zeggen.{{delay20}} Er wordt thuis\nop me gewacht.{{pageBreak}}{{anim id=\"Explain\" target=\"actor\" targetSpec=\"\"}}Ik ben namelijk met meerdere\nprojecten bezig en ik kan de anderen\nthuis niet in de steek laten.{{pageBreak}}{{anim id=\"Negative\" target=\"actor\" targetSpec=\"\"}}Lieverd, het is niet makkelijk om zo\npopulair te zijn. {{delay frames=\"40\"}}{{anim id=\"Grin\" target=\"actor\" targetSpec=\"\"}}Daar weet jij\nnatuurlijk alles van, {{string value=\"6\"}}."
  },
  {
    "label": "101_02",
    "attribute": "0x0000000000000000",
    "text": "{{anim id=\"Eh\" target=\"actor\" targetSpec=\"\"}}Lieve deugd!{{delay frames=\"13\"}} Meen je dat oprecht?{{delay20}}\n{{anim id=\"Smiling\" target=\"actor\" targetSpec=\"\"}}Zo'n aardig aanbod had ik in mijn\nwildste dromen niet verwacht.{{pageBreak}}{{anim id=\"Worried\" target=\"actor\" targetSpec=\"\"}}Maar{{string value=\"...\"}}{{delay frames=\"13\"}} ik moet helaas nee zeggen.{{delay frames=\"40\"}}\n{{anim id=\"Negative\" target=\"actor\" targetSpec=\"\"}}Ik kan op het moment niet verhuizen.{{pageBreak}}{{anim id=\"Blushing\" target=\"actor\" targetSpec=\"\"}}Het zit zo{{delay frames=\"13\"}} dat ik gesteld ben op mijn\nhuidige eiland, ondanks{{string value=\"...\"}}{{delay20}}{{anim id=\"Smiling\" target=\"actor\" targetSpec=\"\"}} of juist\ndoor{{string value=\"...\"}} alle kleine tekortkomingen."
  },
  {
    "label": "101_03",
    "attribute": "0x0000000000000000",
    "text": "{{anim id=\"Eh\" target=\"actor\" targetSpec=\"\"}}Wat zeg je? {{delay frames=\"13\"}}Het lijkt je leuk als ik\nhierheen verhuis? {{delay20}}{{anim id=\"Hesitate\" target=\"actor\" targetSpec=\"\"}}Zo'n vraag had ik\nnooit van mijn leven verwacht{{string value=\"...\"}}{{pageBreak}}{{anim id=\"Negative\" target=\"actor\" targetSpec=\"\"}}Helaas zal dat niet gaan{{string value=\"...\"}} {{delay frames=\"40\"}}{{anim id=\"Sighing\" target=\"actor\" targetSpec=\"\"}}Ik heb een\nhele lijst aan dingen die ik op mijn\nhuidige eiland wil doen.{{pageBreak}}{{anim id=\"Thinking\" target=\"actor\" targetSpec=\"\"}}Maar wie weet {{delay frames=\"13\"}}bedenk ik me later en\nkom ik hier alsnog wonen.{{delay frames=\"40\"}} {{anim id=\"FaintSmile\" target=\"actor\" targetSpec=\"\"}}Ik zal het\nzeker in gedachten houden."
  },
  {
    "label": "201_01",
    "attribute": "0x0000010000000000",
    "text": "{{anim id=\"BigSmile\" target=\"actor\" targetSpec=\"\"}}Wat een wild idee!{{delay frames=\"35\"}}{{anim id=\"Nodding\" target=\"actor\" targetSpec=\"\"}} Voor dat soort\nwilde ideeën ben ik meestal wel te\nporren.{{pageBreak}}{{anim id=\"Worried\" target=\"actor\" targetSpec=\"\"}}Maar of ik mijn hele leven overhoop\nzou gooien{{string value=\"...\"}}{{delay20}} dat weet ik nog zo net\nniet.{{delay frames=\"13\"}}{{anim id=\"Negative\" target=\"actor\" targetSpec=\"\"}} Er is niets mis met mijn eiland.{{pageBreak}}{{anim id=\"Thinking\" target=\"actor\" targetSpec=\"\"}}Al zijn er hier natuurlijk wel veel\nmogelijkheden om iets nieuws te\nbeginnen.{{delay frames=\"13\"}} Wat een lastige keuze.{{pageBreak}}{{anim id=\"IdeaBulb\" target=\"actor\" targetSpec=\"\"}}Ah! Ik weet nog iets wilds!{{delay frames=\"40\"}} {{anim id=\"Smiling\" target=\"actor\" targetSpec=\"\"}}We\nzouden{{string value=\"...\"}}{{delay20}} {{anim id=\"Aha\" target=\"actor\" targetSpec=\"\"}}een spelletje kunnen\nspelen om te bepalen wat ik doe.{{pageBreak}}{{anim id=\"Explain\" target=\"actor\" targetSpec=\"\"}}Als jij wint, kom ik hier wonen. {{delay20}}Zo\nsimpel zal het zijn.{{delay20}}{{anim id=\"Grin\" target=\"actor\" targetSpec=\"\"}} Er wordt niet\ngeklaagd over het resultaat.\n{{anim id=\"Greeting\" target=\"actor\" targetSpec=\"\"}}Het is een onconventionele manier\nom een beslissing te nemen, {{delay frames=\"13\"}}{{anim id=\"SmugFace\" target=\"actor\" targetSpec=\"\"}}maar\ndat past wel bij mij.{{delay frames=\"40\"}} {{anim id=\"Smiling\" target=\"actor\" targetSpec=\"\"}}Doen we het zo?"
  },
  {
    "label": "201_01_a",
    "attribute": "0x0000000000000000",
    "text": "Klinkt leuk!"
  },
  {
    "label": "201_01_b",
    "attribute": "0x0000000000000000",
    "text": "Mij te riskant."
  },
  {
    "label": "201_02",
    "attribute": "0x0000010000000000",
    "text": "{{anim id=\"Laughing\" target=\"actor\" targetSpec=\"\"}}Hohoho!{{delay frames=\"13\"}} Wat een hilarisch gevoel\nvoor humor heb je toch. {{delay20}}{{anim id=\"Smiling\" target=\"actor\" targetSpec=\"\"}}Mijn boeltje\npakken en hier intrekken?{{delay frames=\"13\"}} Kostelijk!{{pageBreak}}{{anim id=\"Shocked\" target=\"actor\" targetSpec=\"\"}}O!{{delay frames=\"13\"}} Je meent het serieus?{{delay20}}{{anim id=\"Explain\" target=\"actor\" targetSpec=\"\"}} Welnu, {{delay frames=\"13\"}}dan\nga ik gelijk pakken en mijn verhuizing\nregelen!{{pageBreak}}{{anim id=\"Grin\" target=\"actor\" targetSpec=\"\"}}Dat was een grapje van mij.{{delay20}} Niet dat\nhet geen vriendelijk aanbod is.{{anim id=\"OhGeez\" target=\"actor\" targetSpec=\"\"}} Ik\nmoet simpelweg even nadenken.{{pageBreak}}{{anim id=\"Thinking\" target=\"actor\" targetSpec=\"\"}}Hmm.{{delay20}} Ik heb ergens wel zin in een\nverzetje, {{delay frames=\"13\"}}dus{{string value=\"...\"}}{{delay20}}{{anim id=\"IdeaBulb\" target=\"actor\" targetSpec=\"\"}} laten we er een\nspelletje om spelen.{{pageBreak}}{{anim id=\"Explain\" target=\"actor\" targetSpec=\"\"}}Als jij het spel wint, verhuis ik\nhierheen.{{delay frames=\"40\"}} {{anim id=\"Hesitate\" target=\"actor\" targetSpec=\"\"}}Wat zeg je daarvan, lieve\nschat?"
  },
  {
    "label": "201_02_a",
    "attribute": "0x0000000000000000",
    "text": "Dat doen we."
  },
  {
    "label": "201_02_b",
    "attribute": "0x0000000000000000",
    "text": "Nee, mooi niet!"
  },
  {
    "label": "201_03",
    "attribute": "0x0000010000000000",
    "text": "{{anim id=\"Eh\" target=\"actor\" targetSpec=\"\"}}Och, jeetje.{{delay frames=\"13\"}} Je meent het oprecht,\nnietwaar?{{delay20}} {{anim id=\"Confused\" target=\"actor\" targetSpec=\"\"}}Maar{{string value=\"...\"}} wat moet ik nu\ndoen?{{delay frames=\"13\"}} Blijf ik? {{delay frames=\"13\"}}Ga ik?{{pageBreak}}{{anim id=\"Sighing\" target=\"actor\" targetSpec=\"\"}}Dit is moeilijker dan ik zou denken.{{delay frames=\"40\"}}\nWelk levenspad zal ik kiezen?{{pageBreak}}{{anim id=\"Aha\" target=\"actor\" targetSpec=\"\"}}O! Ik weet iets! {{delay frames=\"13\"}}We laten het aan het\ntoeval over! {{delay20}}{{anim id=\"Explain\" target=\"actor\" targetSpec=\"\"}}We spelen een spel{{delay frames=\"13\"}} en\nals jij wint, verhuis ik hierheen{{string value=\"...\"}}{{pageBreak}}{{anim id=\"FaintSmile\" target=\"actor\" targetSpec=\"\"}}Best een origineel idee, al zeg ik het\nzelf.{{delay frames=\"40\"}}{{anim id=\"Hello\" target=\"actor\" targetSpec=\"\"}} Het is het proberen waard, vind\nje ook niet, {{string value=\"6\"}}?"
  },
  {
    "label": "201_03_a",
    "attribute": "0x0000000000000000",
    "text": "Ik speel mee!"
  },
  {
    "label": "201_03_b",
    "attribute": "0x0000000000000000",
    "text": "Nee, dank je."
  },
  {
    "label": "202_01",
    "attribute": "0x0000000000000000",
    "text": "{{anim id=\"Eh\" target=\"actor\" targetSpec=\"\"}}Ah.{{delay frames=\"13\"}} Ik snap het.{{delay20}} {{anim id=\"OhGeez\" target=\"actor\" targetSpec=\"\"}}Niet iedereen is\nnatuurlijk gemaakt voor wilde\nuitdagingen, {{string value=\"6\"}}."
  },
  {
    "label": "202_02",
    "attribute": "0x0000000000000000",
    "text": "{{anim id=\"Grin\" target=\"actor\" targetSpec=\"\"}}Je vindt het te riskant?{{delay frames=\"13\"}} Ik begrijp\nhet.{{delay frames=\"13\"}} Dat meen ik!{{delay20}}{{anim id=\"FaintSmile\" target=\"actor\" targetSpec=\"\"}} Kom met me praten\nals je van gedachten verandert."
  },
  {
    "label": "202_03",
    "attribute": "0x0000000000000000",
    "text": "{{anim id=\"Eh\" target=\"actor\" targetSpec=\"\"}}Echt? {{delay frames=\"13\"}}Wil je het niet proberen?{{delay20}}{{anim id=\"OhGeez\" target=\"actor\" targetSpec=\"\"}} Wel, {{delay frames=\"13\"}}\ndan zal ik niet aandringen."
  },
  {
    "label": "203_01",
    "attribute": "0x0000000000000000",
    "text": "{{anim id=\"Clapping\" target=\"actor\" targetSpec=\"\"}}Uitstekend!{{delay frames=\"13\"}} Uitstekend!{{delay20}}{{anim id=\"Smiling\" target=\"actor\" targetSpec=\"\"}} In dat geval{{delay frames=\"13\"}}\nkan het spel beginnen!"
  },
  {
    "label": "204",
    "attribute": "0x0000000000000000",
    "text": "{{fun_0014003C arg=\"\"}}"
  },
  {
    "label": "204_01",
    "attribute": "0x0000000000000000",
    "text": "{{anim id=\"BigSmile\" target=\"actor\" targetSpec=\"\"}}En dat betekent dat ik win!{{delay frames=\"40\"}}{{anim id=\"EmotEnd\" target=\"actor\" targetSpec=\"\"}} Ik vind\nhet enorm rot voor je."
  },
  {
    "label": "204_02",
    "attribute": "0x0000000000000000",
    "text": "Wat betekent {{delay20}}{{anim id=\"SmugFace\" target=\"actor\" targetSpec=\"\"}}dat ik win, lieverd.{{delay frames=\"40\"}}\n{{anim id=\"Negative\" target=\"actor\" targetSpec=\"\"}}Laten we niet pruilen om het\nresultaat."
  },
  {
    "label": "204_03",
    "attribute": "0x0000000000000000",
    "text": "Zo eindigt het spel{{delay frames=\"13\"}} {{anim id=\"BigSmile\" target=\"actor\" targetSpec=\"\"}}met mij als\nwinnares!{{delay frames=\"40\"}}{{anim id=\"WrySmile\" target=\"actor\" targetSpec=\"\"}} Beloof me dat je hier niet\nboos om wordt."
  },
  {
    "label": "205",
    "attribute": "0x0000000000000000",
    "text": "{{fun_0014003C arg=\"\"}}"
  },
  {
    "label": "205_01",
    "attribute": "0x0000000000000000",
    "text": "{{anim id=\"FaintSmile\" target=\"actor\" targetSpec=\"\"}}Bedankt voor het leuke spelletje,\nlieve schat.{{pageBreak}}{{anim id=\"Negative\" target=\"actor\" targetSpec=\"\"}}Ik kom hier dus niet te wonen. {{delay20}}Maar\nals je nog eens zin hebt om te\nspelen,{{delay frames=\"13\"}}{{anim id=\"FaintSmile\" target=\"actor\" targetSpec=\"\"}} laat je het maar weten."
  },
  {
    "label": "205_02",
    "attribute": "0x0000000000000000",
    "text": "{{anim id=\"FaintSmile\" target=\"actor\" targetSpec=\"\"}}Het was verrassend leuk om met je te\nspelen!{{delay frames=\"40\"}}{{anim id=\"EmotEnd\" target=\"actor\" targetSpec=\"\"}} Daardoor{{string value=\"...\"}}{{delay20}}{{anim id=\"Sighing\" target=\"actor\" targetSpec=\"\"}} is het des te\nspijtiger{{delay frames=\"13\"}} dat ik hier niet kom wonen.{{pageBreak}}{{anim id=\"Explain\" target=\"actor\" targetSpec=\"\"}}Maar ik neem mooie herinneringen\nmet me mee.{{delay frames=\"40\"}} {{anim id=\"Smiling\" target=\"actor\" targetSpec=\"\"}}Dank je wel voor je\ngastvrijheid!"
  },
  {
    "label": "205_03",
    "attribute": "0x0000000000000000",
    "text": "{{anim id=\"Worried\" target=\"actor\" targetSpec=\"\"}}Ik zal dus niet verhuizen{{string value=\"...\"}}{{delay20}} Maar{{delay frames=\"13\"}}{{anim id=\"HappyDance\" target=\"actor\" targetSpec=\"\"}} als\nik thuiskom, zal ik iedereen vertellen\nover mijn geweldige tijd hier.{{pageBreak}}{{anim id=\"Grin\" target=\"actor\" targetSpec=\"\"}}Lieve schat, ik weet nu al dat ze\ngroen zullen zien van jaloezie."
  },
  {
    "label": "206",
    "attribute": "0x0000000000000000",
    "text": "{{fun_0014003C arg=\"\"}}"
  },
  {
    "label": "206_01",
    "attribute": "0x0000000000000000",
    "text": "{{anim id=\"Smiling\" target=\"actor\" targetSpec=\"\"}}Je hebt gewonnen!{{delay frames=\"50\"}}{{anim id=\"Eh\" target=\"actor\" targetSpec=\"\"}} Hemeltjelief! {{delay frames=\"13\"}}Dat\nbetekent dat ik hierheen verhuis!{{pageBreak}}{{anim id=\"Negative\" target=\"actor\" targetSpec=\"\"}}Gisteren zou ik niet gedacht hebben\ndat ik daar rijp voor ben.{{delay frames=\"40\"}}{{anim id=\"FaintSmile\" target=\"actor\" targetSpec=\"\"}} Maar nu\nheeft het lot beslist!{{pageBreak}}{{anim id=\"Thinking\" target=\"actor\" targetSpec=\"\"}}Alhoewel,{{delay8}} laat ik eerst maar even bij\nde {{color id=\"1\"}}servicebalie {{color id=\"65535\"}}langsgaan om te zien\nof zij akkoord gaan{{string value=\"...\"}}{{pageBreak}}{{anim id=\"EmotEnd\" target=\"actor\" targetSpec=\"\"}}Wil je zo lief zijn om hier even te\nwachten?{{delay20}} Dan doe ik het meteen.\n{{anim id=\"Hello\" target=\"actor\" targetSpec=\"\"}}Een klein momentje, {{string value=\"6\"}}."
  },
  {
    "label": "206_02",
    "attribute": "0x0000000000000000",
    "text": "{{anim id=\"Smiling\" target=\"actor\" targetSpec=\"\"}}Dat betekent dat jij de winnaar bent!{{delay frames=\"40\"}}\n{{anim id=\"Nodding\" target=\"actor\" targetSpec=\"\"}}En dat betekent ook dat je eiland een\nnieuwe bewoner rijker is{{string value=\"...\"}}{{pageBreak}}{{anim id=\"EmotEnd\" target=\"actor\" targetSpec=\"\"}}{{string value=\"...\"}}en wat voor een, {{delay40}}{{anim id=\"Laughing\" target=\"actor\" targetSpec=\"\"}}hohoho.{{pageBreak}}{{anim id=\"Smiling\" target=\"actor\" targetSpec=\"\"}}Het avontuur roept, lieverd!{{delay frames=\"40\"}} Wanneer\nik mijn memoires zal schrijven,{{delay20}}{{anim id=\"SmugFace\" target=\"actor\" targetSpec=\"\"}} wordt\ndit vast een bijzondere passage.{{pageBreak}}{{anim id=\"Eh\" target=\"actor\" targetSpec=\"\"}}Grutjes!{{delay20}} {{anim id=\"Worried\" target=\"actor\" targetSpec=\"\"}}Ik bedenk me net dat ik\nnog officieel toestemming van\nde {{color id=\"1\"}}servicebalie {{color id=\"65535\"}}moet krijgen.{{pageBreak}}Als je hier een momentje wacht,{{delay8}}\n{{anim id=\"Hello\" target=\"actor\" targetSpec=\"\"}}ga ik daar meteen even werk van\nmaken, {{string value=\"6\"}}."
  },
  {
    "label": "206_03",
    "attribute": "0x0000000000000000",
    "text": "{{anim id=\"Clapping\" target=\"actor\" targetSpec=\"\"}}De overwinning is voor jou!{{delay frames=\"40\"}} {{anim id=\"Blushing\" target=\"actor\" targetSpec=\"\"}}De keuze\nis voor me gemaakt{{string value=\"...\"}} Dit eiland\nwordt mijn nieuwe thuis.{{pageBreak}}{{anim id=\"Nodding\" target=\"actor\" targetSpec=\"\"}}Ik moet toegeven dat ik het niet\nanders had gewild.{{delay frames=\"40\"}} {{anim id=\"SmugFace\" target=\"actor\" targetSpec=\"\"}}Het avontuur\nlonkt, {{string value=\"6\"}}.{{pageBreak}}{{anim id=\"Thinking\" target=\"actor\" targetSpec=\"\"}}Alhoewel{{string value=\"...\"}}{{delay20}} hmm{{string value=\"...\"}}{{delay20}}{{anim id=\"Worried\" target=\"actor\" targetSpec=\"\"}} Ik moet nog wel\neven langs bij de {{color id=\"1\"}}servicebalie {{color id=\"65535\"}}voor\nhun officiële toestemming.{{pageBreak}}{{anim id=\"Hello\" target=\"actor\" targetSpec=\"\"}}Wacht hier een poosje, lieverd.{{delay20}}\nDan zoek ik dat meteen even uit."
  },
  {
    "label": "207_01",
    "attribute": "0x0000010000000000",
    "text": "{{anim id=\"Aha\" target=\"actor\" targetSpec=\"\"}}Lieve deugd!{{delay8}} Je nodigt me opnieuw\nuit?{{delay20}} {{anim id=\"Grin\" target=\"actor\" targetSpec=\"\"}}Ik begrijp je uiteraard volkomen,{{delay8}}\n{{anim id=\"Thinking\" target=\"actor\" targetSpec=\"\"}}maar wat moet ik doen{{string value=\"...\"}}{{pageBreak}}{{anim id=\"IdeaBulb\" target=\"actor\" targetSpec=\"\"}}{{delay8}}Ik weet het! Ik laat het lot voor me\nbeslissen, {{string value=\"6\"}}!{{pageBreak}}{{anim id=\"Explain\" target=\"actor\" targetSpec=\"\"}}Wat ik daarmee bedoel, is dat we een\nspelletje gaan spelen.{{delay8}} Als jij wint,{{delay8}}\nverhuis ik naar dit snoezige eilandje.{{pageBreak}}{{anim id=\"QuestionMark\" target=\"actor\" targetSpec=\"\"}}Wat denk je ervan, lieve schat?"
  },
  {
    "label": "207_01_a",
    "attribute": "0x0000000000000000",
    "text": "Strak plan!"
  },
  {
    "label": "207_01_b",
    "attribute": "0x0000000000000000",
    "text": "Nee, dank je."
  },
  {
    "label": "207_02",
    "attribute": "0x0000010000000000",
    "text": "{{anim id=\"Eh\" target=\"actor\" targetSpec=\"\"}}Gunst, ik voel me zeer gevleid dat\nje me opnieuw uitnodigt.{{delay20}} {{anim id=\"Thinking\" target=\"actor\" targetSpec=\"\"}}Het is\neen erg verleidelijk aanbod{{string value=\"...\"}}\n{{anim id=\"Grin\" target=\"actor\" targetSpec=\"\"}}Maar{{delay8}} je weet dat ik niet zomaar op\nelk aanbod in kan gaan.{{delay20}} {{anim id=\"Hello\" target=\"actor\" targetSpec=\"\"}}Dus wat\ndacht je hiervan?{{pageBreak}}{{anim id=\"Explain\" target=\"actor\" targetSpec=\"\"}}Laten we een spelletje spelen en als\njij wint,{{delay8}} verhuis ik naar dit uiterst\ncharmante eiland van je.{{pageBreak}}{{anim id=\"QuestionMark\" target=\"actor\" targetSpec=\"\"}}Lijkt je dat geen enig plan, {{string value=\"6\"}}?"
  },
  {
    "label": "207_02_a",
    "attribute": "0x0000000000000000",
    "text": "Énig!"
  },
  {
    "label": "207_02_b",
    "attribute": "0x0000000000000000",
    "text": "Beter van niet."
  },
  {
    "label": "207_03",
    "attribute": "0x0000010000000000",
    "text": "{{anim id=\"Worried\" target=\"actor\" targetSpec=\"\"}}Och{{string value=\"...\"}} Ik weet niet zo goed wat ik\nmoet doen. Nooit gedacht dat je\nme opnieuw zou uitnodigen{{string value=\"...\"}}{{pageBreak}}{{anim id=\"Grin\" target=\"actor\" targetSpec=\"\"}}Is het zo belangrijk voor je?{{delay8}} Welnu,\ndat hoor ik graag. {{delay20}}{{anim id=\"Thinking\" target=\"actor\" targetSpec=\"\"}}Maar ik mag het\nje ook niet te makkelijk maken, toch?{{pageBreak}}{{anim id=\"IdeaBulb\" target=\"actor\" targetSpec=\"\"}}{{delay8}}Ik stel het volgende voor:{{delay frames=\"40\"}} {{anim id=\"Explain\" target=\"actor\" targetSpec=\"\"}}we spelen\neen spelletje en als jij wint,{{delay8}} ga ik op\nje uitnodiging in.{{pageBreak}}{{anim id=\"Clapping\" target=\"actor\" targetSpec=\"\"}}Dit wordt dolletjes!{{delay frames=\"40\"}} {{anim id=\"FaintSmile\" target=\"actor\" targetSpec=\"\"}}Wees sportief en\ndoe alsjeblieft mee, {{string value=\"6\"}}!"
  },
  {
    "label": "207_03_a",
    "attribute": "0x0000000000000000",
    "text": "Natuurlijk doe ik mee!"
  },
  {
    "label": "207_03_b",
    "attribute": "0x0000000000000000",
    "text": "Nee, mij niet gezien."
  },
  {
    "label": "208_01",
    "attribute": "0x0000000000000000",
    "text": "{{anim id=\"Eh\" target=\"actor\" targetSpec=\"\"}}Ach. {{delay20}}{{anim id=\"OhGeez\" target=\"actor\" targetSpec=\"\"}}Dan heeft het niet zo mogen\nzijn, ben ik bang.{{delay8}} C'est la vie."
  },
  {
    "label": "208_02",
    "attribute": "0x0000000000000000",
    "text": "{{anim id=\"Laughing\" target=\"actor\" targetSpec=\"\"}}Hohoho!{{delay20}} Jij bent ook niet voor één\ngat te vangen!{{delay20}} {{anim id=\"Nodding\" target=\"actor\" targetSpec=\"\"}}Touché, hoor!{{pageBreak}}{{anim id=\"Smiling\" target=\"actor\" targetSpec=\"\"}}Ik mag hier dan wel niet naartoe\nverhuizen,{{delay8}} toch hoop ik nog op een\ngezellige tijd samen,{{delay20}}{{anim id=\"Grin\" target=\"actor\" targetSpec=\"\"}} jij deugniet."
  },
  {
    "label": "208_03",
    "attribute": "0x0000000000000000",
    "text": "{{anim id=\"TakenAback\" target=\"actor\" targetSpec=\"\"}}O!{{delay8}} Meen je dat?{{delay frames=\"30\"}}{{anim id=\"OhGeez\" target=\"actor\" targetSpec=\"\"}} Me dunkt dat je\nme hier dan toch niet zo graag wilt\nhebben.{{pageBreak}}{{anim id=\"Nodding\" target=\"actor\" targetSpec=\"\"}}Evengoed bedankt voor je attente\nuitnodiging. {{delay frames=\"40\"}}{{anim id=\"Smiling\" target=\"actor\" targetSpec=\"\"}}Het was vreselijk fideel\nvan je."
  },
  {
    "label": "302",
    "attribute": "0x0000010000000000",
    "text": "{{anim id=\"Hello\" target=\"actor\" targetSpec=\"\"}}Sorry voor het wachten, lieverd!{{delay frames=\"40\"}}{{anim id=\"Confused\" target=\"actor\" targetSpec=\"\"}} Bij\nde {{color id=\"1\"}}servicebalie{{color id=\"65535\"}} heb ik helaas geen\ngoed nieuws te horen gekregen{{string value=\"...\"}}{{pageBreak}}{{anim id=\"OhGeez\" target=\"actor\" targetSpec=\"\"}}Er is op het eiland geen ruimte om\neen nieuw huis te bouwen.{{delay frames=\"40\"}} {{anim id=\"Oops\" target=\"actor\" targetSpec=\"\"}}{{delay frames=\"13\"}}Mijn\naanvraag is daarom afgewezen!{{pageBreak}}{{anim id=\"ShyBoy\" target=\"actor\" targetSpec=\"\"}}Maar ik heb een idee{{string value=\"...\"}}{{delay frames=\"40\"}}{{anim id=\"Hesitate\" target=\"actor\" targetSpec=\"\"}} Wellicht\nkan ik de plaats van iemand anders\novernemen.{{pageBreak}}{{anim id=\"Explain\" target=\"actor\" targetSpec=\"\"}}Het zou immers kunnen dat iemand\nanders ook toe is aan verandering.{{delay frames=\"40\"}}\n{{anim id=\"Nodding\" target=\"actor\" targetSpec=\"\"}}Verandering kan heel gezond zijn."
  },
  {
    "label": "302_a",
    "attribute": "0x0000000000000000",
    "text": "Goed idee!"
  },
  {
    "label": "302_b",
    "attribute": "0x0000000000000000",
    "text": "Iedereen is tevreden hier."
  },
  {
    "label": "303",
    "attribute": "0x0000000000000000",
    "text": "{{anim id=\"Worried\" target=\"actor\" targetSpec=\"\"}}Ah, dan zal ik niet aandringen.{{delay frames=\"40\"}}{{anim id=\"Negative\" target=\"actor\" targetSpec=\"\"}} Het\nspijt me dat ik erover begon.{{delay frames=\"40\"}}{{anim id=\"EmotEnd\" target=\"actor\" targetSpec=\"\"}} Dan valt\ner deze keer niets te regelen."
  },
  {
    "label": "304",
    "attribute": "0x0000000000000000",
    "text": "{{anim id=\"Greeting\" target=\"actor\" targetSpec=\"\"}}In dat geval {{delay frames=\"13\"}}zal ik al mijn moed bij\nelkaar rapen en iemand aanspreken.{{pageBreak}}{{anim id=\"Restless\" target=\"actor\" targetSpec=\"\"}}Bij de {{color id=\"1\"}}servicebalie{{color id=\"65535\"}} heb ik vernomen\ndat er bewoners zijn die wel oren\nhebben naar zo'n verzoek{{string value=\"...\"}}{{pageBreak}}{{anim id=\"Thinking\" target=\"actor\" targetSpec=\"\"}}Heb jij{{string value=\"...\"}} wellicht een idee wie er\ngeïnteresseerd kan zijn om met mij\nvan plaats te ruilen, {{string value=\"6\"}}?"
  },
  {
    "label": "305",
    "attribute": "0x0000030000000000",
    "text": "{{anim id=\"Hello\" target=\"actor\" targetSpec=\"\"}}{{selection value=\"SelectedVillager\"}}, denk je?"
  },
  {
    "label": "305_a",
    "attribute": "0x0000000000000000",
    "text": "Ja!"
  },
  {
    "label": "305_b",
    "attribute": "0x0000000000000000",
    "text": "Nee, iemand anders."
  },
  {
    "label": "305_c",
    "attribute": "0x0000000000000000",
    "text": "Ik wil het liever toch niet."
  },
  {
    "label": "306",
    "attribute": "0x0000000000000000",
    "text": "{{anim id=\"Greeting\" target=\"actor\" targetSpec=\"\"}}Mooi, ik ga {{gender8 m=\"hem\" f=\"haar\" n=\"\"}} een bezoekje\nbrengen.{{pageBreak}}{{anim id=\"Thinking\" target=\"actor\" targetSpec=\"\"}}Ik hoop dat het goedkomt.{{delay frames=\"40\"}} Ik zal{{delay frames=\"13\"}}{{anim id=\"SmugFace\" target=\"actor\" targetSpec=\"\"}} al\nmijn overtuigingskracht aanwenden."
  },
  {
    "label": "307",
    "attribute": "0x0000000000000000",
    "text": "{{anim id=\"Eh\" target=\"actor\" targetSpec=\"\"}}Dat is niet de juiste persoon?{{delay frames=\"40\"}}{{anim id=\"EmotEnd\" target=\"actor\" targetSpec=\"\"}} Geen\nprobleem.{{anim id=\"QuestionMark\" target=\"actor\" targetSpec=\"\"}} Wie heb je dan in\ngedachten?"
  },
  {
    "label": "308",
    "attribute": "0x0000000000000000",
    "text": "{{anim id=\"Worried\" target=\"actor\" targetSpec=\"\"}}O.{{delay20}} Goed.{{delay20}} Dan laten we het hierbij.{{delay frames=\"40\"}} {{anim id=\"Negative\" target=\"actor\" targetSpec=\"\"}}Ik\ngeef niet graag op,{{delay frames=\"13\"}} maar wat moet\ndat moet."
  },
  {
    "label": "309",
    "attribute": "0x0000000000000000",
    "text": "{{anim id=\"Explain\" target=\"actor\" targetSpec=\"\"}}Ik heb {{selection value=\"SelectedVillager\"}} verteld van mijn toekomstplannen {{delay20}}en mijn droom hier te mogen wonen{{string value=\"...\"}}{{pageBreak}}{{anim id=\"HappyDance\" target=\"actor\" targetSpec=\"\"}}{{string value=\"...\"}}en {{gender8 m=\"hij\" f=\"ze\" n=\"\"}} stemde in met de ruil!{{delay20}} {{anim id=\"Blushing\" target=\"actor\" targetSpec=\"\"}}Erg\nfideel van {{gender8 m=\"hem\" f=\"haar\" n=\"\"}}, nietwaar?{{delay20}} {{anim id=\"Serious\" target=\"actor\" targetSpec=\"\"}}Ik denk\ndat {{gender8 m=\"hij\" f=\"ze\" n=\"\"}} klaar was voor iets nieuws.{{pageBreak}}{{anim id=\"Worried\" target=\"actor\" targetSpec=\"\"}}Ik had graag met {{gender8 m=\"hem\" f=\"haar\" n=\"\"}} op dit eiland\nwillen wonen,{{delay20}} maar het is niet\nanders{{string value=\"...\"}}{{pageBreak}}{{anim id=\"Greeting\" target=\"actor\" targetSpec=\"\"}}{{capitalizeNextLetter}}{{string value=\"NickName\"}}, maak je borst maar nat.{{delay20}} {{anim id=\"EmotEnd\" target=\"actor\" targetSpec=\"\"}}{{fun_00130032 arg=\"0x050000CD0800440065007A00650006004400690074000000\"}} {{string value=\"VillagerRace\"}} maakt van {{string value=\"OtherIslandName\"}} haar thuis!"
  },
  {
    "label": "309_01",
    "attribute": "0x0000000000000000",
    "text": "Ik ben naar het huis van {{selection value=\"SelectedVillager\"}},{{delay8}} {{anim id=\"Negative\" target=\"actor\" targetSpec=\"\"}}maar er was niemand. {{pageBreak}}{{anim id=\"Eh\" target=\"actor\" targetSpec=\"\"}}{{gender8 m=\"Hij\" f=\"Ze\" n=\"\"}} is schijnbaar al met de noorder-\nzon vertrokken!{{i10_4}}{{anim id=\"BigSmile\" target=\"actor\" targetSpec=\"\"}} Kun je het geloven?{{pageBreak}}{{anim id=\"Explain\" target=\"actor\" targetSpec=\"\"}}Alles is dus nu in kannen en kruiken,\nlieverd. {{delay20}}{{anim id=\"Nodding\" target=\"actor\" targetSpec=\"\"}}Ik zal gelijk voorbereidingen\ntreffen om te kunnen verhuizen{{string value=\"...\"}}{{pageBreak}}En jij, {{string value=\"NickName\"}}, {{delay20}}{{anim id=\"SmugFace\" target=\"actor\" targetSpec=\"\"}}kunt alvast een warm welkom voorbereiden, {{string value=\"6\"}}."
  },
  {
    "label": "310",
    "attribute": "0x0000010000000000",
    "text": "{{anim id=\"Eh\" target=\"actor\" targetSpec=\"\"}}Is er iets mis?{{delay frames=\"40\"}} {{anim id=\"QuestionMark\" target=\"actor\" targetSpec=\"\"}}Denk je dat er\nniemand is die ik het kan vragen?"
  },
  {
    "label": "310_a",
    "attribute": "0x0000000000000000",
    "text": "Ja, toch wel."
  },
  {
    "label": "310_b",
    "attribute": "0x0000000000000000",
    "text": "Nee, sorry."
  },
  {
    "label": "311",
    "attribute": "0x0000000000000000",
    "text": "{{anim id=\"FaintSmile\" target=\"actor\" targetSpec=\"\"}}Goed, aan wie kan ik het dan vragen\nvolgens jou?"
  },
  {
    "label": "312",
    "attribute": "0x0000000000000000",
    "text": "{{anim id=\"Serious\" target=\"actor\" targetSpec=\"\"}}Ah.{{delay frames=\"13\"}} Dan houdt het op.{{delay20}} {{anim id=\"EmotEnd\" target=\"actor\" targetSpec=\"\"}}Een kwestie\nvan een opgeheven hoofd{{delay frames=\"13\"}}{{anim id=\"OhGeez\" target=\"actor\" targetSpec=\"\"}} en er niet\nmeer over nadenken, {{string value=\"6\"}}."
  },
  {
    "label": "313",
    "attribute": "0x0000010000000000",
    "text": "{{anim id=\"BigSmile\" target=\"actor\" targetSpec=\"\"}}Wat heerlijk om te horen!{{pageBreak}}{{anim id=\"Explain\" target=\"actor\" targetSpec=\"\"}}Bij de {{color id=\"1\"}}servicebalie {{color id=\"65535\"}}leek men al te suggereren dat {{selection value=\"SelectedVillager\"}} open zou staan voor ons plan.{{pageBreak}}{{anim id=\"EmotEnd\" target=\"actor\" targetSpec=\"\"}}Zeg maar eerlijk, lieverd,{{delay20}} {{anim id=\"QuestionMark\" target=\"actor\" targetSpec=\"\"}}vind je het goed als ik met {{gender3 m=\"hem\" f=\"haar\"}} ga praten, {{string value=\"6\"}}?"
  },
  {
    "label": "313_a",
    "attribute": "0x0000000000000000",
    "text": "Dat vind ik prima!"
  },
  {
    "label": "313_b",
    "attribute": "0x0000000000000000",
    "text": "Doe eigenlijk maar niet."
  },
  {
    "label": "314",
    "attribute": "0x0000000000000000",
    "text": "{{anim id=\"Eh\" target=\"actor\" targetSpec=\"\"}}Ah. {{delay8}}Ik snap het.{{delay8}} Welnu,{{delay20}} {{anim id=\"Restless\" target=\"actor\" targetSpec=\"\"}}ik geloof dat\nik een beetje te hard van stapel ben\ngelopen.{{pageBreak}}{{anim id=\"Worried\" target=\"actor\" targetSpec=\"\"}}Het zal even duren voordat ik me\nover deze teleurstelling heen heb\ngezet,{{delay20}} dat begrijp je vast wel.{{pageBreak}}{{anim id=\"Blushing\" target=\"actor\" targetSpec=\"\"}}Laten we ons hele gesprek over\nverhuizen maar vergeten{{string value=\"...\"}}"
  },
  {
    "label": "404",
    "attribute": "0x0000000000000000",
    "text": "{{anim id=\"Greeting\" target=\"actor\" targetSpec=\"\"}}Ik hoop dat ik je niet te lang heb\nlaten wachten.{{delay20}} Je gelooft nooit{{anim id=\"Serious\" target=\"actor\" targetSpec=\"\"}} wat\nik van de {{color id=\"1\"}}servicebalie {{color id=\"65535\"}}heb gehoord!{{pageBreak}}{{anim id=\"Shocked\" target=\"actor\" targetSpec=\"\"}}Er schijnt geen ruimte meer te zijn\nvoor nieuwe bewoners!{{pageBreak}}{{anim id=\"Confused\" target=\"actor\" targetSpec=\"\"}}Je kunt je voorstellen hoe geschokt\nik was! {{delay frames=\"13\"}}Er kon{{anim id=\"Serious\" target=\"actor\" targetSpec=\"\"}} geen speciale\nbehandeling vanaf, {{string value=\"6\"}}.{{pageBreak}}{{anim id=\"Sighing\" target=\"actor\" targetSpec=\"\"}}Zeer teleurstellend.{{delay frames=\"40\"}}{{anim id=\"FaintSmile\" target=\"actor\" targetSpec=\"\"}} Maar ik blijf de\nhoop koesteren dat we ooit wel op\nhetzelfde eiland kunnen wonen."
  },
  {
    "label": "405",
    "attribute": "0x0000000000000000",
    "text": "{{anim id=\"Worried\" target=\"actor\" targetSpec=\"\"}}Sorry dat je moest wachten.{{delay frames=\"13\"}} Droevig\nnieuws, lieverd{{string value=\"...\"}}{{delay20}}{{delay20}}{{anim id=\"SadSpiral\" target=\"actor\" targetSpec=\"\"}} Mijn droom hier te\nwonen is aan diggelen geslagen.{{pageBreak}}{{anim id=\"Confused\" target=\"actor\" targetSpec=\"\"}}Bij de {{color id=\"1\"}}servicebalie {{color id=\"65535\"}}is mij verteld {{delay frames=\"13\"}}dat\ner geen enkel perceel te koop is.{{delay20}}\n{{anim id=\"Shocked\" target=\"actor\" targetSpec=\"\"}}Geen enkel, {{string value=\"6\"}}!{{pageBreak}}Of zijn er soms{{anim id=\"OhGeez\" target=\"actor\" targetSpec=\"\"}} regeltjes die ik niet\nken? {{delay20}}{{anim id=\"EmotEnd\" target=\"actor\" targetSpec=\"\"}}Ik wil niet moeilijk doen,{{delay frames=\"13\"}}{{anim id=\"Outraged\" target=\"actor\" targetSpec=\"\"}} maar\n{{fun_00130032 arg=\"0x030000CD0800640065007A00650006006400690074000000\"}} {{string value=\"VillagerRace\"}} is verre van blij!{{pageBreak}}{{anim id=\"Nodding\" target=\"actor\" targetSpec=\"\"}}Ach. Hopelijk mag het de sterren ooit\nnog eens bekoren{{delay frames=\"40\"}}{{anim id=\"FaintSmile\" target=\"actor\" targetSpec=\"\"}} om ons tweeën op\nhetzelfde eiland te zien wonen."
  },
  {
    "label": "406",
    "attribute": "0x0000000000000000",
    "text": "{{anim id=\"FaintSmile\" target=\"actor\" targetSpec=\"\"}}Excuses voor het lange wachten,{{delay frames=\"13\"}} maar ik heb groot nieuws, lieverd.{{delay20}} {{anim id=\"FaintSmile\" target=\"actor\" targetSpec=\"\"}}Eh, {{string value=\"NickName\"}} was het toch?{{pageBreak}}Mijn naam is {{string value=\"VillagerName\"}}. {{anim id=\"Hesitate\" target=\"actor\" targetSpec=\"\"}}Ik heb de servicebalie gesproken en{{string value=\"...\"}} {{anim id=\"Greeting\" target=\"actor\" targetSpec=\"\"}}drie keer raden! {{delay20}}Eh{{string value=\"...\"}}{{delay20}} {{anim id=\"EmotEnd\" target=\"actor\" targetSpec=\"\"}}O, goed dan.{{pageBreak}}Ze zeiden: {{delay frames=\"13\"}}{{anim id=\"BigSmile\" target=\"actor\" targetSpec=\"\"}}\"Welkom op ons eiland!\"{{pageBreak}}{{anim id=\"Blushing\" target=\"actor\" targetSpec=\"\"}}Tijdens dat gesprek ben ik wel tien\njaar ouder geworden,{{delay frames=\"13\"}} zo spannend\nwas het!{{pageBreak}}{{anim id=\"HappyDance\" target=\"actor\" targetSpec=\"\"}}Toen ik het goede nieuws hoorde,{{delay8}}\nkon ik wel dansen van vreugde,\n{{string value=\"Catchphrase\"}}!"
  },
  {
    "label": "407",
    "attribute": "0x0000000000000000",
    "text": "{{anim id=\"Negative\" target=\"actor\" targetSpec=\"\"}}Welnu, dat duurde langer dan had\ngehoeven.{{pageBreak}}{{anim id=\"Thinking\" target=\"actor\" targetSpec=\"\"}}Het goede nieuws is dat er volgens\nde {{color id=\"1\"}}servicebalie {{color id=\"65535\"}}zojuist een fraaie\nplek voor me is vrijgekomen.{{pageBreak}}{{anim id=\"BigSmile\" target=\"actor\" targetSpec=\"\"}}Ik kan het altijd erg waarderen als\nik geen obstakels tegenkom bij mijn\nplannen.{{pageBreak}}{{anim id=\"FaintSmile\" target=\"actor\" targetSpec=\"\"}}Jouw naam was {{string value=\"NickName\"}}, nietwaar?{{pageBreak}}{{anim id=\"EmotEnd\" target=\"actor\" targetSpec=\"\"}}Ik zal me officieel voorstellen.{{delay20}} {{anim id=\"Nodding\" target=\"actor\" targetSpec=\"\"}}Ik ben {{string value=\"VillagerName\"}}, maar vanaf nu mag je mij ook \"buurvrouw\" noemen."
  },
  {
    "label": "410",
    "attribute": "0x0000010000000000",
    "text": "Nu ik {{anim id=\"Restless\" target=\"actor\" targetSpec=\"\"}}erover nadenk, is{{string value=\"...\"}}{{delay frames=\"13\"}} is{{string value=\"...\"}}{{delay20}}{{anim id=\"Angry\" target=\"actor\" targetSpec=\"\"}} het\nonacceptabel dat ik mijn droom\nzonder slag of stoot opgeef!{{pageBreak}}{{anim id=\"Confused\" target=\"actor\" targetSpec=\"\"}}Er was ongetwijfeld sprake van\neen of andere{{string value=\"...\"}} verwarring bij\nde {{color id=\"1\"}}servicebalie{{color id=\"65535\"}}.{{pageBreak}}{{anim id=\"Serious\" target=\"actor\" targetSpec=\"\"}}Ik denk dat ik er maar beter nog eens\nnaartoe kan gaan om te achterhalen\nhoe het precies zit."
  },
  {
    "label": "410_a",
    "attribute": "0x0000000000000000",
    "text": "Uitstekend idee!"
  },
  {
    "label": "410_b",
    "attribute": "0x0000000000000000",
    "text": "Doe maar niet."
  },
  {
    "label": "411",
    "attribute": "0x0000000000000000",
    "text": "{{anim id=\"OhGeez\" target=\"actor\" targetSpec=\"\"}}Goed dan.{{delay frames=\"13\"}} Als jij het zegt.{{delay frames=\"40\"}} {{anim id=\"Worried\" target=\"actor\" targetSpec=\"\"}}Ik wil\nook geen overlast veroorzaken.{{pageBreak}}{{anim id=\"Restless\" target=\"actor\" targetSpec=\"\"}}Ik zal de huidige situatie accepteren\nen hopen dat er ooit nog iets aan\nverandert, {{string value=\"6\"}}."
  },
  {
    "label": "423",
    "attribute": "0x0000000000000000",
    "text": "{{anim id=\"OhGeez\" target=\"actor\" targetSpec=\"\"}}Een eiland dat zo populair is dat er\nniemand meer bij kan{{string value=\"...\"}}{{delay frames=\"40\"}}{{anim id=\"Worried\" target=\"actor\" targetSpec=\"\"}} Er is vast iets wat je me niet vertelt.{{pageBreak}}{{anim id=\"Thinking\" target=\"actor\" targetSpec=\"\"}}Is er een of ander fabuleus geheim\nwaar de {{color id=\"1\"}}servicebalie{{color id=\"65535\"}} mij niets van wil\nlaten weten?{{delay frames=\"40\"}} {{anim id=\"Laughing\" target=\"actor\" targetSpec=\"\"}}Ha, dat was een grapje!{{pageBreak}}{{anim id=\"Serious\" target=\"actor\" targetSpec=\"\"}}Maar het is toch teleurstellend dat ik\nhier niet naartoe kan verhuizen. {{delay frames=\"40\"}}{{anim id=\"Crying\" target=\"actor\" targetSpec=\"\"}}Ik\nwil daar zijn waar iedereen wil zijn!"
  },
  {
    "label": "424",
    "attribute": "0x0000000000000000",
    "text": "{{anim id=\"Thinking\" target=\"actor\" targetSpec=\"\"}}Het is nauwelijks te geloven dat er\ngeen enkel perceel te koop is.{{delay20}} {{anim id=\"QuestionMark\" target=\"actor\" targetSpec=\"\"}}Er kan\ntoch nog wel een klein huisje bij?{{pageBreak}}{{anim id=\"EmotEnd\" target=\"actor\" targetSpec=\"\"}}Alhoewel{{string value=\"...\"}}{{delay20}}{{anim id=\"Negative\" target=\"actor\" targetSpec=\"\"}} Ik weet niet of ik mezelf\ntevreden zou stellen met een klein\nhuisje.{{pageBreak}}{{anim id=\"Negative\" target=\"actor\" targetSpec=\"\"}}Het is zo zonde, lieverd.{{delay frames=\"40\"}} {{anim id=\"SmugFace\" target=\"actor\" targetSpec=\"\"}}Ik zou dit\neiland enorm veel te bieden hebben."
  },
  {
    "label": "504",
    "attribute": "0x0000010000000000",
    "text": "Werkelijk waar, lieverd, {{delay8}}{{anim id=\"Nodding\" target=\"actor\" targetSpec=\"\"}}dit eiland is\nontzettend speciaal.{{pageBreak}}{{anim id=\"HappyFlower\" target=\"actor\" targetSpec=\"\"}}Ik voel me zo goed hier!{{delay frames=\"40\"}} Om eerlijk\nte zijn{{delay frames=\"13\"}} {{anim id=\"Smiling\" target=\"actor\" targetSpec=\"\"}}sta ik momenteel niet te\nspringen om naar huis te gaan."
  },
  {
    "label": "504_a",
    "attribute": "0x0000000000000000",
    "text": "En als je hier zou blijven?"
  },
  {
    "label": "504_b",
    "attribute": "0x0000000000000000",
    "text": "{{anim id=\"QuestionMark\" target=\"actor\" targetSpec=\"\"}}Meen je dat nou?"
  },
  {
    "label": "505",
    "attribute": "0x0000000000000000",
    "text": "{{anim id=\"Laughing\" target=\"actor\" targetSpec=\"\"}}Och hemeltje, {{delay frames=\"13\"}}wat vreselijk lief dat\nje dat zegt!{{delay frames=\"30\"}} {{anim id=\"FaintSmile\" target=\"actor\" targetSpec=\"\"}}Hier wonen zou werkelijk\nenig zijn, {{delay frames=\"13\"}}daar twijfel ik niet aan.{{pageBreak}}{{anim id=\"Blushing\" target=\"actor\" targetSpec=\"\"}}Maar eh{{string value=\"...\"}}{{delay20}} wij tweetjes kennen elkaar\namper, {{string value=\"6\"}}. {{delay20}}{{anim id=\"OhGeez\" target=\"actor\" targetSpec=\"\"}}Het is allemaal zo plotseling{{string value=\"...\"}}{{pageBreak}}{{anim id=\"Frantic\" target=\"actor\" targetSpec=\"\"}}Maar{{string value=\"...\"}} maar{{string value=\"...\"}} ik zeg geen nee!{{delay frames=\"40\"}}\n{{anim id=\"Hesitate\" target=\"actor\" targetSpec=\"\"}}Ik wil enkel dit eiland en jou eerst\nwat beter leren kennen{{string value=\"...\"}}\n{{anim id=\"FaintSmile\" target=\"actor\" targetSpec=\"\"}}Het lijkt me dus dolletjes als je me\nnog een keer uitnodigt om te komen\nkamperen, {{string value=\"6\"}}."
  },
  {
    "label": "506",
    "attribute": "0x0000000000000000",
    "text": "{{anim id=\"Eh\" target=\"actor\" targetSpec=\"\"}}Absoluut! {{delay frames=\"13\"}}Is het je nooit opgevallen?{{delay20}}\n{{anim id=\"Blushing\" target=\"actor\" targetSpec=\"\"}}Mijn teint straalt werkelijk, iedere\nkeer dat ik hier ben!{{pageBreak}}{{anim id=\"Thinking\" target=\"actor\" targetSpec=\"\"}}Hmm{{string value=\"...\"}} Hoe kan ik deze frisse blos\nbehouden, {{string value=\"6\"}}{{string value=\"...\"}}"
  },
  {
    "label": "507",
    "attribute": "0x0000010000000000",
    "text": "{{anim id=\"Thinking\" target=\"actor\" targetSpec=\"\"}}Iedereen op dit eiland heeft me met\nzoveel gastvrijheid onthaald.{{pageBreak}}{{anim id=\"Hesitate\" target=\"actor\" targetSpec=\"\"}}Toch vraag ik me af{{string value=\"...\"}} Denk je dat\niedereen nog steeds zo hartelijk\nzou zijn als ik hier zou wonen?"
  },
  {
    "label": "507_a",
    "attribute": "0x0000000000000000",
    "text": "Verhuis en kom erachter!"
  },
  {
    "label": "507_b",
    "attribute": "0x0000000000000000",
    "text": "Goede vraag..."
  },
  {
    "label": "508",
    "attribute": "0x0000000000000000",
    "text": "{{anim id=\"Smiling\" target=\"actor\" targetSpec=\"\"}}Wat ben je toch een engel!{{delay frames=\"40\"}} {{anim id=\"Thinking\" target=\"actor\" targetSpec=\"\"}}Er is\nzeker iets te zeggen voor een\nspontane actie{{string value=\"...\"}}\n{{string value=\"...\"}}maar {{anim id=\"Blushing\" target=\"actor\" targetSpec=\"\"}}ik wil het eiland eerst wat\nbeter leren kennen. Misschien iets\nvaker op visite komen{{string value=\"...\"}}{{pageBreak}}{{anim id=\"FaintSmile\" target=\"actor\" targetSpec=\"\"}}Dus nodig me nog eens uit. {{anim id=\"Hesitate\" target=\"actor\" targetSpec=\"\"}}Kan ik\nvallen voor dit charmante eiland?{{delay20}} Ja,\ndat is beslist mogelijk, {{string value=\"6\"}}."
  },
  {
    "label": "509",
    "attribute": "0x0000000000000000",
    "text": "{{anim id=\"Shocked\" target=\"actor\" targetSpec=\"\"}}Och!{{delay20}} Maar nee, toch{{string value=\"...\"}}{{anim id=\"QuestionMark\" target=\"actor\" targetSpec=\"\"}} Denk je niet\ndat iedereen altijd zo warm en\ngastvrij zal zijn?{{pageBreak}}{{anim id=\"Laughing\" target=\"actor\" targetSpec=\"\"}}Je maakt je zorgen om niets, lieve\nschat.{{delay frames=\"13\"}} {{anim id=\"Grin\" target=\"actor\" targetSpec=\"\"}}Ik kan zeer innemend zijn\nwanneer ik het wil, {{string value=\"6\"}}."
  }
]