﻿[
  {
    "label": "001",
    "attribute": "0x00000C0100000000",
    "text": "{{anim id=\"Eh\" target=\"actor\" targetSpec=\"\"}}Yo, {{string value=\"Catchphrase\"}} ! Tout va bien ?{{setNpcTalkChoices chatOption=\"1\" cancelOption=\"1\"}}"
  },
  {
    "label": "002",
    "attribute": "0x00000C0100000000",
    "text": "{{anim id=\"Greeting\" target=\"actor\" targetSpec=\"\"}}T'as envie de causer, {{string value=\"Catchphrase\"}} ?{{setNpcTalkChoices chatOption=\"1\" cancelOption=\"0\"}}"
  },
  {
    "label": "003",
    "attribute": "0x00000C0100000000",
    "text": "{{anim id=\"FaintSmile\" target=\"actor\" targetSpec=\"\"}}Je peux t'aider, {{string value=\"Catchphrase\"}} ?{{setNpcTalkChoices chatOption=\"0\" cancelOption=\"0\"}}"
  },
  {
    "label": "004",
    "attribute": "0x00000C0100000000",
    "text": "{{anim id=\"Hello\" target=\"actor\" targetSpec=\"\"}}Comment vas-tu, {{string value=\"Catchphrase\"}} ?{{setNpcTalkChoices chatOption=\"1\" cancelOption=\"1\"}}"
  },
  {
    "label": "005",
    "attribute": "0x00000C0100000000",
    "text": "{{anim id=\"Greeting\" target=\"actor\" targetSpec=\"\"}}Tout se passe bien, {{string value=\"Catchphrase\"}} ?{{setNpcTalkChoices chatOption=\"1\" cancelOption=\"1\"}}"
  }
]