﻿[
  {
    "label": "001",
    "attribute": "0x00000C0100000000",
    "locale": {
      "CNzh": "{{anim id=\"FaintSmile\" target=\"actor\" targetSpec=\"\"}}又来和我打招呼啦，{{delay8}}\n我好开心！{{delay frames=\"40\"}}\n{{anim id=\"QuestionMark\" target=\"actor\" targetSpec=\"\"}}那么，{{delay20}}请问发生了什么事情吗？{{string value=\"6\"}}。{{setNpcTalkChoices chatOption=\"0\" cancelOption=\"0\"}}",
      "EUde": "{{anim id=\"FaintSmile\" target=\"actor\" targetSpec=\"\"}}Schön, dich wiederzusehen.{{i10_4}}\n{{anim id=\"QuestionMark\" target=\"actor\" targetSpec=\"\"}}Wolltest du irgendetwas\nBestimmtes, {{delay8}}{{string value=\"Catchphrase\"}}?{{setNpcTalkChoices chatOption=\"0\" cancelOption=\"0\"}}",
      "EUen": "{{anim id=\"FaintSmile\" target=\"actor\" targetSpec=\"\"}}Glad you reached out to me again.{{i10_4}}\n{{anim id=\"QuestionMark\" target=\"actor\" targetSpec=\"\"}}How can I help you,{{delay20}} {{string value=\"Catchphrase\"}}?{{setNpcTalkChoices chatOption=\"0\" cancelOption=\"0\"}}",
      "EUes": "{{anim id=\"FaintSmile\" target=\"actor\" targetSpec=\"\"}}Vaya, es un placer volver a verte.{{delay20}}\n¿Qué necesitas?{{setNpcTalkChoices chatOption=\"0\" cancelOption=\"0\"}}",
      "EUfr": "{{anim id=\"FaintSmile\" target=\"actor\" targetSpec=\"\"}}Je suis contente de te revoir.{{i10_4}}\n{{anim id=\"QuestionMark\" target=\"actor\" targetSpec=\"\"}}Je peux t'aider, {{string value=\"6\"}} ?{{setNpcTalkChoices chatOption=\"0\" cancelOption=\"0\"}}",
      "EUit": "{{anim id=\"FaintSmile\" target=\"actor\" targetSpec=\"\"}}Sono contenta che ti sia rivolt{{gender2 m=\"o\" f=\"a\"}} a me.{{delay20}}\n{{anim id=\"QuestionMark\" target=\"actor\" targetSpec=\"\"}}Come posso aiutarti, {{string value=\"6\"}}?{{setNpcTalkChoices chatOption=\"0\" cancelOption=\"0\"}}",
      "EUnl": "{{anim id=\"FaintSmile\" target=\"actor\" targetSpec=\"\"}}Leuk om je weer te spreken.{{i10_4}}\n{{anim id=\"QuestionMark\" target=\"actor\" targetSpec=\"\"}}Hoe kan ik je helpen, {{delay20}}{{string value=\"Catchphrase\"}}?{{setNpcTalkChoices chatOption=\"0\" cancelOption=\"0\"}}",
      "EUru": "{{anim id=\"FaintSmile\" target=\"actor\" targetSpec=\"\"}}Рада тебя снова видеть.{{i10_4}}\n{{anim id=\"QuestionMark\" target=\"actor\" targetSpec=\"\"}}Чем тебе помочь?{{delay20}} {{capitalizeNextLetter}}{{string value=\"Catchphrase\"}}!{{setNpcTalkChoices chatOption=\"0\" cancelOption=\"0\"}}",
      "JPja": "{{anim id=\"FaintSmile\" target=\"actor\" targetSpec=\"\"}}たくさん　お{{ruby charSpan=\"1\" value=\"はな\"}}話しできて{{delay8}}　うれしいです！{{delay frames=\"40\"}}\n{{anim id=\"QuestionMark\" target=\"actor\" targetSpec=\"\"}}それで、{{delay20}}{{ruby charSpan=\"1\" value=\"なに\"}}何か　ありましたか？　{{string value=\"6\"}}{{setNpcTalkChoices chatOption=\"0\" cancelOption=\"0\"}}",
      "KRko": "{{anim id=\"FaintSmile\" target=\"actor\" targetSpec=\"\"}}또 말 걸어주셔서{{delay20}} 감사합니다!{{delay frames=\"40\"}}\n{{anim id=\"QuestionMark\" target=\"actor\" targetSpec=\"\"}}그런데 {{delay20}}무슨 일 있나요? {{string value=\"6\"}}?{{setNpcTalkChoices chatOption=\"0\" cancelOption=\"0\"}}",
      "TWzh": "{{anim id=\"FaintSmile\" target=\"actor\" targetSpec=\"\"}}你能再來跟我搭話，{{delay8}}\n我好開心喔！{{delay frames=\"40\"}}\n{{anim id=\"QuestionMark\" target=\"actor\" targetSpec=\"\"}}那麼，{{delay20}}發生了什麼事嗎？{{string value=\"6\"}}。{{setNpcTalkChoices chatOption=\"0\" cancelOption=\"0\"}}",
      "USen": "{{anim id=\"FaintSmile\" target=\"actor\" targetSpec=\"\"}}Glad you reached out to me again.{{i10_4}}\n{{anim id=\"QuestionMark\" target=\"actor\" targetSpec=\"\"}}How can I help you,{{delay20}} {{string value=\"Catchphrase\"}}?{{setNpcTalkChoices chatOption=\"0\" cancelOption=\"0\"}}",
      "USes": "{{anim id=\"FaintSmile\" target=\"actor\" targetSpec=\"\"}}Qué alegría de volverte a ver.{{delay20}}\n¿Necesitas algo?{{setNpcTalkChoices chatOption=\"0\" cancelOption=\"0\"}}",
      "USfr": "{{anim id=\"FaintSmile\" target=\"actor\" targetSpec=\"\"}}Je suis contente de te revoir.{{i10_4}}\n{{anim id=\"QuestionMark\" target=\"actor\" targetSpec=\"\"}}Je peux t'aider, {{string value=\"6\"}}?{{setNpcTalkChoices chatOption=\"0\" cancelOption=\"0\"}}"
    }
  },
  {
    "label": "002",
    "attribute": "0x00000C0100000000",
    "locale": {
      "CNzh": "{{anim id=\"Smiling\" target=\"actor\" targetSpec=\"\"}}请问有什么事吗？{{string value=\"6\"}}。{{setNpcTalkChoices chatOption=\"0\" cancelOption=\"0\"}}",
      "EUde": "{{anim id=\"Smiling\" target=\"actor\" targetSpec=\"\"}}Was hast du auf dem Herzen,{{delay8}}\n{{string value=\"Catchphrase\"}}?{{setNpcTalkChoices chatOption=\"0\" cancelOption=\"0\"}}",
      "EUen": "{{anim id=\"Smiling\" target=\"actor\" targetSpec=\"\"}}What's on your mind,{{delay20}} {{string value=\"Catchphrase\"}}?{{setNpcTalkChoices chatOption=\"0\" cancelOption=\"0\"}}",
      "EUes": "{{anim id=\"FaintSmile\" target=\"actor\" targetSpec=\"\"}}¿Necesitas algo?{{setNpcTalkChoices chatOption=\"0\" cancelOption=\"0\"}}",
      "EUfr": "{{anim id=\"Smiling\" target=\"actor\" targetSpec=\"\"}}Tu voulais quelque chose, {{string value=\"6\"}} ?{{setNpcTalkChoices chatOption=\"0\" cancelOption=\"0\"}}",
      "EUit": "{{anim id=\"Smiling\" target=\"actor\" targetSpec=\"\"}}Salut, {{delay8}}hai bisogno di me?{{setNpcTalkChoices chatOption=\"0\" cancelOption=\"0\"}}",
      "EUnl": "{{anim id=\"Smiling\" target=\"actor\" targetSpec=\"\"}}Waar wil je over praten,{{delay20}} {{string value=\"Catchphrase\"}}?{{setNpcTalkChoices chatOption=\"0\" cancelOption=\"0\"}}",
      "EUru": "{{anim id=\"Smiling\" target=\"actor\" targetSpec=\"\"}}Тебя что-то беспокоит?{{delay20}}\n{{capitalizeNextLetter}}{{string value=\"Catchphrase\"}}!{{setNpcTalkChoices chatOption=\"0\" cancelOption=\"0\"}}",
      "JPja": "{{anim id=\"Smiling\" target=\"actor\" targetSpec=\"\"}}{{ruby charSpan=\"1\" value=\"なに\"}}何か　ご{{ruby charSpan=\"2\" value=\"ようじ\"}}用事でしたか？　{{string value=\"6\"}}{{setNpcTalkChoices chatOption=\"0\" cancelOption=\"0\"}}",
      "KRko": "{{anim id=\"Smiling\" target=\"actor\" targetSpec=\"\"}}제게 할 얘기가 있으신가요, {{string value=\"6\"}}?{{setNpcTalkChoices chatOption=\"0\" cancelOption=\"0\"}}",
      "TWzh": "{{anim id=\"Smiling\" target=\"actor\" targetSpec=\"\"}}你有事要找我嗎？{{string value=\"6\"}}。{{setNpcTalkChoices chatOption=\"0\" cancelOption=\"0\"}}",
      "USen": "{{anim id=\"Smiling\" target=\"actor\" targetSpec=\"\"}}What's on your mind,{{delay20}} {{string value=\"Catchphrase\"}}?{{setNpcTalkChoices chatOption=\"0\" cancelOption=\"0\"}}",
      "USes": "{{anim id=\"FaintSmile\" target=\"actor\" targetSpec=\"\"}}¿Necesitas algo, {{string value=\"Catchphrase\"}}?{{setNpcTalkChoices chatOption=\"0\" cancelOption=\"0\"}}",
      "USfr": "{{anim id=\"Smiling\" target=\"actor\" targetSpec=\"\"}}Tu voulais quelque chose, {{string value=\"6\"}}?{{setNpcTalkChoices chatOption=\"0\" cancelOption=\"0\"}}"
    }
  },
  {
    "label": "003",
    "attribute": "0x00000C0100000000",
    "locale": {
      "CNzh": "{{anim id=\"Laughing\" target=\"actor\" targetSpec=\"\"}}呀，{{delay8}}{{string value=\"4\"}}，{{delay frames=\"40\"}}\n今天经常碰面呢！{{delay frames=\"40\"}}\n{{anim id=\"Hello\" target=\"actor\" targetSpec=\"\"}}有什么事情吗？{{string value=\"6\"}}。{{setNpcTalkChoices chatOption=\"0\" cancelOption=\"0\"}}",
      "EUde": "{{anim id=\"Laughing\" target=\"actor\" targetSpec=\"\"}}Wir laufen uns ja schon wieder über\nden Weg, {{delay8}}{{string value=\"NickName\"}}!{{i10_4}} {{anim id=\"Hello\" target=\"actor\" targetSpec=\"\"}}Und,{{delay8}} was gibt es, {{delay8}}{{string value=\"Catchphrase\"}}?{{setNpcTalkChoices chatOption=\"0\" cancelOption=\"0\"}}",
      "EUen": "{{anim id=\"Laughing\" target=\"actor\" targetSpec=\"\"}}We just keep running into each\nother,{{delay20}} {{string value=\"PlayerName\"}}!{{i10_4}}\n{{anim id=\"FaintSmile\" target=\"actor\" targetSpec=\"\"}}What's up,{{delay20}} {{string value=\"Catchphrase\"}}?{{setNpcTalkChoices chatOption=\"0\" cancelOption=\"0\"}}",
      "EUes": "{{anim id=\"FaintSmile\" target=\"actor\" targetSpec=\"\"}}Hoy no paramos de encontrarnos,\n{{string value=\"PlayerName\"}}.{{delay20}} ¿Cómo te va?{{setNpcTalkChoices chatOption=\"0\" cancelOption=\"0\"}}",
      "EUfr": "{{anim id=\"Laughing\" target=\"actor\" targetSpec=\"\"}}On se croise encore, {{string value=\"NickName\"}} ! {{i10_4}}{{anim id=\"Hello\" target=\"actor\" targetSpec=\"\"}}Tout va bien, {{string value=\"6\"}} ?{{setNpcTalkChoices chatOption=\"0\" cancelOption=\"0\"}}",
      "EUit": "{{anim id=\"Laughing\" target=\"actor\" targetSpec=\"\"}}Oggi non facciamo che incontrarci, {{string value=\"PlayerName\"}}! {{delay20}}{{anim id=\"Hello\" target=\"actor\" targetSpec=\"\"}}Comment ça va, {{string value=\"6\"}}?{{setNpcTalkChoices chatOption=\"0\" cancelOption=\"0\"}}",
      "EUnl": "{{anim id=\"Laughing\" target=\"actor\" targetSpec=\"\"}}{{capitalizeNextLetter}}{{string value=\"PlayerName\"}},{{delay20}} we blijven elkaar maar tegenkomen,{{delay20}} {{string value=\"Catchphrase\"}}!{{setNpcTalkChoices chatOption=\"0\" cancelOption=\"0\"}}",
      "EUru": "{{anim id=\"Laughing\" target=\"actor\" targetSpec=\"\"}}Мы с тобой сегодня весь день\nвстречаемся, {{string value=\"PlayerName\"}}!{{delay20}}\n{{capitalizeNextLetter}}{{string value=\"Catchphrase\"}}!{{setNpcTalkChoices chatOption=\"0\" cancelOption=\"0\"}}",
      "JPja": "{{anim id=\"BigSmile\" target=\"actor\" targetSpec=\"\"}}はい、{{delay8}}{{string value=\"4\"}}{{delay frames=\"40\"}}\n{{anim id=\"Hello\" target=\"actor\" targetSpec=\"\"}}どうかされましたか？　{{string value=\"6\"}}{{setNpcTalkChoices chatOption=\"0\" cancelOption=\"0\"}}",
      "KRko": "{{anim id=\"Laughing\" target=\"actor\" targetSpec=\"\"}}어머나, {{delay8}}{{string value=\"4\"}}님!{{delay frames=\"40\"}}\n오늘은 자주 뵙네요!{{delay frames=\"40\"}}\n{{anim id=\"Hello\" target=\"actor\" targetSpec=\"\"}}무슨 일 있으세요, {{string value=\"6\"}}?{{setNpcTalkChoices chatOption=\"0\" cancelOption=\"0\"}}",
      "TWzh": "{{anim id=\"Laughing\" target=\"actor\" targetSpec=\"\"}}哎呀，{{delay8}}{{string value=\"4\"}}。{{delay frames=\"40\"}}\n我今天常常碰到你呢！{{delay frames=\"40\"}}\n{{anim id=\"Hello\" target=\"actor\" targetSpec=\"\"}}是說，你怎麼了嗎？{{string value=\"6\"}}。{{setNpcTalkChoices chatOption=\"0\" cancelOption=\"0\"}}",
      "USen": "{{anim id=\"Laughing\" target=\"actor\" targetSpec=\"\"}}We just keep running into each\nother,{{delay20}} {{string value=\"PlayerName\"}}!{{i10_4}}\n{{anim id=\"FaintSmile\" target=\"actor\" targetSpec=\"\"}}What's up,{{delay20}} {{string value=\"Catchphrase\"}}?{{setNpcTalkChoices chatOption=\"0\" cancelOption=\"0\"}}",
      "USes": "{{anim id=\"FaintSmile\" target=\"actor\" targetSpec=\"\"}}Hoy nos encontramos sin parar,\n{{string value=\"PlayerName\"}}.{{delay20}} ¿Alguna novedad?{{setNpcTalkChoices chatOption=\"0\" cancelOption=\"0\"}}",
      "USfr": "{{anim id=\"Laughing\" target=\"actor\" targetSpec=\"\"}}On se croise encore, {{string value=\"NickName\"}}! {{anim id=\"Hello\" target=\"actor\" targetSpec=\"\"}}Tout va bien, {{string value=\"6\"}}?{{setNpcTalkChoices chatOption=\"0\" cancelOption=\"0\"}}"
    }
  }
]