﻿[
  {
    "label": "001",
    "attribute": "0x0000000000000000",
    "text": "{{anim id=\"HappyDance\" target=\"actor\" targetSpec=\"\"}}다행이다～{{delay20}}\n내 파우치를 찾았어～!"
  },
  {
    "label": "002",
    "attribute": "0x0000000000000000",
    "text": "{{anim id=\"Nodding\" target=\"actor\" targetSpec=\"\"}}맞아,{{delay8}} 이거야!{{delay frames=\"30\"}}\n{{anim id=\"HappyDance\" target=\"actor\" targetSpec=\"\"}}내 파우치～!"
  },
  {
    "label": "003",
    "attribute": "0x0000000000000000",
    "text": "{{anim id=\"HappyDance\" target=\"actor\" targetSpec=\"\"}}와아～! {{delay20}}내 파우치다～!{{delay40}}\n{{anim id=\"Smiling\" target=\"actor\" targetSpec=\"\"}}찾아서 다행이야～!"
  },
  {
    "label": "004",
    "attribute": "0x0000000000000000",
    "text": "{{anim id=\"HappyDance\" target=\"actor\" targetSpec=\"\"}}응, 이거 맞아～!{{delay40}}\n내가 찾던 파우치야～!"
  },
  {
    "label": "006",
    "attribute": "0x0000000000000000",
    "text": "{{anim id=\"HappyDance\" target=\"actor\" targetSpec=\"\"}}그래,{{delay8}} 이거야～!{{delay40}}\n{{anim id=\"Blushing\" target=\"actor\" targetSpec=\"\"}}내가 찾던 만화책!"
  },
  {
    "label": "007",
    "attribute": "0x0000000000000000",
    "text": "{{anim id=\"Clapping\" target=\"actor\" targetSpec=\"\"}}와아～ {{delay8}}이거 맞아!{{delay40}}\n{{anim id=\"Smiling\" target=\"actor\" targetSpec=\"\"}}내 만화책～!"
  },
  {
    "label": "008",
    "attribute": "0x0000000000000000",
    "text": "{{anim id=\"HappyFlower\" target=\"actor\" targetSpec=\"\"}}신난다～!{{delay40}}\n내 사인 수첩이다～!"
  },
  {
    "label": "009",
    "attribute": "0x0000000000000000",
    "text": "{{anim id=\"HappyDance\" target=\"actor\" targetSpec=\"\"}}와아, 맞아!{{delay40}}\n내 사인 수첩이야～!"
  },
  {
    "label": "011",
    "attribute": "0x0000000000000000",
    "text": "{{anim id=\"Aha\" target=\"actor\" targetSpec=\"\"}}앗?!{{delay40}}\n{{anim id=\"HappyDance\" target=\"actor\" targetSpec=\"\"}}이건 {{delay20}}내가 잃어버린 파우치잖아!"
  },
  {
    "label": "012",
    "attribute": "0x0000000000000000",
    "text": "{{anim id=\"Aha\" target=\"actor\" targetSpec=\"\"}}아앗! {{delay20}}이거\n{{anim id=\"Greeting\" target=\"actor\" targetSpec=\"\"}}내가 찾아다니던 파우치잖아!"
  },
  {
    "label": "013",
    "attribute": "0x0000000000000000",
    "text": "{{anim id=\"Aha\" target=\"actor\" targetSpec=\"\"}}어! {{delay8}}찾은 거야?!{{delay40}}\n{{anim id=\"HappyDance\" target=\"actor\" targetSpec=\"\"}}이 파우치,{{delay20}} 내가 계속 찾던 거야～!"
  },
  {
    "label": "014",
    "attribute": "0x0000000000000000",
    "text": "{{anim id=\"Aha\" target=\"actor\" targetSpec=\"\"}}깜짝이야～!{{delay40}}\n{{anim id=\"Love\" target=\"actor\" targetSpec=\"\"}}이거 {{delay20}}한동안 행방불명됐던{{delay20}}\n내 파우치잖아!"
  },
  {
    "label": "016",
    "attribute": "0x0000000000000000",
    "text": "{{anim id=\"Aha\" target=\"actor\" targetSpec=\"\"}}헉!{{delay40}}\n{{anim id=\"HappyDance\" target=\"actor\" targetSpec=\"\"}}이거{{delay20}} 내가 계속 찾아다니던\n만화책이잖아!"
  },
  {
    "label": "017",
    "attribute": "0x0000000000000000",
    "text": "{{anim id=\"Aha\" target=\"actor\" targetSpec=\"\"}}아앗!{{delay20}} 깜짝 놀랐네!{{delay40}}\n{{anim id=\"Smiling\" target=\"actor\" targetSpec=\"\"}}이거{{delay8}} 내 만화책이잖아!"
  },
  {
    "label": "018",
    "attribute": "0x0000000000000000",
    "text": "{{anim id=\"Aha\" target=\"actor\" targetSpec=\"\"}}잃어버렸던 내 사인 수첩을{{delay20}}\n찾게 될 줄이야～!"
  },
  {
    "label": "019",
    "attribute": "0x0000000000000000",
    "text": "{{anim id=\"Aha\" target=\"actor\" targetSpec=\"\"}}앗!{{delay40}}\n{{anim id=\"HappyDance\" target=\"actor\" targetSpec=\"\"}}잃어버렸던 내 사인 수첩이잖아!"
  },
  {
    "label": "021",
    "attribute": "0x0000000000000000",
    "text": "{{anim id=\"Blushing\" target=\"actor\" targetSpec=\"\"}}진짜 고마워～!{{i10_4}}\n{{anim id=\"Greeting\" target=\"actor\" targetSpec=\"\"}}나도 사례를 할게!"
  },
  {
    "label": "022",
    "attribute": "0x0000000000000000",
    "text": "{{anim id=\"BigSmile\" target=\"actor\" targetSpec=\"\"}}진짜 고마워!{{delay40}}\n{{anim id=\"Greeting\" target=\"actor\" targetSpec=\"\"}}나도 감사의 표시를 할게～!"
  },
  {
    "label": "023",
    "attribute": "0x0000000000000000",
    "text": "{{anim id=\"FaintSmile\" target=\"actor\" targetSpec=\"\"}}고마워!{{delay20}}\n{{anim id=\"Nodding\" target=\"actor\" targetSpec=\"\"}}덕분에 살았어～!{{delay40}}\n{{anim id=\"Greeting\" target=\"actor\" targetSpec=\"\"}}나도 답례를 할게!"
  },
  {
    "label": "024",
    "attribute": "0x0000000000000000",
    "text": "{{anim id=\"Smiling\" target=\"actor\" targetSpec=\"\"}}고마워～!{{delay20}}\n{{anim id=\"Nodding\" target=\"actor\" targetSpec=\"\"}}역시 {{string value=\"4\"}}{{gender5 m=\"이\" f=\"\"}}야!{{delay40}}\n{{anim id=\"Greeting\" target=\"actor\" targetSpec=\"\"}}내 답례를 받아줘!"
  },
  {
    "label": "026",
    "attribute": "0x0000000000000000",
    "text": "{{anim id=\"Blushing\" target=\"actor\" targetSpec=\"\"}}정말 고마워～!{{delay frames=\"40\"}}\n{{anim id=\"Greeting\" target=\"actor\" targetSpec=\"\"}}이건 내 마음이야,{{delay8}} 받아줘!"
  },
  {
    "label": "027",
    "attribute": "0x0000000000000000",
    "text": "{{anim id=\"Smiling\" target=\"actor\" targetSpec=\"\"}}찾아줘서 고마워!{{delay frames=\"40\"}}\n{{anim id=\"Blushing\" target=\"actor\" targetSpec=\"\"}}이건 내 마음이니까{{delay20}}\n받아줬으면 좋겠어!"
  },
  {
    "label": "028",
    "attribute": "0x0000000000000000",
    "text": "{{anim id=\"Nodding\" target=\"actor\" targetSpec=\"\"}}정말 고마워～!{{delay20}}\n{{anim id=\"Blushing\" target=\"actor\" targetSpec=\"\"}}계속 찾아다녔거든!{{delay40}}\n{{anim id=\"Greeting\" target=\"actor\" targetSpec=\"\"}}뭘로 사례를 하면 좋을까?"
  },
  {
    "label": "029",
    "attribute": "0x0000000000000000",
    "text": "{{anim id=\"Blushing\" target=\"actor\" targetSpec=\"\"}}정말 고마워!{{delay40}}\n계속 찾고 있었거든～{{delay frames=\"40\"}}\n{{anim id=\"BigSmile\" target=\"actor\" targetSpec=\"\"}}내 마음의 표시를 받아줘!"
  },
  {
    "label": "031",
    "attribute": "0x0000000000000000",
    "text": "{{anim id=\"HappyFlower\" target=\"actor\" targetSpec=\"\"}}{{fun_0004007D arg=\"0x0000\"}}{{gender5 m=\"이\" f=\"\"}}야～!{{delay frames=\"40\"}}\n{{anim id=\"FaintSmile\" target=\"actor\" targetSpec=\"\"}}내가 추천하는 거니까 {{delay8}}받아줘! {{string value=\"6\"}}!"
  },
  {
    "label": "032",
    "attribute": "0x0000000000000000",
    "text": "{{anim id=\"Nodding\" target=\"actor\" targetSpec=\"\"}}{{fun_0004007D arg=\"0x0000\"}}{{gender5 m=\"이\" f=\"\"}}야!{{delay frames=\"40\"}}\n{{anim id=\"Hello\" target=\"actor\" targetSpec=\"\"}}잘 써줬음 좋겠다～! {{string value=\"6\"}}!"
  },
  {
    "label": "033",
    "attribute": "0x0000000000000000",
    "text": "{{anim id=\"Smiling\" target=\"actor\" targetSpec=\"\"}}{{fun_0004007D arg=\"0x0000\"}}{{gender5 m=\"이\" f=\"\"}}야!{{delay frames=\"40\"}}\n{{anim id=\"ShyBoy\" target=\"actor\" targetSpec=\"\"}}맘에 들었으면 좋겠다～ {{string value=\"6\"}}!"
  },
  {
    "label": "034",
    "attribute": "0x0000000000000000",
    "text": "{{anim id=\"FaintSmile\" target=\"actor\" targetSpec=\"\"}}{{fun_0004007D arg=\"0x0000\"}}!{{delay frames=\"40\"}}\n{{anim id=\"Blushing\" target=\"actor\" targetSpec=\"\"}}내 마음이야! {{string value=\"6\"}}!"
  },
  {
    "label": "035",
    "attribute": "0x0000000000000000",
    "text": "{{anim id=\"BigSmile\" target=\"actor\" targetSpec=\"\"}}{{fun_0004007D arg=\"0x0000\"}}{{gender5 m=\"이\" f=\"\"}}야～!{{delay frames=\"40\"}}\n{{anim id=\"HappyDance\" target=\"actor\" targetSpec=\"\"}}잘 써줬으면 좋겠어～! {{string value=\"6\"}}!"
  },
  {
    "label": "036",
    "attribute": "0x0000000000000000",
    "text": "{{anim id=\"Blushing\" target=\"actor\" targetSpec=\"\"}}{{fun_0004007D arg=\"0x0000\"}}{{gender5 m=\"이\" f=\"\"}}야!{{delay frames=\"40\"}}\n{{anim id=\"FaintSmile\" target=\"actor\" targetSpec=\"\"}}한번 써봐～! {{string value=\"6\"}}!"
  },
  {
    "label": "038",
    "attribute": "0x0000000000000000",
    "text": "{{anim id=\"Eh\" target=\"actor\" targetSpec=\"\"}}어,{{delay40}} 정말? {{string value=\"6\"}}?"
  },
  {
    "label": "039",
    "attribute": "0x0000000000000000",
    "text": "{{anim id=\"Shocked\" target=\"actor\" targetSpec=\"\"}}어? {{delay40}}에이, 진짜～?! {{string value=\"6\"}}?"
  },
  {
    "label": "040",
    "attribute": "0x0000000000000000",
    "text": "{{anim id=\"Worried\" target=\"actor\" targetSpec=\"\"}}뭐야～ {{delay20}}기대했잖아～! {{string value=\"6\"}}!"
  },
  {
    "label": "041",
    "attribute": "0x0000000000000000",
    "text": "{{anim id=\"Worried\" target=\"actor\" targetSpec=\"\"}}어,{{delay20}} 착각한 거야? {{string value=\"6\"}}?"
  },
  {
    "label": "043",
    "attribute": "0x0000000000000000",
    "text": "{{anim id=\"QuestionMark\" target=\"actor\" targetSpec=\"\"}}응～?{{delay8}} 뭔데? {{string value=\"6\"}}?"
  },
  {
    "label": "044",
    "attribute": "0x0000000000000000",
    "text": "{{anim id=\"QuestionMark\" target=\"actor\" targetSpec=\"\"}}어디～? {{string value=\"6\"}}?"
  },
  {
    "label": "045",
    "attribute": "0x0000000000000000",
    "text": "{{anim id=\"Worried\" target=\"actor\" targetSpec=\"\"}}뜸 들이지 말구～ {{string value=\"6\"}}!"
  },
  {
    "label": "046",
    "attribute": "0x0000000000000000",
    "text": "{{anim id=\"Hello\" target=\"actor\" targetSpec=\"\"}}어～{{delay20}} 왜 그래? {{string value=\"6\"}}?"
  },
  {
    "label": "048",
    "attribute": "0x0000000000000000",
    "text": "{{anim id=\"Worried\" target=\"actor\" targetSpec=\"\"}}나도 찾아보고는 있는데{{delay20}}\n{{anim id=\"Restless\" target=\"actor\" targetSpec=\"\"}}잃어버린 파우치가{{delay20}}\n도통 보이질 않아～{{pageBreak}}{{anim id=\"Thinking\" target=\"actor\" targetSpec=\"\"}}밖에서 잃어버린 것 같은데{{delay20}}\n대체 어디에 있는 걸까? {{string value=\"6\"}}?"
  },
  {
    "label": "049",
    "attribute": "0x0000000000000000",
    "text": "{{anim id=\"Thinking\" target=\"actor\" targetSpec=\"\"}}내 파우치는{{delay20}}\n어디로 사라진 걸까～?{{pageBreak}}{{anim id=\"Restless\" target=\"actor\" targetSpec=\"\"}}집은 다 뒤져봤는데 없었고,{{delay20}}\n아무래도 밖에서 떨어뜨린 것 같아{{delay20}}\n{{anim id=\"OhGeez\" target=\"actor\" targetSpec=\"\"}}정말 어딨는 거야～ {{string value=\"6\"}}!"
  },
  {
    "label": "050",
    "attribute": "0x0000000000000000",
    "text": "{{anim id=\"Worried\" target=\"actor\" targetSpec=\"\"}}내 만화책이{{delay20}}\n행방불명됐어～{{pageBreak}}{{anim id=\"Thinking\" target=\"actor\" targetSpec=\"\"}}아무래도{{delay20}} 밖에서\n잃어버린 것 같아～ {{string value=\"6\"}}～"
  },
  {
    "label": "051",
    "attribute": "0x0000000000000000",
    "text": "{{anim id=\"Restless\" target=\"actor\" targetSpec=\"\"}}내 사인 수첩이{{delay20}}\n통 보이질 않아～{{pageBreak}}{{anim id=\"Thinking\" target=\"actor\" targetSpec=\"\"}}집 안을 뒤져봐도 없었으니까{{delay20}}\n아마 밖에서 떨어뜨린 것 같은데{{string value=\"...\"}}\n{{anim id=\"Worried\" target=\"actor\" targetSpec=\"\"}}대체 어디로 사라진 거지～ {{string value=\"6\"}}?"
  },
  {
    "label": "053",
    "attribute": "0x0000000000000000",
    "text": "{{anim id=\"Worried\" target=\"actor\" targetSpec=\"\"}}미안!{{delay20}} 이건 내 거가 아니야～{{pageBreak}}{{anim id=\"Restless\" target=\"actor\" targetSpec=\"\"}}이거랑 비슷한 물건을{{delay8}}\n{{selection value=\"SelectedVillager\"}}{{gender5 m=\"이\" f=\"가\"}}{{delay20}}\n{{anim id=\"Thinking\" target=\"actor\" targetSpec=\"\"}}갖고 다녔던 것 같은데, {{string value=\"6\"}}{{string value=\"...\"}}"
  },
  {
    "label": "054",
    "attribute": "0x0000000000000000",
    "text": "{{anim id=\"Worried\" target=\"actor\" targetSpec=\"\"}}으음{{string value=\"...\"}}{{delay20}} 이건 내 거가 아니야{{pageBreak}}{{anim id=\"EmotEnd\" target=\"actor\" targetSpec=\"\"}}왠지 이 디자인{{string value=\"...\"}}{{delay20}}\n{{anim id=\"ShyBoy\" target=\"actor\" targetSpec=\"\"}}{{selection value=\"SelectedVillager\"}}{{gender5 m=\"이\" f=\"가\"}}{{delay8}} 갖고 다닐 것 같은\n느낌인데? {{string value=\"6\"}}?"
  },
  {
    "label": "055",
    "attribute": "0x0000000000000000",
    "text": "{{anim id=\"Negative\" target=\"actor\" targetSpec=\"\"}}힘들게 찾아줬는데{{delay20}}\n이건 내 물건이 아니야～{{pageBreak}}{{anim id=\"Thinking\" target=\"actor\" targetSpec=\"\"}}으음～ {{delay20}}내 생각에 이건{{delay20}}\n{{selection value=\"SelectedVillager\"}} 거가{{delay8}}\n아닐까 싶네～ {{string value=\"6\"}}～"
  }
]