﻿[
  {
    "label": "001",
    "attribute": "0x0000000000000000",
    "locale": {
      "CNzh": "{{anim id=\"Smiling\" target=\"actor\" targetSpec=\"\"}}嘿，{{delay20}}你是来拿{{delay20}}\n{{anim id=\"EmotEnd\" target=\"actor\" targetSpec=\"\"}}{{color id=\"1\"}}复活节花冠{{color id=\"65535\"}}的手册的吗？",
      "EUde": "{{anim id=\"Silent\" target=\"actor\" targetSpec=\"\"}}Du willst dir deine Anleitung für die\n{{color id=\"1\"}}Häschentag-Krone{{color id=\"65535\"}} abholen?",
      "EUen": "{{anim id=\"Nodding\" target=\"actor\" targetSpec=\"\"}}You back for this {{color id=\"1\"}}{{wordInfo gender=\"0\" indefArticle=\"1\" defArticle=\"3\"}}Bunny Day crown\n{{color id=\"65535\"}}DIY recipe?",
      "EUes": "{{anim id=\"FaintSmile\" target=\"actor\" targetSpec=\"\"}}¿Has vuelto a por tu proyecto para\nhacerte una {{color id=\"1\"}}guirnalda Caza del\nHuevo{{color id=\"65535\"}}?",
      "EUfr": "{{anim id=\"Nodding\" target=\"actor\" targetSpec=\"\"}}On vient chercher son plan de {{color id=\"1\"}}coiffe\nfête des œufs{{color id=\"65535\"}} ?",
      "EUit": "{{anim id=\"FaintSmile\" target=\"actor\" targetSpec=\"\"}}Sei di nuovo qui per lo schema\nfai da te con cui realizzare una\n{{color id=\"1\"}}corona caccia all'uovo{{color id=\"65535\"}}?",
      "EUnl": "{{anim id=\"FaintSmile\" target=\"actor\" targetSpec=\"\"}}Kom je het doe-het-zelfplan voor\neen {{color id=\"1\"}}eierkroon {{color id=\"65535\"}}halen?",
      "EUru": "{{anim id=\"Nodding\" target=\"actor\" targetSpec=\"\"}}Ты за инструкцией «Сделай сам»\nдля {{color id=\"1\"}}короны на День зайцев{{color id=\"65535\"}}?",
      "JPja": "{{anim id=\"Smiling\" target=\"actor\" targetSpec=\"\"}}よお、{{delay20}}{{color id=\"1\"}}イースターなかんむり{{color id=\"65535\"}}のレシピ{{delay20}}\n{{anim id=\"EmotEnd\" target=\"actor\" targetSpec=\"\"}}{{ruby charSpan=\"1\" value=\"う\"}}受け{{ruby charSpan=\"1\" value=\"と\"}}取りに{{ruby charSpan=\"1\" value=\"き\"}}来てくれたのか？",
      "KRko": "{{anim id=\"Smiling\" target=\"actor\" targetSpec=\"\"}}오, {{delay20}}{{color id=\"1\"}}이스터 화관{{color id=\"65535\"}}의 레시피를{{delay20}}\n{{anim id=\"EmotEnd\" target=\"actor\" targetSpec=\"\"}}받으러 온 거냐?",
      "TWzh": "{{anim id=\"Smiling\" target=\"actor\" targetSpec=\"\"}}嘿，{{delay20}}你來拿{{color id=\"1\"}}復活節花冠{{color id=\"65535\"}}{{delay20}}的{{anim id=\"EmotEnd\" target=\"actor\" targetSpec=\"\"}}方程式嗎？",
      "USen": "{{anim id=\"Nodding\" target=\"actor\" targetSpec=\"\"}}You back for this {{color id=\"1\"}}{{wordInfo gender=\"0\" indefArticle=\"1\" defArticle=\"3\"}}Bunny Day crown\n{{color id=\"65535\"}}DIY recipe?",
      "USes": "{{anim id=\"FaintSmile\" target=\"actor\" targetSpec=\"\"}}¿Volviste a buscar el esquema para\nhacer una {{color id=\"1\"}}{{wordInfo gender=\"2\" indefArticle=\"2\" defArticle=\"4\"}}tiara Caza del Huevo{{color id=\"65535\"}}?",
      "USfr": "{{anim id=\"Nodding\" target=\"actor\" targetSpec=\"\"}}On vient chercher son plan de {{color id=\"1\"}}coiffe\nfête des œufs{{color id=\"65535\"}}?"
    }
  },
  {
    "label": "002",
    "attribute": "0x0000000000000000",
    "locale": {
      "CNzh": "{{anim id=\"FaintSmile\" target=\"actor\" targetSpec=\"\"}}我等好久啦。{{delay frames=\"30\"}}\n{{anim id=\"EmotEnd\" target=\"actor\" targetSpec=\"\"}}你是来拿{{delay20}}\n{{color id=\"1\"}}复活节包包{{color id=\"65535\"}}的手册对吧？",
      "EUde": "{{anim id=\"FaintSmile\" target=\"actor\" targetSpec=\"\"}}Kannst es wohl kaum abwarten,{{delay8}}\ndie Anleitung für den {{color id=\"1\"}}Häschentag-\nRucksack{{color id=\"65535\"}} zu bekommen?",
      "EUen": "{{anim id=\"Nodding\" target=\"actor\" targetSpec=\"\"}}Ready for this {{color id=\"1\"}}{{wordInfo gender=\"0\" indefArticle=\"1\" defArticle=\"3\"}}Bunny Day bag{{color id=\"65535\"}} DIY\nrecipe, kiddo?",
      "EUes": "{{anim id=\"Smiling\" target=\"actor\" targetSpec=\"\"}}¿Estás list{{gender2 m=\"o\" f=\"a\"}} para hacerte con\nel proyecto de la {{color id=\"1\"}}mochila Caza\ndel Huevo{{color id=\"65535\"}}?",
      "EUfr": "{{anim id=\"Nodding\" target=\"actor\" targetSpec=\"\"}}Prêt{{gender2 m=\"\" f=\"e\"}} pour ce plan de {{color id=\"1\"}}sac fête des\nœufs{{color id=\"65535\"}}, gamin{{gender2 m=\"\" f=\"e\"}} ?",
      "EUit": "{{anim id=\"Nodding\" target=\"actor\" targetSpec=\"\"}}Sei {{gender2 m=\"pronto\" f=\"pronta\"}} per lo schema fai da\nte con cui puoi realizzare uno\n{{color id=\"1\"}}zaino caccia all'uovo{{color id=\"65535\"}}?",
      "EUnl": "{{anim id=\"Nodding\" target=\"actor\" targetSpec=\"\"}}Heb je plek voor het doe-het-zelfplan\nvoor een {{color id=\"1\"}}eiertas{{color id=\"65535\"}}, {{gender2 m=\"jochie\" f=\"meid\"}}?",
      "EUru": "{{anim id=\"Nodding\" target=\"actor\" targetSpec=\"\"}}Хочешь забрать инструкцию\n«Сделай сам» для {{color id=\"1\"}}сумки на\nДень зайцев{{color id=\"65535\"}}?",
      "JPja": "{{anim id=\"FaintSmile\" target=\"actor\" targetSpec=\"\"}}{{ruby charSpan=\"1\" value=\"ま\"}}待ってたぞ！{{delay frames=\"30\"}}\n{{anim id=\"EmotEnd\" target=\"actor\" targetSpec=\"\"}}{{color id=\"1\"}}イースターなバッグ{{color id=\"65535\"}}のレシピ、{{delay20}}\n{{ruby charSpan=\"1\" value=\"と\"}}取りに{{ruby charSpan=\"1\" value=\"き\"}}来てくれたんだな？",
      "KRko": "{{anim id=\"FaintSmile\" target=\"actor\" targetSpec=\"\"}}어서 와라!{{delay frames=\"30\"}}\n{{anim id=\"EmotEnd\" target=\"actor\" targetSpec=\"\"}}{{color id=\"1\"}}이스터 가방{{color id=\"65535\"}}의 레시피를{{delay20}} 받으러 온 거지?",
      "TWzh": "{{anim id=\"FaintSmile\" target=\"actor\" targetSpec=\"\"}}我等你很久了。{{delay frames=\"30\"}}\n{{anim id=\"EmotEnd\" target=\"actor\" targetSpec=\"\"}}你來拿{{color id=\"1\"}}復活節包包{{color id=\"65535\"}}的方程式，對吧？{{delay20}}\n",
      "USen": "{{anim id=\"Nodding\" target=\"actor\" targetSpec=\"\"}}Ready for this {{color id=\"1\"}}{{wordInfo gender=\"0\" indefArticle=\"1\" defArticle=\"3\"}}Bunny Day bag{{color id=\"65535\"}} DIY\nrecipe, kiddo?",
      "USes": "{{anim id=\"Smiling\" target=\"actor\" targetSpec=\"\"}}¿Estás list{{gender2 m=\"o\" f=\"a\"}} para conseguir el esquema de la {{color id=\"1\"}}{{wordInfo gender=\"2\" indefArticle=\"2\" defArticle=\"4\"}}mochila Caza del Huevo{{color id=\"65535\"}}?",
      "USfr": "{{anim id=\"Nodding\" target=\"actor\" targetSpec=\"\"}}Prêt{{gender2 m=\"\" f=\"e\"}} pour ce plan de {{color id=\"1\"}}sac fête des\nœufs{{color id=\"65535\"}}, {{gender2 m=\"le jeune\" f=\"la jeune\"}}?"
    }
  },
  {
    "label": "010",
    "attribute": "0x0000000000000000",
    "locale": {
      "CNzh": "{{anim id=\"Nodding\" target=\"actor\" targetSpec=\"\"}}制作过程可能得花点工夫，{{delay20}}\n不过完成之后{{delay8}}的成就感也是难以比拟的啊。{{delay40}}\n{{anim id=\"Smiling\" target=\"actor\" targetSpec=\"\"}}你就好好加油吧！{{string value=\"6\"}}。",
      "EUde": "{{anim id=\"Nodding\" target=\"actor\" targetSpec=\"\"}}Sachen selbst zusammenzubasteln\nkostet Mühe, {{delay20}}aber es stärkt den\nCharakter.{{delay40}} Also streng dich an!",
      "EUen": "{{anim id=\"Serious\" target=\"actor\" targetSpec=\"\"}}It doesn't look like it's the easiest\nDIY project, but that just means a\nlittle extra pride when you're done.{{pageBreak}}{{anim id=\"Smiling\" target=\"actor\" targetSpec=\"\"}}Now go on and give it your\nbest shot, {{string value=\"Catchphrase\"}}!",
      "EUes": "{{anim id=\"Restless\" target=\"actor\" targetSpec=\"\"}}No parece especialmente sencillo,{{delay8}}\npero con los retos es como uno\n{{anim id=\"Serious\" target=\"actor\" targetSpec=\"\"}}se supera y crece, ¿verdad?\n{{anim id=\"Smiling\" target=\"actor\" targetSpec=\"\"}}¡Pues manos a la obra, {{string value=\"6\"}}!",
      "EUfr": "{{anim id=\"Serious\" target=\"actor\" targetSpec=\"\"}}C'est pas le projet de bricolage le\nplus évident, mais pense à ta fierté\nquand il sera terminé !{{pageBreak}}{{anim id=\"Smiling\" target=\"actor\" targetSpec=\"\"}}Allez, rassemble tes outils et fais de\nton mieux, {{string value=\"Catchphrase\"}} !",
      "EUit": "{{anim id=\"WrySmile\" target=\"actor\" targetSpec=\"\"}}Non sembra roba così semplice da\nfare, {{delay8}}ma pensa che soddisfazione\nse ci riesci!{{pageBreak}}{{anim id=\"Smiling\" target=\"actor\" targetSpec=\"\"}}Dai, fai del tuo meglio e vediamo\ncosa salta fuori, {{string value=\"6\"}}!{{pageBreak}}{{anim id=\"Serious\" target=\"actor\" targetSpec=\"\"}}Occhio che non ti sfugga via, però.\n{{delay20}}{{anim id=\"Laughing\" target=\"actor\" targetSpec=\"\"}}AHAHAH!",
      "EUnl": "{{anim id=\"Serious\" target=\"actor\" targetSpec=\"\"}}Het is zeker niet het makkelijkste\nproject om te doe-het-zelven, maar\ndaar word je hard van.{{pageBreak}}{{anim id=\"Smiling\" target=\"actor\" targetSpec=\"\"}}Doe je best, {{string value=\"Catchphrase\"}}!",
      "EUru": "{{anim id=\"Serious\" target=\"actor\" targetSpec=\"\"}}Это не самая простая инструкция\n«Сделай сам», но если немного\nпостараться, то все получится.{{pageBreak}}{{anim id=\"Smiling\" target=\"actor\" targetSpec=\"\"}}Давай, покажи, на что ты способ{{gender2 m=\"ен\" f=\"на\"}}!\n{{capitalizeNextLetter}}{{string value=\"Catchphrase\"}}!",
      "JPja": "{{anim id=\"Nodding\" target=\"actor\" targetSpec=\"\"}}{{ruby charSpan=\"1\" value=\"つく\"}}作るには　ちょいと{{ruby charSpan=\"2\" value=\"てま\"}}手間がかかりそうだが、{{delay20}}\n{{ruby charSpan=\"2\" value=\"かんせい\"}}完成すりゃ{{delay8}}　その{{ruby charSpan=\"2\" value=\"ぶんよろこ\"}}分喜びも　ひとしおってもんよ{{delay40}}\n{{anim id=\"Smiling\" target=\"actor\" targetSpec=\"\"}}せいぜい　がんばるんだな！　{{string value=\"6\"}}",
      "KRko": "{{anim id=\"Nodding\" target=\"actor\" targetSpec=\"\"}}만드는 덴 시간이 좀 걸리겠지만{{delay20}}\n완성되면{{delay8}} 그만큼 뿌듯함도 크겠지{{delay40}}\n{{anim id=\"Smiling\" target=\"actor\" targetSpec=\"\"}}모쪼록 열심히 해보라고! {{string value=\"6\"}}!",
      "TWzh": "{{anim id=\"Nodding\" target=\"actor\" targetSpec=\"\"}}雖然製作時有一點辛苦，{{delay20}}\n不過完成時，{{delay8}}那份喜悅會更大。{{delay40}}\n{{anim id=\"Smiling\" target=\"actor\" targetSpec=\"\"}}你就盡力去做吧！{{string value=\"6\"}}。",
      "USen": "{{anim id=\"Serious\" target=\"actor\" targetSpec=\"\"}}It doesn't look like it's the easiest\nDIY project, but that just means a\nlittle extra pride when you're done.{{pageBreak}}{{anim id=\"Smiling\" target=\"actor\" targetSpec=\"\"}}Now go on and give it your\nbest shot, {{string value=\"Catchphrase\"}}!",
      "USes": "{{anim id=\"Restless\" target=\"actor\" targetSpec=\"\"}}No parece especialmente sencillo,{{delay8}}\npero con retos es como uno\n{{anim id=\"Serious\" target=\"actor\" targetSpec=\"\"}}se supera y crece, ¿verdad?\n{{anim id=\"Smiling\" target=\"actor\" targetSpec=\"\"}}¡Pues manos a la obra, {{string value=\"6\"}}!",
      "USfr": "{{anim id=\"Serious\" target=\"actor\" targetSpec=\"\"}}C'est pas le projet de bricolage le\nplus évident, mais pense à ta fierté\nquand il sera terminé!{{pageBreak}}{{anim id=\"Smiling\" target=\"actor\" targetSpec=\"\"}}Allez, rassemble tes outils et fais de\nton mieux, {{string value=\"Catchphrase\"}}!"
    }
  },
  {
    "label": "011",
    "attribute": "0x0000000000000000",
    "locale": {
      "CNzh": "{{anim id=\"Negative\" target=\"actor\" targetSpec=\"\"}}喂，{{delay8}}你东西{{delay20}}\n不还是满的吗！{{delay40}}\n{{anim id=\"Nodding\" target=\"actor\" targetSpec=\"\"}}等腾出空间之后再来找我吧。{{string value=\"6\"}}。",
      "EUde": "{{anim id=\"Negative\" target=\"actor\" targetSpec=\"\"}}Moment mal, {{delay8}}du hast immer noch\nnicht genug Platz dafür!{{delay40}} {{anim id=\"Nodding\" target=\"actor\" targetSpec=\"\"}}Gib Laut,{{delay8}}\nwenn sich das geändert hat.",
      "EUen": "{{anim id=\"Shocked\" target=\"actor\" targetSpec=\"\"}}Now just a toast-butterin' minute!{{delay20}}\nYour pockets are still full.{{delay frames=\"40\"}} {{anim id=\"Serious\" target=\"actor\" targetSpec=\"\"}}Go make\nsome space and come back, OK?",
      "EUes": "{{anim id=\"Shocked\" target=\"actor\" targetSpec=\"\"}}Pero pero pero{{delay8}} ¿qué está pasando?{{delay20}}\nSigues llevando los bolsillos llenos.{{delay20}}\n{{anim id=\"Sighing\" target=\"actor\" targetSpec=\"\"}}{{color id=\"4\"}}(Los jóvenes de hoy no aprenden{{string value=\"...\"}}{{delay8}}){{color id=\"65535\"}}",
      "EUfr": "{{anim id=\"Shocked\" target=\"actor\" targetSpec=\"\"}}Oh oh ! Faux départ !{{delay20}} Tes poches\nsont encore pleines.{{delay frames=\"40\"}}{{anim id=\"Serious\" target=\"actor\" targetSpec=\"\"}} Fais-moi un peu\nde ménage là-dedans, je t'attends.",
      "EUit": "{{anim id=\"Shocked\" target=\"actor\" targetSpec=\"\"}}Ma uffa, che succede qui?{{delay20}} Hai\nancora le tasche piene!{{delay frames=\"40\"}} {{anim id=\"Serious\" target=\"actor\" targetSpec=\"\"}}Dai, fai\nspazio e poi torna da me, OK?",
      "EUnl": "{{anim id=\"Shocked\" target=\"actor\" targetSpec=\"\"}}Krijg nou wat!{{delay20}} Je zakken zijn nog\nsteeds vol.{{delay frames=\"40\"}} {{anim id=\"Serious\" target=\"actor\" targetSpec=\"\"}}Maak maar even wat\nruimte en kom dan weer terug, oké?",
      "EUru": "{{anim id=\"Shocked\" target=\"actor\" targetSpec=\"\"}}Погоди секунду!{{delay20}} У тебя же до сих\nпор карманы битком набиты.{{delay frames=\"40\"}}\n{{anim id=\"Serious\" target=\"actor\" targetSpec=\"\"}}Давай-ка освободи место!",
      "JPja": "{{anim id=\"Negative\" target=\"actor\" targetSpec=\"\"}}おいおい、{{delay8}}オメェ{{delay20}}\nまだ　もちものが　いっぱいじゃねぇか！{{delay40}}\n{{anim id=\"Nodding\" target=\"actor\" targetSpec=\"\"}}{{ruby charSpan=\"1\" value=\"あ\"}}空きを{{ruby charSpan=\"1\" value=\"つく\"}}作ってから　{{ruby charSpan=\"2\" value=\"でなお\"}}出直してくれ、{{string value=\"6\"}}",
      "KRko": "{{anim id=\"Negative\" target=\"actor\" targetSpec=\"\"}}이봐, {{delay8}}너{{delay20}} 아직도 주머니가 한가득이잖냐!{{delay40}}\n{{anim id=\"Nodding\" target=\"actor\" targetSpec=\"\"}}짐을 좀 줄인 다음에\n다시 와라, {{string value=\"6\"}}!",
      "TWzh": "{{anim id=\"Negative\" target=\"actor\" targetSpec=\"\"}}喂喂，{{delay8}}你這傢伙，{{delay20}}\n持有物品根本還是滿的嘛！{{delay40}}\n{{anim id=\"Nodding\" target=\"actor\" targetSpec=\"\"}}你先騰出空間再過來吧，{{string value=\"6\"}}。",
      "USen": "{{anim id=\"Shocked\" target=\"actor\" targetSpec=\"\"}}Now just a toast-butterin' minute!{{delay20}}\nYour pockets are still full.{{delay frames=\"40\"}} {{anim id=\"Serious\" target=\"actor\" targetSpec=\"\"}}Go make\nsome space and come back, OK?",
      "USes": "{{anim id=\"Shocked\" target=\"actor\" targetSpec=\"\"}}Pero pero pero{{delay8}} ¿qué está pasando?{{delay20}}\nSigues con los bolsillos llenos.{{delay20}}\n{{anim id=\"Sighing\" target=\"actor\" targetSpec=\"\"}}{{color id=\"4\"}}(Los jóvenes de hoy no aprenden{{string value=\"...\"}}{{delay8}}).{{color id=\"65535\"}}",
      "USfr": "{{anim id=\"Shocked\" target=\"actor\" targetSpec=\"\"}}Oh oh! Faux départ!{{delay20}} Tes poches\nsont encore pleines.{{delay frames=\"40\"}}{{anim id=\"Serious\" target=\"actor\" targetSpec=\"\"}} Fais-moi un peu\nde ménage là-dedans, je t'attends."
    }
  },
  {
    "label": "020",
    "attribute": "0x0000000000000000",
    "locale": {
      "CNzh": "{{string value=\"NickName\"}}，{{delay20}}{{anim id=\"FaintSmile\" target=\"actor\" targetSpec=\"\"}}你感兴趣的话，{{delay8}}\n要不要告诉你{{delay8}}\n{{color id=\"1\"}}复活节花冠{{color id=\"65535\"}}的DIY手册啊？{{pageBreak}}{{anim id=\"ShyBoy\" target=\"actor\" targetSpec=\"\"}}本来就是{{delay20}}我在散步的时候{{delay8}}\n发现的手册，{{delay40}}\n{{anim id=\"FaintSmile\" target=\"actor\" targetSpec=\"\"}}所以想{{delay8}}和你分享一下。",
      "EUde": "{{capitalizeNextLetter}}{{string value=\"NickName\"}}, {{delay8}}hast du Interesse an einer Bastelanleitung für eine {{color id=\"1\"}}Häschentag-Krone{{color id=\"65535\"}}?{{pageBreak}}{{anim id=\"ShyBoy\" target=\"actor\" targetSpec=\"\"}}Die ist mir vorhin in die Hände\ngefallen.{{delay40}} {{anim id=\"EmotEnd\" target=\"actor\" targetSpec=\"\"}}Du bist doch eher das\nZielpublikum für so was.",
      "EUen": "{{anim id=\"Worried\" target=\"actor\" targetSpec=\"\"}}So get this. {{delay20}}Some clumsy litterbug\ndropped their DIY recipe out in front\nof my house.{{pageBreak}}{{anim id=\"Nodding\" target=\"actor\" targetSpec=\"\"}}It's for a {{color id=\"1\"}}{{wordInfo gender=\"0\" indefArticle=\"1\" defArticle=\"3\"}}Bunny Day crown{{color id=\"65535\"}}.{{delay frames=\"40\"}} {{anim id=\"QuestionMark\" target=\"actor\" targetSpec=\"\"}}Want\nit?{{delay20}} I cleaned the dirt off as best\nI could, so it oughta be legible.",
      "EUes": "{{anim id=\"Worried\" target=\"actor\" targetSpec=\"\"}}No te lo pierdas:{{delay20}} {{anim id=\"Angry\" target=\"actor\" targetSpec=\"\"}}algún cochino\nha tirado un papelajo delante de\nla puerta de mi casa.\n{{anim id=\"Sighing\" target=\"actor\" targetSpec=\"\"}}Lo iba a reciclar,{{delay8}} pero es un proyecto\nde bricolaje para hacerse uno sus\npropias {{color id=\"1\"}}guirnaldas Caza del Huevo{{color id=\"65535\"}}.\n{{anim id=\"QuestionMark\" target=\"actor\" targetSpec=\"\"}}A ti te gustan las manualidades\ny tal, ¿no?{{delay20}} {{anim id=\"Grin\" target=\"actor\" targetSpec=\"\"}}Pues toma, ya lo reciclas\ntú si quieres{{string value=\"...\"}}",
      "EUfr": "{{anim id=\"Worried\" target=\"actor\" targetSpec=\"\"}}Un sauvageon a jeté un plan de bricolage devant ma porte{{string value=\"...\"}} {{anim id=\"Outraged\" target=\"actor\" targetSpec=\"\"}}Tu te rends compte ?!{{delay20}}{{pageBreak}}{{anim id=\"Nodding\" target=\"actor\" targetSpec=\"\"}}C'est pour bricoler une {{color id=\"1\"}}coiffe fête\ndes œufs{{color id=\"65535\"}}.{{delay frames=\"40\"}} {{anim id=\"QuestionMark\" target=\"actor\" targetSpec=\"\"}}Ça te dit ?{{delay20}} Je l'ai nettoyé\ncomme j'ai pu, au moins c'est lisible.",
      "EUit": "{{anim id=\"Worried\" target=\"actor\" targetSpec=\"\"}}Questo sì che è strano. {{delay20}}Qualcuno\ndai modi poco civili ha lasciato uno\nschema fai da te di fronte a casa mia.{{pageBreak}}{{anim id=\"Nodding\" target=\"actor\" targetSpec=\"\"}}Serve a realizzare una {{color id=\"1\"}}corona caccia\nall'uovo{{color id=\"65535\"}}. {{delay frames=\"40\"}}{{anim id=\"QuestionMark\" target=\"actor\" targetSpec=\"\"}}Lo vuoi tu?{{delay20}} Io sono già\nregale abbastanza. {{delay20}}{{anim id=\"Laughing\" target=\"actor\" targetSpec=\"\"}}AHAHAH!",
      "EUnl": "{{anim id=\"Worried\" target=\"actor\" targetSpec=\"\"}}Moet je dit horen. {{delay20}}Een of andere\nstraatvervuiler heeft voor mijn huis\neen doe-het-zelfplan laten valllen.{{pageBreak}}{{anim id=\"Nodding\" target=\"actor\" targetSpec=\"\"}}Het is voor een {{color id=\"1\"}}eierkroon{{color id=\"65535\"}}.{{delay frames=\"40\"}} {{anim id=\"QuestionMark\" target=\"actor\" targetSpec=\"\"}}Wil jij het\nplan hebben?{{delay20}} Ik heb het vuil eraf\ngeveegd, dus het is leesbaar.",
      "EUru": "{{anim id=\"Worried\" target=\"actor\" targetSpec=\"\"}}Держи вот.{{delay20}} Какая-то неряха\nобронила эту инструкцию «Сделай\nсам» прямо перед моим домом.{{pageBreak}}{{anim id=\"Nodding\" target=\"actor\" targetSpec=\"\"}}Она для {{color id=\"1\"}}короны на День зайцев{{color id=\"65535\"}}.{{delay frames=\"40\"}}\n{{anim id=\"QuestionMark\" target=\"actor\" targetSpec=\"\"}}Тебе пригодится?{{delay20}} Инструкция чуть\nзапачкалась, но прочитать можно.",
      "JPja": "{{string value=\"NickName\"}}、{{delay20}}{{anim id=\"FaintSmile\" target=\"actor\" targetSpec=\"\"}}よかったら{{delay8}}\n{{color id=\"1\"}}イースターなかんむり{{color id=\"65535\"}}の　{{ruby charSpan=\"3\" value=\"ディーアイワイ\"}}ＤＩＹレシピ、{{delay8}}\n{{ruby charSpan=\"1\" value=\"おし\"}}教えてやろうか？{{pageBreak}}{{anim id=\"ShyBoy\" target=\"actor\" targetSpec=\"\"}}なぁに、{{delay20}}{{ruby charSpan=\"2\" value=\"さんぽ\"}}散歩してたら{{delay8}}\nたまたまレシピを　{{ruby charSpan=\"1\" value=\"み\"}}見つけちまってよ{{delay40}}\n{{anim id=\"FaintSmile\" target=\"actor\" targetSpec=\"\"}}オメェに{{delay8}}　どうかと{{ruby charSpan=\"1\" value=\"おも\"}}思ってな",
      "KRko": "{{string value=\"NickName\"}}!{{delay20}}\n{{anim id=\"FaintSmile\" target=\"actor\" targetSpec=\"\"}}{{delay8}}{{color id=\"1\"}}이스터 화관{{color id=\"65535\"}}의 DIY 레시피를{{delay8}}\n가르쳐줄까?{{pageBreak}}{{anim id=\"ShyBoy\" target=\"actor\" targetSpec=\"\"}}아, {{delay20}}산책하다가 {{delay8}}우연히\n레시피를 발견했거든{{delay40}}\n{{anim id=\"FaintSmile\" target=\"actor\" targetSpec=\"\"}}혹시 너한테{{delay8}} 필요할까 싶어서!",
      "TWzh": "{{string value=\"NickName\"}}，{{delay8}}{{anim id=\"FaintSmile\" target=\"actor\" targetSpec=\"\"}}要是你不介意，{{delay20}}\n我就把{{color id=\"1\"}}復活節花冠{{color id=\"65535\"}}的\nＤＩＹ方程式告訴你吧？{{pageBreak}}{{anim id=\"ShyBoy\" target=\"actor\" targetSpec=\"\"}}反正{{delay8}}我是在附近散步時{{delay20}}找到的，{{delay40}}\n{{anim id=\"EmotEnd\" target=\"actor\" targetSpec=\"\"}}本來就{{delay8}}打算告訴你。",
      "USen": "{{anim id=\"Worried\" target=\"actor\" targetSpec=\"\"}}So get this. {{delay20}}Some clumsy litterbug\ndropped their DIY recipe out in front\nof my house.{{pageBreak}}{{anim id=\"Nodding\" target=\"actor\" targetSpec=\"\"}}It's for a {{color id=\"1\"}}{{wordInfo gender=\"0\" indefArticle=\"1\" defArticle=\"3\"}}Bunny Day crown{{color id=\"65535\"}}.{{delay frames=\"40\"}} {{anim id=\"QuestionMark\" target=\"actor\" targetSpec=\"\"}}Want\nit?{{delay20}} I cleaned the dirt off as best\nI could, so it oughta be legible.",
      "USes": "{{anim id=\"Worried\" target=\"actor\" targetSpec=\"\"}}Oye esto:{{delay20}} {{anim id=\"Angry\" target=\"actor\" targetSpec=\"\"}}algún cochino dejó tirado\nun papel adelante de la puerta\nde mi casa.\n{{anim id=\"Sighing\" target=\"actor\" targetSpec=\"\"}}Lo iba a reciclar,{{delay8}} pero es un esquema\npara hacerte tu propia {{color id=\"1\"}}{{wordInfo gender=\"2\" indefArticle=\"2\" defArticle=\"4\"}}tiara Caza del Huevo{{color id=\"65535\"}}.{{pageBreak}}{{anim id=\"QuestionMark\" target=\"actor\" targetSpec=\"\"}}A ti te gustan las manualidades\ny eso, ¿no?{{delay20}} {{anim id=\"Grin\" target=\"actor\" targetSpec=\"\"}}Pues toma, y lo reciclas\ntú si quieres{{string value=\"...\"}}",
      "USfr": "{{anim id=\"Worried\" target=\"actor\" targetSpec=\"\"}}Un sauvageon a jeté un plan de bricolage devant ma porte{{string value=\"...\"}}\n{{anim id=\"Outraged\" target=\"actor\" targetSpec=\"\"}}Tu te rends compte?!{{delay20}}{{pageBreak}}{{anim id=\"Nodding\" target=\"actor\" targetSpec=\"\"}}C'est pour bricoler une {{color id=\"1\"}}coiffe fête\ndes œufs{{color id=\"65535\"}}.{{delay frames=\"40\"}} {{anim id=\"QuestionMark\" target=\"actor\" targetSpec=\"\"}}Ça te dit?{{delay20}} Je l'ai nettoyé\ncomme j'ai pu, au moins c'est lisible."
    }
  },
  {
    "label": "021",
    "attribute": "0x0000000000000000",
    "locale": {
      "CNzh": "{{string value=\"NickName\"}}，{{delay20}}\n{{anim id=\"QuestionMark\" target=\"actor\" targetSpec=\"\"}}你对{{color id=\"1\"}}复活节包包{{color id=\"65535\"}}有兴趣吗？{{pageBreak}}{{anim id=\"Nodding\" target=\"actor\" targetSpec=\"\"}}没什么，{{delay20}}只是我刚才捡到了DIY手册，{{delay frames=\"30\"}}\n想说你要是感兴趣的话就告诉你。{{delay40}}\n{{anim id=\"Smiling\" target=\"actor\" targetSpec=\"\"}}我觉得{{delay8}}你应该挺喜欢这类东西的啊。",
      "EUde": "{{capitalizeNextLetter}}{{string value=\"NickName\"}}, {{delay8}}{{anim id=\"QuestionMark\" target=\"actor\" targetSpec=\"\"}}kannst du etwas mit einer Bastelanleitung für einen {{color id=\"1\"}}Häschentag-Rucksack{{color id=\"65535\"}} anfangen?{{pageBreak}}{{anim id=\"Nodding\" target=\"actor\" targetSpec=\"\"}}Ich hab beim Spazierengehen Unrat\naufgesammelt, {{delay8}}da war die dabei.{{delay40}}\n{{anim id=\"Silent\" target=\"actor\" targetSpec=\"\"}}Für dich genau das Richtige, {{delay8}}oder?",
      "EUen": "{{anim id=\"Nodding\" target=\"actor\" targetSpec=\"\"}}Do you have any need for a\n{{color id=\"1\"}}{{wordInfo gender=\"0\" indefArticle=\"1\" defArticle=\"3\"}}Bunny Day bag {{color id=\"65535\"}}DIY recipe?{{pageBreak}}{{anim id=\"EmotEnd\" target=\"actor\" targetSpec=\"\"}}I stumbled across it a bit ago.{{delay20}} {{anim id=\"Sighing\" target=\"actor\" targetSpec=\"\"}}Fell\ndown and everythin'!{{delay20}} Anyhoo, it's\nall yours.",
      "EUes": "{{anim id=\"Thinking\" target=\"actor\" targetSpec=\"\"}}Oye,{{delay8}} ¿a ti te sirve de algo un\nproyecto para hacerte tu propia\n{{color id=\"1\"}}mochila Caza del Huevo{{color id=\"65535\"}}?{{anim id=\"QuestionMark\" target=\"actor\" targetSpec=\"\"}}\n{{anim id=\"Serious\" target=\"actor\" targetSpec=\"\"}}Me lo encontré tirado en el suelo.{{delay20}}\n{{anim id=\"Outraged\" target=\"actor\" targetSpec=\"\"}}Hay gente muy incívica.{{i10_4}} Si lo quieres,{{delay8}}\nes todo tuyo.{{delay20}} {{anim id=\"Laughing\" target=\"actor\" targetSpec=\"\"}}Y si no,{{delay8}} también.",
      "EUfr": "{{anim id=\"Nodding\" target=\"actor\" targetSpec=\"\"}}{{capitalizeNextLetter}}{{string value=\"NickName\"}}, un plan pour bricoler un {{color id=\"1\"}}sac fête des œufs{{color id=\"65535\"}}, ça te botte, ou tu t'en fiches ?{{pageBreak}}{{anim id=\"EmotEnd\" target=\"actor\" targetSpec=\"\"}}Je suis tombé dessus, l'autre fois.{{delay20}}\n{{anim id=\"Sighing\" target=\"actor\" targetSpec=\"\"}}Littéralement. {{delay20}}J'en ai encore mal au\ngenou.{{delay20}} Bref, tiens, c'est cadeau.",
      "EUit": "{{anim id=\"Nodding\" target=\"actor\" targetSpec=\"\"}}Aloha, {{string value=\"NickName\"}}. {{delay8}}Non è che vorresti uno schema fai da te per uno {{color id=\"1\"}}zaino caccia all'uovo{{color id=\"65535\"}}?{{pageBreak}}{{anim id=\"EmotEnd\" target=\"actor\" targetSpec=\"\"}}Me lo sono ritrovato tra le zampe\ne non so che farmene.",
      "EUnl": "{{anim id=\"Nodding\" target=\"actor\" targetSpec=\"\"}}Zo, {{string value=\"NickName\"}}, heb jij iets aan een doe-het-zelfplan voor een {{color id=\"1\"}}eiertas{{color id=\"65535\"}}?{{pageBreak}}{{anim id=\"EmotEnd\" target=\"actor\" targetSpec=\"\"}}Ik liep er laatst tegenaan.{{delay20}} {{anim id=\"Sighing\" target=\"actor\" targetSpec=\"\"}}Letterlijk.\n{{delay20}}Mijn kleine teen doet nog steeds\npijn.{{delay20}} Maar ja, doe ermee wat je wil.",
      "EUru": "{{anim id=\"Nodding\" target=\"actor\" targetSpec=\"\"}}Слушай, {{string value=\"NickName\"}}, тебе не\nнужна инструкция «Сделай сам»\nдля {{color id=\"1\"}}сумки на День зайцев{{color id=\"65535\"}}?{{pageBreak}}{{anim id=\"EmotEnd\" target=\"actor\" targetSpec=\"\"}}Я на нее давеча наткнулся.{{delay20}}\n{{anim id=\"Sighing\" target=\"actor\" targetSpec=\"\"}}В прямом смысле.{{delay20}} До сих пор\nколенка саднит.{{delay20}} Держи, в общем.",
      "JPja": "{{string value=\"NickName\"}}、{{delay20}}\n{{anim id=\"QuestionMark\" target=\"actor\" targetSpec=\"\"}}{{color id=\"1\"}}イースターなバッグ{{color id=\"65535\"}}とか　{{ruby charSpan=\"2\" value=\"きょうみ\"}}興味あるか？{{pageBreak}}{{anim id=\"Nodding\" target=\"actor\" targetSpec=\"\"}}なぁに、{{delay20}}{{ruby charSpan=\"3\" value=\"ディーアイワイ\"}}ＤＩＹレシピを　{{ruby charSpan=\"1\" value=\"ひろ\"}}拾っちまってよ{{delay frames=\"30\"}}\nよかったら　{{ruby charSpan=\"1\" value=\"おし\"}}教えてやろうと　{{ruby charSpan=\"1\" value=\"おも\"}}思ったまでだ{{delay40}}\n{{anim id=\"Smiling\" target=\"actor\" targetSpec=\"\"}}オメェ、{{delay8}}こういうの{{ruby charSpan=\"1\" value=\"す\"}}好きそうだからよ",
      "KRko": "{{string value=\"NickName\"}}!{{delay20}} 너 혹시\n{{anim id=\"QuestionMark\" target=\"actor\" targetSpec=\"\"}}{{color id=\"1\"}}이스터 가방{{color id=\"65535\"}}에 관심 있냐?{{pageBreak}}{{anim id=\"Nodding\" target=\"actor\" targetSpec=\"\"}}아니 그게, {{delay20}}DIY 레시피를 주웠거든!{{delay frames=\"30\"}}\n관심 있다면 가르쳐줄까 해서{{delay40}}\n{{anim id=\"Smiling\" target=\"actor\" targetSpec=\"\"}}너, {{delay8}}이런 거 좋아하게 생겼으니까!",
      "TWzh": "{{string value=\"NickName\"}}{{delay8}}，{{delay20}}\n{{anim id=\"QuestionMark\" target=\"actor\" targetSpec=\"\"}}你對{{color id=\"1\"}}復活節包包{{color id=\"65535\"}}有興趣嗎？{{pageBreak}}{{anim id=\"Nodding\" target=\"actor\" targetSpec=\"\"}}我剛才{{delay20}}撿到了它的ＤＩＹ方程式喔。{{delay frames=\"30\"}}\n正打算要告訴你，{{delay40}}\n{{anim id=\"Smiling\" target=\"actor\" targetSpec=\"\"}}畢竟你好像{{delay8}}很喜歡這種東西嘛。",
      "USen": "{{anim id=\"Nodding\" target=\"actor\" targetSpec=\"\"}}Do you have any need for a\n{{color id=\"1\"}}{{wordInfo gender=\"0\" indefArticle=\"1\" defArticle=\"3\"}}Bunny Day bag {{color id=\"65535\"}}DIY recipe?{{pageBreak}}{{anim id=\"EmotEnd\" target=\"actor\" targetSpec=\"\"}}I stumbled across it a bit ago.{{delay20}} {{anim id=\"Sighing\" target=\"actor\" targetSpec=\"\"}}Fell\ndown and everythin'!{{delay20}} Anyhoo, it's\nall yours.",
      "USes": "{{anim id=\"Thinking\" target=\"actor\" targetSpec=\"\"}}Oye,{{delay8}} ¿a ti te sirve de algo un\nesquema para hacerte tu propia\n{{color id=\"1\"}}{{wordInfo gender=\"2\" indefArticle=\"2\" defArticle=\"4\"}}mochila Caza del Huevo{{color id=\"65535\"}}?{{anim id=\"QuestionMark\" target=\"actor\" targetSpec=\"\"}}\n{{anim id=\"Serious\" target=\"actor\" targetSpec=\"\"}}Me lo encontré tirado en el suelo.{{delay20}}\n{{anim id=\"Outraged\" target=\"actor\" targetSpec=\"\"}}Hay gente muy incívica.{{i10_4}} Si lo quieres,{{delay8}}\nes todo tuyo.{{delay20}} {{anim id=\"Laughing\" target=\"actor\" targetSpec=\"\"}}Y si no,{{delay8}} también.",
      "USfr": "{{anim id=\"Nodding\" target=\"actor\" targetSpec=\"\"}}{{capitalizeNextLetter}}{{string value=\"NickName\"}}, un plan pour bricoler un {{color id=\"1\"}}sac fête des œufs{{color id=\"65535\"}}, ça te botte, ou tu t'en fiches?{{pageBreak}}{{anim id=\"EmotEnd\" target=\"actor\" targetSpec=\"\"}}Je suis tombé dessus, l'autre fois.{{delay20}}\n{{anim id=\"Sighing\" target=\"actor\" targetSpec=\"\"}}Littéralement. {{delay20}}J'en ai encore mal au\ngenou.{{delay20}} Bref, tiens, c'est cadeau."
    }
  },
  {
    "label": "100",
    "attribute": "0x0000000000000000",
    "locale": {
      "CNzh": "是{{string value=\"NickName\"}}啊。{{delay40}}\n{{anim id=\"Nodding\" target=\"actor\" targetSpec=\"\"}}你等等，{{delay8}}我现在站起来。{{string value=\"6\"}}。",
      "EUde": "{{anim id=\"FaintSmile\" target=\"actor\" targetSpec=\"\"}}Na, {{delay8}}wenn das mal nicht {{gender2 m=\"der gute\" f=\"die gute\"}} {{string value=\"NickName\"}} ist.{{delay20}} Warte, {{delay8}}ich streck mal eben die müden Knochen.",
      "EUen": "{{anim id=\"FaintSmile\" target=\"actor\" targetSpec=\"\"}}Well, if it ain't {{string value=\"NickName\"}}.{{delay20}}\nLet me hoist myself up.",
      "EUes": "{{anim id=\"FaintSmile\" target=\"actor\" targetSpec=\"\"}}¡Pero si es {{string value=\"NickName\"}}!{{delay20}} Espera, que me levanto.",
      "EUfr": "{{anim id=\"FaintSmile\" target=\"actor\" targetSpec=\"\"}}Oh, mais c'est {{string value=\"NickName\"}}.{{delay20}}\nLaisse-moi juste me relever.",
      "EUit": "{{anim id=\"FaintSmile\" target=\"actor\" targetSpec=\"\"}}Caspita, sei tu, {{string value=\"NickName\"}}.{{delay20}} Aspetta che mi alzo, {{string value=\"6\"}}.",
      "EUnl": "{{anim id=\"FaintSmile\" target=\"actor\" targetSpec=\"\"}}Nou nou, daar hebben we {{string value=\"NickName\"}}.{{delay20}} Geef me even, dan hijs ik mezelf overeind.",
      "EUru": "{{anim id=\"FaintSmile\" target=\"actor\" targetSpec=\"\"}}Да это же {{string value=\"NickName\"}}!{{delay20}}\nОбожди секунду.",
      "JPja": "{{string value=\"NickName\"}}か{{delay40}}\n{{anim id=\"Nodding\" target=\"actor\" targetSpec=\"\"}}ちょっと{{ruby charSpan=\"1\" value=\"ま\"}}待ってな{{delay8}}　{{ruby charSpan=\"1\" value=\"いま\"}}今　{{ruby charSpan=\"1\" value=\"た\"}}立つからよ、{{string value=\"6\"}}",
      "KRko": "{{string value=\"NickName\"}}{{gender5 m=\"이\" f=\"\"}}구나{{delay40}}\n{{anim id=\"Nodding\" target=\"actor\" targetSpec=\"\"}}잠깐만 기다려라{{delay8}}\n지금 일어설 테니까, {{string value=\"6\"}}",
      "TWzh": "是{{string value=\"NickName\"}}啊。{{delay40}}\n{{anim id=\"Nodding\" target=\"actor\" targetSpec=\"\"}}你等我一下，{{delay8}}我現在站起來，{{string value=\"6\"}}。",
      "USen": "{{anim id=\"FaintSmile\" target=\"actor\" targetSpec=\"\"}}Well, if it ain't {{string value=\"NickName\"}}.{{delay20}}\nLet me hoist myself up.",
      "USes": "{{anim id=\"FaintSmile\" target=\"actor\" targetSpec=\"\"}}¡Pero si es {{string value=\"NickName\"}}!{{delay20}} Espera, que me levanto.",
      "USfr": "{{anim id=\"FaintSmile\" target=\"actor\" targetSpec=\"\"}}Oh, mais c'est {{string value=\"NickName\"}}.{{delay20}}\nLaisse-moi juste me relever."
    }
  },
  {
    "label": "101",
    "attribute": "0x0000000000000000",
    "locale": {
      "CNzh": "哟！{{delay20}}{{anim id=\"Eh\" target=\"actor\" targetSpec=\"\"}}啊，你先等等。{{delay frames=\"30\"}}\n{{anim id=\"EmotEnd\" target=\"actor\" targetSpec=\"\"}}这么讲话也不方便，{{delay20}}\n{{anim id=\"Nodding\" target=\"actor\" targetSpec=\"\"}}我就站起来吧！{{string value=\"6\"}}。",
      "EUde": "{{anim id=\"FaintSmile\" target=\"actor\" targetSpec=\"\"}}{{capitalizeNextLetter}}{{string value=\"NickName\"}}! {{delay20}}Eben noch hab ich an dich gedacht!",
      "EUen": "{{anim id=\"FaintSmile\" target=\"actor\" targetSpec=\"\"}}{{capitalizeNextLetter}}{{string value=\"NickName\"}}! {{delay20}}I was just\nthinkin' about you.",
      "EUes": "{{anim id=\"FaintSmile\" target=\"actor\" targetSpec=\"\"}}¡{{capitalizeNextLetter}}{{string value=\"NickName\"}}!{{delay20}} Justamente me estaba acordando de ti.",
      "EUfr": "{{anim id=\"FaintSmile\" target=\"actor\" targetSpec=\"\"}}{{capitalizeNextLetter}}{{string value=\"NickName\"}} ! {{delay20}}{{anim id=\"EmotEnd\" target=\"actor\" targetSpec=\"\"}}Laisse-moi juste me remettre à la verticale,{{delay20}} {{anim id=\"Nodding\" target=\"actor\" targetSpec=\"\"}}ce sera plus pratique pour discuter.",
      "EUit": "{{anim id=\"FaintSmile\" target=\"actor\" targetSpec=\"\"}}Ma pensa, {{string value=\"NickName\"}}.{{delay20}} Stavo proprio pensando a te, {{string value=\"6\"}}.",
      "EUnl": "{{anim id=\"FaintSmile\" target=\"actor\" targetSpec=\"\"}}{{capitalizeNextLetter}}{{string value=\"NickName\"}}! {{delay20}}Ik dacht net aan je.",
      "EUru": "{{anim id=\"FaintSmile\" target=\"actor\" targetSpec=\"\"}}{{capitalizeNextLetter}}{{string value=\"NickName\"}}! {{delay20}}Я как раз\nо тебе вспоминал!",
      "JPja": "よう！{{delay20}}　{{anim id=\"Eh\" target=\"actor\" targetSpec=\"\"}}ちょっと{{ruby charSpan=\"1\" value=\"ま\"}}待ってくれ{{delay frames=\"30\"}}\n{{anim id=\"EmotEnd\" target=\"actor\" targetSpec=\"\"}}このままじゃ　{{ruby charSpan=\"1\" value=\"はな\"}}話しにくいから{{delay20}}\n{{anim id=\"Nodding\" target=\"actor\" targetSpec=\"\"}}ひとまず　{{ruby charSpan=\"1\" value=\"た\"}}立ち{{ruby charSpan=\"1\" value=\"あ\"}}上がるとするか！　{{string value=\"6\"}}",
      "KRko": "{{anim id=\"Eh\" target=\"actor\" targetSpec=\"\"}}오!{{delay20}} 잠깐만 기다려라{{delay frames=\"30\"}}\n{{anim id=\"EmotEnd\" target=\"actor\" targetSpec=\"\"}}이대로 얘기하긴 힘드니까{{delay20}}\n{{anim id=\"Nodding\" target=\"actor\" targetSpec=\"\"}}금방 일어나마, {{string value=\"6\"}}",
      "TWzh": "你來啦！{{delay20}}{{anim id=\"Eh\" target=\"actor\" targetSpec=\"\"}}啊，等我一下。{{delay frames=\"30\"}}\n{{anim id=\"EmotEnd\" target=\"actor\" targetSpec=\"\"}}這樣很難講話，{{delay20}}\n{{anim id=\"Nodding\" target=\"actor\" targetSpec=\"\"}}我先站起來吧！{{string value=\"6\"}}。",
      "USen": "{{anim id=\"FaintSmile\" target=\"actor\" targetSpec=\"\"}}{{capitalizeNextLetter}}{{string value=\"NickName\"}}! {{delay20}}I was just\nthinkin' about you.",
      "USes": "{{anim id=\"FaintSmile\" target=\"actor\" targetSpec=\"\"}}¡{{capitalizeNextLetter}}{{string value=\"NickName\"}}!{{delay20}} Justamente me estaba acordando de ti.",
      "USfr": "{{anim id=\"FaintSmile\" target=\"actor\" targetSpec=\"\"}}{{capitalizeNextLetter}}{{string value=\"NickName\"}}! {{delay20}}{{anim id=\"EmotEnd\" target=\"actor\" targetSpec=\"\"}}Laisse-moi juste me remettre à la verticale,{{delay20}} {{anim id=\"Nodding\" target=\"actor\" targetSpec=\"\"}}ce sera plus pratique pour discuter."
    }
  },
  {
    "label": "200",
    "attribute": "0x0000000000000000",
    "locale": {
      "CNzh": "{{anim id=\"Smiling\" target=\"actor\" targetSpec=\"\"}}啊，你来啦！{{delay frames=\"40\"}}\n你准备好收下{{delay8}}\n{{color id=\"1\"}}{{fun_0000007D arg=\"0x0000\"}}{{color id=\"65535\"}}了吗？",
      "EUde": "{{anim id=\"WrySmile\" target=\"actor\" targetSpec=\"\"}}{{gender2 m=\"Der Herr\" f=\"Madame\"}} Taschevoll gibt sich die\nEhre,{{delay8}} gra ha ha?!{{delay20}} Hast du jetzt Platz\nfür die {{color id=\"1\"}}{{fun_00170032 arg=\"0x01CD\"}}{{fun_0000007D arg=\"0x0002\"}}{{color id=\"65535\"}}?",
      "EUen": "{{anim id=\"WrySmile\" target=\"actor\" targetSpec=\"\"}}Well, if it ain't Captain Full-Pockets!{{delay20}}\nYou finally ready to take these here\n{{color id=\"1\"}}{{fun_0000007D arg=\"0x0002\"}}{{color id=\"65535\"}} off me?",
      "EUes": "{{anim id=\"WrySmile\" target=\"actor\" targetSpec=\"\"}}Anda,{{delay8}} ¡pero si es {{gender2 m=\"el rey\" f=\"la reina\"}} de\nlos bolsillos llenos!{{pageBreak}}¿Entonces estás list{{gender2 m=\"o\" f=\"a\"}} para que te dé\n{{gender8 m=\"estos\" f=\"estas\" n=\"\"}} {{color id=\"1\"}}{{fun_0000007D arg=\"0x0002\"}}{{color id=\"65535\"}}?",
      "EUfr": "{{anim id=\"WrySmile\" target=\"actor\" targetSpec=\"\"}}Tiens ! Revoilà {{string value=\"NickName\"}}{{color id=\"2\"}}-les-poches-pleines{{color id=\"65535\"}} !{{pageBreak}}Est-ce que tu es enfin prêt{{gender2 m=\"\" f=\"e\"}} à\nrecevoir mes petits {{color id=\"1\"}}{{fun_0000007D arg=\"0x0002\"}} {{color id=\"65535\"}}?",
      "EUit": "{{anim id=\"WrySmile\" target=\"actor\" targetSpec=\"\"}}Ah! Eccoti qua, {{gender2 m=\"il mio amico\" f=\"la mia amica\"}} dalle\ntasche piene!{{delay20}} Ora ti prenderai un po'\ndi {{color id=\"1\"}}{{fun_0000007D arg=\"0x0002\"}}{{color id=\"65535\"}}?",
      "EUnl": "{{anim id=\"WrySmile\" target=\"actor\" targetSpec=\"\"}}Hé, daar hebben we Kaptein Volle\nZakken!{{delay20}} Kom ik nou eindelijk van\nmijn {{color id=\"1\"}}{{fun_0000007D arg=\"0x0002\"}}{{color id=\"65535\"}} af?",
      "EUru": "{{anim id=\"WrySmile\" target=\"actor\" targetSpec=\"\"}}А, сосед{{gender2 m=\"\" f=\"ка\"}} Держи-карман-набитым\nпожаловал{{gender2 m=\"\" f=\"а\"}}!{{delay20}} Ну что, теперь унесешь\nмои {{color id=\"1\"}}{{fun_00170032 arg=\"0x01CD\"}}{{fun_0000007D arg=\"0x0002\"}}{{color id=\"65535\"}}?",
      "JPja": "{{anim id=\"Smiling\" target=\"actor\" targetSpec=\"\"}}お、{{ruby charSpan=\"1\" value=\"き\"}}来たな！{{delay frames=\"40\"}}\nオレからの　{{color id=\"1\"}}{{fun_0000007D arg=\"0x0000\"}}{{color id=\"65535\"}}は{{delay8}}\n{{ruby charSpan=\"1\" value=\"も\"}}持てるようになったか？",
      "KRko": "{{anim id=\"Smiling\" target=\"actor\" targetSpec=\"\"}}오, 왔구만!{{delay frames=\"40\"}}\n{{color id=\"1\"}}{{fun_0000007D arg=\"0x0000\"}}{{color id=\"65535\"}}{{gender5 m=\"을\" f=\"를\"}}{{delay8}}\n받을 준비는 다 됐냐?",
      "TWzh": "{{anim id=\"Smiling\" target=\"actor\" targetSpec=\"\"}}哦，你來啦！{{delay frames=\"40\"}}\n你現在拿得動我要給你的{{delay8}}\n{{color id=\"1\"}}{{fun_0000007D arg=\"0x0000\"}}{{color id=\"65535\"}}了嗎？",
      "USen": "{{anim id=\"WrySmile\" target=\"actor\" targetSpec=\"\"}}Well, if it ain't Captain Full-Pockets!{{delay20}}\nYou finally ready to take these here\n{{color id=\"1\"}}{{fun_0000007D arg=\"0x0002\"}}{{color id=\"65535\"}} off me?",
      "USes": "{{anim id=\"WrySmile\" target=\"actor\" targetSpec=\"\"}}Oye,{{delay8}} ¡pero si es {{gender2 m=\"el rey\" f=\"la reina\"}} de los bolsillos llenos!{{pageBreak}}¿Entonces estás list{{gender2 m=\"o\" f=\"a\"}} para que te dé\n{{gender8 m=\"estos\" f=\"estas\" n=\"\"}} {{color id=\"1\"}}{{fun_0000007D arg=\"0x0002\"}}{{color id=\"65535\"}}?",
      "USfr": "{{anim id=\"WrySmile\" target=\"actor\" targetSpec=\"\"}}Tiens! Revoilà {{string value=\"NickName\"}}{{color id=\"2\"}}-les-poches-pleines{{color id=\"65535\"}}!{{pageBreak}}Est-ce que tu es enfin prêt{{gender2 m=\"\" f=\"e\"}} à\nrecevoir mes petits {{color id=\"1\"}}{{fun_0000007D arg=\"0x0002\"}}{{color id=\"65535\"}}?"
    }
  },
  {
    "label": "201",
    "attribute": "0x0000000000000000",
    "locale": {
      "CNzh": "{{anim id=\"BigSmile\" target=\"actor\" targetSpec=\"\"}}好啦，{{delay20}}现在它们已经归你了！{{delay frames=\"40\"}}\n{{anim id=\"FaintSmile\" target=\"actor\" targetSpec=\"\"}}要用它们做什么都是你的自由，{{delay frames=\"40\"}}\n随你的心意就好！{{string value=\"6\"}}。",
      "EUde": "{{anim id=\"Sighing\" target=\"actor\" targetSpec=\"\"}}Da hast du deine Eier!{{delay20}} Bin gespannt,{{delay8}}\nwas du draus machst{{string value=\"...\"}}{{delay8}}{{anim id=\"BigSmile\" target=\"actor\" targetSpec=\"\"}} Ganz zur Not\nbrätst du mir einfach ein Omelette!",
      "EUen": "{{anim id=\"Sighing\" target=\"actor\" targetSpec=\"\"}}Whew!{{delay8}} They're all yours now.{{delay20}} Have\nfun comin' up with something to\ndo with 'em, {{string value=\"6\"}}.{{delay20}} {{anim id=\"Laughing\" target=\"actor\" targetSpec=\"\"}}Gahaha!",
      "EUes": "{{anim id=\"Sighing\" target=\"actor\" targetSpec=\"\"}}¡Genial!{{delay20}} Pues para ti.{{delay20}} Espero que se\nte ocurra algo interesante para hacer\ncon {{gender8 m=\"ellos\" f=\"ellas\" n=\"\"}}, {{string value=\"6\"}}.{{delay20}} {{anim id=\"Laughing\" target=\"actor\" targetSpec=\"\"}}¡Ja, ja, ja!",
      "EUfr": "{{anim id=\"Sighing\" target=\"actor\" targetSpec=\"\"}}Eh ben voilà !{{delay8}} Ils sont tout à toi,\nmaintenant.{{delay20}} Tu peux en faire ce que\ntu veux, {{string value=\"6\"}}.{{delay20}} {{anim id=\"Laughing\" target=\"actor\" targetSpec=\"\"}}Hahaha !",
      "EUit": "{{anim id=\"Sighing\" target=\"actor\" targetSpec=\"\"}}Ahahah!{{delay8}} Ecco!{{delay20}} Ora il piacere di\npensare cosa fartene è tutto tuo,\n{{string value=\"6\"}}!{{delay20}} {{anim id=\"Laughing\" target=\"actor\" targetSpec=\"\"}}AHAHAH!",
      "EUnl": "{{anim id=\"Sighing\" target=\"actor\" targetSpec=\"\"}}Hèhè!{{delay8}} Nu zijn ze van jou.{{delay20}} Ik hoop dat\nje iets kunt verzinnen om ermee te\ndoen, {{string value=\"6\"}}.{{delay20}} {{anim id=\"Laughing\" target=\"actor\" targetSpec=\"\"}}Bwahaha!",
      "EUru": "{{anim id=\"Sighing\" target=\"actor\" targetSpec=\"\"}}Уф!{{delay8}} Наконец избавился.{{delay20}} Надеюсь,\nты найдешь им применение.\n{{capitalizeNextLetter}}{{string value=\"6\"}}.{{delay20}} {{anim id=\"Laughing\" target=\"actor\" targetSpec=\"\"}}Бу-га-га!",
      "JPja": "{{anim id=\"BigSmile\" target=\"actor\" targetSpec=\"\"}}さぁ、{{delay20}}これで　そいつは　オメェのモンだぜ！{{delay frames=\"40\"}}\n{{anim id=\"FaintSmile\" target=\"actor\" targetSpec=\"\"}}どうしようが　オメェの{{ruby charSpan=\"2\" value=\"じゆう\"}}自由だからよ{{delay frames=\"40\"}}\n{{ruby charSpan=\"1\" value=\"す\"}}好きなように　{{ruby charSpan=\"1\" value=\"つか\"}}使ってくれ！　{{string value=\"6\"}}",
      "KRko": "{{anim id=\"BigSmile\" target=\"actor\" targetSpec=\"\"}}자, {{delay20}}이제 그건 네 거야!{{delay frames=\"40\"}}\n{{anim id=\"FaintSmile\" target=\"actor\" targetSpec=\"\"}}그걸로 뭘 하든지 네 자유니까{{delay frames=\"40\"}}\n네 맘대로 잘 써줘! {{string value=\"6\"}}!",
      "TWzh": "{{anim id=\"BigSmile\" target=\"actor\" targetSpec=\"\"}}好，{{delay20}}這麼一來這東西就是你的了。{{delay frames=\"40\"}}\n{{anim id=\"FaintSmile\" target=\"actor\" targetSpec=\"\"}}要怎麼處理它都是你的自由，{{delay frames=\"40\"}}\n你就隨意使用吧！{{string value=\"6\"}}。",
      "USen": "{{anim id=\"Sighing\" target=\"actor\" targetSpec=\"\"}}Whew!{{delay8}} They're all yours now.{{delay20}} Have\nfun comin' up with something to\ndo with 'em, {{string value=\"6\"}}.{{delay20}} {{anim id=\"Laughing\" target=\"actor\" targetSpec=\"\"}}Gahaha!",
      "USes": "{{anim id=\"Sighing\" target=\"actor\" targetSpec=\"\"}}¡Genial!{{delay20}} Pues para ti.{{delay20}} Espero que se\nte ocurra algo interesante para hacer\ncon {{gender8 m=\"ellos\" f=\"ellas\" n=\"\"}}, {{string value=\"6\"}}.{{delay20}} {{anim id=\"Laughing\" target=\"actor\" targetSpec=\"\"}}¡Ja, ja, ja!",
      "USfr": "{{anim id=\"Sighing\" target=\"actor\" targetSpec=\"\"}}Eh ben voilà!{{delay8}} Ils sont tout à toi,\nmaintenant.{{delay20}} Tu peux en faire ce que\ntu veux, {{string value=\"6\"}}.{{delay20}} {{anim id=\"Laughing\" target=\"actor\" targetSpec=\"\"}}Hahaha!"
    }
  },
  {
    "label": "202",
    "attribute": "0x0000000000000000",
    "locale": {
      "CNzh": "{{string value=\"...\"}}唔，{{delay20}}{{anim id=\"Negative\" target=\"actor\" targetSpec=\"\"}}看你这样子是还没准备好吧。{{delay frames=\"40\"}}\n{{anim id=\"Serious\" target=\"actor\" targetSpec=\"\"}}拜托你快点把随身物品整理好啊。{{delay frames=\"40\"}}\n{{anim id=\"Greeting\" target=\"actor\" targetSpec=\"\"}}留出能装下这{{color id=\"1\"}}5个{{color id=\"65535\"}}的空间就行。{{string value=\"6\"}}。",
      "EUde": "{{anim id=\"ShyBoy\" target=\"actor\" targetSpec=\"\"}}Pah,{{delay8}} hast du ganz anscheinend nicht!\n{{delay20}}{{gender2 m=\"Der Herr\" f=\"Madame\"}} Taschevoll mag wohl {{gender2 m=\"seinen\" f=\"ihren\"}}\nneuen Namen,{{delay8}}{{anim id=\"Laughing\" target=\"actor\" targetSpec=\"\"}} gra ha ha!{{pageBreak}}{{anim id=\"Angry\" target=\"actor\" targetSpec=\"\"}}Spaß beiseite!{{delay20}} Jetzt mal flott und\nPlatz geschafft für die {{color id=\"1\"}}5{{color id=\"65535\"}} Eierchen,{{delay8}}\n{{string value=\"Catchphrase\"}}!",
      "EUen": "{{anim id=\"ShyBoy\" target=\"actor\" targetSpec=\"\"}}Huh{{string value=\"...\"}}looks like you're not.{{delay20}} Reckon\nCaptain Full-Pockets has a reputation\nto consider, {{string value=\"6\"}}!{{delay20}} {{anim id=\"Laughing\" target=\"actor\" targetSpec=\"\"}}Gahaha!{{pageBreak}}{{anim id=\"Angry\" target=\"actor\" targetSpec=\"\"}}Now go make enough room for {{color id=\"1\"}}5{{color id=\"65535\"}} of\nthese and hurry back, {{string value=\"6\"}}.",
      "EUes": "{{anim id=\"ShyBoy\" target=\"actor\" targetSpec=\"\"}}¡Pero bueno!{{delay20}} ¡Parece que no quieres\nabdicar el trono de los bolsillos\nllenos,{{delay8}} {{string value=\"6\"}}!{{delay20}} {{anim id=\"Laughing\" target=\"actor\" targetSpec=\"\"}}¡Ja, ja, ja!{{pageBreak}}{{anim id=\"Sighing\" target=\"actor\" targetSpec=\"\"}}Bueno,{{delay8}} vuelve a verme cuando\ntengas espacio suficiente para\n{{color id=\"1\"}}5{{color id=\"65535\"}} de {{gender8 m=\"estos\" f=\"estas\" n=\"\"}}, {{string value=\"6\"}}.",
      "EUfr": "{{anim id=\"ShyBoy\" target=\"actor\" targetSpec=\"\"}}Ah bah, non{{string value=\"...\"}}{{delay20}} C'est pas pour rien qu'on t'appelle {{string value=\"NickName\"}}{{color id=\"2\"}}-les-poches-pleines{{color id=\"65535\"}} !{{pageBreak}}{{anim id=\"Angry\" target=\"actor\" targetSpec=\"\"}}Allez, va faire de la place pour\n{{color id=\"1\"}}5{{color id=\"65535\"}} œufs, et reviens par ici, {{string value=\"6\"}}.",
      "EUit": "{{anim id=\"ShyBoy\" target=\"actor\" targetSpec=\"\"}}Ehi{{string value=\"...\"}} mi prendi in giro,{{delay20}} {{gender2 m=\"amico\" f=\"amica\"}} dalle\ntasche piene? Capisco che hai una\nreputazione da salvare, ma{{string value=\"...\"}}\n{{delay20}}{{anim id=\"Laughing\" target=\"actor\" targetSpec=\"\"}}Ahahah! {{anim id=\"Angry\" target=\"actor\" targetSpec=\"\"}}Adesso vai a fare spazio per {{color id=\"1\"}}5{{color id=\"65535\"}} di questi affari e torna da me il più\npresto possibile, {{string value=\"6\"}}!",
      "EUnl": "{{anim id=\"ShyBoy\" target=\"actor\" targetSpec=\"\"}}Nee, toch niet.{{delay20}} Kaptein Volle Zakken\nheeft zeker een reputatie hoog te\nhouden, {{string value=\"6\"}}!{{delay20}} {{anim id=\"Laughing\" target=\"actor\" targetSpec=\"\"}}Bwahaha!{{pageBreak}}{{anim id=\"Angry\" target=\"actor\" targetSpec=\"\"}}Maak nu maar snel ruimte voor {{color id=\"1\"}}vijf\n{{color id=\"65535\"}}van deze eieren en kom dan weer\nterug, {{string value=\"6\"}}.",
      "EUru": "{{anim id=\"ShyBoy\" target=\"actor\" targetSpec=\"\"}}Хм{{string value=\"...\"}} Раз такие дела, {{delay20}}быть тебе\nсосед{{gender2 m=\"ом\" f=\"кой\"}} Держи-карман-шире!\n{{capitalizeNextLetter}}{{string value=\"6\"}}!{{delay20}} {{anim id=\"Laughing\" target=\"actor\" targetSpec=\"\"}}Бу-га-га!{{pageBreak}}{{anim id=\"Angry\" target=\"actor\" targetSpec=\"\"}}А теперь освободи место для\n{{color id=\"1\"}}5{{color id=\"65535\"}} яиц, да поживее, и возвращайся!\n{{capitalizeNextLetter}}{{string value=\"6\"}}.",
      "JPja": "{{string value=\"...\"}}おっと、{{delay20}}{{anim id=\"Negative\" target=\"actor\" targetSpec=\"\"}}その{{ruby charSpan=\"2\" value=\"ようす\"}}様子じゃ　まだみてぇだな{{delay frames=\"40\"}}\n{{anim id=\"Serious\" target=\"actor\" targetSpec=\"\"}}{{ruby charSpan=\"1\" value=\"はや\"}}早いとこ、{{ruby charSpan=\"2\" value=\"にもつ\"}}荷物の{{ruby charSpan=\"2\" value=\"せいり\"}}整理　{{ruby charSpan=\"1\" value=\"たの\"}}頼むぜ？{{delay frames=\"40\"}}\n{{anim id=\"Greeting\" target=\"actor\" targetSpec=\"\"}}ちゃんと　{{color id=\"1\"}}5つ{{color id=\"65535\"}}{{ruby charSpan=\"1\" value=\"ぶん\"}}分　{{ruby charSpan=\"1\" value=\"も\"}}持てるようにな、{{string value=\"6\"}}",
      "KRko": "{{string value=\"...\"}}어이쿠, {{delay20}}{{anim id=\"Negative\" target=\"actor\" targetSpec=\"\"}}아직도 준비가 안 된 모양이군{{delay frames=\"40\"}}\n{{anim id=\"Serious\" target=\"actor\" targetSpec=\"\"}}부탁이니까 빨리 짐 좀 정리해줘{{delay frames=\"40\"}}\n{{anim id=\"Greeting\" target=\"actor\" targetSpec=\"\"}}{{color id=\"1\"}}5개{{color id=\"65535\"}} 들어갈 자리를 만들어달라고, {{string value=\"6\"}}!",
      "TWzh": "哎呀{{string value=\"...\"}}{{delay20}}{{anim id=\"Negative\" target=\"actor\" targetSpec=\"\"}}看樣子你還沒整理好。{{delay frames=\"40\"}}\n{{anim id=\"Serious\" target=\"actor\" targetSpec=\"\"}}請你盡快整理好包包吧。{{delay frames=\"40\"}}\n{{anim id=\"Greeting\" target=\"actor\" targetSpec=\"\"}}記得要留能放{{color id=\"1\"}}5顆{{color id=\"65535\"}}蛋的空間喔，{{string value=\"6\"}}。",
      "USen": "{{anim id=\"ShyBoy\" target=\"actor\" targetSpec=\"\"}}Huh{{string value=\"...\"}}looks like you're not.{{delay20}} Reckon\nCaptain Full-Pockets has a reputation\nto consider, {{string value=\"6\"}}!{{delay20}} {{anim id=\"Laughing\" target=\"actor\" targetSpec=\"\"}}Gahaha!{{pageBreak}}{{anim id=\"Angry\" target=\"actor\" targetSpec=\"\"}}Now go make enough room for {{color id=\"1\"}}5{{color id=\"65535\"}} of\nthese and hurry back, {{string value=\"6\"}}.",
      "USes": "{{anim id=\"ShyBoy\" target=\"actor\" targetSpec=\"\"}}¡Pero bueno!{{delay20}} ¡Parece que no quieres\nabdicar el trono de los bolsillos\nllenos, {{string value=\"6\"}}!{{delay20}} {{anim id=\"Laughing\" target=\"actor\" targetSpec=\"\"}}¡Ja, ja, ja!{{pageBreak}}{{anim id=\"Sighing\" target=\"actor\" targetSpec=\"\"}}Bueno,{{delay8}} vuelve a verme cuando\ntengas espacio suficiente para\n{{color id=\"1\"}}5{{color id=\"65535\"}} de {{gender8 m=\"estos\" f=\"estas\" n=\"\"}}, {{string value=\"6\"}}.",
      "USfr": "{{anim id=\"ShyBoy\" target=\"actor\" targetSpec=\"\"}}Ah bah, non{{string value=\"...\"}}{{delay20}} C'est pas pour rien qu'on t'appelle {{string value=\"NickName\"}}{{color id=\"2\"}}-les-poches-pleines{{color id=\"65535\"}}!{{pageBreak}}{{anim id=\"Angry\" target=\"actor\" targetSpec=\"\"}}Allez, va faire de la place pour\n{{color id=\"1\"}}5{{color id=\"65535\"}} œufs, et reviens par ici, {{string value=\"6\"}}."
    }
  }
]