﻿[
  {
    "label": "200",
    "text": "Thanks for joining us at Paradise Planning! I've put together\na few tips that I know are gonna come in handy as you get\nthe hang of things here."
  },
  {
    "label": "201",
    "text": "Our office has a souvenir corner on the first floor.\nIt's open to clients and staff alike!"
  },
  {
    "label": "202",
    "text": "We don't use Bells out here—we use a currency called {{color id=\"1\"}}Poki{{color id=\"65535\"}}.\nThis means I pay my staff in Poki too!"
  },
  {
    "label": "203",
    "text": "You're free to use the staff room on the second floor!\nThere's a {{color id=\"1\"}}locker{{color id=\"65535\"}} up there for putting together a work outfit."
  },
  {
    "label": "204",
    "text": "You're free to use the staff room on the second floor!\nThere's a {{color id=\"1\"}}mirror{{color id=\"65535\"}} for changing up your appearance."
  },
  {
    "label": "205",
    "text": "You're free to use the staff room on the second floor!\nThere's a {{color id=\"1\"}}cabinet {{color id=\"65535\"}}there for accessing your home storage."
  },
  {
    "label": "206",
    "text": "Bring some of the {{color id=\"1\"}}souvenir chocolates{{color id=\"65535\"}} we sell back to your\nhome island. You never know who might want a vacation\nhome, and our chocolates are a great way to break the ice!"
  },
  {
    "label": "207",
    "text": "When you select a location for a vacation home, you can\nalso choose the {{color id=\"1\"}}season{{color id=\"65535\"}}! Looks change along with the\nseasons, so try them out to find your favorite!"
  },
  {
    "label": "208",
    "text": "While creating a vacation home, you can change the\nisland's {{color id=\"1\"}}season {{color id=\"65535\"}}by pressing {{color id=\"1\"}}{{color id=\"65535\"}} in the yard!"
  },
  {
    "label": "209",
    "text": "The number of vacation homes you can build on\none island is limitless. Pick locations for each\nrequest stress-free!"
  },
  {
    "label": "210",
    "text": "Press {{color id=\"1\"}}{{color id=\"65535\"}} to {{color id=\"1\"}}change outfits{{color id=\"65535\"}} while taking photos of a\nvacation home. Show off your style with outfits that\nmatch the room!"
  },
  {
    "label": "211",
    "text": "When you're setting up to take photos of a vacation\nhome, you can move folks around. Arrange everyone\ninto picture-perfect position by pressing {{color id=\"1\"}}{{color id=\"65535\"}}!"
  },
  {
    "label": "212",
    "text": "No need to stay inside when you take photos of a vacation\nhome—you can take pictures outside too! Pick a location\nthat matches your theme!"
  },
  {
    "label": "213",
    "text": "Press {{color id=\"1\"}}{{color id=\"65535\"}} in the yard while you work to set the {{color id=\"1\"}}time\n{{color id=\"65535\"}}or {{color id=\"1\"}}weather{{color id=\"65535\"}}. This can help create a mood that fits a\nrequested theme!"
  },
  {
    "label": "214",
    "text": "To choose the {{color id=\"1\"}}vacation home's exterior{{color id=\"65535\"}}, select the home\nwhile in the yard's Decorating Mode and press {{color id=\"1\"}}{{color id=\"65535\"}}!"
  },
  {
    "label": "215",
    "text": "You're free to choose different roofs and walls for each\nbuilding when you're changing the {{color id=\"1\"}}vacation home's\nexterior{{color id=\"65535\"}}! Play around to see what you like best."
  },
  {
    "label": "216",
    "text": "There's nothing like the right {{color id=\"1\"}}music{{color id=\"65535\"}} to pull a space\ntogether. Add background music to your vacation home\nto get the vibe just right!"
  },
  {
    "label": "217",
    "text": "While you're working, get ready to {{color id=\"1\"}}polish furniture {{color id=\"65535\"}}by\nusing {{color id=\"1\"}}{{color id=\"65535\"}}!"
  },
  {
    "label": "218",
    "text": "Make an {{color id=\"1\"}}in-progress save {{color id=\"65535\"}}while you're working with {{color id=\"1\"}}{{color id=\"65535\"}}!\nBut watch out—it won't work while you're taking photos."
  },
  {
    "label": "219",
    "text": "Press {{color id=\"1\"}}{{color id=\"65535\"}} to change the way you {{color id=\"1\"}}polish furniture{{color id=\"65535\"}}. See what\nhappens when you change it up!"
  },
  {
    "label": "220",
    "text": "If you want to change the exterior while {{color id=\"1\"}}you're designing a\nfacility{{color id=\"65535\"}}, just talk to me!"
  },
  {
    "label": "221",
    "text": "If you want to put some extra oomph into {{color id=\"1\"}}polishing\nfurniture{{color id=\"65535\"}}, hold {{color id=\"1\"}}{{color id=\"65535\"}} while you work!"
  },
  {
    "label": "222",
    "text": "Don't worry about {{color id=\"1\"}}polishing furniture{{color id=\"65535\"}} too much—you can\nalways press {{color id=\"1\"}}{{color id=\"65535\"}} again or press {{color id=\"1\"}}{{color id=\"65535\"}} to completely remove\nthe effect!"
  },
  {
    "label": "223",
    "text": "Take part in {{color id=\"3\"}}Tom Nook{{color id=\"65535\"}}'s{{color id=\"3\"}} {{color id=\"65535\"}}{{color id=\"1\"}}customization workshop {{color id=\"65535\"}}to\nchoose {{color id=\"1\"}}color variations for furniture {{color id=\"65535\"}}while you're working!"
  },
  {
    "label": "224",
    "text": "Use {{color id=\"1\"}}{{color id=\"65535\"}} while taking pictures with the Camera app to\nremove folks from photos. Sometimes you just want\na picture of a room or yard!"
  },
  {
    "label": "225",
    "text": "If you have the {{color id=\"1\"}}Pro Camera App{{color id=\"65535\"}}, you can take photos\nmore freely! Get your hands on the app by exchanging\nmiles at {{color id=\"1\"}}Nook Stop{{color id=\"65535\"}}. Give it a try!"
  },
  {
    "label": "226",
    "text": "In Decorating Mode, press {{color id=\"1\"}}{{color id=\"65535\"}} to change things like the\n{{color id=\"1\"}}room size{{color id=\"65535\"}}, {{color id=\"1\"}}windows{{color id=\"65535\"}},{{color id=\"1\"}} and the entrance-area floor{{color id=\"65535\"}}!"
  },
  {
    "label": "227",
    "text": "While in Decorating Mode, press {{color id=\"1\"}}{{color id=\"65535\"}} to change things\nlike the {{color id=\"1\"}}size of the room{{color id=\"65535\"}},{{color id=\"1\"}} the entrance floor{{color id=\"65535\"}}, {{color id=\"1\"}}windows{{color id=\"65535\"}},\nand even the {{color id=\"1\"}}color and brightness of the light{{color id=\"65535\"}}!"
  },
  {
    "label": "228",
    "text": "While in Decorating Mode, press {{color id=\"1\"}} {{color id=\"65535\"}}to change features\nlike the {{color id=\"1\"}}size of the room{{color id=\"65535\"}}, {{color id=\"1\"}}the entrance flooring{{color id=\"65535\"}},{{color id=\"1\"}} windows{{color id=\"65535\"}},\n{{color id=\"1\"}}light{{color id=\"65535\"}}, and also the {{color id=\"1\"}}soundscape{{color id=\"65535\"}} of the home!"
  },
  {
    "label": "229",
    "text": "By breeding hybrid flowers together, you might get rare\nflowers! Then you can order more of that rare flower\nfor use in vacation-home designs!"
  },
  {
    "label": "230",
    "text": "Visiting our clients' vacation homes allows you the\nopportunity to make suggestions for {{color id=\"1\"}}remodeling\n{{color id=\"65535\"}}or {{color id=\"1\"}}moving {{color id=\"65535\"}}to other locations!"
  },
  {
    "label": "231",
    "text": "You can use {{color id=\"1\"}}custom designs{{color id=\"65535\"}} as {{color id=\"1\"}}furniture-polishing{{color id=\"65535\"}} effects.\nIt takes some practice, but if you get the hang of it, then\nyou'll be able to increase your means of expression!"
  },
  {
    "label": "232",
    "text": "Use the {{color id=\"1\"}}{{wordInfo gender=\"0\" indefArticle=\"2\" defArticle=\"3\"}}amiibo scanner{{color id=\"65535\"}} on the office counter and\nan {{color id=\"1\"}}amiibo{{color id=\"65535\"}} to invite clients who aren't on the beach!"
  },
  {
    "label": "233",
    "text": "You can find {{color id=\"1\"}}vines{{color id=\"65535\"}} and {{color id=\"1\"}}moss{{color id=\"65535\"}} growing near the office.\nUse them as decorations on your home island!"
  },
  {
    "label": "234",
    "text": "When you come to work, explore the area near the office\nsometimes! The {{color id=\"1\"}}north beach{{color id=\"65535\"}} is a popular tourist spot too!"
  },
  {
    "label": "235",
    "text": "When you have time, go for a walk on the beach!\nYou might find a {{color id=\"1\"}}message bottle{{color id=\"65535\"}}!"
  },
  {
    "label": "236",
    "text": "When visiting {{color id=\"1\"}}facilities{{color id=\"65535\"}} on the island, you can change\nthe staff by pressing {{color id=\"1\"}}{{color id=\"65535\"}}!"
  },
  {
    "label": "237",
    "text": "If you want to make {{color id=\"1\"}}new facilities{{color id=\"65535\"}}, just let me know the next\ntime you're in the office."
  },
  {
    "label": "238",
    "text": "Furniture you create in {{color id=\"1\"}}DIY{{color id=\"65535\"}} will become available for you to\nuse when designing homes! Be sure to create a lot with DIY\nand increase your repertoire!"
  },
  {
    "label": "239",
    "text": "The second floor of our office is the staff room. There's a\n{{color id=\"1\"}}workbench{{color id=\"65535\"}} up there for DIY. Feel free to use it!"
  },
  {
    "label": "240",
    "text": "Visiting clients' vacation homes gives you a chance to\nsuggest {{color id=\"1\"}}remodeling{{color id=\"65535\"}}, {{color id=\"1\"}}moving{{color id=\"65535\"}} to a different location, and\neven adding {{color id=\"1\"}}roommates{{color id=\"65535\"}}!"
  },
  {
    "label": "241",
    "text": "Talk to the staff at the {{color id=\"1\"}}café{{color id=\"65535\"}}, and they'll help you order from\nthe takeout menu!"
  },
  {
    "label": "242",
    "text": "If you need a checkup, be sure to visit the {{color id=\"1\"}}hospital{{color id=\"65535\"}}!"
  },
  {
    "label": "243",
    "text": "The {{color id=\"1\"}}hospital {{color id=\"65535\"}}is collecting funds for an expansion! You can\nhelp them out with a donation if you'd like!"
  },
  {
    "label": "244",
    "text": "The {{color id=\"1\"}}apparel shop{{color id=\"65535\"}}'s wares change daily! Be sure to drop in\nand see what's for sale when you're here!"
  },
  {
    "label": "245",
    "text": "{{color id=\"3\"}}DJ KK{{color id=\"65535\"}}'s events always take place on the north beach.\nThe stage is set up the day before, so be sure to\ncheck it out!"
  },
  {
    "label": "246",
    "text": "You can deposit or withdraw Poki at the office's {{color id=\"1\"}}ABD{{color id=\"65535\"}}, and\nyou can exchange your money between Poki and Bells too!"
  },
  {
    "label": "247",
    "text": "The Poki-to-Bell exchange rate at the {{color id=\"1\"}}ABD{{color id=\"65535\"}} changes daily!\nAim to change your money when the rates are good!"
  },
  {
    "label": "248",
    "text": "The amount of Poki and Bells you can exchange at the {{color id=\"1\"}}ABD\n{{color id=\"65535\"}}is limited per day. Be careful with your exchanges!"
  },
  {
    "label": "249",
    "text": "Talk to {{color id=\"3\"}}Wardell{{color id=\"65535\"}},{{color id=\"3\"}} {{color id=\"65535\"}}and he'll help you order things from our\nshop anytime you like!"
  }
]