﻿[
  {
    "label": "001_01",
    "attribute": "0x000021",
    "text": "今后，生活的{{color id=\"1\"}}时间将与现实相同{{color id=\"65535\"}}。"
  },
  {
    "label": "001_02",
    "attribute": "0x000021",
    "text": "今后的生活将通过{{color id=\"1\"}}自动保存{{color id=\"65535\"}}\n被自动记录下来。\n"
  },
  {
    "label": "002",
    "attribute": "0x000021",
    "text": "画面右上角显示{{color id=\"1\"}}{{color id=\"65535\"}}的时候，\n表示正在进行{{color id=\"1\"}}自动保存{{color id=\"65535\"}}，\n请不要触碰电源键。{{pageBreak}}另外，只要按{{color id=\"1\"}}键{{color id=\"65535\"}}\n就可以保存并结束游戏。"
  }
]