﻿[
  {
    "label": "001",
    "attribute": "0x00000013",
    "text": "{{anim id=\"Greeting\" target=\"actor\" targetSpec=\"\"}}{{anim id=\"Cheering\" target=\"actor\" targetSpec=\"\"}}¡Hola, hola!{{delay20}} Habla {{color id=\"3\"}}Coti Conejal{{color id=\"65535\"}},{{delay8}}\nel conejo de la suerte,{{delay8}} ¡boooing!{{delay20}}\n{{anim id=\"QuestionMark\" target=\"actor\" targetSpec=\"\"}}¿Para qué me llamas?"
  },
  {
    "label": "002",
    "attribute": "0x00000013",
    "text": "{{anim id=\"Eh\" target=\"actor\" targetSpec=\"\"}}¿Quieres que vaya de un salto\na la {{color id=\"1\"}}zona de campamento {{color id=\"65535\"}}de tu isla?{{delay20}}\n{{anim id=\"BigSmile\" target=\"actor\" targetSpec=\"\"}}¡Suena fenomenal!\n{{anim id=\"Sighing\" target=\"actor\" targetSpec=\"\"}}Lástima que tenga tanto trabajo{{string value=\"...\"}}{{delay20}}\n{{anim id=\"Worried\" target=\"actor\" targetSpec=\"\"}}Lo siento mucho, amiguit{{gender2 m=\"o\" f=\"a\"}}, pero\ntendré que rechazar tu invitación.\n{{anim id=\"FaintSmile\" target=\"actor\" targetSpec=\"\"}}¡Gracias de todas formas, boing!"
  },
  {
    "label": "101",
    "attribute": "0x00000013",
    "text": "{{anim id=\"HappyDance\" target=\"actor\" targetSpec=\"\"}}¡Boing-boing!{{delay20}} ¡Hablas con el conejo\nde la suerte, {{color id=\"3\"}}{{string value=\"VillagerName\"}}{{color id=\"65535\"}}!{{pageBreak}}{{anim id=\"QuestionMark\" target=\"actor\" targetSpec=\"\"}}¿Una casa de vacaciones?{{delay20}} ¿Y tú\nte encargarás de diseñarla?{{delay20}} {{anim id=\"Love\" target=\"actor\" targetSpec=\"\"}}¿Cómo\npodría rechazar esa propuesta?\n{{anim id=\"HappyDance\" target=\"actor\" targetSpec=\"\"}}¡Ahora mismo me voy brincando\nhacía allí y me cuentas!"
  }
]