﻿[
  {
    "label": "001",
    "attribute": "0x0000000000000000",
    "text": "{{fun_0014003C arg=\"\"}}"
  },
  {
    "label": "001_01",
    "attribute": "0x0000000000000000",
    "text": "{{anim id=\"Sleep\" target=\"actor\" targetSpec=\"\"}}Zzz{{delay8}}{{string value=\"...\"}} Zzz{{delay8}}{{string value=\"...\"}}\nSnnzzzkk{{delay8}}{{string value=\"...\"}}{{anim id=\"EmotEnd\" target=\"actor\" targetSpec=\"\"}}{{i10_7 arg=\"120\"}}"
  },
  {
    "label": "001_02",
    "attribute": "0x0000000000000000",
    "text": "{{anim id=\"Sleep\" target=\"actor\" targetSpec=\"\"}}Mm hnn{{delay8}}{{string value=\"...\"}}{{anim id=\"EmotEnd\" target=\"actor\" targetSpec=\"\"}}{{i10_7 arg=\"60\"}}"
  },
  {
    "label": "001_03",
    "attribute": "0x0000000000000000",
    "text": "{{anim id=\"Sleep\" target=\"actor\" targetSpec=\"\"}}Snnrrkk{{delay8}}{{string value=\"...\"}}{{anim id=\"EmotEnd\" target=\"actor\" targetSpec=\"\"}}{{i10_7 arg=\"120\"}}"
  },
  {
    "label": "010",
    "attribute": "0x0000000000000000",
    "text": "{{fun_0014003C arg=\"\"}}"
  },
  {
    "label": "010_01",
    "attribute": "0x0000000000000000",
    "text": "{{anim id=\"Shocked\" target=\"actor\" targetSpec=\"\"}}Sorry about that,{{delay20}} {{string value=\"Catchphrase\"}}.{{delay frames=\"30\"}}\n{{anim id=\"Sleepy\" target=\"actor\" targetSpec=\"\"}}Don't know why I'm so tired{{delay8}}{{string value=\"...\"}}"
  },
  {
    "label": "010_02",
    "attribute": "0x0000000000000000",
    "text": "{{anim id=\"Aha\" target=\"actor\" targetSpec=\"\"}}Oh no, I'm so sorry!{{delay frames=\"30\"}}\n{{anim id=\"Worried\" target=\"actor\" targetSpec=\"\"}}How long was I asleep?"
  },
  {
    "label": "011",
    "attribute": "0x0000000000000000",
    "text": "{{fun_0014003C arg=\"\"}}"
  },
  {
    "label": "011_01",
    "attribute": "0x0000000000000000",
    "text": "{{anim id=\"Worried\" target=\"actor\" targetSpec=\"\"}}Well, that's embarrassing{{delay8}}{{string value=\"...\"}}\nI stayed up late last night.{{delay frames=\"30\"}}\n{{anim id=\"Sleepy\" target=\"actor\" targetSpec=\"\"}}Guess I'm still a bit tired."
  },
  {
    "label": "011_02",
    "attribute": "0x0000000000000000",
    "text": "{{anim id=\"Shocked\" target=\"actor\" targetSpec=\"\"}}So sorry about that{{delay8}}{{string value=\"...\"}}\n{{anim id=\"Sleepy\" target=\"actor\" targetSpec=\"\"}}I must have nodded off."
  },
  {
    "label": "012",
    "attribute": "0x0000000000000000",
    "text": "{{fun_0014003C arg=\"\"}}"
  },
  {
    "label": "012_01",
    "attribute": "0x0000000000000000",
    "text": "{{anim id=\"FaintSmile\" target=\"actor\" targetSpec=\"\"}}This breeze felt so good that\nI guess I must've dozed off."
  },
  {
    "label": "012_02",
    "attribute": "0x0000000000000000",
    "text": "{{anim id=\"FaintSmile\" target=\"actor\" targetSpec=\"\"}}It's nice to take a break outside,{{delay20}}\n{{anim id=\"Sleepy\" target=\"actor\" targetSpec=\"\"}}even if I did fall asleep just now."
  },
  {
    "label": "013",
    "attribute": "0x0000000000000000",
    "text": "{{fun_0014003C arg=\"\"}}"
  },
  {
    "label": "013_01",
    "attribute": "0x0000000000000000",
    "text": "{{anim id=\"Eh\" target=\"actor\" targetSpec=\"\"}}Oh{{delay8}}{{string value=\"...\"}}sorry about that.{{delay frames=\"30\"}}\n{{anim id=\"Hesitate\" target=\"actor\" targetSpec=\"\"}}Guess I nodded off?"
  },
  {
    "label": "013_02",
    "attribute": "0x0000000000000000",
    "text": "{{anim id=\"Eh\" target=\"actor\" targetSpec=\"\"}}I'm sorry.{{delay20}} Did I fall asleep?{{delay frames=\"30\"}}\n{{anim id=\"Worried\" target=\"actor\" targetSpec=\"\"}}Hope I didn't say anything weird\nin my sleep{{delay8}}{{string value=\"...\"}} {{anim id=\"Serious\" target=\"actor\" targetSpec=\"\"}}I didn't, right?"
  },
  {
    "label": "014",
    "attribute": "0x0000000000000000",
    "text": "{{fun_0014003C arg=\"\"}}"
  },
  {
    "label": "014_01",
    "attribute": "0x0000000000000000",
    "text": "{{anim id=\"Eh\" target=\"actor\" targetSpec=\"\"}}Oh, I nodded off!{{delay frames=\"30\"}}\n{{anim id=\"Worried\" target=\"actor\" targetSpec=\"\"}}How embarrassing."
  },
  {
    "label": "014_02",
    "attribute": "0x0000000000000000",
    "text": "{{anim id=\"Worried\" target=\"actor\" targetSpec=\"\"}}Sorry about that.{{delay20}} I start to {{anim id=\"Sleepy\" target=\"actor\" targetSpec=\"\"}}get\nsleepy around this time of day."
  },
  {
    "label": "015",
    "attribute": "0x0000000000000000",
    "text": "{{fun_0014003C arg=\"\"}}"
  },
  {
    "label": "015_01",
    "attribute": "0x0000000000000000",
    "text": "{{anim id=\"Aha\" target=\"actor\" targetSpec=\"\"}}Oh, was I asleep?{{delay frames=\"30\"}}\n{{anim id=\"FaintSmile\" target=\"actor\" targetSpec=\"\"}}Thanks for waking me!{{pageBreak}}{{anim id=\"Hesitate\" target=\"actor\" targetSpec=\"\"}}I'd be better off sleeping at home\nthan out here,{{delay20}} {{string value=\"Catchphrase\"}}."
  },
  {
    "label": "015_02",
    "attribute": "0x0000000000000000",
    "text": "{{anim id=\"Shocked\" target=\"actor\" targetSpec=\"\"}}I can't believe I fell asleep outside!{{pageBreak}}{{anim id=\"Sleepy\" target=\"actor\" targetSpec=\"\"}}I should get myself home\nbefore it happens again{{delay8}}{{string value=\"...\"}}"
  }
]