﻿[
  {
    "label": "001",
    "attribute": "0x0000000000000000",
    "text": "{{fun_0014003C arg=\"\"}}"
  },
  {
    "label": "001_01",
    "attribute": "0x0000000000000000",
    "text": "{{anim id=\"AbsentMindedness\" target=\"actor\" targetSpec=\"\"}}I was so pumped about the present\nSanta got me that last night, I had\na dream about him, {{string value=\"Catchphrase\"}}.{{anim id=\"EmotEnd\" target=\"actor\" targetSpec=\"\"}}{{pageBreak}}I dreamed we compared abs, and\nguess what?{{delay20}} {{anim id=\"Pardon\" target=\"actor\" targetSpec=\"\"}}He.{{delay8}} Was.{{delay20}} SHREDDED!"
  },
  {
    "label": "001_02",
    "attribute": "0x0000000000000000",
    "text": "{{anim id=\"HappyFlower\" target=\"actor\" targetSpec=\"\"}}Getting a gift from Santa has me\nmega hyped!{{delay20}} I feel so festive, I could\nsprint for days, {{string value=\"Catchphrase\"}}!"
  },
  {
    "label": "002",
    "attribute": "0x0000000000000000",
    "text": "{{fun_0014003C arg=\"\"}}"
  },
  {
    "label": "002_01",
    "attribute": "0x0000000000000000",
    "text": "{{anim id=\"Smiling\" target=\"actor\" targetSpec=\"\"}}Thanks for the awesome Toy Day\npresent!{{delay20}} You're like Santa, but with\nway bigger biceps, {{string value=\"Catchphrase\"}}!"
  },
  {
    "label": "002_02",
    "attribute": "0x0000000000000000",
    "text": "{{anim id=\"Nodding\" target=\"actor\" targetSpec=\"\"}}Hey, your gift absolutely made my\nToy Day.{{delay frames=\"40\"}} {{anim id=\"Love\" target=\"actor\" targetSpec=\"\"}}You're the best rival anyone\ncould ever ask for, {{string value=\"Catchphrase\"}}!"
  },
  {
    "label": "003",
    "attribute": "0x0000000000000000",
    "text": "{{fun_0014003C arg=\"\"}}"
  },
  {
    "label": "003_01",
    "attribute": "0x0000000000000000",
    "text": "{{anim id=\"BigSmile\" target=\"actor\" targetSpec=\"\"}}I got presents from both you AND\nSanta yesterday.{{delay20}} It was like the best\none-two punch ever, {{string value=\"Catchphrase\"}}!"
  },
  {
    "label": "003_02",
    "attribute": "0x0000000000000000",
    "text": "{{anim id=\"BigSmile\" target=\"actor\" targetSpec=\"\"}}Toy Day RULED!{{delay20}} How'd I luck out and\nget gifts from both you and Santa?{{pageBreak}}{{anim id=\"Thinking\" target=\"actor\" targetSpec=\"\"}}Hmm{{string value=\"...\"}} I'll bet it was all the sit-ups\nI did.{{delay8}} Sit-ups score you big points\non the \"nice\" list, {{string value=\"Catchphrase\"}}.{{anim id=\"EmotEnd\" target=\"actor\" targetSpec=\"\"}}{{pageBreak}}Plus, I know how much you adore\nsit-ups, so{{string value=\"...\"}}{{delay8}} {{anim id=\"ShyBoy\" target=\"actor\" targetSpec=\"\"}}Yeah, that explains it!"
  },
  {
    "label": "004",
    "attribute": "0x0000000000000000",
    "text": "{{fun_0014003C arg=\"\"}}"
  },
  {
    "label": "004_01",
    "attribute": "0x0000000000000000",
    "text": "{{anim id=\"Hello\" target=\"actor\" targetSpec=\"\"}}Got any big post-Toy-Day workout\nplans?{{delay20}} I'm starting on my New Year's\nresolutions a little early.{{pageBreak}}{{anim id=\"Smiling\" target=\"actor\" targetSpec=\"\"}}That's right!{{delay20}} Twelve straight months\nof leg days.{{delay20}} {{anim id=\"SmugFace\" target=\"actor\" targetSpec=\"\"}}By this time next year, I\nwanna be able to jump to the moon!"
  },
  {
    "label": "004_02",
    "attribute": "0x0000000000000000",
    "text": "{{anim id=\"QuestionMark\" target=\"actor\" targetSpec=\"\"}}Do you think Santa ever visits places\nAFTER Toy Day?{{delay20}} I really wanted to\nmeet him last night, but I dozed off.{{pageBreak}}{{anim id=\"Worried\" target=\"actor\" targetSpec=\"\"}}I wanna ask him what his marathon\ntime is.{{delay20}} If he's delivering that many\npresents that fast,{{delay8}} {{anim id=\"Smiling\" target=\"actor\" targetSpec=\"\"}}it's gotta be good."
  }
]