﻿[
  {
    "label": "001",
    "attribute": "0x00000C0100000000",
    "text": "{{anim id=\"Shocked\" target=\"actor\" targetSpec=\"\"}}Di nuovo tu! {{delay20}}{{anim id=\"WrySmile\" target=\"actor\" targetSpec=\"\"}}Forse quello che si dice\nè vero{{string value=\"...\"}} questo posto è troppo\npiccolo per noi due.{{setNpcTalkChoices chatOption=\"0\" cancelOption=\"1\"}}"
  },
  {
    "label": "002",
    "attribute": "0x00000C0100000000",
    "text": "{{anim id=\"Greeting\" target=\"actor\" targetSpec=\"\"}}{{string value=\"14\"}}Ancora tu, {{string value=\"6\"}}{{endTag}}!{{delay20}}\nPer caso hai qualcosa di interessante\nda raccontarmi, {{string value=\"6\"}}?{{setNpcTalkChoices chatOption=\"1\" cancelOption=\"1\"}}"
  },
  {
    "label": "003",
    "attribute": "0x00000C0100000000",
    "text": "{{anim id=\"AbsentMindedness\" target=\"actor\" targetSpec=\"\"}}Ehi{{string value=\"...\"}}{{delay8}} Dove ci siamo già visti oggi?\n{{delay20}}Non ricordo più{{string value=\"...\"}} {{anim id=\"Aha\" target=\"actor\" targetSpec=\"\"}}O forse era un{{gender2 m=\"\" f=\"a\"}}\ngemell{{gender2 m=\"o\" f=\"a\"}} di cui non sapevi niente?{{setNpcTalkChoices chatOption=\"0\" cancelOption=\"1\"}}"
  },
  {
    "label": "004",
    "attribute": "0x00000C0100000000",
    "text": "{{anim id=\"Laughing\" target=\"actor\" targetSpec=\"\"}}Ma quante volte ti vedrò ancora,\noggi?{{delay20}} {{anim id=\"Eh\" target=\"actor\" targetSpec=\"\"}}Un attimo{{string value=\"...\"}} si tratta di uno\nscherzo? {{delay8}}Dov'è la telecamera?{{setNpcTalkChoices chatOption=\"0\" cancelOption=\"1\"}}"
  },
  {
    "label": "005",
    "attribute": "0x00000C0100000000",
    "text": "{{anim id=\"QuestionMark\" target=\"actor\" targetSpec=\"\"}}Che c'è, sentivi la mia mancanza?{{delay20}}\n{{anim id=\"SmugFace\" target=\"actor\" targetSpec=\"\"}}Devi essere rimast{{gender2 m=\"o\" f=\"a\"}} ammaliat{{gender2 m=\"o\" f=\"a\"}}\ndal mio carattere cordiale e aperto.{{setNpcTalkChoices chatOption=\"0\" cancelOption=\"1\"}}"
  }
]