﻿[
  {
    "label": "001",
    "attribute": "0x00000C0100000000",
    "text": "{{anim id=\"Hello\" target=\"actor\" targetSpec=\"\"}}Sapevo che saresti tornat{{gender2 m=\"o\" f=\"a\"}}.{{delay8}} {{anim id=\"WrySmile\" target=\"actor\" targetSpec=\"\"}}Casa mia\normai è un luogo di ritrovo per i miei\namici.{{delay8}} {{anim id=\"OhGeez\" target=\"actor\" targetSpec=\"\"}}E a me va bene così.{{setNpcTalkChoices chatOption=\"0\" cancelOption=\"1\"}}"
  },
  {
    "label": "002",
    "attribute": "0x00000C0100000000",
    "text": "{{anim id=\"Nodding\" target=\"actor\" targetSpec=\"\"}}Oggi sei sempre qui.{{delay8}} {{anim id=\"TakenAback\" target=\"actor\" targetSpec=\"\"}}Ehi, ma questa\nè casa tua o è casa mia?{{delay20}} {{anim id=\"FaintSmile\" target=\"actor\" targetSpec=\"\"}}Beh, però\nnon mi spiace che ti piaccia visitarmi.{{setNpcTalkChoices chatOption=\"0\" cancelOption=\"1\"}}"
  },
  {
    "label": "003",
    "attribute": "0x00000C0100000000",
    "text": "{{anim id=\"Grin\" target=\"actor\" targetSpec=\"\"}}Benvenut{{gender2 m=\"o\" f=\"a\"}} a casa tua, eh!{{delay8}} Prima o\npoi ti faccio trovare le pattine. {{anim id=\"Laughing\" target=\"actor\" targetSpec=\"\"}}Così,{{delay8}}\ngià che sei sempre qui,{{delay8}} me la pulisci!{{setNpcTalkChoices chatOption=\"1\" cancelOption=\"1\"}}"
  }
]