﻿[
  {
    "label": "001",
    "attribute": "0x00000013",
    "text": "{{anim id=\"Serious\" target=\"actor\" targetSpec=\"\"}}もしもし、{{string value=\"VillagerName\"}}ですけど{{string value=\"...\"}}{{delay20}}\n{{anim id=\"EmotEnd\" target=\"actor\" targetSpec=\"\"}}はい、{{delay20}}{{string value=\"PlayerName\"}}さん？{{delay frames=\"40\"}}\n{{anim id=\"QuestionMark\" target=\"actor\" targetSpec=\"\"}}どないしはったんですか？"
  },
  {
    "label": "002",
    "attribute": "0x00000013",
    "text": "{{anim id=\"Eh\" target=\"actor\" targetSpec=\"\"}}{{color id=\"1\"}}キャンプサイト{{color id=\"65535\"}}{{string value=\"...\"}}ですか？{{delay frames=\"40\"}}\n{{anim id=\"Thinking\" target=\"actor\" targetSpec=\"\"}}{{ruby charSpan=\"1\" value=\"たの\"}}楽しそうな　お{{ruby charSpan=\"1\" value=\"はなし\"}}話やと　{{ruby charSpan=\"1\" value=\"おも\"}}思うんですけど{{delay frames=\"60\"}}\n{{anim id=\"Negative\" target=\"actor\" targetSpec=\"\"}}ちょっと{{ruby charSpan=\"1\" value=\"いそが\"}}忙しくて　{{ruby charSpan=\"1\" value=\"い\"}}行けそうにないです{{pageBreak}}{{anim id=\"Worried\" target=\"actor\" targetSpec=\"\"}}せっかく　{{ruby charSpan=\"1\" value=\"さそ\"}}誘ってくれはったのに{{delay20}}\n{{anim id=\"EmotEnd\" target=\"actor\" targetSpec=\"\"}}かんにんね{{string value=\"...\"}}"
  },
  {
    "label": "101",
    "attribute": "0x00000013",
    "text": "はい{{string value=\"...\"}}、{{delay20}}{{string value=\"VillagerName\"}}ですけど{{delay20}}\n{{anim id=\"QuestionMark\" target=\"actor\" targetSpec=\"\"}}{{ruby charSpan=\"1\" value=\"なに\"}}何か　ご{{ruby charSpan=\"1\" value=\"よう\"}}用でしょうか{{string value=\"...\"}}{{i10_4}}\n{{anim id=\"Eh\" target=\"actor\" targetSpec=\"\"}}えっ、{{delay20}}{{ruby charSpan=\"2\" value=\"べっそう\"}}別荘の　お{{ruby charSpan=\"1\" value=\"さそ\"}}誘いですか{{pageBreak}}{{anim id=\"Hesitate\" target=\"actor\" targetSpec=\"\"}}あの{{string value=\"...\"}}、{{delay20}}あたしたち　{{ruby charSpan=\"4\" value=\"さんにんしまい\"}}三人姉妹なので{{delay20}}\nみんなで{{ruby charSpan=\"2\" value=\"いっしょ\"}}一緒に{{ruby charSpan=\"1\" value=\"す\"}}過ごせる　{{ruby charSpan=\"2\" value=\"べっそう\"}}別荘やったら\nとっても　{{ruby charSpan=\"1\" value=\"うれ\"}}嬉しいんですけど{{string value=\"...\"}}{{pageBreak}}{{anim id=\"Aha\" target=\"actor\" targetSpec=\"\"}}まあ、{{delay20}}{{ruby charSpan=\"1\" value=\"ひ\"}}引き{{ruby charSpan=\"1\" value=\"う\"}}受けてくれはるんですか？{{delay frames=\"40\"}}\n{{anim id=\"FaintSmile\" target=\"actor\" targetSpec=\"\"}}そしたら、{{delay8}}{{ruby charSpan=\"1\" value=\"くわ\"}}詳しいお{{ruby charSpan=\"1\" value=\"はなし\"}}話を　うかがいたいので{{delay20}}\n{{ruby charSpan=\"1\" value=\"いま\"}}今から　そちらにおじゃましますね"
  }
]