﻿[
  {
    "label": "001",
    "attribute": "0x04000000",
    "text": "{{anim id=\"Smiling\" target=\"actor\" targetSpec=\"\"}}{{string value=\"PlayerName\"}}，{{delay8}}\n歡迎光臨！{{i10_4}}\n{{anim id=\"EmotEnd\" target=\"actor\" targetSpec=\"\"}}今天有什麼需要我幫忙的嗎？"
  },
  {
    "label": "001_a",
    "attribute": "0x00000000",
    "text": "我要賣東西！"
  },
  {
    "label": "001_b",
    "attribute": "0x00000000",
    "text": "給我看看商品吧！"
  },
  {
    "label": "001_c",
    "attribute": "0x00000000",
    "text": "{{anim id=\"Negative\" target=\"actor\" targetSpec=\"\"}}沒什麼"
  },
  {
    "label": "002",
    "attribute": "0x04000000",
    "text": "{{anim id=\"Aha\" target=\"actor\" targetSpec=\"\"}}啊！{{delay20}}您是從其他島來的訪客吧？{{anim id=\"FaintSmile\" target=\"actor\" targetSpec=\"\"}}{{i10_4}}\n{{anim id=\"Smiling\" target=\"actor\" targetSpec=\"\"}}真的非常感謝您{{delay20}}\n千里迢迢來到本店！\n{{anim id=\"EmotEnd\" target=\"actor\" targetSpec=\"\"}}今天有什麼需要我幫忙的嗎？"
  },
  {
    "label": "002_a",
    "attribute": "0x00000000",
    "text": "我要賣東西！"
  },
  {
    "label": "002_b",
    "attribute": "0x00000000",
    "text": "給我看看商品吧！"
  },
  {
    "label": "002_c",
    "attribute": "0x00000000",
    "text": "{{anim id=\"Negative\" target=\"actor\" targetSpec=\"\"}}沒什麼"
  },
  {
    "label": "003",
    "attribute": "0x04000000",
    "text": "{{anim id=\"Smiling\" target=\"actor\" targetSpec=\"\"}}好的好的！{{delay frames=\"40\"}}\n有什麼需要我幫忙的嗎？"
  },
  {
    "label": "003_a",
    "attribute": "0x00000000",
    "text": "我要賣東西！"
  },
  {
    "label": "003_b",
    "attribute": "0x00000000",
    "text": "給我看看商品吧！"
  },
  {
    "label": "003_c",
    "attribute": "0x00000000",
    "text": "{{anim id=\"Negative\" target=\"actor\" targetSpec=\"\"}}沒什麼"
  },
  {
    "label": "011",
    "attribute": "0x06000000",
    "text": "{{anim id=\"Smiling\" target=\"mainNpc\" targetSpec=\"\"}}{{anim id=\"Smiling\" target=\"subNpc\" targetSpec=\"\"}}{{string value=\"PlayerName\"}}，{{delay8}}\n歡迎光臨！{{fun_00040064 arg=\"\"}}　{{delay8}}{{size value=\"75\"}}光臨！{{size value=\"100\"}}{{endTag}}{{i10_4}}\n{{anim id=\"EmotEnd\" target=\"actor\" targetSpec=\"\"}}請問今天有什麼能為您效勞的嗎？"
  },
  {
    "label": "011_a",
    "attribute": "0x00000000",
    "text": "我要賣東西！"
  },
  {
    "label": "011_b",
    "attribute": "0x00000000",
    "text": "今天的大頭菜價格？"
  },
  {
    "label": "011_c",
    "attribute": "0x00000000",
    "text": "今天的高價收購物品是？"
  },
  {
    "label": "011_d",
    "attribute": "0x00000000",
    "text": "{{anim id=\"Negative\" target=\"actor\" targetSpec=\"\"}}沒什麼"
  },
  {
    "label": "012",
    "attribute": "0x06000000",
    "text": "{{anim id=\"Aha\" target=\"actor\" targetSpec=\"\"}}啊！{{delay20}}您是從其他島來的訪客吧？{{anim id=\"FaintSmile\" target=\"actor\" targetSpec=\"\"}}{{i10_4}}\n{{anim id=\"Smiling\" target=\"actor\" targetSpec=\"\"}}真的非常感謝您{{delay20}}\n千里迢迢來到本店！\n{{anim id=\"EmotEnd\" target=\"actor\" targetSpec=\"\"}}今天有什麼需要我幫忙的嗎？"
  },
  {
    "label": "012_a",
    "attribute": "0x00000000",
    "text": "我要賣東西！"
  },
  {
    "label": "012_b",
    "attribute": "0x00000000",
    "text": "今天的大頭菜價格？"
  },
  {
    "label": "012_c",
    "attribute": "0x00000000",
    "text": "今天的高價收購物品是？"
  },
  {
    "label": "012_d",
    "attribute": "0x00000000",
    "text": "{{anim id=\"Negative\" target=\"actor\" targetSpec=\"\"}}沒什麼"
  },
  {
    "label": "013",
    "attribute": "0x06000000",
    "text": "{{anim id=\"Smiling\" target=\"mainNpc\" targetSpec=\"\"}}{{anim id=\"Smiling\" target=\"subNpc\" targetSpec=\"\"}}好的好的！{{fun_00040064 arg=\"\"}}　{{delay8}}{{size value=\"75\"}}好的！{{size value=\"100\"}}{{endTag}}{{delay frames=\"40\"}}\n有什麼需要幫忙的嗎？"
  },
  {
    "label": "013_a",
    "attribute": "0x00000000",
    "text": "我要賣東西！"
  },
  {
    "label": "013_b",
    "attribute": "0x00000000",
    "text": "今天的大頭菜價格？"
  },
  {
    "label": "013_c",
    "attribute": "0x00000000",
    "text": "今天的高價收購物品是？"
  },
  {
    "label": "013_d",
    "attribute": "0x00000000",
    "text": "{{anim id=\"Negative\" target=\"actor\" targetSpec=\"\"}}沒什麼"
  },
  {
    "label": "014",
    "attribute": "0x06000000",
    "text": "{{anim id=\"Confused\" target=\"mainNpc\" targetSpec=\"\"}}{{anim id=\"Worried\" target=\"subNpc\" targetSpec=\"\"}}不好意思，{{delay8}}說了那麼久才說完{{string value=\"...\"}}{{delay20}}\n{{anim id=\"Smiling\" target=\"mainNpc\" targetSpec=\"\"}}{{anim id=\"Smiling\" target=\"subNpc\" targetSpec=\"\"}}這次有什麼需要幫忙的嗎～？"
  },
  {
    "label": "014_a",
    "attribute": "0x00000000",
    "text": "我要賣東西！"
  },
  {
    "label": "014_b",
    "attribute": "0x00000000",
    "text": "今天的大頭菜價格？"
  },
  {
    "label": "014_c",
    "attribute": "0x00000000",
    "text": "今天的高價收購物品是？"
  },
  {
    "label": "014_d",
    "attribute": "0x00000000",
    "text": "{{anim id=\"Negative\" target=\"actor\" targetSpec=\"\"}}沒什麼"
  },
  {
    "label": "019",
    "attribute": "0x06000000",
    "text": "請問還有什麼{{delay20}}其他事情\n{{anim id=\"FaintSmile\" target=\"mainNpc\" targetSpec=\"\"}}{{anim id=\"FaintSmile\" target=\"subNpc\" targetSpec=\"\"}}需要為您效勞的嗎？{{fun_00040064 arg=\"\"}}　{{delay8}}{{size value=\"75\"}}效勞嗎？{{size value=\"100\"}}{{endTag}}"
  },
  {
    "label": "019_a",
    "attribute": "0x00000000",
    "text": "我要賣東西！"
  },
  {
    "label": "019_b",
    "attribute": "0x00000000",
    "text": "今天的大頭菜價格？"
  },
  {
    "label": "019_c",
    "attribute": "0x00000000",
    "text": "今天的高價收購物品是？"
  },
  {
    "label": "019_d",
    "attribute": "0x00000000",
    "text": "{{anim id=\"Negative\" target=\"actor\" targetSpec=\"\"}}沒什麼"
  },
  {
    "label": "021",
    "attribute": "0x00000000",
    "text": "{{anim id=\"Nodding\" target=\"mainNpc\" targetSpec=\"\"}}{{anim id=\"FaintSmile\" target=\"subNpc\" targetSpec=\"\"}}您要來賣東西啊！{{i10_4}}\n{{anim id=\"EmotEnd\" target=\"mainNpc\" targetSpec=\"\"}}那麼，請把要賣的東西{{delay20}}\n{{anim id=\"FaintSmile\" target=\"mainNpc\" targetSpec=\"\"}}給我看看！{{fun_00040064 arg=\"\"}}　{{delay8}}{{size value=\"75\"}}看看！{{size value=\"100\"}}{{endTag}}{{anim id=\"EmotEnd\" target=\"mainNpc\" targetSpec=\"\"}}{{anim id=\"EmotEnd\" target=\"subNpc\" targetSpec=\"\"}}"
  },
  {
    "label": "022",
    "attribute": "0x00000000",
    "text": "{{anim id=\"Nodding\" target=\"mainNpc\" targetSpec=\"\"}}{{anim id=\"FaintSmile\" target=\"subNpc\" targetSpec=\"\"}}您要來賣東西啊！{{i10_4}}\n{{anim id=\"Explain\" target=\"mainNpc\" targetSpec=\"\"}}今天{{anim id=\"Nodding\" target=\"subNpc\" targetSpec=\"\"}}是星期日，{{delay20}}大頭菜的收購\n暫停一日，{{delay8}}還請您諒解！{{anim id=\"EmotEnd\" target=\"mainNpc\" targetSpec=\"\"}}{{anim id=\"EmotEnd\" target=\"subNpc\" targetSpec=\"\"}}{{pageBreak}}那麼，{{delay20}}{{anim id=\"FaintSmile\" target=\"mainNpc\" targetSpec=\"\"}}{{anim id=\"FaintSmile\" target=\"subNpc\" targetSpec=\"\"}}請問您要賣什麼呢？{{anim id=\"EmotEnd\" target=\"mainNpc\" targetSpec=\"\"}}{{anim id=\"EmotEnd\" target=\"subNpc\" targetSpec=\"\"}}"
  },
  {
    "label": "024",
    "attribute": "0x00000000",
    "text": "{{anim id=\"Worried\" target=\"mainNpc\" targetSpec=\"\"}}{{anim id=\"Worried\" target=\"subNpc\" targetSpec=\"\"}}啊{{string value=\"...\"}}{{delay20}}不好意思{{string value=\"...\"}}{{delay40}}\n今天是星期日，{{delay20}}\n這裡無法收購大頭菜{{string value=\"...\"}}{{pageBreak}}{{anim id=\"EmotEnd\" target=\"mainNpc\" targetSpec=\"\"}}{{anim id=\"EmotEnd\" target=\"subNpc\" targetSpec=\"\"}}很抱歉給您添麻煩了，{{delay20}}\n請重新選擇想進行交易的物品！"
  },
  {
    "label": "025",
    "attribute": "0x00000000",
    "text": "{{anim id=\"Worried\" target=\"mainNpc\" targetSpec=\"\"}}{{anim id=\"Worried\" target=\"subNpc\" targetSpec=\"\"}}啊{{string value=\"...\"}}{{delay20}}不好意思{{string value=\"...\"}}{{delay40}}\n我們沒辦法收購{{delay20}}\n{{color id=\"1\"}}假{{color id=\"65535\"}}的美術品{{string value=\"...\"}}{{pageBreak}}{{anim id=\"EmotEnd\" target=\"mainNpc\" targetSpec=\"\"}}{{anim id=\"EmotEnd\" target=\"subNpc\" targetSpec=\"\"}}造成您的不便，很抱歉，{{delay20}}\n請您重新選擇{{delay20}}\n希望我們收購的物品吧！"
  },
  {
    "label": "031",
    "attribute": "0x02000000",
    "text": "{{anim id=\"Nodding\" target=\"mainNpc\" targetSpec=\"\"}}{{anim id=\"FaintSmile\" target=\"subNpc\" targetSpec=\"\"}}這是{{fun_0000007D arg=\"0x0000\"}}吧！{{i10_4}}\n{{anim id=\"FaintSmile\" target=\"mainNpc\" targetSpec=\"\"}}那麼，我可以用{{number value=\"BuyPrice\" index=\"0\"}}{{delay20}}\n跟您買下來！"
  },
  {
    "label": "031_a",
    "attribute": "0x00000000",
    "text": "{{anim id=\"Nodding\" target=\"actor\" targetSpec=\"\"}}賣！"
  },
  {
    "label": "031_b",
    "attribute": "0x00000000",
    "text": "{{anim id=\"Negative\" target=\"actor\" targetSpec=\"\"}}算了"
  },
  {
    "label": "035",
    "attribute": "0x02000000",
    "text": "{{size value=\"75\"}}{{anim id=\"Pardon\" target=\"actor\" targetSpec=\"\"}}啊{{string value=\"...\"}}{{delay8}}這個{{fun_0000007D arg=\"0x0000\"}}好像{{string value=\"...\"}}{{size value=\"100\"}}\n{{anim id=\"Shocked\" target=\"actor\" targetSpec=\"\"}}{{delay20}}喔，{{delay20}}{{anim id=\"Smiling\" target=\"actor\" targetSpec=\"\"}}沒事沒事！{{pageBreak}}是{{fun_0000007D arg=\"0x0000\"}}的話，\n我可以用{{number value=\"25\" index=\"0\"}}跟您買下來！"
  },
  {
    "label": "035_a",
    "attribute": "0x00000000",
    "text": "{{anim id=\"Nodding\" target=\"actor\" targetSpec=\"\"}}賣！"
  },
  {
    "label": "035_b",
    "attribute": "0x00000000",
    "text": "{{anim id=\"Negative\" target=\"actor\" targetSpec=\"\"}}算了"
  },
  {
    "label": "036",
    "attribute": "0x02000000",
    "text": "{{anim id=\"Nodding\" target=\"mainNpc\" targetSpec=\"\"}}{{anim id=\"FaintSmile\" target=\"subNpc\" targetSpec=\"\"}}這是{{fun_0000007D arg=\"0x0000\"}}的\nＤＩＹ方程式吧！{{i10_4}}\n{{anim id=\"FaintSmile\" target=\"mainNpc\" targetSpec=\"\"}}我可以用{{number value=\"21\" index=\"0\"}}跟您買下來！"
  },
  {
    "label": "036_a",
    "attribute": "0x00000000",
    "text": "{{anim id=\"Nodding\" target=\"actor\" targetSpec=\"\"}}賣！"
  },
  {
    "label": "036_b",
    "attribute": "0x00000000",
    "text": "{{anim id=\"Negative\" target=\"actor\" targetSpec=\"\"}}算了"
  },
  {
    "label": "037",
    "attribute": "0x02000000",
    "text": "{{anim id=\"Shocked\" target=\"mainNpc\" targetSpec=\"\"}}{{anim id=\"Shocked\" target=\"subNpc\" targetSpec=\"\"}}哇！{{delay40}}\n這是{{fun_0000007D arg=\"0x0000\"}}的\nＤＩＹ方程式啊～！{{pageBreak}}{{anim id=\"Worried\" target=\"mainNpc\" targetSpec=\"\"}}如此{{anim id=\"Nodding\" target=\"subNpc\" targetSpec=\"\"}}貴重的方程式，{{delay20}}\n真的要賣掉嗎{{string value=\"...\"}}？{{delay40}}\n我可以用{{number value=\"21\" index=\"0\"}}跟您買下來{{string value=\"...\"}}"
  },
  {
    "label": "037_01",
    "attribute": "0x02000000",
    "text": "{{anim id=\"Shocked\" target=\"mainNpc\" targetSpec=\"\"}}{{anim id=\"Shocked\" target=\"subNpc\" targetSpec=\"\"}}哇！{{delay40}}\n這是{{fun_0000007D arg=\"0x0000\"}}的\nＤＩＹ方程式啊～！{{pageBreak}}{{anim id=\"Worried\" target=\"mainNpc\" targetSpec=\"\"}}如此{{anim id=\"Nodding\" target=\"subNpc\" targetSpec=\"\"}}貴重的方程式，{{delay20}}\n真的要賣掉嗎{{string value=\"...\"}}？{{delay40}}\n我可以用{{number value=\"21\" index=\"0\"}}跟您買下來{{string value=\"...\"}}"
  },
  {
    "label": "037_01_a",
    "attribute": "0x00000000",
    "text": "{{anim id=\"Nodding\" target=\"actor\" targetSpec=\"\"}}賣！"
  },
  {
    "label": "037_01_b",
    "attribute": "0x00000000",
    "text": "{{anim id=\"Negative\" target=\"actor\" targetSpec=\"\"}}算了"
  },
  {
    "label": "037_a",
    "attribute": "0x00000000",
    "text": "{{anim id=\"Nodding\" target=\"actor\" targetSpec=\"\"}}賣！"
  },
  {
    "label": "037_b",
    "attribute": "0x00000000",
    "text": "{{anim id=\"Negative\" target=\"actor\" targetSpec=\"\"}}算了"
  },
  {
    "label": "038",
    "attribute": "0x02000000",
    "text": "{{anim id=\"Worried\" target=\"mainNpc\" targetSpec=\"\"}}{{anim id=\"Worried\" target=\"subNpc\" targetSpec=\"\"}}啊{{string value=\"...\"}}{{delay40}}\n不好意思，這些東西無法賣錢{{string value=\"...\"}}{{pageBreak}}如果您不要的話，\n我們可以免費幫您處理掉{{string value=\"...\"}}"
  },
  {
    "label": "038_a",
    "attribute": "0x00000000",
    "text": "請幫我處理吧！"
  },
  {
    "label": "038_b",
    "attribute": "0x00000000",
    "text": "那麼，我拿回去好了"
  },
  {
    "label": "041",
    "attribute": "0x00000000",
    "text": "{{anim id=\"FaintSmile\" target=\"mainNpc\" targetSpec=\"\"}}{{anim id=\"FaintSmile\" target=\"subNpc\" targetSpec=\"\"}}您帶了不少東西來呢！{{delay frames=\"40\"}}\n{{anim id=\"Thinking\" target=\"mainNpc\" targetSpec=\"\"}}{{anim id=\"AbsentMindedness\" target=\"subNpc\" targetSpec=\"\"}}嗯，{{delay20}}那麼，{{delay8}}我來算算看多少錢{{string value=\"...\"}}"
  },
  {
    "label": "041_01",
    "attribute": "0x00000000",
    "text": "您帶了不少東西來呢！{{i10_4}}\n　　　　　{{size value=\"75\"}}{{anim id=\"Pardon\" target=\"actor\" targetSpec=\"\"}}{{delay8}}咦{{string value=\"...\"}}{{delay8}}這個好像是之前發給大家的物品{{string value=\"...\"}}{{size value=\"100\"}}{{pageBreak}}{{anim id=\"Shocked\" target=\"actor\" targetSpec=\"\"}}{{delay20}}喔，{{delay20}}{{anim id=\"Smiling\" target=\"actor\" targetSpec=\"\"}}沒事沒事！{{delay20}}\n我馬上來算算看多少錢{{string value=\"...\"}}"
  },
  {
    "label": "041_02",
    "attribute": "0x00000000",
    "text": "{{anim id=\"FaintSmile\" target=\"mainNpc\" targetSpec=\"\"}}{{anim id=\"FaintSmile\" target=\"subNpc\" targetSpec=\"\"}}您帶了不少東西來呢！{{delay frames=\"40\"}}\n{{anim id=\"Thinking\" target=\"mainNpc\" targetSpec=\"\"}}{{anim id=\"AbsentMindedness\" target=\"subNpc\" targetSpec=\"\"}}嗯，{{delay20}}高價收購品\n以雙倍價格計算的話{{string value=\"...\"}}"
  },
  {
    "label": "042",
    "attribute": "0x02000000",
    "text": "{{anim id=\"BigSmile\" target=\"mainNpc\" targetSpec=\"\"}}{{anim id=\"FaintSmile\" target=\"subNpc\" targetSpec=\"\"}}好了！{{delay frames=\"40\"}}\n{{anim id=\"EmotEnd\" target=\"actor\" targetSpec=\"\"}}那麼，一共是{{number value=\"BuyPrice\" index=\"0\"}}，{{delay8}}\n{{anim id=\"FaintSmile\" target=\"actor\" targetSpec=\"\"}}確定要賣掉嗎？"
  },
  {
    "label": "042_a",
    "attribute": "0x00000000",
    "text": "{{anim id=\"Nodding\" target=\"actor\" targetSpec=\"\"}}賣！"
  },
  {
    "label": "042_b",
    "attribute": "0x00000000",
    "text": "{{anim id=\"Negative\" target=\"actor\" targetSpec=\"\"}}算了"
  },
  {
    "label": "043",
    "attribute": "0x02000000",
    "text": "{{anim id=\"FaintSmile\" target=\"mainNpc\" targetSpec=\"\"}}{{anim id=\"FaintSmile\" target=\"subNpc\" targetSpec=\"\"}}您帶了不少東西來呢{{string value=\"...\"}}{{anim id=\"Shocked\" target=\"mainNpc\" targetSpec=\"\"}}{{anim id=\"Shocked\" target=\"subNpc\" targetSpec=\"\"}}{{delay8}}咦？{{delay20}}\n{{anim id=\"EmotEnd\" target=\"mainNpc\" targetSpec=\"\"}}{{anim id=\"EmotEnd\" target=\"subNpc\" targetSpec=\"\"}}這裡面有相當貴重的方程式，{{delay20}}\n{{anim id=\"QuestionMark\" target=\"mainNpc\" targetSpec=\"\"}}{{anim id=\"QuestionMark\" target=\"subNpc\" targetSpec=\"\"}}也要賣掉嗎？"
  },
  {
    "label": "043_01",
    "attribute": "0x02000000",
    "text": "{{anim id=\"FaintSmile\" target=\"mainNpc\" targetSpec=\"\"}}{{anim id=\"FaintSmile\" target=\"subNpc\" targetSpec=\"\"}}您帶了不少東西來呢{{string value=\"...\"}}{{anim id=\"Shocked\" target=\"mainNpc\" targetSpec=\"\"}}{{anim id=\"Shocked\" target=\"subNpc\" targetSpec=\"\"}}{{delay8}}咦？{{delay20}}\n{{anim id=\"EmotEnd\" target=\"mainNpc\" targetSpec=\"\"}}{{anim id=\"EmotEnd\" target=\"subNpc\" targetSpec=\"\"}}這裡面有相當貴重的方程式，{{delay20}}\n{{anim id=\"QuestionMark\" target=\"mainNpc\" targetSpec=\"\"}}{{anim id=\"QuestionMark\" target=\"subNpc\" targetSpec=\"\"}}也要賣掉嗎？"
  },
  {
    "label": "043_01_a",
    "attribute": "0x00000000",
    "text": "{{anim id=\"Nodding\" target=\"actor\" targetSpec=\"\"}}要"
  },
  {
    "label": "043_01_b",
    "attribute": "0x00000000",
    "text": "{{anim id=\"Negative\" target=\"actor\" targetSpec=\"\"}}算了"
  },
  {
    "label": "043_a",
    "attribute": "0x00000000",
    "text": "{{anim id=\"Nodding\" target=\"actor\" targetSpec=\"\"}}要"
  },
  {
    "label": "043_b",
    "attribute": "0x00000000",
    "text": "{{anim id=\"Negative\" target=\"actor\" targetSpec=\"\"}}算了"
  },
  {
    "label": "044_01",
    "attribute": "0x00000000",
    "text": "{{anim id=\"Smiling\" target=\"mainNpc\" targetSpec=\"\"}}{{anim id=\"Smiling\" target=\"subNpc\" targetSpec=\"\"}}明白了！{{fun_00040064 arg=\"\"}}　{{delay8}}{{size value=\"75\"}}明白了！{{size value=\"100\"}}{{endTag}}{{delay frames=\"40\"}}\n{{anim id=\"AbsentMindedness\" target=\"mainNpc\" targetSpec=\"\"}}{{anim id=\"Nodding\" target=\"subNpc\" targetSpec=\"\"}}那麼，{{delay20}}我馬上來算算看多少錢{{string value=\"...\"}}"
  },
  {
    "label": "044_02",
    "attribute": "0x00000000",
    "text": "{{anim id=\"Smiling\" target=\"mainNpc\" targetSpec=\"\"}}{{anim id=\"Smiling\" target=\"subNpc\" targetSpec=\"\"}}明白了！{{fun_00040064 arg=\"\"}}　{{delay8}}{{size value=\"75\"}}明白了！{{size value=\"100\"}}{{endTag}}{{delay frames=\"40\"}}\n{{anim id=\"Thinking\" target=\"mainNpc\" targetSpec=\"\"}}{{anim id=\"AbsentMindedness\" target=\"subNpc\" targetSpec=\"\"}}嗯，{{delay20}}高價收購品\n以雙倍價格計算的話{{string value=\"...\"}}"
  },
  {
    "label": "045",
    "attribute": "0x02000000",
    "text": "{{anim id=\"BigSmile\" target=\"mainNpc\" targetSpec=\"\"}}{{anim id=\"FaintSmile\" target=\"subNpc\" targetSpec=\"\"}}好的！{{delay frames=\"40\"}}\n{{anim id=\"EmotEnd\" target=\"mainNpc\" targetSpec=\"\"}}因為有一部分東西無法賣錢，\n我會把那些東西抽出來處理掉{{string value=\"...\"}}\n剩下的東西，我用{{number value=\"BuyPrice\" index=\"0\"}}買下來，{{delay8}}\n{{anim id=\"FaintSmile\" target=\"mainNpc\" targetSpec=\"\"}}怎麼樣呢？"
  },
  {
    "label": "045_a",
    "attribute": "0x00000000",
    "text": "{{anim id=\"Nodding\" target=\"actor\" targetSpec=\"\"}}賣！"
  },
  {
    "label": "045_b",
    "attribute": "0x00000000",
    "text": "{{anim id=\"Negative\" target=\"actor\" targetSpec=\"\"}}算了"
  },
  {
    "label": "046",
    "attribute": "0x02000000",
    "text": "{{anim id=\"Worried\" target=\"mainNpc\" targetSpec=\"\"}}{{anim id=\"Worried\" target=\"subNpc\" targetSpec=\"\"}}啊{{string value=\"...\"}}{{delay40}}\n這次您帶來的東西，\n全部都無法賣錢{{string value=\"...\"}}{{pageBreak}}如果您不要的話，\n我們可以免費幫您處理掉{{string value=\"...\"}}"
  },
  {
    "label": "046_a",
    "attribute": "0x00000000",
    "text": "請幫我處理吧！"
  },
  {
    "label": "046_b",
    "attribute": "0x00000000",
    "text": "那麼，我拿回去好了"
  },
  {
    "label": "051",
    "attribute": "0x00000000",
    "text": "{{anim id=\"Smiling\" target=\"mainNpc\" targetSpec=\"\"}}{{anim id=\"Smiling\" target=\"subNpc\" targetSpec=\"\"}}謝謝惠顧！{{fun_00040064 arg=\"\"}}　{{delay8}}{{size value=\"75\"}}惠顧！{{size value=\"100\"}}{{endTag}}{{delay frames=\"40\"}}\n{{anim id=\"Nodding\" target=\"subNpc\" targetSpec=\"\"}}歡迎隨時再來{{delay8}}\n使用我們的服務！{{anim id=\"Smiling\" target=\"subNpc\" targetSpec=\"\"}}{{fun_00040064 arg=\"\"}}　{{delay8}}{{size value=\"75\"}}服務！{{size value=\"100\"}}{{endTag}}{{delay frames=\"40\"}}"
  },
  {
    "label": "051_01",
    "attribute": "0x00000000",
    "text": "{{anim id=\"Smiling\" target=\"mainNpc\" targetSpec=\"\"}}{{anim id=\"Smiling\" target=\"subNpc\" targetSpec=\"\"}}明白了！{{fun_00040064 arg=\"\"}}　{{delay8}}{{size value=\"75\"}}明白了！{{size value=\"100\"}}{{endTag}}{{delay frames=\"40\"}}\n那麼，{{delay8}}就由我們幫忙處理吧！{{fun_00040064 arg=\"\"}}　{{delay8}}{{size value=\"75\"}}處理吧！{{size value=\"100\"}}{{endTag}}"
  },
  {
    "label": "052",
    "attribute": "0x00000000",
    "text": "{{anim id=\"Smiling\" target=\"mainNpc\" targetSpec=\"\"}}{{anim id=\"Smiling\" target=\"subNpc\" targetSpec=\"\"}}謝謝惠顧！{{fun_00040064 arg=\"\"}}　{{delay8}}{{size value=\"75\"}}惠顧！{{size value=\"100\"}}{{endTag}}{{delay frames=\"40\"}}\n{{anim id=\"EmotEnd\" target=\"actor\" targetSpec=\"\"}}{{anim id=\"EmotEnd\" target=\"subNpc\" targetSpec=\"\"}}我幫您把拿不完的鈴錢{{delay8}}裝進袋子，\n再放進您的包包裡！"
  },
  {
    "label": "053",
    "attribute": "0x00000000",
    "text": "{{anim id=\"Smiling\" target=\"mainNpc\" targetSpec=\"\"}}{{anim id=\"Smiling\" target=\"subNpc\" targetSpec=\"\"}}謝謝惠顧！{{fun_00040064 arg=\"\"}}　{{delay8}}{{size value=\"75\"}}惠顧！{{size value=\"100\"}}{{endTag}}{{pageBreak}}{{anim id=\"EmotEnd\" target=\"mainNpc\" targetSpec=\"\"}}{{anim id=\"EmotEnd\" target=\"subNpc\" targetSpec=\"\"}}您的錢包和包包好像都滿了，{{delay20}}\n那麼我就直接將錢匯進\n{{anim id=\"FaintSmile\" target=\"mainNpc\" targetSpec=\"\"}}{{anim id=\"FaintSmile\" target=\"subNpc\" targetSpec=\"\"}}{{string value=\"PlayerName\"}}的戶口了！"
  },
  {
    "label": "054",
    "attribute": "0x00000000",
    "text": "{{anim id=\"Shocked\" target=\"actor\" targetSpec=\"\"}}啊！{{fun_00040064 arg=\"\"}}　{{delay8}}{{size value=\"75\"}}啊！{{size value=\"100\"}}{{string value=\"...\"}}{{endTag}}{{delay frames=\"30\"}}\n{{anim id=\"Worried\" target=\"mainNpc\" targetSpec=\"\"}}{{anim id=\"Worried\" target=\"subNpc\" targetSpec=\"\"}}非常抱歉{{string value=\"...\"}}{{pageBreak}}{{anim id=\"Explain\" target=\"mainNpc\" targetSpec=\"\"}}您好像拿不了這麼多錢，{{delay20}}\n{{anim id=\"Negative\" target=\"mainNpc\" targetSpec=\"\"}}這樣我就沒辦法給您\n賣東西換到的錢了{{string value=\"...\"}}{{pageBreak}}{{anim id=\"EmotEnd\" target=\"mainNpc\" targetSpec=\"\"}}{{anim id=\"Nodding\" target=\"subNpc\" targetSpec=\"\"}}請您先整理一下隨身物品，{{delay20}}\n{{anim id=\"FaintSmile\" target=\"mainNpc\" targetSpec=\"\"}}{{anim id=\"FaintSmile\" target=\"subNpc\" targetSpec=\"\"}}再過來找我吧！{{fun_00040064 arg=\"\"}}　{{delay8}}{{size value=\"75\"}}找我吧！{{size value=\"100\"}}{{endTag}}"
  },
  {
    "label": "056_01",
    "attribute": "0x00000000",
    "text": "{{anim id=\"Shocked\" target=\"mainNpc\" targetSpec=\"\"}}{{anim id=\"Shocked\" target=\"subNpc\" targetSpec=\"\"}}對了對了！{{delay40}}\n{{anim id=\"EmotEnd\" target=\"mainNpc\" targetSpec=\"\"}}{{anim id=\"EmotEnd\" target=\"subNpc\" targetSpec=\"\"}}關於您剛才賣出的{{color id=\"1\"}}水果{{color id=\"65535\"}}{{string value=\"...\"}}{{pageBreak}}{{anim id=\"Explain\" target=\"mainNpc\" targetSpec=\"\"}}當您{{color id=\"1\"}}吃下{{color id=\"65535\"}}水果這類食物時，{{delay20}}\n{{anim id=\"Nodding\" target=\"subNpc\" targetSpec=\"\"}}渾身就會充滿力量，{{delay8}}\n發揮出非比尋常的威力喔，{{delay20}}{{anim id=\"QuestionMark\" target=\"mainNpc\" targetSpec=\"\"}}{{anim id=\"Smiling\" target=\"subNpc\" targetSpec=\"\"}}您知道嗎？"
  },
  {
    "label": "056_02",
    "attribute": "0x00000000",
    "text": "{{anim id=\"Explain\" target=\"mainNpc\" targetSpec=\"\"}}比如說，{{delay20}}{{anim id=\"Nodding\" target=\"subNpc\" targetSpec=\"\"}}可以把岩石敲碎，{{delay8}}\n如果有挖掘用的道具，\n甚至可以把整棵樹都挖起來！"
  },
  {
    "label": "056_03",
    "attribute": "0x00000000",
    "text": "{{anim id=\"Explain\" target=\"mainNpc\" targetSpec=\"\"}}比如說，{{delay20}}{{anim id=\"Nodding\" target=\"subNpc\" targetSpec=\"\"}}可以把岩石敲碎，{{delay8}}\n如果有鏟子，\n甚至可以把整棵樹都挖起來！"
  },
  {
    "label": "056_04",
    "attribute": "0x00000000",
    "text": "{{anim id=\"Smiling\" target=\"mainNpc\" targetSpec=\"\"}}{{anim id=\"Smiling\" target=\"subNpc\" targetSpec=\"\"}}我們很歡迎您來賣水果，{{delay20}}\n不過{{string value=\"PlayerName\"}}也可以{{color id=\"1\"}}吃吃看{{color id=\"65535\"}}，\n會對生活有很大的幫助喔！{{fun_00040064 arg=\"\"}}　{{delay8}}{{size value=\"75\"}}幫助喔！{{size value=\"100\"}}{{endTag}}"
  },
  {
    "label": "061",
    "attribute": "0x00000000",
    "text": "{{anim id=\"Smiling\" target=\"mainNpc\" targetSpec=\"\"}}{{anim id=\"Smiling\" target=\"subNpc\" targetSpec=\"\"}}您要看看貨架上的商品啊！{{delay40}}\n如果有什麼需要的東西，\n請跟我們說吧！{{fun_00040064 arg=\"\"}}　{{delay8}}{{size value=\"75\"}}說吧！{{size value=\"100\"}}{{endTag}}"
  },
  {
    "label": "081",
    "attribute": "0x00000000",
    "text": "現在的大頭菜價格是{{delay20}}\n{{anim id=\"FaintSmile\" target=\"mainNpc\" targetSpec=\"\"}}{{anim id=\"FaintSmile\" target=\"subNpc\" targetSpec=\"\"}}1棵{{number value=\"TurnipPrice\" index=\"0\"}}！{{fun_00040064 arg=\"\"}}　{{delay8}}{{size value=\"75\"}}鈴錢！{{size value=\"100\"}}{{endTag}}"
  },
  {
    "label": "082",
    "attribute": "0x00000000",
    "text": "每個星期日，{{delay20}}大頭菜的收購{{delay8}}\n會暫停一日！{{i10_4}}\n{{anim id=\"FaintSmile\" target=\"mainNpc\" targetSpec=\"\"}}{{anim id=\"FaintSmile\" target=\"subNpc\" targetSpec=\"\"}}請您明天再來吧！{{fun_00040064 arg=\"\"}}　{{delay8}}{{size value=\"75\"}}再來吧！{{size value=\"100\"}}{{endTag}}"
  },
  {
    "label": "091",
    "attribute": "0x00000000",
    "text": "{{anim id=\"EmotEnd\" target=\"actor\" targetSpec=\"\"}}那麼，{{delay20}}{{anim id=\"Smiling\" target=\"actor\" targetSpec=\"\"}}請看看這些吧～！{{anim id=\"EmotEnd\" target=\"actor\" targetSpec=\"\"}}"
  },
  {
    "label": "092",
    "attribute": "0x00000000",
    "text": "您還有沒有{{delay8}}其他{{delay20}}\n{{anim id=\"FaintSmile\" target=\"mainNpc\" targetSpec=\"\"}}{{anim id=\"FaintSmile\" target=\"subNpc\" targetSpec=\"\"}}需要的東西呢？"
  },
  {
    "label": "092_a",
    "attribute": "0x00000000",
    "text": "我想再看一次！"
  },
  {
    "label": "092_b",
    "attribute": "0x00000000",
    "text": "這樣就夠了！"
  },
  {
    "label": "093",
    "attribute": "0x00000000",
    "text": "{{anim id=\"Smiling\" target=\"actor\" targetSpec=\"\"}}好的好的！{{delay frames=\"40\"}}\n您要看多少次、看多久，{{delay8}}\n都沒有問題喔！{{anim id=\"EmotEnd\" target=\"actor\" targetSpec=\"\"}}"
  },
  {
    "label": "094",
    "attribute": "0x02000000",
    "text": "{{anim id=\"Smiling\" target=\"mainNpc\" targetSpec=\"\"}}{{anim id=\"Smiling\" target=\"subNpc\" targetSpec=\"\"}}{{fun_0000007D arg=\"0x0000\"}}的{{delay8}}\n價錢是{{number value=\"BuyPrice\" index=\"0\"}}！"
  },
  {
    "label": "094_a",
    "attribute": "0x00000000",
    "text": "{{anim id=\"Nodding\" target=\"actor\" targetSpec=\"\"}}買！"
  },
  {
    "label": "094_b",
    "attribute": "0x00000000",
    "text": "{{anim id=\"Negative\" target=\"actor\" targetSpec=\"\"}}算了"
  },
  {
    "label": "096",
    "attribute": "0x02000000",
    "text": "{{anim id=\"Shocked\" target=\"mainNpc\" targetSpec=\"\"}}{{anim id=\"Shocked\" target=\"subNpc\" targetSpec=\"\"}}啊，{{delay8}}您是想要{{color id=\"1\"}}釣竿{{color id=\"65535\"}}嗎？{{pageBreak}}{{anim id=\"EmotEnd\" target=\"mainNpc\" targetSpec=\"\"}}只要參加社長的{{color id=\"1\"}}ＤＩＹ{{color id=\"65535\"}}工作坊，\n就可以免費製作釣竿，{{delay20}}\n我個人是{{anim id=\"Nodding\" target=\"subNpc\" targetSpec=\"\"}}比較推薦您參加那個的{{string value=\"...\"}}\n{{anim id=\"FaintSmile\" target=\"mainNpc\" targetSpec=\"\"}}{{anim id=\"FaintSmile\" target=\"subNpc\" targetSpec=\"\"}}如果您要購買的話，\n價錢是{{number value=\"BuyPrice\" index=\"0\"}}！{{i10_4}}\n{{anim id=\"QuestionMark\" target=\"mainNpc\" targetSpec=\"\"}}要買嗎？{{anim id=\"QuestionMark\" target=\"subNpc\" targetSpec=\"\"}}{{fun_00040064 arg=\"\"}}　{{delay8}}{{size value=\"75\"}}要買嗎？{{size value=\"100\"}}{{endTag}}"
  },
  {
    "label": "096_a",
    "attribute": "0x00000000",
    "text": "{{anim id=\"Nodding\" target=\"actor\" targetSpec=\"\"}}買！"
  },
  {
    "label": "096_b",
    "attribute": "0x00000000",
    "text": "{{anim id=\"Negative\" target=\"actor\" targetSpec=\"\"}}算了"
  },
  {
    "label": "101",
    "attribute": "0x00000000",
    "text": "{{anim id=\"Nodding\" target=\"mainNpc\" targetSpec=\"\"}}{{anim id=\"FaintSmile\" target=\"subNpc\" targetSpec=\"\"}}這件商品是{{delay20}}\n{{anim id=\"FaintSmile\" target=\"mainNpc\" targetSpec=\"\"}}{{fun_0000007D arg=\"0x0000\"}}！{{fun_00040064 arg=\"\"}}　{{delay8}}{{size value=\"75\"}}是的！{{size value=\"100\"}}{{endTag}}"
  },
  {
    "label": "102",
    "attribute": "0x00000000",
    "text": "{{anim id=\"Nodding\" target=\"mainNpc\" targetSpec=\"\"}}這裡{{anim id=\"Nodding\" target=\"subNpc\" targetSpec=\"\"}}只有這一件，{{delay20}}\n早買早享受！{{anim id=\"FaintSmile\" target=\"mainNpc\" targetSpec=\"\"}}{{anim id=\"FaintSmile\" target=\"subNpc\" targetSpec=\"\"}}{{fun_00040064 arg=\"\"}}　{{delay8}}{{size value=\"75\"}}早享受！{{size value=\"100\"}}{{endTag}}"
  },
  {
    "label": "103",
    "attribute": "0x02000000",
    "text": "價錢是{{delay8}}{{anim id=\"Nodding\" target=\"mainNpc\" targetSpec=\"\"}}{{number value=\"BuyPrice\" index=\"0\"}}，{{delay20}}\n{{anim id=\"Hello\" target=\"actor\" targetSpec=\"\"}}{{anim id=\"Hello\" target=\"mainNpc\" targetSpec=\"\"}}{{anim id=\"Hello\" target=\"subNpc\" targetSpec=\"\"}}要買嗎？"
  },
  {
    "label": "103_a",
    "attribute": "0x00000000",
    "text": "{{anim id=\"Nodding\" target=\"actor\" targetSpec=\"\"}}買！"
  },
  {
    "label": "103_b",
    "attribute": "0x00000000",
    "text": "{{anim id=\"Negative\" target=\"actor\" targetSpec=\"\"}}算了"
  },
  {
    "label": "104",
    "attribute": "0x04000000",
    "text": "價錢是{{delay8}}{{anim id=\"Nodding\" target=\"mainNpc\" targetSpec=\"\"}}{{number value=\"BuyPrice\" index=\"0\"}}，{{delay20}}\n{{anim id=\"Hello\" target=\"actor\" targetSpec=\"\"}}{{anim id=\"Hello\" target=\"mainNpc\" targetSpec=\"\"}}{{anim id=\"Hello\" target=\"subNpc\" targetSpec=\"\"}}要買嗎？"
  },
  {
    "label": "104_01_01",
    "attribute": "0x00000000",
    "text": "{{anim id=\"EmotEnd\" target=\"mainNpc\" targetSpec=\"\"}}{{anim id=\"EmotEnd\" target=\"subNpc\" targetSpec=\"\"}}話說回來，{{delay8}}\n{{string value=\"PlayerName\"}}是不是\n還沒在這座島上{{delay8}}{{anim id=\"QuestionMark\" target=\"mainNpc\" targetSpec=\"\"}}{{anim id=\"QuestionMark\" target=\"subNpc\" targetSpec=\"\"}}挑戰過{{color id=\"1\"}}ＤＩＹ{{color id=\"65535\"}}呢？"
  },
  {
    "label": "104_01_02",
    "attribute": "0x00000000",
    "text": "{{anim id=\"Smiling\" target=\"actor\" targetSpec=\"\"}}我們社長現在{{delay8}}\n正在舉辦免費的{{color id=\"1\"}}ＤＩＹ{{color id=\"65535\"}}工作坊，{{delay20}}\n請您先體驗看看那個吧！"
  },
  {
    "label": "104_01_03",
    "attribute": "0x00000000",
    "text": "{{anim id=\"Smiling\" target=\"mainNpc\" targetSpec=\"\"}}現在，{{delay8}}{{anim id=\"Nodding\" target=\"subNpc\" targetSpec=\"\"}}{{color id=\"1\"}}服務處{{color id=\"65535\"}}正在舉辦\n免費的{{color id=\"1\"}}ＤＩＹ{{color id=\"65535\"}}工作坊，{{delay20}}\n{{anim id=\"Smiling\" target=\"subNpc\" targetSpec=\"\"}}請您先體驗看看那個吧！"
  },
  {
    "label": "104_02",
    "attribute": "0x00000000",
    "text": "{{anim id=\"Smiling\" target=\"mainNpc\" targetSpec=\"\"}}{{string value=\"PlayerName\"}}{{anim id=\"Nodding\" target=\"subNpc\" targetSpec=\"\"}}已經{{delay8}}\n{{anim id=\"Smiling\" target=\"subNpc\" targetSpec=\"\"}}購買過那件商品了吧！"
  },
  {
    "label": "104_a",
    "attribute": "0x00000000",
    "text": "{{anim id=\"Nodding\" target=\"actor\" targetSpec=\"\"}}買！"
  },
  {
    "label": "104_b",
    "attribute": "0x00000000",
    "text": "這是什麼？"
  },
  {
    "label": "104_c",
    "attribute": "0x00000000",
    "text": "{{anim id=\"Negative\" target=\"actor\" targetSpec=\"\"}}算了"
  },
  {
    "label": "105_01",
    "attribute": "0x00000000",
    "text": "{{anim id=\"FaintSmile\" target=\"mainNpc\" targetSpec=\"\"}}{{anim id=\"FaintSmile\" target=\"subNpc\" targetSpec=\"\"}}這個{{fun_0000007D arg=\"0x0000\"}}，{{delay8}}\n是以數位版販售的\n{{color id=\"1\"}}ＤＩＹ{{color id=\"65535\"}}方程式集！{{fun_00040064 arg=\"\"}}　{{delay8}}{{size value=\"75\"}}方程式集！{{size value=\"100\"}}{{endTag}}"
  },
  {
    "label": "106_01_01",
    "attribute": "0x00000000",
    "text": "{{anim id=\"Explain\" target=\"mainNpc\" targetSpec=\"\"}}{{anim id=\"Smiling\" target=\"subNpc\" targetSpec=\"\"}}這個{{fun_0000007D arg=\"0x0000\"}}裡{{delay8}}\n收錄了簡單的{{color id=\"1\"}}ＤＩＹ{{color id=\"65535\"}}方程式，\n只要使用容易獲得的材料就能製作！"
  },
  {
    "label": "106_01_02",
    "attribute": "0x00000000",
    "text": "{{anim id=\"Explain\" target=\"mainNpc\" targetSpec=\"\"}}{{anim id=\"Smiling\" target=\"subNpc\" targetSpec=\"\"}}這個{{fun_0000007D arg=\"0x0000\"}}裡{{delay8}}\n收錄了各種豐富的方程式，\n可以將幾種材料組合起來製作！"
  },
  {
    "label": "106_01_03",
    "attribute": "0x00000000",
    "text": "{{anim id=\"Explain\" target=\"mainNpc\" targetSpec=\"\"}}{{anim id=\"Smiling\" target=\"subNpc\" targetSpec=\"\"}}這個{{fun_0000007D arg=\"0x0000\"}}裡{{delay8}}\n收錄了骨灰級的{{color id=\"1\"}}ＤＩＹ{{color id=\"65535\"}}方程式，{{delay20}}\n可以使用所有的材料來製作！"
  },
  {
    "label": "106_02",
    "attribute": "0x00000000",
    "text": "{{anim id=\"Smiling\" target=\"mainNpc\" targetSpec=\"\"}}{{anim id=\"Smiling\" target=\"subNpc\" targetSpec=\"\"}}您購買後，{{delay8}}\n就會當場將方程式的資料\n登錄在{{string value=\"PlayerName\"}}的手機裡！"
  },
  {
    "label": "107_01",
    "attribute": "0x00000000",
    "text": "{{anim id=\"Smiling\" target=\"mainNpc\" targetSpec=\"\"}}那麼，{{delay8}}我將{{fun_0000007D arg=\"0x0000\"}}\n的方程式資料\n{{anim id=\"Smiling\" target=\"subNpc\" targetSpec=\"\"}}轉發到{{string value=\"PlayerName\"}}的手機！"
  },
  {
    "label": "107_02",
    "attribute": "0x00000000",
    "text": "{{anim id=\"BigSmile\" target=\"mainNpc\" targetSpec=\"\"}}{{anim id=\"Smiling\" target=\"subNpc\" targetSpec=\"\"}}好的！{{delay20}}登錄完成了！{{i10_4}}\n{{anim id=\"Smiling\" target=\"mainNpc\" targetSpec=\"\"}}請多多使用新的方程式，\n好好享受{{color id=\"1\"}}ＤＩＹ{{color id=\"65535\"}}的樂趣吧！{{fun_00040064 arg=\"\"}}　{{delay8}}{{size value=\"75\"}}樂趣吧！{{size value=\"100\"}}{{endTag}}"
  },
  {
    "label": "108",
    "attribute": "0x00000000",
    "text": "{{anim id=\"Explain\" target=\"actor\" targetSpec=\"\"}}這邊的商品\n只販售給擁有{{color id=\"1\"}}ＤＩＹ{{color id=\"65535\"}}應用程式的顧客{{string value=\"...\"}}{{pageBreak}}{{anim id=\"Smiling\" target=\"actor\" targetSpec=\"\"}}要是您有興趣的話，{{delay20}}\n請先到{{string value=\"PlayerName\"}}島上的\n服務處諮詢！"
  },
  {
    "label": "110_02",
    "attribute": "0x02000000",
    "text": "{{anim id=\"Shocked\" target=\"mainNpc\" targetSpec=\"\"}}{{anim id=\"Shocked\" target=\"subNpc\" targetSpec=\"\"}}{{string value=\"PlayerName\"}}，\n您好像已經學過\n這個方程式了{{string value=\"...\"}}{{pageBreak}}{{anim id=\"FaintSmile\" target=\"mainNpc\" targetSpec=\"\"}}{{anim id=\"FaintSmile\" target=\"subNpc\" targetSpec=\"\"}}如果還要再購買的話，\n價錢是{{number value=\"BuyPrice\" index=\"0\"}}！{{fun_00040064 arg=\"\"}}　{{delay8}}{{size value=\"75\"}}鈴錢！{{size value=\"100\"}}{{endTag}}{{i10_4}}\n{{anim id=\"QuestionMark\" target=\"actor\" targetSpec=\"\"}}要買嗎？"
  },
  {
    "label": "110_02_a",
    "attribute": "0x00000000",
    "text": "{{anim id=\"Nodding\" target=\"actor\" targetSpec=\"\"}}買！"
  },
  {
    "label": "110_02_b",
    "attribute": "0x00000000",
    "text": "{{anim id=\"Negative\" target=\"actor\" targetSpec=\"\"}}算了"
  },
  {
    "label": "110_03",
    "attribute": "0x00000000",
    "text": "{{anim id=\"FaintSmile\" target=\"mainNpc\" targetSpec=\"\"}}{{anim id=\"FaintSmile\" target=\"subNpc\" targetSpec=\"\"}}這是{{color id=\"1\"}}{{delay8}}簡陋澆花壺{{color id=\"65535\"}}的{{delay8}}\n{{color id=\"1\"}}ＤＩＹ{{color id=\"65535\"}}方程式！{{fun_00040064 arg=\"\"}}　{{delay8}}{{size value=\"75\"}}方程式！{{size value=\"100\"}}{{endTag}}"
  },
  {
    "label": "110_03_01",
    "attribute": "0x00000000",
    "text": "{{anim id=\"FaintSmile\" target=\"mainNpc\" targetSpec=\"\"}}{{anim id=\"FaintSmile\" target=\"subNpc\" targetSpec=\"\"}}這是{{color id=\"1\"}}{{delay8}}簡陋鏟子{{color id=\"65535\"}}的{{delay8}}\n{{color id=\"1\"}}ＤＩＹ{{color id=\"65535\"}}方程式！{{fun_00040064 arg=\"\"}}　{{delay8}}{{size value=\"75\"}}方程式！{{size value=\"100\"}}{{endTag}}"
  },
  {
    "label": "110_03_02",
    "attribute": "0x00000000",
    "text": "{{anim id=\"FaintSmile\" target=\"mainNpc\" targetSpec=\"\"}}{{anim id=\"FaintSmile\" target=\"subNpc\" targetSpec=\"\"}}這是{{color id=\"1\"}}{{delay8}}撐竿跳竿子{{color id=\"65535\"}}的{{delay8}}\n{{color id=\"1\"}}ＤＩＹ{{color id=\"65535\"}}方程式！{{fun_00040064 arg=\"\"}}　{{delay8}}{{size value=\"75\"}}方程式！{{size value=\"100\"}}{{endTag}}"
  },
  {
    "label": "110_03_03",
    "attribute": "0x00000000",
    "text": "{{anim id=\"FaintSmile\" target=\"mainNpc\" targetSpec=\"\"}}{{anim id=\"FaintSmile\" target=\"subNpc\" targetSpec=\"\"}}這是{{color id=\"1\"}}{{delay8}}彈弓{{color id=\"65535\"}}的{{delay8}}\n{{color id=\"1\"}}ＤＩＹ{{color id=\"65535\"}}方程式！{{fun_00040064 arg=\"\"}}　{{delay8}}{{size value=\"75\"}}方程式！{{size value=\"100\"}}{{endTag}}"
  },
  {
    "label": "110_03_04",
    "attribute": "0x00000000",
    "text": "{{anim id=\"FaintSmile\" target=\"mainNpc\" targetSpec=\"\"}}{{anim id=\"FaintSmile\" target=\"subNpc\" targetSpec=\"\"}}這是{{color id=\"1\"}}{{delay8}}簡陋斧頭{{color id=\"65535\"}}的{{delay8}}\n{{color id=\"1\"}}ＤＩＹ{{color id=\"65535\"}}方程式！{{fun_00040064 arg=\"\"}}　{{delay8}}{{size value=\"75\"}}方程式！{{size value=\"100\"}}{{endTag}}"
  },
  {
    "label": "110_03_05",
    "attribute": "0x00000000",
    "text": "{{anim id=\"FaintSmile\" target=\"mainNpc\" targetSpec=\"\"}}{{anim id=\"FaintSmile\" target=\"subNpc\" targetSpec=\"\"}}這是{{color id=\"1\"}}{{delay8}}梯子{{color id=\"65535\"}}的{{delay8}}\n{{color id=\"1\"}}ＤＩＹ{{color id=\"65535\"}}方程式！{{fun_00040064 arg=\"\"}}　{{delay8}}{{size value=\"75\"}}方程式！{{size value=\"100\"}}{{endTag}}"
  },
  {
    "label": "110_03_06",
    "attribute": "0x00000000",
    "text": "{{anim id=\"FaintSmile\" target=\"mainNpc\" targetSpec=\"\"}}{{anim id=\"FaintSmile\" target=\"subNpc\" targetSpec=\"\"}}這是{{delay20}}{{color id=\"1\"}}木製固定梯子工具組{{color id=\"65535\"}}的{{delay8}}\n{{color id=\"1\"}}ＤＩＹ{{color id=\"65535\"}}方程式！{{fun_00040064 arg=\"\"}}　{{delay8}}{{size value=\"75\"}}方程式！{{size value=\"100\"}}{{endTag}}"
  },
  {
    "label": "110_04_01",
    "attribute": "0x00000000",
    "text": "{{anim id=\"Smiling\" target=\"mainNpc\" targetSpec=\"\"}}{{anim id=\"Smiling\" target=\"subNpc\" targetSpec=\"\"}}這是使用木材就能製作的{{delay8}}\n簡單{{color id=\"1\"}}澆花壺{{color id=\"65535\"}}方程式！"
  },
  {
    "label": "110_04_02",
    "attribute": "0x00000000",
    "text": "{{anim id=\"Explain\" target=\"mainNpc\" targetSpec=\"\"}}有了澆花壺，{{delay20}}{{anim id=\"Nodding\" target=\"subNpc\" targetSpec=\"\"}}就能給花澆水，\n享受園藝的樂趣。{{pageBreak}}{{anim id=\"Smiling\" target=\"mainNpc\" targetSpec=\"\"}}{{anim id=\"Smiling\" target=\"subNpc\" targetSpec=\"\"}}要讓花配種，開出珍貴顏色的花，\n就一定要擁有一個！"
  },
  {
    "label": "110_05_01",
    "attribute": "0x00000000",
    "text": "{{anim id=\"Smiling\" target=\"mainNpc\" targetSpec=\"\"}}{{anim id=\"Smiling\" target=\"subNpc\" targetSpec=\"\"}}這是用木材就能製作的{{delay8}}\n簡單{{color id=\"1\"}}鏟子{{color id=\"65535\"}}的方程式！"
  },
  {
    "label": "110_05_02",
    "attribute": "0x00000000",
    "text": "{{anim id=\"Explain\" target=\"actor\" targetSpec=\"\"}}有了{{color id=\"1\"}}鏟子{{color id=\"65535\"}}，{{delay20}}就能在地上挖洞，\n{{anim id=\"Nodding\" target=\"subNpc\" targetSpec=\"\"}}把東西埋進去或挖出來{{string value=\"...\"}}{{pageBreak}}{{anim id=\"Smiling\" target=\"mainNpc\" targetSpec=\"\"}}而且，{{delay20}}{{anim id=\"Smiling\" target=\"subNpc\" targetSpec=\"\"}}還可以敲擊岩石，\n把石材敲出來喔～！{{pageBreak}}{{anim id=\"Nodding\" target=\"mainNpc\" targetSpec=\"\"}}是一種很有幫助的{{delay8}}\n{{anim id=\"Nodding\" target=\"subNpc\" targetSpec=\"\"}}生活必需品！{{anim id=\"Smiling\" target=\"mainNpc\" targetSpec=\"\"}}{{anim id=\"Smiling\" target=\"subNpc\" targetSpec=\"\"}}{{fun_00040064 arg=\"\"}}　{{delay8}}{{size value=\"75\"}}必需品！{{size value=\"100\"}}{{endTag}}"
  },
  {
    "label": "110_06_01",
    "attribute": "0x00000000",
    "text": "{{anim id=\"Smiling\" target=\"mainNpc\" targetSpec=\"\"}}{{anim id=\"Smiling\" target=\"subNpc\" targetSpec=\"\"}}這是用木材就能製作的{{delay8}}\n{{color id=\"1\"}}撐竿跳竿子{{color id=\"65535\"}}方程式！"
  },
  {
    "label": "110_06_02",
    "attribute": "0x00000000",
    "text": "{{anim id=\"Explain\" target=\"mainNpc\" targetSpec=\"\"}}使用{{color id=\"1\"}}撐竿跳竿子{{color id=\"65535\"}}，\n就能跳過一些{{anim id=\"Nodding\" target=\"subNpc\" targetSpec=\"\"}}不是太寬的河川！{{anim id=\"Smiling\" target=\"mainNpc\" targetSpec=\"\"}}{{pageBreak}}{{anim id=\"Nodding\" target=\"mainNpc\" targetSpec=\"\"}}{{anim id=\"Smiling\" target=\"subNpc\" targetSpec=\"\"}}是在島上生活，隨時都想\n帶在身上的便利工具之一！{{anim id=\"Smiling\" target=\"actor\" targetSpec=\"\"}}"
  },
  {
    "label": "110_07_01",
    "attribute": "0x00000000",
    "text": "{{anim id=\"Smiling\" target=\"mainNpc\" targetSpec=\"\"}}{{anim id=\"Smiling\" target=\"subNpc\" targetSpec=\"\"}}這是用來製作{{color id=\"1\"}}彈弓{{color id=\"65535\"}}的方程式！{{fun_00040064 arg=\"\"}}　{{delay8}}{{size value=\"75\"}}方程式！{{size value=\"100\"}}{{endTag}}"
  },
  {
    "label": "110_07_02",
    "attribute": "0x00000000",
    "text": "{{anim id=\"Explain\" target=\"mainNpc\" targetSpec=\"\"}}有了{{color id=\"1\"}}彈弓{{color id=\"65535\"}}，\n{{delay20}}就可以朝天空{{anim id=\"Nodding\" target=\"subNpc\" targetSpec=\"\"}}發射珠子。{{pageBreak}}{{string value=\"...\"}}{{anim id=\"Smiling\" target=\"mainNpc\" targetSpec=\"\"}}{{anim id=\"Smiling\" target=\"subNpc\" targetSpec=\"\"}}不過，{{delay20}}不知道什麼時候\n會突然想將天空的東西射下來，{{delay20}}\n所以還是隨身帶著比較好～！"
  },
  {
    "label": "110_08_01",
    "attribute": "0x00000000",
    "text": "{{anim id=\"Smiling\" target=\"mainNpc\" targetSpec=\"\"}}{{anim id=\"Smiling\" target=\"subNpc\" targetSpec=\"\"}}那是用樹枝和石頭就能製作的{{delay8}}\n簡單{{color id=\"1\"}}斧頭{{color id=\"65535\"}}方程式！{{fun_00040064 arg=\"\"}}　{{delay8}}{{size value=\"75\"}}方程式！{{size value=\"100\"}}{{endTag}}"
  },
  {
    "label": "110_08_02",
    "attribute": "0x00000000",
    "text": "{{anim id=\"Explain\" target=\"mainNpc\" targetSpec=\"\"}}有了{{color id=\"1\"}}斧頭{{color id=\"65535\"}}{{delay20}}{{anim id=\"Nodding\" target=\"subNpc\" targetSpec=\"\"}}就能砍出木材。\n{{anim id=\"Smiling\" target=\"mainNpc\" targetSpec=\"\"}}木材是ＤＩＹ中\n不可或缺的材料之一！{{anim id=\"Smiling\" target=\"subNpc\" targetSpec=\"\"}}\n{{anim id=\"EmotEnd\" target=\"mainNpc\" targetSpec=\"\"}}{{anim id=\"EmotEnd\" target=\"subNpc\" targetSpec=\"\"}}而且，{{delay8}}這種斧頭{{delay8}}\n{{anim id=\"Smiling\" target=\"actor\" targetSpec=\"\"}}製作簡單，斧刃圓鈍，{{delay20}}\n{{anim id=\"Smiling\" target=\"mainNpc\" targetSpec=\"\"}}{{anim id=\"Smiling\" target=\"subNpc\" targetSpec=\"\"}}所以不必擔心會不小心把樹砍倒！\n{{anim id=\"Nodding\" target=\"mainNpc\" targetSpec=\"\"}}{{anim id=\"Smiling\" target=\"subNpc\" targetSpec=\"\"}}要是想在這座島上享受ＤＩＹ的樂趣，{{delay8}}\n一把斧頭是無時無刻{{delay20}}\n都想隨身攜帶的必備物品！{{anim id=\"Smiling\" target=\"actor\" targetSpec=\"\"}}{{fun_00040064 arg=\"\"}}　{{delay8}}{{size value=\"75\"}}物品喔！{{size value=\"100\"}}{{endTag}}"
  },
  {
    "label": "110_09_01",
    "attribute": "0x00000000",
    "text": "{{anim id=\"Smiling\" target=\"mainNpc\" targetSpec=\"\"}}{{anim id=\"Smiling\" target=\"subNpc\" targetSpec=\"\"}}這是使用木材就能製作的{{delay8}}\n{{color id=\"1\"}}梯子{{color id=\"65535\"}}方程式！"
  },
  {
    "label": "110_09_02",
    "attribute": "0x00000000",
    "text": "{{anim id=\"Explain\" target=\"mainNpc\" targetSpec=\"\"}}使用{{color id=\"1\"}}梯子{{color id=\"65535\"}}，\n{{anim id=\"Nodding\" target=\"subNpc\" targetSpec=\"\"}}就能自由上下\n大概一個人高度的懸崖！{{anim id=\"Smiling\" target=\"mainNpc\" targetSpec=\"\"}}{{pageBreak}}{{anim id=\"Nodding\" target=\"mainNpc\" targetSpec=\"\"}}{{anim id=\"Smiling\" target=\"subNpc\" targetSpec=\"\"}}這是在島上生活，隨時都想\n帶在身上的便利工具之一！{{anim id=\"Smiling\" target=\"mainNpc\" targetSpec=\"\"}}"
  },
  {
    "label": "110_10_01",
    "attribute": "0x00000000",
    "text": "{{anim id=\"Smiling\" target=\"mainNpc\" targetSpec=\"\"}}{{anim id=\"Smiling\" target=\"subNpc\" targetSpec=\"\"}}這是能將梯子固定在懸崖上的{{delay20}}\n{{color id=\"1\"}}固定梯子工具組{{color id=\"65535\"}}方程式！"
  },
  {
    "label": "110_10_02",
    "attribute": "0x00000000",
    "text": "{{anim id=\"Explain\" target=\"mainNpc\" targetSpec=\"\"}}只要對島上的懸崖使用{{color id=\"1\"}}固定梯子工具組{{color id=\"65535\"}}，{{delay20}}\n就能將攀爬用的梯子{{anim id=\"Nodding\" target=\"subNpc\" targetSpec=\"\"}}固定在懸崖上喔！{{anim id=\"Smiling\" target=\"mainNpc\" targetSpec=\"\"}}{{pageBreak}}{{anim id=\"EmotEnd\" target=\"mainNpc\" targetSpec=\"\"}}{{anim id=\"EmotEnd\" target=\"subNpc\" targetSpec=\"\"}}建議可以將梯子設置在經常攀爬的懸崖，{{delay20}}\n{{anim id=\"Nodding\" target=\"mainNpc\" targetSpec=\"\"}}{{anim id=\"Smiling\" target=\"subNpc\" targetSpec=\"\"}}這樣就不用隨身帶著梯子到處跑了，{{delay8}}\n真的相當方便呢！{{anim id=\"Smiling\" target=\"mainNpc\" targetSpec=\"\"}}"
  },
  {
    "label": "110_11_01",
    "attribute": "0x00000000",
    "text": "{{anim id=\"Smiling\" target=\"mainNpc\" targetSpec=\"\"}}{{anim id=\"Smiling\" target=\"subNpc\" targetSpec=\"\"}}這是只要用鏟子把它埋在地裡，{{delay8}}\n{{anim id=\"Shocked\" target=\"subNpc\" targetSpec=\"\"}}就能夠不可思議地{{delay frames=\"40\"}}{{anim id=\"Smiling\" target=\"subNpc\" targetSpec=\"\"}}做出陷阱的{{delay20}}\n{{color id=\"1\"}}陷阱種子{{color id=\"65535\"}}方程式！"
  },
  {
    "label": "110_11_02",
    "attribute": "0x00000000",
    "text": "{{anim id=\"Smiling\" target=\"mainNpc\" targetSpec=\"\"}}{{anim id=\"Smiling\" target=\"subNpc\" targetSpec=\"\"}}這是給感情深厚的朋友們\n用來玩得開心的{{delay8}}{{anim id=\"Nodding\" target=\"subNpc\" targetSpec=\"\"}}派對用道具{{string value=\"...\"}}{{pageBreak}}{{anim id=\"Worried\" target=\"mainNpc\" targetSpec=\"\"}}{{anim id=\"Worried\" target=\"subNpc\" targetSpec=\"\"}}但要是挖得太多，{{delay8}}\n有可能會害無關的人士{{anim id=\"Negative\" target=\"subNpc\" targetSpec=\"\"}}也不幸踩到陷阱，{{delay20}}\n{{anim id=\"Hello\" target=\"mainNpc\" targetSpec=\"\"}}{{anim id=\"Hello\" target=\"subNpc\" targetSpec=\"\"}}所以在使用它時請節制一點喔！"
  },
  {
    "label": "111",
    "attribute": "0x00000000",
    "text": "{{anim id=\"Smiling\" target=\"mainNpc\" targetSpec=\"\"}}{{anim id=\"Smiling\" target=\"subNpc\" targetSpec=\"\"}}謝謝{{delay8}}惠顧{{string value=\"...\"}}{{i10_7 arg=\"20\"}}{{pageBreak}}{{anim id=\"Shocked\" target=\"mainNpc\" targetSpec=\"\"}}{{anim id=\"Shocked\" target=\"subNpc\" targetSpec=\"\"}}咦？{{delay frames=\"40\"}}\n{{anim id=\"Worried\" target=\"mainNpc\" targetSpec=\"\"}}{{anim id=\"Worried\" target=\"subNpc\" targetSpec=\"\"}}不過，{{delay8}}您的錢好像不夠呢。{{pageBreak}}{{anim id=\"Explain\" target=\"mainNpc\" targetSpec=\"\"}}{{anim id=\"ShyBoy\" target=\"subNpc\" targetSpec=\"\"}}本店不設任何貸款服務，{{delay8}}\n{{anim id=\"FaintSmile\" target=\"mainNpc\" targetSpec=\"\"}}還請您帶著現金再過來吧！{{anim id=\"FaintSmile\" target=\"subNpc\" targetSpec=\"\"}}{{fun_00040064 arg=\"\"}}　{{delay8}}{{size value=\"75\"}}過來吧！{{size value=\"100\"}}{{endTag}}"
  },
  {
    "label": "112",
    "attribute": "0x00000000",
    "text": "{{anim id=\"Smiling\" target=\"mainNpc\" targetSpec=\"\"}}{{anim id=\"Smiling\" target=\"subNpc\" targetSpec=\"\"}}謝謝{{delay8}}惠顧{{string value=\"...\"}}{{i10_7 arg=\"20\"}}{{pageBreak}}{{anim id=\"Shocked\" target=\"mainNpc\" targetSpec=\"\"}}{{anim id=\"Shocked\" target=\"subNpc\" targetSpec=\"\"}}咦？{{delay frames=\"40\"}}\n{{anim id=\"Worried\" target=\"mainNpc\" targetSpec=\"\"}}{{anim id=\"Worried\" target=\"subNpc\" targetSpec=\"\"}}不過，{{delay8}}您的持有物品已經滿了。{{pageBreak}}{{anim id=\"Nodding\" target=\"mainNpc\" targetSpec=\"\"}}{{anim id=\"FaintSmile\" target=\"subNpc\" targetSpec=\"\"}}還請您先整理好包包{{delay8}}\n{{anim id=\"FaintSmile\" target=\"actor\" targetSpec=\"\"}}再過來吧！{{fun_00040064 arg=\"\"}}　{{delay8}}{{size value=\"75\"}}過來吧！{{size value=\"100\"}}{{endTag}}"
  },
  {
    "label": "113",
    "attribute": "0x00000000",
    "text": "{{anim id=\"BigSmile\" target=\"mainNpc\" targetSpec=\"\"}}{{anim id=\"BigSmile\" target=\"subNpc\" targetSpec=\"\"}}謝謝{{delay8}}惠顧！{{fun_00040064 arg=\"\"}}　{{delay8}}{{size value=\"75\"}}惠顧！{{size value=\"100\"}}{{endTag}}"
  },
  {
    "label": "114",
    "attribute": "0x00000000",
    "text": "{{anim id=\"Smiling\" target=\"mainNpc\" targetSpec=\"\"}}{{number value=\"BuyPrice\" index=\"0\"}}，{{delay20}}\n{{anim id=\"Nodding\" target=\"subNpc\" targetSpec=\"\"}}沒錯，那我就收下了！{{anim id=\"Smiling\" target=\"subNpc\" targetSpec=\"\"}}{{fun_00040064 arg=\"\"}}　{{delay8}}{{size value=\"75\"}}收下了！{{size value=\"100\"}}{{endTag}}"
  },
  {
    "label": "121",
    "attribute": "0x00000000",
    "text": "{{anim id=\"Smiling\" target=\"mainNpc\" targetSpec=\"\"}}{{anim id=\"Smiling\" target=\"subNpc\" targetSpec=\"\"}}今天的高價收購物品是{{delay20}}\n{{fun_0000007D arg=\"0x0000\"}}！{{fun_00040064 arg=\"\"}}　{{delay8}}{{size value=\"75\"}}是的！{{size value=\"100\"}}{{endTag}}"
  },
  {
    "label": "121_01",
    "attribute": "0x00000000",
    "text": "{{anim id=\"Smiling\" target=\"mainNpc\" targetSpec=\"\"}}{{anim id=\"Smiling\" target=\"subNpc\" targetSpec=\"\"}}今天的高價收購物品是{{delay20}}\n{{fun_0000007D arg=\"0x0000\"}}和{{delay8}}\n{{fun_0000007D arg=\"0x0100\"}}！"
  },
  {
    "label": "121_02",
    "attribute": "0x00000000",
    "text": "{{anim id=\"Explain\" target=\"mainNpc\" targetSpec=\"\"}}我們將以{{anim id=\"Nodding\" target=\"subNpc\" targetSpec=\"\"}}平常的{{color id=\"1\"}}2倍{{color id=\"65535\"}}價格進行收購，{{delay20}}\n{{anim id=\"Smiling\" target=\"mainNpc\" targetSpec=\"\"}}{{anim id=\"Smiling\" target=\"subNpc\" targetSpec=\"\"}}所以請一定要{{delay8}}帶來給我們！{{fun_00040064 arg=\"\"}}　{{delay8}}{{size value=\"75\"}}給我們！{{size value=\"100\"}}{{endTag}}"
  },
  {
    "label": "122",
    "attribute": "0x02000000",
    "text": "{{anim id=\"Smiling\" target=\"mainNpc\" targetSpec=\"\"}}{{anim id=\"Smiling\" target=\"subNpc\" targetSpec=\"\"}}是{{fun_0000007D arg=\"0x0000\"}}啊，{{delay8}}\n今天將以平常的2倍價格，也就是\n以{{number value=\"24\" index=\"0\"}}進行收購，{{delay20}}{{anim id=\"QuestionMark\" target=\"mainNpc\" targetSpec=\"\"}}{{anim id=\"QuestionMark\" target=\"subNpc\" targetSpec=\"\"}}要賣嗎？"
  },
  {
    "label": "122_a",
    "attribute": "0x00000000",
    "text": "{{anim id=\"Nodding\" target=\"actor\" targetSpec=\"\"}}賣！"
  },
  {
    "label": "122_b",
    "attribute": "0x00000000",
    "text": "{{anim id=\"Negative\" target=\"actor\" targetSpec=\"\"}}算了"
  },
  {
    "label": "131",
    "attribute": "0x04000000",
    "text": "{{fun_0000007D arg=\"0x0000\"}}的話，{{delay8}}\n{{anim id=\"Nodding\" target=\"subNpc\" targetSpec=\"\"}}可以一次購買好幾個，{{delay20}}\n{{anim id=\"QuestionMark\" target=\"actor\" targetSpec=\"\"}}您要買幾個呢？"
  },
  {
    "label": "131_a",
    "attribute": "0x00000000",
    "text": "1個({{color id=\"1\"}}{{number value=\"12\" index=\"0\"}}{{color id=\"65535\"}})"
  },
  {
    "label": "131_b",
    "attribute": "0x00000000",
    "text": "5個({{color id=\"1\"}}{{number value=\"13\" index=\"1\"}}{{color id=\"65535\"}})"
  },
  {
    "label": "131_c",
    "attribute": "0x00000000",
    "text": "還是算了"
  },
  {
    "label": "132_01",
    "attribute": "0x00000000",
    "text": "{{anim id=\"Smiling\" target=\"actor\" targetSpec=\"\"}}那個{{fun_0000007D arg=\"0x0000\"}}{{delay20}}\n是期間限定的商品，\n會在整個10月販售～！{{fun_00040064 arg=\"\"}}　{{delay8}}{{size value=\"75\"}}販售！{{size value=\"100\"}}{{endTag}}"
  },
  {
    "label": "132_02",
    "attribute": "0x00000000",
    "text": "{{anim id=\"Explain\" target=\"actor\" targetSpec=\"\"}}{{color id=\"1\"}}南瓜苗{{color id=\"65535\"}}啊，{{delay20}}\n只要種下去幾天後，就會長出果實。{{anim id=\"EmotEnd\" target=\"actor\" targetSpec=\"\"}}{{pageBreak}}{{anim id=\"Nodding\" target=\"actor\" targetSpec=\"\"}}雖然把苗種下去後，什麼都不做\n也會自然生長，{{delay20}}{{anim id=\"Smiling\" target=\"actor\" targetSpec=\"\"}}但如果每天澆水，{{delay8}}\n就能收成更多喔～！"
  },
  {
    "label": "132_03",
    "attribute": "0x00000000",
    "text": "{{anim id=\"Explain\" target=\"actor\" targetSpec=\"\"}}南瓜{{delay8}}有{{color id=\"1\"}}橘色、{{delay8}}綠色、{{delay8}}黃色、{{delay8}}白色{{color id=\"65535\"}}，{{delay20}}\n4個種類{{anim id=\"EmotEnd\" target=\"actor\" targetSpec=\"\"}}{{string value=\"...\"}}{{pageBreak}}{{anim id=\"Serious\" target=\"actor\" targetSpec=\"\"}}至於是什麼顏色的南瓜，{{delay20}}\n{{anim id=\"Negative\" target=\"actor\" targetSpec=\"\"}}要等長出果實才會知道。{{delay40}}\n{{anim id=\"Smiling\" target=\"actor\" targetSpec=\"\"}}敬請期待收成帶來的樂趣吧～！"
  },
  {
    "label": "132_04",
    "attribute": "0x04000000",
    "text": "{{anim id=\"Nodding\" target=\"subNpc\" targetSpec=\"\"}}這裡可以一次購買好幾個，{{delay20}}\n{{anim id=\"QuestionMark\" target=\"mainNpc\" targetSpec=\"\"}}您要買幾個呢～？"
  },
  {
    "label": "132_04_a",
    "attribute": "0x00000000",
    "text": "1個({{color id=\"1\"}}{{number value=\"12\" index=\"0\"}}{{color id=\"65535\"}})"
  },
  {
    "label": "132_04_b",
    "attribute": "0x00000000",
    "text": "5個({{color id=\"1\"}}{{number value=\"13\" index=\"1\"}}{{color id=\"65535\"}})"
  },
  {
    "label": "132_04_c",
    "attribute": "0x00000000",
    "text": "還是算了"
  },
  {
    "label": "141_01",
    "attribute": "0x00000000",
    "text": "{{anim id=\"Eh\" target=\"mainNpc\" targetSpec=\"\"}}{{anim id=\"Eh\" target=\"subNpc\" targetSpec=\"\"}}啊！{{delay frames=\"30\"}}您對{{fun_0000007D arg=\"0x0000\"}}\n有興趣啊。{{delay frames=\"40\"}}\n{{anim id=\"QuestionMark\" target=\"mainNpc\" targetSpec=\"\"}}{{anim id=\"EmotEnd\" target=\"subNpc\" targetSpec=\"\"}}是不是打算待會要去海邊呢？{{pageBreak}}{{anim id=\"FaintSmile\" target=\"mainNpc\" targetSpec=\"\"}}{{anim id=\"FaintSmile\" target=\"subNpc\" targetSpec=\"\"}}這樣的話，{{delay20}}就讓我為您說明一下{{delay8}}\n到海裡游泳的注意事項吧！{{fun_00040064 arg=\"\"}}　{{delay8}}{{size value=\"75\"}}事項吧！{{size value=\"100\"}}{{endTag}}"
  },
  {
    "label": "141_02",
    "attribute": "0x00000000",
    "text": "{{anim id=\"Explain\" target=\"mainNpc\" targetSpec=\"\"}}{{anim id=\"EmotEnd\" target=\"subNpc\" targetSpec=\"\"}}首先，{{delay20}}在下海之前，{{delay8}}\n要先換上{{fun_0000007D arg=\"0x0000\"}}{{delay8}}\n{{anim id=\"Nodding\" target=\"subNpc\" targetSpec=\"\"}}這類的{{color id=\"1\"}}潛水衣{{color id=\"65535\"}}。{{pageBreak}}{{anim id=\"Smiling\" target=\"mainNpc\" targetSpec=\"\"}}{{anim id=\"Smiling\" target=\"subNpc\" targetSpec=\"\"}}穿著{{color id=\"1\"}}潛水衣{{color id=\"65535\"}}{{delay20}}在海邊或岩石地帶按{{color id=\"1\"}}{{color id=\"65535\"}}，\n就可以進入海裡！{{pageBreak}}{{anim id=\"Explain\" target=\"mainNpc\" targetSpec=\"\"}}{{anim id=\"EmotEnd\" target=\"subNpc\" targetSpec=\"\"}}在海裡按{{color id=\"1\"}}{{color id=\"65535\"}}{{delay8}}就可以游泳{{string value=\"...\"}}{{delay frames=\"40\"}}{{anim id=\"IdeaBulb\" target=\"mainNpc\" targetSpec=\"\"}}對了！{{delay8}}{{anim id=\"Shocked\" target=\"subNpc\" targetSpec=\"\"}}{{delay frames=\"40\"}}\n{{anim id=\"Smiling\" target=\"mainNpc\" targetSpec=\"\"}}要是在海裡看到影子，{{delay20}}\n{{anim id=\"EmotEnd\" target=\"subNpc\" targetSpec=\"\"}}請按{{color id=\"1\"}}{{color id=\"65535\"}}潛下去，然後一邊游一邊追。{{pageBreak}}{{anim id=\"HappyDance\" target=\"actor\" targetSpec=\"\"}}{{anim id=\"Smiling\" target=\"subNpc\" targetSpec=\"\"}}追到抓得到影子後，{{delay20}}\n就能捕獲{{color id=\"1\"}}海洋生物{{color id=\"65535\"}}了！"
  },
  {
    "label": "142",
    "attribute": "0x04000000",
    "text": "{{string value=\"...\"}}就是這樣了，{{delay frames=\"30\"}}\n{{anim id=\"BigSmile\" target=\"mainNpc\" targetSpec=\"\"}}{{anim id=\"BigSmile\" target=\"subNpc\" targetSpec=\"\"}}我的說明就到此為止！{{fun_00040064 arg=\"\"}}　{{delay8}}{{size value=\"75\"}}到此為止！{{size value=\"100\"}}{{endTag}}{{pageBreak}}{{anim id=\"EmotEnd\" target=\"mainNpc\" targetSpec=\"\"}}{{anim id=\"EmotEnd\" target=\"subNpc\" targetSpec=\"\"}}那麼，{{delay20}}{{fun_0000007D arg=\"0x0000\"}}的\n價錢是{{number value=\"BuyPrice\" index=\"0\"}}，{{delay20}}\n{{anim id=\"QuestionMark\" target=\"mainNpc\" targetSpec=\"\"}}{{anim id=\"QuestionMark\" target=\"subNpc\" targetSpec=\"\"}}要買嗎？"
  },
  {
    "label": "142_a",
    "attribute": "0x00000000",
    "text": "{{anim id=\"Nodding\" target=\"actor\" targetSpec=\"\"}}買！"
  },
  {
    "label": "142_b",
    "attribute": "0x00000000",
    "text": "再說明一次！"
  },
  {
    "label": "142_c",
    "attribute": "0x00000000",
    "text": "{{anim id=\"Negative\" target=\"actor\" targetSpec=\"\"}}算了"
  },
  {
    "label": "143",
    "attribute": "0x00000000",
    "text": "{{anim id=\"FaintSmile\" target=\"mainNpc\" targetSpec=\"\"}}{{anim id=\"FaintSmile\" target=\"subNpc\" targetSpec=\"\"}}好的！{{delay20}}那麼我就針對\n在海裡游泳時的注意事項{{delay20}}\n再說明一次！{{fun_00040064 arg=\"\"}}　{{delay8}}{{size value=\"75\"}}一次！{{size value=\"100\"}}{{endTag}}"
  },
  {
    "label": "144_01",
    "attribute": "0x00000000",
    "text": "{{anim id=\"Smiling\" target=\"actor\" targetSpec=\"\"}}那個{{fun_0000007D arg=\"0x0000\"}}{{delay20}}\n是期間限定的商品，\n會在整個10月販售～！{{fun_00040064 arg=\"\"}}　{{delay8}}{{size value=\"75\"}}販售！{{size value=\"100\"}}{{endTag}}"
  },
  {
    "label": "144_02",
    "attribute": "0x00000000",
    "text": "{{anim id=\"FaintSmile\" target=\"actor\" targetSpec=\"\"}}因為是當季限定的人氣商品，{{delay20}}\n所以限制{{color id=\"1\"}}每人一天只能購買一個{{color id=\"65535\"}}！"
  },
  {
    "label": "144_03",
    "attribute": "0x02000000",
    "text": "{{anim id=\"QuestionMark\" target=\"actor\" targetSpec=\"\"}}要買嗎～？"
  },
  {
    "label": "144_03_a",
    "attribute": "0x00000000",
    "text": "{{anim id=\"Nodding\" target=\"actor\" targetSpec=\"\"}}買！"
  },
  {
    "label": "144_03_b",
    "attribute": "0x00000000",
    "text": "{{anim id=\"Negative\" target=\"actor\" targetSpec=\"\"}}算了"
  },
  {
    "label": "144_04",
    "attribute": "0x00000000",
    "text": "{{anim id=\"EmotEnd\" target=\"actor\" targetSpec=\"\"}}很抱歉～！{{delay20}}{{anim id=\"Nodding\" target=\"actor\" targetSpec=\"\"}}因為糖果是人氣商品，{{delay8}}\n所以限制{{color id=\"1\"}}每人一天只能購買一個{{color id=\"65535\"}}！"
  },
  {
    "label": "144_05",
    "attribute": "0x00000000",
    "text": "{{anim id=\"Smiling\" target=\"actor\" targetSpec=\"\"}}客人{{delay8}}您今天已經買過糖果了，{{delay20}}\n請明天再來～！"
  },
  {
    "label": "144_06",
    "attribute": "0x00000000",
    "text": "{{anim id=\"Smiling\" target=\"actor\" targetSpec=\"\"}}客人，{{delay8}}您今天\n已經買過糖果了，{{delay20}}\n請下次有機會再來吧～！"
  },
  {
    "label": "145",
    "attribute": "0x00000000",
    "text": "{{anim id=\"Eh\" target=\"mainNpc\" targetSpec=\"\"}}啊！對了！{{delay frames=\"30\"}}\n{{anim id=\"EmotEnd\" target=\"actor\" targetSpec=\"\"}}我們開始販售玩具系列的家具了。{{delay20}}\n{{anim id=\"Nodding\" target=\"mainNpc\" targetSpec=\"\"}}{{anim id=\"FaintSmile\" target=\"subNpc\" targetSpec=\"\"}}可以買來當作聖誕節禮物喔！{{pageBreak}}{{anim id=\"Explain\" target=\"mainNpc\" targetSpec=\"\"}}{{anim id=\"EmotEnd\" target=\"subNpc\" targetSpec=\"\"}}那是只賣到12月25日的限定商品。{{delay20}}\n要是喜歡的話，\n{{anim id=\"FaintSmile\" target=\"mainNpc\" targetSpec=\"\"}}{{anim id=\"FaintSmile\" target=\"subNpc\" targetSpec=\"\"}}請千萬不要錯過喔！　{{size value=\"75\"}}{{delay20}}{{fun_00040064 arg=\"\"}}錯過喔！{{endTag}}{{size value=\"100\"}}"
  },
  {
    "label": "200",
    "attribute": "0x00000000",
    "text": "{{anim id=\"Smiling\" target=\"mainNpc\" targetSpec=\"\"}}{{anim id=\"Smiling\" target=\"subNpc\" targetSpec=\"\"}}謝謝光臨！{{fun_00040064 arg=\"\"}}　{{delay8}}{{size value=\"75\"}}光臨！{{size value=\"100\"}}{{endTag}}{{anim id=\"EmotEnd\" target=\"mainNpc\" targetSpec=\"\"}}{{anim id=\"EmotEnd\" target=\"subNpc\" targetSpec=\"\"}}{{i10_7 arg=\"90\"}}"
  },
  {
    "label": "2001",
    "attribute": "0x00000000",
    "text": "{{anim id=\"Eh\" target=\"mainNpc\" targetSpec=\"\"}}對了對了，{{delay8}}{{fun_0000007D arg=\"0x0000\"}}{{delay20}}\n{{anim id=\"EmotEnd\" target=\"mainNpc\" targetSpec=\"\"}}是感恩節相關的限定商品。\n貨架上的賣完就沒有了喔{{string value=\"...\"}}{{pageBreak}}{{anim id=\"Nodding\" target=\"mainNpc\" targetSpec=\"\"}}{{anim id=\"Nodding\" target=\"subNpc\" targetSpec=\"\"}}而收錄其製作方法的方程式集，{{delay8}}\n會在{{color id=\"1\"}}貨架上期間限定販售{{color id=\"65535\"}}。{{delay20}}\n{{anim id=\"Hello\" target=\"mainNpc\" targetSpec=\"\"}}{{anim id=\"Hello\" target=\"subNpc\" targetSpec=\"\"}}請務必都參考看看喔！　{{fun_00040064 arg=\"\"}}{{delay8}}{{size value=\"75\"}}看看喔！{{size value=\"100\"}}{{endTag}}"
  },
  {
    "label": "2002",
    "attribute": "0x02000000",
    "text": "那麼{{string value=\"...\"}}{{delay frames=\"40\"}}\n這件商品的價錢是{{delay8}}{{anim id=\"Nodding\" target=\"mainNpc\" targetSpec=\"\"}}{{number value=\"24\" index=\"0\"}}，{{delay20}}\n{{anim id=\"Hello\" target=\"mainNpc\" targetSpec=\"\"}}{{anim id=\"Hello\" target=\"subNpc\" targetSpec=\"\"}}要買嗎？"
  },
  {
    "label": "2002_a",
    "attribute": "0x00000000",
    "text": "{{anim id=\"Nodding\" target=\"actor\" targetSpec=\"\"}}買！"
  },
  {
    "label": "2002_b",
    "attribute": "0x00000000",
    "text": "{{anim id=\"Negative\" target=\"actor\" targetSpec=\"\"}}算了"
  },
  {
    "label": "2003",
    "attribute": "0x00000000",
    "text": "{{anim id=\"Nodding\" target=\"mainNpc\" targetSpec=\"\"}}{{string value=\"PlayerName\"}}，{{delay8}}\n收錄在此的ＤＩＹ方程式，{{delay20}}\n{{anim id=\"Smiling\" target=\"mainNpc\" targetSpec=\"\"}}{{anim id=\"Smiling\" target=\"subNpc\" targetSpec=\"\"}}您好像都已經學會了！{{pageBreak}}{{anim id=\"EmotEnd\" target=\"mainNpc\" targetSpec=\"\"}}{{anim id=\"EmotEnd\" target=\"subNpc\" targetSpec=\"\"}}那麼，請一定要{{delay8}}自己做做看{{delay20}}\n{{anim id=\"Hello\" target=\"mainNpc\" targetSpec=\"\"}}{{anim id=\"Hello\" target=\"subNpc\" targetSpec=\"\"}}感恩節的相關商品喔！"
  },
  {
    "label": "2004",
    "attribute": "0x00000000",
    "text": "{{anim id=\"Explain\" target=\"mainNpc\" targetSpec=\"\"}}這件{{fun_0000007D arg=\"0x0000\"}}{{delay20}}\n{{anim id=\"Smiling\" target=\"subNpc\" targetSpec=\"\"}}收錄了感恩節相關商品的{{delay8}}\n{{color id=\"1\"}}{{anim id=\"Smiling\" target=\"mainNpc\" targetSpec=\"\"}}ＤＩＹ{{color id=\"65535\"}}方程式！{{pageBreak}}{{anim id=\"EmotEnd\" target=\"mainNpc\" targetSpec=\"\"}}{{anim id=\"EmotEnd\" target=\"subNpc\" targetSpec=\"\"}}而這件商品{{delay8}}是期間限定販售的，{{delay20}}\n{{anim id=\"Nodding\" target=\"mainNpc\" targetSpec=\"\"}}只會賣到這個月底喔{{string value=\"...\"}}"
  },
  {
    "label": "201",
    "attribute": "0x00000000",
    "text": "{{anim id=\"FaintSmile\" target=\"mainNpc\" targetSpec=\"\"}}{{anim id=\"FaintSmile\" target=\"subNpc\" targetSpec=\"\"}}歡迎光臨！{{fun_00040064 arg=\"\"}}　{{delay8}}{{size value=\"75\"}}光臨！{{size value=\"100\"}}{{endTag}}{{delay40}}\n歡迎來到Nook商店！{{fun_00040064 arg=\"\"}}　{{delay8}}{{size value=\"75\"}}Nook商店！{{size value=\"100\"}}{{endTag}}"
  },
  {
    "label": "202",
    "attribute": "0x00000000",
    "text": "{{anim id=\"Smiling\" target=\"mainNpc\" targetSpec=\"\"}}{{anim id=\"Smiling\" target=\"subNpc\" targetSpec=\"\"}}歡迎光臨！{{delay20}}{{fun_00040064 arg=\"\"}}　{{delay8}}{{size value=\"75\"}}光臨！{{size value=\"100\"}}{{endTag}}{{pageBreak}}{{anim id=\"Shocked\" target=\"mainNpc\" targetSpec=\"\"}}{{anim id=\"Shocked\" target=\"subNpc\" targetSpec=\"\"}}啊！{{delay20}}{{string value=\"PlayerName\"}}！{{delay40}}\n{{anim id=\"BigSmile\" target=\"mainNpc\" targetSpec=\"\"}}{{anim id=\"BigSmile\" target=\"subNpc\" targetSpec=\"\"}}您來啦！{{fun_00040064 arg=\"\"}}　{{delay8}}{{size value=\"75\"}}來啦！{{size value=\"100\"}}{{endTag}}\n"
  },
  {
    "label": "203",
    "attribute": "0x00000000",
    "text": "{{anim id=\"Smiling\" target=\"mainNpc\" targetSpec=\"\"}}{{anim id=\"Smiling\" target=\"subNpc\" targetSpec=\"\"}}{{string value=\"PlayerName\"}}！{{delay40}}\n您來買東西啊！{{fun_00040064 arg=\"\"}}　{{delay8}}{{size value=\"75\"}}買東西啊！{{size value=\"100\"}}{{endTag}}"
  },
  {
    "label": "204",
    "attribute": "0x00000000",
    "text": "{{anim id=\"Smiling\" target=\"mainNpc\" targetSpec=\"\"}}本店正在{{delay20}}{{anim id=\"Nodding\" target=\"subNpc\" targetSpec=\"\"}}販賣一些\n對生活有幫助的家具\n和生活雜貨！{{anim id=\"Smiling\" target=\"subNpc\" targetSpec=\"\"}}{{fun_00040064 arg=\"\"}}　{{delay8}}{{size value=\"75\"}}雜貨！{{size value=\"100\"}}{{endTag}}"
  },
  {
    "label": "205",
    "attribute": "0x00000000",
    "text": "{{anim id=\"Nodding\" target=\"mainNpc\" targetSpec=\"\"}}請{{anim id=\"Nodding\" target=\"subNpc\" targetSpec=\"\"}}慢慢選購，{{delay8}}\n好好享受購物的樂趣！{{fun_00040064 arg=\"\"}}　{{delay8}}{{size value=\"75\"}}樂趣ー！{{size value=\"100\"}}{{endTag}}"
  },
  {
    "label": "206",
    "attribute": "0x00000000",
    "text": "{{anim id=\"Nodding\" target=\"mainNpc\" targetSpec=\"\"}}我對我們商品的種類{{anim id=\"Nodding\" target=\"subNpc\" targetSpec=\"\"}}很有信心。{{delay20}}\n請慢慢選購，{{delay8}}\n好好享受購物的樂趣！{{anim id=\"Smiling\" target=\"mainNpc\" targetSpec=\"\"}}{{anim id=\"Smiling\" target=\"subNpc\" targetSpec=\"\"}}{{fun_00040064 arg=\"\"}}　{{delay8}}{{size value=\"75\"}}樂趣ー！{{size value=\"100\"}}{{endTag}}"
  },
  {
    "label": "207",
    "attribute": "0x00000000",
    "text": "{{anim id=\"Worried\" target=\"mainNpc\" targetSpec=\"\"}}{{anim id=\"Worried\" target=\"subNpc\" targetSpec=\"\"}}那個{{string value=\"...\"}}{{delay8}}不好意思{{string value=\"...\"}}{{delay40}}\n現在已經超過\n本日的營業時間了{{string value=\"...\"}}{{i10_7 arg=\"180\"}}\n{{anim id=\"Smiling\" target=\"mainNpc\" targetSpec=\"\"}}{{anim id=\"EmotEnd\" target=\"subNpc\" targetSpec=\"\"}}請您{{anim id=\"Nodding\" target=\"subNpc\" targetSpec=\"\"}}改天{{delay8}}再過來吧！{{delay20}}{{fun_00040064 arg=\"\"}}　{{delay8}}{{size value=\"75\"}}過來吧！{{size value=\"100\"}}{{endTag}}{{i10_7 arg=\"90\"}}"
  },
  {
    "label": "3001",
    "attribute": "0x00000000",
    "text": "{{anim id=\"Explain\" target=\"mainNpc\" targetSpec=\"\"}}在那個{{fun_0000007D arg=\"0x0000\"}}裡，{{delay20}}\n{{anim id=\"Smiling\" target=\"mainNpc\" targetSpec=\"\"}}{{anim id=\"Smiling\" target=\"subNpc\" targetSpec=\"\"}}收錄了能讓島上生活{{delay8}}\n更加有樂趣的表情！{{pageBreak}}{{anim id=\"Nodding\" target=\"mainNpc\" targetSpec=\"\"}}因為是期間限定商品，\n只販售到{{number value=\"Month\" index=\"0\"}}月{{number value=\"Day\" index=\"0\"}}日為止，{{delay20}}\n{{anim id=\"Smiling\" target=\"mainNpc\" targetSpec=\"\"}}{{anim id=\"Smiling\" target=\"subNpc\" targetSpec=\"\"}}要買要快喔～！"
  },
  {
    "label": "3002",
    "attribute": "0x00000000",
    "text": "{{anim id=\"Eh\" target=\"mainNpc\" targetSpec=\"\"}}對了對了，{{delay8}}那是{{anim id=\"Nodding\" target=\"mainNpc\" targetSpec=\"\"}}跟{{number value=\"Month\" index=\"0\"}}月{{number value=\"Day\" index=\"0\"}}日舉行的{{delay8}}\n狂歡節有關的商品{{string value=\"...\"}}{{pageBreak}}{{anim id=\"Smiling\" target=\"mainNpc\" targetSpec=\"\"}}{{anim id=\"Smiling\" target=\"subNpc\" targetSpec=\"\"}}表情集裡收錄了適合狂歡節的表情，{{delay8}}\n目前陳列{{color id=\"1\"}}在貨架上販賣{{color id=\"65535\"}}！{{delay8}}{{pageBreak}}因為是到狂歡節為止的期間限定商品，{{delay20}}\n{{anim id=\"Hello\" target=\"mainNpc\" targetSpec=\"\"}}{{anim id=\"Hello\" target=\"subNpc\" targetSpec=\"\"}}請務必參考看看喔～{{fun_00040064 arg=\"\"}}　{{delay8}}{{size value=\"75\"}}看看喔～{{size value=\"100\"}}{{endTag}}"
  },
  {
    "label": "3003",
    "attribute": "0x00000000",
    "text": "{{anim id=\"Explain\" target=\"mainNpc\" targetSpec=\"\"}}在那個{{fun_0000007D arg=\"0x0000\"}}裡，{{delay20}}\n{{anim id=\"Smiling\" target=\"mainNpc\" targetSpec=\"\"}}{{anim id=\"Smiling\" target=\"subNpc\" targetSpec=\"\"}}收錄了能讓島上生活{{delay8}}\n更加有樂趣的表情！{{pageBreak}}{{anim id=\"Nodding\" target=\"mainNpc\" targetSpec=\"\"}}因為是期間限定商品，\n{{anim id=\"Nodding\" target=\"mainNpc\" targetSpec=\"\"}}{{anim id=\"EmotEnd\" target=\"subNpc\" targetSpec=\"\"}}只販售到今天為止，{{delay20}}\n{{anim id=\"Smiling\" target=\"mainNpc\" targetSpec=\"\"}}{{anim id=\"Smiling\" target=\"subNpc\" targetSpec=\"\"}}要買要快喔～！"
  },
  {
    "label": "3004",
    "attribute": "0x00000000",
    "text": "{{anim id=\"Eh\" target=\"mainNpc\" targetSpec=\"\"}}對了對了，{{delay8}}\n那是跟狂歡節有關的商品{{string value=\"...\"}}{{pageBreak}}{{anim id=\"Smiling\" target=\"mainNpc\" targetSpec=\"\"}}{{anim id=\"Smiling\" target=\"subNpc\" targetSpec=\"\"}}表情集裡收錄了適合狂歡節的表情，{{delay8}}\n目前陳列{{color id=\"1\"}}在貨架上販賣{{color id=\"65535\"}}！{{delay8}}{{pageBreak}}{{anim id=\"Nodding\" target=\"mainNpc\" targetSpec=\"\"}}{{anim id=\"EmotEnd\" target=\"subNpc\" targetSpec=\"\"}}因為是到今天為止的期間限定商品，{{delay20}}\n{{anim id=\"Hello\" target=\"mainNpc\" targetSpec=\"\"}}{{anim id=\"Hello\" target=\"subNpc\" targetSpec=\"\"}}請務必參考看看喔～{{fun_00040064 arg=\"\"}}　{{delay8}}{{size value=\"75\"}}看看喔～{{size value=\"100\"}}{{endTag}}"
  },
  {
    "label": "3005",
    "attribute": "0x00000000",
    "text": "{{anim id=\"Eh\" target=\"actor\" targetSpec=\"\"}}{{anim id=\"Eh\" target=\"subNpc\" targetSpec=\"\"}}啊！{{string value=\"PlayerName\"}}，{{delay20}}\n{{anim id=\"BigSmile\" target=\"actor\" targetSpec=\"\"}}{{anim id=\"BigSmile\" target=\"subNpc\" targetSpec=\"\"}}歡迎光臨！"
  },
  {
    "label": "3006",
    "attribute": "0x00000000",
    "text": "{{anim id=\"Aha\" target=\"actor\" targetSpec=\"\"}}{{anim id=\"Aha\" target=\"subNpc\" targetSpec=\"\"}}啊！是來自其他小島的客人吧？{{delay frames=\"40\"}}\n{{anim id=\"FaintSmile\" target=\"actor\" targetSpec=\"\"}}{{anim id=\"FaintSmile\" target=\"subNpc\" targetSpec=\"\"}}謝謝您{{delay20}}{{anim id=\"Smiling\" target=\"actor\" targetSpec=\"\"}}{{anim id=\"Smiling\" target=\"subNpc\" targetSpec=\"\"}}千里迢迢光臨本店！"
  },
  {
    "label": "3007",
    "attribute": "0x00000000",
    "text": "本店目前正在舉辦{{delay20}}\n{{anim id=\"Smiling\" target=\"actor\" targetSpec=\"\"}}{{anim id=\"Smiling\" target=\"subNpc\" targetSpec=\"\"}}黑五購物節的特賣活動！{{pageBreak}}{{anim id=\"Explain\" target=\"actor\" targetSpec=\"\"}}{{anim id=\"EmotEnd\" target=\"subNpc\" targetSpec=\"\"}}從活動開始{{string value=\"...\"}}\n{{color id=\"1\"}}到11月30日為止的期間內{{color id=\"65535\"}}，{{delay20}}\n本店的所有商品{{delay20}}{{anim id=\"Smiling\" target=\"actor\" targetSpec=\"\"}}{{anim id=\"Smiling\" target=\"subNpc\" targetSpec=\"\"}}一律{{color id=\"1\"}}打7折{{color id=\"65535\"}}！{{pageBreak}}{{anim id=\"EmotEnd\" target=\"actor\" targetSpec=\"\"}}{{anim id=\"EmotEnd\" target=\"subNpc\" targetSpec=\"\"}}若有您感興趣的商品，{{delay20}}\n{{anim id=\"FaintSmile\" target=\"actor\" targetSpec=\"\"}}{{anim id=\"FaintSmile\" target=\"subNpc\" targetSpec=\"\"}}請藉此機會購買吧～！{{delay8}}{{fun_00040064 arg=\"\"}}　{{delay8}}{{size value=\"75\"}}購買吧～！{{size value=\"100\"}}{{endTag}}"
  },
  {
    "label": "3008",
    "attribute": "0x00000000",
    "text": "{{anim id=\"Aha\" target=\"actor\" targetSpec=\"\"}}{{anim id=\"EmotEnd\" target=\"subNpc\" targetSpec=\"\"}}啊！還有一件事{{string value=\"...\"}}{{anim id=\"EmotEnd\" target=\"actor\" targetSpec=\"\"}}本店目前正在舉辦{{delay20}}\n{{anim id=\"Smiling\" target=\"actor\" targetSpec=\"\"}}{{anim id=\"Smiling\" target=\"subNpc\" targetSpec=\"\"}}黑五購物節的特賣活動！{{pageBreak}}{{anim id=\"Explain\" target=\"actor\" targetSpec=\"\"}}{{anim id=\"EmotEnd\" target=\"subNpc\" targetSpec=\"\"}}從活動開始{{string value=\"...\"}}\n{{color id=\"1\"}}到11月30日為止的期間內{{color id=\"65535\"}}，{{delay20}}\n本店的所有商品{{delay20}}{{anim id=\"Smiling\" target=\"actor\" targetSpec=\"\"}}{{anim id=\"Smiling\" target=\"subNpc\" targetSpec=\"\"}}一律{{color id=\"1\"}}打7折{{color id=\"65535\"}}！{{pageBreak}}{{anim id=\"EmotEnd\" target=\"actor\" targetSpec=\"\"}}{{anim id=\"EmotEnd\" target=\"subNpc\" targetSpec=\"\"}}若有您感興趣的商品，{{delay20}}\n{{anim id=\"FaintSmile\" target=\"actor\" targetSpec=\"\"}}{{anim id=\"FaintSmile\" target=\"subNpc\" targetSpec=\"\"}}請藉此機會購買吧～！{{delay8}}{{fun_00040064 arg=\"\"}}　{{delay8}}{{size value=\"75\"}}購買吧～！{{size value=\"100\"}}{{endTag}}"
  },
  {
    "label": "4001",
    "attribute": "0x00000000",
    "text": "{{anim id=\"FaintSmile\" target=\"mainNpc\" targetSpec=\"\"}}{{anim id=\"FaintSmile\" target=\"subNpc\" targetSpec=\"\"}}這個{{fun_0000007D arg=\"0x0000\"}}，{{delay20}}\n是以數位版販售的{{delay8}}\n{{color id=\"1\"}}料理{{color id=\"65535\"}}方程式集！{{fun_00040064 arg=\"\"}}　{{delay8}}{{size value=\"75\"}}方程式集！{{size value=\"100\"}}{{endTag}}"
  },
  {
    "label": "4002",
    "attribute": "0x00000000",
    "text": "{{anim id=\"Smiling\" target=\"mainNpc\" targetSpec=\"\"}}那麼，{{delay8}}我將{{fun_0000007D arg=\"0x0000\"}}\n的方程式資料\n{{anim id=\"Smiling\" target=\"subNpc\" targetSpec=\"\"}}轉發到{{string value=\"PlayerName\"}}的手機！"
  },
  {
    "label": "4003",
    "attribute": "0x00000000",
    "text": "{{anim id=\"BigSmile\" target=\"mainNpc\" targetSpec=\"\"}}{{anim id=\"Smiling\" target=\"subNpc\" targetSpec=\"\"}}好的！{{delay20}}登錄完成了！{{i10_4}}\n{{anim id=\"Smiling\" target=\"mainNpc\" targetSpec=\"\"}}請多多使用新的方程式，{{delay20}}\n好好享受{{color id=\"1\"}}料理{{color id=\"65535\"}}的樂趣吧！{{fun_00040064 arg=\"\"}}　{{delay8}}{{size value=\"75\"}}樂趣吧！{{size value=\"100\"}}{{endTag}}"
  },
  {
    "label": "4011",
    "attribute": "0x00000000",
    "text": "{{anim id=\"Explain\" target=\"mainNpc\" targetSpec=\"\"}}{{anim id=\"Smiling\" target=\"subNpc\" targetSpec=\"\"}}那個{{fun_0000007D arg=\"0x0000\"}}裡{{delay frames=\"30\"}}\n收錄了簡單的{{color id=\"1\"}}料理{{color id=\"65535\"}}方程式，{{delay20}}\n只需要使用基礎的材料便能製作！"
  },
  {
    "label": "4012",
    "attribute": "0x00000000",
    "text": "{{anim id=\"Explain\" target=\"mainNpc\" targetSpec=\"\"}}那個{{fun_0000007D arg=\"0x0000\"}}裡{{delay frames=\"30\"}}\n收錄了一些{{color id=\"1\"}}料理{{color id=\"65535\"}}方程式，{{delay20}}\n內容為之前感恩節的料理！"
  },
  {
    "label": "4019",
    "attribute": "0x00000000",
    "text": "{{anim id=\"Smiling\" target=\"mainNpc\" targetSpec=\"\"}}{{anim id=\"Smiling\" target=\"subNpc\" targetSpec=\"\"}}您購買後，{{delay8}}\n就會當場將方程式的資料\n登錄在{{string value=\"PlayerName\"}}的手機裡！"
  },
  {
    "label": "4020",
    "attribute": "0x00000000",
    "text": "{{anim id=\"Nodding\" target=\"mainNpc\" targetSpec=\"\"}}{{string value=\"PlayerName\"}}，{{delay8}}您似乎已經{{delay20}}\n{{anim id=\"Smiling\" target=\"mainNpc\" targetSpec=\"\"}}{{anim id=\"Smiling\" target=\"subNpc\" targetSpec=\"\"}}學會收錄在這裡的所有料理方程式了！{{pageBreak}}{{anim id=\"EmotEnd\" target=\"mainNpc\" targetSpec=\"\"}}{{anim id=\"EmotEnd\" target=\"subNpc\" targetSpec=\"\"}}請您{{delay8}}親自享受一下{{delay20}}\n{{anim id=\"Hello\" target=\"mainNpc\" targetSpec=\"\"}}{{anim id=\"Hello\" target=\"subNpc\" targetSpec=\"\"}}和感恩節有關的各式料理吧！"
  },
  {
    "label": "4021",
    "attribute": "0x00000000",
    "text": "{{anim id=\"Explain\" target=\"mainNpc\" targetSpec=\"\"}}{{anim id=\"Explain\" target=\"subNpc\" targetSpec=\"\"}}若您想使用料理方程式，{{delay20}}\n{{anim id=\"Smiling\" target=\"mainNpc\" targetSpec=\"\"}}{{anim id=\"Smiling\" target=\"subNpc\" targetSpec=\"\"}}需要先將方程式應用程式{{delay8}}\n更新至{{color id=\"1\"}}ＤＩＹ方程式＋{{color id=\"65535\"}}。{{pageBreak}}{{anim id=\"EmotEnd\" target=\"mainNpc\" targetSpec=\"\"}}{{anim id=\"EmotEnd\" target=\"subNpc\" targetSpec=\"\"}}{{color id=\"1\"}}ＤＩＹ方程式＋{{color id=\"65535\"}}{{delay20}}可以使用服務處的狸端機，{{delay8}}\n{{anim id=\"Smiling\" target=\"mainNpc\" targetSpec=\"\"}}{{anim id=\"Smiling\" target=\"subNpc\" targetSpec=\"\"}}透過Nook哩數的兌換{{delay8}}\n來進行更新{{string value=\"...\"}}{{pageBreak}}待您更新完畢後，{{delay20}}\n{{anim id=\"Hello\" target=\"mainNpc\" targetSpec=\"\"}}{{anim id=\"Hello\" target=\"subNpc\" targetSpec=\"\"}}再來跟我們說一聲吧。"
  },
  {
    "label": "4022",
    "attribute": "0x00000000",
    "text": "{{anim id=\"Explain\" target=\"actor\" targetSpec=\"\"}}這邊的商品{{delay20}}僅向方程式應用程式{{delay8}}\n已更新至{{color id=\"1\"}}ＤＩＹ方程式＋{{color id=\"65535\"}}的客人{{delay20}}出售{{string value=\"...\"}}{{pageBreak}}{{anim id=\"Smiling\" target=\"actor\" targetSpec=\"\"}}{{string value=\"PlayerName\"}}，請您先透過\n您小島上的狸端機，{{delay20}}將方程式應用程式{{delay8}}\n更新至{{color id=\"1\"}}ＤＩＹ方程式＋{{color id=\"65535\"}}！"
  },
  {
    "label": "4101",
    "attribute": "0x00000000",
    "text": "{{anim id=\"Shocked\" target=\"mainNpc\" targetSpec=\"\"}}{{anim id=\"Shocked\" target=\"subNpc\" targetSpec=\"\"}}啊，{{delay20}}這個{{fun_0000007D arg=\"0x0000\"}}是{{delay20}}\n{{anim id=\"Explain\" target=\"mainNpc\" targetSpec=\"\"}}{{color id=\"1\"}}懸掛在房間天花板{{color id=\"65535\"}}類型的{{delay8}}{{anim id=\"Nodding\" target=\"subNpc\" targetSpec=\"\"}}家具{{string value=\"...\"}}{{pageBreak}}{{anim id=\"EmotEnd\" target=\"mainNpc\" targetSpec=\"\"}}{{anim id=\"EmotEnd\" target=\"subNpc\" targetSpec=\"\"}}為了確保您能妥善運用，{{delay20}}\n{{anim id=\"Smiling\" target=\"mainNpc\" targetSpec=\"\"}}{{anim id=\"Smiling\" target=\"subNpc\" targetSpec=\"\"}}請於購買前，{{delay20}}\n先取得{{delay8}}{{color id=\"1\"}}布置PRO許可證{{color id=\"65535\"}}～！"
  },
  {
    "label": "4102",
    "attribute": "0x00000000",
    "text": "{{anim id=\"Explain\" target=\"mainNpc\" targetSpec=\"\"}}服務處的狸端機{{delay8}}\n{{anim id=\"Nodding\" target=\"subNpc\" targetSpec=\"\"}}能幫您發行許可證，{{delay20}}\n{{anim id=\"Hello\" target=\"mainNpc\" targetSpec=\"\"}}{{anim id=\"Hello\" target=\"subNpc\" targetSpec=\"\"}}麻煩您先從那邊取得許可證～{{fun_00040064 arg=\"\"}}　{{delay8}}{{size value=\"75\"}}許可證！{{size value=\"100\"}}{{endTag}}"
  },
  {
    "label": "4103",
    "attribute": "0x00000000",
    "text": "{{anim id=\"Smiling\" target=\"mainNpc\" targetSpec=\"\"}}請利用您居住的島上{{delay8}}\n服務處內的狸端機，{{delay20}}\n透過哩數交換{{anim id=\"Hello\" target=\"actor\" targetSpec=\"\"}}來取得許可證～"
  },
  {
    "label": "4104",
    "attribute": "0x00000000",
    "text": "已經習慣島上生活的人{{delay20}}\n{{anim id=\"Explain\" target=\"mainNpc\" targetSpec=\"\"}}將成為{{color id=\"1\"}}布置PRO許可證{{color id=\"65535\"}}的{{delay8}}{{anim id=\"EmotEnd\" target=\"mainNpc\" targetSpec=\"\"}}\n{{anim id=\"Nodding\" target=\"subNpc\" targetSpec=\"\"}}發行對象{{string value=\"...\"}}{{pageBreak}}{{anim id=\"EmotEnd\" target=\"subNpc\" targetSpec=\"\"}}關於{{string value=\"PlayerName\"}}的情況，{{delay20}}\n{{anim id=\"Smiling\" target=\"mainNpc\" targetSpec=\"\"}}{{anim id=\"Smiling\" target=\"subNpc\" targetSpec=\"\"}}首先請您{{delay8}}先習慣移居後的生活，{{delay20}}\n{{anim id=\"Hello\" target=\"mainNpc\" targetSpec=\"\"}}{{anim id=\"Hello\" target=\"subNpc\" targetSpec=\"\"}}然後再來考慮{{delay8}}取得許可證～"
  },
  {
    "label": "4105",
    "attribute": "0x00000000",
    "text": "{{anim id=\"EmotEnd\" target=\"mainNpc\" targetSpec=\"\"}}{{anim id=\"EmotEnd\" target=\"subNpc\" targetSpec=\"\"}}要購買這個懸掛在房間天花板上的家具，{{delay20}}\n{{anim id=\"Smiling\" target=\"mainNpc\" targetSpec=\"\"}}{{anim id=\"Smiling\" target=\"subNpc\" targetSpec=\"\"}}需要先取得{{delay8}}{{color id=\"1\"}}布置PRO許可證{{color id=\"65535\"}}～！"
  },
  {
    "label": "4201",
    "attribute": "0x00000000",
    "text": "{{anim id=\"Smiling\" target=\"actor\" targetSpec=\"\"}}這件商品是{{delay8}}{{color id=\"1\"}}潛水衣{{color id=\"65535\"}}！{{delay frames=\"40\"}}\n{{anim id=\"EmotEnd\" target=\"actor\" targetSpec=\"\"}}{{anim id=\"Nodding\" target=\"subNpc\" targetSpec=\"\"}}當您打算潛入海中時，{{delay20}}\n{{anim id=\"BigSmile\" target=\"mainNpc\" targetSpec=\"\"}}{{anim id=\"BigSmile\" target=\"subNpc\" targetSpec=\"\"}}可以考慮選購這件商品喔！{{fun_00040064 arg=\"\"}}　{{delay8}}{{size value=\"75\"}}可以選購喔！{{size value=\"100\"}}{{endTag}}"
  },
  {
    "label": "4202",
    "attribute": "0x02000000",
    "text": "價錢是{{delay8}}{{anim id=\"Nodding\" target=\"mainNpc\" targetSpec=\"\"}}{{number value=\"BuyPrice\" index=\"0\"}}，{{delay20}}\n{{anim id=\"Hello\" target=\"actor\" targetSpec=\"\"}}{{anim id=\"Hello\" target=\"mainNpc\" targetSpec=\"\"}}{{anim id=\"Hello\" target=\"subNpc\" targetSpec=\"\"}}要買嗎？"
  },
  {
    "label": "4202_a",
    "attribute": "0x00000000",
    "text": "{{anim id=\"Nodding\" target=\"actor\" targetSpec=\"\"}}買！"
  },
  {
    "label": "4202_b",
    "attribute": "0x00000000",
    "text": "{{anim id=\"Negative\" target=\"actor\" targetSpec=\"\"}}算了"
  },
  {
    "label": "4203",
    "attribute": "0x02000000",
    "text": "{{anim id=\"Smiling\" target=\"actor\" targetSpec=\"\"}}{{string value=\"PlayerName\"}}，{{delay8}}\n您是第一次購買{{color id=\"1\"}}潛水衣{{color id=\"65535\"}}對吧？{{delay40}}\n方便的話，{{delay8}}{{anim id=\"QuestionMark\" target=\"actor\" targetSpec=\"\"}}讓我為您說明一下使用方法吧？"
  },
  {
    "label": "4203_a",
    "attribute": "0x00000000",
    "text": "教教我！"
  },
  {
    "label": "4203_b",
    "attribute": "0x00000000",
    "text": "我已經知道了"
  },
  {
    "label": "4204",
    "attribute": "0x00000000",
    "text": ""
  },
  {
    "label": "4205",
    "attribute": "0x00000000",
    "text": "{{anim id=\"Explain\" target=\"mainNpc\" targetSpec=\"\"}}只要穿上{{color id=\"1\"}}潛水衣{{color id=\"65535\"}}，{{delay8}}\n就可以從海邊和岩石地帶進入海中，\n{{anim id=\"Nodding\" target=\"subNpc\" targetSpec=\"\"}}享受潛水的樂趣喔！{{anim id=\"Smiling\" target=\"subNpc\" targetSpec=\"\"}}{{fun_00040064 arg=\"\"}}　{{delay8}}{{size value=\"75\"}}享受樂趣喔！{{size value=\"100\"}}{{endTag}}\n{{anim id=\"Smiling\" target=\"mainNpc\" targetSpec=\"\"}}{{anim id=\"Smiling\" target=\"subNpc\" targetSpec=\"\"}}在海裡{{delay8}}按{{color id=\"1\"}}{{color id=\"65535\"}}就可以游泳！{{i10_4}}\n當你在游泳時，{{delay8}}看見水中出現影子，{{delay8}}\n{{anim id=\"Nodding\" target=\"mainNpc\" targetSpec=\"\"}}就代表{{color id=\"1\"}}海洋生物{{color id=\"65535\"}}{{anim id=\"Nodding\" target=\"subNpc\" targetSpec=\"\"}}在你附近喔！\n{{anim id=\"Smiling\" target=\"mainNpc\" targetSpec=\"\"}}看到影子的時候，{{delay20}}{{anim id=\"EmotEnd\" target=\"subNpc\" targetSpec=\"\"}}請按{{color id=\"1\"}}{{color id=\"65535\"}}潛下去，{{delay8}}\n然後一邊游一邊追吧。{{pageBreak}}{{anim id=\"Nodding\" target=\"mainNpc\" targetSpec=\"\"}}{{anim id=\"Smiling\" target=\"subNpc\" targetSpec=\"\"}}如果能順利追上影子，\n就能捕獲{{color id=\"1\"}}海洋生物{{color id=\"65535\"}}了！"
  },
  {
    "label": "4206",
    "attribute": "0x01000000",
    "text": "{{anim id=\"FaintSmile\" target=\"mainNpc\" targetSpec=\"\"}}以上{{string value=\"...\"}}就是使用說明，{{delay20}}\n{{anim id=\"QuestionMark\" target=\"mainNpc\" targetSpec=\"\"}}{{anim id=\"QuestionMark\" target=\"subNpc\" targetSpec=\"\"}}請問{{delay8}}要再聽一次嗎？"
  },
  {
    "label": "4206_a",
    "attribute": "0x00000000",
    "text": "不用了！"
  },
  {
    "label": "4206_b",
    "attribute": "0x00000000",
    "text": "我想再聽一次"
  },
  {
    "label": "4207",
    "attribute": "0x00000000",
    "text": "{{anim id=\"FaintSmile\" target=\"mainNpc\" targetSpec=\"\"}}{{anim id=\"FaintSmile\" target=\"subNpc\" targetSpec=\"\"}}我明白了！{{i10_4}}\n{{anim id=\"Smiling\" target=\"mainNpc\" targetSpec=\"\"}}{{anim id=\"Smiling\" target=\"subNpc\" targetSpec=\"\"}}那麼，{{delay20}}還有沒有其他需要的東西呢？{{anim id=\"EmotEnd\" target=\"mainNpc\" targetSpec=\"\"}}{{anim id=\"EmotEnd\" target=\"subNpc\" targetSpec=\"\"}}"
  },
  {
    "label": "901",
    "attribute": "0x00000000",
    "text": "{{anim id=\"QuestionMark\" target=\"mainNpc\" targetSpec=\"\"}}啊，{{delay20}}不賣了嗎？{{i10_4}}\n{{anim id=\"EmotEnd\" target=\"mainNpc\" targetSpec=\"\"}}{{anim id=\"FaintSmile\" target=\"subNpc\" targetSpec=\"\"}}那麼，要是還有什麼需要的話，{{delay8}}\n{{anim id=\"FaintSmile\" target=\"actor\" targetSpec=\"\"}}請隨時跟我們說！{{fun_00040064 arg=\"\"}}　{{delay8}}{{size value=\"75\"}}跟我們說！{{size value=\"100\"}}{{endTag}}"
  },
  {
    "label": "902_01",
    "attribute": "0x00000000",
    "text": "這樣啊。{{i10_4}}\n那麼，要是還有什麼需要的話，{{delay8}}\n{{anim id=\"FaintSmile\" target=\"mainNpc\" targetSpec=\"\"}}{{anim id=\"FaintSmile\" target=\"subNpc\" targetSpec=\"\"}}請隨時跟我們說！{{fun_00040064 arg=\"\"}}　{{delay8}}{{size value=\"75\"}}跟我們說！{{size value=\"100\"}}{{endTag}}"
  },
  {
    "label": "902_02",
    "attribute": "0x00000000",
    "text": "啊，{{delay8}}不買了嗎？{{delay20}}\n{{anim id=\"Smiling\" target=\"mainNpc\" targetSpec=\"\"}}{{anim id=\"Smiling\" target=\"subNpc\" targetSpec=\"\"}}那麼，還有沒有其他需要的東西呢？{{anim id=\"EmotEnd\" target=\"mainNpc\" targetSpec=\"\"}}{{anim id=\"EmotEnd\" target=\"subNpc\" targetSpec=\"\"}}"
  },
  {
    "label": "903_01",
    "attribute": "0x00000000",
    "text": "{{anim id=\"Shocked\" target=\"actor\" targetSpec=\"\"}}啊，{{delay8}}不買了嗎？{{i10_4}}\n{{anim id=\"EmotEnd\" target=\"actor\" targetSpec=\"\"}}要是還有甚麼需要的話，{{delay8}}\n{{anim id=\"FaintSmile\" target=\"actor\" targetSpec=\"\"}}請隨時跟我們說！"
  },
  {
    "label": "903_02",
    "attribute": "0x00000000",
    "text": "{{anim id=\"EmotEnd\" target=\"mainNpc\" targetSpec=\"\"}}{{anim id=\"EmotEnd\" target=\"subNpc\" targetSpec=\"\"}}啊，{{delay8}}不買了嗎？{{delay40}}\n{{anim id=\"FaintSmile\" target=\"mainNpc\" targetSpec=\"\"}}{{anim id=\"FaintSmile\" target=\"subNpc\" targetSpec=\"\"}}歡迎隨時再過來看看！"
  },
  {
    "label": "903_03",
    "attribute": "0x00000000",
    "text": "{{anim id=\"Smiling\" target=\"actor\" targetSpec=\"\"}}謝謝光臨！{{delay20}}\n要是還有什麼需要的話，{{delay8}}\n請不要客氣，隨時跟我說！"
  },
  {
    "label": "903_04",
    "attribute": "0x00000000",
    "text": "{{anim id=\"Smiling\" target=\"mainNpc\" targetSpec=\"\"}}{{anim id=\"Smiling\" target=\"subNpc\" targetSpec=\"\"}}謝謝！{{fun_00040064 arg=\"\"}}　{{delay8}}{{size value=\"75\"}}謝謝！{{size value=\"100\"}}{{endTag}}"
  },
  {
    "label": "904",
    "attribute": "0x00000000",
    "text": "{{anim id=\"FaintSmile\" target=\"mainNpc\" targetSpec=\"\"}}{{anim id=\"FaintSmile\" target=\"subNpc\" targetSpec=\"\"}}好的好的！{{fun_00040064 arg=\"\"}}{{delay8}}{{size value=\"75\"}}好的！{{size value=\"100\"}}{{endTag}}{{delay frames=\"40\"}}\n那麼，要是還有什麼需要的話，{{delay8}}\n{{anim id=\"FaintSmile\" target=\"actor\" targetSpec=\"\"}}請隨時跟我們說！{{fun_00040064 arg=\"\"}}　{{delay8}}{{size value=\"75\"}}跟我們說！{{size value=\"100\"}}{{endTag}}"
  },
  {
    "label": "905",
    "attribute": "0x00000000",
    "text": "{{anim id=\"Smiling\" target=\"mainNpc\" targetSpec=\"\"}}{{anim id=\"Smiling\" target=\"subNpc\" targetSpec=\"\"}}那麼，{{delay8}}要是還有什麼需要的話，{{delay20}}\n{{anim id=\"FaintSmile\" target=\"actor\" targetSpec=\"\"}}請不要客氣，歡迎隨時跟我們說！{{fun_00040064 arg=\"\"}}　{{delay8}}{{size value=\"75\"}}跟我們說！{{size value=\"100\"}}{{endTag}}"
  }
]