﻿[
  {
    "label": "001",
    "attribute": "0x00000000",
    "text": "{{fun_0014003C arg=\"\"}}"
  },
  {
    "label": "001_01",
    "attribute": "0x00000000",
    "text": "Ah, quindi mi hai chiamato tu,\nragazzin{{gender2 m=\"o\" f=\"a\"}}?{{delay20}} {{anim id=\"Nodding\" target=\"actor\" targetSpec=\"\"}}Beh, eccomi qui.{{delay20}} Potrei\naddirittura cercare di rilassarmi!"
  },
  {
    "label": "002",
    "attribute": "0x00000000",
    "text": "{{fun_0014003C arg=\"\"}}"
  },
  {
    "label": "002_01",
    "attribute": "0x00000000",
    "text": "{{anim id=\"Shocked\" target=\"actor\" targetSpec=\"\"}}Ancora tu?{{delay20}} {{anim id=\"Nodding\" target=\"actor\" targetSpec=\"\"}}Va bene, va bene!{{delay20}} Sono\nqui.{{delay8}} Si beve questo caffè o no?"
  },
  {
    "label": "003",
    "attribute": "0x00000000",
    "text": "{{fun_0014003C arg=\"\"}}"
  },
  {
    "label": "003_01",
    "attribute": "0x00000000",
    "text": ""
  },
  {
    "label": "101",
    "attribute": "0x00000000",
    "text": "{{fun_0014003C arg=\"\"}}"
  },
  {
    "label": "101_01",
    "attribute": "0x00000000",
    "text": "Un tempo mi capitava di arrabbiarmi\nmolto spesso.{{delay20}} È un'abitudine difficile\nda perdere{{string value=\"...\"}}{{pageBreak}}Però ora sono cambiato, cerco di\nrestare calmo.{{delay20}} Poi arrabbiarsi causa\nstress, e lo stress non fa bene.{{pageBreak}}{{anim id=\"Negative\" target=\"actor\" targetSpec=\"\"}}Per niente!{{pageBreak}}{{anim id=\"Explain\" target=\"actor\" targetSpec=\"\"}}E poi in questo mi aiuta anche il mio\nnuovo lavoro.{{delay20}} Ci sono giorni in cui è\naddirittura{{string value=\"...\"}} rilassante!"
  },
  {
    "label": "101_02",
    "attribute": "0x00000000",
    "text": "Nel mio vecchio lavoro dovevo essere\nsempre all'erta tutto l'anno.{{delay8}} Zero\npause, zero vacanze,{{delay20}} molto stress.{{pageBreak}}{{anim id=\"Nodding\" target=\"actor\" targetSpec=\"\"}}Invece adesso lavoro solo quando\nmi chiamano. {{delay20}}Decisamente meglio!"
  },
  {
    "label": "101_03",
    "attribute": "0x00000000",
    "text": "{{anim id=\"OhGeez\" target=\"actor\" targetSpec=\"\"}}Insieme a me lavora anche il mio\nfratellone.{{delay20}} Gli voglio bene,{{delay8}} ma\nnon fa che ciarlare tutto il giorno{{string value=\"...\"}}{{pageBreak}}{{anim id=\"EmotEnd\" target=\"actor\" targetSpec=\"\"}}Mi piace sgattaiolare via quando non\nmi vede. Vado a fare uno spuntino e\n{{delay20}}{{anim id=\"Nodding\" target=\"actor\" targetSpec=\"\"}}mi godo un po' di silenzio!"
  },
  {
    "label": "101_04",
    "attribute": "0x00000000",
    "text": "{{anim id=\"Nodding\" target=\"actor\" targetSpec=\"\"}}In genere sono più un tipo da\nbancone,{{delay20}} {{anim id=\"BigSmile\" target=\"actor\" targetSpec=\"\"}}ma ammetto che è bello\nsedersi a un tavolo, di tanto in tanto."
  },
  {
    "label": "101_05",
    "attribute": "0x00000000",
    "text": "{{anim id=\"Nodding\" target=\"actor\" targetSpec=\"\"}}Non potrei mai stancarmi del caffè di\n{{color id=\"3\"}}Bartolo{{color id=\"65535\"}}.{{delay20}} Passo da qui a prenderne un\npo' dopo pranzo e me lo porto via."
  }
]