﻿[
  {
    "label": "001",
    "attribute": "0x0000000000000000",
    "text": "{{anim id=\"Greeting\" target=\"actor\" targetSpec=\"\"}}Let me know if there's something you\nwant.{{delay40}} There's stuff I can't give you,\nbut we can always talk about it."
  },
  {
    "label": "002",
    "attribute": "0x0000000000000000",
    "text": "{{anim id=\"Hello\" target=\"actor\" targetSpec=\"\"}}If you see something you want,{{delay8}}\nlet me know!{{delay40}} {{anim id=\"EmotEnd\" target=\"actor\" targetSpec=\"\"}}There's a few things\nI can't give you, though."
  },
  {
    "label": "003",
    "attribute": "0x0000000000000000",
    "text": "{{anim id=\"Greeting\" target=\"actor\" targetSpec=\"\"}}If there's something you totes\nlove, say so!{{delay40}}{{anim id=\"EmotEnd\" target=\"actor\" targetSpec=\"\"}} But there's some\nstuff I want to keep."
  },
  {
    "label": "004",
    "attribute": "0x0000020000000000",
    "text": "{{anim id=\"Aha\" target=\"actor\" targetSpec=\"\"}}Did you find something that'd look\nfab in your place? {{delay20}}{{anim id=\"EmotEnd\" target=\"actor\" targetSpec=\"\"}}I might just be\nable to make you a deal."
  },
  {
    "label": "004_a",
    "attribute": "0x0000000000000000",
    "text": "Let me have it!"
  },
  {
    "label": "004_b",
    "attribute": "0x0000000000000000",
    "text": "I don't need it."
  },
  {
    "label": "005",
    "attribute": "0x0000020000000000",
    "text": "{{anim id=\"Nodding\" target=\"actor\" targetSpec=\"\"}}Shopping is all about opportunity!{{pageBreak}}If you're shopping and you see\nsomething you like{{string value=\"...\"}}take that\nopportunity to buy it!{{pageBreak}}{{anim id=\"Smiling\" target=\"actor\" targetSpec=\"\"}}Tell me if you like anything here, and\nI might give it to you at friend prices!"
  },
  {
    "label": "005_a",
    "attribute": "0x0000000000000000",
    "text": "I want it."
  },
  {
    "label": "005_b",
    "attribute": "0x0000000000000000",
    "text": "I don't need it."
  },
  {
    "label": "006",
    "attribute": "0x0000020000000000",
    "text": "{{anim id=\"Aha\" target=\"actor\" targetSpec=\"\"}}Find something you like? {{anim id=\"FaintSmile\" target=\"actor\" targetSpec=\"\"}}I could\nmaybe sell it to you, if you want it?"
  },
  {
    "label": "006_a",
    "attribute": "0x0000000000000000",
    "text": "Please!"
  },
  {
    "label": "006_b",
    "attribute": "0x0000000000000000",
    "text": "I'm good."
  },
  {
    "label": "007",
    "attribute": "0x0000000000000000",
    "text": "{{anim id=\"Hello\" target=\"actor\" targetSpec=\"\"}}Let me know what you want.{{delay40}} {{anim id=\"BigSmile\" target=\"actor\" targetSpec=\"\"}}If it's\njust one thing, that's totes cool!{{anim id=\"FaintSmile\" target=\"actor\" targetSpec=\"\"}}"
  },
  {
    "label": "008",
    "attribute": "0x0000000000000000",
    "text": "{{anim id=\"QuestionMark\" target=\"actor\" targetSpec=\"\"}}What would you like? {{delay40}}{{anim id=\"FaintSmile\" target=\"actor\" targetSpec=\"\"}}Pick something\nout and let me know!"
  },
  {
    "label": "009",
    "attribute": "0x0000000000000000",
    "text": "{{anim id=\"Greeting\" target=\"actor\" targetSpec=\"\"}}Pick something you want and tell me!"
  },
  {
    "label": "010",
    "attribute": "0x0000000000000000",
    "text": "{{anim id=\"QuestionMark\" target=\"actor\" targetSpec=\"\"}}'K{{string value=\"...\"}}{{delay20}} {{anim id=\"EmotEnd\" target=\"actor\" targetSpec=\"\"}}Well, that's cool too. {{delay20}}{{anim id=\"FaintSmile\" target=\"actor\" targetSpec=\"\"}}No biggie!"
  },
  {
    "label": "011",
    "attribute": "0x0000000000000000",
    "text": "{{anim id=\"Eh\" target=\"actor\" targetSpec=\"\"}}Oh, {{delay20}}really?{{delay40}} {{anim id=\"Hello\" target=\"actor\" targetSpec=\"\"}}That's totes OK."
  },
  {
    "label": "012",
    "attribute": "0x0000000000000000",
    "text": "{{anim id=\"QuestionMark\" target=\"actor\" targetSpec=\"\"}}For real?{{delay40}} {{anim id=\"EmotEnd\" target=\"actor\" targetSpec=\"\"}}Well if you need anything\nelse, {{delay8}}{{anim id=\"FaintSmile\" target=\"actor\" targetSpec=\"\"}}just let me know!"
  },
  {
    "label": "013",
    "attribute": "0x0000020000000000",
    "text": "{{anim id=\"Eh\" target=\"actor\" targetSpec=\"\"}}Huh{{string value=\"...\"}}{{delay20}} So, like, {{anim id=\"QuestionMark\" target=\"actor\" targetSpec=\"\"}}you're not super into\nanything, then?"
  },
  {
    "label": "013_a",
    "attribute": "0x0000000000000000",
    "text": "Not really."
  },
  {
    "label": "013_b",
    "attribute": "0x0000000000000000",
    "text": "{{anim id=\"EmotEnd\" target=\"player\" targetSpec=\"\"}}I'm still thinking..."
  },
  {
    "label": "014",
    "attribute": "0x0000000000000000",
    "text": "{{anim id=\"Serious\" target=\"actor\" targetSpec=\"\"}}Well, fine.{{delay8}} If that's how you want to\nbe.{{delay frames=\"45\"}} {{anim id=\"Laughing\" target=\"actor\" targetSpec=\"\"}}HA!{{delay20}} I'm totes kidding. {{delay8}}It's cool.{{delay40}}\n{{anim id=\"EmotEnd\" target=\"actor\" targetSpec=\"\"}}But the deal's off then, {{string value=\"6\"}}."
  },
  {
    "label": "015",
    "attribute": "0x0000000000000000",
    "text": "{{anim id=\"FaintSmile\" target=\"actor\" targetSpec=\"\"}}No problem.{{delay8}} It's cool.{{delay8}} {{anim id=\"Greeting\" target=\"actor\" targetSpec=\"\"}}Take your time.{{delay20}}\n{{anim id=\"Nodding\" target=\"actor\" targetSpec=\"\"}}Sometimes it's seriously hard making\ndecisions."
  },
  {
    "label": "100",
    "attribute": "0x0000020000000000",
    "text": "{{anim id=\"Nodding\" target=\"actor\" targetSpec=\"\"}}My {{fun_0000007D arg=\"0x0000\"}}?\nPretty great, right?{{delay frames=\"40\"}}{{anim id=\"EmotEnd\" target=\"actor\" targetSpec=\"\"}}{{pageBreak}}Did you know you could buy\ngreatness {{anim id=\"Hello\" target=\"actor\" targetSpec=\"\"}}for only {{number value=\"21\" index=\"0\"}}?"
  },
  {
    "label": "100_a",
    "attribute": "0x0000000000000000",
    "text": "Sold!"
  },
  {
    "label": "100_b",
    "attribute": "0x0000000000000000",
    "text": "Never mind."
  },
  {
    "label": "101",
    "attribute": "0x0000020000000000",
    "text": "{{anim id=\"Smiling\" target=\"actor\" targetSpec=\"\"}}Oh, {{delay20}}my {{fun_0000007D arg=\"0x0000\"}}?{{delay20}}\nYou've got fab taste.{{pageBreak}}{{anim id=\"Thinking\" target=\"actor\" targetSpec=\"\"}}You know{{string value=\"...\"}}if you wanted to give me,\nsay, {{number value=\"21\" index=\"0\"}}, you could have fab\nproperty{{anim id=\"BigSmile\" target=\"actor\" targetSpec=\"\"}} as well as fab taste."
  },
  {
    "label": "101_a",
    "attribute": "0x0000000000000000",
    "text": "Sold!"
  },
  {
    "label": "101_b",
    "attribute": "0x0000000000000000",
    "text": "Never mind."
  },
  {
    "label": "102",
    "attribute": "0x0000020000000000",
    "text": "{{anim id=\"Smiling\" target=\"actor\" targetSpec=\"\"}}My {{fun_0000007D arg=\"0x0000\"}}!{{pageBreak}}I'll set you up.{{delay20}} Just {{number value=\"21\" index=\"0\"}}.{{delay20}}\nWhat do you think?"
  },
  {
    "label": "102_a",
    "attribute": "0x0000000000000000",
    "text": "Sold!"
  },
  {
    "label": "102_b",
    "attribute": "0x0000000000000000",
    "text": "Never mind."
  },
  {
    "label": "103",
    "attribute": "0x0000000000000000",
    "text": "{{anim id=\"Eh\" target=\"actor\" targetSpec=\"\"}}I understand{{string value=\"...\"}}{{delay20}} {{anim id=\"FaintSmile\" target=\"actor\" targetSpec=\"\"}}But, eh, if you\nchange your mind, let me\nknow, {{string value=\"6\"}}."
  },
  {
    "label": "104",
    "attribute": "0x0000000000000000",
    "text": "{{anim id=\"Worried\" target=\"actor\" targetSpec=\"\"}}Um, {{delay frames=\"40\"}}{{anim id=\"OhGeez\" target=\"actor\" targetSpec=\"\"}}sorry {{string value=\"NickName\"}}, but\nyou don't have enough Bells{{string value=\"...\"}}{{anim id=\"EmotEnd\" target=\"actor\" targetSpec=\"\"}}"
  },
  {
    "label": "105",
    "attribute": "0x0000000000000000",
    "text": "{{anim id=\"Thinking\" target=\"actor\" targetSpec=\"\"}}Soooo, {{delay8}}like,{{delay8}} you're way into my\n{{fun_0000007D arg=\"0x0000\"}}?{{pageBreak}}{{anim id=\"Explain\" target=\"actor\" targetSpec=\"\"}}Kinda surprised,{{delay8}} but if that's your\nthing, I totes get it.{{pageBreak}}{{anim id=\"Nodding\" target=\"actor\" targetSpec=\"\"}}Yeah, it's cool{{string value=\"...\"}}all yours!{{delay frames=\"40\"}} {{anim id=\"Smiling\" target=\"actor\" targetSpec=\"\"}}And how\ndoes the low, low price of FREE\nsound to you, {{string value=\"6\"}}?"
  },
  {
    "label": "106",
    "attribute": "0x0000000000000000",
    "text": "{{anim id=\"Oops\" target=\"actor\" targetSpec=\"\"}}Ack,{{delay8}} I'm SO sorry!{{delay40}}{{anim id=\"Confused\" target=\"actor\" targetSpec=\"\"}} Some things are\nsuper-duper important to me!\nLike my {{fun_0000007D arg=\"0x0000\"}}.\n{{anim id=\"ShyBoy\" target=\"actor\" targetSpec=\"\"}}I mean, {{delay8}}I'm THRILLED we like the\nsame things{{string value=\"...\"}}{{delay frames=\"40\"}}{{anim id=\"Negative\" target=\"actor\" targetSpec=\"\"}} But I just CAN'T."
  },
  {
    "label": "107",
    "attribute": "0x0000020000000000",
    "text": "{{anim id=\"Shocked\" target=\"actor\" targetSpec=\"\"}}Hold up!{{delay20}} Are you saying you want\nmy {{fun_0000007D arg=\"0x0000\"}}?{{pageBreak}}But you gave me{{string value=\"...\"}}{{delay20}} I mean{{string value=\"...\"}}{{delay frames=\"40\"}} Really?!"
  },
  {
    "label": "107_a",
    "attribute": "0x0000000000000000",
    "text": "Yes, please."
  },
  {
    "label": "107_b",
    "attribute": "0x0000000000000000",
    "text": "Ah, never mind."
  },
  {
    "label": "108",
    "attribute": "0x0000000000000000",
    "text": "{{anim id=\"Nodding\" target=\"actor\" targetSpec=\"\"}}I see{{string value=\"...\"}}I see{{string value=\"...\"}}{{delay frames=\"40\"}}{{anim id=\"FaintSmile\" target=\"actor\" targetSpec=\"\"}} Ah, I can never say no\nto you, {{string value=\"NickName\"}}."
  },
  {
    "label": "109",
    "attribute": "0x0000000000000000",
    "text": "{{anim id=\"Sighing\" target=\"actor\" targetSpec=\"\"}}Good!{{delay40}}{{anim id=\"EmotEnd\" target=\"actor\" targetSpec=\"\"}} I really like this gift, which{{anim id=\"Blushing\" target=\"actor\" targetSpec=\"\"}}\nreminds me of all the memories\nwe've made together, {{string value=\"6\"}}!"
  },
  {
    "label": "200",
    "attribute": "0x0000000000000000",
    "text": "{{anim id=\"HappyDance\" target=\"actor\" targetSpec=\"\"}}I hope you enjoy your purchase!"
  },
  {
    "label": "201",
    "attribute": "0x0000000000000000",
    "text": "{{anim id=\"BigSmile\" target=\"actor\" targetSpec=\"\"}}Thaaaaanks!"
  },
  {
    "label": "202",
    "attribute": "0x0000000000000000",
    "text": "{{anim id=\"Smiling\" target=\"actor\" targetSpec=\"\"}}It's a deal!"
  },
  {
    "label": "203",
    "attribute": "0x0000000000000000",
    "text": "{{anim id=\"Smiling\" target=\"actor\" targetSpec=\"\"}}I hope it's as chic in your place as it\nwas in mine!"
  },
  {
    "label": "204",
    "attribute": "0x0000000000000000",
    "text": "{{anim id=\"Love\" target=\"actor\" targetSpec=\"\"}}It's très cool we made a deal. Enjoy\nyour purchase, {{string value=\"6\"}}!"
  },
  {
    "label": "205",
    "attribute": "0x0000000000000000",
    "text": "{{anim id=\"Blushing\" target=\"actor\" targetSpec=\"\"}}Treat this super well, 'K?"
  },
  {
    "label": "206",
    "attribute": "0x0000000000000000",
    "text": "You're pretty weighed down already,{{delay8}}{{anim id=\"FaintSmile\" target=\"actor\" targetSpec=\"\"}}\nso I'll just send it over to your place\nlater, {{string value=\"6\"}}!"
  },
  {
    "label": "207",
    "attribute": "0x0000000000000000",
    "text": "{{anim id=\"Hesitate\" target=\"actor\" targetSpec=\"\"}}You're going to take care of that,\nright? You're not going to shove it\nin your pockets and forget about it?"
  },
  {
    "label": "208",
    "attribute": "0x0000000000000000",
    "text": "{{anim id=\"Worried\" target=\"actor\" targetSpec=\"\"}}Oh, um, your pockets are full. {{delay20}}{{anim id=\"EmotEnd\" target=\"actor\" targetSpec=\"\"}}I'll give\nthis to you another time{{anim id=\"FaintSmile\" target=\"actor\" targetSpec=\"\"}} when you\nhave more space, {{string value=\"6\"}}!"
  },
  {
    "label": "300",
    "attribute": "0x0000000000000000",
    "text": "{{anim id=\"Restless\" target=\"actor\" targetSpec=\"\"}}My {{fun_0002007D arg=\"0x00CD\"}}?{{pageBreak}}{{anim id=\"Negative\" target=\"actor\" targetSpec=\"\"}}I{{string value=\"...\"}}no!{{delay20}} I can't part with her! I've had\nBagel Bug forever! {{anim id=\"Sighing\" target=\"actor\" targetSpec=\"\"}}Sorry{{string value=\"...\"}}"
  },
  {
    "label": "301",
    "attribute": "0x0000000000000000",
    "text": "{{anim id=\"Eh\" target=\"actor\" targetSpec=\"\"}}I def can't EVEN do that. Sorry.\n{{anim id=\"Worried\" target=\"actor\" targetSpec=\"\"}}Professor {{capitalizeNextWord}}{{fun_0003007D arg=\"0x00CD\"}} is\nmy ichthyology tutor! For reals!"
  },
  {
    "label": "302",
    "attribute": "0x0000000000000000",
    "text": "{{anim id=\"Confused\" target=\"actor\" targetSpec=\"\"}}This? I{{string value=\"...\"}}{{delay20}} This is, um, well, it's super\nimportant to me, so I can't part\nwith it."
  },
  {
    "label": "303",
    "attribute": "0x0000000000000000",
    "text": "{{anim id=\"ShyBoy\" target=\"actor\" targetSpec=\"\"}}Oh wow.{{delay8}} So, here's the thing{{string value=\"...\"}}my\n{{fun_0000007D arg=\"0x0000\"}}{{string value=\"...\"}}{{pageBreak}}{{anim id=\"Negative\" target=\"actor\" targetSpec=\"\"}}Off the table.{{delay frames=\"45\"}} {{anim id=\"OhGeez\" target=\"actor\" targetSpec=\"\"}}Some things just\ncomplete my house's vibe and\ncan't be parted with. Super sorry."
  },
  {
    "label": "305",
    "attribute": "0x0000000000000000",
    "text": "{{anim id=\"Oops\" target=\"actor\" targetSpec=\"\"}}Oh, {{delay20}}sorry! That is legit no, thanks.\n{{delay40}}{{anim id=\"EmotEnd\" target=\"actor\" targetSpec=\"\"}}My place wouldn't be the same minus\nmy {{fun_0000007D arg=\"0x0000\"}}."
  },
  {
    "label": "306",
    "attribute": "0x0000000000000000",
    "text": "{{anim id=\"Eh\" target=\"actor\" targetSpec=\"\"}}Ah, sorry. I can't let you have\nmy {{fun_0009007D arg=\"0x00CD\"}}!{{pageBreak}}{{anim id=\"Explain\" target=\"actor\" targetSpec=\"\"}}I'm trying to write a song with my\n{{fun_0009007D arg=\"0x00CD\"}}{{anim id=\"ShyBoy\" target=\"actor\" targetSpec=\"\"}} as my muse."
  }
]