﻿{
  "version": 4,
  "rootNode": {
    "cat17": {
      "mCookingRangeLUZ.u8": 34,
      "mWall": {
        "mItemNameParam.u64": 5481
      },
      "mDIYWorkbench": {
        "mUnitZ.u8": 35,
        "mItemSaveParam": {
          "mItemNameParam.u64": 203750
        },
        "mUnitX.u8": 35,
        "mLayer.u8": 0
      },
      "mDIYRangeHeight.u8": 4,
      "mDIYRangeLUZ.u8": 34,
      "mCookingRangeHeight.u8": 4,
      "mCookingRangeLUX.u8": 34,
      "mKitchen": {
        "mUnitZ.u8": 36,
        "mItemSaveParam": {
          "mItemNameParam.u64": 4295167155
        },
        "mUnitX.u8": 36,
        "mLayer.u8": 0
      },
      "mLifePoint.f32": 3.952327,
      "mHobbyPoint.f32": 5.588648,
      "mFtrList[]": [
        {
          "mUnitZ.u8": 36,
          "mItemSaveParam": {
            "mItemNameParam.u64": 17180002085
          },
          "mUnitX.u8": 26,
          "mLayer.u8": 0
        },
        {
          "mUnitZ.u8": 36,
          "mItemSaveParam": {
            "mItemNameParam.u64": 17180002085
          },
          "mUnitX.u8": 36,
          "mLayer.u8": 0
        },
        {
          "mUnitZ.u8": 26,
          "mItemSaveParam": {
            "mItemNameParam.u64": 5790
          },
          "mUnitX.u8": 34,
          "mLayer.u8": 0
        },
        {
          "mUnitZ.u8": 33,
          "mItemSaveParam": {
            "mItemNameParam.u64": 202398
          },
          "mUnitX.u8": 36,
          "mLayer.u8": 0
        },
        {
          "mUnitZ.u8": 33,
          "mItemSaveParam": {
            "mItemNameParam.u64": 8589938630
          },
          "mUnitX.u8": 26,
          "mLayer.u8": 0
        },
        {
          "mUnitZ.u8": 33,
          "mItemSaveParam": {
            "mItemNameParam.u64": 562958543425443
          },
          "mUnitX.u8": 26,
          "mLayer.u8": 1
        },
        {
          "mUnitZ.u8": 26,
          "mItemSaveParam": {
            "mItemNameParam.u64": 1631
          },
          "mUnitX.u8": 36,
          "mLayer.u8": 0
        },
        {
          "mUnitZ.u8": 26,
          "mItemSaveParam": {
            "mItemNameParam.u64": 4294967627
          },
          "mUnitX.u8": 28,
          "mLayer.u8": 0
        },
        {
          "mUnitZ.u8": 31,
          "mItemSaveParam": {
            "mItemNameParam.u64": 17180067418
          },
          "mUnitX.u8": 36,
          "mLayer.u8": 0
        },
        {
          "mUnitZ.u8": 31,
          "mItemSaveParam": {
            "mItemNameParam.u64": 17180067419
          },
          "mUnitX.u8": 34,
          "mLayer.u8": 0
        },
        {
          "mUnitZ.u8": 26,
          "mItemSaveParam": {
            "mItemNameParam.u64": 333
          },
          "mUnitX.u8": 26,
          "mLayer.u8": 0
        },
        {
          "mUnitZ.u8": 26,
          "mItemSaveParam": {
            "mItemNameParam.u64": 17179870809
          },
          "mUnitX.u8": 30,
          "mLayer.u8": 0
        },
        {
          "mUnitZ.u8": 31,
          "mItemSaveParam": {
            "mItemNameParam.u64": 416611960404
          },
          "mUnitX.u8": 26,
          "mLayer.u8": 0
        }
      ],
      "mFloor": {
        "mItemNameParam.u64": 5005
      },
      "mMusic": {
        "mItemNameParam.u64": 2481
      },
      "mCookingRangeWidth.u8": 4,
      "mFloorRotate.u8": 0,
      "mDIYRangeLUX.u8": 34,
      "mDIYRangeWidth.u8": 4
    }
  }
}