﻿{
  "version": 4,
  "rootNode": {
    "elp05": {
      "mCookingRangeLUZ.u8": 30,
      "mWall": {
        "mItemNameParam.u64": 4835
      },
      "mDIYWorkbench": {
        "mUnitZ.u8": 31,
        "mItemSaveParam": {
          "mItemNameParam.u64": 68658
        },
        "mUnitX.u8": 26,
        "mLayer.u8": 0
      },
      "mDIYRangeHeight.u8": 4,
      "mDIYRangeLUZ.u8": 30,
      "mCookingRangeHeight.u8": 4,
      "mCookingRangeLUX.u8": 26,
      "mKitchen": {
        "mUnitZ.u8": 30,
        "mItemSaveParam": {
          "mItemNameParam.u64": 69151
        },
        "mUnitX.u8": 26,
        "mLayer.u8": 0
      },
      "mLifePoint.f32": 19.937521,
      "mHobbyPoint.f32": 4.046576,
      "mFtrList[]": [
        {
          "mUnitZ.u8": 26,
          "mItemSaveParam": {
            "mItemNameParam.u64": 5790
          },
          "mUnitX.u8": 31,
          "mLayer.u8": 0
        },
        {
          "mUnitZ.u8": 30,
          "mItemSaveParam": {
            "mItemNameParam.u64": 71327
          },
          "mUnitX.u8": 26,
          "mLayer.u8": 0
        },
        {
          "mUnitZ.u8": 31,
          "mItemSaveParam": {
            "mItemNameParam.u64": 202398
          },
          "mUnitX.u8": 36,
          "mLayer.u8": 0
        },
        {
          "mUnitZ.u8": 26,
          "mItemSaveParam": {
            "mItemNameParam.u64": 1840
          },
          "mUnitX.u8": 34,
          "mLayer.u8": 0
        },
        {
          "mUnitZ.u8": 22,
          "mItemSaveParam": {
            "mItemNameParam.u64": 4130
          },
          "mUnitX.u8": 31,
          "mLayer.u8": 2
        },
        {
          "mUnitZ.u8": 28,
          "mItemSaveParam": {
            "mItemNameParam.u64": 824633920908
          },
          "mUnitX.u8": 31,
          "mLayer.u8": 0
        },
        {
          "mUnitZ.u8": 25,
          "mItemSaveParam": {
            "mItemNameParam.u64": 4017
          },
          "mUnitX.u8": 30,
          "mLayer.u8": 2
        },
        {
          "mUnitZ.u8": 25,
          "mItemSaveParam": {
            "mItemNameParam.u64": 4017
          },
          "mUnitX.u8": 32,
          "mLayer.u8": 2
        },
        {
          "mUnitZ.u8": 25,
          "mItemSaveParam": {
            "mItemNameParam.u64": 135102
          },
          "mUnitX.u8": 35,
          "mLayer.u8": 4
        },
        {
          "mUnitZ.u8": 36,
          "mItemSaveParam": {
            "mItemNameParam.u64": 7333
          },
          "mUnitX.u8": 30,
          "mLayer.u8": 6
        },
        {
          "mUnitZ.u8": 36,
          "mItemSaveParam": {
            "mItemNameParam.u64": 4295101144
          },
          "mUnitX.u8": 36,
          "mLayer.u8": 0
        },
        {
          "mUnitZ.u8": 36,
          "mItemSaveParam": {
            "mItemNameParam.u64": 21474971235
          },
          "mUnitX.u8": 26,
          "mLayer.u8": 0
        },
        {
          "mUnitZ.u8": 26,
          "mItemSaveParam": {
            "mItemNameParam.u64": 7153
          },
          "mUnitX.u8": 26,
          "mLayer.u8": 0
        },
        {
          "mUnitZ.u8": 36,
          "mItemSaveParam": {
            "mItemNameParam.u64": 4295167976
          },
          "mUnitX.u8": 34,
          "mLayer.u8": 0
        },
        {
          "mUnitZ.u8": 36,
          "mItemSaveParam": {
            "mItemNameParam.u64": 135118
          },
          "mUnitX.u8": 28,
          "mLayer.u8": 0
        },
        {
          "mUnitZ.u8": 36,
          "mItemSaveParam": {
            "mItemNameParam.u64": 8589938640
          },
          "mUnitX.u8": 28,
          "mLayer.u8": 1
        }
      ],
      "mFloor": {
        "mItemNameParam.u64": 6846
      },
      "mMusic": {
        "mItemNameParam.u64": 2462
      },
      "mCookingRangeWidth.u8": 4,
      "mFloorRotate.u8": 0,
      "mDIYRangeLUX.u8": 26,
      "mDIYRangeWidth.u8": 4
    }
  }
}