﻿{
  "version": 4,
  "rootNode": {
    "hip04": {
      "mCookingRangeLUZ.u8": 30,
      "mWall": {
        "mItemNameParam.u64": 5221
      },
      "mDIYWorkbench": {
        "mUnitZ.u8": 31,
        "mItemSaveParam": {
          "mItemNameParam.u64": 12885036903
        },
        "mUnitX.u8": 30,
        "mLayer.u8": 0
      },
      "mDIYRangeHeight.u8": 4,
      "mDIYRangeLUZ.u8": 29,
      "mCookingRangeHeight.u8": 4,
      "mCookingRangeLUX.u8": 26,
      "mKitchen": {
        "mUnitZ.u8": 32,
        "mItemSaveParam": {
          "mItemNameParam.u64": 8590003379
        },
        "mUnitX.u8": 26,
        "mLayer.u8": 0
      },
      "mLifePoint.f32": 3.096346,
      "mHobbyPoint.f32": 13.368986,
      "mFtrList[]": [
        {
          "mUnitZ.u8": 30,
          "mItemSaveParam": {
            "mItemNameParam.u64": 71327
          },
          "mUnitX.u8": 26,
          "mLayer.u8": 0
        },
        {
          "mUnitZ.u8": 26,
          "mItemSaveParam": {
            "mItemNameParam.u64": 8589938818
          },
          "mUnitX.u8": 30,
          "mLayer.u8": 0
        },
        {
          "mUnitZ.u8": 30,
          "mItemSaveParam": {
            "mItemNameParam.u64": 202398
          },
          "mUnitX.u8": 36,
          "mLayer.u8": 0
        },
        {
          "mUnitZ.u8": 32,
          "mItemSaveParam": {
            "mItemNameParam.u64": 202398
          },
          "mUnitX.u8": 36,
          "mLayer.u8": 0
        },
        {
          "mUnitZ.u8": 36,
          "mItemSaveParam": {
            "mItemNameParam.u64": 133082
          },
          "mUnitX.u8": 26,
          "mLayer.u8": 0
        },
        {
          "mUnitZ.u8": 26,
          "mItemSaveParam": {
            "mItemNameParam.u64": 9619
          },
          "mUnitX.u8": 26,
          "mLayer.u8": 0
        },
        {
          "mUnitZ.u8": 36,
          "mItemSaveParam": {
            "mItemNameParam.u64": 73190
          },
          "mUnitX.u8": 28,
          "mLayer.u8": 0
        },
        {
          "mUnitZ.u8": 26,
          "mItemSaveParam": {
            "mItemNameParam.u64": 283467845501
          },
          "mUnitX.u8": 28,
          "mLayer.u8": 0
        },
        {
          "mUnitZ.u8": 26,
          "mItemSaveParam": {
            "mItemNameParam.u64": 1185
          },
          "mUnitX.u8": 36,
          "mLayer.u8": 0
        },
        {
          "mUnitZ.u8": 36,
          "mItemSaveParam": {
            "mItemNameParam.u64": 21474970166
          },
          "mUnitX.u8": 34,
          "mLayer.u8": 0
        },
        {
          "mUnitZ.u8": 26,
          "mItemSaveParam": {
            "mItemNameParam.u64": 562954248389395
          },
          "mUnitX.u8": 34,
          "mLayer.u8": 0
        }
      ],
      "mFloor": {
        "mItemNameParam.u64": 4988
      },
      "mMusic": {
        "mItemNameParam.u64": 2435
      },
      "mCookingRangeWidth.u8": 4,
      "mFloorRotate.u8": 0,
      "mDIYRangeLUX.u8": 30,
      "mDIYRangeWidth.u8": 4
    }
  }
}