﻿{
  "version": 4,
  "rootNode": {
    "kgr10": {
      "mCookingRangeLUZ.u8": 26,
      "mWall": {
        "mItemNameParam.u64": 7274
      },
      "mDIYWorkbench": {
        "mUnitZ.u8": 36,
        "mItemSaveParam": {
          "mItemNameParam.u64": 17180001497
        },
        "mUnitX.u8": 26,
        "mLayer.u8": 0
      },
      "mDIYRangeHeight.u8": 4,
      "mDIYRangeLUZ.u8": 34,
      "mCookingRangeHeight.u8": 4,
      "mCookingRangeLUX.u8": 26,
      "mKitchen": {
        "mUnitZ.u8": 26,
        "mItemSaveParam": {
          "mItemNameParam.u64": 30064774688
        },
        "mUnitX.u8": 26,
        "mLayer.u8": 0
      },
      "mLifePoint.f32": 16.278542,
      "mHobbyPoint.f32": 9.496655,
      "mFtrList[]": [
        {
          "mUnitZ.u8": 26,
          "mItemSaveParam": {
            "mItemNameParam.u64": 5790
          },
          "mUnitX.u8": 32,
          "mLayer.u8": 0
        },
        {
          "mUnitZ.u8": 36,
          "mItemSaveParam": {
            "mItemNameParam.u64": 136862
          },
          "mUnitX.u8": 28,
          "mLayer.u8": 0
        },
        {
          "mUnitZ.u8": 31,
          "mItemSaveParam": {
            "mItemNameParam.u64": 4295105502
          },
          "mUnitX.u8": 26,
          "mLayer.u8": 0
        },
        {
          "mUnitZ.u8": 30,
          "mItemSaveParam": {
            "mItemNameParam.u64": 4294969856
          },
          "mUnitX.u8": 34,
          "mLayer.u8": 0
        },
        {
          "mUnitZ.u8": 34,
          "mItemSaveParam": {
            "mItemNameParam.u64": 7336
          },
          "mUnitX.u8": 26,
          "mLayer.u8": 6
        },
        {
          "mUnitZ.u8": 30,
          "mItemSaveParam": {
            "mItemNameParam.u64": 562949953425315
          },
          "mUnitX.u8": 36,
          "mLayer.u8": 1
        },
        {
          "mUnitZ.u8": 24,
          "mItemSaveParam": {
            "mItemNameParam.u64": 4295173469
          },
          "mUnitX.u8": 35,
          "mLayer.u8": 5
        },
        {
          "mUnitZ.u8": 36,
          "mItemSaveParam": {
            "mItemNameParam.u64": 8590065752
          },
          "mUnitX.u8": 26,
          "mLayer.u8": 0
        },
        {
          "mUnitZ.u8": 34,
          "mItemSaveParam": {
            "mItemNameParam.u64": 141734058972
          },
          "mUnitX.u8": 34,
          "mLayer.u8": 0
        },
        {
          "mUnitZ.u8": 31,
          "mItemSaveParam": {
            "mItemNameParam.u64": 141734120681
          },
          "mUnitX.u8": 30,
          "mLayer.u8": 0
        },
        {
          "mUnitZ.u8": 26,
          "mItemSaveParam": {
            "mItemNameParam.u64": 30064774688
          },
          "mUnitX.u8": 26,
          "mLayer.u8": 0
        },
        {
          "mUnitZ.u8": 26,
          "mItemSaveParam": {
            "mItemNameParam.u64": 137438961003
          },
          "mUnitX.u8": 36,
          "mLayer.u8": 0
        },
        {
          "mUnitZ.u8": 26,
          "mItemSaveParam": {
            "mItemNameParam.u64": 4294971405
          },
          "mUnitX.u8": 30,
          "mLayer.u8": 0
        },
        {
          "mUnitZ.u8": 24,
          "mItemSaveParam": {
            "mItemNameParam.u64": 3996
          },
          "mUnitX.u8": 35,
          "mLayer.u8": 2
        },
        {
          "mUnitZ.u8": 26,
          "mItemSaveParam": {
            "mItemNameParam.u64": 4294970036
          },
          "mUnitX.u8": 34,
          "mLayer.u8": 0
        },
        {
          "mUnitZ.u8": 28,
          "mItemSaveParam": {
            "mItemNameParam.u64": 9542
          },
          "mUnitX.u8": 26,
          "mLayer.u8": 6
        }
      ],
      "mFloor": {
        "mItemNameParam.u64": 5019
      },
      "mMusic": {
        "mItemNameParam.u64": 2413
      },
      "mCookingRangeWidth.u8": 4,
      "mFloorRotate.u8": 0,
      "mDIYRangeLUX.u8": 26,
      "mDIYRangeWidth.u8": 4
    }
  }
}