﻿{
  "version": 4,
  "rootNode": {
    "mus00": {
      "mCookingRangeLUZ.u8": 26,
      "mWall": {
        "mItemNameParam.u64": 5227
      },
      "mDIYWorkbench": {
        "mUnitZ.u8": 26,
        "mItemSaveParam": {
          "mItemNameParam.u64": 12884905831
        },
        "mUnitX.u8": 30,
        "mLayer.u8": 0
      },
      "mDIYRangeHeight.u8": 4,
      "mDIYRangeLUZ.u8": 26,
      "mCookingRangeHeight.u8": 4,
      "mCookingRangeLUX.u8": 26,
      "mKitchen": {
        "mUnitZ.u8": 26,
        "mItemSaveParam": {
          "mItemNameParam.u64": 717
        },
        "mUnitX.u8": 26,
        "mLayer.u8": 0
      },
      "mLifePoint.f32": 9.29808,
      "mHobbyPoint.f32": 11.043455,
      "mFtrList[]": [
        {
          "mUnitZ.u8": 36,
          "mItemSaveParam": {
            "mItemNameParam.u64": 136862
          },
          "mUnitX.u8": 34,
          "mLayer.u8": 0
        },
        {
          "mUnitZ.u8": 26,
          "mItemSaveParam": {
            "mItemNameParam.u64": 5791
          },
          "mUnitX.u8": 30,
          "mLayer.u8": 0
        },
        {
          "mUnitZ.u8": 26,
          "mItemSaveParam": {
            "mItemNameParam.u64": 717
          },
          "mUnitX.u8": 26,
          "mLayer.u8": 0
        },
        {
          "mUnitZ.u8": 36,
          "mItemSaveParam": {
            "mItemNameParam.u64": 562954248530423
          },
          "mUnitX.u8": 26,
          "mLayer.u8": 0
        },
        {
          "mUnitZ.u8": 30,
          "mItemSaveParam": {
            "mItemNameParam.u64": 131811
          },
          "mUnitX.u8": 30,
          "mLayer.u8": 0
        },
        {
          "mUnitZ.u8": 28,
          "mItemSaveParam": {
            "mItemNameParam.u64": 137439153310
          },
          "mUnitX.u8": 36,
          "mLayer.u8": 0
        },
        {
          "mUnitZ.u8": 26,
          "mItemSaveParam": {
            "mItemNameParam.u64": 8589938149
          },
          "mUnitX.u8": 36,
          "mLayer.u8": 0
        },
        {
          "mUnitZ.u8": 36,
          "mItemSaveParam": {
            "mItemNameParam.u64": 549755952008
          },
          "mUnitX.u8": 36,
          "mLayer.u8": 0
        },
        {
          "mUnitZ.u8": 31,
          "mItemSaveParam": {
            "mItemNameParam.u64": 549755886471
          },
          "mUnitX.u8": 28,
          "mLayer.u8": 0
        },
        {
          "mUnitZ.u8": 36,
          "mItemSaveParam": {
            "mItemNameParam.u64": 8590076406
          },
          "mUnitX.u8": 28,
          "mLayer.u8": 0
        },
        {
          "mUnitZ.u8": 36,
          "mItemSaveParam": {
            "mItemNameParam.u64": 69090
          },
          "mUnitX.u8": 28,
          "mLayer.u8": 1
        },
        {
          "mUnitZ.u8": 24,
          "mItemSaveParam": {
            "mItemNameParam.u64": 137438960754
          },
          "mUnitX.u8": 35,
          "mLayer.u8": 2
        }
      ],
      "mFloor": {
        "mItemNameParam.u64": 4977
      },
      "mMusic": {
        "mItemNameParam.u64": 2422
      },
      "mCookingRangeWidth.u8": 4,
      "mFloorRotate.u8": 0,
      "mDIYRangeLUX.u8": 30,
      "mDIYRangeWidth.u8": 4
    }
  }
}