﻿{
  "version": 4,
  "rootNode": {
    "ost10": {
      "mCookingRangeLUZ.u8": 34,
      "mWall": {
        "mItemNameParam.u64": 5506
      },
      "mDIYWorkbench": {
        "mUnitZ.u8": 35,
        "mItemSaveParam": {
          "mItemNameParam.u64": 72678
        },
        "mUnitX.u8": 26,
        "mLayer.u8": 0
      },
      "mDIYRangeHeight.u8": 4,
      "mDIYRangeLUZ.u8": 34,
      "mCookingRangeHeight.u8": 4,
      "mCookingRangeLUX.u8": 26,
      "mKitchen": {
        "mUnitZ.u8": 34,
        "mItemSaveParam": {
          "mItemNameParam.u64": 66253
        },
        "mUnitX.u8": 26,
        "mLayer.u8": 0
      },
      "mLifePoint.f32": 4.822093,
      "mHobbyPoint.f32": 10.040205,
      "mFtrList[]": [
        {
          "mUnitZ.u8": 26,
          "mItemSaveParam": {
            "mItemNameParam.u64": 1430
          },
          "mUnitX.u8": 34,
          "mLayer.u8": 0
        },
        {
          "mUnitZ.u8": 26,
          "mItemSaveParam": {
            "mItemNameParam.u64": 5790
          },
          "mUnitX.u8": 29,
          "mLayer.u8": 0
        },
        {
          "mUnitZ.u8": 35,
          "mItemSaveParam": {
            "mItemNameParam.u64": 72678
          },
          "mUnitX.u8": 26,
          "mLayer.u8": 0
        },
        {
          "mUnitZ.u8": 26,
          "mItemSaveParam": {
            "mItemNameParam.u64": 343
          },
          "mUnitX.u8": 26,
          "mLayer.u8": 0
        },
        {
          "mUnitZ.u8": 29,
          "mItemSaveParam": {
            "mItemNameParam.u64": 71327
          },
          "mUnitX.u8": 26,
          "mLayer.u8": 0
        },
        {
          "mUnitZ.u8": 36,
          "mItemSaveParam": {
            "mItemNameParam.u64": 8590069745
          },
          "mUnitX.u8": 34,
          "mLayer.u8": 0
        },
        {
          "mUnitZ.u8": 26,
          "mItemSaveParam": {
            "mItemNameParam.u64": 4038
          },
          "mUnitX.u8": 31,
          "mLayer.u8": 0
        },
        {
          "mUnitZ.u8": 26,
          "mItemSaveParam": {
            "mItemNameParam.u64": 562962838327203
          },
          "mUnitX.u8": 31,
          "mLayer.u8": 1
        },
        {
          "mUnitZ.u8": 32,
          "mItemSaveParam": {
            "mItemNameParam.u64": 135114
          },
          "mUnitX.u8": 34,
          "mLayer.u8": 0
        },
        {
          "mUnitZ.u8": 32,
          "mItemSaveParam": {
            "mItemNameParam.u64": 8589936462
          },
          "mUnitX.u8": 36,
          "mLayer.u8": 1
        }
      ],
      "mFloor": {
        "mItemNameParam.u64": 5274
      },
      "mMusic": {
        "mItemNameParam.u64": 2490
      },
      "mCookingRangeWidth.u8": 4,
      "mFloorRotate.u8": 0,
      "mDIYRangeLUX.u8": 26,
      "mDIYRangeWidth.u8": 4
    }
  }
}