﻿{
  "version": 4,
  "rootNode": {
    "squ02": {
      "mCookingRangeLUZ.u8": 26,
      "mWall": {
        "mItemNameParam.u64": 5500
      },
      "mDIYWorkbench": {
        "mUnitZ.u8": 26,
        "mItemSaveParam": {
          "mItemNameParam.u64": 25769806898
        },
        "mUnitX.u8": 36,
        "mLayer.u8": 0
      },
      "mDIYRangeHeight.u8": 4,
      "mDIYRangeLUZ.u8": 26,
      "mCookingRangeHeight.u8": 4,
      "mCookingRangeLUX.u8": 34,
      "mKitchen": {
        "mUnitZ.u8": 26,
        "mItemSaveParam": {
          "mItemNameParam.u64": 12884905139
        },
        "mUnitX.u8": 36,
        "mLayer.u8": 0
      },
      "mLifePoint.f32": 22.3188,
      "mHobbyPoint.f32": 34.5004,
      "mFtrList[]": [
        {
          "mUnitZ.u8": 26,
          "mItemSaveParam": {
            "mItemNameParam.u64": 5790
          },
          "mUnitX.u8": 28,
          "mLayer.u8": 0
        },
        {
          "mUnitZ.u8": 26,
          "mItemSaveParam": {
            "mItemNameParam.u64": 25769806898
          },
          "mUnitX.u8": 36,
          "mLayer.u8": 0
        },
        {
          "mUnitZ.u8": 30,
          "mItemSaveParam": {
            "mItemNameParam.u64": 202399
          },
          "mUnitX.u8": 36,
          "mLayer.u8": 0
        },
        {
          "mUnitZ.u8": 36,
          "mItemSaveParam": {
            "mItemNameParam.u64": 6829
          },
          "mUnitX.u8": 34,
          "mLayer.u8": 0
        },
        {
          "mUnitZ.u8": 26,
          "mItemSaveParam": {
            "mItemNameParam.u64": 17179873945
          },
          "mUnitX.u8": 31,
          "mLayer.u8": 0
        },
        {
          "mUnitZ.u8": 28,
          "mItemSaveParam": {
            "mItemNameParam.u64": 300647909933
          },
          "mUnitX.u8": 26,
          "mLayer.u8": 0
        },
        {
          "mUnitZ.u8": 36,
          "mItemSaveParam": {
            "mItemNameParam.u64": 12885038503
          },
          "mUnitX.u8": 26,
          "mLayer.u8": 0
        },
        {
          "mUnitZ.u8": 36,
          "mItemSaveParam": {
            "mItemNameParam.u64": 8590069287
          },
          "mUnitX.u8": 26,
          "mLayer.u8": 1
        },
        {
          "mUnitZ.u8": 23,
          "mItemSaveParam": {
            "mItemNameParam.u64": 6827
          },
          "mUnitX.u8": 26,
          "mLayer.u8": 2
        },
        {
          "mUnitZ.u8": 26,
          "mItemSaveParam": {
            "mItemNameParam.u64": 25769810909
          },
          "mUnitX.u8": 26,
          "mLayer.u8": 0
        },
        {
          "mUnitZ.u8": 26,
          "mItemSaveParam": {
            "mItemNameParam.u64": 7253
          },
          "mUnitX.u8": 26,
          "mLayer.u8": 1
        },
        {
          "mUnitZ.u8": 23,
          "mItemSaveParam": {
            "mItemNameParam.u64": 6827
          },
          "mUnitX.u8": 30,
          "mLayer.u8": 2
        },
        {
          "mUnitZ.u8": 36,
          "mItemSaveParam": {
            "mItemNameParam.u64": 203434
          },
          "mUnitX.u8": 28,
          "mLayer.u8": 0
        },
        {
          "mUnitZ.u8": 26,
          "mItemSaveParam": {
            "mItemNameParam.u64": 25769807214
          },
          "mUnitX.u8": 34,
          "mLayer.u8": 0
        },
        {
          "mUnitZ.u8": 25,
          "mItemSaveParam": {
            "mItemNameParam.u64": 12884905472
          },
          "mUnitX.u8": 34,
          "mLayer.u8": 2
        },
        {
          "mUnitZ.u8": 26,
          "mItemSaveParam": {
            "mItemNameParam.u64": 562954248392611
          },
          "mUnitX.u8": 34,
          "mLayer.u8": 1
        },
        {
          "mUnitZ.u8": 34,
          "mItemSaveParam": {
            "mItemNameParam.u64": 438086671325
          },
          "mUnitX.u8": 26,
          "mLayer.u8": 0
        },
        {
          "mUnitZ.u8": 31,
          "mItemSaveParam": {
            "mItemNameParam.u64": 25769810910
          },
          "mUnitX.u8": 30,
          "mLayer.u8": 0
        },
        {
          "mUnitZ.u8": 34,
          "mItemSaveParam": {
            "mItemNameParam.u64": 71316
          },
          "mUnitX.u8": 26,
          "mLayer.u8": 1
        },
        {
          "mUnitZ.u8": 23,
          "mItemSaveParam": {
            "mItemNameParam.u64": 6827
          },
          "mUnitX.u8": 34,
          "mLayer.u8": 2
        },
        {
          "mUnitZ.u8": 31,
          "mItemSaveParam": {
            "mItemNameParam.u64": 7258
          },
          "mUnitX.u8": 31,
          "mLayer.u8": 1
        }
      ],
      "mFloor": {
        "mItemNameParam.u64": 5028
      },
      "mMusic": {
        "mItemNameParam.u64": 2475
      },
      "mCookingRangeWidth.u8": 4,
      "mFloorRotate.u8": 0,
      "mDIYRangeLUX.u8": 34,
      "mDIYRangeWidth.u8": 4
    }
  }
}