﻿[
  {
    "label": "101",
    "attribute": "0x00000013",
    "text": "{{anim id=\"Smiling\" target=\"actor\" targetSpec=\"\"}}Ar,{{delay8}} ¡hola!{{delay20}} {{color id=\"3\"}}{{string value=\"VillagerName\"}}{{color id=\"65535\"}} al habla.{{pageBreak}}{{anim id=\"QuestionMark\" target=\"actor\" targetSpec=\"\"}}¿Quién llama,{{delay8}} por favor?{{delay20}}\n¿Una{{string value=\"...\"}}{{delay8}} {{anim id=\"Shocked\" target=\"actor\" targetSpec=\"\"}}casa de vacaciones?{{pageBreak}}{{anim id=\"Thinking\" target=\"actor\" targetSpec=\"\"}}Muy grande tiene que ser,{{delay8}} porque\nsería para el {{color id=\"3\"}}Capitán{{color id=\"65535\"}},{{delay8}} su madre\n{{color id=\"3\"}}Rosauria{{color id=\"65535\"}}, nuestra {{color id=\"3\"}}Conchita{{color id=\"65535\"}} y yo{{string value=\"...\"}}\n{{anim id=\"Aha\" target=\"actor\" targetSpec=\"\"}}¿Sí?{{delay20}} ¡Pues cuéntame más!{{delay20}}\n{{anim id=\"FaintSmile\" target=\"actor\" targetSpec=\"\"}}Agárrense,{{delay8}} que voy para allá.{{delay20}}\n{{anim id=\"Cheering\" target=\"actor\" targetSpec=\"\"}}¡Al abordajeee!"
  }
]