﻿[
  {
    "label": "001",
    "text": "Écoute un peu, {{string value=\"NickName\"}}..."
  },
  {
    "label": "002",
    "text": "{{gender2 m=\"Mon cher\" f=\"Ma chère\"}} {{string value=\"NickName\"}},"
  },
  {
    "label": "003",
    "text": "{{capitalizeNextLetter}}{{string value=\"NickName\"}}, {{gender2 m=\"mon cher ami\" f=\"ma chère amie\"}},"
  },
  {
    "label": "004",
    "text": "{{gender2 m=\"Mon très cher\" f=\"Ma très chère\"}} {{string value=\"NickName\"}},"
  },
  {
    "label": "005",
    "text": "{{capitalizeNextLetter}}{{string value=\"NickName\"}}, {{gender2 m=\"merveilleux ami\" f=\"merveilleuse amie\"}},"
  },
  {
    "label": "006",
    "text": "{{gender2 m=\"Cher\" f=\"Chère\"}} {{string value=\"NickName\"}},"
  },
  {
    "label": "101",
    "text": "Le message que tu m'as envoyé\nm'est allé droit au cœur...\nT'imaginer consacrer tout ton\ntemps et tes soins à m'écrire ces\nmots... Mon cadeau représente\npeu de choses en comparaison."
  },
  {
    "label": "102",
    "text": "J'ai entièrement lu ta carte, et on\nsent que tu y as mis tout ton cœur.\nEn la parcourant, j'ai compris que\nje devais moi aussi exprimer mes\nsentiments davantage. Et je\ncommence par ce petit cadeau !"
  },
  {
    "label": "103",
    "text": "Merci pour ta longue carte de fan\net pour le petit cadeau qui\nl'accompagnait ! Comme t'es pas\nl{{gender2 m=\"e\" f=\"a\"}} seul{{gender2 m=\"\" f=\"e\"}} à avoir le cœur sur la\npatte, je te renvoie l'ascenseur.\nJ'espère que ça te fait plaisir !"
  },
  {
    "label": "104",
    "text": "J'arrête pas de relire ta carte,\nelle regorge de trouvailles et de\ngentillesse ! J'espère que celle-ci\nte titillera le cœur et le ciboulot\nau moins autant !"
  },
  {
    "label": "105",
    "text": "En lisant ton message, j'ai senti\nun torrent de joie déferler en moi.\nT'es un{{gender2 m=\"\" f=\"e\"}} vrai{{gender2 m=\"\" f=\"e\"}} hydromancien{{gender2 m=\"\" f=\"ne\"}} du\nbonheur, et je pèse mes mots !\nTa carte, je l'ai mise sous verre et\nje la relis dès que j'ai le cafard !"
  },
  {
    "label": "106",
    "text": "Ton message était écrit avec le\ncœur, alors moi, c'est avec le cœur\nque je l'ai lu ! Merci d'avoir pris le\ntemps de partager tes émotions,\nça m'a donné envie d'en faire\nautant... J'espère que t'apprécies !"
  },
  {
    "label": "201",
    "text": "En toute gratitude, {{string value=\"VillagerName\"}}"
  },
  {
    "label": "202",
    "text": "Encore merci, {{string value=\"VillagerName\"}}"
  },
  {
    "label": "203",
    "text": "Amicalement, {{string value=\"VillagerName\"}}"
  },
  {
    "label": "204",
    "text": "En toute amitié, {{string value=\"VillagerName\"}}"
  },
  {
    "label": "205",
    "text": "{{string value=\"VillagerName\"}}, ton ami admiratif"
  },
  {
    "label": "206",
    "text": "En toute humblitude, {{string value=\"VillagerName\"}}"
  }
]