﻿[
  {
    "label": "0101",
    "text": "{{fun_00000096 arg=\"0x00CD\"}}"
  },
  {
    "label": "0201",
    "text": "{{selection value=\"10\"}}"
  },
  {
    "label": "0202",
    "text": "{{selection value=\"10\"}}＆{{selection value=\"10\"}}"
  },
  {
    "label": "0203",
    "text": "{{fun_00010096 arg=\"0x00CD\"}}"
  },
  {
    "label": "0204",
    "text": "{{fun_00090096 arg=\"0x00CD\"}}さま"
  },
  {
    "label": "0401",
    "text": "{{selection value=\"SelectedVillager\"}}"
  }
]