﻿[
  {
    "label": "1055",
    "text": "奶嘴"
  },
  {
    "label": "1137",
    "text": "凱絲墨鏡"
  },
  {
    "label": "1148",
    "text": "Nook Inc.眼罩"
  },
  {
    "label": "1182",
    "text": "DAL眼罩"
  },
  {
    "label": "1183",
    "text": "DAL墨鏡"
  },
  {
    "label": "1225",
    "text": "海盜眼罩"
  },
  {
    "label": "1226",
    "text": "海盜鬍子"
  },
  {
    "label": "1248",
    "text": "百褶口罩"
  },
  {
    "label": "1251",
    "text": "塞鼻孔的面紙捲"
  },
  {
    "label": "1254",
    "text": "眼睛紗布"
  },
  {
    "label": "1271",
    "text": "動物鼻子道具"
  },
  {
    "label": "1300",
    "text": "Nook Inc.潛水鏡附呼吸管"
  },
  {
    "label": "1311",
    "text": "向日葵墨鏡"
  },
  {
    "label": "1324",
    "text": "瑪利歐鬍子"
  },
  {
    "label": "1325",
    "text": "路易吉鬍子"
  },
  {
    "label": "1326",
    "text": "瓦利歐鬍子"
  },
  {
    "label": "1354",
    "text": "三葉草墨鏡"
  },
  {
    "label": "1356",
    "text": "塞兩邊鼻孔的面紙捲"
  },
  {
    "label": "1369",
    "text": "圓形粗框眼鏡"
  },
  {
    "label": "1391",
    "text": "方形眉框眼鏡"
  },
  {
    "label": "1438",
    "text": "螢光色墨鏡"
  },
  {
    "label": "1447",
    "text": "威尼斯嘉年華面具"
  },
  {
    "label": "1461",
    "text": "簡約墨鏡"
  },
  {
    "label": "1489",
    "text": "非常搞笑眼鏡"
  },
  {
    "label": "184",
    "text": "鴨嘴道具"
  },
  {
    "label": "185",
    "text": "八字翹鬍"
  },
  {
    "label": "257",
    "text": "圓框眼鏡"
  },
  {
    "label": "258",
    "text": "方框眼鏡"
  },
  {
    "label": "259",
    "text": "愛心墨鏡"
  },
  {
    "label": "260",
    "text": "眉框眼鏡"
  },
  {
    "label": "261",
    "text": "八角形眼鏡"
  },
  {
    "label": "262",
    "text": "星形墨鏡"
  },
  {
    "label": "263",
    "text": "波士頓框眼鏡"
  },
  {
    "label": "264",
    "text": "三角形墨鏡"
  },
  {
    "label": "277",
    "text": "雙樑眼鏡"
  },
  {
    "label": "286",
    "text": "瓶底眼鏡"
  },
  {
    "label": "315",
    "text": "有裂痕的眼鏡"
  },
  {
    "label": "358",
    "text": "眼罩"
  },
  {
    "label": "375",
    "text": "口罩"
  },
  {
    "label": "376",
    "text": "醫療眼罩"
  },
  {
    "label": "377",
    "text": "滑雪風鏡"
  },
  {
    "label": "378",
    "text": "泳鏡"
  },
  {
    "label": "379",
    "text": "復古墨鏡"
  },
  {
    "label": "380",
    "text": "單眼眼罩"
  },
  {
    "label": "381",
    "text": "運動墨鏡"
  },
  {
    "label": "382",
    "text": "飛行員墨鏡"
  },
  {
    "label": "383",
    "text": "琥珀眼鏡"
  },
  {
    "label": "384",
    "text": "迷你墨鏡"
  },
  {
    "label": "385",
    "text": "單片眼鏡"
  },
  {
    "label": "386",
    "text": "3D眼鏡"
  },
  {
    "label": "387",
    "text": "百葉窗墨鏡"
  },
  {
    "label": "397",
    "text": "貓鼻子道具"
  },
  {
    "label": "405",
    "text": "小黃瓜面膜"
  },
  {
    "label": "406",
    "text": "聖誕老人鬍子"
  },
  {
    "label": "407",
    "text": "鼻子道具"
  },
  {
    "label": "408",
    "text": "鬍子眼鏡"
  },
  {
    "label": "415",
    "text": "生日墨鏡"
  },
  {
    "label": "417",
    "text": "面膜"
  },
  {
    "label": "418",
    "text": "搞笑眼鏡"
  },
  {
    "label": "432",
    "text": "潛水鏡附呼吸管"
  },
  {
    "label": "433",
    "text": "太空墨鏡"
  },
  {
    "label": "441",
    "text": "舞會面具"
  },
  {
    "label": "463",
    "text": "下半框眼鏡"
  },
  {
    "label": "466",
    "text": "兔鼻子道具"
  },
  {
    "label": "473",
    "text": "圓形墨鏡"
  },
  {
    "label": "474",
    "text": "蝴蝶框墨鏡"
  },
  {
    "label": "475",
    "text": "橢圓形眼鏡"
  },
  {
    "label": "484",
    "text": "像素墨鏡"
  },
  {
    "label": "485",
    "text": "豬鼻子道具"
  },
  {
    "label": "487",
    "text": "防毒面具"
  },
  {
    "label": "489",
    "text": "飯粒"
  },
  {
    "label": "494",
    "text": "威尼斯面具"
  },
  {
    "label": "496",
    "text": "木框眼鏡"
  },
  {
    "label": "497",
    "text": "黑色口罩"
  },
  {
    "label": "498",
    "text": "翹鬍子"
  },
  {
    "label": "502",
    "text": "山羊鬍"
  },
  {
    "label": "503",
    "text": "絆創帶"
  },
  {
    "label": "504",
    "text": "小丑面具"
  },
  {
    "label": "505",
    "text": "絡腮鬍"
  },
  {
    "label": "508",
    "text": "葉子"
  },
  {
    "label": "509",
    "text": "水鑽眼鏡"
  },
  {
    "label": "510",
    "text": "英雄面具"
  },
  {
    "label": "511",
    "text": "蒸汽龐克護目鏡"
  },
  {
    "label": "614",
    "text": "虛擬實境頭戴式顯示器"
  },
  {
    "label": "615",
    "text": "夜視鏡"
  },
  {
    "label": "630",
    "text": "小狗鼻子道具"
  },
  {
    "label": "819",
    "text": "骷髏糖面具"
  },
  {
    "label": "856",
    "text": "泡泡口香糖"
  },
  {
    "label": "857",
    "text": "花朵墨鏡"
  },
  {
    "label": "865",
    "text": "吸管眼鏡"
  },
  {
    "label": "899",
    "text": "鼻水"
  },
  {
    "label": "904",
    "text": "沾到嘴邊的東西"
  },
  {
    "label": "921",
    "text": "反射鏡"
  },
  {
    "label": "922",
    "text": "皮面具"
  },
  {
    "label": "937",
    "text": "化裝舞會面具"
  }
]