﻿[
  {
    "label": "001",
    "attribute": "0x00000000",
    "text": "{{fun_0014003C arg=\"\"}}"
  },
  {
    "label": "001_01",
    "attribute": "0x00000000",
    "text": "{{anim id=\"FaintSmile\" target=\"actor\" targetSpec=\"\"}}안녕하세요{{delay8}}\n오늘은 초대해주셔서 감사합니다"
  },
  {
    "label": "002",
    "attribute": "0x00000000",
    "text": "{{fun_0014003C arg=\"\"}}"
  },
  {
    "label": "002_01",
    "attribute": "0x00000000",
    "text": "{{anim id=\"FaintSmile\" target=\"actor\" targetSpec=\"\"}}또 저를 불러주셨다면서요?{{delay8}}\n아직 할 이야기가 남으셨나 봐요"
  },
  {
    "label": "003",
    "attribute": "0x00000000",
    "text": "{{fun_0014003C arg=\"\"}}"
  },
  {
    "label": "003_01",
    "attribute": "0x00000000",
    "text": ""
  },
  {
    "label": "101",
    "attribute": "0x00000000",
    "text": "{{fun_0014003C arg=\"\"}}"
  },
  {
    "label": "101_01",
    "attribute": "0x00000000",
    "text": "멋진 꿈을 제공하는 입장에서는{{delay8}}\n하루에 섭취하는 카페인의 양을\n적당히 조절하시는 걸 추천드려요{{pageBreak}}{{anim id=\"Smiling\" target=\"actor\" targetSpec=\"\"}}뭐,{{delay8}} 카페인뿐만 아니라\n뭐든 적당히가 중요하지만요{{i10_4}}\n{{anim id=\"Nodding\" target=\"actor\" targetSpec=\"\"}}너무 오래 자는 것도 좋지 않으니까요{{anim id=\"EmotEnd\" target=\"actor\" targetSpec=\"\"}}"
  },
  {
    "label": "101_02",
    "attribute": "0x00000000",
    "text": "이 가게에는\n{{anim id=\"Nodding\" target=\"actor\" targetSpec=\"\"}}디카페인 커피도 준비되어 있군요{{anim id=\"EmotEnd\" target=\"actor\" targetSpec=\"\"}}{{i10_4}}\n{{anim id=\"Smiling\" target=\"actor\" targetSpec=\"\"}}고마운 일이네요"
  },
  {
    "label": "101_03",
    "attribute": "0x00000000",
    "text": "저는 직업상{{delay8}}\n여러분이 주무시는 모습을\n볼 때가 많거든요{{pageBreak}}{{anim id=\"Smiling\" target=\"actor\" targetSpec=\"\"}}이렇게 얼굴을 맞대고 이야기를 하니{{delay20}}\n왠지 신선하고 기쁘네요"
  },
  {
    "label": "101_04",
    "attribute": "0x00000000",
    "text": "잠을 깨우려 마시는 커피가 맛있으면{{delay8}}\n왠지 그날 하루를 행복하게\n보낼 수 있을 것 같은 느낌이 들지 않나요?{{pageBreak}}{{anim id=\"Smiling\" target=\"actor\" targetSpec=\"\"}}잠들어 있는 시간뿐만 아니라{{delay8}}\n자기 전이나 일어날 때의 루틴을 잘 만드는 것도\n행복한 하루를 보내는 요령이겠지요"
  },
  {
    "label": "101_05",
    "attribute": "0x00000000",
    "text": "{{anim id=\"Smiling\" target=\"actor\" targetSpec=\"\"}}커피 향기를 맡으면 왠지\n몸과 마음이 릴랙스되는 것 같아서{{delay8}}\n저는 참 좋아한답니다"
  }
]