﻿[
  {
    "label": "001",
    "attribute": "0x00000000",
    "text": "{{fun_0014003C arg=\"\"}}"
  },
  {
    "label": "001_01",
    "attribute": "0x00000000",
    "text": ""
  },
  {
    "label": "002",
    "attribute": "0x00000000",
    "text": "{{fun_0014003C arg=\"\"}}"
  },
  {
    "label": "002_01",
    "attribute": "0x00000000",
    "text": ""
  },
  {
    "label": "003",
    "attribute": "0x00000000",
    "text": "{{fun_0014003C arg=\"\"}}"
  },
  {
    "label": "003_01",
    "attribute": "0x00000000",
    "text": "{{anim id=\"Smiling\" target=\"4\" targetSpec=\"N1\"}}{{anim id=\"Smiling\" target=\"4\" targetSpec=\"N2\"}}저희도 {{delay8}}같이 따라왔습니다－! {{fun_00040064 arg=\"\"}}{{delay8}}{{size value=\"75\"}}따라왔습니다－!{{size value=\"100\"}}{{endTag}}"
  },
  {
    "label": "101",
    "attribute": "0x00000000",
    "text": "{{fun_0014003C arg=\"\"}}"
  },
  {
    "label": "101_01",
    "attribute": "0x00000000",
    "text": "{{anim id=\"Smiling\" target=\"4\" targetSpec=\"N1\"}}{{color id=\"3\"}}너굴{{color id=\"65535\"}} 사장님의 어드바이스는{{delay8}}\n언제나 {{anim id=\"Nodding\" target=\"4\" targetSpec=\"N2\"}}정확해서 {{delay20}}큰 힘이 됩니다－! {{anim id=\"Smiling\" target=\"4\" targetSpec=\"N2\"}}{{fun_00040064 arg=\"\"}}{{delay8}}{{size value=\"75\"}}됩니다－!{{size value=\"100\"}}{{endTag}}"
  },
  {
    "label": "101_02",
    "attribute": "0x00000000",
    "text": "{{anim id=\"ShyBoy\" target=\"4\" targetSpec=\"N1\"}}{{anim id=\"ShyBoy\" target=\"4\" targetSpec=\"N2\"}}언제까지고 사장님의 도움을 바랄 수는 없으니{{delay20}}\n자립심을 기르자며 다짐을 하고는 합니다만{{string value=\"...\"}}{{pageBreak}}{{anim id=\"Blushing\" target=\"4\" targetSpec=\"N1\"}}{{anim id=\"Nodding\" target=\"4\" targetSpec=\"N2\"}}내심 앞으로도 쭉 사장님의\n뒤를 좇고 싶다는 {{anim id=\"Smiling\" target=\"4\" targetSpec=\"N2\"}}마음도 {{delay8}}있답니다－! {{fun_00040064 arg=\"\"}}{{delay8}}{{size value=\"75\"}}있답니다－!{{size value=\"100\"}}{{endTag}}"
  },
  {
    "label": "101_03",
    "attribute": "0x00000000",
    "text": "{{color id=\"3\"}}너굴{{color id=\"65535\"}} 사장님도 {{delay8}}혼자이고 싶을 때가\n있으실 텐데,{{delay20}} {{anim id=\"Nodding\" target=\"4\" targetSpec=\"N1\"}}{{anim id=\"Nodding\" target=\"4\" targetSpec=\"N2\"}}늘 이렇게 저희를\n데리고 와주신답니다－! {{anim id=\"Smiling\" target=\"4\" targetSpec=\"N1\"}}{{anim id=\"Smiling\" target=\"4\" targetSpec=\"N2\"}}{{fun_00040064 arg=\"\"}}{{delay8}}{{size value=\"75\"}}답니다－!{{size value=\"100\"}}{{endTag}}"
  },
  {
    "label": "101_04",
    "attribute": "0x00000000",
    "text": "{{color id=\"3\"}}너굴{{color id=\"65535\"}} 사장님은\n언제나 저희에게{{delay8}} 커피를 사주신답니다{{pageBreak}}{{anim id=\"Smiling\" target=\"4\" targetSpec=\"N1\"}}{{anim id=\"Smiling\" target=\"4\" targetSpec=\"N2\"}}하지만 {{delay20}}열심히 노력하다보면\n언젠가 저희가 사장님께{{delay20}}\n커피를 대접하게 될 날이 오겠죠－! {{fun_00040064 arg=\"\"}}{{delay8}}{{size value=\"75\"}}오겠죠－!{{size value=\"100\"}}{{endTag}}"
  },
  {
    "label": "101_05",
    "attribute": "0x00000000",
    "text": "{{anim id=\"Nodding\" target=\"4\" targetSpec=\"N1\"}}{{anim id=\"Nodding\" target=\"4\" targetSpec=\"N2\"}}둘이서도 자주 사업 이야기를 하곤 합니다만{{delay20}}\n{{anim id=\"Smiling\" target=\"4\" targetSpec=\"N1\"}}{{anim id=\"Smiling\" target=\"4\" targetSpec=\"N2\"}}사장님이 함께해주시면 {{delay8}}평소와는 다르게\n아이디어가 퐁퐁 샘솟는답니다－! {{fun_00040064 arg=\"\"}}{{delay8}}{{size value=\"75\"}}샘솟는답니다－!{{size value=\"100\"}}{{endTag}}"
  }
]