﻿[
  {
    "label": "030",
    "attribute": "0x00000000",
    "text": "{{anim id=\"Eh\" target=\"actor\" targetSpec=\"\"}}Ah, {{string value=\"PlayerName\"}} !{{delay frames=\"30\"}} {{anim id=\"Smiling\" target=\"actor\" targetSpec=\"\"}}Tu tombes à merveille !{{pageBreak}}{{anim id=\"QuestionMark\" target=\"actor\" targetSpec=\"\"}}Peux-tu sortir ton NookPhone ? J'ai\nune nouvelle appli à te faire\ndécouvrir !"
  },
  {
    "label": "031",
    "attribute": "0x00000000",
    "text": "{{anim id=\"Hello\" target=\"actor\" targetSpec=\"\"}}Génial !{{pageBreak}}{{anim id=\"Explain\" target=\"actor\" targetSpec=\"\"}}Il s'agit de l'appli {{color id=\"1\"}}Joyeux décorateur{{color id=\"65535\"}},{{delay8}}\nqui te permet de créer des intérieurs\nquand tu veux !{{pageBreak}}{{anim id=\"FaintSmile\" target=\"actor\" targetSpec=\"\"}}Personnellement,{{delay8}} je m'en sers tout le\ntemps ! C'est un excellent outil pour\nplanifier des décorations d'intérieur.{{pageBreak}}{{anim id=\"Nodding\" target=\"actor\" targetSpec=\"\"}}Tu devrais l'essayer.{{delay20}}{{anim id=\"FaintSmile\" target=\"actor\" targetSpec=\"\"}} Tu pourras y\ndévelopper toutes les idées qui te\npassent par la tête !{{pageBreak}}{{anim id=\"Eh\" target=\"actor\" targetSpec=\"\"}}Oh, et bien sûr{{string value=\"...\"}}{{delay20}}{{anim id=\"Nodding\" target=\"actor\" targetSpec=\"\"}} Tu peux t'en servir\npour préparer la décoration des\nmaisons de vacances de nos clients !{{pageBreak}}{{anim id=\"Smiling\" target=\"actor\" targetSpec=\"\"}}Cette appli te sera très utile,{{delay20}} fais-en\nbon usage !"
  },
  {
    "label": "041_01",
    "attribute": "0x00000000",
    "text": "{{anim id=\"FaintSmile\" target=\"actor\" targetSpec=\"\"}}Tiens, je peux te montrer quelque\nchose, {{string value=\"PlayerName\"}} ?"
  },
  {
    "label": "041_02",
    "attribute": "0x00000000",
    "text": "{{anim id=\"Greeting\" target=\"actor\" targetSpec=\"\"}}Est-ce que{{string value=\"...\"}}{{delay frames=\"40\"}}{{anim id=\"Grin\" target=\"actor\" targetSpec=\"\"}} tu remarques quelque\nchose de nouveau, ici ?"
  },
  {
    "label": "041_03",
    "attribute": "0x00000000",
    "text": "{{anim id=\"Smiling\" target=\"actor\" targetSpec=\"\"}}Nous avons{{string value=\"...\"}}{{delay20}} un {{color id=\"1\"}}D{{delay20}}A{{delay20}}C {{color id=\"65535\"}}!{{delay frames=\"40\"}} Notre propre\nDistributeur Automatique de Clochettes !{{delay20}}{{pageBreak}}Mais il distribue également notre\nmonnaie locale, les pokis.{{pageBreak}}On pourrait dire que c'est en fait un\n« DAC&P »{{string value=\"...\"}}{{anim id=\"WrySmile\" target=\"actor\" targetSpec=\"\"}}{{pageBreak}}Mais c'est un peu long à dire,\nsurtout si ce n'est que pour retirer\nun peu de monnaie."
  },
  {
    "label": "041_04",
    "attribute": "0x00000000",
    "text": "{{anim id=\"FaintSmile\" target=\"actor\" targetSpec=\"\"}}Je le tiens de mon oncle, celui qui\nm'a envoyé le scanner d'amiibo !"
  },
  {
    "label": "041_05",
    "attribute": "0x00000000",
    "text": "{{anim id=\"Explain\" target=\"actor\" targetSpec=\"\"}}Il permet de {{color id=\"1\"}}déposer {{color id=\"65535\"}}ou de {{color id=\"1\"}}retirer\n{{color id=\"65535\"}}des pokis, de {{color id=\"1\"}}convertir {{color id=\"65535\"}}des pokis en\nclochettes ou inversement.\n{{anim id=\"EmotEnd\" target=\"actor\" targetSpec=\"\"}}Le taux de change varie chaque jour.{{delay20}}\nD'ailleurs, la quantité de devises\nque tu peux convertir est limitée.\n{{delay frames=\"40\"}}{{anim id=\"Grin\" target=\"actor\" targetSpec=\"\"}}Voilà les quelques informations\nà retenir pour utiliser le {{color id=\"1\"}}DAC{{color id=\"65535\"}} !"
  },
  {
    "label": "041_06",
    "attribute": "0x00000000",
    "text": "{{anim id=\"Explain\" target=\"actor\" targetSpec=\"\"}}Tu as travaillé si dur pour obtenir\ndes pokis,{{delay8}} j'imagine que tu voudras\nen convertir en clochettes{{string value=\"...\"}}{{pageBreak}}{{anim id=\"Hello\" target=\"actor\" targetSpec=\"\"}}Mieux vaut t'organiser pour la\nconversion la plus avantageuse !"
  },
  {
    "label": "042",
    "attribute": "0x00000000",
    "text": "{{anim id=\"Eh\" target=\"actor\" targetSpec=\"\"}}J'y pense{{string value=\"...\"}} J'ai déjà transféré le\nsolde de ce que je te devais vers\nce DAC.{{delay8}}{{anim id=\"FaintSmile\" target=\"actor\" targetSpec=\"\"}} Fais-en bon usage !"
  }
]