﻿[
  {
    "label": "002",
    "attribute": "0x000021",
    "text": "It seems there aren't any other island\nresidents to play with right now."
  },
  {
    "label": "003",
    "attribute": "0x000021",
    "text": "Please select the island residents\nyou want to play with."
  },
  {
    "label": "003_f",
    "attribute": "0x000022",
    "text": "Never mind."
  },
  {
    "label": "006",
    "attribute": "0x170021",
    "text": "You're playing with other folks at the\nmoment. {{delay20}}What would you like to do?"
  },
  {
    "label": "006_01",
    "attribute": "0x0A0021",
    "text": "You're playing with another resident\nright now.{{delay20}} What would you like to do?"
  },
  {
    "label": "006_01_a",
    "attribute": "0x000022",
    "text": "Change Leader."
  },
  {
    "label": "006_01_b",
    "attribute": "0x000822",
    "text": "End session."
  },
  {
    "label": "006_01_c",
    "attribute": "0x000722",
    "text": "{{anim id=\"EmotEnd\" target=\"player\" targetSpec=\"\"}}Save and end."
  },
  {
    "label": "006_01_d",
    "attribute": "0x000000",
    "text": "View another's passport."
  },
  {
    "label": "006_01_e",
    "attribute": "0x000022",
    "text": "Check how to play."
  },
  {
    "label": "006_01_f",
    "attribute": "0x000022",
    "text": "{{anim id=\"EmotEnd\" target=\"player\" targetSpec=\"\"}}Keep playing."
  },
  {
    "label": "006_a",
    "attribute": "0x000022",
    "text": "Change Leader."
  },
  {
    "label": "006_b",
    "attribute": "0x000822",
    "text": "End session."
  },
  {
    "label": "006_c",
    "attribute": "0x000022",
    "text": "Pick residents again."
  },
  {
    "label": "006_d",
    "attribute": "0x000722",
    "text": "{{anim id=\"EmotEnd\" target=\"player\" targetSpec=\"\"}}Save and end."
  },
  {
    "label": "006_e",
    "attribute": "0x000000",
    "text": "View another's passport."
  },
  {
    "label": "006_f",
    "attribute": "0x000022",
    "text": "Check how to play."
  },
  {
    "label": "006_g",
    "attribute": "0x000022",
    "text": "{{anim id=\"EmotEnd\" target=\"player\" targetSpec=\"\"}}Keep playing."
  },
  {
    "label": "007",
    "attribute": "0x000022",
    "text": "{{capitalizeNextLetter}}{{selection value=\"SelectedName\"}}, please press\n{{color id=\"1\"}}{{color id=\"65535\"}} and {{color id=\"1\"}}{{color id=\"65535\"}} (or {{color id=\"1\"}}{{color id=\"65535\"}} and {{color id=\"1\"}}{{color id=\"65535\"}})\nat the same time.{{i10_8 arg=\"0\"}}"
  },
  {
    "label": "008",
    "attribute": "0x000021",
    "text": "A controller was not connected.{{delay20}}\nEnding the session for now.{{i10_7 arg=\"300\"}}"
  },
  {
    "label": "009",
    "attribute": "0x010021",
    "text": "Can you connect a controller\nfor {{selection value=\"SelectedName\"}}?"
  },
  {
    "label": "009_a",
    "attribute": "0x000022",
    "text": "Reconnect from start."
  },
  {
    "label": "009_b",
    "attribute": "0x000022",
    "text": "Try another option."
  },
  {
    "label": "010",
    "attribute": "0x000021",
    "text": "A controller was not connected.{{delay20}}\nEnding the session for now.{{i10_7 arg=\"300\"}}"
  },
  {
    "label": "011",
    "attribute": "0x000021",
    "text": "Controllers have been connected\nfor all island residents.{{delay20}} Have fun!"
  },
  {
    "label": "013",
    "attribute": "0x000021",
    "text": "You cannot call other residents\nwhen networked play is active."
  },
  {
    "label": "014",
    "attribute": "0x000021",
    "text": "When playing alone, a solo Joy-Con\nis not a valid controller method.{{delay20}}\nPlease connect a controller.{{i10_7 arg=\"180\"}}"
  },
  {
    "label": "016",
    "attribute": "0x000021",
    "text": "You can't change\nthe Leader right now."
  },
  {
    "label": "017",
    "attribute": "0x000021",
    "text": "You can't call anyone right now."
  },
  {
    "label": "018",
    "attribute": "0x000018",
    "text": "Huh?{{delay8}} \"Outside Service Area\"?{{delay20}} Guess\nI can only use this on my own island."
  },
  {
    "label": "019",
    "attribute": "0x000021",
    "text": "Please select the island residents\nyou want to play with.{{pageBreak}}{{color id=\"0\"}}You can't play with residents\nwhose user data has been\ndeleted from the system.{{color id=\"65535\"}}"
  },
  {
    "label": "020",
    "attribute": "0x000021",
    "text": "You cannot call anyone at this time.{{pageBreak}}{{color id=\"0\"}}You can't play with residents\nwhose user data has been\ndeleted from the system.{{color id=\"65535\"}}"
  }
]