﻿[
  {
    "label": "001",
    "text": "Здорово, {{string value=\"NickName\"}}!"
  },
  {
    "label": "002",
    "text": "Привет, {{string value=\"NickName\"}}!"
  },
  {
    "label": "003",
    "text": "{{capitalizeNextLetter}}{{string value=\"NickName\"}}!"
  },
  {
    "label": "004",
    "text": "Дорог{{gender2 m=\"ой\" f=\"ая\"}} {{string value=\"NickName\"}}!"
  },
  {
    "label": "005",
    "text": "{{capitalizeNextLetter}}{{string value=\"NickName\"}}, я просто в шоке!"
  },
  {
    "label": "401",
    "text": "{{string value=\"VillagerName\"}}"
  },
  {
    "label": "402",
    "text": "Всего-всего! {{string value=\"VillagerName\"}}"
  },
  {
    "label": "403",
    "text": "Твоя {{string value=\"VillagerName\"}}"
  },
  {
    "label": "404",
    "text": "Сногсшибательная я! {{string value=\"VillagerName\"}}"
  },
  {
    "label": "405",
    "text": "До скорого! {{string value=\"VillagerName\"}}"
  }
]