﻿[
  {
    "label": "001",
    "attribute": "0x0000000000000000",
    "text": "{{fun_0014003C arg=\"\"}}"
  },
  {
    "label": "001_01",
    "attribute": "0x0000000000000000",
    "text": "{{anim id=\"Nodding\" target=\"actor\" targetSpec=\"\"}}{{delay20}}I catch fish like these sometimes,\n{{delay20}}{{anim id=\"Smiling\" target=\"actor\" targetSpec=\"\"}}but they seem way fancier when\nyou see them in here!"
  },
  {
    "label": "001_02",
    "attribute": "0x0000000000000000",
    "text": "{{anim id=\"QuestionMark\" target=\"actor\" targetSpec=\"\"}}This is designed to be kind of like\nthe fish's natural habitat, right?\n{{delay20}}{{anim id=\"Laughing\" target=\"actor\" targetSpec=\"\"}}{{delay20}}So where's their furniture?"
  },
  {
    "label": "001_03",
    "attribute": "0x0000000000000000",
    "text": "{{anim id=\"Serious\" target=\"actor\" targetSpec=\"\"}}{{delay20}}Looking at these fish{{string value=\"...\"}}{{delay20}} {{anim id=\"Scheming\" target=\"actor\" targetSpec=\"\"}}{{delay20}}It makes me a\nlittle hungry."
  },
  {
    "label": "002",
    "attribute": "0x0000000000000000",
    "text": "{{fun_0014003C arg=\"\"}}"
  },
  {
    "label": "002_01",
    "attribute": "0x0000000000000000",
    "text": "{{anim id=\"Explain\" target=\"actor\" targetSpec=\"\"}}{{delay20}}Whenever I'm feeling kind of tired or\ndown, I come here to take a break.\n{{anim id=\"Smiling\" target=\"actor\" targetSpec=\"\"}}{{delay20}}It's just so relaxing here, you know?"
  },
  {
    "label": "002_02",
    "attribute": "0x0000000000000000",
    "text": "I want to get the relaxing vibe of this\nplace in my house. {{anim id=\"Thinking\" target=\"actor\" targetSpec=\"\"}}{{delay20}}What would I\nneed for the trendiest aquarium?\n{{anim id=\"AbsentMindedness\" target=\"actor\" targetSpec=\"\"}}Hmm{{string value=\"...\"}}I've got to buy a big fish\ntank{{string value=\"...\"}}{{delay20}}mood lighting{{string value=\"...\"}}{{delay20}}a castle{{string value=\"...\"}}{{delay20}}\na bubbly treasure chest{{string value=\"...\"}}\n{{anim id=\"Laughing\" target=\"actor\" targetSpec=\"\"}}{{delay20}}and some fish, I guess!"
  },
  {
    "label": "002_03",
    "attribute": "0x0000000000000000",
    "text": "{{anim id=\"Greeting\" target=\"actor\" targetSpec=\"\"}}{{delay20}}Hot tip for you, {{string value=\"NickName\"}}!{{delay frames=\"60\"}}\n{{anim id=\"Explain\" target=\"actor\" targetSpec=\"\"}}{{delay20}}Lighting like this is perf for dates!{{pageBreak}}Imagine being here with somebody\nwho you think is totes special{{string value=\"...\"}}{{delay frames=\"40\"}}\n{{anim id=\"Love\" target=\"actor\" targetSpec=\"\"}}{{delay20}}and you're SURROUNDED by fish!"
  },
  {
    "label": "003",
    "attribute": "0x0000000000000000",
    "text": "{{fun_0014003C arg=\"\"}}"
  },
  {
    "label": "003_01",
    "attribute": "0x0000000000000000",
    "text": "{{anim id=\"FaintSmile\" target=\"actor\" targetSpec=\"\"}}{{delay20}}Whenever I'm here, I feel like I'm in\nthe ocean. {{anim id=\"AbsentMindedness\" target=\"actor\" targetSpec=\"\"}}{{delay20}}Totes like I'm a mermaid,\ndancing beneath the waves!"
  },
  {
    "label": "003_02",
    "attribute": "0x0000000000000000",
    "text": "This place is so relaxing. {{anim id=\"QuestionMark\" target=\"actor\" targetSpec=\"\"}}{{delay20}}Do you\nthink that's because it's kind of\ndark?{{delay20}}{{anim id=\"EmotEnd\" target=\"actor\" targetSpec=\"\"}}{{delay20}} {{anim id=\"Thinking\" target=\"actor\" targetSpec=\"\"}}{{delay20}}Or is it the fish?"
  },
  {
    "label": "003_03",
    "attribute": "0x0000000000000000",
    "text": "{{anim id=\"AbsentMindedness\" target=\"actor\" targetSpec=\"\"}}{{delay20}}The mood lighting, the fish swimming\naround, the promise of underwater\nadventures{{string value=\"...\"}}{{pageBreak}}Here I get all the perks of being a\nmermaid,{{anim id=\"Laughing\" target=\"actor\" targetSpec=\"\"}}{{delay20}} but I don't have to worry\nabout my skin getting wrinkly!"
  },
  {
    "label": "100",
    "attribute": "0x0000000000000000",
    "text": "{{fun_0014003C arg=\"\"}}"
  },
  {
    "label": "100_01",
    "attribute": "0x0000000000000000",
    "text": "{{anim id=\"Hello\" target=\"actor\" targetSpec=\"\"}}Does your island have a fish exhibit\ntoo, {{string value=\"NickName\"}}?{{delay20}} {{anim id=\"IdeaBulb\" target=\"actor\" targetSpec=\"\"}}{{delay20}}Do you\nhave any fish that aren't here?"
  },
  {
    "label": "100_02",
    "attribute": "0x0000000000000000",
    "text": "{{anim id=\"Greeting\" target=\"actor\" targetSpec=\"\"}}What do you think of our {{color id=\"1\"}}museum{{color id=\"65535\"}}?{{delay40}}\nI'm a big fan of our fish exhibit.\nIt's très aquatique!"
  },
  {
    "label": "100_03",
    "attribute": "0x0000000000000000",
    "text": "{{anim id=\"FaintSmile\" target=\"actor\" targetSpec=\"\"}}Each fish here has their own super\nfab fish fash.{{delay20}}{{anim id=\"QuestionMark\" target=\"actor\" targetSpec=\"\"}}{{delay20}} Know what you call a\nfish fashionista? {{delay frames=\"40\"}}{{anim id=\"Laughing\" target=\"actor\" targetSpec=\"\"}}{{delay20}}A \"fish-onista\"!{{pageBreak}}{{anim id=\"Laughing\" target=\"actor\" targetSpec=\"\"}}I have to write this stuff down.{{delay20}}{{anim id=\"SmugFace\" target=\"actor\" targetSpec=\"\"}}\nI'm so funny, I could be my own\nopening act!"
  },
  {
    "label": "200",
    "attribute": "0x0000000000000000",
    "text": "{{fun_0014003C arg=\"\"}}"
  },
  {
    "label": "200_01",
    "attribute": "0x0000000000000000",
    "text": "{{anim id=\"Greeting\" target=\"actor\" targetSpec=\"\"}}Are you here to see the {{color id=\"1\"}}museum\n{{color id=\"65535\"}}too, {{string value=\"NickName\"}}?{{pageBreak}}{{anim id=\"Love\" target=\"actor\" targetSpec=\"\"}}It's so magical with all the fish and\nglimmering water.{{delay40}} I want to dress up\nlike a mermaid and get in there!"
  },
  {
    "label": "200_02",
    "attribute": "0x0000000000000000",
    "text": "I'm loving this totally photogenic\nfish tank!{{delay40}} It's perf for a selfie sesh,\n{{anim id=\"Sighing\" target=\"actor\" targetSpec=\"\"}}{{delay20}}but {{color id=\"3\"}}Blathers{{color id=\"65535\"}} says no flash photos!"
  },
  {
    "label": "200_03",
    "attribute": "0x0000000000000000",
    "text": "{{anim id=\"Love\" target=\"actor\" targetSpec=\"\"}}The big fish tank's soft light is so\nromantic{{string value=\"...\"}}{{delay20}}{{anim id=\"EmotEnd\" target=\"actor\" targetSpec=\"\"}} {{anim id=\"Nodding\" target=\"actor\" targetSpec=\"\"}}This is def going to be\na popular date spot, {{string value=\"Catchphrase\"}}."
  }
]