﻿[
  {
    "label": "001",
    "attribute": "0x0000000000000000",
    "text": "{{fun_0014003C arg=\"\"}}"
  },
  {
    "label": "001_01",
    "attribute": "0x0000000000000000",
    "text": "{{anim id=\"Smiling\" target=\"actor\" targetSpec=\"\"}}我正好在找你呢。{{delay frames=\"40\"}}\n{{anim id=\"Silent\" target=\"actor\" targetSpec=\"\"}}我這裡有樣無論如何都想送給你的東西{{string value=\"...\"}}"
  },
  {
    "label": "001_02",
    "attribute": "0x0000000000000000",
    "text": "{{anim id=\"BigSmile\" target=\"actor\" targetSpec=\"\"}}能見到你真是太好了！{{delay frames=\"40\"}}\n{{anim id=\"Smiling\" target=\"actor\" targetSpec=\"\"}}我這裡有樣東西想交給你，{{delay20}}\n所以剛剛一直在找你喔。"
  },
  {
    "label": "001_03",
    "attribute": "0x0000000000000000",
    "text": "{{anim id=\"ShyBoy\" target=\"actor\" targetSpec=\"\"}}其實我這裡有樣東西想交給你，{{delay frames=\"40\"}}\n{{anim id=\"QuestionMark\" target=\"actor\" targetSpec=\"\"}}現在可以{{delay20}}耽誤你一些時間嗎？"
  },
  {
    "label": "002",
    "attribute": "0x0000000000000000",
    "text": "{{anim id=\"Eh\" target=\"actor\" targetSpec=\"\"}}咦{{string value=\"...\"}}難不成你已經{{delay frames=\"30\"}}\n{{anim id=\"Restless\" target=\"actor\" targetSpec=\"\"}}拿不動更多東西了？{{pageBreak}}{{anim id=\"SmugFace\" target=\"actor\" targetSpec=\"\"}}No problem！{{i10_4}}\n{{anim id=\"Smiling\" target=\"actor\" targetSpec=\"\"}}請放心，我待會會幫你寄去你家，{{delay frames=\"40\"}}\n{{anim id=\"Greeting\" target=\"actor\" targetSpec=\"\"}}請你好好期待送達的時候吧，{{string value=\"6\"}}。"
  },
  {
    "label": "003",
    "attribute": "0x0000000000000000",
    "text": "{{fun_0014003C arg=\"\"}}"
  },
  {
    "label": "003_01",
    "attribute": "0x0000000000000000",
    "text": "{{anim id=\"Explain\" target=\"actor\" targetSpec=\"\"}}總是受到你的關照，{{delay20}}\n我想我內心的想法{{delay20}}\n{{anim id=\"Nodding\" target=\"actor\" targetSpec=\"\"}}應該沒有好好傳達給你吧。{{pageBreak}}{{anim id=\"Hesitate\" target=\"actor\" targetSpec=\"\"}}如果你不嫌棄的話，{{delay20}}\n請收下那個作為友情證明的{{delay frames=\"40\"}}\n{{color id=\"1\"}}{{fun_0000007D arg=\"0x0000\"}}{{color id=\"65535\"}}吧，{{string value=\"6\"}}。"
  },
  {
    "label": "003_02",
    "attribute": "0x0000000000000000",
    "text": "{{anim id=\"Serious\" target=\"actor\" targetSpec=\"\"}}正因為是關係要好的朋友，{{delay20}}\n所以我平時都不會說出口{{string value=\"...\"}}{{delay20}}\n{{anim id=\"Nodding\" target=\"actor\" targetSpec=\"\"}}其實我{{delay20}}一直都很感謝你喔。{{pageBreak}}{{anim id=\"Restless\" target=\"actor\" targetSpec=\"\"}}那個{{color id=\"1\"}}{{fun_0000007D arg=\"0x0000\"}}{{color id=\"65535\"}}{{delay20}}\n代表了我微薄的心意，{{delay frames=\"40\"}}\n{{anim id=\"Hello\" target=\"actor\" targetSpec=\"\"}}請你務必要收下，{{string value=\"6\"}}。"
  },
  {
    "label": "003_03",
    "attribute": "0x0000000000000000",
    "text": "{{anim id=\"Blushing\" target=\"actor\" targetSpec=\"\"}}雖然像這樣鄭重其事地說出口，讓人有點害羞，{{delay20}}\n不過我還是要感謝你願意當我的朋友，{{delay frames=\"40\"}}\n多虧有你，我每天都過得很充實喔。{{pageBreak}}{{anim id=\"Serious\" target=\"actor\" targetSpec=\"\"}}我認為光是言語{{delay20}}還不足以傳達我這份心意，{{delay frames=\"40\"}}\n{{color id=\"1\"}}{{anim id=\"Nodding\" target=\"actor\" targetSpec=\"\"}}{{color id=\"65535\"}}所以我準備了{{color id=\"1\"}}{{fun_0000007D arg=\"0x0000\"}}{{color id=\"65535\"}}\n要送給你喔。"
  },
  {
    "label": "004",
    "attribute": "0x0000000000000000",
    "text": "{{fun_0014003C arg=\"\"}}"
  },
  {
    "label": "004_01",
    "attribute": "0x0000000000000000",
    "text": "{{anim id=\"Greeting\" target=\"actor\" targetSpec=\"\"}}{{string value=\"4\"}}，{{delay20}}\n今後也請多多指教！{{delay frames=\"40\"}}\n{{anim id=\"Grin\" target=\"actor\" targetSpec=\"\"}}為我們的友情喝采吧。"
  },
  {
    "label": "004_02",
    "attribute": "0x0000000000000000",
    "text": "{{anim id=\"Nodding\" target=\"actor\" targetSpec=\"\"}}只要有我們這份友情在，{{delay20}}\n往後不論遇上什麼難關，一定都能迎刃而解的。{{delay frames=\"40\"}}\n{{anim id=\"Hello\" target=\"actor\" targetSpec=\"\"}}{{string value=\"4\"}}，{{delay20}}今後請多指教囉！"
  },
  {
    "label": "004_03",
    "attribute": "0x0000000000000000",
    "text": "{{anim id=\"Greeting\" target=\"actor\" targetSpec=\"\"}}那麼之後如果有時間{{delay8}}再來慢慢聊吧。{{delay frames=\"40\"}}\n我隨時歡迎你喔，{{string value=\"6\"}}。"
  }
]