﻿[
  {
    "label": "01_AN",
    "text": "找到{{string value=\"NickName\"}}啦！"
  },
  {
    "label": "01_BO",
    "text": "{{string value=\"29\"}}～！"
  },
  {
    "label": "01_FU",
    "text": "{{string value=\"29\"}}！"
  },
  {
    "label": "01_GE",
    "text": "啊！{{string value=\"29\"}}！"
  },
  {
    "label": "01_HA",
    "text": "喂～！{{string value=\"NickName\"}}！"
  },
  {
    "label": "01_KO",
    "text": "喂——！{{string value=\"NickName\"}}！"
  },
  {
    "label": "01_OT",
    "text": "{{string value=\"4\"}}！"
  },
  {
    "label": "01_ZK",
    "text": "喂～！{{string value=\"29\"}}！"
  },
  {
    "label": "02_AN",
    "text": "喂！{{string value=\"NickName\"}}！"
  },
  {
    "label": "02_BO",
    "text": "嘿～{{string value=\"4\"}}～"
  },
  {
    "label": "02_FU",
    "text": "{{string value=\"NickName\"}}～"
  },
  {
    "label": "02_GE",
    "text": "{{string value=\"29\"}}，这边啦～！"
  },
  {
    "label": "02_HA",
    "text": "哟～！{{string value=\"NickName\"}}！"
  },
  {
    "label": "02_KO",
    "text": "{{string value=\"NickName\"}}——！"
  },
  {
    "label": "02_OT",
    "text": "{{string value=\"4\"}}，你听我说～！"
  },
  {
    "label": "02_ZK",
    "text": "你在这儿啊！{{string value=\"29\"}}！"
  },
  {
    "label": "03_AN",
    "text": "唔……"
  },
  {
    "label": "03_BO",
    "text": "唔……"
  },
  {
    "label": "03_FU",
    "text": "唔……"
  },
  {
    "label": "03_GE",
    "text": "唉～怎么办呢……"
  },
  {
    "label": "03_HA",
    "text": "唔，这样啊～"
  },
  {
    "label": "03_KO",
    "text": "这该怎么办啊……"
  },
  {
    "label": "03_OT",
    "text": "嗯……"
  },
  {
    "label": "03_ZK",
    "text": "唔……"
  },
  {
    "label": "04_AN",
    "text": "怎么办呢……"
  },
  {
    "label": "04_BO",
    "text": "怎～么办呢……"
  },
  {
    "label": "04_FU",
    "text": "怎么办好呢……"
  },
  {
    "label": "04_GE",
    "text": "唔～"
  },
  {
    "label": "04_HA",
    "text": "这该怎么办呢……"
  },
  {
    "label": "04_KO",
    "text": "这可怎么办……"
  },
  {
    "label": "04_OT",
    "text": "该怎么办好呢……"
  },
  {
    "label": "04_ZK",
    "text": "该怎么办呢……"
  }
]