﻿[
  {
    "label": "001",
    "text": "{{capitalizeNextLetter}}{{string value=\"NickName\"}}:"
  },
  {
    "label": "002",
    "text": "Ladrillos, {{string value=\"NickName\"}}:"
  },
  {
    "label": "003",
    "text": "Rotondas, {{string value=\"NickName\"}}:"
  },
  {
    "label": "004",
    "text": "Hola, {{string value=\"NickName\"}}. Lee esto:"
  },
  {
    "label": "005",
    "text": "Presta atención, {{string value=\"NickName\"}}:"
  },
  {
    "label": "101",
    "text": "Primero, quiero agradecerte\nla postal que me enviaste."
  },
  {
    "label": "102",
    "text": "Primero, he leído tu postal,\nasí que aquí te contesto."
  },
  {
    "label": "103",
    "text": "Primero, pasé el día intentando\ndescifrar el código de tu postal..."
  },
  {
    "label": "104",
    "text": "Primero, tu postal me dio una gran\nalegría, algo poco infrecuente."
  },
  {
    "label": "105",
    "text": "Primero, tú sí que sabes escribir\npostales, joven."
  },
  {
    "label": "201",
    "text": "Segundo, acaba de ponerse el sol\ny los vecinos siguen paseando\ncomo si nada."
  },
  {
    "label": "202",
    "text": "Segundo,{{delay8}} me he comido un trozo\nde tarta que tenía cerezas dentro.\n¡Lo nunca visto!"
  },
  {
    "label": "203",
    "text": "Segundo, nunca sabrás de verdad\nlo que es el miedo hasta que te\nenfrentes a tus propios fantasmas."
  },
  {
    "label": "204",
    "text": "Segundo, el espacio y la materia\nno existen. ¡Son solo ilusiones\nde una mente cósmica!"
  },
  {
    "label": "205",
    "text": "Segundo, se me ha olvidado lo que\niba a decirte, así que lo dejo para\ndespués, cuando me acuerde."
  },
  {
    "label": "301",
    "text": "Tercero, ¿estamos en una isla?"
  },
  {
    "label": "302",
    "text": "Tercero, ¿sabes chistes nuevos?"
  },
  {
    "label": "303",
    "text": "Tercero, ¿duermes siesta?"
  },
  {
    "label": "304",
    "text": "Tercero, aquí se acaba mi postal."
  },
  {
    "label": "305",
    "text": "Tercero, no hay tercer punto."
  },
  {
    "label": "401",
    "text": "Me retiro. Firmado, {{string value=\"VillagerName\"}}"
  },
  {
    "label": "402",
    "text": "Sinceramente tuyo, {{string value=\"VillagerName\"}}"
  },
  {
    "label": "403",
    "text": "{{string value=\"VillagerName\"}}"
  },
  {
    "label": "404",
    "text": "El inigualable {{string value=\"VillagerName\"}}"
  },
  {
    "label": "405",
    "text": "Hasta otra, {{string value=\"VillagerName\"}}"
  }
]