﻿[
  {
    "label": "001",
    "attribute": "0x0000000000000000",
    "text": "そういや、{{delay8}}{{ruby charSpan=\"2\" value=\"きょう\"}}今日{{anim id=\"QuestionMark\" target=\"actor\" targetSpec=\"\"}}　{{color id=\"3\"}}ジョニー{{color id=\"65535\"}}を{{ruby charSpan=\"1\" value=\"み\"}}見たかい？{{delay frames=\"40\"}}\n{{anim id=\"Serious\" target=\"actor\" targetSpec=\"\"}}また　{{ruby charSpan=\"2\" value=\"はまべ\"}}浜辺で　{{ruby charSpan=\"1\" value=\"ね\"}}寝てたよ{{delay frames=\"40\"}}\n{{anim id=\"WrySmile\" target=\"actor\" targetSpec=\"\"}}マイペースだね、{{delay8}}アイツは{{string value=\"...\"}}{{pageBreak}}{{anim id=\"Negative\" target=\"actor\" targetSpec=\"\"}}もう　ウチには　お{{ruby charSpan=\"2\" value=\"てあ\"}}手上げだよ{{delay frames=\"30\"}}\n{{anim id=\"EmotEnd\" target=\"actor\" targetSpec=\"\"}}アンタちょっと　{{ruby charSpan=\"1\" value=\"み\"}}見てやっちゃどうだい？{{delay frames=\"40\"}}\n{{anim id=\"OhGeez\" target=\"actor\" targetSpec=\"\"}}{{ruby charSpan=\"1\" value=\"き\"}}気が{{ruby charSpan=\"1\" value=\"む\"}}向いたらで　いいからさ、{{string value=\"6\"}}{{delay8}}{{anim id=\"EmotEnd\" target=\"actor\" targetSpec=\"\"}}"
  },
  {
    "label": "002",
    "attribute": "0x0000000000000000",
    "text": "{{anim id=\"Explain\" target=\"actor\" targetSpec=\"\"}}そうそう、{{delay20}}{{ruby charSpan=\"2\" value=\"ひろば\"}}広場を{{ruby charSpan=\"1\" value=\"み\"}}見たかい？{{delay frames=\"40\"}}\n{{ruby charSpan=\"2\" value=\"きょう\"}}今日は　{{delay8}}{{color id=\"3\"}}とたけけ{{color id=\"65535\"}}さんが{{ruby charSpan=\"1\" value=\"き\"}}来てるよ！{{pageBreak}}{{anim id=\"AbsentMindedness\" target=\"actor\" targetSpec=\"\"}}{{ruby charSpan=\"1\" value=\"よる\"}}夜はリクエストを　{{ruby charSpan=\"1\" value=\"き\"}}聞いてくれるって{{ruby charSpan=\"1\" value=\"はなし\"}}話だし{{delay20}}\nウチも　{{ruby charSpan=\"1\" value=\"い\"}}行ってみよっかな～、{{string value=\"6\"}}"
  },
  {
    "label": "003",
    "attribute": "0x0000000000000000",
    "text": "{{anim id=\"FaintSmile\" target=\"actor\" targetSpec=\"\"}}そういや、{{delay20}}さっき　{{color id=\"1\"}}{{ruby charSpan=\"3\" value=\"あんないじょ\"}}案内所{{color id=\"65535\"}}の{{ruby charSpan=\"1\" value=\"まえ\"}}前で{{delay8}}\n{{color id=\"3\"}}ことの{{color id=\"65535\"}}さんを　{{ruby charSpan=\"1\" value=\"み\"}}見かけたよ{{pageBreak}}{{anim id=\"Thinking\" target=\"actor\" targetSpec=\"\"}}だけど、{{delay20}}ふたりで　{{ruby charSpan=\"1\" value=\"はな\"}}話してると{{delay8}}\nなーんか　{{ruby charSpan=\"1\" value=\"お\"}}落ち{{ruby charSpan=\"1\" value=\"つ\"}}着かないんだよねぇ{{delay frames=\"40\"}}\n{{anim id=\"OhGeez\" target=\"actor\" targetSpec=\"\"}}あのコ、{{delay20}}ウチのコーデを　ガン{{ruby charSpan=\"1\" value=\"み\"}}見するもんでさ"
  },
  {
    "label": "004",
    "attribute": "0x0000000000000000",
    "text": "{{anim id=\"FaintSmile\" target=\"actor\" targetSpec=\"\"}}さっき　{{delay8}}{{color id=\"3\"}}ローラン{{color id=\"65535\"}}を{{ruby charSpan=\"1\" value=\"み\"}}見かけたよ{{delay frames=\"40\"}}\nラグとかを{{ruby charSpan=\"1\" value=\"う\"}}売りに　{{ruby charSpan=\"1\" value=\"き\"}}来てくれたみたいだね{{pageBreak}}{{anim id=\"Thinking\" target=\"actor\" targetSpec=\"\"}}いつも　{{delay8}}あの{{ruby charSpan=\"2\" value=\"どくとく\"}}独特のしゃべりに　{{ruby charSpan=\"1\" value=\"の\"}}乗せられて{{delay20}}\nついつい　{{ruby charSpan=\"1\" value=\"か\"}}買っちまうんだよな～{{delay frames=\"40\"}}\n{{anim id=\"OhGeez\" target=\"actor\" targetSpec=\"\"}}まったく　{{delay8}}{{ruby charSpan=\"4\" value=\"しょうばいじょうず\"}}商売上手なヤツだよ、{{string value=\"6\"}}"
  },
  {
    "label": "006",
    "attribute": "0x0000000000000000",
    "text": "{{anim id=\"Explain\" target=\"actor\" targetSpec=\"\"}}アンタ、{{delay8}}{{ruby charSpan=\"2\" value=\"ひろば\"}}広場には{{ruby charSpan=\"1\" value=\"い\"}}行ったかい？{{delay frames=\"40\"}}\n{{delay8}}{{color id=\"3\"}}とたけけ{{color id=\"65535\"}}さんの　{{ruby charSpan=\"3\" value=\"なまえんそう\"}}生演奏が{{ruby charSpan=\"1\" value=\"き\"}}聴けるよ！{{pageBreak}}{{anim id=\"AbsentMindedness\" target=\"actor\" targetSpec=\"\"}}しかも{{ruby charSpan=\"1\" value=\"いま\"}}今なら、{{delay20}}リクエストした{{ruby charSpan=\"1\" value=\"きょく\"}}曲を\n{{ruby charSpan=\"1\" value=\"ひ\"}}弾いてくれるんだよね{{delay frames=\"40\"}}\n{{anim id=\"Love\" target=\"actor\" targetSpec=\"\"}}{{ruby charSpan=\"2\" value=\"おおもの\"}}大物は　{{ruby charSpan=\"1\" value=\"ふと\"}}太っ{{ruby charSpan=\"1\" value=\"ぱら\"}}腹だな～、{{string value=\"6\"}}"
  },
  {
    "label": "007",
    "attribute": "0x0000000000000000",
    "text": "{{anim id=\"Smiling\" target=\"actor\" targetSpec=\"\"}}{{ruby charSpan=\"2\" value=\"きょう\"}}今日は　{{delay8}}{{color id=\"3\"}}ウリ{{color id=\"65535\"}}ちゃんが{{ruby charSpan=\"1\" value=\"き\"}}来てるってさ！{{delay frames=\"40\"}}\n{{anim id=\"EmotEnd\" target=\"actor\" targetSpec=\"\"}}たぶん{{ruby charSpan=\"1\" value=\"いま\"}}今も　{{delay8}}その{{ruby charSpan=\"1\" value=\"へん\"}}辺を\nウロウロしてるんじゃないかな？　{{string value=\"6\"}}"
  },
  {
    "label": "008",
    "attribute": "0x0000000000000000",
    "text": "{{anim id=\"Thinking\" target=\"actor\" targetSpec=\"\"}}{{ruby charSpan=\"2\" value=\"けさ\"}}今朝、{{delay20}}{{string value=\"32\"}}の{{ruby charSpan=\"2\" value=\"きたがわ\"}}北側にある{{ruby charSpan=\"2\" value=\"はまべ\"}}浜辺で{{delay8}}\nアヤシイ{{ruby charSpan=\"1\" value=\"ふね\"}}船が　{{ruby charSpan=\"2\" value=\"もくげき\"}}目撃されたんだってね{{pageBreak}}{{anim id=\"Nodding\" target=\"actor\" targetSpec=\"\"}}まっ、{{delay20}}もし{{ruby charSpan=\"1\" value=\"わる\"}}悪いヤツが　{{ruby charSpan=\"1\" value=\"の\"}}乗り{{ruby charSpan=\"1\" value=\"こ\"}}込んできても{{delay20}}\n{{anim id=\"Assent\" target=\"actor\" targetSpec=\"\"}}ウチが　け{{ruby charSpan=\"1\" value=\"ち\"}}散らしてやるから\n{{ruby charSpan=\"2\" value=\"あんしん\"}}安心しな！　{{string value=\"6\"}}"
  },
  {
    "label": "009",
    "attribute": "0x0000000000000000",
    "text": "{{anim id=\"Serious\" target=\"actor\" targetSpec=\"\"}}さっき、{{delay20}}{{ruby charSpan=\"1\" value=\"なま\"}}生ぬるい{{ruby charSpan=\"1\" value=\"かぜ\"}}風が\n{{anim id=\"ColdChill\" target=\"actor\" targetSpec=\"\"}}ふわっと{{ruby charSpan=\"1\" value=\"よこ\"}}横を　{{delay8}}すり{{ruby charSpan=\"1\" value=\"ぬ\"}}抜けるような{{delay20}}\nヘンな{{ruby charSpan=\"1\" value=\"かん\"}}感じがしたんだ{{pageBreak}}{{anim id=\"Restless\" target=\"actor\" targetSpec=\"\"}}まさか、{{delay frames=\"40\"}}ユ{{string value=\"...\"}}{{delay frames=\"40\"}}{{anim id=\"Surprised\" target=\"actor\" targetSpec=\"\"}}ユーレイ？！{{i10_4}}\n{{anim id=\"Laughing\" target=\"actor\" targetSpec=\"\"}}なーんて　{{delay20}}そんなワケないよね！{{delay frames=\"40\"}}\n{{anim id=\"Grin\" target=\"actor\" targetSpec=\"\"}}びっくりしたかい？　{{string value=\"6\"}}"
  },
  {
    "label": "011",
    "attribute": "0x0000000000000000",
    "text": "{{anim id=\"FaintSmile\" target=\"actor\" targetSpec=\"\"}}アンタ、{{delay8}}{{ruby charSpan=\"2\" value=\"ひろば\"}}広場には　{{ruby charSpan=\"1\" value=\"い\"}}行ったかい？{{delay frames=\"30\"}}\n{{color id=\"3\"}}とたけけ{{color id=\"65535\"}}さんが{{string value=\"...\"}}{{delay20}}\n{{anim id=\"TakenAback\" target=\"actor\" targetSpec=\"\"}}おっと！{{delay20}}　{{anim id=\"ShyBoy\" target=\"actor\" targetSpec=\"\"}}これ{{ruby charSpan=\"2\" value=\"いじょう\"}}以上は　ヒミツにしとくよ！{{pageBreak}}{{anim id=\"Explain\" target=\"actor\" targetSpec=\"\"}}もし　まだ{{ruby charSpan=\"1\" value=\"い\"}}行ってないんなら{{delay20}}\n{{ruby charSpan=\"1\" value=\"わる\"}}悪いことは{{ruby charSpan=\"1\" value=\"い\"}}言わないから　{{delay8}}{{ruby charSpan=\"1\" value=\"い\"}}行ってみな！{{delay frames=\"30\"}}\n{{anim id=\"Grin\" target=\"actor\" targetSpec=\"\"}}いいかい？　{{delay20}}{{ruby charSpan=\"3\" value=\"きょうじゅう\"}}今日中だよ！　{{string value=\"6\"}}"
  },
  {
    "label": "013",
    "attribute": "0x0000000000000000",
    "text": "{{anim id=\"Pardon\" target=\"actor\" targetSpec=\"\"}}アンタ、{{delay8}}{{ruby charSpan=\"2\" value=\"ひろば\"}}広場を{{ruby charSpan=\"1\" value=\"み\"}}見たかい？{{delay frames=\"30\"}}\n{{anim id=\"Hello\" target=\"actor\" targetSpec=\"\"}}{{color id=\"3\"}}とたけけ{{color id=\"65535\"}}さんが　ライブやってるよ！{{pageBreak}}{{anim id=\"FaintSmile\" target=\"actor\" targetSpec=\"\"}}{{ruby charSpan=\"1\" value=\"だれ\"}}誰かの{{ruby charSpan=\"3\" value=\"たんじょうび\"}}誕生日を　{{ruby charSpan=\"1\" value=\"いわ\"}}祝いに{{ruby charSpan=\"1\" value=\"き\"}}来たって{{ruby charSpan=\"1\" value=\"はなし\"}}話だけど、{{delay20}}\n{{anim id=\"Nodding\" target=\"actor\" targetSpec=\"\"}}おかげでウチらも　{{delay8}}{{ruby charSpan=\"3\" value=\"なまえんそう\"}}生演奏が{{ruby charSpan=\"1\" value=\"き\"}}聴けるワケだ！{{delay frames=\"30\"}}\n{{anim id=\"HappyFlower\" target=\"actor\" targetSpec=\"\"}}そいつに{{ruby charSpan=\"2\" value=\"かんしゃ\"}}感謝しないとね！　{{string value=\"6\"}}"
  },
  {
    "label": "014",
    "attribute": "0x0000000000000000",
    "text": "{{anim id=\"IdeaBulb\" target=\"actor\" targetSpec=\"\"}}そういや　{{delay8}}{{color id=\"3\"}}きぬよ{{color id=\"65535\"}}ちゃんには　{{ruby charSpan=\"1\" value=\"あ\"}}会ったかい？{{delay frames=\"30\"}}\n{{anim id=\"FaintSmile\" target=\"actor\" targetSpec=\"\"}}{{ruby charSpan=\"2\" value=\"きょう\"}}今日、{{delay8}}この{{string value=\"32\"}}に{{ruby charSpan=\"1\" value=\"き\"}}来てるってサ！{{pageBreak}}{{anim id=\"Thinking\" target=\"actor\" targetSpec=\"\"}}こーいうトコに{{ruby charSpan=\"1\" value=\"す\"}}住んでると{{delay20}}\n{{ruby charSpan=\"1\" value=\"ふく\"}}服を{{ruby charSpan=\"1\" value=\"て\"}}手に{{ruby charSpan=\"1\" value=\"い\"}}入れんのも　ひと{{ruby charSpan=\"2\" value=\"くろう\"}}苦労だし、{{delay frames=\"30\"}}\n{{anim id=\"HappyFlower\" target=\"actor\" targetSpec=\"\"}}{{ruby charSpan=\"1\" value=\"う\"}}売りに{{ruby charSpan=\"1\" value=\"き\"}}来てくれて　{{delay8}}ありがたいね！　{{string value=\"6\"}}"
  },
  {
    "label": "015",
    "attribute": "0x0000000000000000",
    "text": "{{anim id=\"Pardon\" target=\"actor\" targetSpec=\"\"}}{{color id=\"3\"}}ジャスティン{{color id=\"65535\"}}が{{ruby charSpan=\"1\" value=\"き\"}}来てるの　{{delay8}}{{ruby charSpan=\"1\" value=\"み\"}}見たかい？{{delay frames=\"40\"}}\n{{anim id=\"Serious\" target=\"actor\" targetSpec=\"\"}}{{ruby charSpan=\"2\" value=\"きょう\"}}今日は　たくさん　サカナ{{ruby charSpan=\"1\" value=\"も\"}}持ってって、{{delay20}}\n{{anim id=\"SmugFace\" target=\"actor\" targetSpec=\"\"}}いっちょ　{{ruby charSpan=\"2\" value=\"おうえん\"}}応援してやるか！　{{string value=\"6\"}}"
  },
  {
    "label": "016",
    "attribute": "0x0000000000000000",
    "text": "{{anim id=\"IdeaBulb\" target=\"actor\" targetSpec=\"\"}}そういや　{{delay8}}{{color id=\"3\"}}レックス{{color id=\"65535\"}}には{{ruby charSpan=\"1\" value=\"あ\"}}会ったかい？{{delay frames=\"40\"}}\n{{anim id=\"FaintSmile\" target=\"actor\" targetSpec=\"\"}}{{ruby charSpan=\"2\" value=\"きょう\"}}今日　この{{string value=\"32\"}}に　{{ruby charSpan=\"1\" value=\"き\"}}来てるらしいよ{{pageBreak}}{{anim id=\"Explain\" target=\"actor\" targetSpec=\"\"}}アイツ　あんなふうに{{ruby charSpan=\"1\" value=\"み\"}}見えて{{delay8}}\nけっこう　いいヤツだから、{{delay20}}\n{{anim id=\"ShyBoy\" target=\"actor\" targetSpec=\"\"}}ムシいっぱい{{delay8}}　{{ruby charSpan=\"1\" value=\"も\"}}持ってっちゃうんだよね"
  },
  {
    "label": "017",
    "attribute": "0x0000000000000000",
    "text": "{{anim id=\"Smiling\" target=\"actor\" targetSpec=\"\"}}{{ruby charSpan=\"2\" value=\"きょう\"}}今日は　{{delay8}}{{color id=\"3\"}}シャンク{{color id=\"65535\"}}が{{ruby charSpan=\"1\" value=\"き\"}}来てるみたいだよ{{delay frames=\"30\"}}\n{{ruby charSpan=\"2\" value=\"ひろば\"}}広場にいたのを　さっき{{ruby charSpan=\"1\" value=\"み\"}}見かけたんだ{{pageBreak}}{{anim id=\"Nodding\" target=\"actor\" targetSpec=\"\"}}アイツの{{ruby charSpan=\"2\" value=\"めき\"}}目利きは　{{delay8}}{{ruby charSpan=\"1\" value=\"たし\"}}確かなモンだからね{{delay frames=\"30\"}}\n{{anim id=\"AbsentMindedness\" target=\"actor\" targetSpec=\"\"}}あとで　{{ruby charSpan=\"1\" value=\"あたら\"}}新しいくつか　バッグでも{{delay8}}\n{{ruby charSpan=\"1\" value=\"か\"}}買おうかねぇ～、{{string value=\"6\"}}"
  },
  {
    "label": "018",
    "attribute": "0x0000000000000000",
    "text": "{{anim id=\"FaintSmile\" target=\"actor\" targetSpec=\"\"}}さっき{{delay8}}　{{color id=\"3\"}}フーコ{{color id=\"65535\"}}ちゃんを　{{ruby charSpan=\"1\" value=\"み\"}}見かけたよ！{{delay frames=\"40\"}}\n{{anim id=\"Greeting\" target=\"actor\" targetSpec=\"\"}}なんでも、{{delay20}}この{{string value=\"32\"}}の{{ruby charSpan=\"1\" value=\"ほし\"}}星を　{{delay8}}{{ruby charSpan=\"1\" value=\"み\"}}見に{{ruby charSpan=\"1\" value=\"き\"}}来たんだとさ{{delay frames=\"40\"}}\n{{anim id=\"Laughing\" target=\"actor\" targetSpec=\"\"}}そんな　ロマンティックさ、{{delay8}}ウチにはないねぇ{{pageBreak}}{{anim id=\"Negative\" target=\"actor\" targetSpec=\"\"}}わざわざ　こんなトコまで　{{ruby charSpan=\"1\" value=\"く\"}}来るほど{{delay8}}\n{{anim id=\"Grin\" target=\"actor\" targetSpec=\"\"}}{{ruby charSpan=\"1\" value=\"ほし\"}}星が{{ruby charSpan=\"1\" value=\"す\"}}好きなら　{{delay20}}いろいろ　くわしそうだし、{{delay20}}\n{{anim id=\"Smiling\" target=\"actor\" targetSpec=\"\"}}{{ruby charSpan=\"1\" value=\"はなし\"}}話を{{ruby charSpan=\"1\" value=\"き\"}}聞いてみようと　{{ruby charSpan=\"1\" value=\"おも\"}}思ってるのさ、{{string value=\"6\"}}"
  },
  {
    "label": "019",
    "attribute": "0x0000000000000000",
    "text": "{{anim id=\"Thinking\" target=\"actor\" targetSpec=\"\"}}そういえば　さっき、{{delay8}}{{ruby charSpan=\"2\" value=\"しかい\"}}視界の{{ruby charSpan=\"1\" value=\"はし\"}}端っこを{{delay20}}\n{{ruby charSpan=\"2\" value=\"きいろ\"}}黄色い{{ruby charSpan=\"1\" value=\"なに\"}}何かが　「シュッ！」{{delay frames=\"12\"}}と\n{{ruby charSpan=\"1\" value=\"とお\"}}通ってったように　{{ruby charSpan=\"1\" value=\"み\"}}見えたんだ{{pageBreak}}{{anim id=\"Negative\" target=\"actor\" targetSpec=\"\"}}うーん、{{delay20}}{{ruby charSpan=\"1\" value=\"き\"}}気のせいかもしんないけど{{string value=\"...\"}}{{delay frames=\"30\"}}\nなんだったんだろ？　{{string value=\"6\"}}"
  },
  {
    "label": "020",
    "attribute": "0x0000000000000000",
    "text": "{{anim id=\"Smiling\" target=\"actor\" targetSpec=\"\"}}{{ruby charSpan=\"2\" value=\"ひろば\"}}広場に　{{color id=\"3\"}}レイジ{{color id=\"65535\"}}が{{ruby charSpan=\"1\" value=\"き\"}}来てるみたいだよ{{delay frames=\"40\"}}\n{{anim id=\"Nodding\" target=\"actor\" targetSpec=\"\"}}アイツとは　{{delay8}}{{ruby charSpan=\"2\" value=\"いちど\"}}一度ゆっくり\nしゃべってみたいんだよねぇ{{pageBreak}}{{anim id=\"Thinking\" target=\"actor\" targetSpec=\"\"}}どうせなら　{{delay8}}{{ruby charSpan=\"2\" value=\"じゃま\"}}邪魔が{{ruby charSpan=\"1\" value=\"はい\"}}入らない{{ruby charSpan=\"2\" value=\"ばしょ\"}}場所で{{string value=\"...\"}}{{delay frames=\"30\"}}\n{{anim id=\"IdeaBulb\" target=\"actor\" targetSpec=\"\"}}そうだ！　{{delay frames=\"40\"}}{{ruby charSpan=\"3\" value=\"あんないじょ\"}}案内所の{{ruby charSpan=\"1\" value=\"うら\"}}裏にでも\n{{ruby charSpan=\"1\" value=\"よ\"}}呼び{{ruby charSpan=\"1\" value=\"だ\"}}出してみるか！　{{string value=\"6\"}}{{anim id=\"Smiling\" target=\"actor\" targetSpec=\"\"}}"
  },
  {
    "label": "021",
    "attribute": "0x0000000000000000",
    "text": "{{anim id=\"Eh\" target=\"actor\" targetSpec=\"\"}}そうそう、{{delay frames=\"30\"}}{{anim id=\"Silent\" target=\"actor\" targetSpec=\"\"}}さっき{{ruby charSpan=\"2\" value=\"はまべ\"}}浜辺で{{delay8}}\n{{ruby charSpan=\"2\" value=\"はで\"}}派手なカッコした　あやしいヤツが{{delay20}}\n{{anim id=\"OhGeez\" target=\"actor\" targetSpec=\"\"}}グースカ{{ruby charSpan=\"1\" value=\"ね\"}}寝こけてるのを　{{ruby charSpan=\"1\" value=\"み\"}}見たんだ{{pageBreak}}{{anim id=\"Thinking\" target=\"actor\" targetSpec=\"\"}}{{ruby charSpan=\"1\" value=\"こえ\"}}声は　かけなかったんだけど、{{delay20}}\nな～んか　{{ruby charSpan=\"1\" value=\"だれ\"}}誰かに{{ruby charSpan=\"1\" value=\"に\"}}似てたような{{string value=\"...\"}}{{delay frames=\"30\"}}\n{{anim id=\"Laughing\" target=\"actor\" targetSpec=\"\"}}たぶん　{{ruby charSpan=\"1\" value=\"き\"}}気のせいだけどね！　{{string value=\"6\"}}"
  },
  {
    "label": "022",
    "attribute": "0x0000000000000000",
    "text": "{{anim id=\"Explain\" target=\"actor\" targetSpec=\"\"}}そうそう、{{delay20}}{{ruby charSpan=\"2\" value=\"ひろば\"}}広場を{{ruby charSpan=\"1\" value=\"み\"}}見たかい？{{delay frames=\"50\"}}\n{{anim id=\"FaintSmile\" target=\"actor\" targetSpec=\"\"}}{{ruby charSpan=\"2\" value=\"きょう\"}}今日は　{{delay8}}{{color id=\"3\"}}とたけけ{{color id=\"65535\"}}さんが{{ruby charSpan=\"1\" value=\"き\"}}来てるね！{{pageBreak}}{{anim id=\"ShyBoy\" target=\"actor\" targetSpec=\"\"}}ウチ、{{delay20}}こないだ\nおまかせで　リクエストしたらさ{{delay frames=\"30\"}}\n{{anim id=\"Pardon\" target=\"actor\" targetSpec=\"\"}}なんと{{delay8}}　{{ruby charSpan=\"2\" value=\"しんきょく\"}}新曲を{{ruby charSpan=\"2\" value=\"えんそう\"}}演奏してくれたんだよ！{{pageBreak}}{{anim id=\"Nodding\" target=\"actor\" targetSpec=\"\"}}これがまた{{delay8}}　いい{{ruby charSpan=\"1\" value=\"きょく\"}}曲でね～{{delay frames=\"30\"}}\n{{anim id=\"EmotEnd\" target=\"actor\" targetSpec=\"\"}}アンタも　おまかせでリクエストしたら{{delay20}}\n{{anim id=\"Hello\" target=\"actor\" targetSpec=\"\"}}{{ruby charSpan=\"1\" value=\"き\"}}聴けるかも　しれないよ？　{{string value=\"6\"}}"
  },
  {
    "label": "023",
    "attribute": "0x0000000000000000",
    "text": "そういや　アンタ、{{delay frames=\"30\"}}\n{{anim id=\"QuestionMark\" target=\"actor\" targetSpec=\"\"}}{{color id=\"1\"}}{{fun_0000007D arg=\"0x0000\"}}{{color id=\"65535\"}}って\n{{color id=\"3\"}}とたけけ{{color id=\"65535\"}}さんの{{ruby charSpan=\"1\" value=\"きょく\"}}曲を{{delay8}}　{{ruby charSpan=\"1\" value=\"し\"}}知ってるかい？{{pageBreak}}{{anim id=\"Thinking\" target=\"actor\" targetSpec=\"\"}}おまかせで　リクエストしたら{{delay8}}\n{{ruby charSpan=\"2\" value=\"えんそう\"}}演奏してくれたんだけど、{{delay frames=\"30\"}}\n{{anim id=\"OhGeez\" target=\"actor\" targetSpec=\"\"}}ウチは　{{ruby charSpan=\"1\" value=\"き\"}}聴いたことがない{{ruby charSpan=\"1\" value=\"き\"}}気がしてね{{pageBreak}}{{anim id=\"Smiling\" target=\"actor\" targetSpec=\"\"}}よかったら　アンタも　リクエストして{{delay8}}\n{{ruby charSpan=\"1\" value=\"たし\"}}確かめてみてよ{{delay40}}\n{{anim id=\"Nodding\" target=\"actor\" targetSpec=\"\"}}いい{{ruby charSpan=\"1\" value=\"きょく\"}}曲なのは　{{ruby charSpan=\"2\" value=\"まちが\"}}間違いないからさ、{{string value=\"6\"}}"
  },
  {
    "label": "100",
    "attribute": "0x0000000000000000",
    "text": "{{anim id=\"Eh\" target=\"actor\" targetSpec=\"\"}}そういえば、{{delay8}}さっき\n{{ruby charSpan=\"1\" value=\"し\"}}知らないヤツを　{{ruby charSpan=\"1\" value=\"み\"}}見かけたな{{delay frames=\"40\"}}\n{{anim id=\"EmotEnd\" target=\"actor\" targetSpec=\"\"}}アンタは　もう　{{anim id=\"Hello\" target=\"actor\" targetSpec=\"\"}}{{ruby charSpan=\"1\" value=\"あ\"}}会ったかい？"
  }
]