﻿[
  {
    "label": "001",
    "attribute": "0x0000000000000000",
    "text": "{{anim id=\"Smiling\" target=\"actor\" targetSpec=\"\"}}{{ruby charSpan=\"2\" value=\"こんげつ\"}}今月も{{ruby charSpan=\"1\" value=\"なか\"}}半ばを{{ruby charSpan=\"1\" value=\"す\"}}過ぎて{{delay20}}\nいよいよ{{delay8}}　クリスマスって{{ruby charSpan=\"3\" value=\"ふんいき\"}}雰囲気だね！{{pageBreak}}{{anim id=\"Thinking\" target=\"actor\" targetSpec=\"\"}}ウチも　そろそろ{{ruby charSpan=\"2\" value=\"ほんごし\"}}本腰を{{ruby charSpan=\"1\" value=\"い\"}}入れて{{delay20}}\nプレゼントのこととか　{{ruby charSpan=\"1\" value=\"かんが\"}}考えなきゃ{{string value=\"...\"}}{{pageBreak}}{{anim id=\"Eh\" target=\"actor\" targetSpec=\"\"}}あ、{{delay8}}アンタも　プレゼントする{{ruby charSpan=\"2\" value=\"あいて\"}}相手がいるなら{{delay20}}\n{{anim id=\"EmotEnd\" target=\"actor\" targetSpec=\"\"}}ラッピングまで　{{ruby charSpan=\"1\" value=\"わす\"}}忘れないようにするんだよ{{delay40}}\n{{anim id=\"OhGeez\" target=\"actor\" targetSpec=\"\"}}むき{{ruby charSpan=\"1\" value=\"だ\"}}出しじゃ、{{delay8}}せっかくの{{ruby charSpan=\"2\" value=\"ふぜい\"}}風情も{{ruby charSpan=\"2\" value=\"だいな\"}}台無しだしね"
  },
  {
    "label": "002",
    "attribute": "0x0000000000000000",
    "text": "{{anim id=\"Explain\" target=\"actor\" targetSpec=\"\"}}ガキの{{ruby charSpan=\"1\" value=\"ころ\"}}頃、{{delay8}}プレゼントが{{ruby charSpan=\"1\" value=\"たの\"}}楽しみでさ{{delay frames=\"50\"}}\n{{anim id=\"ShyBoy\" target=\"actor\" targetSpec=\"\"}}クリスマスの{{ruby charSpan=\"1\" value=\"ひ\"}}日の{{ruby charSpan=\"1\" value=\"あさ\"}}朝は{{delay20}}\n{{ruby charSpan=\"1\" value=\"だれ\"}}誰よりも{{ruby charSpan=\"1\" value=\"はや\"}}早く　{{ruby charSpan=\"1\" value=\"お\"}}起きてたっけ{{string value=\"...\"}}{{pageBreak}}{{anim id=\"AbsentMindedness\" target=\"actor\" targetSpec=\"\"}}あのワクワクする{{ruby charSpan=\"1\" value=\"かん\"}}感じは　{{ruby charSpan=\"3\" value=\"いっしょうわす\"}}一生忘れらんないよ{{delay40}}\n{{anim id=\"EmotEnd\" target=\"actor\" targetSpec=\"\"}}いざ　あげる{{ruby charSpan=\"1\" value=\"ほう\"}}方になってみると{{delay20}}　{{anim id=\"Nodding\" target=\"actor\" targetSpec=\"\"}}それはそれで{{delay8}}\nワクワクするんだけどね、{{string value=\"6\"}}"
  },
  {
    "label": "003",
    "attribute": "0x0000000000000000",
    "text": "{{anim id=\"BigSmile\" target=\"actor\" targetSpec=\"\"}}{{ruby charSpan=\"2\" value=\"ひろば\"}}広場に{{delay8}}　{{ruby charSpan=\"1\" value=\"おお\"}}大きなツリーが{{ruby charSpan=\"1\" value=\"かざ\"}}飾られてたね～！{{delay40}}\n{{anim id=\"Nodding\" target=\"actor\" targetSpec=\"\"}}この{{string value=\"32\"}}も{{delay8}}　すっかり\nクリスマスムードに{{ruby charSpan=\"1\" value=\"つつ\"}}包まれたってわけか{{pageBreak}}{{anim id=\"Greeting\" target=\"actor\" targetSpec=\"\"}}アンタも{{delay8}}　{{ruby charSpan=\"1\" value=\"いま\"}}今のうちに{{ruby charSpan=\"2\" value=\"しゃしん\"}}写真とか　{{ruby charSpan=\"1\" value=\"と\"}}撮っときなよ{{delay40}}\nあとになって　{{ruby charSpan=\"1\" value=\"き\"}}気づくもんだけど{{delay20}}\n{{anim id=\"Hello\" target=\"actor\" targetSpec=\"\"}}{{ruby charSpan=\"1\" value=\"おも\"}}思い{{ruby charSpan=\"2\" value=\"でづく\"}}出作りって{{delay8}}　{{ruby charSpan=\"2\" value=\"だいじ\"}}大事だからさ、{{string value=\"6\"}}"
  }
]