﻿[
  {
    "label": "001",
    "attribute": "0x00000013",
    "text": "您好，{{delay20}}我是{{string value=\"VillagerName\"}}。{{delay frames=\"60\"}}\n{{anim id=\"Nodding\" target=\"actor\" targetSpec=\"\"}}嗯，{{delay20}}是{{string value=\"PlayerName\"}}呀。{{delay frames=\"40\"}}\n{{anim id=\"QuestionMark\" target=\"actor\" targetSpec=\"\"}}有什么事吗？"
  },
  {
    "label": "002",
    "attribute": "0x00000013",
    "text": "{{anim id=\"Shocked\" target=\"actor\" targetSpec=\"\"}}哎呀，{{delay8}}去{{color id=\"1\"}}露营地{{color id=\"65535\"}}？！{{delay frames=\"40\"}}\n{{anim id=\"FaintSmile\" target=\"actor\" targetSpec=\"\"}}听上去就很有趣！{{pageBreak}}{{anim id=\"Serious\" target=\"actor\" targetSpec=\"\"}}但是，我太忙了，{{delay frames=\"30\"}}\n{{anim id=\"Negative\" target=\"actor\" targetSpec=\"\"}}恐怕不能去呢。{{pageBreak}}{{anim id=\"Worried\" target=\"actor\" targetSpec=\"\"}}难得您来邀请我，但是很抱歉。{{delay20}}\n{{anim id=\"EmotEnd\" target=\"actor\" targetSpec=\"\"}}真的对不起～"
  },
  {
    "label": "101",
    "attribute": "0x00000013",
    "text": "您好，{{delay20}}我是{{string value=\"VillagerName\"}}。{{delay frames=\"40\"}}\n特地联系我，{{delay20}}\n{{anim id=\"QuestionMark\" target=\"actor\" targetSpec=\"\"}}是有什么事吗？{{pageBreak}}{{anim id=\"Aha\" target=\"actor\" targetSpec=\"\"}}哎呀，{{delay20}}要为我建造别墅吗？！{{delay frames=\"50\"}}\n{{anim id=\"Thinking\" target=\"actor\" targetSpec=\"\"}}很感谢您的邀请，{{delay20}}\n{{anim id=\"Negative\" target=\"actor\" targetSpec=\"\"}}但麻烦的是，{{delay8}}我对这类事情并不了解{{string value=\"...\"}}{{pageBreak}}{{anim id=\"Eh\" target=\"actor\" targetSpec=\"\"}}咦？{{delay20}}可以把一切事务\n都交给您来操办吗？{{delay frames=\"40\"}}\n{{anim id=\"Greeting\" target=\"actor\" targetSpec=\"\"}}那就请您务必帮忙了！"
  }
]