﻿[
  {
    "label": "001",
    "attribute": "0x0000000000000000",
    "text": "{{fun_0014003C arg=\"\"}}"
  },
  {
    "label": "001_01",
    "attribute": "0x0000000000000000",
    "text": "{{anim id=\"BigSmile\" target=\"actor\" targetSpec=\"\"}}Bien sûr!{{delay frames=\"40\"}}{{anim id=\"AbsentMindedness\" target=\"actor\" targetSpec=\"\"}} Hé hé hé!{{delay20}} Je vais pouvoir\nfaire plein de nouveaux trucs,{{delay20}} et\naussi plein de vieux trucs!{{pageBreak}}{{anim id=\"Greeting\" target=\"actor\" targetSpec=\"\"}}Mais tout ça, dans un endroit tout\nneuf, {{string value=\"6\"}}!"
  },
  {
    "label": "002",
    "attribute": "0x0000000000000000",
    "text": "{{anim id=\"BigSmile\" target=\"actor\" targetSpec=\"\"}}Mais aucun problème!{{delay frames=\"40\"}} {{anim id=\"EmotEnd\" target=\"actor\" targetSpec=\"\"}}Qu'on me\nredécore ma maison sans que j'aie\nà lever le petit doigt{{string value=\"...\"}}{{pageBreak}}{{anim id=\"Laughing\" target=\"actor\" targetSpec=\"\"}}Je risque pas de refuser, {{string value=\"6\"}}!"
  }
]