﻿[
  {
    "label": "100",
    "attribute": "0x0000000000000000",
    "text": "{{anim id=\"QuestionMark\" target=\"actor\" targetSpec=\"\"}}¿Sabes lo que dijo\n{{selection value=\"SelectedVillager\"}}?{{pageBreak}}{{anim id=\"Shocked\" target=\"actor\" targetSpec=\"\"}}Dijo que está muy {{gender3 m=\"contento\" f=\"contenta\"}} de\nque yo viva en {{string value=\"OtherIslandName\"}}\nporque así nunca se aburrirá.\n{{anim id=\"WrySmile\" target=\"actor\" targetSpec=\"\"}}¡Pues todavía no sabe lo que es\n{{randomHobby}} conmigo!{{delay20}}\n{{anim id=\"Laughing\" target=\"actor\" targetSpec=\"\"}}¡Ja, ja, ja!{{anim id=\"EmotEnd\" target=\"actor\" targetSpec=\"\"}}"
  },
  {
    "label": "101",
    "attribute": "0x0000000000000000",
    "text": "{{anim id=\"Thinking\" target=\"actor\" targetSpec=\"\"}}Entonces,{{delay8}} según {{selection value=\"SelectedVillager\"}},{{delay8}} los dos habitantes más fiables de la isla somos tú y yo.\n{{anim id=\"Explain\" target=\"actor\" targetSpec=\"\"}}Y estoy de acuerdo,{{delay8}} pero también\nincluiría a {{color id=\"3\"}}Tom Nook{{color id=\"65535\"}} en la lista.{{anim id=\"EmotEnd\" target=\"actor\" targetSpec=\"\"}}\n{{anim id=\"Laughing\" target=\"actor\" targetSpec=\"\"}}¡Ja, ja, ja!{{anim id=\"EmotEnd\" target=\"actor\" targetSpec=\"\"}}"
  },
  {
    "label": "102",
    "attribute": "0x0000000000000000",
    "text": "{{anim id=\"Angry\" target=\"actor\" targetSpec=\"\"}}¡Qué rabia me da {{selection value=\"SelectedVillager\"}}\ncuando me lanza indirectas con\nsu cara de {{randomObj}}!\n{{anim id=\"OhGeez\" target=\"actor\" targetSpec=\"\"}}Dice que admira mi constancia,{{delay8}} {{anim id=\"TakenAback\" target=\"actor\" targetSpec=\"\"}}pero\ncon eso insinúa que soy un abuelo\nque nunca se sale de la rutina.\n{{anim id=\"Scheming\" target=\"actor\" targetSpec=\"\"}}Mañana {{gender3 m=\"lo\" f=\"la\"}} voy a invitar a desayunar\na medianoche en el tejado.{{delay20}}\n¡A ver si aprende!{{anim id=\"EmotEnd\" target=\"actor\" targetSpec=\"\"}}"
  },
  {
    "label": "200",
    "attribute": "0x0000000000000000",
    "text": "{{anim id=\"Explain\" target=\"actor\" targetSpec=\"\"}}¿Sabes?{{delay20}} Si en la vida llegas\na conocer cuatro o cinco personas,{{delay8}}\nte puedes sentir afortunad{{gender2 m=\"o\" f=\"a\"}}.\n{{anim id=\"WrySmile\" target=\"actor\" targetSpec=\"\"}}Me refiero a conocer realmente\na alguien:{{delay8}} qué películas le gustan,{{delay8}}\nsus secretos más vergonzosos{{string value=\"...\"}}\n{{anim id=\"Hesitate\" target=\"actor\" targetSpec=\"\"}}Bueno,{{delay8}} lo que quiero decir es que\nme siento feliz de que tú y yo\nseamos tan buenos amigos.{{anim id=\"EmotEnd\" target=\"actor\" targetSpec=\"\"}}"
  },
  {
    "label": "201",
    "attribute": "0x0000000000000000",
    "text": "{{anim id=\"Hesitate\" target=\"actor\" targetSpec=\"\"}}Sabes que a mí me puedes contar\nlo que sea,{{delay8}} ¿no?{{delay20}} Puedes confiar\ntotalmente en mí.\n{{anim id=\"Smiling\" target=\"actor\" targetSpec=\"\"}}Porque yo siento que puedo contarte\ntodos mis secretos,{{delay8}} bueno, solo los\nque ya saben todos,{{delay8}} {{anim id=\"Laughing\" target=\"actor\" targetSpec=\"\"}}¡ja, ja, ja!{{anim id=\"EmotEnd\" target=\"actor\" targetSpec=\"\"}}"
  },
  {
    "label": "202",
    "attribute": "0x0000000000000000",
    "text": "{{anim id=\"Smiling\" target=\"actor\" targetSpec=\"\"}}Eres {{gender2 m=\"un\" f=\"una\"}} verdader{{gender2 m=\"o\" f=\"a\"}} amig{{gender2 m=\"o\" f=\"a\"}},{{delay8}}\n{{string value=\"NickName\"}}.{{delay20}} {{anim id=\"Negative\" target=\"actor\" targetSpec=\"\"}}Y,{{delay8}} como ves,{{delay8}}\nlo digo totalmente en serio.{{anim id=\"EmotEnd\" target=\"actor\" targetSpec=\"\"}}"
  }
]