﻿[
  {
    "label": "200",
    "text": "謝謝你願意成為巧美生活的一分子！\n往後我也會給你一些工作上的建議！"
  },
  {
    "label": "201",
    "text": "我們事務所的1樓是伴手禮商店！\n當然，各位員工也可以購買喔♪"
  },
  {
    "label": "202",
    "text": "各座小島的貨幣是{{color id=\"1\"}}波金{{color id=\"65535\"}}，不是鈴錢喔！\n薪水也將以波金來支付，關於這點還請多多包涵！"
  },
  {
    "label": "203",
    "text": "事務所的二樓是員工休息室，歡迎自由使用！\n你可以在你的{{color id=\"1\"}}置物櫃{{color id=\"65535\"}}中隨意搭配制服喔！"
  },
  {
    "label": "204",
    "text": "事務所的二樓是員工休息室，歡迎自由使用！\n你也可以使用{{color id=\"1\"}}穿衣鏡{{color id=\"65535\"}}更改外貌形象喔！"
  },
  {
    "label": "205",
    "text": "事務所的二樓是員工休息室，歡迎自由使用！\n你可以使用{{color id=\"1\"}}櫃子{{color id=\"65535\"}}存取在房子收納空間裡的物品喔！"
  },
  {
    "label": "206",
    "text": "如果不介意的話，你可以把我們店裡販售的\n{{color id=\"1\"}}伴手禮巧克力{{color id=\"65535\"}}分送給你島上的居民喔！\n順便還可以詢問對方要不要打造別墅呢！"
  },
  {
    "label": "207",
    "text": "在選擇別墅建造地點時，也可以同時選擇{{color id=\"1\"}}季節{{color id=\"65535\"}}喔！\n季節不同，給人的印象就會不同，多多嘗試看看吧！"
  },
  {
    "label": "208",
    "text": "別墅打造到一半時，也能更改島的{{color id=\"1\"}}季節{{color id=\"65535\"}}喔！\n在庭園按{{color id=\"1\"}}{{color id=\"65535\"}}查看吧！"
  },
  {
    "label": "209",
    "text": "一座島上可建造的別墅數量沒有上限喔！\n所以不要擔心，每項委託都可以選擇自己喜歡的地點♪"
  },
  {
    "label": "210",
    "text": "拍攝別墅照片時，按{{color id=\"1\"}}{{color id=\"65535\"}}就可以{{color id=\"1\"}}換裝{{color id=\"65535\"}}喔！\n穿上與房間相符的服裝，享受拍照的樂趣吧♪"
  },
  {
    "label": "211",
    "text": "拍攝別墅照片時，透過{{color id=\"1\"}}{{color id=\"65535\"}}就能更改那裡的人所處的場所喔！\n決定一個最棒的地點，拍出一張最棒的照片吧♪"
  },
  {
    "label": "212",
    "text": "別墅的照片不論是在房間還是庭園，任何地方都可以拍攝喔！\n選出一個與主題相符的場所吧♪"
  },
  {
    "label": "213",
    "text": "工作中，可以從庭園的{{color id=\"1\"}}{{color id=\"65535\"}}選擇{{color id=\"1\"}}時間{{color id=\"65535\"}}和{{color id=\"1\"}}天氣{{color id=\"65535\"}}喔！\n打造出與委託主題相符的氣氛也是很重要的呢♪"
  },
  {
    "label": "214",
    "text": "可以在庭園的布置模式中決定{{color id=\"1\"}}別墅的外觀{{color id=\"65535\"}}喔！\n選擇別墅後，按{{color id=\"1\"}}{{color id=\"65535\"}}看看吧！"
  },
  {
    "label": "215",
    "text": "更改{{color id=\"1\"}}別墅的外觀{{color id=\"65535\"}}時，不同外型的建築物，\n能選擇的屋頂或牆壁也都不同，多方嘗試看看吧♪"
  },
  {
    "label": "216",
    "text": "在別墅擺放{{color id=\"1\"}}音響{{color id=\"65535\"}}，就能在房間播放BGM喔！\n播放與主題相符的曲子，讓氣氛變得更好吧♪"
  },
  {
    "label": "217",
    "text": "工作中，可以透過{{color id=\"1\"}}{{color id=\"65535\"}}來{{color id=\"1\"}}擦拭家具{{color id=\"65535\"}}喔！"
  },
  {
    "label": "218",
    "text": "工作中，可以按{{color id=\"1\"}}鍵{{color id=\"65535\"}}進行{{color id=\"1\"}}中斷儲存{{color id=\"65535\"}}喔！\n不過，無法於拍攝照片時使用，敬請留意。"
  },
  {
    "label": "219",
    "text": "{{color id=\"1\"}}擦拭家具{{color id=\"65535\"}}時，可以按{{color id=\"1\"}}鍵{{color id=\"65535\"}}選擇擦拭的方法喔！\n試著對不同的家具或雜貨，使用不同的擦拭方法看看吧！"
  },
  {
    "label": "220",
    "text": "在{{color id=\"1\"}}布置設施{{color id=\"65535\"}}時，如果想要更改外觀，\n就來跟我說一聲吧！"
  },
  {
    "label": "221",
    "text": "{{color id=\"1\"}}擦拭家具{{color id=\"65535\"}}時，只要按住{{color id=\"1\"}}{{color id=\"65535\"}}就能仔細擦拭喔！"
  },
  {
    "label": "222",
    "text": "{{color id=\"1\"}}過度擦拭家具{{color id=\"65535\"}}時，也可以調整喔！\n只要再按一次{{color id=\"1\"}}{{color id=\"65535\"}}稍微抹掉，或是按{{color id=\"1\"}}{{color id=\"65535\"}}敲一敲就可以了！"
  },
  {
    "label": "223",
    "text": "如果參加了{{color id=\"3\"}}狸克{{color id=\"65535\"}}的{{color id=\"1\"}}改造體驗工作坊{{color id=\"65535\"}}，\n工作時就能選擇{{color id=\"1\"}}家具的顏色種類{{color id=\"65535\"}}囉！"
  },
  {
    "label": "224",
    "text": "用照相機應用程式拍照時，使用{{color id=\"1\"}}{{color id=\"65535\"}}，就可以不照到人喔！\n只想拍攝房間或是庭園時，就使用看看吧！"
  },
  {
    "label": "225",
    "text": "只要有{{color id=\"1\"}}照相機應用程式PRO{{color id=\"65535\"}}，就能更自由地享受攝影的樂趣了！\n透過{{color id=\"1\"}}狸端機{{color id=\"65535\"}}使用哩數就能兌換，記得要去看看喔♪"
  },
  {
    "label": "226",
    "text": "在布置模式中，選擇{{color id=\"1\"}}{{color id=\"65535\"}}，\n就能調整{{color id=\"1\"}}房間的大小{{color id=\"65535\"}}或{{color id=\"1\"}}窗戶{{color id=\"65535\"}}‧{{color id=\"1\"}}入口的地板{{color id=\"65535\"}}喔！"
  },
  {
    "label": "227",
    "text": "在布置模式中選擇{{color id=\"1\"}}{{color id=\"65535\"}}，\n可以調整{{color id=\"1\"}}房間的大小{{color id=\"65535\"}}、{{color id=\"1\"}}窗戶{{color id=\"65535\"}}‧{{color id=\"1\"}}入口{{color id=\"65535\"}}及\n{{color id=\"1\"}}照明的顏色和亮度{{color id=\"65535\"}}喔！"
  },
  {
    "label": "228",
    "text": "在布置模式中選擇{{color id=\"1\"}}{{color id=\"65535\"}}，可以調整{{color id=\"1\"}}房間的大小{{color id=\"65535\"}}、\n{{color id=\"1\"}}窗戶{{color id=\"65535\"}}‧{{color id=\"1\"}}入口{{color id=\"65535\"}}、{{color id=\"1\"}}照明{{color id=\"65535\"}}及{{color id=\"1\"}}環境音{{color id=\"65535\"}}喔！"
  },
  {
    "label": "229",
    "text": "交配種的花朵交配後，會繁殖出顏色稀有的花朵。\n獲得之後，就可以在打造別墅的時候訂購囉！"
  },
  {
    "label": "230",
    "text": "拜訪客人的別墅時，\n也可以提案{{color id=\"1\"}}裝修{{color id=\"65535\"}}或是{{color id=\"1\"}}搬家{{color id=\"65535\"}}到別的地點喔！"
  },
  {
    "label": "231",
    "text": "{{color id=\"1\"}}「我的設計」{{color id=\"65535\"}}也可以用在{{color id=\"1\"}}擦拭家具{{color id=\"65535\"}}的效果上喔！\n雖然需要一些訣竅，但只要加以活用，絕對可以提升表現力♪"
  },
  {
    "label": "232",
    "text": "使用事務所櫃台的{{color id=\"1\"}}amiibo讀寫器{{color id=\"65535\"}}，\n就可以透過{{color id=\"1\"}}amiibo{{color id=\"65535\"}}來邀請不在海灘的客人囉！"
  },
  {
    "label": "233",
    "text": "{{color id=\"1\"}}藤蔓{{color id=\"65535\"}}和{{color id=\"1\"}}光蘚{{color id=\"65535\"}}都是這個地方才有的稀有植物！\n事務所附近也有這些植物，歡迎帶回去喔♪"
  },
  {
    "label": "234",
    "text": "來工作的時候，也可以在事務所附近散步看看喔！\n{{color id=\"1\"}}北邊海灘{{color id=\"65535\"}}可是這裡的人氣觀光景點呢♪"
  },
  {
    "label": "235",
    "text": "有時間的話，可以去海灘散步看看喔！\n有時候也會在那裡撿到{{color id=\"1\"}}瓶中信{{color id=\"65535\"}}呢♪"
  },
  {
    "label": "236",
    "text": "只要拜訪建造於島上的{{color id=\"1\"}}設施{{color id=\"65535\"}}，\n就可以按{{color id=\"1\"}}{{color id=\"65535\"}}替換工作的人喔！"
  },
  {
    "label": "237",
    "text": "想要建造{{color id=\"1\"}}新的設施{{color id=\"65535\"}}時，請先來事務所跟我說一聲喔！"
  },
  {
    "label": "238",
    "text": "只要是{{color id=\"1\"}}ＤＩＹ{{color id=\"65535\"}}過的家具，都可以在打造別墅時使用喔！\n多多ＤＩＹ，增加可以使用的物品吧♪"
  },
  {
    "label": "239",
    "text": "事務所的二樓是員工休息室，歡迎自由使用！\n那裡也有供ＤＩＹ使用的{{color id=\"1\"}}作業台{{color id=\"65535\"}}喔！"
  },
  {
    "label": "240",
    "text": "拜訪客人的別墅時，除了可以提案{{color id=\"1\"}}裝修{{color id=\"65535\"}}或是\n{{color id=\"1\"}}搬家{{color id=\"65535\"}}到別的地點外，還可以提案{{color id=\"1\"}}同住{{color id=\"65535\"}}喔！"
  },
  {
    "label": "241",
    "text": "只要跟{{color id=\"1\"}}咖啡店{{color id=\"65535\"}}的店員說一聲，\n就可以從外帶菜單訂購餐點囉！"
  },
  {
    "label": "242",
    "text": "只要去{{color id=\"1\"}}醫院{{color id=\"65535\"}}，就可以讓醫生稍微為你看診喔！"
  },
  {
    "label": "243",
    "text": "{{color id=\"1\"}}醫院{{color id=\"65535\"}}好像正在為了擴建而募款呢！\n可以的話，請幫忙一下吧！"
  },
  {
    "label": "244",
    "text": "{{color id=\"1\"}}服裝店{{color id=\"65535\"}}的商品每天都會更換喔！\n來工作的時候就順便選購一下吧♪"
  },
  {
    "label": "245",
    "text": "北邊的沙灘會不定期舉辦{{color id=\"3\"}}DJ KK{{color id=\"65535\"}}的音樂活動喔！\n活動的前一天會開始布置場地，記得要去看看喔♪"
  },
  {
    "label": "246",
    "text": "事務所的{{color id=\"1\"}}ATM{{color id=\"65535\"}}可以進行波金的存款跟提款，\n也可以兌換波金和鈴錢喔！"
  },
  {
    "label": "247",
    "text": "{{color id=\"1\"}}ATM{{color id=\"65535\"}}的波金‧鈴錢兌換匯率每天都不一樣！\n要兌換的話，就要看準匯率好的日子喔！"
  },
  {
    "label": "248",
    "text": "{{color id=\"1\"}}ATM{{color id=\"65535\"}}的波金‧鈴錢兌換有每日可兌換額度的限制。\n記得定期兌換，以防不時之需喔！"
  },
  {
    "label": "249",
    "text": "只要拜託{{color id=\"3\"}}納提{{color id=\"65535\"}}，\n就可以隨時訂購我們店裡的商品喔♪"
  }
]