﻿{
  "version": 4,
  "rootNode": {
    "GMO調整": {
      "mEmoticonNodeParamsArray": {
        "EyeR": {
          "mTrans.V3f": [-2.33723,0.610399,1.253174]
        },
        "Mouth": {
          "mTrans.V3f": [0.0,-0.687689,5.311145]
        },
        "EyeL": {
          "mTrans.V3f": [2.33723,0.610399,1.253174]
        }
      },
      "mHandItemOffset.V3f": [0.0,0.679184,1.317761],
      "mAccParamsArray": {
        "C_BrimUnder": {
          "mEarSetType.s32": 0,
          "mRotate.V3f": [0.0,-1.570796,-1.778342],
          "mScale.V3f": [0.494512,0.50054,0.490701],
          "mTrans.V3f": [4.920282,-0.534729,0.0]
        },
        "G_Fit": {
          "mEarSetType.s32": 0,
          "mRotate.V3f": [0.0,-1.570796,-3.051103],
          "mScale.V3f": [0.701576,0.677335,0.677335],
          "mTrans.V3f": [5.185627,3.994502,0.0]
        },
        "C_Forehead": {
          "mEarSetType.s32": 0,
          "mRotate.V3f": [0.0,-1.570796,-1.75265],
          "mScale.V3f": [1.0,1.0,1.0],
          "mTrans.V3f": [4.98578,-0.354394,0.0]
        },
        "G_Normal": {
          "mEarSetType.s32": 0,
          "mRotate.V3f": [0.0,-1.570796,-2.831886],
          "mScale.V3f": [0.701576,0.677335,0.677335],
          "mTrans.V3f": [4.845418,4.192629,0.0]
        },
        "C_Crown": {
          "mEarSetType.s32": 0,
          "mRotate.V3f": [0.0,-1.570796,-1.75265],
          "mScale.V3f": [1.0,1.0,1.0],
          "mTrans.V3f": [4.763762,-0.313568,0.0]
        },
        "C_Brim": {
          "mEarSetType.s32": 0,
          "mRotate.V3f": [0.0,-1.570796,-1.781199],
          "mScale.V3f": [0.516987,0.523289,0.513003],
          "mTrans.V3f": [4.678686,-0.696961,0.0]
        },
        "C_Knit": {
          "mEarSetType.s32": 0,
          "mRotate.V3f": [0.0,-1.570796,-1.834353],
          "mScale.V3f": [0.494512,0.50054,0.490701],
          "mTrans.V3f": [4.723035,-0.489289,0.0]
        },
        "C_Left": {
          "mEarSetType.s32": 0,
          "mRotate.V3f": [0.367849,0.420045,-1.766823],
          "mScale.V3f": [0.96714,0.96714,0.96714],
          "mTrans.V3f": [4.596457,-1.014621,1.357579]
        },
        "C_Mask": {
          "mEarSetType.s32": 0,
          "mRotate.V3f": [-1.28187,1.455584,-1.748201],
          "mScale.V3f": [0.711321,0.724421,0.756786],
          "mTrans.V3f": [4.398003,-2.524877,0.350263]
        },
        "C_Normal": {
          "mEarSetType.s32": 0,
          "mRotate.V3f": [0.0,-1.570796,-1.781199],
          "mScale.V3f": [0.494512,0.50054,0.490701],
          "mTrans.V3f": [4.723035,-0.489289,0.0]
        },
        "G_Down": {
          "mEarSetType.s32": 0,
          "mRotate.V3f": [0.0,-1.570796,-2.831886],
          "mScale.V3f": [0.701576,0.677335,0.677335],
          "mTrans.V3f": [4.845418,4.192629,0.0]
        },
        "C_Bandana": {
          "mEarSetType.s32": 0,
          "mRotate.V3f": [0.0,-1.570796,-1.834353],
          "mScale.V3f": [0.494512,0.50054,0.490701],
          "mTrans.V3f": [4.723035,-0.489289,0.0]
        },
        "C_Top": {
          "mEarSetType.s32": 0,
          "mRotate.V3f": [0.0,-1.570796,-1.861377],
          "mScale.V3f": [1.0,1.0,1.0],
          "mTrans.V3f": [4.877519,-0.590985,0.0]
        },
        "G_FitLittle": {
          "mEarSetType.s32": 0,
          "mRotate.V3f": [0.0,-1.570796,-3.051103],
          "mScale.V3f": [0.701576,0.677335,0.677335],
          "mTrans.V3f": [4.711926,4.185961,0.0]
        },
        "C_Right": {
          "mEarSetType.s32": 0,
          "mRotate.V3f": [-2.773743,0.420045,1.37477],
          "mScale.V3f": [0.96714,0.96714,0.96714],
          "mTrans.V3f": [4.596457,-1.014621,-1.357579]
        },
        "C_LeftBig": {
          "mEarSetType.s32": 0,
          "mRotate.V3f": [0.442264,-0.69634,-2.217597],
          "mScale.V3f": [0.96714,0.96714,0.96714],
          "mTrans.V3f": [4.599052,-1.015574,1.358541]
        },
        "G_Beard": {
          "mEarSetType.s32": 0,
          "mRotate.V3f": [0.0,-1.570796,-3.034032],
          "mScale.V3f": [0.699134,0.674979,0.674979],
          "mTrans.V3f": [3.734625,5.805748,0.0]
        },
        "None": {
          "mEarSetType.s32": 0,
          "mRotate.V3f": [-0.331837,-1.527046,-1.521244],
          "mScale.V3f": [1.0,1.0,1.0],
          "mTrans.V3f": [2.315217,3.399804,0.147844]
        },
        "G_Left": {
          "mEarSetType.s32": 0,
          "mRotate.V3f": [-0.19103,-0.834226,-1.530877],
          "mScale.V3f": [1.255206,1.244665,1.463346],
          "mTrans.V3f": [3.313627,0.719183,2.198013]
        },
        "G_UP": {
          "mEarSetType.s32": 0,
          "mRotate.V3f": [0.0,-1.570796,-2.831886],
          "mScale.V3f": [0.701576,0.677335,0.677335],
          "mTrans.V3f": [4.845418,4.192629,0.0]
        },
        "G_LeftBig": {
          "mEarSetType.s32": 0,
          "mRotate.V3f": [-0.257812,-1.000335,-1.509266],
          "mScale.V3f": [1.0,1.0,1.0],
          "mTrans.V3f": [2.740593,0.761097,1.807993]
        }
      },
      "mSitOffset.V3f": [0.0,0.061792,0.0],
      "mEyeCtrlParamVertical.V3f": [-24.0,18.0,5.1],
      "mToolParamsArray": {
        "Trwl": {
          "mRotate.V3f": [0.0,0.0,0.0],
          "mTrans.V3f": [0.0,0.0,0.0],
          "mScale.f32": 1.0
        },
        "Fpan": {
          "mRotate.V3f": [0.0,0.0,0.0],
          "mTrans.V3f": [0.0,0.0,0.0],
          "mScale.f32": 1.0
        },
        "Tr": {
          "mRotate.V3f": [0.0,0.0,0.0],
          "mTrans.V3f": [1.357486,0.871247,0.045581],
          "mScale.f32": 1.0
        },
        "PaperFan": {
          "mRotate.V3f": [0.0,0.0,0.0],
          "mTrans.V3f": [0.0,0.0,0.0],
          "mScale.f32": 1.0
        },
        "Candy": {
          "mRotate.V3f": [0.0,0.0,0.0],
          "mTrans.V3f": [0.0,0.0,0.0],
          "mScale.f32": 1.0
        },
        "Pitc": {
          "mRotate.V3f": [0.0,0.0,0.0],
          "mTrans.V3f": [-0.034382,0.0,0.288766],
          "mScale.f32": 1.0
        },
        "Cop": {
          "mRotate.V3f": [0.0,0.0,0.0],
          "mTrans.V3f": [-0.300202,0.0,0.093247],
          "mScale.f32": 1.0
        },
        "HandLens": {
          "mRotate.V3f": [0.0,0.0,0.0],
          "mTrans.V3f": [0.092664,0.0,0.0],
          "mScale.f32": 1.0
        },
        "GlDr": {
          "mRotate.V3f": [0.0,0.0,0.0],
          "mTrans.V3f": [0.0,0.0,0.0],
          "mScale.f32": 1.0
        },
        "Coffee": {
          "mRotate.V3f": [0.0,0.0,0.0],
          "mTrans.V3f": [-0.300202,0.0,0.093247],
          "mScale.f32": 1.0
        },
        "FruitBasket": {
          "mRotate.V3f": [0.0,0.0,0.0],
          "mTrans.V3f": [0.0,0.0,0.0],
          "mScale.f32": 1.0
        },
        "StickLight": {
          "mRotate.V3f": [0.0,0.0,0.0],
          "mTrans.V3f": [0.0,0.0,0.0],
          "mScale.f32": 1.0
        },
        "Book": {
          "mRotate.V3f": [0.0,0.0,0.0],
          "mTrans.V3f": [0.0,0.0,0.0],
          "mScale.f32": 1.0
        },
        "Sandwich": {
          "mRotate.V3f": [0.0,0.0,0.0],
          "mTrans.V3f": [0.0,0.0,0.0],
          "mScale.f32": 1.0
        },
        "FishingRod": {
          "mRotate.V3f": [0.0,0.0,0.0],
          "mTrans.V3f": [0.0,0.0,0.0],
          "mScale.f32": 0.892353
        },
        "Dumbbell": {
          "mRotate.V3f": [0.0,0.0,0.0],
          "mTrans.V3f": [0.0,0.0,0.0],
          "mScale.f32": 1.0
        },
        "Watering": {
          "mRotate.V3f": [0.0,0.0,0.0],
          "mTrans.V3f": [0.210859,1.121581,0.140973],
          "mScale.f32": 1.0
        },
        "Sprayer": {
          "mRotate.V3f": [0.0,0.0,0.0],
          "mTrans.V3f": [-0.985913,1.160815,0.392986],
          "mScale.f32": 1.0
        },
        "Windmill": {
          "mRotate.V3f": [0.0,0.0,0.0],
          "mTrans.V3f": [-1.017018,0.952084,-0.103189],
          "mScale.f32": 1.0
        },
        "Doughnut": {
          "mRotate.V3f": [0.0,0.0,0.0],
          "mTrans.V3f": [0.0,0.0,0.0],
          "mScale.f32": 1.0
        },
        "SwRing": {
          "mRotate.V3f": [0.0,0.0,0.0],
          "mTrans.V3f": [0.0,0.0,0.0],
          "mScale.f32": 1.188738
        },
        "HighBagHand": {
          "mRotate.V3f": [0.0,0.0,0.0],
          "mTrans.V3f": [0.0,0.0,0.0],
          "mScale.f32": 1.0
        },
        "FAndK": {
          "mRotate.V3f": [0.097904,0.487289,0.161068],
          "mTrans.V3f": [-0.708893,-0.096524,-0.178048],
          "mScale.f32": 1.0
        },
        "Dh": {
          "mRotate.V3f": [0.0,0.0,0.0],
          "mTrans.V3f": [-0.551062,-0.072105,-0.971808],
          "mScale.f32": 1.0
        },
        "Duster": {
          "mRotate.V3f": [0.0,0.0,0.0],
          "mTrans.V3f": [0.0,0.0,0.0],
          "mScale.f32": 1.0
        },
        "CuteBagHand": {
          "mRotate.V3f": [0.0,0.0,0.0],
          "mTrans.V3f": [0.0,0.0,0.0],
          "mScale.f32": 1.0
        },
        "LightDumbbell": {
          "mRotate.V3f": [0.0,0.0,0.0],
          "mTrans.V3f": [0.0,0.0,0.0],
          "mScale.f32": 1.0
        },
        "Smoothie": {
          "mRotate.V3f": [0.0,0.0,0.0],
          "mTrans.V3f": [0.206911,0.0,0.0],
          "mScale.f32": 1.0
        },
        "CoolBagHand": {
          "mRotate.V3f": [0.0,0.0,0.0],
          "mTrans.V3f": [0.0,0.0,0.0],
          "mScale.f32": 1.0
        },
        "Firewood": {
          "mRotate.V3f": [0.0,0.0,0.0],
          "mTrans.V3f": [3.310946,2.146007,-0.70578],
          "mScale.f32": 1.254982
        },
        "SoapBubble": {
          "mRotate.V3f": [0.0,0.0,0.0],
          "mTrans.V3f": [1.937458,0.0,-1.214453],
          "mScale.f32": 1.0
        },
        "SmallBook": {
          "mRotate.V3f": [0.0,0.0,0.0],
          "mTrans.V3f": [0.0,0.0,0.0],
          "mScale.f32": 1.0
        },
        "SmartPhone": {
          "mRotate.V3f": [0.0,0.0,0.0],
          "mTrans.V3f": [0.0,0.14425,0.170457],
          "mScale.f32": 1.0
        },
        "Mcas": {
          "mRotate.V3f": [0.0,0.0,0.0],
          "mTrans.V3f": [0.0,0.0,0.0],
          "mScale.f32": 1.0
        },
        "Broom": {
          "mRotate.V3f": [0.0,0.0,0.0],
          "mTrans.V3f": [0.0,0.0,0.0],
          "mScale.f32": 1.031029
        },
        "Branch": {
          "mRotate.V3f": [0.0,0.0,0.0],
          "mTrans.V3f": [0.009833,0.0,-0.25007],
          "mScale.f32": 1.0
        },
        "Cracker": {
          "mRotate.V3f": [0.0,0.0,0.0],
          "mTrans.V3f": [0.0,0.0,0.0],
          "mScale.f32": 1.0
        },
        "Canister": {
          "mRotate.V3f": [0.0,0.0,0.0],
          "mTrans.V3f": [0.0,0.0,0.0],
          "mScale.f32": 1.0
        },
        "Tambourine": {
          "mRotate.V3f": [0.0,0.0,0.0],
          "mTrans.V3f": [0.11677,0.230152,-0.453932],
          "mScale.f32": 1.0
        },
        "Net": {
          "mRotate.V3f": [0.0,0.0,0.0],
          "mTrans.V3f": [0.0,0.0,0.0],
          "mScale.f32": 0.944714
        },
        "DStk": {
          "mRotate.V3f": [0.0,0.0,0.0],
          "mTrans.V3f": [0.0,0.0,0.104462],
          "mScale.f32": 1.0
        },
        "SpnR": {
          "mRotate.V3f": [0.0,0.0,0.0],
          "mTrans.V3f": [0.0,0.0,0.0],
          "mScale.f32": 1.0
        },
        "Hammer": {
          "mRotate.V3f": [0.0,0.0,0.0],
          "mTrans.V3f": [0.0,0.0,0.0],
          "mScale.f32": 1.0
        },
        "LowBagHand": {
          "mRotate.V3f": [0.0,0.0,0.0],
          "mTrans.V3f": [0.0,0.0,0.0],
          "mScale.f32": 1.0
        },
        "None": {
          "mRotate.V3f": [0.0,0.0,0.0],
          "mTrans.V3f": [0.0,0.0,0.0],
          "mScale.f32": 1.0
        },
        "MChart": {
          "mRotate.V3f": [0.0,0.0,0.0],
          "mTrans.V3f": [0.0,0.0,0.0],
          "mScale.f32": 1.0
        },
        "Umbrella": {
          "mRotate.V3f": [0.0,0.0,0.0],
          "mTrans.V3f": [0.0,0.0,0.0],
          "mScale.f32": 0.82907
        },
        "Cnut": {
          "mRotate.V3f": [0.0,0.0,0.0],
          "mTrans.V3f": [0.0,0.0,0.0],
          "mScale.f32": 1.0
        },
        "Firework": {
          "mRotate.V3f": [0.0,0.0,0.0],
          "mTrans.V3f": [0.0,0.0,0.0],
          "mScale.f32": 0.901488
        },
        "Ice": {
          "mRotate.V3f": [0.0,0.0,0.0],
          "mTrans.V3f": [0.0,0.0,0.0],
          "mScale.f32": 1.0
        }
      },
      "mCharacterSize.Enum": "cLarge",
      "mFootScale.f32": 3.79625,
      "mEyeCtrlParamHorizon.V3f": [-70.0,70.0,5.1],
      "mBedOffset.V3f": [0.0,-0.619676,0.0],
      "mEyeCtrlRotateOffset.f32": 0.0,
      "mEyeCtrlOffset.V3f": [2.551569,0.0,0.0],
      "mSitSbOffset.V3f": [0.0,0.061792,0.0],
      "mFootPrint.Enum": "ShoeslessBird2"
    }
  }
}