﻿{
  "version": 4,
  "rootNode": {
    "GMO調整": {
      "mEmoticonNodeParamsArray": {
        "EyeR": {
          "mTrans.V3f": [-2.567842,-0.267956,2.256243]
        },
        "Mouth": {
          "mTrans.V3f": [0.0,-2.124303,3.715223]
        },
        "EyeL": {
          "mTrans.V3f": [2.567842,-0.267956,2.256243]
        }
      },
      "mHandItemOffset.V3f": [0.0,-0.004995,-1.298723],
      "mAccParamsArray": {
        "C_BrimUnder": {
          "mEarSetType.s32": 0,
          "mRotate.V3f": [0.0,-1.570796,-1.701259],
          "mScale.V3f": [0.428683,0.428683,0.436958],
          "mTrans.V3f": [5.813376,-0.303176,0.0]
        },
        "G_Fit": {
          "mEarSetType.s32": 0,
          "mRotate.V3f": [0.0,-1.570796,-1.958061],
          "mScale.V3f": [1.0,1.0,1.0],
          "mTrans.V3f": [3.009055,4.090884,0.0]
        },
        "C_Forehead": {
          "mEarSetType.s32": 0,
          "mRotate.V3f": [0.0,-1.570796,-1.39719],
          "mScale.V3f": [1.0,1.0,1.0],
          "mTrans.V3f": [6.1223,0.7945,0.0]
        },
        "G_Normal": {
          "mEarSetType.s32": 0,
          "mRotate.V3f": [0.0,-1.570796,-1.952014],
          "mScale.V3f": [0.958,0.958,0.958],
          "mTrans.V3f": [2.779553,3.647821,0.0]
        },
        "C_Crown": {
          "mEarSetType.s32": 0,
          "mRotate.V3f": [0.0,-1.570796,-1.603426],
          "mScale.V3f": [1.0,1.0,1.0],
          "mTrans.V3f": [5.705352,-0.165553,0.0]
        },
        "C_Brim": {
          "mEarSetType.s32": 0,
          "mRotate.V3f": [0.0,-1.570796,-1.679102],
          "mScale.V3f": [0.443278,0.443278,0.451834],
          "mTrans.V3f": [5.818062,-0.26745,0.0]
        },
        "C_Knit": {
          "mEarSetType.s32": 3,
          "mRotate.V3f": [0.0,-1.570796,-1.97539],
          "mScale.V3f": [0.874782,0.874782,0.919172],
          "mTrans.V3f": [3.629653,-0.166839,0.0]
        },
        "C_Left": {
          "mEarSetType.s32": 0,
          "mRotate.V3f": [1.256455,-0.391574,-1.865601],
          "mScale.V3f": [1.0,1.0,1.0],
          "mTrans.V3f": [4.274331,0.930684,2.701695]
        },
        "C_Mask": {
          "mEarSetType.s32": 0,
          "mRotate.V3f": [0.0,-1.570796,-2.516567],
          "mScale.V3f": [0.596207,0.596207,0.596207],
          "mTrans.V3f": [5.719079,2.372507,0.0]
        },
        "C_Normal": {
          "mEarSetType.s32": 0,
          "mRotate.V3f": [0.0,-1.570796,-1.770562],
          "mScale.V3f": [0.445122,0.445122,0.445122],
          "mTrans.V3f": [5.768981,-0.517236,0.0]
        },
        "G_Down": {
          "mEarSetType.s32": 0,
          "mRotate.V3f": [0.0,-1.570796,-1.952014],
          "mScale.V3f": [1.0,1.0,1.0],
          "mTrans.V3f": [2.646166,3.70129,0.0]
        },
        "C_Bandana": {
          "mEarSetType.s32": 1,
          "mRotate.V3f": [0.0,-1.570796,-1.783059],
          "mScale.V3f": [0.828885,0.828885,0.846601],
          "mTrans.V3f": [3.928281,-0.120967,0.0]
        },
        "C_Top": {
          "mEarSetType.s32": 0,
          "mRotate.V3f": [0.0,-1.570796,-1.806902],
          "mScale.V3f": [1.0,1.0,1.0],
          "mTrans.V3f": [6.049675,-0.743662,0.0]
        },
        "G_FitLittle": {
          "mEarSetType.s32": 0,
          "mRotate.V3f": [0.0,-1.570796,-1.902032],
          "mScale.V3f": [1.0,1.0,1.0],
          "mTrans.V3f": [2.624845,3.278085,0.0]
        },
        "C_Right": {
          "mEarSetType.s32": 0,
          "mRotate.V3f": [-1.885137,-0.391574,1.275992],
          "mScale.V3f": [1.0,1.0,1.0],
          "mTrans.V3f": [4.274331,0.930684,-2.701695]
        },
        "C_LeftBig": {
          "mEarSetType.s32": 0,
          "mRotate.V3f": [2.09147,-1.139625,3.007302],
          "mScale.V3f": [1.0,1.0,1.0],
          "mTrans.V3f": [5.694433,1.22961,1.013052]
        },
        "G_Beard": {
          "mEarSetType.s32": 0,
          "mRotate.V3f": [0.0,-1.570796,-1.9219],
          "mScale.V3f": [1.0,1.0,1.0],
          "mTrans.V3f": [0.184391,3.28417,0.0]
        },
        "None": {
          "mEarSetType.s32": 0,
          "mRotate.V3f": [-0.331837,-1.527046,-1.521244],
          "mScale.V3f": [1.0,1.0,1.0],
          "mTrans.V3f": [2.315217,3.399804,0.147844]
        },
        "G_Left": {
          "mEarSetType.s32": 0,
          "mRotate.V3f": [-0.404493,-1.527046,-1.521244],
          "mScale.V3f": [1.0,1.0,1.0],
          "mTrans.V3f": [3.423655,2.491772,1.912498]
        },
        "G_UP": {
          "mEarSetType.s32": 0,
          "mRotate.V3f": [0.0,-1.570796,-1.9219],
          "mScale.V3f": [1.0,1.0,1.0],
          "mTrans.V3f": [2.881656,3.61436,0.0]
        },
        "G_LeftBig": {
          "mEarSetType.s32": 0,
          "mRotate.V3f": [-0.404493,-1.527046,-1.521244],
          "mScale.V3f": [1.0,1.0,1.0],
          "mTrans.V3f": [2.935995,2.060532,1.791826]
        }
      },
      "mSitOffset.V3f": [0.0,0.064729,0.0],
      "mEyeCtrlParamVertical.V3f": [-29.4375,29.4375,5.1],
      "mToolParamsArray": {
        "Trwl": {
          "mRotate.V3f": [0.0,0.0,0.0],
          "mTrans.V3f": [0.0,0.0,0.0],
          "mScale.f32": 1.0
        },
        "Fpan": {
          "mRotate.V3f": [0.0,0.0,0.0],
          "mTrans.V3f": [0.0,0.0,0.0],
          "mScale.f32": 1.0
        },
        "Tr": {
          "mRotate.V3f": [0.0,0.0,0.0],
          "mTrans.V3f": [-0.610395,0.0,-0.108297],
          "mScale.f32": 1.0
        },
        "PaperFan": {
          "mRotate.V3f": [0.0,0.0,0.0],
          "mTrans.V3f": [0.0,0.0,0.0],
          "mScale.f32": 1.0
        },
        "Candy": {
          "mRotate.V3f": [0.0,0.0,0.0],
          "mTrans.V3f": [-0.193343,0.419971,0.061494],
          "mScale.f32": 0.854092
        },
        "Pitc": {
          "mRotate.V3f": [0.0,0.0,0.0],
          "mTrans.V3f": [-0.128281,0.0,0.24261],
          "mScale.f32": 1.0
        },
        "Cop": {
          "mRotate.V3f": [0.0,0.0,0.0],
          "mTrans.V3f": [0.0,0.0,-0.032954],
          "mScale.f32": 0.877376
        },
        "HandLens": {
          "mRotate.V3f": [0.0,0.0,0.0],
          "mTrans.V3f": [0.042953,0.0,0.192018],
          "mScale.f32": 1.0
        },
        "GlDr": {
          "mRotate.V3f": [0.0,0.0,0.0],
          "mTrans.V3f": [0.0,0.0,0.0],
          "mScale.f32": 1.0
        },
        "Coffee": {
          "mRotate.V3f": [0.0,0.0,0.0],
          "mTrans.V3f": [0.0,0.0,0.0],
          "mScale.f32": 0.877376
        },
        "FruitBasket": {
          "mRotate.V3f": [0.0,0.0,0.0],
          "mTrans.V3f": [0.186486,0.227571,-0.519226],
          "mScale.f32": 0.785278
        },
        "StickLight": {
          "mRotate.V3f": [0.0,0.0,0.0],
          "mTrans.V3f": [0.024677,0.0,0.079058],
          "mScale.f32": 0.74528
        },
        "Book": {
          "mRotate.V3f": [0.0,0.0,0.0],
          "mTrans.V3f": [0.0,0.0,0.0],
          "mScale.f32": 1.0
        },
        "Sandwich": {
          "mRotate.V3f": [0.0,0.0,0.0],
          "mTrans.V3f": [-0.148349,0.237431,0.0],
          "mScale.f32": 0.809653
        },
        "FishingRod": {
          "mRotate.V3f": [0.0,0.0,0.0],
          "mTrans.V3f": [0.0,0.0,-0.108933],
          "mScale.f32": 0.77424
        },
        "Dumbbell": {
          "mRotate.V3f": [0.0,0.0,0.0],
          "mTrans.V3f": [0.0,0.0,0.0],
          "mScale.f32": 0.919855
        },
        "Watering": {
          "mRotate.V3f": [0.0,0.0,0.0],
          "mTrans.V3f": [-0.474924,0.312566,0.113195],
          "mScale.f32": 0.705756
        },
        "Sprayer": {
          "mRotate.V3f": [0.0,0.0,0.0],
          "mTrans.V3f": [0.0,0.0,0.0],
          "mScale.f32": 1.0
        },
        "Windmill": {
          "mRotate.V3f": [0.0,0.0,0.0],
          "mTrans.V3f": [-0.23866,0.405532,0.0],
          "mScale.f32": 0.892068
        },
        "Doughnut": {
          "mRotate.V3f": [0.0,0.0,0.0],
          "mTrans.V3f": [-0.508713,0.343165,-0.056385],
          "mScale.f32": 0.839599
        },
        "SwRing": {
          "mRotate.V3f": [0.0,0.0,0.0],
          "mTrans.V3f": [0.0,0.0,-0.852703],
          "mScale.f32": 0.932232
        },
        "HighBagHand": {
          "mRotate.V3f": [0.0,0.0,0.0],
          "mTrans.V3f": [0.186486,0.227571,-0.519226],
          "mScale.f32": 0.785278
        },
        "FAndK": {
          "mRotate.V3f": [0.0,0.0,0.0],
          "mTrans.V3f": [-0.346336,-0.484932,0.0],
          "mScale.f32": 1.0
        },
        "Dh": {
          "mRotate.V3f": [0.0,0.0,0.0],
          "mTrans.V3f": [0.294462,0.232542,-0.052551],
          "mScale.f32": 1.0
        },
        "Duster": {
          "mRotate.V3f": [0.0,0.0,0.0],
          "mTrans.V3f": [0.077975,0.0,-0.103904],
          "mScale.f32": 1.0
        },
        "CuteBagHand": {
          "mRotate.V3f": [0.0,0.0,0.0],
          "mTrans.V3f": [0.186486,0.227571,-0.519226],
          "mScale.f32": 0.785278
        },
        "LightDumbbell": {
          "mRotate.V3f": [0.0,0.0,0.0],
          "mTrans.V3f": [0.0,0.0,0.0],
          "mScale.f32": 0.879567
        },
        "Smoothie": {
          "mRotate.V3f": [0.0,0.0,0.0],
          "mTrans.V3f": [0.0,0.11915,-0.125153],
          "mScale.f32": 0.804096
        },
        "CoolBagHand": {
          "mRotate.V3f": [0.0,0.0,0.0],
          "mTrans.V3f": [0.186486,0.227571,-0.519226],
          "mScale.f32": 0.785278
        },
        "Firewood": {
          "mRotate.V3f": [0.0,0.0,0.0],
          "mTrans.V3f": [0.07439,0.001327,-1.201227],
          "mScale.f32": 1.0
        },
        "SoapBubble": {
          "mRotate.V3f": [0.0,0.0,0.0],
          "mTrans.V3f": [0.0,0.0,0.0],
          "mScale.f32": 1.0
        },
        "SmallBook": {
          "mRotate.V3f": [0.0,0.0,0.0],
          "mTrans.V3f": [0.0,0.0,0.0],
          "mScale.f32": 0.784938
        },
        "SmartPhone": {
          "mRotate.V3f": [0.0,0.0,0.0],
          "mTrans.V3f": [-0.478636,0.0,1.016196],
          "mScale.f32": 0.850599
        },
        "Mcas": {
          "mRotate.V3f": [0.0,0.0,0.0],
          "mTrans.V3f": [0.0,0.0,0.0],
          "mScale.f32": 1.0
        },
        "Broom": {
          "mRotate.V3f": [0.0,0.0,0.0],
          "mTrans.V3f": [0.0,0.0,0.0],
          "mScale.f32": 0.824724
        },
        "Branch": {
          "mRotate.V3f": [0.0,0.0,0.0],
          "mTrans.V3f": [0.063495,0.0,0.019637],
          "mScale.f32": 0.748815
        },
        "Cracker": {
          "mRotate.V3f": [0.0,0.0,0.0],
          "mTrans.V3f": [0.0,0.0,0.0],
          "mScale.f32": 1.0
        },
        "Canister": {
          "mRotate.V3f": [0.0,0.0,0.0],
          "mTrans.V3f": [0.0,0.0,-0.374086],
          "mScale.f32": 0.894615
        },
        "Tambourine": {
          "mRotate.V3f": [0.0,0.0,0.0],
          "mTrans.V3f": [0.0,0.0,-0.227676],
          "mScale.f32": 0.72129
        },
        "Net": {
          "mRotate.V3f": [0.0,0.0,0.0],
          "mTrans.V3f": [0.0,0.0,-0.239597],
          "mScale.f32": 0.815088
        },
        "DStk": {
          "mRotate.V3f": [0.0,0.0,0.0],
          "mTrans.V3f": [-0.967448,-0.454573,0.0],
          "mScale.f32": 1.0
        },
        "SpnR": {
          "mRotate.V3f": [0.0,0.0,0.0],
          "mTrans.V3f": [0.0,0.0,0.0],
          "mScale.f32": 1.0
        },
        "Hammer": {
          "mRotate.V3f": [0.0,0.0,0.0],
          "mTrans.V3f": [-0.093354,0.0,-0.028114],
          "mScale.f32": 0.845512
        },
        "LowBagHand": {
          "mRotate.V3f": [0.0,0.0,0.0],
          "mTrans.V3f": [0.186486,0.227571,-0.519226],
          "mScale.f32": 0.785278
        },
        "None": {
          "mRotate.V3f": [0.0,0.0,0.0],
          "mTrans.V3f": [0.0,0.0,0.0],
          "mScale.f32": 1.0
        },
        "MChart": {
          "mRotate.V3f": [0.0,0.0,0.0],
          "mTrans.V3f": [0.0,0.0,0.0],
          "mScale.f32": 1.0
        },
        "Umbrella": {
          "mRotate.V3f": [0.0,0.0,0.0],
          "mTrans.V3f": [0.0,0.0,0.187363],
          "mScale.f32": 0.805591
        },
        "Cnut": {
          "mRotate.V3f": [0.0,0.0,0.0],
          "mTrans.V3f": [0.0,0.0,0.0],
          "mScale.f32": 0.821129
        },
        "Firework": {
          "mRotate.V3f": [0.0,0.0,0.0],
          "mTrans.V3f": [0.0,0.0,0.0],
          "mScale.f32": 0.717763
        },
        "Ice": {
          "mRotate.V3f": [0.0,0.0,0.0],
          "mTrans.V3f": [0.0,0.0,0.0],
          "mScale.f32": 1.0
        }
      },
      "mCharacterSize.Enum": "cSmall",
      "mFootScale.f32": 1.07375,
      "mEyeCtrlParamHorizon.V3f": [-38.0,38.0,5.1],
      "mBedOffset.V3f": [0.0,0.166476,0.0],
      "mEyeCtrlRotateOffset.f32": -4.5,
      "mEyeCtrlOffset.V3f": [2.915795,0.0,0.0],
      "mSitSbOffset.V3f": [0.0,0.0,-0.928842],
      "mFootPrint.Enum": "ShoeslessNikukyu"
    }
  }
}