﻿{
  "version": 4,
  "rootNode": {
    "GMO調整": {
      "mEmoticonNodeParamsArray": {
        "EyeR": {
          "mTrans.V3f": [-2.268542,0.988233,2.234921]
        },
        "Mouth": {
          "mTrans.V3f": [0.0,-1.907165,3.682183]
        },
        "EyeL": {
          "mTrans.V3f": [2.268542,0.988233,2.234921]
        }
      },
      "mHandItemOffset.V3f": [0.0,-0.209689,-0.121816],
      "mAccParamsArray": {
        "C_BrimUnder": {
          "mEarSetType.s32": 0,
          "mRotate.V3f": [0.0,-1.570796,-1.744286],
          "mScale.V3f": [0.429292,0.429292,0.429292],
          "mTrans.V3f": [5.848662,-0.650588,0.0]
        },
        "G_Fit": {
          "mEarSetType.s32": 0,
          "mRotate.V3f": [0.0,-1.570796,-2.098217],
          "mScale.V3f": [1.036972,1.036972,0.996026],
          "mTrans.V3f": [3.404174,4.106511,0.0]
        },
        "C_Forehead": {
          "mEarSetType.s32": 0,
          "mRotate.V3f": [0.0,-1.570796,-1.369062],
          "mScale.V3f": [0.956174,0.956174,0.956174],
          "mTrans.V3f": [6.018737,0.751035,0.0]
        },
        "G_Normal": {
          "mEarSetType.s32": 0,
          "mRotate.V3f": [0.0,-1.570796,-2.060293],
          "mScale.V3f": [0.926529,0.926529,0.926529],
          "mTrans.V3f": [3.170401,3.595237,0.0]
        },
        "C_Crown": {
          "mEarSetType.s32": 0,
          "mRotate.V3f": [0.0,-1.570796,-1.656339],
          "mScale.V3f": [1.0,1.0,1.0],
          "mTrans.V3f": [5.608662,-0.382738,0.0]
        },
        "C_Brim": {
          "mEarSetType.s32": 0,
          "mRotate.V3f": [0.0,-1.570796,-1.683802],
          "mScale.V3f": [0.464113,0.464113,0.464113],
          "mTrans.V3f": [5.739693,-0.406263,0.0]
        },
        "C_Knit": {
          "mEarSetType.s32": 1,
          "mRotate.V3f": [0.0,-1.570796,-1.931597],
          "mScale.V3f": [0.616299,0.616299,0.616299],
          "mTrans.V3f": [5.187196,-0.944994,0.0]
        },
        "C_Left": {
          "mEarSetType.s32": 0,
          "mRotate.V3f": [0.829879,-0.725847,-1.791326],
          "mScale.V3f": [1.123722,1.123722,1.123722],
          "mTrans.V3f": [5.370361,0.710253,2.074399]
        },
        "C_Mask": {
          "mEarSetType.s32": 0,
          "mRotate.V3f": [0.0,-1.570796,-2.861176],
          "mScale.V3f": [0.586103,0.586103,0.586103],
          "mTrans.V3f": [6.104319,1.303748,0.0]
        },
        "C_Normal": {
          "mEarSetType.s32": 0,
          "mRotate.V3f": [0.0,-1.570796,-1.730744],
          "mScale.V3f": [0.464113,0.464113,0.464113],
          "mTrans.V3f": [5.712759,-0.603095,0.0]
        },
        "G_Down": {
          "mEarSetType.s32": 0,
          "mRotate.V3f": [0.0,-1.570796,-2.060293],
          "mScale.V3f": [0.926529,0.926529,0.926529],
          "mTrans.V3f": [3.067881,3.649854,0.0]
        },
        "C_Bandana": {
          "mEarSetType.s32": 1,
          "mRotate.V3f": [0.0,-1.570796,-1.766439],
          "mScale.V3f": [0.811504,0.644381,0.749645],
          "mTrans.V3f": [4.590454,-0.388466,0.0]
        },
        "C_Top": {
          "mEarSetType.s32": 0,
          "mRotate.V3f": [0.0,-1.570796,-1.81845],
          "mScale.V3f": [0.95619,0.95619,0.95619],
          "mTrans.V3f": [5.884805,-1.282558,0.0]
        },
        "G_FitLittle": {
          "mEarSetType.s32": 0,
          "mRotate.V3f": [0.0,-1.570796,-2.076763],
          "mScale.V3f": [0.986741,0.986741,0.986741],
          "mTrans.V3f": [3.061263,3.284806,0.0]
        },
        "C_Right": {
          "mEarSetType.s32": 0,
          "mRotate.V3f": [-2.311714,-0.725847,1.350267],
          "mScale.V3f": [1.123722,1.123722,1.123722],
          "mTrans.V3f": [5.370361,0.710253,-2.074399]
        },
        "C_LeftBig": {
          "mEarSetType.s32": 0,
          "mRotate.V3f": [1.122234,-1.195303,-2.445177],
          "mScale.V3f": [0.888994,0.888994,0.888994],
          "mTrans.V3f": [5.736479,0.644058,1.395648]
        },
        "G_Beard": {
          "mEarSetType.s32": 0,
          "mRotate.V3f": [-0.592852,-1.527046,-1.521244],
          "mScale.V3f": [0.922879,0.922879,0.922879],
          "mTrans.V3f": [0.725016,3.360963,-0.01942]
        },
        "None": {
          "mEarSetType.s32": 0,
          "mRotate.V3f": [-0.331837,-1.527046,-1.521244],
          "mScale.V3f": [1.0,1.0,1.0],
          "mTrans.V3f": [2.315217,3.399804,0.147844]
        },
        "G_Left": {
          "mEarSetType.s32": 0,
          "mRotate.V3f": [-3.109195,-1.429519,1.045473],
          "mScale.V3f": [1.0,1.0,1.0],
          "mTrans.V3f": [3.713,2.632406,1.533686]
        },
        "G_UP": {
          "mEarSetType.s32": 0,
          "mRotate.V3f": [0.0,-1.570796,-2.060293],
          "mScale.V3f": [0.926529,0.926529,0.926529],
          "mTrans.V3f": [3.434029,3.454792,0.0]
        },
        "G_LeftBig": {
          "mEarSetType.s32": 0,
          "mRotate.V3f": [-2.571393,-1.559753,0.515414],
          "mScale.V3f": [1.090293,1.090293,1.090293],
          "mTrans.V3f": [3.310566,1.957222,1.693811]
        }
      },
      "mSitOffset.V3f": [0.0,0.53719,0.0],
      "mEyeCtrlParamVertical.V3f": [-22.5,10.75,5.1],
      "mToolParamsArray": {
        "Trwl": {
          "mRotate.V3f": [0.0,0.0,0.0],
          "mTrans.V3f": [0.0,0.0,0.0],
          "mScale.f32": 1.0
        },
        "Fpan": {
          "mRotate.V3f": [0.0,0.0,0.0],
          "mTrans.V3f": [0.0,0.0,0.0],
          "mScale.f32": 1.0
        },
        "Tr": {
          "mRotate.V3f": [0.0,0.0,0.0],
          "mTrans.V3f": [0.0,0.0,0.0],
          "mScale.f32": 1.0
        },
        "PaperFan": {
          "mRotate.V3f": [0.0,0.0,0.0],
          "mTrans.V3f": [0.0,0.0,0.0],
          "mScale.f32": 1.0
        },
        "Candy": {
          "mRotate.V3f": [0.0,0.0,0.0],
          "mTrans.V3f": [-0.416943,0.0,0.0],
          "mScale.f32": 1.0
        },
        "Pitc": {
          "mRotate.V3f": [0.0,0.0,0.0],
          "mTrans.V3f": [-0.235854,0.0,0.225288],
          "mScale.f32": 1.0
        },
        "Cop": {
          "mRotate.V3f": [0.0,0.0,0.0],
          "mTrans.V3f": [0.0,0.0,0.0],
          "mScale.f32": 1.0
        },
        "HandLens": {
          "mRotate.V3f": [0.0,0.0,0.0],
          "mTrans.V3f": [0.0,0.0,0.0],
          "mScale.f32": 1.0
        },
        "GlDr": {
          "mRotate.V3f": [0.0,0.0,0.0],
          "mTrans.V3f": [0.0,0.0,0.0],
          "mScale.f32": 1.0
        },
        "Coffee": {
          "mRotate.V3f": [0.0,0.0,0.0],
          "mTrans.V3f": [0.0,0.0,0.0],
          "mScale.f32": 1.0
        },
        "FruitBasket": {
          "mRotate.V3f": [0.0,0.0,0.0],
          "mTrans.V3f": [0.492809,0.0,-0.891424],
          "mScale.f32": 1.0
        },
        "StickLight": {
          "mRotate.V3f": [0.0,0.0,0.0],
          "mTrans.V3f": [-0.018771,0.0,0.201055],
          "mScale.f32": 1.0
        },
        "Book": {
          "mRotate.V3f": [0.0,0.0,0.0],
          "mTrans.V3f": [0.0,0.0,0.0],
          "mScale.f32": 1.0
        },
        "Sandwich": {
          "mRotate.V3f": [0.0,0.0,0.0],
          "mTrans.V3f": [-0.079647,0.265134,0.272199],
          "mScale.f32": 1.0
        },
        "FishingRod": {
          "mRotate.V3f": [0.0,0.0,0.0],
          "mTrans.V3f": [0.0,0.0,-0.203161],
          "mScale.f32": 1.0
        },
        "Dumbbell": {
          "mRotate.V3f": [0.0,0.0,0.0],
          "mTrans.V3f": [-0.098241,0.0,0.0],
          "mScale.f32": 1.054653
        },
        "Watering": {
          "mRotate.V3f": [0.0,0.0,0.0],
          "mTrans.V3f": [-0.23563,0.0,0.0],
          "mScale.f32": 1.0
        },
        "Sprayer": {
          "mRotate.V3f": [0.0,0.0,0.0],
          "mTrans.V3f": [0.0,0.0,0.0],
          "mScale.f32": 1.0
        },
        "Windmill": {
          "mRotate.V3f": [0.0,0.0,0.0],
          "mTrans.V3f": [-0.49311,0.0,0.0],
          "mScale.f32": 1.0
        },
        "Doughnut": {
          "mRotate.V3f": [0.0,0.0,0.0],
          "mTrans.V3f": [-0.342706,0.468242,0.269852],
          "mScale.f32": 1.0
        },
        "SwRing": {
          "mRotate.V3f": [0.0,0.0,0.0],
          "mTrans.V3f": [0.0,0.0,-0.449389],
          "mScale.f32": 1.208294
        },
        "HighBagHand": {
          "mRotate.V3f": [0.0,0.0,0.0],
          "mTrans.V3f": [0.492809,0.0,-0.891424],
          "mScale.f32": 1.0
        },
        "FAndK": {
          "mRotate.V3f": [0.0,0.0,0.0],
          "mTrans.V3f": [-0.474789,-0.665651,0.0],
          "mScale.f32": 1.0
        },
        "Dh": {
          "mRotate.V3f": [0.0,0.0,0.0],
          "mTrans.V3f": [-0.171641,0.605837,0.094742],
          "mScale.f32": 1.0
        },
        "Duster": {
          "mRotate.V3f": [0.0,0.0,0.0],
          "mTrans.V3f": [0.0,0.0,0.0],
          "mScale.f32": 1.0
        },
        "CuteBagHand": {
          "mRotate.V3f": [0.0,0.0,0.0],
          "mTrans.V3f": [0.492809,0.0,-0.891424],
          "mScale.f32": 1.0
        },
        "LightDumbbell": {
          "mRotate.V3f": [0.0,0.0,0.0],
          "mTrans.V3f": [-0.098241,0.0,0.0],
          "mScale.f32": 1.097525
        },
        "Smoothie": {
          "mRotate.V3f": [0.0,0.0,0.0],
          "mTrans.V3f": [0.0,-0.18504,0.0],
          "mScale.f32": 0.98285
        },
        "CoolBagHand": {
          "mRotate.V3f": [0.0,0.0,0.0],
          "mTrans.V3f": [0.492809,0.0,-0.891424],
          "mScale.f32": 1.0
        },
        "Firewood": {
          "mRotate.V3f": [0.0,0.0,0.0],
          "mTrans.V3f": [-0.124915,-0.218834,-1.301931],
          "mScale.f32": 1.0
        },
        "SoapBubble": {
          "mRotate.V3f": [0.0,0.0,0.0],
          "mTrans.V3f": [0.0,0.0,0.0],
          "mScale.f32": 1.0
        },
        "SmallBook": {
          "mRotate.V3f": [0.0,0.0,0.0],
          "mTrans.V3f": [0.0,0.0,0.0],
          "mScale.f32": 1.0
        },
        "SmartPhone": {
          "mRotate.V3f": [0.0,0.0,0.0],
          "mTrans.V3f": [0.0,-0.032025,1.364036],
          "mScale.f32": 1.0
        },
        "Mcas": {
          "mRotate.V3f": [0.0,0.0,0.0],
          "mTrans.V3f": [0.0,0.0,0.0],
          "mScale.f32": 1.0
        },
        "Broom": {
          "mRotate.V3f": [0.0,0.0,0.0],
          "mTrans.V3f": [0.0,0.0,0.0],
          "mScale.f32": 1.096018
        },
        "Branch": {
          "mRotate.V3f": [0.0,0.0,0.0],
          "mTrans.V3f": [-0.018771,0.0,0.06037],
          "mScale.f32": 1.0
        },
        "Cracker": {
          "mRotate.V3f": [0.0,0.0,0.0],
          "mTrans.V3f": [0.0,0.0,0.0],
          "mScale.f32": 1.0
        },
        "Canister": {
          "mRotate.V3f": [0.0,0.0,0.0],
          "mTrans.V3f": [0.0,0.0,-0.580763],
          "mScale.f32": 1.0
        },
        "Tambourine": {
          "mRotate.V3f": [0.0,0.0,0.0],
          "mTrans.V3f": [0.0,0.0,0.0],
          "mScale.f32": 1.0
        },
        "Net": {
          "mRotate.V3f": [0.0,0.0,0.0],
          "mTrans.V3f": [0.096749,0.0,-0.608231],
          "mScale.f32": 1.0
        },
        "DStk": {
          "mRotate.V3f": [0.0,0.0,0.0],
          "mTrans.V3f": [-0.347055,-0.89121,0.0],
          "mScale.f32": 1.0
        },
        "SpnR": {
          "mRotate.V3f": [0.0,0.0,0.0],
          "mTrans.V3f": [0.0,0.0,0.0],
          "mScale.f32": 1.0
        },
        "Hammer": {
          "mRotate.V3f": [0.0,0.0,0.0],
          "mTrans.V3f": [-0.044847,0.0,-0.04185],
          "mScale.f32": 1.0
        },
        "LowBagHand": {
          "mRotate.V3f": [0.0,0.0,0.0],
          "mTrans.V3f": [0.492809,0.0,-0.891424],
          "mScale.f32": 1.0
        },
        "None": {
          "mRotate.V3f": [0.0,0.0,0.0],
          "mTrans.V3f": [0.0,0.0,0.0],
          "mScale.f32": 1.0
        },
        "MChart": {
          "mRotate.V3f": [0.0,0.0,0.0],
          "mTrans.V3f": [0.0,0.0,0.0],
          "mScale.f32": 1.0
        },
        "Umbrella": {
          "mRotate.V3f": [0.0,0.0,0.0],
          "mTrans.V3f": [-0.311486,0.316195,0.688349],
          "mScale.f32": 0.93004
        },
        "Cnut": {
          "mRotate.V3f": [0.0,0.0,0.0],
          "mTrans.V3f": [0.0,0.0,0.0],
          "mScale.f32": 1.0
        },
        "Firework": {
          "mRotate.V3f": [0.0,0.0,0.0],
          "mTrans.V3f": [0.0,0.0,0.0],
          "mScale.f32": 1.0
        },
        "Ice": {
          "mRotate.V3f": [0.0,0.0,0.0],
          "mTrans.V3f": [-0.211975,0.0,0.0],
          "mScale.f32": 1.180346
        }
      },
      "mCharacterSize.Enum": "cLarge",
      "mFootScale.f32": 2.08625,
      "mEyeCtrlParamHorizon.V3f": [-28.425,28.425,5.1],
      "mBedOffset.V3f": [0.0,0.149645,0.0],
      "mEyeCtrlRotateOffset.f32": -7.650002,
      "mEyeCtrlOffset.V3f": [2.245635,0.0,0.0],
      "mSitSbOffset.V3f": [0.0,0.53719,-0.3876],
      "mFootPrint.Enum": "ShoeslessNikukyu"
    }
  }
}