﻿{
  "version": 4,
  "rootNode": {
    "GMO調整": {
      "mEmoticonNodeParamsArray": {
        "EyeR": {
          "mTrans.V3f": [-2.397404,-0.057845,2.169684]
        },
        "Mouth": {
          "mTrans.V3f": [0.0,-4.168979,5.197372]
        },
        "EyeL": {
          "mTrans.V3f": [2.397404,-0.057845,2.169684]
        }
      },
      "mHandItemOffset.V3f": [0.0,0.679184,-0.121816],
      "mAccParamsArray": {
        "C_BrimUnder": {
          "mEarSetType.s32": 3,
          "mRotate.V3f": [0.0,-1.570796,-1.876054],
          "mScale.V3f": [0.513329,0.513329,0.532279],
          "mTrans.V3f": [4.943458,-0.130716,0.0]
        },
        "G_Fit": {
          "mEarSetType.s32": 0,
          "mRotate.V3f": [0.0,-1.570796,-2.04479],
          "mScale.V3f": [1.038262,1.038262,1.582602],
          "mTrans.V3f": [3.303818,4.572873,0.0]
        },
        "C_Forehead": {
          "mEarSetType.s32": 0,
          "mRotate.V3f": [0.0,-1.570796,-1.785658],
          "mScale.V3f": [0.876709,1.0,1.0],
          "mTrans.V3f": [5.560465,-0.095871,0.0]
        },
        "G_Normal": {
          "mEarSetType.s32": 0,
          "mRotate.V3f": [0.0,-1.570796,-1.977534],
          "mScale.V3f": [0.895901,0.895901,0.895901],
          "mTrans.V3f": [2.729174,3.917372,0.0]
        },
        "C_Crown": {
          "mEarSetType.s32": 0,
          "mRotate.V3f": [0.0,-1.570796,-1.785658],
          "mScale.V3f": [1.0,1.0,1.0],
          "mTrans.V3f": [4.980128,0.030776,0.0]
        },
        "C_Brim": {
          "mEarSetType.s32": 3,
          "mRotate.V3f": [0.0,-1.570796,-1.876054],
          "mScale.V3f": [0.513329,0.513329,0.532279],
          "mTrans.V3f": [4.853287,-0.102302,0.0]
        },
        "C_Knit": {
          "mEarSetType.s32": 3,
          "mRotate.V3f": [0.0,-1.570796,-2.031623],
          "mScale.V3f": [0.568022,0.564916,0.586288],
          "mTrans.V3f": [4.584407,-0.320986,0.0]
        },
        "C_Left": {
          "mEarSetType.s32": 0,
          "mRotate.V3f": [0.958297,0.003793,-1.728486],
          "mScale.V3f": [1.06286,1.06286,1.06286],
          "mTrans.V3f": [4.641208,-0.151637,2.103165]
        },
        "C_Mask": {
          "mEarSetType.s32": 0,
          "mRotate.V3f": [-0.689033,0.023511,-1.787116],
          "mScale.V3f": [0.411834,0.411834,0.411834],
          "mTrans.V3f": [4.204258,-0.017953,2.786609]
        },
        "C_Normal": {
          "mEarSetType.s32": 3,
          "mRotate.V3f": [0.0,-1.570796,-1.876054],
          "mScale.V3f": [0.513329,0.513329,0.532279],
          "mTrans.V3f": [4.853287,-0.102302,0.0]
        },
        "G_Down": {
          "mEarSetType.s32": 0,
          "mRotate.V3f": [0.0,-1.570796,-1.977534],
          "mScale.V3f": [0.895901,0.895901,0.895901],
          "mTrans.V3f": [2.729174,3.917372,0.0]
        },
        "C_Bandana": {
          "mEarSetType.s32": 3,
          "mRotate.V3f": [0.0,-1.570796,-2.143775],
          "mScale.V3f": [0.795684,0.87953,0.821271],
          "mTrans.V3f": [3.546343,0.099914,0.0]
        },
        "C_Top": {
          "mEarSetType.s32": 0,
          "mRotate.V3f": [0.0,-1.570796,-1.897127],
          "mScale.V3f": [0.796151,0.682365,0.665007],
          "mTrans.V3f": [5.480108,-0.435135,0.0]
        },
        "G_FitLittle": {
          "mEarSetType.s32": 0,
          "mRotate.V3f": [0.0,-1.570796,-2.070817],
          "mScale.V3f": [0.910495,0.910495,1.096407],
          "mTrans.V3f": [2.692251,3.859081,0.0]
        },
        "C_Right": {
          "mEarSetType.s32": 0,
          "mRotate.V3f": [-2.183296,0.003793,1.413107],
          "mScale.V3f": [1.06286,1.06286,1.06286],
          "mTrans.V3f": [4.641208,-0.151637,-2.103165]
        },
        "C_LeftBig": {
          "mEarSetType.s32": 0,
          "mRotate.V3f": [1.325382,-0.7251,-3.113904],
          "mScale.V3f": [0.84546,0.84546,0.84546],
          "mTrans.V3f": [4.772001,-0.244972,1.719404]
        },
        "G_Beard": {
          "mEarSetType.s32": 0,
          "mRotate.V3f": [0.0,-1.570796,-2.606553],
          "mScale.V3f": [1.038262,1.038262,1.250263],
          "mTrans.V3f": [0.90032,5.207848,0.0]
        },
        "None": {
          "mEarSetType.s32": 0,
          "mRotate.V3f": [-0.331837,-1.527046,-1.521244],
          "mScale.V3f": [1.0,1.0,1.0],
          "mTrans.V3f": [2.315217,3.399804,0.147844]
        },
        "G_Left": {
          "mEarSetType.s32": 0,
          "mRotate.V3f": [-0.411865,-1.343866,-1.559295],
          "mScale.V3f": [1.310787,1.310787,1.310787],
          "mTrans.V3f": [3.570008,2.299042,1.815157]
        },
        "G_UP": {
          "mEarSetType.s32": 0,
          "mRotate.V3f": [0.0,-1.570796,-1.977534],
          "mScale.V3f": [0.895901,0.895901,0.895901],
          "mTrans.V3f": [2.843988,3.867915,0.0]
        },
        "G_LeftBig": {
          "mEarSetType.s32": 0,
          "mRotate.V3f": [-0.550854,-1.243483,-1.285142],
          "mScale.V3f": [1.0,1.0,1.0],
          "mTrans.V3f": [3.160571,1.96363,1.579196]
        }
      },
      "mSitOffset.V3f": [0.0,0.0,0.0],
      "mEyeCtrlParamVertical.V3f": [-17.3625,25.0,5.1],
      "mToolParamsArray": {
        "Trwl": {
          "mRotate.V3f": [0.0,0.0,0.0],
          "mTrans.V3f": [0.0,0.0,0.0],
          "mScale.f32": 1.0
        },
        "Fpan": {
          "mRotate.V3f": [0.0,0.0,0.0],
          "mTrans.V3f": [0.0,0.0,0.0],
          "mScale.f32": 1.0
        },
        "Tr": {
          "mRotate.V3f": [0.0,0.0,0.0],
          "mTrans.V3f": [0.0,0.0,-0.09208],
          "mScale.f32": 1.0
        },
        "PaperFan": {
          "mRotate.V3f": [0.0,0.0,0.0],
          "mTrans.V3f": [0.0,0.0,0.0],
          "mScale.f32": 1.0
        },
        "Candy": {
          "mRotate.V3f": [0.0,0.0,0.0],
          "mTrans.V3f": [0.0,0.0,0.089613],
          "mScale.f32": 1.0
        },
        "Pitc": {
          "mRotate.V3f": [0.0,0.0,0.0],
          "mTrans.V3f": [-0.171717,0.0,0.240333],
          "mScale.f32": 1.0
        },
        "Cop": {
          "mRotate.V3f": [0.0,0.0,0.0],
          "mTrans.V3f": [0.0,0.0,0.0],
          "mScale.f32": 1.0
        },
        "HandLens": {
          "mRotate.V3f": [0.0,0.0,0.0],
          "mTrans.V3f": [0.0,0.0,0.0],
          "mScale.f32": 1.0
        },
        "GlDr": {
          "mRotate.V3f": [0.0,0.0,0.0],
          "mTrans.V3f": [0.0,0.0,0.0],
          "mScale.f32": 1.0
        },
        "Coffee": {
          "mRotate.V3f": [0.0,0.0,0.0],
          "mTrans.V3f": [0.0,0.0,0.0],
          "mScale.f32": 1.0
        },
        "FruitBasket": {
          "mRotate.V3f": [0.0,0.0,0.0],
          "mTrans.V3f": [0.4633,0.0,-0.694874],
          "mScale.f32": 1.0
        },
        "StickLight": {
          "mRotate.V3f": [0.0,0.0,0.0],
          "mTrans.V3f": [0.0,0.0,0.0],
          "mScale.f32": 1.0
        },
        "Book": {
          "mRotate.V3f": [0.0,0.0,0.0],
          "mTrans.V3f": [0.0,0.0,0.0],
          "mScale.f32": 1.0
        },
        "Sandwich": {
          "mRotate.V3f": [0.0,0.0,0.0],
          "mTrans.V3f": [0.0,0.0,0.0],
          "mScale.f32": 1.0
        },
        "FishingRod": {
          "mRotate.V3f": [0.0,0.0,0.0],
          "mTrans.V3f": [0.0,0.0,0.0],
          "mScale.f32": 1.0
        },
        "Dumbbell": {
          "mRotate.V3f": [0.0,0.0,0.0],
          "mTrans.V3f": [0.0,0.0,0.0],
          "mScale.f32": 1.0
        },
        "Watering": {
          "mRotate.V3f": [0.0,0.0,0.0],
          "mTrans.V3f": [-0.549746,0.233535,0.0],
          "mScale.f32": 1.0
        },
        "Sprayer": {
          "mRotate.V3f": [0.0,0.0,0.0],
          "mTrans.V3f": [0.0,0.0,0.0],
          "mScale.f32": 1.0
        },
        "Windmill": {
          "mRotate.V3f": [0.0,0.0,0.0],
          "mTrans.V3f": [-0.30361,0.0,0.0],
          "mScale.f32": 1.0
        },
        "Doughnut": {
          "mRotate.V3f": [0.0,0.0,0.0],
          "mTrans.V3f": [0.0,0.0,0.0],
          "mScale.f32": 1.026923
        },
        "SwRing": {
          "mRotate.V3f": [0.0,0.0,0.0],
          "mTrans.V3f": [0.0,0.0,-0.864002],
          "mScale.f32": 1.072373
        },
        "HighBagHand": {
          "mRotate.V3f": [0.0,0.0,0.0],
          "mTrans.V3f": [0.4633,0.0,-0.694874],
          "mScale.f32": 1.0
        },
        "FAndK": {
          "mRotate.V3f": [0.0,0.0,0.0],
          "mTrans.V3f": [-0.322787,-0.618633,0.0],
          "mScale.f32": 1.0
        },
        "Dh": {
          "mRotate.V3f": [0.0,0.0,0.0],
          "mTrans.V3f": [0.0,0.059177,-0.249372],
          "mScale.f32": 1.0
        },
        "Duster": {
          "mRotate.V3f": [0.0,0.0,0.0],
          "mTrans.V3f": [0.187132,0.0,0.0],
          "mScale.f32": 1.0
        },
        "CuteBagHand": {
          "mRotate.V3f": [0.0,0.0,0.0],
          "mTrans.V3f": [0.4633,0.0,-0.694874],
          "mScale.f32": 1.0
        },
        "LightDumbbell": {
          "mRotate.V3f": [0.0,0.0,0.0],
          "mTrans.V3f": [0.0,0.0,0.0],
          "mScale.f32": 1.0
        },
        "Smoothie": {
          "mRotate.V3f": [0.0,0.0,0.0],
          "mTrans.V3f": [0.0,0.0,0.0],
          "mScale.f32": 1.0
        },
        "CoolBagHand": {
          "mRotate.V3f": [0.0,0.0,0.0],
          "mTrans.V3f": [0.4633,0.0,-0.694874],
          "mScale.f32": 1.0
        },
        "Firewood": {
          "mRotate.V3f": [0.0,0.0,0.0],
          "mTrans.V3f": [0.840436,-0.024511,-1.482281],
          "mScale.f32": 0.964015
        },
        "SoapBubble": {
          "mRotate.V3f": [0.0,0.0,0.0],
          "mTrans.V3f": [0.0,0.0,0.0],
          "mScale.f32": 1.0
        },
        "SmallBook": {
          "mRotate.V3f": [0.0,0.0,0.0],
          "mTrans.V3f": [0.0,0.0,0.0],
          "mScale.f32": 1.0
        },
        "SmartPhone": {
          "mRotate.V3f": [0.0,0.0,0.0],
          "mTrans.V3f": [0.0,0.0,1.354408],
          "mScale.f32": 1.0
        },
        "Mcas": {
          "mRotate.V3f": [0.0,0.0,0.0],
          "mTrans.V3f": [0.0,0.0,0.0],
          "mScale.f32": 1.0
        },
        "Broom": {
          "mRotate.V3f": [0.0,0.0,0.0],
          "mTrans.V3f": [0.0,0.0,0.0],
          "mScale.f32": 1.078354
        },
        "Branch": {
          "mRotate.V3f": [0.0,0.0,0.0],
          "mTrans.V3f": [0.061425,0.0,0.0],
          "mScale.f32": 1.0
        },
        "Cracker": {
          "mRotate.V3f": [0.0,0.0,0.0],
          "mTrans.V3f": [0.0,0.0,0.0],
          "mScale.f32": 1.0
        },
        "Canister": {
          "mRotate.V3f": [0.0,0.0,0.0],
          "mTrans.V3f": [0.0,0.0,0.0],
          "mScale.f32": 1.0
        },
        "Tambourine": {
          "mRotate.V3f": [0.0,0.0,0.0],
          "mTrans.V3f": [0.129864,-0.344654,-0.228797],
          "mScale.f32": 1.0
        },
        "Net": {
          "mRotate.V3f": [0.0,0.0,0.0],
          "mTrans.V3f": [0.0,0.0,0.0],
          "mScale.f32": 1.0
        },
        "DStk": {
          "mRotate.V3f": [0.0,0.0,0.0],
          "mTrans.V3f": [-0.325843,-0.467648,0.015516],
          "mScale.f32": 1.0
        },
        "SpnR": {
          "mRotate.V3f": [0.0,0.0,0.0],
          "mTrans.V3f": [0.0,0.0,0.0],
          "mScale.f32": 1.0
        },
        "Hammer": {
          "mRotate.V3f": [0.0,0.0,0.0],
          "mTrans.V3f": [0.0,0.0,0.0],
          "mScale.f32": 1.0
        },
        "LowBagHand": {
          "mRotate.V3f": [0.0,0.0,0.0],
          "mTrans.V3f": [0.4633,0.0,-0.694874],
          "mScale.f32": 1.0
        },
        "None": {
          "mRotate.V3f": [0.0,0.0,0.0],
          "mTrans.V3f": [0.0,0.0,0.0],
          "mScale.f32": 1.0
        },
        "MChart": {
          "mRotate.V3f": [0.0,0.0,0.0],
          "mTrans.V3f": [0.0,0.0,0.0],
          "mScale.f32": 1.0
        },
        "Umbrella": {
          "mRotate.V3f": [0.0,0.0,0.0],
          "mTrans.V3f": [-0.204852,0.0,0.0],
          "mScale.f32": 1.006018
        },
        "Cnut": {
          "mRotate.V3f": [0.0,0.0,0.0],
          "mTrans.V3f": [0.0,0.0,0.0],
          "mScale.f32": 1.0
        },
        "Firework": {
          "mRotate.V3f": [0.0,0.0,0.0],
          "mTrans.V3f": [0.0,0.0,0.0],
          "mScale.f32": 1.0
        },
        "Ice": {
          "mRotate.V3f": [0.0,0.0,0.0],
          "mTrans.V3f": [0.0,0.0,0.111629],
          "mScale.f32": 1.0
        }
      },
      "mCharacterSize.Enum": "cLarge",
      "mFootScale.f32": 1.9175,
      "mEyeCtrlParamHorizon.V3f": [-40.0,40.0,5.1],
      "mBedOffset.V3f": [0.0,0.0,1.374368],
      "mEyeCtrlRotateOffset.f32": 0.0,
      "mEyeCtrlOffset.V3f": [2.236563,0.0,0.0],
      "mSitSbOffset.V3f": [0.0,0.0,-0.129541],
      "mFootPrint.Enum": "ShoeslessMaru"
    }
  }
}