﻿[
  {
    "label": "000",
    "attribute": "0x00000000",
    "text": "{{anim id=\"Aha\" target=\"actor\" targetSpec=\"\"}}嘿嘿～！{{delay8}}這不是新面孔嗎～？{{delay40}}\n{{anim id=\"BigSmile\" target=\"actor\" targetSpec=\"\"}}你好！{{delay8}}我是{{color id=\"3\"}}俞司廷{{color id=\"65535\"}}！{{pageBreak}}{{anim id=\"Nodding\" target=\"actor\" targetSpec=\"\"}}我為了遇見帥氣的魚，{{delay8}}\n正在不同的島嶼旅行，{{delay20}}\n{{anim id=\"EmotEnd\" target=\"actor\" targetSpec=\"\"}}{{delay20}}是個帥哥魚類收藏家{{delay frames=\"30\"}}是也！{{pageBreak}}{{string value=\"...\"}}{{delay40}}{{anim id=\"Laughing\" target=\"actor\" targetSpec=\"\"}}啊哈哈哈！{{delay20}}\n剛才那句其實是笑點！{{delay frames=\"30\"}}\n{{anim id=\"WrySmile\" target=\"actor\" targetSpec=\"\"}}你還挺酷的嘛～！{{anim id=\"FaintSmile\" target=\"actor\" targetSpec=\"\"}}\n{{anim id=\"EmotEnd\" target=\"actor\" targetSpec=\"\"}}算了算了，{{delay20}}\n{{anim id=\"ShyBoy\" target=\"actor\" targetSpec=\"\"}}我真的是在收集魚類，{{delay20}}\n你別急著走嘛。\n{{anim id=\"FaintSmile\" target=\"actor\" targetSpec=\"\"}}我啊，{{anim id=\"Explain\" target=\"actor\" targetSpec=\"\"}}正在拜託釣魚高手們，{{delay20}}\n把品質優良的魚賣給我呢。"
  },
  {
    "label": "001",
    "attribute": "0x00000000",
    "text": "{{anim id=\"Aha\" target=\"actor\" targetSpec=\"\"}}嘿嘿～！{{delay8}}很久沒見啦！{{delay40}}\n{{anim id=\"FaintSmile\" target=\"actor\" targetSpec=\"\"}}你好！{{delay20}}{{anim id=\"EmotEnd\" target=\"actor\" targetSpec=\"\"}}{{delay20}}我是帥氣過人的魚類收藏家\n{{color id=\"3\"}}俞司廷{{delay frames=\"30\"}}{{color id=\"65535\"}}是也！\n{{string value=\"...\"}}{{delay8}}{{anim id=\"Laughing\" target=\"actor\" targetSpec=\"\"}}啊哈哈哈！{{delay20}}\n剛才那句應該要笑啊！{{delay frames=\"30\"}}\n{{anim id=\"WrySmile\" target=\"actor\" targetSpec=\"\"}}你還是這麼酷～！{{pageBreak}}{{anim id=\"OhGeez\" target=\"actor\" targetSpec=\"\"}}我和以前一樣，{{delay8}}\n為了跟魚相遇，{{delay20}}{{anim id=\"EmotEnd\" target=\"actor\" targetSpec=\"\"}}正在各座島嶼四處奔走呢。{{pageBreak}}{{anim id=\"Nodding\" target=\"actor\" targetSpec=\"\"}}要得到品質優良的魚，{{delay20}}\n{{anim id=\"EmotEnd\" target=\"actor\" targetSpec=\"\"}}直接向島上的釣魚高手購買{{delay8}}\n{{anim id=\"Smiling\" target=\"actor\" targetSpec=\"\"}}是最～{{delay8}}好的{{delay8}}方法！\n{{anim id=\"Serious\" target=\"actor\" targetSpec=\"\"}}這話我只跟你說{{string value=\"...\"}}{{delay20}}\n{{anim id=\"Nodding\" target=\"actor\" targetSpec=\"\"}}釣魚的環境每天都會改變，{{delay frames=\"30\"}}\n{{anim id=\"OhGeez\" target=\"actor\" targetSpec=\"\"}}所以很難確保魚的品質{{string value=\"...\"}}{{pageBreak}}{{anim id=\"EmotEnd\" target=\"actor\" targetSpec=\"\"}}即使是同一個人，{{delay20}}{{anim id=\"Silent\" target=\"actor\" targetSpec=\"\"}}我在每次收購之前，{{delay frames=\"30\"}}\n{{anim id=\"Smiling\" target=\"actor\" targetSpec=\"\"}}都還是會確認這個人的釣魚能力。"
  },
  {
    "label": "002",
    "attribute": "0x04000000",
    "text": "{{anim id=\"Nodding\" target=\"actor\" targetSpec=\"\"}}要是你通過了釣魚{{color id=\"1\"}}能力測試{{color id=\"65535\"}}，{{delay20}}\n{{anim id=\"FaintSmile\" target=\"actor\" targetSpec=\"\"}}我就會高價收購你的魚，{{delay frames=\"30\"}}\n{{anim id=\"Greeting\" target=\"actor\" targetSpec=\"\"}}一定要去挑戰看看喔！\n{{anim id=\"Eh\" target=\"actor\" targetSpec=\"\"}}另外，{{delay8}}我還有一些\n{{anim id=\"EmotEnd\" target=\"actor\" targetSpec=\"\"}}為收藏家製作的{{color id=\"1\"}}原創商品{{color id=\"65535\"}}，{{delay frames=\"30\"}}\n{{anim id=\"Hello\" target=\"actor\" targetSpec=\"\"}}要是有興趣的話就來跟我說吧。"
  },
  {
    "label": "002_a",
    "attribute": "0x00000000",
    "text": "能力測試是？"
  },
  {
    "label": "002_b",
    "attribute": "0x00000000",
    "text": "原創商品是？"
  },
  {
    "label": "002_c",
    "attribute": "0x00000000",
    "text": "{{anim id=\"Negative\" target=\"actor\" targetSpec=\"\"}}現在不用"
  },
  {
    "label": "003",
    "attribute": "0x04000000",
    "text": "{{anim id=\"Nodding\" target=\"actor\" targetSpec=\"\"}}要是你通過了釣魚{{color id=\"1\"}}能力測試{{color id=\"65535\"}}，{{delay20}}\n{{anim id=\"FaintSmile\" target=\"actor\" targetSpec=\"\"}}我就會高價收購你的魚，{{delay frames=\"30\"}}\n{{anim id=\"Greeting\" target=\"actor\" targetSpec=\"\"}}一定要去挑戰看看喔！\n{{anim id=\"Eh\" target=\"actor\" targetSpec=\"\"}}另外，{{delay8}}我還有一些\n{{anim id=\"EmotEnd\" target=\"actor\" targetSpec=\"\"}}為收藏家製作的{{color id=\"1\"}}原創商品{{color id=\"65535\"}}，{{delay frames=\"30\"}}\n{{anim id=\"Hello\" target=\"actor\" targetSpec=\"\"}}要是有興趣的話就來跟我說吧。"
  },
  {
    "label": "003_a",
    "attribute": "0x00000000",
    "text": "我想做能力測試"
  },
  {
    "label": "003_b",
    "attribute": "0x00000000",
    "text": "原創商品是？"
  },
  {
    "label": "003_c",
    "attribute": "0x00000000",
    "text": "{{anim id=\"Negative\" target=\"actor\" targetSpec=\"\"}}現在不用"
  },
  {
    "label": "004",
    "attribute": "0x04000000",
    "text": "{{anim id=\"Nodding\" target=\"actor\" targetSpec=\"\"}}要是你通過了釣魚{{color id=\"1\"}}能力測試{{color id=\"65535\"}}，{{delay20}}\n{{anim id=\"FaintSmile\" target=\"actor\" targetSpec=\"\"}}我就會高價收購你的魚，{{delay frames=\"30\"}}\n{{anim id=\"Greeting\" target=\"actor\" targetSpec=\"\"}}一定要去挑戰看看喔！\n{{anim id=\"Eh\" target=\"actor\" targetSpec=\"\"}}另外，{{delay8}}我還有一些\n{{anim id=\"EmotEnd\" target=\"actor\" targetSpec=\"\"}}為收藏家製作的{{color id=\"1\"}}原創商品{{color id=\"65535\"}}，{{delay frames=\"30\"}}\n{{anim id=\"Hello\" target=\"actor\" targetSpec=\"\"}}要是有興趣的話就來跟我說吧。"
  },
  {
    "label": "004_a",
    "attribute": "0x00000000",
    "text": "能力測試是？"
  },
  {
    "label": "004_b",
    "attribute": "0x00000000",
    "text": "製作原創商品"
  },
  {
    "label": "004_c",
    "attribute": "0x00000000",
    "text": "{{anim id=\"Negative\" target=\"actor\" targetSpec=\"\"}}現在不用"
  },
  {
    "label": "005",
    "attribute": "0x04000000",
    "text": "{{anim id=\"Nodding\" target=\"actor\" targetSpec=\"\"}}要是你通過了釣魚{{color id=\"1\"}}能力測試{{color id=\"65535\"}}，{{delay20}}\n{{anim id=\"FaintSmile\" target=\"actor\" targetSpec=\"\"}}我就會高價收購你的魚，{{delay frames=\"30\"}}\n{{anim id=\"Greeting\" target=\"actor\" targetSpec=\"\"}}一定要去挑戰看看喔！\n{{anim id=\"Eh\" target=\"actor\" targetSpec=\"\"}}另外，{{delay8}}我還有一些\n{{anim id=\"EmotEnd\" target=\"actor\" targetSpec=\"\"}}為收藏家製作的{{color id=\"1\"}}原創商品{{color id=\"65535\"}}，{{delay frames=\"30\"}}\n{{anim id=\"Hello\" target=\"actor\" targetSpec=\"\"}}要是有興趣的話就來跟我說吧。"
  },
  {
    "label": "005_a",
    "attribute": "0x00000000",
    "text": "我想做能力測試"
  },
  {
    "label": "005_b",
    "attribute": "0x00000000",
    "text": "製作原創商品"
  },
  {
    "label": "005_c",
    "attribute": "0x00000000",
    "text": "{{anim id=\"Negative\" target=\"actor\" targetSpec=\"\"}}現在不用"
  },
  {
    "label": "008",
    "attribute": "0x00000000",
    "text": "{{anim id=\"Nodding\" target=\"actor\" targetSpec=\"\"}}這樣啊這樣啊！{{delay20}}\n{{anim id=\"EmotEnd\" target=\"actor\" targetSpec=\"\"}}我明天大約{{color id=\"1\"}}{{number value=\"Hour\" index=\"0\"}}點{{color id=\"65535\"}}之前都會在，{{delay frames=\"30\"}}\n{{anim id=\"FaintSmile\" target=\"actor\" targetSpec=\"\"}}要是改變主意了，就來跟我說吧。"
  },
  {
    "label": "009",
    "attribute": "0x00000000",
    "text": "{{anim id=\"Nodding\" target=\"actor\" targetSpec=\"\"}}這樣啊這樣啊！{{delay20}}\n{{anim id=\"EmotEnd\" target=\"actor\" targetSpec=\"\"}}我到{{delay8}}大約{{color id=\"1\"}}{{number value=\"Hour\" index=\"0\"}}點{{color id=\"65535\"}}之前都會在，{{delay frames=\"30\"}}\n{{anim id=\"FaintSmile\" target=\"actor\" targetSpec=\"\"}}要是改變主意了，就來跟我說吧。"
  },
  {
    "label": "010",
    "attribute": "0x00000000",
    "text": "{{anim id=\"BigSmile\" target=\"actor\" targetSpec=\"\"}}喔，謝謝你！{{delay frames=\"30\"}}\n{{anim id=\"EmotEnd\" target=\"actor\" targetSpec=\"\"}}那就馬上開始{{delay8}}{{color id=\"1\"}}能力測試{{color id=\"65535\"}}吧！"
  },
  {
    "label": "011",
    "attribute": "0x00000000",
    "text": "{{anim id=\"Nodding\" target=\"actor\" targetSpec=\"\"}}今天的任務是{{color id=\"1\"}}大型魚{{color id=\"65535\"}}{{string value=\"...\"}}{{delay frames=\"40\"}}\n{{anim id=\"EmotEnd\" target=\"actor\" targetSpec=\"\"}}請{{color id=\"1\"}}連續{{color id=\"65535\"}}釣到{{color id=\"1\"}}{{number value=\"0\" index=\"0\"}}條{{delay20}}{{color id=\"65535\"}}\n{{anim id=\"Greeting\" target=\"actor\" targetSpec=\"\"}}跟{{fun_0003007D arg=\"0x00CD\"}}差不多大小的魚。\n{{anim id=\"Eh\" target=\"actor\" targetSpec=\"\"}}啊，{{delay frames=\"30\"}}{{anim id=\"EmotEnd\" target=\"actor\" targetSpec=\"\"}}像擬鱷龜或鱉這種，{{delay frames=\"30\"}}\n{{anim id=\"ShyBoy\" target=\"actor\" targetSpec=\"\"}}也算是大型的{{string value=\"...\"}}{{delay20}}\n{{anim id=\"BigSmile\" target=\"actor\" targetSpec=\"\"}}我就破例列入計算了！"
  },
  {
    "label": "012",
    "attribute": "0x00000000",
    "text": "{{anim id=\"Nodding\" target=\"actor\" targetSpec=\"\"}}今天的任務是{{color id=\"1\"}}小型魚{{color id=\"65535\"}}！{{string value=\"...\"}}{{delay frames=\"40\"}}\n{{anim id=\"EmotEnd\" target=\"actor\" targetSpec=\"\"}}請{{color id=\"1\"}}連續{{color id=\"65535\"}}釣到{{color id=\"1\"}}{{number value=\"0\" index=\"0\"}}條{{delay20}}{{color id=\"65535\"}}\n{{anim id=\"Greeting\" target=\"actor\" targetSpec=\"\"}}跟{{fun_0003007D arg=\"0x00CD\"}}差不多大小的魚。\n{{anim id=\"Eh\" target=\"actor\" targetSpec=\"\"}}啊，{{delay frames=\"30\"}}{{anim id=\"EmotEnd\" target=\"actor\" targetSpec=\"\"}}像淡水龍蝦或青蛙這種，{{delay frames=\"30\"}}\n{{anim id=\"ShyBoy\" target=\"actor\" targetSpec=\"\"}}也算是小型的{{string value=\"...\"}}{{delay20}}\n{{anim id=\"BigSmile\" target=\"actor\" targetSpec=\"\"}}我就破例列入計算了！"
  },
  {
    "label": "013",
    "attribute": "0x00000000",
    "text": "{{anim id=\"Nodding\" target=\"actor\" targetSpec=\"\"}}今天的任務是自由釣魚！{{string value=\"...\"}}{{delay frames=\"40\"}}\n{{anim id=\"EmotEnd\" target=\"actor\" targetSpec=\"\"}}不論魚的大小，{{delay frames=\"30\"}}\n{{anim id=\"Greeting\" target=\"actor\" targetSpec=\"\"}}請{{color id=\"1\"}}連續{{color id=\"65535\"}}釣到{{color id=\"1\"}}{{number value=\"0\" index=\"4\"}}條{{delay20}}{{color id=\"65535\"}}魚。\n{{anim id=\"Eh\" target=\"actor\" targetSpec=\"\"}}啊，{{delay frames=\"30\"}}{{anim id=\"EmotEnd\" target=\"actor\" targetSpec=\"\"}}像淡水龍蝦或青蛙這種，{{delay frames=\"30\"}}\n{{anim id=\"Smiling\" target=\"actor\" targetSpec=\"\"}}只要是能釣到的，{{delay8}}全都列入計算喔！"
  },
  {
    "label": "014",
    "attribute": "0x00000000",
    "text": "{{anim id=\"Shocked\" target=\"actor\" targetSpec=\"\"}}啊，{{delay8}}順道說一下{{string value=\"...\"}}\n{{anim id=\"Negative\" target=\"actor\" targetSpec=\"\"}}如果在中途釣到不同尺寸的魚，{{delay8}}\n就不算是連續，{{delay8}}要注意喔！\n{{anim id=\"Silent\" target=\"actor\" targetSpec=\"\"}}當然，如果讓魚逃掉就算失敗！{{delay frames=\"40\"}}\n{{anim id=\"FaintSmile\" target=\"actor\" targetSpec=\"\"}}那麼，{{delay8}}拜託你啦！"
  },
  {
    "label": "015",
    "attribute": "0x00000000",
    "text": "{{anim id=\"FaintSmile\" target=\"actor\" targetSpec=\"\"}}{{color id=\"1\"}}能力測試{{color id=\"65535\"}}呢，{{delay frames=\"30\"}}\n{{anim id=\"Nodding\" target=\"actor\" targetSpec=\"\"}}是我為了檢視大家的釣魚實力{{delay8}}\n{{anim id=\"SmugFace\" target=\"actor\" targetSpec=\"\"}}而開發的系統！\n{{anim id=\"EmotEnd\" target=\"actor\" targetSpec=\"\"}}測試題目每天都會不同{{string value=\"...\"}}{{delay8}}\n但基本上都是為了檢視{{delay8}}\n大家是否能確實{{delay8}}釣到目標的魚。{{pageBreak}}{{anim id=\"Pardon\" target=\"actor\" targetSpec=\"\"}}順便說一下，今天的題目是{{string value=\"...\"}}"
  },
  {
    "label": "016",
    "attribute": "0x00000000",
    "text": "{{anim id=\"Greeting\" target=\"actor\" targetSpec=\"\"}}只要{{color id=\"1\"}}連續{{color id=\"65535\"}}釣到{{color id=\"1\"}}{{number value=\"0\" index=\"0\"}}{{color id=\"65535\"}}條{{delay8}}\n像{{fun_0003007D arg=\"0x00CD\"}}\n這樣的{{color id=\"1\"}}大型魚{{color id=\"65535\"}}就合格囉！"
  },
  {
    "label": "017",
    "attribute": "0x00000000",
    "text": "{{anim id=\"Greeting\" target=\"actor\" targetSpec=\"\"}}只要{{color id=\"1\"}}連續{{color id=\"65535\"}}釣到{{color id=\"1\"}}{{number value=\"0\" index=\"0\"}}{{color id=\"65535\"}}條{{delay8}}\n像{{fun_0003007D arg=\"0x00CD\"}}\n這樣的{{color id=\"1\"}}小型魚{{color id=\"65535\"}}就合格囉！"
  },
  {
    "label": "018",
    "attribute": "0x00000000",
    "text": "{{anim id=\"Greeting\" target=\"actor\" targetSpec=\"\"}}不管什麼魚都可以，{{delay8}}\n只要{{color id=\"1\"}}連續{{color id=\"65535\"}}釣到{{color id=\"1\"}}{{number value=\"0\" index=\"4\"}}{{color id=\"65535\"}}條就合格囉。"
  },
  {
    "label": "019",
    "attribute": "0x04000000",
    "text": "{{anim id=\"Nodding\" target=\"actor\" targetSpec=\"\"}}對於通過測試的釣魚高手，{{delay20}}\n{{anim id=\"Smiling\" target=\"actor\" targetSpec=\"\"}}我會用很有誠意的價格，{{delay8}}\n高價收購他們的魚喔。{{pageBreak}}{{anim id=\"Pardon\" target=\"actor\" targetSpec=\"\"}}怎麼樣？{{delay frames=\"30\"}}\n{{anim id=\"EmotEnd\" target=\"actor\" targetSpec=\"\"}}要挑戰{{color id=\"1\"}}能力測試{{color id=\"65535\"}}，{{delay20}}\n{{anim id=\"BigSmile\" target=\"actor\" targetSpec=\"\"}}給我看看你的實力嗎？{{anim id=\"FaintSmile\" target=\"actor\" targetSpec=\"\"}}"
  },
  {
    "label": "019_a",
    "attribute": "0x00000000",
    "text": "挑戰"
  },
  {
    "label": "019_b",
    "attribute": "0x00000000",
    "text": "再說明一次"
  },
  {
    "label": "019_c",
    "attribute": "0x00000000",
    "text": "{{anim id=\"Negative\" target=\"actor\" targetSpec=\"\"}}現在不用"
  },
  {
    "label": "020",
    "attribute": "0x00000000",
    "text": "{{anim id=\"Dance\" target=\"actor\" targetSpec=\"\"}}嘿嘿～！{{delay40}}\n情況還好嗎？"
  },
  {
    "label": "021",
    "attribute": "0x04000000",
    "text": "{{anim id=\"FaintSmile\" target=\"actor\" targetSpec=\"\"}}只要通過釣魚{{color id=\"1\"}}能力測試{{color id=\"65535\"}}，{{delay8}}\n{{anim id=\"Nodding\" target=\"actor\" targetSpec=\"\"}}我就會高價收購你的魚，{{delay20}}\n{{anim id=\"BigSmile\" target=\"actor\" targetSpec=\"\"}}一定要挑戰看看喔！{{delay20}}{{anim id=\"EmotEnd\" target=\"actor\" targetSpec=\"\"}}\n要是還有其他事情，{{delay8}}\n{{anim id=\"Greeting\" target=\"actor\" targetSpec=\"\"}}不要客氣，都可以跟我說喔！"
  },
  {
    "label": "021_a",
    "attribute": "0x00000000",
    "text": "能力測試是？"
  },
  {
    "label": "021_b",
    "attribute": "0x00000000",
    "text": "關於原創商品"
  },
  {
    "label": "021_c",
    "attribute": "0x00000000",
    "text": "{{anim id=\"Negative\" target=\"actor\" targetSpec=\"\"}}沒事"
  },
  {
    "label": "022",
    "attribute": "0x00000000",
    "text": "{{anim id=\"ShyBoy\" target=\"actor\" targetSpec=\"\"}}哎呀～{{delay20}}下雨了～！{{i10_4}}\n{{anim id=\"EmotEnd\" target=\"actor\" targetSpec=\"\"}}不過，這種天氣{{delay20}}\n{{anim id=\"BigSmile\" target=\"actor\" targetSpec=\"\"}}反而更能激發起我的鬥志！{{delay20}}{{anim id=\"FaintSmile\" target=\"actor\" targetSpec=\"\"}}"
  },
  {
    "label": "023",
    "attribute": "0x00000000",
    "text": "{{anim id=\"ShyBoy\" target=\"actor\" targetSpec=\"\"}}哎呀～{{delay20}}下好大的雪啊！{{i10_4}}\n{{anim id=\"EmotEnd\" target=\"actor\" targetSpec=\"\"}}不過，這種天氣{{delay20}}{{anim id=\"BigSmile\" target=\"actor\" targetSpec=\"\"}}\n反而更能激發起我的鬥志！{{delay20}}{{anim id=\"FaintSmile\" target=\"actor\" targetSpec=\"\"}}"
  },
  {
    "label": "024",
    "attribute": "0x04000000",
    "text": "{{anim id=\"FaintSmile\" target=\"actor\" targetSpec=\"\"}}只要通過釣魚{{color id=\"1\"}}能力測試{{color id=\"65535\"}}，{{delay8}}\n{{anim id=\"Nodding\" target=\"actor\" targetSpec=\"\"}}我就會高價收購你的魚，{{delay20}}\n{{anim id=\"BigSmile\" target=\"actor\" targetSpec=\"\"}}一定要挑戰看看喔！{{delay20}}{{anim id=\"EmotEnd\" target=\"actor\" targetSpec=\"\"}}\n要是還有其他事情，{{delay8}}\n{{anim id=\"Greeting\" target=\"actor\" targetSpec=\"\"}}不要客氣，都可以跟我說喔！"
  },
  {
    "label": "024_a",
    "attribute": "0x00000000",
    "text": "我想做能力測試"
  },
  {
    "label": "024_b",
    "attribute": "0x00000000",
    "text": "關於原創商品"
  },
  {
    "label": "024_c",
    "attribute": "0x00000000",
    "text": "{{anim id=\"Negative\" target=\"actor\" targetSpec=\"\"}}沒事"
  },
  {
    "label": "028",
    "attribute": "0x06000000",
    "text": "{{anim id=\"Nodding\" target=\"actor\" targetSpec=\"\"}}我會好好評測你的釣魚能力的，{{delay20}}\n{{anim id=\"FaintSmile\" target=\"actor\" targetSpec=\"\"}}你要加油喔！{{pageBreak}}{{anim id=\"EmotEnd\" target=\"actor\" targetSpec=\"\"}}要是還有其他事情，{{delay20}}\n{{anim id=\"Greeting\" target=\"actor\" targetSpec=\"\"}}不要客氣，都可以跟我說喔！"
  },
  {
    "label": "028_a",
    "attribute": "0x00000000",
    "text": "我現在的能力是？"
  },
  {
    "label": "028_b",
    "attribute": "0x00000000",
    "text": "能力測試是？"
  },
  {
    "label": "028_c",
    "attribute": "0x00000000",
    "text": "製作原創商品"
  },
  {
    "label": "028_d",
    "attribute": "0x00000000",
    "text": "{{anim id=\"Negative\" target=\"actor\" targetSpec=\"\"}}沒事"
  },
  {
    "label": "029",
    "attribute": "0x00000000",
    "text": "{{anim id=\"Nodding\" target=\"actor\" targetSpec=\"\"}}這樣啊，這樣啊！{{delay20}}\n{{anim id=\"EmotEnd\" target=\"actor\" targetSpec=\"\"}}那就要繼續{{anim id=\"Hello\" target=\"actor\" targetSpec=\"\"}}拜託你啦！"
  },
  {
    "label": "030",
    "attribute": "0x06000000",
    "text": "{{anim id=\"Nodding\" target=\"actor\" targetSpec=\"\"}}我會好好評測你的釣魚能力的，{{delay20}}\n{{anim id=\"FaintSmile\" target=\"actor\" targetSpec=\"\"}}你要加油喔！{{pageBreak}}{{anim id=\"EmotEnd\" target=\"actor\" targetSpec=\"\"}}要是還有其他事情，{{delay20}}\n{{anim id=\"Greeting\" target=\"actor\" targetSpec=\"\"}}不要客氣，都可以跟我說喔！"
  },
  {
    "label": "030_a",
    "attribute": "0x00000000",
    "text": "我現在的能力是？"
  },
  {
    "label": "030_b",
    "attribute": "0x00000000",
    "text": "能力測試是？"
  },
  {
    "label": "030_c",
    "attribute": "0x00000000",
    "text": "關於原創商品"
  },
  {
    "label": "030_d",
    "attribute": "0x00000000",
    "text": "{{anim id=\"Negative\" target=\"actor\" targetSpec=\"\"}}沒事"
  },
  {
    "label": "031",
    "attribute": "0x00000000",
    "text": "{{anim id=\"FaintSmile\" target=\"actor\" targetSpec=\"\"}}{{color id=\"1\"}}能力測試{{color id=\"65535\"}}呢，{{delay frames=\"30\"}}\n{{anim id=\"Nodding\" target=\"actor\" targetSpec=\"\"}}是我為了有效率地評測釣魚實力{{delay8}}\n{{anim id=\"SmugFace\" target=\"actor\" targetSpec=\"\"}}而開發的系統！\n{{anim id=\"Nodding\" target=\"actor\" targetSpec=\"\"}}對於通過測試的人，{{delay20}}\n{{anim id=\"Smiling\" target=\"actor\" targetSpec=\"\"}}我會用很有誠意價格，{{delay8}}\n高價收購他們的魚喔。"
  },
  {
    "label": "032",
    "attribute": "0x00000000",
    "text": "{{anim id=\"Nodding\" target=\"actor\" targetSpec=\"\"}}今天，{{delay20}}只要{{color id=\"1\"}}連續{{color id=\"65535\"}}釣到{{color id=\"1\"}}{{number value=\"0\" index=\"0\"}}條{{color id=\"65535\"}}\n像{{fun_0003007D arg=\"0x00CD\"}}這樣的{{color id=\"1\"}}大型魚{{color id=\"65535\"}}，\n{{anim id=\"Greeting\" target=\"actor\" targetSpec=\"\"}}就合格囉！\n{{anim id=\"Eh\" target=\"actor\" targetSpec=\"\"}}啊，{{delay frames=\"30\"}}{{anim id=\"EmotEnd\" target=\"actor\" targetSpec=\"\"}}像擬鱷龜或鱉這種，{{delay frames=\"30\"}}\n{{anim id=\"ShyBoy\" target=\"actor\" targetSpec=\"\"}}也算是大型的{{string value=\"...\"}}{{delay20}}\n{{anim id=\"BigSmile\" target=\"actor\" targetSpec=\"\"}}我就破例列入計算了！"
  },
  {
    "label": "033",
    "attribute": "0x00000000",
    "text": "{{anim id=\"Nodding\" target=\"actor\" targetSpec=\"\"}}今天，{{delay20}}只要{{color id=\"1\"}}連續{{color id=\"65535\"}}釣到{{color id=\"1\"}}{{number value=\"0\" index=\"0\"}}條{{color id=\"65535\"}}\n像{{fun_0003007D arg=\"0x00CD\"}}這樣的{{color id=\"1\"}}小型魚{{color id=\"65535\"}}，\n{{anim id=\"Greeting\" target=\"actor\" targetSpec=\"\"}}就合格囉！\n{{anim id=\"Eh\" target=\"actor\" targetSpec=\"\"}}啊，{{delay frames=\"30\"}}{{anim id=\"EmotEnd\" target=\"actor\" targetSpec=\"\"}}像淡水龍蝦或青蛙這種，{{delay frames=\"30\"}}\n{{anim id=\"ShyBoy\" target=\"actor\" targetSpec=\"\"}}也算是小型的{{string value=\"...\"}}{{delay20}}\n{{anim id=\"BigSmile\" target=\"actor\" targetSpec=\"\"}}我就破例列入計算了！"
  },
  {
    "label": "034",
    "attribute": "0x00000000",
    "text": "{{anim id=\"Nodding\" target=\"actor\" targetSpec=\"\"}}今天，{{delay8}}不管是什麼魚都好，{{delay20}}\n只要{{color id=\"1\"}}連續{{color id=\"65535\"}}釣到{{delay8}}{{color id=\"1\"}}{{number value=\"0\" index=\"4\"}}條{{color id=\"65535\"}}，{{delay8}}{{anim id=\"Greeting\" target=\"actor\" targetSpec=\"\"}}就合格囉！{{pageBreak}}{{anim id=\"Eh\" target=\"actor\" targetSpec=\"\"}}啊，{{delay frames=\"30\"}}{{anim id=\"EmotEnd\" target=\"actor\" targetSpec=\"\"}}像淡水龍蝦或青蛙這種，{{delay frames=\"30\"}}\n{{anim id=\"Smiling\" target=\"actor\" targetSpec=\"\"}}只要是能釣到的，{{delay8}}全都列入計算喔！"
  },
  {
    "label": "035",
    "attribute": "0x00000000",
    "text": "順道說說，{{delay8}}\n你現在的能力是{{string value=\"...\"}}"
  },
  {
    "label": "036",
    "attribute": "0x00000000",
    "text": "{{anim id=\"BigSmile\" target=\"actor\" targetSpec=\"\"}}你好像已經{{delay8}}{{color id=\"1\"}}連續{{number value=\"0\" index=\"1\"}}次{{delay20}}\n{{color id=\"65535\"}}釣到{{color id=\"1\"}}大型魚{{color id=\"65535\"}}了！{{anim id=\"FaintSmile\" target=\"actor\" targetSpec=\"\"}}"
  },
  {
    "label": "037",
    "attribute": "0x00000000",
    "text": "{{anim id=\"BigSmile\" target=\"actor\" targetSpec=\"\"}}你好像已經{{delay8}}{{color id=\"1\"}}連續{{number value=\"0\" index=\"1\"}}次{{delay20}}\n{{color id=\"65535\"}}釣到{{color id=\"1\"}}小型魚{{color id=\"65535\"}}了！{{anim id=\"FaintSmile\" target=\"actor\" targetSpec=\"\"}}"
  },
  {
    "label": "038",
    "attribute": "0x00000000",
    "text": "{{anim id=\"BigSmile\" target=\"actor\" targetSpec=\"\"}}你好像已經{{delay8}}{{color id=\"1\"}}連續{{number value=\"0\" index=\"1\"}}次{{color id=\"65535\"}}{{delay20}}\n釣到魚了！{{pageBreak}}{{anim id=\"Nodding\" target=\"actor\" targetSpec=\"\"}}{{color id=\"1\"}}連續{{color id=\"65535\"}}釣到{{color id=\"1\"}}{{number value=\"0\" index=\"4\"}}次{{color id=\"65535\"}}就算合格，{{delay frames=\"30\"}}\n{{anim id=\"Hello\" target=\"actor\" targetSpec=\"\"}}照這個樣子，繼續加油吧！"
  },
  {
    "label": "039",
    "attribute": "0x00000000",
    "text": "{{anim id=\"Nodding\" target=\"actor\" targetSpec=\"\"}}{{color id=\"1\"}}連續{{color id=\"65535\"}}釣到{{color id=\"1\"}}{{number value=\"0\" index=\"0\"}}次{{color id=\"65535\"}}就算合格，{{delay20}}\n{{anim id=\"Hello\" target=\"actor\" targetSpec=\"\"}}照這個樣子，繼續加油吧！"
  },
  {
    "label": "040",
    "attribute": "0x00000000",
    "text": "{{anim id=\"BigSmile\" target=\"actor\" targetSpec=\"\"}}你已經成功釣到{{delay8}}{{color id=\"1\"}}\n{{number value=\"0\" index=\"1\"}}次{{color id=\"65535\"}}{{color id=\"1\"}}大型魚{{color id=\"65535\"}}了！{{anim id=\"FaintSmile\" target=\"actor\" targetSpec=\"\"}}"
  },
  {
    "label": "041",
    "attribute": "0x00000000",
    "text": "{{anim id=\"BigSmile\" target=\"actor\" targetSpec=\"\"}}你已經成功釣到{{delay8}}{{color id=\"1\"}}\n{{number value=\"0\" index=\"1\"}}次{{color id=\"65535\"}}{{color id=\"1\"}}小型魚{{color id=\"65535\"}}了！{{anim id=\"FaintSmile\" target=\"actor\" targetSpec=\"\"}}"
  },
  {
    "label": "042",
    "attribute": "0x00000000",
    "text": "{{anim id=\"Nodding\" target=\"actor\" targetSpec=\"\"}}你好像{{delay8}}釣到{{color id=\"1\"}}{{number value=\"0\" index=\"1\"}}條{{color id=\"65535\"}}魚了！{{delay frames=\"30\"}}\n{{anim id=\"Hello\" target=\"actor\" targetSpec=\"\"}}就照這個樣子，繼續加油吧！"
  },
  {
    "label": "043",
    "attribute": "0x00000000",
    "text": "{{anim id=\"Nodding\" target=\"actor\" targetSpec=\"\"}}要是下次也釣到差不多大小的魚，{{delay8}}\n就算是連續釣到，{{delay20}}{{anim id=\"Hello\" target=\"actor\" targetSpec=\"\"}}加油！"
  },
  {
    "label": "044",
    "attribute": "0x00000000",
    "text": "{{anim id=\"Negative\" target=\"actor\" targetSpec=\"\"}}看來你還沒釣到{{delay20}}\n連續計算的{{delay8}}第一條{{color id=\"1\"}}大型魚{{color id=\"65535\"}}呢。{{anim id=\"EmotEnd\" target=\"actor\" targetSpec=\"\"}}"
  },
  {
    "label": "045",
    "attribute": "0x00000000",
    "text": "{{anim id=\"Negative\" target=\"actor\" targetSpec=\"\"}}看來你還沒釣到{{delay20}}\n連續計算的{{delay8}}第一條{{color id=\"1\"}}小型魚{{color id=\"65535\"}}呢。{{anim id=\"EmotEnd\" target=\"actor\" targetSpec=\"\"}}"
  },
  {
    "label": "046",
    "attribute": "0x00000000",
    "text": "{{anim id=\"Negative\" target=\"actor\" targetSpec=\"\"}}看來你還沒釣到{{delay20}}\n連續計算{{delay8}}的第一條魚呢。{{anim id=\"EmotEnd\" target=\"actor\" targetSpec=\"\"}}"
  },
  {
    "label": "047",
    "attribute": "0x00000000",
    "text": "{{anim id=\"Nodding\" target=\"actor\" targetSpec=\"\"}}順道說一下，{{color id=\"1\"}}{{delay20}}{{color id=\"65535\"}}在{{color id=\"1\"}}連續{{color id=\"65535\"}}成功釣到{{color id=\"1\"}}{{number value=\"0\" index=\"0\"}}次{{color id=\"65535\"}}之前，{{delay8}}\n{{anim id=\"Negative\" target=\"actor\" targetSpec=\"\"}}如果釣到其他尺寸的魚，{{delay frames=\"30\"}}\n就算失敗，要小心喔。{{pageBreak}}{{anim id=\"Silent\" target=\"actor\" targetSpec=\"\"}}當然，如果中途讓魚逃掉，也算失敗！{{delay frames=\"40\"}}\n{{anim id=\"FaintSmile\" target=\"actor\" targetSpec=\"\"}}那麼，{{delay8}}拜託你啦！"
  },
  {
    "label": "048",
    "attribute": "0x00000000",
    "text": "{{anim id=\"Smiling\" target=\"actor\" targetSpec=\"\"}}我看看，{{delay8}}你的能力是{{string value=\"...\"}}"
  },
  {
    "label": "049",
    "attribute": "0x00000000",
    "text": "{{anim id=\"Nodding\" target=\"actor\" targetSpec=\"\"}}順道說一下，{{color id=\"1\"}}{{delay20}}{{color id=\"65535\"}}在連續成功釣到{{color id=\"1\"}}{{number value=\"0\" index=\"4\"}}次{{color id=\"65535\"}}之前，\n讓魚逃掉的話，{{delay frames=\"30\"}}\n{{anim id=\"Negative\" target=\"actor\" targetSpec=\"\"}}就算失敗，要小心喔。{{anim id=\"EmotEnd\" target=\"actor\" targetSpec=\"\"}}"
  },
  {
    "label": "050",
    "attribute": "0x00000000",
    "text": "{{string value=\"...\"}}{{anim id=\"Aha\" target=\"actor\" targetSpec=\"\"}}咦？！{{delay40}}\n{{anim id=\"FaintSmile\" target=\"actor\" targetSpec=\"\"}}你已經{{delay8}}{{color id=\"1\"}}連續{{color id=\"65535\"}}釣到{{delay8}}\n{{color id=\"1\"}}{{anim id=\"EmotEnd\" target=\"actor\" targetSpec=\"\"}}{{number value=\"0\" index=\"0\"}}條{{color id=\"65535\"}}{{anim id=\"QuestionMark\" target=\"actor\" targetSpec=\"\"}}{{color id=\"1\"}}大型魚{{color id=\"65535\"}}了吧？"
  },
  {
    "label": "051",
    "attribute": "0x00000000",
    "text": "{{string value=\"...\"}}{{anim id=\"Aha\" target=\"actor\" targetSpec=\"\"}}咦？！{{delay40}}\n{{anim id=\"FaintSmile\" target=\"actor\" targetSpec=\"\"}}你已經{{delay8}}{{color id=\"1\"}}連續{{color id=\"65535\"}}釣到{{delay8}}\n{{anim id=\"EmotEnd\" target=\"actor\" targetSpec=\"\"}}{{color id=\"1\"}}{{number value=\"0\" index=\"0\"}}條{{color id=\"65535\"}}{{anim id=\"QuestionMark\" target=\"actor\" targetSpec=\"\"}}{{color id=\"1\"}}小型魚{{color id=\"65535\"}}了吧？"
  },
  {
    "label": "052",
    "attribute": "0x00000000",
    "text": "{{string value=\"...\"}}{{anim id=\"Aha\" target=\"actor\" targetSpec=\"\"}}咦？！{{delay40}}\n{{anim id=\"FaintSmile\" target=\"actor\" targetSpec=\"\"}}你已經{{delay8}}{{color id=\"1\"}}連續{{color id=\"65535\"}}釣到{{delay8}}\n{{anim id=\"EmotEnd\" target=\"actor\" targetSpec=\"\"}}{{color id=\"1\"}}{{number value=\"0\" index=\"4\"}}條{{color id=\"65535\"}}{{anim id=\"QuestionMark\" target=\"actor\" targetSpec=\"\"}}魚了吧？"
  },
  {
    "label": "053",
    "attribute": "0x00000000",
    "text": "{{anim id=\"Nodding\" target=\"actor\" targetSpec=\"\"}}嗯，{{delay8}}沒錯！"
  },
  {
    "label": "054",
    "attribute": "0x02000000",
    "text": "{{anim id=\"FaintSmile\" target=\"actor\" targetSpec=\"\"}}事不宜遲，{{delay20}}\n{{anim id=\"QuestionMark\" target=\"actor\" targetSpec=\"\"}}你有什麼魚想賣嗎？{{pageBreak}}{{anim id=\"EmotEnd\" target=\"actor\" targetSpec=\"\"}}只要是你的魚，{{delay20}}\n{{anim id=\"Smiling\" target=\"actor\" targetSpec=\"\"}}我都會用優於一般的價格收購喔！"
  },
  {
    "label": "054_a",
    "attribute": "0x00000000",
    "text": "拜託你了"
  },
  {
    "label": "054_b",
    "attribute": "0x00000000",
    "text": "{{anim id=\"Negative\" target=\"actor\" targetSpec=\"\"}}現在不用"
  },
  {
    "label": "055",
    "attribute": "0x00000000",
    "text": "{{anim id=\"ShyBoy\" target=\"actor\" targetSpec=\"\"}}這樣啊～{{delay20}}真可惜！"
  },
  {
    "label": "056",
    "attribute": "0x00000000",
    "text": "{{anim id=\"BigSmile\" target=\"actor\" targetSpec=\"\"}}OK！{{delay frames=\"30\"}}{{anim id=\"FaintSmile\" target=\"actor\" targetSpec=\"\"}}\n那給我看看{{delay8}}你想賣的魚吧！"
  },
  {
    "label": "057",
    "attribute": "0x00000000",
    "text": "{{anim id=\"Nodding\" target=\"actor\" targetSpec=\"\"}}反正我{{delay8}}明天大約{{color id=\"1\"}}{{number value=\"Hour\" index=\"0\"}}點{{color id=\"65535\"}}之前\n都會在這座島上，{{delay frames=\"30\"}}{{anim id=\"FaintSmile\" target=\"actor\" targetSpec=\"\"}}你再來找我吧！"
  },
  {
    "label": "058",
    "attribute": "0x00000000",
    "text": "{{anim id=\"Nodding\" target=\"actor\" targetSpec=\"\"}}反正我到{{delay8}}今天大約{{color id=\"1\"}}{{number value=\"Hour\" index=\"0\"}}點{{color id=\"65535\"}}之前\n都會在這座島上，{{delay frames=\"30\"}}{{anim id=\"FaintSmile\" target=\"actor\" targetSpec=\"\"}}你再來找我吧！"
  },
  {
    "label": "059",
    "attribute": "0x00000000",
    "text": "{{anim id=\"Nodding\" target=\"actor\" targetSpec=\"\"}}今天一整天，{{delay20}}我都會用優於一般的價格{{delay20}}\n{{anim id=\"Assent\" target=\"actor\" targetSpec=\"\"}}收購你的魚喔！{{pageBreak}}{{anim id=\"HappyDance\" target=\"actor\" targetSpec=\"\"}}要是有想賣的魚，{{delay20}}\n就統統拿來給我吧！{{anim id=\"FaintSmile\" target=\"actor\" targetSpec=\"\"}}"
  },
  {
    "label": "060",
    "attribute": "0x00000000",
    "text": "也就是說{{string value=\"...\"}}"
  },
  {
    "label": "061",
    "attribute": "0x00000000",
    "text": "Yeah～！{{delay frames=\"30\"}}\n{{color id=\"1\"}}能力測試{{delay20}}{{color id=\"65535\"}}合、格、了～～！！"
  },
  {
    "label": "100",
    "attribute": "0x04000000",
    "text": "{{anim id=\"Explain\" target=\"actor\" targetSpec=\"\"}}只要是你的魚，\n我全～都會用很有誠意的價格收購，{{delay20}}\n{{anim id=\"FaintSmile\" target=\"actor\" targetSpec=\"\"}}統統賣給我吧！"
  },
  {
    "label": "100_a",
    "attribute": "0x00000000",
    "text": "想賣魚"
  },
  {
    "label": "100_b",
    "attribute": "0x00000000",
    "text": "關於原創商品"
  },
  {
    "label": "100_c",
    "attribute": "0x00000000",
    "text": "{{anim id=\"Negative\" target=\"actor\" targetSpec=\"\"}}沒事"
  },
  {
    "label": "101",
    "attribute": "0x00000000",
    "text": "{{anim id=\"Eh\" target=\"actor\" targetSpec=\"\"}}咦{{string value=\"...\"}}？{{delay8}}\n你身上沒有帶著魚呢？{{pageBreak}}{{anim id=\"Negative\" target=\"actor\" targetSpec=\"\"}}我只收購現貨，{{delay8}}{{anim id=\"EmotEnd\" target=\"actor\" targetSpec=\"\"}}抱歉啊！{{i10_4}}\n{{anim id=\"Nodding\" target=\"actor\" targetSpec=\"\"}}只要是你的魚，我都會用高價收購，{{delay frames=\"30\"}}\n{{anim id=\"Hello\" target=\"actor\" targetSpec=\"\"}}有需要再來找我吧！"
  },
  {
    "label": "102",
    "attribute": "0x00000000",
    "text": "{{anim id=\"BigSmile\" target=\"actor\" targetSpec=\"\"}}來啦！{{delay frames=\"30\"}}{{anim id=\"FaintSmile\" target=\"actor\" targetSpec=\"\"}}\n那麼，{{delay8}}給我看看你想賣的魚吧？"
  },
  {
    "label": "103",
    "attribute": "0x04000000",
    "text": "{{anim id=\"Explain\" target=\"actor\" targetSpec=\"\"}}只要是你的魚，\n我全～都會用很有誠意的價格收購，{{delay20}}\n{{anim id=\"FaintSmile\" target=\"actor\" targetSpec=\"\"}}統統賣給我吧！"
  },
  {
    "label": "103_a",
    "attribute": "0x00000000",
    "text": "想賣魚"
  },
  {
    "label": "103_b",
    "attribute": "0x00000000",
    "text": "製作原創商品"
  },
  {
    "label": "103_c",
    "attribute": "0x00000000",
    "text": "{{anim id=\"Negative\" target=\"actor\" targetSpec=\"\"}}沒事"
  },
  {
    "label": "150",
    "attribute": "0x02000000",
    "text": "{{anim id=\"Aha\" target=\"actor\" targetSpec=\"\"}}喔！{{delay8}}\n這不是{{fun_0000007D arg=\"0x0100\"}}嗎！{{delay20}}{{anim id=\"EmotEnd\" target=\"actor\" targetSpec=\"\"}}{{pageBreak}}{{anim id=\"Nodding\" target=\"actor\" targetSpec=\"\"}}你的{{fun_0000007D arg=\"0x0100\"}}，{{delay8}}\n我可以用{{number value=\"BuyPrice\" index=\"2\"}}收購，{{delay20}}\n{{anim id=\"QuestionMark\" target=\"actor\" targetSpec=\"\"}}怎麼樣？"
  },
  {
    "label": "150_a",
    "attribute": "0x00000000",
    "text": "賣掉！"
  },
  {
    "label": "150_b",
    "attribute": "0x00000000",
    "text": "{{anim id=\"Negative\" target=\"actor\" targetSpec=\"\"}}還是算了"
  },
  {
    "label": "151",
    "attribute": "0x02000000",
    "text": "{{anim id=\"BigSmile\" target=\"actor\" targetSpec=\"\"}}哇，{{delay8}}你不只帶一條魚來啊！{{delay frames=\"30\"}}\n{{anim id=\"Nodding\" target=\"actor\" targetSpec=\"\"}}全部加起來{{string value=\"...\"}}{{delay8}}\n{{anim id=\"Hello\" target=\"actor\" targetSpec=\"\"}}一共是{{number value=\"BuyPrice\" index=\"2\"}}，要賣嗎？"
  },
  {
    "label": "151_a",
    "attribute": "0x00000000",
    "text": "賣掉！"
  },
  {
    "label": "151_b",
    "attribute": "0x00000000",
    "text": "{{anim id=\"Negative\" target=\"actor\" targetSpec=\"\"}}還是算了"
  },
  {
    "label": "152",
    "attribute": "0x00000000",
    "text": "{{anim id=\"FaintSmile\" target=\"actor\" targetSpec=\"\"}}謝謝你！{{delay20}}\n要再來喔！"
  },
  {
    "label": "153",
    "attribute": "0x00000000",
    "text": "{{anim id=\"Shocked\" target=\"actor\" targetSpec=\"\"}}咦，{{delay8}}這樣啊～{{delay20}}{{anim id=\"EmotEnd\" target=\"actor\" targetSpec=\"\"}}"
  },
  {
    "label": "154",
    "attribute": "0x00000000",
    "text": "{{anim id=\"IdeaBulb\" target=\"actor\" targetSpec=\"\"}}{{delay20}}對了對了！{{delay20}}\n{{anim id=\"FaintSmile\" target=\"actor\" targetSpec=\"\"}}這個週末有{{color id=\"1\"}}釣魚大會{{color id=\"65535\"}}！{{pageBreak}}{{anim id=\"Nodding\" target=\"actor\" targetSpec=\"\"}}那是一場不論釣魚能力高低，\n任何人都能享受其中的活動！{{delay20}}\n{{anim id=\"Greeting\" target=\"actor\" targetSpec=\"\"}}你一定要來參加喔！"
  },
  {
    "label": "200",
    "attribute": "0x00000000",
    "text": "{{anim id=\"Aha\" target=\"actor\" targetSpec=\"\"}}喔，你有興趣嗎？{{delay20}}{{anim id=\"EmotEnd\" target=\"actor\" targetSpec=\"\"}}{{pageBreak}}{{anim id=\"BigSmile\" target=\"actor\" targetSpec=\"\"}}只要預訂{{color id=\"1\"}}原創商品{{color id=\"65535\"}}，{{delay frames=\"30\"}}\n{{anim id=\"HappyDance\" target=\"actor\" targetSpec=\"\"}}就能以你喜歡的魚為原型，{{delay8}}\n製作出{{delay20}}超逼真的模型！{{pageBreak}}{{anim id=\"Nodding\" target=\"actor\" targetSpec=\"\"}}我會拜託我的藝術家朋友來製作，{{delay8}}\n{{anim id=\"Assent\" target=\"actor\" targetSpec=\"\"}}{{delay20}}所以模型的品質絕對有保證！{{pageBreak}}{{anim id=\"WrySmile\" target=\"actor\" targetSpec=\"\"}}雖然他平常只會做一些\n不起眼的蟲子模型{{string value=\"...\"}}{{delay20}}\n{{anim id=\"Laughing\" target=\"actor\" targetSpec=\"\"}}不過他的實力的確是一流，{{delay8}}你放心吧！"
  },
  {
    "label": "201",
    "attribute": "0x04000000",
    "text": "{{anim id=\"Nodding\" target=\"actor\" targetSpec=\"\"}}只要帶{{color id=\"1\"}}{{number value=\"0\" index=\"3\"}}{{color id=\"65535\"}}條同樣的魚來，{{delay8}}\n就可以免費預訂了，{{delay20}}\n{{anim id=\"Greeting\" target=\"actor\" targetSpec=\"\"}}請務必試試看喔！"
  },
  {
    "label": "201_a",
    "attribute": "0x00000000",
    "text": "預訂商品"
  },
  {
    "label": "201_b",
    "attribute": "0x00000000",
    "text": "再說明一次"
  },
  {
    "label": "201_c",
    "attribute": "0x00000000",
    "text": "{{anim id=\"Negative\" target=\"actor\" targetSpec=\"\"}}現在不用"
  },
  {
    "label": "202",
    "attribute": "0x00000000",
    "text": "{{anim id=\"Eh\" target=\"actor\" targetSpec=\"\"}}今天已經收到{{delay8}}\n{{fun_0000007D arg=\"0x0300\"}}的{{delay20}}\n{{anim id=\"FaintSmile\" target=\"actor\" targetSpec=\"\"}}模型訂單啦！\n{{anim id=\"Nodding\" target=\"actor\" targetSpec=\"\"}}完成之後就會寄給你，{{delay20}}\n{{anim id=\"Hello\" target=\"actor\" targetSpec=\"\"}}敬請期待！"
  },
  {
    "label": "203",
    "attribute": "0x00000000",
    "text": "{{string value=\"...\"}}{{anim id=\"Eh\" target=\"actor\" targetSpec=\"\"}}啊，{{delay8}}可是{{delay20}}\n{{anim id=\"Serious\" target=\"actor\" targetSpec=\"\"}}你身上的魚好像不夠呢。{{pageBreak}}{{anim id=\"Nodding\" target=\"actor\" targetSpec=\"\"}}要預訂模型的話，{{delay8}}\n就必需要帶{{color id=\"1\"}}{{number value=\"0\" index=\"3\"}}條{{color id=\"65535\"}}同樣的魚來喔。{{delay40}}\n{{anim id=\"FaintSmile\" target=\"actor\" targetSpec=\"\"}}拜託你啦！"
  },
  {
    "label": "204",
    "attribute": "0x00000000",
    "text": "{{anim id=\"Smiling\" target=\"actor\" targetSpec=\"\"}}謝謝你！{{delay20}}{{anim id=\"EmotEnd\" target=\"actor\" targetSpec=\"\"}}那麼，可以告訴我\n{{anim id=\"Hello\" target=\"actor\" targetSpec=\"\"}}你想用哪條魚製作模型嗎？"
  },
  {
    "label": "205",
    "attribute": "0x02000000",
    "text": "預訂{{fun_0000007D arg=\"0x0200\"}}，{{delay8}}\n需要{{color id=\"1\"}}{{number value=\"0\" index=\"3\"}}{{color id=\"65535\"}}隻{{string value=\"...\"}}{{anim id=\"QuestionMark\" target=\"actor\" targetSpec=\"\"}}可以嗎？"
  },
  {
    "label": "205_a",
    "attribute": "0x00000000",
    "text": "拜託你了"
  },
  {
    "label": "205_b",
    "attribute": "0x00000000",
    "text": "{{anim id=\"Negative\" target=\"actor\" targetSpec=\"\"}}還是算了"
  },
  {
    "label": "206",
    "attribute": "0x00000000",
    "text": "{{anim id=\"BigSmile\" target=\"actor\" targetSpec=\"\"}}好！{{delay20}}預訂完成～！{{delay frames=\"40\"}}\n{{anim id=\"EmotEnd\" target=\"actor\" targetSpec=\"\"}}模型完成之後就會寄給你，{{delay20}}\n{{anim id=\"Greeting\" target=\"actor\" targetSpec=\"\"}}敬請期待！"
  },
  {
    "label": "207",
    "attribute": "0x00000000",
    "text": "{{anim id=\"Shocked\" target=\"actor\" targetSpec=\"\"}}咦{{string value=\"...\"}}不要了嗎？{{pageBreak}}{{anim id=\"Worried\" target=\"actor\" targetSpec=\"\"}}這樣啊{{string value=\"...\"}}{{delay20}}\n{{anim id=\"EmotEnd\" target=\"actor\" targetSpec=\"\"}}要是改變主意了，就再來找我吧！"
  },
  {
    "label": "208",
    "attribute": "0x00000000",
    "text": "{{anim id=\"Silent\" target=\"actor\" targetSpec=\"\"}}只要預訂{{color id=\"1\"}}原創商品{{color id=\"65535\"}}，{{delay20}}\n{{anim id=\"FaintSmile\" target=\"actor\" targetSpec=\"\"}}就能以你喜歡的魚為原型，{{delay8}}\n製作出超逼真的模型！"
  },
  {
    "label": "209",
    "attribute": "0x00000000",
    "text": "嘿～！{{delay20}}\n很棒的{{fun_0000007D arg=\"0x0200\"}}呢！{{delay frames=\"40\"}}\n太開心了～！！"
  },
  {
    "label": "210",
    "attribute": "0x00000000",
    "text": "{{anim id=\"Eh\" target=\"actor\" targetSpec=\"\"}}喔！{{delay8}}你要製作原創商品嗎？{{delay frames=\"30\"}}\n{{anim id=\"FaintSmile\" target=\"actor\" targetSpec=\"\"}}謝啦！"
  },
  {
    "label": "211",
    "attribute": "0x00000000",
    "text": "{{anim id=\"BigSmile\" target=\"actor\" targetSpec=\"\"}}好的！{{delay20}}預訂完成！{{i10_4}}\n{{anim id=\"EmotEnd\" target=\"actor\" targetSpec=\"\"}}對了，你是不是{{delay20}}也很喜歡魚？{{pageBreak}}{{anim id=\"Serious\" target=\"actor\" targetSpec=\"\"}}我對魚的喜愛，{{delay frames=\"30\"}}\n{{anim id=\"WrySmile\" target=\"actor\" targetSpec=\"\"}}很明顯是受到爹地的影響～{{pageBreak}}{{anim id=\"AbsentMindedness\" target=\"actor\" targetSpec=\"\"}}從我懂事開始，{{delay frames=\"30\"}}\n就經常被爹地帶去釣魚。{{pageBreak}}{{anim id=\"Eh\" target=\"actor\" targetSpec=\"\"}}不過，雖然我爹地很喜歡釣魚，{{delay frames=\"40\"}}\n{{anim id=\"OhGeez\" target=\"actor\" targetSpec=\"\"}}但他的釣魚能力是零，{{delay20}}\n完全就只是一個吃魚專家。"
  },
  {
    "label": "211_01",
    "attribute": "0x00000000",
    "text": "{{anim id=\"Blushing\" target=\"actor\" targetSpec=\"\"}}其實，{{delay20}}我也完全繼承了這一點。{{delay frames=\"40\"}}\n{{anim id=\"Pardon\" target=\"actor\" targetSpec=\"\"}}難道這就是所謂的血脈相承？{{delay frames=\"30\"}}\n{{anim id=\"Laughing\" target=\"actor\" targetSpec=\"\"}}啊哈哈哈！{{pageBreak}}{{anim id=\"QuestionMark\" target=\"actor\" targetSpec=\"\"}}你問我爹地在做什麼？{{pageBreak}}{{anim id=\"Nodding\" target=\"actor\" targetSpec=\"\"}}他現在只要一有空就會出去釣魚，{{delay frames=\"30\"}}\n{{anim id=\"Smiling\" target=\"actor\" targetSpec=\"\"}}或是微笑看著那些{{delay20}}\n數之不盡的魚餌收藏。{{pageBreak}}{{anim id=\"EmotEnd\" target=\"actor\" targetSpec=\"\"}}那麼，模型完成之後就會寄給你，\n{{anim id=\"Greeting\" target=\"actor\" targetSpec=\"\"}}敬請期待！"
  },
  {
    "label": "212",
    "attribute": "0x00000000",
    "text": "{{anim id=\"BigSmile\" target=\"actor\" targetSpec=\"\"}}好的！{{delay20}}預訂完成！{{i10_4}}\n{{anim id=\"EmotEnd\" target=\"actor\" targetSpec=\"\"}}對了，你是不是{{delay20}}\n{{anim id=\"FaintSmile\" target=\"actor\" targetSpec=\"\"}}有訂購過{{color id=\"3\"}}龍克斯{{color id=\"65535\"}}的蟲子模型？{{pageBreak}}{{anim id=\"Explain\" target=\"actor\" targetSpec=\"\"}}說不定你已經發現了，{{delay frames=\"30\"}}\n製作魚兒模型的藝術家{{delay20}}\n{{anim id=\"FaintSmile\" target=\"actor\" targetSpec=\"\"}}就是那傢伙。{{pageBreak}}{{anim id=\"Nodding\" target=\"actor\" targetSpec=\"\"}}我和{{color id=\"3\"}}龍克斯{{color id=\"65535\"}}，因為兩家人彼此認識，{{delay20}}\n所以從小就經常玩在一起，{{delay frames=\"40\"}}\n{{anim id=\"Hello\" target=\"actor\" targetSpec=\"\"}}也就是所謂的竹馬之交？"
  },
  {
    "label": "212_01",
    "attribute": "0x00000000",
    "text": "{{anim id=\"Eh\" target=\"actor\" targetSpec=\"\"}}那傢伙的老爹，還是一樣{{delay20}}\n{{anim id=\"WrySmile\" target=\"actor\" targetSpec=\"\"}}對蟲子有著超乎尋常的熱愛。{{pageBreak}}{{anim id=\"OhGeez\" target=\"actor\" targetSpec=\"\"}}大家一起烤肉的時候，{{delay20}}\n他會追蟲子追到不見人影。{{delay frames=\"40\"}}\n{{anim id=\"Laughing\" target=\"actor\" targetSpec=\"\"}}現在回想起來，還是覺得很好笑。{{pageBreak}}{{anim id=\"Explain\" target=\"actor\" targetSpec=\"\"}}那老爹{{delay20}}現在肯定也是{{delay frames=\"30\"}}\n{{anim id=\"Smiling\" target=\"actor\" targetSpec=\"\"}}拿著捕蟲網到處追蟲子呢。{{pageBreak}}{{anim id=\"EmotEnd\" target=\"actor\" targetSpec=\"\"}}那麼，模型完成之後就會寄給你，{{delay20}}\n{{anim id=\"Greeting\" target=\"actor\" targetSpec=\"\"}}敬請期待！"
  },
  {
    "label": "213",
    "attribute": "0x00000000",
    "text": "{{anim id=\"BigSmile\" target=\"actor\" targetSpec=\"\"}}好的！{{delay20}}預訂完成！{{i10_4}}\n{{anim id=\"Nodding\" target=\"actor\" targetSpec=\"\"}}我回去後{{delay8}}會跟{{color id=\"3\"}}龍克斯{{color id=\"65535\"}}講一下的。{{pageBreak}}{{anim id=\"Eh\" target=\"actor\" targetSpec=\"\"}}{{string value=\"...\"}}嗯？{{delay frames=\"40\"}}\n{{anim id=\"Nodding\" target=\"actor\" targetSpec=\"\"}}啊，{{delay20}}我們兩個現在住在一起，{{delay frames=\"30\"}}\n{{anim id=\"Smiling\" target=\"actor\" targetSpec=\"\"}}所以會回去同一個地方。{{pageBreak}}{{anim id=\"Negative\" target=\"actor\" targetSpec=\"\"}}我們現在和家人分開住，{{delay frames=\"30\"}}\n{{anim id=\"Thinking\" target=\"actor\" targetSpec=\"\"}}所以兩家人的相處時間{{delay8}}\n變得越來越少了。{{pageBreak}}{{anim id=\"FaintSmile\" target=\"actor\" targetSpec=\"\"}}我是和之前沒太大的差別，{{delay20}}\n{{anim id=\"Serious\" target=\"actor\" targetSpec=\"\"}}不過{{color id=\"3\"}}龍克斯{{color id=\"65535\"}}那傢伙，{{delay20}}則是單方面和他老爹{{delay20}}\n{{anim id=\"OhGeez\" target=\"actor\" targetSpec=\"\"}}斷絕一切往來呢{{string value=\"...\"}}"
  },
  {
    "label": "213_01",
    "attribute": "0x00000000",
    "text": "{{anim id=\"ShyBoy\" target=\"actor\" targetSpec=\"\"}}雖然他們兩個都是蟲子的愛好者，{{delay20}}\n但還是會有無法理解對方的時候，{{delay frames=\"40\"}}\n{{anim id=\"QuestionMark\" target=\"actor\" targetSpec=\"\"}}也就是思考的方向不同吧。{{pageBreak}}{{anim id=\"Nodding\" target=\"actor\" targetSpec=\"\"}}他們兩個都很愛蟲子，{{delay frames=\"30\"}}\n{{anim id=\"WrySmile\" target=\"actor\" targetSpec=\"\"}}但那老爹則是{{delay20}}比較注重{{delay20}}\n蟲子的味道{{string value=\"...\"}}{{pageBreak}}{{anim id=\"EmotEnd\" target=\"actor\" targetSpec=\"\"}}那麼，模型完成之後就會寄給你，{{delay20}}\n{{anim id=\"Greeting\" target=\"actor\" targetSpec=\"\"}}敬請期待！"
  },
  {
    "label": "250",
    "attribute": "0x00000000",
    "text": "{{anim id=\"Aha\" target=\"actor\" targetSpec=\"\"}}嘿嘿～！{{delay8}}\n你感覺有點不太一樣啊～{{delay40}}\n{{anim id=\"BigSmile\" target=\"actor\" targetSpec=\"\"}}你好！{{delay8}}我是{{color id=\"3\"}}俞司廷{{color id=\"65535\"}}！{{pageBreak}}{{anim id=\"Nodding\" target=\"actor\" targetSpec=\"\"}}我為了遇見帥氣的魚，{{delay8}}\n正在不同的島嶼旅行，{{delay20}}\n{{anim id=\"EmotEnd\" target=\"actor\" targetSpec=\"\"}}{{delay20}}是個帥哥魚類收藏家{{delay frames=\"30\"}}是也！{{pageBreak}}{{string value=\"...\"}}{{delay8}}{{anim id=\"Laughing\" target=\"actor\" targetSpec=\"\"}}啊哈哈哈！{{delay20}}\n剛才那句其實是笑點！{{delay frames=\"30\"}}\n{{anim id=\"WrySmile\" target=\"actor\" targetSpec=\"\"}}你還挺酷的嘛～！\n{{anim id=\"Nodding\" target=\"actor\" targetSpec=\"\"}}我啊，{{delay20}}正在拜託當地的釣魚高手，{{delay20}}\n把帥氣的魚賣給我。{{pageBreak}}{{anim id=\"FaintSmile\" target=\"actor\" targetSpec=\"\"}}要是你也想知道釣魚勝地的話，{{delay20}}\n就問問當地居民吧！"
  },
  {
    "label": "251",
    "attribute": "0x00000000",
    "text": "{{anim id=\"AbsentMindedness\" target=\"actor\" targetSpec=\"\"}}每座島都有每座島的魚，你的島也是{{string value=\"...\"}}{{delay40}}\n{{anim id=\"EmotEnd\" target=\"actor\" targetSpec=\"\"}}即使是同一種魚，{{delay8}}\n也會根據不同的島而有不同的個性。\n{{anim id=\"ShyBoy\" target=\"actor\" targetSpec=\"\"}}作為專門收藏\n帥氣魚類的收藏家來說，{{delay frames=\"30\"}}\n這種個性可是很重要的呢～"
  },
  {
    "label": "252",
    "attribute": "0x00000000",
    "text": "{{anim id=\"Dance\" target=\"actor\" targetSpec=\"\"}}嘿嘿～！{{delay frames=\"40\"}}\n釣得還算順利嗎？{{pageBreak}}{{anim id=\"EmotEnd\" target=\"actor\" targetSpec=\"\"}}只要跟當地居民熟絡起來，{{delay20}}\n{{anim id=\"FaintSmile\" target=\"actor\" targetSpec=\"\"}}他們就會告訴你釣魚勝地囉。{{pageBreak}}{{anim id=\"Nodding\" target=\"actor\" targetSpec=\"\"}}所以啊{{string value=\"...\"}}{{delay40}}\n我去你島上的時候，{{delay20}}{{anim id=\"BigSmile\" target=\"actor\" targetSpec=\"\"}}再麻煩你啦！"
  },
  {
    "label": "253",
    "attribute": "0x00000000",
    "text": "{{anim id=\"Love\" target=\"actor\" targetSpec=\"\"}}嗯～！{{delay20}}\n我有預感，今天一定會{{delay20}}\n遇見極品的魚！{{anim id=\"FaintSmile\" target=\"actor\" targetSpec=\"\"}}\n{{anim id=\"Explain\" target=\"actor\" targetSpec=\"\"}}我的原則是只向當地人買魚，\n所以我今天{{delay8}}沒辦法跟你買魚。{{delay20}}\n{{anim id=\"FaintSmile\" target=\"actor\" targetSpec=\"\"}}我去你島上的時候，再麻煩你啦！"
  },
  {
    "label": "300",
    "attribute": "0x00000000",
    "text": "拜託你了"
  },
  {
    "label": "301",
    "attribute": "0x00000000",
    "text": "{{anim id=\"Negative\" target=\"actor\" targetSpec=\"\"}}還是算了"
  },
  {
    "label": "302",
    "attribute": "0x00000000",
    "text": "{{anim id=\"Negative\" target=\"actor\" targetSpec=\"\"}}現在不用"
  },
  {
    "label": "303",
    "attribute": "0x00000000",
    "text": "{{color id=\"1\"}}大型魚{{color id=\"65535\"}}"
  },
  {
    "label": "304",
    "attribute": "0x00000000",
    "text": "{{color id=\"1\"}}小型魚{{color id=\"65535\"}}"
  },
  {
    "label": "306",
    "attribute": "0x00000000",
    "text": "{{anim id=\"Negative\" target=\"actor\" targetSpec=\"\"}}沒事"
  },
  {
    "label": "307",
    "attribute": "0x00000000",
    "text": "關於原創商品"
  },
  {
    "label": "308",
    "attribute": "0x00000000",
    "text": "賣掉！"
  },
  {
    "label": "309",
    "attribute": "0x00000000",
    "text": "我現在的能力是？"
  },
  {
    "label": "310",
    "attribute": "0x00000000",
    "text": "挑戰"
  },
  {
    "label": "311",
    "attribute": "0x00000000",
    "text": "再說明一次"
  },
  {
    "label": "312",
    "attribute": "0x00000000",
    "text": "想賣魚"
  },
  {
    "label": "313",
    "attribute": "0x00000000",
    "text": "預訂商品"
  },
  {
    "label": "314",
    "attribute": "0x00000000",
    "text": "原創商品是？"
  },
  {
    "label": "315",
    "attribute": "0x00000000",
    "text": "能力測試是？"
  },
  {
    "label": "316",
    "attribute": "0x00000000",
    "text": "我想做能力測試"
  },
  {
    "label": "317",
    "attribute": "0x00000000",
    "text": "製作原創商品"
  }
]