﻿[
  {
    "label": "006",
    "attribute": "0x0000000000000000",
    "text": "{{anim id=\"HappyDance\" target=\"actor\" targetSpec=\"\"}}Quelqu'un vient s'installer sur l'île!{{delay20}}\nYouhou, go {{string value=\"OtherIslandName\"}}! {{anim id=\"Nodding\" target=\"actor\" targetSpec=\"\"}}On\nva lui montrer qu'on sait recevoir!"
  },
  {
    "label": "007",
    "attribute": "0x0000000000000000",
    "text": "{{fun_0014003C arg=\"\"}}"
  },
  {
    "label": "007_01",
    "attribute": "0x0000000000000000",
    "text": "{{anim id=\"Greeting\" target=\"actor\" targetSpec=\"\"}}Quelqu'un s'est installé sur l'île!{{delay8}}\nTu as déjà été lui dire bonjour?{{delay20}}\nJ'ai hâte de faire sa connaissance!"
  },
  {
    "label": "007_02",
    "attribute": "0x0000000000000000",
    "text": "Youpi,{{delay20}}{{anim id=\"Hello\" target=\"actor\" targetSpec=\"\"}} quelqu'un emménage sur l'île\naujourd'hui! {{anim id=\"AbsentMindedness\" target=\"actor\" targetSpec=\"\"}}Je me demande si on a\nles mêmes goûts musicaux...{{delay20}}"
  },
  {
    "label": "007_03",
    "attribute": "0x0000000000000000",
    "text": "{{anim id=\"Smiling\" target=\"actor\" targetSpec=\"\"}}Tu as déjà rencontré le nouveau\nmembre de notre éminente\ncommunauté insulaire,{{delay8}} {{anim id=\"Laughing\" target=\"actor\" targetSpec=\"\"}}lol?{{delay20}}\n{{anim id=\"Hello\" target=\"actor\" targetSpec=\"\"}}J'adore me faire des nouveaux amis!"
  },
  {
    "label": "011",
    "attribute": "0x0000000000000000",
    "text": "{{fun_0014003C arg=\"\"}}"
  },
  {
    "label": "011_01",
    "attribute": "0x0000000000000000",
    "text": "{{anim id=\"Hello\" target=\"actor\" targetSpec=\"\"}}Tu sais ce qu'il y a demain? La fête\n{{gender4 m=\"de \" f=\"d'\"}}⁠{{selection value=\"SelectedVillager\"}}, bien sûr!{{delay40}}{{pageBreak}}Tu vas voir, je lui prépare une\nexplosion de paillettes dans sa face,\n{{anim id=\"Assent\" target=\"actor\" targetSpec=\"\"}}{{gender8 m=\"il\" f=\"elle\" n=\"\"}} m'en dira des nouvelles!"
  },
  {
    "label": "011_02",
    "attribute": "0x0000000000000000",
    "text": "{{selection value=\"SelectedVillager\"}} fête sa fête demain et j'ai pas encore emballé son cadeau{{string value=\"...\"}}"
  },
  {
    "label": "011_03",
    "attribute": "0x0000000000000000",
    "text": "{{anim id=\"Pardon\" target=\"actor\" targetSpec=\"\"}}{{capitalizeNextLetter}}{{string value=\"NickName\"}}, si je te dis...\n« demain », tu me réponds...?{{pageBreak}}{{anim id=\"EmotEnd\" target=\"actor\" targetSpec=\"\"}}C'est la fête {{gender4 m=\"de \" f=\"d'\"}}⁠⁠{{selection value=\"SelectedVillager\"}},\névidemment!{{delay frames=\"40\"}} Ça va être trop bien!{{delay frames=\"40\"}}\n{{anim id=\"Clapping\" target=\"actor\" targetSpec=\"\"}}Je voudrais déjà y être!"
  },
  {
    "label": "013",
    "attribute": "0x0000000000000000",
    "text": "{{fun_0014003C arg=\"\"}}"
  },
  {
    "label": "013_01",
    "attribute": "0x0000000000000000",
    "text": "{{anim id=\"Worried\" target=\"actor\" targetSpec=\"\"}}{{selection value=\"SelectedVillager\"}} déménage demain{{string value=\"...\"}} Sérieux, j'arrive pas à m'y faire.{{pageBreak}}{{anim id=\"Negative\" target=\"actor\" targetSpec=\"\"}}Mais pas moyen que je me démonte!\n{{anim id=\"EmotEnd\" target=\"actor\" targetSpec=\"\"}}Je vais lui sortir le grand jeu, à base\nde {{delay8}}{{anim id=\"EmotEnd\" target=\"actor\" targetSpec=\"\"}}« ⁠fonce, on vit qu'une fois⁠ », lol!"
  },
  {
    "label": "013_02",
    "attribute": "0x0000000000000000",
    "text": "{{anim id=\"Sighing\" target=\"actor\" targetSpec=\"\"}}Ça y est, {{selection value=\"SelectedVillager\"}} s'en va explorer le vaste monde dès demain{{string value=\"...\"}} Je veux pas!{{pageBreak}}{{anim id=\"SadSpiral\" target=\"actor\" targetSpec=\"\"}}Si tu as pas été lui dire au revoir,\nvas-y pendant que tu en as encore\nle temps."
  },
  {
    "label": "013_03",
    "attribute": "0x0000000000000000",
    "text": "{{anim id=\"Worried\" target=\"actor\" targetSpec=\"\"}}Demain, {{selection value=\"SelectedVillager\"}} trace sa route dans le doute sans déroute, les boîtes pleines de choucroute{{string value=\"...\"}}{{pageBreak}}{{anim id=\"Thinking\" target=\"actor\" targetSpec=\"\"}}Hé, faut que j'arrive à placer ça dans\nma prochaine chanson{{string value=\"...\"}}{{pageBreak}}{{anim id=\"Sighing\" target=\"actor\" targetSpec=\"\"}}Mais pour le moment, j'ai pas le cœur\nà taper un slam.{{delay frames=\"40\"}}\n{{anim id=\"OhGeez\" target=\"actor\" targetSpec=\"\"}}{{size value=\"75\"}}Et pis j'aime pas les chansons tristes{{string value=\"...\"}}{{size value=\"100\"}}"
  }
]