﻿[
  {
    "label": "002",
    "attribute": "0x00000000",
    "text": "{{anim id=\"Smiling\" target=\"actor\" targetSpec=\"\"}}Mi sembra perfetto!{{delay frames=\"40\"}} {{anim id=\"EmotEnd\" target=\"actor\" targetSpec=\"\"}}Ma non\nstancarti troppo per me, d'accordo?"
  },
  {
    "label": "003",
    "attribute": "0x01000000",
    "text": "Mmmh{{string value=\"...\"}}{{delay8}}{{anim id=\"Thinking\" target=\"actor\" targetSpec=\"\"}} Entraaaaambe le idee\nmi sembrano valide.{{delay20}} {{anim id=\"Smiling\" target=\"actor\" targetSpec=\"\"}}Tu cosa ne\npeeeeensi?"
  },
  {
    "label": "003_01",
    "attribute": "0x00000000",
    "text": "{{anim id=\"Hesitate\" target=\"actor\" targetSpec=\"\"}}Oooh{{string value=\"...\"}} {{delay20}}qui siamo un po' troppo\nesposti, non è veeeeero?{{delay20}} {{anim id=\"FaintSmile\" target=\"actor\" targetSpec=\"\"}}Beh,\npossiamo comunque parlare."
  },
  {
    "label": "003_03",
    "attribute": "0x00000000",
    "text": "{{anim id=\"Smiling\" target=\"actor\" targetSpec=\"\"}}Che bel posto!"
  },
  {
    "label": "003_04",
    "attribute": "0x00000000",
    "text": "{{anim id=\"Nodding\" target=\"actor\" targetSpec=\"\"}}Graaaaazie per il tuo aiuto.\n{{delay20}}{{anim id=\"FaintSmile\" target=\"actor\" targetSpec=\"\"}}Lascio fare tutto a te."
  },
  {
    "label": "003_a",
    "attribute": "0x00000000",
    "text": "Una casa a un piano."
  },
  {
    "label": "003_b",
    "attribute": "0x00000000",
    "text": "Una casa a due piani."
  },
  {
    "label": "004",
    "attribute": "0x00000000",
    "text": "{{anim id=\"FaintSmile\" target=\"actor\" targetSpec=\"\"}}OK.{{delay20}} {{anim id=\"Nodding\" target=\"actor\" targetSpec=\"\"}}Un piano, allooooora!"
  },
  {
    "label": "005",
    "attribute": "0x00000000",
    "text": "{{anim id=\"FaintSmile\" target=\"actor\" targetSpec=\"\"}}OK.{{delay20}} {{anim id=\"Nodding\" target=\"actor\" targetSpec=\"\"}}Due piani, allooooora!"
  }
]