﻿[
  {
    "label": "001",
    "attribute": "0x0000000100070000",
    "text": "{{fun_0007003C arg=\"0x1007000800CD\"}}"
  },
  {
    "label": "002",
    "attribute": "0x0000000100030000",
    "text": "{{fun_0007003C arg=\"0x1009000A00CD\"}}"
  },
  {
    "label": "003",
    "attribute": "0x0000000100040000",
    "text": "{{fun_0007003C arg=\"0x100B000C00CD\"}}"
  },
  {
    "label": "004",
    "attribute": "0x0000000100090000",
    "text": "{{fun_0007003C arg=\"0x100D000E00CD\"}}"
  },
  {
    "label": "005",
    "attribute": "0x00000C0100000000",
    "text": "{{anim id=\"Smiling\" target=\"actor\" targetSpec=\"\"}}{{delay20}}Als je verdrietig wordt door de regen,\nmoet je maar aan een regenboog\ndenken.{{delay20}} {{anim id=\"Love\" target=\"actor\" targetSpec=\"\"}}Dat helpt bij mij altijd!{{setNpcTalkChoices chatOption=\"0\" cancelOption=\"1\"}}"
  },
  {
    "label": "007",
    "attribute": "0x00000C0000000000",
    "text": "{{anim id=\"Greeting\" target=\"actor\" targetSpec=\"\"}}{{delay20}}Hallo hallo. {{i10_4}}{{anim id=\"QuestionMark\" target=\"actor\" targetSpec=\"\"}}Denk je dat het nog gaat\nopklaren vandaag?{{delay frames=\"40\"}}{{anim id=\"HappyFlower\" target=\"actor\" targetSpec=\"\"}} Van mij hoeft het\nniet{{string value=\"...\"}}{{delay frames=\"60\"}}{{anim id=\"EmotEnd\" target=\"actor\" targetSpec=\"\"}}{{setNpcTalkChoices chatOption=\"0\" cancelOption=\"1\"}}"
  },
  {
    "label": "008",
    "attribute": "0x00000C0000000000",
    "text": "{{anim id=\"Smiling\" target=\"actor\" targetSpec=\"\"}}Ahaha,{{delay20}} wat een plensochtend, hè?{{delay20}}{{anim id=\"HappyFlower\" target=\"actor\" targetSpec=\"\"}}{{string value=\"OtherIslandName\"}} ziet er best leuk uit in de regen, {{string value=\"6\"}}!{{delay frames=\"60\"}}{{anim id=\"EmotEnd\" target=\"actor\" targetSpec=\"\"}}{{setNpcTalkChoices chatOption=\"0\" cancelOption=\"1\"}}"
  },
  {
    "label": "009",
    "attribute": "0x00000C0000000000",
    "text": "{{anim id=\"Nodding\" target=\"actor\" targetSpec=\"\"}}De zon doet het rustig aan vandaag,\n{{delay20}}{{anim id=\"Smiling\" target=\"actor\" targetSpec=\"\"}}terwijl ik juist héél veel energie heb.{{setNpcTalkChoices chatOption=\"0\" cancelOption=\"1\"}}"
  },
  {
    "label": "010",
    "attribute": "0x00000C0000000000",
    "text": "{{anim id=\"Nodding\" target=\"actor\" targetSpec=\"\"}}Het hoost nog steeds, maar weet je\nwat? {{delay20}}{{anim id=\"Smiling\" target=\"actor\" targetSpec=\"\"}}{{delay20}}Ik ga gewoon lol maken, maakt\nmij niks uit.{{setNpcTalkChoices chatOption=\"0\" cancelOption=\"1\"}}"
  },
  {
    "label": "011",
    "attribute": "0x00000C0000000000",
    "text": "{{anim id=\"HappyFlower\" target=\"actor\" targetSpec=\"\"}}Het hele eiland is veranderd in één\ngroot waterparadijs.{{delay20}} Waanzinnig,\n{{string value=\"6\"}}!{{delay frames=\"60\"}}{{anim id=\"EmotEnd\" target=\"actor\" targetSpec=\"\"}}{{setNpcTalkChoices chatOption=\"0\" cancelOption=\"1\"}}"
  },
  {
    "label": "012",
    "attribute": "0x00000C0000000000",
    "text": "{{anim id=\"Negative\" target=\"actor\" targetSpec=\"\"}}{{delay20}}Wat een somber weer! Is het nou al\navond of nog dag?{{delay20}} {{anim id=\"Smiling\" target=\"actor\" targetSpec=\"\"}}Gelukkig weet ik\nwel precies wanneer het etenstijd is!{{setNpcTalkChoices chatOption=\"0\" cancelOption=\"1\"}}"
  },
  {
    "label": "013",
    "attribute": "0x00000C0000000000",
    "text": "{{anim id=\"Greeting\" target=\"actor\" targetSpec=\"\"}}Hé hallo. {{delay frames=\"40\"}}{{anim id=\"Smiling\" target=\"actor\" targetSpec=\"\"}}Het heeft vandaag de hele\ndag geregend{{string value=\"...\"}} Ik hoop dat het zo\nnog eeuwig doorgaat, {{string value=\"6\"}}.{{setNpcTalkChoices chatOption=\"0\" cancelOption=\"1\"}}"
  },
  {
    "label": "014",
    "attribute": "0x00000C0000000000",
    "text": "{{anim id=\"Shocked\" target=\"actor\" targetSpec=\"\"}}Doe maar voorzichtig{{string value=\"...\"}}{{delay20}}{{anim id=\"FaintSmile\" target=\"actor\" targetSpec=\"\"}} Met al die\nnattigheid{{delay20}} {{anim id=\"Laughing\" target=\"actor\" targetSpec=\"\"}}{{delay20}}lig je zo op je bips!{{setNpcTalkChoices chatOption=\"0\" cancelOption=\"1\"}}"
  }
]