﻿[
  {
    "label": "001",
    "attribute": "0x00000C0100000000",
    "text": "{{anim id=\"Smiling\" target=\"actor\" targetSpec=\"\"}}Привет, ты тоже здесь?{{setNpcTalkChoices chatOption=\"0\" cancelOption=\"1\"}}"
  },
  {
    "label": "002",
    "attribute": "0x00000C0100000000",
    "text": "{{anim id=\"Eh\" target=\"actor\" targetSpec=\"\"}}О{{string value=\"...\"}} Ты и {{selection value=\"SelectedVillager\"}} что-то\nзапланировали вместе?\n{{anim id=\"FaintSmile\" target=\"actor\" targetSpec=\"\"}}{{delay20}}Надеюсь, я не помешаю{{string value=\"...\"}}{{setNpcTalkChoices chatOption=\"0\" cancelOption=\"1\"}}"
  },
  {
    "label": "003",
    "attribute": "0x00000C0100000000",
    "text": "{{anim id=\"Greeting\" target=\"actor\" targetSpec=\"\"}}Привет.{{delay8}} Ты тоже здесь,\nу {{fun_00170032 arg=\"0x03CD\"}}{{selection value=\"SelectedVillager\"}}?!{{delay20}}\n{{anim id=\"FaintSmile\" target=\"actor\" targetSpec=\"\"}}Жук меня укуси!{{setNpcTalkChoices chatOption=\"0\" cancelOption=\"1\"}}"
  }
]