﻿[
  {
    "label": "0001",
    "text": "{{selection value=\"5\"}}"
  },
  {
    "label": "0002",
    "text": "{{selection value=\"SelectedName\"}}"
  },
  {
    "label": "0102",
    "text": "Stilista"
  },
  {
    "label": "0201",
    "text": "{{creatorId}}"
  },
  {
    "label": "0202",
    "text": "{{designId}}"
  },
  {
    "label": "0203",
    "text": "Tipo"
  }
]