﻿[
  {
    "label": "001",
    "attribute": "0x000000",
    "text": "{{anim id=\"Greeting\" target=\"actor\" targetSpec=\"\"}}Наконец все снова в сборе!{{delay20}}\nНадеюсь, каждому удалось найти\nподходящее место для нового дома.{{pageBreak}}{{anim id=\"Smiling\" target=\"actor\" targetSpec=\"\"}}Вы же там сможете ночевать какое-\nто время?{{delay20}} Так сказать, пожить\nна пробу."
  },
  {
    "label": "002",
    "attribute": "0x000000",
    "text": "{{anim id=\"Serious\" target=\"actor\" targetSpec=\"\"}}Теперь, когда этот вопрос улажен,\nмы можем перейти к более важным\nделам{{string value=\"...\"}}{{pageBreak}}{{anim id=\"BigSmile\" target=\"actor\" targetSpec=\"\"}}Например, организовать новоселье!{{delay20}}\nПрямо здесь, на площади, под\nуютное потрескивание костра."
  },
  {
    "label": "003",
    "attribute": "0x000000",
    "text": "{{anim id=\"Thinking\" target=\"actor\" targetSpec=\"\"}}Но для начала нам кое-что\nпонадобится, верно?"
  },
  {
    "label": "004",
    "attribute": "0x000000",
    "text": "{{anim id=\"IdeaBulb\" target=\"actor\" targetSpec=\"\"}}Заодно и проверим, как у нас\nс командным духом{{string value=\"...\"}}{{delay frames=\"40\"}}{{anim id=\"IdeaBulb\" target=\"actor\" targetSpec=\"\"}} Ведь мы\nбудем жить здесь все вместе!"
  },
  {
    "label": "005",
    "attribute": "0x000000",
    "text": "{{anim id=\"Thinking\" target=\"actor\" targetSpec=\"\"}}Так-так{{string value=\"...\"}}{{pageBreak}}{{anim id=\"Nodding\" target=\"actor\" targetSpec=\"\"}}{{color id=\"3\"}}Тимми{{color id=\"65535\"}}, {{selection value=\"SelectedVillager\"}}, {{color id=\"3\"}}Томми{{color id=\"65535\"}}\nи {{selection value=\"SelectedVillager\"}} могут обустроить\nвсе на площади."
  },
  {
    "label": "006",
    "attribute": "0x000000",
    "text": "{{anim id=\"Smiling\" target=\"actor\" targetSpec=\"\"}}А я и {{string value=\"PlayerName\"}} соберем\nхворост для костра и поищем\nчто-нибудь перекусить!"
  },
  {
    "label": "007",
    "attribute": "0x000000",
    "text": "{{anim id=\"EmotEnd\" target=\"actor\" targetSpec=\"\"}}Всем все понятно?{{delay20}} За работу!{{pageBreak}}{{capitalizeNextLetter}}{{string value=\"PlayerName\"}}, можно тебя\nна секунду?"
  },
  {
    "label": "011",
    "attribute": "0x000000",
    "text": "{{anim id=\"Smiling\" target=\"actor\" targetSpec=\"\"}}А, {{string value=\"PlayerName\"}}.{{delay20}} Обсудим-ка,\nчто нам нужно для костра.{{pageBreak}}{{anim id=\"Thinking\" target=\"actor\" targetSpec=\"\"}}Я думаю, что {{color id=\"1\"}}10 веток {{color id=\"65535\"}}будет\nдостаточно.{{delay20}} Они по всему\nострову валяются.{{pageBreak}}{{anim id=\"Nodding\" target=\"actor\" targetSpec=\"\"}}Если увидишь на земле ветку,\nнажми {{color id=\"1\"}}{{color id=\"65535\"}}, чтобы подобрать ее!{{pageBreak}}{{anim id=\"WrySmile\" target=\"actor\" targetSpec=\"\"}}А я пока займусь этими фруктами,\nпохожими на {{fun_00170032 arg=\"0x01CD\"}}{{string value=\"7\"}}.{{delay20}} {{anim id=\"Grin\" target=\"actor\" targetSpec=\"\"}}Думаю,\nчто это и есть {{string value=\"7\"}}!"
  },
  {
    "label": "012",
    "attribute": "0x000000",
    "text": "{{fun_0014003C arg=\"\"}}"
  },
  {
    "label": "012_01",
    "attribute": "0x000000",
    "text": "{{anim id=\"QuestionMark\" target=\"actor\" targetSpec=\"\"}}Не знаешь, как выглядят {{color id=\"1\"}}ветки{{color id=\"65535\"}}?{{delay20}}\n{{anim id=\"OhGeez\" target=\"actor\" targetSpec=\"\"}}Бери все подряд, что похоже\nна {{color id=\"1\"}}ветку{{color id=\"65535\"}}.\n{{anim id=\"WrySmile\" target=\"actor\" targetSpec=\"\"}}На всякий случай я бы подбирал\nабсолютно все, что напоминает\nмне {{color id=\"1\"}}ветку{{color id=\"65535\"}}!"
  },
  {
    "label": "012_02",
    "attribute": "0x000000",
    "text": "{{anim id=\"Smiling\" target=\"actor\" targetSpec=\"\"}}Объяснить еще раз?{{delay20}} Чтобы\nподобрать предмет с земли,\nпросто нажми {{color id=\"1\"}}{{color id=\"65535\"}}.{{pageBreak}}{{anim id=\"Explain\" target=\"actor\" targetSpec=\"\"}}Иногда ты можешь вместо\nхвороста случайно подобрать\nсорняки.{{pageBreak}}{{anim id=\"Cheering\" target=\"actor\" targetSpec=\"\"}}В этом нет ничего страшного —\nдаже наоборот!{{delay20}} Заодно наш остров\nстанет благодаря тебе еще краше!"
  },
  {
    "label": "012_03",
    "attribute": "0x000000",
    "text": "{{anim id=\"QuestionMark\" target=\"actor\" targetSpec=\"\"}}Нам нужно {{color id=\"1\"}}10 веток{{color id=\"65535\"}}. Они тут везде\nваляются.{{pageBreak}}А если не валяются,{{anim id=\"IdeaBulb\" target=\"actor\" targetSpec=\"\"}} то можешь\nпопробовать трясти деревья —\nвдруг с них что-нибудь упадет!{{pageBreak}}{{anim id=\"Nodding\" target=\"actor\" targetSpec=\"\"}}Просто подойди к дереву без\nплодов и нажми {{color id=\"1\"}}{{color id=\"65535\"}}, чтобы\nхорошенько потрясти его.{{pageBreak}}{{anim id=\"Smiling\" target=\"actor\" targetSpec=\"\"}}В этом нет ничего сложного!{{delay20}} Ты\nнаверняка стрясешь какую-нибудь\nотломанную ветку."
  },
  {
    "label": "012_04",
    "attribute": "0x000000",
    "text": "{{anim id=\"Nodding\" target=\"actor\" targetSpec=\"\"}}Если ты сбил{{gender2 m=\"ся\" f=\"ась\"}} со счета, нажми {{color id=\"1\"}}\n{{color id=\"65535\"}}и проверь свои карманы!"
  },
  {
    "label": "013",
    "attribute": "0x000000",
    "text": "{{anim id=\"Smiling\" target=\"actor\" targetSpec=\"\"}}Ты вернул{{gender2 m=\"ся\" f=\"ась\"}}?{{delay20}} Могу я надеяться,\nчто ты уже насобирал{{gender2 m=\"\" f=\"а\"}} {{color id=\"1\"}}веток{{color id=\"65535\"}}?{{pageBreak}}{{anim id=\"Nodding\" target=\"actor\" targetSpec=\"\"}}Замечательно!{{delay20}} Давай я возьму\nу тебя твою ношу."
  },
  {
    "label": "013_01",
    "attribute": "0x000000",
    "text": "Ого! Неплохо, {{string value=\"PlayerName\"}}!{{delay20}}\n{{anim id=\"Smiling\" target=\"actor\" targetSpec=\"\"}}Похоже, ты насобирал{{gender2 m=\"\" f=\"а\"}} достаточно\n{{color id=\"1\"}}веток{{color id=\"65535\"}}{{string value=\"...\"}}{{delay20}}{{anim id=\"Shocked\" target=\"actor\" targetSpec=\"\"}} Так ведь?{{pageBreak}}{{anim id=\"Smiling\" target=\"actor\" targetSpec=\"\"}}Ты даже больше принес{{gender2 m=\"\" f=\"ла\"}}!{{i10_4}} Нужно\nбыло только {{color id=\"1\"}}10{{color id=\"65535\"}}, но{{delay8}} ты наверняка\nнайдешь применение остальным.{{pageBreak}}{{anim id=\"EmotEnd\" target=\"actor\" targetSpec=\"\"}}Давай я возьму у тебя часть ноши."
  },
  {
    "label": "014",
    "attribute": "0x000000",
    "text": "{{anim id=\"HappyFlower\" target=\"actor\" targetSpec=\"\"}}Да-да, на наш костер должно\nхватить.{{delay20}} Ты очень быстро\nсправил{{gender2 m=\"ся\" f=\"ась\"}}!{{pageBreak}}{{anim id=\"Laughing\" target=\"actor\" targetSpec=\"\"}}Очень рад, что у меня на этом\nострове будет так{{gender2 m=\"ой\" f=\"ая\"}} прилежн{{gender2 m=\"ый\" f=\"ая\"}}\nсосед{{gender2 m=\"\" f=\"ка\"}}! Ух-ух-ух!{{anim id=\"EmotEnd\" target=\"actor\" targetSpec=\"\"}}"
  },
  {
    "label": "015",
    "attribute": "0x000000",
    "text": "{{anim id=\"WrySmile\" target=\"actor\" targetSpec=\"\"}}Кстати о выживании на острове —\nнашей следующей задачей будет\nпоиск съестного.{{pageBreak}}{{anim id=\"Nodding\" target=\"actor\" targetSpec=\"\"}}Пока ты собирал{{gender2 m=\"\" f=\"а\"}} хворост,\nя разбирался с плодами,\nкоторых тут хоть отбавляй.{{pageBreak}}{{anim id=\"Thinking\" target=\"actor\" targetSpec=\"\"}}Они выглядят как {{color id=\"1\"}}{{string value=\"7\"}}{{color id=\"65535\"}},\nпахнут как {{color id=\"1\"}}{{string value=\"7\"}}{{color id=\"65535\"}} и на вкус\nтоже как {{color id=\"1\"}}{{string value=\"7\"}}{{color id=\"65535\"}}.{{pageBreak}}На самом деле{{string value=\"...\"}} {{anim id=\"IdeaBulb\" target=\"actor\" targetSpec=\"\"}}это, несомненно,{{delay20}}\n100%-ные{{delay20}} настоящие {{color id=\"1\"}}{{string value=\"7\"}}{{color id=\"65535\"}}!{{delay frames=\"40\"}}\n{{anim id=\"QuestionMark\" target=\"actor\" targetSpec=\"\"}}Не соберешь нам {{color id=\"1\"}}6 {{color id=\"65535\"}}штук?"
  },
  {
    "label": "016",
    "attribute": "0x000000",
    "text": "{{anim id=\"Smiling\" target=\"actor\" targetSpec=\"\"}}Наверное, ты это и так знаешь, но\nя все же скажу на всякий случай{{string value=\"...\"}}{{pageBreak}}{{anim id=\"Explain\" target=\"actor\" targetSpec=\"\"}}Подойди к дереву, на котором висят\n{{color id=\"1\"}}{{string value=\"7\"}}{{color id=\"65535\"}}, и нажми {{color id=\"1\"}}{{color id=\"65535\"}}, чтобы\nпотрясти его. {{delay20}}И собирай упавшие!{{pageBreak}}{{anim id=\"Greeting\" target=\"actor\" targetSpec=\"\"}}Ты в два счета наберешь\n{{color id=\"1\"}}{{fun_00170032 arg=\"0x03CD\"}}{{string value=\"7\"}} {{color id=\"65535\"}}на всех нас."
  },
  {
    "label": "017",
    "attribute": "0x000000",
    "text": "{{anim id=\"QuestionMark\" target=\"actor\" targetSpec=\"\"}}Что я вижу?{{delay20}} Неужели ты уже\nуспел{{gender2 m=\"\" f=\"а\"}} набрать достаточно\n{{color id=\"1\"}}{{fun_00170032 arg=\"0x03CD\"}}{{string value=\"7\"}} {{color id=\"65535\"}}на всех?{{pageBreak}}{{anim id=\"Laughing\" target=\"actor\" targetSpec=\"\"}}Вот-вот!{{delay20}} Я так и знал, что это\nзадание как раз для тебя.{{delay20}}\nЕще раз спасибо!{{pageBreak}}{{anim id=\"Smiling\" target=\"actor\" targetSpec=\"\"}}Заберу-ка я их у тебя, и приступим\nк работе."
  },
  {
    "label": "021",
    "attribute": "0x000000",
    "text": "{{fun_0014003C arg=\"\"}}"
  },
  {
    "label": "021_01",
    "attribute": "0x000000",
    "text": "{{anim id=\"Smiling\" target=\"actor\" targetSpec=\"\"}}Местные {{string value=\"7\"}} — настоящий\nделикатес.{{delay20}} Какое счастье, что они\nздесь растут в изобилии{{string value=\"...\"}}"
  },
  {
    "label": "021_02",
    "attribute": "0x000000",
    "text": "{{anim id=\"Smiling\" target=\"actor\" targetSpec=\"\"}}Молодец! Принеси, пожалуйста,\nвсего {{color id=\"1\"}}6 {{fun_00170032 arg=\"0x03CD\"}}{{string value=\"7\"}}{{color id=\"65535\"}}, чтобы всем\nхватило."
  },
  {
    "label": "021_03",
    "attribute": "0x000000",
    "text": "Тебе подсказать? Я не специалист\nпо {{color id=\"1\"}}{{fun_00170032 arg=\"0x02CD\"}}{{string value=\"7\"}}{{color id=\"65535\"}}, но думаю, что их\nможно стрясти с дерева, нажав {{color id=\"1\"}}{{color id=\"65535\"}}.{{pageBreak}}А потом {{color id=\"1\"}}{{fun_00170032 arg=\"0x01CD\"}}{{string value=\"7\"}}{{color id=\"65535\"}} можно\nподобрать с земли, нажав {{color id=\"1\"}}{{color id=\"65535\"}}."
  },
  {
    "label": "031",
    "attribute": "0x000000",
    "text": "{{anim id=\"BigSmile\" target=\"actor\" targetSpec=\"\"}}Вот-вот!{{delay20}} Я так и знал, что это\nзадание как раз для тебя.{{delay20}}\n{{anim id=\"Nodding\" target=\"actor\" targetSpec=\"\"}}Еще раз спасибо!{{pageBreak}}{{anim id=\"Smiling\" target=\"actor\" targetSpec=\"\"}}Заберу-ка я у тебя эти {{color id=\"1\"}}{{fun_00170032 arg=\"0x01CD\"}}{{string value=\"7\"}}{{color id=\"65535\"}},\nи приступим к работе."
  },
  {
    "label": "032",
    "attribute": "0x000000",
    "text": "{{anim id=\"Thinking\" target=\"actor\" targetSpec=\"\"}}Вроде все готово{{string value=\"...\"}}{{i10_4}}\n{{anim id=\"Clapping\" target=\"actor\" targetSpec=\"\"}}Да-да! По-моему, готово.{{pageBreak}}{{anim id=\"BigSmile\" target=\"actor\" targetSpec=\"\"}}Объявляю торжество открытым!"
  },
  {
    "label": "041_01",
    "attribute": "0x000000",
    "text": "{{anim id=\"Greeting\" target=\"actor\" targetSpec=\"\"}}Наконец-то! Позвольте мне\nофициально поприветствовать\nвас всех на новом острове!{{pageBreak}}{{anim id=\"SmugFace\" target=\"actor\" targetSpec=\"\"}}Уже много лет я участвую в разных\nпредприятиях и начинаниях, но это\nприключение — самое интересное.{{pageBreak}}{{anim id=\"Hesitate\" target=\"actor\" targetSpec=\"\"}}Создание совершенно нового\nпоселения потребует от меня\nнастоящей предприимчивости.{{pageBreak}}{{anim id=\"WrySmile\" target=\"actor\" targetSpec=\"\"}}И, возможно, навыков выживания\nв естественных природных\nусловиях.{{delay20}} Ух-ух!"
  },
  {
    "label": "041_02",
    "attribute": "0x000000",
    "text": "{{anim id=\"Confused\" target=\"actor\" targetSpec=\"\"}}Пока мы еще не достигли\nзапланированного размаха{{string value=\"...\"}}{{pageBreak}}{{anim id=\"Angry\" target=\"actor\" targetSpec=\"\"}}Но это значит лишь, что нам есть\nкуда стремиться!{{pageBreak}}{{anim id=\"SmugFace\" target=\"actor\" targetSpec=\"\"}}Я уверен,{{delay20}} что настойчивостью\nи тяжким трудом{{delay20}} мы превратим\nэтот необитаемый остров{{string value=\"...\"}}{{anim id=\"Shocked\" target=\"actor\" targetSpec=\"\"}}"
  },
  {
    "label": "041_03",
    "attribute": "0x000000",
    "text": "{{anim id=\"OhGeez\" target=\"actor\" targetSpec=\"\"}}Наверное, этот остров больше\nнельзя назвать необитаемым.{{delay frames=\"40\"}}\n{{anim id=\"QuestionMark\" target=\"actor\" targetSpec=\"\"}}Но как же его можно назвать{{string value=\"...\"}}"
  },
  {
    "label": "041_04",
    "attribute": "0x000000",
    "text": "{{anim id=\"Nodding\" target=\"actor\" targetSpec=\"\"}}Какая чудесная возможность!{{i10_4}}\n{{anim id=\"SmugFace\" target=\"actor\" targetSpec=\"\"}}Мы первые жители этого острова\nи можем дать ему название.{{pageBreak}}{{anim id=\"Smiling\" target=\"actor\" targetSpec=\"\"}}Давайте проведем демократическое\nголосование!{{delay20}} Победит название,\nнабравшее большинство голосов!{{pageBreak}}{{anim id=\"Smiling\" target=\"actor\" targetSpec=\"\"}}Подумайте немного, а когда все\nбудут готовы, я представлю\nваши идеи."
  },
  {
    "label": "042_01",
    "attribute": "0x000000",
    "text": "Итак. {{delay20}}{{anim id=\"QuestionMark\" target=\"actor\" targetSpec=\"\"}}Все готовы?"
  },
  {
    "label": "042_02",
    "attribute": "0x000000",
    "text": "{{anim id=\"Smiling\" target=\"actor\" targetSpec=\"\"}}Давайте озвучим наши идеи\nодновременно!"
  },
  {
    "label": "042_03",
    "attribute": "0x000000",
    "text": "{{i10_12}}Приготовились{{string value=\"...\"}} Давайте!"
  },
  {
    "label": "043_01",
    "attribute": "0x000000",
    "text": "{{anim id=\"Cheering\" target=\"actor\" targetSpec=\"\"}}Какое разнообразие.{{delay20}} Да-да!{{delay20}}\n{{anim id=\"Nodding\" target=\"actor\" targetSpec=\"\"}}Каждый вариант — настоящий перл."
  },
  {
    "label": "043_02",
    "attribute": "0x000000",
    "text": "{{anim id=\"EmotEnd\" target=\"actor\" targetSpec=\"\"}}Перейдем к голосованию.{{delay20}} Я буду\nговорить названия по порядку, {{anim id=\"Smiling\" target=\"actor\" targetSpec=\"\"}}а вы\nхлопайте, если они вам нравятся."
  },
  {
    "label": "043_03",
    "attribute": "0x000000",
    "text": "{{anim id=\"AbsentMindedness\" target=\"actor\" targetSpec=\"\"}}{{capitalizeNextLetter}}{{string value=\"PlayerName\"}}, кажется, твой\nэнтузиазм нам и нужен!\nНачнем с тебя{{string value=\"...\"}}{{anim id=\"EmotEnd\" target=\"actor\" targetSpec=\"\"}}"
  },
  {
    "label": "043_04",
    "attribute": "0x000000",
    "text": "{{anim id=\"AbsentMindedness\" target=\"actor\" targetSpec=\"\"}}{{capitalizeNextLetter}}{{string value=\"PlayerName\"}} предлагает\nследующее{{string value=\"...\"}}"
  },
  {
    "label": "043_05",
    "attribute": "0x000000",
    "text": "{{anim id=\"BigSmile\" target=\"actor\" targetSpec=\"\"}}{{capitalizeNextLetter}}{{string value=\"IslandName\"}}!"
  },
  {
    "label": "043_06",
    "attribute": "0x000000",
    "text": "{{anim id=\"Shocked\" target=\"actor\" targetSpec=\"\"}}Вот это да!{{delay20}} Единогласный\nположительный отзыв!{{delay20}}\n{{anim id=\"Smiling\" target=\"actor\" targetSpec=\"\"}}Хлопали все до единого."
  },
  {
    "label": "043_07",
    "attribute": "0x000000",
    "text": "{{anim id=\"Thinking\" target=\"actor\" targetSpec=\"\"}}Это значит, что все согласны{{string value=\"...\"}}{{delay20}}\n{{anim id=\"IdeaBulb\" target=\"actor\" targetSpec=\"\"}}Тогда давайте так и назовем наш\nостров: {{string value=\"IslandName\"}}!"
  },
  {
    "label": "044_01",
    "attribute": "0x000000",
    "text": "Здорово!"
  },
  {
    "label": "044_02",
    "attribute": "0x000000",
    "text": "Ура!"
  },
  {
    "label": "044_03",
    "attribute": "0x000000",
    "text": "Конечно!"
  },
  {
    "label": "044_04",
    "attribute": "0x000000",
    "text": "Точно!"
  },
  {
    "label": "045",
    "attribute": "0x000000",
    "text": "{{anim id=\"BigSmile\" target=\"actor\" targetSpec=\"\"}}Замечательно!{{delay20}} Стало быть, впредь\nнаш остров будет называться\n{{string value=\"IslandName\"}}.{{anim id=\"FaintSmile\" target=\"actor\" targetSpec=\"\"}}"
  },
  {
    "label": "045_01",
    "attribute": "0x000000",
    "text": "Отлично!{{delay20}} С сегодняшнего дня\nэтот остров будет называться\n{{string value=\"34\"}}!"
  },
  {
    "label": "045_01_02",
    "attribute": "0x000000",
    "text": "{{i20_3 arg=\"6\"}}Так-так, {{string value=\"PlayerName\"}}{{string value=\"...\"}}{{pageBreak}}{{anim id=\"Nodding\" target=\"actor\" targetSpec=\"\"}}Ты показал{{gender2 m=\"\" f=\"а\"}}, на что ты способ{{gender2 m=\"ен\" f=\"на\"}},\nпридумав отличное название для\nострова {{string value=\"IslandName\"}}{{string value=\"...\"}}{{pageBreak}}{{anim id=\"Smiling\" target=\"actor\" targetSpec=\"\"}}Я готов передать тебе полномочия\nна принятие всех важных решений\nо его обустройстве!{{pageBreak}}{{anim id=\"BigSmile\" target=\"actor\" targetSpec=\"\"}}Да-да, {{string value=\"PlayerName\"}}, назначаю\nтебя {{color id=\"1\"}}спикером острова\n{{color id=\"65535\"}}{{string value=\"IslandName\"}}!"
  },
  {
    "label": "045_02",
    "attribute": "0x030000",
    "text": "{{capitalizeNextLetter}}{{string value=\"PlayerName\"}}, {{anim id=\"QuestionMark\" target=\"actor\" targetSpec=\"\"}}как насчет пары\nслов для жителей острова\nот их нового спикера?"
  },
  {
    "label": "045_02_a",
    "attribute": "0x000000",
    "text": "Привет!"
  },
  {
    "label": "045_02_b",
    "attribute": "0x000000",
    "text": "Пара слов!"
  },
  {
    "label": "045_02_c",
    "attribute": "0x000000",
    "text": "Я вас не подведу!"
  },
  {
    "label": "045_04_01",
    "attribute": "0x000000",
    "text": "{{anim id=\"Thinking\" target=\"actor\" targetSpec=\"\"}}Хм, ну что ж{{string value=\"...\"}}{{delay40}}{{anim id=\"Nodding\" target=\"actor\" targetSpec=\"\"}} Имя для острова\nи спикер выбраны.{{pageBreak}}{{anim id=\"EmotEnd\" target=\"actor\" targetSpec=\"\"}}На первый день, пожалуй, хватит.\n{{anim id=\"BigSmile\" target=\"actor\" targetSpec=\"\"}}Время бежит, поэтому предлагаю\nпроизнести тост!"
  },
  {
    "label": "045_04_02",
    "attribute": "0x000000",
    "text": "У всех есть {{anim id=\"QuestionMark\" target=\"actor\" targetSpec=\"\"}}бокал с напитком?{{pageBreak}}{{anim id=\"Smiling\" target=\"actor\" targetSpec=\"\"}}Это свежевыжатый сок\nиз {{color id=\"1\"}}{{fun_00170032 arg=\"0x03CD\"}}{{string value=\"7\"}}{{color id=\"65535\"}}, собранных\nнашим уважаемым спикером!"
  },
  {
    "label": "045_04_03",
    "attribute": "0x000000",
    "text": "{{anim id=\"Scheming\" target=\"actor\" targetSpec=\"\"}}Тогда не будем тянуть кота за\nхвост{{string value=\"...\"}}{{delay frames=\"40\"}} {{anim id=\"Cheering\" target=\"actor\" targetSpec=\"\"}}Поднимаю бокал{{delay20}} за остров\n{{string value=\"IslandName\"}} и его жителей!"
  },
  {
    "label": "045_05",
    "attribute": "0x000006",
    "text": "{{i10_12}}{{anim id=\"BigSmile\" target=\"actor\" targetSpec=\"\"}}                    {{anim id=\"BigSmile\" target=\"actor\" targetSpec=\"\"}}{{size value=\"150\"}}Ура!{{size value=\"100\"}}{{i10_8 arg=\"60\"}}"
  },
  {
    "label": "046",
    "attribute": "0x030000",
    "text": "Спрошу из чистого любопытства,\n{{string value=\"PlayerName\"}}.{{pageBreak}}Как точно:{{delay8}} {{string value=\"IslandName\"}}-сима,{{delay8}}\n{{string value=\"IslandName\"}}-дзима или{{delay8}}\n{{string value=\"IslandName\"}}-тоу?"
  },
  {
    "label": "046_a",
    "attribute": "0x000000",
    "text": "{{capitalizeNextLetter}}{{string value=\"IslandName\"}}-сима."
  },
  {
    "label": "046_b",
    "attribute": "0x000000",
    "text": "{{capitalizeNextLetter}}{{string value=\"IslandName\"}}-дзима."
  },
  {
    "label": "046_c",
    "attribute": "0x000000",
    "text": "{{capitalizeNextLetter}}{{string value=\"IslandName\"}}-тоу."
  },
  {
    "label": "047",
    "attribute": "0x010000",
    "text": "А как точно, {{string value=\"PlayerName\"}}:\n{{string value=\"IslandName\"}}-сеом{{delay8}}\nили{{delay8}} {{string value=\"IslandName\"}}-до?"
  },
  {
    "label": "047_a",
    "attribute": "0x000000",
    "text": "섬"
  },
  {
    "label": "047_b",
    "attribute": "0x000000",
    "text": "도"
  },
  {
    "label": "051",
    "attribute": "0x020000",
    "text": "{{anim id=\"Smiling\" target=\"actor\" targetSpec=\"\"}}А, {{string value=\"PlayerName\"}}. {{delay20}}Веселишься?{{pageBreak}}{{anim id=\"Nodding\" target=\"actor\" targetSpec=\"\"}}Столько нового! Никто не обидится,\nесли ты захочешь вздремнуть\nв своей палатке.{{pageBreak}}{{anim id=\"FaintSmile\" target=\"actor\" targetSpec=\"\"}}Костер будет гореть еще долго."
  },
  {
    "label": "051_01",
    "attribute": "0x020000",
    "text": "{{anim id=\"Smiling\" target=\"actor\" targetSpec=\"\"}}А, {{string value=\"PlayerName\"}}. {{delay20}}Веселишься?{{pageBreak}}{{anim id=\"Nodding\" target=\"actor\" targetSpec=\"\"}}Столько нового! Никто не обидится,\nесли ты захочешь вздремнуть\nв своей палатке.{{pageBreak}}{{anim id=\"FaintSmile\" target=\"actor\" targetSpec=\"\"}}Костер будет гореть еще долго."
  },
  {
    "label": "051_01_a",
    "attribute": "0x000000",
    "text": "{{anim id=\"EmotEnd\" target=\"actor\" targetSpec=\"\"}}Пожалуй, я пойду."
  },
  {
    "label": "051_01_b",
    "attribute": "0x000000",
    "text": "Я не устал{{gender2 m=\"\" f=\"а\"}}."
  },
  {
    "label": "051_a",
    "attribute": "0x000000",
    "text": "{{anim id=\"EmotEnd\" target=\"actor\" targetSpec=\"\"}}Пожалуй, я пойду."
  },
  {
    "label": "051_b",
    "attribute": "0x000000",
    "text": "Я не устал{{gender2 m=\"\" f=\"а\"}}."
  },
  {
    "label": "052",
    "attribute": "0x000000",
    "text": "{{anim id=\"Smiling\" target=\"actor\" targetSpec=\"\"}}Ага, давай!{{delay20}} Только возьми вот это{{string value=\"...\"}}"
  },
  {
    "label": "053",
    "attribute": "0x000000",
    "text": "{{anim id=\"BigSmile\" target=\"actor\" targetSpec=\"\"}}Это твоя личная койка!{{delay20}} {{anim id=\"Nodding\" target=\"actor\" targetSpec=\"\"}}Поставь ее\nу себя в палатке, а потом можешь\nи поспать.{{pageBreak}}{{anim id=\"Hello\" target=\"actor\" targetSpec=\"\"}}Кстати, в палатке тебя ждет пара\nкоробок.{{delay20}} Там предметы, которые\nмогут тебе пригодиться.{{pageBreak}}{{anim id=\"Explain\" target=\"actor\" targetSpec=\"\"}}Чтобы открыть коробки и извлечь\nпредметы, нажми {{color id=\"1\"}}{{color id=\"65535\"}}.{{pageBreak}}{{anim id=\"Nodding\" target=\"actor\" targetSpec=\"\"}}А когда будешь готов{{gender2 m=\"\" f=\"а\"}} отойти ко\nсну, заберись в койку с помощью\n{{color id=\"1\"}}мини-джойстика {{color id=\"65535\"}}."
  },
  {
    "label": "054",
    "attribute": "0x000000",
    "text": "{{anim id=\"Smiling\" target=\"actor\" targetSpec=\"\"}}Завтра нас снова ждет насыщенный\nдень, так что отдохни хорошенько\nсегодня ночью.{{pageBreak}}{{anim id=\"OhGeez\" target=\"actor\" targetSpec=\"\"}}У меня на этом все, да-да.{{delay frames=\"40\"}}\n{{anim id=\"Greeting\" target=\"actor\" targetSpec=\"\"}}Приятных сновидений,\n{{string value=\"PlayerName\"}}!"
  },
  {
    "label": "055_01",
    "attribute": "0x000000",
    "text": "{{anim id=\"Smiling\" target=\"actor\" targetSpec=\"\"}}А, {{string value=\"PlayerName\"}}. {{delay20}}Веселишься?{{pageBreak}}{{anim id=\"Nodding\" target=\"actor\" targetSpec=\"\"}}Столько нового! Никто не обидится,\nесли ты захочешь вздремнуть\nв своей палатке.{{pageBreak}}{{anim id=\"FaintSmile\" target=\"actor\" targetSpec=\"\"}}Костер будет гореть еще долго."
  },
  {
    "label": "055_02",
    "attribute": "0x000000",
    "text": "{{anim id=\"Smiling\" target=\"actor\" targetSpec=\"\"}}А, {{string value=\"PlayerName\"}}. {{delay20}}Веселишься?{{pageBreak}}{{anim id=\"Nodding\" target=\"actor\" targetSpec=\"\"}}Столько нового! Никто не обидится,\nесли ты захочешь вздремнуть\nв своей палатке.{{pageBreak}}{{anim id=\"FaintSmile\" target=\"actor\" targetSpec=\"\"}}Костер будет гореть еще долго."
  },
  {
    "label": "056",
    "attribute": "0x000000",
    "text": "{{anim id=\"EmotEnd\" target=\"actor\" targetSpec=\"\"}}Ох,{{delay20}} мне нужно дать тебе кое-что,\nперед тем как ты вернешься к себе\nпалатку.{{pageBreak}}Прежде чем пойти спать, освободи\n{{color id=\"1\"}}место, чтобы взять с собой кое-что{{color id=\"65535\"}},\nи обратись ко мне.{{pageBreak}}{{anim id=\"Explain\" target=\"actor\" targetSpec=\"\"}}Если карманы битком набиты, брось\nпока что-нибудь на землю.{{delay20}} {{anim id=\"Laughing\" target=\"actor\" targetSpec=\"\"}}Никто\nне заберет, уверяю тебя!"
  },
  {
    "label": "057",
    "attribute": "0x000000",
    "text": "{{fun_0014003C arg=\"\"}}"
  },
  {
    "label": "057_01",
    "attribute": "0x000000",
    "text": "{{anim id=\"Smiling\" target=\"actor\" targetSpec=\"\"}}Да-да. {{delay20}}Как я мог подумать, что ты\nутомил{{gender2 m=\"ся\" f=\"ась\"}}!{{delay20}} Тогда продолжай\nпраздновать!"
  },
  {
    "label": "057_02",
    "attribute": "0x000000",
    "text": "{{anim id=\"Smiling\" target=\"actor\" targetSpec=\"\"}}Конечно.{{delay20}} Кто хорошо работает, тот\nдолжен хорошо отдыхать, правда?{{delay20}}\nПродолжай в том же духе!"
  },
  {
    "label": "058",
    "attribute": "0x000000",
    "text": "{{anim id=\"Nodding\" target=\"actor\" targetSpec=\"\"}}Как соберешься спать, подойди\nко мне на пару слов, ладно?{{delay20}}\nУ меня есть для тебя кое-что!"
  },
  {
    "label": "061",
    "attribute": "0x000000",
    "text": "{{fun_0014003C arg=\"\"}}"
  },
  {
    "label": "061_01",
    "attribute": "0x000000",
    "text": "{{anim id=\"Smiling\" target=\"actor\" targetSpec=\"\"}}Надеюсь, предметы в палатке тебе\nпригодятся.{{delay20}} Не забудь: нажми {{color id=\"1\"}}{{color id=\"65535\"}},\nчтобы открыть коробки!"
  },
  {
    "label": "061_02",
    "attribute": "0x000000",
    "text": "{{anim id=\"Smiling\" target=\"actor\" targetSpec=\"\"}}Чтобы воспользоваться предметами\nили мебелью, встань перед ними\nи нажми {{color id=\"1\"}}{{color id=\"65535\"}}. {{anim id=\"WrySmile\" target=\"actor\" targetSpec=\"\"}}Просто, да?"
  },
  {
    "label": "061_03",
    "attribute": "0x000000",
    "text": "{{anim id=\"Nodding\" target=\"actor\" targetSpec=\"\"}}Когда все устроишь и захочешь\nотдохнуть, ляг в койку с помощью\n{{color id=\"1\"}}мини-джойстика {{color id=\"65535\"}}."
  },
  {
    "label": "111_00",
    "attribute": "0x000000",
    "text": "{{anim id=\"Shocked\" target=\"actor\" targetSpec=\"\"}}Прошу прощения!{{delay frames=\"40\"}} {{anim id=\"FaintSmile\" target=\"actor\" targetSpec=\"\"}}Я настоятельно\nрекомендую сначала взять свою\nпалатку у {{color id=\"1\"}}Тимми {{color id=\"65535\"}}или {{color id=\"1\"}}Томми{{color id=\"65535\"}}!"
  },
  {
    "label": "111_10",
    "attribute": "0x000000",
    "text": "{{anim id=\"Shocked\" target=\"actor\" targetSpec=\"\"}}Погоди!{{delay frames=\"40\"}} {{anim id=\"Smiling\" target=\"actor\" targetSpec=\"\"}}Я хочу, чтобы здесь все\nчувствовали себя как дома, и мне\nнужно тебе кое-что сказать."
  },
  {
    "label": "111_20",
    "attribute": "0x000000",
    "text": "{{anim id=\"Shocked\" target=\"actor\" targetSpec=\"\"}}Минутку!{{delay20}} Сначала мы приглашаем\nна собрание для ориентирования.{{delay20}}\n{{anim id=\"Nodding\" target=\"actor\" targetSpec=\"\"}}Оно будет очень полезным."
  },
  {
    "label": "111_21",
    "attribute": "0x000000",
    "text": "{{anim id=\"Smiling\" target=\"actor\" targetSpec=\"\"}}Ага! Я вижу, что ты обнаружил{{gender2 m=\"\" f=\"а\"}}\nнашу доску объявлений.{{delay20}} Боюсь,\nпока там нет ничего интересного."
  }
]