﻿[
  {
    "label": "0001",
    "text": "Tous"
  },
  {
    "label": "0006",
    "text": "Divers"
  },
  {
    "label": "0007",
    "text": "Déco murale"
  },
  {
    "label": "0009",
    "text": "Déco de plafond"
  },
  {
    "label": "0011",
    "text": "Plantes"
  },
  {
    "label": "0012",
    "text": "Musiques"
  },
  {
    "label": "0013",
    "text": "Mode"
  },
  {
    "label": "0014",
    "text": "Créatures"
  },
  {
    "label": "0015",
    "text": "Tapis"
  },
  {
    "label": "0018",
    "text": "Mobilier"
  },
  {
    "label": "0019",
    "text": "Personnalisables"
  },
  {
    "label": "0020",
    "text": "Sols"
  },
  {
    "label": "0021",
    "text": "Papiers peints"
  },
  {
    "label": "0022",
    "text": "Autres"
  },
  {
    "label": "0023",
    "text": "Fossiles"
  },
  {
    "label": "0024",
    "text": "Gyroïdes"
  },
  {
    "label": "0025",
    "text": "Autres"
  },
  {
    "label": "0026",
    "text": "Papiers peints/Sols/Tapis"
  },
  {
    "label": "0051",
    "text": "Chapeaux/Masques"
  },
  {
    "label": "0052",
    "text": "Accessoires"
  },
  {
    "label": "0053",
    "text": "Hauts"
  },
  {
    "label": "0054",
    "text": "Robes/Tenues"
  },
  {
    "label": "0055",
    "text": "Pantalons/Jupes"
  },
  {
    "label": "0056",
    "text": "Bas"
  },
  {
    "label": "0057",
    "text": "Souliers"
  },
  {
    "label": "0058",
    "text": "Sacs"
  },
  {
    "label": "0059",
    "text": "Outils"
  },
  {
    "label": "0061",
    "text": "Favoris"
  },
  {
    "label": "0062",
    "text": "Fabrication possible"
  },
  {
    "label": "0063",
    "text": "Pas encore fabriqués"
  },
  {
    "label": "0201",
    "text": "Tous"
  },
  {
    "label": "0202",
    "text": "Mobilier"
  },
  {
    "label": "0203",
    "text": "Divers"
  },
  {
    "label": "0204",
    "text": "Déco murale"
  },
  {
    "label": "0205",
    "text": "Tapis"
  },
  {
    "label": "0206",
    "text": "Sols"
  },
  {
    "label": "0207",
    "text": "Papiers peints"
  },
  {
    "label": "0208",
    "text": "Mode"
  },
  {
    "label": "0209",
    "text": "Créatures"
  },
  {
    "label": "0210",
    "text": "Autres"
  },
  {
    "label": "0211",
    "text": "Résidents"
  },
  {
    "label": "0212",
    "text": "Déco de plafond"
  },
  {
    "label": "0213",
    "text": "Historique"
  },
  {
    "label": "0215",
    "text": "Événement"
  },
  {
    "label": "0216",
    "text": "Plantes"
  },
  {
    "label": "0217",
    "text": "Commande"
  },
  {
    "label": "0218",
    "text": "Déco d'origine"
  },
  {
    "label": "0301",
    "text": "Tous"
  },
  {
    "label": "0302",
    "text": "Chapeaux/Masques"
  },
  {
    "label": "0303",
    "text": "Accessoires"
  },
  {
    "label": "0304",
    "text": "Hauts"
  },
  {
    "label": "0305",
    "text": "Robes/Tenues"
  },
  {
    "label": "0306",
    "text": "Pantalons/Jupes"
  },
  {
    "label": "0307",
    "text": "Bas"
  },
  {
    "label": "0308",
    "text": "Souliers"
  },
  {
    "label": "0309",
    "text": "Sacs"
  },
  {
    "label": "0310",
    "text": "Autres"
  },
  {
    "label": "0311",
    "text": "Uniformes"
  },
  {
    "label": "0901",
    "text": "Tous"
  },
  {
    "label": "0902",
    "text": "Fabrication possible"
  },
  {
    "label": "0903",
    "text": "Favoris"
  },
  {
    "label": "0904",
    "text": "Pas encore fabriqués"
  },
  {
    "label": "0905",
    "text": "Personnalisables"
  },
  {
    "label": "0906",
    "text": "Outils"
  },
  {
    "label": "0907",
    "text": "Mobilier"
  },
  {
    "label": "0908",
    "text": "Divers"
  },
  {
    "label": "0909",
    "text": "Déco murale"
  },
  {
    "label": "0911",
    "text": "Autres"
  },
  {
    "label": "0912",
    "text": "Équipement"
  },
  {
    "label": "0913",
    "text": "Papiers peints/Sols/Tapis"
  },
  {
    "label": "0914",
    "text": "Plans saisonniers"
  },
  {
    "label": "0915",
    "text": "Déco de plafond"
  },
  {
    "label": "1001",
    "text": "Insectes"
  },
  {
    "label": "1002",
    "text": "Poissons"
  },
  {
    "label": "1003",
    "text": "Créatures marines"
  },
  {
    "label": "1201",
    "text": "Toit"
  },
  {
    "label": "1202",
    "text": "Porte"
  },
  {
    "label": "1203",
    "text": "Murs"
  },
  {
    "label": "1204",
    "text": "Boîte aux lettres"
  },
  {
    "label": "1205",
    "text": "Modèle"
  },
  {
    "label": "1206",
    "text": "Décoration porte"
  },
  {
    "label": "1208",
    "text": "Cloche"
  },
  {
    "label": "1209",
    "text": "Drapeau"
  },
  {
    "label": "1210",
    "text": "Auvent"
  },
  {
    "label": "1211",
    "text": "Auvent"
  },
  {
    "label": "1212",
    "text": "Vitrine"
  },
  {
    "label": "1301",
    "text": "Couleur de peau"
  },
  {
    "label": "1302",
    "text": "Coiffure"
  },
  {
    "label": "1303",
    "text": "Yeux"
  },
  {
    "label": "1304",
    "text": "Nez/Bouche"
  },
  {
    "label": "1305",
    "text": "Maquillage/autres"
  },
  {
    "label": "1306",
    "text": "Joues"
  },
  {
    "label": "1701",
    "text": "Toutes"
  },
  {
    "label": "1702",
    "text": "Avec un colis"
  },
  {
    "label": "1703",
    "text": "Non lues"
  },
  {
    "label": "1704",
    "text": "Favorites"
  },
  {
    "label": "1705",
    "text": "D'un résident"
  },
  {
    "label": "1706",
    "text": "D'un ami"
  },
  {
    "label": "1707",
    "text": "D'un autre expéditeur"
  },
  {
    "label": "1801",
    "text": "Tous"
  },
  {
    "label": "1802",
    "text": "Fabrication possible"
  },
  {
    "label": "1803",
    "text": "Favoris"
  },
  {
    "label": "1804",
    "text": "Pas encore fabriqués"
  },
  {
    "label": "1805",
    "text": "Personnalisables"
  },
  {
    "label": "1806",
    "text": "Outils"
  },
  {
    "label": "1807",
    "text": "Mobilier"
  },
  {
    "label": "1808",
    "text": "Divers"
  },
  {
    "label": "1809",
    "text": "Déco murale"
  },
  {
    "label": "1811",
    "text": "Autres"
  },
  {
    "label": "1812",
    "text": "Équipement"
  },
  {
    "label": "1813",
    "text": "Papiers peints/Sols/Tapis"
  },
  {
    "label": "1814",
    "text": "Plans saisonniers"
  },
  {
    "label": "1815",
    "text": "Salés"
  },
  {
    "label": "1816",
    "text": "Sucrés"
  },
  {
    "label": "1817",
    "text": "Déco de plafond"
  },
  {
    "label": "1901",
    "text": "Tous"
  },
  {
    "label": "1902",
    "text": "Mobilier"
  },
  {
    "label": "1903",
    "text": "Divers"
  },
  {
    "label": "1904",
    "text": "Déco murale"
  },
  {
    "label": "1905",
    "text": "Tapis"
  },
  {
    "label": "1906",
    "text": "Sols"
  },
  {
    "label": "1907",
    "text": "Papiers peints"
  },
  {
    "label": "1908",
    "text": "Personnalisables"
  },
  {
    "label": "1909",
    "text": "Tous"
  },
  {
    "label": "1910",
    "text": "Chapeaux/Masques"
  },
  {
    "label": "1911",
    "text": "Accessoires"
  },
  {
    "label": "1912",
    "text": "Hauts"
  },
  {
    "label": "1913",
    "text": "Pantalons/Jupes"
  },
  {
    "label": "1914",
    "text": "Robes/Tenues"
  },
  {
    "label": "1915",
    "text": "Bas"
  },
  {
    "label": "1916",
    "text": "Souliers"
  },
  {
    "label": "1917",
    "text": "Sacs"
  },
  {
    "label": "1918",
    "text": "Tous"
  },
  {
    "label": "1920",
    "text": "Musiques"
  },
  {
    "label": "1921",
    "text": "Fossiles"
  },
  {
    "label": "1922",
    "text": "Gyroïdes"
  },
  {
    "label": "1923",
    "text": "Photos"
  },
  {
    "label": "1924",
    "text": "Parapluies"
  },
  {
    "label": "1950",
    "text": "Sélection du jour"
  },
  {
    "label": "1951",
    "text": "Affiches"
  },
  {
    "label": "1952",
    "text": "Articles promotionnels"
  },
  {
    "label": "1953",
    "text": "Articles temporaires"
  },
  {
    "label": "1954",
    "text": "Autres"
  },
  {
    "label": "1955",
    "text": "Déco de plafond"
  },
  {
    "label": "1956",
    "text": "Outils/Accessoires"
  },
  {
    "label": "1957",
    "text": "Clôtures"
  },
  {
    "label": "2001",
    "text": "Tous"
  },
  {
    "label": "2002",
    "text": "Meilleurs amis"
  },
  {
    "label": "2003",
    "text": "Demandes envoyées"
  },
  {
    "label": "2004",
    "text": "Demandes reçues"
  },
  {
    "label": "2005",
    "text": "Amis"
  },
  {
    "label": "2006",
    "text": "En ligne"
  },
  {
    "label": "2201",
    "text": "Meubles"
  },
  {
    "label": "2202",
    "text": "Divers"
  },
  {
    "label": "2203",
    "text": "Papiers peints/sols"
  },
  {
    "label": "2301",
    "text": "Hauts"
  },
  {
    "label": "2302",
    "text": "Robes/Tenues"
  },
  {
    "label": "2303",
    "text": "Chapeaux/Masques"
  },
  {
    "label": "2304",
    "text": "Articles divers"
  },
  {
    "label": "2401",
    "text": "Motifs perso"
  },
  {
    "label": "2402",
    "text": "Motifs pro"
  },
  {
    "label": "2501",
    "text": "Tous"
  },
  {
    "label": "2502",
    "text": "Produits spéciaux"
  },
  {
    "label": "2503",
    "text": "Plans de bricolage"
  },
  {
    "label": "2504",
    "text": "Objets"
  },
  {
    "label": "2505",
    "text": "Produits dérivés"
  },
  {
    "label": "2601",
    "text": "Tous"
  },
  {
    "label": "2602",
    "text": "Chapeaux/Masques"
  },
  {
    "label": "2603",
    "text": "Accessoires"
  },
  {
    "label": "2604",
    "text": "Hauts"
  },
  {
    "label": "2605",
    "text": "Robes/Tenues"
  },
  {
    "label": "2606",
    "text": "Pantalons/Jupes"
  },
  {
    "label": "2607",
    "text": "Bas"
  },
  {
    "label": "2608",
    "text": "Souliers"
  },
  {
    "label": "2701",
    "text": "Pois"
  },
  {
    "label": "2702",
    "text": "Rayures"
  },
  {
    "label": "2703",
    "text": "Carreaux A"
  },
  {
    "label": "2704",
    "text": "Carreaux B"
  },
  {
    "label": "2705",
    "text": "Traditionnel A"
  },
  {
    "label": "2706",
    "text": "Traditionnel B"
  },
  {
    "label": "2707",
    "text": "Rétro"
  },
  {
    "label": "2708",
    "text": "Naturel"
  },
  {
    "label": "2709",
    "text": "Ludique"
  },
  {
    "label": "2710",
    "text": "Cool"
  },
  {
    "label": "2711",
    "text": "Variété"
  },
  {
    "label": "2801",
    "text": "Meilleurs amis"
  },
  {
    "label": "2802",
    "text": "Amis"
  },
  {
    "label": "2902",
    "text": "Infrastructures"
  },
  {
    "label": "2907",
    "text": "Maisons de vacances"
  },
  {
    "label": "3001",
    "text": "Tous"
  },
  {
    "label": "3002",
    "text": "Mobilier"
  },
  {
    "label": "3003",
    "text": "Papiers peints"
  },
  {
    "label": "3004",
    "text": "Sols"
  },
  {
    "label": "3005",
    "text": "Tapis"
  },
  {
    "label": "3006",
    "text": "Mode"
  },
  {
    "label": "3101",
    "text": "Tous"
  },
  {
    "label": "3102",
    "text": "Favoris"
  },
  {
    "label": "3301",
    "text": "Toutes"
  },
  {
    "label": "3302",
    "text": "Articles de l'agence"
  },
  {
    "label": "3303",
    "text": "Mobilier"
  },
  {
    "label": "3304",
    "text": "Divers"
  },
  {
    "label": "3305",
    "text": "Déco murale"
  },
  {
    "label": "3306",
    "text": "Déco de plafond"
  },
  {
    "label": "3307",
    "text": "Papiers peints"
  },
  {
    "label": "3308",
    "text": "Sols"
  },
  {
    "label": "3309",
    "text": "Tapis"
  },
  {
    "label": "3401",
    "text": "Maisons de vacances"
  },
  {
    "label": "3402",
    "text": "Infrastructures"
  },
  {
    "label": "3403",
    "text": "Fil d'actualité"
  },
  {
    "label": "3501",
    "text": "Taille de la pièce"
  },
  {
    "label": "3502",
    "text": "Entrée et fenêtres"
  },
  {
    "label": "3503",
    "text": "Éclairage"
  },
  {
    "label": "3504",
    "text": "Sons d'ambiance"
  }
]