﻿[
  {
    "label": "101",
    "attribute": "0x00000C0100000000",
    "text": "{{anim id=\"Hello\" target=\"actor\" targetSpec=\"\"}}I'm ready whenever!{{delay40}} What did you\nneed, {{string value=\"6\"}}?{{setNpcTalkChoices chatOption=\"0\" cancelOption=\"0\"}}"
  },
  {
    "label": "102",
    "attribute": "0x00000C0100000000",
    "text": "So,{{delay20}}{{anim id=\"FaintSmile\" target=\"actor\" targetSpec=\"\"}} what is it again, {{string value=\"6\"}}?{{setNpcTalkChoices chatOption=\"0\" cancelOption=\"0\"}}"
  },
  {
    "label": "103",
    "attribute": "0x00000C0100000000",
    "text": "{{anim id=\"Hesitate\" target=\"actor\" targetSpec=\"\"}}So,{{delay20}} did you need something from\nme, {{string value=\"6\"}}?{{setNpcTalkChoices chatOption=\"0\" cancelOption=\"0\"}}"
  },
  {
    "label": "201",
    "attribute": "0x0000000000000000",
    "text": "{{fun_0014003C arg=\"\"}}"
  },
  {
    "label": "201_01",
    "attribute": "0x0000000000000000",
    "text": "{{anim id=\"FaintSmile\" target=\"actor\" targetSpec=\"\"}}{{capitalizeNextLetter}}{{string value=\"NickName\"}}!{{delay40}}{{anim id=\"EmotEnd\" target=\"actor\" targetSpec=\"\"}} Hang on one\nsec and I'll stand up, {{string value=\"6\"}}."
  },
  {
    "label": "201_02",
    "attribute": "0x0000000000000000",
    "text": "{{anim id=\"BigSmile\" target=\"actor\" targetSpec=\"\"}}Hey, {{string value=\"NickName\"}}!{{delay20}}{{anim id=\"EmotEnd\" target=\"actor\" targetSpec=\"\"}} Oh?\nI'll stand up, {{string value=\"6\"}}.{{anim id=\"FaintSmile\" target=\"actor\" targetSpec=\"\"}}"
  },
  {
    "label": "201_03",
    "attribute": "0x0000000000000000",
    "text": "{{anim id=\"Eh\" target=\"actor\" targetSpec=\"\"}}What's trending?{{delay40}}{{anim id=\"FaintSmile\" target=\"actor\" targetSpec=\"\"}} You know what,\nlet me stand up, {{string value=\"6\"}}."
  },
  {
    "label": "202",
    "attribute": "0x0000000000000000",
    "text": "{{fun_0014003C arg=\"\"}}"
  },
  {
    "label": "202_01",
    "attribute": "0x0000000000000000",
    "text": "{{anim id=\"FaintSmile\" target=\"actor\" targetSpec=\"\"}}It's {{string value=\"NickName\"}}!{{delay40}}{{anim id=\"EmotEnd\" target=\"actor\" targetSpec=\"\"}} I'll stand\nup. One sec, {{string value=\"6\"}}."
  },
  {
    "label": "202_02",
    "attribute": "0x0000000000000000",
    "text": "{{anim id=\"BigSmile\" target=\"actor\" targetSpec=\"\"}}It's you, {{string value=\"NickName\"}}!{{delay20}}\n{{anim id=\"Eh\" target=\"actor\" targetSpec=\"\"}}Hang on a sec!{{delay20}} I'll stand up."
  },
  {
    "label": "202_03",
    "attribute": "0x0000000000000000",
    "text": "{{anim id=\"Eh\" target=\"actor\" targetSpec=\"\"}}Hey!{{anim id=\"FaintSmile\" target=\"actor\" targetSpec=\"\"}} Hang on, I read it's better to\nlisten standing up. It lets the\nwords sink in easier."
  }
]