﻿[
  {
    "label": "DiveFish_02620",
    "attribute": "0x00000000",
    "text": "Как это ни прискорбно,{{delay8}} {{anim id=\"Serious\" target=\"actor\" targetSpec=\"\"}}мало\nкто задумывается о {{color id=\"1\"}}морских\nводорослях{{color id=\"65535\"}}.{{pageBreak}}{{anim id=\"Explain\" target=\"actor\" targetSpec=\"\"}}А они,{{delay8}} между прочим,{{delay8}} приносят\nогромную пользу всем живущим\nкак под водой, так и на суше.{{pageBreak}}{{anim id=\"FaintSmile\" target=\"actor\" targetSpec=\"\"}}Для некоторых морских обитателей\nэти водоросли — пропитание, а для\nдругих — вообще дом родной.{{pageBreak}}{{anim id=\"SmugFace\" target=\"actor\" targetSpec=\"\"}}А для сухопутных водоросли\nвырабатывают кислород, которым\nмы все дышим!{{pageBreak}}{{anim id=\"Confused\" target=\"actor\" targetSpec=\"\"}}Увы, от этого не становится легче,\nкогда плаваешь и задеваешь ногой\nсклизкую водоросль.{{delay20}} {{anim id=\"Shaking\" target=\"actor\" targetSpec=\"\"}}{{size value=\"75\"}}Угу-гу! Мерзость!{{size value=\"100\"}}"
  },
  {
    "label": "DiveFish_02830",
    "attribute": "0x00000000",
    "text": "{{color id=\"1\"}}{{anim id=\"Nodding\" target=\"actor\" targetSpec=\"\"}}Морской виноград{{color id=\"65535\"}} — это водоросль,\nпохожая на наземное растение,\nв честь которого она была названа.{{pageBreak}}{{anim id=\"Smiling\" target=\"actor\" targetSpec=\"\"}}На ней тоже растут целые грозди\nкруглых зеленых плодов.{{pageBreak}}{{anim id=\"Explain\" target=\"actor\" targetSpec=\"\"}}Даже более того — {{delay8}}как и обычный\nвиноград,{{delay8}} {{color id=\"1\"}}морской виноград{{color id=\"65535\"}} тоже\nедят{{string value=\"...\"}}{{anim id=\"Laughing\" target=\"actor\" targetSpec=\"\"}} правда, на вкус он соленый.{{pageBreak}}{{anim id=\"HappyFlower\" target=\"actor\" targetSpec=\"\"}}Говорят, любителям даров моря\nнравится, как его виноградины\nлопаются во рту.{{pageBreak}}{{anim id=\"Thinking\" target=\"actor\" targetSpec=\"\"}}Интересно, а сок из {{color id=\"1\"}}морского\nвинограда{{color id=\"65535\"}} тоже делают? {{anim id=\"Grin\" target=\"actor\" targetSpec=\"\"}}Впрочем,\nполучится же обычный рассол{{string value=\"...\"}}"
  },
  {
    "label": "DiveFish_02831",
    "attribute": "0x00000000",
    "text": "А, {{color id=\"1\"}}морской еж{{color id=\"65535\"}}{{string value=\"...\"}}{{anim id=\"Smiling\" target=\"actor\" targetSpec=\"\"}} ярчайший\nпредставитель океанических\nсубкультурных движений!{{pageBreak}}{{anim id=\"Explain\" target=\"actor\" targetSpec=\"\"}}С такой гривой колючек ему самое\nместо на сцене в панк-группе.{{pageBreak}}{{anim id=\"Thinking\" target=\"actor\" targetSpec=\"\"}}Похоже, его более консервативная\nродня, — морские же огурцы и звезды, — не одобряют его стиль.{{pageBreak}}{{anim id=\"Angry\" target=\"actor\" targetSpec=\"\"}}Морские звезды так вообще\nпитаются {{color id=\"1\"}}морскими ежами{{color id=\"65535\"}}!{{pageBreak}}{{anim id=\"Negative\" target=\"actor\" targetSpec=\"\"}}Но нет причин для беспокойства.{{delay frames=\"40\"}}\n{{anim id=\"Nodding\" target=\"actor\" targetSpec=\"\"}}Ядовитые колючки — отличный\nспособ отбить хищникам аппетит.{{pageBreak}}{{anim id=\"Explain\" target=\"actor\" targetSpec=\"\"}}Более того, у {{color id=\"1\"}}морских ежей{{color id=\"65535\"}} есть\nдаже ножки-трубочки, на которых\nони могут уползти от опасности.{{pageBreak}}{{anim id=\"Pardon\" target=\"actor\" targetSpec=\"\"}}Ножки-трубочки!{{delay frames=\"40\"}}{{anim id=\"Laughing\" target=\"actor\" targetSpec=\"\"}} Это же надо было\nдо такого додуматься! {{delay frames=\"40\"}}Бунтарство\nчистой воды, угу!"
  },
  {
    "label": "DiveFish_02832",
    "attribute": "0x00000000",
    "text": "{{anim id=\"Negative\" target=\"actor\" targetSpec=\"\"}}Многие считают, что {{color id=\"1\"}}морские\nжелуди {{color id=\"65535\"}}— родственники мидий.{{delay frames=\"40\"}}{{anim id=\"Serious\" target=\"actor\" targetSpec=\"\"}}\nА зря! {{delay8}}Это вовсе не моллюски.{{pageBreak}}{{anim id=\"Explain\" target=\"actor\" targetSpec=\"\"}}Они из той же группы, что крабы\nи омары. {{delay frames=\"40\"}}{{anim id=\"OhGeez\" target=\"actor\" targetSpec=\"\"}}Но да, я соглашусь, что\nсемейные черты заметить сложно.{{pageBreak}}{{anim id=\"Explain\" target=\"actor\" targetSpec=\"\"}}А еще можно подумать,{{delay8}} что {{color id=\"1\"}}морские\nжелуди{{color id=\"65535\"}} — совершенные домоседы\nи всю жизнь сидят на месте.{{pageBreak}}{{anim id=\"AbsentMindedness\" target=\"actor\" targetSpec=\"\"}}Но мало кто знает, {{delay8}}что в молодости\nони свободно бороздят океаны и не\nпривязаны к родным ракушкам.{{pageBreak}}{{anim id=\"Explain\" target=\"actor\" targetSpec=\"\"}}И лишь найдя подходящий камень,\n{{delay8}}они строят там домик и остаются\nв нем навсегда.{{delay20}} {{anim id=\"Silent\" target=\"actor\" targetSpec=\"\"}}Возникает вопрос{{string value=\"...\"}}{{pageBreak}}{{anim id=\"Greeting\" target=\"actor\" targetSpec=\"\"}}Взрослым {{color id=\"1\"}}морским желудям{{color id=\"65535\"}} не\nхочется тряхнуть стариной{{string value=\"...\"}}{{anim id=\"Worried\" target=\"actor\" targetSpec=\"\"}}\nи отправиться путешествовать?"
  },
  {
    "label": "DiveFish_02833",
    "attribute": "0x00000000",
    "text": "{{color id=\"1\"}}{{anim id=\"Smiling\" target=\"actor\" targetSpec=\"\"}}Устрицы {{color id=\"65535\"}}— потрясающие моллюски,{{delay8}}\nнастоящие градостроители морей,\nесли можно так выразиться.{{pageBreak}}{{anim id=\"Explain\" target=\"actor\" targetSpec=\"\"}}Эти двустворчатые живут большими\nгруппами, прикрепившись к камням.{{pageBreak}}{{anim id=\"HappyFlower\" target=\"actor\" targetSpec=\"\"}}Со временем их раковины образуют\nнечто вроде рифов, которые дают\nкров другим морским созданиям.{{pageBreak}}{{anim id=\"Nodding\" target=\"actor\" targetSpec=\"\"}}Там прикрепляются мидии,\nморские желуди и анемоны.{{pageBreak}}{{anim id=\"Explain\" target=\"actor\" targetSpec=\"\"}}А мелкие рыбы и крабы прячутся\nсреди раковин от хищников и даже\nвыращивают там потомство.{{pageBreak}}Чудесно!{{delay20}}{{anim id=\"Cheering\" target=\"actor\" targetSpec=\"\"}} Целый дружный жилой\nрайон, и все благодаря {{color id=\"1\"}}устрицам{{color id=\"65535\"}}!"
  },
  {
    "label": "DiveFish_02834",
    "attribute": "0x00000000",
    "text": "{{anim id=\"Greeting\" target=\"actor\" targetSpec=\"\"}}{{color id=\"1\"}}Рогатый тюрбан {{color id=\"65535\"}}— разновидность\nморских улиток{{string value=\"...\"}}{{delay20}}{{anim id=\"Grin\" target=\"actor\" targetSpec=\"\"}} причем весьма\nнаходчивая, хочу заметить!{{pageBreak}}{{anim id=\"Explain\" target=\"actor\" targetSpec=\"\"}}Видишь ли,{{delay8}} эта улитка всегда носит\nс собой твердую круглую крышечку,\nтак называемый оперкулум.{{pageBreak}}{{anim id=\"Smiling\" target=\"actor\" targetSpec=\"\"}}Что это и зачем оно нужно? {{delay8}}Я рад,\nчто ты спросил{{gender2 m=\"\" f=\"а\"}}!{{delay frames=\"40\"}} {{anim id=\"HappyFlower\" target=\"actor\" targetSpec=\"\"}}Трудно поверить,{{delay8}}\nно это самая настоящая дверца!{{pageBreak}}{{anim id=\"Explain\" target=\"actor\" targetSpec=\"\"}}В случае опасности{{delay8}} улитка прячется\nв ракушку и в прямом смысле слова\nзакрывает за собой дверь.{{pageBreak}}{{anim id=\"Smiling\" target=\"actor\" targetSpec=\"\"}}И внутри ей ничто не угрожает! {{delay frames=\"40\"}}{{anim id=\"Cheering\" target=\"actor\" targetSpec=\"\"}}\nБраво, угу! {{delay20}}Браво!{{pageBreak}}{{anim id=\"Explain\" target=\"actor\" targetSpec=\"\"}}Считаю, что в опасности всем стоит\nпоследовать примеру этой улитки.\n{{delay frames=\"40\"}}{{anim id=\"Laughing\" target=\"actor\" targetSpec=\"\"}}Запереть дверь и выключить свет!"
  },
  {
    "label": "DiveFish_02835",
    "attribute": "0x00000000",
    "text": "{{anim id=\"Shocked\" target=\"actor\" targetSpec=\"\"}}В это сложно поверить, но {{color id=\"1\"}}улитки-{{color id=\"65535\"}}\n{{color id=\"1\"}}абалоны{{color id=\"65535\"}} от нас многое скрывают!{{pageBreak}}Если смотреть на их ракушки\nснаружи, {{delay8}}{{anim id=\"OhGeez\" target=\"actor\" targetSpec=\"\"}}они кажутся совсем\nневзрачными.{{pageBreak}}{{anim id=\"Greeting\" target=\"actor\" targetSpec=\"\"}}Но загляни внутрь и увидишь,\n{{delay20}}{{anim id=\"Smiling\" target=\"actor\" targetSpec=\"\"}}что их домик{{color id=\"1\"}} {{color id=\"65535\"}}переливается всеми\nцветами радуги!{{pageBreak}}{{anim id=\"HappyFlower\" target=\"actor\" targetSpec=\"\"}}А все потому, что изнутри раковина\nсостоит из перламутра!{{delay8}} Это очень\nкрасивый материал, угу!{{pageBreak}}{{anim id=\"Serious\" target=\"actor\" targetSpec=\"\"}}Какова же мораль сей басни?\n{{delay20}}{{delay20}}{{anim id=\"Negative\" target=\"actor\" targetSpec=\"\"}}Не суди улитку по ракушке.\n{{anim id=\"Nodding\" target=\"actor\" targetSpec=\"\"}}Суди ее по ракушке изнутри!"
  },
  {
    "label": "DiveFish_02838",
    "attribute": "0x00000000",
    "text": "{{anim id=\"QuestionMark\" target=\"actor\" targetSpec=\"\"}}Тебе известно, что {{color id=\"1\"}}жемчужницы\n{{color id=\"65535\"}}живут до 40 лет и достигают около\n30 см в длину? {{delay20}}{{anim id=\"Nodding\" target=\"actor\" targetSpec=\"\"}}Угу,{{delay8}} это правда!{{pageBreak}}{{anim id=\"FaintSmile\" target=\"actor\" targetSpec=\"\"}}Разумеется, для многих ценность\nэтих двустворчатых моллюсков\nзаключается в их продукции.{{pageBreak}}{{anim id=\"Serious\" target=\"actor\" targetSpec=\"\"}}Процесс производства жемчуга\nначинается с того, что внутрь\nраковины проникает раздражитель.{{pageBreak}}{{anim id=\"Explain\" target=\"actor\" targetSpec=\"\"}}Незваного гостя покрывают слоями\nперламутра — субстанции, из\nкоторой состоит и сама раковина.{{pageBreak}}{{anim id=\"Greeting\" target=\"actor\" targetSpec=\"\"}}Так за долгие годы формируется\nжемчужина. {{delay8}}Заодно{{delay20}}{{anim id=\"Smiling\" target=\"actor\" targetSpec=\"\"}} и незваный\nгость обезвреживается.{{pageBreak}}{{anim id=\"HappyFlower\" target=\"actor\" targetSpec=\"\"}}Угу! Если бы мы всегда могли\nпревратить то, что нас раздражает,\nв такую красоту, мир был бы иным!"
  },
  {
    "label": "DiveFish_02839",
    "attribute": "0x00000000",
    "text": "{{color id=\"1\"}}{{anim id=\"Smiling\" target=\"actor\" targetSpec=\"\"}}{{color id=\"65535\"}}А, {{color id=\"1\"}}гребешок{{color id=\"65535\"}}!{{delay20}} {{delay20}}Прекрасный пример\nтого, что если ты двустворчатый,\nэто не значит, что ты лежебока.{{pageBreak}}{{anim id=\"Explain\" target=\"actor\" targetSpec=\"\"}}Да, большинство представителей\nэтой группы малоподвижны, {{delay8}}но\nк {{color id=\"1\"}}гребешкам {{color id=\"65535\"}}это не относится.{{pageBreak}}{{anim id=\"Serious\" target=\"actor\" targetSpec=\"\"}}Если к {{color id=\"1\"}}гребешку {{color id=\"65535\"}}ползет голодная\nморская звезда, он{{string value=\"...\"}} {{anim id=\"BigSmile\" target=\"actor\" targetSpec=\"\"}}отпрыгнет,\nбыстро схлопнув створки!{{pageBreak}}Спрашиваешь, как {{color id=\"1\"}}гребешок {{color id=\"65535\"}}может\nзаметить опасность? Элементарно!\nВедь у него целых 200 глаз!{{pageBreak}}{{anim id=\"Smiling\" target=\"actor\" targetSpec=\"\"}}С таким количеством глаз{{delay8}} вообще\nсложно что-то не заметить.{{delay frames=\"40\"}} {{anim id=\"Eh\" target=\"actor\" targetSpec=\"\"}}\n{{size value=\"75\"}}Возможно, они видят{{string value=\"...\"}}{{delay frames=\"40\"}}{{anim id=\"Shaking\" target=\"actor\" targetSpec=\"\"}} все наши секреты!{{size value=\"100\"}}"
  },
  {
    "label": "DiveFish_02840",
    "attribute": "0x00000000",
    "text": "{{anim id=\"Nodding\" target=\"actor\" targetSpec=\"\"}}Мне кажется, {{color id=\"1\"}}актиниям {{color id=\"65535\"}}самое\nместо в саду горгоны Медузы.{{pageBreak}}{{anim id=\"Explain\" target=\"actor\" targetSpec=\"\"}}Эти миловидные хищницы только\nи делают, что сидят на месте\nи шевелят «лепестками».{{pageBreak}}{{anim id=\"Serious\" target=\"actor\" targetSpec=\"\"}}Но на самом деле это вовсе не\nлепестки, а коварные щупальца\nвокруг ненасытной пасти! {{delay8}}Угу!{{pageBreak}}{{anim id=\"Worried\" target=\"actor\" targetSpec=\"\"}}При малейшем прикосновении\nк ним жертва сразу получит дозу\nпарализующего яда.{{pageBreak}}{{anim id=\"Confused\" target=\"actor\" targetSpec=\"\"}}Тогда {{color id=\"1\"}}актиния {{color id=\"65535\"}}и затащит ее\nщупальцами прямо в рот\nи умнет заживо!{{pageBreak}}{{anim id=\"Silent\" target=\"actor\" targetSpec=\"\"}}В общем{{string value=\"...\"}}{{anim id=\"Negative\" target=\"actor\" targetSpec=\"\"}} не хотел бы я иметь\nтаких врагов.{{delay frames=\"40\"}}{{anim id=\"Grin\" target=\"actor\" targetSpec=\"\"}} Да и друзей тоже!"
  },
  {
    "label": "DiveFish_02841",
    "attribute": "0x00000000",
    "text": "{{anim id=\"Greeting\" target=\"actor\" targetSpec=\"\"}}На первый взгляд можно подумать,\nчто у {{color id=\"1\"}}морской звезды {{color id=\"65535\"}}пять ног.{{delay20}}{{anim id=\"Negative\" target=\"actor\" targetSpec=\"\"}}\nНо на самом деле это ее руки.{{pageBreak}}{{color id=\"1\"}}Морские звезды{{color id=\"65535\"}} с пятью руками — самые широко распространенные,\n{{delay8}}{{anim id=\"Smiling\" target=\"actor\" targetSpec=\"\"}}но есть виды и с 20 и с 40 руками!{{pageBreak}}{{anim id=\"Grin\" target=\"actor\" targetSpec=\"\"}}На этом изумительные факты\nоб их конечностях далеко не\nисчерпываются, угу-гу!{{pageBreak}}{{anim id=\"Explain\" target=\"actor\" targetSpec=\"\"}}На нижней стороне каждой руки\n{{color id=\"1\"}}морской звезды{{color id=\"65535\"}} растет множество\nмаленьких ножек.{{delay20}} {{anim id=\"BigSmile\" target=\"actor\" targetSpec=\"\"}}Угу, ножек!{{pageBreak}}Но даже это еще не все!{{anim id=\"Worried\" target=\"actor\" targetSpec=\"\"}} На этих\nножках с присосками они не только\nходят{{string value=\"...\"}} но и хватают ими добычу!{{pageBreak}}{{anim id=\"Explain\" target=\"actor\" targetSpec=\"\"}}А если {{color id=\"1\"}}морская звезда{{color id=\"65535\"}} лишится\nруки, она запросто отрастит ее\nобратно!{{pageBreak}}{{anim id=\"Serious\" target=\"actor\" targetSpec=\"\"}}И напоследок{{string value=\"...\"}} Оторванная рука\n{{color id=\"1\"}}морской звезды{{color id=\"65535\"}}{{delay20}}{{anim id=\"Shocked\" target=\"actor\" targetSpec=\"\"}} порой сама может\nотрастить себе недостающее тело!"
  },
  {
    "label": "DiveFish_02842",
    "attribute": "0x00000000",
    "text": "Как и у родственных ему {{color id=\"1\"}}морских\nежей{{color id=\"65535\"}} и {{color id=\"1\"}}морских звезд{{color id=\"65535\"}},{{delay8}}{{anim id=\"Negative\" target=\"actor\" targetSpec=\"\"}} у {{color id=\"1\"}}морского\nогурца{{color id=\"65535\"}} нет ни сердца, ни мозга.{{pageBreak}}{{anim id=\"Greeting\" target=\"actor\" targetSpec=\"\"}}Но, в отличие от родственников,\n{{delay8}}{{anim id=\"OhGeez\" target=\"actor\" targetSpec=\"\"}}у него также нет ни колючек, ни\nпанциря для защиты от врагов.{{pageBreak}}{{anim id=\"Serious\" target=\"actor\" targetSpec=\"\"}}Но как такие беззащитные создания\nвыживают в суровом океане?{{delay frames=\"40\"}}{{anim id=\"Worried\" target=\"actor\" targetSpec=\"\"}} Ответ\nнесколько шокирует{{string value=\"...\"}}{{pageBreak}}{{anim id=\"Confused\" target=\"actor\" targetSpec=\"\"}}При опасности{{delay20}} {{color id=\"1\"}}морской огурец{{color id=\"65535\"}}{{string value=\"...\"}}\nвыстреливает во врага своими же\nвнутренностями!{{delay20}}{{anim id=\"Shaking\" target=\"actor\" targetSpec=\"\"}} Мерзко, но факт!{{pageBreak}}{{anim id=\"Hesitate\" target=\"actor\" targetSpec=\"\"}}Липкие внутренности опутывают и\nзадерживают хищников,{{delay8}} и {{color id=\"1\"}}морской\nогурец{{color id=\"65535\"}} успевает уползти.{{pageBreak}}Внутренности быстро отрастают\nобратно,{{delay8}}{{anim id=\"OhGeez\" target=\"actor\" targetSpec=\"\"}} и вот наш герой снова,\nс позволения сказать, как огурчик.{{pageBreak}}Что ни говори,{{delay8}}{{anim id=\"Grin\" target=\"actor\" targetSpec=\"\"}} но для такого образа\nжизни нужен крепкий внутренний\nстержень!{{delay frames=\"40\"}} {{anim id=\"Laughing\" target=\"actor\" targetSpec=\"\"}}Угу-гу! {{delay20}}Прошу прощения."
  },
  {
    "label": "DiveFish_02843",
    "attribute": "0x00000000",
    "text": "{{anim id=\"Explain\" target=\"actor\" targetSpec=\"\"}}Представь себе слизня, который\nнарядился в свой самый красочный\nнаряд.{{pageBreak}}{{anim id=\"Greeting\" target=\"actor\" targetSpec=\"\"}}{{color id=\"1\"}}Голожаберники{{color id=\"65535\"}} так и выглядят.\n{{delay20}}{{anim id=\"Smiling\" target=\"actor\" targetSpec=\"\"}}Эти брюхоногие словно собрались\nна парад{{string value=\"...\"}} или выступать в цирке.{{pageBreak}}{{anim id=\"Negative\" target=\"actor\" targetSpec=\"\"}}Но не следует считать цветастость\nплодом легкомыслия.{{delay frames=\"40\"}}{{anim id=\"BigSmile\" target=\"actor\" targetSpec=\"\"}} Все как раз\nнаоборот, угу!{{pageBreak}}{{anim id=\"Serious\" target=\"actor\" targetSpec=\"\"}}Яркие цвета дают хищникам понять,\nчто их обладатель ядовит и им не\nстоит здесь лакомиться!{{pageBreak}}{{anim id=\"Grin\" target=\"actor\" targetSpec=\"\"}}Своего рода защитная окраска, угу."
  },
  {
    "label": "DiveFish_02844",
    "attribute": "0x00000000",
    "text": "{{anim id=\"Thinking\" target=\"actor\" targetSpec=\"\"}}Морские {{color id=\"1\"}}плоские черви {{color id=\"65535\"}}плоски{{string value=\"...\"}}\nи червеобразны.{{delay20}}{{anim id=\"FaintSmile\" target=\"actor\" targetSpec=\"\"}} Что, впрочем, уже\nследует из названия.{{pageBreak}}Но несмотря на то, что эти создания\nвесьма примитивны, {{delay8}}{{anim id=\"Smiling\" target=\"actor\" targetSpec=\"\"}}они обладают\nинтереснейшими способностями!{{pageBreak}}{{anim id=\"Explain\" target=\"actor\" targetSpec=\"\"}}К примеру,{{delay8}} раненые {{color id=\"1\"}}плоские\nчерви{{color id=\"65535\"}} с легкостью отращивают\nпотерянные части тела.{{pageBreak}}А если разрезать {{color id=\"1\"}}плоского червя{{color id=\"65535\"}}\nпополам,{{delay8}} {{anim id=\"Nodding\" target=\"actor\" targetSpec=\"\"}}каждая половинка вскоре\nстанет самостоятельным червем.{{pageBreak}}{{anim id=\"Silent\" target=\"actor\" targetSpec=\"\"}}А самое удивительное{{string value=\"...\"}}{{delay frames=\"40\"}} некоторые\n{{color id=\"1\"}}плоские черви{{color id=\"65535\"}} могут и без всяких\nповреждений клонировать себя!{{pageBreak}}{{anim id=\"AbsentMindedness\" target=\"actor\" targetSpec=\"\"}}Ах, {{delay8}}мне бы такую способность.\n{{delay frames=\"40\"}}{{anim id=\"Grin\" target=\"actor\" targetSpec=\"\"}}Угу, столько работы я смог бы\nвыполнить быстрее!"
  },
  {
    "label": "DiveFish_02845",
    "attribute": "0x00000000",
    "text": "{{anim id=\"Worried\" target=\"actor\" targetSpec=\"\"}}Прежде чем смеяться над размером\n{{color id=\"1\"}}рака-богомола{{color id=\"65535\"}},{{delay20}} семь раз отмерь{{string value=\"...\"}}\n{{anim id=\"Serious\" target=\"actor\" targetSpec=\"\"}}и один раз передумай!{{pageBreak}}{{anim id=\"Explain\" target=\"actor\" targetSpec=\"\"}}Эти раки — {{delay8}}профессиональные\nбоксеры. У них самый быстрый\nи сильный удар на всей планете!{{pageBreak}}Их передние конечности имеют\nформу серпов и дубинок,{{delay8}}{{anim id=\"Eh\" target=\"actor\" targetSpec=\"\"}} а еще\nони работают как на пружинах!{{pageBreak}}{{anim id=\"Nodding\" target=\"actor\" targetSpec=\"\"}}Ими {{color id=\"1\"}}раки-богомолы{{color id=\"65535\"}} с легкостью\nпробивают панцири крабов и даже\nраковины устриц.{{pageBreak}}И кстати, если взять его в руки, \n{{delay8}}{{anim id=\"Confused\" target=\"actor\" targetSpec=\"\"}}пальцам тоже может очень и очень\nне поздоровиться. Не советую, угу!"
  },
  {
    "label": "DiveFish_02846",
    "attribute": "0x00000000",
    "text": "{{anim id=\"Explain\" target=\"actor\" targetSpec=\"\"}}{{color id=\"1\"}}Северные креветки {{color id=\"65535\"}}проводят свои\nпервые годы жизни самцами.{{delay20}}\nА потом превращаются в самок.{{pageBreak}}{{anim id=\"Smiling\" target=\"actor\" targetSpec=\"\"}}Такое довольно часто встречается\nв природе.{{pageBreak}}Угу-угу,{{delay8}}{{anim id=\"Nodding\" target=\"actor\" targetSpec=\"\"}} очень многие морские\nсущества с возрастом меняют пол.{{pageBreak}}{{anim id=\"Explain\" target=\"actor\" targetSpec=\"\"}}{{color id=\"1\"}}Рыбы-клоуны{{color id=\"65535\"}}, {{delay8}}некоторые {{color id=\"1\"}}морские\nзвезды{{color id=\"65535\"}},{{delay8}} даже {{color id=\"1\"}}морские судаки{{color id=\"65535\"}}.{{pageBreak}}{{anim id=\"HappyFlower\" target=\"actor\" targetSpec=\"\"}}Угу, в море каких только чудес\nне бывает!"
  },
  {
    "label": "DiveFish_02847",
    "attribute": "0x00000000",
    "text": "{{anim id=\"FaintSmile\" target=\"actor\" targetSpec=\"\"}}{{color id=\"1\"}}Тигровые креветки{{color id=\"65535\"}} встречаются\nво многих морях мира.{{pageBreak}}{{anim id=\"Explain\" target=\"actor\" targetSpec=\"\"}}Они названы в честь полосок на их\nэкзоскелете, который сбрасывают,\nкогда он становится им мал.{{pageBreak}}{{anim id=\"AbsentMindedness\" target=\"actor\" targetSpec=\"\"}}Ах, {{delay8}}мне бы с такой же легкостью\nменять дома{{string value=\"...\"}}{{pageBreak}}Но знаешь, {{anim id=\"Aha\" target=\"actor\" targetSpec=\"\"}}что мне кажется даже\nболее интересным в {{color id=\"1\"}}тигровых\nкреветках{{color id=\"65535\"}}?{{delay20}}{{anim id=\"Serious\" target=\"actor\" targetSpec=\"\"}} Их ноги!{{pageBreak}}{{anim id=\"Explain\" target=\"actor\" targetSpec=\"\"}}У них пять пар ног для плавания,{{delay8}}\nпять пар для ходьбы,{{delay20}}{{anim id=\"Eh\" target=\"actor\" targetSpec=\"\"}} а еще три\nпары конечностей, чтобы ими есть!{{pageBreak}}Поразительно, {{delay8}}{{anim id=\"OhGeez\" target=\"actor\" targetSpec=\"\"}}как они в них не\nпутаются!"
  },
  {
    "label": "DiveFish_02848",
    "attribute": "0x00000000",
    "text": "{{anim id=\"Greeting\" target=\"actor\" targetSpec=\"\"}}{{color id=\"1\"}}Колючего лангуста {{color id=\"65535\"}}от других его\nсородичей отличают его длинные\nусики.{{pageBreak}}{{anim id=\"Eh\" target=\"actor\" targetSpec=\"\"}}Они могут быть в два раза длиннее,\nчем тело самого лангуста!{{pageBreak}}{{anim id=\"Explain\" target=\"actor\" targetSpec=\"\"}}И {{color id=\"1\"}}колючие лангусты{{color id=\"65535\"}} научились\nиспользовать это для защиты от\nхищников.{{pageBreak}}Почувствовав опасность, {{delay8}}{{anim id=\"Serious\" target=\"actor\" targetSpec=\"\"}}они\nначинают тереть усиками по\nсвоему панцирю.{{pageBreak}}{{anim id=\"Laughing\" target=\"actor\" targetSpec=\"\"}}Этот жуткий скрежет с легкостью\nотпугивает хищников!{{pageBreak}}Думаю,{{delay8}}{{anim id=\"Grin\" target=\"actor\" targetSpec=\"\"}} любой убежит, если рядом\nвнезапно начнут скрести ногтями\nпо школьной доске!"
  },
  {
    "label": "DiveFish_02849",
    "attribute": "0x00000000",
    "text": "{{anim id=\"Nodding\" target=\"actor\" targetSpec=\"\"}}Все знают, что у {{color id=\"1\"}}омаров {{color id=\"65535\"}}две\nогромные клешни. {{delay20}}Но на самом\nделе{{delay8}}{{anim id=\"Serious\" target=\"actor\" targetSpec=\"\"}} клешней у них целых шесть!{{pageBreak}}Конечно, {{delay8}}{{anim id=\"Negative\" target=\"actor\" targetSpec=\"\"}}остальные четыре\nмаленькие клешни не так\nвпечатляют.{{pageBreak}}{{anim id=\"Confused\" target=\"actor\" targetSpec=\"\"}}Ведь сила сжатия больших клешней\n{{color id=\"1\"}}омара {{color id=\"65535\"}}может быть равной\n45 килограммам!{{pageBreak}}Так что если {{color id=\"1\"}}омар {{color id=\"65535\"}}предложит\nпожать тебе руку{{string value=\"...\"}} {{anim id=\"Shocked\" target=\"actor\" targetSpec=\"\"}}подумай\nдважды!"
  },
  {
    "label": "DiveFish_02850",
    "attribute": "0x00000000",
    "text": "{{anim id=\"Negative\" target=\"actor\" targetSpec=\"\"}}Никогда не перестану поражаться\nвыдержке {{color id=\"1\"}}крабов-стригунов{{color id=\"65535\"}}.{{pageBreak}}Видишь ли, они обитают в основном\nв холодных северных водах,{{delay8}}{{anim id=\"Eh\" target=\"actor\" targetSpec=\"\"}} и даже\nв Северном Ледовитом океане!{{pageBreak}}Скажу больше, {{anim id=\"ColdChill\" target=\"actor\" targetSpec=\"\"}}они предпочитают\nтемпературу лишь немногим выше\nтемпературы замерзания воды.{{pageBreak}}{{anim id=\"Shaking\" target=\"actor\" targetSpec=\"\"}}Угу-у-у{{string value=\"...\"}} Как представлю,\nаж нахохливаюсь от холода!"
  },
  {
    "label": "DiveFish_02852",
    "attribute": "0x00000000",
    "text": "{{anim id=\"SmugFace\" target=\"actor\" targetSpec=\"\"}}{{color id=\"1\"}}Камчатские крабы {{color id=\"65535\"}}— воистину\nвеличественные членистоногие.{{pageBreak}}{{anim id=\"ShyBoy\" target=\"actor\" targetSpec=\"\"}}Хотя это, конечно, {{delay8}}довольно-таки\nочевидный факт.{{pageBreak}}{{anim id=\"Explain\" target=\"actor\" targetSpec=\"\"}}Менее очевидно то,{{delay8}} что {{color id=\"1\"}}камчатские\nкрабы{{color id=\"65535\"}} на самом деле родственники\nраков-отшельников.{{pageBreak}}Ведь если присмотреться, увидишь,\n{{delay8}}{{anim id=\"Shocked\" target=\"actor\" targetSpec=\"\"}}{{anim id=\"Frantic\" target=\"actor\" targetSpec=\"\"}}что у них всего восемь ног, а не\nдесять, как у обычных крабов!{{pageBreak}}{{anim id=\"Negative\" target=\"actor\" targetSpec=\"\"}}Впрочем, осмелюсь сказать, {{delay frames=\"40\"}}{{anim id=\"SmugFace\" target=\"actor\" targetSpec=\"\"}}что на\nимпозантность {{color id=\"1\"}}камчатского краба{{color id=\"65535\"}}\nэто никоим образом не влияет.{{pageBreak}}{{anim id=\"Greeting\" target=\"actor\" targetSpec=\"\"}}При весе до девяти килограммов\nи размахе ног до полутора метров{{delay8}}{{anim id=\"Assent\" target=\"actor\" targetSpec=\"\"}}\nмало кто с ним может тягаться."
  },
  {
    "label": "DiveFish_02853",
    "attribute": "0x00000000",
    "text": "{{anim id=\"Frantic\" target=\"actor\" targetSpec=\"\"}}Угу!{{delay20}} Мне просто-таки не терпится\nрассказать тебе поразительные\nфакты про {{color id=\"1\"}}краба-паука{{color id=\"65535\"}}!{{pageBreak}}{{anim id=\"Worried\" target=\"actor\" targetSpec=\"\"}}Но сначала не могу не отметить, {{delay8}}что\nэто самый большой краб в мире{{string value=\"...\"}}{{delay20}}\n{{anim id=\"Crying\" target=\"actor\" targetSpec=\"\"}}и что он похож на огромного паука!{{pageBreak}}{{anim id=\"Shaking\" target=\"actor\" targetSpec=\"\"}}Мои соболезнования арахнофобам.{{delay frames=\"40\"}}\n{{anim id=\"Worried\" target=\"actor\" targetSpec=\"\"}}Но в целом это величественные\nсоздания, здесь спору нет.{{pageBreak}}{{anim id=\"Greeting\" target=\"actor\" targetSpec=\"\"}}Размах их клешней может достигать\n3,5 метров, а вес — 18 кг.{{delay20}}{{anim id=\"Smiling\" target=\"actor\" targetSpec=\"\"}} Но при\nэтом они очень мирные.{{pageBreak}}{{anim id=\"HappyFlower\" target=\"actor\" targetSpec=\"\"}}Более того, они любят прятаться\nи даже маскируются при помощи\nводорослей и морских губок.{{pageBreak}}{{anim id=\"Confused\" target=\"actor\" targetSpec=\"\"}}Угу-гушеньки{{string value=\"...\"}} жаль лишь, что\nони так похожи на пауков.{{delay20}}{{anim id=\"Sighing\" target=\"actor\" targetSpec=\"\"}} Иначе\nя с ними наверняка подружился бы."
  },
  {
    "label": "DiveFish_02854",
    "attribute": "0x00000000",
    "text": "{{anim id=\"HappyFlower\" target=\"actor\" targetSpec=\"\"}}{{color id=\"1\"}}Осьминоги{{color id=\"65535\"}} — чудесные создания!\nУ них восемь конечностей, целых\nтри сердца и большой мозг!{{pageBreak}}{{anim id=\"Smiling\" target=\"actor\" targetSpec=\"\"}}А еще они могут выпутаться\nиз любой передряги!{{pageBreak}}{{anim id=\"Explain\" target=\"actor\" targetSpec=\"\"}}Видишь ли, на коже {{color id=\"1\"}}осьминогов{{color id=\"65535\"}}\nесть особые клетки, способные\nменять цвет и составлять узоры.{{pageBreak}}{{anim id=\"Greeting\" target=\"actor\" targetSpec=\"\"}}В одну минуту {{color id=\"1\"}}осьминог {{color id=\"65535\"}}может\nвыглядеть как пучок водорослей{{string value=\"...\"}}{{delay20}}{{anim id=\"Shocked\" target=\"actor\" targetSpec=\"\"}}\nа через секунду — как куча камней!{{pageBreak}}{{anim id=\"Negative\" target=\"actor\" targetSpec=\"\"}}Но это еще не все его хитрости.{{pageBreak}}Если на него нападет хищник,{{delay8}}\n{{color id=\"1\"}}осьминог {{color id=\"65535\"}}выпустит целое облако\nчернил{{string value=\"...\"}}{{anim id=\"Aha\" target=\"actor\" targetSpec=\"\"}} и незаметно уплывет!{{pageBreak}}{{anim id=\"Thinking\" target=\"actor\" targetSpec=\"\"}}Если подумать{{string value=\"...\"}}{{delay20}}{{anim id=\"Laughing\" target=\"actor\" targetSpec=\"\"}} {{color id=\"1\"}}осьминоги {{color id=\"65535\"}}—\nнастоящие подводные ниндзя!"
  },
  {
    "label": "DiveFish_02855",
    "attribute": "0x00000000",
    "text": "{{anim id=\"Explain\" target=\"actor\" targetSpec=\"\"}}{{color id=\"1\"}}Леопардовые угри {{color id=\"65535\"}}— маленькие\nрыбки,{{delay8}} которые любят зарываться\nв песок на дне океана.{{pageBreak}}{{anim id=\"Smiling\" target=\"actor\" targetSpec=\"\"}}Они сидят в норках, высовываясь\nтолько, чтобы схватить плывущий\nмимо планктон.{{pageBreak}}{{anim id=\"Explain\" target=\"actor\" targetSpec=\"\"}}Некоторые наблюдатели даже\nвидят в них сходство с растениями\nв горшках{{string value=\"...\"}}{{pageBreak}}{{anim id=\"HappyFlower\" target=\"actor\" targetSpec=\"\"}}Однако лично мне они напоминают\nскорее сусликов, высовывающихся\nиз норок.{{pageBreak}}«Сусликовый угорь»{{delay8}}{{anim id=\"QuestionMark\" target=\"actor\" targetSpec=\"\"}} тоже неплохо\nзвучит, ты не считаешь?{{delay8}} При всем\nуважении, до леопардов им далеко!"
  },
  {
    "label": "DiveFish_02856",
    "attribute": "0x00000000",
    "text": "{{anim id=\"Smiling\" target=\"actor\" targetSpec=\"\"}}{{color id=\"1\"}}Наутилусы{{color id=\"65535\"}}, пожалуй, знамениты\nв первую очередь своими чудными\nраковинами.{{pageBreak}}{{anim id=\"HappyFlower\" target=\"actor\" targetSpec=\"\"}}Мало того, что внутри эти раковины\nсделаны из перламутра,{{delay8}} по форме\nони — почти идеальная спираль!{{pageBreak}}{{anim id=\"Negative\" target=\"actor\" targetSpec=\"\"}}Однако раковины — далеко не все,\nчем {{color id=\"1\"}}наутилусы{{color id=\"65535\"}} могут похвастаться.{{pageBreak}}К примеру,{{delay8}}{{anim id=\"Aha\" target=\"actor\" targetSpec=\"\"}} у них может быть до 90\nщупалец!{{pageBreak}}{{anim id=\"Explain\" target=\"actor\" targetSpec=\"\"}}Причем эти щупальца покрыты\nлипким веществом, которое\nпомогает ловить добычу{{string value=\"...\"}}\n{{anim id=\"Serious\" target=\"actor\" targetSpec=\"\"}}Если подумать, обниматься\nс {{color id=\"1\"}}наутилусами {{color id=\"65535\"}}лучше не стоит."
  },
  {
    "label": "DiveFish_02857",
    "attribute": "0x00000000",
    "text": "{{anim id=\"Greeting\" target=\"actor\" targetSpec=\"\"}}Ходит поверье, что {{color id=\"1\"}}мечехвосты\n{{color id=\"65535\"}}приносят счастье, ибо похожи на\nподковы.{{delay20}}{{anim id=\"Outraged\" target=\"actor\" targetSpec=\"\"}} Наукой это не доказано!{{pageBreak}}Угу! {{delay8}}А еще, несмотря на сходство\nс крабами,{{delay8}} {{anim id=\"Shaking\" target=\"actor\" targetSpec=\"\"}}они — хелицеровые, то\nесть родня паукам и скорпионам!{{pageBreak}}{{anim id=\"Angry\" target=\"actor\" targetSpec=\"\"}}Даже их хвост напоминает жало\nскорпиона!{{delay frames=\"40\"}}{{size value=\"75\"}} {{anim id=\"OhGeez\" target=\"actor\" targetSpec=\"\"}}Но их хвосты хотя бы не\nядовиты.{{pageBreak}}{{anim id=\"Explain\" target=\"actor\" targetSpec=\"\"}}{{size value=\"100\"}}{{color id=\"1\"}}Мечехвосты{{color id=\"65535\"}} — так называемые\nживые ископаемые, {{delay8}}и появились\nеще до динозавров.{{pageBreak}}{{anim id=\"Sighing\" target=\"actor\" targetSpec=\"\"}}{{size value=\"75\"}}Не удивительно, что именно они и выжили.\nНепробиваемые панцири!{{pageBreak}}{{anim id=\"Worried\" target=\"actor\" targetSpec=\"\"}}{{size value=\"100\"}}Но самое противное еще впереди{{string value=\"...\"}}{{pageBreak}}{{anim id=\"Confused\" target=\"actor\" targetSpec=\"\"}}В сезон размножения они сотнями\nвыползают на берег и гнездятся!{{pageBreak}}{{i10_10}}{{anim id=\"Frantic\" target=\"actor\" targetSpec=\"\"}}Сотни, сотни скорпионообразных\n{{color id=\"1\"}}мечехвостов {{color id=\"65535\"}}на пляже!!!{{delay frames=\"40\"}}{{i10_9}}{{pageBreak}}{{anim id=\"Shaking\" target=\"actor\" targetSpec=\"\"}}{{size value=\"75\"}}Какой кошмар...{{size value=\"100\"}}"
  },
  {
    "label": "DiveFish_02858",
    "attribute": "0x00000000",
    "text": "{{anim id=\"Greeting\" target=\"actor\" targetSpec=\"\"}}Вырастающие до 50 сантиметров\nв длину {{color id=\"1\"}}гигантские изоподы{{color id=\"65535\"}} —\n{{delay20}}{{anim id=\"Worried\" target=\"actor\" targetSpec=\"\"}}самая крупная родня мокриц.{{pageBreak}}{{anim id=\"Shaking\" target=\"actor\" targetSpec=\"\"}}{{size value=\"75\"}}Не представляю, зачем нужно целых\n50 сантиметров такой мерзости!{{pageBreak}}{{anim id=\"Worried\" target=\"actor\" targetSpec=\"\"}}{{size value=\"100\"}}Но тех из нас, кто не считает этих\nизопод милыми, гораздо больше\nпечалят другие факты.\n{{anim id=\"Serious\" target=\"actor\" targetSpec=\"\"}}Например, что {{color id=\"1\"}}гигантские изоподы{{color id=\"65535\"}}\nочень быстро плавают и невероятно\nпрожорливы.{{pageBreak}}{{anim id=\"Confused\" target=\"actor\" targetSpec=\"\"}}Больше всего они любят пировать\nна тушах мертвых животных,\nопустившихся на морское дно.{{pageBreak}}За это, на мой взгляд, жуткое\nповедение их даже называют{{string value=\"...\"}}{{delay20}}{{anim id=\"OhGeez\" target=\"actor\" targetSpec=\"\"}}\nсанитарами моря.{{pageBreak}}{{anim id=\"Shaking\" target=\"actor\" targetSpec=\"\"}}{{size value=\"75\"}}Даже в морях теперь огромные насекомые\nплавают.{{delay frames=\"40\"}} {{anim id=\"SadSpiral\" target=\"actor\" targetSpec=\"\"}}За что мне такая жизнь{{string value=\"...\"}}{{size value=\"100\"}}"
  },
  {
    "label": "DiveFish_06920",
    "attribute": "0x00000000",
    "text": "{{color id=\"1\"}}{{anim id=\"FaintSmile\" target=\"actor\" targetSpec=\"\"}}Сверкающие кальмары {{color id=\"65535\"}}— маленькие\nмигрирующие кальмарчики всего\nнескольких сантиметров в длину.{{pageBreak}}{{anim id=\"Nodding\" target=\"actor\" targetSpec=\"\"}}Обычно они обитают на большой\nглубине,{{delay8}} но в период размножения\nпереселяются ближе к берегу.{{pageBreak}}{{anim id=\"Explain\" target=\"actor\" targetSpec=\"\"}}Название они получили благодаря\nсвоей синей биолюминесценции.{{pageBreak}}{{anim id=\"AbsentMindedness\" target=\"actor\" targetSpec=\"\"}}Видимо, она нужна для отпугивания\nврагов, {{delay8}}общения с сородичами{{delay8}} или\nдаже приманивания добычи.{{pageBreak}}{{anim id=\"Silent\" target=\"actor\" targetSpec=\"\"}}Честно говоря,{{delay8}} науке доподлинно\nне известно, зачем эти кальмары\nсветятся.{{delay20}}{{anim id=\"Grin\" target=\"actor\" targetSpec=\"\"}} Они хранят свою тайну."
  },
  {
    "label": "DiveFish_07191",
    "attribute": "0x00000000",
    "text": "{{anim id=\"Greeting\" target=\"actor\" targetSpec=\"\"}}{{color id=\"1\"}}Газами-краб{{color id=\"65535\"}}{{delay8}} известен также как\n{{delay20}}{{anim id=\"Nodding\" target=\"actor\" targetSpec=\"\"}}японский синий краб.{{pageBreak}}{{anim id=\"FaintSmile\" target=\"actor\" targetSpec=\"\"}}Его панцирь и конечности иногда\nдействительно сине-голубого цвета.{{pageBreak}}{{anim id=\"Explain\" target=\"actor\" targetSpec=\"\"}}А задние конечности у него похожи\nна весла, что позволяет ему быстро\nи ловко передвигаться в воде.{{pageBreak}}Но ты,{{delay8}}{{anim id=\"Grin\" target=\"actor\" targetSpec=\"\"}} судя по всему, плаваешь\nвсе-таки быстрее него!"
  },
  {
    "label": "DiveFish_07203",
    "attribute": "0x00000000",
    "text": "{{anim id=\"Frantic\" target=\"actor\" targetSpec=\"\"}}Бойся {{color id=\"1\"}}адского кальмара-вампира{{color id=\"65535\"}}!{{delay20}}\nЭтот глубоководный монстр пьет\nкровь зазевавшихся водолазов!{{pageBreak}}{{anim id=\"Laughing\" target=\"actor\" targetSpec=\"\"}}Угу-гу! {{delay8}}Нет-нет, я, конечно, шучу!{{pageBreak}}{{anim id=\"Serious\" target=\"actor\" targetSpec=\"\"}}Гхм.{{delay frames=\"40\"}}{{anim id=\"Explain\" target=\"actor\" targetSpec=\"\"}} Эти кальмары действительно\nобитают на больших глубинах, где\nпрактически нет света.{{delay frames=\"40\"}}{{pageBreak}}Но несмотря на свой пугающий вид,{{delay20}}{{anim id=\"Smiling\" target=\"actor\" targetSpec=\"\"}}\nпитаются они мертвым планктоном,\nводорослями и так далее.{{pageBreak}}{{anim id=\"HappyFlower\" target=\"actor\" targetSpec=\"\"}}Они даже защищаются, просто\nвыплевывая во врага светящуюся\nжидкость.{{pageBreak}}{{anim id=\"QuestionMark\" target=\"actor\" targetSpec=\"\"}}Каким же образом они получили\nтакое жуткое название?{{delay frames=\"40\"}}{{pageBreak}}{{anim id=\"Worried\" target=\"actor\" targetSpec=\"\"}}Дело во внешнем виде.{{delay frames=\"40\"}} {{anim id=\"Confused\" target=\"actor\" targetSpec=\"\"}}Между\nщупалец у них красные перепонки\nс шипами, похожие на плащ!{{pageBreak}}Попросту говоря, {{delay20}}{{anim id=\"OhGeez\" target=\"actor\" targetSpec=\"\"}}этот кальмар\nвыглядит как вампир, решивший\nнемного поплавать."
  },
  {
    "label": "DiveFish_07214",
    "attribute": "0x00000000",
    "text": "{{anim id=\"FaintSmile\" target=\"actor\" targetSpec=\"\"}}{{color id=\"1\"}}Гигантские тридакны{{color id=\"65535\"}} обитают\nна коралловых рифах. {{delay8}}Это самые\nбольшие двустворчатые в мире.{{pageBreak}}{{anim id=\"Explain\" target=\"actor\" targetSpec=\"\"}}Они достигают почти двух метров\nв ширину, весят до 270 кг и живут\nдо 100 лет.{{pageBreak}}{{anim id=\"Worried\" target=\"actor\" targetSpec=\"\"}}И да, они выглядят так, словно\nмогут одним махом проглотить\nводолаза.{{pageBreak}}{{anim id=\"Smiling\" target=\"actor\" targetSpec=\"\"}}Но едят они планктон. И получают\nполезные вещества из водорослей,\nс которыми живут в симбиозе.{{pageBreak}}{{anim id=\"AbsentMindedness\" target=\"actor\" targetSpec=\"\"}}По сути, все, что им нужно делать,\nчтобы поесть — это просто лежать,\nприоткрыв раковину.{{pageBreak}}{{anim id=\"Grin\" target=\"actor\" targetSpec=\"\"}}Не такая уж и плохая жизнь,\nесли подумать, угу!"
  },
  {
    "label": "DiveFish_07228",
    "attribute": "0x00000000",
    "text": "{{anim id=\"Worried\" target=\"actor\" targetSpec=\"\"}}Постарайся не слишком пялиться на\n{{color id=\"1\"}}морские ананасы{{color id=\"65535\"}}. {{delay frames=\"40\"}}{{anim id=\"OhGeez\" target=\"actor\" targetSpec=\"\"}}Их внешность —\nшутка природы, они не виноваты.{{pageBreak}}Хоть они и похожи на подгнившие\nананасы, {{delay8}}{{anim id=\"Negative\" target=\"actor\" targetSpec=\"\"}}это не растения. Но и не\nракообразные... и не моллюски.{{pageBreak}}{{anim id=\"Explain\" target=\"actor\" targetSpec=\"\"}}Они из подтипа оболочников. Эти\nсоздания сидят на мелководье\nи едят планктон, фильтруя воду.{{pageBreak}}{{anim id=\"FaintSmile\" target=\"actor\" targetSpec=\"\"}}Следует отметить, что молодые\n{{color id=\"1\"}}морские ананасы{{color id=\"65535\"}} похожи на\nголовастиков и умеют плавать.{{pageBreak}}{{anim id=\"Sighing\" target=\"actor\" targetSpec=\"\"}}Увы,{{delay8}} прикрепившись к камню, они\nперестают быть такими милыми.{{delay frames=\"40\"}}\n{{anim id=\"Eh\" target=\"actor\" targetSpec=\"\"}}Впрочем,{{delay8}} это их дело, не осуждаю.{{pageBreak}}{{anim id=\"Worried\" target=\"actor\" targetSpec=\"\"}}А еще {{color id=\"1\"}}морские ананасы{{color id=\"65535\"}} наполнены\nводой.{{delay frames=\"40\"}} {{anim id=\"Confused\" target=\"actor\" targetSpec=\"\"}}И если им докучать, могут\nбрызнуть ею в обидчика!"
  },
  {
    "label": "DiveFish_07245",
    "attribute": "0x00000000",
    "text": "{{color id=\"1\"}}{{anim id=\"FaintSmile\" target=\"actor\" targetSpec=\"\"}}Ушастые аурелии{{color id=\"65535\"}} — частый улов\nв акватории Японии.{{i10_4}}{{anim id=\"Serious\" target=\"actor\" targetSpec=\"\"}} Их ядовитые\nщупальца жгутся, но не сильно.{{pageBreak}}{{anim id=\"FaintSmile\" target=\"actor\" targetSpec=\"\"}}Созерцая этих полупрозрачных\nкрасавиц в воде, чувствуешь себя\nспокойнее. Отличная медитация!{{pageBreak}}{{anim id=\"Silent\" target=\"actor\" targetSpec=\"\"}}Плохо то, что, если пища слишком\nлегко доступна{{delay20}} или происходят\nрезкие изменения температуры{{string value=\"...\"}}{{pageBreak}}{{anim id=\"OhGeez\" target=\"actor\" targetSpec=\"\"}}Популяция неконтролируемо\nвозрастает. {{delay frames=\"30\"}}Это зачастую наносит\nбольшой урон рыбному промыслу.{{delay20}}{{anim id=\"Worried\" target=\"actor\" targetSpec=\"\"}}"
  },
  {
    "label": "DiveFish_07252",
    "attribute": "0x00000000",
    "text": "{{anim id=\"HappyFlower\" target=\"actor\" targetSpec=\"\"}}Есть ли в море кто-нибудь милее,{{delay8}}\nчем {{color id=\"1\"}}{{anim id=\"FaintSmile\" target=\"actor\" targetSpec=\"\"}}опистотейтис{{color id=\"65535\"}}?{{delay frames=\"40\"}}{{anim id=\"Serious\" target=\"actor\" targetSpec=\"\"}} По мне, так нет!{{pageBreak}}{{anim id=\"FaintSmile\" target=\"actor\" targetSpec=\"\"}}Эти маленькие глубоководные\nосьминоги плавают при помощи\nплавников, похожих на ушки.{{pageBreak}}{{anim id=\"Explain\" target=\"actor\" targetSpec=\"\"}}А перепонка между щупалец\nделает их похожими на зонтик.{{pageBreak}}{{anim id=\"HappyDance\" target=\"actor\" targetSpec=\"\"}}Угу, угу!{{delay20}} Особенно если они еще\nи растопырят щупальца!{{pageBreak}}{{anim id=\"Shocked\" target=\"actor\" targetSpec=\"\"}}Очень забавное сходство,{{delay frames=\"40\"}}{{anim id=\"Grin\" target=\"actor\" targetSpec=\"\"}} если\nучесть, что {{color id=\"1\"}}опистотейтисы{{color id=\"65535\"}} живут\nпод водой."
  },
  {
    "label": "DiveFish_07267",
    "attribute": "0x00000000",
    "text": "{{anim id=\"FaintSmile\" target=\"actor\" targetSpec=\"\"}}{{color id=\"1\"}}Грифельные морские ежи {{color id=\"65535\"}}—\nразновидность морских ежей{{delay frames=\"30\"}}{{anim id=\"Nodding\" target=\"actor\" targetSpec=\"\"}}\nиз Индо-Тихоокеанской области.{{pageBreak}}{{anim id=\"Serious\" target=\"actor\" targetSpec=\"\"}}Они покрыты притупленными\nтолстыми иглами, похожими на\nмелки для рисования.{{pageBreak}}{{anim id=\"Explain\" target=\"actor\" targetSpec=\"\"}}Такие иглы защищают их как от\nхищников, так и от сильных волн.{{pageBreak}}{{anim id=\"Explain\" target=\"actor\" targetSpec=\"\"}}Они обитают в коралловых рифах.\nОбычно окрашены в коричневый,\nкрасный или фиолетовый цвет.{{pageBreak}}{{anim id=\"Worried\" target=\"actor\" targetSpec=\"\"}}Из-за таких ярких цветов можно\nбыло бы подумать, что {{color id=\"1\"}}грифельные\nморские ежи{{color id=\"65535\"}} ужасно ядовиты.{{pageBreak}}{{anim id=\"Smiling\" target=\"actor\" targetSpec=\"\"}}Но на самом деле они просто\nлюбят покрасоваться."
  },
  {
    "label": "DiveFish_07278",
    "attribute": "0x00000000",
    "text": "{{anim id=\"Greeting\" target=\"actor\" targetSpec=\"\"}}{{color id=\"1\"}}Моллюски-трубачи {{color id=\"65535\"}}— морские\nслизни, перебирающиеся из глубин\nна мелководье при смене погоды.{{pageBreak}}{{anim id=\"Explain\" target=\"actor\" targetSpec=\"\"}}Они плотоядны и питаются\nчервями, другими моллюсками\nи даже ракообразными.{{pageBreak}}Эти коварные слизни даже\nвзламывают своими раковинами\n{{anim id=\"Eh\" target=\"actor\" targetSpec=\"\"}}раковины своих жертв!{{pageBreak}}{{anim id=\"Explain\" target=\"actor\" targetSpec=\"\"}}Затем они начисто вылизывают эти\nраковины своим жестким языком,\nусеянным мелкими зубами.{{pageBreak}}{{anim id=\"ShyBoy\" target=\"actor\" targetSpec=\"\"}}Э{{string value=\"...\"}} Надеюсь, я не испортил тебе\nаппетит."
  },
  {
    "label": "DiveFish_07303",
    "attribute": "0x00000000",
    "text": "{{anim id=\"FaintSmile\" target=\"actor\" targetSpec=\"\"}}Угу! {{color id=\"1\"}}Скотопланесы {{color id=\"65535\"}}— это морские\nогурцы.{{delay frames=\"30\"}} {{anim id=\"Nodding\" target=\"actor\" targetSpec=\"\"}}Они обитают на океанском\nдне на глубине от 1 до 6 км.{{pageBreak}}{{anim id=\"Explain\" target=\"actor\" targetSpec=\"\"}}Эти существа длиной около 10 см{{delay20}}\nползают по дну с помощью 10 ног{{delay20}}\n{{anim id=\"Serious\" target=\"actor\" targetSpec=\"\"}}в поисках пищи в осадках.{{pageBreak}}{{anim id=\"BigSmile\" target=\"actor\" targetSpec=\"\"}}Ужасно-симпатичные!{{delay frames=\"40\"}} {{anim id=\"Serious\" target=\"actor\" targetSpec=\"\"}}Я слышал,\nчто так про них говорят. {{i10_4}}{{anim id=\"Confused\" target=\"actor\" targetSpec=\"\"}}Это не мое\nмнение!{{delay frames=\"30\"}} Точно не мое, угу!"
  },
  {
    "label": "DiveFish_07308",
    "attribute": "0x00000000",
    "text": "{{anim id=\"FaintSmile\" target=\"actor\" targetSpec=\"\"}}{{color id=\"1\"}}Данженесский краб{{color id=\"65535\"}} может\nпохвастаться веерообразным\nпанцирем в фиолетовых тонах.{{pageBreak}}И дело тут не в красоте,{{delay8}} {{anim id=\"Eh\" target=\"actor\" targetSpec=\"\"}}в таком\nнаряде его невероятно сложно\nобнаружить!{{pageBreak}}{{anim id=\"Grin\" target=\"actor\" targetSpec=\"\"}}{{color id=\"1\"}}Данженесский краб{{color id=\"65535\"}} — своего рода\nмастер маскировки.{{pageBreak}}{{anim id=\"Smiling\" target=\"actor\" targetSpec=\"\"}}В случае опасности{{delay8}} он прибегает\nк одному ловкому приему:{{delay20}} {{anim id=\"Explain\" target=\"actor\" targetSpec=\"\"}}в один\nмиг зарывается в песок.{{pageBreak}}{{anim id=\"Serious\" target=\"actor\" targetSpec=\"\"}}Только его и видели!{{delay8}} Будто{{delay20}} {{anim id=\"BigSmile\" target=\"actor\" targetSpec=\"\"}}в воде\nрастворяется!"
  },
  {
    "label": "DiveFish_07318",
    "attribute": "0x00000000",
    "text": "{{anim id=\"FaintSmile\" target=\"actor\" targetSpec=\"\"}}{{color id=\"1\"}}Корзинка Венеры{{color id=\"65535\"}} выглядит как\nнеземное создание, пришелица\nиз других миров!{{pageBreak}}{{anim id=\"HappyFlower\" target=\"actor\" targetSpec=\"\"}}На самом деле она — жительница\nокеанских глубин и относится\nк стеклянным морским губкам.{{pageBreak}}{{anim id=\"Explain\" target=\"actor\" targetSpec=\"\"}}Ее тело, похожее на скульптуру{{delay8}} или{{delay8}}\nизысканную вазу из стеклянного\nкружева, состоит из кремния.{{pageBreak}}{{anim id=\"AbsentMindedness\" target=\"actor\" targetSpec=\"\"}}По-моему, {{color id=\"1\"}}корзинка Венеры{{color id=\"65535\"}} — один\nиз великолепнейших шедевров\nприроды, не побоюсь этого слова!"
  },
  {
    "label": "DiveFish_07411",
    "attribute": "0x00000000",
    "text": "{{anim id=\"Aha\" target=\"actor\" targetSpec=\"\"}}А ты знаешь, что {{color id=\"1\"}}мидии {{color id=\"65535\"}}умеют\nпроизводить шелк?!{{pageBreak}}{{anim id=\"Serious\" target=\"actor\" targetSpec=\"\"}}Угу!{{delay8}} Это правда! {{delay frames=\"40\"}}{{anim id=\"Laughing\" target=\"actor\" targetSpec=\"\"}}Ну,{{delay8}} по крайней\nмере в какой-то степени.{{pageBreak}}{{anim id=\"Explain\" target=\"actor\" targetSpec=\"\"}}{{color id=\"1\"}}Мидии{{color id=\"65535\"}}, как и некоторые другие\nдвустворчатые моллюски, выделяют\nсекрет, который называется биссус.{{pageBreak}}{{anim id=\"Greeting\" target=\"actor\" targetSpec=\"\"}}С помощью застывшего биссуса\nмидии прикрепляются к камням.{{pageBreak}}{{anim id=\"FaintSmile\" target=\"actor\" targetSpec=\"\"}}А в древности из биссуса ткали\nдрагоценные ткани, называемые\nвиссоном или морским шелком.{{pageBreak}}Так что{{delay8}}{{anim id=\"Grin\" target=\"actor\" targetSpec=\"\"}} {{color id=\"1\"}}мидии {{color id=\"65535\"}}действительно\nпроизводят шелк, но только\nморской, угу!"
  }
]