﻿[
  {
    "label": "001",
    "attribute": "0x0000000000000000",
    "text": "{{anim id=\"OhGeez\" target=\"actor\" targetSpec=\"\"}}Hoy he visto a {{color id=\"3\"}}Gulliver {{color id=\"65535\"}}durmiendo\na pierna suelta en la playa.{{delay8}}\n¡Qué raro!\n{{anim id=\"Thinking\" target=\"actor\" targetSpec=\"\"}}Fui a despertarlo, pero gruñó\nun poco y luego siguió sobando\ncomo si nada. {{delay8}}{{anim id=\"SmugFace\" target=\"actor\" targetSpec=\"\"}}¡Menuda moral tiene!\n{{anim id=\"Scheming\" target=\"actor\" targetSpec=\"\"}}Ahora ya sé qué sienten mis colegas\ncuando vienen a despertarme tras\nuna noche de desfase. {{delay8}}Ji, ji, ji{{string value=\"...\"}}\n{{anim id=\"Nodding\" target=\"actor\" targetSpec=\"\"}}En fin, a lo mejor tú tienes más\nsuerte con él. {{delay8}}{{anim id=\"Cheering\" target=\"actor\" targetSpec=\"\"}}Si quieres probar,\nseguro que aún sigue en la playa."
  },
  {
    "label": "002",
    "attribute": "0x0000000000000000",
    "text": "{{anim id=\"TakenAback\" target=\"actor\" targetSpec=\"\"}}¿Te has enterado de que {{color id=\"3\"}}Totakeke\n{{color id=\"65535\"}}va a dar un conciertazo esta noche?{{pageBreak}}{{anim id=\"Nodding\" target=\"actor\" targetSpec=\"\"}}Me han dicho que al parecer se\nle pueden pedir canciones y todo.{{pageBreak}}{{anim id=\"Scheming\" target=\"actor\" targetSpec=\"\"}}¡Estoy flipadísima con el tema!{{delay8}}\nPienso estar en primera fila\ncoreando todo el rato.\n{{anim id=\"SmugFace\" target=\"actor\" targetSpec=\"\"}}¡Que se note que me sé todos\nsus temazos al pie de la letra!"
  },
  {
    "label": "003",
    "attribute": "0x0000000000000000",
    "text": "{{anim id=\"Thinking\" target=\"actor\" targetSpec=\"\"}}Antes me encontré con {{color id=\"3\"}}Tili {{color id=\"65535\"}}al lado\nde la {{color id=\"1\"}}oficina de gestión{{color id=\"65535\"}}.{{delay8}} {{anim id=\"QuestionMark\" target=\"actor\" targetSpec=\"\"}}¿A ti no\nte pone así como muy nervios{{gender2 m=\"o\" f=\"a\"}}?\n{{anim id=\"OhGeez\" target=\"actor\" targetSpec=\"\"}}Me da la sensación de que no le mola\ncómo me visto. {{delay8}}{{anim id=\"Negative\" target=\"actor\" targetSpec=\"\"}}Es raro que me pase,\npero, con ella,{{delay8}} {{anim id=\"Frantic\" target=\"actor\" targetSpec=\"\"}}¡me siento intimidada!"
  },
  {
    "label": "004",
    "attribute": "0x0000000000000000",
    "text": "{{anim id=\"EmotEnd\" target=\"actor\" targetSpec=\"\"}}¿Ya has visto el pedazo de\nalfombras que ha venido a\nvender {{color id=\"3\"}}Alcatifa{{color id=\"65535\"}}?\n{{anim id=\"Thinking\" target=\"actor\" targetSpec=\"\"}}No sé si son los diseños flipantes\no su labia para liarme, {{delay8}}{{anim id=\"Blushing\" target=\"actor\" targetSpec=\"\"}}¡pero al final\nsiempre le pillo algo, {{string value=\"6\"}}!"
  },
  {
    "label": "006",
    "attribute": "0x0000000000000000",
    "text": "{{anim id=\"TakenAback\" target=\"actor\" targetSpec=\"\"}}¡Pero bueno! {{delay8}}¿Por qué no estás en\nla plaza dándolo todo? {{delay8}}{{anim id=\"SmugFace\" target=\"actor\" targetSpec=\"\"}}¿No sabes\nque hay conciertazo de {{color id=\"3\"}}Totakeke{{color id=\"65535\"}}?\n{{anim id=\"Scheming\" target=\"actor\" targetSpec=\"\"}}¡Yo me voy pitando para allá!{{delay8}}\nNo me pierdo un acontecimiento\nasí ni de palo, tú.\n{{anim id=\"Clapping\" target=\"actor\" targetSpec=\"\"}}Además, me han dicho que hasta\nacepta peticiones para que toque\ntemas en concreto.\n{{anim id=\"Dance\" target=\"actor\" targetSpec=\"\"}}¡Únete al jolgorio, {{string value=\"6\"}}!"
  },
  {
    "label": "007",
    "attribute": "0x0000000000000000",
    "text": "{{anim id=\"TakenAback\" target=\"actor\" targetSpec=\"\"}}¡Tí{{gender2 m=\"o\" f=\"a\"}}! ¿Qué haces por ahí tan panch{{gender2 m=\"o\" f=\"a\"}}?{{delay8}}\n{{anim id=\"Clapping\" target=\"actor\" targetSpec=\"\"}}¿No sabes que {{color id=\"3\"}}Juliana {{color id=\"65535\"}}está por aquí\nde visita?\n{{anim id=\"Thinking\" target=\"actor\" targetSpec=\"\"}}No sé por dónde andará ahora, pero\nsi la ves tienes que comprarle algo.{{pageBreak}}Además, {{anim id=\"EmotEnd\" target=\"actor\" targetSpec=\"\"}}siempre mola saludar a\nla peña que viene de visita por\nla isla.{{delay8}} ¡Así se animan a volver!"
  },
  {
    "label": "008",
    "attribute": "0x0000000000000000",
    "text": "{{anim id=\"Thinking\" target=\"actor\" targetSpec=\"\"}}A ver, esto es muy chungo{{string value=\"...\"}}{{delay8}} He visto\nun barco todo destartalado anclado\nal norte de la isla.{{delay8}} ¿Te suena?\n{{anim id=\"OhGeez\" target=\"actor\" targetSpec=\"\"}}Me da bastante mal rollito, {{delay8}}¡pero a\nla vez{{anim id=\"Scheming\" target=\"actor\" targetSpec=\"\"}} me intriga cosa fina! {{delay8}}Hasta\nestoy por ir a investigarlo de cerca."
  },
  {
    "label": "009",
    "attribute": "0x0000000000000000",
    "text": "{{anim id=\"Thinking\" target=\"actor\" targetSpec=\"\"}}Antes noté una sensación muy pero\nque muy extraña{{string value=\"...\"}}{{delay8}}{{anim id=\"ColdChill\" target=\"actor\" targetSpec=\"\"}} Fue como si me\natravesase un viento frío o algo.\n{{anim id=\"Surprised\" target=\"actor\" targetSpec=\"\"}}No sería{{string value=\"...\"}}{{delay8}} un {{delay8}}fantasma, {{delay8}}¿verdad?{{pageBreak}}{{anim id=\"Scheming\" target=\"actor\" targetSpec=\"\"}}¡Te la he colado! {{delay8}}Ji, ji, ji{{string value=\"...\"}}{{delay8}}{{anim id=\"SmugFace\" target=\"actor\" targetSpec=\"\"}} Todo\nel mundo sabe que los fantasmas\nson un timo, {{string value=\"6\"}}."
  },
  {
    "label": "011",
    "attribute": "0x0000000000000000",
    "text": "{{anim id=\"TakenAback\" target=\"actor\" targetSpec=\"\"}}¡Pero tíii{{gender2 m=\"o\" f=\"a\"}}!{{delay8}}{{anim id=\"OhGeez\" target=\"actor\" targetSpec=\"\"}} ¡Ya estás yendo a\nla plaza ahora mismito!{{delay8}} {{color id=\"3\"}}Totakeke\n{{color id=\"65535\"}}está allí dándolo{{anim id=\"Frantic\" target=\"actor\" targetSpec=\"\"}}{{string value=\"...\"}}{{delay8}} ¡Ahí va!\n{{anim id=\"Blushing\" target=\"actor\" targetSpec=\"\"}}Yo no he dicho nada, pero ve\npor allí en cuanto puedas, ¿sí?{{delay8}}\n{{anim id=\"EmotEnd\" target=\"actor\" targetSpec=\"\"}}¡Fíate de la menda, {{string value=\"6\"}}!"
  },
  {
    "label": "013",
    "attribute": "0x0000000000000000",
    "text": "{{anim id=\"TakenAback\" target=\"actor\" targetSpec=\"\"}}¿Y tú por qué no estás en la plaza?{{delay8}}\n{{anim id=\"Shaki\" target=\"actor\" targetSpec=\"\"}}¡{{color id=\"3\"}}Totakeke {{color id=\"65535\"}}está dándolo todo a tope\nde decibelios! {{delay8}}{{anim id=\"Nodding\" target=\"actor\" targetSpec=\"\"}}¡Como te lo cuento!\n{{anim id=\"Clapping\" target=\"actor\" targetSpec=\"\"}}Ha venido expresamente para\ncelebrar el cumple de alguien\nde la isla. {{delay8}}{{anim id=\"EmotEnd\" target=\"actor\" targetSpec=\"\"}}¡Qué pasote, tú!\n{{anim id=\"Scheming\" target=\"actor\" targetSpec=\"\"}}¡Ojalá todos los cumples fuesen\nasí de atómicos, {{string value=\"6\"}}!"
  },
  {
    "label": "014",
    "attribute": "0x0000000000000000",
    "text": "{{anim id=\"QuestionMark\" target=\"actor\" targetSpec=\"\"}}Oye, ¿te has enterado de que {{color id=\"3\"}}Pili\n{{color id=\"65535\"}}anda de visita por la isla?{{pageBreak}}{{anim id=\"OhGeez\" target=\"actor\" targetSpec=\"\"}}A mí todo el tema de la moda me trae\nsin cuidado, ¿sabes? {{delay8}}Pero tengo\nmuchos colegas que sí la siguen.\n{{anim id=\"Nodding\" target=\"actor\" targetSpec=\"\"}}Supongo que para ellos es bueno\nque {{color id=\"3\"}}Pili{{color id=\"65535\"}} se pase por aquí con hilos\ny movidas de todo tipo, ¿eh?\n{{anim id=\"Cheering\" target=\"actor\" targetSpec=\"\"}}Ya sabes: {{delay8}}si te interesa el tema,{{delay8}}\n¡pásate a hacerle una visita, tí{{gender2 m=\"o\" f=\"a\"}}!"
  },
  {
    "label": "015",
    "attribute": "0x0000000000000000",
    "text": "{{anim id=\"Blushing\" target=\"actor\" targetSpec=\"\"}}¿Te sobran peces y ya no sabes\nqué hacer con ellos? {{delay8}}¿Me los das?{{pageBreak}}{{anim id=\"Scheming\" target=\"actor\" targetSpec=\"\"}}No los quiero porque {{color id=\"3\"}}CJ {{color id=\"65535\"}}esté hoy\nde visita y me pague un pastizal\npor ellos, ¿eh?{{delay8}} ¡Qué va!"
  },
  {
    "label": "016",
    "attribute": "0x0000000000000000",
    "text": "{{anim id=\"Clapping\" target=\"actor\" targetSpec=\"\"}}¿Ya conoces a {{color id=\"3\"}}Kamilo{{color id=\"65535\"}}?{{delay8}} ¡Me parece\nla caña el tío!{{pageBreak}}{{anim id=\"Scheming\" target=\"actor\" targetSpec=\"\"}}Creo que también tiene un pasado\nturbulento y ha vivido un montón\nde aventuras locas.\n{{anim id=\"SmugFace\" target=\"actor\" targetSpec=\"\"}}¡Sé reconocer a alguien como yo\nen cuanto lo veo!"
  },
  {
    "label": "017",
    "attribute": "0x0000000000000000",
    "text": "{{anim id=\"Thinking\" target=\"actor\" targetSpec=\"\"}}Antes me encontré con {{color id=\"3\"}}Betunio{{color id=\"65535\"}} en\nla plaza. {{delay8}}{{anim id=\"OhGeez\" target=\"actor\" targetSpec=\"\"}}¿No te parece que tiene\nun estilazo tremendo el tío?\n{{anim id=\"Frantic\" target=\"actor\" targetSpec=\"\"}}Lo mismo tenía que haberle pedido\nalgún consejillo para ir pisando más\nfuerte por la vida, tú.\n{{anim id=\"Scheming\" target=\"actor\" targetSpec=\"\"}}Sí, aún más, {{string value=\"6\"}}."
  },
  {
    "label": "018",
    "attribute": "0x0000000000000000",
    "text": "{{anim id=\"QuestionMark\" target=\"actor\" targetSpec=\"\"}}¿Has visto a {{color id=\"3\"}}Estela{{color id=\"65535\"}} por ahí?{{delay8}} Parece\nque {{anim id=\"TakenAback\" target=\"actor\" targetSpec=\"\"}}se ha venido a la isla a ver\nlas estrellas exclusivamente.\n{{anim id=\"OhGeez\" target=\"actor\" targetSpec=\"\"}}Ella lo dice por las que se ven en\nel cielo, {{delay8}}{{anim id=\"Scheming\" target=\"actor\" targetSpec=\"\"}}¡pero fijo que ha venido a\nadmirar mi careto, {{string value=\"6\"}}!"
  },
  {
    "label": "019",
    "attribute": "0x0000000000000000",
    "text": "{{anim id=\"Nodding\" target=\"actor\" targetSpec=\"\"}}A ver, tengo que contarte una cosa\nasí en confianza porque si no se lo\nsuelto a alguien me dará un chungo.\n{{anim id=\"Frantic\" target=\"actor\" targetSpec=\"\"}}Mira, hay algo{{string value=\"...\"}}{{delay8}} o alguien{{delay8}} en la isla.{{delay8}}\nAparte de tú y yo y el resto de\nvecinos, me refiero.\n{{anim id=\"ColdChill\" target=\"actor\" targetSpec=\"\"}}He visto una especie de sombra de\ncolor amarillo que corría y saltaba\ndando unos botes tremendos.\n{{anim id=\"OhGeez\" target=\"actor\" targetSpec=\"\"}}Que conste que no tengo miedo,\n¿eh? {{delay8}}¡Faltaría más! {{delay8}}{{anim id=\"Blushing\" target=\"actor\" targetSpec=\"\"}}Solo digo que{{string value=\"...\"}}{{delay8}}\nahí hay algo, tú. {{delay8}}Hazme caso.\nEn fin, {{anim id=\"Cheering\" target=\"actor\" targetSpec=\"\"}}gracias por dejar que me\ndesahogue contigo, coleguilla.{{delay8}}\n¡Se agradece, {{string value=\"6\"}}!"
  },
  {
    "label": "020",
    "attribute": "0x0000000000000000",
    "text": "{{anim id=\"Cheering\" target=\"actor\" targetSpec=\"\"}}Oye, ¿has visto que {{color id=\"3\"}}Gandulio{{color id=\"65535\"}} anda\npor la plaza?{{delay8}}{{anim id=\"Clapping\" target=\"actor\" targetSpec=\"\"}} Me flipa a saco el rollo\nque se marca el tío, ¿sabes?\n{{anim id=\"OhGeez\" target=\"actor\" targetSpec=\"\"}}No solo porque venda flores y toda\nla movida, {{delay8}}{{anim id=\"SmugFace\" target=\"actor\" targetSpec=\"\"}}¡sino porque va todo\npancho por la vida!\n{{anim id=\"Nodding\" target=\"actor\" targetSpec=\"\"}}Así es como hay que tomarse\nlas movidas, tú: {{delay8}}{{anim id=\"EmotEnd\" target=\"actor\" targetSpec=\"\"}}viviendo a tu rollo\ny sin estresarte cosa loca."
  },
  {
    "label": "021",
    "attribute": "0x0000000000000000",
    "text": "Oye, {{anim id=\"Frantic\" target=\"actor\" targetSpec=\"\"}}¿tú sabes si alguien ha montado\nuna fiesta de disfraces estos días y\nse ha olvidado de avisarme?\n{{anim id=\"TakenAback\" target=\"actor\" targetSpec=\"\"}}Lo digo porque he visto a un tío\nvestido de pirata por la playa{{string value=\"...\"}}{{pageBreak}}{{anim id=\"Thinking\" target=\"actor\" targetSpec=\"\"}}El caso es que tenía una pinta que\nme sonaba un montonazo, pero no\nsabría decir de qué.\n{{anim id=\"OhGeez\" target=\"actor\" targetSpec=\"\"}}En fin, que si vas por allí y hablas\ncon él{{delay8}}{{anim id=\"Scheming\" target=\"actor\" targetSpec=\"\"}} lo mismo me ayudas a resolver\nel misterio, {{string value=\"6\"}}."
  },
  {
    "label": "022",
    "attribute": "0x0000000000000000",
    "text": "{{anim id=\"Greeting\" target=\"actor\" targetSpec=\"\"}}Oye,{{delay8}} tú,{{delay8}} ¿sabías que {{color id=\"3\"}}Totakeke{{color id=\"65535\"}} lo\nparte hoy en la plaza?{{pageBreak}}{{anim id=\"Blushing\" target=\"actor\" targetSpec=\"\"}}Hace un rato me dijo que podía\nelegir una canción{{string value=\"...\"}}{{delay8}} ¡Me quedé tan\nflipada que no supe qué decirle!{{pageBreak}}{{anim id=\"Love\" target=\"actor\" targetSpec=\"\"}}{{color id=\"3\"}}Totakeke{{color id=\"65535\"}} mola mazo.{{delay20}} Va y me dice,{{delay8}}\nasí de pronto,{{delay8}} «escucha esto»{{string value=\"...\"}}{{pageBreak}}{{anim id=\"Pardon\" target=\"actor\" targetSpec=\"\"}}¡Y se pone a tocar una canción nueva\nque ha hecho!{{delay20}} Impresionante.{{pageBreak}}{{anim id=\"ShyBoy\" target=\"actor\" targetSpec=\"\"}}Pues eso,{{delay8}} que si tienes ocasión de\npedirle un tema,{{delay8}} no la dejes pasar,\n{{string value=\"6\"}}."
  },
  {
    "label": "023",
    "attribute": "0x0000000000000000",
    "text": "{{anim id=\"QuestionMark\" target=\"actor\" targetSpec=\"\"}}Tí{{gender2 m=\"o\" f=\"a\"}},{{delay8}} ¿te suena una canción que se\nllama {{color id=\"1\"}}{{fun_0000007D arg=\"0x0000\"}}{{color id=\"65535\"}}?{{pageBreak}}{{anim id=\"FaintSmile\" target=\"actor\" targetSpec=\"\"}}Es lo último de {{color id=\"3\"}}Totakeke{{color id=\"65535\"}} y,{{delay8}} si no\nresulta un exitazo,{{delay8}} {{anim id=\"Cheering\" target=\"actor\" targetSpec=\"\"}}¡es que la peña\nno tiene orejas!{{pageBreak}}{{anim id=\"Nodding\" target=\"actor\" targetSpec=\"\"}}Si lo pillas por banda,{{delay8}} le tienes que\npedir que la toque.{{delay20}} {{anim id=\"Greeting\" target=\"actor\" targetSpec=\"\"}}¡Es una pasada\natómica, {{string value=\"6\"}}!"
  },
  {
    "label": "100",
    "attribute": "0x0000000000000000",
    "text": "{{anim id=\"Thinking\" target=\"actor\" targetSpec=\"\"}}Antes he visto a alguien por ahí\nque no me sonaba de nada{{string value=\"...\"}}{{delay8}}\n{{anim id=\"TakenAback\" target=\"actor\" targetSpec=\"\"}}¡Qué movida!\n{{anim id=\"SmugFace\" target=\"actor\" targetSpec=\"\"}}Siempre mola ver caretos nuevos\npor aquí. {{delay8}}{{anim id=\"EmotEnd\" target=\"actor\" targetSpec=\"\"}}¡Tenemos que montarle\nun fiestón para que no se marche!"
  }
]