﻿[
  {
    "label": "002",
    "attribute": "0x00000000",
    "text": "{{anim id=\"AbsentMindedness\" target=\"actor\" targetSpec=\"\"}}全部交给{{string value=\"PlayerName\"}}来办，\n就一定会抽中吉签{{string value=\"...\"}}{{delay frames=\"40\"}}\n{{anim id=\"Nodding\" target=\"actor\" targetSpec=\"\"}}那就拜托了。"
  },
  {
    "label": "003",
    "attribute": "0x01000000",
    "text": "{{anim id=\"Thinking\" target=\"actor\" targetSpec=\"\"}}我想想{{string value=\"...\"}}{{delay20}}或许，偶尔也可以试着{{delay20}}\n{{anim id=\"Eh\" target=\"actor\" targetSpec=\"\"}}借助繁星之外的力量，比如你{{string value=\"...\"}}{{delay20}}\n{{anim id=\"FaintSmile\" target=\"actor\" targetSpec=\"\"}}可以请你为我{{delay8}}指引方向吗？"
  },
  {
    "label": "003_01",
    "attribute": "0x00000000",
    "text": "{{anim id=\"FaintSmile\" target=\"actor\" targetSpec=\"\"}}虽然我之前就已经预见\n我会拥有自己的别墅，{{delay20}}\n但没想到会以这样的形式实现{{string value=\"...\"}}"
  },
  {
    "label": "003_03",
    "attribute": "0x00000000",
    "text": "这个方位应该没什么问题。{{delay frames=\"40\"}}\n{{anim id=\"Nodding\" target=\"actor\" targetSpec=\"\"}}拜托就选这里吧。"
  },
  {
    "label": "003_04",
    "attribute": "0x00000000",
    "text": "这也是星辰的指引{{string value=\"...\"}}{{delay20}}\n{{anim id=\"Nodding\" target=\"actor\" targetSpec=\"\"}}拜托你了。"
  },
  {
    "label": "003_a",
    "attribute": "0x00000000",
    "text": "1楼建筑"
  },
  {
    "label": "003_b",
    "attribute": "0x00000000",
    "text": "2楼建筑"
  },
  {
    "label": "004",
    "attribute": "0x00000000",
    "text": "{{anim id=\"Nodding\" target=\"actor\" targetSpec=\"\"}}偶尔用这种方法来做决定\n也不错呢{{string value=\"...\"}}{{delay20}}\n{{anim id=\"FaintSmile\" target=\"actor\" targetSpec=\"\"}}那就选1楼建筑好了{{string value=\"...\"}}"
  },
  {
    "label": "005",
    "attribute": "0x00000000",
    "text": "{{anim id=\"Nodding\" target=\"actor\" targetSpec=\"\"}}偶尔用这种方法来做决定\n也不错呢{{string value=\"...\"}}{{delay20}}\n{{anim id=\"FaintSmile\" target=\"actor\" targetSpec=\"\"}}那就选2楼建筑好了{{string value=\"...\"}}"
  }
]