﻿[
  {
    "label": "001",
    "attribute": "0x04010018",
    "text": "Wat wil je doen?"
  },
  {
    "label": "001_01",
    "attribute": "0x02000018",
    "text": "Wat wil je doen?"
  },
  {
    "label": "001_01_a",
    "attribute": "0x00000000",
    "text": "Iets maken."
  },
  {
    "label": "001_01_b",
    "attribute": "0x00000000",
    "text": "Niks."
  },
  {
    "label": "001_a",
    "attribute": "0x00000000",
    "text": "Iets maken."
  },
  {
    "label": "001_b",
    "attribute": "0x00000000",
    "text": "Iets aanpassen."
  },
  {
    "label": "001_c",
    "attribute": "0x00000000",
    "text": "Niks."
  },
  {
    "label": "002",
    "attribute": "0x00010018",
    "text": "Op deze werkbank kun je\ndoe-het-zelven."
  },
  {
    "label": "011",
    "attribute": "0x02000018",
    "text": "Wat wil je doen op de werkbank\nvan {{color id=\"3\"}}Tom Nook{{color id=\"65535\"}}?"
  },
  {
    "label": "011_01",
    "attribute": "0x04000018",
    "text": "Wat wil je doen op de werkbank\nvan {{color id=\"3\"}}Tom Nook{{color id=\"65535\"}}?"
  },
  {
    "label": "011_01_a",
    "attribute": "0x00000000",
    "text": "{{anim id=\"EmotEnd\" target=\"player\" targetSpec=\"\"}}Iets maken."
  },
  {
    "label": "011_01_b",
    "attribute": "0x00000000",
    "text": "Iets aanpassen."
  },
  {
    "label": "011_01_c",
    "attribute": "0x00000000",
    "text": "{{anim id=\"EmotEnd\" target=\"player\" targetSpec=\"\"}}Niks."
  },
  {
    "label": "011_02",
    "attribute": "0x04000018",
    "text": "Wat wil je doen op de werkbank\nvan {{color id=\"3\"}}Tom Nook{{color id=\"65535\"}}?"
  },
  {
    "label": "011_02_a",
    "attribute": "0x00000000",
    "text": "{{anim id=\"EmotEnd\" target=\"player\" targetSpec=\"\"}}Iets maken."
  },
  {
    "label": "011_02_b",
    "attribute": "0x00000000",
    "text": "De workshop."
  },
  {
    "label": "011_02_c",
    "attribute": "0x00000000",
    "text": "{{anim id=\"EmotEnd\" target=\"player\" targetSpec=\"\"}}Niks."
  },
  {
    "label": "011_a",
    "attribute": "0x00000000",
    "text": "{{anim id=\"EmotEnd\" target=\"player\" targetSpec=\"\"}}Iets maken."
  },
  {
    "label": "011_b",
    "attribute": "0x00000000",
    "text": "{{anim id=\"EmotEnd\" target=\"player\" targetSpec=\"\"}}Niks."
  },
  {
    "label": "021",
    "attribute": "0x04000018",
    "text": "Wat wil je doen op deze werkbank?"
  },
  {
    "label": "021_01",
    "attribute": "0x02000018",
    "text": "Wat wil je doen op deze werkbank?"
  },
  {
    "label": "021_01_a",
    "attribute": "0x00000000",
    "text": "Iets maken."
  },
  {
    "label": "021_01_b",
    "attribute": "0x00000000",
    "text": "Niks."
  },
  {
    "label": "021_a",
    "attribute": "0x00000000",
    "text": "Iets maken."
  },
  {
    "label": "021_b",
    "attribute": "0x00000000",
    "text": "Iets aanpassen."
  },
  {
    "label": "021_c",
    "attribute": "0x00000000",
    "text": "Niks."
  },
  {
    "label": "022",
    "attribute": "0x00000021",
    "text": "{{color id=\"0\"}}Op eilanden van andere spelers\nkun je geen aanpassingen maken\nmet eigen ontwerpen.{{color id=\"65535\"}}"
  },
  {
    "label": "023",
    "attribute": "0x02000021",
    "text": "Wil je je NookPhone verfraaien met\neen {{color id=\"1\"}}Pocket Camp-hoesje{{color id=\"65535\"}}?\n{{color id=\"0\"}}Het hoesje zelf verdwijnt dan.{{color id=\"65535\"}}"
  },
  {
    "label": "023_a",
    "attribute": "0x00000000",
    "text": "Ja, graag!"
  },
  {
    "label": "023_b",
    "attribute": "0x00000000",
    "text": "Niks."
  },
  {
    "label": "024",
    "attribute": "0x02000021",
    "text": "Wil je je NookPhone verfraaien met\neen {{color id=\"1\"}}resortplanbureauhoesje{{color id=\"65535\"}}?\n{{color id=\"0\"}}Het hoesje zelf verdwijnt dan.{{color id=\"65535\"}}"
  },
  {
    "label": "024_a",
    "attribute": "0x00000000",
    "text": "Ja, graag!"
  },
  {
    "label": "024_b",
    "attribute": "0x00000000",
    "text": "Niks."
  },
  {
    "label": "031",
    "attribute": "0x02000018",
    "text": "Je hebt {{wordArticle}}{{fun_0000007D arg=\"0x0000\"}} gemaakt!"
  },
  {
    "label": "031_01",
    "attribute": "0x00000018",
    "text": "Kijk eens wat je hebt gemaakt!\n{{capitalizeNextLetter}}{{wordArticle}}{{fun_0000007D arg=\"0x0000\"}}!"
  },
  {
    "label": "031_a",
    "attribute": "0x00000000",
    "text": "{{anim id=\"EmotEnd\" target=\"actor\" targetSpec=\"\"}}Ik wil nog iets maken!"
  },
  {
    "label": "031_b",
    "attribute": "0x00000000",
    "text": "{{anim id=\"EmotEnd\" target=\"actor\" targetSpec=\"\"}}Ik stop met klussen."
  },
  {
    "label": "032",
    "attribute": "0x02000018",
    "text": "Je hebt je {{fun_00170032 arg=\"0x03CD\"}}{{fun_0000007D arg=\"0x0000\"}} aangepast!"
  },
  {
    "label": "032_01",
    "attribute": "0x00000018",
    "text": "Je hebt je {{fun_00170032 arg=\"0x03CD\"}}{{fun_0000007D arg=\"0x0000\"}} aangepast!"
  },
  {
    "label": "032_a",
    "attribute": "0x00000000",
    "text": "{{anim id=\"EmotEnd\" target=\"actor\" targetSpec=\"\"}}Ik wil nog iets aanpassen!"
  },
  {
    "label": "032_b",
    "attribute": "0x00000000",
    "text": "{{anim id=\"EmotEnd\" target=\"actor\" targetSpec=\"\"}}Ik ga iets anders doen."
  },
  {
    "label": "051",
    "attribute": "0x00000018",
    "text": "Je hebt bezoek, dus je kunt de\nworkshop beter op een ander\nmoment doen."
  }
]