﻿[
  {
    "label": "001_01",
    "attribute": "0x00000000",
    "text": "{{anim id=\"Laughing\" target=\"actor\" targetSpec=\"\"}}네네～! {{delay8}}감사합니다～ 감사합니다～!{{delay frames=\"30\"}}\n어서 {{delay8}}옵쇼～～～～!{{pageBreak}}{{string value=\"...\"}}{{delay8}}{{anim id=\"IdeaBulb\" target=\"actor\" targetSpec=\"\"}}{{delay8}}아니!{{delay frames=\"30\"}}\n손님, {{delay20}}혹시 우리 가게에\n{{anim id=\"QuestionMark\" target=\"actor\" targetSpec=\"\"}}처음 오셨습니까요?{{pageBreak}}{{anim id=\"Nodding\" target=\"actor\" targetSpec=\"\"}}어떻게 {{delay8}}잘도 여기를 찾으셨습니다요?!{{delay frames=\"40\"}}\n{{anim id=\"Smiling\" target=\"actor\" targetSpec=\"\"}}혹시 소개로 오셨습니까?{{pageBreak}}{{anim id=\"HappyFlower\" target=\"actor\" targetSpec=\"\"}}어쨌든! {{delay frames=\"30\"}}잘 오셨습니다!{{delay8}}\n환영합니다요!"
  },
  {
    "label": "001_02",
    "attribute": "0x00000000",
    "text": "{{anim id=\"Nodding\" target=\"actor\" targetSpec=\"\"}}우리 가게는 {{color id=\"1\"}}{{delay8}}여욱 마켓{{color id=\"65535\"}}이라는 곳으로{{delay20}}\n{{anim id=\"Assent\" target=\"actor\" targetSpec=\"\"}}그림과 조각 같은 미술품이나{{delay20}}\n희귀한 가구를 취급하고 있습죠～!{{anim id=\"EmotEnd\" target=\"actor\" targetSpec=\"\"}}{{pageBreak}}{{anim id=\"HappyDance\" target=\"actor\" targetSpec=\"\"}}누구나 다 아는 {{delay8}}유명한 예술 작품이나{{delay20}}\n이 주변에서는 구할 수 없는 {{delay8}}귀한 물품을{{delay20}}\n{{anim id=\"EmotEnd\" target=\"actor\" targetSpec=\"\"}}입이 떡～ 벌어질 가격에 살 수 있는 {{delay8}}{{anim id=\"Grin\" target=\"actor\" targetSpec=\"\"}}찬스입죠!{{pageBreak}}{{anim id=\"EmotEnd\" target=\"actor\" targetSpec=\"\"}}참고로 {{delay20}}{{anim id=\"Worried\" target=\"actor\" targetSpec=\"\"}}미술품은 정말 귀중한 물품이라{{delay20}}\n{{anim id=\"Explain\" target=\"actor\" targetSpec=\"\"}}작품 구입은 한 분당 한 점으로\n제한하고 있습니다요～"
  },
  {
    "label": "001_03",
    "attribute": "0x00000000",
    "text": "{{anim id=\"Smiling\" target=\"actor\" targetSpec=\"\"}}자자!{{delay frames=\"30\"}}\n여러 말 할 것 없이 {{delay8}}일단 둘러보시죠!{{delay20}}\n{{size value=\"75\"}}　　　　　　　　　　　　　　　　　　　　　헷헷헷!{{size value=\"100\"}}"
  },
  {
    "label": "001_04",
    "attribute": "0x00000000",
    "text": "{{anim id=\"Laughing\" target=\"actor\" targetSpec=\"\"}}네네～! {{delay8}}감사합니다～ 감사합니다～!{{delay frames=\"30\"}}\n어서 {{delay8}}옵쇼～～～～!{{pageBreak}}{{delay8}}{{anim id=\"IdeaBulb\" target=\"actor\" targetSpec=\"\"}}{{delay8}}아니!{{delay frames=\"30\"}} 손님, {{delay20}}혹시 우리 노점에\n{{anim id=\"QuestionMark\" target=\"actor\" targetSpec=\"\"}}오셨던 분 아니십니까요?{{pageBreak}}{{anim id=\"Nodding\" target=\"actor\" targetSpec=\"\"}}어떻게 {{delay8}}잘도 여기를 찾으셨습니다요?!{{delay frames=\"40\"}}\n{{anim id=\"Smiling\" target=\"actor\" targetSpec=\"\"}}혹시 소개로 오셨습니까?{{pageBreak}}{{anim id=\"HappyFlower\" target=\"actor\" targetSpec=\"\"}}어쨌든! {{delay frames=\"30\"}}잘 오셨습니다!{{delay8}}\n환영합니다요!"
  },
  {
    "label": "002",
    "attribute": "0x00000000",
    "text": "{{anim id=\"Aha\" target=\"actor\" targetSpec=\"\"}}오옷! {{delay20}}{{string value=\"PlayerName\"}}님!{{delay frames=\"40\"}}\n{{anim id=\"Laughing\" target=\"actor\" targetSpec=\"\"}}찾아주셨네요!{{delay20}}\n기다리고 있었습니다요～～～!{{pageBreak}}{{anim id=\"ShyBoy\" target=\"actor\" targetSpec=\"\"}}그나저나 이것 참 죄송하게 됐습니다요!{{delay20}}\n이런 곳으로 부르고 말입죠!{{pageBreak}}{{anim id=\"Smiling\" target=\"actor\" targetSpec=\"\"}}아무튼 {{delay20}}일단 가볍게 우리 가게에 대해서{{delay8}}\n말씀드릴까 합니다요!"
  },
  {
    "label": "003",
    "attribute": "0x00000000",
    "text": "{{anim id=\"Aha\" target=\"actor\" targetSpec=\"\"}}아이고!{{delay frames=\"30\"}}\n이게 누구야, {{delay20}}{{anim id=\"Smiling\" target=\"actor\" targetSpec=\"\"}}오셨습니까요～!{{pageBreak}}{{anim id=\"Laughing\" target=\"actor\" targetSpec=\"\"}}이야～ {{delay8}}감사합니다～!{{delay frames=\"40\"}}\n우리 가게에 대해서 {{delay8}}말씀을 못 드려서{{delay20}}\n어찌나 찝찝하던지요～!{{pageBreak}}{{anim id=\"HappyFlower\" target=\"actor\" targetSpec=\"\"}}그런데 직접 {{delay8}}여기를 찾아오시다니{{delay20}}\n역시 {{delay8}}제 눈은 틀리지 않았습니다요!"
  },
  {
    "label": "004",
    "attribute": "0x00000000",
    "text": "{{anim id=\"Aha\" target=\"actor\" targetSpec=\"\"}}아앗! {{delay frames=\"30\"}}{{anim id=\"Laughing\" target=\"actor\" targetSpec=\"\"}}감사합니다～ 감사합니다～!!{{delay20}}\n손님은 지난번에 뵈었던 그{{string value=\"...\"}}!{{pageBreak}}{{anim id=\"HappyFlower\" target=\"actor\" targetSpec=\"\"}}지난번엔 작품을 구입해주셔서{{delay20}}\n진심으로 {{delay8}}감사했습니다요～!"
  },
  {
    "label": "005",
    "attribute": "0x00000000",
    "text": "{{anim id=\"Aha\" target=\"actor\" targetSpec=\"\"}}아이고! {{delay20}}손님은 지난번에 뵈었던 그{{string value=\"...\"}}!{{delay frames=\"40\"}}\n{{anim id=\"Laughing\" target=\"actor\" targetSpec=\"\"}}지난번엔 감사했습니다요～!"
  },
  {
    "label": "006_01",
    "attribute": "0x00000000",
    "text": "실은 말입니다{{delay20}}\n{{anim id=\"Grin\" target=\"actor\" targetSpec=\"\"}}이 {{string value=\"33\"}}{{gender5 m=\"이\" f=\"가\"}}\n제 마음에 쏙 들고 말았습니다요!{{pageBreak}}{{anim id=\"Nodding\" target=\"actor\" targetSpec=\"\"}}여기는 다들 사람도 좋고{{delay20}}\n{{anim id=\"FaintSmile\" target=\"actor\" targetSpec=\"\"}}마음도 편해서{{delay20}} {{anim id=\"Love\" target=\"actor\" targetSpec=\"\"}}장사하기에\n더없이 좋은 땅이지 뭡니까요～{{pageBreak}}{{anim id=\"Explain\" target=\"actor\" targetSpec=\"\"}}그래서 {{delay20}}좋은 상품이 들어오면\n배로 {{delay8}}조심～ 조심～ 운반해서{{delay20}}\n{{anim id=\"BigSmile\" target=\"actor\" targetSpec=\"\"}}아주 저～렴하게 제공하기로 결심했습니다요!"
  },
  {
    "label": "006_02",
    "attribute": "0x00000000",
    "text": "{{anim id=\"Nodding\" target=\"actor\" targetSpec=\"\"}}우리 가게는 {{color id=\"1\"}}{{delay8}}여욱 마켓{{color id=\"65535\"}}이라는 곳으로{{delay20}}\n{{anim id=\"Assent\" target=\"actor\" targetSpec=\"\"}}그림과 조각 같은 미술품이나{{delay20}}\n희귀한 가구를 취급하고 있습죠～!{{anim id=\"EmotEnd\" target=\"actor\" targetSpec=\"\"}}{{pageBreak}}{{anim id=\"HappyDance\" target=\"actor\" targetSpec=\"\"}}누구나 다 아는 {{delay8}}유명한 예술 작품이나{{delay20}}\n이 주변에서는 구할 수 없는 {{delay8}}귀한 물품에{{delay20}}\n{{anim id=\"EmotEnd\" target=\"actor\" targetSpec=\"\"}}분명히 {{delay8}}{{anim id=\"Grin\" target=\"actor\" targetSpec=\"\"}}만족하실 겁니다요!{{pageBreak}}{{anim id=\"EmotEnd\" target=\"actor\" targetSpec=\"\"}}참고로 {{delay20}}{{anim id=\"Worried\" target=\"actor\" targetSpec=\"\"}}미술품은 정말 귀중한 물품이라{{delay20}}\n{{anim id=\"Explain\" target=\"actor\" targetSpec=\"\"}}작품 구입은 한 분당 한 점으로\n제한하고 있습니다요～"
  },
  {
    "label": "007",
    "attribute": "0x00000000",
    "text": "{{anim id=\"Smiling\" target=\"actor\" targetSpec=\"\"}}자자!{{delay frames=\"30\"}}\n여러 말 할 것 없이 {{delay8}}일단 둘러보시죠!{{delay20}}\n{{size value=\"75\"}}　　　　　　　　　　　　　　　　　　　　　헷헷헷!{{size value=\"100\"}}"
  },
  {
    "label": "008",
    "attribute": "0x00000000",
    "text": "{{anim id=\"Smiling\" target=\"actor\" targetSpec=\"\"}}예! 예!{{delay frames=\"30\"}}\n그 상품은{{string value=\"...\"}} {{delay20}}{{anim id=\"Eh\" target=\"actor\" targetSpec=\"\"}}아니?!"
  },
  {
    "label": "009",
    "attribute": "0x00000000",
    "text": "손님, {{delay20}}혹시 우리 가게에\n{{anim id=\"QuestionMark\" target=\"actor\" targetSpec=\"\"}}처음 오셨습니까요?{{pageBreak}}{{anim id=\"Laughing\" target=\"actor\" targetSpec=\"\"}}이야～ {{delay20}}잘 오셨습니다!{{delay frames=\"40\"}}\n그럼 {{delay20}}일단 가볍게 우리 가게에 대해서{{delay8}}\n말씀드릴까 합니다요!"
  },
  {
    "label": "009_01",
    "attribute": "0x00000000",
    "text": "손님 혹시,{{delay20}}\n광장에서 노점을 열었을 때\n{{anim id=\"QuestionMark\" target=\"actor\" targetSpec=\"\"}}와주셨던 분 아니십니까요?{{pageBreak}}{{anim id=\"Laughing\" target=\"actor\" targetSpec=\"\"}}이야～ {{delay20}}잘 오셨습니다!{{delay frames=\"40\"}}\n그럼 {{delay20}}일단 가볍게 우리 가게에 대해서{{delay8}}\n말씀드릴까 합니다요!"
  },
  {
    "label": "010",
    "attribute": "0x00000000",
    "text": "{{anim id=\"Nodding\" target=\"actor\" targetSpec=\"\"}}우리 가게는 {{color id=\"1\"}}{{delay8}}여욱 마켓{{color id=\"65535\"}}이라는 곳으로{{delay20}}\n{{anim id=\"Assent\" target=\"actor\" targetSpec=\"\"}}그림과 조각 같은 미술품이나{{delay20}}\n희귀한 가구를 취급하고 있습죠～!{{anim id=\"EmotEnd\" target=\"actor\" targetSpec=\"\"}}{{pageBreak}}{{anim id=\"HappyDance\" target=\"actor\" targetSpec=\"\"}}누구나 다 아는 {{delay8}}유명한 예술 작품이나{{delay20}}\n이 주변에서는 구할 수 없는 {{delay8}}귀한 물품을{{delay20}}\n{{anim id=\"EmotEnd\" target=\"actor\" targetSpec=\"\"}}입이 떡～ 벌어질 가격에 살 수 있는 {{delay8}}{{anim id=\"Grin\" target=\"actor\" targetSpec=\"\"}}찬스입죠!{{pageBreak}}{{anim id=\"EmotEnd\" target=\"actor\" targetSpec=\"\"}}참고로 {{delay20}}{{anim id=\"Worried\" target=\"actor\" targetSpec=\"\"}}미술품은 정말 귀중한 물품이라{{delay20}}\n{{anim id=\"Explain\" target=\"actor\" targetSpec=\"\"}}작품 구입은 한 분당 한 점으로\n제한하고 있습니다요～"
  },
  {
    "label": "011",
    "attribute": "0x00000000",
    "text": "{{anim id=\"Laughing\" target=\"actor\" targetSpec=\"\"}}이거 이거,{{delay8}}\n{{string value=\"PlayerName\"}}님 아니십니까～!{{delay frames=\"40\"}}\n이야～ {{delay20}}잘 오셨습니다!"
  },
  {
    "label": "012",
    "attribute": "0x00000000",
    "text": "실은 말입니다{{delay20}}\n{{anim id=\"Grin\" target=\"actor\" targetSpec=\"\"}}이 {{string value=\"33\"}}{{gender5 m=\"이\" f=\"가\"}}\n제 마음에 쏙 들고 말았습니다요!{{pageBreak}}{{anim id=\"Nodding\" target=\"actor\" targetSpec=\"\"}}여기는 다들 사람도 좋고{{delay20}}\n{{anim id=\"FaintSmile\" target=\"actor\" targetSpec=\"\"}}마음도 편해서{{delay20}} {{anim id=\"Love\" target=\"actor\" targetSpec=\"\"}}장사하기에\n더없이 좋은 땅이지 뭡니까요～{{pageBreak}}{{anim id=\"Explain\" target=\"actor\" targetSpec=\"\"}}그래서 {{delay20}}좋은 상품이 들어오면\n배로 {{delay8}}조심～ 조심～ 운반해서{{delay20}}\n{{anim id=\"BigSmile\" target=\"actor\" targetSpec=\"\"}}아주 저～렴하게 제공하기로 결심했습니다요!"
  },
  {
    "label": "013",
    "attribute": "0x00000000",
    "text": "{{anim id=\"Nodding\" target=\"actor\" targetSpec=\"\"}}우리 가게는 {{color id=\"1\"}}{{delay8}}여욱 마켓{{color id=\"65535\"}}이라는 곳으로{{delay20}}\n{{anim id=\"Assent\" target=\"actor\" targetSpec=\"\"}}그림과 조각 같은 미술품이나{{delay20}}\n희귀한 가구를 취급하고 있습죠～!{{anim id=\"EmotEnd\" target=\"actor\" targetSpec=\"\"}}{{pageBreak}}{{anim id=\"HappyDance\" target=\"actor\" targetSpec=\"\"}}누구나 다 아는 {{delay8}}유명한 예술 작품이나{{delay20}}\n이 주변에서는 구할 수 없는 {{delay8}}귀한 물품에{{delay20}}\n{{anim id=\"EmotEnd\" target=\"actor\" targetSpec=\"\"}}분명히 {{delay8}}{{anim id=\"Grin\" target=\"actor\" targetSpec=\"\"}}만족하실 겁니다요!{{pageBreak}}{{anim id=\"EmotEnd\" target=\"actor\" targetSpec=\"\"}}참고로 {{delay20}}{{anim id=\"Worried\" target=\"actor\" targetSpec=\"\"}}미술품은 정말 귀중한 물품이라{{delay20}}\n{{anim id=\"Explain\" target=\"actor\" targetSpec=\"\"}}작품 구입은 한 분당 한 점으로\n제한하고 있습니다요～"
  },
  {
    "label": "014",
    "attribute": "0x00000000",
    "text": "{{anim id=\"Smiling\" target=\"actor\" targetSpec=\"\"}}뭐, {{delay20}}이 정도입니다요!{{delay frames=\"40\"}}\n{{anim id=\"BigSmile\" target=\"actor\" targetSpec=\"\"}}그래서! {{delay frames=\"30\"}}손님은 {{delay20}}벌써 이 상품에\n{{anim id=\"Grin\" target=\"actor\" targetSpec=\"\"}}눈이 가시는가 봅니다요?!"
  },
  {
    "label": "021",
    "attribute": "0x00000000",
    "text": "{{anim id=\"Laughing\" target=\"actor\" targetSpec=\"\"}}앗! {{delay8}}감사합니다～ 감사합니다～!{{delay20}}\n{{anim id=\"HappyFlower\" target=\"actor\" targetSpec=\"\"}}어서 옵쇼～～～～!{{pageBreak}}{{anim id=\"Smiling\" target=\"actor\" targetSpec=\"\"}}이야～!{{delay20}}\n손님, {{delay8}}또 찾아주셨군요～!"
  },
  {
    "label": "022",
    "attribute": "0x00000000",
    "text": "{{anim id=\"Explain\" target=\"actor\" targetSpec=\"\"}}자자, {{delay8}}둘러보시죠～!{{delay frames=\"30\"}}\n동서고금 통틀어 귀한 것만 골라 왔습니다요～!{{pageBreak}}{{anim id=\"ShyBoy\" target=\"actor\" targetSpec=\"\"}}미술품의 구입은{{delay20}}\n한 분당 {{delay8}}한 점으로 제한하고 있으니까{{delay20}}\n{{anim id=\"EmotEnd\" target=\"actor\" targetSpec=\"\"}}신중한 선택을 {{anim id=\"Grin\" target=\"actor\" targetSpec=\"\"}}부탁드립니다요!"
  },
  {
    "label": "023",
    "attribute": "0x00000000",
    "text": "{{anim id=\"HappyDance\" target=\"actor\" targetSpec=\"\"}}이 보십쇼! {{delay20}}오늘은 미술품이 엄청난 인기입니다!{{delay frames=\"40\"}}\n{{anim id=\"EmotEnd\" target=\"actor\" targetSpec=\"\"}}남은 작품이 얼마 없어서{{delay20}}\n{{anim id=\"Greeting\" target=\"actor\" targetSpec=\"\"}}빨리 사는 사람이 임자입니다요～!"
  },
  {
    "label": "024",
    "attribute": "0x00000000",
    "text": "{{anim id=\"Nodding\" target=\"actor\" targetSpec=\"\"}}오늘은 이제 {{delay8}}미술품을 구입하실 수 없지만{{delay20}}\n{{anim id=\"FaintSmile\" target=\"actor\" targetSpec=\"\"}}귀～한 가구가 아직 남아 있으니까{{delay20}}\n{{anim id=\"Grin\" target=\"actor\" targetSpec=\"\"}}찬～찬히 둘러보시죠!"
  },
  {
    "label": "051",
    "attribute": "0x00000000",
    "text": "{{anim id=\"Smiling\" target=\"actor\" targetSpec=\"\"}}안녕히 가십쇼～!{{anim id=\"EmotEnd\" target=\"actor\" targetSpec=\"\"}}{{i10_7 arg=\"90\"}}"
  },
  {
    "label": "052",
    "attribute": "0x00000000",
    "text": "{{anim id=\"Smiling\" target=\"actor\" targetSpec=\"\"}}다음에 또{{delay20}}\n뵙겠습니다요～～～!{{anim id=\"EmotEnd\" target=\"actor\" targetSpec=\"\"}}{{i10_7 arg=\"90\"}}"
  },
  {
    "label": "053",
    "attribute": "0x00000000",
    "text": "{{string value=\"...\"}}살펴 {{size value=\"75\"}}가십쇼～{{size value=\"100\"}}{{anim id=\"EmotEnd\" target=\"actor\" targetSpec=\"\"}}{{i10_7 arg=\"90\"}}"
  },
  {
    "label": "101",
    "attribute": "0x04000000",
    "text": "{{anim id=\"Aha\" target=\"actor\" targetSpec=\"\"}}어어!{{delay frames=\"30\"}}\n{{anim id=\"Smiling\" target=\"actor\" targetSpec=\"\"}}손님, {{delay20}}미술품을 좀 보시렵니까～?{{pageBreak}}그 {{fun_0000007D arg=\"0x0000\"}} 하면{{delay8}}\n제가 제일로 추천하는 물건입니다요～{{delay frames=\"40\"}}\n{{anim id=\"Love\" target=\"actor\" targetSpec=\"\"}}누가 뭐래도 {{delay8}}오라가 다르지 않습니까!{{pageBreak}}{{anim id=\"Explain\" target=\"actor\" targetSpec=\"\"}}그만～한 명작이 {{delay8}}얼마나 할 것 같으십니까?{{delay frames=\"40\"}}\n{{string value=\"...\"}}{{delay20}}{{anim id=\"ShyBoy\" target=\"actor\" targetSpec=\"\"}}하핫～ {{delay20}}듣고 놀라지 마십쇼～{{pageBreak}}{{anim id=\"EmotEnd\" target=\"actor\" targetSpec=\"\"}}손님한테만 말씀드리는 건데, {{delay20}}지금 사시면\n{{anim id=\"Grin\" target=\"actor\" targetSpec=\"\"}}따{{delay8}}악 {{number value=\"21\" index=\"0\"}}만 받겠습니다요～{{delay frames=\"40\"}}\n{{anim id=\"Smiling\" target=\"actor\" targetSpec=\"\"}}자, {{delay20}}어떠십니까 손님～?"
  },
  {
    "label": "101_a",
    "attribute": "0x00000000",
    "text": "{{anim id=\"Nodding\" target=\"actor\" targetSpec=\"\"}}살래!"
  },
  {
    "label": "101_b",
    "attribute": "0x00000000",
    "text": "자세히 볼래"
  },
  {
    "label": "101_c",
    "attribute": "0x00000000",
    "text": "{{anim id=\"Negative\" target=\"actor\" targetSpec=\"\"}}그만둘래"
  },
  {
    "label": "102",
    "attribute": "0x04000000",
    "text": "{{anim id=\"Shocked\" target=\"actor\" targetSpec=\"\"}}오오!{{delay frames=\"30\"}}\n{{fun_0000007D arg=\"0x0000\"}}에도{{delay8}}\n{{anim id=\"QuestionMark\" target=\"actor\" targetSpec=\"\"}}관심이 가시는가 봅니다?{{pageBreak}}{{anim id=\"Smiling\" target=\"actor\" targetSpec=\"\"}}역～시 손님! {{delay8}}보는 눈이 있으십니다요!{{delay frames=\"40\"}}\n{{anim id=\"Scheming\" target=\"actor\" targetSpec=\"\"}}그건 {{delay20}}아는 사람만 아는{{delay8}} 환상의 작품입죠～{{pageBreak}}{{anim id=\"EmotEnd\" target=\"actor\" targetSpec=\"\"}}이 작품은 {{delay8}}{{anim id=\"Explain\" target=\"actor\" targetSpec=\"\"}}{{number value=\"21\" index=\"0\"}}에\n판매하고 있는데 말입죠{{string value=\"...\"}}{{pageBreak}}{{anim id=\"Surprised\" target=\"actor\" targetSpec=\"\"}}어어! {{delay20}}아이쿠!{{delay frames=\"40\"}}\n{{anim id=\"Frantic\" target=\"actor\" targetSpec=\"\"}}잘못해서 {{delay8}}너무 싸게 불렀네～!{{delay20}}{{anim id=\"Grin\" target=\"actor\" targetSpec=\"\"}}"
  },
  {
    "label": "102_a",
    "attribute": "0x00000000",
    "text": "{{anim id=\"Nodding\" target=\"actor\" targetSpec=\"\"}}살래!"
  },
  {
    "label": "102_b",
    "attribute": "0x00000000",
    "text": "자세히 볼래"
  },
  {
    "label": "102_c",
    "attribute": "0x00000000",
    "text": "{{anim id=\"Negative\" target=\"actor\" targetSpec=\"\"}}그만둘래"
  },
  {
    "label": "103",
    "attribute": "0x04000000",
    "text": "{{anim id=\"TakenAback\" target=\"actor\" targetSpec=\"\"}}우왓!{{delay frames=\"30\"}}\n{{fun_0000007D arg=\"0x0000\"}}에도\n{{anim id=\"Silent\" target=\"actor\" targetSpec=\"\"}}관심이 가십니까요?!{{pageBreak}}{{anim id=\"ShyBoy\" target=\"actor\" targetSpec=\"\"}}이것 참, {{delay20}}손님은 못 당하겠습니다{{string value=\"...\"}}{{delay frames=\"30\"}}\n{{anim id=\"OhGeez\" target=\"actor\" targetSpec=\"\"}}정말 {{delay8}}보통 안목이 아니시구만요{{string value=\"...\"}}{{pageBreak}}{{anim id=\"Explain\" target=\"actor\" targetSpec=\"\"}}그건 오직 {{delay20}}작품의 진가를\n알아보시는 분에게만 팔겠다고 다짐한{{delay20}}\n{{anim id=\"Nodding\" target=\"actor\" targetSpec=\"\"}}명품 중의 {{delay8}}명품입니다요!{{pageBreak}}하지만 {{delay20}}{{anim id=\"Negative\" target=\"actor\" targetSpec=\"\"}}손님 같은 분이시라면 문제없죠!{{delay frames=\"40\"}}\n{{anim id=\"Greeting\" target=\"actor\" targetSpec=\"\"}}특별 가격 {{number value=\"21\" index=\"0\"}}에 {{delay8}}모시겠습니다요～!"
  },
  {
    "label": "103_a",
    "attribute": "0x00000000",
    "text": "{{anim id=\"Nodding\" target=\"actor\" targetSpec=\"\"}}살래!"
  },
  {
    "label": "103_b",
    "attribute": "0x00000000",
    "text": "자세히 볼래"
  },
  {
    "label": "103_c",
    "attribute": "0x00000000",
    "text": "{{anim id=\"Negative\" target=\"actor\" targetSpec=\"\"}}그만둘래"
  },
  {
    "label": "104",
    "attribute": "0x04000000",
    "text": "{{anim id=\"Surprised\" target=\"actor\" targetSpec=\"\"}}어라라!{{delay frames=\"40\"}}\n마침내 {{anim id=\"Oops\" target=\"actor\" targetSpec=\"\"}}{{fun_0000007D arg=\"0x0000\"}}{{gender5 m=\"을\" f=\"를\"}}{{delay8}}\n발견하시고 말았군요!{{pageBreak}}{{anim id=\"Sighing\" target=\"actor\" targetSpec=\"\"}}그 작품, {{delay20}}제 손에 들이기까지\n얼마나 고생을 했는지 모릅니다요{{string value=\"...\"}}{{pageBreak}}{{anim id=\"Thinking\" target=\"actor\" targetSpec=\"\"}}떠나보내는 게 아쉽지 않다고 하면은{{delay8}}\n그야 당연히 거짓말이 되겠지요!{{delay frames=\"30\"}}\n{{anim id=\"EmotEnd\" target=\"actor\" targetSpec=\"\"}}그치만 이제 저도 {{delay8}}{{anim id=\"Nodding\" target=\"actor\" targetSpec=\"\"}}각오를 해야겠습니다요!\n{{anim id=\"Pardon\" target=\"actor\" targetSpec=\"\"}}우리 가게에 {{delay8}}다시 없을 대박 서비스!{{delay frames=\"40\"}}\n{{anim id=\"Grin\" target=\"actor\" targetSpec=\"\"}}거저나 다름없습니다!\n{{number value=\"21\" index=\"0\"}}에 {{delay8}}가져가십쇼!"
  },
  {
    "label": "104_a",
    "attribute": "0x00000000",
    "text": "{{anim id=\"Nodding\" target=\"actor\" targetSpec=\"\"}}살래!"
  },
  {
    "label": "104_b",
    "attribute": "0x00000000",
    "text": "자세히 볼래"
  },
  {
    "label": "104_c",
    "attribute": "0x00000000",
    "text": "{{anim id=\"Negative\" target=\"actor\" targetSpec=\"\"}}그만둘래"
  },
  {
    "label": "105",
    "attribute": "0x04000000",
    "text": "{{anim id=\"Shocked\" target=\"actor\" targetSpec=\"\"}}어라랏?! {{delay frames=\"30\"}}{{anim id=\"Smiling\" target=\"actor\" targetSpec=\"\"}}손님～{{delay20}}\n역시 {{fun_0000007D arg=\"0x0000\"}}{{gender5 m=\"이\" f=\"가\"}}\n신경 쓰이십니까요～?{{pageBreak}}{{anim id=\"Explain\" target=\"actor\" targetSpec=\"\"}}갖고 싶은 건 {{delay20}}갖고 싶다는 생각이 들었을 때{{delay8}}\n사는 게 제일 좋습니다요～{{delay frames=\"40\"}}\n{{anim id=\"EmotEnd\" target=\"actor\" targetSpec=\"\"}}제가 하는 말이 아니라 {{delay8}}{{anim id=\"Nodding\" target=\"actor\" targetSpec=\"\"}}다들 그러지 않습니까!{{pageBreak}}{{anim id=\"Smiling\" target=\"actor\" targetSpec=\"\"}}이런 명작이 단돈 {{number value=\"21\" index=\"0\"}}일 땐{{delay20}}\n고민하는 게 사치라니까요～{{delay frames=\"40\"}}\n{{anim id=\"Grin\" target=\"actor\" targetSpec=\"\"}}이쯤에서 결정을 하십시다!"
  },
  {
    "label": "105_a",
    "attribute": "0x00000000",
    "text": "{{anim id=\"Nodding\" target=\"actor\" targetSpec=\"\"}}살래!"
  },
  {
    "label": "105_b",
    "attribute": "0x00000000",
    "text": "자세히 볼래"
  },
  {
    "label": "105_c",
    "attribute": "0x00000000",
    "text": "{{anim id=\"Negative\" target=\"actor\" targetSpec=\"\"}}그만둘래"
  },
  {
    "label": "106",
    "attribute": "0x04000000",
    "text": "{{anim id=\"FaintSmile\" target=\"actor\" targetSpec=\"\"}}이 {{fun_0000007D arg=\"0x0000\"}}에는{{delay8}}\n엄～청난 가치가 있습죠～!{{delay frames=\"40\"}}\n{{anim id=\"Scheming\" target=\"actor\" targetSpec=\"\"}}손님, {{delay20}}정말 보는 눈이 있으십니다요!{{pageBreak}}{{anim id=\"Smiling\" target=\"actor\" targetSpec=\"\"}}제일 중요한 가격은 말입니다!{{delay8}}\n단돈 {{number value=\"21\" index=\"0\"}}!{{delay frames=\"40\"}} 어떻습니까요?"
  },
  {
    "label": "106_a",
    "attribute": "0x00000000",
    "text": "{{anim id=\"Nodding\" target=\"actor\" targetSpec=\"\"}}살래!"
  },
  {
    "label": "106_b",
    "attribute": "0x00000000",
    "text": "자세히 볼래"
  },
  {
    "label": "106_c",
    "attribute": "0x00000000",
    "text": "{{anim id=\"Negative\" target=\"actor\" targetSpec=\"\"}}그만둘래"
  },
  {
    "label": "107",
    "attribute": "0x02000000",
    "text": "{{anim id=\"QuestionMark\" target=\"actor\" targetSpec=\"\"}}어떠셨나요?{{delay frames=\"40\"}}\n작품에 담긴 작가의 마음 {{delay8}}같은 게\n{{anim id=\"Nodding\" target=\"actor\" targetSpec=\"\"}}막～ 전해져 오지 않습니까?{{pageBreak}}{{anim id=\"Smiling\" target=\"actor\" targetSpec=\"\"}}그런 작품이 {{delay8}}단돈 {{number value=\"21\" index=\"0\"}}!{{delay frames=\"40\"}}\n이런 기회는 왔을 때 {{anim id=\"Pardon\" target=\"actor\" targetSpec=\"\"}}잡는 겁니다요～!"
  },
  {
    "label": "107_a",
    "attribute": "0x00000000",
    "text": "살래!"
  },
  {
    "label": "107_b",
    "attribute": "0x00000000",
    "text": "생각해볼게"
  },
  {
    "label": "108",
    "attribute": "0x00000000",
    "text": "{{anim id=\"Worried\" target=\"actor\" targetSpec=\"\"}}아이쿠, {{delay20}}그러시군요{{string value=\"...\"}}{{delay frames=\"40\"}}\n{{anim id=\"Smiling\" target=\"actor\" targetSpec=\"\"}}예예, 뭐 {{delay20}}다른 작품들도 찬찬～히 보시고\n결정하셔도 됩니다요!"
  },
  {
    "label": "109",
    "attribute": "0x00000000",
    "text": "{{anim id=\"TakenAback\" target=\"actor\" targetSpec=\"\"}}예에～?! {{delay20}}이리 아까울 데가{{string value=\"...\"}}!{{i10_4}}\n{{anim id=\"Worried\" target=\"actor\" targetSpec=\"\"}}이런 작품은 {{delay20}}오늘 놓치면\n언제 다시 만날지 {{anim id=\"Negative\" target=\"actor\" targetSpec=\"\"}}기약이 없습니다요!"
  },
  {
    "label": "110",
    "attribute": "0x00000000",
    "text": "{{anim id=\"BigSmile\" target=\"actor\" targetSpec=\"\"}}오옷! {{delay8}}잘 생각하셨습니다!{{pageBreak}}{{string value=\"...\"}}{{delay20}}{{anim id=\"TakenAback\" target=\"actor\" targetSpec=\"\"}}근데 손님,{{delay frames=\"30\"}}\n돈이 {{delay20}}{{anim id=\"Silent\" target=\"actor\" targetSpec=\"\"}}없으신 것 같은데 맞습니까요?{{pageBreak}}{{anim id=\"OhGeez\" target=\"actor\" targetSpec=\"\"}}아이구 정말～!{{delay frames=\"30\"}}\n장난도 심하시지～!"
  },
  {
    "label": "111",
    "attribute": "0x00000000",
    "text": "{{anim id=\"HappyDance\" target=\"actor\" targetSpec=\"\"}}감사합니다～!{{delay frames=\"30\"}}\n그럼 {{delay8}}대금 먼저 받겠습니다요～!"
  },
  {
    "label": "112",
    "attribute": "0x00000000",
    "text": "{{anim id=\"Nodding\" target=\"actor\" targetSpec=\"\"}}예예, {{delay8}}잘 받았습니다!{{delay frames=\"40\"}}\n{{anim id=\"Smiling\" target=\"actor\" targetSpec=\"\"}}이제 {{fun_0000007D arg=\"0x0000\"}}{{gender5 m=\"은\" f=\"는\"}}{{delay20}}\n누가 뭐래도 손님 물건입니다요!"
  },
  {
    "label": "113",
    "attribute": "0x00000000",
    "text": "{{anim id=\"Explain\" target=\"actor\" targetSpec=\"\"}}작품은 {{delay8}}나중에 자～알 포장해서\n댁으로 보내드릴 테니까{{delay20}}\n{{anim id=\"Smiling\" target=\"actor\" targetSpec=\"\"}}조금만 기다려주시면 감사하겠습니다요!{{pageBreak}}{{anim id=\"Laughing\" target=\"actor\" targetSpec=\"\"}}구매 감사드립니다요～～～!"
  },
  {
    "label": "120",
    "attribute": "0x02000000",
    "text": "{{anim id=\"Smiling\" target=\"actor\" targetSpec=\"\"}}그 {{fun_0000007D arg=\"0x0000\"}}{{gender5 m=\"은\" f=\"는\"}}{{delay20}}\n내일 아침에 도착하도록 준비할 테니까요{{delay8}}\n쬐～끔만 기다려주시면 고맙겠습니다!{{pageBreak}}{{anim id=\"AbsentMindedness\" target=\"actor\" targetSpec=\"\"}}캬아～ {{delay8}}그나저나{{delay20}}\n몇 번을 봐도 훌륭한 작품입니다요{{string value=\"...\"}}{{pageBreak}}{{anim id=\"EmotEnd\" target=\"actor\" targetSpec=\"\"}}조금 더 {{anim id=\"QuestionMark\" target=\"actor\" targetSpec=\"\"}}보고 가시렵니까?"
  },
  {
    "label": "120_a",
    "attribute": "0x00000000",
    "text": "볼래!"
  },
  {
    "label": "120_b",
    "attribute": "0x00000000",
    "text": "괜찮아"
  },
  {
    "label": "121",
    "attribute": "0x02000000",
    "text": "{{anim id=\"Explain\" target=\"actor\" targetSpec=\"\"}}그 {{fun_0000007D arg=\"0x0000\"}}{{gender5 m=\"은\" f=\"는\"}}{{delay20}}\n이 {{string value=\"32\"}}의 {{selection value=\"SelectedName\"}}님이\n이미 구입하셨습니다요{{pageBreak}}{{anim id=\"FaintSmile\" target=\"actor\" targetSpec=\"\"}}{{string value=\"33\"}} 분들은 {{delay20}}{{anim id=\"Scheming\" target=\"actor\" targetSpec=\"\"}}참말로\n다들 보는 눈들이 있으시구만요{{string value=\"...\"}}{{i10_4}}\n{{anim id=\"EmotEnd\" target=\"actor\" targetSpec=\"\"}}한번 {{delay20}}{{anim id=\"QuestionMark\" target=\"actor\" targetSpec=\"\"}}보기나 하시렵니까요?"
  },
  {
    "label": "121_a",
    "attribute": "0x00000000",
    "text": "볼래!"
  },
  {
    "label": "121_b",
    "attribute": "0x00000000",
    "text": "괜찮아"
  },
  {
    "label": "122",
    "attribute": "0x02000000",
    "text": "{{anim id=\"Explain\" target=\"actor\" targetSpec=\"\"}}그 {{fun_0000007D arg=\"0x0000\"}}{{gender5 m=\"은\" f=\"는\"}}{{delay20}}\n{{selection value=\"5\"}}에서 오신\n{{selection value=\"SelectedName\"}}님이 구입하셨습니다요{{pageBreak}}{{anim id=\"EmotEnd\" target=\"actor\" targetSpec=\"\"}}제가 그분을 뵙고 느낀 점은{{delay20}}\n{{anim id=\"Scheming\" target=\"actor\" targetSpec=\"\"}}보통 안목이 아니시라는 겁니다요{{string value=\"...\"}}{{i10_4}}\n{{anim id=\"EmotEnd\" target=\"actor\" targetSpec=\"\"}}어디, 그래도 한번 {{delay20}}{{anim id=\"QuestionMark\" target=\"actor\" targetSpec=\"\"}}보기나 하시렵니까요?"
  },
  {
    "label": "122_a",
    "attribute": "0x00000000",
    "text": "볼래!"
  },
  {
    "label": "122_b",
    "attribute": "0x00000000",
    "text": "괜찮아"
  },
  {
    "label": "123",
    "attribute": "0x02000000",
    "text": "{{anim id=\"Shocked\" target=\"actor\" targetSpec=\"\"}}어이쿠, {{delay frames=\"30\"}}손님!{{delay20}}\n{{anim id=\"Grin\" target=\"actor\" targetSpec=\"\"}}{{fun_0000007D arg=\"0x0000\"}}의 매력에\n빠져버리셨습니까요?{{pageBreak}}{{anim id=\"ShyBoy\" target=\"actor\" targetSpec=\"\"}}그치만 {{delay20}}미술품은{{delay8}}\n한 분당 한 점만 구입하실 수 있습니다요{{string value=\"...\"}}{{delay20}}\n{{anim id=\"Nodding\" target=\"actor\" targetSpec=\"\"}}오늘은 {{delay8}}감상만 해주십쇼!"
  },
  {
    "label": "123_a",
    "attribute": "0x00000000",
    "text": "볼래!"
  },
  {
    "label": "123_b",
    "attribute": "0x00000000",
    "text": "사양할래"
  },
  {
    "label": "124",
    "attribute": "0x02000000",
    "text": "{{anim id=\"Shocked\" target=\"actor\" targetSpec=\"\"}}아앗!{{delay frames=\"30\"}}\n그 {{fun_0000007D arg=\"0x0000\"}}{{gender5 m=\"이\" f=\"가\"}}{{delay8}}\n{{anim id=\"QuestionMark\" target=\"actor\" targetSpec=\"\"}}마음에 드십니까요?{{pageBreak}}{{anim id=\"Silent\" target=\"actor\" targetSpec=\"\"}}그치만 손님{{string value=\"...\"}} {{delay20}}저는 다 들었습니다요～{{delay frames=\"40\"}}\n{{anim id=\"Grin\" target=\"actor\" targetSpec=\"\"}}다른 {{string value=\"32\"}}에서 {{delay8}}미술품을 사셨다구요{{string value=\"...\"}}{{pageBreak}}{{anim id=\"Explain\" target=\"actor\" targetSpec=\"\"}}아직 그 작품도 못 받으셨을 테니까{{delay20}}\n우리 가게에서는 {{delay8}}참아주십쇼～{{delay frames=\"40\"}}\n{{anim id=\"ShyBoy\" target=\"actor\" targetSpec=\"\"}}에이～ {{delay20}}보시는 걸 말리진 않겠습니다요!"
  },
  {
    "label": "124_a",
    "attribute": "0x00000000",
    "text": "볼래!"
  },
  {
    "label": "124_b",
    "attribute": "0x00000000",
    "text": "사양할래"
  },
  {
    "label": "125",
    "attribute": "0x00000000",
    "text": "{{anim id=\"Smiling\" target=\"actor\" targetSpec=\"\"}}예예, {{delay8}}잘 보셨습니까요?{{delay frames=\"40\"}}\n다른 좋은 물건도 많으니까{{delay8}}\n찬찬～히 {{delay8}}둘러보십쇼～!"
  },
  {
    "label": "126",
    "attribute": "0x00000000",
    "text": "{{anim id=\"Eh\" target=\"actor\" targetSpec=\"\"}}그러십니까요?{{delay frames=\"30\"}}\n{{anim id=\"Greeting\" target=\"actor\" targetSpec=\"\"}}그럼 {{delay8}}찬찬히 둘러보십쇼～!"
  },
  {
    "label": "131",
    "attribute": "0x02000000",
    "text": "{{anim id=\"Smiling\" target=\"actor\" targetSpec=\"\"}}그 {{fun_0000007D arg=\"0x0000\"}}{{gender5 m=\"은\" f=\"는\"}} 참{{delay20}}\n풍류가 느껴지지 않습니까요～{{delay frames=\"40\"}}\n{{anim id=\"Greeting\" target=\"actor\" targetSpec=\"\"}}인기도 또 {{delay8}}대단합니다요{{pageBreak}}오늘은 {{delay20}}{{anim id=\"Grin\" target=\"actor\" targetSpec=\"\"}}{{delay8}}특{{delay frames=\"12\"}}별 {{delay frames=\"12\"}}가{{delay frames=\"12\"}}격{{string value=\"...\"}}{{delay frames=\"30\"}}\n{{anim id=\"Smiling\" target=\"actor\" targetSpec=\"\"}}{{number value=\"24\" index=\"0\"}}에 모시겠습니다요!{{delay frames=\"40\"}}\n이런 기회가 또 없습니다요!"
  },
  {
    "label": "131_a",
    "attribute": "0x00000000",
    "text": "{{anim id=\"Nodding\" target=\"actor\" targetSpec=\"\"}}살래!"
  },
  {
    "label": "131_b",
    "attribute": "0x00000000",
    "text": "{{anim id=\"Negative\" target=\"actor\" targetSpec=\"\"}}그만둘래"
  },
  {
    "label": "132",
    "attribute": "0x02000000",
    "text": "{{anim id=\"Eh\" target=\"actor\" targetSpec=\"\"}}손님,{{delay frames=\"30\"}}\n{{fun_0000007D arg=\"0x0000\"}}{{gender5 m=\"이\" f=\"가\"}} 내뿜는\n눈부신 빛을 {{delay8}}{{anim id=\"QuestionMark\" target=\"actor\" targetSpec=\"\"}}보신 겁니까요?{{pageBreak}}{{anim id=\"Nodding\" target=\"actor\" targetSpec=\"\"}}이런 존재감 있는 상품이 {{number value=\"24\" index=\"0\"}}!{{delay frames=\"40\"}}\n{{anim id=\"Smiling\" target=\"actor\" targetSpec=\"\"}}이야～ {{delay20}}너무 저렴해서\n제가 사고 싶을 정돕니다요!"
  },
  {
    "label": "132_a",
    "attribute": "0x00000000",
    "text": "{{anim id=\"Nodding\" target=\"actor\" targetSpec=\"\"}}살래!"
  },
  {
    "label": "132_b",
    "attribute": "0x00000000",
    "text": "{{anim id=\"Negative\" target=\"actor\" targetSpec=\"\"}}그만둘래"
  },
  {
    "label": "133",
    "attribute": "0x02000000",
    "text": "{{anim id=\"Smiling\" target=\"actor\" targetSpec=\"\"}}손님～! {{delay20}}역시나\n{{fun_0000007D arg=\"0x0000\"}}의 존재를\n무시할 수 없으셨던 모양이네요～!{{pageBreak}}{{anim id=\"Explain\" target=\"actor\" targetSpec=\"\"}}그게 단돈 {{number value=\"24\" index=\"0\"}}이라니{{delay20}}\n참～말로 저렴한 가격 아니겠습니까～!{{delay frames=\"40\"}}\n{{anim id=\"Grin\" target=\"actor\" targetSpec=\"\"}}눈 딱 감고 {{delay8}}사버립시다요!"
  },
  {
    "label": "133_a",
    "attribute": "0x00000000",
    "text": "{{anim id=\"Nodding\" target=\"actor\" targetSpec=\"\"}}살래!"
  },
  {
    "label": "133_b",
    "attribute": "0x00000000",
    "text": "{{anim id=\"Negative\" target=\"actor\" targetSpec=\"\"}}그만둘래"
  },
  {
    "label": "134",
    "attribute": "0x02000000",
    "text": "{{anim id=\"FaintSmile\" target=\"actor\" targetSpec=\"\"}}이 {{fun_0000007D arg=\"0x0000\"}}{{gender5 m=\"은\" f=\"는\"}}{{delay8}}\n대단히 가치가 있는 귀중한 물건입니다요～!{{delay frames=\"40\"}}\n{{anim id=\"Scheming\" target=\"actor\" targetSpec=\"\"}}손님, {{delay20}}역시 뭘 아시는 분입니다!{{pageBreak}}{{anim id=\"Smiling\" target=\"actor\" targetSpec=\"\"}}이쯤에서 가격도 궁금하시겠죠?{{delay8}}\n단돈 {{number value=\"24\" index=\"0\"}}!{{delay frames=\"40\"}}\n어떠십니까요?"
  },
  {
    "label": "134_a",
    "attribute": "0x00000000",
    "text": "{{anim id=\"Nodding\" target=\"actor\" targetSpec=\"\"}}살래!"
  },
  {
    "label": "134_b",
    "attribute": "0x00000000",
    "text": "{{anim id=\"Negative\" target=\"actor\" targetSpec=\"\"}}그만둘래"
  },
  {
    "label": "135",
    "attribute": "0x00000000",
    "text": "{{anim id=\"TakenAback\" target=\"actor\" targetSpec=\"\"}}네엣～? {{delay20}}아까워라{{string value=\"...\"}}!{{i10_4}}\n{{anim id=\"Worried\" target=\"actor\" targetSpec=\"\"}}이만한 물건은{{delay8}}\n{{anim id=\"Negative\" target=\"actor\" targetSpec=\"\"}}쉽게 만날 수 있는 게 아닙니다요!"
  },
  {
    "label": "136",
    "attribute": "0x00000000",
    "text": "{{anim id=\"BigSmile\" target=\"actor\" targetSpec=\"\"}}오옷! {{delay8}}잘 생각하셨습니다!{{pageBreak}}{{string value=\"...\"}}{{delay20}}{{anim id=\"TakenAback\" target=\"actor\" targetSpec=\"\"}}근데 손님,{{delay frames=\"30\"}}\n돈이 {{delay20}}{{anim id=\"Silent\" target=\"actor\" targetSpec=\"\"}}없으신 것 같은데 맞습니까요?{{pageBreak}}{{anim id=\"OhGeez\" target=\"actor\" targetSpec=\"\"}}아이구 정말～!{{delay frames=\"30\"}}\n장난도 심하시지～!"
  },
  {
    "label": "137",
    "attribute": "0x00000000",
    "text": "{{anim id=\"BigSmile\" target=\"actor\" targetSpec=\"\"}}오옷! {{delay8}}잘 생각하셨습니다!{{pageBreak}}{{string value=\"...\"}}{{delay20}}아이쿠, {{anim id=\"TakenAback\" target=\"actor\" targetSpec=\"\"}}손니이～임!{{delay20}}\n주머니가 꽉 차 있지 않습니까요!{{anim id=\"Worried\" target=\"actor\" targetSpec=\"\"}}{{pageBreak}}{{anim id=\"ShyBoy\" target=\"actor\" targetSpec=\"\"}}가구는 {{delay8}}직접 가져가셔야 하니까{{delay20}}\n주머니에 빈 자리를 만드신 다음에{{delay8}}\n{{anim id=\"Nodding\" target=\"actor\" targetSpec=\"\"}}다시 와주십쇼!"
  },
  {
    "label": "138",
    "attribute": "0x00000000",
    "text": "{{anim id=\"HappyDance\" target=\"actor\" targetSpec=\"\"}}감사합니다～!{{delay frames=\"30\"}}\n그럼 {{delay8}}대금 먼저 받겠습니다요～!"
  },
  {
    "label": "139",
    "attribute": "0x00000000",
    "text": "{{anim id=\"Nodding\" target=\"actor\" targetSpec=\"\"}}예예, {{delay8}}잘 받았습니다!{{delay frames=\"40\"}}\n{{anim id=\"Smiling\" target=\"actor\" targetSpec=\"\"}}{{number value=\"24\" index=\"0\"}}, {{delay20}}정확히 맞습니다!{{delay frames=\"30\"}}\n{{anim id=\"BigSmile\" target=\"actor\" targetSpec=\"\"}}구매 감사드립니다요오～!{{anim id=\"Smiling\" target=\"actor\" targetSpec=\"\"}}"
  },
  {
    "label": "201",
    "attribute": "0x00000000",
    "text": "{{anim id=\"Laughing\" target=\"actor\" targetSpec=\"\"}}감사합니다～ 감사합니다～!{{delay frames=\"30\"}}\n{{anim id=\"HappyFlower\" target=\"actor\" targetSpec=\"\"}}이야～ {{delay20}}잘 오셨습니다!{{pageBreak}}{{anim id=\"Smiling\" target=\"actor\" targetSpec=\"\"}}자자! {{delay8}}둘러보시죠～!{{delay frames=\"40\"}}\n찬～찬히 고르셔도 됩니다요!{{delay20}}\n{{size value=\"75\"}}　　　　　　　　　　　　　　　　　　　　　헷헷헷!{{size value=\"100\"}}"
  },
  {
    "label": "202",
    "attribute": "0x00000000",
    "text": "{{anim id=\"Laughing\" target=\"actor\" targetSpec=\"\"}}캬아～ {{delay20}}역시 대단하십니다요!{{delay frames=\"40\"}}\n뭘 사야 할지 {{delay8}}아시는 분입니다!{{pageBreak}}{{anim id=\"Explain\" target=\"actor\" targetSpec=\"\"}}이 '판매 완료' 표시를 보고\n안타까움의 눈물을 흘릴 사람들이{{delay20}}\n수두룩할 겁니다요～{{pageBreak}}{{anim id=\"Thinking\" target=\"actor\" targetSpec=\"\"}}그래도 {{delay20}}손님이 선택해주셔서{{delay20}}\n이 작품은 퍽 행복하겠군요{{string value=\"...\"}}{{delay frames=\"40\"}}\n{{anim id=\"Grin\" target=\"actor\" targetSpec=\"\"}}저런, {{delay20}}눈시울이 뜨거워집니다요{{string value=\"...\"}}"
  },
  {
    "label": "203",
    "attribute": "0x00000000",
    "text": "{{anim id=\"FaintSmile\" target=\"actor\" targetSpec=\"\"}}작품의 배송은{{delay8}}\n조금만 기다려주십쇼{{pageBreak}}{{anim id=\"Nodding\" target=\"actor\" targetSpec=\"\"}}지금 당장 갖고 싶은 마음은{{delay8}}\n제가 충～분히 이해합니다만{{delay20}}\n{{anim id=\"ShyBoy\" target=\"actor\" targetSpec=\"\"}}정말 죄송하게 됐습니다요!"
  },
  {
    "label": "204",
    "attribute": "0x00000000",
    "text": "{{anim id=\"Explain\" target=\"actor\" targetSpec=\"\"}}미술품은 섬세하게 다뤄야 하기 때문에{{delay20}}\n구입하신 물품은 따로{{delay8}}\n{{anim id=\"Greeting\" target=\"actor\" targetSpec=\"\"}}나중에 댁까지 보내드리겠습니다요～{{pageBreak}}{{anim id=\"Nodding\" target=\"actor\" targetSpec=\"\"}}배송료는 {{delay8}}서비스해드릴랍니다요!{{delay frames=\"30\"}}\n{{anim id=\"Laughing\" target=\"actor\" targetSpec=\"\"}}자 자! 지금이 찬스입니다～!"
  },
  {
    "label": "205",
    "attribute": "0x00000000",
    "text": "{{anim id=\"Thinking\" target=\"actor\" targetSpec=\"\"}}아트를 산다{{string value=\"...\"}}{{delay8}}라는 것은{{delay20}}\n작품을 딱 {{delay8}}보았을 때의 그 감동을\n구매하는 거라고 볼 수 있으니까요{{string value=\"...\"}}{{pageBreak}}{{anim id=\"EmotEnd\" target=\"actor\" targetSpec=\"\"}}그 작품이 {{delay8}}진짜인지 가짜인지는{{delay20}}\n{{anim id=\"Nodding\" target=\"actor\" targetSpec=\"\"}}중요한 문제가 아니지 않겠습니까～?"
  },
  {
    "label": "206",
    "attribute": "0x00000000",
    "text": "{{anim id=\"Thinking\" target=\"actor\" targetSpec=\"\"}}여기저기 다니면서 장사를 하면{{delay20}}\n진상 손님들도 만나기 마련입죠～{{i10_4}}\n{{anim id=\"Explain\" target=\"actor\" targetSpec=\"\"}}들어보시렵니까? {{delay20}}요전에는 말입니다{{string value=\"...\"}}{{pageBreak}}{{anim id=\"Fuming\" target=\"actor\" targetSpec=\"\"}}'너한테서 산 미술품,{{delay8}} 완전 가짜였잖아!{{delay20}}\n이 {{delay8}}사기꾼 같으니!!'{{pageBreak}}{{anim id=\"Worried\" target=\"actor\" targetSpec=\"\"}}이런 전화가 {{delay8}}걸려오지 않았겠습니까～{{pageBreak}}{{anim id=\"Angry\" target=\"actor\" targetSpec=\"\"}}사람이 제일 무섭다더니{{string value=\"...\"}}{{delay frames=\"40\"}}\n가게에서 {{delay8}}직접 물건을 고른 사람이 그러면{{delay20}}\n{{anim id=\"OhGeez\" target=\"actor\" targetSpec=\"\"}}결국 보는 눈이 없었다는 얘기 아니겠습니까?{{pageBreak}}{{anim id=\"Negative\" target=\"actor\" targetSpec=\"\"}}그런데 저한테 사기꾼이라고 하다니{{string value=\"...\"}}{{delay frames=\"30\"}}\n{{anim id=\"Angry\" target=\"actor\" targetSpec=\"\"}}요즘 세상에 나쁜 소문이라도 퍼지면{{delay8}}\n저는 장사 끝입니다요～!{{pageBreak}}{{anim id=\"Smiling\" target=\"actor\" targetSpec=\"\"}}그런 점에서 {{delay20}}손님처럼 안목이 있으신 분이\n가게에 오시면 참 {{delay8}}안심이 됩니다요～!{{delay frames=\"40\"}}\n{{anim id=\"Grin\" target=\"actor\" targetSpec=\"\"}}자자, {{delay20}}어떤 걸 보여드릴까요?"
  },
  {
    "label": "207",
    "attribute": "0x00000000",
    "text": "{{anim id=\"Worried\" target=\"actor\" targetSpec=\"\"}}오늘은 {{delay8}}아쉽게도 미술품이\n전부 팔려버렸습니다만은{{string value=\"...\"}}{{delay20}}\n{{anim id=\"EmotEnd\" target=\"actor\" targetSpec=\"\"}}가구는 아직 {{anim id=\"Greeting\" target=\"actor\" targetSpec=\"\"}}남아 있습니다요!{{pageBreak}}{{anim id=\"FaintSmile\" target=\"actor\" targetSpec=\"\"}}이 주변에서는 구할 수 없는 물건들뿐이니까{{delay20}}\n바로바로 사 두시는 것이\n{{anim id=\"Grin\" target=\"actor\" targetSpec=\"\"}}현명한 선택이라고 봅니다요～!"
  },
  {
    "label": "208",
    "attribute": "0x00000000",
    "text": "{{anim id=\"Thinking\" target=\"actor\" targetSpec=\"\"}}이상하게 오늘은 {{delay8}}미술품이 잘 팔려서요{{delay20}}\n{{anim id=\"EmotEnd\" target=\"actor\" targetSpec=\"\"}}이제 {{delay8}}한 점밖에 안 남았습니다요{{pageBreak}}{{anim id=\"Frantic\" target=\"actor\" targetSpec=\"\"}}아앗～～～!{{delay20}}\n아까 그 손님이 돌아오시면\n{{anim id=\"Pardon\" target=\"actor\" targetSpec=\"\"}}바로 사 가실 텐데에～～～!{{delay20}}{{anim id=\"EmotEnd\" target=\"actor\" targetSpec=\"\"}}{{pageBreak}}{{string value=\"...\"}}{{delay20}}지금이 {{delay8}}{{anim id=\"Grin\" target=\"actor\" targetSpec=\"\"}}찬스입니다요!"
  },
  {
    "label": "209",
    "attribute": "0x00000000",
    "text": "{{anim id=\"Explain\" target=\"actor\" targetSpec=\"\"}}미술품은 {{delay8}}대단히 귀중한 물건들뿐이니{{delay20}}\n눈으로만 봐 주시길 부탁드립니다요～{{pageBreak}}{{anim id=\"EmotEnd\" target=\"actor\" targetSpec=\"\"}}그 대신 {{delay8}}{{anim id=\"FaintSmile\" target=\"actor\" targetSpec=\"\"}}관심 가는 작품이 있으시면{{delay20}}\n찬찬히 보고 가셔도 상관없습니다요!{{pageBreak}}{{anim id=\"Thinking\" target=\"actor\" targetSpec=\"\"}}뭐, {{delay20}}너～무 뚫어져라 보시면{{delay20}}\n괜한 부분이 신경 쓰이고 그럴 수도 있으니까{{delay20}}\n{{anim id=\"Nodding\" target=\"actor\" targetSpec=\"\"}}그냥 적당히 보는 정도가 좋을 것 같습니다요!"
  },
  {
    "label": "211",
    "attribute": "0x00000000",
    "text": "{{fun_0014003C arg=\"\"}}"
  },
  {
    "label": "211_01",
    "attribute": "0x00000000",
    "text": "{{anim id=\"ShyBoy\" target=\"actor\" targetSpec=\"\"}}작은 가구점에서 시작해서{{delay20}}\n한때는 미술품을 전문적으로\n거래하던 때도 있었습죠{{pageBreak}}{{anim id=\"EmotEnd\" target=\"actor\" targetSpec=\"\"}}이제 그 일도 익숙해져서{{delay20}}\n{{anim id=\"Nodding\" target=\"actor\" targetSpec=\"\"}}다시 가구를 들이기로 한 겁니다요!{{pageBreak}}{{anim id=\"AbsentMindedness\" target=\"actor\" targetSpec=\"\"}}지금까지 걸어온 길을 생각하면{{delay20}}\n고객님들이 얼마나 큰 존재이신지\n뼈저리게 느껴집니다요～!"
  },
  {
    "label": "211_02",
    "attribute": "0x00000000",
    "text": "크으～{{delay20}}\n손님의 그{{delay8}}\n{{anim id=\"Grin\" target=\"actor\" targetSpec=\"\"}}상품을 바라보는 뜨거운 눈빛!{{pageBreak}}{{anim id=\"Smiling\" target=\"actor\" targetSpec=\"\"}}망망대해를 건너\n가져온 보람이 있습니다요!{{pageBreak}}{{anim id=\"HappyDance\" target=\"actor\" targetSpec=\"\"}}앞으로도 우리 가게를{{delay8}}\n잘 부탁드립니다요～～～!"
  },
  {
    "label": "212",
    "attribute": "0x00000000",
    "text": "{{fun_0014003C arg=\"\"}}"
  },
  {
    "label": "212_01",
    "attribute": "0x00000000",
    "text": "{{anim id=\"Thinking\" target=\"actor\" targetSpec=\"\"}}오늘 준비한 상품은 {{delay8}}갖고 싶다는 사람이\n인산인해를 이루는 물건들뿐이니{{delay20}}\n{{anim id=\"Nodding\" target=\"actor\" targetSpec=\"\"}}언제 품절돼도 이상하지 않습니다요{{pageBreak}}{{anim id=\"Scheming\" target=\"actor\" targetSpec=\"\"}}이거다! 싶은 상품이 있으시면{{delay20}}\n바로 말씀을 해주십쇼!"
  },
  {
    "label": "212_02",
    "attribute": "0x00000000",
    "text": "저처럼 오래 장사를 하면 말입니다,{{delay20}}\n{{anim id=\"Nodding\" target=\"actor\" targetSpec=\"\"}}점점 눈에 보이기 마련입죠{{pageBreak}}{{anim id=\"Silent\" target=\"actor\" targetSpec=\"\"}}손님의 그 맑은 눈동자{{string value=\"...\"}}{{delay frames=\"40\"}}\n{{anim id=\"EmotEnd\" target=\"actor\" targetSpec=\"\"}}물건의 진가를 알아보는 사람의 눈입니다요{{pageBreak}}{{anim id=\"Smiling\" target=\"actor\" targetSpec=\"\"}}손님 같은 분께 {{delay8}}더 좋은 상품을 더 저렴하게{{delay8}}\n제공해드리는 것이{{delay20}}\n{{anim id=\"Grin\" target=\"actor\" targetSpec=\"\"}}저의 사명일지도 모르겠습니다요{{string value=\"...\"}}"
  },
  {
    "label": "221",
    "attribute": "0x00000000",
    "text": "{{fun_0014003C arg=\"\"}}"
  },
  {
    "label": "221_01",
    "attribute": "0x00000000",
    "text": "{{anim id=\"Smiling\" target=\"actor\" targetSpec=\"\"}}햐～!{{delay20}}\n이것 참 {{delay8}}감사할 따름입니다요～!{{pageBreak}}{{anim id=\"Nodding\" target=\"actor\" targetSpec=\"\"}}손님처럼 {{delay8}}멀리서 여기까지\n물건을 사러오신 분께는{{delay20}}{{anim id=\"Smiling\" target=\"actor\" targetSpec=\"\"}}\n자꾸자꾸 서비스를 해드리고 싶어지네요!{{pageBreak}}{{anim id=\"Serious\" target=\"actor\" targetSpec=\"\"}}그치만 {{delay20}}이미 가격을 내릴 만큼 내린 거라{{delay20}}\n{{anim id=\"Grin\" target=\"actor\" targetSpec=\"\"}}더 이상은 어렵습니다요!"
  },
  {
    "label": "221_02",
    "attribute": "0x00000000",
    "text": "{{anim id=\"Smiling\" target=\"actor\" targetSpec=\"\"}}언젠가 {{delay8}}손님이 계신 {{string value=\"32\"}}에 가게 되면{{delay20}}\n좋～은 물건들만 챙겨가겠습니다요!{{delay frames=\"40\"}}\n{{anim id=\"BigSmile\" target=\"actor\" targetSpec=\"\"}}그때까지 기다려주십쇼!  {{size value=\"75\"}}{{delay20}}{{anim id=\"Smiling\" target=\"actor\" targetSpec=\"\"}}헷헷헷!{{size value=\"100\"}}"
  },
  {
    "label": "222",
    "attribute": "0x00000000",
    "text": "{{fun_0014003C arg=\"\"}}"
  },
  {
    "label": "222_01",
    "attribute": "0x00000000",
    "text": "{{anim id=\"Laughing\" target=\"actor\" targetSpec=\"\"}}아이구～! 그나저나{{delay20}}\n이것 참, 멀리서 여기까지\n와주셔서 {{delay8}}감사합니다요!{{pageBreak}}{{anim id=\"Nodding\" target=\"actor\" targetSpec=\"\"}}상품과의 만남은 운명 같은 것입죠!{{delay frames=\"40\"}}\n{{anim id=\"HappyFlower\" target=\"actor\" targetSpec=\"\"}}자자, {{delay8}}둘러보시죠!{{delay frames=\"30\"}}\n찬찬～히 고르셔도 됩니다요!"
  },
  {
    "label": "222_02",
    "attribute": "0x00000000",
    "text": "{{anim id=\"Explain\" target=\"actor\" targetSpec=\"\"}}모처럼 {{string value=\"33\"}}에 오셨으니{{delay20}}\n기념으로 하나 어떠십니까요～?{{pageBreak}}{{anim id=\"Smiling\" target=\"actor\" targetSpec=\"\"}}온갖 진품 명품을{{delay8}}\n깜짝 놀랄 특별 가격에 모십니다요～!{{delay20}}\n{{size value=\"75\"}}　　　　　　　　　　　　　　　　　　　　헷헷헷!{{size value=\"100\"}}"
  }
]