﻿[
  {
    "label": "001",
    "attribute": "0x00000013",
    "locale": {
      "CNzh": "{{anim id=\"Smiling\" target=\"actor\" targetSpec=\"\"}}嗨，{{delay20}}是{{string value=\"VillagerName\"}}哦！{{delay frames=\"40\"}}\n{{anim id=\"Hello\" target=\"actor\" targetSpec=\"\"}}今天有什么事吗？",
      "EUde": "{{anim id=\"Laughing\" target=\"actor\" targetSpec=\"\"}}Ahahaha! {{delay20}}Du bist {{string value=\"PlayerName\"}}.{{delay20}}\n{{anim id=\"Hello\" target=\"actor\" targetSpec=\"\"}}Was kann {{color id=\"3\"}}Pavo{{color id=\"65535\"}} für dich tun?",
      "EUen": "{{anim id=\"Laughing\" target=\"actor\" targetSpec=\"\"}}Ahahaha! {{delay20}}You are {{string value=\"PlayerName\"}}.{{delay20}}\n{{anim id=\"Hello\" target=\"actor\" targetSpec=\"\"}}What do you want with {{color id=\"3\"}}Pavé{{color id=\"65535\"}}?",
      "EUes": "{{anim id=\"Laughing\" target=\"actor\" targetSpec=\"\"}}¡Ja,{{delay8}} ja,{{delay8}} ja!{{delay20}} Así que eres {{string value=\"PlayerName\"}}.{{delay20}} {{anim id=\"Hello\" target=\"actor\" targetSpec=\"\"}}¿En qué puede ayudarte {{color id=\"3\"}}Conga{{color id=\"65535\"}}?",
      "EUfr": "{{anim id=\"Laughing\" target=\"actor\" targetSpec=\"\"}}Léon ! {{delay20}}Tu es {{string value=\"PlayerName\"}}.{{delay20}}\n{{anim id=\"Hello\" target=\"actor\" targetSpec=\"\"}}Que peut faire {{color id=\"3\"}}Roberto {{color id=\"65535\"}}pour toi ?",
      "EUit": "{{anim id=\"EmotEnd\" target=\"actor\" targetSpec=\"\"}}Che meraviglião! {{delay20}}Tu sei\n{{string value=\"PlayerName\"}}.{{pageBreak}}{{anim id=\"Hello\" target=\"actor\" targetSpec=\"\"}}Cosa può fare {{color id=\"3\"}}Pavão {{color id=\"65535\"}}por te?",
      "EUnl": "{{anim id=\"Laughing\" target=\"actor\" targetSpec=\"\"}}Ahahaha! {{delay20}}Jij bent {{string value=\"PlayerName\"}}.{{delay20}} {{anim id=\"Hello\" target=\"actor\" targetSpec=\"\"}}Wat wil je van {{color id=\"3\"}}Pavé{{color id=\"65535\"}}?",
      "EUru": "{{anim id=\"Laughing\" target=\"actor\" targetSpec=\"\"}}А-ха-ха! {{delay20}}Ты же {{string value=\"PlayerName\"}}!{{delay20}}\n{{anim id=\"Hello\" target=\"actor\" targetSpec=\"\"}}Чем {{color id=\"3\"}}Паве {{color id=\"65535\"}}может тебе помочь?",
      "JPja": "{{anim id=\"Smiling\" target=\"actor\" targetSpec=\"\"}}ハーイ、{{delay20}}{{string value=\"VillagerName\"}}よ！{{delay frames=\"40\"}}\n{{anim id=\"Hello\" target=\"actor\" targetSpec=\"\"}}{{ruby charSpan=\"2\" value=\"きょう\"}}今日は　なんのご{{ruby charSpan=\"1\" value=\"よう\"}}用かしら？",
      "KRko": "{{anim id=\"Smiling\" target=\"actor\" targetSpec=\"\"}}네～ {{delay20}}{{string value=\"VillagerName\"}}입니다!{{delay frames=\"40\"}}\n{{anim id=\"Hello\" target=\"actor\" targetSpec=\"\"}}무슨 일로 그러니?",
      "TWzh": "{{anim id=\"Smiling\" target=\"actor\" targetSpec=\"\"}}嗨，{{delay20}}我是{{string value=\"VillagerName\"}}喔！{{delay frames=\"40\"}}\n{{anim id=\"Hello\" target=\"actor\" targetSpec=\"\"}}今天找我有什麼事呢？",
      "USen": "{{anim id=\"Laughing\" target=\"actor\" targetSpec=\"\"}}Ahahaha! {{delay20}}You are {{string value=\"PlayerName\"}}.{{delay20}}\n{{anim id=\"Hello\" target=\"actor\" targetSpec=\"\"}}What do you want with {{color id=\"3\"}}Pavé{{color id=\"65535\"}}?",
      "USes": "{{anim id=\"Laughing\" target=\"actor\" targetSpec=\"\"}}¡Ja,{{delay8}} ja,{{delay8}} ja!{{delay20}} Así que eres {{string value=\"PlayerName\"}}.{{delay20}} {{anim id=\"Hello\" target=\"actor\" targetSpec=\"\"}}¿En qué puede ayudarte {{color id=\"3\"}}Conga{{color id=\"65535\"}}?",
      "USfr": "{{anim id=\"Laughing\" target=\"actor\" targetSpec=\"\"}}Léon! {{delay20}}Tu es {{string value=\"PlayerName\"}}.{{delay20}}\n{{anim id=\"Hello\" target=\"actor\" targetSpec=\"\"}}Que peut faire {{color id=\"3\"}}Roberto {{color id=\"65535\"}}pour toi?"
    }
  },
  {
    "label": "002",
    "attribute": "0x00000013",
    "locale": {
      "CNzh": "{{anim id=\"Shocked\" target=\"actor\" targetSpec=\"\"}}哎呀！{{delay8}}邀请我去{{color id=\"1\"}}露营地{{color id=\"65535\"}}吗？{{delay frames=\"40\"}}\n{{anim id=\"FaintSmile\" target=\"actor\" targetSpec=\"\"}}不过，抱歉啊～{{pageBreak}}{{anim id=\"SmugFace\" target=\"actor\" targetSpec=\"\"}}像我这样的一流舞者，{{delay20}}\n有很多来自全世界的邀请，{{delay frames=\"30\"}}\n{{anim id=\"Grin\" target=\"actor\" targetSpec=\"\"}}根本没有时间好好休息呢{{string value=\"...\"}}{{pageBreak}}{{anim id=\"HappyDance\" target=\"actor\" targetSpec=\"\"}}下次的狂欢节\n我们还会再见面的，{{delay frames=\"30\"}}\n{{anim id=\"EmotEnd\" target=\"actor\" targetSpec=\"\"}}在那之前，请耐心等待吧！",
      "EUde": "{{anim id=\"Shocked\" target=\"actor\" targetSpec=\"\"}}Oh! {{delay20}}Du lädst {{color id=\"3\"}}Pavo {{color id=\"65535\"}}auf deinen\nCampingplatz ein? {{delay20}}{{anim id=\"OhGeez\" target=\"actor\" targetSpec=\"\"}}Sehr schade für\ndich, {{delay8}}denn {{color id=\"3\"}}Pavo{{color id=\"65535\"}} kann nicht kommen.{{pageBreak}}{{anim id=\"AbsentMindedness\" target=\"actor\" targetSpec=\"\"}}Der Tanz, {{delay8}}er ruft {{color id=\"3\"}}Pavo{{color id=\"65535\"}}... {{delay20}}Er ruft ihn\nauf der ganzen Welt. {{delay20}}Und {{color id=\"3\"}}Pavo {{color id=\"65535\"}}folgt\ndem Ruf. {{color id=\"3\"}}{{delay20}}{{anim id=\"Angry\" target=\"actor\" targetSpec=\"\"}}Pavo {{color id=\"65535\"}}muss TANZEN!{{pageBreak}}{{anim id=\"Smiling\" target=\"actor\" targetSpec=\"\"}}Doch weine nicht{{string value=\"...\"}}{{delay8}} {{delay20}}{{anim id=\"Angry\" target=\"actor\" targetSpec=\"\"}}Trainiere deine\nHüften! {{delay20}}Wenn der Karneval zurück-\nkehrt, {{delay8}}{{anim id=\"EmotEnd\" target=\"actor\" targetSpec=\"\"}}lädt{{color id=\"3\"}} Pavo {{color id=\"65535\"}}dich{{string value=\"...\"}}{{delay8}} zum Tanz!",
      "EUen": "{{anim id=\"Shocked\" target=\"actor\" targetSpec=\"\"}}Oh! {{color id=\"3\"}}{{delay8}}Pavé {{color id=\"65535\"}}is invited to your campsite?{{delay frames=\"40\"}}\n{{anim id=\"OhGeez\" target=\"actor\" targetSpec=\"\"}}It is very unfortunate for you, but\n{{color id=\"3\"}}Pavé {{color id=\"65535\"}}cannot go.{{pageBreak}}{{anim id=\"AbsentMindedness\" target=\"actor\" targetSpec=\"\"}}The dance, it calls {{color id=\"3\"}}Pavé {{color id=\"65535\"}}to all corners\nof the globe.{{delay20}} And {{color id=\"3\"}}Pavé {{color id=\"65535\"}}heeds the\ncall. {{color id=\"3\"}}{{delay20}}{{anim id=\"Angry\" target=\"actor\" targetSpec=\"\"}}Pavé {{color id=\"65535\"}}must DANCE!{{pageBreak}}{{anim id=\"Smiling\" target=\"actor\" targetSpec=\"\"}}Still, do not cry.{{delay20}}{{anim id=\"Angry\" target=\"actor\" targetSpec=\"\"}} Instead, strengthen\nyour hips! {{delay20}}When Festivale comes\nagain, {{color id=\"3\"}}{{delay20}}{{anim id=\"EmotEnd\" target=\"actor\" targetSpec=\"\"}}Pavé {{color id=\"65535\"}}calls on YOU to dance!",
      "EUes": "{{anim id=\"Shocked\" target=\"actor\" targetSpec=\"\"}}¡Oh!{{delay20}} ¿Invitas a {{color id=\"3\"}}Conga {{color id=\"65535\"}}a tu {{color id=\"1\"}}zona\nde acampada{{color id=\"65535\"}}?{{delay20}} {{anim id=\"OhGeez\" target=\"actor\" targetSpec=\"\"}}Es una pena,{{delay8}} pero\n{{color id=\"3\"}}Conga {{color id=\"65535\"}}no puede hacerte el honor.{{pageBreak}}{{anim id=\"AbsentMindedness\" target=\"actor\" targetSpec=\"\"}}El baile reclama la presencia de\n{{color id=\"3\"}}Conga {{color id=\"65535\"}}desde todos los rincones\ndel mundo.{{pageBreak}}¡Y {{color id=\"3\"}}Conga {{color id=\"65535\"}}se debe al baile!{{delay20}}\n{{anim id=\"Angry\" target=\"actor\" targetSpec=\"\"}}¡Es su obligación y su pasión!{{pageBreak}}{{anim id=\"Smiling\" target=\"actor\" targetSpec=\"\"}}Pero, en lugar de lamentarte,{{delay8}} {{anim id=\"Angry\" target=\"actor\" targetSpec=\"\"}}¡dale\nritmo a tus pies!{{delay20}} Así,{{delay8}} cuando regrese\nel {{color id=\"1\"}}Carnaval{{color id=\"65535\"}},{{delay8}} {{anim id=\"EmotEnd\" target=\"actor\" targetSpec=\"\"}}¡bailarás con {{color id=\"3\"}}Conga{{color id=\"65535\"}}!",
      "EUfr": "{{anim id=\"Shocked\" target=\"actor\" targetSpec=\"\"}}Oh ! {{delay8}}Tu invites {{color id=\"3\"}}Roberto{{color id=\"65535\"}} à ton\ncamping ?{{delay frames=\"40\"}} {{anim id=\"OhGeez\" target=\"actor\" targetSpec=\"\"}}{{color id=\"3\"}}Roberto{{color id=\"65535\"}} est désolé pour\ntoi, mais il ne peut pas.{{pageBreak}}{{anim id=\"AbsentMindedness\" target=\"actor\" targetSpec=\"\"}}La danse appelle {{color id=\"3\"}}Roberto {{color id=\"65535\"}}aux quatre\ncoins du globe.{{delay20}} Et {{color id=\"3\"}}Roberto {{color id=\"65535\"}}doit y\nrépondre. {{color id=\"3\"}}{{delay20}}{{anim id=\"Angry\" target=\"actor\" targetSpec=\"\"}}Roberto {{color id=\"65535\"}}doit DANSER !{{pageBreak}}{{anim id=\"Smiling\" target=\"actor\" targetSpec=\"\"}}Mais ne pleure pas.{{delay20}}{{anim id=\"Angry\" target=\"actor\" targetSpec=\"\"}} Fais plutôt\nbouger ton corps ! {{delay20}}Quand carnaval\nreviendra, {{color id=\"3\"}}{{delay20}}{{anim id=\"EmotEnd\" target=\"actor\" targetSpec=\"\"}}Roberto {{color id=\"65535\"}}te fera danser !",
      "EUit": "{{anim id=\"Shocked\" target=\"actor\" targetSpec=\"\"}}Oh, {{color id=\"3\"}}{{delay8}}Pavão {{color id=\"65535\"}}è invitão alla tua area\nper campeggio?{{delay frames=\"40\"}} {{anim id=\"OhGeez\" target=\"actor\" targetSpec=\"\"}}È muito tristão,\nperò {{color id=\"3\"}}Pavão {{color id=\"65535\"}}non può venire.{{pageBreak}}{{anim id=\"AbsentMindedness\" target=\"actor\" targetSpec=\"\"}}Il baile chiama {{color id=\"3\"}}Pavão {{color id=\"65535\"}}in tutti gli\nangoli do mundo {{delay8}}e lui non può\nignorarlo. {{delay20}}{{anim id=\"EmotEnd\" target=\"actor\" targetSpec=\"\"}}{{color id=\"3\"}}Pavão {{color id=\"65535\"}}deve BAILAR!{{pageBreak}}{{anim id=\"Smiling\" target=\"actor\" targetSpec=\"\"}}Ma não paura{{string value=\"...\"}} Allena i tuoi fianchi,\n{{delay8}}perché quando arriva o Carnaval,\n{{color id=\"3\"}}{{delay20}}{{anim id=\"EmotEnd\" target=\"actor\" targetSpec=\"\"}}Pavão {{color id=\"65535\"}}vuole vederti bailar!",
      "EUnl": "{{anim id=\"Shocked\" target=\"actor\" targetSpec=\"\"}}O! {{color id=\"3\"}}{{delay8}}Pavé {{color id=\"65535\"}}is welkom op je kampeer-\nplek?{{delay frames=\"40\"}} {{anim id=\"OhGeez\" target=\"actor\" targetSpec=\"\"}}Jammer voor jou, maar {{color id=\"3\"}}Pavé\n{{color id=\"65535\"}}is niet beschikbaar.{{pageBreak}}{{anim id=\"AbsentMindedness\" target=\"actor\" targetSpec=\"\"}}De dans roept {{color id=\"3\"}}Pavé {{color id=\"65535\"}}naar alle hoeken\nvan de wereld.{{delay20}} En {{color id=\"3\"}}Pavé {{color id=\"65535\"}}geeft gehoor\naan deze roep. {{color id=\"3\"}}{{delay20}}{{anim id=\"Angry\" target=\"actor\" targetSpec=\"\"}}Pavé {{color id=\"65535\"}}moet DANSEN!{{pageBreak}}{{anim id=\"Smiling\" target=\"actor\" targetSpec=\"\"}}Maar wees niet verdrietig.{{delay20}}{{anim id=\"Angry\" target=\"actor\" targetSpec=\"\"}} Train\nliever je heupen! {{delay20}}Zodra het carnaval\nis, {{color id=\"3\"}}{{delay20}}{{color id=\"65535\"}}{{anim id=\"EmotEnd\" target=\"actor\" targetSpec=\"\"}}eist {{color id=\"3\"}}Pavé {{color id=\"65535\"}}dat je danst!",
      "EUru": "{{anim id=\"Shocked\" target=\"actor\" targetSpec=\"\"}}О! {{delay8}}Ты приглашаешь {{color id=\"3\"}}Паве {{color id=\"65535\"}}в свой\nкемпинг?{{delay frames=\"40\"}} {{anim id=\"OhGeez\" target=\"actor\" targetSpec=\"\"}}К твоему сожалению,\n{{color id=\"3\"}}Паве {{color id=\"65535\"}}не может приехать.{{pageBreak}}{{anim id=\"AbsentMindedness\" target=\"actor\" targetSpec=\"\"}}Танец зовет {{color id=\"3\"}}Паве {{color id=\"65535\"}}во все уголки\nпланеты.{{delay20}} А {{color id=\"3\"}}Паве {{color id=\"65535\"}}следует этому\nзову.{{delay20}} {{anim id=\"Angry\" target=\"actor\" targetSpec=\"\"}}{{color id=\"3\"}}Паве {{color id=\"65535\"}}не может не танцевать!{{pageBreak}}{{anim id=\"Smiling\" target=\"actor\" targetSpec=\"\"}}Но не плачь.{{delay20}} {{anim id=\"Angry\" target=\"actor\" targetSpec=\"\"}}Даже раскрепощенно\nне плачь! {{delay20}}Карнавал вернется! {{delay20}}{{anim id=\"EmotEnd\" target=\"actor\" targetSpec=\"\"}}{{color id=\"3\"}}Паве\n{{color id=\"65535\"}}советует лучше станцевать!",
      "JPja": "{{anim id=\"Shocked\" target=\"actor\" targetSpec=\"\"}}あら！　{{delay8}}{{color id=\"1\"}}キャンプサイト{{color id=\"65535\"}}に{{ruby charSpan=\"1\" value=\"さそ\"}}誘ってくれるの？{{delay frames=\"40\"}}\n{{anim id=\"FaintSmile\" target=\"actor\" targetSpec=\"\"}}でも　ごめんなさ～い{{pageBreak}}{{anim id=\"SmugFace\" target=\"actor\" targetSpec=\"\"}}わたしぐらいの　{{ruby charSpan=\"2\" value=\"いちりゅう\"}}一流ダンサーになると{{delay20}}\n{{ruby charSpan=\"3\" value=\"せかいじゅう\"}}世界中から　オファーがあって、{{delay frames=\"30\"}}\n{{anim id=\"Grin\" target=\"actor\" targetSpec=\"\"}}ゆっくり{{ruby charSpan=\"1\" value=\"やす\"}}休んでる　ヒマがないのよね{{string value=\"...\"}}{{pageBreak}}{{anim id=\"HappyDance\" target=\"actor\" targetSpec=\"\"}}また　{{ruby charSpan=\"1\" value=\"つぎ\"}}次のカーニバルの{{ruby charSpan=\"1\" value=\"ひ\"}}日に\nお{{ruby charSpan=\"1\" value=\"あ\"}}会いしましょう　ってことで、{{delay frames=\"30\"}}\n{{anim id=\"EmotEnd\" target=\"actor\" targetSpec=\"\"}}それまで　{{ruby charSpan=\"1\" value=\"ま\"}}待っててちょうだいナ！",
      "KRko": "{{anim id=\"Shocked\" target=\"actor\" targetSpec=\"\"}}옴머머! {{delay8}}{{color id=\"1\"}}캠핑장{{color id=\"65535\"}}에 초대해주는 거야?{{delay frames=\"40\"}}\n{{anim id=\"FaintSmile\" target=\"actor\" targetSpec=\"\"}}근데 미안해서 어쩌니～{{pageBreak}}{{anim id=\"SmugFace\" target=\"actor\" targetSpec=\"\"}}나 같은 일류 댄서는{{delay20}}\n전 세계에서 러브콜이 쏟아져서{{delay frames=\"30\"}}\n{{anim id=\"Grin\" target=\"actor\" targetSpec=\"\"}}느긋하게 쉬고 있을 시간이 없단다{{string value=\"...\"}}{{pageBreak}}{{anim id=\"HappyDance\" target=\"actor\" targetSpec=\"\"}}또 다음 카니발 날이 되면\n섬으로 찾아갈 테니까,{{delay frames=\"30\"}}\n{{anim id=\"EmotEnd\" target=\"actor\" targetSpec=\"\"}}그때까지 기다려줘!",
      "TWzh": "{{anim id=\"Shocked\" target=\"actor\" targetSpec=\"\"}}哎呀！{{delay8}}你要邀請我去{{color id=\"1\"}}露營地{{color id=\"65535\"}}啊？{{delay frames=\"40\"}}\n{{anim id=\"FaintSmile\" target=\"actor\" targetSpec=\"\"}}不過，很抱歉～{{pageBreak}}{{anim id=\"SmugFace\" target=\"actor\" targetSpec=\"\"}}我畢竟是一名一流的舞者，{{delay20}}\n世界各地都邀約我過去表演，{{delay frames=\"30\"}}\n{{anim id=\"Grin\" target=\"actor\" targetSpec=\"\"}}所以沒有能好好休息的時間{{string value=\"...\"}}{{pageBreak}}{{anim id=\"HappyDance\" target=\"actor\" targetSpec=\"\"}}我們下次在狂歡節那一天再見吧。{{delay frames=\"30\"}}\n{{anim id=\"EmotEnd\" target=\"actor\" targetSpec=\"\"}}在那之前，要等等我嚕！",
      "USen": "{{anim id=\"Shocked\" target=\"actor\" targetSpec=\"\"}}Oh! {{color id=\"3\"}}{{delay8}}Pavé {{color id=\"65535\"}}is invited to your campsite?{{delay frames=\"40\"}}\n{{anim id=\"OhGeez\" target=\"actor\" targetSpec=\"\"}}It is very unfortunate for you, but\n{{color id=\"3\"}}Pavé {{color id=\"65535\"}}cannot go.{{pageBreak}}{{anim id=\"AbsentMindedness\" target=\"actor\" targetSpec=\"\"}}The dance, it calls {{color id=\"3\"}}Pavé {{color id=\"65535\"}}to all corners\nof the globe.{{delay20}} And {{color id=\"3\"}}Pavé {{color id=\"65535\"}}heeds the\ncall. {{color id=\"3\"}}{{delay20}}{{anim id=\"Angry\" target=\"actor\" targetSpec=\"\"}}Pavé {{color id=\"65535\"}}must DANCE!{{pageBreak}}{{anim id=\"Smiling\" target=\"actor\" targetSpec=\"\"}}Still, do not cry.{{delay20}}{{anim id=\"Angry\" target=\"actor\" targetSpec=\"\"}} Instead, strengthen\nyour hips! {{delay20}}When Festivale comes\nagain, {{color id=\"3\"}}{{delay20}}{{anim id=\"EmotEnd\" target=\"actor\" targetSpec=\"\"}}Pavé {{color id=\"65535\"}}calls on YOU to dance!",
      "USes": "{{anim id=\"Shocked\" target=\"actor\" targetSpec=\"\"}}¡Oh!{{delay20}} ¿Invitas a {{color id=\"3\"}}Conga {{color id=\"65535\"}}a tu {{color id=\"1\"}}zona\nde campamento{{color id=\"65535\"}}?{{delay20}} {{anim id=\"OhGeez\" target=\"actor\" targetSpec=\"\"}}Qué lástima,{{delay8}} pero\n{{color id=\"3\"}}Conga {{color id=\"65535\"}}no puede hacerte el honor.{{pageBreak}}{{anim id=\"AbsentMindedness\" target=\"actor\" targetSpec=\"\"}}El baile reclama la presencia de\n{{color id=\"3\"}}Conga {{color id=\"65535\"}}desde todos los rincones\ndel mundo.{{pageBreak}}¡Y {{color id=\"3\"}}Conga {{color id=\"65535\"}}se debe al baile!{{delay20}}\n{{anim id=\"Angry\" target=\"actor\" targetSpec=\"\"}}¡Es su obligación y su pasión!{{pageBreak}}{{anim id=\"Smiling\" target=\"actor\" targetSpec=\"\"}}Pero, en lugar de lamentarte,{{delay8}} {{anim id=\"Angry\" target=\"actor\" targetSpec=\"\"}}¡dale\nritmo a tus pies!{{delay20}} Así,{{delay8}} cuando regrese\nel {{color id=\"1\"}}Carnaval{{color id=\"65535\"}},{{delay8}} {{anim id=\"EmotEnd\" target=\"actor\" targetSpec=\"\"}}¡bailarás con {{color id=\"3\"}}Conga{{color id=\"65535\"}}!",
      "USfr": "{{anim id=\"Shocked\" target=\"actor\" targetSpec=\"\"}}Oh! {{delay8}}Tu invites {{color id=\"3\"}}Roberto{{color id=\"65535\"}} à ton\ncamping?{{delay frames=\"40\"}} {{anim id=\"OhGeez\" target=\"actor\" targetSpec=\"\"}}{{color id=\"3\"}}Roberto{{color id=\"65535\"}} est désolé pour\ntoi, mais il ne peut pas.{{pageBreak}}{{anim id=\"AbsentMindedness\" target=\"actor\" targetSpec=\"\"}}La danse appelle {{color id=\"3\"}}Roberto {{color id=\"65535\"}}aux quatre\ncoins du globe.{{delay20}} Et {{color id=\"3\"}}Roberto {{color id=\"65535\"}}doit y\nrépondre. {{color id=\"3\"}}{{delay20}}{{anim id=\"Angry\" target=\"actor\" targetSpec=\"\"}}Roberto {{color id=\"65535\"}}doit DANSER!{{pageBreak}}{{anim id=\"Smiling\" target=\"actor\" targetSpec=\"\"}}Mais ne pleure pas.{{delay20}}{{anim id=\"Angry\" target=\"actor\" targetSpec=\"\"}} Fais plutôt\nbouger ton corps! {{delay20}}Quand le carnaval\nreviendra, {{color id=\"3\"}}{{delay20}}{{anim id=\"EmotEnd\" target=\"actor\" targetSpec=\"\"}}Roberto {{color id=\"65535\"}}te fera danser!"
    }
  },
  {
    "label": "101",
    "attribute": "0x00000013",
    "locale": {
      "CNzh": "{{anim id=\"Smiling\" target=\"actor\" targetSpec=\"\"}}嗨，{{delay20}}我是{{string value=\"VillagerName\"}}哦！{{delay frames=\"40\"}}\n{{anim id=\"Hello\" target=\"actor\" targetSpec=\"\"}}今天找我有什么事啊？{{i10_4}}\n{{anim id=\"Eh\" target=\"actor\" targetSpec=\"\"}}哎呀！{{delay8}}要帮我建造我的专属别墅吗？！{{pageBreak}}{{anim id=\"Grin\" target=\"actor\" targetSpec=\"\"}}听起来很棒～{{delay20}}超酷的！{{delay frames=\"50\"}}\n{{anim id=\"EmotEnd\" target=\"actor\" targetSpec=\"\"}}不过，{{delay20}}我平时都忙着练习舞蹈，{{delay8}}\n{{anim id=\"OhGeez\" target=\"actor\" targetSpec=\"\"}}没有时间管其它事情呢～{{pageBreak}}{{anim id=\"Aha\" target=\"actor\" targetSpec=\"\"}}什么！{{delay20}}你说可以全权交给你负责？{{delay frames=\"40\"}}\n{{anim id=\"Nodding\" target=\"actor\" targetSpec=\"\"}}太好了，{{delay20}}这样的话就完全没问题了！{{delay frames=\"40\"}}\n{{anim id=\"EmotEnd\" target=\"actor\" targetSpec=\"\"}}那么，{{delay20}}我这就去找你！",
      "EUde": "{{anim id=\"Angry\" target=\"actor\" targetSpec=\"\"}}Du! {{delay20}}Du, {{gender2 m=\"der\" f=\"die\"}} {{color id=\"3\"}}Pavo {{color id=\"65535\"}}angerufen hat!{{delay20}}\n{{anim id=\"QuestionMark\" target=\"actor\" targetSpec=\"\"}}Was wünschst du?{{pageBreak}}{{anim id=\"TakenAback\" target=\"actor\" targetSpec=\"\"}}Du möchtest {{color id=\"3\"}}Pavo{{color id=\"65535\"}} ein eigenes\nFerienhaus schenken?{{delay20}} {{anim id=\"Thinking\" target=\"actor\" targetSpec=\"\"}}Nun{{string value=\"...\"}}{{delay frames=\"40\"}}{{anim id=\"BigSmile\" target=\"actor\" targetSpec=\"\"}}\n{{color id=\"3\"}}Pavo {{color id=\"65535\"}}nimmt das Geschenk an!{{pageBreak}}{{anim id=\"Worried\" target=\"actor\" targetSpec=\"\"}}Aber{{string value=\"...\"}}{{delay20}} {{color id=\"3\"}}Pavos{{color id=\"65535\"}} Terminkalender ist\nso voll wie ein Tanzsaal an einem\nSamstagabend. {{delay20}}{{anim id=\"Negative\" target=\"actor\" targetSpec=\"\"}}{{color id=\"3\"}}Pavo {{color id=\"65535\"}}hat keine Zeit!{{pageBreak}}{{anim id=\"Nodding\" target=\"actor\" targetSpec=\"\"}}Aber wenn du dich um alles kümmern\nkönntest, {{delay8}}würde {{color id=\"3\"}}Pavo{{color id=\"65535\"}} vorbeikommen.\n{{delay20}}So wäre {{color id=\"3\"}}Pavo{{color id=\"65535\"}} sehr zufrieden!",
      "EUen": "{{anim id=\"Angry\" target=\"actor\" targetSpec=\"\"}}You! {{delay20}}You who have summoned {{color id=\"3\"}}Pavé{{color id=\"65535\"}}!{{delay20}}\n{{anim id=\"QuestionMark\" target=\"actor\" targetSpec=\"\"}}What do you want?{{pageBreak}}{{anim id=\"TakenAback\" target=\"actor\" targetSpec=\"\"}}You wish to provide {{color id=\"3\"}}Pavé {{color id=\"65535\"}}with\n{{color id=\"3\"}}Pavé{{color id=\"65535\"}}'s{{color id=\"3\"}} {{color id=\"65535\"}}own vacation home?{{delay20}}\n{{anim id=\"Thinking\" target=\"actor\" targetSpec=\"\"}}Well{{string value=\"...\"}}{{delay frames=\"40\"}}{{anim id=\"BigSmile\" target=\"actor\" targetSpec=\"\"}}{{color id=\"3\"}}Pavé {{color id=\"65535\"}}accepts!{{pageBreak}}{{anim id=\"Worried\" target=\"actor\" targetSpec=\"\"}}However!{{delay20}} {{color id=\"3\"}}Pavé{{color id=\"65535\"}}'s schedule is as\nintricate and complex as the most\ndaring of dances. {{delay20}}{{anim id=\"Negative\" target=\"actor\" targetSpec=\"\"}}{{color id=\"3\"}}Pavé {{color id=\"65535\"}}has no time!{{pageBreak}}{{anim id=\"Nodding\" target=\"actor\" targetSpec=\"\"}}If you take care of everything FOR\n{{color id=\"3\"}}Pavé{{color id=\"65535\"}}, then {{color id=\"3\"}}Pavé {{color id=\"65535\"}}will arrive. {{delay20}}This\narrangement suits {{color id=\"3\"}}Pavé{{color id=\"65535\"}}!",
      "EUes": "{{anim id=\"Angry\" target=\"actor\" targetSpec=\"\"}}¡Tú!{{delay8}} ¡{{gender2 m=\"El\" f=\"La\"}} que ha convocado a {{color id=\"3\"}}Conga\n{{color id=\"65535\"}}y parado el incansable ritmo de sus\ncaderas!{{delay20}} {{anim id=\"QuestionMark\" target=\"actor\" targetSpec=\"\"}}¿Qué querías?{{pageBreak}}{{anim id=\"TakenAback\" target=\"actor\" targetSpec=\"\"}}Si te he entendido,{{delay8}} ¿dices que\na {{color id=\"3\"}}Conga{{color id=\"65535\"}} le vendría bien una casa\nde vacaciones igual de bailonga?{{delay20}}\n{{anim id=\"Thinking\" target=\"actor\" targetSpec=\"\"}}Pues{{string value=\"...\"}}{{delay8}} {{anim id=\"BigSmile\" target=\"actor\" targetSpec=\"\"}}¡{{color id=\"3\"}}Conga {{color id=\"65535\"}}acepta!{{pageBreak}}{{anim id=\"Worried\" target=\"actor\" targetSpec=\"\"}}Pero{{string value=\"...\"}}{{delay8}} Cómo decir esto{{string value=\"...\"}}{{delay8}} {{color id=\"3\"}}Conga\n{{color id=\"65535\"}}se debe a sus pasos de alucine{{delay8}}\ny {{anim id=\"Negative\" target=\"actor\" targetSpec=\"\"}}no puede abandonar la fiesta.\n{{anim id=\"OhGeez\" target=\"actor\" targetSpec=\"\"}}¡Es un pavo real muy ocupado!{{pageBreak}}{{anim id=\"Nodding\" target=\"actor\" targetSpec=\"\"}}Aunque si de todo te encargas por\n{{color id=\"3\"}}Conga{{color id=\"65535\"}},{{delay8}} sus pasos lo llevarán dónde\nestés con el un, dos, tres.",
      "EUfr": "{{anim id=\"Angry\" target=\"actor\" targetSpec=\"\"}}Toi !{{delay20}} Toi qui as appelé {{color id=\"3\"}}Roberto{{color id=\"65535\"}} !{{delay20}}\n{{anim id=\"QuestionMark\" target=\"actor\" targetSpec=\"\"}}Qu'est-ce que tu veux ?{{pageBreak}}{{anim id=\"TakenAback\" target=\"actor\" targetSpec=\"\"}}Tu veux que {{color id=\"3\"}}Roberto{{color id=\"65535\"}} aie sa propre\nmaison de vacances ?{{delay20}} {{anim id=\"Thinking\" target=\"actor\" targetSpec=\"\"}}Hmm{{string value=\"...\"}}{{delay frames=\"40\"}}{{anim id=\"BigSmile\" target=\"actor\" targetSpec=\"\"}}\n{{color id=\"3\"}}Roberto{{color id=\"65535\"}} accepte !{{pageBreak}}{{anim id=\"Worried\" target=\"actor\" targetSpec=\"\"}}Cependant,{{delay20}} {{color id=\"3\"}}Roberto {{color id=\"65535\"}}a un emploi du\ntemps aussi chargé qu'une piste de\ndanse un samedi soir !{{delay20}}\n{{anim id=\"Nodding\" target=\"actor\" targetSpec=\"\"}}Si tu te charges bien de tout pour\n{{color id=\"3\"}}Roberto{{color id=\"65535\"}}, alors cet arrangement va\nà {{color id=\"3\"}}Roberto{{color id=\"65535\"}} qui arrive de ce pas.",
      "EUit": "{{anim id=\"Angry\" target=\"actor\" targetSpec=\"\"}}Tu! {{delay20}}Sei stat{{gender2 m=\"o\" f=\"a\"}} tu a chiamare {{color id=\"3\"}}Pavão{{color id=\"65535\"}}?{{delay20}}\n{{anim id=\"QuestionMark\" target=\"actor\" targetSpec=\"\"}}Che cosa vuoi da {{color id=\"3\"}}Pavão{{color id=\"65535\"}}?{{pageBreak}}{{anim id=\"TakenAback\" target=\"actor\" targetSpec=\"\"}}Vuoi regalão a {{color id=\"3\"}}Pavão {{color id=\"65535\"}}una casa\nvacanze?{{delay20}} {{anim id=\"Thinking\" target=\"actor\" targetSpec=\"\"}}Beh{{string value=\"...\"}}{{delay20}} {{anim id=\"BigSmile\" target=\"actor\" targetSpec=\"\"}}{{color id=\"3\"}}Pavão {{color id=\"65535\"}}accetta!{{pageBreak}}{{anim id=\"Worried\" target=\"actor\" targetSpec=\"\"}}Perão!{{delay20}} Gli impegni di {{color id=\"3\"}}Pavão {{color id=\"65535\"}}sono\npiù intricati di un ballo di samba!{{delay20}}\n{{anim id=\"Negative\" target=\"actor\" targetSpec=\"\"}}{{color id=\"3\"}}Pavão {{color id=\"65535\"}}non ha tempo!{{pageBreak}}{{anim id=\"Nodding\" target=\"actor\" targetSpec=\"\"}}Se ti occupi di tutto al posto di\n{{color id=\"3\"}}Pavão{{color id=\"65535\"}}, allora {{color id=\"3\"}}Pavão {{color id=\"65535\"}}verrà subito da\nte. {{delay20}}Così {{color id=\"3\"}}Pavão {{color id=\"65535\"}}sarà contento!",
      "EUnl": "{{anim id=\"Angry\" target=\"actor\" targetSpec=\"\"}}Jij daar! {{delay20}}Jij die {{color id=\"3\"}}Pavé{{color id=\"65535\"}} hebt\nopgeroepen!{{delay20}} {{anim id=\"QuestionMark\" target=\"actor\" targetSpec=\"\"}}Wat moet je van mij?{{pageBreak}}{{anim id=\"TakenAback\" target=\"actor\" targetSpec=\"\"}}Je wilt {{color id=\"3\"}}Pavé {{color id=\"65535\"}}een eigen vakantiehuis\naanbieden?{{delay20}} {{anim id=\"Thinking\" target=\"actor\" targetSpec=\"\"}}Nou{{string value=\"...\"}}{{delay frames=\"40\"}}{{anim id=\"BigSmile\" target=\"actor\" targetSpec=\"\"}} daar gaat {{color id=\"3\"}}Pavé\n{{color id=\"65535\"}}mee akkoord!{{pageBreak}}{{anim id=\"Worried\" target=\"actor\" targetSpec=\"\"}}Maar!{{delay20}} {{color id=\"3\"}}Pavé{{color id=\"65535\"}}'s agenda is zo levendig\nen complex als een vurige dans.{{delay20}} {{anim id=\"Negative\" target=\"actor\" targetSpec=\"\"}}{{color id=\"3\"}}Pavé\n{{color id=\"65535\"}}heeft geen tijd!{{pageBreak}}{{anim id=\"Nodding\" target=\"actor\" targetSpec=\"\"}}Als jij alles regelt voor {{color id=\"3\"}}Pavé{{color id=\"65535\"}}, zal {{color id=\"3\"}}Pavé\n{{color id=\"65535\"}}komen. {{delay20}}Dat is een goede regeling\nvoor {{color id=\"3\"}}Pavé{{color id=\"65535\"}}!",
      "EUru": "{{anim id=\"Angry\" target=\"actor\" targetSpec=\"\"}}Ты! {{delay20}}Ты, котор{{gender2 m=\"ый\" f=\"ая\"}} вызвал{{gender2 m=\"\" f=\"а\"}} {{color id=\"3\"}}Паве{{color id=\"65535\"}}!{{delay20}}\n{{anim id=\"QuestionMark\" target=\"actor\" targetSpec=\"\"}}Чего ты желаешь?{{pageBreak}}{{anim id=\"TakenAback\" target=\"actor\" targetSpec=\"\"}}Хочешь соорудить для {{color id=\"3\"}}Паве {{color id=\"65535\"}}дачу?{{delay20}}\n{{anim id=\"Thinking\" target=\"actor\" targetSpec=\"\"}}Ну{{string value=\"...\"}}{{delay frames=\"40\"}}{{anim id=\"BigSmile\" target=\"actor\" targetSpec=\"\"}} {{color id=\"3\"}}Паве {{color id=\"65535\"}}согласен!{{pageBreak}}{{anim id=\"Worried\" target=\"actor\" targetSpec=\"\"}}Но! {{delay20}}График у {{color id=\"3\"}}Паве {{color id=\"65535\"}}напряженный\nи насыщенный, как очень сложный\nтанец. {{delay20}}{{anim id=\"Negative\" target=\"actor\" targetSpec=\"\"}}У {{color id=\"3\"}}Паве {{color id=\"65535\"}}нет времени!{{pageBreak}}{{anim id=\"Nodding\" target=\"actor\" targetSpec=\"\"}}Если ты все возьмешь на себя,\nто {{color id=\"3\"}}Паве {{color id=\"65535\"}}приедет. {{delay20}}Это решение {{color id=\"3\"}}Паве{{color id=\"65535\"}}!",
      "JPja": "{{anim id=\"Smiling\" target=\"actor\" targetSpec=\"\"}}ハーイ、{{delay20}}{{string value=\"VillagerName\"}}よ！{{delay frames=\"40\"}}\n{{anim id=\"Hello\" target=\"actor\" targetSpec=\"\"}}{{ruby charSpan=\"2\" value=\"きょう\"}}今日は　なんのご{{ruby charSpan=\"1\" value=\"よう\"}}用かしら？{{i10_4}}\n{{anim id=\"Eh\" target=\"actor\" targetSpec=\"\"}}まあ！{{delay8}}　わたしだけの{{ruby charSpan=\"2\" value=\"べっそう\"}}別荘ですって？！{{pageBreak}}{{anim id=\"Grin\" target=\"actor\" targetSpec=\"\"}}いいじゃな～い、{{delay20}}{{ruby charSpan=\"2\" value=\"さいこう\"}}最高にクールだわ！{{delay frames=\"50\"}}\n{{anim id=\"EmotEnd\" target=\"actor\" targetSpec=\"\"}}でも　わたし、{{delay20}}ダンスのレッスンが　{{ruby charSpan=\"1\" value=\"いそが\"}}忙しくて{{delay8}}\n{{anim id=\"OhGeez\" target=\"actor\" targetSpec=\"\"}}{{ruby charSpan=\"1\" value=\"ほか\"}}他のことに　{{ruby charSpan=\"1\" value=\"かま\"}}構ってるヒマ　ないのよね～{{pageBreak}}{{anim id=\"Aha\" target=\"actor\" targetSpec=\"\"}}あらっ！{{delay20}}　{{ruby charSpan=\"1\" value=\"まる\"}}丸ごとお{{ruby charSpan=\"1\" value=\"まか\"}}任せプランがあるの？{{delay frames=\"40\"}}\n{{anim id=\"Nodding\" target=\"actor\" targetSpec=\"\"}}オーケー、{{delay20}}だったら　{{ruby charSpan=\"2\" value=\"もんだい\"}}問題ないわ{{delay frames=\"40\"}}\n{{anim id=\"EmotEnd\" target=\"actor\" targetSpec=\"\"}}それじゃ、{{delay20}}{{ruby charSpan=\"1\" value=\"いま\"}}今すぐ　そっちへ{{ruby charSpan=\"1\" value=\"い\"}}行くわネ！",
      "KRko": "{{anim id=\"Smiling\" target=\"actor\" targetSpec=\"\"}}네～ {{delay20}}{{string value=\"VillagerName\"}}입니다!{{delay frames=\"40\"}}\n{{anim id=\"Hello\" target=\"actor\" targetSpec=\"\"}}오늘은 무슨 일이니?{{i10_4}}\n{{anim id=\"Eh\" target=\"actor\" targetSpec=\"\"}}옴머머!{{delay8}} 나만의 별장이라구?!{{pageBreak}}{{anim id=\"Grin\" target=\"actor\" targetSpec=\"\"}}아주 좋아～ {{delay20}}최고로 쿨해!{{delay frames=\"50\"}}\n{{anim id=\"EmotEnd\" target=\"actor\" targetSpec=\"\"}}하지만 난{{delay20}} 댄스 레슨 때문에 바빠서{{delay8}}\n{{anim id=\"OhGeez\" target=\"actor\" targetSpec=\"\"}}다른 일에 들일 시간이 없거든～{{pageBreak}}{{anim id=\"Aha\" target=\"actor\" targetSpec=\"\"}}옴머머!{{delay20}} 몽땅 알아서 해준다구?{{delay frames=\"40\"}}\n{{anim id=\"Nodding\" target=\"actor\" targetSpec=\"\"}}오케이～{{delay20}} 그럼 다 해결됐네{{delay frames=\"40\"}}\n{{anim id=\"EmotEnd\" target=\"actor\" targetSpec=\"\"}}지금 당장 거기로 갈게!",
      "TWzh": "{{anim id=\"Smiling\" target=\"actor\" targetSpec=\"\"}}嗨，{{delay20}}我是{{string value=\"VillagerName\"}}！{{delay frames=\"40\"}}\n{{anim id=\"Hello\" target=\"actor\" targetSpec=\"\"}}你今天找我有什麼事嗎？{{i10_4}}\n{{anim id=\"Eh\" target=\"actor\" targetSpec=\"\"}}啊！{{delay8}}你是說只屬於我的別墅嗎！？{{pageBreak}}{{anim id=\"Grin\" target=\"actor\" targetSpec=\"\"}}聽起來挺不錯的嘛～{{delay20}}聽起來最酷了！{{delay frames=\"50\"}}\n{{anim id=\"EmotEnd\" target=\"actor\" targetSpec=\"\"}}不過{{delay20}}我一直都在忙著練舞蹈，{{delay8}}\n{{anim id=\"OhGeez\" target=\"actor\" targetSpec=\"\"}}所以沒空去管其他事呢～{{pageBreak}}{{anim id=\"Aha\" target=\"actor\" targetSpec=\"\"}}哎呀！{{delay20}}你們還有提供全權負責的方案嗎？{{delay frames=\"40\"}}\n{{anim id=\"Nodding\" target=\"actor\" targetSpec=\"\"}}OK，{{delay20}}那就沒問題了。{{delay frames=\"40\"}}\n{{anim id=\"EmotEnd\" target=\"actor\" targetSpec=\"\"}}那麼{{delay20}}我馬上去你那裡吧！",
      "USen": "{{anim id=\"Angry\" target=\"actor\" targetSpec=\"\"}}You! {{delay20}}You who have summoned {{color id=\"3\"}}Pavé{{color id=\"65535\"}}!{{delay20}}\n{{anim id=\"QuestionMark\" target=\"actor\" targetSpec=\"\"}}What do you want?{{pageBreak}}{{anim id=\"TakenAback\" target=\"actor\" targetSpec=\"\"}}You wish to provide {{color id=\"3\"}}Pavé {{color id=\"65535\"}}with\n{{color id=\"3\"}}Pavé{{color id=\"65535\"}}'s{{color id=\"3\"}} {{color id=\"65535\"}}own vacation home?{{delay20}}\n{{anim id=\"Thinking\" target=\"actor\" targetSpec=\"\"}}Well{{string value=\"...\"}}{{delay frames=\"40\"}}{{anim id=\"BigSmile\" target=\"actor\" targetSpec=\"\"}}{{color id=\"3\"}}Pavé {{color id=\"65535\"}}accepts!{{pageBreak}}{{anim id=\"Worried\" target=\"actor\" targetSpec=\"\"}}However!{{delay20}} {{color id=\"3\"}}Pavé{{color id=\"65535\"}}'s schedule is as\nintricate and complex as the most\ndaring of dances. {{delay20}}{{anim id=\"Negative\" target=\"actor\" targetSpec=\"\"}}{{color id=\"3\"}}Pavé {{color id=\"65535\"}}has no time!{{pageBreak}}{{anim id=\"Nodding\" target=\"actor\" targetSpec=\"\"}}If you take care of everything FOR\n{{color id=\"3\"}}Pavé{{color id=\"65535\"}}, then {{color id=\"3\"}}Pavé {{color id=\"65535\"}}will arrive. {{delay20}}This\narrangement suits {{color id=\"3\"}}Pavé{{color id=\"65535\"}}!",
      "USes": "{{anim id=\"Angry\" target=\"actor\" targetSpec=\"\"}}¡Tú!{{delay8}} ¡{{gender2 m=\"El\" f=\"La\"}} que convocó a {{color id=\"3\"}}Conga\n{{color id=\"65535\"}}y detuvo el incansable ritmo de sus\ncaderas!{{delay20}} {{anim id=\"QuestionMark\" target=\"actor\" targetSpec=\"\"}}¿Qué querías?{{pageBreak}}{{anim id=\"TakenAback\" target=\"actor\" targetSpec=\"\"}}Si entendí bien,{{delay8}} ¿dices que a {{color id=\"3\"}}Conga\n{{color id=\"65535\"}}le vendría bien una casa de\nvacaciones igual de bailonga?{{delay20}}\n{{anim id=\"Thinking\" target=\"actor\" targetSpec=\"\"}}Pues{{string value=\"...\"}}{{delay8}} {{anim id=\"BigSmile\" target=\"actor\" targetSpec=\"\"}}¡{{color id=\"3\"}}Conga {{color id=\"65535\"}}acepta!{{pageBreak}}{{anim id=\"Worried\" target=\"actor\" targetSpec=\"\"}}Pero{{string value=\"...\"}}{{delay8}} Cómo decir esto{{string value=\"...\"}}{{delay8}} {{color id=\"3\"}}Conga\n{{color id=\"65535\"}}se debe a su baile virtuoso{{delay8}}\ny {{anim id=\"Negative\" target=\"actor\" targetSpec=\"\"}}no puede abandonar la fiesta.\n{{anim id=\"OhGeez\" target=\"actor\" targetSpec=\"\"}}¡Es un pavo real muy ocupado!{{pageBreak}}{{anim id=\"Nodding\" target=\"actor\" targetSpec=\"\"}}Aunque si te encargas de todo,{{delay8}}\nel baile llevará a {{color id=\"3\"}}Conga {{color id=\"65535\"}}hasta dónde\nestés con el un, dos, tres.",
      "USfr": "{{anim id=\"Angry\" target=\"actor\" targetSpec=\"\"}}Toi!{{delay20}} Toi qui as appelé {{color id=\"3\"}}Roberto{{color id=\"65535\"}}!{{delay20}}\n{{anim id=\"QuestionMark\" target=\"actor\" targetSpec=\"\"}}Qu'est-ce que tu veux?{{pageBreak}}{{anim id=\"TakenAback\" target=\"actor\" targetSpec=\"\"}}Tu veux que {{color id=\"3\"}}Roberto{{color id=\"65535\"}} ait sa propre\nmaison de vacances?{{delay20}} {{anim id=\"Thinking\" target=\"actor\" targetSpec=\"\"}}Hmm{{string value=\"...\"}}{{delay frames=\"40\"}}{{anim id=\"BigSmile\" target=\"actor\" targetSpec=\"\"}}\n{{color id=\"3\"}}Roberto{{color id=\"65535\"}} accepte!{{pageBreak}}{{anim id=\"Worried\" target=\"actor\" targetSpec=\"\"}}Cependant,{{delay20}} {{color id=\"3\"}}Roberto {{color id=\"65535\"}}a un emploi du\ntemps aussi chargé qu'une piste de\ndanse un samedi soir!{{delay20}}\n{{anim id=\"Nodding\" target=\"actor\" targetSpec=\"\"}}Si tu te charges bien de tout pour\n{{color id=\"3\"}}Roberto{{color id=\"65535\"}}, alors cet arrangement va\nà {{color id=\"3\"}}Roberto{{color id=\"65535\"}} qui arrive de ce pas."
    }
  }
]