﻿[
  {
    "label": "ant00",
    "text": "апчхи"
  },
  {
    "label": "ant01",
    "text": "го-го-го"
  },
  {
    "label": "ant02",
    "text": "снуф-снуф"
  },
  {
    "label": "ant03",
    "text": "хрум-хрум"
  },
  {
    "label": "ant05",
    "text": "пых-пых"
  },
  {
    "label": "ant06",
    "text": "шмыг"
  },
  {
    "label": "ant08",
    "text": "жуй-жуй"
  },
  {
    "label": "ant09",
    "text": "уф-уф"
  },
  {
    "label": "bea00",
    "text": "быр-быр"
  },
  {
    "label": "bea01",
    "text": "ну и ну"
  },
  {
    "label": "bea02",
    "text": "махрово"
  },
  {
    "label": "bea03",
    "text": "ай-яй"
  },
  {
    "label": "bea05",
    "text": "спа-а-ать"
  },
  {
    "label": "bea06",
    "text": "бур-бур"
  },
  {
    "label": "bea07",
    "text": "ме-е-ед"
  },
  {
    "label": "bea08",
    "text": "гррум"
  },
  {
    "label": "bea09",
    "text": "грр"
  },
  {
    "label": "bea10",
    "text": "йодль"
  },
  {
    "label": "bea11",
    "text": "гарр-сон"
  },
  {
    "label": "bea12",
    "text": "ого-го"
  },
  {
    "label": "bea13",
    "text": "усы мои"
  },
  {
    "label": "bea14",
    "text": "штрудель"
  },
  {
    "label": "bea15",
    "text": "сладенько"
  },
  {
    "label": "brd00",
    "text": "хей-хей"
  },
  {
    "label": "brd01",
    "text": "ля-ля-ля"
  },
  {
    "label": "brd02",
    "text": "чик-чирик"
  },
  {
    "label": "brd03",
    "text": "тю-вить"
  },
  {
    "label": "brd04",
    "text": "бзе-е-ерт"
  },
  {
    "label": "brd05",
    "text": "чики-чик"
  },
  {
    "label": "brd06",
    "text": "чиф-чиф"
  },
  {
    "label": "brd08",
    "text": "тви-тви"
  },
  {
    "label": "brd09",
    "text": "фьють"
  },
  {
    "label": "brd11",
    "text": "чуррп"
  },
  {
    "label": "brd15",
    "text": "кар-ко"
  },
  {
    "label": "brd16",
    "text": "фу ты"
  },
  {
    "label": "brd17",
    "text": "тук-тук"
  },
  {
    "label": "brd18",
    "text": "так-так"
  },
  {
    "label": "bul00",
    "text": "макму-у-у"
  },
  {
    "label": "bul01",
    "text": "ковбой"
  },
  {
    "label": "bul03",
    "text": "му-у"
  },
  {
    "label": "bul05",
    "text": "бычок"
  },
  {
    "label": "bul07",
    "text": "раз-два"
  },
  {
    "label": "bul08",
    "text": "полундра"
  },
  {
    "label": "cat00",
    "text": "кх-кх-кх"
  },
  {
    "label": "cat01",
    "text": "мяу-мяу"
  },
  {
    "label": "cat02",
    "text": "рыбка"
  },
  {
    "label": "cat03",
    "text": "мур-мяу"
  },
  {
    "label": "cat04",
    "text": "кисуля"
  },
  {
    "label": "cat05",
    "text": "фруктик"
  },
  {
    "label": "cat06",
    "text": "отдыхаем"
  },
  {
    "label": "cat07",
    "text": "кис-кис"
  },
  {
    "label": "cat08",
    "text": "мяу-а-а-а"
  },
  {
    "label": "cat09",
    "text": "мя-я-яу"
  },
  {
    "label": "cat10",
    "text": "шш"
  },
  {
    "label": "cat11",
    "text": "фи-фи"
  },
  {
    "label": "cat12",
    "text": "мя-ого"
  },
  {
    "label": "cat13",
    "text": "фу-у-у"
  },
  {
    "label": "cat14",
    "text": "мр-мр-мр"
  },
  {
    "label": "cat15",
    "text": "мя-я-яоза"
  },
  {
    "label": "cat16",
    "text": "мяуи-и-и"
  },
  {
    "label": "cat17",
    "text": "ми-ми-ми"
  },
  {
    "label": "cat18",
    "text": "конфетка"
  },
  {
    "label": "cat19",
    "text": "ми-мяу"
  },
  {
    "label": "cat20",
    "text": "шмяк"
  },
  {
    "label": "cat21",
    "text": "хор-р-рошо"
  },
  {
    "label": "cat23",
    "text": "стильненько"
  },
  {
    "label": "cbr00",
    "text": "персик"
  },
  {
    "label": "cbr01",
    "text": "лапушка"
  },
  {
    "label": "cbr02",
    "text": "медвежонок"
  },
  {
    "label": "cbr03",
    "text": "карапуз"
  },
  {
    "label": "cbr04",
    "text": "гррр"
  },
  {
    "label": "cbr05",
    "text": "плюш-плюш"
  },
  {
    "label": "cbr06",
    "text": "ну не-е-ет"
  },
  {
    "label": "cbr07",
    "text": "товарищ"
  },
  {
    "label": "cbr09",
    "text": "милашка"
  },
  {
    "label": "cbr10",
    "text": "тра-ля-ля"
  },
  {
    "label": "cbr13",
    "text": "радуга-дуга"
  },
  {
    "label": "cbr14",
    "text": "цветочек"
  },
  {
    "label": "cbr15",
    "text": "бамбук"
  },
  {
    "label": "cbr16",
    "text": "берлога"
  },
  {
    "label": "cbr17",
    "text": "понимаешь"
  },
  {
    "label": "cbr18",
    "text": "помпончик"
  },
  {
    "label": "cbr19",
    "text": "охохонюшки"
  },
  {
    "label": "chn00",
    "text": "ко-кей"
  },
  {
    "label": "chn01",
    "text": "о-ко-ко"
  },
  {
    "label": "chn02",
    "text": "кукареку"
  },
  {
    "label": "chn05",
    "text": "клювик"
  },
  {
    "label": "chn09",
    "text": "модненько"
  },
  {
    "label": "chn10",
    "text": "щип-щип"
  },
  {
    "label": "chn11",
    "text": "короко"
  },
  {
    "label": "chn12",
    "text": "ки-ки-ки"
  },
  {
    "label": "chn13",
    "text": "это точно"
  },
  {
    "label": "cow00",
    "text": "му-му"
  },
  {
    "label": "cow01",
    "text": "теленок"
  },
  {
    "label": "cow06",
    "text": "до-ре-му"
  },
  {
    "label": "cow07",
    "text": "муля"
  },
  {
    "label": "crd00",
    "text": "это я"
  },
  {
    "label": "crd01",
    "text": "гра-а-а"
  },
  {
    "label": "crd02",
    "text": "кусь"
  },
  {
    "label": "crd04",
    "text": "щелк"
  },
  {
    "label": "crd05",
    "text": "космос"
  },
  {
    "label": "crd06",
    "text": "ура-а-а"
  },
  {
    "label": "crd07",
    "text": "перекус"
  },
  {
    "label": "crd08",
    "text": "огонь"
  },
  {
    "label": "der00",
    "text": "олешек"
  },
  {
    "label": "der01",
    "text": "скок-скок"
  },
  {
    "label": "der02",
    "text": "прыг-прыг"
  },
  {
    "label": "der03",
    "text": "забияка"
  },
  {
    "label": "der04",
    "text": "как-то так"
  },
  {
    "label": "der05",
    "text": "бубух"
  },
  {
    "label": "der06",
    "text": "зазноба"
  },
  {
    "label": "der07",
    "text": "соль-соль"
  },
  {
    "label": "der08",
    "text": "еще бы"
  },
  {
    "label": "der09",
    "text": "ем мох"
  },
  {
    "label": "der10",
    "text": "бисквит"
  },
  {
    "label": "der11",
    "text": "окей"
  },
  {
    "label": "dog00",
    "text": "тяв"
  },
  {
    "label": "dog01",
    "text": "ррр-гав"
  },
  {
    "label": "dog02",
    "text": "ррр-ой-ой"
  },
  {
    "label": "dog03",
    "text": "пр-риятяв"
  },
  {
    "label": "dog04",
    "text": "тяв-тяв"
  },
  {
    "label": "dog05",
    "text": "тяв-ряв"
  },
  {
    "label": "dog06",
    "text": "ау-у"
  },
  {
    "label": "dog07",
    "text": "тяв-ого"
  },
  {
    "label": "dog08",
    "text": "гав-гав"
  },
  {
    "label": "dog09",
    "text": "ур-ра"
  },
  {
    "label": "dog10",
    "text": "динго"
  },
  {
    "label": "dog11",
    "text": "ай-яй-яй"
  },
  {
    "label": "dog14",
    "text": "ау-у-гав"
  },
  {
    "label": "dog15",
    "text": "ау-уи"
  },
  {
    "label": "dog16",
    "text": "пор-рядок"
  },
  {
    "label": "dog17",
    "text": "что-что"
  },
  {
    "label": "dog18",
    "text": "бр-р-разер"
  },
  {
    "label": "duk00",
    "text": "кряко"
  },
  {
    "label": "duk01",
    "text": "кряк"
  },
  {
    "label": "duk02",
    "text": "кряки-кряк"
  },
  {
    "label": "duk03",
    "text": "желторотик"
  },
  {
    "label": "duk04",
    "text": "кря-кря"
  },
  {
    "label": "duk05",
    "text": "крякушки"
  },
  {
    "label": "duk06",
    "text": "кряк-фи"
  },
  {
    "label": "duk07",
    "text": "утенок"
  },
  {
    "label": "duk08",
    "text": "кррря"
  },
  {
    "label": "duk09",
    "text": "кра-а"
  },
  {
    "label": "duk10",
    "text": "брум-брум"
  },
  {
    "label": "duk11",
    "text": "кря-а"
  },
  {
    "label": "duk12",
    "text": "покрясающе"
  },
  {
    "label": "duk13",
    "text": "покрякушка"
  },
  {
    "label": "duk15",
    "text": "не кряк ли"
  },
  {
    "label": "duk16",
    "text": "крякульки"
  },
  {
    "label": "duk17",
    "text": "шу-утка"
  },
  {
    "label": "elp00",
    "text": "хобот"
  },
  {
    "label": "elp01",
    "text": "тру-ру"
  },
  {
    "label": "elp02",
    "text": "хитрюга"
  },
  {
    "label": "elp03",
    "text": "тру-тут"
  },
  {
    "label": "elp04",
    "text": "тру-у-ти"
  },
  {
    "label": "elp05",
    "text": "друг"
  },
  {
    "label": "elp06",
    "text": "потрубим"
  },
  {
    "label": "elp07",
    "text": "кроха"
  },
  {
    "label": "elp09",
    "text": "бивень"
  },
  {
    "label": "elp10",
    "text": "чайку-у"
  },
  {
    "label": "elp11",
    "text": "машу ушами"
  },
  {
    "label": "elp12",
    "text": "рок-н-ролл"
  },
  {
    "label": "flg00",
    "text": "ква"
  },
  {
    "label": "flg01",
    "text": "квак-дзынь"
  },
  {
    "label": "flg02",
    "text": "квак"
  },
  {
    "label": "flg03",
    "text": "шагом-квак"
  },
  {
    "label": "flg04",
    "text": "бро"
  },
  {
    "label": "flg05",
    "text": "ква-ква"
  },
  {
    "label": "flg06",
    "text": "плюх"
  },
  {
    "label": "flg07",
    "text": "буль-буль"
  },
  {
    "label": "flg09",
    "text": "жабррр"
  },
  {
    "label": "flg10",
    "text": "уи-уи"
  },
  {
    "label": "flg11",
    "text": "скок"
  },
  {
    "label": "flg12",
    "text": "квак-квак"
  },
  {
    "label": "flg13",
    "text": "кво-кей"
  },
  {
    "label": "flg15",
    "text": "ах-ох"
  },
  {
    "label": "flg16",
    "text": "квакет"
  },
  {
    "label": "flg17",
    "text": "вроде того"
  },
  {
    "label": "flg18",
    "text": "знаешь"
  },
  {
    "label": "flg19",
    "text": "ква-храп"
  },
  {
    "label": "goa00",
    "text": "ле ме-е-е"
  },
  {
    "label": "goa01",
    "text": "козленок"
  },
  {
    "label": "goa02",
    "text": "такие-сякие"
  },
  {
    "label": "goa04",
    "text": "ме-хе-хе"
  },
  {
    "label": "goa06",
    "text": "ме-е-е"
  },
  {
    "label": "goa07",
    "text": "так"
  },
  {
    "label": "goa08",
    "text": "козлятки"
  },
  {
    "label": "goa09",
    "text": "мемеша"
  },
  {
    "label": "gor00",
    "text": "высочество"
  },
  {
    "label": "gor01",
    "text": "мелкота"
  },
  {
    "label": "gor02",
    "text": "бабум"
  },
  {
    "label": "gor04",
    "text": "ух-ух-ах"
  },
  {
    "label": "gor05",
    "text": "ух-ох"
  },
  {
    "label": "gor07",
    "text": "сластена"
  },
  {
    "label": "gor08",
    "text": "ух-ух-ух"
  },
  {
    "label": "gor09",
    "text": "на взлет"
  },
  {
    "label": "gor10",
    "text": "респект"
  },
  {
    "label": "gor11",
    "text": "алло"
  },
  {
    "label": "ham00",
    "text": "хомячок"
  },
  {
    "label": "ham01",
    "text": "щечки"
  },
  {
    "label": "ham02",
    "text": "резонно"
  },
  {
    "label": "ham03",
    "text": "ле хом"
  },
  {
    "label": "ham04",
    "text": "о-хо-хо"
  },
  {
    "label": "ham05",
    "text": "стук-стук"
  },
  {
    "label": "ham06",
    "text": "пушистик"
  },
  {
    "label": "ham07",
    "text": "фырк"
  },
  {
    "label": "ham09",
    "text": "короче"
  },
  {
    "label": "hip00",
    "text": "гиппи"
  },
  {
    "label": "hip02",
    "text": "хипстер"
  },
  {
    "label": "hip03",
    "text": "бултых"
  },
  {
    "label": "hip04",
    "text": "малек"
  },
  {
    "label": "hip05",
    "text": "дорогуша"
  },
  {
    "label": "hip08",
    "text": "лежебока"
  },
  {
    "label": "hip09",
    "text": "естессно"
  },
  {
    "label": "hrs00",
    "text": "партнер"
  },
  {
    "label": "hrs01",
    "text": "сахарок"
  },
  {
    "label": "hrs02",
    "text": "и все"
  },
  {
    "label": "hrs03",
    "text": "жеребенок"
  },
  {
    "label": "hrs04",
    "text": "не-е-ет"
  },
  {
    "label": "hrs05",
    "text": "тык-дык"
  },
  {
    "label": "hrs06",
    "text": "новичок"
  },
  {
    "label": "hrs07",
    "text": "рафинад"
  },
  {
    "label": "hrs08",
    "text": "соседушка"
  },
  {
    "label": "hrs09",
    "text": "кусь-кусь"
  },
  {
    "label": "hrs10",
    "text": "цок-цок"
  },
  {
    "label": "hrs11",
    "text": "глянь"
  },
  {
    "label": "hrs12",
    "text": "се-е-ено"
  },
  {
    "label": "hrs13",
    "text": "блеск"
  },
  {
    "label": "hrs16",
    "text": "но-но"
  },
  {
    "label": "kal00",
    "text": "ц-ц"
  },
  {
    "label": "kal01",
    "text": "лидер"
  },
  {
    "label": "kal02",
    "text": "хрустяшка"
  },
  {
    "label": "kal03",
    "text": "солнышко"
  },
  {
    "label": "kal04",
    "text": "напарник"
  },
  {
    "label": "kal05",
    "text": "медведище"
  },
  {
    "label": "kal07",
    "text": "алоха"
  },
  {
    "label": "kal08",
    "text": "ох-хо"
  },
  {
    "label": "kal09",
    "text": "ничего"
  },
  {
    "label": "kal10",
    "text": "приятель"
  },
  {
    "label": "kgr00",
    "text": "детка"
  },
  {
    "label": "kgr01",
    "text": "малютка"
  },
  {
    "label": "kgr02",
    "text": "дитятко"
  },
  {
    "label": "kgr05",
    "text": "лапочка"
  },
  {
    "label": "kgr06",
    "text": "прыг"
  },
  {
    "label": "kgr08",
    "text": "карманчик"
  },
  {
    "label": "kgr09",
    "text": "хук"
  },
  {
    "label": "kgr10",
    "text": "кармашек"
  },
  {
    "label": "lon00",
    "text": "че-е-ел"
  },
  {
    "label": "lon01",
    "text": "буги-вуги"
  },
  {
    "label": "lon02",
    "text": "спокойно"
  },
  {
    "label": "lon04",
    "text": "левушка"
  },
  {
    "label": "lon06",
    "text": "зоосад"
  },
  {
    "label": "lon07",
    "text": "капитально"
  },
  {
    "label": "lon08",
    "text": "честь имею"
  },
  {
    "label": "mnk01",
    "text": "пу-пу"
  },
  {
    "label": "mnk02",
    "text": "дружок"
  },
  {
    "label": "mnk03",
    "text": "шимпатяга"
  },
  {
    "label": "mnk04",
    "text": "ух-эх"
  },
  {
    "label": "mnk05",
    "text": "само собой"
  },
  {
    "label": "mnk06",
    "text": "у-у-у"
  },
  {
    "label": "mnk07",
    "text": "щекасто"
  },
  {
    "label": "mnk08",
    "text": "чавк-чавк"
  },
  {
    "label": "mnk09",
    "text": "ву-ву"
  },
  {
    "label": "mus00",
    "text": "пип-пип"
  },
  {
    "label": "mus01",
    "text": "фью-фью"
  },
  {
    "label": "mus02",
    "text": "пип"
  },
  {
    "label": "mus03",
    "text": "сы-ы-ыр"
  },
  {
    "label": "mus04",
    "text": "ревушка"
  },
  {
    "label": "mus05",
    "text": "мастерски"
  },
  {
    "label": "mus08",
    "text": "сладость"
  },
  {
    "label": "mus09",
    "text": "пи-и-и"
  },
  {
    "label": "mus10",
    "text": "канноли"
  },
  {
    "label": "mus12",
    "text": "ням-ням"
  },
  {
    "label": "mus14",
    "text": "коротышка"
  },
  {
    "label": "mus15",
    "text": "пи-пи-пи"
  },
  {
    "label": "mus16",
    "text": "писк"
  },
  {
    "label": "mus17",
    "text": "бантик"
  },
  {
    "label": "mus18",
    "text": "сырок"
  },
  {
    "label": "mus19",
    "text": "м-м-м"
  },
  {
    "label": "ocp00",
    "text": "все пропало"
  },
  {
    "label": "ocp01",
    "text": "хлюп"
  },
  {
    "label": "ocp02",
    "text": "буль"
  },
  {
    "label": "ocp04",
    "text": "динь-дон"
  },
  {
    "label": "ost00",
    "text": "цыпленок"
  },
  {
    "label": "ost01",
    "text": "растяжка"
  },
  {
    "label": "ost02",
    "text": "быстро"
  },
  {
    "label": "ost03",
    "text": "дзынь"
  },
  {
    "label": "ost04",
    "text": "цып-цып"
  },
  {
    "label": "ost05",
    "text": "дарлинг"
  },
  {
    "label": "ost06",
    "text": "не потей"
  },
  {
    "label": "ost07",
    "text": "хех"
  },
  {
    "label": "ost08",
    "text": "вот так"
  },
  {
    "label": "ost09",
    "text": "розочка"
  },
  {
    "label": "ost10",
    "text": "искорка"
  },
  {
    "label": "pbr00",
    "text": "пф-ф"
  },
  {
    "label": "pbr01",
    "text": "вот"
  },
  {
    "label": "pbr02",
    "text": "глаз-алмаз"
  },
  {
    "label": "pbr03",
    "text": "капитан"
  },
  {
    "label": "pbr05",
    "text": "курлы"
  },
  {
    "label": "pbr06",
    "text": "красава"
  },
  {
    "label": "pbr07",
    "text": "клекот"
  },
  {
    "label": "pbr08",
    "text": "крыло"
  },
  {
    "label": "pbr09",
    "text": "перышко"
  },
  {
    "label": "pbr10",
    "text": "аккуратно"
  },
  {
    "label": "pgn00",
    "text": "к-к-крошка"
  },
  {
    "label": "pgn01",
    "text": "д-дружище"
  },
  {
    "label": "pgn02",
    "text": "ч-чубрик"
  },
  {
    "label": "pgn03",
    "text": "ледок"
  },
  {
    "label": "pgn04",
    "text": "брр-хм"
  },
  {
    "label": "pgn05",
    "text": "м-милашка"
  },
  {
    "label": "pgn06",
    "text": "брр"
  },
  {
    "label": "pgn07",
    "text": "бу-бу-бу"
  },
  {
    "label": "pgn09",
    "text": "вот так вот"
  },
  {
    "label": "pgn10",
    "text": "человек"
  },
  {
    "label": "pgn11",
    "text": "ластошлеп"
  },
  {
    "label": "pgn12",
    "text": "огонек"
  },
  {
    "label": "pgn13",
    "text": "чхи"
  },
  {
    "label": "pgn14",
    "text": "пенка"
  },
  {
    "label": "pig00",
    "text": "хряк-бряк"
  },
  {
    "label": "pig01",
    "text": "хрюша"
  },
  {
    "label": "pig02",
    "text": "хряк"
  },
  {
    "label": "pig03",
    "text": "хрюк-хрюк"
  },
  {
    "label": "pig04",
    "text": "хрю-ю-ю"
  },
  {
    "label": "pig05",
    "text": "хрю"
  },
  {
    "label": "pig08",
    "text": "сосиска"
  },
  {
    "label": "pig09",
    "text": "хрю-хряк"
  },
  {
    "label": "pig10",
    "text": "хрюля"
  },
  {
    "label": "pig11",
    "text": "хрюмпатяга"
  },
  {
    "label": "pig13",
    "text": "хрюк"
  },
  {
    "label": "pig14",
    "text": "хряк-с"
  },
  {
    "label": "pig15",
    "text": "уи-и-и"
  },
  {
    "label": "pig16",
    "text": "хрюшка"
  },
  {
    "label": "pig17",
    "text": "хрю-хрю"
  },
  {
    "label": "rbt00",
    "text": "хи-хи"
  },
  {
    "label": "rbt01",
    "text": "малыш"
  },
  {
    "label": "rbt02",
    "text": "прыг-скок"
  },
  {
    "label": "rbt03",
    "text": "заяссс"
  },
  {
    "label": "rbt04",
    "text": "мон зайшу"
  },
  {
    "label": "rbt05",
    "text": "зайчик мой"
  },
  {
    "label": "rbt06",
    "text": "зайчишка"
  },
  {
    "label": "rbt07",
    "text": "зайчонок"
  },
  {
    "label": "rbt08",
    "text": "зайпончик"
  },
  {
    "label": "rbt09",
    "text": "ушки"
  },
  {
    "label": "rbt10",
    "text": "зайчище"
  },
  {
    "label": "rbt11",
    "text": "скок-поскок"
  },
  {
    "label": "rbt12",
    "text": "морковка"
  },
  {
    "label": "rbt13",
    "text": "золотце"
  },
  {
    "label": "rbt14",
    "text": "топ-топ"
  },
  {
    "label": "rbt15",
    "text": "амиго"
  },
  {
    "label": "rbt16",
    "text": "карамелька"
  },
  {
    "label": "rbt17",
    "text": "вкусняшка"
  },
  {
    "label": "rbt18",
    "text": "зайчелло"
  },
  {
    "label": "rbt19",
    "text": "зайцехвост"
  },
  {
    "label": "rbt20",
    "text": "зайцеквак"
  },
  {
    "label": "rbt21",
    "text": "попрыгайка"
  },
  {
    "label": "rhn00",
    "text": "бабах"
  },
  {
    "label": "rhn01",
    "text": "босс"
  },
  {
    "label": "rhn02",
    "text": "бродяга"
  },
  {
    "label": "rhn04",
    "text": "шнобель"
  },
  {
    "label": "rhn05",
    "text": "мерси"
  },
  {
    "label": "rhn07",
    "text": "кексик"
  },
  {
    "label": "rhn08",
    "text": "йоу"
  },
  {
    "label": "shp00",
    "text": "бе-е"
  },
  {
    "label": "shp01",
    "text": "мила-ашка"
  },
  {
    "label": "shp02",
    "text": "ребрышко"
  },
  {
    "label": "shp03",
    "text": "бэ-дабинь"
  },
  {
    "label": "shp04",
    "text": "бэ-эби"
  },
  {
    "label": "shp07",
    "text": "пасемся"
  },
  {
    "label": "shp08",
    "text": "завитушка"
  },
  {
    "label": "shp09",
    "text": "овечка"
  },
  {
    "label": "shp10",
    "text": "сосенка"
  },
  {
    "label": "shp11",
    "text": "мутончик"
  },
  {
    "label": "shp12",
    "text": "травинка"
  },
  {
    "label": "shp13",
    "text": "бе-бе"
  },
  {
    "label": "shp14",
    "text": "мягенько"
  },
  {
    "label": "shp15",
    "text": "точно-точно"
  },
  {
    "label": "squ00",
    "text": "лень"
  },
  {
    "label": "squ01",
    "text": "крошка"
  },
  {
    "label": "squ02",
    "text": "дружище"
  },
  {
    "label": "squ03",
    "text": "бурундук"
  },
  {
    "label": "squ04",
    "text": "орешек"
  },
  {
    "label": "squ05",
    "text": "коллега"
  },
  {
    "label": "squ06",
    "text": "уа-а-а"
  },
  {
    "label": "squ07",
    "text": "мускатик"
  },
  {
    "label": "squ08",
    "text": "вж-ж-ж"
  },
  {
    "label": "squ09",
    "text": "ах-ах"
  },
  {
    "label": "squ10",
    "text": "арахис"
  },
  {
    "label": "squ11",
    "text": "ух ты"
  },
  {
    "label": "squ13",
    "text": "ладно"
  },
  {
    "label": "squ14",
    "text": "хрум"
  },
  {
    "label": "squ15",
    "text": "чок-чок"
  },
  {
    "label": "squ16",
    "text": "треники"
  },
  {
    "label": "squ17",
    "text": "тихоня"
  },
  {
    "label": "squ18",
    "text": "фундук"
  },
  {
    "label": "squ21",
    "text": "сияние"
  },
  {
    "label": "tig00",
    "text": "гр-р-рольф"
  },
  {
    "label": "tig01",
    "text": "манго"
  },
  {
    "label": "tig02",
    "text": "р-рык"
  },
  {
    "label": "tig03",
    "text": "р-р-рф"
  },
  {
    "label": "tig04",
    "text": "р-разминка"
  },
  {
    "label": "tig05",
    "text": "о-ля-ля"
  },
  {
    "label": "tig06",
    "text": "хлоп-хлоп"
  },
  {
    "label": "wol00",
    "text": "фыр-р-рф"
  },
  {
    "label": "wol01",
    "text": "ау-у-у"
  },
  {
    "label": "wol02",
    "text": "ау-рр"
  },
  {
    "label": "wol03",
    "text": "цап"
  },
  {
    "label": "wol04",
    "text": "ом-м-м"
  },
  {
    "label": "wol05",
    "text": "хрусть"
  },
  {
    "label": "wol06",
    "text": "грызь"
  },
  {
    "label": "wol08",
    "text": "вздор"
  },
  {
    "label": "wol09",
    "text": "пилот"
  },
  {
    "label": "wol10",
    "text": "вожак"
  },
  {
    "label": "wol12",
    "text": "фокстрот"
  }
]