﻿[
  {
    "label": "001",
    "attribute": "0x04000000",
    "text": "{{anim id=\"Scheming\" target=\"actor\" targetSpec=\"\"}}I won't lie. {{delay20}}An awful lot of folks have\nbeen asking me about buyin' that\n{{fun_0000007D arg=\"0x0000\"}} there.{{pageBreak}}{{anim id=\"Worried\" target=\"actor\" targetSpec=\"\"}}But maybe the price scared 'em off,\nso{{string value=\"...\"}}{{delay20}}{{anim id=\"Smiling\" target=\"actor\" targetSpec=\"\"}}I'll sell it to ya for {{number value=\"21\" index=\"0\"}}.{{delay20}}\nDeal of the {{string value=\"17\"}}. {{delay20}}You in?"
  },
  {
    "label": "001_a",
    "attribute": "0x00000000",
    "text": "{{anim id=\"Nodding\" target=\"actor\" targetSpec=\"\"}}You got a deal!"
  },
  {
    "label": "001_b",
    "attribute": "0x00000000",
    "text": "I want a closer look."
  },
  {
    "label": "001_c",
    "attribute": "0x00000000",
    "text": "{{anim id=\"Negative\" target=\"actor\" targetSpec=\"\"}}No, thanks."
  },
  {
    "label": "002",
    "attribute": "0x04000000",
    "text": "{{anim id=\"Aha\" target=\"actor\" targetSpec=\"\"}}{{delay20}}Wow, you really know your art. {{delay20}}You\ncan just FEEL the aura on that\n{{fun_0000007D arg=\"0x0000\"}}, huh?{{pageBreak}}{{anim id=\"Serious\" target=\"actor\" targetSpec=\"\"}}I mean, you couldn't buy that kind\nof aura!{{delay20}} {{anim id=\"IdeaBulb\" target=\"actor\" targetSpec=\"\"}}{{delay20}}Well, YOU could. {{delay20}}And should!{{delay20}}\nLet me help you out.{{pageBreak}}{{anim id=\"Scheming\" target=\"actor\" targetSpec=\"\"}}With my Cousin's Discount, you can\nhave it for only {{number value=\"21\" index=\"0\"}}.{{delay frames=\"40\"}} {{anim id=\"Smiling\" target=\"actor\" targetSpec=\"\"}}Normally\nI'd charge 10 times as much!"
  },
  {
    "label": "002_a",
    "attribute": "0x00000000",
    "text": "{{anim id=\"Nodding\" target=\"actor\" targetSpec=\"\"}}You got a deal!"
  },
  {
    "label": "002_b",
    "attribute": "0x00000000",
    "text": "I want a closer look."
  },
  {
    "label": "002_c",
    "attribute": "0x00000000",
    "text": "{{anim id=\"Negative\" target=\"actor\" targetSpec=\"\"}}No, thanks."
  },
  {
    "label": "003",
    "attribute": "0x04000000",
    "text": "{{anim id=\"AbsentMindedness\" target=\"actor\" targetSpec=\"\"}}Y'know, I catch myself staring at that\n{{fun_0000007D arg=\"0x0000\"}} a lot.{{pageBreak}}{{anim id=\"Negative\" target=\"actor\" targetSpec=\"\"}}Honestly, I just wish someone would\nbuy it so I could get more work done.{{pageBreak}}{{anim id=\"Serious\" target=\"actor\" targetSpec=\"\"}}I shouldn't{{string value=\"...\"}}{{delay20}}{{anim id=\"Scheming\" target=\"actor\" targetSpec=\"\"}}but I'll add a Resident\nof {{capitalizeNextWord}}{{string value=\"IslandName\"}} Discount on\ntop of the Cousin's Discount.{{pageBreak}}{{anim id=\"Nodding\" target=\"actor\" targetSpec=\"\"}}That'll bring the price aaaall the way\ndown to{{string value=\"...\"}}{{number value=\"21\" index=\"0\"}}.{{delay frames=\"40\"}} {{anim id=\"Smiling\" target=\"actor\" targetSpec=\"\"}}Come on, help\na cousin out!"
  },
  {
    "label": "003_a",
    "attribute": "0x00000000",
    "text": "{{anim id=\"Nodding\" target=\"actor\" targetSpec=\"\"}}You got a deal!"
  },
  {
    "label": "003_b",
    "attribute": "0x00000000",
    "text": "I want a closer look."
  },
  {
    "label": "003_c",
    "attribute": "0x00000000",
    "text": "{{anim id=\"Negative\" target=\"actor\" targetSpec=\"\"}}No, thanks."
  },
  {
    "label": "004",
    "attribute": "0x04000000",
    "text": "{{anim id=\"QuestionMark\" target=\"actor\" targetSpec=\"\"}}So you think you want {{fun_00010032 arg=\"\"}}\n{{fun_0000007D arg=\"0x0000\"}}, huh?{{pageBreak}}{{anim id=\"ShyBoy\" target=\"actor\" targetSpec=\"\"}}Believe it or not, that's actually my\nfavorite piece here. {{delay20}}I really don't\nwanna sell it, but{{string value=\"...\"}}it's you.{{pageBreak}}{{anim id=\"Scheming\" target=\"actor\" targetSpec=\"\"}}OK, on top of the Cousin's Discount\nas well as my special Resident of\n{{capitalizeNextWord}}{{string value=\"IslandName\"}} Discount{{string value=\"...\"}}{{pageBreak}}{{anim id=\"Greeting\" target=\"actor\" targetSpec=\"\"}}I'll waive shipping too!{{delay frames=\"40\"}} {{anim id=\"Nodding\" target=\"actor\" targetSpec=\"\"}}That'll drag\nthe price all the way down to a mere\n{{number value=\"21\" index=\"0\"}}.{{delay20}} Whaddaya say?"
  },
  {
    "label": "004_a",
    "attribute": "0x00000000",
    "text": "{{anim id=\"Nodding\" target=\"actor\" targetSpec=\"\"}}You got a deal!"
  },
  {
    "label": "004_b",
    "attribute": "0x00000000",
    "text": "I want a closer look."
  },
  {
    "label": "004_c",
    "attribute": "0x00000000",
    "text": "{{anim id=\"Negative\" target=\"actor\" targetSpec=\"\"}}No, thanks."
  },
  {
    "label": "005",
    "attribute": "0x04000000",
    "text": "{{anim id=\"Eh\" target=\"actor\" targetSpec=\"\"}}Can't get that one out of your mind?{{delay20}}\nI know just what that's like.{{delay frames=\"40\"}} {{anim id=\"ShyBoy\" target=\"actor\" targetSpec=\"\"}}But I say\nwhy get it out of your mind at all?{{pageBreak}}{{anim id=\"EmotEnd\" target=\"actor\" targetSpec=\"\"}}My offer's still good, y'know. {{delay20}}For\nonly {{number value=\"21\" index=\"0\"}},{{delay20}} {{anim id=\"BigSmile\" target=\"actor\" targetSpec=\"\"}}this magnificent\n{{fun_0000007D arg=\"0x0000\"}} is yours!"
  },
  {
    "label": "005_a",
    "attribute": "0x00000000",
    "text": "{{anim id=\"Nodding\" target=\"actor\" targetSpec=\"\"}}You got a deal!"
  },
  {
    "label": "005_b",
    "attribute": "0x00000000",
    "text": "I want a closer look."
  },
  {
    "label": "005_c",
    "attribute": "0x00000000",
    "text": "{{anim id=\"Negative\" target=\"actor\" targetSpec=\"\"}}No, thanks."
  },
  {
    "label": "006",
    "attribute": "0x04000000",
    "text": "{{anim id=\"ShyBoy\" target=\"actor\" targetSpec=\"\"}}Wanna buy maybe the finest piece\nI've ever had in stock? {{delay20}}Well, this\n{{fun_0000007D arg=\"0x0000\"}} is it.{{pageBreak}}{{anim id=\"Negative\" target=\"actor\" targetSpec=\"\"}}I could charge you what it's worth,\nbut I'm not gonna do that to you.{{delay frames=\"40\"}}\n{{anim id=\"Assent\" target=\"actor\" targetSpec=\"\"}}We're cousins, after all!{{pageBreak}}{{anim id=\"Scheming\" target=\"actor\" targetSpec=\"\"}}So with the Cousin's Discount, {{delay20}}I'm\npractically going to give it away for\nonly {{number value=\"21\" index=\"0\"}}.{{delay frames=\"40\"}} {{anim id=\"Smiling\" target=\"actor\" targetSpec=\"\"}}How's that sound?"
  },
  {
    "label": "006_a",
    "attribute": "0x00000000",
    "text": "{{anim id=\"Nodding\" target=\"actor\" targetSpec=\"\"}}You got a deal!"
  },
  {
    "label": "006_b",
    "attribute": "0x00000000",
    "text": "I want a closer look."
  },
  {
    "label": "006_c",
    "attribute": "0x00000000",
    "text": "{{anim id=\"Negative\" target=\"actor\" targetSpec=\"\"}}No, thanks."
  },
  {
    "label": "007",
    "attribute": "0x02000000",
    "text": "{{anim id=\"QuestionMark\" target=\"actor\" targetSpec=\"\"}}Admiring the detail? {{delay20}}Can't blame\nyou. {{delay20}}It's extremely{{string value=\"...\"}}detailed.{{delay20}}\n{{anim id=\"Nodding\" target=\"actor\" targetSpec=\"\"}}Brilliant stuff.{{pageBreak}}{{anim id=\"EmotEnd\" target=\"actor\" targetSpec=\"\"}}And the best part? {{delay20}}All that detail\ncould be yours for {{anim id=\"Smiling\" target=\"actor\" targetSpec=\"\"}}just {{number value=\"21\" index=\"0\"}}!"
  },
  {
    "label": "007_a",
    "attribute": "0x00000000",
    "text": "Sold!"
  },
  {
    "label": "007_b",
    "attribute": "0x00000000",
    "text": "I don't know..."
  },
  {
    "label": "008",
    "attribute": "0x00000000",
    "text": "{{anim id=\"Worried\" target=\"actor\" targetSpec=\"\"}}I understand, I understand. {{delay20}}It's a lot\nto take in all at once. {{delay20}}No rush."
  },
  {
    "label": "009",
    "attribute": "0x00000000",
    "text": "{{anim id=\"ShyBoy\" target=\"actor\" targetSpec=\"\"}}I get it—it's a big decision. {{delay20}}Take\nyour time and look around some\nmore. {{delay20}}I'll be here."
  },
  {
    "label": "010",
    "attribute": "0x00000000",
    "text": "{{anim id=\"Worried\" target=\"actor\" targetSpec=\"\"}}But{{string value=\"...\"}}you don't have enough Bells.{{delay frames=\"40\"}}\n{{anim id=\"OhGeez\" target=\"actor\" targetSpec=\"\"}}Look, I love hagglin', but I still gotta\nkeep my shop afloat, y'know?"
  },
  {
    "label": "011",
    "attribute": "0x00000000",
    "text": "{{anim id=\"BigSmile\" target=\"actor\" targetSpec=\"\"}}Ha! {{delay20}}You are NOT gonna regret this.{{delay20}}\nI'll just take those Bells from you{{string value=\"...\"}}"
  },
  {
    "label": "012",
    "attribute": "0x00000000",
    "text": "{{anim id=\"Nodding\" target=\"actor\" targetSpec=\"\"}}Yep, it's all there.{{delay frames=\"40\"}} {{anim id=\"BigSmile\" target=\"actor\" targetSpec=\"\"}}Congratulations!{{delay20}}\nYou are now the proud owner of\n{{wordArticle}}{{fun_0000007D arg=\"0x0000\"}}!"
  },
  {
    "label": "013",
    "attribute": "0x00000000",
    "text": "{{anim id=\"Laughing\" target=\"actor\" targetSpec=\"\"}}Been a pleasure doin' business with\nyou, cousin! {{delay20}}I'll get your art packed\nup and shipped out tomorrow."
  },
  {
    "label": "014",
    "attribute": "0x02000000",
    "text": "{{anim id=\"Smiling\" target=\"actor\" targetSpec=\"\"}}Don't worry, we'll get that shipped\nout to you as quick as we can.{{pageBreak}}{{anim id=\"Grin\" target=\"actor\" targetSpec=\"\"}}I'm even gonna skip shipping\ninsurance. {{delay20}}All the paperwork just\nslows things down, y'know?{{pageBreak}}{{anim id=\"FaintSmile\" target=\"actor\" targetSpec=\"\"}}Sure is a beauty, isn't it? {{delay20}}Did\nyou wanna get a closer look\nwhile it's still here?"
  },
  {
    "label": "014_a",
    "attribute": "0x00000000",
    "text": "Yes, please!"
  },
  {
    "label": "014_b",
    "attribute": "0x00000000",
    "text": "No, that's fine."
  },
  {
    "label": "015",
    "attribute": "0x02000000",
    "text": "You're too late.{{delay20}} {{anim id=\"Explain\" target=\"actor\" targetSpec=\"\"}}{{capitalizeNextLetter}}{{selection value=\"SelectedName\"}}\nfrom {{string value=\"34\"}} bought that\n{{fun_0000007D arg=\"0x0000\"}}.{{pageBreak}}{{anim id=\"EmotEnd\" target=\"actor\" targetSpec=\"\"}}They've got quite the eye for art, if\nI may say so.{{delay frames=\"40\"}} Speakin' of eyes,{{delay8}} {{anim id=\"QuestionMark\" target=\"actor\" targetSpec=\"\"}}want\na closer look before I box it up?"
  },
  {
    "label": "015_a",
    "attribute": "0x00000000",
    "text": "Yes, please!"
  },
  {
    "label": "015_b",
    "attribute": "0x00000000",
    "text": "No, that's fine."
  },
  {
    "label": "016",
    "attribute": "0x02000000",
    "text": "{{anim id=\"Scheming\" target=\"actor\" targetSpec=\"\"}}It's really hard to resist that\n{{fun_0000007D arg=\"0x0000\"}}, isn't it?{{anim id=\"EmotEnd\" target=\"actor\" targetSpec=\"\"}}{{pageBreak}}But store policy is one art purchase\nper customer per day.{{delay20}} {{anim id=\"ShyBoy\" target=\"actor\" targetSpec=\"\"}}You can look\nall you want though!"
  },
  {
    "label": "016_a",
    "attribute": "0x00000000",
    "text": "I'll take a look!"
  },
  {
    "label": "016_b",
    "attribute": "0x00000000",
    "text": "No, thanks."
  },
  {
    "label": "017",
    "attribute": "0x02000000",
    "text": "{{anim id=\"Scheming\" target=\"actor\" targetSpec=\"\"}}It's just amazing how easily that\n{{fun_0000007D arg=\"0x0000\"}} draws\nthe eye, isn't it?{{anim id=\"EmotEnd\" target=\"actor\" targetSpec=\"\"}}{{pageBreak}}{{anim id=\"Serious\" target=\"actor\" targetSpec=\"\"}}But our policy is one art purchase\nper customer per day, {{delay8}}even if you\nbought at another anchorage.{{pageBreak}}{{anim id=\"ShyBoy\" target=\"actor\" targetSpec=\"\"}}Of course, there's no harm in\nlookin', is there?"
  },
  {
    "label": "017_a",
    "attribute": "0x00000000",
    "text": "I'll take a look!"
  },
  {
    "label": "017_b",
    "attribute": "0x00000000",
    "text": "No, thanks."
  },
  {
    "label": "018",
    "attribute": "0x00000000",
    "text": "{{anim id=\"AbsentMindedness\" target=\"actor\" targetSpec=\"\"}}One glance and suddenly it's like\nyou've known the artist for years.{{delay20}}\nGonna be sad to see this one go."
  },
  {
    "label": "019",
    "attribute": "0x00000000",
    "text": "{{anim id=\"Smiling\" target=\"actor\" targetSpec=\"\"}}No problem at all! {{delay20}}Please take a look\nat the rest of our stock, and let me\nknow if you have any questions."
  }
]