﻿[
  {
    "label": "101",
    "attribute": "0x00000013",
    "text": "{{anim id=\"FaintSmile\" target=\"actor\" targetSpec=\"\"}}嗨，我是{{string value=\"VillagerName\"}}哦～{{delay frames=\"40\"}}\n特意找我{{delay20}}\n{{anim id=\"Hello\" target=\"actor\" targetSpec=\"\"}}是有什么事吗？{{pageBreak}}{{anim id=\"Eh\" target=\"actor\" targetSpec=\"\"}}你问我想不想在别的岛上拥有别墅？！{{delay frames=\"40\"}}\n{{anim id=\"Thinking\" target=\"actor\" targetSpec=\"\"}}这个嘛，{{delay20}}听起来还不错{{string value=\"...\"}}{{delay frames=\"40\"}}\n{{anim id=\"ShyBoy\" target=\"actor\" targetSpec=\"\"}}{{color id=\"4\"}}其实我现在的生活和这也差不多。{{color id=\"65535\"}}{{pageBreak}}{{anim id=\"Shocked\" target=\"actor\" targetSpec=\"\"}}嗯？{{delay frames=\"30\"}}整个项目可以全权交由你负责？{{delay frames=\"40\"}}\n{{anim id=\"BigSmile\" target=\"actor\" targetSpec=\"\"}}我知道了，这听起来挺有意思的。{{delay frames=\"40\"}}\n{{anim id=\"Nodding\" target=\"actor\" targetSpec=\"\"}}那么，{{delay20}}就照你说的做吧！"
  }
]