﻿[
  {
    "label": "001",
    "attribute": "0x0000000000000000",
    "text": "{{anim id=\"Greeting\" target=\"actor\" targetSpec=\"\"}}¡Tengo el regalo perfecto para ti,{{delay frames=\"8\"}}\n{{string value=\"NickName\"}}!{{delay frames=\"20\"}} ¡Es mejor que un día en el sauna!{{anim id=\"FaintSmile\" target=\"actor\" targetSpec=\"\"}} ¿Estás list{{gender2 m=\"o\" f=\"a\"}}?"
  },
  {
    "label": "002",
    "attribute": "0x0000000000000000",
    "text": "{{anim id=\"OhGeez\" target=\"actor\" targetSpec=\"\"}}Tengo que pedirte un favor,{{delay8}} cielo:{{delay20}}\nquítame de las manos {{anim id=\"FaintSmile\" target=\"actor\" targetSpec=\"\"}}est{{gender8 m=\"e\" f=\"a\" n=\"\"}} {{fun_0000007D arg=\"0x0000\"}}."
  },
  {
    "label": "003",
    "attribute": "0x0000010000000000",
    "text": "{{capitalizeNextLetter}}{{string value=\"NickName\"}}{{anim id=\"Explain\" target=\"actor\" targetSpec=\"\"}}, un pajarito\nme contó que andabas interesad{{gender2 m=\"o\" f=\"a\"}} en\n{{wordArticle}}{{fun_0000007D arg=\"0x0000\"}}{{string value=\"...\"}}\n¡Así que fui y te l{{gender8 m=\"o\" f=\"a\" n=\"\"}} compré!\n¡No tienes nada que agradecerme!{{pageBreak}}Aunque, ahora que lo pienso{{string value=\"...\"}}\n¿para qué querrías {{gender8 m=\"uno\" f=\"una\" n=\"\"}}{{string value=\"...\"}}?\nNo tiene tu altura{{string value=\"...\"}}"
  },
  {
    "label": "003_a",
    "attribute": "0x0000000000000000",
    "text": "Para nada..."
  },
  {
    "label": "003_b",
    "attribute": "0x0000000000000000",
    "text": "Los pajaritos mienten"
  },
  {
    "label": "004",
    "attribute": "0x0000000000000000",
    "text": "{{anim id=\"Explain\" target=\"actor\" targetSpec=\"\"}}Soy tan organizada que no compro\nnada que no esté anotado en una\nde mis listas.\n{{anim id=\"Sighing\" target=\"actor\" targetSpec=\"\"}}Pero entre los desfiles de moda y\nlos desayunos con amigas,{{delay8}} no tuve\ntiempo de actualizar mi inventario.\n{{anim id=\"WrySmile\" target=\"actor\" targetSpec=\"\"}}En resumen:{{delay frames=\"20\"}} toma,{{delay frames=\"8\"}} cariño,{{delay frames=\"8\"}}\n{{wordArticle}}{{fun_0000007D arg=\"0x0000\"}}.{{pageBreak}}{{anim id=\"FaintSmile\" target=\"actor\" targetSpec=\"\"}}Espero que {{gender8 m=\"lo\" f=\"la\" n=\"\"}} puedas aprovechar.{{delay frames=\"24\"}}\nYo ya tengo tres."
  },
  {
    "label": "100",
    "attribute": "0x0000000000000000",
    "text": "{{anim id=\"EmotEnd\" target=\"actor\" targetSpec=\"\"}}{{anim id=\"Smiling\" target=\"actor\" targetSpec=\"\"}}Es {{wordArticle}}{{fun_0000007D arg=\"0x0000\"}}.{{delay frames=\"20\"}}\n{{anim id=\"Negative\" target=\"actor\" targetSpec=\"\"}}Si no es de tu agrado,{{delay8}} l{{gender8 m=\"o\" f=\"a\" n=\"\"}} puedes\nvender o donar a la beneficencia{{string value=\"...\"}}{{pageBreak}}{{anim id=\"Explain\" target=\"actor\" targetSpec=\"\"}}Es lo que hago yo cuando recibo\nun regalo que no está a mi altura{{string value=\"...\"}}"
  },
  {
    "label": "101",
    "attribute": "0x0000000000000000",
    "text": "{{anim id=\"Explain\" target=\"actor\" targetSpec=\"\"}}Se trata de {{wordArticle}}{{fun_0000007D arg=\"0x0000\"}}{{string value=\"...\"}}{{pageBreak}}{{anim id=\"Greeting\" target=\"actor\" targetSpec=\"\"}}Espero que l{{gender8 m=\"o\" f=\"a\" n=\"\"}} disfrutes.{{delay frames=\"40\"}}{{anim id=\"FaintSmile\" target=\"actor\" targetSpec=\"\"}} Tú y yo\ntenemos el mismo buen gusto{{string value=\"...\"}}"
  },
  {
    "label": "200",
    "attribute": "0x0000000000000000",
    "text": "{{anim id=\"Explain\" target=\"actor\" targetSpec=\"\"}}Es un detalle que le compré a una\namiga como regalo de despedida{{string value=\"...\"}}{{delay frames=\"8\"}}\n{{anim id=\"ShyBoy\" target=\"actor\" targetSpec=\"\"}}pero al final no se fue a ningún lado.\n{{anim id=\"OhGeez\" target=\"actor\" targetSpec=\"\"}}Supongo que se lo podría haber dado\nde todas formas,{{delay frames=\"8\"}} no sé,{{delay frames=\"8\"}} {{anim id=\"WrySmile\" target=\"actor\" targetSpec=\"\"}}no conozco\nel protocolo en esos casos.\n{{anim id=\"Nodding\" target=\"actor\" targetSpec=\"\"}}Pero ahora te pertenece.{{delay frames=\"20\"}}\n{{anim id=\"FaintSmile\" target=\"actor\" targetSpec=\"\"}}¡Espero que lo disfrutes, cielín!"
  },
  {
    "label": "201",
    "attribute": "0x0000000000000000",
    "text": "{{anim id=\"OhGeez\" target=\"actor\" targetSpec=\"\"}}La verdad es que a mí no me sirve\npara nada,{{delay frames=\"8\"}} no es mi estilo{{string value=\"...\"}}{{delay frames=\"24\"}}\n{{anim id=\"FaintSmile\" target=\"actor\" targetSpec=\"\"}}¡Ojalá que le puedas sacar provecho!"
  },
  {
    "label": "202",
    "attribute": "0x0000000000000000",
    "text": "{{anim id=\"Nodding\" target=\"actor\" targetSpec=\"\"}}Si crees que tampoco va contigo,{{delay20}}\npuedes subastar{{gender8 m=\"lo\" f=\"la\" n=\"\"}} en alguna cena de\ngala de caridad{{string value=\"...\"}}"
  },
  {
    "label": "300",
    "attribute": "0x0000000000000000",
    "text": "{{anim id=\"OhGeez\" target=\"actor\" targetSpec=\"\"}}Sabía que no debía creerle.{{delay frames=\"30\"}}\n{{anim id=\"Thinking\" target=\"actor\" targetSpec=\"\"}}Nuevo lema: \"Los pájaros no son de\nfiar\".{{delay20}} Lo anotaré en mi lista de lemas.{{pageBreak}}{{anim id=\"EmotEnd\" target=\"actor\" targetSpec=\"\"}}{{anim id=\"ColdChill\" target=\"actor\" targetSpec=\"\"}}Pues dado que ya hice el ridículo,{{delay frames=\"8\"}}{{anim id=\"EmotEnd\" target=\"actor\" targetSpec=\"\"}}\nte doy el regalo de todas formas."
  },
  {
    "label": "301",
    "attribute": "0x0000000000000000",
    "text": "{{anim id=\"Shocked\" target=\"actor\" targetSpec=\"\"}}¡Oh,{{delay frames=\"6\"}} qué poca educación!{{delay frames=\"24\"}}\n{{anim id=\"Angry\" target=\"actor\" targetSpec=\"\"}}Alguien debería enseñarle a\nesos pajaritos buenos modales.\n{{anim id=\"SadSpiral\" target=\"actor\" targetSpec=\"\"}}Mentirle a una dama como yo{{string value=\"...\"}}{{delay frames=\"16\"}}{{anim id=\"EmotEnd\" target=\"actor\" targetSpec=\"\"}}\nTú nunca harías algo así,{{delay frames=\"8\"}} ¿verdad?{{delay frames=\"30\"}}\n{{anim id=\"Smiling\" target=\"actor\" targetSpec=\"\"}}Solo por eso te mereces el regalo."
  },
  {
    "label": "302",
    "attribute": "0x0000000000000000",
    "text": "Y si no es algo que te resulte útil,{{delay20}}\n{{anim id=\"FaintSmile\" target=\"actor\" targetSpec=\"\"}}¡fíjate a quién le puede servir, {{string value=\"6\"}}!"
  },
  {
    "label": "303",
    "attribute": "0x0000000000000000",
    "text": "{{anim id=\"FaintSmile\" target=\"actor\" targetSpec=\"\"}}Si no es tan sofisticado como tú,{{delay frames=\"8\"}}\nquizás algún vecino {{gender8 m=\"lo\" f=\"la\" n=\"\"}} quiera,\n{{string value=\"6\"}}."
  },
  {
    "label": "400",
    "attribute": "0x0000000000000000",
    "text": "{{anim id=\"Restless\" target=\"actor\" targetSpec=\"\"}}Y disculpa por cargarte con mis\nsobras,{{delay frames=\"8\"}} no es muy elegante de\nmi parte.{{delay frames=\"24\"}} {{anim id=\"Confused\" target=\"actor\" targetSpec=\"\"}}Me perdonas,{{delay frames=\"8\"}} ¿verdad?"
  }
]