﻿[
  {
    "label": "001",
    "attribute": "0x0000000000000000",
    "text": "{{fun_00010064 arg=\"\"}}{{anim id=\"Sighing\" target=\"actor\" targetSpec=\"\"}}Я серьезно{{string value=\"...\"}}{{delay20}} В данный момент\nя всех терпеть не могу.{{anim id=\"EmotEnd\" target=\"actor\" targetSpec=\"\"}}{{endTag}}"
  },
  {
    "label": "002",
    "attribute": "0x0000000000000000",
    "text": "{{fun_00010064 arg=\"\"}}{{anim id=\"Negative\" target=\"actor\" targetSpec=\"\"}}Мне и так плохо. А оттого, что ты\nменя в таком виде застал{{gender2 m=\"\" f=\"а\"}}, мне\nеще хуже. {{capitalizeNextLetter}}{{string value=\"Catchphrase\"}}.{{pageBreak}}{{anim id=\"Worried\" target=\"actor\" targetSpec=\"\"}}Прошу{{string value=\"...\"}} оставь меня сейчас\nв покое.{{anim id=\"EmotEnd\" target=\"actor\" targetSpec=\"\"}}{{endTag}}"
  },
  {
    "label": "003",
    "attribute": "0x0000000000000000",
    "text": "{{fun_00010064 arg=\"\"}}{{anim id=\"Worried\" target=\"actor\" targetSpec=\"\"}}Наверное, мне скоро станет лучше.{{delay frames=\"40\"}}\n{{anim id=\"SadSpiral\" target=\"actor\" targetSpec=\"\"}}Но пока дай мне время успокоиться.\n{{capitalizeNextLetter}}{{string value=\"Catchphrase\"}}!{{anim id=\"EmotEnd\" target=\"actor\" targetSpec=\"\"}}{{endTag}}"
  },
  {
    "label": "100",
    "attribute": "0x0000000000000000",
    "text": "{{fun_00010064 arg=\"\"}}{{anim id=\"Worried\" target=\"actor\" targetSpec=\"\"}}Ну почему все не по-моему\nвыходит? {{capitalizeNextLetter}}{{string value=\"Catchphrase\"}}!{{anim id=\"EmotEnd\" target=\"actor\" targetSpec=\"\"}}{{endTag}}"
  },
  {
    "label": "101",
    "attribute": "0x0000000000000000",
    "text": "{{fun_00010064 arg=\"\"}}{{anim id=\"Worried\" target=\"actor\" targetSpec=\"\"}}Кто бы мог подумать, что из моей\nклассной задумки выйдет {{anim id=\"SadSpiral\" target=\"actor\" targetSpec=\"\"}}такая\nкатастрофа?{{delay20}}{{anim id=\"EmotEnd\" target=\"actor\" targetSpec=\"\"}}{{endTag}}"
  },
  {
    "label": "102",
    "attribute": "0x0000000000000000",
    "text": "{{fun_00010064 arg=\"\"}}{{anim id=\"Sighing\" target=\"actor\" targetSpec=\"\"}}Фу-ты{{string value=\"...\"}}{{delay20}} полное фиаско.{{anim id=\"EmotEnd\" target=\"actor\" targetSpec=\"\"}}{{endTag}}"
  },
  {
    "label": "103",
    "attribute": "0x0000010000000000",
    "text": "{{anim id=\"Worried\" target=\"actor\" targetSpec=\"\"}}Я приготовила {{fun_00170032 arg=\"0x01CD\"}}{{randomFood}}{{string value=\"...\"}}{{delay20}}{{pageBreak}}{{anim id=\"SadSpiral\" target=\"actor\" targetSpec=\"\"}}А {{selection value=\"SelectedVillager\"}} сказал{{gender3 m=\"\" f=\"а\"}}, что по\nвкусу он{{gender7 m=\"\" f=\"а\" n=\"о\" pl=\"и\"}} напомина{{gender7 m=\"е\" f=\"е\" n=\"е\" pl=\"ю\"}}т вчерашн{{gender7 m=\"ий\" f=\"юю\" n=\"ее\" pl=\"ие\"}}\n{{fun_00170032 arg=\"0x01CD\"}}{{randomDrink}}.{{pageBreak}}{{anim id=\"Worried\" target=\"actor\" targetSpec=\"\"}}Экспериментируя на кухне,\nнельзя принимать неудачи близко\nк сердцу{{string value=\"...\"}} {{anim id=\"Negative\" target=\"actor\" targetSpec=\"\"}}Но это же{{delay frames=\"30\"}} катастрофа!"
  },
  {
    "label": "103_a",
    "attribute": "0x0000000000000000",
    "text": "Наверняка вкусно."
  },
  {
    "label": "103_b",
    "attribute": "0x0000000000000000",
    "text": "Так невкусно?"
  },
  {
    "label": "104",
    "attribute": "0x0000000000000000",
    "text": "{{anim id=\"Eh\" target=\"actor\" targetSpec=\"\"}}Ты пытаешься меня подбодрить?{{delay frames=\"40\"}}\n{{anim id=\"Hesitate\" target=\"actor\" targetSpec=\"\"}}{{capitalizeNextLetter}}{{string value=\"Catchphrase\"}}! Не хватало еще,\nчтобы и ты расстраивал{{gender2 m=\"ся\" f=\"ась\"}}.{{pageBreak}}{{anim id=\"Nodding\" target=\"actor\" targetSpec=\"\"}}Скажем, не так все страшно! {{delay frames=\"40\"}}{{anim id=\"Assent\" target=\"actor\" targetSpec=\"\"}}Чуть\nдоработаю рецепт,{{delay20}} и можно будет\nуплетать за обе щеки!"
  },
  {
    "label": "105",
    "attribute": "0x0000000000000000",
    "text": "{{fun_00010064 arg=\"\"}}{{anim id=\"Serious\" target=\"actor\" targetSpec=\"\"}}Блюда нужно всегда пробовать.{{delay20}}\nМне на заметку:{{delay8}} {{anim id=\"Oops\" target=\"actor\" targetSpec=\"\"}}обязательно\nпробуй свою стряпню{{string value=\"...\"}}{{anim id=\"EmotEnd\" target=\"actor\" targetSpec=\"\"}}{{endTag}}"
  },
  {
    "label": "200",
    "attribute": "0x0000000000000000",
    "text": "{{fun_00010064 arg=\"\"}}{{anim id=\"Worried\" target=\"actor\" targetSpec=\"\"}}Не сейчас. {{capitalizeNextLetter}}{{string value=\"6\"}}.\nУ меня все еще нет настроения.{{anim id=\"EmotEnd\" target=\"actor\" targetSpec=\"\"}}{{endTag}}"
  },
  {
    "label": "201",
    "attribute": "0x0000000000000000",
    "text": "{{fun_00010064 arg=\"\"}}{{anim id=\"Negative\" target=\"actor\" targetSpec=\"\"}}Не приставай ко мне, ладно?\nТы уже достаточно натворил{{gender2 m=\"\" f=\"а\"}},\n{{string value=\"6\"}}.{{endTag}}"
  },
  {
    "label": "202",
    "attribute": "0x0000000000000000",
    "text": "{{fun_00010064 arg=\"\"}}{{anim id=\"Worried\" target=\"actor\" targetSpec=\"\"}}Что тебе в этот раз? {{delay8}}Хотя меня это\nвсе равно не волнует.{{delay20}} {{anim id=\"Sighing\" target=\"actor\" targetSpec=\"\"}}Отвяжись{{string value=\"...\"}}{{anim id=\"EmotEnd\" target=\"actor\" targetSpec=\"\"}}{{endTag}}"
  },
  {
    "label": "203",
    "attribute": "0x0000010000000000",
    "text": "{{anim id=\"Silent\" target=\"actor\" targetSpec=\"\"}}Ну,{{delay20}} если хочешь что-то сказать,\nговори. {{capitalizeNextLetter}}{{string value=\"Catchphrase\"}}."
  },
  {
    "label": "203_a",
    "attribute": "0x0000000000000000",
    "text": "{{anim id=\"Apologize\" target=\"actor\" targetSpec=\"\"}}Прости меня."
  },
  {
    "label": "203_b",
    "attribute": "0x0000000000000000",
    "text": "{{anim id=\"EmotEnd\" target=\"actor\" targetSpec=\"\"}}Я... э-э-э..."
  },
  {
    "label": "204",
    "attribute": "0x0000000000000000",
    "text": "Гм{{string value=\"...\"}} {{i10_4}}{{anim id=\"Nodding\" target=\"actor\" targetSpec=\"\"}}Ладно. {{delay20}}Что было, то прошло.{{pageBreak}}{{anim id=\"Silent\" target=\"actor\" targetSpec=\"\"}}Но если ты себе такое опять\nпозволишь{{string value=\"...\"}}"
  },
  {
    "label": "205",
    "attribute": "0x0000000000000000",
    "text": "{{anim id=\"OhGeez\" target=\"actor\" targetSpec=\"\"}}Ладно. {{delay8}}Что мне с тобой делать?{{delay20}}\nТебя мучает совесть, и ты хочешь\nизвиниться.{{pageBreak}}{{anim id=\"Nodding\" target=\"actor\" targetSpec=\"\"}}Тебе не к лицу такое состояние,{{delay frames=\"40\"}}\n{{anim id=\"Assent\" target=\"actor\" targetSpec=\"\"}}поэтому я прощаю тебя на этот раз."
  }
]