﻿[
  {
    "label": "001",
    "attribute": "0x0000000000000000",
    "text": "{{i20_2 arg=\"10\"}}{{i20_2 arg=\"9\"}}{{anim id=\"QuestionMark\" target=\"actor\" targetSpec=\"\"}}{{capitalizeNextLetter}}{{wordArticle}}{{fun_0000007D arg=\"0x0000\"}}? {{gender8 m=\"Fatto\" f=\"Fatta\" n=\"\"}} di funghi?{{pageBreak}}{{i20_3 arg=\"6\"}}{{i20_3 arg=\"3\"}}{{anim id=\"EmotEnd\" target=\"actor\" targetSpec=\"\"}}Da qui sembra che sia spuntat{{gender8 m=\"o\" f=\"a\" n=\"\"}}\ndirettamente nella stanza{{string value=\"...\"}} Troppo\nforte!"
  },
  {
    "label": "002",
    "attribute": "0x0000000000000000",
    "text": "{{i20_2 arg=\"10\"}}{{i20_2 arg=\"9\"}}{{anim id=\"Nodding\" target=\"actor\" targetSpec=\"\"}}{{gender8 m=\"Questo\" f=\"Questa\" n=\"\"}} {{fun_0000007D arg=\"0x0000\"}} è {{gender8 m=\"fantastico\" f=\"fantastica\" n=\"\"}}. {{delay8}}Dico davvero!{{pageBreak}}{{i20_3 arg=\"6\"}}{{i20_3 arg=\"3\"}}{{anim id=\"Smiling\" target=\"actor\" targetSpec=\"\"}}Hai mai pensato di andare a pescare\nsul ghiaccio? {{delay20}}Ah, {{delay8}}oppure di giocare\na hockey?"
  },
  {
    "label": "003",
    "attribute": "0x0000000000000000",
    "text": "{{i20_2 arg=\"10\"}}{{i20_2 arg=\"9\"}}{{anim id=\"Nodding\" target=\"actor\" targetSpec=\"\"}}Mi piace questo stile equilibrato\ne sobrio. {{delay20}}Le cose semplici sono\nsempre le migliori.\n{{i20_3 arg=\"6\"}}{{i20_3 arg=\"3\"}}{{anim id=\"Nodding\" target=\"actor\" targetSpec=\"\"}}Forse dovrei adottare anch'io\nuno stile del genere quando\nmi alleno{{string value=\"...\"}}"
  },
  {
    "label": "004",
    "attribute": "0x0000000000000000",
    "text": "{{i20_2 arg=\"10\"}}{{i20_2 arg=\"9\"}}{{anim id=\"BigSmile\" target=\"actor\" targetSpec=\"\"}}{{gender8 m=\"Il tuo\" f=\"La tua\" n=\"\"}} {{fun_0000007D arg=\"0x0000\"}} è di grande ispirazione.{{pageBreak}}{{i20_3 arg=\"6\"}}{{i20_3 arg=\"3\"}}{{anim id=\"AbsentMindedness\" target=\"actor\" targetSpec=\"\"}}Ho sempre desiderato uno stadio\ntutto mio, forse potrei farne uno\ncon dei blocchi di legno{{string value=\"...\"}}\n{{anim id=\"HappyDance\" target=\"actor\" targetSpec=\"\"}}È deciso! {{delay8}}Non vedo l'ora di mettermi\nall'opera, {{string value=\"6\"}}."
  },
  {
    "label": "005",
    "attribute": "0x0000000000000000",
    "text": "{{i20_2 arg=\"10\"}}{{i20_2 arg=\"9\"}}{{anim id=\"Nodding\" target=\"actor\" targetSpec=\"\"}}L'antiquariato non è il mio forte, ma {{gender8 m=\"il tuo\" f=\"la tua\" n=\"\"}} {{fun_0000007D arg=\"0x0000\"}} ha un aspetto favoloso!{{pageBreak}}A proposito di antiquariato{{string value=\"...\"}} {{i20_3 arg=\"6\"}}{{i20_3 arg=\"3\"}}{{anim id=\"Smiling\" target=\"actor\" targetSpec=\"\"}}Se\npulissi casa mia, {{anim id=\"Laughing\" target=\"actor\" targetSpec=\"\"}}forse salterebbero\nfuori le mie vecchie scarpe da calcio!"
  },
  {
    "label": "006",
    "attribute": "0x0000000000000000",
    "text": "{{i20_2 arg=\"10\"}}{{i20_2 arg=\"9\"}}{{anim id=\"FaintSmile\" target=\"actor\" targetSpec=\"\"}}{{gender8 m=\"Questo\" f=\"Questa\" n=\"\"}} {{fun_0000007D arg=\"0x0000\"}} mi fa venire nostalgia{{string value=\"...\"}}{{pageBreak}}{{anim id=\"AbsentMindedness\" target=\"actor\" targetSpec=\"\"}}Nostalgia di scuola, {{delay8}}dell'odore\ndella palestra, {{delay20}}dei professori che\nmi sgridavano{{string value=\"...\"}} Bei tempi.\n{{i20_3 arg=\"6\"}}{{i20_3 arg=\"3\"}}{{anim id=\"Nodding\" target=\"actor\" targetSpec=\"\"}}Ricordo che una volta un pallone da\nbasket è finito sul tetto della scuola.\n{{delay20}}{{anim id=\"QuestionMark\" target=\"actor\" targetSpec=\"\"}}Sarà ancora lì, {{string value=\"6\"}}?"
  },
  {
    "label": "007",
    "attribute": "0x0000000000000000",
    "text": "{{i20_2 arg=\"10\"}}{{i20_2 arg=\"9\"}}{{anim id=\"Grin\" target=\"actor\" targetSpec=\"\"}}Uau, {{delay8}}vedo che a casa tua ti piace\nsentirti come se stessi in un villaggio\nturistico, eh?\n{{i20_3 arg=\"6\"}}{{i20_3 arg=\"3\"}}{{anim id=\"Nodding\" target=\"actor\" targetSpec=\"\"}}Quasi quasi mi stendo con un bel\nfrullato proteico e abbronzo i miei\nmuscoli da paura{{string value=\"...\"}}\n{{anim id=\"Shocked\" target=\"actor\" targetSpec=\"\"}}Per tutti i deltoidi!{{delay8}} Per un attimo\navevo dimenticato che ci troviamo\na casa tua, {{string value=\"6\"}}!"
  },
  {
    "label": "008",
    "attribute": "0x0000000000000000",
    "text": "{{i20_2 arg=\"10\"}}{{i20_2 arg=\"9\"}}{{anim id=\"Nodding\" target=\"actor\" targetSpec=\"\"}}Arredamento interessante! {{delay8}}{{capitalizeNextLetter}}{{wordArticle}}{{fun_0000007D arg=\"0x0000\"}}, eh?{{pageBreak}}{{i20_3 arg=\"6\"}}{{i20_3 arg=\"3\"}}{{anim id=\"Grin\" target=\"actor\" targetSpec=\"\"}}Se lavori molto in casa, ricordati\ndi fare delle pause di tanto in tanto.{{pageBreak}}{{anim id=\"Laughing\" target=\"actor\" targetSpec=\"\"}}Quando mi alleno, a volte io mi\ndimentico perfino di prendere\nfiato!"
  },
  {
    "label": "009",
    "attribute": "0x0000000000000000",
    "text": "{{i20_2 arg=\"10\"}}{{i20_2 arg=\"9\"}}{{anim id=\"Shocked\" target=\"actor\" targetSpec=\"\"}}Per tutti i deltoidi!{{delay frames=\"30\"}} {{anim id=\"Smiling\" target=\"actor\" targetSpec=\"\"}}{{gender8 m=\"Il tuo\" f=\"La tua\" n=\"\"}} {{fun_0000007D arg=\"0x0000\"}} dona alla casa uno stile rustico.{{pageBreak}}{{anim id=\"Nodding\" target=\"actor\" targetSpec=\"\"}}E anche naturale, direi.\nDev'essere stato un progetto\ndivertente.{{pageBreak}}{{i20_3 arg=\"6\"}}{{i20_3 arg=\"3\"}}{{anim id=\"Laughing\" target=\"actor\" targetSpec=\"\"}}Ideale per chi non vuole perdere\nil contatto con la vita all'aria aperta!"
  },
  {
    "label": "010",
    "attribute": "0x0000000000000000",
    "text": "{{i20_2 arg=\"10\"}}{{i20_2 arg=\"9\"}}{{anim id=\"FaintSmile\" target=\"actor\" targetSpec=\"\"}}{{capitalizeNextLetter}}{{wordArticle}}{{fun_0000007D arg=\"0x0000\"}}? {{delay20}}A dire la verità, non fa per me.{{pageBreak}}{{i20_3 arg=\"6\"}}{{i20_3 arg=\"3\"}}{{anim id=\"OhGeez\" target=\"actor\" targetSpec=\"\"}}Per alcuni sarà anche un bello stile,\nnon voglio certo giudicare.{{pageBreak}}{{anim id=\"SmugFace\" target=\"actor\" targetSpec=\"\"}}Io mi intendo solo di cose grandiose,\n{{delay8}}forti {{delay8}}e muscolose! {{delay20}}{{anim id=\"HappyDance\" target=\"actor\" targetSpec=\"\"}}Quindi{{string value=\"...\"}} hai nulla\ndel genere per me?"
  },
  {
    "label": "011",
    "attribute": "0x0000000000000000",
    "text": "{{i20_2 arg=\"10\"}}{{i20_2 arg=\"9\"}}{{anim id=\"QuestionMark\" target=\"actor\" targetSpec=\"\"}}Tutta questa frutta non ti fa\nvenire fame?{{pageBreak}}{{i20_3 arg=\"6\"}}{{i20_3 arg=\"3\"}}{{anim id=\"Grin\" target=\"actor\" targetSpec=\"\"}}Io non potrei arredare casa mia così.\n{{delay20}}Facendo spuntini notturni{{string value=\"...\"}} finirei\nper mangiare anche il cuscino!"
  },
  {
    "label": "012",
    "attribute": "0x0000000000000000",
    "text": "{{i20_2 arg=\"10\"}}{{i20_2 arg=\"9\"}}{{anim id=\"Nodding\" target=\"actor\" targetSpec=\"\"}}{{capitalizeNextLetter}}{{wordArticle}}{{fun_0000007D arg=\"0x0000\"}} dona alla casa un look davvero maturo.{{pageBreak}}{{i20_3 arg=\"6\"}}{{i20_3 arg=\"3\"}}{{anim id=\"HappyFlower\" target=\"actor\" targetSpec=\"\"}}Ed è anche {{gender8 m=\"perfetto\" f=\"perfetta\" n=\"\"}} per esporre\ndei trofei, {{string value=\"6\"}}."
  },
  {
    "label": "013",
    "attribute": "0x0000000000000000",
    "text": "{{i20_2 arg=\"10\"}}{{i20_2 arg=\"9\"}}{{anim id=\"HappyDance\" target=\"actor\" targetSpec=\"\"}}{{gender8 m=\"Il tuo\" f=\"La tua\" n=\"\"}} {{fun_0000007D arg=\"0x0000\"}} mi mette di buon umore!{{pageBreak}}{{anim id=\"AbsentMindedness\" target=\"actor\" targetSpec=\"\"}}Mi ricorda i giochi che avevo da\nbambino{{string value=\"...\"}} Palloni da calcio, {{delay8}}palle\nda baseball, {{delay20}}bastoni da hockey{{string value=\"...\"}}\n{{i20_3 arg=\"6\"}}{{i20_3 arg=\"3\"}}{{anim id=\"Nodding\" target=\"actor\" targetSpec=\"\"}}Mi divertivo un mondo, {{string value=\"6\"}}."
  },
  {
    "label": "014",
    "attribute": "0x0000000000000000",
    "text": "{{i20_2 arg=\"10\"}}{{i20_2 arg=\"9\"}}{{anim id=\"Smiling\" target=\"actor\" targetSpec=\"\"}}{{gender8 m=\"Il tuo\" f=\"La tua\" n=\"\"}} {{fun_0000007D arg=\"0x0000\"}} è {{gender8 m=\"fatto\" f=\"fatta\" n=\"\"}} di conchiglie, vero?{{pageBreak}}{{anim id=\"IdeaBulb\" target=\"actor\" targetSpec=\"\"}}Allora se accosto l'orecchio sentirò\nil rumore delle onde?{{pageBreak}}{{anim id=\"Nodding\" target=\"actor\" targetSpec=\"\"}}Uh{{string value=\"...\"}} {{i20_3 arg=\"6\"}}{{i20_3 arg=\"3\"}}Peccato, {{delay20}}{{anim id=\"Negative\" target=\"actor\" targetSpec=\"\"}}non si sente niente,\n{{string value=\"6\"}}!"
  },
  {
    "label": "015",
    "attribute": "0x0000000000000000",
    "text": "{{i20_2 arg=\"10\"}}{{i20_2 arg=\"9\"}}{{anim id=\"Smiling\" target=\"actor\" targetSpec=\"\"}}È sorprendente quanto mi piaccia {{gender8 m=\"questo\" f=\"questa\" n=\"\"}} {{fun_0000007D arg=\"0x0000\"}}. {{delay20}}{{i20_3 arg=\"6\"}}{{i20_3 arg=\"3\"}}Dà una magnifica sensazione al tatto!"
  },
  {
    "label": "017",
    "attribute": "0x0000000000000000",
    "text": "{{i20_2 arg=\"10\"}}{{i20_2 arg=\"9\"}}{{anim id=\"Eh\" target=\"actor\" targetSpec=\"\"}}{{gender8 m=\"Quel tuo\" f=\"Quella tua\" n=\"\"}} {{fun_0000007D arg=\"0x0000\"}} è molto interessante{{string value=\"...\"}}{{pageBreak}}{{anim id=\"QuestionMark\" target=\"actor\" targetSpec=\"\"}}È fatt{{gender8 m=\"o\" f=\"a\" n=\"\"}} di uova? {{delay8}}E non rischia di\nrompersi?{{delay20}} Sembra così fragile{{string value=\"...\"}}{{pageBreak}}{{i20_3 arg=\"6\"}}{{i20_3 arg=\"3\"}}{{anim id=\"Nodding\" target=\"actor\" targetSpec=\"\"}}Fa venire voglia di sbatacchiarl{{gender8 m=\"o\" f=\"a\" n=\"\"}}\ncome un uovo sodo.{{delay20}}{{anim id=\"Laughing\" target=\"actor\" targetSpec=\"\"}} Il rumore che\nproduce è così gratificante per me!"
  },
  {
    "label": "018",
    "attribute": "0x0000000000000000",
    "text": "{{i20_2 arg=\"10\"}}{{i20_2 arg=\"9\"}}{{anim id=\"QuestionMark\" target=\"actor\" targetSpec=\"\"}}Da mamma?{{delay20}} {{i20_3 arg=\"6\"}}{{i20_3 arg=\"3\"}}{{anim id=\"FaintSmile\" target=\"actor\" targetSpec=\"\"}}Si sente che trasuda\namore{{string value=\"...\"}}{{delay20}} {{anim id=\"BigSmile\" target=\"actor\" targetSpec=\"\"}}come la mia panca piana\npreferita, {{string value=\"6\"}}!"
  },
  {
    "label": "019",
    "attribute": "0x0000000000000000",
    "text": "{{i20_2 arg=\"10\"}}{{anim id=\"Aha\" target=\"actor\" targetSpec=\"\"}}Uau! {{delay20}}Anche a me piacerebbe avere {{wordArticle}}{{fun_0000007D arg=\"0x0000\"}} così!{{i20_2 arg=\"9\"}}{{pageBreak}}{{i20_3 arg=\"3\"}}{{i20_3 arg=\"6\"}}{{anim id=\"AbsentMindedness\" target=\"actor\" targetSpec=\"\"}}Ehi, ti chiedi mai se ci sono degli\nalieni supermuscolosi che vivono\nsu altri pianeti, {{string value=\"6\"}}?"
  },
  {
    "label": "020",
    "attribute": "0x0000000000000000",
    "text": "{{i20_2 arg=\"10\"}}{{i20_2 arg=\"9\"}}{{anim id=\"Surprised\" target=\"actor\" targetSpec=\"\"}}{{capitalizeNextLetter}}{{wordArticle}}{{fun_0000007D arg=\"0x0000\"}}?{{delay20}} Dicono che questo genere di oggetti porta bene.{{pageBreak}}{{i20_3 arg=\"6\"}}{{i20_3 arg=\"3\"}}{{anim id=\"FaintSmile\" target=\"actor\" targetSpec=\"\"}}Io non credo molto a queste cose,{{delay8}}\nma se a te serve per allenarti meglio,\n{{delay8}}hai tutto il mio appoggio!"
  },
  {
    "label": "021",
    "attribute": "0x0000000000000000",
    "text": "{{i20_2 arg=\"10\"}}{{i20_2 arg=\"9\"}}{{anim id=\"Thinking\" target=\"actor\" targetSpec=\"\"}}Mi sembra familiare, {{string value=\"6\"}}...\n{{delay20}}Sto parlando ovviamente {{gender8 m=\"del tuo\" f=\"della tua\" n=\"\"}}\n{{fun_0000007D arg=\"0x0000\"}}{{string value=\"...\"}}{{pageBreak}}{{i20_3 arg=\"3\"}}{{i20_3 arg=\"6\"}}{{anim id=\"AbsentMindedness\" target=\"actor\" targetSpec=\"\"}}Ah sì, ero in fondo al mare che\nfacevo piegamenti e{{string value=\"...\"}}{{delay20}} {{anim id=\"Shocked\" target=\"actor\" targetSpec=\"\"}}Ah,{{delay8}} giusto.{{delay20}}\n{{anim id=\"Laughing\" target=\"actor\" targetSpec=\"\"}}Era un sogno!"
  },
  {
    "label": "022",
    "attribute": "0x0000000000000000",
    "text": "{{i20_2 arg=\"10\"}}{{i20_2 arg=\"9\"}}Oh, che forza! {{delay20}}Qui nella tua casa hai\n{{wordArticle}}{{fun_0000007D arg=\"0x0000\"}}, {{string value=\"6\"}}!{{pageBreak}}{{i20_3 arg=\"6\"}}{{i20_3 arg=\"3\"}}{{anim id=\"AbsentMindedness\" target=\"actor\" targetSpec=\"\"}}Quando inizio a pensare allo spazio\nmi gira la testa{{string value=\"...\"}} Urgh{{string value=\"...\"}}{{delay20}} {{anim id=\"OhGeez\" target=\"actor\" targetSpec=\"\"}}Meglio se\nsto con le zampe su questo pianeta."
  },
  {
    "label": "023",
    "attribute": "0x0000000000000000",
    "text": "{{i20_2 arg=\"10\"}}{{i20_2 arg=\"9\"}}{{anim id=\"Eh\" target=\"actor\" targetSpec=\"\"}}Ehi, {{string value=\"NickName\"}}, non pensavo che fossi {{gender2 m=\"un tipo\" f=\"una tipa\"}} da mare.{{delay20}}{{anim id=\"Nodding\" target=\"actor\" targetSpec=\"\"}} Non male {{fun_00010032 arg=\"\"}}{{fun_0000007D arg=\"0x0000\"}}!{{pageBreak}}{{i20_3 arg=\"6\"}}{{i20_3 arg=\"3\"}}{{anim id=\"SmugFace\" target=\"actor\" targetSpec=\"\"}}Se alla tua ciurma serve un mozzo,\neccomi qui!{{delay20}} Faccio nodi così buoni\nche nemmeno io riesco a scioglierli!"
  },
  {
    "label": "024",
    "attribute": "0x0000000000000000",
    "text": "{{i20_2 arg=\"10\"}}{{i20_2 arg=\"9\"}}{{anim id=\"Nodding\" target=\"actor\" targetSpec=\"\"}}Ma guarda! {{delay20}}Hai buon gusto a esporre\n{{wordArticle}}{{fun_0000007D arg=\"0x0000\"}} qui.{{pageBreak}}{{i20_3 arg=\"6\"}}{{i20_3 arg=\"3\"}}{{anim id=\"IdeaBulb\" target=\"actor\" targetSpec=\"\"}}Oh, potresti farmi da personal trainer\nper la decorazione della mia casa!{{pageBreak}}{{anim id=\"WrySmile\" target=\"actor\" targetSpec=\"\"}}Sì, {{delay8}}potresti spronarmi con delle\nfrasi motivazionali mentre faccio\nshopping online."
  },
  {
    "label": "025",
    "attribute": "0x0000000000000000",
    "text": "{{i20_2 arg=\"10\"}}{{i20_2 arg=\"9\"}}{{anim id=\"Grin\" target=\"actor\" targetSpec=\"\"}}Non è mai veramente Halloween\nse non hai in casa {{wordArticle}}{{fun_0000007D arg=\"0x0000\"}}{{string value=\"...\"}}{{pageBreak}}{{i20_3 arg=\"6\"}}{{i20_3 arg=\"3\"}}{{anim id=\"Cheering\" target=\"actor\" targetSpec=\"\"}}Dolcetto o scherzetto?{{delay20}} Vedi?\n{{delay20}}{{anim id=\"Laughing\" target=\"actor\" targetSpec=\"\"}}Ahahah!{{delay20}} Ci sta sempre bene,\neh?"
  },
  {
    "label": "026",
    "attribute": "0x0000000000000000",
    "text": "{{i20_2 arg=\"10\"}}{{i20_2 arg=\"9\"}}{{anim id=\"Pardon\" target=\"actor\" targetSpec=\"\"}}Per tutti i deltoidi!{{pageBreak}}{{gender8 m=\"Il tuo\" f=\"La tua\" n=\"\"}} {{fun_0000007D arg=\"0x0000\"}} mi dà proprio la stessa atmosfera da Giorno dei giocattoli, {{string value=\"6\"}}.{{pageBreak}}{{i20_3 arg=\"6\"}}{{i20_3 arg=\"3\"}}{{anim id=\"QuestionMark\" target=\"actor\" targetSpec=\"\"}}Ti sei mai chiest{{gender2 m=\"o\" f=\"a\"}} che allenamento\nfaccia Babbo Natale? {{delay20}}{{anim id=\"Laughing\" target=\"actor\" targetSpec=\"\"}}Io sempre!{{pageBreak}}{{anim id=\"Explain\" target=\"actor\" targetSpec=\"\"}}Per poter fare tutte quelle consegne\nin un giorno solo,{{delay8}} devi essere in\nformissima.{{delay frames=\"40\"}}\n{{anim id=\"BigSmile\" target=\"actor\" targetSpec=\"\"}}Scommetto che si allena di brutto\ntutto l'anno, {{string value=\"6\"}}!"
  },
  {
    "label": "027",
    "attribute": "0x0000000000000000",
    "text": "{{i20_2 arg=\"10\"}}{{i20_2 arg=\"9\"}}{{anim id=\"AbsentMindedness\" target=\"actor\" targetSpec=\"\"}}Ma che buon odore!{{delay20}} Non sarà mica\n{{gender8 m=\"il tuo\" f=\"la tua\" n=\"\"}} {{fun_0000007D arg=\"0x0000\"}}?{{pageBreak}}{{i20_3 arg=\"6\"}}{{i20_3 arg=\"3\"}}{{anim id=\"EmotEnd\" target=\"actor\" targetSpec=\"\"}}O forse ho le allucinazioni olfattive?{{delay20}}\n{{anim id=\"Blushing\" target=\"actor\" targetSpec=\"\"}}Io adoro il festival delle primizie,\n{{string value=\"6\"}}.{{pageBreak}}{{anim id=\"SmugFace\" target=\"actor\" targetSpec=\"\"}}Pensa che quel giorno potrei persino\nnon allenarmi!{{delay20}} Forse{{string value=\"...\"}}"
  },
  {
    "label": "029",
    "attribute": "0x0000000000000000",
    "text": "{{i20_2 arg=\"10\"}}{{i20_2 arg=\"9\"}}{{anim id=\"Laughing\" target=\"actor\" targetSpec=\"\"}}Mi sale un desiderio irrefrenabile di\nfesteggiare solo guardando {{gender8 m=\"il tuo\" f=\"la tua\" n=\"\"}}\n{{fun_0000007D arg=\"0x0000\"}}!{{pageBreak}}{{i20_3 arg=\"6\"}}{{i20_3 arg=\"3\"}}{{anim id=\"Frantic\" target=\"actor\" targetSpec=\"\"}}Ho voglia di ballare e dimenarmi!{{delay8}}\nDov'è la musica?{{delay20}} {{anim id=\"Dance\" target=\"actor\" targetSpec=\"\"}}Forza, è il momento\ndi bruciare calorie, {{string value=\"6\"}}!"
  },
  {
    "label": "030",
    "attribute": "0x0000000000000000",
    "text": "{{i20_2 arg=\"10\"}}{{i20_2 arg=\"9\"}}{{anim id=\"Shocked\" target=\"actor\" targetSpec=\"\"}}Per tutti i deltoidi!{{delay20}} Dove hai pescato\n{{gender8 m=\"il tuo\" f=\"la tua\" n=\"\"}} {{fun_0000007D arg=\"0x0000\"}}?!{{pageBreak}}{{i20_3 arg=\"6\"}}{{i20_3 arg=\"3\"}}{{anim id=\"Confused\" target=\"actor\" targetSpec=\"\"}}Un momento{{string value=\"...\"}}{{delay8}} Questo significa che\nhai viaggiato più di me?{{pageBreak}}{{anim id=\"Frantic\" target=\"actor\" targetSpec=\"\"}}In effetti ci sono un sacco di posti\nin cui non sono andato ad allenarmi!{{delay20}}\nChe invidia, {{string value=\"6\"}}!"
  },
  {
    "label": "999",
    "attribute": "0x0000000000000000",
    "text": "{{fun_0014003C arg=\"\"}}"
  },
  {
    "label": "999_01",
    "attribute": "0x0000000000000000",
    "text": "{{anim id=\"FaintSmile\" target=\"actor\" targetSpec=\"\"}}Per tutti i deltoidi, {{delay8}}non dirmi che\nhai scelto tu questi mobili! {{delay20}}Sono\nstraordinari!\n{{anim id=\"Nodding\" target=\"actor\" targetSpec=\"\"}}Mi riferisco soprattutto {{gender8 m=\"al tuo\" f=\"alla tua\" n=\"\"}} {{fun_0000007D arg=\"0x0000\"}}! {{delay20}}{{anim id=\"HappyDance\" target=\"actor\" targetSpec=\"\"}}È proprio il tuo stile, {{string value=\"6\"}}."
  },
  {
    "label": "999_02",
    "attribute": "0x0000000000000000",
    "text": "{{i20_2 arg=\"9\"}}{{i20_2 arg=\"10\"}}{{anim id=\"Nodding\" target=\"actor\" targetSpec=\"\"}}Per tutti i deltoidi!{{delay20}} È come se avessi\ncostruito casa tua intorno {{gender8 m=\"al tuo\" f=\"alla tua\" n=\"\"}}\n{{fun_0000007D arg=\"0x0000\"}}.{{pageBreak}}{{i20_3 arg=\"6\"}}{{i20_3 arg=\"3\"}}{{anim id=\"EmotEnd\" target=\"actor\" targetSpec=\"\"}}E lo stile con cui hai arredato\nquesta stanza, {{delay8}}conferisce un'aura\nmuscolosissima, {{string value=\"6\"}}!"
  },
  {
    "label": "999_03",
    "attribute": "0x0000000000000000",
    "text": "{{anim id=\"FaintSmile\" target=\"actor\" targetSpec=\"\"}}Per tutti i deltoidi!{{delay20}} Avevo già visto\nuna roba del genere, {{delay8}}ma non ho mai\nsaputo a cosa potesse servire{{string value=\"...\"}}{{pageBreak}}{{anim id=\"Blushing\" target=\"actor\" targetSpec=\"\"}}Comunque,{{delay8}} nel mio caso vale per\nqualsiasi cosa che non serva ad\nallenarsi, {{string value=\"6\"}}..."
  }
]