﻿[
  {
    "label": "001",
    "attribute": "0x0000002600000000",
    "text": "{{anim id=\"OhGeez\" target=\"actor\" targetSpec=\"\"}}Non puoi passare l'inizio del nuovo\nanno a dormire. {{delay20}}Assolutamente no!{{pageBreak}}{{anim id=\"Smiling\" target=\"actor\" targetSpec=\"\"}}Devi uscire{{delay8}} e goderti l'aria fresca\ndell'anno nuovo{{string value=\"...\"}} correndo!"
  },
  {
    "label": "002",
    "attribute": "0x0000002600000000",
    "text": "{{anim id=\"QuestionMark\" target=\"actor\" targetSpec=\"\"}}Una mia tradizione di Capodanno?\n{{delay20}}{{anim id=\"Nodding\" target=\"actor\" targetSpec=\"\"}}Fare 100 serie di squat da 100{{string value=\"...\"}}\n{{delay20}}Così dopo l'anno inizia in discesa!"
  },
  {
    "label": "003",
    "attribute": "0x0000002600000000",
    "text": "{{anim id=\"Nodding\" target=\"actor\" targetSpec=\"\"}}Quest'anno mi allenerò per le gare\ndi decathlon! {{delay20}}{{anim id=\"Laughing\" target=\"actor\" targetSpec=\"\"}}Se solo riuscissi a\ndecidere da che sport cominciare{{string value=\"...\"}}"
  },
  {
    "label": "004",
    "attribute": "0x0000002600000000",
    "text": "{{anim id=\"Nodding\" target=\"actor\" targetSpec=\"\"}}Ho fatto un proposito per l'anno\nnuovo: {{delay8}}avere dei deltoidi tali da\nsostituire l'ombrellone in spiaggia!"
  },
  {
    "label": "005",
    "attribute": "0x0000002600000000",
    "text": "{{anim id=\"Explain\" target=\"actor\" targetSpec=\"\"}}L'anno scorso volevo mettere su\nmuscoli. {{delay20}}Quest'anno, {{delay8}}anche i miei\nmuscoli vogliono mettere su muscoli!"
  }
]