﻿[
  {
    "label": "000_01_01",
    "attribute": "0x00000000",
    "text": "{{anim id=\"IdeaBulb\" target=\"actor\" targetSpec=\"\"}}Ah !{{delay8}} Au fait !"
  },
  {
    "label": "000_01_02",
    "attribute": "0x00000000",
    "text": "{{anim id=\"Shocked\" target=\"actor\" targetSpec=\"\"}}Ah !{{delay8}} Au fait, {{delay20}}{{string value=\"PlayerName\"}} !"
  },
  {
    "label": "000_02",
    "attribute": "0x00000000",
    "text": "{{anim id=\"Explain\" target=\"actor\" targetSpec=\"\"}}Comme vous l'a dit {{color id=\"3\"}}M. Nook{{color id=\"65535\"}},{{delay8}} je suis\nà la tête du groupe de travail chargé\nde surveiller la {{color id=\"1\"}}réputation de l'île{{color id=\"65535\"}}.{{pageBreak}}{{anim id=\"Blushing\" target=\"actor\" targetSpec=\"\"}}J'avoue,{{delay8}} j'en suis la seule membre,{{delay20}}\n{{anim id=\"AbsentMindedness\" target=\"actor\" targetSpec=\"\"}}mais j'ai toujours voulu diriger un\ngroupe de travail{{string value=\"...\"}}{{pageBreak}}{{anim id=\"Eh\" target=\"actor\" targetSpec=\"\"}}Mais je m'égare.{{delay20}}{{anim id=\"Smiling\" target=\"actor\" targetSpec=\"\"}} Je ne voudrais pas\ndéjà vous ennuyer avec les détails{{string value=\"...\"}}{{pageBreak}}... mais si le sujet vous intéresse,{{delay20}}\nn'hésitez pas à me demander de vous\nparler de la {{color id=\"1\"}}réputation de l'île{{color id=\"65535\"}} !"
  },
  {
    "label": "000_02_01",
    "attribute": "0x00000000",
    "text": "{{anim id=\"Explain\" target=\"actor\" targetSpec=\"\"}}En ce moment,{{delay8}} je suis à la tête du\ngroupe de travail chargé de surveiller\nla {{color id=\"1\"}}réputation de l'île{{color id=\"65535\"}}.{{pageBreak}}{{anim id=\"Blushing\" target=\"actor\" targetSpec=\"\"}}J'avoue,{{delay8}} j'en suis la seule membre,{{delay20}}\n{{anim id=\"AbsentMindedness\" target=\"actor\" targetSpec=\"\"}}mais j'ai toujours voulu diriger un\ngroupe de travail{{string value=\"...\"}}{{pageBreak}}{{anim id=\"Eh\" target=\"actor\" targetSpec=\"\"}}Mais je m'égare.{{delay20}}{{anim id=\"Smiling\" target=\"actor\" targetSpec=\"\"}} Je ne voudrais pas\ndéjà vous ennuyer avec les détails{{string value=\"...\"}}{{pageBreak}}... mais si le sujet vous intéresse,{{delay20}}\nn'hésitez pas à me demander de vous\nparler de la {{color id=\"1\"}}réputation de l'île{{color id=\"65535\"}} !"
  },
  {
    "label": "000_03",
    "attribute": "0x00000000",
    "text": ""
  },
  {
    "label": "000_04",
    "attribute": "0x00000000",
    "text": "{{anim id=\"Smiling\" target=\"actor\" targetSpec=\"\"}}Vous aimeriez savoir quelle est la\nréputation actuelle {{gender4 m=\"de \" f=\"d'⁠\"}}{{string value=\"OtherIslandName\"}} ?"
  },
  {
    "label": "000_05",
    "attribute": "0x00000000",
    "text": "{{anim id=\"Nodding\" target=\"actor\" targetSpec=\"\"}}Et voilà !{{delay20}}{{delay frames=\"40\"}} {{anim id=\"Smiling\" target=\"actor\" targetSpec=\"\"}}La prochaine fois que vous\nvoulez connaître la réputation de\nl'île, {{delay20}}n'hésitez pas à me demander."
  },
  {
    "label": "001_01",
    "attribute": "0x00000000",
    "text": "{{anim id=\"Smiling\" target=\"actor\" targetSpec=\"\"}}Les gens disent que nous pouvons\nencore nous améliorer dans bien\ndes domaines{{string value=\"...\"}}"
  },
  {
    "label": "001_02",
    "attribute": "0x00000000",
    "text": "{{anim id=\"BigSmile\" target=\"actor\" targetSpec=\"\"}}Notre île commence un peu à faire\nparler d'elle.{{delay8}}{{anim id=\"Clapping\" target=\"actor\" targetSpec=\"\"}} Les gens sont curieux\nà son sujet !"
  },
  {
    "label": "001_03",
    "attribute": "0x00000000",
    "text": "{{anim id=\"HappyDance\" target=\"actor\" targetSpec=\"\"}}Nous avons une solide réputation, {{delay20}}et\non parle de notre île autour de plus\nd'une machine à café !"
  },
  {
    "label": "001_04",
    "attribute": "0x00000000",
    "text": "{{anim id=\"HappyFlower\" target=\"actor\" targetSpec=\"\"}}Notre île figure en très bonne place\ndans plusieurs classements des\nmeilleures destinations touristiques !"
  },
  {
    "label": "001_05",
    "attribute": "0x00000000",
    "text": "{{anim id=\"Love\" target=\"actor\" targetSpec=\"\"}}Notre île est si populaire que\nbeaucoup de gens rêvent d'y vivre !"
  },
  {
    "label": "001_06",
    "attribute": "0x00000000",
    "text": "{{anim id=\"Worried\" target=\"actor\" targetSpec=\"\"}}Oh non{{string value=\"...\"}} Notre note a baissé depuis\nla dernière fois que vous me l'avez\ndemandée."
  },
  {
    "label": "002_01",
    "attribute": "0x00000000",
    "text": "À l'heure actuelle, notre note est de{{delay8}}\n{{color id=\"3\"}}★ {{color id=\"4\"}}☆ ☆ ☆ ☆ {{color id=\"3\"}}1 étoile{{color id=\"65535\"}}."
  },
  {
    "label": "002_02",
    "attribute": "0x00000000",
    "text": "À l'heure actuelle, notre note est de{{delay8}}\n{{color id=\"3\"}}★ ★{{color id=\"4\"}} ☆ ☆ ☆{{color id=\"3\"}} 2 étoiles{{color id=\"65535\"}}."
  },
  {
    "label": "002_03",
    "attribute": "0x00000000",
    "text": "À l'heure actuelle, notre note est de{{delay8}}\n{{color id=\"3\"}}★ ★ ★{{color id=\"4\"}} ☆ ☆{{color id=\"3\"}} 3 étoiles{{color id=\"65535\"}}."
  },
  {
    "label": "002_04",
    "attribute": "0x00000000",
    "text": "À l'heure actuelle, notre note est de{{delay8}}\n{{color id=\"3\"}}★ ★ ★ ★{{color id=\"4\"}} ☆{{color id=\"3\"}} 4 étoiles{{color id=\"65535\"}}."
  },
  {
    "label": "002_05",
    "attribute": "0x00000000",
    "text": "À l'heure actuelle, notre note est de{{delay8}}\n{{color id=\"3\"}}★ ★ ★ ★{{color id=\"4\"}} {{color id=\"3\"}}★{{color id=\"4\"}}{{color id=\"3\"}} 5 étoiles{{color id=\"65535\"}}."
  },
  {
    "label": "003_01",
    "attribute": "0x00000000",
    "text": "La note actuelle {{gender4 m=\"de \" f=\"d'⁠\"}}{{string value=\"OtherIslandName\"}}\nest de {{color id=\"3\"}}★{{color id=\"65535\"}} {{color id=\"4\"}}☆ ☆ ☆ ☆{{color id=\"65535\"}} {{color id=\"3\"}}1 étoile{{color id=\"65535\"}}."
  },
  {
    "label": "003_02",
    "attribute": "0x00000000",
    "text": "La note actuelle {{gender4 m=\"de \" f=\"d'⁠\"}}{{string value=\"OtherIslandName\"}}\nest de {{color id=\"3\"}}★ ★{{color id=\"65535\"}} {{color id=\"4\"}}☆ ☆ ☆{{color id=\"65535\"}} {{color id=\"3\"}}2 étoiles{{color id=\"65535\"}}."
  },
  {
    "label": "003_03",
    "attribute": "0x00000000",
    "text": "La note actuelle {{gender4 m=\"de \" f=\"d'⁠\"}}{{string value=\"OtherIslandName\"}}\nest de {{color id=\"3\"}}★ ★ ★{{color id=\"65535\"}} {{color id=\"4\"}}☆ ☆{{color id=\"65535\"}} {{color id=\"3\"}}3 étoiles{{color id=\"65535\"}}."
  },
  {
    "label": "003_04",
    "attribute": "0x00000000",
    "text": "La note actuelle {{gender4 m=\"de \" f=\"d'⁠\"}}{{string value=\"OtherIslandName\"}}\nest de {{color id=\"3\"}}★ ★ ★ ★{{color id=\"65535\"}} {{color id=\"4\"}}☆{{color id=\"65535\"}} {{color id=\"3\"}}4 étoiles{{color id=\"65535\"}}."
  },
  {
    "label": "003_05",
    "attribute": "0x00000000",
    "text": "La note actuelle {{gender4 m=\"de \" f=\"d'⁠\"}}{{string value=\"OtherIslandName\"}}\nest de {{color id=\"3\"}}★ ★ ★ ★ ★ 5 étoiles{{color id=\"65535\"}}."
  },
  {
    "label": "011",
    "attribute": "0x00000000",
    "text": "{{anim id=\"BigSmile\" target=\"actor\" targetSpec=\"\"}}Nous avons obtenu la note\nmaximale !{{delay frames=\"40\"}}{{anim id=\"Nodding\" target=\"actor\" targetSpec=\"\"}} Continuez ainsi pour\nmaintenir la réputation de l'île !"
  },
  {
    "label": "012",
    "attribute": "0x00000000",
    "text": "{{anim id=\"BigSmile\" target=\"actor\" targetSpec=\"\"}}Oui !{{delay8}} Nous avons enfin réussi !{{pageBreak}}{{anim id=\"AbsentMindedness\" target=\"actor\" targetSpec=\"\"}}{{capitalizeNextLetter}}{{string value=\"IslandName\"}}, jadis déserte et vierge de toute trace de civilisation,{{delay20}}{{anim id=\"HappyFlower\" target=\"actor\" targetSpec=\"\"}} a obtenu la plus haute note !{{pageBreak}}{{anim id=\"Smiling\" target=\"actor\" targetSpec=\"\"}}Je vous remercie pour tous vos\nefforts, {{string value=\"PlayerName\"}} !{{pageBreak}}Vous avez joué un rôle majeur dans\nl'ascension fulgurante de notre île !"
  },
  {
    "label": "021",
    "attribute": "0x00000000",
    "text": "{{anim id=\"Explain\" target=\"actor\" targetSpec=\"\"}}Une remarque qui revient souvent\nest que l'île manque de {{color id=\"1\"}}paysages\nmémorables{{color id=\"65535\"}}.{{pageBreak}}{{anim id=\"Thinking\" target=\"actor\" targetSpec=\"\"}}Je pense qu'il n'y a qu'une seule\nfaçon de remédier à ce problème{{string value=\"...\"}}{{delay20}}{{anim id=\"IdeaBulb\" target=\"actor\" targetSpec=\"\"}}{{delay20}}{{pageBreak}}{{anim id=\"HappyFlower\" target=\"actor\" targetSpec=\"\"}}{{color id=\"1\"}}Décorer l'île{{color id=\"65535\"}} de fond en comble{{string value=\"...\"}}{{anim id=\"Blushing\" target=\"actor\" targetSpec=\"\"}}{{delay20}} ou\nplutôt, de falaises en plages !"
  },
  {
    "label": "021_01",
    "attribute": "0x00000000",
    "text": "{{anim id=\"EmotEnd\" target=\"actor\" targetSpec=\"\"}}Par rapport à la précédente\névaluation,{{anim id=\"HappyDance\" target=\"actor\" targetSpec=\"\"}} les gens trouvent que les\n{{color id=\"1\"}}paysages de l'île{{color id=\"65535\"}} ont {{color id=\"0\"}}plus de charme{{color id=\"65535\"}}.{{pageBreak}}{{anim id=\"Smiling\" target=\"actor\" targetSpec=\"\"}}Bien sûr, on peut toujours faire\nmieux, n'est-ce pas ?{{pageBreak}}Alors continuez de décorer l'île{{delay8}}{{anim id=\"Nodding\" target=\"actor\" targetSpec=\"\"}} pour\nque ses {{color id=\"1\"}}paysages soient toujours\nplus mémorables{{color id=\"65535\"}} !"
  },
  {
    "label": "022",
    "attribute": "0x00000000",
    "text": "D'après les commentaires,{{delay20}}{{anim id=\"Smiling\" target=\"actor\" targetSpec=\"\"}} les gens\npensent que l'{{color id=\"1\"}}environnement naturel\nde l'île{{color id=\"65535\"}} a beaucoup de potentiel."
  },
  {
    "label": "022_01",
    "attribute": "0x00000000",
    "text": "{{anim id=\"EmotEnd\" target=\"actor\" targetSpec=\"\"}}Depuis la dernière évaluation,{{delay20}}\n{{anim id=\"HappyDance\" target=\"actor\" targetSpec=\"\"}}beaucoup disent que l'{{color id=\"1\"}}environnement\nnaturel de l'île {{color id=\"65535\"}}s'est {{color id=\"0\"}}amélioré{{color id=\"65535\"}}.{{pageBreak}}{{anim id=\"Negative\" target=\"actor\" targetSpec=\"\"}}Mais nous ne devons pas nous\nreposer sur nos lauriers !{{pageBreak}}{{anim id=\"Smiling\" target=\"actor\" targetSpec=\"\"}}Continuez de multiplier les efforts\npour {{color id=\"1\"}}améliorer encore davantage\nl'environnement naturel de l'île{{color id=\"65535\"}}."
  },
  {
    "label": "023",
    "attribute": "0x00000000",
    "text": "{{anim id=\"Thinking\" target=\"actor\" targetSpec=\"\"}}J'ai lu beaucoup de commentaires\ndisant que l'île devrait se {{color id=\"1\"}}développer{{color id=\"65535\"}}\ndavantage{{string value=\"...\"}}"
  },
  {
    "label": "024",
    "attribute": "0x00000000",
    "text": "Si vous décorez l'île{{delay20}}{{anim id=\"Nodding\" target=\"actor\" targetSpec=\"\"}} d'{{color id=\"1\"}}objets que\nvous avez créés vous-même{{color id=\"65535\"}} à l'aide\nde matériaux locaux{{string value=\"...\"}}\n{{anim id=\"HappyDance\" target=\"actor\" targetSpec=\"\"}}... je suis sûre que cela embellira\nle paysage{{delay20}} tout en préservant\nl'environnement naturel de l'île."
  },
  {
    "label": "024_01",
    "attribute": "0x00000000",
    "text": "{{anim id=\"Smiling\" target=\"actor\" targetSpec=\"\"}}Je sais que le {{color id=\"1\"}}Nook Stop{{color id=\"65535\"}} propose des\n{{color id=\"1\"}}plans {{color id=\"65535\"}}et des {{color id=\"1\"}}objets {{color id=\"65535\"}}qui seraient\nparfaits pour embellir notre île.{{pageBreak}}{{anim id=\"EmotEnd\" target=\"actor\" targetSpec=\"\"}}Économiser et échanger des miles{{delay20}}\n{{anim id=\"HappyDance\" target=\"actor\" targetSpec=\"\"}}vous permettra d'offrir à notre île\ndes paysages idylliques !"
  },
  {
    "label": "024_02",
    "attribute": "0x00000000",
    "text": "{{anim id=\"Thinking\" target=\"actor\" targetSpec=\"\"}}Notre île a une superficie non\nnégligeable{{string value=\"...\"}}{{pageBreak}}{{anim id=\"Nodding\" target=\"actor\" targetSpec=\"\"}}Il faudra donc de nombreux objets\npour la décorer comme il se doit.{{pageBreak}}{{anim id=\"Smiling\" target=\"actor\" targetSpec=\"\"}}Avec {{color id=\"1\"}}Nook Shopping{{color id=\"65535\"}}, vous pouvez\ncommander des articles que vous\navez déjà achetés.{{pageBreak}}Voilà qui devrait vous être utile si\nvous souhaitez placer plusieurs\nexemplaires de votre objet préféré !{{pageBreak}}{{anim id=\"Negative\" target=\"actor\" targetSpec=\"\"}}Bien sûr, il ne faut pas non plus\nnégliger la variété{{string value=\"...\"}}{{pageBreak}}{{anim id=\"HappyDance\" target=\"actor\" targetSpec=\"\"}}... mais j'ai pleinement confiance en\nvotre sens de l'esthétique !"
  },
  {
    "label": "024_03",
    "attribute": "0x00000000",
    "text": "{{anim id=\"Thinking\" target=\"actor\" targetSpec=\"\"}}Je pense que vous pourriez créer de\njolis paysages en plaçant quelques\n{{color id=\"1\"}}clôtures {{color id=\"65535\"}}ici ou là.{{pageBreak}}{{anim id=\"Greeting\" target=\"actor\" targetSpec=\"\"}}Vous devriez essayer !"
  },
  {
    "label": "025",
    "attribute": "0x00000000",
    "text": "{{anim id=\"Smiling\" target=\"actor\" targetSpec=\"\"}}Quand on parle des splendeurs de la\nnature{{delay20}}, quelle est la première chose\nqui vient à l'esprit ?{{pageBreak}}{{anim id=\"HappyFlower\" target=\"actor\" targetSpec=\"\"}}Les {{color id=\"1\"}}fleurs{{color id=\"65535\"}}, bien sûr !{{pageBreak}}{{anim id=\"EmotEnd\" target=\"actor\" targetSpec=\"\"}}Prenez le temps d'arroser les fleurs{{delay20}}{{anim id=\"HappyDance\" target=\"actor\" targetSpec=\"\"}}\npour faire de notre île un paradis sur\nterre !"
  },
  {
    "label": "025_01",
    "attribute": "0x00000000",
    "text": "{{anim id=\"FaintSmile\" target=\"actor\" targetSpec=\"\"}}Si vous voulez mon avis, on ne peut\njamais avoir trop de {{color id=\"1\"}}fleurs{{color id=\"65535\"}}, alors\nn'hésitez pas à en planter !{{pageBreak}}{{anim id=\"AbsentMindedness\" target=\"actor\" targetSpec=\"\"}}Imaginez notre île dans une\nexplosion florale de couleurs et de\nsenteurs !{{pageBreak}}{{anim id=\"Eh\" target=\"actor\" targetSpec=\"\"}}Oh, je crois que je me suis laissé\nemporter.{{delay20}}{{anim id=\"Smiling\" target=\"actor\" targetSpec=\"\"}} De quoi parlions-nous,\ndéjà ?"
  },
  {
    "label": "025_02",
    "attribute": "0x00000000",
    "text": "Plantons des fruits et des pousses\nd'arbre{{delay20}}{{anim id=\"Nodding\" target=\"actor\" targetSpec=\"\"}} pour rendre la végétation de\nl'île encore plus luxuriante !"
  },
  {
    "label": "026",
    "attribute": "0x00000000",
    "text": "{{anim id=\"Thinking\" target=\"actor\" targetSpec=\"\"}}Un {{color id=\"1\"}}musée {{color id=\"65535\"}}où seraient exposés les\ncréatures et les trésors enfouis de\nl'île pourrait nous rendre célèbres.{{pageBreak}}{{anim id=\"EmotEnd\" target=\"actor\" targetSpec=\"\"}}En ce moment, {{color id=\"3\"}}Thibou {{color id=\"65535\"}}rassemble des\ndonations afin d'obtenir un permis\nde construire pour un tel musée.\n{{anim id=\"Smiling\" target=\"actor\" targetSpec=\"\"}}Vous devriez lui venir en aide,\nje suis sûre qu'il vous en serait\ntrès reconnaissant !"
  },
  {
    "label": "026_01",
    "attribute": "0x00000000",
    "text": "{{anim id=\"Explain\" target=\"actor\" targetSpec=\"\"}}Je pense que notre île aurait l'air\nplus moderne si nous en\ndéveloppions les infrastructures.{{pageBreak}}{{anim id=\"Smiling\" target=\"actor\" targetSpec=\"\"}}Vous pourriez par exemple construire\nquelques {{color id=\"1\"}}ponts {{color id=\"65535\"}}ou des {{color id=\"1\"}}rampes{{color id=\"65535\"}}."
  },
  {
    "label": "026_02",
    "attribute": "0x00000000",
    "text": "{{anim id=\"FaintSmile\" target=\"actor\" targetSpec=\"\"}}Beaucoup de gens jugent une île sur\nla quantité et la qualité de ses\ncommerces.{{pageBreak}}{{anim id=\"Nodding\" target=\"actor\" targetSpec=\"\"}}Il n'y a pas meilleur signe de\ndéveloppement qu'une multitude\nde vitrines bien achalandées !{{pageBreak}}{{anim id=\"EmotEnd\" target=\"actor\" targetSpec=\"\"}}Mais ce n'est qu'une idée en l'air.{{anim id=\"WrySmile\" target=\"actor\" targetSpec=\"\"}}\nÇa n'a rien à voir avec mes habitudes\nde consommation."
  },
  {
    "label": "031",
    "attribute": "0x00000000",
    "text": "Il y a encore un point que j'aimerais\naborder{{string value=\"...\"}}"
  },
  {
    "label": "031_01",
    "attribute": "0x00000000",
    "text": "{{anim id=\"Smiling\" target=\"actor\" targetSpec=\"\"}}Avec une aussi bonne note, il n'y a\nquasiment rien à redire{{string value=\"...\"}}{{pageBreak}}{{anim id=\"ShyBoy\" target=\"actor\" targetSpec=\"\"}}Il y a cependant un tout petit\nquelque chose qui me tracasse."
  },
  {
    "label": "032",
    "attribute": "0x00000000",
    "text": "{{anim id=\"Worried\" target=\"actor\" targetSpec=\"\"}}On m'a rapporté que certaines zones\nde l'île étaient si encombrées qu'il\ns'avérait {{color id=\"1\"}}difficile d'y circuler{{color id=\"65535\"}}.{{pageBreak}}{{anim id=\"Explain\" target=\"actor\" targetSpec=\"\"}}L'esthétique de l'île est certes\nimportante, mais elle ne doit pas\nnuire à la circulation."
  },
  {
    "label": "033",
    "attribute": "0x00000000",
    "text": "{{anim id=\"Explain\" target=\"actor\" targetSpec=\"\"}}De plus en plus de gens trouvent\nqu'il y a {{color id=\"1\"}}un peu trop d'arbres{{color id=\"65535\"}} sur\nl'île.{{pageBreak}}{{anim id=\"Worried\" target=\"actor\" targetSpec=\"\"}}Certains se seraient même égarés\ndans les bois et auraient été pris\nde panique{{string value=\"...\"}}\n{{anim id=\"Frantic\" target=\"actor\" targetSpec=\"\"}}... à l'idée de manquer le début de\nleur émission favorite !{{pageBreak}}{{anim id=\"Hesitate\" target=\"actor\" targetSpec=\"\"}}J'aime les arbres autant que vous,\nvous savez{{string value=\"...\"}}{{pageBreak}}{{anim id=\"Nodding\" target=\"actor\" targetSpec=\"\"}}... mais si les habitants trouvent l'île\nun peu {{color id=\"1\"}}trop sauvage{{color id=\"65535\"}}, {{delay20}}nous devons\nêtre à leur écoute."
  },
  {
    "label": "034",
    "attribute": "0x00000000",
    "text": "{{anim id=\"Eh\" target=\"actor\" targetSpec=\"\"}}On m'a signalé qu'il y avait {{color id=\"1\"}}beaucoup\nd'objets qui traînaient par terre {{color id=\"65535\"}}un\npeu partout sur l'île.{{pageBreak}}{{anim id=\"EmotEnd\" target=\"actor\" targetSpec=\"\"}}Essayons de faire de notre mieux\npour que notre île soit propre et\nbien rangée.{{pageBreak}}{{anim id=\"Smiling\" target=\"actor\" targetSpec=\"\"}}Ça peut même être un bon moyen de\ns'enrichir.{{pageBreak}}{{anim id=\"Explain\" target=\"actor\" targetSpec=\"\"}}En effet, la boutique peut racheter\nles objets dont vous n'avez plus\nl'utilité !"
  },
  {
    "label": "101_01",
    "attribute": "0x00000000",
    "text": "{{anim id=\"Shocked\" target=\"actor\" targetSpec=\"\"}}{{delay8}}Fabuleux !{{delay40}}{{anim id=\"Smiling\" target=\"actor\" targetSpec=\"\"}} Je suis ravie que vous\nvous intéressiez à la {{color id=\"1\"}}réputation de\nnotre île{{color id=\"65535\"}} !"
  },
  {
    "label": "101_02",
    "attribute": "0x00000000",
    "text": "{{anim id=\"Shocked\" target=\"actor\" targetSpec=\"\"}}{{delay8}}Fabuleux !{{delay40}}{{pageBreak}}{{anim id=\"Smiling\" target=\"actor\" targetSpec=\"\"}}Je vous remercie de l'intérêt que\nvous portez à la {{color id=\"1\"}}réputation de\nnotre île{{color id=\"65535\"}} !{{delay20}} Ce sujet me tient à cœur !"
  },
  {
    "label": "102",
    "attribute": "0x00000000",
    "text": "{{anim id=\"EmotEnd\" target=\"actor\" targetSpec=\"\"}}Alors, laissez-moi vous expliquer\ncomment le groupe de travail{{delay8}} (moi){{delay20}}{{anim id=\"Nodding\" target=\"actor\" targetSpec=\"\"}}\nrassemble et analyse les données.{{pageBreak}}{{anim id=\"Explain\" target=\"actor\" targetSpec=\"\"}}Je réalise d'abord un sondage sur\nun échantillon composé de résidents,\nde visiteurs et de touristes.{{pageBreak}}{{anim id=\"Smiling\" target=\"actor\" targetSpec=\"\"}}Leurs commentaires me servent\nensuite à calculer une note sur le\nbon vieux barème des cinq étoiles.{{pageBreak}}{{anim id=\"Explain\" target=\"actor\" targetSpec=\"\"}}L'équilibre entre développement,\nenvironnement naturel et décor est\ncrucial pour obtenir une note élevée.{{pageBreak}}{{anim id=\"AbsentMindedness\" target=\"actor\" targetSpec=\"\"}}Il nous faut donc beaucoup\nd'habitants et de bâtiments, de\nsolides infrastructures...{{pageBreak}}... et un environnement naturel\naménagé avec goût.{{pageBreak}}{{anim id=\"Grin\" target=\"actor\" targetSpec=\"\"}}Facile, non ?{{pageBreak}}{{anim id=\"Smiling\" target=\"actor\" targetSpec=\"\"}}Si nous parvenons à atteindre cet\néquilibre parfait,{{delay20}} {{anim id=\"HappyFlower\" target=\"actor\" targetSpec=\"\"}}notre réputation\nne peut que s'améliorer !"
  },
  {
    "label": "201",
    "attribute": "0x00000000",
    "text": "{{anim id=\"Smiling\" target=\"actor\" targetSpec=\"\"}}Ah oui !{{delay frames=\"40\"}}{{anim id=\"EmotEnd\" target=\"actor\" targetSpec=\"\"}} Pour célébrer cet exploit,{{delay20}}{{anim id=\"Smiling\" target=\"actor\" targetSpec=\"\"}}\nj'offre à tous les résidents un plan\npour fabriquer{{string value=\"...\"}}\n{{anim id=\"EmotEnd\" target=\"actor\" targetSpec=\"\"}}{{string value=\"...\"}} un {{color id=\"1\"}}arrosoir doré{{color id=\"65535\"}} !{{delay20}}{{anim id=\"Clapping\" target=\"actor\" targetSpec=\"\"}}{{delay20}}{{pageBreak}}{{anim id=\"Hello\" target=\"actor\" targetSpec=\"\"}}Si vous voulez bien sortir votre\nNookPhone, {{delay20}}je peux vous envoyer\nles données dès maintenant !"
  },
  {
    "label": "202",
    "attribute": "0x00000000",
    "text": "{{anim id=\"BigSmile\" target=\"actor\" targetSpec=\"\"}}Et voilà !{{delay8}} Vous devriez avoir reçu le\nplan.{{delay20}}{{anim id=\"Smiling\" target=\"actor\" targetSpec=\"\"}} J'ai hâte de voir votre {{color id=\"1\"}}arrosoir\ndoré{{delay8}}{{anim id=\"HappyFlower\" target=\"actor\" targetSpec=\"\"}}{{color id=\"65535\"}} et les fleurs qu'il fera pousser !"
  },
  {
    "label": "501",
    "attribute": "0x00000000",
    "text": "{{i20_3 arg=\"8\"}}{{i20_2 arg=\"7\"}}{{anim id=\"TakenAback\" target=\"actor\" targetSpec=\"\"}}Attends une seconde !{{i20_2 arg=\"2\"}}{{delay40}} J'ai bien\nentendu ?!{{delay20}} Ce commentaire est signé\n« K.L. » ?!"
  },
  {
    "label": "502",
    "attribute": "0x00000000",
    "text": "{{anim id=\"QuestionMark\" target=\"actor\" targetSpec=\"\"}}Pardon ?{{delay20}}{{anim id=\"Nodding\" target=\"actor\" targetSpec=\"\"}} Oui, ici,{{delay20}} en bas à droite :\n« K.L. »{{delay20}}{{anim id=\"ShyBoy\" target=\"actor\" targetSpec=\"\"}} Et d'une écriture fort\nélégante, si je puis me permettre{{string value=\"...\"}}"
  },
  {
    "label": "503",
    "attribute": "0x00000000",
    "text": "{{anim id=\"Frantic\" target=\"actor\" targetSpec=\"\"}}Se pourrait-il que{{string value=\"...\"}}{{delay20}} Oui,{{delay8}} ça ne peut\nêtre que{{string value=\"...\"}}{{pageBreak}}Ce message a été écrit par nul autre\nque le grand{{color id=\"3\"}} Kéké Laglisse{{color id=\"65535\"}} !"
  },
  {
    "label": "504",
    "attribute": "0x00000000",
    "text": "{{size value=\"150\"}}{{i10_10}}{{anim id=\"Surprised\" target=\"actor\" targetSpec=\"\"}}QUOI ?!{{size value=\"100\"}}{{i10_9}}"
  },
  {
    "label": "505",
    "attribute": "0x00000000",
    "text": "{{i20_3 arg=\"5\"}}{{anim id=\"Shocked\" target=\"actor\" targetSpec=\"\"}}Je n'arrive pas à y croire !{{pageBreak}}{{anim id=\"HappyFlower\" target=\"actor\" targetSpec=\"\"}}Nous avons enfin réussi ! Nous\navons attiré l'attention du grand\n{{color id=\"3\"}}Kéké Laglisse{{color id=\"65535\"}} sur notre île !{{pageBreak}}{{anim id=\"Smiling\" target=\"actor\" targetSpec=\"\"}}Et il dit même qu'il aimerait la visiter\nsi l'occasion se présentait !"
  },
  {
    "label": "506",
    "attribute": "0x00000000",
    "text": "{{anim id=\"Restless\" target=\"actor\" targetSpec=\"\"}}Eh bien, qu'attendons-nous ?{{pageBreak}}{{anim id=\"BigSmile\" target=\"actor\" targetSpec=\"\"}}Si nous voulons lui proposer de\ndonner un concert sur notre île,{{delay8}}\nc'est le moment ou jamais, oui, oui !"
  },
  {
    "label": "507",
    "attribute": "0x00000000",
    "text": "{{anim id=\"Serious\" target=\"actor\" targetSpec=\"\"}}Comme on dit,{{delay40}} il faut battre le fer\ntant qu'il est chaud !"
  },
  {
    "label": "508_01",
    "attribute": "0x00000000",
    "text": "{{anim id=\"Shocked\" target=\"actor\" targetSpec=\"\"}}{{delay8}}Oui,{{delay20}} bonjour !{{delay40}} {{anim id=\"Restless\" target=\"actor\" targetSpec=\"\"}}Ai-je bien l'honneur de\nparler à {{color id=\"3\"}}M. Kéké Laglisse{{color id=\"65535\"}} ?{{pageBreak}}{{anim id=\"Explain\" target=\"actor\" targetSpec=\"\"}}Oui, oui !{{delay8}} Je vous appelle au nom de\nla société {{color id=\"1\"}}Nook Inc.{{color id=\"65535\"}} sur {{string value=\"OtherIslandName\"}}, je suis{{string value=\"...\"}}{{delay8}}{{anim id=\"Shocked\" target=\"actor\" targetSpec=\"\"}}{{pageBreak}}{{size value=\"75\"}}Hmm-hmm{{string value=\"...\"}}{{size value=\"100\"}}{{delay20}}{{anim id=\"BigSmile\" target=\"actor\" targetSpec=\"\"}} Oui,{{delay20}} nous l'avons bien\nreçu !{{delay40}} Je vous remercie pour votre\nprécieux commentaire !"
  },
  {
    "label": "508_02",
    "attribute": "0x00000000",
    "text": "{{anim id=\"ShyBoy\" target=\"actor\" targetSpec=\"\"}}C'est justement la raison de mon\nappel{{string value=\"...\"}}{{pageBreak}}{{anim id=\"Hesitate\" target=\"actor\" targetSpec=\"\"}}Si vous êtes vraiment intéressé par\nune visite de notre île, {{color id=\"3\"}}M. Laglisse{{color id=\"65535\"}}{{string value=\"...\"}}{{pageBreak}}{{anim id=\"Nodding\" target=\"mainNpc\" targetSpec=\"\"}}... nous serions plus qu'honorés de\nvous accueillir,{{delay20}} vous et votre\nmusique{{anim id=\"Smiling\" target=\"mainNpc\" targetSpec=\"\"}}{{string value=\"...\"}}"
  },
  {
    "label": "508_03",
    "attribute": "0x00000000",
    "text": "{{anim id=\"Serious\" target=\"actor\" targetSpec=\"\"}}Oui, en effet{{string value=\"...\"}}{{delay40}}{{anim id=\"Nodding\" target=\"actor\" targetSpec=\"\"}}{{delay8}} Je comprends, oui\noui{{string value=\"...\"}}{{delay40}}"
  },
  {
    "label": "508_04",
    "attribute": "0x00000000",
    "text": "{{i10_10}}{{anim id=\"Eh\" target=\"actor\" targetSpec=\"\"}}{{size value=\"150\"}}OH !{{anim id=\"TakenAback\" target=\"mainNpc\" targetSpec=\"\"}}{{delay20}} Vraiment ?!{{size value=\"100\"}}"
  },
  {
    "label": "508_05",
    "attribute": "0x00000000",
    "text": "{{anim id=\"HappyFlower\" target=\"actor\" targetSpec=\"\"}}Merci du fond du cœur !{{delay40}}{{pageBreak}}Oui, {{delay8}}je vous communiquerai tous les\ndétails par e-mail dans les plus brefs\ndélais !{{pageBreak}}{{anim id=\"Smiling\" target=\"actor\" targetSpec=\"\"}}Tous les habitants de l'île attendront\ncela avec impatience !{{delay40}} Encore merci !{{delay40}}\n{{anim id=\"Nodding\" target=\"actor\" targetSpec=\"\"}}Oui, oui !{{delay8}} À bientôt !"
  },
  {
    "label": "509",
    "attribute": "0x00000000",
    "text": "{{anim id=\"Serious\" target=\"actor\" targetSpec=\"\"}}Alors ?{{delay20}} Qu'est-ce qu'il a dit ?"
  },
  {
    "label": "510",
    "attribute": "0x00000000",
    "text": "{{anim id=\"BigSmile\" target=\"actor\" targetSpec=\"\"}}Il a accepté de donner un concert.{{delay20}}\nOui, oui ! {{delay40}}{{anim id=\"HappyDance\" target=\"actor\" targetSpec=\"\"}}{{color id=\"3\"}}Kéké Laglisse{{color id=\"65535\"}} va venir sur\nnotre île !"
  },
  {
    "label": "511",
    "attribute": "0x00000000",
    "text": "{{anim id=\"Clapping\" target=\"actor\" targetSpec=\"\"}}C'est formidable !{{delay40}} Toutes mes\nfélicitations, {{color id=\"3\"}}M. Nook {{color id=\"65535\"}}!"
  },
  {
    "label": "512_01",
    "attribute": "0x00000000",
    "text": "{{anim id=\"Smiling\" target=\"actor\" targetSpec=\"\"}}Il se pourrait qu'il soit là dès demain,{{delay20}}{{anim id=\"Nodding\" target=\"actor\" targetSpec=\"\"}}\nmais il doit bien entendu vérifier son\nemploi du temps."
  },
  {
    "label": "512_02",
    "attribute": "0x00000000",
    "text": "{{anim id=\"Smiling\" target=\"actor\" targetSpec=\"\"}}Demain, c'est le{{color id=\"1\"}} tournoi de pêche{{color id=\"65535\"}},{{delay8}}\nmais il va voir s'il peut nous rendre\nvisite dès le lendemain !"
  },
  {
    "label": "512_03",
    "attribute": "0x00000000",
    "text": "{{anim id=\"Smiling\" target=\"actor\" targetSpec=\"\"}}Demain, c'est l'{{color id=\"1\"}}insectosafari{{color id=\"65535\"}},{{delay8}} mais il\nva voir s'il peut nous rendre visite\ndès le lendemain !"
  },
  {
    "label": "512_04",
    "attribute": "0x00000000",
    "text": "{{anim id=\"Smiling\" target=\"actor\" targetSpec=\"\"}}Demain, c'est le{{color id=\"1\"}} réveillon{{color id=\"65535\"}},{{delay8}} mais il va\nvoir s'il peut nous rendre visite dès\nle lendemain !"
  },
  {
    "label": "512_05",
    "attribute": "0x00000000",
    "text": "{{anim id=\"Smiling\" target=\"actor\" targetSpec=\"\"}}Bon, il n'est pas disponible demain,\nmais il planche sur son agenda{{string value=\"...\"}}\nAprès-demain, j'espère !"
  },
  {
    "label": "513_01",
    "attribute": "0x00000000",
    "text": "{{anim id=\"BigSmile\" target=\"actor\" targetSpec=\"\"}}{{delay8}}{{capitalizeNextLetter}}{{string value=\"PlayerName\"}} !{{i20_3 arg=\"6\"}}{{i10_4}} Tu te rends compte ? Notre rêve va enfin se réaliser !{{pageBreak}}{{anim id=\"Nodding\" target=\"actor\" targetSpec=\"\"}}Nous allons annoncer la nouvelle\nà tout le monde via la chaîne\nd'information de l'île.{{pageBreak}}{{anim id=\"Eh\" target=\"actor\" targetSpec=\"\"}}J'espère que tu seras dans le public,\n{{string value=\"PlayerName\"}}. {{pageBreak}}{{anim id=\"Love\" target=\"actor\" targetSpec=\"\"}}Il faut absolument que tu entendes\n{{color id=\"3\"}}Kéké{{color id=\"65535\"}} jouer en direct ! Oui, oui, il le\nfaut !"
  },
  {
    "label": "513_02",
    "attribute": "0x00000000",
    "text": ""
  },
  {
    "label": "801",
    "attribute": "0x00000000",
    "text": "Hmm{{string value=\"...\"}} {{delay20}}{{anim id=\"Worried\" target=\"actor\" targetSpec=\"\"}}Il semble que tous les\ncommentaires que nous avons reçus\nproviennent de la même personne.{{pageBreak}}{{anim id=\"Hesitate\" target=\"actor\" targetSpec=\"\"}}Et bien que je sois heureuse que\ncette personne se plaise sur notre\nîle{{string value=\"...\"}}{{pageBreak}}{{anim id=\"Thinking\" target=\"actor\" targetSpec=\"\"}}... il nous faut plus d'habitants afin\nque le bouche-à-oreille rende notre\nîle plus populaire.{{pageBreak}}{{anim id=\"Explain\" target=\"actor\" targetSpec=\"\"}}Je vous suggère donc de concentrer\nvos efforts sur l'augmentation de\nnotre population.{{pageBreak}}Ainsi, nous pourrons obtenir des\ncommentaires plus variés !{{anim id=\"Smiling\" target=\"actor\" targetSpec=\"\"}}"
  },
  {
    "label": "801_01",
    "attribute": "0x00000000",
    "text": "Si nous voulons augmenter le\nnombre d'habitants,{{delay frames=\"30\"}}{{anim id=\"Explain\" target=\"actor\" targetSpec=\"\"}} il nous faut\nmettre des {{color id=\"1\"}}parcelles en vente{{color id=\"65535\"}}.{{pageBreak}}Une fois que ce sera fait, nous\npourrons {{color id=\"0\"}}recruter des gens désireux\nd'emménager sur l'île{{color id=\"65535\"}}.{{pageBreak}}{{anim id=\"Smiling\" target=\"actor\" targetSpec=\"\"}}Je vous conseille de vous rendre au\nguichet de {{color id=\"3\"}}M. Nook{{delay20}}{{color id=\"65535\"}} et de lui parler\nde l'{{color id=\"0\"}}infrastructure{{color id=\"65535\"}} de l'île.{{pageBreak}}{{anim id=\"Greeting\" target=\"actor\" targetSpec=\"\"}}Je suis sûre qu'il se fera un plaisir de\nvous aider à {{color id=\"1\"}}réserver des parcelles\nà vendre{{color id=\"65535\"}} !"
  },
  {
    "label": "802",
    "attribute": "0x00000000",
    "text": "{{anim id=\"Thinking\" target=\"actor\" targetSpec=\"\"}}Si nous voulons des commentaires\nautres que ceux de cette personne{{string value=\"...\"}}{{pageBreak}}... {{color id=\"1\"}}augmenter la population de l'île\n{{color id=\"65535\"}}doit être notre priorité."
  },
  {
    "label": "803",
    "attribute": "0x00000000",
    "text": "{{anim id=\"EmotEnd\" target=\"actor\" targetSpec=\"\"}}Mais s'il vous reste un peu de temps,{{delay20}}{{anim id=\"Smiling\" target=\"actor\" targetSpec=\"\"}}\nvous pourriez aussi travailler à\nembellir le {{color id=\"1\"}}paysage de l'île{{color id=\"65535\"}}."
  },
  {
    "label": "803_01",
    "attribute": "0x00000000",
    "text": "{{anim id=\"EmotEnd\" target=\"actor\" targetSpec=\"\"}}Mais l'{{color id=\"1\"}}environnement naturel{{color id=\"65535\"}} de l'île\nn'est pas à négliger.{{delay20}}{{anim id=\"Smiling\" target=\"actor\" targetSpec=\"\"}} Je suis sûre que\nvous pouvez le rendre splendide."
  },
  {
    "label": "804",
    "attribute": "0x00000000",
    "text": "{{anim id=\"Thinking\" target=\"actor\" targetSpec=\"\"}}Si nous voulons rassembler d'autres\navis,{{delay20}} {{color id=\"1\"}}augmenter la population de l'île\n{{color id=\"65535\"}}doit être notre objectif premier."
  },
  {
    "label": "805_01",
    "attribute": "0x00000000",
    "text": "En attendant, voici mon avis\npersonnel !{{pageBreak}}{{anim id=\"HappyDance\" target=\"actor\" targetSpec=\"\"}}Je trouve que vous avez beaucoup\n{{color id=\"0\"}}amélioré{{color id=\"65535\"}} le {{color id=\"1\"}}paysage de l'île{{color id=\"65535\"}}.{{pageBreak}}{{anim id=\"Love\" target=\"actor\" targetSpec=\"\"}}Vos talents de décorat{{gender2 m=\"eur\" f=\"rice\"}} et de\npaysagiste ne cessent de\nm'impressionner !"
  },
  {
    "label": "805_02",
    "attribute": "0x00000000",
    "text": "Vous voulez mon avis ?{{i10_4}}{{anim id=\"HappyDance\" target=\"actor\" targetSpec=\"\"}} Je trouve que\nl'{{color id=\"1\"}}environnement naturel {{color id=\"65535\"}}de l'île s'est\n{{color id=\"0\"}}beaucoup amélioré{{color id=\"65535\"}} !{{pageBreak}}{{anim id=\"Nodding\" target=\"actor\" targetSpec=\"\"}}Toutes ces fleurs, tous ces arbres,{{delay20}}\n{{anim id=\"Smiling\" target=\"actor\" targetSpec=\"\"}}on peut vraiment dire que vous avez\nla main verte !"
  },
  {
    "label": "900_01",
    "attribute": "0x00000000",
    "text": "{{anim id=\"Thinking\" target=\"actor\" targetSpec=\"\"}}Laissez-moi vous lire l'un des\ncommentaires que j'ai rassemblés{{string value=\"...\"}}"
  },
  {
    "label": "900_02",
    "attribute": "0x00000000",
    "text": "{{anim id=\"EmotEnd\" target=\"actor\" targetSpec=\"\"}}{{string value=\"...\"}} Fin de citation."
  },
  {
    "label": "901",
    "attribute": "0x00000000",
    "text": "{{fun_0014003C arg=\"\"}}"
  },
  {
    "label": "901_01",
    "attribute": "0x0000000C",
    "text": "{{color id=\"1\"}}{{anim id=\"AbsentMindedness\" target=\"actor\" targetSpec=\"\"}}{{fun_00090064 arg=\"0x00CD\"}}« J'aime bien qu'il y ait peu d'âmes\nqui vivent sur cette île.{{pageBreak}}Les esprits libres comme moi\npeuvent y être eux-mêmes. »{{endTag}}{{color id=\"65535\"}}"
  },
  {
    "label": "901_02",
    "attribute": "0x0000000C",
    "text": "{{color id=\"1\"}}{{anim id=\"AbsentMindedness\" target=\"actor\" targetSpec=\"\"}}{{fun_00090064 arg=\"0x00CD\"}}« Je trouve ça formidable que cet\nendroit n'ait rien de vraiment\nremarquable.{{pageBreak}}J'espère que comme moi, votre île\ncontinuera à ne pas attirer\nl'attention. »{{endTag}}{{color id=\"65535\"}}"
  },
  {
    "label": "901_03",
    "attribute": "0x0000000C",
    "text": "{{color id=\"1\"}}{{anim id=\"AbsentMindedness\" target=\"actor\" targetSpec=\"\"}}{{fun_00090064 arg=\"0x00CD\"}}« C'est un endroit que j'admire en\nsecret.{{delay20}} Je ne voudrais pas qu'il soit\nconnu.{{pageBreak}}Alors, que son existence reste entre\nnous{{string value=\"...\"}} »{{endTag}}{{color id=\"65535\"}}"
  },
  {
    "label": "902",
    "attribute": "0x00000000",
    "text": "{{fun_0014003C arg=\"\"}}"
  },
  {
    "label": "902_01",
    "attribute": "0x0000000C",
    "text": "{{anim id=\"AbsentMindedness\" target=\"actor\" targetSpec=\"\"}}{{fun_00090064 arg=\"0x0ECD\"}}{{color id=\"1\"}}« On dit qu'il faut de la modération\nen tout.{{pageBreak}}Mais quand il s'agit de la réputation\nde son île,{{delay20}} moi, je dis qu'il faut tout\ndonner !\nEnfin,{{delay20}} mon frérot et moi, on vous\nencouragera dans l'ombre,{{delay20}} alors\nfaites de votre mieux ! »{{color id=\"65535\"}}{{endTag}}"
  },
  {
    "label": "902_02",
    "attribute": "0x0000000C",
    "text": "{{color id=\"1\"}}{{anim id=\"AbsentMindedness\" target=\"actor\" targetSpec=\"\"}}{{fun_00090064 arg=\"0x0CCD\"}}« Je me suis déjà échoué sur cette île\nplus d'une fois,{{delay20}} alors je commence à\nconnaître le coin.{{pageBreak}}Et j'ai des suggestions à faire !{{pageBreak}}Par exemple,{{delay20}} je pense que les\nsecours arriveraient plus vite si l'île\nétait un peu plus animée.{{pageBreak}}Il faut faire des vagues et des\nremous !{{delay20}} Faites de votre île un port\nde refuge pour tous les naufragés. »{{endTag}}{{color id=\"65535\"}}"
  },
  {
    "label": "902_03",
    "attribute": "0x0000000C",
    "text": "{{anim id=\"AbsentMindedness\" target=\"actor\" targetSpec=\"\"}}{{fun_00090064 arg=\"0x12CD\"}}{{color id=\"1\"}}« Quand une personne de neige est\ncréée avec des proportions parfaites,{{delay20}}\nelle veut être le centre d'attention.{{pageBreak}}Et je suis pas sûr que j'aurais toute\nl'attention que je mérite{{delay20}} si je naissais\nsur votre île{{string value=\"...\"}} »{{color id=\"65535\"}}{{endTag}}"
  },
  {
    "label": "903",
    "attribute": "0x00000000",
    "text": "{{fun_0014003C arg=\"\"}}"
  },
  {
    "label": "903_01",
    "attribute": "0x0000000C",
    "text": "{{anim id=\"AbsentMindedness\" target=\"actor\" targetSpec=\"\"}}{{fun_00090064 arg=\"0x01CD\"}}{{color id=\"1\"}}« J'ai assisté à toutes les arrivées et\nà tous les départs de cette île.{{pageBreak}}Et croyez-moi, je lui prédis un avenir\nradieux !{{pageBreak}}Continuez comme ça !{{delay20}} On adorerait\ndevoir investir dans un deuxième\nhydravion à l'avenir. »{{color id=\"65535\"}}{{endTag}}"
  },
  {
    "label": "903_02",
    "attribute": "0x0000000C",
    "text": "{{anim id=\"AbsentMindedness\" target=\"actor\" targetSpec=\"\"}}{{fun_00090064 arg=\"0x03CD\"}}{{color id=\"1\"}}« Cette île se développe super bien,{{delay8}}\ncomme un grand arbre qu'on ferait\ngrandir avec amour.{{pageBreak}}Je la visiterai souvent {{delay8}}pour appliquer\nla recette de son succès à ma p'tite\ncommunauté ! »{{color id=\"65535\"}}{{endTag}}"
  },
  {
    "label": "903_03",
    "attribute": "0x0000000C",
    "text": "{{anim id=\"AbsentMindedness\" target=\"actor\" targetSpec=\"\"}}{{fun_00090064 arg=\"0x0BCD\"}}{{color id=\"1\"}}« Toutes les s'maines,{{delay20}} j'ai hâte que\nl'dimanche arrive pour aller visiter\nvot' île.{{pageBreak}}Quand mémé aura moins mal à son\ng'nou, {{delay20}}j'aimerais bien l'emmener\navec moi ! »{{color id=\"65535\"}}{{endTag}}"
  },
  {
    "label": "904",
    "attribute": "0x00000000",
    "text": "{{fun_0014003C arg=\"\"}}"
  },
  {
    "label": "904_01",
    "attribute": "0x0000000C",
    "text": "{{anim id=\"AbsentMindedness\" target=\"actor\" targetSpec=\"\"}}{{fun_00090064 arg=\"0x04CD\"}}{{color id=\"1\"}}« De mon temps, {{delay8}}un faible taux de\nréinitialisation était synonyme d'une\nvie équilibrée,{{delay8}} si vous me suivez{{string value=\"...\"}}{{pageBreak}}Ce que je veux dire, {{delay8}}c'est que votre\npetite {{string value=\"IslandName\"}},{{delay8}} ça, c'est une île bien comme il faut ! »{{color id=\"65535\"}}{{endTag}}"
  },
  {
    "label": "904_02",
    "attribute": "0x0000000C",
    "text": "{{anim id=\"AbsentMindedness\" target=\"actor\" targetSpec=\"\"}}{{fun_00090064 arg=\"0x05CD\"}}{{color id=\"1\"}}« L'île a de la beauté. {{delay20}}Les pieds y\nconnaissent la valeur d'un bon tapis.{{delay frames=\"40\"}}\nLa visiter m'apporte du plaisir. »{{color id=\"65535\"}}{{endTag}}"
  },
  {
    "label": "904_03",
    "attribute": "0x0000000C",
    "text": "{{anim id=\"AbsentMindedness\" target=\"actor\" targetSpec=\"\"}}{{fun_00090064 arg=\"0x0DCD\"}}{{color id=\"1\"}}« J'ai commencé à venir sur cette île\nparce que mon frère y a emménagé,{{delay20}}\nmais elle m'a tout de suite plu !{{pageBreak}}Tant d'agglomérations sont si\nlumineuses qu'on peut à peine y voir\nles étoiles la nuit.{{pageBreak}}Mais ce n'est pas le cas {{gender4 m=\"de \" f=\"d'‍\"}}{{string value=\"IslandName\"}} ! {{delay20}}Je reviendrai régulièrement y admirer les cieux ! »{{color id=\"65535\"}}{{endTag}}"
  },
  {
    "label": "905",
    "attribute": "0x00000000",
    "text": "{{fun_0014003C arg=\"\"}}"
  },
  {
    "label": "905_01",
    "attribute": "0x0000000C",
    "text": "{{anim id=\"AbsentMindedness\" target=\"actor\" targetSpec=\"\"}}{{fun_00090064 arg=\"0x06CD\"}}{{color id=\"1\"}}« Je ne remercierai jamais assez le\ndestin d'avoir conduit mes pas dans\nce sanctuaire arthropodologique.{{pageBreak}}Il n'est pas de bonheur plus intense{{delay20}}\nque d'évoluer parmi ces joyaux\nvolants, rampants et grouillants. »{{color id=\"65535\"}}{{endTag}}"
  },
  {
    "label": "905_02",
    "attribute": "0x0000000C",
    "text": "{{anim id=\"AbsentMindedness\" target=\"actor\" targetSpec=\"\"}}{{fun_00090064 arg=\"0x07CD\"}}{{color id=\"1\"}}« C'est l'endroit idéal pour poser\nmes vers. Dès que j'ai posé la patte\nici, ça a fait mouche !{{pageBreak}}Et quand je vois tous les habitants\nfrais comme des gardons,{{delay20}} ça me\ndonne une de ces pêches ! »{{color id=\"65535\"}}{{endTag}}"
  },
  {
    "label": "906_01",
    "attribute": "0x0000000C",
    "text": "{{anim id=\"AbsentMindedness\" target=\"actor\" targetSpec=\"\"}}{{fun_00090064 arg=\"0x12CD\"}}{{color id=\"1\"}}« {{capitalizeNextLetter}}{{string value=\"IslandName\"}} est n° 1 du top des îles où les personnes de neige veulent naître au moins une fois !{{pageBreak}}Je rêve qu'un de vos habitants me\nfasse rouler dans la neige pour m'y\ndonner la vie ! »{{color id=\"65535\"}}{{endTag}}"
  },
  {
    "label": "906_02",
    "attribute": "0x0000000C",
    "text": "{{anim id=\"AbsentMindedness\" target=\"actor\" targetSpec=\"\"}}{{fun_00090064 arg=\"0x12CD\"}}{{color id=\"1\"}}« {{capitalizeNextLetter}}{{string value=\"IslandName\"}} est n° 1 du top des îles où les personnes de neige veulent naître au moins une fois !{{pageBreak}}Je rêve qu'un de vos habitants me\nfasse rouler dans la neige pour m'y\ndonner la vie l'hiver prochain ! »{{color id=\"65535\"}}{{endTag}}"
  },
  {
    "label": "909",
    "attribute": "0x0000000C",
    "text": "{{color id=\"1\"}}{{anim id=\"AbsentMindedness\" target=\"actor\" targetSpec=\"\"}}{{fun_00090064 arg=\"0x08CD\"}}« {{capitalizeNextLetter}}{{string value=\"IslandName\"}}{{string value=\"...\"}} C'est une île au poil, à ce qu'on dit{{string value=\"...\"}} J'irais bien y faire un tour à l'occasion{{string value=\"...\"}}\t- K.L. »{{endTag}}{{color id=\"65535\"}}"
  }
]