﻿[
  {
    "label": "001",
    "attribute": "0x0000000000000000",
    "text": "Hola,{{delay8}} cielo,{{delay8}} soy {{string value=\"VillagerName\"}}.{{delay20}}\nVengo a hacerte una visita, {{string value=\"6\"}}.{{i10_7 arg=\"120\"}}"
  },
  {
    "label": "002",
    "attribute": "0x0000000000000000",
    "text": "¿Estás en tu casa,{{delay8}} {{string value=\"NickName\"}}?{{delay20}}\nSoy yo,{{delay8}} {{string value=\"VillagerName\"}}.{{i10_7 arg=\"120\"}}"
  },
  {
    "label": "003",
    "attribute": "0x0000000000000000",
    "text": "{{capitalizeNextLetter}}{{string value=\"NickName\"}},{{delay8}} querid{{gender2 m=\"o\" f=\"a\"}},{{delay8}} soy yo,{{delay8}} {{string value=\"VillagerName\"}}.{{i10_7 arg=\"120\"}}"
  },
  {
    "label": "004",
    "attribute": "0x0000000000000000",
    "text": "¿{{capitalizeNextLetter}}{{string value=\"NickName\"}}?{{delay20}} Si estás ahí,{{delay8}} abre la puerta,{{delay8}} por favor{{string value=\"...\"}}{{i10_7 arg=\"120\"}}"
  },
  {
    "label": "005",
    "attribute": "0x0000000000000000",
    "text": "Vaya,{{delay8}} a lo mejor tuvo que salir{{string value=\"...\"}}{{delay20}}\nYa l{{gender2 m=\"o\" f=\"a\"}} encontraré en otro momento, {{string value=\"6\"}}.{{i10_7 arg=\"120\"}}"
  },
  {
    "label": "006",
    "attribute": "0x0000000000000000",
    "text": "{{anim id=\"FaintSmile\" target=\"actor\" targetSpec=\"\"}}Gracias por recibirme, {{string value=\"6\"}}.{{i10_7 arg=\"120\"}}"
  },
  {
    "label": "007",
    "attribute": "0x0000000000000000",
    "text": "{{anim id=\"Hesitate\" target=\"actor\" targetSpec=\"\"}}Espero no encontrarte en un mal momento, {{string value=\"6\"}}{{string value=\"...\"}}{{i10_7 arg=\"120\"}}"
  },
  {
    "label": "008",
    "attribute": "0x0000000000000000",
    "text": "{{anim id=\"ShyBoy\" target=\"actor\" targetSpec=\"\"}}Disculpa que venga así sin avisar, {{string value=\"6\"}}{{string value=\"...\"}}{{i10_7 arg=\"120\"}}"
  },
  {
    "label": "010",
    "attribute": "0x0000000000000000",
    "text": "{{anim id=\"Explain\" target=\"actor\" targetSpec=\"\"}}Querid{{gender2 m=\"o\" f=\"a\"}},{{delay8}} no sé si te has dado cuenta,{{delay8}}\npero{{string value=\"...\"}} te comento que hay{{delay8}}\n{{anim id=\"Surprised\" target=\"actor\" targetSpec=\"\"}}{{i10_5}}una cucaracha{{endTag}}{{delay8}} viviendo contigo.\n{{anim id=\"Frantic\" target=\"actor\" targetSpec=\"\"}}Cambiando de tema,{{delay8}} justo me acabo\nde acordar que tengo clase de\n{{randomSports}} ahora mismo.\n{{anim id=\"Thinking\" target=\"actor\" targetSpec=\"\"}}Así que{{delay8}} me voy a tener que ir{{string value=\"...\"}}{{delay8}}\n{{anim id=\"OhGeez\" target=\"actor\" targetSpec=\"\"}}a practicar {{randomSports}},{{delay8}} claro{{string value=\"...\"}}"
  },
  {
    "label": "100",
    "attribute": "0x0000000000000000",
    "text": "{{anim id=\"Explain\" target=\"actor\" targetSpec=\"\"}}De repente me dieron ganas de\nverte.{{delay20}} {{anim id=\"FaintSmile\" target=\"actor\" targetSpec=\"\"}}¿Te gustan las visitas\nsorpresa, {{string value=\"6\"}}?"
  },
  {
    "label": "101",
    "attribute": "0x0000000000000000",
    "text": "{{anim id=\"Grin\" target=\"actor\" targetSpec=\"\"}}Tranquil{{gender2 m=\"o\" f=\"a\"}},{{delay8}} no vengo a pedirte\nningún favor.{{delay20}} {{anim id=\"FaintSmile\" target=\"actor\" targetSpec=\"\"}}Solo te quería\nsaludar, {{string value=\"6\"}}."
  },
  {
    "label": "102",
    "attribute": "0x0000000000000000",
    "text": "{{anim id=\"OhGeez\" target=\"actor\" targetSpec=\"\"}}Me estaba aburriendo y pensé:{{delay20}} {{anim id=\"IdeaBulb\" target=\"actor\" targetSpec=\"\"}}\"¡A lo\nmejor mi querid{{gender2 m=\"o\" f=\"a\"}} {{string value=\"NickName\"}} tiene algún chisme para contarme!\"."
  },
  {
    "label": "200",
    "attribute": "0x0000000000000000",
    "text": "{{anim id=\"Aha\" target=\"actor\" targetSpec=\"\"}}Por cierto,{{delay8}} tengo una cosa para ti.{{delay20}}\n{{anim id=\"FaintSmile\" target=\"actor\" targetSpec=\"\"}}Es algo que vi por ahí, simplemente\n{{wordArticle}}{{fun_0004007D arg=\"0x0000\"}}{{string value=\"...\"}}"
  },
  {
    "label": "201",
    "attribute": "0x0000000000000000",
    "text": "{{anim id=\"Nodding\" target=\"actor\" targetSpec=\"\"}}Ah,{{delay8}} por tu hospitalidad me gustaría\ndarte {{wordArticle}}{{fun_0004007D arg=\"0x0000\"}}{{string value=\"...\"}}"
  },
  {
    "label": "202",
    "attribute": "0x0000000000000000",
    "text": "Querid{{gender2 m=\"o\" f=\"a\"}},{{delay8}} {{anim id=\"QuestionMark\" target=\"actor\" targetSpec=\"\"}}¿aceptarías {{wordArticle}}{{fun_0004007D arg=\"0x0000\"}} por tu hospitalidad?{{pageBreak}}{{anim id=\"FaintSmile\" target=\"actor\" targetSpec=\"\"}}No es nada del otro mundo,{{delay8}} pero\nespero que te guste, {{string value=\"6\"}}."
  },
  {
    "label": "203",
    "attribute": "0x0000000000000000",
    "text": "{{anim id=\"Aha\" target=\"actor\" targetSpec=\"\"}}Te traje {{wordArticle}}{{fun_0004007D arg=\"0x0000\"}}; {{anim id=\"FaintSmile\" target=\"actor\" targetSpec=\"\"}}un detalle de muy buen gusto."
  },
  {
    "label": "204",
    "attribute": "0x0000000000000000",
    "text": "{{anim id=\"QuestionMark\" target=\"actor\" targetSpec=\"\"}}¿Tienes hambre?{{delay20}} {{anim id=\"FaintSmile\" target=\"actor\" targetSpec=\"\"}}Aquí te traigo {{wordArticle}}{{fun_0004007D arg=\"0x0000\"}} para tu deleite, {{string value=\"6\"}}."
  },
  {
    "label": "205",
    "attribute": "0x0000000000000000",
    "text": "{{anim id=\"IdeaBulb\" target=\"actor\" targetSpec=\"\"}}Por cierto,{{delay8}} me gustaría que probaras\n{{fun_00010032 arg=\"\"}}{{fun_0004007D arg=\"0x0000\"}} que te traje,{{delay8}} {{anim id=\"FaintSmile\" target=\"actor\" targetSpec=\"\"}}¡toda una delicia!"
  },
  {
    "label": "206",
    "attribute": "0x0000000000000000",
    "text": "{{anim id=\"Worried\" target=\"actor\" targetSpec=\"\"}}Normalmente siempre aviso antes\nde visitar a alguien.{{delay20}} {{anim id=\"WrySmile\" target=\"actor\" targetSpec=\"\"}}Improvisar no es\nlo mío.{{delay20}} {{anim id=\"FaintSmile\" target=\"actor\" targetSpec=\"\"}}Pero tenía ganas de verte."
  },
  {
    "label": "207",
    "attribute": "0x0000000000000000",
    "text": "{{anim id=\"ShyBoy\" target=\"actor\" targetSpec=\"\"}}¿De verdad no te importa que venga\nde sorpresa?{{delay20}} Tendría que haber avisado, {{string value=\"6\"}}{{string value=\"...\"}}"
  },
  {
    "label": "208",
    "attribute": "0x0000000000000000",
    "text": "{{anim id=\"Blushing\" target=\"actor\" targetSpec=\"\"}}Visitar sin avisar es de mala\neducación,{{delay8}} {{anim id=\"Thinking\" target=\"actor\" targetSpec=\"\"}}pero las sorpresas son\nagradables{{string value=\"...\"}}{{delay20}} {{anim id=\"Frantic\" target=\"actor\" targetSpec=\"\"}}¡Ay, qué contradicción!"
  },
  {
    "label": "209",
    "attribute": "0x0000000000000000",
    "text": "{{anim id=\"Negative\" target=\"actor\" targetSpec=\"\"}}No me quedaré mucho tiempo.{{delay20}}\n{{anim id=\"FaintSmile\" target=\"actor\" targetSpec=\"\"}}Solo quería asegurarme de que\nestuvieras bien,{{delay8}} {{string value=\"NickName\"}}."
  },
  {
    "label": "210",
    "attribute": "0x0000000000000000",
    "text": "{{anim id=\"Nodding\" target=\"actor\" targetSpec=\"\"}}Reaccionaste muy bien a mi visita\nsorpresa.{{delay20}} {{anim id=\"FaintSmile\" target=\"actor\" targetSpec=\"\"}}Tengo que aprender de ti\na ser más flexible y espontánea."
  },
  {
    "label": "211",
    "attribute": "0x0000020000000000",
    "text": "{{anim id=\"Eh\" target=\"actor\" targetSpec=\"\"}}Cariño,{{delay8}} se me acaba de ocurrir\nque podríamos jugar a un juego{{string value=\"...\"}}"
  },
  {
    "label": "211_a",
    "attribute": "0x0000000000000000",
    "text": "¡Me parece bien!"
  },
  {
    "label": "211_b",
    "attribute": "0x0000000000000000",
    "text": "No tengo ganas..."
  },
  {
    "label": "212",
    "attribute": "0x0000020000000000",
    "text": "{{anim id=\"IdeaBulb\" target=\"actor\" targetSpec=\"\"}}¡Uy, {{string value=\"6\"}},{{delay8}} qué ocurrencia!{{delay20}}\n{{anim id=\"BigSmile\" target=\"actor\" targetSpec=\"\"}}¿Y si jugamos a una cosa?"
  },
  {
    "label": "212_a",
    "attribute": "0x0000000000000000",
    "text": "¡Lo que tú digas!"
  },
  {
    "label": "212_b",
    "attribute": "0x0000000000000000",
    "text": "¿Juegos ahora? No..."
  },
  {
    "label": "213",
    "attribute": "0x0000020000000000",
    "text": "{{anim id=\"Thinking\" target=\"actor\" targetSpec=\"\"}}Estaba pensando{{string value=\"...\"}}{{delay8}} ¿Tienes ganas de\njugar a algo, {{string value=\"6\"}}?"
  },
  {
    "label": "213_a",
    "attribute": "0x0000000000000000",
    "text": "Claro, ¿a qué?"
  },
  {
    "label": "213_b",
    "attribute": "0x0000000000000000",
    "text": "No, gracias..."
  },
  {
    "label": "214",
    "attribute": "0x0000000000000000",
    "text": "{{anim id=\"Nodding\" target=\"actor\" targetSpec=\"\"}}Bueno,{{delay8}} pues nos quedamos\ntranquil{{gender2 m=\"o\" f=\"a\"}}s,{{delay8}} {{anim id=\"FaintSmile\" target=\"actor\" targetSpec=\"\"}}que también suena\nmuy bien."
  },
  {
    "label": "215",
    "attribute": "0x0000000000000000",
    "text": "{{anim id=\"OhGeez\" target=\"actor\" targetSpec=\"\"}}Bueno,{{delay8}} si no tienes ganas,{{delay8}} hacemos\notra cosa {{anim id=\"FaintSmile\" target=\"actor\" targetSpec=\"\"}}y listo."
  },
  {
    "label": "216",
    "attribute": "0x0000000000000000",
    "text": "{{anim id=\"Restless\" target=\"actor\" targetSpec=\"\"}}Bien{{string value=\"...\"}}{{delay8}} Dejemos los juegos para\notro momento.{{delay20}} {{anim id=\"FaintSmile\" target=\"actor\" targetSpec=\"\"}}Siempre hay tiempo."
  },
  {
    "label": "400",
    "attribute": "0x0000000000000000",
    "text": "{{anim id=\"WrySmile\" target=\"actor\" targetSpec=\"\"}}Bueno,{{delay8}} ya te dejo en paz.{{delay20}}\n{{anim id=\"FaintSmile\" target=\"actor\" targetSpec=\"\"}}Gracias de nuevo por tu\ngenerosa hospitalidad."
  },
  {
    "label": "401",
    "attribute": "0x0000000000000000",
    "text": "Bien,{{delay8}} {{anim id=\"Nodding\" target=\"actor\" targetSpec=\"\"}}ya es hora de que me vaya, {{string value=\"6\"}}.{{delay20}}\n{{anim id=\"Hello\" target=\"actor\" targetSpec=\"\"}}Gracias por tu paciencia, encanto."
  },
  {
    "label": "402",
    "attribute": "0x0000000000000000",
    "text": "{{anim id=\"Negative\" target=\"actor\" targetSpec=\"\"}}No quiero abusar de tu hospitalidad.{{delay20}}\n{{anim id=\"FaintSmile\" target=\"actor\" targetSpec=\"\"}}Ya me voy, cielo.{{delay20}} Ha sido\nun placer verte, {{string value=\"6\"}}."
  },
  {
    "label": "403",
    "attribute": "0x0000000000000000",
    "text": "{{anim id=\"TakenAback\" target=\"actor\" targetSpec=\"\"}}Cariño,{{delay8}} ¿tienes que salir?{{delay20}} {{anim id=\"Explain\" target=\"actor\" targetSpec=\"\"}}Entonces\nme voy,{{delay8}} no quiero entretenerte.{{delay20}}\n{{anim id=\"Hello\" target=\"actor\" targetSpec=\"\"}}Gracias por tu hospitalidad."
  },
  {
    "label": "404",
    "attribute": "0x0000000000000000",
    "text": "{{anim id=\"QuestionMark\" target=\"actor\" targetSpec=\"\"}}¿Vas a alguna parte?{{delay20}} {{anim id=\"Nodding\" target=\"actor\" targetSpec=\"\"}}En ese caso,{{delay8}}\nme voy.{{delay20}} {{anim id=\"Grin\" target=\"actor\" targetSpec=\"\"}}No te quiero detener{{string value=\"...\"}}{{delay20}} {{anim id=\"Hello\" target=\"actor\" targetSpec=\"\"}}Gracias por recibirme."
  },
  {
    "label": "405",
    "attribute": "0x0000000000000000",
    "text": "{{anim id=\"Shocked\" target=\"actor\" targetSpec=\"\"}}Uy,{{delay8}} ¿tienes un compromiso?{{delay20}} {{anim id=\"FaintSmile\" target=\"actor\" targetSpec=\"\"}}De haber sabido,{{delay8}} ya me habría ido.{{delay20}}\nUn placer verte,{{delay8}} {{anim id=\"Hello\" target=\"actor\" targetSpec=\"\"}}gracias."
  },
  {
    "label": "500",
    "attribute": "0x0000000000000000",
    "text": "{{fun_0014003C arg=\"\"}}"
  },
  {
    "label": "500_01",
    "attribute": "0x0000020000000000",
    "text": "{{anim id=\"Greeting\" target=\"actor\" targetSpec=\"\"}}Me parece que ya es hora de que\nme vaya retirando, {{string value=\"6\"}}.{{delay20}} Gracias por dedicarme tu tiempo."
  },
  {
    "label": "500_01_a",
    "attribute": "0x0000000000000000",
    "text": "{{anim id=\"EmotEnd\" target=\"player\" targetSpec=\"\"}}Quédate otro rato"
  },
  {
    "label": "500_01_b",
    "attribute": "0x0000000000000000",
    "text": "{{anim id=\"EmotEnd\" target=\"player\" targetSpec=\"\"}}Gracias a ti por la visita"
  },
  {
    "label": "500_02",
    "attribute": "0x0000020000000000",
    "text": "Aunque ha sido maravilloso pasar\nun tiempecito contigo,{{delay8}}{{anim id=\"Laughing\" target=\"actor\" targetSpec=\"\"}} mi casa\nva a empezar a echarme de menos."
  },
  {
    "label": "500_02_a",
    "attribute": "0x0000000000000000",
    "text": "{{anim id=\"EmotEnd\" target=\"player\" targetSpec=\"\"}}Quédate más tiempo"
  },
  {
    "label": "500_02_b",
    "attribute": "0x0000000000000000",
    "text": "{{anim id=\"EmotEnd\" target=\"player\" targetSpec=\"\"}}¡Nos vemos!"
  },
  {
    "label": "503",
    "attribute": "0x0000000000000000",
    "text": "{{fun_0014003C arg=\"\"}}"
  },
  {
    "label": "503_01",
    "attribute": "0x0000000000000000",
    "text": "{{anim id=\"Blushing\" target=\"actor\" targetSpec=\"\"}}Bueno, si me lo pides así,{{delay8}} quién\nsoy yo para romperte el corazón\nde esa manera.{{delay20}} {{anim id=\"FaintSmile\" target=\"actor\" targetSpec=\"\"}}Me quedo por ti."
  },
  {
    "label": "503_02",
    "attribute": "0x0000000000000000",
    "text": "{{anim id=\"Blushing\" target=\"actor\" targetSpec=\"\"}}Vaya,{{delay8}} no sabía que me tenías tanto\naprecio{{string value=\"...\"}}{{delay20}} {{anim id=\"FaintSmile\" target=\"actor\" targetSpec=\"\"}}Me quedo para que veas\nque es recíproco,{{delay8}} cielo."
  },
  {
    "label": "504",
    "attribute": "0x0000000000000000",
    "text": "{{fun_0014003C arg=\"\"}}"
  },
  {
    "label": "504_01",
    "attribute": "0x0000000000000000",
    "text": "{{anim id=\"BigSmile\" target=\"actor\" targetSpec=\"\"}}¡Espero que esto se repita!{{delay8}} Y que sea\npronto, para darte el gusto de verme\nde nuevo, {{string value=\"6\"}}."
  },
  {
    "label": "504_02",
    "attribute": "0x0000000000000000",
    "text": "{{anim id=\"BigSmile\" target=\"actor\" targetSpec=\"\"}}Me la pasé divinamente.{{delay20}}\n{{anim id=\"Greeting\" target=\"actor\" targetSpec=\"\"}}¡Hasta pronto y {{string value=\"6\"}}!"
  }
]