﻿{
  "version": 4,
  "rootNode": {
    "UI3DSetParamList": {
      "mPaletteList[]": [
        {
          "mSpecialEnvPaletteName.Str": "",
          "mVirtualCameraAngleY.f32": 0.0,
          "mPlayerLookPos.V3f": [-290.0,-540.0,1100.0],
          "mVirtualCameraAngleX.f32": 0.174533,
          "mVirtualCameraAngleZ.f32": 0.0,
          "mParamName.Str": "CharaMake_00",
          "mEnvPaletteName.Str": "ModelOnUI_CharaMake_OR",
          "mPerspectiveProjectionFovy.f32": 5.0,
          "mPosition.V3f": [-320.0,-310.0,0.0],
          "mScale.f32": 35.0
        },
        {
          "mSpecialEnvPaletteName.Str": "",
          "mVirtualCameraAngleY.f32": -0.698132,
          "mPlayerLookPos.V3f": [-370.0,-700.0,1100.0],
          "mVirtualCameraAngleX.f32": 0.349066,
          "mVirtualCameraAngleZ.f32": 0.0,
          "mParamName.Str": "CharaMake_01",
          "mEnvPaletteName.Str": "ModelOnUI_CharaMake_OR",
          "mPerspectiveProjectionFovy.f32": 5.0,
          "mPosition.V3f": [-340.0,-417.0,0.0],
          "mScale.f32": 40.0
        },
        {
          "mSpecialEnvPaletteName.Str": "",
          "mVirtualCameraAngleY.f32": 0.0,
          "mPlayerLookPos.V3f": [-340.0,-680.0,1100.0],
          "mVirtualCameraAngleX.f32": 0.174533,
          "mVirtualCameraAngleZ.f32": 0.0,
          "mParamName.Str": "CharaMake_02",
          "mEnvPaletteName.Str": "ModelOnUI_CharaMake_OR",
          "mPerspectiveProjectionFovy.f32": 5.0,
          "mPosition.V3f": [-320.0,-480.0,0.0],
          "mScale.f32": 45.0
        },
        {
          "mSpecialEnvPaletteName.Str": "",
          "mVirtualCameraAngleY.f32": 0.0,
          "mPlayerLookPos.V3f": [0.0,0.0,0.0],
          "mVirtualCameraAngleX.f32": 0.174533,
          "mVirtualCameraAngleZ.f32": 0.0,
          "mParamName.Str": "Closet_00",
          "mEnvPaletteName.Str": "ModelOnUI_CharaMake_OR",
          "mPerspectiveProjectionFovy.f32": 5.0,
          "mPosition.V3f": [0.0,-200.0,0.0],
          "mScale.f32": 23.0
        },
        {
          "mSpecialEnvPaletteName.Str": "",
          "mVirtualCameraAngleY.f32": 0.0,
          "mPlayerLookPos.V3f": [0.0,0.0,0.0],
          "mVirtualCameraAngleX.f32": 0.174533,
          "mVirtualCameraAngleZ.f32": 0.0,
          "mParamName.Str": "CharaMakeDialog",
          "mEnvPaletteName.Str": "ModelOnUI",
          "mPerspectiveProjectionFovy.f32": 5.0,
          "mPosition.V3f": [-320.0,-310.0,0.0],
          "mScale.f32": 35.0
        },
        {
          "mSpecialEnvPaletteName.Str": "",
          "mVirtualCameraAngleY.f32": -0.261799,
          "mPlayerLookPos.V3f": [0.0,0.0,0.0],
          "mVirtualCameraAngleX.f32": 0.174533,
          "mVirtualCameraAngleZ.f32": 0.0,
          "mParamName.Str": "WorkBenchCraft",
          "mEnvPaletteName.Str": "ModelOnUI_DIY_OR",
          "mPerspectiveProjectionFovy.f32": 10.0,
          "mPosition.V3f": [-240.0,-140.0,0.0],
          "mScale.f32": 36.0
        },
        {
          "mSpecialEnvPaletteName.Str": "ModelOnUI_PlayerHouse_Night_OR",
          "mVirtualCameraAngleY.f32": -0.261799,
          "mPlayerLookPos.V3f": [0.0,0.0,0.0],
          "mVirtualCameraAngleX.f32": 0.0,
          "mVirtualCameraAngleZ.f32": 0.0,
          "mParamName.Str": "PlayerHouse_00",
          "mEnvPaletteName.Str": "ModelOnUI_PlayerHouse_OR",
          "mPerspectiveProjectionFovy.f32": 45.0,
          "mPosition.V3f": [-338.0,-176.0,0.0],
          "mScale.f32": 9.2
        },
        {
          "mSpecialEnvPaletteName.Str": "ModelOnUI_FenceRemake_OR",
          "mVirtualCameraAngleY.f32": 0.0,
          "mPlayerLookPos.V3f": [0.0,0.0,0.0],
          "mVirtualCameraAngleX.f32": 0.261799,
          "mVirtualCameraAngleZ.f32": 0.0,
          "mParamName.Str": "WorkBenchRemake",
          "mEnvPaletteName.Str": "ModelOnUI_DIY_OR",
          "mPerspectiveProjectionFovy.f32": 5.0,
          "mPosition.V3f": [0.0,0.0,0.0],
          "mScale.f32": 25.0
        },
        {
          "mSpecialEnvPaletteName.Str": "",
          "mVirtualCameraAngleY.f32": -0.349066,
          "mPlayerLookPos.V3f": [0.0,0.0,0.0],
          "mVirtualCameraAngleX.f32": 0.174533,
          "mVirtualCameraAngleZ.f32": 0.0,
          "mParamName.Str": "Catalog",
          "mEnvPaletteName.Str": "ModelOnUI_Catalog_OR",
          "mPerspectiveProjectionFovy.f32": 5.0,
          "mPosition.V3f": [-320.0,-165.0,0.0],
          "mScale.f32": 22.0
        },
        {
          "mSpecialEnvPaletteName.Str": "",
          "mVirtualCameraAngleY.f32": 0.0,
          "mPlayerLookPos.V3f": [0.0,0.0,0.0],
          "mVirtualCameraAngleX.f32": 0.0,
          "mVirtualCameraAngleZ.f32": 0.0,
          "mParamName.Str": "MyDesignEdit",
          "mEnvPaletteName.Str": "ModelOnUI",
          "mPerspectiveProjectionFovy.f32": 5.0,
          "mPosition.V3f": [0.0,0.0,0.0],
          "mScale.f32": 1.0
        },
        {
          "mSpecialEnvPaletteName.Str": "",
          "mVirtualCameraAngleY.f32": 0.0,
          "mPlayerLookPos.V3f": [0.0,0.0,0.0],
          "mVirtualCameraAngleX.f32": 0.0,
          "mVirtualCameraAngleZ.f32": 0.0,
          "mParamName.Str": "ShopBridgeSlope",
          "mEnvPaletteName.Str": "ModelOnUI_BridgeSlope_OR",
          "mPerspectiveProjectionFovy.f32": 10.0,
          "mPosition.V3f": [0.0,0.0,0.0],
          "mScale.f32": 1.0
        },
        {
          "mSpecialEnvPaletteName.Str": "",
          "mVirtualCameraAngleY.f32": -0.349066,
          "mPlayerLookPos.V3f": [0.0,0.0,0.0],
          "mVirtualCameraAngleX.f32": 0.174533,
          "mVirtualCameraAngleZ.f32": 0.0,
          "mParamName.Str": "ShopSonkatsu",
          "mEnvPaletteName.Str": "ModelOnUI_Catalog_OR",
          "mPerspectiveProjectionFovy.f32": 5.0,
          "mPosition.V3f": [-335.0,-165.0,0.0],
          "mScale.f32": 22.0
        },
        {
          "mSpecialEnvPaletteName.Str": "",
          "mVirtualCameraAngleY.f32": 0.0,
          "mPlayerLookPos.V3f": [0.0,0.0,0.0],
          "mVirtualCameraAngleX.f32": 0.174533,
          "mVirtualCameraAngleZ.f32": 0.0,
          "mParamName.Str": "ShopTailor",
          "mEnvPaletteName.Str": "ModelOnUI_CharaMake_OR",
          "mPerspectiveProjectionFovy.f32": 5.0,
          "mPosition.V3f": [0.0,-190.0,0.0],
          "mScale.f32": 23.0
        },
        {
          "mSpecialEnvPaletteName.Str": "",
          "mVirtualCameraAngleY.f32": 0.0,
          "mPlayerLookPos.V3f": [0.0,0.0,0.0],
          "mVirtualCameraAngleX.f32": 0.0,
          "mVirtualCameraAngleZ.f32": 0.0,
          "mParamName.Str": "MyDesignExchange",
          "mEnvPaletteName.Str": "ModelOnUI",
          "mPerspectiveProjectionFovy.f32": 5.0,
          "mPosition.V3f": [0.0,0.0,0.0],
          "mScale.f32": 1.0
        },
        {
          "mSpecialEnvPaletteName.Str": "",
          "mVirtualCameraAngleY.f32": -0.349066,
          "mPlayerLookPos.V3f": [0.0,0.0,0.0],
          "mVirtualCameraAngleX.f32": 0.174533,
          "mVirtualCameraAngleZ.f32": 0.0,
          "mParamName.Str": "CatalogGift",
          "mEnvPaletteName.Str": "ModelOnUI_Catalog_OR",
          "mPerspectiveProjectionFovy.f32": 5.0,
          "mPosition.V3f": [-310.0,-165.0,0.0],
          "mScale.f32": 22.0
        },
        {
          "mSpecialEnvPaletteName.Str": "",
          "mVirtualCameraAngleY.f32": 0.0,
          "mPlayerLookPos.V3f": [0.0,0.0,0.0],
          "mVirtualCameraAngleX.f32": 0.174533,
          "mVirtualCameraAngleZ.f32": 0.0,
          "mParamName.Str": "WherearenCast",
          "mEnvPaletteName.Str": "ModelOnUI_CharaMake_OR",
          "mPerspectiveProjectionFovy.f32": 5.0,
          "mPosition.V3f": [0.0,0.0,0.0],
          "mScale.f32": 15.0
        },
        {
          "mSpecialEnvPaletteName.Str": "",
          "mVirtualCameraAngleY.f32": -0.349066,
          "mPlayerLookPos.V3f": [0.0,0.0,0.0],
          "mVirtualCameraAngleX.f32": 0.174533,
          "mVirtualCameraAngleZ.f32": 0.0,
          "mParamName.Str": "NatteeCatalog",
          "mEnvPaletteName.Str": "ModelOnUI_Catalog_OR",
          "mPerspectiveProjectionFovy.f32": 5.0,
          "mPosition.V3f": [-320.0,-165.0,0.0],
          "mScale.f32": 22.0
        },
        {
          "mSpecialEnvPaletteName.Str": "ModelOnUI_PlayerHouse_Night_OR",
          "mVirtualCameraAngleY.f32": -0.261799,
          "mPlayerLookPos.V3f": [0.0,0.0,0.0],
          "mVirtualCameraAngleX.f32": 0.0,
          "mVirtualCameraAngleZ.f32": 0.0,
          "mParamName.Str": "NpcHouseCustom",
          "mEnvPaletteName.Str": "ModelOnUI_PlayerHouse_OR",
          "mPerspectiveProjectionFovy.f32": 45.0,
          "mPosition.V3f": [-338.0,-176.0,0.0],
          "mScale.f32": 9.2
        },
        {
          "mSpecialEnvPaletteName.Str": "",
          "mVirtualCameraAngleY.f32": -0.261799,
          "mPlayerLookPos.V3f": [0.0,0.0,0.0],
          "mVirtualCameraAngleX.f32": 0.174533,
          "mVirtualCameraAngleZ.f32": 0.0,
          "mParamName.Str": "CookingTable",
          "mEnvPaletteName.Str": "ModelOnUI_Cook_OR",
          "mPerspectiveProjectionFovy.f32": 10.0,
          "mPosition.V3f": [-240.0,-140.0,0.0],
          "mScale.f32": 36.0
        },
        {
          "mSpecialEnvPaletteName.Str": "",
          "mVirtualCameraAngleY.f32": 0.0,
          "mPlayerLookPos.V3f": [0.0,0.0,0.0],
          "mVirtualCameraAngleX.f32": 0.174533,
          "mVirtualCameraAngleZ.f32": 0.0,
          "mParamName.Str": "ClosetSpNpc",
          "mEnvPaletteName.Str": "ModelOnUI_CharaMake_OR",
          "mPerspectiveProjectionFovy.f32": 5.0,
          "mPosition.V3f": [0.0,-240.0,0.0],
          "mScale.f32": 23.0
        },
        {
          "mSpecialEnvPaletteName.Str": "ModelOnUI_PlayerHouse_Night_OR",
          "mVirtualCameraAngleY.f32": -0.261799,
          "mPlayerLookPos.V3f": [0.0,0.0,0.0],
          "mVirtualCameraAngleX.f32": 0.0,
          "mVirtualCameraAngleZ.f32": 0.0,
          "mParamName.Str": "FacilitySchool",
          "mEnvPaletteName.Str": "ModelOnUI_PlayerHouse_OR",
          "mPerspectiveProjectionFovy.f32": 45.0,
          "mPosition.V3f": [-370.0,-220.0,0.0],
          "mScale.f32": 9.3
        },
        {
          "mSpecialEnvPaletteName.Str": "ModelOnUI_PlayerHouse_Night_OR",
          "mVirtualCameraAngleY.f32": -0.261799,
          "mPlayerLookPos.V3f": [0.0,0.0,0.0],
          "mVirtualCameraAngleX.f32": 0.0,
          "mVirtualCameraAngleZ.f32": 0.0,
          "mParamName.Str": "FacilityHospital",
          "mEnvPaletteName.Str": "ModelOnUI_PlayerHouse_OR",
          "mPerspectiveProjectionFovy.f32": 45.0,
          "mPosition.V3f": [-340.0,-210.0,0.0],
          "mScale.f32": 9.3
        },
        {
          "mSpecialEnvPaletteName.Str": "ModelOnUI_PlayerHouse_Night_OR",
          "mVirtualCameraAngleY.f32": -0.261799,
          "mPlayerLookPos.V3f": [0.0,0.0,0.0],
          "mVirtualCameraAngleX.f32": 0.0,
          "mVirtualCameraAngleZ.f32": 0.0,
          "mParamName.Str": "FacilityRestaurant",
          "mEnvPaletteName.Str": "ModelOnUI_PlayerHouse_OR",
          "mPerspectiveProjectionFovy.f32": 45.0,
          "mPosition.V3f": [-390.0,-220.0,0.0],
          "mScale.f32": 9.3
        },
        {
          "mSpecialEnvPaletteName.Str": "ModelOnUI_PlayerHouse_Night_OR",
          "mVirtualCameraAngleY.f32": -0.261799,
          "mPlayerLookPos.V3f": [0.0,0.0,0.0],
          "mVirtualCameraAngleX.f32": 0.0,
          "mVirtualCameraAngleZ.f32": 0.0,
          "mParamName.Str": "FacilityCafe",
          "mEnvPaletteName.Str": "ModelOnUI_PlayerHouse_OR",
          "mPerspectiveProjectionFovy.f32": 45.0,
          "mPosition.V3f": [-320.0,-210.0,0.0],
          "mScale.f32": 9.3
        },
        {
          "mSpecialEnvPaletteName.Str": "ModelOnUI_PlayerHouse_Night_OR",
          "mVirtualCameraAngleY.f32": -0.261799,
          "mPlayerLookPos.V3f": [0.0,0.0,0.0],
          "mVirtualCameraAngleX.f32": 0.0,
          "mVirtualCameraAngleZ.f32": 0.0,
          "mParamName.Str": "FacilityTailor",
          "mEnvPaletteName.Str": "ModelOnUI_PlayerHouse_OR",
          "mPerspectiveProjectionFovy.f32": 45.0,
          "mPosition.V3f": [-310.0,-210.0,0.0],
          "mScale.f32": 9.3
        }
      ]
    }
  }
}