﻿[
  {
    "label": "001",
    "attribute": "0x0000020000000000",
    "text": "Hé, si tu t'ennuies, j'ai une idée\npour toi. {{delay20}}{{anim id=\"QuestionMark\" target=\"actor\" targetSpec=\"\"}}Ça t'dit, une p'tite\nchasse au trésor, {{string value=\"6\"}} ?"
  },
  {
    "label": "001_a",
    "attribute": "0x0000000000000000",
    "text": "À fond !"
  },
  {
    "label": "001_b",
    "attribute": "0x0000000000000000",
    "text": "{{anim id=\"EmotEnd\" target=\"actor\" targetSpec=\"\"}}Une autre fois."
  },
  {
    "label": "002",
    "attribute": "0x0000020000000000",
    "text": "{{anim id=\"Thinking\" target=\"actor\" targetSpec=\"\"}}Si t'as un peu d'temps, j'ai une\np'tite suggestion pour toi{{string value=\"...\"}}\n{{anim id=\"Grin\" target=\"actor\" targetSpec=\"\"}}Un défi chasse au trésor !"
  },
  {
    "label": "002_a",
    "attribute": "0x0000000000000000",
    "text": "J'en suis !"
  },
  {
    "label": "002_b",
    "attribute": "0x0000000000000000",
    "text": "Hmm... Non, merci."
  },
  {
    "label": "003",
    "attribute": "0x0000020000000000",
    "text": "{{anim id=\"IdeaBulb\" target=\"actor\" targetSpec=\"\"}}Oh !{{delay20}}{{anim id=\"Explain\" target=\"actor\" targetSpec=\"\"}} Si t'as rien d'prévu, ça te dirait\nde partir à la chasse au trésor ?"
  },
  {
    "label": "003_a",
    "attribute": "0x0000000000000000",
    "text": "Ça m'branche !"
  },
  {
    "label": "003_b",
    "attribute": "0x0000000000000000",
    "text": "Pas tellement, non."
  },
  {
    "label": "004",
    "attribute": "0x0000000000000000",
    "text": "{{anim id=\"Assent\" target=\"actor\" targetSpec=\"\"}}Youhou !{{delay20}} Prépare-toi parc'qu'il va\ny avoir du sport !{{delay20}} {{anim id=\"FaintSmile\" target=\"actor\" targetSpec=\"\"}}J'vais planquer\nl'trésor, attends-moi ici, OK ?"
  },
  {
    "label": "005",
    "attribute": "0x0000000000000000",
    "text": "{{anim id=\"FaintSmile\" target=\"actor\" targetSpec=\"\"}}Wouhou ! {{delay20}}Attends une p'tite minute,\n{{string value=\"NickName\"}}{{string value=\"...\"}} {{anim id=\"EmotEnd\" target=\"actor\" targetSpec=\"\"}}J'ai un trésor\nà enterrer !"
  },
  {
    "label": "006",
    "attribute": "0x0000000000000000",
    "text": "{{anim id=\"BigSmile\" target=\"actor\" targetSpec=\"\"}}Voilà c'que j'voulais entendre !{{delay20}} Zou,\nj'vais enterrer l'trésor quelque part\nsur l'île, j'en ai pas pour longtemps."
  },
  {
    "label": "007",
    "attribute": "0x0000000000000000",
    "text": "{{anim id=\"ShyBoy\" target=\"actor\" targetSpec=\"\"}}Non, mais laisse tomber en fait.\n{{delay20}}{{anim id=\"WrySmile\" target=\"actor\" targetSpec=\"\"}}On va pas faire de chasse au trésor\nen pleine nuit, non plus !"
  },
  {
    "label": "008",
    "attribute": "0x0000000000000000",
    "text": "{{anim id=\"Hello\" target=\"actor\" targetSpec=\"\"}}Ah, dommage. {{delay20}}Bah, reviens m'voir\nsi tu changes d'avis, chuis toujours\npartante."
  },
  {
    "label": "009",
    "attribute": "0x0000000000000000",
    "text": "{{anim id=\"Hello\" target=\"actor\" targetSpec=\"\"}}Non ?{{delay20}} Pas d'souci, ce sera pour\nune autre fois."
  },
  {
    "label": "010",
    "attribute": "0x0000000000000000",
    "text": "{{anim id=\"Eh\" target=\"actor\" targetSpec=\"\"}}T'as peur de prendre une rouste en\naffrontant la championne ?{{delay20}} {{anim id=\"Laughing\" target=\"actor\" targetSpec=\"\"}}Ha ha !{{delay20}}\nFais pas gaffe, j'te taquine juste !"
  },
  {
    "label": "011",
    "attribute": "0x0000000000000000",
    "text": "{{anim id=\"Nodding\" target=\"actor\" targetSpec=\"\"}}Bon, le trésor est enterré.{{delay20}} Il attend\nplus qu'un{{gender2 m=\"\" f=\"e\"}} chasseu{{gender2 m=\"r\" f=\"se\"}} futé{{gender2 m=\"\" f=\"e\"}} pour\nle dénicher avant la fin du chrono.{{i10_7 arg=\"240\"}}\n{{anim id=\"ShyBoy\" target=\"actor\" targetSpec=\"\"}}Indice gratos :{{delay8}} il est enterré à\nl'extérieur, vu qu'les gens râlent\nquand j'fais des trous chez eux.{{i10_7 arg=\"240\"}}\n{{anim id=\"Grin\" target=\"actor\" targetSpec=\"\"}}Mais j'te dirai rien d'plus ! {{delay8}}Inutile\nd'insister !{{delay8}} Motus, bouche cousue\net débrouille-toi !{{delay8}} Alors, t'es prêt{{gender2 m=\"\" f=\"e\"}} ?{{i10_7 arg=\"120\"}}"
  },
  {
    "label": "011_01",
    "attribute": "0x0000000000000000",
    "text": "{{anim id=\"Nodding\" target=\"actor\" targetSpec=\"\"}}Bon, le trésor est enterré.{{delay20}} Il attend\nplus qu'un{{gender2 m=\"\" f=\"e\"}} chasseu{{gender2 m=\"r\" f=\"se\"}} futé{{gender2 m=\"\" f=\"e\"}} pour\nle dénicher avant la fin du chrono.{{i10_7 arg=\"240\"}}\n{{anim id=\"ShyBoy\" target=\"actor\" targetSpec=\"\"}}Indice gratos :{{delay8}} il est enterré à\nl'extérieur, vu qu'les gens râlent\nquand j'fais des trous chez eux.{{i10_7 arg=\"240\"}}\n{{anim id=\"Serious\" target=\"actor\" targetSpec=\"\"}}Ah, et interdiction de t'faire aider.{{delay8}}\nY a que toi qu'as l'droit de déterrer\nl'trésor.{{delay frames=\"40\"}}{{anim id=\"Negative\" target=\"actor\" targetSpec=\"\"}} {{size value=\"75\"}}J'vais pas r'faire la même erreur...{{i10_7 arg=\"240\"}}{{pageBreak}}{{size value=\"100\"}}{{anim id=\"Grin\" target=\"actor\" targetSpec=\"\"}}Mais j'te dirai rien d'plus ! {{delay8}}Inutile\nd'insister !{{delay8}} Motus, bouche cousue\net débrouille-toi !{{delay8}} Alors, t'es prêt{{gender2 m=\"\" f=\"e\"}} ?{{i10_7 arg=\"120\"}}"
  },
  {
    "label": "012",
    "attribute": "0x0000000000000000",
    "text": "{{anim id=\"Nodding\" target=\"actor\" targetSpec=\"\"}}Bon, le trésor est enterré.{{delay20}} Il attend\nplus qu'un{{gender2 m=\"\" f=\"e\"}} chasseu{{gender2 m=\"r\" f=\"se\"}} futé{{gender2 m=\"\" f=\"e\"}} pour\nle dénicher avant la fin du chrono.{{i10_7 arg=\"240\"}}\n{{anim id=\"ShyBoy\" target=\"actor\" targetSpec=\"\"}}Indice gratos : il est enterré à\nl'extérieur, vu qu'les gens râlent\nquand j'fais des trous chez eux{{string value=\"...\"}}{{i10_7 arg=\"240\"}}\n{{anim id=\"Grin\" target=\"actor\" targetSpec=\"\"}}Par contre, interdit d'lambiner,\nle temps t'est compté et y en a\npas beaucoup !{{delay20}} Alors, t'es prêt{{gender2 m=\"\" f=\"e\"}} ?{{i10_7 arg=\"240\"}}"
  },
  {
    "label": "012_01",
    "attribute": "0x0000000000000000",
    "text": "{{anim id=\"Nodding\" target=\"actor\" targetSpec=\"\"}}Bon, le trésor est enterré.{{delay20}} Il attend\nplus qu'un{{gender2 m=\"\" f=\"e\"}} chasseu{{gender2 m=\"r\" f=\"se\"}} futé{{gender2 m=\"\" f=\"e\"}} pour\nle dénicher avant la fin du chrono.{{i10_7 arg=\"240\"}}\n{{anim id=\"ShyBoy\" target=\"actor\" targetSpec=\"\"}}Indice gratos : il est enterré à\nl'extérieur, vu qu'les gens râlent\nquand j'fais des trous chez eux{{string value=\"...\"}}{{i10_7 arg=\"240\"}}\n{{anim id=\"Serious\" target=\"actor\" targetSpec=\"\"}}Ah, et interdiction de t'faire aider.{{delay8}}\nY a que toi qu'a l'droit de déterrer\nl'trésor.{{delay frames=\"40\"}}{{anim id=\"Negative\" target=\"actor\" targetSpec=\"\"}} {{size value=\"75\"}}J'vais pas r'faire la même erreur...{{i10_7 arg=\"240\"}}{{pageBreak}}{{size value=\"100\"}}{{anim id=\"Grin\" target=\"actor\" targetSpec=\"\"}}Et interdiction d'lambiner aussi,\nle temps t'est compté et y en a\npas beaucoup !{{delay20}} Alors, t'es prêt{{gender2 m=\"\" f=\"e\"}} ?{{i10_7 arg=\"240\"}}"
  },
  {
    "label": "013",
    "attribute": "0x0000020000000000",
    "text": "{{anim id=\"Serious\" target=\"actor\" targetSpec=\"\"}}C'est la première fois que tu joues\nà ça ?{{delay20}}{{anim id=\"QuestionMark\" target=\"actor\" targetSpec=\"\"}} Tu veux que j'te fasse un\ntopo sur les règles ?"
  },
  {
    "label": "013_a",
    "attribute": "0x0000000000000000",
    "text": "{{anim id=\"Nodding\" target=\"actor\" targetSpec=\"\"}}Ouais, j'veux bien."
  },
  {
    "label": "013_b",
    "attribute": "0x0000000000000000",
    "text": "{{anim id=\"Negative\" target=\"actor\" targetSpec=\"\"}}Nan, pas la peine !"
  },
  {
    "label": "014",
    "attribute": "0x0000000000000000",
    "text": "{{anim id=\"BigSmile\" target=\"actor\" targetSpec=\"\"}}Parfait ! {{delay8}}Alors qu'est-ce\nqu'on attend ?!{{i10_7 arg=\"90\"}}"
  },
  {
    "label": "014_01",
    "attribute": "0x0000000000000000",
    "text": "{{anim id=\"Smiling\" target=\"actor\" targetSpec=\"\"}}Très bien !{{delay20}} Et rappelle-toi que c'est\njuste entre toi et moi, pigé ?{{delay frames=\"40\"}} Y a que\ntoi qu'as l'droit de déterrer l'trésor !{{i10_7 arg=\"240\"}}\n{{anim id=\"BigSmile\" target=\"actor\" targetSpec=\"\"}}Allez, vas-y {{gender2 m=\"champion\" f=\"championne\"}} !"
  },
  {
    "label": "015",
    "attribute": "0x0000000000000000",
    "text": "{{anim id=\"Grin\" target=\"actor\" targetSpec=\"\"}}Cool !{{delay20}} Par contre, interdit d'lambiner,\nle temps t'est compté et y en a pas\nbeaucoup !{{delay20}} Et{{string value=\"...\"}} c'est parti !{{i10_7 arg=\"240\"}}"
  },
  {
    "label": "015_01",
    "attribute": "0x0000000000000000",
    "text": "{{anim id=\"Smiling\" target=\"actor\" targetSpec=\"\"}}Ha ha, {{gender2 m=\"un\" f=\"une\"}} vrai{{gender2 m=\"\" f=\"e\"}} pro.{{delay frames=\"40\"}} Rappelle-toi\nque t'es tout{{gender2 m=\"\" f=\"e\"}} seul{{gender2 m=\"\" f=\"e\"}} sur c'coup-là,\ny a que toi qui peux déterrer l'trésor.{{i10_7 arg=\"240\"}}{{pageBreak}}{{anim id=\"Grin\" target=\"actor\" targetSpec=\"\"}}Et j'te préviens, t'as pas beaucoup\nd'temps alors lambine pas, {{string value=\"6\"}} !{{i10_7 arg=\"120\"}}"
  },
  {
    "label": "101",
    "attribute": "0x0000020000000000",
    "text": "{{anim id=\"Hello\" target=\"actor\" targetSpec=\"\"}}Salut !{{delay20}} T'es occupé{{gender2 m=\"\" f=\"e\"}}, là ?{{delay20}}\nÇa t'dirait, une p'tite chasse\nau trésor ?"
  },
  {
    "label": "101_a",
    "attribute": "0x0000000000000000",
    "text": "Je veux !"
  },
  {
    "label": "101_b",
    "attribute": "0x0000000000000000",
    "text": "Je peux pas."
  },
  {
    "label": "102",
    "attribute": "0x0000020000000000",
    "text": "{{i10_12}}{{anim id=\"Outraged\" target=\"actor\" targetSpec=\"\"}}{{size value=\"150\"}}J'M'ENNUIIIIIE !{{delay frames=\"30\"}}{{size value=\"100\"}}{{pageBreak}}{{anim id=\"Shocked\" target=\"actor\" targetSpec=\"\"}}Oh, euh, pardon. J't'avais pas vu{{gender2 m=\"\" f=\"e\"}}.{{delay20}}{{anim id=\"ShyBoy\" target=\"actor\" targetSpec=\"\"}}\nSinon, j'me serais pas permis\nd'brailler. Mais il s'passe que dalle !\n{{anim id=\"Sighing\" target=\"actor\" targetSpec=\"\"}}Si au moins on avait une salle\nd'arcade{{string value=\"...\"}} {{anim id=\"IdeaBulb\" target=\"actor\" targetSpec=\"\"}}Eh, mais on a pas b'soin\nd'salle d'arcade pour jouer !\n{{anim id=\"Explain\" target=\"actor\" targetSpec=\"\"}}Une p'tite chasse au trésor,\nça t'dit, {{string value=\"NickName\"}} ?"
  },
  {
    "label": "102_a",
    "attribute": "0x0000000000000000",
    "text": "À fond !"
  },
  {
    "label": "102_b",
    "attribute": "0x0000000000000000",
    "text": "{{anim id=\"EmotEnd\" target=\"actor\" targetSpec=\"\"}}Une autre fois ?"
  },
  {
    "label": "103",
    "attribute": "0x0000000000000000",
    "text": "{{anim id=\"OhGeez\" target=\"actor\" targetSpec=\"\"}}Oh{{string value=\"...\"}} En fait, il s'fait tard. {{delay20}}{{anim id=\"FaintSmile\" target=\"actor\" targetSpec=\"\"}}On laisse\ntomber pour ce soir, mais t'as un bon\npour une chasse quand tu veux !"
  },
  {
    "label": "104",
    "attribute": "0x0000000000000000",
    "text": "{{anim id=\"BigSmile\" target=\"actor\" targetSpec=\"\"}}Ouais !{{delay20}} Attends-moi ici pendant\nqu'j'enterre le trésor. {{delay20}}{{anim id=\"Explain\" target=\"actor\" targetSpec=\"\"}}T'auras pas à\npoireauter longtemps, promis juré !"
  },
  {
    "label": "105",
    "attribute": "0x0000000000000000",
    "text": "{{anim id=\"Eh\" target=\"actor\" targetSpec=\"\"}}T'as pas franchement l'air de crouler\nsous les trucs à faire urgents, mais\nbon{{string value=\"...\"}} {{anim id=\"Nodding\" target=\"actor\" targetSpec=\"\"}}C'est pas grave, à plus !"
  },
  {
    "label": "106",
    "attribute": "0x0000000000000000",
    "text": "{{anim id=\"TakenAback\" target=\"actor\" targetSpec=\"\"}}Oh{{string value=\"...\"}} Il fait trop noir en fait{{string value=\"...\"}} La nuit\nest tombée d'un coup, ou quoi ?{{delay20}}\n{{anim id=\"ShyBoy\" target=\"actor\" targetSpec=\"\"}}On va d'voir reporter, désolée."
  },
  {
    "label": "107",
    "attribute": "0x0000000000000000",
    "text": "{{anim id=\"Assent\" target=\"actor\" targetSpec=\"\"}}Bonne réponse ! {{delay20}}{{anim id=\"Grin\" target=\"actor\" targetSpec=\"\"}}{{size value=\"75\"}}Visiblement, chuis pas la\nseule à m'tourner les pouces dans l'coin...{{size value=\"100\"}}{{pageBreak}}{{anim id=\"Explain\" target=\"actor\" targetSpec=\"\"}}Laisse-moi une minute, le temps\nd'enterrer l'trésor, et on pourra\ncommencer !"
  },
  {
    "label": "108",
    "attribute": "0x0000000000000000",
    "text": "{{anim id=\"TakenAback\" target=\"actor\" targetSpec=\"\"}}Non ?{{delay20}} Oh{{string value=\"...\"}} {{anim id=\"OhGeez\" target=\"actor\" targetSpec=\"\"}}Enfin, j'vais pas t'forcer,\nnon plus, {{string value=\"6\"}}."
  },
  {
    "label": "200",
    "attribute": "0x0000000000000000",
    "text": "{{anim id=\"Serious\" target=\"actor\" targetSpec=\"\"}}Tu vas p'têt me dire que j'aurais dû\nvérifier avant, mais y a plus d'place\nsur l'île pour enterrer mon trésor.\n{{anim id=\"WrySmile\" target=\"actor\" targetSpec=\"\"}}Et une chasse au trésor sans trésor,\nc'est pas vraiment la même chose.{{delay20}}\nDésolée, {{string value=\"6\"}}{{string value=\"...\"}}"
  }
]