﻿[
  {
    "label": "001",
    "attribute": "0x00000000",
    "text": "Oh. {{delay frames=\"40\"}}Tag."
  },
  {
    "label": "002",
    "attribute": "0x00000000",
    "text": "{{anim id=\"Silent\" target=\"actor\" targetSpec=\"\"}}Hm.{{delay frames=\"40\"}} Du bist's wieder."
  },
  {
    "label": "003",
    "attribute": "0x00000000",
    "text": "Tag.{{delay frames=\"40\"}} Hm.{{delay frames=\"40\"}} Bist wohl öfter hier."
  },
  {
    "label": "004",
    "attribute": "0x00000000",
    "text": "Tag.{{delay frames=\"40\"}} Hm.{{delay frames=\"40\"}} Bist wohl öfter hier."
  },
  {
    "label": "005",
    "attribute": "0x00000000",
    "text": "Tag.{{delay frames=\"40\"}} Hm.{{delay frames=\"40\"}} Bist wohl öfter hier."
  },
  {
    "label": "011_01",
    "attribute": "0x00000000",
    "text": "{{anim id=\"Blushing\" target=\"actor\" targetSpec=\"\"}}Ich hab etwas Schwierigkeiten damit,{{delay8}}\nauf Leute zuzugehen.{{delay20}}{{anim id=\"Nodding\" target=\"actor\" targetSpec=\"\"}} Daher halte ich\nauch die Insektikus-Turniere ab.\n{{anim id=\"ShyBoy\" target=\"actor\" targetSpec=\"\"}}Mit anderen zu sprechen fällt mir\nviel leichter,{{delay8}} wenn es einen richtigen\nGrund dafür gibt."
  },
  {
    "label": "011_02",
    "attribute": "0x00000000",
    "text": "Meinen Kescher,{{delay8}} Mascha,{{delay8}} hab ich\nselbst gebaut.{{pageBreak}}{{anim id=\"SmugFace\" target=\"actor\" targetSpec=\"\"}}In Mascha ruht meine Kraft,{{delay8}} mein\ninsektensuchender Geist,{{delay8}} und sie\ngewährt mir meine wahre Stärke.{{pageBreak}}{{anim id=\"Serious\" target=\"actor\" targetSpec=\"\"}}{{size value=\"75\"}}Die Stacheln sind nur dran,{{delay8}} damit sie noch cooler\naussieht.{{size value=\"100\"}}"
  },
  {
    "label": "011_03",
    "attribute": "0x00000000",
    "text": "{{anim id=\"Explain\" target=\"actor\" targetSpec=\"\"}}Wenn ich irgendwas als Skulptur\nverewige,{{delay8}} dann nur deshalb,{{delay8}} weil ich\nsein wahres Wesen erkennen will.{{pageBreak}}{{anim id=\"Nodding\" target=\"actor\" targetSpec=\"\"}}Dabei fallen mir ganz neue Sachen\nauf.{{delay20}} Der Glanz einer zarten Schwinge,{{delay8}}\nder Schwung eines Beinchenglieds.\nUnd jede neue Erkenntnis bringt\nmich der ultimativen Metamorphose\neinen Schritt näher{{string value=\"...\"}}"
  },
  {
    "label": "011_04",
    "attribute": "0x00000000",
    "text": "{{anim id=\"FaintSmile\" target=\"actor\" targetSpec=\"\"}}{{color id=\"3\"}}Lomeus {{color id=\"65535\"}}war es,{{delay8}} der mich zum\nSchaffen meiner ersten Skulpturen\nermutigt hat.{{pageBreak}}{{anim id=\"Explain\" target=\"actor\" targetSpec=\"\"}}Eigentlich wollte ich die Welt des\nKrabbelns und des Flatterns ja\nallein erkunden,{{delay8}} aber...\n{{anim id=\"AbsentMindedness\" target=\"actor\" targetSpec=\"\"}}Er hat mich überzeugt,{{delay8}} meiner\nLernlust Form zu verleihen und sie\nmit anderen zu teilen."
  },
  {
    "label": "011_05",
    "attribute": "0x00000000",
    "text": "{{anim id=\"Sighing\" target=\"actor\" targetSpec=\"\"}}Nach dem summenden, brummenden\nStress eines Insektikus-Turniers\nkomme ich gern hierher.\nHier ist es schön ruhig und man ist\nweit weg vom emsigen Krabbeln.{{delay frames=\"40\"}}{{anim id=\"Greeting\" target=\"actor\" targetSpec=\"\"}}\n{{size value=\"75\"}}Und der Kaffee ist auch gut.{{delay8}} Sag ich nur.{{size value=\"100\"}}"
  },
  {
    "label": "011_06",
    "attribute": "0x00000000",
    "text": "{{anim id=\"Eh\" target=\"actor\" targetSpec=\"\"}}{{color id=\"3\"}}Kofi {{color id=\"65535\"}}soll ja ein riesiger Gyroiden-Fan\nsein.{{delay20}} {{anim id=\"Thinking\" target=\"actor\" targetSpec=\"\"}}Vielleicht sollten wir beide mal\nüber den Kosmos philosophieren{{string value=\"...\"}}"
  },
  {
    "label": "011_07",
    "attribute": "0x00000000",
    "text": "Passiert es{{string value=\"...\"}}{{delay20}} dir auch mal,{{delay8}} dass du\njemanden triffst und{{string value=\"...\"}}{{delay20}}{{anim id=\"Silent\" target=\"actor\" targetSpec=\"\"}} gar keine\nWorte findest?{{i10_4}} {{anim id=\"ColdChill\" target=\"actor\" targetSpec=\"\"}}{{size value=\"75\"}}Brrr,{{delay8}} das ist so peinlich.{{size value=\"100\"}}"
  },
  {
    "label": "011_08",
    "attribute": "0x00000000",
    "text": "{{anim id=\"Blushing\" target=\"actor\" targetSpec=\"\"}}Heiße Getränke trinke ich nur hier\nin diesem Café,{{delay8}} sonst nirgendwo.{{pageBreak}}{{anim id=\"EmotEnd\" target=\"actor\" targetSpec=\"\"}}Zu Hause vergesse ich wegen meinen{{anim id=\"OhGeez\" target=\"actor\" targetSpec=\"\"}}\nInsekten oder Skulpturen immer die\nZeit und dann ist der Kaffee kalt{{string value=\"...\"}}"
  },
  {
    "label": "011_09",
    "attribute": "0x00000000",
    "text": "Mein erster Kaffee war schwarz\nwie ein Hirschkäferpanzer,{{delay8}} aber{{anim id=\"Oops\" target=\"actor\" targetSpec=\"\"}} bäh,{{delay8}}\nder war mir viel zu bitter.\n{{anim id=\"ShyBoy\" target=\"actor\" targetSpec=\"\"}}Jetzt trinke ich ihn immer mit Milch.{{delay20}}\nWenn der Kaffee mottenflügelbeige\nist,{{delay8}} ist die Milchmenge richtig!"
  },
  {
    "label": "011_10",
    "attribute": "0x00000000",
    "text": "{{anim id=\"Nodding\" target=\"actor\" targetSpec=\"\"}}{{color id=\"3\"}}Lomeus{{color id=\"65535\"}} ist schon ungewöhnlich{{string value=\"...\"}}{{delay20}}\nAber ich ja auch. {{delay20}}{{anim id=\"FaintSmile\" target=\"actor\" targetSpec=\"\"}}Darum vertragen\nwir uns so ungewöhnlich gut{{string value=\"...\"}}"
  },
  {
    "label": "011_11",
    "attribute": "0x00000000",
    "text": "{{anim id=\"QuestionMark\" target=\"actor\" targetSpec=\"\"}}Hast du jemals die Sonne durch\neinen Libellenflügel schimmern\nsehen?{{delay20}}{{anim id=\"Pardon\" target=\"actor\" targetSpec=\"\"}} Das macht einen sprachlos.\n{{anim id=\"AbsentMindedness\" target=\"actor\" targetSpec=\"\"}}Man kann fast für einen flüchtigen\nMoment lang das Antlitz der großen\nKosmosbienenkönigin erblicken{{string value=\"...\"}}"
  },
  {
    "label": "011_12",
    "attribute": "0x00000000",
    "text": ""
  },
  {
    "label": "011_15",
    "attribute": "0x00000000",
    "text": "{{anim id=\"AbsentMindedness\" target=\"actor\" targetSpec=\"\"}}Ein Käfer,{{delay8}} der auf einer Blüte ruht{{string value=\"...\"}}\nZwei Facetten der Schönheit,{{delay8}} die\nkontrastieren und sich verstärken{{string value=\"...\"}}\n{{anim id=\"Thinking\" target=\"actor\" targetSpec=\"\"}}{{color id=\"4\"}}Ich müsste wirklich dringend lernen,{{delay8}}\nwie man richtig Blumen modelliert{{string value=\"...\"}}{{color id=\"65535\"}}"
  },
  {
    "label": "011_16",
    "attribute": "0x00000000",
    "text": "{{anim id=\"HappyFlower\" target=\"actor\" targetSpec=\"\"}}Ich denke gerade an die Geschöpfe,{{delay8}}\ndie mich auf dem Insektikus-Turnier\nmit ihrer Schönheit beglückten{{string value=\"...\"}}\nWer weiß,{{delay8}} wohin es sie in Zukunft\nverschlägt.{{delay20}} Ob sie wohl den Weg in\ndie Welt meiner Skulpturen finden?"
  },
  {
    "label": "011_17",
    "attribute": "0x00000000",
    "text": "{{anim id=\"Love\" target=\"actor\" targetSpec=\"\"}}Mit dem Sommer stimmen die\nZikaden ihren endlos bezaubernden\nKanon der Sphären an.\n{{anim id=\"BrokenHeart\" target=\"actor\" targetSpec=\"\"}}Ach,{{delay8}} wenn nur wir Sterblichen ihr\nsüßes Surren auch nur nachahmen\nkönnten{{string value=\"...\"}}{{delay40}} {{color id=\"4\"}}Ziiirplbruuumm.{{color id=\"65535\"}}"
  },
  {
    "label": "011_18",
    "attribute": "0x00000000",
    "text": "{{anim id=\"FaintSmile\" target=\"actor\" targetSpec=\"\"}}Die Hitze glüht,{{delay8}} ganz wie der Eifer\nder emsigen Insekten.{{delay20}}{{anim id=\"Nodding\" target=\"actor\" targetSpec=\"\"}} Der Sommer\nist wirklich die schönste Jahreszeit."
  },
  {
    "label": "011_19",
    "attribute": "0x00000000",
    "text": "{{anim id=\"AbsentMindedness\" target=\"actor\" targetSpec=\"\"}}Die einsamen Weisen der Käferwelt\nverschmelzen mit dem fahlen Licht\ndes Herbstmonds.{{delay8}} Ich bin verzückt.\n{{anim id=\"Love\" target=\"actor\" targetSpec=\"\"}}Mein Blut mag zwar kalt sein,{{delay8}} doch\nmein Herz brennt für den süßen Ton\nihrer Melodien."
  },
  {
    "label": "011_20",
    "attribute": "0x00000000",
    "text": "{{anim id=\"Worried\" target=\"actor\" targetSpec=\"\"}}Wie man mir erzählt hat,{{delay8}} scheint der\nKurator hier Insekten{{string value=\"...\"}}{{delay frames=\"40\"}}{{anim id=\"Angry\" target=\"actor\" targetSpec=\"\"}} überhaupt\nnicht zu mögen.{{pageBreak}}{{anim id=\"EmotEnd\" target=\"actor\" targetSpec=\"\"}}Aber zumindest sieht man ihnen an,{{delay8}}\ndass sie es hier gut haben.{{anim id=\"FaintSmile\" target=\"actor\" targetSpec=\"\"}} Er herzt\nsie zwar nicht,{{delay8}} doch er hegt sie."
  },
  {
    "label": "011_21",
    "attribute": "0x00000000",
    "text": "{{anim id=\"AbsentMindedness\" target=\"actor\" targetSpec=\"\"}}Kann eine schnöde Skulptur wirklich\neines Käfers überirdische Glorie\nwiderspiegeln?{{delay20}} {{anim id=\"Worried\" target=\"actor\" targetSpec=\"\"}}Ach,{{delay8}} welch Rätsel{{string value=\"...\"}}"
  },
  {
    "label": "011_22",
    "attribute": "0x00000000",
    "text": "{{anim id=\"AbsentMindedness\" target=\"actor\" targetSpec=\"\"}}Ach,{{delay8}} wie malerisch doch Käferflügel\nbeim Flug durch die Luft glänzen{{string value=\"...\"}}{{delay20}}\n{{color id=\"4\"}}Man müsste bloß malen können.{{color id=\"65535\"}}"
  },
  {
    "label": "011_23",
    "attribute": "0x00000000",
    "text": "{{anim id=\"FaintSmile\" target=\"actor\" targetSpec=\"\"}}Ich versuche,{{delay20}} auch Fische zu\nmodellieren,{{delay8}} {{anim id=\"Negative\" target=\"actor\" targetSpec=\"\"}}doch Wasserwesen\nwerden mir nie wahre Musen sein.\n{{anim id=\"EmotEnd\" target=\"actor\" targetSpec=\"\"}}Aber ich gebe mir trotzdem die\nallergrößte Mühe,{{anim id=\"FaintSmile\" target=\"actor\" targetSpec=\"\"}}{{delay8}} weil {{color id=\"3\"}}Lomeus{{color id=\"65535\"}}\nFische doch so gernhat{{string value=\"...\"}}"
  },
  {
    "label": "021",
    "attribute": "0x00000000",
    "text": "{{fun_0014003C arg=\"\"}}"
  },
  {
    "label": "021_01",
    "attribute": "0x00000000",
    "text": "{{anim id=\"Blushing\" target=\"actor\" targetSpec=\"\"}}Ich hab etwas Schwierigkeiten damit,{{delay8}}\nauf Leute zuzugehen.{{delay20}}{{anim id=\"Nodding\" target=\"actor\" targetSpec=\"\"}} Daher halte ich\nauch die Insektikus-Turniere ab.\n{{anim id=\"ShyBoy\" target=\"actor\" targetSpec=\"\"}}Mit anderen zu sprechen fällt mir\nviel leichter,{{delay8}} wenn es einen richtigen\nGrund dafür gibt."
  },
  {
    "label": "021_02",
    "attribute": "0x00000000",
    "text": "{{anim id=\"Explain\" target=\"actor\" targetSpec=\"\"}}Wenn ich irgendwas als Skulptur\nverewige,{{delay8}} dann nur deshalb,{{delay8}} weil ich\nsein wahres Wesen erkennen will.{{pageBreak}}{{anim id=\"Nodding\" target=\"actor\" targetSpec=\"\"}}Dabei fallen mir ganz neue Sachen\nauf.{{delay20}} Der Glanz einer zarten Schwinge,{{delay8}}\nder Schwung eines Beinchenglieds.\nUnd jede neue Erkenntnis bringt\nmich der ultimativen Metamorphose\neinen Schritt näher{{string value=\"...\"}}"
  },
  {
    "label": "021_03",
    "attribute": "0x00000000",
    "text": "{{anim id=\"Eh\" target=\"actor\" targetSpec=\"\"}}{{color id=\"3\"}}Kofi {{color id=\"65535\"}}soll ja ein riesiger Gyroiden-Fan\nsein.{{delay20}} {{anim id=\"Thinking\" target=\"actor\" targetSpec=\"\"}}Vielleicht sollten wir beide mal\nüber den Kosmos philosophieren{{string value=\"...\"}}"
  },
  {
    "label": "021_04",
    "attribute": "0x00000000",
    "text": "Passiert es{{string value=\"...\"}}{{delay20}} dir auch mal,{{delay8}} dass du\njemanden triffst und{{string value=\"...\"}}{{delay20}}{{anim id=\"Silent\" target=\"actor\" targetSpec=\"\"}} gar keine\nWorte findest?{{i10_4}} {{anim id=\"ColdChill\" target=\"actor\" targetSpec=\"\"}}{{size value=\"75\"}}Brrr,{{delay8}} das ist so peinlich.{{size value=\"100\"}}"
  },
  {
    "label": "021_05",
    "attribute": "0x00000000",
    "text": "{{anim id=\"Blushing\" target=\"actor\" targetSpec=\"\"}}Heiße Getränke trinke ich nur hier\nin diesem Café,{{delay8}} sonst nirgendwo.{{pageBreak}}{{anim id=\"EmotEnd\" target=\"actor\" targetSpec=\"\"}}Zu Hause vergesse ich wegen meinen{{anim id=\"OhGeez\" target=\"actor\" targetSpec=\"\"}}\nInsekten oder Skulpturen immer die\nZeit und dann ist der Kaffee kalt{{string value=\"...\"}}"
  }
]