﻿[
  {
    "label": "0000",
    "text": "{{gender8 m=\"Cher\" f=\"Chère\" n=\"\"}} {{selection value=\"SelectedName\"}},"
  },
  {
    "label": "0100",
    "text": "Bonne fête à toi!"
  },
  {
    "label": "1000",
    "text": "De la part {{gender4 m=\"de \" f=\"d'\"}}⁠{{string value=\"PlayerName\"}}"
  },
  {
    "label": "1001",
    "text": "De la part {{gender4 m=\"de \" f=\"d'\"}}⁠{{string value=\"PlayerName\"}},\n{{gender4 m=\"de \" f=\"d'\"}}⁠{{string value=\"IslandName\"}}"
  }
]