﻿[
  {
    "label": "000",
    "text": "{{color id=\"1\"}}퍼펙트 라이프 서포트{{color id=\"65535\"}} 서비스에 가입해준 여러분께\n앞으로는 매일 이렇게 생활에 관한 정보를 조언해줄 거야구리!"
  },
  {
    "label": "001",
    "text": "여기서 보내준 어드바이스는 스마트폰의\n{{color id=\"1\"}}퍼펙트 라이프 서포트{{color id=\"65535\"}} 앱에서 언제든지 다시 볼 수 있어구리!"
  },
  {
    "label": "002",
    "text": "낮은 나무는 저마다의 개화 시즌이 되면 꽃을 피워구리!\n여러 종류의 낮은 나무를 심으면 계절의 변화를 즐길 수 있지구리♪"
  },
  {
    "label": "003",
    "text": "큰맘 먹고 이미지 변신하고 싶을 땐 {{color id=\"1\"}}화장대{{color id=\"65535\"}}나\n{{color id=\"1\"}}거울{{color id=\"65535\"}}을 이용하면 좋아구리! 원하는 모습으로 변할 수 있어구리♪"
  },
  {
    "label": "005",
    "text": "DIY 중에는 {{color id=\"1\"}}{{color id=\"65535\"}}를 연타하면 작업 속도를 높일 수 있어구리!"
  },
  {
    "label": "007",
    "text": "바다를 헤엄치다 바닷속에서 거품을 발견하면\n그때가 바로 생물을 잡을 수 있는 기회야구리!\n{{color id=\"1\"}}{{color id=\"65535\"}}로 잠수해서 거품이 나오는 그림자에 다가가면 잡을 수 있어구리!"
  },
  {
    "label": "008",
    "text": "과일 같은 음식을 먹으면 나무를 통째로 파내거나\n바위를 깨부수는 등, 상상도 못한 힘을 발휘할 수 있어구리!"
  },
  {
    "label": "009",
    "text": "바다 수영이 하고 싶을 땐 {{color id=\"1\"}}잠수복{{color id=\"65535\"}}으로 갈아입는 걸 잊지마구리!\n너굴포트에서 마일로 교환하거나 너굴 상점에서 구입할 수 있어구리!"
  },
  {
    "label": "010",
    "text": "선물이 달린 풍선이 날아다니는 걸 본 적 있지구리?\n만약 발견하면 새총으로 맞춰서 떨어뜨려봐구리!"
  },
  {
    "label": "011",
    "text": "풍선을 떨어뜨릴 땐 타이밍이 중요해구리!\n풍선이 강이나 물 위를 지날 때 떨어뜨리면\n그대로 물속에 빠져서 주울 수 없게 돼구리!"
  },
  {
    "label": "013",
    "text": "{{color id=\"1\"}}너굴포트{{color id=\"65535\"}}에서 마일 교환으로 {{color id=\"1\"}}요리도 DIY! 레시피＋{{color id=\"65535\"}}를\n다운로드하면, 조리대에서 요리를 만들 수 있어구리!"
  },
  {
    "label": "014",
    "text": "{{color id=\"1\"}}너굴포트{{color id=\"65535\"}}의 마일 교환 경품인 {{color id=\"1\"}}뚝딱! 울타리 리폼 BOOK{{color id=\"65535\"}}을\n획득하면 울타리를 다른 색으로 리폼할 수 있어구리.\n나만의 스타일로 섬을 꾸미고 싶은 사람에겐 필수 아이템이지구리!"
  },
  {
    "label": "016",
    "text": "안내소에 설치된 재활용함에 든 물건은\n누구든 자유롭게 가져갈 수 있어구리.\n매일 확인하다 보면 뜻밖의 횡재를 하게 될지도 몰라구리!"
  },
  {
    "label": "017",
    "text": "섬 산책 중 길을 잃거나 움직일 수 없게 되면\n스마트폰 앱 {{color id=\"1\"}}긴급 탈출 서비스{{color id=\"65535\"}}를 사용하면 돼구리.\n집이나 안내소 등, 안전한 곳으로 이동시켜줄 거야구리!"
  },
  {
    "label": "018",
    "text": "스마트폰 앱 {{color id=\"1\"}}주민 호출{{color id=\"65535\"}}을 사용하면\n섬에 사는 다른 주민과 함께 놀 수 있어구리.\n최대 4명이 함께 활동할 수 있으니까 참고해구리!"
  },
  {
    "label": "019",
    "text": "안내소의 {{color id=\"1\"}}너굴포트{{color id=\"65535\"}}에 접속하면\n하루에 한 번 마일을 받을 수 있어구리!\n매일 접속하면 그만큼 받는 마일도 늘어서 이득이지구리♪"
  },
  {
    "label": "021",
    "text": "{{color id=\"1\"}}나뭇가지{{color id=\"65535\"}}를 잔뜩 모으고 싶을 땐 나무 옆에 떨어져 있는 걸\n줍는 방법 외에도 나무를 흔들어서 떨어뜨릴 수 있어구리!\n같은 나무를 반복해서 흔들면 조금씩 떨어질 거야구리."
  },
  {
    "label": "025",
    "text": "{{color id=\"1\"}}너굴포트{{color id=\"65535\"}}의 마일 교환 경품인 {{color id=\"1\"}}하천 공사 허가증{{color id=\"65535\"}}이 있으면\n섬에 강과 연못을 만들거나 메우는 공사를 할 수 있어구리!"
  },
  {
    "label": "026",
    "text": "{{color id=\"1\"}}너굴포트{{color id=\"65535\"}}의 마일 교환 경품인 {{color id=\"1\"}}절벽 공사 허가증{{color id=\"65535\"}}이 있으면\n섬의 절벽을 허물거나 고지대를 만드는 공사를 할 수 있어구리!"
  },
  {
    "label": "028",
    "text": "낚싯대나 잠자리채 같은 도구가 늘어나면 {{color id=\"1\"}}너굴포트{{color id=\"65535\"}}에서\n{{color id=\"1\"}}도구도 쉽게! 즐겨찾기{{color id=\"65535\"}}를 마일로 교환하는 걸 추천해구리!\n도구를 편하게 바꿔 들 수 있거든구리♪"
  },
  {
    "label": "029",
    "text": "{{color id=\"1\"}}너굴포트{{color id=\"65535\"}}의 마일 교환 경품인 {{color id=\"1\"}}마이 디자인 PRO 에디터{{color id=\"65535\"}}가 있으면\nPRO급의 퀄리티를 자랑하는 마이 디자인을 만들 수 있어구리!"
  },
  {
    "label": "030",
    "text": "{{color id=\"1\"}}너굴포트{{color id=\"65535\"}}의 마일 교환 경품인 {{color id=\"1\"}}마이 디자인 PRO 에디터＋{{color id=\"65535\"}}가 있으면\n부채와 우산 등, 더 다양한 종류의 마이 디자인을 즐길 수 있어구리!"
  },
  {
    "label": "031",
    "text": "{{color id=\"1\"}}너굴포트{{color id=\"65535\"}}의 마일 교환 경품인 {{color id=\"1\"}}마이 디자인 패턴＋{{color id=\"65535\"}}는\n스스로 디자인을 만들지 않는 사람에게도 추천해구리!\n추천 디자인 패턴을 사용해서 가볍게 마이 디자인을 즐길 수 있거든구리!"
  },
  {
    "label": "032",
    "text": "튼튼하고 잘 망가지지 않는 도구를 만들고 싶다면\n{{color id=\"1\"}}너굴포트{{color id=\"65535\"}}에서 교환할 수 있는\n{{color id=\"1\"}}언제나 쓸 수 있는 도구 레시피{{color id=\"65535\"}}를 추천할게구리!"
  },
  {
    "label": "033",
    "text": "항상 주머니가 물건으로 가득 차서 곤란하다면\n{{color id=\"1\"}}너굴포트{{color id=\"65535\"}}에서 교환할 수 있는 {{color id=\"1\"}}주머니 정리 테크닉{{color id=\"65535\"}}을 추천할게구리!\n주머니에 물건을 잔뜩 집어넣을 수 있는 기술을 배울 수 있어구리!"
  },
  {
    "label": "034",
    "text": "{{color id=\"1\"}}너굴포트{{color id=\"65535\"}}의 마일 교환 경품인 {{color id=\"1\"}}주머니 정리, 고수의 기술{{color id=\"65535\"}}만 있으면\n주머니에 한계까지 물건을 집어넣을 수 있는 기술을 습득할 수 있어구리!\n다양한 물건을 갖고 다닐 수 있게 되면 생활도 편리해질 거야구리♪"
  },
  {
    "label": "035",
    "text": "안내소에서 {{color id=\"1\"}}리폼 {{color id=\"65535\"}}워크숍이 열리고 있어구리!\nDIY로 만든 물건을 좋아하는 색으로 리폼해서\nDIY를 더 자유롭게 즐길 수 있으니까 꼭 배워봐구리!"
  },
  {
    "label": "036",
    "text": "{{color id=\"1\"}}너굴포트{{color id=\"65535\"}}의 마일 교환 경품인 {{color id=\"1\"}}카메라 앱 PRO{{color id=\"65535\"}}로 스마트폰 카메라를\n업그레이드하면 사진을 촬영할 수 있는 시점의 종류가 늘어날 거야구리!\n더 다이내믹한 사진 촬영을 즐겨줘구리!"
  },
  {
    "label": "037",
    "text": "{{color id=\"1\"}}너굴포트{{color id=\"65535\"}}의 마일 교환 경품인 {{color id=\"1\"}}마이 디자인 도로 공사{{color id=\"65535\"}}가 있으면\n원하는 마이 디자인을 길로 까는 공사를 할 수 있어구리!"
  },
  {
    "label": "038",
    "text": "집이 비좁게 느껴진다면 꼭 증축을 검토해줘구리!\n집을 증축하면 방은 물론이고 수납할 수 있는 공간도 넓어지거든구리!\n자세한 내용은 안내소에서 날 찾아와 상담해줘구리."
  },
  {
    "label": "039",
    "text": "우편함에는 편지를 300통까지 보관할 수 있지만\n우편함이 가득 찼을 때 편지가 도착하면 오래된 것부터 순서대로 없어져구리.\n그러니 중요한 편지는 {{color id=\"1\"}}즐겨찾기{{color id=\"65535\"}}로 등록해서 정리해주면 좋아구리!"
  },
  {
    "label": "041",
    "text": "{{color id=\"1\"}}너굴포트{{color id=\"65535\"}}의 마일 교환 경품인 {{color id=\"1\"}}간이 창고{{color id=\"65535\"}}를 바깥에 설치하면\n집에 수납된 아이템을 자유롭게 넣고 뺄 수 있어구리!\n각 집마다 하나씩 장만해두면 무척 편리할 거야!"
  },
  {
    "label": "042",
    "text": "오디오 등의 {{color id=\"1\"}}오디오 플레이어{{color id=\"65535\"}}가 있으면\n좋아하는 음악을 세팅해 감상할 수 있어구리!\n음악은 {{color id=\"1\"}}너굴 쇼핑{{color id=\"65535\"}}에서 판매하고 있으니 참고해줘구리♪"
  },
  {
    "label": "043",
    "text": "삽이나 도끼를 사용하면 바위에서 돌과 광석을 캘 수 있어구리.\n한 번에 잔뜩 캐기 위해서는 빠르게 반복해서 때리는 것이 중요해구리!"
  },
  {
    "label": "044",
    "text": "나무를 흔들면 벌집이 떨어져서 벌들에게 쏘일 수 있으니까 조심해야 돼구리!\n도망치다 잡히지 않도록 재빨리 잠자리채를 꺼내서 포획하는 게 좋아구리."
  },
  {
    "label": "045",
    "text": "해피홈 아카데미의 채점에서 고평가를 받으면\n점수에 따른 다양한 기념품을 받을 수 있다고 해구리!"
  },
  {
    "label": "046",
    "text": "모래사장을 잘 보면 가끔 바닷물이 뿜어져 나올 때가 있어구리.\n그곳을 삽으로 파보면 조개를 찾을 수 있을지도 몰라구리!"
  },
  {
    "label": "047",
    "text": "너굴 상점 앞에 있는 {{color id=\"1\"}}매입함{{color id=\"65535\"}}에 팔고 싶은 물건을 넣어 두면\n다음날 매입 금액이 계좌에 입금될 거야구리!\n직접 팔 때보다는 적은 금액이지만, 24시간 이용할 수 있어서 편리해구리!"
  },
  {
    "label": "048",
    "text": "너굴 상점에서는 월요일～토요일 밤까지만 무를 매입해구리.\n무는 구입한 지 1주일이 지나면 썩어서 가치가 없어지니까\n판매 시기를 놓치지 않도록 조심해줘구리!"
  },
  {
    "label": "053",
    "text": "비행장에서 갈 수 있는 마일 여행과 {{color id=\"3\"}}갑돌{{color id=\"65535\"}}씨의 보트 투어는\n갈 수 있는 섬이 달라구리! 취향이나 그날의 기분에 따라 선택해봐구리!"
  },
  {
    "label": "055",
    "text": "{{color id=\"1\"}}야자열매{{color id=\"65535\"}}도 심으면 야자수가 돼구리.\n모래사장에 심어야만 자라니까 심을 장소에 주의해구리!"
  },
  {
    "label": "057",
    "text": "{{color id=\"1\"}}죽순{{color id=\"65535\"}}을 심으면 대나무를 키울 수 있어구리!\n대나무를 이용한 DIY에 도전하고 싶은 사람은 꼭 심어봐구리!"
  },
  {
    "label": "058",
    "text": "이 시기에는 나무를 흔들면 나무 열매를 얻을 수 있어구리♪\n활엽수에서는 {{color id=\"1\"}}도토리{{color id=\"65535\"}}, 침엽수에서는 {{color id=\"1\"}}솔방울{{color id=\"65535\"}}을 얻을 수 있을 거야구리!"
  },
  {
    "label": "060",
    "text": "이 시기의 대나무에서는 {{color id=\"1\"}}봄의 대나무{{color id=\"65535\"}}를 얻을 수 있어구리!\n계절감 넘치는 DIY를 즐겨주길 바라구리!"
  },
  {
    "label": "061",
    "text": "이 시기에는 해변에 {{color id=\"1\"}}여름 조개껍데기{{color id=\"65535\"}}가 떨어져 있기도 해구리!\n계절감 넘치는 DIY를 즐겨주길 바라구리!"
  },
  {
    "label": "062",
    "text": "이 시기에는 나무 주변에 버섯이 자라나는 경우가 있어구리!\n이 섬에서 나는 버섯은 전부 먹을 수 있으니까 안심해구리!"
  },
  {
    "label": "063",
    "text": "이 시기에는 섬에서 버섯을 딸 수 있는데, 그 중에는 땅 속에서 자라는\n버섯도 있어구리! 희귀한 버섯이니까 잘 찾아보길 바라구리!"
  },
  {
    "label": "064",
    "text": "이 시기에 떠다니는 {{color id=\"1\"}}벚꽃잎{{color id=\"65535\"}}은 {{color id=\"1\"}}잠자리채{{color id=\"65535\"}}가 있으면 잡을 수 있어구리!\n계절감 넘치는 DIY를 즐겨주길 바라구리!"
  },
  {
    "label": "065",
    "text": "이 시기에 떠다니는 {{color id=\"1\"}}단풍잎{{color id=\"65535\"}}은 {{color id=\"1\"}}잠자리채{{color id=\"65535\"}}가 있으면 잡을 수 있어구리!\n계절감 넘치는 DIY를 즐겨주길 바라구리!"
  },
  {
    "label": "066",
    "text": "이 시기에 떠다니는 {{color id=\"1\"}}눈의 결정{{color id=\"65535\"}}은 {{color id=\"1\"}}잠자리채{{color id=\"65535\"}}가 있으면 잡을 수 있어구리!\n계절감 넘치는 DIY를 즐겨주길 바라구리!"
  },
  {
    "label": "079",
    "text": "{{color id=\"1\"}}너굴포트{{color id=\"65535\"}}의 마일 교환 경품인 {{color id=\"1\"}}ATM{{color id=\"65535\"}}이 있으면\n어디서든 돈을 입금하고 출금할 수 있어서 아주 편리해구리!"
  },
  {
    "label": "080",
    "text": "직접 만든 요리는 하나만 먹어도 배가 든든해져구리!\n힘 쓰는 일을 할 땐 요리를 먹는 걸 추천해구리♪"
  },
  {
    "label": "081",
    "text": "이 라이프 서포트를 천천히 다시 읽고 싶을 때는\n나중에 스마트폰의 {{color id=\"1\"}}퍼펙트 라이프 서포트{{color id=\"65535\"}} 앱을 확인해봐구리!"
  },
  {
    "label": "084",
    "text": "{{color id=\"3\"}}파니엘{{color id=\"65535\"}}씨의 촬영 스튜디오에서는 {{color id=\"1\"}}amiibo{{color id=\"65535\"}}로\n좋아하는 모델을 부를 수 있다고 해구리!\n너굴포트에서는 모델분의 포스터를 주문할 수 있어구리!"
  },
  {
    "label": "087",
    "text": "옷가게의 {{color id=\"3\"}}고옥이{{color id=\"65535\"}}는 언제나 바빠 보이지만,\n사실은 손님이 말을 걸어주길 기다리고 있어구리.\n옷을 사러 갔을 땐 꼭 말을 걸어주길 바라구리!"
  },
  {
    "label": "088",
    "text": "나무를 흔들면 다양한 것들이 떨어져구리!\n나뭇가지, 나뭇잎, 벌집… 가끔은 벨이 떨어지기도 한대구리!"
  },
  {
    "label": "089",
    "text": "낚시를 하다가 쓰레기를 낚아도 길에 버리면 안 돼구리!\n쓰레기통에 넣거나 DIY에 활용해줘구리!"
  },
  {
    "label": "091",
    "text": "나무 묘목이나 과일을 심을 때는 간격에 신경 써야 해구리!\n너무 가까우면 큰 나무로 자라지 않으니까 충분한 공간을 확보해줘구리."
  },
  {
    "label": "092",
    "text": "밖에서 활동 중일 땐 {{color id=\"1\"}}{{color id=\"65535\"}}을 위로 기울여서 하늘을 보거나\n아래로 기울여서 내려다보는 등, 시점을 바꿀 수도 있어구리!"
  },
  {
    "label": "093",
    "text": "화면의 오른쪽 위에 {{color id=\"1\"}}{{color id=\"65535\"}}이 표시되면 자동 저장 중이라는 뜻이야구리.\n{{color id=\"1\"}}{{color id=\"65535\"}}전원 버튼을 건드리지 않도록 조심해줘구리!"
  },
  {
    "label": "094",
    "text": "마이 홈에 있는 우편함의 {{color id=\"1\"}}{{color id=\"65535\"}} 램프는 편지가 도착했다는 신호야구리!\n그럴 땐 빨리 우편함을 확인해보길 바라구리!"
  },
  {
    "label": "105",
    "text": "{{color id=\"1\"}}근로자의 날{{color id=\"65535\"}}을 기념해서, 5월 7일까지 기간 한정으로\n주민 여러분께 여행의 기회를 준비했어구리!\n잊지 말고 비행장 카운터에서 출발해주길 바라구리!"
  },
  {
    "label": "107",
    "text": "지금 박물관에서는 {{color id=\"1\"}}국제 박물관의 날{{color id=\"65535\"}} 이벤트를 개최하고 있어구리!\n이 기회에 부디 박물관을 방문해주길 바라구리♪"
  },
  {
    "label": "110",
    "text": "섬에 있는 게시판에는 그림도 그릴 수 있어구리!\n커뮤니케이션에 활용해주길 바라구리!"
  },
  {
    "label": "118",
    "text": "{{color id=\"1\"}}너굴 쇼핑{{color id=\"65535\"}}에서는 오늘의 아이템과 카탈로그 주문 외에도,\n다양한 나라의 이벤트를 기념하는 기간 한정 상품을 판매하기도 해구리!\n여기서도 정보를 제공할 테니까 놓치지 말길 바라구리!"
  },
  {
    "label": "119",
    "text": "{{color id=\"1\"}}너굴 쇼핑{{color id=\"65535\"}}에서는 하루에 한 분당 5개까지만 주문할 수 있어구리.\n원하는 물건이 많을 때는 계획적으로 이용해줘구리!"
  },
  {
    "label": "120",
    "text": "{{color id=\"1\"}}너굴 쇼핑{{color id=\"65535\"}}을 많이 이용하신 단골 고객님께는\n전용 쇼핑 앱을 제공하고 있어구리!"
  },
  {
    "label": "121",
    "text": "＜{{color id=\"1\"}}너굴 쇼핑{{color id=\"65535\"}} 기간 한정 상품 뉴스＞\n1월 5일까지 {{color id=\"1\"}}새해{{color id=\"65535\"}} 관련 상품을 판매 중이야구리!"
  },
  {
    "label": "122",
    "text": "＜{{color id=\"1\"}}너굴 쇼핑{{color id=\"65535\"}} 기간 한정 상품 뉴스＞\n1월 7일까지 {{color id=\"1\"}}일곱 나물죽{{color id=\"65535\"}}{{gender5 m=\"을\" f=\"를\"}} 판매 중이야구리!"
  },
  {
    "label": "123",
    "text": "＜{{color id=\"1\"}}너굴 쇼핑{{color id=\"65535\"}} 기간 한정 상품 뉴스＞\n2월 15일까지 {{color id=\"1\"}}빅 게임{{color id=\"65535\"}} 관련 상품을 판매 중이야구리!"
  },
  {
    "label": "124",
    "text": "＜{{color id=\"1\"}}너굴 쇼핑{{color id=\"65535\"}} 기간 한정 상품 뉴스＞\n2월 2일까지 {{color id=\"1\"}}그라운드호그 데이{{color id=\"65535\"}} 관련 상품을 판매 중이야구리!"
  },
  {
    "label": "125",
    "text": "＜{{color id=\"1\"}}너굴 쇼핑{{color id=\"65535\"}} 기간 한정 상품 뉴스＞\n2월 3일까지 세츠분의 {{color id=\"1\"}}콩 뿌리기 세트{{color id=\"65535\"}}를 판매 중이야구리!"
  },
  {
    "label": "126",
    "text": "＜{{color id=\"1\"}}너굴 쇼핑{{color id=\"65535\"}} 기간 한정 상품 뉴스＞\n2월 3일까지 세츠분의 {{color id=\"1\"}}콩 뿌리기 세트{{color id=\"65535\"}}를 판매 중이야구리!\n※옷가게에서도 한정으로 의상을 판매하고 있어구리♪"
  },
  {
    "label": "127",
    "text": "＜{{color id=\"1\"}}너굴 쇼핑{{color id=\"65535\"}} 기간 한정 상품 뉴스＞\n지금 {{color id=\"1\"}}베네치아 카니발 가면{{color id=\"65535\"}}{{gender5 m=\"을\" f=\"를\"}} 판매 중이야구리!\n판매는 카니발 다음날까지니까 기억해둬구리!"
  },
  {
    "label": "128",
    "text": "＜{{color id=\"1\"}}너굴 쇼핑{{color id=\"65535\"}} 기간 한정 상품 뉴스＞\n2월 14일까지 {{color id=\"1\"}}밸런타인 데이{{color id=\"65535\"}} 관련 상품을 판매 중이야구리!"
  },
  {
    "label": "129",
    "text": "＜{{color id=\"1\"}}너굴 쇼핑{{color id=\"65535\"}} 기간 한정 상품 뉴스＞\n지금은 {{color id=\"1\"}}춘절{{color id=\"65535\"}}과 {{color id=\"1\"}}설날{{color id=\"65535\"}} 관련 상품을 판매 중이야구리!"
  },
  {
    "label": "130",
    "text": "＜{{color id=\"1\"}}너굴 쇼핑{{color id=\"65535\"}} 기간 한정 상품 뉴스＞\n3월 3일까지 {{color id=\"1\"}}히나마츠리{{color id=\"65535\"}} 관련 상품을 판매 중이야구리!"
  },
  {
    "label": "131",
    "text": "＜{{color id=\"1\"}}너굴 쇼핑{{color id=\"65535\"}} 기간 한정 상품 뉴스＞\n3월 14일까지 π 데이를 기념해서 {{color id=\"1\"}}π 파이{{color id=\"65535\"}}를 판매 중이야구리!"
  },
  {
    "label": "132",
    "text": "＜{{color id=\"1\"}}너굴 쇼핑{{color id=\"65535\"}} 기간 한정 상품 뉴스＞\n3월 17일까지 {{color id=\"1\"}}성 패트릭 데이 {{color id=\"65535\"}}관련 상품을 판매 중이야구리!"
  },
  {
    "label": "133",
    "text": "＜{{color id=\"1\"}}너굴 쇼핑{{color id=\"65535\"}} 기간 한정 상품 뉴스＞\n3월 17일까지 {{color id=\"1\"}}성 패트릭 데이 {{color id=\"65535\"}}관련 상품을 판매 중이야구리!\n※옷가게에서도 한정으로 의상을 판매하고 있어구리♪"
  },
  {
    "label": "134",
    "text": "＜{{color id=\"1\"}}너굴 쇼핑{{color id=\"65535\"}} 기간 한정 상품 뉴스＞\n4월 1일까지 {{color id=\"1\"}}만우절{{color id=\"65535\"}}을 위한 코믹 상품을 판매 중이야구리!"
  },
  {
    "label": "135",
    "text": "＜{{color id=\"1\"}}너굴 쇼핑{{color id=\"65535\"}} 기간 한정 상품 뉴스＞\n4월 30일까지 {{color id=\"1\"}}프롬{{color id=\"65535\"}} 관련 상품을 판매 중이야구리!"
  },
  {
    "label": "136",
    "text": "＜{{color id=\"1\"}}너굴 쇼핑{{color id=\"65535\"}} 기간 한정 상품 뉴스＞\n4월 30일까지 {{color id=\"1\"}}프롬{{color id=\"65535\"}} 관련 상품을 판매 중이야구리!\n※옷가게에서도 한정으로 의상을 판매하고 있어구리♪"
  },
  {
    "label": "137",
    "text": "＜{{color id=\"1\"}}너굴 쇼핑{{color id=\"65535\"}} 기간 한정 상품 뉴스＞\n4월 10일까지 식목일을 기념해서 {{color id=\"1\"}}개나리{{color id=\"65535\"}}를 판매 중이야구리!"
  },
  {
    "label": "138",
    "text": "＜{{color id=\"1\"}}너굴 쇼핑{{color id=\"65535\"}} 기간 한정 상품 뉴스＞\n4월 22일까지 지구의 날을 기념해서\n{{color id=\"1\"}}멋진 지구의{{color id=\"65535\"}}를 판매 중이야구리!"
  },
  {
    "label": "139",
    "text": "＜{{color id=\"1\"}}너굴 쇼핑{{color id=\"65535\"}} 기간 한정 상품 뉴스＞\n5월 5일까지 {{color id=\"1\"}}단고노셋쿠{{color id=\"65535\"}} 관련 상품을 판매 중이야구리!"
  },
  {
    "label": "140",
    "text": "＜{{color id=\"1\"}}너굴 쇼핑{{color id=\"65535\"}} 기간 한정 상품 뉴스＞\n5월 31일까지 {{color id=\"1\"}}어머니날{{color id=\"65535\"}} 관련 상품을 판매 중이야구리!"
  },
  {
    "label": "141",
    "text": "＜{{color id=\"1\"}}너굴 쇼핑{{color id=\"65535\"}} 기간 한정 상품 뉴스＞\n지금은 치즈 굴리기 축제를 기념해서\n{{color id=\"1\"}}더블 글로스터 치즈{{color id=\"65535\"}}를 판매 중이야구리!"
  },
  {
    "label": "142",
    "text": "＜{{color id=\"1\"}}너굴 쇼핑{{color id=\"65535\"}} 기간 한정 상품 뉴스＞\n6월 15일까지 {{color id=\"1\"}}국제 어린이날{{color id=\"65535\"}} 관련 상품을 판매 중이야구리!"
  },
  {
    "label": "143",
    "text": "＜{{color id=\"1\"}}너굴 쇼핑{{color id=\"65535\"}} 기간 한정 상품 뉴스＞\n6월 30일까지 {{color id=\"1\"}}아버지날{{color id=\"65535\"}}과 {{color id=\"1\"}}6월의 신부{{color id=\"65535\"}}의\n 관련 상품을 판매 중이야구리!"
  },
  {
    "label": "144",
    "text": "＜{{color id=\"1\"}}너굴 쇼핑{{color id=\"65535\"}} 기간 한정 상품 뉴스＞\n지금은 {{color id=\"1\"}}단오{{color id=\"65535\"}} 관련 상품을 판매 중이야구리!"
  },
  {
    "label": "145",
    "text": "＜{{color id=\"1\"}}너굴 쇼핑{{color id=\"65535\"}} 기간 한정 상품 뉴스＞\n지금은 {{color id=\"1\"}}하지{{color id=\"65535\"}} 관련 상품을 판매 중이야구리!"
  },
  {
    "label": "146",
    "text": "＜{{color id=\"1\"}}너굴 쇼핑{{color id=\"65535\"}} 기간 한정 상품 뉴스＞\n7월 7일까지 {{color id=\"1\"}}소원성취 대나무{{color id=\"65535\"}}를 판매 중이야구리!"
  },
  {
    "label": "147",
    "text": "＜{{color id=\"1\"}}너굴 쇼핑{{color id=\"65535\"}} 기간 한정 상품 뉴스＞\n7월 20일까지 프랑스 혁명기념일을 기념해서\n{{color id=\"1\"}}프리지아 모자{{color id=\"65535\"}}를 판매 중이야구리!"
  },
  {
    "label": "148",
    "text": "＜{{color id=\"1\"}}너굴 쇼핑{{color id=\"65535\"}} 기간 한정 상품 뉴스＞\n지금은 바다의 날을 기념해서 {{color id=\"1\"}}방향키 문장식{{color id=\"65535\"}}을 판매 중이야구리!"
  },
  {
    "label": "149",
    "text": "＜{{color id=\"1\"}}너굴 쇼핑{{color id=\"65535\"}} 기간 한정 상품 뉴스＞\n지금은 카우보이 축제를 기념해서\n{{color id=\"1\"}}로데오풍 스프링 놀이 기구{{color id=\"65535\"}}를 판매 중이야구리!"
  },
  {
    "label": "150",
    "text": "＜{{color id=\"1\"}}너굴 쇼핑{{color id=\"65535\"}} 기간 한정 상품 뉴스＞\n지금은 {{color id=\"1\"}}칠석{{color id=\"65535\"}} 관련 상품을 판매 중이야구리!"
  },
  {
    "label": "151",
    "text": "＜{{color id=\"1\"}}너굴 쇼핑{{color id=\"65535\"}} 기간 한정 상품 뉴스＞\n8월 16일까지 {{color id=\"1\"}}오봉{{color id=\"65535\"}} 관련 상품을 판매 중이야구리!"
  },
  {
    "label": "152",
    "text": "＜{{color id=\"1\"}}너굴 쇼핑{{color id=\"65535\"}} 기간 한정 상품 뉴스＞\n8월 31일까지 토마토 축제를 기념해서\n{{color id=\"1\"}}토마토 축제 티셔츠{{color id=\"65535\"}}를 판매 중이야구리!"
  },
  {
    "label": "153",
    "text": "＜{{color id=\"1\"}}너굴 쇼핑{{color id=\"65535\"}} 기간 한정 상품 뉴스＞\n9월 30일까지 포도 수확제를 기념해서\n{{color id=\"1\"}}포도 수확 바구니{{color id=\"65535\"}}를 판매 중이야구리!"
  },
  {
    "label": "154",
    "text": "＜{{color id=\"1\"}}너굴 쇼핑{{color id=\"65535\"}} 기간 한정 상품 뉴스＞\n지금은 {{color id=\"1\"}}추석{{color id=\"65535\"}} 관련 상품을 판매 중이야구리!"
  },
  {
    "label": "155",
    "text": "＜{{color id=\"1\"}}너굴 쇼핑{{color id=\"65535\"}} 기간 한정 상품 뉴스＞\n11월 3일까지 망자의 날을 기념해서\n{{color id=\"1\"}}마리골드 장식{{color id=\"65535\"}}을 판매 중이야구리!"
  },
  {
    "label": "156",
    "text": "＜{{color id=\"1\"}}너굴 쇼핑{{color id=\"65535\"}} 기간 한정 상품 뉴스＞\n11월 11일까지 성 마틴 데이를 기념해서\n{{color id=\"1\"}}휴대용 랜턴{{color id=\"65535\"}}을 판매 중이야구리!"
  },
  {
    "label": "157",
    "text": "＜{{color id=\"1\"}}너굴 쇼핑{{color id=\"65535\"}} 기간 한정 상품 뉴스＞\n11월 20일까지 시치고산을 기념해서 {{color id=\"1\"}}장수 기원 사탕{{color id=\"65535\"}}을 판매 중이야구리!"
  },
  {
    "label": "158",
    "text": "＜{{color id=\"1\"}}너굴 쇼핑{{color id=\"65535\"}} 기간 한정 상품 뉴스＞\n12월 22일까지 {{color id=\"1\"}}동지{{color id=\"65535\"}} 관련 상품을 판매 중이야구리!"
  },
  {
    "label": "159",
    "text": "＜{{color id=\"1\"}}너굴 쇼핑{{color id=\"65535\"}} 기간 한정 상품 뉴스＞\n6월 21일까지 {{color id=\"1\"}}동지{{color id=\"65535\"}} 관련 상품과 {{color id=\"1\"}}메이폴{{color id=\"65535\"}}{{gender5 m=\"을\" f=\"를\"}} 판매 중이야구리!"
  },
  {
    "label": "160",
    "text": "＜{{color id=\"1\"}}너굴 쇼핑{{color id=\"65535\"}} 기간 한정 상품 뉴스＞\n12월 31일까지 {{color id=\"1\"}}새해 전야{{color id=\"65535\"}} 관련 상품을 판매 중이야구리!"
  },
  {
    "label": "161",
    "text": "과식했을 때 화장실에 가면\n속을 시원하게 비울 수 있어구리!"
  },
  {
    "label": "162",
    "text": "낚싯대 등의 도구는 주머니에서도 꺼낼 수 있지만\n{{color id=\"1\"}}{{color id=\"65535\"}}으로 다른 도구로 바꾸거나 {{color id=\"1\"}}{{color id=\"65535\"}}로 간단하게 집어넣을 수 있어구리!"
  },
  {
    "label": "163",
    "text": "{{color id=\"1\"}}도구도 쉽게! 즐겨찾기{{color id=\"65535\"}}는 {{color id=\"1\"}}{{color id=\"65535\"}}로 열 수 있어구리.\n미리 등록해둔 8개의 도구를 간편하게 바꿀 수 있지구리!"
  },
  {
    "label": "164",
    "text": "눈이 오는 계절에 눈덩이를 발견하면 굴려서 크게 만들어봐구리!\n적당한 사이즈의 눈덩이 2개를 합치면 눈사람을 만들 수 있어구리!"
  },
  {
    "label": "165",
    "text": "밸런스 있는 눈사람을 만들기 위해서는 요령이 필요해구리! 아래쪽 눈덩이는\n크게 만들고, 그것보다 조금 작은 눈덩이를 나중에 올리면 돼구리!"
  }
]