﻿[
  {
    "label": "001",
    "attribute": "0x0000000000000000",
    "text": "{{anim id=\"Shocked\" target=\"actor\" targetSpec=\"\"}}{{capitalizeNextLetter}}{{string value=\"NickName\"}}!{{delay frames=\"30\"}} {{anim id=\"Smiling\" target=\"actor\" targetSpec=\"\"}}You made it!"
  },
  {
    "label": "002",
    "attribute": "0x0000000000000000",
    "text": "{{anim id=\"Smiling\" target=\"actor\" targetSpec=\"\"}}Oh! {{capitalizeNextLetter}}{{string value=\"NickName\"}}!{{delay20}} You're here!"
  },
  {
    "label": "003",
    "attribute": "0x0000000000000000",
    "text": "{{anim id=\"Greeting\" target=\"actor\" targetSpec=\"\"}}Yo, {{string value=\"NickName\"}}! So glad\nyou made it!{{pageBreak}}{{anim id=\"Smiling\" target=\"actor\" targetSpec=\"\"}}Don't be shy.{{delay20}} High dive into\nthe party, {{string value=\"Catchphrase\"}}!"
  },
  {
    "label": "004",
    "attribute": "0x0000020000000000",
    "text": "{{anim id=\"ShyBoy\" target=\"actor\" targetSpec=\"\"}}Heh heh, {{selection value=\"SelectedVillager\"}} gave me\na present earlier.{{delay frames=\"40\"}} {{anim id=\"Nodding\" target=\"actor\" targetSpec=\"\"}}All 'cause today's\nmy special day!{{pageBreak}}{{anim id=\"Grin\" target=\"actor\" targetSpec=\"\"}}I'm going to use my brain muscles\nand guess that maybe you have\nsomething for me too."
  },
  {
    "label": "004_a",
    "attribute": "0x0000000000000000",
    "text": "{{anim id=\"EmotEnd\" target=\"player\" targetSpec=\"\"}}I do!"
  },
  {
    "label": "004_b",
    "attribute": "0x0000000000000000",
    "text": "I do not."
  },
  {
    "label": "005",
    "attribute": "0x0000020000000000",
    "text": "{{anim id=\"Hesitate\" target=\"actor\" targetSpec=\"\"}}I really wasn't expecting anything,\nbut if you happened to have a gift\nfor me, that'd be awesome!"
  },
  {
    "label": "005_a",
    "attribute": "0x0000000000000000",
    "text": "I do have one!"
  },
  {
    "label": "005_b",
    "attribute": "0x0000000000000000",
    "text": "I'm sorry. I don't."
  },
  {
    "label": "006",
    "attribute": "0x0000020000000000",
    "text": "{{anim id=\"Smiling\" target=\"actor\" targetSpec=\"\"}}I really appreciate that you, my good\nfriend, stopped by.{{pageBreak}}{{anim id=\"Pardon\" target=\"actor\" targetSpec=\"\"}}And I'll appreciate it even more if\nyou,{{delay20}} MY GOOD FRIEND,{{delay20}} have a\npresent for me, {{string value=\"Catchphrase\"}}."
  },
  {
    "label": "006_a",
    "attribute": "0x0000000000000000",
    "text": "{{anim id=\"EmotEnd\" target=\"player\" targetSpec=\"\"}}Appreciate this!"
  },
  {
    "label": "006_b",
    "attribute": "0x0000000000000000",
    "text": "{{anim id=\"EmotEnd\" target=\"player\" targetSpec=\"\"}}Appreciate...nothing."
  },
  {
    "label": "007",
    "attribute": "0x0000000000000000",
    "text": "{{anim id=\"ColdChill\" target=\"actor\" targetSpec=\"\"}}Seriously{{string value=\"...\"}}{{pageBreak}}{{anim id=\"ShyBoy\" target=\"actor\" targetSpec=\"\"}}Well, you showed up, and that's\na gift in itself.{{delay frames=\"40\"}}{{anim id=\"BigSmile\" target=\"actor\" targetSpec=\"\"}} Take it easy and\nenjoy yourself, {{string value=\"Catchphrase\"}}!"
  },
  {
    "label": "008",
    "attribute": "0x0000000000000000",
    "text": "{{anim id=\"Surprised\" target=\"actor\" targetSpec=\"\"}}What? No present?{{pageBreak}}{{anim id=\"EmotEnd\" target=\"actor\" targetSpec=\"\"}}Well, I guess that's how it goes.{{delay20}}\n{{anim id=\"OhGeez\" target=\"actor\" targetSpec=\"\"}}It's not like it's my birthday\nor anything{{string value=\"...\"}}{{pageBreak}}{{anim id=\"Smiling\" target=\"actor\" targetSpec=\"\"}}Ah well. You're here.{{delay20}} That's\nwhat matters, {{string value=\"Catchphrase\"}}!"
  },
  {
    "label": "009",
    "attribute": "0x0000000000000000",
    "text": "{{anim id=\"BrokenHeart\" target=\"actor\" targetSpec=\"\"}}No gift{{string value=\"...\"}}{{i10_4}}{{anim id=\"Angry\" target=\"actor\" targetSpec=\"\"}} Did you forget to get\nme something?{{delay frames=\"40\"}} {{anim id=\"WrySmile\" target=\"actor\" targetSpec=\"\"}}Ha ha! {{delay20}}Guess\nI shoulda known better."
  },
  {
    "label": "010",
    "attribute": "0x0000000000000000",
    "text": "{{anim id=\"Shocked\" target=\"actor\" targetSpec=\"\"}}Oh! I don't think we've met.{{anim id=\"EmotEnd\" target=\"actor\" targetSpec=\"\"}}\nMy name is {{string value=\"VillagerName\"}}.{{i10_4}}\n{{anim id=\"Nodding\" target=\"actor\" targetSpec=\"\"}}And today's my birthday!{{pageBreak}}{{anim id=\"Smiling\" target=\"actor\" targetSpec=\"\"}}Wow! Meeting a new workout buddy\non my birthday!{{delay20}} What a cool present!"
  },
  {
    "label": "011",
    "attribute": "0x0000000000000000",
    "text": "{{anim id=\"Eh\" target=\"actor\" targetSpec=\"\"}}Did you forget what you were doing?"
  },
  {
    "label": "014",
    "attribute": "0x0000000000000000",
    "text": "{{anim id=\"HappyDance\" target=\"actor\" targetSpec=\"\"}}Alright!{{delay20}} I wonder what it is!"
  },
  {
    "label": "015",
    "attribute": "0x0000000000000000",
    "text": "{{anim id=\"Smiling\" target=\"actor\" targetSpec=\"\"}}Yeah!{{delay20}} I'm going to open it!"
  },
  {
    "label": "016",
    "attribute": "0x0000000000000000",
    "text": "{{anim id=\"Laughing\" target=\"actor\" targetSpec=\"\"}}YESSSSSS!{{delay20}} I can open it now, right?"
  },
  {
    "label": "017",
    "attribute": "0x0000000000000000",
    "text": "{{anim id=\"Shocked\" target=\"actor\" targetSpec=\"\"}}Ohhhh! A cake-y treat!{{pageBreak}}{{anim id=\"HappyDance\" target=\"actor\" targetSpec=\"\"}}It really feels like a birthday now!"
  },
  {
    "label": "018",
    "attribute": "0x0000000000000000",
    "text": "{{anim id=\"Aha\" target=\"actor\" targetSpec=\"\"}}{{capitalizeNextLetter}}{{wordArticle}}{{fun_0000007D arg=\"0x0000\"}}?!{{pageBreak}}{{anim id=\"Smiling\" target=\"actor\" targetSpec=\"\"}}Ha ha! You got me something\nI already have!{{pageBreak}}{{anim id=\"Nodding\" target=\"actor\" targetSpec=\"\"}}Of course a good bud like you{{anim id=\"BigSmile\" target=\"actor\" targetSpec=\"\"}} would\nknow exactly what kind of stuff\nI like, {{string value=\"6\"}}."
  },
  {
    "label": "019",
    "attribute": "0x0000000000000000",
    "text": "{{anim id=\"Eh\" target=\"actor\" targetSpec=\"\"}}What?{{delay20}} Is that {{wordArticle}}\n{{fun_0000007D arg=\"0x0000\"}}?!{{pageBreak}}{{anim id=\"SmugFace\" target=\"actor\" targetSpec=\"\"}}Ha!{{delay20}} Check it out, {{string value=\"NickName\"}}.\nThis is the exact same thing\nI'm wearing right now.\n{{anim id=\"Nodding\" target=\"actor\" targetSpec=\"\"}}I guess good friends have similar\ntastes, {{string value=\"Catchphrase\"}}!{{delay20}}{{anim id=\"BigSmile\" target=\"actor\" targetSpec=\"\"}} You really\nget me!"
  },
  {
    "label": "019_01",
    "attribute": "0x0000000000000000",
    "text": "{{anim id=\"Smiling\" target=\"actor\" targetSpec=\"\"}}{{capitalizeNextLetter}}{{wordArticle}}{{fun_0000007D arg=\"0x0000\"}}!{{pageBreak}}{{anim id=\"WrySmile\" target=\"actor\" targetSpec=\"\"}}You really know what kind of head\ngear I'm into.{{delay20}} That or, you know{{string value=\"...\"}}you\nscoped out my head-muscle."
  },
  {
    "label": "019_02",
    "attribute": "0x0000000000000000",
    "text": "{{anim id=\"Blushing\" target=\"actor\" targetSpec=\"\"}}My delts really do complement my\n{{fun_0000007D arg=\"0x0000\"}}, huh?{{pageBreak}}{{anim id=\"Nodding\" target=\"actor\" targetSpec=\"\"}}Well, message received.{{delay frames=\"40\"}} {{anim id=\"SmugFace\" target=\"actor\" targetSpec=\"\"}}If you wanna\nsee more of my awesome delts, then\nyou got it, {{string value=\"Catchphrase\"}}!"
  },
  {
    "label": "020",
    "attribute": "0x0000000000000000",
    "text": "{{anim id=\"Shocked\" target=\"actor\" targetSpec=\"\"}}{{capitalizeNextLetter}}{{wordArticle}}{{fun_0000007D arg=\"0x0000\"}}!{{pageBreak}}{{anim id=\"Thinking\" target=\"actor\" targetSpec=\"\"}}I feel like I've seen this before{{string value=\"...\"}}{{i10_4}}\n{{anim id=\"Surprised\" target=\"actor\" targetSpec=\"\"}}{{i10_10}}Hey! {{delay20}}You're wearing this right now!{{pageBreak}}{{i10_9}}{{delay20}}{{anim id=\"Blushing\" target=\"actor\" targetSpec=\"\"}}We're gonna be matching buddies!{{delay20}}\nI'm a little embarrassed to say it, but\nthis makes me really happy!"
  },
  {
    "label": "020_01",
    "attribute": "0x0000000000000000",
    "text": "{{anim id=\"Aha\" target=\"actor\" targetSpec=\"\"}}{{delay20}}Oh cool!{{delay20}} I was just admiring how\nmuscular your head looks in {{wordArticle}}\n{{fun_0000007D arg=\"0x0000\"}}.{{delay20}} {{anim id=\"Smiling\" target=\"actor\" targetSpec=\"\"}}Nice!"
  },
  {
    "label": "020_02",
    "attribute": "0x0000000000000000",
    "text": "{{anim id=\"Aha\" target=\"actor\" targetSpec=\"\"}}{{delay20}}Hey, hey!{{delay20}} Nice{{string value=\"...\"}}just like your\n{{fun_0000007D arg=\"0x0000\"}}!{{pageBreak}}{{anim id=\"Nodding\" target=\"actor\" targetSpec=\"\"}}Hey,{{delay8}} you and me oughta hit the world\ntag-team {{randomSports}} circuit!{{delay20}} {{anim id=\"Smiling\" target=\"actor\" targetSpec=\"\"}}It'll\nbe awesome, {{string value=\"Catchphrase\"}}!"
  },
  {
    "label": "021",
    "attribute": "0x0000000000000000",
    "text": "{{anim id=\"TakenAback\" target=\"actor\" targetSpec=\"\"}}Oh, wow!{{delay20}}\n{{capitalizeNextLetter}}{{wordArticle}}{{fun_0000007D arg=\"0x0000\"}}?{{pageBreak}}{{anim id=\"Frantic\" target=\"actor\" targetSpec=\"\"}}A-are you sure about this? This is\nsuch an expensive gift{{string value=\"...\"}}{{delay frames=\"40\"}} {{anim id=\"Crying\" target=\"actor\" targetSpec=\"\"}}You're\nmaking my smileceps sore!"
  },
  {
    "label": "022",
    "attribute": "0x0000000000000000",
    "text": "{{anim id=\"Surprised\" target=\"actor\" targetSpec=\"\"}}Oh!{{delay20}} Oh, wow.{{delay20}} Did you really{{string value=\"...\"}}\n{{capitalizeNextLetter}}{{wordArticle}}{{fun_0000007D arg=\"0x0000\"}}!{{pageBreak}}{{anim id=\"HappyFlower\" target=\"actor\" targetSpec=\"\"}}You're so cool! I can't believe you\ngot me such an awesome present!"
  },
  {
    "label": "023",
    "attribute": "0x0000000000000000",
    "text": "{{anim id=\"Shocked\" target=\"actor\" targetSpec=\"\"}}What?! An honest-to-goodness\n{{fun_0000007D arg=\"0x0000\"}}?!{{pageBreak}}{{anim id=\"FaintSmile\" target=\"actor\" targetSpec=\"\"}}You get me, {{string value=\"Catchphrase\"}}. You really,\ntotally get me."
  },
  {
    "label": "024",
    "attribute": "0x0000000000000000",
    "text": "{{anim id=\"Shocked\" target=\"actor\" targetSpec=\"\"}}Whoa!{{delay frames=\"40\"}}{{anim id=\"Smiling\" target=\"actor\" targetSpec=\"\"}} That's totally {{wordArticle}}\n{{fun_0000007D arg=\"0x0000\"}}!{{pageBreak}}{{anim id=\"BigSmile\" target=\"actor\" targetSpec=\"\"}}Heh heh!{{delay20}}{{anim id=\"FaintSmile\" target=\"actor\" targetSpec=\"\"}} No doubt about it. You and\nI have similar tastes, {{string value=\"6\"}}."
  },
  {
    "label": "025",
    "attribute": "0x0000000000000000",
    "text": "{{anim id=\"FaintSmile\" target=\"actor\" targetSpec=\"\"}}{{capitalizeNextLetter}}{{wordArticle}}{{fun_0000007D arg=\"0x0000\"}}!{{delay20}}\nYup.{{delay20}} Seems like something\nyou'd choose."
  },
  {
    "label": "026",
    "attribute": "0x0000000000000000",
    "text": "{{anim id=\"Eh\" target=\"actor\" targetSpec=\"\"}}Hmm{{string value=\"...\"}}\n{{capitalizeNextLetter}}{{wordArticle}}{{fun_0000007D arg=\"0x0000\"}}.{{pageBreak}}{{anim id=\"FaintSmile\" target=\"actor\" targetSpec=\"\"}}I'm getting a way better sense of\nyour style.{{delay20}} Cool."
  },
  {
    "label": "027",
    "attribute": "0x0000000000000000",
    "text": "{{anim id=\"TakenAback\" target=\"actor\" targetSpec=\"\"}}What?! Bells?{{delay frames=\"40\"}}{{anim id=\"Worried\" target=\"actor\" targetSpec=\"\"}} This isn't just pocket\nchange here, so I really don't think\nI can take it from you.\n{{anim id=\"Negative\" target=\"actor\" targetSpec=\"\"}}I appreciate the thought, but I have\nto return this to you, {{string value=\"Catchphrase\"}}."
  },
  {
    "label": "028",
    "attribute": "0x0000000000000000",
    "text": "{{anim id=\"EmotEnd\" target=\"actor\" targetSpec=\"\"}}What is this?{{delay20}}{{anim id=\"Thinking\" target=\"actor\" targetSpec=\"\"}} I don't even{{string value=\"...\"}}{{delay frames=\"80\"}} {{anim id=\"Surprised\" target=\"actor\" targetSpec=\"\"}}{{i10_10}}Hey!{{delay20}}\nThis is garbage!{{pageBreak}}{{i10_9}}{{delay20}}{{anim id=\"Angry\" target=\"actor\" targetSpec=\"\"}}You know what? {{delay20}}Even for a practical\njoke, this is just mean, {{string value=\"Catchphrase\"}}."
  },
  {
    "label": "029",
    "attribute": "0x0000000000000000",
    "text": "{{anim id=\"Shocked\" target=\"actor\" targetSpec=\"\"}}Hey! Turnips!{{delay frames=\"40\"}}{{anim id=\"Smiling\" target=\"actor\" targetSpec=\"\"}} Thank you!{{pageBreak}}{{anim id=\"Nodding\" target=\"actor\" targetSpec=\"\"}}These things are great for biceps\nworkouts.{{delay frames=\"40\"}}{{anim id=\"Laughing\" target=\"actor\" targetSpec=\"\"}} I use them as dumbbells!"
  },
  {
    "label": "030",
    "attribute": "0x0000000000000000",
    "text": "{{anim id=\"BigSmile\" target=\"actor\" targetSpec=\"\"}}{{capitalizeNextLetter}}{{wordArticle}}{{fun_0000007D arg=\"0x0000\"}}!{{delay20}}{{anim id=\"FaintSmile\" target=\"actor\" targetSpec=\"\"}}\nThank you so much!{{pageBreak}}{{anim id=\"ShyBoy\" target=\"actor\" targetSpec=\"\"}}You and I have pretty similar\ntastes, {{string value=\"Catchphrase\"}}."
  },
  {
    "label": "031",
    "attribute": "0x0000000000000000",
    "text": "{{anim id=\"QuestionMark\" target=\"actor\" targetSpec=\"\"}}Huh? {{delay20}}That's a DIY recipe for {{wordArticle}}\n{{fun_0000007D arg=\"0x0000\"}}, right?{{pageBreak}}{{anim id=\"Hesitate\" target=\"actor\" targetSpec=\"\"}}That's really muscular of you, but{{string value=\"...\"}}{{delay20}}\nI kinda sprained my brain working on\na DIY project the other day.{{pageBreak}}{{anim id=\"ShyBoy\" target=\"actor\" targetSpec=\"\"}}I gotta rest up my mind right now,\nso I'm gonna pass on this DIY\nrecipe.{{delay20}} Thanks, {{string value=\"Catchphrase\"}}!"
  },
  {
    "label": "048",
    "attribute": "0x0000000000000000",
    "text": "{{anim id=\"Nodding\" target=\"actor\" targetSpec=\"\"}}Thank you.{{delay frames=\"40\"}}{{anim id=\"Smiling\" target=\"actor\" targetSpec=\"\"}} It'd be rude for me to\ntake without giving back.{{delay20}} So here.{{delay20}}\nHave this, {{string value=\"Catchphrase\"}}!"
  },
  {
    "label": "049",
    "attribute": "0x0000000000000000",
    "text": "{{anim id=\"Smiling\" target=\"actor\" targetSpec=\"\"}}Thank you, {{string value=\"NickName\"}}!{{delay20}} And I\nknow it's my birthday, but here's\na little something for you."
  },
  {
    "label": "050",
    "attribute": "0x0000000000000000",
    "text": "{{anim id=\"Smiling\" target=\"actor\" targetSpec=\"\"}}I'll take good care of your present.{{delay20}}\nThank you, {{string value=\"Catchphrase\"}}."
  },
  {
    "label": "051",
    "attribute": "0x0000000000000000",
    "text": "{{anim id=\"Nodding\" target=\"actor\" targetSpec=\"\"}}Thanks for the birthday present.{{delay frames=\"40\"}}\n{{anim id=\"BigSmile\" target=\"actor\" targetSpec=\"\"}}You and me?{{delay20}} Friends for life."
  },
  {
    "label": "052",
    "attribute": "0x0000000000000000",
    "text": "{{anim id=\"Smiling\" target=\"actor\" targetSpec=\"\"}}I gladly accept your generosity.{{delay20}}\nThat's a classy way of sayin',\n\"Thanks for the gift, bud.\""
  },
  {
    "label": "054",
    "attribute": "0x0000000000000000",
    "text": "{{anim id=\"Nodding\" target=\"actor\" targetSpec=\"\"}}Before my next birthday, I'm going \nto make my major {{randomSports}}\ndebut. We're talking big-time, baby.\n{{anim id=\"ShyBoy\" target=\"actor\" targetSpec=\"\"}}I mean, that's my dream anyway.\nMaybe it'll come true, {{string value=\"6\"}}!"
  },
  {
    "label": "055",
    "attribute": "0x0000000000000000",
    "text": "{{anim id=\"SmugFace\" target=\"actor\" targetSpec=\"\"}}My goal this year is a billion squats.{{delay20}}\nMy legs will be so huge, they'll each\nhave their own government!"
  },
  {
    "label": "056",
    "attribute": "0x0000000000000000",
    "text": "{{anim id=\"HappyDance\" target=\"actor\" targetSpec=\"\"}}All this attention makes me feel like\na superhero!{{pageBreak}}{{anim id=\"Dance\" target=\"actor\" targetSpec=\"\"}}Thank you, thank you!{{delay20}} No time for\nautographs, folks!{{delay20}} Gotta go suplex\na volcano, {{string value=\"Catchphrase\"}}!"
  },
  {
    "label": "057",
    "attribute": "0x0000000000000000",
    "text": "{{anim id=\"Nodding\" target=\"actor\" targetSpec=\"\"}}I'm so glad you're here to celebrate\nwith me today.{{pageBreak}}{{anim id=\"Blushing\" target=\"actor\" targetSpec=\"\"}}It's really nice to have good\nfriends, {{string value=\"Catchphrase\"}}."
  },
  {
    "label": "058",
    "attribute": "0x0000000000000000",
    "text": "{{anim id=\"Smiling\" target=\"actor\" targetSpec=\"\"}}I'm so happy you came!{{delay frames=\"40\"}}{{anim id=\"Nodding\" target=\"actor\" targetSpec=\"\"}} My smile's\ngetting a serious workout today!"
  },
  {
    "label": "060",
    "attribute": "0x0000020000000000",
    "text": "{{anim id=\"Pardon\" target=\"actor\" targetSpec=\"\"}}If you have something to GIFT me,\nthere's no time like THE PRESENT,\nright? {{delay20}}RIGHT?!\n{{anim id=\"Grin\" target=\"actor\" targetSpec=\"\"}}I don't know if you can tell{{string value=\"...\"}}{{delay20}}{{anim id=\"BigSmile\" target=\"actor\" targetSpec=\"\"}}but I'm\ntalking in code, {{string value=\"Catchphrase\"}}."
  },
  {
    "label": "060_a",
    "attribute": "0x0000000000000000",
    "text": "{{anim id=\"EmotEnd\" target=\"player\" targetSpec=\"\"}}I PRESENT you this!"
  },
  {
    "label": "060_b",
    "attribute": "0x0000000000000000",
    "text": "{{anim id=\"EmotEnd\" target=\"player\" targetSpec=\"\"}}Please forgift me."
  },
  {
    "label": "061",
    "attribute": "0x0000020000000000",
    "text": "{{anim id=\"HappyFlower\" target=\"actor\" targetSpec=\"\"}}Today's my birthday and I've been\nwaiting for you to show up.{{pageBreak}}{{anim id=\"Shocked\" target=\"actor\" targetSpec=\"\"}}Oh yeah!{{delay frames=\"40\"}}{{anim id=\"Smiling\" target=\"actor\" targetSpec=\"\"}} Did you bring a present?"
  },
  {
    "label": "061_a",
    "attribute": "0x0000000000000000",
    "text": "Of course!"
  },
  {
    "label": "061_b",
    "attribute": "0x0000000000000000",
    "text": "{{anim id=\"EmotEnd\" target=\"player\" targetSpec=\"\"}}A what now?"
  },
  {
    "label": "062",
    "attribute": "0x0000020000000000",
    "text": "{{anim id=\"QuestionMark\" target=\"actor\" targetSpec=\"\"}}We're buds, right,\n{{string value=\"NickName\"}}?{{pageBreak}}{{anim id=\"Hesitate\" target=\"actor\" targetSpec=\"\"}}So, uh, did you happen to get your\nbud a gift for his birthday?"
  },
  {
    "label": "062_a",
    "attribute": "0x0000000000000000",
    "text": "{{anim id=\"EmotEnd\" target=\"player\" targetSpec=\"\"}}Sure did, bud."
  },
  {
    "label": "062_b",
    "attribute": "0x0000000000000000",
    "text": "{{anim id=\"EmotEnd\" target=\"player\" targetSpec=\"\"}}Sorry, bud."
  },
  {
    "label": "064",
    "attribute": "0x0000000000000000",
    "text": "{{anim id=\"Shocked\" target=\"actor\" targetSpec=\"\"}}{{capitalizeNextLetter}}{{string value=\"NickName\"}}! Heading out\nalready, {{string value=\"Catchphrase\"}}?{{pageBreak}}{{anim id=\"Smiling\" target=\"actor\" targetSpec=\"\"}}Well, thanks for stopping by today.{{delay20}}\nAnd thanks for the gift!"
  },
  {
    "label": "065",
    "attribute": "0x0000000000000000",
    "text": "{{anim id=\"Eh\" target=\"actor\" targetSpec=\"\"}}Leaving so soon, {{string value=\"NickName\"}}?{{delay frames=\"40\"}}\n{{anim id=\"Smiling\" target=\"actor\" targetSpec=\"\"}}Well, thanks for today!{{pageBreak}}{{anim id=\"Nodding\" target=\"actor\" targetSpec=\"\"}}And thanks for getting me a present.{{delay frames=\"40\"}}\n{{anim id=\"Greeting\" target=\"actor\" targetSpec=\"\"}}Later, {{string value=\"6\"}}!"
  },
  {
    "label": "066",
    "attribute": "0x0000000000000000",
    "text": "{{anim id=\"Shocked\" target=\"actor\" targetSpec=\"\"}}Leaving already?{{delay frames=\"40\"}}{{anim id=\"ShyBoy\" target=\"actor\" targetSpec=\"\"}} That's cool. Today\nwas fun!{{pageBreak}}{{anim id=\"Smiling\" target=\"actor\" targetSpec=\"\"}}Thanks a bunch for your present.\n{{delay20}}Take care, {{string value=\"Catchphrase\"}}."
  },
  {
    "label": "067",
    "attribute": "0x0000000000000000",
    "text": "{{anim id=\"Eh\" target=\"actor\" targetSpec=\"\"}}Hey, you leavin'?{{pageBreak}}{{anim id=\"Nodding\" target=\"actor\" targetSpec=\"\"}}Well, thanks for coming today, bud."
  },
  {
    "label": "068",
    "attribute": "0x0000000000000000",
    "text": "{{anim id=\"QuestionMark\" target=\"actor\" targetSpec=\"\"}}Taking off, {{string value=\"NickName\"}}?{{delay frames=\"40\"}}\n{{anim id=\"FaintSmile\" target=\"actor\" targetSpec=\"\"}}Well, thanks for today!{{pageBreak}}{{anim id=\"Nodding\" target=\"actor\" targetSpec=\"\"}}I'm so glad you came by to celebrate.{{delay frames=\"40\"}}\n{{anim id=\"Greeting\" target=\"actor\" targetSpec=\"\"}}See you later, {{string value=\"6\"}}."
  },
  {
    "label": "069",
    "attribute": "0x0000000000000000",
    "text": "{{anim id=\"Shocked\" target=\"actor\" targetSpec=\"\"}}Leaving already?{{delay frames=\"40\"}} {{anim id=\"Smiling\" target=\"actor\" targetSpec=\"\"}}It's cool. Today was\nsuper fun!{{pageBreak}}{{anim id=\"Greeting\" target=\"actor\" targetSpec=\"\"}}Glad you made it. We should hang\nout soon, alright, {{string value=\"6\"}}?"
  },
  {
    "label": "071",
    "attribute": "0x0000000000000000",
    "text": "{{anim id=\"Hello\" target=\"actor\" targetSpec=\"\"}}Well, if it isn't {{string value=\"NickName\"}}!{{delay frames=\"40\"}}\n{{anim id=\"Laughing\" target=\"actor\" targetSpec=\"\"}}Ha ha ha! {{delay20}}Good to see you.{{pageBreak}}{{anim id=\"QuestionMark\" target=\"actor\" targetSpec=\"\"}}Who's got bulging biceps and\na new home? {{i10_4}}{{anim id=\"SmugFace\" target=\"actor\" targetSpec=\"\"}}This {{string value=\"VillagerRace\"}}!{{pageBreak}}{{anim id=\"Grin\" target=\"actor\" targetSpec=\"\"}}Oh, AND it's my birthday.{{delay frames=\"40\"}}{{anim id=\"HappyDance\" target=\"actor\" targetSpec=\"\"}} I'm so\nhappy to be celebrating here on\n{{string value=\"OtherIslandName\"}} with you!"
  },
  {
    "label": "072",
    "attribute": "0x0000000000000000",
    "text": "{{anim id=\"QuestionMark\" target=\"actor\" targetSpec=\"\"}}{{capitalizeNextLetter}}{{string value=\"NickName\"}}?!{{delay frames=\"40\"}} You came all\nthe way out to {{string value=\"OtherIslandName\"}}\njust for my birthday?{{pageBreak}}{{anim id=\"Smiling\" target=\"actor\" targetSpec=\"\"}}Wow! {{delay20}}Seeing you is just about the\nmost muscular birthday gift ever.{{delay frames=\"40\"}}\n{{anim id=\"BigSmile\" target=\"actor\" targetSpec=\"\"}}Thank you!{{pageBreak}}{{anim id=\"Nodding\" target=\"actor\" targetSpec=\"\"}}Well, the party's on!{{delay frames=\"40\"}} {{anim id=\"SmugFace\" target=\"actor\" targetSpec=\"\"}}Feel free to grab\nsome free weights and make yourself\nat home, {{string value=\"Catchphrase\"}}."
  },
  {
    "label": "073",
    "attribute": "0x0000000000000000",
    "text": "{{anim id=\"TakenAback\" target=\"actor\" targetSpec=\"\"}}Whoa! {{delay20}}Those are some serious\nbiceps.{{delay frames=\"40\"}} {{anim id=\"Smiling\" target=\"actor\" targetSpec=\"\"}}Have we met? {{delay20}}My name's\n{{string value=\"VillagerName\"}}, {{string value=\"Catchphrase\"}}.{{pageBreak}}{{anim id=\"Thinking\" target=\"actor\" targetSpec=\"\"}}You know, I was just thinking, {{delay20}}\"I hope\nI see some legendary biceps for my\nbirthday.\"{{delay frames=\"40\"}} {{anim id=\"Nodding\" target=\"actor\" targetSpec=\"\"}}And here you are!{{pageBreak}}{{anim id=\"BigSmile\" target=\"actor\" targetSpec=\"\"}}Thanks for making my birthday wish\ncome true. {{delay20}}Enjoy the party!"
  },
  {
    "label": "080",
    "attribute": "0x0000000000000000",
    "text": "{{anim id=\"Nodding\" target=\"actor\" targetSpec=\"\"}}Getting a gift from a visitor? {{delay20}}That's\nmighty{{string value=\"...\"}}{{delay20}}{{anim id=\"Smiling\" target=\"actor\" targetSpec=\"\"}}MIGHTY of you! {{delay20}}Thanks!{{pageBreak}}{{anim id=\"FaintSmile\" target=\"actor\" targetSpec=\"\"}}I've got a thank-you gift here, but{{string value=\"...\"}}{{delay frames=\"40\"}}\n{{anim id=\"Negative\" target=\"actor\" targetSpec=\"\"}}your pockets look like they're gonna\nburst, {{string value=\"Catchphrase\"}}.{{pageBreak}}{{anim id=\"SmugFace\" target=\"actor\" targetSpec=\"\"}}Don't sweat it. {{delay20}}I'm doing a full day of\nworkouts here. {{delay20}}Just clear some space\nand swing back before you leave."
  },
  {
    "label": "081",
    "attribute": "0x0000000000000000",
    "text": "{{anim id=\"Aha\" target=\"actor\" targetSpec=\"\"}}{{delay20}}Hey, you're back! {{delay20}}Ready to lift that\nthank-you gift, {{string value=\"Catchphrase\"}}?{{pageBreak}}{{anim id=\"Smiling\" target=\"actor\" targetSpec=\"\"}}There you go! {{delay20}}Your very own\n{{fun_0004007D arg=\"0x0000\"}}. {{delay frames=\"40\"}}{{anim id=\"Blushing\" target=\"actor\" targetSpec=\"\"}}Just{{string value=\"...\"}}{{delay20}}\nignore the sweat smell."
  },
  {
    "label": "100",
    "attribute": "0x0000020000000000",
    "text": "{{anim id=\"Nodding\" target=\"actor\" targetSpec=\"\"}}Y'know, {{delay20}}{{selection value=\"SelectedVillager\"}} and I\nshare the same birthday.{{pageBreak}}{{anim id=\"Blushing\" target=\"actor\" targetSpec=\"\"}}Crazy coincidence, right?{{delay frames=\"40\"}}{{anim id=\"Smiling\" target=\"actor\" targetSpec=\"\"}} So we\ntalked it out and decided on a joint\nbirthday bash!\n{{anim id=\"HappyDance\" target=\"actor\" targetSpec=\"\"}}Enjoy the party!{{delay20}} And maybe the three\nof us can do some {{randomSports}}\nlater, {{string value=\"Catchphrase\"}}!"
  },
  {
    "label": "100_a",
    "attribute": "0x0000000000000000",
    "text": "{{anim id=\"EmotEnd\" target=\"player\" targetSpec=\"\"}}Here, take this!"
  },
  {
    "label": "100_b",
    "attribute": "0x0000000000000000",
    "text": "Sorry, I got nothing."
  }
]