﻿[
  {
    "label": "002",
    "attribute": "0x0000000000000000",
    "text": "{{anim id=\"BigSmile\" target=\"actor\" targetSpec=\"\"}}Everyone's talking about the fab new\nhouse {{color id=\"3\"}}Tom Nook{{color id=\"65535\"}} built for you!{{pageBreak}}{{anim id=\"Aha\" target=\"actor\" targetSpec=\"\"}}{{delay20}}Ohmigosh! {{delay20}}Do you want some tips on\ninterior design?{{delay frames=\"40\"}} {{anim id=\"EmotEnd\" target=\"actor\" targetSpec=\"\"}}'Cause I'm totes\nthe best at that, {{string value=\"Catchphrase\"}}!{{pageBreak}}{{anim id=\"SmugFace\" target=\"actor\" targetSpec=\"\"}}I know every way there is to store\n{{wordArticle}}{{randomObj}} stage costume.\n{{delay20}}Just say the word!"
  },
  {
    "label": "003",
    "attribute": "0x0000000000000000",
    "text": "{{anim id=\"Pardon\" target=\"actor\" targetSpec=\"\"}}{{capitalizeNextLetter}}{{string value=\"NickName\"}}! {{delay20}}Your house is\nWAY large now! {{delay20}}{{anim id=\"AbsentMindedness\" target=\"actor\" targetSpec=\"\"}}It might even be\nthe biggest one on the island!{{pageBreak}}{{anim id=\"Nodding\" target=\"actor\" targetSpec=\"\"}}You must've worked totes hard\nto earn that home. {{delay20}}{{anim id=\"Love\" target=\"actor\" targetSpec=\"\"}}Ohmigosh.\nSo much respect, {{string value=\"6\"}}!"
  },
  {
    "label": "006",
    "attribute": "0x0000000000000000",
    "text": "{{anim id=\"Smiling\" target=\"actor\" targetSpec=\"\"}}Have you checked out the brand-\nnew {{color id=\"1\"}}Resident Services{{color id=\"65535\"}} building?\nIt's WAY stylish now!{{pageBreak}}{{anim id=\"AbsentMindedness\" target=\"actor\" targetSpec=\"\"}}I might do a photo shoot in there{{string value=\"...\"}}\nThe countertop is so shiny! The light\ncan really catch my eyes."
  },
  {
    "label": "008",
    "attribute": "0x0000000000000000",
    "text": "{{anim id=\"HappyDance\" target=\"actor\" targetSpec=\"\"}}You know how I LOVE shopping?{{i10_4}}\nHow I love to BE shopping?{{i10_4}}\nTo HAVE shopped?{{i10_4}} Well{{string value=\"...\"}}{{pageBreak}}{{anim id=\"Clapping\" target=\"actor\" targetSpec=\"\"}}{{color id=\"1\"}}NOOK'S CRANNY {{color id=\"65535\"}}IS BIGGER NOW!\nAnd the bigger the store,\nthe better the shopping!{{pageBreak}}{{anim id=\"BigSmile\" target=\"actor\" targetSpec=\"\"}}Ohmigosh, that little store has come\na long way! I'm going to be their\nmost loyal customer, {{string value=\"6\"}}!"
  },
  {
    "label": "009",
    "attribute": "0x0000000000000000",
    "text": "{{anim id=\"Eh\" target=\"actor\" targetSpec=\"\"}}Ohmigosh! I saw that {{color id=\"3\"}}Blathers{{color id=\"65535\"}}'s tent\nis up now!{{delay20}}{{anim id=\"Hello\" target=\"actor\" targetSpec=\"\"}} Have you already gone\nand talked to him?\n{{anim id=\"Smiling\" target=\"actor\" targetSpec=\"\"}}He knows all there is to know about\nbugs and fish and fossils.{{delay20}} {{anim id=\"Love\" target=\"actor\" targetSpec=\"\"}}{{delay20}}I could\njust listen to him all day long.{{pageBreak}}{{anim id=\"Serious\" target=\"actor\" targetSpec=\"\"}}{{delay20}}And sometimes you almost have\nto, {{string value=\"6\"}}."
  },
  {
    "label": "010",
    "attribute": "0x0000000000000000",
    "text": "{{anim id=\"ShyBoy\" target=\"actor\" targetSpec=\"\"}}Ohmigosh! I so didn't expect the\n{{color id=\"1\"}}museum {{color id=\"65535\"}}to look this amazing.{{delay20}}\n{{anim id=\"Laughing\" target=\"actor\" targetSpec=\"\"}}I'm so le bonkers about it!{{pageBreak}}{{anim id=\"Nodding\" target=\"actor\" targetSpec=\"\"}}{{color id=\"3\"}}Blathers{{color id=\"65535\"}} def knows how to put on a\nshow. {{anim id=\"Grin\" target=\"actor\" targetSpec=\"\"}}I have to get him to produce\nmy first concert, {{string value=\"6\"}}!"
  },
  {
    "label": "011",
    "attribute": "0x0000000000000000",
    "text": "{{color id=\"1\"}}{{anim id=\"Love\" target=\"actor\" targetSpec=\"\"}}{{color id=\"65535\"}}Ohmigosh, my heart's kabooming\nright out of my chest! {{delay20}}Is that over-\nthe-top?{{delay20}} I don't care! Know why?{{delay20}}\n{{anim id=\"Clapping\" target=\"actor\" targetSpec=\"\"}}{{delay20}}Because we've got a {{color id=\"1\"}}tailor shop {{color id=\"65535\"}}now!\nFAAAAAAAAAAB!{{pageBreak}}{{anim id=\"SmugFace\" target=\"actor\" targetSpec=\"\"}}I'm this island's fashion icon,\nand that's a responsibility,\nmy trendy bestie.{{pageBreak}}{{anim id=\"AbsentMindedness\" target=\"actor\" targetSpec=\"\"}}I need a shop where I can take my\ntime choosing clothes that will make\nyou look at me and say,{{anim id=\"EmotEnd\" target=\"actor\" targetSpec=\"\"}} \"POP STAR!\"{{pageBreak}}{{anim id=\"HappyFlower\" target=\"actor\" targetSpec=\"\"}}I'm going to be hanging around that\nstore so much, they might just hire\nme, {{string value=\"6\"}}."
  },
  {
    "label": "013",
    "attribute": "0x0000000000000000",
    "text": "{{anim id=\"Pardon\" target=\"actor\" targetSpec=\"\"}}Ohmigosh, I am so happy to have a\nway up to the cliffs!{{delay20}} I can go check\nout the scenery anytime!{{pageBreak}}{{anim id=\"EmotEnd\" target=\"actor\" targetSpec=\"\"}}I'm def going to do a photo shoot up\nthere. {{anim id=\"AbsentMindedness\" target=\"actor\" targetSpec=\"\"}}Imagine the sun behind me\nwhile I do fierce martial-arts poses!"
  },
  {
    "label": "014",
    "attribute": "0x0000000000000000",
    "text": "The new resident {{selection value=\"SelectedName\"}}\nmade a solid call moving here.\n{{anim id=\"Explain\" target=\"actor\" targetSpec=\"\"}}I mean, {{string value=\"OtherIslandName\"}} has you!{{pageBreak}}And {{anim id=\"SmugFace\" target=\"actor\" targetSpec=\"\"}}everyone's fave future pop star!{{i10_4}}\n{{anim id=\"EmotEnd\" target=\"actor\" targetSpec=\"\"}}{{delay8}}That's me!{{delay frames=\"40\"}}{{i10_4}} {{anim id=\"Laughing\" target=\"actor\" targetSpec=\"\"}}I know you know that,\nbut it's fun to say.{{pageBreak}}{{anim id=\"Hello\" target=\"actor\" targetSpec=\"\"}}Between the two of us, there's a\nbajillion-percent chance everyday\nlife here will ROCK, {{string value=\"6\"}}!"
  },
  {
    "label": "015",
    "attribute": "0x0000000000000000",
    "text": "{{anim id=\"Aha\" target=\"actor\" targetSpec=\"\"}}{{capitalizeNextLetter}}{{string value=\"NickName\"}}! {{delay20}}Did you hear?!{{delay20}}\n{{anim id=\"Clapping\" target=\"actor\" targetSpec=\"\"}}The {{color id=\"1\"}}museum {{color id=\"65535\"}}has been remodeled!{{delay8}}\nAnd it is AWESOME!\n{{anim id=\"HappyFlower\" target=\"actor\" targetSpec=\"\"}}Now,{{delay8}} when you go in there,{{delay8}} you can\nsee bugs and fish and fossils and\nALSO art!\n{{anim id=\"Negative\" target=\"actor\" targetSpec=\"\"}}And I don't just mean photos of\ncelebrities.{{delay frames=\"40\"}}{{anim id=\"EmotEnd\" target=\"actor\" targetSpec=\"\"}} I mean REAL art.{{delay8}}{{anim id=\"Serious\" target=\"actor\" targetSpec=\"\"}}\nThe nice stuff.\n{{anim id=\"Nodding\" target=\"actor\" targetSpec=\"\"}}You gotta check it out.{{delay20}} I mean,{{anim id=\"SmugFace\" target=\"actor\" targetSpec=\"\"}}\neveryone who's anyone is going\nto want to be seen there.\n{{anim id=\"Negative\" target=\"actor\" targetSpec=\"\"}}But don't worry about it getting too\ncrowded. {{delay20}}{{anim id=\"Smiling\" target=\"actor\" targetSpec=\"\"}}That place is WAY bigger on\nthe inside than it looks."
  },
  {
    "label": "016",
    "attribute": "0x0000000000000000",
    "text": "{{anim id=\"Smiling\" target=\"actor\" targetSpec=\"\"}}Did you hear about the {{color id=\"1\"}}café{{color id=\"65535\"}} that\nopened up in the {{color id=\"1\"}}museum{{color id=\"65535\"}}?{{pageBreak}}{{anim id=\"Explain\" target=\"actor\" targetSpec=\"\"}}{{delay20}}Now we can all enjoy {{color id=\"3\"}}Brewster{{color id=\"65535\"}}'s\namazing coffee anytime we want.\n{{anim id=\"Pardon\" target=\"actor\" targetSpec=\"\"}}All without leaving our island!{{pageBreak}}{{anim id=\"Love\" target=\"actor\" targetSpec=\"\"}}This is the best life, my friend. No\nreason to ever go back to the real\nworld when {{color id=\"3\"}}Brewster{{color id=\"65535\"}}'s right here!"
  }
]