﻿[
  {
    "label": "001",
    "attribute": "0x0000000100000000",
    "text": "{{anim id=\"Worried\" target=\"actor\" targetSpec=\"\"}}그러고 보니 {{delay20}}{{selection value=\"SelectedVillager\"}}님이{{delay20}}\n아프시다는 {{delay8}}이야기를 들었어요{{string value=\"...\"}}{{pageBreak}}{{anim id=\"Restless\" target=\"actor\" targetSpec=\"\"}}시간이 괜찮으시다면{{delay20}}\n병문안을 부탁드릴게요, {{string value=\"6\"}}!"
  },
  {
    "label": "002",
    "attribute": "0x0000000100000000",
    "text": "{{anim id=\"Sighing\" target=\"actor\" targetSpec=\"\"}}그러고 보니 {{delay20}}{{selection value=\"SelectedVillager\"}}님이\n아파서 {{delay20}}집에서 {{delay8}}못 나오신다고 하네요{{string value=\"...\"}}{{pageBreak}}{{anim id=\"Nodding\" target=\"actor\" targetSpec=\"\"}}{{string value=\"4\"}}님이{{delay20}}\n얼굴을 비치면 {{delay8}}기뻐하실 거예요, {{string value=\"6\"}}!"
  },
  {
    "label": "003",
    "attribute": "0x0000000100000000",
    "text": "{{anim id=\"Restless\" target=\"actor\" targetSpec=\"\"}}그러고 보니 {{delay20}}{{selection value=\"SelectedVillager\"}}님이요,{{delay frames=\"40\"}}\n아프셔서 몸 상태가 별로라고 {{delay8}}들었거든요{{string value=\"...\"}}{{pageBreak}}{{anim id=\"Frantic\" target=\"actor\" targetSpec=\"\"}}혹시 괜찮으시면{{delay20}}\n어떤지 한번 보러 가주세요, {{string value=\"6\"}}!"
  }
]