﻿[
  {
    "label": "001_01",
    "attribute": "0x0000000000000000",
    "text": "{{anim id=\"Hello\" target=\"actor\" targetSpec=\"\"}}哟！{{string value=\"NickName\"}}！{{delay frames=\"40\"}}\n{{anim id=\"Nodding\" target=\"actor\" targetSpec=\"\"}}你选择的这个地方{{delay20}}\n{{anim id=\"FaintSmile\" target=\"actor\" targetSpec=\"\"}}很棒哦！{{pageBreak}}{{anim id=\"EmotEnd\" target=\"actor\" targetSpec=\"\"}}今后总有遇到困难的时候，{{delay20}}\n{{anim id=\"Serious\" target=\"actor\" targetSpec=\"\"}}同为住在这座岛上的居民，{{delay20}}\n{{anim id=\"Greeting\" target=\"actor\" targetSpec=\"\"}}就让我们互相帮助吧！{{string value=\"6\"}}。"
  },
  {
    "label": "001_02",
    "attribute": "0x0000000000000000",
    "text": "{{anim id=\"Greeting\" target=\"actor\" targetSpec=\"\"}}哟！{{delay8}}{{string value=\"NickName\"}}！{{delay40}}\n{{anim id=\"Nodding\" target=\"actor\" targetSpec=\"\"}}你为我挑选的搭帐篷的地方{{delay20}}\n{{anim id=\"FaintSmile\" target=\"actor\" targetSpec=\"\"}}真的很棒，我很喜欢！{{pageBreak}}{{anim id=\"EmotEnd\" target=\"actor\" targetSpec=\"\"}}今后总有遇到困难的时候，{{delay20}}\n{{anim id=\"Serious\" target=\"actor\" targetSpec=\"\"}}同为住在这座岛上的居民，{{delay20}}\n{{anim id=\"Greeting\" target=\"actor\" targetSpec=\"\"}}就让我们互相帮助吧！{{string value=\"6\"}}。"
  },
  {
    "label": "002",
    "attribute": "0x0000000000000000",
    "text": "{{anim id=\"Greeting\" target=\"actor\" targetSpec=\"\"}}哟！{{delay8}}{{string value=\"NickName\"}}！{{delay40}}\n{{anim id=\"Nodding\" target=\"actor\" targetSpec=\"\"}}多亏你帮我下定了决心，{{delay20}}\n{{anim id=\"FaintSmile\" target=\"actor\" targetSpec=\"\"}}才顺利选定了搭帐篷的地点。{{pageBreak}}{{anim id=\"EmotEnd\" target=\"actor\" targetSpec=\"\"}}今后总有遇到困难的时候，{{delay20}}\n{{anim id=\"Serious\" target=\"actor\" targetSpec=\"\"}}同为住在这座岛上的居民，{{delay20}}\n{{anim id=\"Greeting\" target=\"actor\" targetSpec=\"\"}}就让我们互相帮助吧！{{string value=\"6\"}}。"
  },
  {
    "label": "003_01",
    "attribute": "0x0000000000000000",
    "text": "{{anim id=\"IdeaBulb\" target=\"actor\" targetSpec=\"\"}}对了！{{delay frames=\"30\"}}{{anim id=\"Smiling\" target=\"actor\" targetSpec=\"\"}}为了感谢你帮我找到住的地方，{{delay20}}\n这{{fun_0000007D arg=\"0x0000\"}}的{{color id=\"1\"}}手册{{color id=\"65535\"}}，\n请你收下吧！"
  },
  {
    "label": "003_02",
    "attribute": "0x0000000000000000",
    "text": "{{anim id=\"BigSmile\" target=\"actor\" targetSpec=\"\"}}我刚来到这座岛的时候，{{delay20}}\n看到到处都是杂草，{{delay20}}\n所以我就想到了一个用杂草制作的{{color id=\"1\"}}DIY{{color id=\"65535\"}}！"
  },
  {
    "label": "003_03",
    "attribute": "0x0000000000000000",
    "text": "{{color id=\"1\"}}{{anim id=\"Smiling\" target=\"actor\" targetSpec=\"\"}}{{color id=\"65535\"}}如果你还不会制作{{color id=\"1\"}}DIY{{color id=\"65535\"}}，{{delay20}}\n可以去找{{color id=\"3\"}}狸克{{color id=\"65535\"}}教你，{{delay8}}\n马上去{{color id=\"1\"}}服务处{{color id=\"65535\"}}看看吧！"
  },
  {
    "label": "003_04",
    "attribute": "0x0000000000000000",
    "text": "{{anim id=\"Smiling\" target=\"actor\" targetSpec=\"\"}}就算是杂草，{{anim id=\"Smiling\" target=\"actor\" targetSpec=\"\"}}换个角度来看，\n也是这座岛的宝贵资源！{{i10_4}}\n让我们一起好好利用吧！{{string value=\"6\"}}。"
  },
  {
    "label": "004",
    "attribute": "0x0000000000000000",
    "text": "{{anim id=\"IdeaBulb\" target=\"actor\" targetSpec=\"\"}}对了、对了！{{delay frames=\"40\"}}\n{{anim id=\"Smiling\" target=\"actor\" targetSpec=\"\"}}为了感谢你帮我找到住的地方，{{delay frames=\"30\"}}\n请收下这份礼物吧！{{pageBreak}}{{anim id=\"Eh\" target=\"actor\" targetSpec=\"\"}}哎呀！{{delay frames=\"30\"}}{{anim id=\"ShyBoy\" target=\"actor\" targetSpec=\"\"}}\n{{delay8}}你的持有物好像满了！{{pageBreak}}{{anim id=\"Nodding\" target=\"actor\" targetSpec=\"\"}}那么，{{delay20}}这份谢礼，{{delay8}}\n我待会儿放到你家的邮箱里吧。{{delay frames=\"40\"}}\n{{anim id=\"Grin\" target=\"actor\" targetSpec=\"\"}}你可别忘了拿哦！{{string value=\"6\"}}。"
  },
  {
    "label": "011",
    "attribute": "0x0000000000000000",
    "text": "{{anim id=\"Shocked\" target=\"actor\" targetSpec=\"\"}}啊！这把伞{{string value=\"...\"}}{{pageBreak}}{{anim id=\"EmotEnd\" target=\"actor\" targetSpec=\"\"}}难道是用我给你的手册\n{{anim id=\"QuestionMark\" target=\"actor\" targetSpec=\"\"}}自己DIY的？{{i10_4}}\n{{anim id=\"Nodding\" target=\"actor\" targetSpec=\"\"}}做得很棒呢！{{anim id=\"Smiling\" target=\"actor\" targetSpec=\"\"}}"
  },
  {
    "label": "012_01",
    "attribute": "0x0000000000000000",
    "text": "{{anim id=\"HappyDance\" target=\"actor\" targetSpec=\"\"}}不光是下雨天，{{delay8}}\n晴天的时候也可以用来遮阳，{{delay20}}\n是不是很棒呀？{{string value=\"6\"}}。{{anim id=\"Smiling\" target=\"actor\" targetSpec=\"\"}}"
  },
  {
    "label": "012_02",
    "attribute": "0x0000000000000000",
    "text": "{{anim id=\"HappyDance\" target=\"actor\" targetSpec=\"\"}}最适合下雨天散步时使用了，不是吗？{{delay40}}\n看到你有用到它，我好开心！{{string value=\"6\"}}。{{anim id=\"Smiling\" target=\"actor\" targetSpec=\"\"}}"
  },
  {
    "label": "012_03",
    "attribute": "0x0000000000000000",
    "text": "{{anim id=\"HappyDance\" target=\"actor\" targetSpec=\"\"}}最适合下雪天散步时使用了，不是吗？{{delay40}}\n看到你有用到它，我好开心！{{string value=\"6\"}}。{{anim id=\"Smiling\" target=\"actor\" targetSpec=\"\"}}"
  },
  {
    "label": "012_04",
    "attribute": "0x0000000000000000",
    "text": "{{anim id=\"HappyDance\" target=\"actor\" targetSpec=\"\"}}不仅仅是下雨天，{{delay8}}\n晴天也可以用它来遮阳，{{delay20}}\n是不是很棒？{{string value=\"6\"}}。{{anim id=\"Smiling\" target=\"actor\" targetSpec=\"\"}}"
  }
]