﻿[
  {
    "label": "001",
    "text": "hap\nbir\nday\nyea\nold"
  },
  {
    "label": "002",
    "text": "lov\ngiv\npre\ngif\nold\nday\ntog\nalw\nwis\nfor\nsen\ngro\ncon\ndec\ncha\nlik\nlov\nfri\n"
  },
  {
    "label": "003",
    "text": "me\ni\nyou\nwe\nus\nwit\nbye\nlat\nsee\nhap\nbir\nday"
  }
]