﻿[
  {
    "label": "001",
    "attribute": "0x0000020000000000",
    "text": "{{anim id=\"Shocked\" target=\"actor\" targetSpec=\"\"}}¿Te vas?{{delay20}} ¿Te has acordado de que\ntenías algún compromiso o qué?"
  },
  {
    "label": "001_a",
    "attribute": "0x0000000000000000",
    "text": "Sí, perdona\nEso me temo"
  },
  {
    "label": "001_b",
    "attribute": "0x0000000000000000",
    "text": "Qué va...\nNo, me quedo aquí"
  },
  {
    "label": "002",
    "attribute": "0x0000020000000000",
    "text": "{{anim id=\"Surprised\" target=\"actor\" targetSpec=\"\"}}¿Qué haces?{{delay20}} ¿Piensas dejarme aquí\nsolo por las buenas?"
  },
  {
    "label": "002_a",
    "attribute": "0x0000000000000000",
    "text": "Sí, lo siento\nPerdona, pero sí"
  },
  {
    "label": "002_b",
    "attribute": "0x0000000000000000",
    "text": "Claro que no\nNo me muevo de aquí"
  },
  {
    "label": "003",
    "attribute": "0x0000020000000000",
    "text": "{{anim id=\"Thinking\" target=\"actor\" targetSpec=\"\"}}¡Alto ahí!{{delay20}} {{anim id=\"Shocked\" target=\"actor\" targetSpec=\"\"}}¿Piensas escaquearte así\nsin más?"
  },
  {
    "label": "003_a",
    "attribute": "0x0000000000000000",
    "text": "Pues... ¿sí?\nEso creo..."
  },
  {
    "label": "003_b",
    "attribute": "0x0000000000000000",
    "text": "¡De ninguna manera!\nDe aquí no me voy"
  },
  {
    "label": "004",
    "attribute": "0x0000000000000000",
    "text": "{{anim id=\"Eh\" target=\"actor\" targetSpec=\"\"}}¿En serio?{{delay20}} {{anim id=\"Grin\" target=\"actor\" targetSpec=\"\"}}Entonces me estás dando\nla excusa perfecta para volver yo\ntambién a casa.\n{{anim id=\"Blushing\" target=\"actor\" targetSpec=\"\"}}Ha sido interesante visitarte y\nconocer un poco más sobre tus\nactividades fuera de la red."
  },
  {
    "label": "005",
    "attribute": "0x0000000000000000",
    "text": "{{anim id=\"Shocked\" target=\"actor\" targetSpec=\"\"}}En ese caso,{{delay8}} ¡me sé de otro que\ntambién se larga!{{pageBreak}}{{anim id=\"Angry\" target=\"actor\" targetSpec=\"\"}}Si no te interesa una charla-coloquio\nsobre blogs de autor conmigo,{{delay8}} yo\ntambién tengo planes alternativos."
  },
  {
    "label": "006",
    "attribute": "0x0000000000000000",
    "text": "{{anim id=\"Nodding\" target=\"actor\" targetSpec=\"\"}}La verdad es que se va haciendo\ntarde.{{delay20}} Me voy a casa también{{string value=\"...\"}}{{pageBreak}}{{anim id=\"Thinking\" target=\"actor\" targetSpec=\"\"}}Pero si necesitas que alguien vigile\ntu colección de retroboinas mientras\nestás fuera,{{delay8}} ¡me quedo!{{string value=\"...\"}}{{delay20}} {{anim id=\"Laughing\" target=\"actor\" targetSpec=\"\"}}Es broma."
  },
  {
    "label": "007",
    "attribute": "0x0000000000000000",
    "text": "{{anim id=\"Sighing\" target=\"actor\" targetSpec=\"\"}}¡Qué alivio! {{delay20}}Creía que me dejabas\naquí como si hubiera venido a visitar\n{{gender2 m=\"al hombre\" f=\"a la mujer\"}} invisible."
  },
  {
    "label": "008",
    "attribute": "0x0000000000000000",
    "text": "{{anim id=\"Worried\" target=\"actor\" targetSpec=\"\"}}Menos mal, {{string value=\"Catchphrase\"}}.{{delay20}} No sé si\nme sentiría muy cómodo si me quedo\nvisitando una casa sin {{gender2 m=\"anfitrión\" f=\"anfitriona\"}}{{string value=\"...\"}}"
  },
  {
    "label": "009",
    "attribute": "0x0000000000000000",
    "text": "{{anim id=\"WrySmile\" target=\"actor\" targetSpec=\"\"}}¡Je, je,{{delay8}} qué bromista eres!{{delay20}} Casi me\nengañas con tu actuación."
  },
  {
    "label": "100",
    "attribute": "0x0000000000000000",
    "text": "{{anim id=\"Sighing\" target=\"actor\" targetSpec=\"\"}}Va siendo hora de que me marche\npor donde he venido.{{pageBreak}}{{anim id=\"Blushing\" target=\"actor\" targetSpec=\"\"}}Creo que hoy te conozco un poco\nmejor que ayer{{string value=\"...\"}}{{delay20}} pero no tanto como\nte conoceré en 50 o 100 visitas más."
  },
  {
    "label": "101",
    "attribute": "0x0000000000000000",
    "text": "{{anim id=\"Thinking\" target=\"actor\" targetSpec=\"\"}}Creo que iré volviendo a casa ya{{string value=\"...\"}}{{delay20}}\n{{anim id=\"BigSmile\" target=\"actor\" targetSpec=\"\"}}¡Espero que podamos repetir la\nvisita otro día, {{string value=\"NickName\"}}!"
  },
  {
    "label": "102",
    "attribute": "0x0000000000000000",
    "text": "{{anim id=\"Nodding\" target=\"actor\" targetSpec=\"\"}}Me ha encantado verte,{{delay8}} pero voy\ntirando de vuelta para casa.{{delay20}}\n{{anim id=\"QuestionMark\" target=\"actor\" targetSpec=\"\"}}¿Seguimos hablando por internet?"
  },
  {
    "label": "200",
    "attribute": "0x0000000000000000",
    "text": "{{fun_0014003C arg=\"\"}}"
  },
  {
    "label": "200_01",
    "attribute": "0x0000020000000000",
    "text": "{{anim id=\"EmotEnd\" target=\"actor\" targetSpec=\"\"}}En fin{{string value=\"...\"}}{{delay20}} {{anim id=\"FaintSmile\" target=\"actor\" targetSpec=\"\"}}Supongo que es hora de que\nme vaya marchando,{{delay8}} {{string value=\"Catchphrase\"}}."
  },
  {
    "label": "200_01_a",
    "attribute": "0x0000000000000000",
    "text": "{{anim id=\"EmotEnd\" target=\"player\" targetSpec=\"\"}}¡No, quédate!"
  },
  {
    "label": "200_01_b",
    "attribute": "0x0000000000000000",
    "text": "{{anim id=\"EmotEnd\" target=\"player\" targetSpec=\"\"}}Vale, ya nos vemos"
  },
  {
    "label": "200_02",
    "attribute": "0x0000020000000000",
    "text": "{{anim id=\"Hello\" target=\"actor\" targetSpec=\"\"}}Creo que ya va siendo hora de que\nme vaya{{string value=\"...\"}}"
  },
  {
    "label": "200_02_a",
    "attribute": "0x0000000000000000",
    "text": "{{anim id=\"EmotEnd\" target=\"player\" targetSpec=\"\"}}¡Espera, quédate!"
  },
  {
    "label": "200_02_b",
    "attribute": "0x0000000000000000",
    "text": "{{anim id=\"EmotEnd\" target=\"player\" targetSpec=\"\"}}Pues hasta luego"
  },
  {
    "label": "203",
    "attribute": "0x0000000000000000",
    "text": "{{fun_0014003C arg=\"\"}}"
  },
  {
    "label": "203_01",
    "attribute": "0x0000000000000000",
    "text": "{{anim id=\"Eh\" target=\"actor\" targetSpec=\"\"}}¿Eso quieres?{{delay20}} {{anim id=\"ShyBoy\" target=\"actor\" targetSpec=\"\"}}Bueno,{{delay8}} en ese caso,{{delay8}}\nsupongo que puedo pasar un rato\nmás por aquí."
  },
  {
    "label": "203_02",
    "attribute": "0x0000000000000000",
    "text": "{{anim id=\"Laughing\" target=\"actor\" targetSpec=\"\"}}¡Je, je!{{delay20}} Me imaginaba que dirías algo\nasí,{{delay8}} {{string value=\"NickName\"}}.{{delay20}} {{anim id=\"WrySmile\" target=\"actor\" targetSpec=\"\"}}¡Gracias!"
  },
  {
    "label": "204",
    "attribute": "0x0000000000000000",
    "text": "{{fun_0014003C arg=\"\"}}"
  },
  {
    "label": "204_01",
    "attribute": "0x0000000000000000",
    "text": "{{anim id=\"OhGeez\" target=\"actor\" targetSpec=\"\"}}Cuando uno está a gusto,{{delay8}} se pasa\nel tiempo volando,{{delay8}} ¿no te parece?{{delay20}}\n{{anim id=\"Greeting\" target=\"actor\" targetSpec=\"\"}}¡«Arrivederci»,{{delay8}} {{string value=\"Catchphrase\"}}!"
  },
  {
    "label": "204_02",
    "attribute": "0x0000000000000000",
    "text": "{{anim id=\"Smiling\" target=\"actor\" targetSpec=\"\"}}Lo he pasado realmente bien hoy.{{delay20}}\n{{anim id=\"Greeting\" target=\"actor\" targetSpec=\"\"}}¡Gracias por crear estos momentos\nmágicos!"
  }
]