﻿[
  {
    "label": "002",
    "attribute": "0x0000000000000000",
    "text": "{{anim id=\"TakenAback\" target=\"actor\" targetSpec=\"\"}}咦、{{delay20}}真的吗？{{i10_4}}\n{{anim id=\"ShyBoy\" target=\"actor\" targetSpec=\"\"}}既然这是你的期望，{{delay20}}\n我断然没有拒绝的理由呀{{string value=\"...\"}}{{pageBreak}}{{anim id=\"Nodding\" target=\"actor\" targetSpec=\"\"}}OK，那我就立刻{{delay20}}\n到这座{{string value=\"32\"}}的{{color id=\"1\"}}服务处{{color id=\"65535\"}}{{delay20}}\n去问一问吧！{{string value=\"6\"}}。"
  },
  {
    "label": "003",
    "attribute": "0x0000000000000000",
    "text": "{{anim id=\"ShyBoy\" target=\"actor\" targetSpec=\"\"}}哎呀{{string value=\"...\"}}{{delay20}}\n虽然我刚才{{delay20}}\n拒绝了你的邀请{{string value=\"...\"}}{{pageBreak}}{{anim id=\"Serious\" target=\"actor\" targetSpec=\"\"}}但现在我又有点动摇了。{{delay frames=\"40\"}}\n{{anim id=\"Silent\" target=\"actor\" targetSpec=\"\"}}都是因为你用那种纯真的眼神{{delay frames=\"40\"}}\n{{anim id=\"Grin\" target=\"actor\" targetSpec=\"\"}}一直盯着我看{{string value=\"...\"}}{{pageBreak}}{{anim id=\"EmotEnd\" target=\"actor\" targetSpec=\"\"}}OK！{{i10_4}}\n{{anim id=\"Nodding\" target=\"actor\" targetSpec=\"\"}}我就{{delay20}}信你一回，{{delay8}}\n移居到这座{{string value=\"32\"}}上来吧！{{pageBreak}}{{anim id=\"FaintSmile\" target=\"actor\" targetSpec=\"\"}}既然决定了，{{delay20}}\n我这就去{{color id=\"1\"}}服务处{{color id=\"65535\"}}询问一下{{delay frames=\"40\"}}\n能不能让我成为这座{{string value=\"32\"}}的居民。{{string value=\"6\"}}。"
  },
  {
    "label": "101",
    "attribute": "0x0000000000000000",
    "text": "{{fun_0014003C arg=\"\"}}"
  },
  {
    "label": "101_01",
    "attribute": "0x0000000000000000",
    "text": "{{anim id=\"ShyBoy\" target=\"actor\" targetSpec=\"\"}}虽然觉得这也不错{{string value=\"...\"}}{{delay20}}\n{{anim id=\"Frantic\" target=\"actor\" targetSpec=\"\"}}不过抱歉！{{delay20}}\n我果然还是做不到啊。{{pageBreak}}{{anim id=\"Serious\" target=\"actor\" targetSpec=\"\"}}我该回去的地方，{{delay8}}\n是那唯一的故乡{{string value=\"...\"}}{{delay20}}\n{{anim id=\"Grin\" target=\"actor\" targetSpec=\"\"}}伙伴们都在等着我呀。{{pageBreak}}{{anim id=\"Hello\" target=\"actor\" targetSpec=\"\"}}但是，{{delay8}}你的心意真叫我开心，{{delay frames=\"40\"}}\n{{anim id=\"Apologize\" target=\"actor\" targetSpec=\"\"}}谢谢你邀请我。{{string value=\"6\"}}。"
  },
  {
    "label": "101_02",
    "attribute": "0x0000000000000000",
    "text": "{{anim id=\"TakenAback\" target=\"actor\" targetSpec=\"\"}}咦{{string value=\"...\"}}你想要我来这座岛？{{i10_4}}\n{{anim id=\"ShyBoy\" target=\"actor\" targetSpec=\"\"}}谢谢你的邀约{{string value=\"...\"}}{{delay20}}\n{{anim id=\"Nodding\" target=\"actor\" targetSpec=\"\"}}但好意我就心领了。{{pageBreak}}{{anim id=\"Serious\" target=\"actor\" targetSpec=\"\"}}虽然这座{{string value=\"32\"}}确实很美，{{delay20}}\n{{anim id=\"Grin\" target=\"actor\" targetSpec=\"\"}}可我现在居住的岛也难以割舍。{{pageBreak}}{{anim id=\"FaintSmile\" target=\"actor\" targetSpec=\"\"}}今天，我就先回去{{delay20}}\n等待着我的伙伴们身边了。{{string value=\"6\"}}。"
  },
  {
    "label": "101_03",
    "attribute": "0x0000000000000000",
    "text": "{{anim id=\"ShyBoy\" target=\"actor\" targetSpec=\"\"}}这个提议真是充满吸引力{{string value=\"...\"}}\n{{anim id=\"Hello\" target=\"actor\" targetSpec=\"\"}}不过抱歉，{{delay20}}还是算了。{{pageBreak}}{{anim id=\"Restless\" target=\"actor\" targetSpec=\"\"}}我喜欢现在住的{{string value=\"32\"}}上{{delay20}}\n那一望无际的海景，{{delay20}}\n暂时不打算离开呀{{string value=\"...\"}}{{pageBreak}}{{anim id=\"Apologize\" target=\"actor\" targetSpec=\"\"}}但还是{{delay8}}谢谢你邀请我，{{delay frames=\"40\"}}\n我很开心哦。{{string value=\"6\"}}。"
  },
  {
    "label": "201_01",
    "attribute": "0x0000010000000000",
    "text": "{{string value=\"...\"}}{{anim id=\"Shocked\" target=\"actor\" targetSpec=\"\"}}咦？{{delay frames=\"40\"}}\n{{anim id=\"Thinking\" target=\"actor\" targetSpec=\"\"}}能得到你这番话我很开心，{{delay20}}\n不过这么突然，我简直无法思考啦。{{pageBreak}}{{anim id=\"Worried\" target=\"actor\" targetSpec=\"\"}}因为没法自己做出选择，{{delay frames=\"40\"}}\n{{anim id=\"QuestionMark\" target=\"actor\" targetSpec=\"\"}}要不要用纸牌游戏来决定？{{pageBreak}}{{anim id=\"Nodding\" target=\"actor\" targetSpec=\"\"}}如果你赢了，{{delay20}}我就搬来这座{{string value=\"32\"}}{{delay frames=\"40\"}}\n{{anim id=\"Serious\" target=\"actor\" targetSpec=\"\"}}如果我赢了，{{delay20}}那我就不搬来这座{{string value=\"32\"}}{{string value=\"...\"}}{{delay20}}\n{{anim id=\"Hello\" target=\"actor\" targetSpec=\"\"}}你看这样如何？{{string value=\"6\"}}。"
  },
  {
    "label": "201_01_a",
    "attribute": "0x0000000000000000",
    "text": "OK！"
  },
  {
    "label": "201_01_b",
    "attribute": "0x0000000000000000",
    "text": "这个有点……"
  },
  {
    "label": "201_02",
    "attribute": "0x0000010000000000",
    "text": "{{anim id=\"WrySmile\" target=\"actor\" targetSpec=\"\"}}好突然的邀约啊{{string value=\"...\"}}{{delay frames=\"30\"}}\n{{anim id=\"Thinking\" target=\"actor\" targetSpec=\"\"}}我本身是非常开心的啦，{{delay20}}\n但想到将来的事，不禁有点犹豫。{{pageBreak}}{{anim id=\"Silent\" target=\"actor\" targetSpec=\"\"}}不如把这一切交给命运，{{delay frames=\"30\"}}\n{{anim id=\"QuestionMark\" target=\"actor\" targetSpec=\"\"}}让纸牌游戏来做出决定吧？{{pageBreak}}{{anim id=\"Nodding\" target=\"actor\" targetSpec=\"\"}}如果你赢了，{{delay20}}我就搬来这座{{string value=\"32\"}}{{delay frames=\"40\"}}\n{{anim id=\"Serious\" target=\"actor\" targetSpec=\"\"}}如果我赢了，{{delay20}}搬家的事就取消，{{i10_4}}\n{{anim id=\"Hello\" target=\"actor\" targetSpec=\"\"}}你看如何？{{string value=\"6\"}}。"
  },
  {
    "label": "201_02_a",
    "attribute": "0x0000000000000000",
    "text": "好啊！"
  },
  {
    "label": "201_02_b",
    "attribute": "0x0000000000000000",
    "text": "才不要"
  },
  {
    "label": "201_03",
    "attribute": "0x0000010000000000",
    "text": "{{anim id=\"Thinking\" target=\"actor\" targetSpec=\"\"}}嗯{{string value=\"...\"}}{{delay20}}\n虽然我也很想这样，{{delay20}}\n但无法立刻做出回答呀～{{pageBreak}}{{string value=\"...\"}}{{anim id=\"IdeaBulb\" target=\"actor\" targetSpec=\"\"}}对了！{{delay frames=\"40\"}}\n{{anim id=\"EmotEnd\" target=\"actor\" targetSpec=\"\"}}如果你愿意的话，{{delay20}}\n{{anim id=\"QuestionMark\" target=\"actor\" targetSpec=\"\"}}要不要用纸牌游戏来决定？{{pageBreak}}{{anim id=\"Nodding\" target=\"actor\" targetSpec=\"\"}}如果你赢了，{{delay20}}我就搬来这座{{string value=\"32\"}}。{{delay frames=\"40\"}}\n{{anim id=\"Serious\" target=\"actor\" targetSpec=\"\"}}如果我赢了，{{delay20}}那搬家的事就先放一放吧。{{i10_4}}\n{{anim id=\"Hello\" target=\"actor\" targetSpec=\"\"}}你看这样如何？{{string value=\"6\"}}。"
  },
  {
    "label": "201_03_a",
    "attribute": "0x0000000000000000",
    "text": "好，来玩！"
  },
  {
    "label": "201_03_b",
    "attribute": "0x0000000000000000",
    "text": "还是算了……"
  },
  {
    "label": "202_01",
    "attribute": "0x0000000000000000",
    "text": "{{anim id=\"Nodding\" target=\"actor\" targetSpec=\"\"}}OK！{{delay20}}\n既然你这么说，虽然有点遗憾，{{delay20}}\n不过还是算了吧。{{string value=\"6\"}}。"
  },
  {
    "label": "202_02",
    "attribute": "0x0000000000000000",
    "text": "{{anim id=\"Worried\" target=\"actor\" targetSpec=\"\"}}是吗{{string value=\"...\"}}\n那就没办法了呢。{{delay frames=\"40\"}}\n{{anim id=\"Apologize\" target=\"actor\" targetSpec=\"\"}}要是害你不开心了，我道歉。{{string value=\"6\"}}。"
  },
  {
    "label": "202_03",
    "attribute": "0x0000000000000000",
    "text": "{{anim id=\"Worried\" target=\"actor\" targetSpec=\"\"}}我知道了{{string value=\"...\"}}{{delay20}}\n{{anim id=\"FaintSmile\" target=\"actor\" targetSpec=\"\"}}既然你不愿意的话，{{delay20}}\n那就算了吧。{{string value=\"6\"}}。"
  },
  {
    "label": "203_01",
    "attribute": "0x0000000000000000",
    "text": "{{anim id=\"Greeting\" target=\"actor\" targetSpec=\"\"}}OK！{{delay frames=\"40\"}}\n{{anim id=\"FaintSmile\" target=\"actor\" targetSpec=\"\"}}那这就开始吧！{{string value=\"6\"}}。"
  },
  {
    "label": "204",
    "attribute": "0x0000000000000000",
    "text": "{{fun_0014003C arg=\"\"}}"
  },
  {
    "label": "204_01",
    "attribute": "0x0000000000000000",
    "text": "{{anim id=\"FaintSmile\" target=\"actor\" targetSpec=\"\"}}是我赢了呢。{{delay frames=\"40\"}}\n{{anim id=\"Hesitate\" target=\"actor\" targetSpec=\"\"}}那么搬家的事，{{delay20}}\n请再让我考虑一下吧。{{string value=\"6\"}}。"
  },
  {
    "label": "204_02",
    "attribute": "0x0000000000000000",
    "text": "{{anim id=\"WrySmile\" target=\"actor\" targetSpec=\"\"}}呵呵呵，{{delay20}}决出胜负了呢。{{delay frames=\"40\"}}\n{{anim id=\"Hello\" target=\"actor\" targetSpec=\"\"}}那么搬家的事{{delay20}}\n就以后再说吧。{{string value=\"6\"}}。"
  },
  {
    "label": "204_03",
    "attribute": "0x0000000000000000",
    "text": "{{anim id=\"FaintSmile\" target=\"actor\" targetSpec=\"\"}}我赢了呢{{string value=\"...\"}}{{delay20}}\n{{anim id=\"Nodding\" target=\"actor\" targetSpec=\"\"}}那搬家的计划就取消啦。{{string value=\"6\"}}。"
  },
  {
    "label": "205",
    "attribute": "0x0000000000000000",
    "text": "{{fun_0014003C arg=\"\"}}"
  },
  {
    "label": "205_01",
    "attribute": "0x0000000000000000",
    "text": "{{anim id=\"Serious\" target=\"actor\" targetSpec=\"\"}}不过，{{delay20}}\n和你一起玩游戏的快乐时光，{{delay frames=\"40\"}}\n{{anim id=\"Grin\" target=\"actor\" targetSpec=\"\"}}一定会永远印在我的心中。{{string value=\"6\"}}。"
  },
  {
    "label": "205_02",
    "attribute": "0x0000000000000000",
    "text": "{{anim id=\"Greeting\" target=\"actor\" targetSpec=\"\"}}谢谢你邀请我来这座{{string value=\"32\"}}！{{i10_4}}\n{{anim id=\"Worried\" target=\"actor\" targetSpec=\"\"}}虽然这次无缘搬来{{string value=\"...\"}}{{delay20}}\n{{anim id=\"Grin\" target=\"actor\" targetSpec=\"\"}}但和你聊天的美好回忆会成为我的珍宝。"
  },
  {
    "label": "205_03",
    "attribute": "0x0000000000000000",
    "text": "{{anim id=\"Serious\" target=\"actor\" targetSpec=\"\"}}看来，{{delay20}}命运女神认为{{string value=\"VillagerName\"}}{{delay8}}\n要搬来这座{{string value=\"32\"}}还太早了。{{delay frames=\"30\"}}\n{{anim id=\"Nodding\" target=\"actor\" targetSpec=\"\"}}不过你邀请我来的事实是不会改变的！{{pageBreak}}{{anim id=\"Silent\" target=\"actor\" targetSpec=\"\"}}只要是真心实意{{string value=\"...\"}}{{delay20}}\n{{anim id=\"Smiling\" target=\"actor\" targetSpec=\"\"}}总是随心所欲的女神也一定会{{delay20}}\n将我们的命运轨迹再次重叠的！"
  },
  {
    "label": "206",
    "attribute": "0x0000000000000000",
    "text": "{{fun_0014003C arg=\"\"}}"
  },
  {
    "label": "206_01",
    "attribute": "0x0000000000000000",
    "text": "{{anim id=\"Smiling\" target=\"actor\" targetSpec=\"\"}}谢谢，{{delay20}}多亏有你，{{delay8}}\n我也下定决心了{{string value=\"...\"}}{{delay20}}\n{{anim id=\"Nodding\" target=\"actor\" targetSpec=\"\"}}我会依照约定，{{delay20}}移居到这座{{string value=\"32\"}}。{{pageBreak}}{{anim id=\"Silent\" target=\"actor\" targetSpec=\"\"}}首先要确定这座岛是否能接纳我，{{delay frames=\"30\"}}\n{{anim id=\"FaintSmile\" target=\"actor\" targetSpec=\"\"}}我去{{color id=\"1\"}}服务处{{color id=\"65535\"}}问问看。{{string value=\"6\"}}。"
  },
  {
    "label": "206_02",
    "attribute": "0x0000000000000000",
    "text": "{{anim id=\"Nodding\" target=\"actor\" targetSpec=\"\"}}恭喜，{{delay20}}是你赢了呢！{{i10_4}}\n{{anim id=\"Silent\" target=\"actor\" targetSpec=\"\"}}{{string value=\"...\"}}也就是说，{{delay frames=\"40\"}}\n{{anim id=\"BigSmile\" target=\"actor\" targetSpec=\"\"}}我决定搬过来啦～！{{string value=\"6\"}}。{{pageBreak}}{{anim id=\"Thinking\" target=\"actor\" targetSpec=\"\"}}虽然我做出了决定{{string value=\"...\"}}\n但也不能自作主张搬过来啊。{{delay frames=\"40\"}}\n{{anim id=\"FaintSmile\" target=\"actor\" targetSpec=\"\"}}得先去{{color id=\"1\"}}服务处{{color id=\"65535\"}}预约一下才行。"
  },
  {
    "label": "206_03",
    "attribute": "0x0000000000000000",
    "text": "{{anim id=\"Serious\" target=\"actor\" targetSpec=\"\"}}胜利女神向你露出了微笑{{string value=\"...\"}}{{delay20}}\n{{anim id=\"Nodding\" target=\"actor\" targetSpec=\"\"}}我将会搬到这座{{string value=\"32\"}}上来。{{delay frames=\"40\"}}\n{{anim id=\"WrySmile\" target=\"actor\" targetSpec=\"\"}}呵呵呵，{{delay20}}毕竟和你约好了嘛。{{pageBreak}}{{anim id=\"FaintSmile\" target=\"actor\" targetSpec=\"\"}}那么，{{delay20}}为了兑现我们之间的约定，{{delay20}}\n我得先去一趟{{color id=\"1\"}}服务处{{color id=\"65535\"}}，{{delay20}}{{color id=\"1\"}}\n{{color id=\"65535\"}}要获得入住的许可才行啊。{{string value=\"6\"}}。"
  },
  {
    "label": "207_01",
    "attribute": "0x0000010000000000",
    "text": "{{anim id=\"Worried\" target=\"actor\" targetSpec=\"\"}}刚刚对不起，{{delay frames=\"30\"}}\n拒绝了你的邀请{{string value=\"...\"}}{{delay frames=\"40\"}}\n{{anim id=\"QuestionMark\" target=\"actor\" targetSpec=\"\"}}能让我再考虑一次吗？{{pageBreak}}{{anim id=\"ShyBoy\" target=\"actor\" targetSpec=\"\"}}{{string value=\"...\"}}话虽如此，{{delay frames=\"40\"}}\n但是我的迷茫仍未消散，{{delay frames=\"40\"}}\n{{anim id=\"Silent\" target=\"actor\" targetSpec=\"\"}}所以我想将命运交给卡片。{{pageBreak}}{{anim id=\"Nodding\" target=\"actor\" targetSpec=\"\"}}如果你赢了，{{delay20}}我就移居到这座{{string value=\"32\"}}上来。{{delay frames=\"40\"}}\n{{anim id=\"Serious\" target=\"actor\" targetSpec=\"\"}}如果我赢了，{{delay20}}我就不移居来这座{{string value=\"32\"}}{{string value=\"...\"}}{{delay20}}\n{{anim id=\"Hello\" target=\"actor\" targetSpec=\"\"}}这样决定，你看如何？{{string value=\"6\"}}。"
  },
  {
    "label": "207_01_a",
    "attribute": "0x0000000000000000",
    "text": "OK！"
  },
  {
    "label": "207_01_b",
    "attribute": "0x0000000000000000",
    "text": "这样有点不妥……"
  },
  {
    "label": "207_02",
    "attribute": "0x0000010000000000",
    "text": "{{anim id=\"Confused\" target=\"actor\" targetSpec=\"\"}}我曾一度拒绝过你，{{delay20}}\n你却又来邀请我{{string value=\"...\"}}{{delay20}}\n{{anim id=\"Love\" target=\"actor\" targetSpec=\"\"}}你真是个温柔的人啊。{{pageBreak}}{{anim id=\"Worried\" target=\"actor\" targetSpec=\"\"}}但我却还在迷茫。{{delay frames=\"30\"}}\n{{anim id=\"Apologize\" target=\"actor\" targetSpec=\"\"}}希望你能原谅{{string value=\"VillagerName\"}}我{{string value=\"...\"}}{{i10_4}}\n{{anim id=\"EmotEnd\" target=\"actor\" targetSpec=\"\"}}好，{{delay20}}这种时候就用纸牌游戏来决定吧！{{pageBreak}}{{anim id=\"Nodding\" target=\"actor\" targetSpec=\"\"}}如果你赢了，{{delay20}}我就移居来这座{{string value=\"32\"}}上。{{delay frames=\"40\"}}\n{{anim id=\"Serious\" target=\"actor\" targetSpec=\"\"}}如果我赢了，{{delay20}}移居就取消。{{i10_4}}\n{{anim id=\"Hello\" target=\"actor\" targetSpec=\"\"}}你觉得如何？{{string value=\"6\"}}。"
  },
  {
    "label": "207_02_a",
    "attribute": "0x0000000000000000",
    "text": "好啊！"
  },
  {
    "label": "207_02_b",
    "attribute": "0x0000000000000000",
    "text": "我不喜欢这样……"
  },
  {
    "label": "207_03",
    "attribute": "0x0000010000000000",
    "text": "{{anim id=\"ShyBoy\" target=\"actor\" targetSpec=\"\"}}我拒绝了你的邀请，{{delay20}}\n你却又向我伸出友谊的手{{string value=\"...\"}}{{delay frames=\"40\"}}\n{{anim id=\"Worried\" target=\"actor\" targetSpec=\"\"}}但是{{delay20}}我还是无法立刻作出回复。{{pageBreak}}{{anim id=\"Silent\" target=\"actor\" targetSpec=\"\"}}这种时候{{string value=\"...\"}}{{delay frames=\"40\"}}\n{{anim id=\"QuestionMark\" target=\"actor\" targetSpec=\"\"}}就用纸牌游戏来做决定吧？{{pageBreak}}{{anim id=\"Nodding\" target=\"actor\" targetSpec=\"\"}}如果你赢了，{{delay20}}我就移居到这座{{string value=\"32\"}}上来。{{delay frames=\"40\"}}\n{{anim id=\"Serious\" target=\"actor\" targetSpec=\"\"}}如果我赢了，{{delay20}}移居的事就暂缓。{{i10_4}}\n{{anim id=\"Hello\" target=\"actor\" targetSpec=\"\"}}你觉得这样如何？{{string value=\"6\"}}。"
  },
  {
    "label": "207_03_a",
    "attribute": "0x0000000000000000",
    "text": "好，来玩吧！"
  },
  {
    "label": "207_03_b",
    "attribute": "0x0000000000000000",
    "text": "还是不了……"
  },
  {
    "label": "208_01",
    "attribute": "0x0000000000000000",
    "text": "{{anim id=\"Nodding\" target=\"actor\" targetSpec=\"\"}}OK！{{delay20}}\n既然这样，那么虽然很遗憾，{{delay20}}\n还是算了吧。{{string value=\"6\"}}。"
  },
  {
    "label": "208_02",
    "attribute": "0x0000000000000000",
    "text": "{{anim id=\"Worried\" target=\"actor\" targetSpec=\"\"}}是吗{{string value=\"...\"}}\n那就没办法了。{{delay frames=\"40\"}}\n{{anim id=\"Apologize\" target=\"actor\" targetSpec=\"\"}}如果害你心情不好了，我道歉。{{string value=\"6\"}}。"
  },
  {
    "label": "208_03",
    "attribute": "0x0000000000000000",
    "text": "{{anim id=\"Worried\" target=\"actor\" targetSpec=\"\"}}我明白了{{string value=\"...\"}}{{delay20}}\n{{anim id=\"FaintSmile\" target=\"actor\" targetSpec=\"\"}}既然你不喜欢，{{delay20}}\n那就不玩了。{{string value=\"6\"}}。"
  },
  {
    "label": "302",
    "attribute": "0x0000010000000000",
    "text": "{{anim id=\"FaintSmile\" target=\"actor\" targetSpec=\"\"}}久等啦！{{delay frames=\"40\"}}\n{{anim id=\"Silent\" target=\"actor\" targetSpec=\"\"}}这座{{string value=\"32\"}}的{{color id=\"1\"}}服务处{{color id=\"65535\"}}，{{delay20}}\n我去问过了{{string value=\"...\"}}{{pageBreak}}{{anim id=\"SadSpiral\" target=\"actor\" targetSpec=\"\"}}结果回答是NO呀{{string value=\"...\"}}{{i10_4}}\n已经没有多余的土地{{delay20}}\n能用来建造房子了{{string value=\"...\"}}{{pageBreak}}{{anim id=\"Serious\" target=\"actor\" targetSpec=\"\"}}话虽如此，也不能随意放弃啊。{{delay frames=\"40\"}}\n{{anim id=\"Explain\" target=\"actor\" targetSpec=\"\"}}我打算和这座{{string value=\"32\"}}上的哪位交涉一下，{{delay20}}\n{{anim id=\"Explain\" target=\"actor\" targetSpec=\"\"}}你允许这种行为吗？"
  },
  {
    "label": "302_a",
    "attribute": "0x0000000000000000",
    "text": "没关系啊"
  },
  {
    "label": "302_b",
    "attribute": "0x0000000000000000",
    "text": "嗯～不好办呢……"
  },
  {
    "label": "303",
    "attribute": "0x0000000000000000",
    "text": "{{anim id=\"Worried\" target=\"actor\" targetSpec=\"\"}}是吗{{string value=\"...\"}}那就没办法了呢。{{delay frames=\"40\"}}\n{{anim id=\"Nodding\" target=\"actor\" targetSpec=\"\"}}我不愿意看到你悲伤的样子，{{delay20}}\n所以这次就放弃吧。{{string value=\"6\"}}。"
  },
  {
    "label": "304",
    "attribute": "0x0000000000000000",
    "text": "{{anim id=\"EmotEnd\" target=\"actor\" targetSpec=\"\"}}一旦决定就立刻付诸行动！{{i10_4}}\n{{anim id=\"EmotEnd\" target=\"actor\" targetSpec=\"\"}}谁会比较有可能{{delay20}}\n{{anim id=\"QuestionMark\" target=\"actor\" targetSpec=\"\"}}愿意答应我的请求呢？{{string value=\"6\"}}。{{pageBreak}}{{anim id=\"Nodding\" target=\"actor\" targetSpec=\"\"}}对了，问过{{color id=\"1\"}}服务处{{color id=\"65535\"}}后得到的消息是，{{delay frames=\"30\"}}\n如果我去拜托这些人的话，{{delay20}}\n有可能会得到正面的答复。"
  },
  {
    "label": "305",
    "attribute": "0x0000030000000000",
    "text": "{{anim id=\"Hello\" target=\"actor\" targetSpec=\"\"}}{{selection value=\"SelectedVillager\"}}{{string value=\"13\"}}是吧？"
  },
  {
    "label": "305_a",
    "attribute": "0x0000000000000000",
    "text": "没错"
  },
  {
    "label": "305_b",
    "attribute": "0x0000000000000000",
    "text": "啊，搞错了！"
  },
  {
    "label": "305_c",
    "attribute": "0x0000000000000000",
    "text": "还是不要吧"
  },
  {
    "label": "306",
    "attribute": "0x0000000000000000",
    "text": "{{anim id=\"Serious\" target=\"actor\" targetSpec=\"\"}}好{{string value=\"...\"}}那我立刻{{delay20}}\n{{anim id=\"EmotEnd\" target=\"actor\" targetSpec=\"\"}}到{{selection value=\"SelectedVillager\"}}{{string value=\"13\"}}那边{{delay20}}\n去交涉一下咯。{{string value=\"6\"}}。"
  },
  {
    "label": "307",
    "attribute": "0x0000000000000000",
    "text": "{{anim id=\"Nodding\" target=\"actor\" targetSpec=\"\"}}没问题，冷静点{{string value=\"...\"}}{{i10_4}}\n{{anim id=\"Serious\" target=\"actor\" targetSpec=\"\"}}那我再问一遍，{{delay frames=\"40\"}}\n{{anim id=\"QuestionMark\" target=\"actor\" targetSpec=\"\"}}我去跟谁交涉比较好呢？"
  },
  {
    "label": "308",
    "attribute": "0x0000000000000000",
    "text": "{{anim id=\"Shocked\" target=\"actor\" targetSpec=\"\"}}咦，是这样吗？{{delay frames=\"40\"}}\n{{anim id=\"Worried\" target=\"actor\" targetSpec=\"\"}}看来你也很犹豫呀{{string value=\"...\"}}{{delay20}}\n{{anim id=\"Nodding\" target=\"actor\" targetSpec=\"\"}}那这次我就放弃吧。{{string value=\"6\"}}。"
  },
  {
    "label": "309",
    "attribute": "0x0000000000000000",
    "text": "{{anim id=\"BigSmile\" target=\"actor\" targetSpec=\"\"}}久等啦！{{delay frames=\"40\"}}　\n{{anim id=\"Silent\" target=\"actor\" targetSpec=\"\"}}我和{{selection value=\"SelectedVillager\"}}{{string value=\"13\"}}{{delay20}}\n交涉的结果是{{string value=\"...\"}}{{pageBreak}}{{anim id=\"Explain\" target=\"actor\" targetSpec=\"\"}}对方好像{{delay20}}\n之前就有搬家的打算！{{delay20}}\n{{anim id=\"Nodding\" target=\"actor\" targetSpec=\"\"}}所以马上就答应了我的请求！{{pageBreak}}{{anim id=\"Hesitate\" target=\"actor\" targetSpec=\"\"}}这下{{delay20}}我们就能成为同一座{{string value=\"32\"}}的伙伴了！{{delay frames=\"40\"}}\n再自我介绍一下，我叫{{string value=\"VillagerName\"}}。{{i10_4}}\n{{anim id=\"Hello\" target=\"actor\" targetSpec=\"\"}}你是{{string value=\"4\"}}，对吧？{{pageBreak}}{{anim id=\"HappyDance\" target=\"actor\" targetSpec=\"\"}}我很期待搬来这里的日子～{{delay20}}\n今后就请多多关照啦～{{delay8}}\n{{string value=\"4\"}}！"
  },
  {
    "label": "309_01",
    "attribute": "0x0000000000000000",
    "text": "{{anim id=\"BigSmile\" target=\"actor\" targetSpec=\"\"}}久等了！{{delay frames=\"40\"}}\n{{anim id=\"Silent\" target=\"actor\" targetSpec=\"\"}}我去对方家里拜访，{{delay frames=\"30\"}}\n{{anim id=\"EmotEnd\" target=\"actor\" targetSpec=\"\"}}但已经人去楼空了{{string value=\"...\"}}{{pageBreak}}{{anim id=\"Explain\" target=\"actor\" targetSpec=\"\"}}也就是说，{{delay20}}看来是已经搬走了。{{delay20}}\n{{anim id=\"Nodding\" target=\"actor\" targetSpec=\"\"}}那么我就不再客气，搬过来吧。{{pageBreak}}{{anim id=\"Greeting\" target=\"actor\" targetSpec=\"\"}}重新介绍一下，我叫{{string value=\"VillagerName\"}}。{{delay frames=\"40\"}}\n{{anim id=\"Hello\" target=\"actor\" targetSpec=\"\"}}你是{{string value=\"...\"}}{{string value=\"4\"}}吗？{{i10_4}}\n{{anim id=\"FaintSmile\" target=\"actor\" targetSpec=\"\"}}今后请多指教。{{string value=\"6\"}}。"
  },
  {
    "label": "310",
    "attribute": "0x0000010000000000",
    "text": "{{anim id=\"Eh\" target=\"actor\" targetSpec=\"\"}}哦呀{{string value=\"...\"}}看来，{{delay frames=\"40\"}}\n{{anim id=\"QuestionMark\" target=\"actor\" targetSpec=\"\"}}你还没有下定决心呀？{{string value=\"6\"}}。"
  },
  {
    "label": "310_a",
    "attribute": "0x0000000000000000",
    "text": "没那种事"
  },
  {
    "label": "310_b",
    "attribute": "0x0000000000000000",
    "text": "我想还是算了"
  },
  {
    "label": "311",
    "attribute": "0x0000000000000000",
    "text": "{{anim id=\"FaintSmile\" target=\"actor\" targetSpec=\"\"}}那就好。{{i10_4}}\n{{anim id=\"Serious\" target=\"actor\" targetSpec=\"\"}}再问一次吧，{{delay frames=\"40\"}}\n{{anim id=\"QuestionMark\" target=\"actor\" targetSpec=\"\"}}我该跟谁交涉才好呢？"
  },
  {
    "label": "312",
    "attribute": "0x0000000000000000",
    "text": "{{anim id=\"Worried\" target=\"actor\" targetSpec=\"\"}}不，没关系的{{string value=\"...\"}}{{delay20}}\n抱歉是我难为你了。{{delay frames=\"40\"}}\n{{anim id=\"Nodding\" target=\"actor\" targetSpec=\"\"}}这次我就放弃吧。{{string value=\"6\"}}。"
  },
  {
    "label": "313",
    "attribute": "0x0000010000000000",
    "text": "{{anim id=\"Aha\" target=\"actor\" targetSpec=\"\"}}太好啦！{{delay frames=\"40\"}}\n{{anim id=\"Hesitate\" target=\"actor\" targetSpec=\"\"}}那我{{delay20}}可以去{{delay20}}\n和{{selection value=\"SelectedVillager\"}}{{string value=\"13\"}}交涉一下吗？{{string value=\"6\"}}。{{pageBreak}}{{anim id=\"Nodding\" target=\"actor\" targetSpec=\"\"}}其实我刚才在{{color id=\"1\"}}服务处{{color id=\"65535\"}}听说，{{delay frames=\"40\"}}\n{{anim id=\"ShyBoy\" target=\"actor\" targetSpec=\"\"}}{{gender3 m=\"他\" f=\"她\"}}有可能{{delay20}}\n愿意接受我的请求{{string value=\"...\"}}"
  },
  {
    "label": "313_a",
    "attribute": "0x0000000000000000",
    "text": "好啊！"
  },
  {
    "label": "313_b",
    "attribute": "0x0000000000000000",
    "text": "还是不太好吧"
  },
  {
    "label": "314",
    "attribute": "0x0000000000000000",
    "text": "{{anim id=\"Worried\" target=\"actor\" targetSpec=\"\"}}这样啊{{string value=\"...\"}}{{delay frames=\"30\"}}\n{{anim id=\"Hello\" target=\"actor\" targetSpec=\"\"}}那么，{{delay20}}这次就先算了吧。{{delay frames=\"40\"}}\n{{anim id=\"Grin\" target=\"actor\" targetSpec=\"\"}}我可不想看到你伤心的表情啊。"
  },
  {
    "label": "404",
    "attribute": "0x0000000000000000",
    "text": "{{anim id=\"FaintSmile\" target=\"actor\" targetSpec=\"\"}}久等啦！{{delay frames=\"40\"}}\n{{anim id=\"Silent\" target=\"actor\" targetSpec=\"\"}}这座{{string value=\"32\"}}的{{color id=\"1\"}}服务处{{color id=\"65535\"}}，{{delay20}}\n我去问过啦{{string value=\"...\"}}{{pageBreak}}{{anim id=\"SadSpiral\" target=\"actor\" targetSpec=\"\"}}结果回答是NO呀{{string value=\"...\"}}{{i10_4}}\n说是现在居民太多了，{{delay20}}\n没工夫登记新居民啦。{{pageBreak}}{{anim id=\"Worried\" target=\"actor\" targetSpec=\"\"}}看来这次是没有缘分吧{{string value=\"...\"}}{{delay frames=\"40\"}}\n{{anim id=\"FaintSmile\" target=\"actor\" targetSpec=\"\"}}不过谢谢你邀请我呀。{{string value=\"6\"}}。"
  },
  {
    "label": "405",
    "attribute": "0x0000000000000000",
    "text": "{{anim id=\"FaintSmile\" target=\"actor\" targetSpec=\"\"}}久等了！{{delay frames=\"40\"}}\n{{anim id=\"Silent\" target=\"actor\" targetSpec=\"\"}}这座{{string value=\"32\"}}的{{color id=\"1\"}}服务处{{color id=\"65535\"}}，{{delay20}}\n我去问过啦{{string value=\"...\"}}{{pageBreak}}{{anim id=\"SadSpiral\" target=\"actor\" targetSpec=\"\"}}结果回答是NO呀{{string value=\"...\"}}{{i10_4}}\n说是没有多余的土地{{delay20}}\n能用来建造房屋了{{string value=\"...\"}}{{pageBreak}}{{anim id=\"Worried\" target=\"actor\" targetSpec=\"\"}}如果有土地似乎就没问题了，{{delay20}}\n但这次看来是没有缘分吧{{string value=\"...\"}}{{delay frames=\"40\"}}\n{{anim id=\"FaintSmile\" target=\"actor\" targetSpec=\"\"}}不过还是谢谢你邀请我。{{string value=\"6\"}}。"
  },
  {
    "label": "406",
    "attribute": "0x0000000000000000",
    "text": "{{anim id=\"FaintSmile\" target=\"actor\" targetSpec=\"\"}}久等啦久等啦！{{delay frames=\"40\"}}\n{{anim id=\"Silent\" target=\"actor\" targetSpec=\"\"}}这座{{string value=\"32\"}}的{{color id=\"1\"}}服务处{{color id=\"65535\"}}，{{delay20}}\n我去问过啦{{string value=\"...\"}}{{pageBreak}}{{anim id=\"BigSmile\" target=\"actor\" targetSpec=\"\"}}对方很痛快就答应了哦！{{i10_4}}\n{{anim id=\"ShyBoy\" target=\"actor\" targetSpec=\"\"}}哎呀～{{delay20}}这次能找到住的地方，{{delay20}}\n真是多亏了你呢～！{{pageBreak}}{{anim id=\"EmotEnd\" target=\"actor\" targetSpec=\"\"}}再自我介绍一下，我叫{{string value=\"VillagerName\"}}。{{i10_4}}\n{{anim id=\"Nodding\" target=\"actor\" targetSpec=\"\"}}你是{{string value=\"...\"}}{{string value=\"4\"}}，对吧？{{delay frames=\"40\"}}\n{{anim id=\"Greeting\" target=\"actor\" targetSpec=\"\"}}请多关照！{{delay8}}{{string value=\"4\"}}！"
  },
  {
    "label": "407",
    "attribute": "0x0000000000000000",
    "text": "{{anim id=\"FaintSmile\" target=\"actor\" targetSpec=\"\"}}久等啦久等啦！{{delay frames=\"40\"}}\n{{anim id=\"Silent\" target=\"actor\" targetSpec=\"\"}}这座{{string value=\"32\"}}的{{color id=\"1\"}}服务处{{color id=\"65535\"}}，{{delay20}}\n我去问过啦{{string value=\"...\"}}{{pageBreak}}{{anim id=\"BigSmile\" target=\"actor\" targetSpec=\"\"}}很痛快就获得了肯定的答复呢！{{i10_4}}\n{{anim id=\"Explain\" target=\"actor\" targetSpec=\"\"}}说是正好有空着的房子，{{delay20}}\n{{anim id=\"Explain\" target=\"actor\" targetSpec=\"\"}}给我住也没关系。{{pageBreak}}{{anim id=\"EmotEnd\" target=\"actor\" targetSpec=\"\"}}再自我介绍一下，我叫{{string value=\"VillagerName\"}}。{{i10_4}}\n{{anim id=\"Nodding\" target=\"actor\" targetSpec=\"\"}}你是{{string value=\"...\"}}{{string value=\"4\"}}，对吧？{{delay frames=\"40\"}}\n{{anim id=\"Greeting\" target=\"actor\" targetSpec=\"\"}}请多关照！{{delay8}}{{string value=\"4\"}}！"
  },
  {
    "label": "410",
    "attribute": "0x0000010000000000",
    "text": "{{anim id=\"Silent\" target=\"actor\" targetSpec=\"\"}}{{string value=\"...\"}}话虽如此，{{delay20}}\n要不要再挑战一下看看？{{pageBreak}}{{anim id=\"Nodding\" target=\"actor\" targetSpec=\"\"}}说不定这一次{{delay20}}\n能得到肯定的答复呢{{string value=\"...\"}}{{string value=\"6\"}}。"
  },
  {
    "label": "410_a",
    "attribute": "0x0000000000000000",
    "text": "没错！"
  },
  {
    "label": "410_b",
    "attribute": "0x0000000000000000",
    "text": "谁知道呢……"
  },
  {
    "label": "411",
    "attribute": "0x0000000000000000",
    "text": "{{anim id=\"ShyBoy\" target=\"actor\" targetSpec=\"\"}}也是啊{{string value=\"...\"}}{{delay20}}\n天下皆难事呀～{{string value=\"6\"}}。"
  },
  {
    "label": "423",
    "attribute": "0x0000000000000000",
    "text": "{{anim id=\"ShyBoy\" target=\"actor\" targetSpec=\"\"}}你居住的这座{{string value=\"32\"}}，{{delay20}}\n实在太受欢迎，都限制移居了呢～{{pageBreak}}{{anim id=\"Nodding\" target=\"actor\" targetSpec=\"\"}}能收到来自人气之{{string value=\"32\"}}的邀请，{{delay20}}\n我深感光荣呀！{{string value=\"6\"}}。"
  },
  {
    "label": "424",
    "attribute": "0x0000000000000000",
    "text": "{{anim id=\"ShyBoy\" target=\"actor\" targetSpec=\"\"}}你居住的这座{{string value=\"32\"}}，{{delay20}}\n收到的移居申请多到{{delay20}}\n都没地方建造房屋了呢～{{pageBreak}}{{anim id=\"Nodding\" target=\"actor\" targetSpec=\"\"}}能收到来自人气之{{string value=\"32\"}}的邀请，{{delay20}}\n我深感光荣呀！{{string value=\"6\"}}。{{pageBreak}}{{anim id=\"Hesitate\" target=\"actor\" targetSpec=\"\"}}希望{{delay20}}等以后有土地空出来出售时，{{delay frames=\"30\"}}\n你能再来邀请我{{string value=\"...\"}}"
  },
  {
    "label": "504",
    "attribute": "0x0000010000000000",
    "text": "{{anim id=\"Hello\" target=\"actor\" targetSpec=\"\"}}这座{{string value=\"32\"}}上的自然风光真可谓无与伦比。{{delay frames=\"40\"}}\n{{anim id=\"AbsentMindedness\" target=\"actor\" targetSpec=\"\"}}要是每天生活在如此环境中，{{delay20}}\n疲惫的心灵应该能得到治愈吧～{{string value=\"6\"}}。"
  },
  {
    "label": "504_a",
    "attribute": "0x0000000000000000",
    "text": "那你住下吧？"
  },
  {
    "label": "504_b",
    "attribute": "0x0000000000000000",
    "text": "多谢夸赞！"
  },
  {
    "label": "505",
    "attribute": "0x0000000000000000",
    "text": "{{anim id=\"ShyBoy\" target=\"actor\" targetSpec=\"\"}}我确实也有考虑过移居{{string value=\"...\"}}{{delay frames=\"30\"}}\n{{anim id=\"Nodding\" target=\"actor\" targetSpec=\"\"}}不过我想，等我对这座{{string value=\"32\"}}了解更全面些，{{delay20}}\n再搬来也不迟。{{pageBreak}}{{anim id=\"Restless\" target=\"actor\" targetSpec=\"\"}}我回去后会重温我们在这座{{string value=\"32\"}}上的回忆，{{delay20}}\n也希望你能再次向我发出邀请～{{string value=\"6\"}}。"
  },
  {
    "label": "506",
    "attribute": "0x0000000000000000",
    "text": "{{anim id=\"Serious\" target=\"actor\" targetSpec=\"\"}}或许这里就是{{string value=\"...\"}}{{delay20}}\n{{anim id=\"Grin\" target=\"actor\" targetSpec=\"\"}}万物生灵的乐园。{{string value=\"6\"}}。"
  },
  {
    "label": "507",
    "attribute": "0x0000010000000000",
    "text": "{{anim id=\"FaintSmile\" target=\"actor\" targetSpec=\"\"}}这座{{string value=\"32\"}}上时光流淌得从容不迫。{{delay frames=\"40\"}}\n{{anim id=\"AbsentMindedness\" target=\"actor\" targetSpec=\"\"}}当想要与自己坦诚相待时，{{delay20}}\n感觉能从中汲取力量{{string value=\"...\"}}"
  },
  {
    "label": "507_a",
    "attribute": "0x0000000000000000",
    "text": "那你住下吧？"
  },
  {
    "label": "507_b",
    "attribute": "0x0000000000000000",
    "text": "多谢夸赞！"
  },
  {
    "label": "508",
    "attribute": "0x0000000000000000",
    "text": "{{anim id=\"ShyBoy\" target=\"actor\" targetSpec=\"\"}}你愿意邀请我，我很开心。{{delay frames=\"30\"}}\n{{anim id=\"Serious\" target=\"actor\" targetSpec=\"\"}}不过我认为，{{delay20}}\n我还没有在这座{{string value=\"32\"}}居住的资格。{{pageBreak}}{{anim id=\"Thinking\" target=\"actor\" targetSpec=\"\"}}我还一点都不懂得{{string value=\"IslandName\"}}，{{delay20}}\n只对它抱有微乎其微的期许{{string value=\"...\"}}{{pageBreak}}{{anim id=\"Hesitate\" target=\"actor\" targetSpec=\"\"}}我还想更了解这座{{string value=\"32\"}}，{{delay20}}\n只要你愿意邀请我，{{delay20}}\n我下次还会再来～{{string value=\"6\"}}。"
  },
  {
    "label": "509",
    "attribute": "0x0000000000000000",
    "text": "{{anim id=\"Greeting\" target=\"actor\" targetSpec=\"\"}}需要致谢的人是我。{{delay frames=\"40\"}}\n{{anim id=\"FaintSmile\" target=\"actor\" targetSpec=\"\"}}我在这座岛上度过了意义非凡的时间，{{delay20}}\n心情也因此焕然一新，{{delay20}}感激不尽！"
  }
]