﻿[
  {
    "label": "001",
    "attribute": "0x0000000000000000",
    "text": "{{anim id=\"ShyBoy\" target=\"actor\" targetSpec=\"\"}}Discúlpame por lo de antes.{{delay20}} Estaba\nun poco enfermo y no tenía ganas de\nver a nadie.{{delay20}}\n{{anim id=\"Aha\" target=\"actor\" targetSpec=\"\"}}¡Pero ya me siento mejor!{{delay20}} {{anim id=\"Nodding\" target=\"actor\" targetSpec=\"\"}}Suerte\nque {{selection value=\"SelectedName\"}} me trajo\nun {{color id=\"1\"}}{{wordInfo gender=\"1\" indefArticle=\"1\" defArticle=\"3\"}}medicamento {{color id=\"65535\"}}superefectivo.\n{{anim id=\"Dance\" target=\"actor\" targetSpec=\"\"}}¡Vuelvo a ser el {{string value=\"VillagerName\"}}\nque todo el mundo conoce y admira!"
  },
  {
    "label": "002",
    "attribute": "0x0000000000000000",
    "text": "{{anim id=\"Apologize\" target=\"actor\" targetSpec=\"\"}}Lamento que me hayas visto en esas\ncondiciones.{{delay20}} No estaba en mi mejor momento.{{pageBreak}}{{anim id=\"EmotEnd\" target=\"actor\" targetSpec=\"\"}}¡Pero ya me recuperé!{{delay20}} Y todo se lo\ndebo a {{selection value=\"SelectedName\"}} por haberme traído un {{color id=\"1\"}}{{wordInfo gender=\"1\" indefArticle=\"1\" defArticle=\"3\"}}medicamento{{color id=\"65535\"}}."
  },
  {
    "label": "003",
    "attribute": "0x0000000000000000",
    "text": "{{anim id=\"ShyBoy\" target=\"actor\" targetSpec=\"\"}}Perdona lo del otro día.{{delay20}} Cuando\nviniste a verme,{{delay8}} me sentía bastante\nmal de salud.{{delay20}}\n{{anim id=\"Aha\" target=\"actor\" targetSpec=\"\"}}¡Pero ya estoy mejor!{{delay20}} {{anim id=\"Nodding\" target=\"actor\" targetSpec=\"\"}}Tengo que\nagradecerle a {{selection value=\"SelectedName\"}}\npor traerme un {{color id=\"1\"}}{{wordInfo gender=\"1\" indefArticle=\"1\" defArticle=\"3\"}}medicamento{{color id=\"65535\"}}.\n{{anim id=\"Dance\" target=\"actor\" targetSpec=\"\"}}¡Volvió el {{string value=\"VillagerName\"}}\nque causa sensación por dondequiera que pasa!"
  },
  {
    "label": "004",
    "attribute": "0x0000000000000000",
    "text": "{{anim id=\"Apologize\" target=\"actor\" targetSpec=\"\"}}Lamento que tuvieras que verme en\nesas condiciones el otro día.{{delay20}} No me\nsentía demasiado bien.\n{{anim id=\"EmotEnd\" target=\"actor\" targetSpec=\"\"}}¡Pero ya me recuperé!{{delay20}} Y se lo\ndebo a {{selection value=\"SelectedName\"}},{{delay8}} que me\ntrajo un {{color id=\"1\"}}{{wordInfo gender=\"1\" indefArticle=\"1\" defArticle=\"3\"}}medicamento{{color id=\"65535\"}}."
  },
  {
    "label": "005",
    "attribute": "0x0000000000000000",
    "text": "{{anim id=\"Serious\" target=\"actor\" targetSpec=\"\"}}Quizás no te parezca ahora,{{delay8}} pero\nantes estaba realmente mal.{{delay20}}\n{{anim id=\"Negative\" target=\"actor\" targetSpec=\"\"}}No tenía ganas de nada{{string value=\"...\"}}\n{{anim id=\"Aha\" target=\"actor\" targetSpec=\"\"}}Gracias a {{selection value=\"SelectedName\"}},{{delay8}} que\nfue mi ángel de la guarda y me trajo\nun {{color id=\"1\"}}{{wordInfo gender=\"1\" indefArticle=\"1\" defArticle=\"3\"}}medicamento{{color id=\"65535\"}},{{delay8}} {{anim id=\"Cheering\" target=\"actor\" targetSpec=\"\"}}¡ya estoy mejor!"
  },
  {
    "label": "006",
    "attribute": "0x0000000000000000",
    "text": "{{anim id=\"Explain\" target=\"actor\" targetSpec=\"\"}}Antes me sentía tan mal{{string value=\"...\"}} que, si\nhubieras pasado a verme,{{delay8}} no habría\npodido atenderte como acostumbro.{{pageBreak}}{{anim id=\"EmotEnd\" target=\"actor\" targetSpec=\"\"}}Por suerte,{{delay8}} {{selection value=\"SelectedName\"}}\nvino y me trajo un {{color id=\"1\"}}{{wordInfo gender=\"1\" indefArticle=\"1\" defArticle=\"3\"}}medicamento{{color id=\"65535\"}} de lo\nmás efectivo."
  },
  {
    "label": "007",
    "attribute": "0x0000000000000000",
    "text": "{{anim id=\"Serious\" target=\"actor\" targetSpec=\"\"}}Quizá hoy no te parezca,{{delay8}} pero\nel otro día me sentía realmente\nmal.{{delay20}} {{anim id=\"Negative\" target=\"actor\" targetSpec=\"\"}}No tenía ganas de nada{{string value=\"...\"}}\n{{anim id=\"Aha\" target=\"actor\" targetSpec=\"\"}}Menos mal que {{selection value=\"SelectedName\"}}\nfue mi ángel de la guarda y me trajo \nun {{color id=\"1\"}}{{wordInfo gender=\"1\" indefArticle=\"1\" defArticle=\"3\"}}medicamento{{color id=\"65535\"}}.{{delay20}} {{anim id=\"Cheering\" target=\"actor\" targetSpec=\"\"}}¡Y ya estoy bien!"
  },
  {
    "label": "008",
    "attribute": "0x0000000000000000",
    "text": "{{anim id=\"Explain\" target=\"actor\" targetSpec=\"\"}}El otro día me sentía tan mal{{string value=\"...\"}} que\nsi hubieras venido a verme,{{delay8}} no habría\npodido atenderte como se debe.{{pageBreak}}{{anim id=\"EmotEnd\" target=\"actor\" targetSpec=\"\"}}Por suerte,{{delay8}} {{selection value=\"SelectedName\"}} pasó y me trajo un {{color id=\"1\"}}{{wordInfo gender=\"1\" indefArticle=\"1\" defArticle=\"3\"}}medicamento {{color id=\"65535\"}}de primera calidad."
  },
  {
    "label": "101",
    "attribute": "0x0000000000000000",
    "text": "{{anim id=\"Sighing\" target=\"actor\" targetSpec=\"\"}}Mil gracias por el gesto de traerme\nun {{color id=\"1\"}}{{wordInfo gender=\"1\" indefArticle=\"1\" defArticle=\"3\"}}medicamento{{color id=\"65535\"}},{{delay8}} {{string value=\"NickName\"}}.{{delay20}}\n¡Te debo un favor de los grandes!\n{{anim id=\"Grin\" target=\"actor\" targetSpec=\"\"}}La pasé tan mal{{string value=\"...\"}}{{delay20}} que podría escribir\nun capítulo de lo más dramático en mi autobiografía."
  },
  {
    "label": "102",
    "attribute": "0x0000000000000000",
    "text": "{{anim id=\"Thinking\" target=\"actor\" targetSpec=\"\"}}¿Qué tipo de {{color id=\"1\"}}medicamento {{color id=\"65535\"}}era ese\nque me diste?{{delay20}}{{anim id=\"Nodding\" target=\"actor\" targetSpec=\"\"}} ¡Funcionó al instante\ny me dejó como nuevo!\n{{anim id=\"Shocked\" target=\"actor\" targetSpec=\"\"}}Espera{{string value=\"...\"}}{{delay20}} ¿No sería simplemente uno\nde esos placebos?{{delay frames=\"40\"}} {{anim id=\"WrySmile\" target=\"actor\" targetSpec=\"\"}}¿Me sugestioné\nsolo porque viniste a visitarme?{{pageBreak}}{{anim id=\"Negative\" target=\"actor\" targetSpec=\"\"}}No,{{delay8}} seguro que fue el medicamento.{{delay20}}\n{{anim id=\"OhGeez\" target=\"actor\" targetSpec=\"\"}}¡Yo no soy fácil de engañar!"
  },
  {
    "label": "103",
    "attribute": "0x0000000000000000",
    "text": "{{anim id=\"Sighing\" target=\"actor\" targetSpec=\"\"}}Qué alivio{{string value=\"...\"}}{{delay20}} Creo que nunca antes\nhabía estado tan enfermo.{{pageBreak}}{{anim id=\"Hesitate\" target=\"actor\" targetSpec=\"\"}}Y el gesto que tuviste conmigo\ntambién pasará a la historia.{{delay20}} {{anim id=\"HappyFlower\" target=\"actor\" targetSpec=\"\"}}\n¡Eres {{gender2 m=\"el\" f=\"la\"}} mejor, {{string value=\"NickName\"}}!"
  }
]