﻿[
  {
    "label": "001",
    "attribute": "0x0000000000000000",
    "text": "{{fun_0014003C arg=\"\"}}"
  },
  {
    "label": "001_01",
    "attribute": "0x0000000000000000",
    "text": "{{color id=\"5\"}}{{anim id=\"Sleep\" target=\"actor\" targetSpec=\"\"}}Zzz...{{delay8}} Chrrr...{{delay8}} Püüüh...{{delay20}}{{color id=\"65535\"}}\n{{anim id=\"Shocked\" target=\"actor\" targetSpec=\"\"}}Oh!{{anim id=\"EmotEnd\" target=\"actor\" targetSpec=\"\"}}{{i10_7 arg=\"90\"}}"
  },
  {
    "label": "001_02",
    "attribute": "0x0000000000000000",
    "text": "{{anim id=\"Sleep\" target=\"actor\" targetSpec=\"\"}}{{color id=\"5\"}}Hnnn...{{delay8}} Hmmm...{{delay20}}{{color id=\"65535\"}}\n{{anim id=\"Pardon\" target=\"actor\" targetSpec=\"\"}}Hngf?!{{anim id=\"EmotEnd\" target=\"actor\" targetSpec=\"\"}}{{i10_7 arg=\"90\"}}"
  },
  {
    "label": "001_03",
    "attribute": "0x0000000000000000",
    "text": "{{anim id=\"Sleep\" target=\"actor\" targetSpec=\"\"}}Heheheh...{{delay8}} Heheheheh...{{delay20}}\n{{anim id=\"Eh\" target=\"actor\" targetSpec=\"\"}}Ha-HA?{{anim id=\"EmotEnd\" target=\"actor\" targetSpec=\"\"}}{{i10_7 arg=\"90\"}}"
  },
  {
    "label": "010",
    "attribute": "0x0000000000000000",
    "text": "{{fun_0014003C arg=\"\"}}"
  },
  {
    "label": "010_01",
    "attribute": "0x0000000000000000",
    "text": "{{anim id=\"OhGeez\" target=\"actor\" targetSpec=\"\"}}Ah... {{delay20}}Warum kommen einem die\nschönsten Träume immer dann,{{delay8}}\nwenn es Zeit ist, aufzustehen..."
  },
  {
    "label": "010_02",
    "attribute": "0x0000000000000000",
    "text": "{{anim id=\"Frantic\" target=\"actor\" targetSpec=\"\"}}Gah! {{delay20}}Ich muss meinen Traum\naufschreiben, {{delay8}}bevor ich ihn\nvergesse. {{delay20}}{{anim id=\"OhGeez\" target=\"actor\" targetSpec=\"\"}}Was für ein Cliffhanger..."
  },
  {
    "label": "011",
    "attribute": "0x0000000000000000",
    "text": "{{fun_0014003C arg=\"\"}}"
  },
  {
    "label": "011_01",
    "attribute": "0x0000000000000000",
    "text": "{{anim id=\"OhGeez\" target=\"actor\" targetSpec=\"\"}}Tja, {{delay8}}das ist wohl der Preis dafür,{{delay8}}\ndie Nacht zum Tag zu machen.{{delay20}} Der\nSchlaf fordert ein, {{delay8}}was ihm zusteht.{{pageBreak}}{{anim id=\"Blushing\" target=\"actor\" targetSpec=\"\"}}Ich habe die ganze Nacht über an\nmeiner Unterschrift gefeilt, {{delay8}}denn der\nfehlt irgendwie das gewisse Etwas...\n{{anim id=\"Smiling\" target=\"actor\" targetSpec=\"\"}}Eine markante Unterschrift hat\nnämlich was herrlich Kultiviertes!"
  },
  {
    "label": "011_02",
    "attribute": "0x0000000000000000",
    "text": "{{anim id=\"OhGeez\" target=\"actor\" targetSpec=\"\"}}Ich weiß ja, {{delay8}}ich weiß... {{delay20}}Ich sollte\nnicht ständig bis spät in die Nacht\naufbleiben.{{pageBreak}}{{anim id=\"Sighing\" target=\"actor\" targetSpec=\"\"}}Aber eins sag ich dir, {{delay8}}es ist eine\nganze Menge Arbeit, das eigene\nImage aufzupolieren.\n{{anim id=\"Sighing\" target=\"actor\" targetSpec=\"\"}}{{gender8 m=\"Der coolste\" f=\"Die coolste\" n=\"Das coolste\"}} {{string value=\"VillagerRace\"}} auf {{string value=\"OtherIslandName\"}} zu sein, ist nicht so leicht, {{delay8}}wie du vielleicht denkst."
  },
  {
    "label": "012",
    "attribute": "0x0000000000000000",
    "text": "{{fun_0014003C arg=\"\"}}"
  },
  {
    "label": "012_01",
    "attribute": "0x0000000000000000",
    "text": "{{anim id=\"Shocked\" target=\"actor\" targetSpec=\"\"}}Wo bin ich?{{delay20}} {{anim id=\"TakenAback\" target=\"actor\" targetSpec=\"\"}}Wer bist du?{{delay20}}\n{{anim id=\"Frantic\" target=\"actor\" targetSpec=\"\"}}WAS PASSIERT HIER?!{{pageBreak}}{{anim id=\"OhGeez\" target=\"actor\" targetSpec=\"\"}}Oh. {{delay20}}Ich muss eingeschlafen sein."
  },
  {
    "label": "012_02",
    "attribute": "0x0000000000000000",
    "text": "{{anim id=\"Frantic\" target=\"actor\" targetSpec=\"\"}}{{capitalizeNextLetter}}{{string value=\"NickName\"}}! {{delay20}}Ich werde dich retten!{{delay20}} Lass meine Hand nicht los!{{pageBreak}}{{anim id=\"73\" target=\"actor\" targetSpec=\"\"}}{{string value=\"...\"}}{{delay frames=\"40\"}}{{anim id=\"Blushing\" target=\"actor\" targetSpec=\"\"}}Moment mal. {{delay20}}Da muss ich wohl\ngeträumt haben. {{delay40}}Du hast nichts\ngehört, {{delay8}}{{string value=\"NickName\"}}."
  },
  {
    "label": "013",
    "attribute": "0x0000000000000000",
    "text": "{{fun_0014003C arg=\"\"}}"
  },
  {
    "label": "013_01",
    "attribute": "0x0000000000000000",
    "text": "{{anim id=\"Confused\" target=\"actor\" targetSpec=\"\"}}Ich war es nicht! {{delay20}}Das muss {{gender8 m=\"ein\" f=\"eine\" n=\"ein\"}}\n{{gender8 m=\"anderer\" f=\"andere\" n=\"anderes\"}} {{string value=\"VillagerRace\"}} gewesen sein!{{pageBreak}}{{anim id=\"Shocked\" target=\"actor\" targetSpec=\"\"}}Moment...{{delay20}} War alles nur ein Traum?{{pageBreak}}{{anim id=\"Sighing\" target=\"actor\" targetSpec=\"\"}}Doch {{gender8 m=\"der\" f=\"die\" n=\"das\"}} rosa {{randomObj}} und\n{{gender8 m=\"der\" f=\"die\" n=\"das\"}} {{randomFood}} wirkten so\nreal, {{delay8}}{{string value=\"Catchphrase\"}}..."
  },
  {
    "label": "013_02",
    "attribute": "0x0000000000000000",
    "text": "{{anim id=\"FaintSmile\" target=\"actor\" targetSpec=\"\"}}An einem müden Tag wie heute...{{delay8}}\nschlafe ich manchmal einfach ein.{{delay20}}\n{{anim id=\"OhGeez\" target=\"actor\" targetSpec=\"\"}}Und zwar egal, {{delay8}}wo ich gerade bin.{{pageBreak}}{{anim id=\"Grin\" target=\"actor\" targetSpec=\"\"}}Um ehrlich zu sein, {{delay8}}ist das mein\nErfolgsgeheimnis.{{delay20}} Jetzt {{delay8}}{{anim id=\"Sleep\" target=\"actor\" targetSpec=\"\"}}schlafe ich.{{delay20}}\n{{anim id=\"Pardon\" target=\"actor\" targetSpec=\"\"}}Und jetzt... {{delay8}}{{anim id=\"EmotEnd\" target=\"actor\" targetSpec=\"\"}}bin ich wach!"
  },
  {
    "label": "014",
    "attribute": "0x0000000000000000",
    "text": "{{fun_0014003C arg=\"\"}}"
  },
  {
    "label": "014_01",
    "attribute": "0x0000000000000000",
    "text": "{{anim id=\"Sighing\" target=\"actor\" targetSpec=\"\"}}Puh!{{delay20}} Danke, {{delay8}}dass du mich\naufgeweckt hast.{{pageBreak}}{{anim id=\"Worried\" target=\"actor\" targetSpec=\"\"}}Ich träumte, {{delay8}}dass eine Klassenarbeit\nansteht und ich meine Hose nicht\nfinde.{{delay20}} {{anim id=\"Thinking\" target=\"actor\" targetSpec=\"\"}}Moment mal...{{delay20}} {{anim id=\"Frantic\" target=\"actor\" targetSpec=\"\"}}OH NEIN!"
  },
  {
    "label": "014_02",
    "attribute": "0x0000000000000000",
    "text": "{{anim id=\"Nodding\" target=\"actor\" targetSpec=\"\"}}Ah, {{delay8}}du bist's.{{pageBreak}}{{anim id=\"WrySmile\" target=\"actor\" targetSpec=\"\"}}Nun, {{delay8}}wenn ich wählen könnte, {{delay8}}wer\nmich aufweckt, {{delay8}}wenn mir gerade\nsüße Träume kommen, {{delay8}}wärst das du."
  },
  {
    "label": "015",
    "attribute": "0x0000000000000000",
    "text": "{{fun_0014003C arg=\"\"}}"
  },
  {
    "label": "015_01",
    "attribute": "0x0000000000000000",
    "text": "{{anim id=\"Negative\" target=\"actor\" targetSpec=\"\"}}Du liebe Zeit... {{delay20}}Unglaublich,{{delay8}}\ndass ich hier mitten im Nirgendwo\neingeschlafen bin.{{pageBreak}}{{anim id=\"Crying\" target=\"actor\" targetSpec=\"\"}}Und ich hatte noch nicht einmal\nmeine Daunendecke dabei. {{delay20}}Ich weiß\nschon, {{delay8}}was als Nächstes kommt...{{pageBreak}}{{anim id=\"Sneezing\" target=\"actor\" targetSpec=\"\"}}{{size value=\"150\"}}{{color id=\"5\"}}HATSCHI!{{color id=\"65535\"}}{{i10_9}}{{pageBreak}}{{anim id=\"OhGeez\" target=\"actor\" targetSpec=\"\"}}{{size value=\"100\"}}Hach... {{delay20}}Gelegentlich wünschte ich,{{delay8}}\ndass ich nicht immer recht hätte,{{delay8}}\n{{string value=\"Catchphrase\"}}."
  },
  {
    "label": "015_02",
    "attribute": "0x0000000000000000",
    "text": "{{anim id=\"Oops\" target=\"actor\" targetSpec=\"\"}}Wie konnte ich hier nur einschlafen?{{delay20}}\nZu Hause liege ich ewig wach, {{delay8}}und\ndas auf edelstem Satin!"
  }
]