﻿[
  {
    "label": "047",
    "text": "{{wordInfo gender=\"2\" indefArticle=\"2\" defArticle=\"4\"}}media"
  },
  {
    "label": "048",
    "text": "{{wordInfo gender=\"2\" indefArticle=\"2\" defArticle=\"4\"}}media de rejilla"
  },
  {
    "label": "1002",
    "text": "{{wordInfo gender=\"1\" indefArticle=\"1\" defArticle=\"3\"}}calcetín de color vívido"
  },
  {
    "label": "1049",
    "text": "{{wordInfo gender=\"2\" indefArticle=\"2\" defArticle=\"4\"}}media semiopaca"
  },
  {
    "label": "1050",
    "text": "{{wordInfo gender=\"2\" indefArticle=\"2\" defArticle=\"4\"}}media de diario"
  },
  {
    "label": "1051",
    "text": "{{wordInfo gender=\"2\" indefArticle=\"2\" defArticle=\"4\"}}media de color vívido"
  },
  {
    "label": "1052",
    "text": "{{wordInfo gender=\"2\" indefArticle=\"2\" defArticle=\"4\"}}media de colores neón"
  },
  {
    "label": "1053",
    "text": "{{wordInfo gender=\"2\" indefArticle=\"2\" defArticle=\"4\"}}malla de color vívido"
  },
  {
    "label": "1054",
    "text": "{{wordInfo gender=\"2\" indefArticle=\"2\" defArticle=\"4\"}}malla de colores neón"
  },
  {
    "label": "1059",
    "text": "{{wordInfo gender=\"1\" indefArticle=\"1\" defArticle=\"3\"}}calcetín de diario"
  },
  {
    "label": "1060",
    "text": "{{wordInfo gender=\"1\" indefArticle=\"1\" defArticle=\"3\"}}calcetín semiopaco"
  },
  {
    "label": "1133",
    "text": "{{wordInfo gender=\"2\" indefArticle=\"2\" defArticle=\"4\"}}media Trini"
  },
  {
    "label": "1134",
    "text": "{{wordInfo gender=\"1\" indefArticle=\"1\" defArticle=\"3\"}}calcetín Trini"
  },
  {
    "label": "1144",
    "text": "{{wordInfo gender=\"1\" indefArticle=\"1\" defArticle=\"3\"}}calcetín de Nook Inc."
  },
  {
    "label": "1188",
    "text": "{{wordInfo gender=\"1\" indefArticle=\"1\" defArticle=\"3\"}}calcetín topos alto"
  },
  {
    "label": "1189",
    "text": "{{wordInfo gender=\"1\" indefArticle=\"1\" defArticle=\"3\"}}calcetín sencillo alto"
  },
  {
    "label": "1252",
    "text": "{{wordInfo gender=\"1\" indefArticle=\"1\" defArticle=\"3\"}}par de tiritas de rodilla"
  },
  {
    "label": "1275",
    "text": "{{wordInfo gender=\"2\" indefArticle=\"2\" defArticle=\"4\"}}media rayas horizontales"
  },
  {
    "label": "1286",
    "text": "{{wordInfo gender=\"1\" indefArticle=\"1\" defArticle=\"3\"}}calcetín Kiki & Lala"
  },
  {
    "label": "1296",
    "text": "{{wordInfo gender=\"1\" indefArticle=\"1\" defArticle=\"3\"}}calcetín Kerokerokeroppi"
  },
  {
    "label": "1407",
    "text": "{{wordInfo gender=\"2\" indefArticle=\"2\" defArticle=\"4\"}}rodillera"
  },
  {
    "label": "519",
    "text": "{{wordInfo gender=\"1\" indefArticle=\"1\" defArticle=\"3\"}}calcetín lazo trasero"
  },
  {
    "label": "535",
    "text": "{{wordInfo gender=\"1\" indefArticle=\"1\" defArticle=\"3\"}}calcetín oculto"
  },
  {
    "label": "536",
    "text": "{{wordInfo gender=\"1\" indefArticle=\"1\" defArticle=\"3\"}}calcetín de punto trenzado"
  },
  {
    "label": "537",
    "text": "{{wordInfo gender=\"2\" indefArticle=\"2\" defArticle=\"4\"}}malla con lentejuelas"
  },
  {
    "label": "538",
    "text": "{{wordInfo gender=\"2\" indefArticle=\"2\" defArticle=\"4\"}}malla elástica"
  },
  {
    "label": "539",
    "text": "{{wordInfo gender=\"2\" indefArticle=\"2\" defArticle=\"4\"}}malla denim"
  },
  {
    "label": "540",
    "text": "{{wordInfo gender=\"1\" indefArticle=\"1\" defArticle=\"3\"}}calcetín cómodo"
  },
  {
    "label": "541",
    "text": "{{wordInfo gender=\"1\" indefArticle=\"1\" defArticle=\"3\"}}calcetín con liguero"
  },
  {
    "label": "542",
    "text": "{{wordInfo gender=\"1\" indefArticle=\"1\" defArticle=\"3\"}}calcetín nórdico"
  },
  {
    "label": "543",
    "text": "{{wordInfo gender=\"1\" indefArticle=\"1\" defArticle=\"3\"}}tabi"
  },
  {
    "label": "600",
    "text": "{{wordInfo gender=\"1\" indefArticle=\"1\" defArticle=\"3\"}}calcetín invisible"
  },
  {
    "label": "601",
    "text": "{{wordInfo gender=\"1\" indefArticle=\"1\" defArticle=\"3\"}}calcetín de tweed"
  },
  {
    "label": "602",
    "text": "{{wordInfo gender=\"1\" indefArticle=\"1\" defArticle=\"3\"}}calentador"
  },
  {
    "label": "603",
    "text": "{{wordInfo gender=\"2\" indefArticle=\"2\" defArticle=\"4\"}}malla de compresión"
  },
  {
    "label": "604",
    "text": "{{wordInfo gender=\"1\" indefArticle=\"1\" defArticle=\"3\"}}calcetín sencillo"
  },
  {
    "label": "605",
    "text": "{{wordInfo gender=\"1\" indefArticle=\"1\" defArticle=\"3\"}}calcetín encaje alto"
  },
  {
    "label": "606",
    "text": "{{wordInfo gender=\"1\" indefArticle=\"1\" defArticle=\"3\"}}calcetín encaje"
  },
  {
    "label": "607",
    "text": "{{wordInfo gender=\"1\" indefArticle=\"1\" defArticle=\"3\"}}calcetín con volantes"
  },
  {
    "label": "608",
    "text": "{{wordInfo gender=\"2\" indefArticle=\"2\" defArticle=\"4\"}}media raída"
  },
  {
    "label": "609",
    "text": "{{wordInfo gender=\"2\" indefArticle=\"2\" defArticle=\"4\"}}media fútbol"
  },
  {
    "label": "610",
    "text": "{{wordInfo gender=\"1\" indefArticle=\"1\" defArticle=\"3\"}}calcetín raído"
  },
  {
    "label": "611",
    "text": "{{wordInfo gender=\"1\" indefArticle=\"1\" defArticle=\"3\"}}calcetín con pompones"
  },
  {
    "label": "612",
    "text": "{{wordInfo gender=\"1\" indefArticle=\"1\" defArticle=\"3\"}}calcetín composición color"
  },
  {
    "label": "613",
    "text": "{{wordInfo gender=\"1\" indefArticle=\"1\" defArticle=\"3\"}}calcetín de felpa"
  },
  {
    "label": "619",
    "text": "{{wordInfo gender=\"1\" indefArticle=\"1\" defArticle=\"3\"}}calcetín múltiple"
  },
  {
    "label": "620",
    "text": "{{wordInfo gender=\"1\" indefArticle=\"1\" defArticle=\"3\"}}calcetín de punto"
  },
  {
    "label": "621",
    "text": "{{wordInfo gender=\"2\" indefArticle=\"2\" defArticle=\"4\"}}malla con calentador"
  },
  {
    "label": "622",
    "text": "{{wordInfo gender=\"1\" indefArticle=\"1\" defArticle=\"3\"}}calcetín plisado"
  },
  {
    "label": "623",
    "text": "{{wordInfo gender=\"1\" indefArticle=\"1\" defArticle=\"3\"}}calcetín a rayas"
  },
  {
    "label": "624",
    "text": "{{wordInfo gender=\"1\" indefArticle=\"1\" defArticle=\"3\"}}calcetín con detalle"
  },
  {
    "label": "625",
    "text": "{{wordInfo gender=\"1\" indefArticle=\"1\" defArticle=\"3\"}}calcetín infantil"
  },
  {
    "label": "626",
    "text": "{{wordInfo gender=\"1\" indefArticle=\"1\" defArticle=\"3\"}}calcetín de croché"
  },
  {
    "label": "627",
    "text": "{{wordInfo gender=\"2\" indefArticle=\"2\" defArticle=\"4\"}}media de telaraña"
  },
  {
    "label": "628",
    "text": "{{wordInfo gender=\"2\" indefArticle=\"2\" defArticle=\"4\"}}media con flores bordadas"
  },
  {
    "label": "629",
    "text": "{{wordInfo gender=\"2\" indefArticle=\"2\" defArticle=\"4\"}}malla para correr"
  },
  {
    "label": "723",
    "text": "{{wordInfo gender=\"1\" indefArticle=\"1\" defArticle=\"3\"}}calcetín caritas"
  },
  {
    "label": "749",
    "text": "{{wordInfo gender=\"1\" indefArticle=\"1\" defArticle=\"3\"}}calcetín Chimayó"
  },
  {
    "label": "879",
    "text": "{{wordInfo gender=\"2\" indefArticle=\"2\" defArticle=\"4\"}}media florecitas"
  },
  {
    "label": "880",
    "text": "{{wordInfo gender=\"1\" indefArticle=\"1\" defArticle=\"3\"}}calcetín pijo"
  },
  {
    "label": "886",
    "text": "{{wordInfo gender=\"1\" indefArticle=\"1\" defArticle=\"3\"}}calcetín traslúcido"
  },
  {
    "label": "887",
    "text": "{{wordInfo gender=\"1\" indefArticle=\"1\" defArticle=\"3\"}}calcetín ondas"
  },
  {
    "label": "926",
    "text": "{{wordInfo gender=\"1\" indefArticle=\"1\" defArticle=\"3\"}}calcetín para kilt"
  },
  {
    "label": "927",
    "text": "{{wordInfo gender=\"2\" indefArticle=\"2\" defArticle=\"4\"}}media rayas"
  },
  {
    "label": "928",
    "text": "{{wordInfo gender=\"2\" indefArticle=\"2\" defArticle=\"4\"}}media con estampado"
  }
]