﻿[
  {
    "label": "001",
    "attribute": "0x00000013",
    "text": "{{anim id=\"BigSmile\" target=\"actor\" targetSpec=\"\"}}¡Aquí {{string value=\"VillagerName\"}}!{{delay20}}{{anim id=\"Eh\" target=\"actor\" targetSpec=\"\"}} Ah, ¡hola, {{string value=\"PlayerName\"}}!{{delay20}} {{anim id=\"QuestionMark\" target=\"actor\" targetSpec=\"\"}}Dime, ¿en qué puedo ayudarte?"
  },
  {
    "label": "002",
    "attribute": "0x00000013",
    "text": "{{anim id=\"Smiling\" target=\"actor\" targetSpec=\"\"}}¿Quieres que me pase por la {{color id=\"1\"}}zona\nde acampada{{color id=\"65535\"}}?{{delay20}} {{anim id=\"Nodding\" target=\"actor\" targetSpec=\"\"}}No cabe duda de que\nes una propuesta muy tentadora{{string value=\"...\"}}{{pageBreak}}{{anim id=\"ShyBoy\" target=\"actor\" targetSpec=\"\"}}Pero me temo que estoy demasiado\nocupado ahora mismo, así que no\nvoy a poder ir.\n{{anim id=\"FaintSmile\" target=\"actor\" targetSpec=\"\"}}En todo caso, ¡agradezco mucho que\nhayas pensado en mí! {{delay20}}¡Qué detalle!"
  },
  {
    "label": "101",
    "attribute": "0x00000013",
    "text": "{{anim id=\"Smiling\" target=\"actor\" targetSpec=\"\"}}¡Hola, {{color id=\"3\"}}{{string value=\"VillagerName\"}} {{color id=\"65535\"}}al aparato!{{delay8}} {{anim id=\"Hello\" target=\"actor\" targetSpec=\"\"}}¿En qué puedo ayudarte?{{pageBreak}}{{anim id=\"Eh\" target=\"actor\" targetSpec=\"\"}}¿Una casa de vacaciones?{{delay20}} {{anim id=\"Shocked\" target=\"actor\" targetSpec=\"\"}}¡¿Para\nmí?!{{delay20}} {{anim id=\"Smiling\" target=\"actor\" targetSpec=\"\"}}Pues te agradezco la invitación,{{delay8}}\npero vivo con mi hermano, {{color id=\"3\"}}Tendo{{color id=\"65535\"}}{{string value=\"...\"}}{{pageBreak}}{{anim id=\"Shocked\" target=\"actor\" targetSpec=\"\"}}¡¿En serio?!{{delay8}} ¡¿Podemos\napuntarnos los dos?!{{delay8}} {{anim id=\"HappyFlower\" target=\"actor\" targetSpec=\"\"}}Pues\nen ese caso,{{delay8}} ¡adelante!"
  }
]