﻿[
  {
    "label": "0001",
    "text": "ぜんぶ"
  },
  {
    "label": "0006",
    "text": "こもの"
  },
  {
    "label": "0007",
    "text": "かべかけ"
  },
  {
    "label": "0009",
    "text": "てんじょう"
  },
  {
    "label": "0011",
    "text": "しょくぶつ"
  },
  {
    "label": "0012",
    "text": "ミュージック"
  },
  {
    "label": "0013",
    "text": "ファッション"
  },
  {
    "label": "0014",
    "text": "いきもの"
  },
  {
    "label": "0015",
    "text": "ラグ"
  },
  {
    "label": "0018",
    "text": "かぐ"
  },
  {
    "label": "0019",
    "text": "リメイクできる"
  },
  {
    "label": "0020",
    "text": "ゆかいた"
  },
  {
    "label": "0021",
    "text": "かべがみ"
  },
  {
    "label": "0022",
    "text": "そのほか"
  },
  {
    "label": "0023",
    "text": "かせき"
  },
  {
    "label": "0024",
    "text": "はにわ"
  },
  {
    "label": "0025",
    "text": "そのほか"
  },
  {
    "label": "0026",
    "text": "かべ・ゆか・ラグ"
  },
  {
    "label": "0051",
    "text": "かぶりもの"
  },
  {
    "label": "0052",
    "text": "アクセサリー"
  },
  {
    "label": "0053",
    "text": "トップス"
  },
  {
    "label": "0054",
    "text": "ワンピース"
  },
  {
    "label": "0055",
    "text": "ボトムス"
  },
  {
    "label": "0056",
    "text": "くつした"
  },
  {
    "label": "0057",
    "text": "くつ"
  },
  {
    "label": "0058",
    "text": "バッグ"
  },
  {
    "label": "0059",
    "text": "どうぐ"
  },
  {
    "label": "0061",
    "text": "おきにいり"
  },
  {
    "label": "0062",
    "text": "つくれる"
  },
  {
    "label": "0063",
    "text": "つくったことがない"
  },
  {
    "label": "0201",
    "text": "ぜんぶ"
  },
  {
    "label": "0202",
    "text": "かぐ"
  },
  {
    "label": "0203",
    "text": "こもの"
  },
  {
    "label": "0204",
    "text": "かべかけ"
  },
  {
    "label": "0205",
    "text": "ラグ"
  },
  {
    "label": "0206",
    "text": "ゆかいた"
  },
  {
    "label": "0207",
    "text": "かべがみ"
  },
  {
    "label": "0208",
    "text": "ファッション"
  },
  {
    "label": "0209",
    "text": "いきもの"
  },
  {
    "label": "0210",
    "text": "そのほか"
  },
  {
    "label": "0211",
    "text": "じゅうみん"
  },
  {
    "label": "0212",
    "text": "てんじょう"
  },
  {
    "label": "0213",
    "text": "りれき"
  },
  {
    "label": "0215",
    "text": "イベント"
  },
  {
    "label": "0216",
    "text": "しょくぶつ"
  },
  {
    "label": "0217",
    "text": "オーダー"
  },
  {
    "label": "0218",
    "text": "もとのへや"
  },
  {
    "label": "0301",
    "text": "ぜんぶ"
  },
  {
    "label": "0302",
    "text": "かぶりもの"
  },
  {
    "label": "0303",
    "text": "アクセサリー"
  },
  {
    "label": "0304",
    "text": "トップス"
  },
  {
    "label": "0305",
    "text": "ワンピース"
  },
  {
    "label": "0306",
    "text": "ボトムス"
  },
  {
    "label": "0307",
    "text": "くつした"
  },
  {
    "label": "0308",
    "text": "くつ"
  },
  {
    "label": "0309",
    "text": "バッグ"
  },
  {
    "label": "0310",
    "text": "そのほか"
  },
  {
    "label": "0311",
    "text": "せいふく"
  },
  {
    "label": "0901",
    "text": "ぜんぶ"
  },
  {
    "label": "0902",
    "text": "つくれる"
  },
  {
    "label": "0903",
    "text": "おきにいり"
  },
  {
    "label": "0904",
    "text": "つくったことがない"
  },
  {
    "label": "0905",
    "text": "リメイクできる"
  },
  {
    "label": "0906",
    "text": "どうぐ"
  },
  {
    "label": "0907",
    "text": "かぐ"
  },
  {
    "label": "0908",
    "text": "こもの"
  },
  {
    "label": "0909",
    "text": "かべかけ"
  },
  {
    "label": "0911",
    "text": "そのほか"
  },
  {
    "label": "0912",
    "text": "そうび"
  },
  {
    "label": "0913",
    "text": "かべ・ゆか・ラグ"
  },
  {
    "label": "0914",
    "text": "きせつのレシピ"
  },
  {
    "label": "0915",
    "text": "てんじょう"
  },
  {
    "label": "1001",
    "text": "ムシ"
  },
  {
    "label": "1002",
    "text": "サカナ"
  },
  {
    "label": "1003",
    "text": "うみのさち"
  },
  {
    "label": "1201",
    "text": "やね"
  },
  {
    "label": "1202",
    "text": "ドア"
  },
  {
    "label": "1203",
    "text": "かべ"
  },
  {
    "label": "1204",
    "text": "ポスト"
  },
  {
    "label": "1205",
    "text": "かたち"
  },
  {
    "label": "1206",
    "text": "ドアかざり"
  },
  {
    "label": "1208",
    "text": "ベル"
  },
  {
    "label": "1209",
    "text": "はた"
  },
  {
    "label": "1210",
    "text": "サンシェード"
  },
  {
    "label": "1211",
    "text": "サンシェード"
  },
  {
    "label": "1212",
    "text": "ショーケース"
  },
  {
    "label": "1301",
    "text": "はだ"
  },
  {
    "label": "1302",
    "text": "かみ"
  },
  {
    "label": "1303",
    "text": "め"
  },
  {
    "label": "1304",
    "text": "はな・くち"
  },
  {
    "label": "1305",
    "text": "フェイスペイント・ほか"
  },
  {
    "label": "1306",
    "text": "チーク"
  },
  {
    "label": "1701",
    "text": "すべて"
  },
  {
    "label": "1702",
    "text": "プレゼントあり"
  },
  {
    "label": "1703",
    "text": "よんでない"
  },
  {
    "label": "1704",
    "text": "おきにいり"
  },
  {
    "label": "1705",
    "text": "じゅうみん"
  },
  {
    "label": "1706",
    "text": "フレンド"
  },
  {
    "label": "1707",
    "text": "そのほか"
  },
  {
    "label": "1801",
    "text": "ぜんぶ"
  },
  {
    "label": "1802",
    "text": "つくれる"
  },
  {
    "label": "1803",
    "text": "おきにいり"
  },
  {
    "label": "1804",
    "text": "つくったことがない"
  },
  {
    "label": "1805",
    "text": "リメイクできる"
  },
  {
    "label": "1806",
    "text": "どうぐ"
  },
  {
    "label": "1807",
    "text": "かぐ"
  },
  {
    "label": "1808",
    "text": "こもの"
  },
  {
    "label": "1809",
    "text": "かべかけ"
  },
  {
    "label": "1811",
    "text": "そのほか"
  },
  {
    "label": "1812",
    "text": "そうび"
  },
  {
    "label": "1813",
    "text": "かべ・ゆか・ラグ"
  },
  {
    "label": "1814",
    "text": "きせつのレシピ"
  },
  {
    "label": "1815",
    "text": "フード"
  },
  {
    "label": "1816",
    "text": "デザート"
  },
  {
    "label": "1817",
    "text": "てんじょう"
  },
  {
    "label": "1901",
    "text": "ぜんぶ"
  },
  {
    "label": "1902",
    "text": "かぐ"
  },
  {
    "label": "1903",
    "text": "こもの"
  },
  {
    "label": "1904",
    "text": "かべかけ"
  },
  {
    "label": "1905",
    "text": "ラグ"
  },
  {
    "label": "1906",
    "text": "ゆかいた"
  },
  {
    "label": "1907",
    "text": "かべがみ"
  },
  {
    "label": "1908",
    "text": "リメイクできる"
  },
  {
    "label": "1909",
    "text": "ぜんぶ"
  },
  {
    "label": "1910",
    "text": "かぶりもの"
  },
  {
    "label": "1911",
    "text": "アクセサリー"
  },
  {
    "label": "1912",
    "text": "トップス"
  },
  {
    "label": "1913",
    "text": "ボトムス"
  },
  {
    "label": "1914",
    "text": "ワンピース"
  },
  {
    "label": "1915",
    "text": "くつした"
  },
  {
    "label": "1916",
    "text": "くつ"
  },
  {
    "label": "1917",
    "text": "バッグ"
  },
  {
    "label": "1918",
    "text": "ぜんぶ"
  },
  {
    "label": "1920",
    "text": "ミュージック"
  },
  {
    "label": "1921",
    "text": "かせき"
  },
  {
    "label": "1922",
    "text": "はにわ"
  },
  {
    "label": "1923",
    "text": "ブロマイド"
  },
  {
    "label": "1924",
    "text": "かさ"
  },
  {
    "label": "1950",
    "text": "ひがわり"
  },
  {
    "label": "1951",
    "text": "ポスター"
  },
  {
    "label": "1952",
    "text": "キャンペーン"
  },
  {
    "label": "1953",
    "text": "シーズン"
  },
  {
    "label": "1954",
    "text": "そのほか"
  },
  {
    "label": "1955",
    "text": "てんじょう"
  },
  {
    "label": "1956",
    "text": "どうぐ・グッズ"
  },
  {
    "label": "1957",
    "text": "さく"
  },
  {
    "label": "2001",
    "text": "ぜんいん"
  },
  {
    "label": "2002",
    "text": "ベストフレンド"
  },
  {
    "label": "2003",
    "text": "ベストフレンド{{ruby charSpan=\"3\" value=\"しんせいちゅう\"}}申請中"
  },
  {
    "label": "2004",
    "text": "ベストフレンド{{ruby charSpan=\"3\" value=\"しょうにんま\"}}承認待ち"
  },
  {
    "label": "2005",
    "text": "フレンド"
  },
  {
    "label": "2006",
    "text": "オンライン"
  },
  {
    "label": "2201",
    "text": "かぐ"
  },
  {
    "label": "2202",
    "text": "ざっか"
  },
  {
    "label": "2203",
    "text": "かべ・ゆか"
  },
  {
    "label": "2301",
    "text": "トップス"
  },
  {
    "label": "2302",
    "text": "ワンピース"
  },
  {
    "label": "2303",
    "text": "かぶりもの"
  },
  {
    "label": "2304",
    "text": "バラエティ"
  },
  {
    "label": "2401",
    "text": "マイデザイン"
  },
  {
    "label": "2402",
    "text": "PROデザイン"
  },
  {
    "label": "2501",
    "text": "ぜんぶ"
  },
  {
    "label": "2502",
    "text": "スペシャル"
  },
  {
    "label": "2503",
    "text": "DIYレシピ"
  },
  {
    "label": "2504",
    "text": "アイテム"
  },
  {
    "label": "2505",
    "text": "ノベルティ"
  },
  {
    "label": "2601",
    "text": "ぜんぶ"
  },
  {
    "label": "2602",
    "text": "かぶりもの"
  },
  {
    "label": "2603",
    "text": "アクセサリー"
  },
  {
    "label": "2604",
    "text": "トップス"
  },
  {
    "label": "2605",
    "text": "ワンピース"
  },
  {
    "label": "2606",
    "text": "ボトムス"
  },
  {
    "label": "2607",
    "text": "くつした"
  },
  {
    "label": "2608",
    "text": "くつ"
  },
  {
    "label": "2701",
    "text": "ドット"
  },
  {
    "label": "2702",
    "text": "ストライプ"
  },
  {
    "label": "2703",
    "text": "チェックA"
  },
  {
    "label": "2704",
    "text": "チェックB"
  },
  {
    "label": "2705",
    "text": "トラディショナルA"
  },
  {
    "label": "2706",
    "text": "トラディショナルB"
  },
  {
    "label": "2707",
    "text": "レトロ"
  },
  {
    "label": "2708",
    "text": "ナチュラル"
  },
  {
    "label": "2709",
    "text": "トイ"
  },
  {
    "label": "2710",
    "text": "クール"
  },
  {
    "label": "2711",
    "text": "バラエティ"
  },
  {
    "label": "2801",
    "text": "ベストフレンド"
  },
  {
    "label": "2802",
    "text": "フレンド"
  },
  {
    "label": "2902",
    "text": "しせつ"
  },
  {
    "label": "2907",
    "text": "べっそう"
  },
  {
    "label": "3001",
    "text": "ぜんぶ"
  },
  {
    "label": "3002",
    "text": "かぐ"
  },
  {
    "label": "3003",
    "text": "かべがみ"
  },
  {
    "label": "3004",
    "text": "ゆかいた"
  },
  {
    "label": "3005",
    "text": "ラグ"
  },
  {
    "label": "3006",
    "text": "ファッション"
  },
  {
    "label": "3101",
    "text": "すべて"
  },
  {
    "label": "3102",
    "text": "おきにいり"
  },
  {
    "label": "3301",
    "text": "すべて"
  },
  {
    "label": "3302",
    "text": "ノベルティ"
  },
  {
    "label": "3303",
    "text": "かぐ"
  },
  {
    "label": "3304",
    "text": "こもの"
  },
  {
    "label": "3305",
    "text": "かべかけ"
  },
  {
    "label": "3306",
    "text": "てんじょう"
  },
  {
    "label": "3307",
    "text": "かべがみ"
  },
  {
    "label": "3308",
    "text": "ゆかいた"
  },
  {
    "label": "3309",
    "text": "ラグ"
  },
  {
    "label": "3401",
    "text": "べっそう"
  },
  {
    "label": "3402",
    "text": "しせつ"
  },
  {
    "label": "3403",
    "text": "タイムライン"
  },
  {
    "label": "3501",
    "text": "へやサイズ"
  },
  {
    "label": "3502",
    "text": "まど・エントランス"
  },
  {
    "label": "3503",
    "text": "ライト"
  },
  {
    "label": "3504",
    "text": "かんきょうおん"
  }
]