﻿[
  {
    "label": "000",
    "text": "ヘアカラー"
  },
  {
    "label": "000_01",
    "text": "バリエーションなし"
  },
  {
    "label": "001",
    "text": "ブラック"
  },
  {
    "label": "001_01",
    "text": "{{ruby charSpan=\"1\" value=\"くろ\"}}黒"
  },
  {
    "label": "001_02",
    "text": "{{ruby charSpan=\"1\" value=\"くろ\"}}黒"
  },
  {
    "label": "002",
    "text": "ホワイト"
  },
  {
    "label": "002_01",
    "text": "{{ruby charSpan=\"1\" value=\"しろ\"}}白"
  },
  {
    "label": "002_02",
    "text": "{{ruby charSpan=\"1\" value=\"しろ\"}}白"
  },
  {
    "label": "003",
    "text": "グレー"
  },
  {
    "label": "003_01",
    "text": "{{ruby charSpan=\"2\" value=\"はいいろ\"}}灰色"
  },
  {
    "label": "003_02",
    "text": "{{ruby charSpan=\"1\" value=\"はい\"}}灰"
  },
  {
    "label": "004",
    "text": "ライトグレー"
  },
  {
    "label": "005",
    "text": "ダークグレー"
  },
  {
    "label": "006",
    "text": "アッシュ"
  },
  {
    "label": "007",
    "text": "オフホワイト"
  },
  {
    "label": "101",
    "text": "レッド"
  },
  {
    "label": "101_01",
    "text": "{{ruby charSpan=\"1\" value=\"あか\"}}赤"
  },
  {
    "label": "101_02",
    "text": "{{ruby charSpan=\"1\" value=\"あか\"}}赤"
  },
  {
    "label": "102",
    "text": "ピンク"
  },
  {
    "label": "102_01",
    "text": "{{ruby charSpan=\"2\" value=\"ももいろ\"}}桃色"
  },
  {
    "label": "102_02",
    "text": "{{ruby charSpan=\"2\" value=\"ももいろ\"}}桃色"
  },
  {
    "label": "103",
    "text": "ダークレッド"
  },
  {
    "label": "103_01",
    "text": "えんじ"
  },
  {
    "label": "104",
    "text": "ルージュ"
  },
  {
    "label": "105",
    "text": "コーラル"
  },
  {
    "label": "106",
    "text": "ワインレッド"
  },
  {
    "label": "107",
    "text": "{{ruby charSpan=\"2\" value=\"さくらいろ\"}}桜色"
  },
  {
    "label": "107_01",
    "text": "{{ruby charSpan=\"1\" value=\"さくら\"}}桜"
  },
  {
    "label": "108",
    "text": "ピーチ"
  },
  {
    "label": "109",
    "text": "マゼンタ"
  },
  {
    "label": "110",
    "text": "{{ruby charSpan=\"2\" value=\"しゅいろ\"}}朱色"
  },
  {
    "label": "111",
    "text": "{{ruby charSpan=\"2\" value=\"あかむらさき\"}}赤紫"
  },
  {
    "label": "112",
    "text": "チェリー"
  },
  {
    "label": "113",
    "text": "ピンクホワイト"
  },
  {
    "label": "114",
    "text": "ピンクベージュ"
  },
  {
    "label": "115",
    "text": "サーモンピンク"
  },
  {
    "label": "1366_01",
    "text": "パープルネクタイ"
  },
  {
    "label": "1366_02",
    "text": "レッドネクタイ"
  },
  {
    "label": "1367_01",
    "text": "ブルーネクタイ"
  },
  {
    "label": "1367_02",
    "text": "グリーンネクタイ"
  },
  {
    "label": "1367_03",
    "text": "ピンクネクタイ"
  },
  {
    "label": "1367_04",
    "text": "レッドネクタイ"
  },
  {
    "label": "1383_01",
    "text": "ホワイト&ブラック"
  },
  {
    "label": "1383_02",
    "text": "ホワイト&グリーン"
  },
  {
    "label": "1383_03",
    "text": "ホワイト&イエロー"
  },
  {
    "label": "1383_04",
    "text": "ブラウン"
  },
  {
    "label": "1383_05",
    "text": "ピンク"
  },
  {
    "label": "1383_06",
    "text": "ホワイト&レッド"
  },
  {
    "label": "1393_01",
    "text": "レッドタオル&ホワイトシャツ"
  },
  {
    "label": "1393_02",
    "text": "ブルータオル&ホワイトシャツ"
  },
  {
    "label": "1393_03",
    "text": "ブラックタオル&ホワイトシャツ"
  },
  {
    "label": "1393_04",
    "text": "ピンクタオル&ブラックシャツ"
  },
  {
    "label": "1393_05",
    "text": "グリーンタオル&ブラックシャツ"
  },
  {
    "label": "1393_06",
    "text": "オレンジタオル&ブラックシャツ"
  },
  {
    "label": "1393_07",
    "text": "ホワイトタオル&ホワイトシャツ"
  },
  {
    "label": "1407_01",
    "text": "ブラック&ブルー"
  },
  {
    "label": "1407_02",
    "text": "ブラック&イエロー"
  },
  {
    "label": "1407_03",
    "text": "ブラック&ピンク"
  },
  {
    "label": "1407_04",
    "text": "ホワイト&ブラック"
  },
  {
    "label": "1407_05",
    "text": "ブラック&レッド"
  },
  {
    "label": "1414_01",
    "text": "たましい"
  },
  {
    "label": "1414_02",
    "text": "きずな"
  },
  {
    "label": "1414_03",
    "text": "めん"
  },
  {
    "label": "1414_04",
    "text": "ゆめ"
  },
  {
    "label": "1433_01",
    "text": "ネオンオレンジ"
  },
  {
    "label": "1433_02",
    "text": "ネオンピンク"
  },
  {
    "label": "1433_03",
    "text": "ネオングリーン"
  },
  {
    "label": "1433_04",
    "text": "ネオンブルー"
  },
  {
    "label": "1438_01",
    "text": "オレンジ×ライム"
  },
  {
    "label": "1438_02",
    "text": "ピンク×イエロー"
  },
  {
    "label": "1438_03",
    "text": "ライム×パープル"
  },
  {
    "label": "1438_04",
    "text": "ライトブルー×ピンク"
  },
  {
    "label": "201",
    "text": "ブルー"
  },
  {
    "label": "201_01",
    "text": "{{ruby charSpan=\"1\" value=\"あお\"}}青"
  },
  {
    "label": "201_02",
    "text": "{{ruby charSpan=\"1\" value=\"あお\"}}青"
  },
  {
    "label": "202",
    "text": "ネイビー"
  },
  {
    "label": "202_01",
    "text": "{{ruby charSpan=\"1\" value=\"こん\"}}紺"
  },
  {
    "label": "202_02",
    "text": "{{ruby charSpan=\"1\" value=\"こん\"}}紺"
  },
  {
    "label": "202_03",
    "text": "ダークブルー"
  },
  {
    "label": "203",
    "text": "ライトブルー"
  },
  {
    "label": "203_01",
    "text": "{{ruby charSpan=\"2\" value=\"みずいろ\"}}水色"
  },
  {
    "label": "204",
    "text": "パープル"
  },
  {
    "label": "204_01",
    "text": "{{ruby charSpan=\"1\" value=\"むらさき\"}}紫"
  },
  {
    "label": "204_02",
    "text": "{{ruby charSpan=\"1\" value=\"むらさき\"}}紫"
  },
  {
    "label": "205",
    "text": "{{ruby charSpan=\"3\" value=\"えびいろ\"}}海老色"
  },
  {
    "label": "206",
    "text": "アイスブルー"
  },
  {
    "label": "207",
    "text": "ターコイズ"
  },
  {
    "label": "208",
    "text": "ピーコックブルー"
  },
  {
    "label": "209",
    "text": "インディゴブルー"
  },
  {
    "label": "209_01",
    "text": "{{ruby charSpan=\"2\" value=\"あいいろ\"}}藍色"
  },
  {
    "label": "210",
    "text": "サックスブルー"
  },
  {
    "label": "211",
    "text": "ライトパープル"
  },
  {
    "label": "212",
    "text": "{{ruby charSpan=\"2\" value=\"ふじいろ\"}}藤色"
  },
  {
    "label": "213",
    "text": "{{ruby charSpan=\"2\" value=\"そらいろ\"}}空色"
  },
  {
    "label": "213_01",
    "text": "スカイブルー"
  },
  {
    "label": "214",
    "text": "ブロンズ"
  },
  {
    "label": "215",
    "text": "オーシャンブルー"
  },
  {
    "label": "216",
    "text": "マリンブルー"
  },
  {
    "label": "217",
    "text": "ブロンズ"
  },
  {
    "label": "218",
    "text": "シアン"
  },
  {
    "label": "219",
    "text": "ペールブルー"
  },
  {
    "label": "220",
    "text": "ブルーグレー"
  },
  {
    "label": "301",
    "text": "グリーン"
  },
  {
    "label": "301_01",
    "text": "{{ruby charSpan=\"1\" value=\"みどり\"}}緑"
  },
  {
    "label": "301_02",
    "text": "{{ruby charSpan=\"1\" value=\"みどり\"}}緑"
  },
  {
    "label": "302",
    "text": "モスグリーン"
  },
  {
    "label": "303",
    "text": "ミント"
  },
  {
    "label": "304",
    "text": "ライム"
  },
  {
    "label": "305",
    "text": "うぐいす{{ruby charSpan=\"1\" value=\"いろ\"}}色"
  },
  {
    "label": "306",
    "text": "イエローグリーン"
  },
  {
    "label": "306_01",
    "text": "{{ruby charSpan=\"2\" value=\"きみどり\"}}黄緑"
  },
  {
    "label": "307",
    "text": "ダークグリーン"
  },
  {
    "label": "308",
    "text": "ライトグリーン"
  },
  {
    "label": "309",
    "text": "{{ruby charSpan=\"2\" value=\"まっちゃ\"}}抹茶"
  },
  {
    "label": "310",
    "text": "{{ruby charSpan=\"2\" value=\"もえぎ\"}}萌黄"
  },
  {
    "label": "311",
    "text": "{{ruby charSpan=\"2\" value=\"うすみどり\"}}薄緑"
  },
  {
    "label": "312",
    "text": "エメラルド"
  },
  {
    "label": "313",
    "text": "ペールグリーン"
  },
  {
    "label": "401",
    "text": "ベージュ"
  },
  {
    "label": "401_01",
    "text": "{{ruby charSpan=\"3\" value=\"かれくさいろ\"}}枯草色"
  },
  {
    "label": "401_02",
    "text": "{{ruby charSpan=\"2\" value=\"かれくさ\"}}枯草"
  },
  {
    "label": "402",
    "text": "イエロー"
  },
  {
    "label": "402_01",
    "text": "{{ruby charSpan=\"2\" value=\"きいろ\"}}黄色"
  },
  {
    "label": "402_02",
    "text": "{{ruby charSpan=\"1\" value=\"き\"}}黄"
  },
  {
    "label": "403",
    "text": "オレンジ"
  },
  {
    "label": "403_01",
    "text": "{{ruby charSpan=\"1\" value=\"だいだい\"}}橙"
  },
  {
    "label": "403_02",
    "text": "{{ruby charSpan=\"1\" value=\"だいだい\"}}橙"
  },
  {
    "label": "404",
    "text": "ブラウン"
  },
  {
    "label": "404_01",
    "text": "{{ruby charSpan=\"2\" value=\"ちゃいろ\"}}茶色"
  },
  {
    "label": "404_02",
    "text": "{{ruby charSpan=\"2\" value=\"ちゃいろ\"}}茶色"
  },
  {
    "label": "404_03",
    "text": "{{ruby charSpan=\"1\" value=\"ちゃ\"}}茶"
  },
  {
    "label": "405",
    "text": "カーキ"
  },
  {
    "label": "406",
    "text": "キャメル"
  },
  {
    "label": "407",
    "text": "オリーブ"
  },
  {
    "label": "408",
    "text": "マスタード"
  },
  {
    "label": "408_01",
    "text": "からし"
  },
  {
    "label": "409",
    "text": "ダークブラウン"
  },
  {
    "label": "410",
    "text": "オーカー"
  },
  {
    "label": "411",
    "text": "アイボリー"
  },
  {
    "label": "412",
    "text": "ライトブラウン"
  },
  {
    "label": "413",
    "text": "{{ruby charSpan=\"3\" value=\"やまぶきいろ\"}}山吹色"
  },
  {
    "label": "414",
    "text": "グレージュ"
  },
  {
    "label": "415",
    "text": "クリーム"
  },
  {
    "label": "416",
    "text": "くちなし"
  },
  {
    "label": "417",
    "text": "アプリコット"
  },
  {
    "label": "418",
    "text": "マロン"
  },
  {
    "label": "419",
    "text": "アッシュブラウン"
  },
  {
    "label": "420",
    "text": "ライムイエロー"
  },
  {
    "label": "421",
    "text": "ファイアーカラー"
  },
  {
    "label": "422",
    "text": "アッシュブラウン"
  },
  {
    "label": "423",
    "text": "こげ{{ruby charSpan=\"1\" value=\"ちゃ\"}}茶"
  },
  {
    "label": "801",
    "text": "レインボー"
  },
  {
    "label": "802",
    "text": "きなり"
  },
  {
    "label": "803",
    "text": "デニム"
  },
  {
    "label": "804",
    "text": "カラフル"
  },
  {
    "label": "805",
    "text": "ブルー&ネイビー"
  },
  {
    "label": "806",
    "text": "モノトーン"
  },
  {
    "label": "806_01",
    "text": "モノクロ"
  },
  {
    "label": "807",
    "text": "ブラック＆ホワイト"
  },
  {
    "label": "808",
    "text": "ウォッシュ"
  },
  {
    "label": "810",
    "text": "ブルー＆ホワイト"
  },
  {
    "label": "811",
    "text": "ブルー×ホワイト"
  },
  {
    "label": "812",
    "text": "ブラック×ブルー"
  },
  {
    "label": "813",
    "text": "ブラック×レッド"
  },
  {
    "label": "814",
    "text": "イエロー×ブラック"
  },
  {
    "label": "815",
    "text": "レッド×グリーン"
  },
  {
    "label": "816",
    "text": "レッド×オレンジ"
  },
  {
    "label": "817",
    "text": "ライム×ライトブルー"
  },
  {
    "label": "818",
    "text": "パープル×ピンク"
  },
  {
    "label": "819",
    "text": "ラスタカラー"
  },
  {
    "label": "820",
    "text": "レッド×ピンク"
  },
  {
    "label": "821",
    "text": "エメラルド×ライム"
  },
  {
    "label": "822",
    "text": "パープル×オレンジ"
  },
  {
    "label": "823",
    "text": "ライトブルー×サーモンピンク"
  },
  {
    "label": "824",
    "text": "イエロー×ブルー"
  },
  {
    "label": "825",
    "text": "ブルーベリー"
  },
  {
    "label": "826",
    "text": "チョコミント"
  },
  {
    "label": "827",
    "text": "パステル"
  },
  {
    "label": "828",
    "text": "クール"
  },
  {
    "label": "829",
    "text": "ホワイト×レッド"
  },
  {
    "label": "830",
    "text": "ホワイト×ブルー"
  },
  {
    "label": "831",
    "text": "ポップ"
  },
  {
    "label": "832",
    "text": "キュート"
  },
  {
    "label": "833",
    "text": "エレガント"
  },
  {
    "label": "834",
    "text": "ゴージャス"
  },
  {
    "label": "835",
    "text": "トリコロール"
  },
  {
    "label": "836",
    "text": "ドット"
  },
  {
    "label": "837",
    "text": "{{ruby charSpan=\"2\" value=\"めいさい\"}}迷彩"
  },
  {
    "label": "838",
    "text": "{{ruby charSpan=\"4\" value=\"かんれいめいさい\"}}寒冷迷彩"
  },
  {
    "label": "839",
    "text": "トロピカル"
  },
  {
    "label": "840",
    "text": "グラフィティ"
  },
  {
    "label": "841",
    "text": "マルチカラー"
  },
  {
    "label": "842",
    "text": "シック"
  },
  {
    "label": "843",
    "text": "ナチュラル"
  },
  {
    "label": "851",
    "text": "タイガー"
  },
  {
    "label": "852",
    "text": "ゼブラ"
  },
  {
    "label": "901",
    "text": "ゴールド"
  },
  {
    "label": "901_01",
    "text": "{{ruby charSpan=\"2\" value=\"きんいろ\"}}金色"
  },
  {
    "label": "901_02",
    "text": "{{ruby charSpan=\"1\" value=\"きん\"}}金"
  },
  {
    "label": "902",
    "text": "シルバー"
  },
  {
    "label": "902_01",
    "text": "{{ruby charSpan=\"1\" value=\"ぎん\"}}銀"
  },
  {
    "label": "903",
    "text": "ピンクゴールド"
  },
  {
    "label": "951_01",
    "text": "チューリップ"
  },
  {
    "label": "951_02",
    "text": "ヒヨコ"
  },
  {
    "label": "951_03",
    "text": "サクラ"
  },
  {
    "label": "951_04",
    "text": "カエル"
  },
  {
    "label": "952_01",
    "text": "あかネクタイ"
  },
  {
    "label": "952_02",
    "text": "くろネクタイ"
  },
  {
    "label": "953_01",
    "text": "1ばん"
  },
  {
    "label": "953_02",
    "text": "2ばん"
  },
  {
    "label": "953_03",
    "text": "3ばん"
  },
  {
    "label": "953_04",
    "text": "4ばん"
  },
  {
    "label": "953_05",
    "text": "5ばん"
  },
  {
    "label": "953_06",
    "text": "6ばん"
  },
  {
    "label": "953_07",
    "text": "7ばん"
  },
  {
    "label": "953_08",
    "text": "8ばん"
  },
  {
    "label": "954_01",
    "text": "パスタ"
  },
  {
    "label": "955_01",
    "text": "レッドストライプタイ"
  },
  {
    "label": "955_02",
    "text": "ブルーストライプタイ"
  },
  {
    "label": "955_03",
    "text": "パープルストライプタイ"
  },
  {
    "label": "955_04",
    "text": "グリーンストライプタイ"
  },
  {
    "label": "955_05",
    "text": "モノクロストライプタイ"
  },
  {
    "label": "956_01",
    "text": "ブルー×レッド"
  },
  {
    "label": "956_02",
    "text": "ブラック×ブルー"
  },
  {
    "label": "956_03",
    "text": "ブラック×レッド"
  },
  {
    "label": "956_04",
    "text": "ブラック×イエロー"
  },
  {
    "label": "956_05",
    "text": "レッド×グリーン"
  },
  {
    "label": "956_06",
    "text": "オレンジ×レッド"
  },
  {
    "label": "956_07",
    "text": "グリーン×パープル"
  },
  {
    "label": "956_08",
    "text": "パープル×ピンク"
  },
  {
    "label": "957_01",
    "text": "たすき"
  },
  {
    "label": "957_02",
    "text": "げんろく"
  },
  {
    "label": "957_03",
    "text": "ひしやまがた"
  },
  {
    "label": "957_04",
    "text": "わ"
  },
  {
    "label": "957_05",
    "text": "ほしちらし"
  },
  {
    "label": "957_06",
    "text": "じゅうじたすき"
  },
  {
    "label": "957_07",
    "text": "たてじま"
  },
  {
    "label": "957_08",
    "text": "のこぎりはがた"
  },
  {
    "label": "958_01",
    "text": "レッド×ホワイト"
  },
  {
    "label": "958_02",
    "text": "ブルー×ホワイト"
  },
  {
    "label": "958_03",
    "text": "グリーン×ホワイト"
  },
  {
    "label": "958_04",
    "text": "オレンジ×ホワイト"
  },
  {
    "label": "958_05",
    "text": "レッド×ブラック"
  },
  {
    "label": "958_06",
    "text": "ブルー×ブラック"
  },
  {
    "label": "958_07",
    "text": "グリーン×ブラック"
  },
  {
    "label": "958_08",
    "text": "オレンジ×ブラック"
  },
  {
    "label": "959_01",
    "text": "バニラ"
  },
  {
    "label": "959_02",
    "text": "チョコ"
  },
  {
    "label": "959_03",
    "text": "きんぱく"
  },
  {
    "label": "959_04",
    "text": "いちご"
  },
  {
    "label": "959_05",
    "text": "まっちゃ"
  },
  {
    "label": "959_06",
    "text": "ラムネ"
  },
  {
    "label": "959_07",
    "text": "むらさきいも"
  },
  {
    "label": "959_08",
    "text": "くろごま"
  },
  {
    "label": "959_09",
    "text": "マンゴー"
  },
  {
    "label": "959_10",
    "text": "チョコレートMIX"
  },
  {
    "label": "959_11",
    "text": "ストロベリーMIX"
  },
  {
    "label": "959_12",
    "text": "レインボー"
  },
  {
    "label": "960_01",
    "text": "M"
  },
  {
    "label": "960_02",
    "text": "フラワー"
  },
  {
    "label": "960_03",
    "text": "ドット"
  },
  {
    "label": "960_04",
    "text": "カラフルキルト"
  },
  {
    "label": "960_05",
    "text": "チェリー"
  },
  {
    "label": "960_06",
    "text": "デニムストライプ"
  },
  {
    "label": "960_07",
    "text": "フォレスト"
  },
  {
    "label": "960_08",
    "text": "ヒヨコ"
  },
  {
    "label": "961_01",
    "text": "M"
  },
  {
    "label": "961_02",
    "text": "フラワー"
  },
  {
    "label": "961_03",
    "text": "スター"
  },
  {
    "label": "961_04",
    "text": "アニマル"
  },
  {
    "label": "961_05",
    "text": "テディベア"
  },
  {
    "label": "961_06",
    "text": "ワンポイント"
  },
  {
    "label": "961_07",
    "text": "キルトパターン"
  },
  {
    "label": "961_08",
    "text": "ヒヨコ"
  },
  {
    "label": "962_01",
    "text": "M"
  },
  {
    "label": "962_02",
    "text": "フラワー"
  },
  {
    "label": "962_03",
    "text": "アニマル"
  },
  {
    "label": "962_04",
    "text": "キルトパターン"
  },
  {
    "label": "962_05",
    "text": "フルーツ"
  },
  {
    "label": "962_06",
    "text": "デニム"
  },
  {
    "label": "962_07",
    "text": "フォレスト"
  },
  {
    "label": "962_08",
    "text": "ファミリー"
  },
  {
    "label": "963_01",
    "text": "ネイビー×ライトブルー×ピンク"
  },
  {
    "label": "963_02",
    "text": "ホワイト×ブルー×グリーン"
  },
  {
    "label": "963_03",
    "text": "ホワイト×イエロー×レッド"
  },
  {
    "label": "963_04",
    "text": "ブラック×コーラル×ピンク"
  },
  {
    "label": "963_05",
    "text": "オレンジ×イエロー×ブラック"
  },
  {
    "label": "963_06",
    "text": "グレー×ホワイト×ライトブルー"
  },
  {
    "label": "964_01",
    "text": "グリーン×ホワイト"
  },
  {
    "label": "964_02",
    "text": "グリーン×ブルー"
  },
  {
    "label": "964_03",
    "text": "グリーン×レッド"
  },
  {
    "label": "965_01",
    "text": "ガーネット"
  },
  {
    "label": "965_02",
    "text": "エメラルド"
  },
  {
    "label": "965_03",
    "text": "トパーズ"
  },
  {
    "label": "965_04",
    "text": "アメジスト"
  },
  {
    "label": "966_01",
    "text": "レッド×イエロー"
  },
  {
    "label": "966_02",
    "text": "ブルー×グリーン"
  },
  {
    "label": "966_03",
    "text": "ネイビー×ブルー"
  },
  {
    "label": "966_04",
    "text": "ネイビー×レッド"
  },
  {
    "label": "967_01",
    "text": "ナチュラル×レッド"
  },
  {
    "label": "967_02",
    "text": "ナチュラル×グリーン"
  },
  {
    "label": "968_01",
    "text": "イエロー×ネイビー"
  },
  {
    "label": "968_02",
    "text": "グリーン×ネイビー"
  },
  {
    "label": "968_03",
    "text": "ワインレッド×ネイビー"
  },
  {
    "label": "968_04",
    "text": "ベージュ×ネイビー"
  },
  {
    "label": "968_05",
    "text": "グリーン×パープル"
  },
  {
    "label": "968_06",
    "text": "イエロー×レッド"
  },
  {
    "label": "968_07",
    "text": "ネイビー×グレー"
  },
  {
    "label": "968_08",
    "text": "ライトブルー×ブラック"
  },
  {
    "label": "969_01",
    "text": "ブラック×ブルー"
  },
  {
    "label": "969_02",
    "text": "ブラック×レッド"
  },
  {
    "label": "969_03",
    "text": "イエロー×カーキ"
  },
  {
    "label": "969_04",
    "text": "レッド×グリーン"
  },
  {
    "label": "969_05",
    "text": "ライム×パープル"
  },
  {
    "label": "969_06",
    "text": "ブルー×パープル"
  },
  {
    "label": "970_01",
    "text": "レッド×ライトブルー"
  },
  {
    "label": "970_02",
    "text": "ブルー×オレンジ"
  },
  {
    "label": "970_03",
    "text": "ライム×ピンク"
  },
  {
    "label": "970_04",
    "text": "イエロー×パープル"
  },
  {
    "label": "970_05",
    "text": "ライトブルー×レッド"
  },
  {
    "label": "970_06",
    "text": "パープル×グリーン"
  },
  {
    "label": "970_07",
    "text": "ピンク×イエロー"
  },
  {
    "label": "970_08",
    "text": "ブラック×グレー"
  },
  {
    "label": "971_01",
    "text": "レッドリボン"
  },
  {
    "label": "971_02",
    "text": "グリーンリボン"
  },
  {
    "label": "971_03",
    "text": "ブルーリボン"
  },
  {
    "label": "971_04",
    "text": "ブラックリボン"
  }
]