﻿[
  {
    "label": "001",
    "attribute": "0x00000B0000000000",
    "text": "{{anim id=\"EmotEnd\" target=\"actor\" targetSpec=\"\"}}Hey,{{delay8}} whaddaya think is in here?{{delay20}}\nIf you get it right{{string value=\"...\"}}{{delay8}}{{anim id=\"BigSmile\" target=\"actor\" targetSpec=\"\"}}I'll give it to you!{{delay8}}{{anim id=\"FaintSmile\" target=\"actor\" targetSpec=\"\"}}"
  },
  {
    "label": "002",
    "attribute": "0x0000000000000000",
    "text": "{{anim id=\"Nodding\" target=\"actor\" targetSpec=\"\"}}You figure it's {{wordArticle}}{{fun_00000082 arg=\"0x00CD\"}}?{{delay20}}\nWell then,{{delay8}} open 'er up!"
  },
  {
    "label": "003",
    "attribute": "0x0000000000000000",
    "text": "{{anim id=\"Smiling\" target=\"actor\" targetSpec=\"\"}}Whoa now!{{delay20}} You got it right!{{delay frames=\"30\"}}\n{{capitalizeNextLetter}}{{wordArticle}}{{fun_00000082 arg=\"0x01CD\"}}!{{delay frames=\"40\"}} {{anim id=\"FaintSmile\" target=\"actor\" targetSpec=\"\"}}Like I promised,{{delay20}}\nhere's your reward!"
  },
  {
    "label": "004",
    "attribute": "0x0000000000000000",
    "text": "{{anim id=\"BigSmile\" target=\"actor\" targetSpec=\"\"}}{{capitalizeNextLetter}}{{wordArticle}}{{fun_00000082 arg=\"0x01CD\"}}!{{delay frames=\"40\"}}\n{{anim id=\"Negative\" target=\"actor\" targetSpec=\"\"}}Sorry, but you got it wrong!"
  },
  {
    "label": "005",
    "attribute": "0x0000000000000000",
    "text": "{{anim id=\"Nodding\" target=\"actor\" targetSpec=\"\"}}I'm lettin' you have my just-returned\n{{fun_0000007D arg=\"0x0000\"}}!"
  },
  {
    "label": "006",
    "attribute": "0x0000000000000000",
    "text": "{{anim id=\"Nodding\" target=\"actor\" targetSpec=\"\"}}I figure you can have my\n{{fun_0000007D arg=\"0x0000\"}}.{{delay frames=\"30\"}} {{anim id=\"Greeting\" target=\"actor\" targetSpec=\"\"}}Enjoy!"
  },
  {
    "label": "007",
    "attribute": "0x0000000000000000",
    "text": "{{anim id=\"Nodding\" target=\"actor\" targetSpec=\"\"}}Anyway,{{delay8}} here's the dang old\n{{fun_0000007D arg=\"0x0000\"}} that I\nordered.{{delay20}} I'm givin' it to you as a gift!"
  },
  {
    "label": "008",
    "attribute": "0x0000000000000000",
    "text": "{{anim id=\"Greeting\" target=\"actor\" targetSpec=\"\"}}Thanks for goin' outta\nyer way to make the\ndelivery, {{string value=\"NickName\"}}!"
  },
  {
    "label": "009",
    "attribute": "0x0000000000000000",
    "text": "{{anim id=\"Nodding\" target=\"actor\" targetSpec=\"\"}}Anyway,{{delay8}}{{anim id=\"FaintSmile\" target=\"actor\" targetSpec=\"\"}} thanks for goin' outta\nyer way to make the delivery,\n{{string value=\"NickName\"}}!"
  },
  {
    "label": "101",
    "attribute": "0x0000000000000000",
    "text": "{{anim id=\"Nodding\" target=\"actor\" targetSpec=\"\"}}Thanks for goin' outta yer way to get\nthis to me,{{delay8}} {{string value=\"NickName\"}}!{{pageBreak}}{{anim id=\"Greeting\" target=\"actor\" targetSpec=\"\"}}Here's a little somethin'\nfor yer troubles!"
  },
  {
    "label": "102",
    "attribute": "0x0000000000000000",
    "text": "{{anim id=\"BigSmile\" target=\"actor\" targetSpec=\"\"}}Thanks for bringin'\nthis over,{{delay8}}{{anim id=\"FaintSmile\" target=\"actor\" targetSpec=\"\"}} {{string value=\"NickName\"}}!{{pageBreak}}{{anim id=\"Nodding\" target=\"actor\" targetSpec=\"\"}}Thanks to you,{{delay8}} I reckon that goofy\n{{selection value=\"SelectedVillager\"}} and me'll be able\nto patch things up!{{delay frames=\"30\"}} Here,{{delay8}} take this!"
  },
  {
    "label": "103",
    "attribute": "0x0000000000000000",
    "text": "{{anim id=\"Nodding\" target=\"actor\" targetSpec=\"\"}}It's my photo!{{delay20}} {{anim id=\"FaintSmile\" target=\"actor\" targetSpec=\"\"}}Find a special place\nfor that, y'hear?"
  },
  {
    "label": "104",
    "attribute": "0x0000000000000000",
    "text": "{{anim id=\"Nodding\" target=\"actor\" targetSpec=\"\"}}{{capitalizeNextLetter}}{{wordArticle}}{{fun_0004007D arg=\"0x0000\"}}!{{delay20}}\n{{anim id=\"FaintSmile\" target=\"actor\" targetSpec=\"\"}}Check it out,{{delay8}} if you wanna!"
  },
  {
    "label": "105",
    "attribute": "0x0000000000000000",
    "text": "{{anim id=\"Nodding\" target=\"actor\" targetSpec=\"\"}}{{capitalizeNextLetter}}{{wordArticle}}{{fun_0004007D arg=\"0x0000\"}}!{{delay frames=\"30\"}}\n{{anim id=\"FaintSmile\" target=\"actor\" targetSpec=\"\"}}Try it on,{{delay20}} if you wanna!"
  },
  {
    "label": "106",
    "attribute": "0x0000000000000000",
    "text": "{{anim id=\"Nodding\" target=\"actor\" targetSpec=\"\"}}{{capitalizeNextLetter}}{{wordArticle}}{{fun_0004007D arg=\"0x0000\"}}!{{delay20}}\n{{anim id=\"FaintSmile\" target=\"actor\" targetSpec=\"\"}}Have a little snack, why don'tcha?\nCooked it myself! {{delay40}}More or less."
  },
  {
    "label": "107",
    "attribute": "0x0000000000000000",
    "text": "{{anim id=\"Greeting\" target=\"actor\" targetSpec=\"\"}}Thanks for haulin' that around,{{delay20}}\n{{string value=\"NickName\"}}!{{delay20}} Yer a regular\npack mule, y'know? "
  },
  {
    "label": "108",
    "attribute": "0x0000000000000000",
    "text": "{{anim id=\"Greeting\" target=\"actor\" targetSpec=\"\"}}Thank you for makin' that delivery\nfor me,{{delay20}} {{string value=\"NickName\"}}!{{pageBreak}}{{anim id=\"Smiling\" target=\"actor\" targetSpec=\"\"}}Reckon I can go try an' patch things\nup with {{selection value=\"SelectedVillager\"}} now!"
  },
  {
    "label": "109",
    "attribute": "0x0000000000000000",
    "text": "{{anim id=\"Nodding\" target=\"actor\" targetSpec=\"\"}}My {{fun_0004007D arg=\"0x0000\"}}'s so\nwell used it's {{anim id=\"Laughing\" target=\"actor\" targetSpec=\"\"}}near fallin' apart{{string value=\"...\"}}\nbut it's yours if you want it!"
  },
  {
    "label": "110",
    "attribute": "0x0000000000000000",
    "text": "{{anim id=\"Restless\" target=\"actor\" targetSpec=\"\"}}Not much of a reward, but{{delay8}}{{string value=\"...\"}}\n{{anim id=\"Angry\" target=\"actor\" targetSpec=\"\"}}Aw, heck!{{delay frames=\"30\"}} It's more'n you\nhad a minute ago!"
  },
  {
    "label": "111",
    "attribute": "0x0000000000000000",
    "text": "{{anim id=\"Nodding\" target=\"actor\" targetSpec=\"\"}}My {{fun_0004007D arg=\"0x0000\"}}{{delay8}}{{string value=\"...\"}}\nConsider it a reward,{{delay20}} OK?"
  },
  {
    "label": "112",
    "attribute": "0x0000000000000000",
    "text": "{{anim id=\"Hesitate\" target=\"actor\" targetSpec=\"\"}}Hope you like it,{{delay20}} {{string value=\"Catchphrase\"}}{{delay8}}{{string value=\"...\"}}"
  },
  {
    "label": "201",
    "attribute": "0x0000000000000000",
    "text": "{{anim id=\"Eh\" target=\"actor\" targetSpec=\"\"}}Oh,{{delay8}} I lent that to {{selection value=\"SelectedVillager\"}}!"
  },
  {
    "label": "202",
    "attribute": "0x0000000000000000",
    "text": "{{anim id=\"Shocked\" target=\"actor\" targetSpec=\"\"}}My {{fun_0000007D arg=\"0x0000\"}}?!{{delay frames=\"30\"}}\n{{anim id=\"OhGeez\" target=\"actor\" targetSpec=\"\"}}Shoot. Did I forget that at\n{{selection value=\"SelectedVillager\"}}'s place?"
  },
  {
    "label": "203",
    "attribute": "0x0000020000000000",
    "text": "{{anim id=\"Aha\" target=\"actor\" targetSpec=\"\"}}It got took to {{selection value=\"SelectedVillager\"}}'s?\nDangit! {{anim id=\"Fuming\" target=\"actor\" targetSpec=\"\"}}Shouldn't be that hard {{delay8}}to\nget stuff {{delay8}}where it's supposed to go!{{pageBreak}}{{anim id=\"QuestionMark\" target=\"actor\" targetSpec=\"\"}}Eh?{{delay8}} Why's this package open?"
  },
  {
    "label": "203_a",
    "attribute": "0x0000000000000000",
    "text": "{{anim id=\"EmotEnd\" target=\"actor\" targetSpec=\"\"}}I opened it."
  },
  {
    "label": "203_b",
    "attribute": "0x0000000000000000",
    "text": "{{anim id=\"EmotEnd\" target=\"actor\" targetSpec=\"\"}}..."
  },
  {
    "label": "204",
    "attribute": "0x0000000000000000",
    "text": "{{anim id=\"Eh\" target=\"actor\" targetSpec=\"\"}}{{delay20}}Whaddaya got? Somethin' from\n{{selection value=\"SelectedVillager\"}}, for me?{{pageBreak}}{{anim id=\"Thinking\" target=\"actor\" targetSpec=\"\"}}{{delay20}}{{capitalizeNextLetter}}{{wordArticle}}{{fun_0000007D arg=\"0x0000\"}}.\n{{delay20}}Well, don't that beat all?"
  },
  {
    "label": "205",
    "attribute": "0x0000000000000000",
    "text": "{{anim id=\"Shocked\" target=\"actor\" targetSpec=\"\"}}This is from {{selection value=\"SelectedVillager\"}}?{{pageBreak}}{{anim id=\"Thinking\" target=\"actor\" targetSpec=\"\"}}Guess {{gender3 m=\"he\" f=\"she\"}} was worried after what\nhappened.{{delay frames=\"40\"}} {{anim id=\"EmotEnd\" target=\"actor\" targetSpec=\"\"}}Suppose I oughta go\napologize too{{string value=\"...\"}}"
  },
  {
    "label": "206",
    "attribute": "0x0000000000000000",
    "text": "{{anim id=\"Nodding\" target=\"actor\" targetSpec=\"\"}}I completely forgot about this.{{delay20}}\n{{anim id=\"Smiling\" target=\"actor\" targetSpec=\"\"}}Thanks for goin' outta yer way\nto bring it to me!"
  },
  {
    "label": "207",
    "attribute": "0x0000000000000000",
    "text": "{{anim id=\"Nodding\" target=\"actor\" targetSpec=\"\"}}Aw, heck! I thought for sure\nI'd lost this.{{delay frames=\"30\"}} {{anim id=\"FaintSmile\" target=\"actor\" targetSpec=\"\"}}Thanks for bringin'\nit to me, {{string value=\"6\"}}!"
  },
  {
    "label": "208",
    "attribute": "0x0000000000000000",
    "text": "{{anim id=\"OhGeez\" target=\"actor\" targetSpec=\"\"}}You figure {{selection value=\"SelectedVillager\"}} musta\nopened it by mistake?{{delay40}} Well, that's\nsure embarrassin'.{{pageBreak}}{{anim id=\"Nodding\" target=\"actor\" targetSpec=\"\"}}Anyway, {{string value=\"NickName\"}},{{delay20}}\nthanks for bringin' it to me!"
  },
  {
    "label": "209",
    "attribute": "0x0000000000000000",
    "text": "{{anim id=\"Nodding\" target=\"actor\" targetSpec=\"\"}}Anyway. {{capitalizeNextLetter}}{{string value=\"NickName\"}},{{delay8}}\n{{anim id=\"FaintSmile\" target=\"actor\" targetSpec=\"\"}}thanks for gettin' it to me!"
  },
  {
    "label": "210",
    "attribute": "0x0000000000000000",
    "text": "{{anim id=\"Nodding\" target=\"actor\" targetSpec=\"\"}}Anyway. {{capitalizeNextLetter}}{{string value=\"NickName\"}},{{delay20}} thanks\nfor bringin' this to me.{{pageBreak}}{{anim id=\"FaintSmile\" target=\"actor\" targetSpec=\"\"}}Maybe me and {{selection value=\"SelectedVillager\"}}\ncan finally patch things up!"
  },
  {
    "label": "220",
    "attribute": "0x0000020000000000",
    "text": "{{anim id=\"OhGeez\" target=\"actor\" targetSpec=\"\"}}But y'know,{{delay8}} {{gender8 m=\"he\" f=\"she\" n=\"\"}} really could've\nwrapped it or somethin'.{{pageBreak}}{{anim id=\"EmotEnd\" target=\"actor\" targetSpec=\"\"}}Well,{{delay8}} don't suppose there's\nany use in tellin' {{delay8}}you that."
  },
  {
    "label": "220_a",
    "attribute": "0x0000000000000000",
    "text": "{{anim id=\"EmotEnd\" target=\"actor\" targetSpec=\"\"}}Well, actually..."
  },
  {
    "label": "220_b",
    "attribute": "0x0000000000000000",
    "text": "{{anim id=\"EmotEnd\" target=\"actor\" targetSpec=\"\"}}..."
  },
  {
    "label": "221",
    "attribute": "0x0000000000000000",
    "text": "{{anim id=\"TakenAback\" target=\"actor\" targetSpec=\"\"}}What?!{{delay20}}\nYOU opened it?{{pageBreak}}{{anim id=\"Worried\" target=\"actor\" targetSpec=\"\"}}Well,{{delay8}} at least you were honest about\nit. Gotta give you credit for that."
  },
  {
    "label": "222",
    "attribute": "0x0000000000000000",
    "text": "{{anim id=\"Angry\" target=\"actor\" targetSpec=\"\"}}But next time,{{delay8}} {{anim id=\"Fuming\" target=\"actor\" targetSpec=\"\"}}be more careful!"
  },
  {
    "label": "223",
    "attribute": "0x0000000000000000",
    "text": "{{anim id=\"Nodding\" target=\"actor\" targetSpec=\"\"}}Doesn't matter what kinda shape it's\nin.{{delay8}} Thanks for gettin' it to me!{{pageBreak}}{{anim id=\"FaintSmile\" target=\"actor\" targetSpec=\"\"}}Here, lemme thank ya with {{wordArticle}}\n{{fun_0004007D arg=\"0x0000\"}}!{{delay frames=\"40\"}}\n{{anim id=\"Greeting\" target=\"actor\" targetSpec=\"\"}}Ain't nothin' fancy,{{delay20}} but still."
  },
  {
    "label": "224",
    "attribute": "0x0000000000000000",
    "text": "{{anim id=\"Negative\" target=\"actor\" targetSpec=\"\"}}Next time,{{delay8}} you best be more careful!"
  },
  {
    "label": "225",
    "attribute": "0x0000000000000000",
    "text": "{{anim id=\"Laughing\" target=\"actor\" targetSpec=\"\"}}Well,{{delay8}} I myself ain't the best at\nbein' considerate.{{delay20}} So I reckon\nI can't say nothin'!{{pageBreak}}{{anim id=\"Nodding\" target=\"actor\" targetSpec=\"\"}}Anyways, thanks for helpin' me out!{{delay20}}\nI appreciate you deliverin' this,\n{{string value=\"NickName\"}}!"
  },
  {
    "label": "226",
    "attribute": "0x0000000000000000",
    "text": "{{anim id=\"Laughing\" target=\"actor\" targetSpec=\"\"}}Well,{{delay8}} I can't complain since\nI got this back. {{delay20}}{{anim id=\"Nodding\" target=\"actor\" targetSpec=\"\"}} Thanks for\nbringin' it to me, {{string value=\"6\"}}!"
  },
  {
    "label": "227",
    "attribute": "0x0000000000000000",
    "text": "{{anim id=\"Laughing\" target=\"actor\" targetSpec=\"\"}}Well,{{delay8}} I can't complain since\nI got a present! {{delay20}}{{anim id=\"Nodding\" target=\"actor\" targetSpec=\"\"}} Thanks for\nbringin' it to me, {{string value=\"6\"}}!"
  },
  {
    "label": "228",
    "attribute": "0x0000000000000000",
    "text": "{{anim id=\"Nodding\" target=\"actor\" targetSpec=\"\"}}Thanks for goin' outta your way to\nget this to me,{{delay20}} {{string value=\"Catchphrase\"}}!{{pageBreak}}{{anim id=\"Restless\" target=\"actor\" targetSpec=\"\"}}Hopefully me and {{selection value=\"SelectedVillager\"}}\ncan make up now."
  },
  {
    "label": "230",
    "attribute": "0x0000000000000000",
    "text": "{{anim id=\"Surprised\" target=\"actor\" targetSpec=\"\"}}What?!{{delay20}} You opened it?{{delay40}}\nWhy'd you go and do that?"
  },
  {
    "label": "231",
    "attribute": "0x0000000000000000",
    "text": "{{anim id=\"OhGeez\" target=\"actor\" targetSpec=\"\"}}Well{{delay8}}{{string value=\"...\"}} I reckon everybody goofs\nup sometimes."
  },
  {
    "label": "232",
    "attribute": "0x0000000000000000",
    "text": "{{anim id=\"Negative\" target=\"actor\" targetSpec=\"\"}}Next time,{{delay8}} be more careful!"
  },
  {
    "label": "233",
    "attribute": "0x0000000000000000",
    "text": "{{anim id=\"Nodding\" target=\"actor\" targetSpec=\"\"}}Well, despite the shape it's in,{{delay20}}\nthanks for gettin' it to me anyway.{{pageBreak}}Here. {{anim id=\"Greeting\" target=\"actor\" targetSpec=\"\"}}It ain't much,{{delay20}} but have yourself\n{{wordArticle}}{{fun_0004007D arg=\"0x0000\"}}.{{delay frames=\"40\"}}\n{{anim id=\"BigSmile\" target=\"actor\" targetSpec=\"\"}}Just my way of sayin' thanks!{{anim id=\"FaintSmile\" target=\"actor\" targetSpec=\"\"}}"
  },
  {
    "label": "234",
    "attribute": "0x0000000000000000",
    "text": "{{anim id=\"Negative\" target=\"actor\" targetSpec=\"\"}}Next time,{{delay8}} be more careful!"
  },
  {
    "label": "235",
    "attribute": "0x0000000000000000",
    "text": "{{anim id=\"Angry\" target=\"actor\" targetSpec=\"\"}}Hey!{{delay8}} Even if we're bestest buds,{{delay20}}\nyou gotta show some kinda manners!"
  },
  {
    "label": "236",
    "attribute": "0x0000000000000000",
    "text": "{{anim id=\"Angry\" target=\"actor\" targetSpec=\"\"}}It don't matter if we've known\neach other longer'n there's been\npopcorn! {{delay20}}Show some manners!"
  },
  {
    "label": "237",
    "attribute": "0x0000000000000000",
    "text": "Well{{string value=\"...\"}}{{delay8}} I'm madder'n a three-legged\nhornet at a volleyball game, {{anim id=\"Nodding\" target=\"actor\" targetSpec=\"\"}}but at\nleast you were honest with me!{{pageBreak}}I'll let it go{{string value=\"...\"}}{{delay40}}this time!"
  },
  {
    "label": "238",
    "attribute": "0x0000000000000000",
    "text": "{{anim id=\"Negative\" target=\"actor\" targetSpec=\"\"}}Truth is{{delay8}}{{string value=\"...\"}} {{anim id=\"EmotEnd\" target=\"actor\" targetSpec=\"\"}}I ordered this for you.{{i10_4}}\n{{anim id=\"FaintSmile\" target=\"actor\" targetSpec=\"\"}}So go on ahead and take it!"
  },
  {
    "label": "239",
    "attribute": "0x0000000000000000",
    "text": "{{anim id=\"Nodding\" target=\"actor\" targetSpec=\"\"}}Next time,{{delay8}} dangit,{{delay8}} you gotta be\nmore careful!"
  }
]