﻿[
  {
    "label": "001",
    "attribute": "0x0000000000000000",
    "text": "{{fun_0014003C arg=\"\"}}"
  },
  {
    "label": "001_01",
    "attribute": "0x0000000000000000",
    "text": "{{anim id=\"Smiling\" target=\"actor\" targetSpec=\"\"}}Merci pour {{fun_00010032 arg=\"\"}}{{fun_0005007D arg=\"0x00CD\"}}, {{string value=\"NickName\"}}!{{pageBreak}}{{anim id=\"Nodding\" target=\"actor\" targetSpec=\"\"}}{{gender8 m=\"Il\" f=\"Elle\" n=\"\"}} me va bien, non?{{delay20}}{{anim id=\"EmotEnd\" target=\"actor\" targetSpec=\"\"}} Regarde un\npeu ça, {{string value=\"6\"}}!"
  },
  {
    "label": "001_02",
    "attribute": "0x0000000000000000",
    "text": "{{anim id=\"Smiling\" target=\"actor\" targetSpec=\"\"}}Regarde! Je porte {{fun_00010032 arg=\"\"}}{{fun_0005007D arg=\"0x00CD\"}} que j'ai récupéré{{gender8 m=\"\" f=\"e\" n=\"\"}} grâce à toi!{{pageBreak}}{{anim id=\"Dance\" target=\"actor\" targetSpec=\"\"}}Alors?{{delay20}} Pas mal, hein?{{pageBreak}}{{anim id=\"Nodding\" target=\"actor\" targetSpec=\"\"}}Je suis prêt à aller manger {{wordArticle}}{{randomSweets}}{{string value=\"...\"}} {{delay20}}{{anim id=\"Confused\" target=\"actor\" targetSpec=\"\"}}ou à faire {{wordArticle}}{{randomSports}}{{string value=\"...\"}} {{delay20}}{{anim id=\"WrySmile\" target=\"actor\" targetSpec=\"\"}}au choix{{string value=\"...\"}}"
  },
  {
    "label": "001_03",
    "attribute": "0x0000000000000000",
    "text": "{{anim id=\"FaintSmile\" target=\"actor\" targetSpec=\"\"}}Hé! Regarde un peu, {{string value=\"NickName\"}}!{{pageBreak}}Je porte {{gender8 m=\"le\" f=\"la\" n=\"\"}} super\n{{fun_0005007D arg=\"0x00CD\"}} que tu m'as cédé{{gender8 m=\"\" f=\"e\" n=\"\"}}!{{pageBreak}}{{anim id=\"HappyDance\" target=\"actor\" targetSpec=\"\"}}{{gender8 m=\"Il\" f=\"Elle\" n=\"\"}} me va comme de la chantilly\nsur un banana split, {{string value=\"6\"}}!"
  },
  {
    "label": "002",
    "attribute": "0x0000000000000000",
    "text": "{{fun_0014003C arg=\"\"}}"
  },
  {
    "label": "002_01",
    "attribute": "0x0000000000000000",
    "text": "{{anim id=\"HappyDance\" target=\"actor\" targetSpec=\"\"}}Hé, regarde! Tu as vu m{{gender8 m=\"on\" f=\"a\" n=\"\"}} nouve{{gender8 m=\"au\" f=\"lle\" n=\"\"}}\n{{fun_0005007D arg=\"0x00CD\"}}! {{gender8 m=\"Il\" f=\"Elle\" n=\"\"}} me va bien, non?{{pageBreak}}{{anim id=\"BigSmile\" target=\"actor\" targetSpec=\"\"}}Je {{gender8 m=\"le\" f=\"la\" n=\"\"}} tiens {{gender4 m=\"de \" f=\"d'\"}}⁠{{selection value=\"SelectedName\"}}!{{delay frames=\"40\"}}\n{{anim id=\"ShyBoy\" target=\"actor\" targetSpec=\"\"}}On peut dire qu'{{gender8 m=\"il\" f=\"elle\" n=\"\"}} a tout compris\nà mon style, {{string value=\"6\"}}!"
  },
  {
    "label": "002_02",
    "attribute": "0x0000000000000000",
    "text": "{{anim id=\"Hello\" target=\"actor\" targetSpec=\"\"}}Dis, {{string value=\"NickName\"}},{{delay20}}{{anim id=\"SmugFace\" target=\"actor\" targetSpec=\"\"}} qu'est-ce que tu penses de m{{gender8 m=\"on\" f=\"a\" n=\"\"}} super {{fun_0005007D arg=\"0x00CD\"}}?{{pageBreak}}{{anim id=\"Nodding\" target=\"actor\" targetSpec=\"\"}}Super, non?{{delay20}}{{anim id=\"Restless\" target=\"actor\" targetSpec=\"\"}} Et tu devineras jamais\nqui m'a permis de mettre la\npatte dessus!{{delay20}} {{anim id=\"Cheering\" target=\"actor\" targetSpec=\"\"}}{{capitalizeNextLetter}}{{selection value=\"SelectedName\"}}!{{pageBreak}}{{anim id=\"Assent\" target=\"actor\" targetSpec=\"\"}}{{gender1 m=\"Il\" f=\"Elle\"}} devait savoir à quel point ça\nm'irait bien.{{delay20}}{{anim id=\"WrySmile\" target=\"actor\" targetSpec=\"\"}} Les grands esprits se\nrencontrent,{{delay20}} comme on dit."
  },
  {
    "label": "003",
    "attribute": "0x0000000000000000",
    "text": "{{fun_0014003C arg=\"\"}}"
  },
  {
    "label": "003_01",
    "attribute": "0x0000000000000000",
    "text": "Hé hé!{{delay20}}{{anim id=\"QuestionMark\" target=\"actor\" targetSpec=\"\"}} J'adore mon nouveau look!{{delay20}}\nJe suis super tendance, comme ils\ndisent à la télé{{string value=\"...\"}}{{pageBreak}}{{anim id=\"BigSmile\" target=\"actor\" targetSpec=\"\"}}Hé oui! Je porte {{fun_00010032 arg=\"\"}}{{fun_0006007D arg=\"0x00CD\"}} que je tiens de toi!{{pageBreak}}{{anim id=\"SmugFace\" target=\"actor\" targetSpec=\"\"}}Et je vais continuer à {{gender8 m=\"le\" f=\"la\" n=\"\"}} porter\njusqu'à ce qu'{{gender8 m=\"il\" f=\"elle\" n=\"\"}} sente le moi, {{string value=\"6\"}}!"
  },
  {
    "label": "003_02",
    "attribute": "0x0000000000000000",
    "text": "{{anim id=\"Hesitate\" target=\"actor\" targetSpec=\"\"}}Dis,{{delay20}} tu ne remarques rien de changé\nchez moi?{{delay20}} Par exemple,{{delay frames=\"40\"}}{{anim id=\"BigSmile\" target=\"actor\" targetSpec=\"\"}} ce{{gender8 m=\"\" f=\"tte\" n=\"\"}} joli{{gender8 m=\"\" f=\"e\" n=\"\"}}\n{{fun_0006007D arg=\"0x00CD\"}}!{{pageBreak}}{{anim id=\"Smiling\" target=\"actor\" targetSpec=\"\"}}Hé oui, c'est de toi qu'{{gender8 m=\"il\" f=\"elle\" n=\"\"}} vient!{{delay20}}{{anim id=\"SmugFace\" target=\"actor\" targetSpec=\"\"}}\nEt je dois dire qu'{{gender8 m=\"il\" f=\"elle\" n=\"\"}} me va\ncomme un gant!"
  },
  {
    "label": "003_03",
    "attribute": "0x0000000000000000",
    "text": "{{anim id=\"Smiling\" target=\"actor\" targetSpec=\"\"}}{{capitalizeNextLetter}}{{fun_00010032 arg=\"\"}}{{fun_0006007D arg=\"0x00CD\"}} que j'ai obtenu{{gender8 m=\"\" f=\"e\" n=\"\"}} grâce à toi est mon accessoire fétiche!{{pageBreak}}{{anim id=\"HappyFlower\" target=\"actor\" targetSpec=\"\"}}Avec {{gender8 m=\"lui\" f=\"elle\" n=\"\"}}, j'ai l'impression d'être\n{{fun_00010032 arg=\"\"}}{{string value=\"VillagerRace\"}} l{{gender8 m=\"e\" f=\"a\" n=\"\"}} plus branché{{gender8 m=\"\" f=\"e\" n=\"\"}} {{gender4 m=\"de \" f=\"d'\"}}⁠{{string value=\"OtherIslandName\"}}!"
  },
  {
    "label": "004",
    "attribute": "0x0000000000000000",
    "text": "{{fun_0014003C arg=\"\"}}"
  },
  {
    "label": "004_01",
    "attribute": "0x0000000000000000",
    "text": "{{anim id=\"Smiling\" target=\"actor\" targetSpec=\"\"}}Hé, regarde un peu m{{gender8 m=\"on\" f=\"a\" n=\"\"}} nouve{{gender8 m=\"au\" f=\"lle\" n=\"\"}}\n{{fun_0006007D arg=\"0x00CD\"}}! Je l'ai eu{{gender8 m=\"\" f=\"e\" n=\"\"}} grâce à {{selection value=\"SelectedName\"}}!{{pageBreak}}{{anim id=\"SmugFace\" target=\"actor\" targetSpec=\"\"}}C'est la super classe, non?{{delay20}}{{anim id=\"HappyFlower\" target=\"actor\" targetSpec=\"\"}} Je me\nsens beaucoup plus sûr de moi avec\nça,{{delay20}} c'est comme une renaissance!"
  },
  {
    "label": "004_02",
    "attribute": "0x0000000000000000",
    "text": "{{anim id=\"QuestionMark\" target=\"actor\" targetSpec=\"\"}}Tu trouves pas que j'ai l'air plus\nsophistiqué que d'habitude?{{delay20}} C'est\n{{fun_00010032 arg=\"\"}}{{fun_0006007D arg=\"0x00CD\"}}!{{pageBreak}}{{anim id=\"Nodding\" target=\"actor\" targetSpec=\"\"}}Ce look vous est présenté par m{{gender8 m=\"on\" f=\"a\" n=\"\"}}\nsuper cop{{gender8 m=\"ain\" f=\"ine\" n=\"\"}} {{selection value=\"SelectedName\"}}!{{pageBreak}}{{anim id=\"WrySmile\" target=\"actor\" targetSpec=\"\"}}{{gender8 m=\"Il\" f=\"Elle\" n=\"\"}} doit penser que je suis quelqu'un de très{{string value=\"...\"}} sophisticationné,\nhein?"
  },
  {
    "label": "011",
    "attribute": "0x0000000000000000",
    "text": "{{anim id=\"Greeting\" target=\"actor\" targetSpec=\"\"}}Tu reconnais ça?{{delay frames=\"50\"}} C'est le motif\nsuper trop chic que tu as créé :\n« {{selection value=\"SelectedDesignName\"}} »!{{pageBreak}}{{anim id=\"Serious\" target=\"actor\" targetSpec=\"\"}}Je voulais absolument que tu me\nvoies le porter.{{delay frames=\"40\"}}{{anim id=\"EmotEnd\" target=\"actor\" targetSpec=\"\"}} Qu'est-ce que tu en\ndis, {{string value=\"6\"}}?"
  },
  {
    "label": "012",
    "attribute": "0x0000000000000000",
    "text": "{{anim id=\"QuestionMark\" target=\"actor\" targetSpec=\"\"}}Comment tu trouves ma tenue?{{delay frames=\"40\"}}\n{{anim id=\"Explain\" target=\"actor\" targetSpec=\"\"}}Le nom du motif, c'est « {{selection value=\"SelectedDesignName\"}} »⁠!{{pageBreak}}{{anim id=\"Pardon\" target=\"actor\" targetSpec=\"\"}}C'est l'œuvre d'un{{gender8 m=\"\" f=\"e\" n=\"\"}} artiste tout\nplein de talent qui s'appelle\n{{selection value=\"SelectedName\"}}!"
  },
  {
    "label": "013",
    "attribute": "0x0000000000000000",
    "text": "La tenue que je porte a été créée par\n{{selection value=\"SelectedName\"}} qui habite à {{selection value=\"SelectedIslandName\"}}!{{pageBreak}}{{anim id=\"Hello\" target=\"actor\" targetSpec=\"\"}}{{gender8 m=\"Il\" f=\"Elle\" n=\"\"}} a appelé ce motif « ⁠{{selection value=\"SelectedDesignName\"}} ⁠». C'est pas génial, ça?{{pageBreak}}{{anim id=\"FaintSmile\" target=\"actor\" targetSpec=\"\"}}Je pourrais répéter ce nom pendant\ndes heures sans me lasser! Ça\nrendrait tout le monde fou!{{pageBreak}}{{anim id=\"Laughing\" target=\"actor\" targetSpec=\"\"}}« ⁠{{capitalizeNextLetter}}{{selection value=\"SelectedDesignName\"}}. ⁠»{{delay frames=\"40\"}}\n{{anim id=\"Serious\" target=\"actor\" targetSpec=\"\"}}« ⁠Arrête ça, {{string value=\"VillagerName\"}}. ⁠»{{delay frames=\"40\"}}\n{{anim id=\"Laughing\" target=\"actor\" targetSpec=\"\"}}« ⁠{{capitalizeNextLetter}}{{selection value=\"SelectedDesignName\"}}. ⁠»"
  },
  {
    "label": "101",
    "attribute": "0x0000000000000000",
    "text": "{{fun_0014003C arg=\"\"}}"
  },
  {
    "label": "101_01",
    "attribute": "0x0000000000000000",
    "text": "{{anim id=\"Blushing\" target=\"actor\" targetSpec=\"\"}}Hé hé,{{delay20}} c'est pas pour me vanter,{{delay20}}\nmais je crois que je peux porter\nn'importe quoi,{{delay20}} ça m'ira toujours!{{pageBreak}}{{anim id=\"SmugFace\" target=\"actor\" targetSpec=\"\"}}Et cet{{gender8 m=\"\" f=\"te\" n=\"\"}} adorable {{fun_0005007D arg=\"0x00CD\"}} en est la meilleure preuve!{{pageBreak}}{{anim id=\"Love\" target=\"actor\" targetSpec=\"\"}}{{gender8 m=\"Il\" f=\"Elle\" n=\"\"}} fait vraiment ressortir mon côté\nchoupinou, {{string value=\"6\"}}!"
  },
  {
    "label": "101_02",
    "attribute": "0x0000000000000000",
    "text": "{{anim id=\"SmugFace\" target=\"actor\" targetSpec=\"\"}}Dis,{{delay8}} c'est vrai que j'ai l'air adorable\nquand je porte {{wordArticle}}{{fun_0005007D arg=\"0x00CD\"}}?{{pageBreak}}{{anim id=\"Thinking\" target=\"actor\" targetSpec=\"\"}}C'est ce que ma maman m'a dit,{{delay8}}\nmais bon{{string value=\"...\"}}{{pageBreak}}{{anim id=\"Negative\" target=\"actor\" targetSpec=\"\"}}Ma maman me dirait n'importe quoi\npour me faire finir mon assiette de\nbrocolis, {{string value=\"6\"}}."
  },
  {
    "label": "101_03",
    "attribute": "0x0000000000000000",
    "text": "{{anim id=\"Smiling\" target=\"actor\" targetSpec=\"\"}}Je suis vraiment à croquer, avec {{wordArticle}}{{fun_0005007D arg=\"0x00CD\"}}, tu trouves pas?{{pageBreak}}{{anim id=\"Love\" target=\"actor\" targetSpec=\"\"}}J'adore cette tenue. Je la mets, je me\nregarde dans le miroir et je me dis :\n« Ça, c'est un{{gender8 m=\"\" f=\"e\" n=\"\"}} joli{{gender8 m=\"\" f=\"e\" n=\"\"}} {{string value=\"VillagerRace\"}}! »{{pageBreak}}{{anim id=\"Blushing\" target=\"actor\" targetSpec=\"\"}}Et je deviens rouge comme une\ntomate, {{string value=\"6\"}}!"
  },
  {
    "label": "102",
    "attribute": "0x0000000000000000",
    "text": "{{fun_0014003C arg=\"\"}}"
  },
  {
    "label": "102_01",
    "attribute": "0x0000000000000000",
    "text": "{{anim id=\"Confused\" target=\"actor\" targetSpec=\"\"}}Comment je suis censé manger ou\nfaire la sieste{{delay20}} quand je porte {{wordArticle}}\n{{fun_0005007D arg=\"0x00CD\"}}?{{pageBreak}}{{anim id=\"Frantic\" target=\"actor\" targetSpec=\"\"}}{{gender8 m=\"Il\" f=\"Elle\" n=\"\"}} est trop cool pour que je risque\nde {{gender8 m=\"le\" f=\"la\" n=\"\"}} tacher ou de {{gender8 m=\"le\" f=\"la\" n=\"\"}} froisser,\n{{string value=\"6\"}}!{{pageBreak}}{{anim id=\"IdeaBulb\" target=\"actor\" targetSpec=\"\"}}Je sais!{{delay20}} Je porterai une serviette\nen mangeant{{delay20}}{{anim id=\"EmotEnd\" target=\"actor\" targetSpec=\"\"}} et{{string value=\"...\"}}{{delay20}}{{anim id=\"Aha\" target=\"actor\" targetSpec=\"\"}} Et je\ndormirai debout!{{pageBreak}}{{anim id=\"SmugFace\" target=\"actor\" targetSpec=\"\"}}Rien de plus simple pour un pro de\nla sieste comme moi!"
  },
  {
    "label": "102_02",
    "attribute": "0x0000000000000000",
    "text": "{{anim id=\"Greeting\" target=\"actor\" targetSpec=\"\"}}Comment tu me trouves dans ce{{gender8 m=\"\" f=\"tte\" n=\"\"}}\njoli{{gender8 m=\"\" f=\"e\" n=\"\"}} {{fun_0005007D arg=\"0x00CD\"}}?{{pageBreak}}{{anim id=\"Hesitate\" target=\"actor\" targetSpec=\"\"}}Cool,{{delay8}} je sais. {{delay20}}Mais pas TROP cool,\nj'espère.{{delay20}} Faudrait pas qu'on me\nprenne pour une star, {{string value=\"6\"}}."
  },
  {
    "label": "102_03",
    "attribute": "0x0000000000000000",
    "text": "{{anim id=\"Thinking\" target=\"actor\" targetSpec=\"\"}}On m'a dit que porter {{wordArticle}}{{fun_0005007D arg=\"0x00CD\"}} me donnerait l'air branché.{{pageBreak}}{{anim id=\"QuestionMark\" target=\"actor\" targetSpec=\"\"}}Tu es au courant des consignes de\nsécurité éventuelles? {{delay8}}{{anim id=\"Frantic\" target=\"actor\" targetSpec=\"\"}}Je veux pas\nme faire électrocuter en cas d'orage!"
  },
  {
    "label": "103",
    "attribute": "0x0000000000000000",
    "text": "{{fun_0014003C arg=\"\"}}"
  },
  {
    "label": "103_01",
    "attribute": "0x0000000000000000",
    "text": "{{anim id=\"Smiling\" target=\"actor\" targetSpec=\"\"}}{{gender8 m=\"Il\" f=\"Elle\" n=\"\"}} paie peut-être pas de mine,{{delay20}}\nmais {{gender8 m=\"il\" f=\"elle\" n=\"\"}} va avec tout, m{{gender8 m=\"on\" f=\"a\" n=\"\"}} petit{{gender8 m=\"\" f=\"e\" n=\"\"}}\n{{fun_0005007D arg=\"0x00CD\"}}!{{pageBreak}}{{anim id=\"Explain\" target=\"actor\" targetSpec=\"\"}}Alors si jamais je sais pas quoi\nporter,{{delay20}} je peux toujours compter sur\n{{gender8 m=\"lui\" f=\"elle\" n=\"\"}}, {{string value=\"6\"}}!"
  },
  {
    "label": "103_02",
    "attribute": "0x0000000000000000",
    "text": "{{anim id=\"BigSmile\" target=\"actor\" targetSpec=\"\"}}Admire-moi dans m{{gender8 m=\"on\" f=\"a\" n=\"\"}} magnifique\n{{fun_0005007D arg=\"0x00CD\"}}!{{pageBreak}}{{anim id=\"EmotEnd\" target=\"actor\" targetSpec=\"\"}}{{gender8 m=\"Il\" f=\"Elle\" n=\"\"}} me fait me sentir beaucoup trop\nadulte pour avoir le droit d'apprécier\nles dessins animés et les collations{{string value=\"...\"}}{{delay20}}\n{{anim id=\"Love\" target=\"actor\" targetSpec=\"\"}}Mais c'est parfait pour regarder\ndes séries d'animation et prendre\ndes collations!"
  },
  {
    "label": "103_03",
    "attribute": "0x0000000000000000",
    "text": "{{anim id=\"FaintSmile\" target=\"actor\" targetSpec=\"\"}}Tu sais quel est l'élément le plus confortable de ma tenue?{{delay20}} {{anim id=\"Smiling\" target=\"actor\" targetSpec=\"\"}}{{capitalizeNextLetter}}{{fun_00010032 arg=\"\"}}{{fun_0005007D arg=\"0x00CD\"}}!{{pageBreak}}{{anim id=\"HappyFlower\" target=\"actor\" targetSpec=\"\"}}Cette tenue, j'en suis friand! {{delay20}}Je la\nmets pour grignoter,{{delay8}} faire la sieste{{delay8}}\net grignoter pendant la sieste!"
  },
  {
    "label": "104",
    "attribute": "0x0000000000000000",
    "text": "{{fun_0014003C arg=\"\"}}"
  },
  {
    "label": "104_01",
    "attribute": "0x0000000000000000",
    "text": "{{anim id=\"Nodding\" target=\"actor\" targetSpec=\"\"}}Je suis pas beau comme un camion\navec ce{{gender8 m=\"\" f=\"tte\" n=\"\"}} superbe {{fun_0005007D arg=\"0x00CD\"}}?{{pageBreak}}{{anim id=\"Thinking\" target=\"actor\" targetSpec=\"\"}}Par contre,{{delay20}}{{anim id=\"Frantic\" target=\"actor\" targetSpec=\"\"}} il faut que je fasse\nattention à pas {{gender8 m=\"le\" f=\"la\" n=\"\"}} tacher en buvant\n{{wordArticle}}{{randomDrink}}{{string value=\"...\"}}"
  },
  {
    "label": "104_02",
    "attribute": "0x0000000000000000",
    "text": "{{anim id=\"Explain\" target=\"actor\" targetSpec=\"\"}}Pfiou{{string value=\"...\"}} J'ai l'impression que je dois\nme tenir tranquille quand je porte\n{{wordArticle}}{{fun_0005007D arg=\"0x00CD\"}}.{{pageBreak}}{{anim id=\"Thinking\" target=\"actor\" targetSpec=\"\"}}D'habitude,{{delay8}} je fais surtout attention\nà pas faire de taches,{{delay frames=\"40\"}}{{anim id=\"WrySmile\" target=\"actor\" targetSpec=\"\"}} mais là je dois\naussi pas faire de plis!"
  },
  {
    "label": "104_03",
    "attribute": "0x0000000000000000",
    "text": "{{anim id=\"SmugFace\" target=\"actor\" targetSpec=\"\"}}Tu es tombé{{gender2 m=\"\" f=\"e\"}} en extase devant\n{{fun_00010032 arg=\"\"}}{{fun_0005007D arg=\"0x00CD\"}} que je porte, hein?{{anim id=\"EmotEnd\" target=\"actor\" targetSpec=\"\"}}{{pageBreak}}Vas-y,{{delay8}} admire,{{delay8}} je t'en prie! {{delay20}}De toute\nfaçon, j'ai oublié ce que j'étais en\ntrain de faire, {{string value=\"6\"}}.{{anim id=\"EmotEnd\" target=\"actor\" targetSpec=\"\"}}"
  },
  {
    "label": "105",
    "attribute": "0x0000000000000000",
    "text": "{{fun_0014003C arg=\"\"}}"
  },
  {
    "label": "105_01",
    "attribute": "0x0000000000000000",
    "text": "{{anim id=\"Smiling\" target=\"actor\" targetSpec=\"\"}}{{capitalizeNextLetter}}{{wordArticle}}{{fun_0005007D arg=\"0x00CD\"}} comme cel{{gender8 m=\"ui\" f=\"le\" n=\"\"}}-là,{{delay20}} c'est résistant et confortable!{{pageBreak}}{{anim id=\"Smiling\" target=\"actor\" targetSpec=\"\"}}Et {{gender8 m=\"il\" f=\"elle\" n=\"\"}} s'abîme pas au lavage. {{delay20}}{{anim id=\"ShyBoy\" target=\"actor\" targetSpec=\"\"}}Enfin,\nvu comment j'en mets partout quand je mange,{{delay20}} il vaut mieux!"
  },
  {
    "label": "105_02",
    "attribute": "0x0000000000000000",
    "text": "{{anim id=\"Smiling\" target=\"actor\" targetSpec=\"\"}}Quand je porte {{gender8 m=\"ce\" f=\"cette\" n=\"\"}} superbe\n{{fun_0005007D arg=\"0x00CD\"}},{{delay8}} j'ai l'énergie d'un tigre!{{pageBreak}}{{anim id=\"Explain\" target=\"actor\" targetSpec=\"\"}}Les tigres,{{delay8}} ça dort bien 14 heures\npar jour,{{delay8}} non?"
  },
  {
    "label": "105_03",
    "attribute": "0x0000000000000000",
    "text": "{{anim id=\"Worried\" target=\"actor\" targetSpec=\"\"}}Va savoir pourquoi,{{delay8}} dès que je mets\n{{wordArticle}}{{fun_0005007D arg=\"0x00CD\"}}, on croit que je vais faire du sport.{{pageBreak}}{{anim id=\"OhGeez\" target=\"actor\" targetSpec=\"\"}}Mais c'est faux!{{delay20}} C'est juste ma tenue\npréférée le temps d'un roupillon.{{pageBreak}}{{anim id=\"EmotEnd\" target=\"actor\" targetSpec=\"\"}}L'appel de la sieste peut sonner\nn'importe quand,{{delay20}} {{anim id=\"EmotEnd\" target=\"actor\" targetSpec=\"\"}}alors mieux vaut\nêtre toujours prêt, {{string value=\"6\"}}!"
  },
  {
    "label": "106",
    "attribute": "0x0000000000000000",
    "text": "{{fun_0014003C arg=\"\"}}"
  },
  {
    "label": "106_01",
    "attribute": "0x0000000000000000",
    "text": "{{anim id=\"SmugFace\" target=\"actor\" targetSpec=\"\"}}Que pensez-vous de ma tenue,\n{{gender2 m=\"gentilhomme\" f=\"gente dame\"}}?{{delay20}}{{anim id=\"Blushing\" target=\"actor\" targetSpec=\"\"}} N'est-elle pas des\nplus princières?{{pageBreak}}{{anim id=\"Serious\" target=\"actor\" targetSpec=\"\"}}Appelez-moi {{color id=\"3\"}}Prince{{color id=\"65535\"}} {{string value=\"VillagerName\"}}!{{pageBreak}}{{anim id=\"Love\" target=\"actor\" targetSpec=\"\"}}Mais c'est que ça sonne bien!{{delay20}}\n{{anim id=\"Thinking\" target=\"actor\" targetSpec=\"\"}}Peut-être que je faisais partie de\nl'aristocratie dans une autre vie{{string value=\"...\"}}"
  },
  {
    "label": "106_02",
    "attribute": "0x0000000000000000",
    "text": "{{anim id=\"HappyDance\" target=\"actor\" targetSpec=\"\"}}Ne suis-je pas le plus beau dans {{gender8 m=\"mon\" f=\"ma\" n=\"\"}}\nsuperbe {{fun_0005007D arg=\"0x00CD\"}}?{{pageBreak}}{{anim id=\"Nodding\" target=\"actor\" targetSpec=\"\"}}Faut que je m'entraîne à {{gender8 m=\"le\" f=\"la\" n=\"\"}} porter au\ncas où je suis invité d'honneur au\nfestival {{wordArticle}}{{randomSweets}}!"
  },
  {
    "label": "106_03",
    "attribute": "0x0000000000000000",
    "text": "{{anim id=\"Thinking\" target=\"actor\" targetSpec=\"\"}}J'ai l'impression qu'on me jette des\nregards bizarres quand je porte {{wordArticle}}{{fun_0005007D arg=\"0x00CD\"}}.{{anim id=\"EmotEnd\" target=\"actor\" targetSpec=\"\"}}{{pageBreak}}À moins que{{string value=\"...\"}}{{delay20}} {{anim id=\"IdeaBulb\" target=\"actor\" targetSpec=\"\"}}{{delay8}}Aha!{{delay20}} C'est comme ça\nqu'on regarde des habits chics, c'est\nça?{{delay20}}{{anim id=\"Pardon\" target=\"actor\" targetSpec=\"\"}} Avec des yeux en soucoupe!"
  },
  {
    "label": "201",
    "attribute": "0x0000000000000000",
    "text": "{{anim id=\"Smiling\" target=\"actor\" targetSpec=\"\"}}{{delay20}}Regarde un peu! C'est bien, non?\n{{capitalizeNextLetter}}{{wordArticle}}{{fun_0005007D arg=\"0x00CD\"}}, ça vous change {{wordArticle}}{{string value=\"VillagerRace\"}}!{{pageBreak}}{{anim id=\"Nodding\" target=\"actor\" targetSpec=\"\"}}Bon, par contre, j'évite de manger\nquand je {{gender8 m=\"le\" f=\"la\" n=\"\"}} porte. {{delay20}}{{anim id=\"ShyBoy\" target=\"actor\" targetSpec=\"\"}}Les taches, c'est plus trop à la mode, {{string value=\"6\"}}{{string value=\"...\"}}"
  }
]