﻿[
  {
    "label": "001",
    "attribute": "0x0000000000000000",
    "text": "{{i20_2 arg=\"10\"}}{{anim id=\"Smiling\" target=\"actor\" targetSpec=\"\"}}Ouah, on doit très bien dormir\ndans ton lit{{i20_2 arg=\"9\"}}, {{string value=\"NickName\"}}!{{pageBreak}}{{i20_3 arg=\"6\"}}{{i20_3 arg=\"3\"}}{{anim id=\"Sleepy\" target=\"actor\" targetSpec=\"\"}}Houaaaaaaah{{string value=\"...\"}}{{anim id=\"EmotEnd\" target=\"actor\" targetSpec=\"\"}} Je peux faire une\npetite sieste dessus? {{delay frames=\"60\"}}{{anim id=\"Blushing\" target=\"actor\" targetSpec=\"\"}}J'essaierai de\npas baver, promis."
  },
  {
    "label": "002",
    "attribute": "0x0000000000000000",
    "text": "{{i20_2 arg=\"9\"}}{{anim id=\"QuestionMark\" target=\"actor\" targetSpec=\"\"}}Qu'est-ce que tu regardes à la télé,\n{{string value=\"NickName\"}}?{{pageBreak}}{{anim id=\"EmotEnd\" target=\"actor\" targetSpec=\"\"}}{{i20_3 arg=\"6\"}}{{i20_3 arg=\"3\"}}Des séries?{{delay20}} Des films?{{delay20}} Des\ndébats? {{delay20}}Des jeux?{{delay20}} Les nouvelles?{{delay20}}\nDes dessins animés?{{pageBreak}}Des matchs de mini-golf?{{delay20}} Des vidéos\ndes années 70? {{delay20}}Des reportages sur\nles cartons d'emballage?{{pageBreak}}Des rétrospectives sur les pavés\noctogonaux en roche semi-friable\nà travers les siècles?{{pageBreak}}{{anim id=\"Eh\" target=\"actor\" targetSpec=\"\"}}Moi?{{delay frames=\"40\"}}{{anim id=\"Laughing\" target=\"actor\" targetSpec=\"\"}} J'adore regarder la chaîne qui\nmontre ce qu'il y a sur les autres\nchaînes, {{string value=\"6\"}}!"
  },
  {
    "label": "003",
    "attribute": "0x0000000000000000",
    "text": "{{i20_2 arg=\"10\"}}{{i20_2 arg=\"9\"}}{{capitalizeNextLetter}}{{wordArticle}}{{fun_0000007D arg=\"0x0000\"}}!{{delay frames=\"40\"}} {{i20_3 arg=\"6\"}}{{i20_3 arg=\"3\"}}{{anim id=\"Grin\" target=\"actor\" targetSpec=\"\"}}Tu dois vraiment être un{{gender2 m=\"\" f=\"e\"}} grand{{gender2 m=\"\" f=\"e\"}} mélomane pour avoir ça chez toi!{{pageBreak}}{{anim id=\"SmugFace\" target=\"actor\" targetSpec=\"\"}}Allez, je vais t'interpréter {{fun_00010032 arg=\"\"}}{{randomKKSong}}!{{delay20}} Ahem!{{pageBreak}}{{anim id=\"Thinking\" target=\"actor\" targetSpec=\"\"}}{{string value=\"...\"}}{{delay frames=\"40\"}} {{string value=\"...\"}}{{delay frames=\"40\"}}{{anim id=\"ShyBoy\" target=\"actor\" targetSpec=\"\"}} Ha ha! J'ai oublié les paroles,\n{{string value=\"6\"}}!"
  },
  {
    "label": "004",
    "attribute": "0x0000000000000000",
    "text": "{{i20_2 arg=\"10\"}}{{i20_2 arg=\"9\"}}{{anim id=\"Aha\" target=\"actor\" targetSpec=\"\"}}Il est {{number value=\"33\"}}?{{i10_4}}{{anim id=\"EmotEnd\" target=\"actor\" targetSpec=\"\"}}{{i20_3 arg=\"6\"}}{{i20_3 arg=\"3\"}} Oui, c'est exact,{{delay20}}{{anim id=\"Laughing\" target=\"actor\" targetSpec=\"\"}}\nmon horloge stomacale confirme,\n{{string value=\"6\"}}!"
  },
  {
    "label": "005",
    "attribute": "0x0000000000000000",
    "text": "{{i20_2 arg=\"10\"}}{{anim id=\"HappyDance\" target=\"actor\" targetSpec=\"\"}}Quand il y a une plante{{i20_2 arg=\"9\"}} dans une\npièce,{{delay20}} l'air semble toujours plus pur!{{pageBreak}}{{i20_3 arg=\"6\"}}{{i20_3 arg=\"3\"}}C'est parce que les plantes aspirent\nl'air tout sale{{delay20}}{{anim id=\"HappyFlower\" target=\"actor\" targetSpec=\"\"}} et recrachent de l'air\ntout propre!"
  },
  {
    "label": "006",
    "attribute": "0x0000000000000000",
    "text": "{{anim id=\"Smiling\" target=\"actor\" targetSpec=\"\"}}Combien tu as de jouets pour ton\nbain, {{string value=\"NickName\"}}?{{pageBreak}}{{i20_2 arg=\"10\"}}{{i20_2 arg=\"9\"}}{{anim id=\"SmugFace\" target=\"actor\" targetSpec=\"\"}}Moi, j'en ai sept!{{delay8}} Et je joue avec\ntous les jours, {{string value=\"6\"}}!{{pageBreak}}{{i20_3 arg=\"6\"}}{{i20_3 arg=\"3\"}}{{anim id=\"WrySmile\" target=\"actor\" targetSpec=\"\"}}Il y en a un qui ressemble à une\nbrioche mais qui a un goût de savon.{{delay20}}\nIl faut que je fasse attention{{string value=\"...\"}}"
  },
  {
    "label": "008",
    "attribute": "0x0000000000000000",
    "text": "{{anim id=\"FaintSmile\" target=\"actor\" targetSpec=\"\"}}Quel est ton critère le plus important\nquand tu veux choisir un bureau, {{string value=\"NickName\"}}?{{pageBreak}}{{i20_2 arg=\"10\"}}{{i20_2 arg=\"9\"}}{{anim id=\"QuestionMark\" target=\"actor\" targetSpec=\"\"}}Hauteur? {{delay20}}Largeur? {{delay20}}Profondeur?{{delay20}}\nLa couleur, peut-être?{{delay20}} La stabilité?{{delay20}}\nLa qualité?{{delay20}} Le nombre de calories?{{pageBreak}}{{i20_3 arg=\"6\"}}{{i20_3 arg=\"3\"}}{{anim id=\"AbsentMindedness\" target=\"actor\" targetSpec=\"\"}}Moi, je crois que j'aimerais un très\ngrand bureau.{{delay20}} Je pourrais me cacher\ndessous pour manger des sucreries."
  },
  {
    "label": "009",
    "attribute": "0x0000000000000000",
    "text": "{{anim id=\"Explain\" target=\"actor\" targetSpec=\"\"}}Je dois dire que {{fun_00010032 arg=\"\"}}{{fun_0000007D arg=\"0x0000\"}} que tu as choisi{{gender8 m=\"\" f=\"e\" n=\"\"}} est superbe.{{pageBreak}}{{i20_2 arg=\"10\"}}{{i20_2 arg=\"9\"}}{{anim id=\"EmotEnd\" target=\"actor\" targetSpec=\"\"}}C'est important d'être bien assis!{{delay20}}\nCale-toi bien le derrière et tes soucis\ns'envoleront à des années-lumière!{{pageBreak}}{{i20_3 arg=\"6\"}}{{i20_3 arg=\"3\"}}Une fois, j'ai eu des fourmis à cause\nd'un mauvais siège{{string value=\"...\"}}{{anim id=\"Oops\" target=\"actor\" targetSpec=\"\"}} Je suis resté\ncoincé aux toilettes plusieurs jours!"
  },
  {
    "label": "010",
    "attribute": "0x0000000000000000",
    "text": "{{i20_2 arg=\"10\"}}{{anim id=\"QuestionMark\" target=\"actor\" targetSpec=\"\"}}{{capitalizeNextLetter}}{{wordArticle}}{{fun_0000007D arg=\"0x0000\"}}? {{delay40}}{{i20_2 arg=\"9\"}}Ne me dis pas que tu sais en jouer?{{delay20}} Oh, il faut organiser un concert!{{pageBreak}}{{i20_3 arg=\"6\"}}{{i20_3 arg=\"3\"}}{{anim id=\"HappyFlower\" target=\"actor\" targetSpec=\"\"}}La Ballade de l'Estomac, écrite et\ninterprétée par {{string value=\"NickName\"}}!"
  },
  {
    "label": "011",
    "attribute": "0x0000000000000000",
    "text": "{{i20_2 arg=\"10\"}}{{anim id=\"Thinking\" target=\"actor\" targetSpec=\"\"}}{{i20_2 arg=\"9\"}}Tu dois bien aimer la cuisine {{anim id=\"Pardon\" target=\"actor\" targetSpec=\"\"}}si tu as\n{{wordArticle}}{{fun_0000007D arg=\"0x0000\"}}{{string value=\"...\"}}{{pageBreak}}{{i20_3 arg=\"6\"}}{{i20_3 arg=\"3\"}}{{anim id=\"EmotEnd\" target=\"actor\" targetSpec=\"\"}}Parce que moi, {{delay8}}j'adore manger!{{delay20}}\nSi jamais tu as besoin d'un goûteur\nprofessionnel,{{anim id=\"SmugFace\" target=\"actor\" targetSpec=\"\"}} je suis là pour ça!"
  },
  {
    "label": "012",
    "attribute": "0x0000000000000000",
    "text": "{{i20_2 arg=\"10\"}}{{anim id=\"Eh\" target=\"actor\" targetSpec=\"\"}}Dis, tu es content{{gender2 m=\"\" f=\"e\"}}{{i20_2 arg=\"9\"}} de t{{gender8 m=\"on petit\" f=\"a petite\" n=\"\"}}\n{{fun_0000007D arg=\"0x0000\"}}, {{string value=\"NickName\"}}?{{pageBreak}}{{i20_3 arg=\"6\"}}{{i20_3 arg=\"3\"}}J'en ai eu un{{gender8 m=\"\" f=\"e\" n=\"\"}}, moi aussi, mais j'ai\ndû m'en débarrasser.{{delay20}}{{anim id=\"Oops\" target=\"actor\" targetSpec=\"\"}} Je n'avais plus\nde place pour étendre mon linge!"
  },
  {
    "label": "016",
    "attribute": "0x0000000000000000",
    "text": "{{i20_2 arg=\"10\"}}{{anim id=\"Thinking\" target=\"actor\" targetSpec=\"\"}}{{i20_2 arg=\"9\"}}Laisse-moi deviner, si tu as {{wordArticle}}{{fun_0000007D arg=\"0x0000\"}},{{delay20}}{{anim id=\"IdeaBulb\" target=\"actor\" targetSpec=\"\"}} c'est que tu penses aller camper!{{pageBreak}}{{i20_3 arg=\"6\"}}{{i20_3 arg=\"3\"}}{{anim id=\"Thinking\" target=\"actor\" targetSpec=\"\"}}Quand on y pense, c'est étrange,\nle camping{{string value=\"...\"}}{{pageBreak}}{{anim id=\"Laughing\" target=\"actor\" targetSpec=\"\"}}Tu vas dehors,{{delay8}} et tu fais tout ce que\ntu peux{{delay20}} pour faire comme si tu étais\nà l'intérieur!"
  },
  {
    "label": "017",
    "attribute": "0x0000000000000000",
    "text": "{{i20_2 arg=\"10\"}}{{anim id=\"Aha\" target=\"actor\" targetSpec=\"\"}}{{delay20}}Wow! {{delay20}}T'en as de la chance, d'avoir\n{{wordArticle}}{{fun_0000007D arg=\"0x0000\"}} chez toi, {{string value=\"Catchphrase\"}}!{{i20_2 arg=\"9\"}}{{pageBreak}}{{i20_3 arg=\"6\"}}{{i20_3 arg=\"3\"}}{{anim id=\"FaintSmile\" target=\"actor\" targetSpec=\"\"}}Aucune ombre de monstre horrible \nne peut se mettre entre toi et ton \ngoûter.{{delay frames=\"40\"}} {{anim id=\"Negative\" target=\"actor\" targetSpec=\"\"}}Non monsieur!"
  },
  {
    "label": "018",
    "attribute": "0x0000000000000000",
    "text": "{{i20_2 arg=\"9\"}}{{i20_2 arg=\"10\"}}{{anim id=\"Nodding\" target=\"actor\" targetSpec=\"\"}}{{capitalizeNextLetter}}{{fun_00010032 arg=\"\"}}{{fun_0000007D arg=\"0x0000\"}}, là{{string value=\"...\"}} {{gender8 m=\"Il\" f=\"Elle\" n=\"\"}} me rappelle une question que je voulais te poser.{{pageBreak}}{{i20_3 arg=\"6\"}}{{anim id=\"QuestionMark\" target=\"actor\" targetSpec=\"\"}}Ton deuxième toi, dans le miroir, il\nfait pareil que toi?{{i20_3 arg=\"3\"}}{{i10_4}} {{anim id=\"Blushing\" target=\"actor\" targetSpec=\"\"}}Eh ben, quoi?{{delay20}}\nJe fais juste demander, {{string value=\"6\"}}."
  },
  {
    "label": "019",
    "attribute": "0x0000000000000000",
    "text": "{{i20_2 arg=\"10\"}}{{i20_2 arg=\"9\"}}{{anim id=\"QuestionMark\" target=\"actor\" targetSpec=\"\"}}Comment tu ranges tes habits dans\n{{fun_00010032 arg=\"\"}}{{fun_0000007D arg=\"0x0000\"}}, {{string value=\"Catchphrase\"}}?{{pageBreak}}{{i20_3 arg=\"6\"}}{{i20_3 arg=\"3\"}}{{anim id=\"EmotEnd\" target=\"actor\" targetSpec=\"\"}}Moi, je trie par couleur.{{delay frames=\"40\"}} {{anim id=\"SmugFace\" target=\"actor\" targetSpec=\"\"}}Ensuite, je\nporte celle qui ressemble le plus\nà ce que j'ai prévu de manger!"
  },
  {
    "label": "020",
    "attribute": "0x0000000000000000",
    "text": "{{i20_2 arg=\"10\"}}{{i20_2 arg=\"9\"}}{{anim id=\"QuestionMark\" target=\"actor\" targetSpec=\"\"}}Tu vis avec {{wordArticle}}{{fun_0000007D arg=\"0x0000\"}}? Tu as de la chance!{{pageBreak}}{{i20_3 arg=\"6\"}}{{i20_3 arg=\"3\"}}{{anim id=\"Nodding\" target=\"actor\" targetSpec=\"\"}}J'ai eu beaucoup de colocataires,\nmais c'est avec les insectes que\nje me suis le mieux entendu.\nIls ont tout un sens de l'humour,{{delay8}}\ntu sais.{{anim id=\"BigSmile\" target=\"actor\" targetSpec=\"\"}} Et puis,{{delay8}} le désordre ne les\ndérange pas, {{string value=\"6\"}}."
  },
  {
    "label": "021",
    "attribute": "0x0000000000000000",
    "text": "{{i20_2 arg=\"10\"}}{{i20_2 arg=\"9\"}}{{anim id=\"Eh\" target=\"actor\" targetSpec=\"\"}}Ouah. {{delay8}}Tu as {{wordArticle}}{{fun_0000007D arg=\"0x0000\"}} chez toi? Re-ouah.{{pageBreak}}{{i20_3 arg=\"6\"}}{{i20_3 arg=\"3\"}}{{anim id=\"Smiling\" target=\"actor\" targetSpec=\"\"}}Je voulais aussi un poisson pour\nmonter la garde dans ma maison.{{pageBreak}}{{anim id=\"Nodding\" target=\"actor\" targetSpec=\"\"}}Ça serait plus dissuasif qu'{{wordArticle}}{{randomFlower}} de garde."
  },
  {
    "label": "022",
    "attribute": "0x0000000000000000",
    "text": "{{i20_2 arg=\"10\"}}{{i20_2 arg=\"9\"}}{{anim id=\"Grin\" target=\"actor\" targetSpec=\"\"}}{{capitalizeNextLetter}}{{fun_00010032 arg=\"\"}}{{fun_0000007D arg=\"0x0000\"}} m'a donné l'impression de voyager dans le temps.{{pageBreak}}{{i20_3 arg=\"6\"}}{{i20_3 arg=\"3\"}}{{anim id=\"FaintSmile\" target=\"actor\" targetSpec=\"\"}}J'y pense, ils faisaient comment, les\ngens, avant les services de livraison\nde pizzas?\n{{anim id=\"Shaking\" target=\"actor\" targetSpec=\"\"}}Rien que d'y penser, j'en ai des\nsueurs froides, {{string value=\"6\"}}."
  },
  {
    "label": "023",
    "attribute": "0x0000000000000000",
    "text": "{{i20_2 arg=\"10\"}}{{i20_2 arg=\"9\"}}{{anim id=\"Shocked\" target=\"actor\" targetSpec=\"\"}}C'est un original? Une {{fun_0000007D arg=\"0x0000\"}} vraie de vraie?{{delay20}} Sans blague?{{pageBreak}}{{i20_3 arg=\"6\"}}{{i20_3 arg=\"3\"}}{{anim id=\"Serious\" target=\"actor\" targetSpec=\"\"}}Je savais que tu étais cool, {{delay8}}mais là,\nje me dis que tu es aussi {{anim id=\"Shocked\" target=\"actor\" targetSpec=\"\"}}cool qu'un{{gender2 m=\"\" f=\"e\"}} super héro{{gender2 m=\"s\" f=\"ïne\"}} à l'identité cachée!"
  },
  {
    "label": "024",
    "attribute": "0x0000000000000000",
    "text": "{{i20_2 arg=\"10\"}}{{i20_2 arg=\"9\"}}{{anim id=\"Serious\" target=\"actor\" targetSpec=\"\"}}J'en reviens pas. {{delay20}}Tu as{{string value=\"...\"}} {{wordArticle}}{{fun_0000007D arg=\"0x0000\"}}.{{pageBreak}}{{i20_3 arg=\"6\"}}{{i20_3 arg=\"3\"}}Pour un objet sans vie, qu'est-ce\nqu'on la remarque! {{delay20}}{{anim id=\"BigSmile\" target=\"actor\" targetSpec=\"\"}}On s'attend\npresque à la voir bouger!\n{{anim id=\"Laughing\" target=\"actor\" targetSpec=\"\"}}Imagine qu'un esprit y soit prisonnier\net attende d'en sortir. Ça serait fou,\n{{string value=\"6\"}}!{{pageBreak}}Hé hé hé! {{delay20}}{{anim id=\"EmotEnd\" target=\"actor\" targetSpec=\"\"}}J'ai plus trop envie de\nm'en approcher, maintenant{{string value=\"...\"}}"
  },
  {
    "label": "025",
    "attribute": "0x0000000000000000",
    "text": "{{i20_2 arg=\"10\"}}{{i20_2 arg=\"9\"}}{{anim id=\"HappyFlower\" target=\"actor\" targetSpec=\"\"}}{{capitalizeNextLetter}}{{fun_00010032 arg=\"\"}}{{fun_0000007D arg=\"0x0000\"}} donne une de ces classes à la pièce!{{pageBreak}}{{i20_3 arg=\"6\"}}{{i20_3 arg=\"3\"}}{{anim id=\"Aha\" target=\"actor\" targetSpec=\"\"}}C'est du grand luxe.{{delay8}} Presque{{delay8}} trop de\nluxe.{{delay20}}{{anim id=\"Thinking\" target=\"actor\" targetSpec=\"\"}}{{delay8}} C'en est{{string value=\"...\"}} suspect, {{string value=\"6\"}}."
  },
  {
    "label": "026",
    "attribute": "0x0000000000000000",
    "text": "{{i20_2 arg=\"10\"}}{{i20_2 arg=\"9\"}}Petite question : tu as déjà utilisé {{fun_00010032 arg=\"\"}}{{fun_0000007D arg=\"0x0000\"}} pour refroidir des plats trop chauds?{{delay frames=\"40\"}}{{pageBreak}}{{anim id=\"Negative\" target=\"actor\" targetSpec=\"\"}}Moi non plus.{{delay20}}{{anim id=\"Blushing\" target=\"actor\" targetSpec=\"\"}} La fois où mon mur a\nété retapissé {{gender4 m=\"de \" f=\"d'⁠\"}}{{randomFood}}, c'était pas du tout à cause de ça."
  },
  {
    "label": "027",
    "attribute": "0x0000000000000000",
    "text": "{{i20_2 arg=\"10\"}}{{i20_2 arg=\"9\"}}{{anim id=\"Love\" target=\"actor\" targetSpec=\"\"}}{{capitalizeNextLetter}}{{wordArticle}}{{fun_0000007D arg=\"0x0000\"}}, je suis si jaloux, tu n'imagines pas.{{pageBreak}}{{i20_3 arg=\"6\"}}{{i20_3 arg=\"3\"}}{{anim id=\"Cheering\" target=\"actor\" targetSpec=\"\"}}C'est comme si ton colocataire venait\nd'une autre planète et c'était tout à\nfait normal, {{string value=\"6\"}}."
  },
  {
    "label": "028",
    "attribute": "0x0000000000000000",
    "text": "{{i20_2 arg=\"10\"}}{{anim id=\"Aha\" target=\"actor\" targetSpec=\"\"}}Pas possible! {{delay frames=\"40\"}}{{i20_2 arg=\"9\"}}{{anim id=\"FaintSmile\" target=\"actor\" targetSpec=\"\"}}Tu as une photo de\nmoi chez toi?{{pageBreak}}{{i20_3 arg=\"6\"}}{{i20_3 arg=\"3\"}}{{anim id=\"Thinking\" target=\"actor\" targetSpec=\"\"}}Hmm{{string value=\"...\"}} ça expliquerait mon \nimpression d'être observé,\ndepuis peu."
  },
  {
    "label": "029",
    "attribute": "0x0000000000000000",
    "text": "{{i20_2 arg=\"10\"}}{{i20_2 arg=\"9\"}}{{anim id=\"Smiling\" target=\"actor\" targetSpec=\"\"}}Y a pas de honte à avoir {{wordArticle}}{{fun_0000007D arg=\"0x0000\"}} chez soi!{{pageBreak}}{{i20_3 arg=\"6\"}}{{i20_3 arg=\"3\"}}{{anim id=\"Explain\" target=\"actor\" targetSpec=\"\"}}On dit que c'est un jouet pour\nenfants,{{delay frames=\"40\"}}{{anim id=\"Laughing\" target=\"actor\" targetSpec=\"\"}} mais on dit aussi qu'il faut\nsavoir rester jeune, {{string value=\"6\"}}!"
  },
  {
    "label": "030",
    "attribute": "0x0000000000000000",
    "text": "{{i20_2 arg=\"10\"}}{{i20_2 arg=\"9\"}}{{anim id=\"FaintSmile\" target=\"actor\" targetSpec=\"\"}}Tu l'utilises beaucoup, {{fun_00010032 arg=\"\"}}{{fun_0000007D arg=\"0x0000\"}} que je vois là?{{pageBreak}}{{i20_3 arg=\"6\"}}{{i20_3 arg=\"3\"}}{{anim id=\"Nodding\" target=\"actor\" targetSpec=\"\"}}Chacun ses goûts. {{delay frames=\"40\"}}{{anim id=\"BigSmile\" target=\"actor\" targetSpec=\"\"}}J'aime {{fun_00010032 arg=\"\"}}{{randomSweets}}, tu aimes {{gender8 m=\"ton\" f=\"ta\" n=\"\"}} joli{{gender8 m=\"\" f=\"e\" n=\"\"}} {{fun_0000007D arg=\"0x0000\"}}."
  },
  {
    "label": "031",
    "attribute": "0x0000000000000000",
    "text": "{{i20_2 arg=\"10\"}}{{i20_2 arg=\"9\"}}{{anim id=\"Smiling\" target=\"actor\" targetSpec=\"\"}}Il faut toujours avoir {{wordArticle}}{{fun_0000007D arg=\"0x0000\"}} à portée de patte.{{pageBreak}}{{i20_3 arg=\"6\"}}{{i20_3 arg=\"3\"}}{{anim id=\"Nodding\" target=\"actor\" targetSpec=\"\"}}Tu as réussi à l'intégrer dans ta\ndéco,{{delay8}} bien joué.{{delay frames=\"40\"}}{{anim id=\"Laughing\" target=\"actor\" targetSpec=\"\"}} Je pense que je vais\ncopier ton idée!"
  },
  {
    "label": "032",
    "attribute": "0x0000000000000000",
    "text": "{{i20_2 arg=\"10\"}}{{i20_2 arg=\"9\"}}{{anim id=\"Aha\" target=\"actor\" targetSpec=\"\"}}Tu as tellement de trucs cool! {{delay20}}Même {{wordArticle}}{{fun_0000007D arg=\"0x0000\"}}, {{string value=\"6\"}}.{{pageBreak}}{{i20_3 arg=\"6\"}}{{i20_3 arg=\"3\"}}{{anim id=\"Smiling\" target=\"actor\" targetSpec=\"\"}}C'est pas vraiment quelque chose\ndont j'ai besoin, mais ça pourrait me\nservir, de temps en temps."
  },
  {
    "label": "033",
    "attribute": "0x0000000000000000",
    "text": "{{i20_2 arg=\"10\"}}{{i20_2 arg=\"9\"}}{{anim id=\"Shocked\" target=\"actor\" targetSpec=\"\"}}Je vois que tu as {{wordArticle}}{{fun_0000007D arg=\"0x0000\"}}!{{delay frames=\"40\"}}{{anim id=\"Nodding\" target=\"actor\" targetSpec=\"\"}} Alors je vais te donner un bon conseil{{string value=\"...\"}}{{pageBreak}}{{i20_3 arg=\"6\"}}{{i20_3 arg=\"3\"}}{{anim id=\"Serious\" target=\"actor\" targetSpec=\"\"}}Ne mets pas trop de sandwichs\ndedans ou {{gender8 m=\"il\" f=\"elle\" n=\"\"}} ne chauffera plus.{{delay frames=\"40\"}}\n{{anim id=\"OhGeez\" target=\"actor\" targetSpec=\"\"}}Je l'ai appris à mes dépens{{string value=\"...\"}}"
  },
  {
    "label": "034",
    "attribute": "0x0000000000000000",
    "text": "{{i20_2 arg=\"10\"}}{{i20_2 arg=\"9\"}}{{anim id=\"Nodding\" target=\"actor\" targetSpec=\"\"}}Ah oui, cette photo!{{delay20}} {{i20_3 arg=\"6\"}}{{i20_3 arg=\"3\"}}{{anim id=\"EmotEnd\" target=\"actor\" targetSpec=\"\"}}Elle a été prise\njuste avant{{string value=\"...\"}}{{delay20}}{{anim id=\"Assent\" target=\"actor\" targetSpec=\"\"}} un tragique incident impliquant {{wordArticle}}{{randomObj}}{{string value=\"...\"}}{{pageBreak}}{{anim id=\"BigSmile\" target=\"actor\" targetSpec=\"\"}}C'était le bon temps, {{string value=\"6\"}}!"
  },
  {
    "label": "035",
    "attribute": "0x0000000000000000",
    "text": "{{i20_2 arg=\"10\"}}{{i20_2 arg=\"9\"}}Je crois pas qu'il y ait de meilleure\nchanson {{gender4 m=\"que \" f=\"qu'\"}}{{fun_0000007D arg=\"0x0000\"}}.{{pageBreak}}{{anim id=\"Thinking\" target=\"actor\" targetSpec=\"\"}}Mais c'est peut-être parce que ça\nfait plus d'un mois que je l'ai dans\nla tête{{string value=\"...\"}}{{pageBreak}}{{i20_3 arg=\"6\"}}{{i20_3 arg=\"3\"}}{{anim id=\"AbsentMindedness\" target=\"actor\" targetSpec=\"\"}}{{delay20}}Dans ma caboche, ça fait :{{delay8}} « Na mi\nkwééé, mi kwé mi ooooh! »{{delay20}} Jour et\nnuit, ça s'arrête jamais.{{pageBreak}}{{anim id=\"Worried\" target=\"actor\" targetSpec=\"\"}}Je l'entends même{{string value=\"...\"}} dans mes rêves.{{delay20}}\nJ'en peux plus{{string value=\"...\"}}{{delay20}} {{anim id=\"Crying\" target=\"actor\" targetSpec=\"\"}}JE VEUX QUE ÇA\nS'ARRÊTE-EUH!{{anim id=\"EmotEnd\" target=\"actor\" targetSpec=\"\"}}"
  },
  {
    "label": "036",
    "attribute": "0x0000000000000000",
    "text": "{{i20_2 arg=\"10\"}}{{i20_2 arg=\"9\"}}{{anim id=\"Negative\" target=\"actor\" targetSpec=\"\"}}Les fleurs, c'est pas juste.{{delay20}} {{i20_3 arg=\"6\"}}{{i20_3 arg=\"3\"}}{{anim id=\"Worried\" target=\"actor\" targetSpec=\"\"}}Ça sent\ntellement bon{{string value=\"...\"}}{{delay20}}{{anim id=\"Frantic\" target=\"actor\" targetSpec=\"\"}} mais dès qu'on\nessaie de les manger{{string value=\"...\"}} BEUARK!"
  },
  {
    "label": "037",
    "attribute": "0x0000000000000000",
    "text": "{{i20_2 arg=\"10\"}}{{i20_2 arg=\"9\"}}{{anim id=\"EmotEnd\" target=\"actor\" targetSpec=\"\"}}Dis, j'ai une question{{string value=\"...\"}}{{pageBreak}}{{anim id=\"QuestionMark\" target=\"actor\" targetSpec=\"\"}}Comment tu fais pour convaincre ta\ntête de ne pas porter t{{gender8 m=\"on\" f=\"a\" n=\"\"}} petit{{gender8 m=\"\" f=\"e\" n=\"\"}} {{fun_0000007D arg=\"0x0000\"}}?{{pageBreak}}{{i20_3 arg=\"6\"}}{{i20_3 arg=\"3\"}}{{anim id=\"Serious\" target=\"actor\" targetSpec=\"\"}}Parce que ma tête arrête pas de me\ndire de lui mettre des trucs dessus{{string value=\"...\"}}{{pageBreak}}{{anim id=\"SadSpiral\" target=\"actor\" targetSpec=\"\"}}Et je commence à en avoir assez de\nporter ma nourriture au lieu de la\nmanger, {{string value=\"6\"}}{{string value=\"...\"}}"
  },
  {
    "label": "038",
    "attribute": "0x0000000000000000",
    "text": "{{anim id=\"Grin\" target=\"actor\" targetSpec=\"\"}}Héhéhé!{{delay20}} Avec t{{gender8 m=\"on\" f=\"a\" n=\"\"}} joli{{gender8 m=\"\" f=\"e\" n=\"\"}} {{fun_0000007D arg=\"0x0000\"}} exposé{{gender8 m=\"\" f=\"e\" n=\"\"}} là, on se croirait dans un magasin.{{pageBreak}}{{anim id=\"Blushing\" target=\"actor\" targetSpec=\"\"}}Ah{{string value=\"...\"}}{{delay8}} Sauf que j'ai pas pris mes sous avec moi.{{pageBreak}}Je pourrais te payer en spaghettis,{{delay8}}\nmais je les garde pour plus tard, {{string value=\"6\"}}."
  },
  {
    "label": "039",
    "attribute": "0x0000000000000000",
    "text": "{{i20_2 arg=\"9\"}}{{i20_2 arg=\"10\"}}{{anim id=\"Aha\" target=\"actor\" targetSpec=\"\"}}{{delay20}}Ouah, trop bien!{{delay20}} Je savais pas que tu avais {{wordArticle}}{{fun_0000007D arg=\"0x0000\"}}!{{pageBreak}}{{i20_3 arg=\"6\"}}{{i20_3 arg=\"3\"}}{{anim id=\"AbsentMindedness\" target=\"actor\" targetSpec=\"\"}}Ma mamie m'a dit qu'une bonne paire\nde chaussures fera des kilomètres\npour trouver son propriétaire{{string value=\"...\"}}{{pageBreak}}{{anim id=\"QuestionMark\" target=\"actor\" targetSpec=\"\"}}Tu crois que c'est vrai?{{delay20}}{{anim id=\"Nodding\" target=\"actor\" targetSpec=\"\"}} Parce que\nça a l'air vrai, {{string value=\"6\"}}{{string value=\"...\"}}"
  },
  {
    "label": "040",
    "attribute": "0x0000000000000000",
    "text": "{{i20_2 arg=\"10\"}}{{i20_2 arg=\"9\"}}{{anim id=\"Hesitate\" target=\"actor\" targetSpec=\"\"}}Dis{{string value=\"...\"}} {{capitalizeNextLetter}}{{fun_00010032 arg=\"\"}}{{fun_0000007D arg=\"0x0000\"}} que je vois là{{string value=\"...\"}} Tu comptes {{gender8 m=\"le\" f=\"la\" n=\"\"}} manger?{{pageBreak}}{{i20_3 arg=\"3\"}}{{anim id=\"Eh\" target=\"actor\" targetSpec=\"\"}}Bah,{{delay8}} laisse tomber!{{delay20}} {{i20_3 arg=\"6\"}}{{anim id=\"Blushing\" target=\"actor\" targetSpec=\"\"}}Si je mange ça,{{delay8}}\nj'aurai plus faim pour ma collation,{{delay8}}\n{{string value=\"6\"}}."
  },
  {
    "label": "041",
    "attribute": "0x0000000000000000",
    "text": "{{i20_2 arg=\"10\"}}{{i20_2 arg=\"9\"}}Hé,{{delay20}} mais regarde un peu ça! {{anim id=\"QuestionMark\" target=\"actor\" targetSpec=\"\"}}C'est {{wordArticle}}{{fun_0000007D arg=\"0x0000\"}} ou je ne m'y connais pas!{{pageBreak}}{{anim id=\"BigSmile\" target=\"actor\" targetSpec=\"\"}}{{i20_3 arg=\"6\"}}{{i20_3 arg=\"3\"}}J'ignorais que tu collectionnais\nles breuvages!{{delay20}} On devrait comparer\nnos collections,{{delay8}} un jour."
  },
  {
    "label": "999",
    "attribute": "0x0000000000000000",
    "text": "{{fun_0014003C arg=\"\"}}"
  },
  {
    "label": "999_01",
    "attribute": "0x0000000000000000",
    "text": "{{anim id=\"Thinking\" target=\"actor\" targetSpec=\"\"}}Les maisons des autres ont toujours\nl'air plus cool.{{pageBreak}}{{anim id=\"Nodding\" target=\"actor\" targetSpec=\"\"}}Je suis sûr que même si j'avais\nexactement les mêmes meubles que\ntoi,{{delay20}} ma maison serait moins cool.{{pageBreak}}{{anim id=\"FaintSmile\" target=\"actor\" targetSpec=\"\"}}C'est peut-être à cause de l'odeur{{string value=\"...\"}}"
  },
  {
    "label": "999_02",
    "attribute": "0x0000000000000000",
    "text": "{{anim id=\"FaintSmile\" target=\"actor\" targetSpec=\"\"}}Ouah!{{delay20}} Je me sens super détendu\ndans cette pièce!{{delay20}} {{anim id=\"QuestionMark\" target=\"actor\" targetSpec=\"\"}}Hé,{{delay8}} je peux\nessayer un truc?{{pageBreak}}{{anim id=\"EmotEnd\" target=\"actor\" targetSpec=\"\"}}Je me demande{{string value=\"...\"}} {{anim id=\"Sleepy\" target=\"actor\" targetSpec=\"\"}}ce qui se passe si\nje ferme les yeux{{string value=\"...\"}}{{delay20}} Je vois!{{delay8}} Ouais,\nc'est très, TRÈS{{string value=\"...\"}}{{delay20}}{{anim id=\"Sleep\" target=\"actor\" targetSpec=\"\"}} {{size value=\"75\"}}intéressant{{string value=\"...\"}}{{size value=\"100\"}}{{pageBreak}}{{anim id=\"Aha\" target=\"actor\" targetSpec=\"\"}}{{delay20}}Je le savais!{{delay20}} Cette pièce est un\nsomnifère!{{delay frames=\"40\"}}{{anim id=\"Laughing\" target=\"actor\" targetSpec=\"\"}} Parce que je peux un\nsomme y faire!"
  },
  {
    "label": "999_03",
    "attribute": "0x0000000000000000",
    "text": "{{anim id=\"Serious\" target=\"actor\" targetSpec=\"\"}}Toi et moi, on est de bons amis,\nhein?{{delay20}} Sinon, je viendrais pas chez\ntoi comme ça, hein?{{pageBreak}}{{anim id=\"Restless\" target=\"actor\" targetSpec=\"\"}}Et ça veut dire que je peux tout te\ndire,{{delay20}} HEIN?{{delay20}} Absolument tout, et tu\nte mettras pas en colère{{string value=\"...\"}}\n{{anim id=\"Frantic\" target=\"actor\" targetSpec=\"\"}}Non, parce qu'il se peut que j'aie\npeut-être éventuellement fait une\ntache de chocolat sur ta porte.{{pageBreak}}{{anim id=\"Hesitate\" target=\"actor\" targetSpec=\"\"}}Mais comme on est copains, c'est\npas grave{{string value=\"...\"}}{{delay20}} {{size value=\"75\"}}hein?{{size value=\"100\"}}"
  }
]