﻿[
  {
    "label": "001",
    "attribute": "0x0000040100000000",
    "text": "{{anim id=\"Serious\" target=\"actor\" targetSpec=\"\"}}Perdona la pregunta inesperada,\npero{{string value=\"...\"}} {{anim id=\"QuestionMark\" target=\"actor\" targetSpec=\"\"}}¿te duchaste hoy?"
  },
  {
    "label": "001_a",
    "attribute": "0x0200000000000000",
    "text": "Claro"
  },
  {
    "label": "001_b",
    "attribute": "0x0300000000000000",
    "text": "La verdad que no"
  },
  {
    "label": "001_c",
    "attribute": "0x0400000000000000",
    "text": "¿A qué viene eso?"
  },
  {
    "label": "002",
    "attribute": "0x0000000000000000",
    "text": "{{anim id=\"Nodding\" target=\"actor\" targetSpec=\"\"}}Lo suponía.{{delay20}} No te lo tomes a mal,{{delay8}}\npero es que hueles tan bien{{string value=\"...\"}}{{pageBreak}}{{anim id=\"WrySmile\" target=\"actor\" targetSpec=\"\"}}¡No sé si podré resistirme\na preguntarte qué marca\nde champú usas!"
  },
  {
    "label": "003",
    "attribute": "0x0000000000000000",
    "text": "{{anim id=\"Shocked\" target=\"actor\" targetSpec=\"\"}}¿En serio?{{delay20}} Pues hueles muy bien\naun así.{{delay20}} {{anim id=\"Nodding\" target=\"actor\" targetSpec=\"\"}}Tengo un olfato privilegiado\ny lo siento desde aquí.\n{{anim id=\"FaintSmile\" target=\"actor\" targetSpec=\"\"}}Poseer un olfato ultrasensitivo tiene\nsus ventajas{{string value=\"...\"}}{{delay20}} {{anim id=\"OhGeez\" target=\"actor\" targetSpec=\"\"}}pero también grandes\ninconvenientes,{{delay8}} créeme."
  },
  {
    "label": "004",
    "attribute": "0x0000000000000000",
    "text": "{{anim id=\"Frantic\" target=\"actor\" targetSpec=\"\"}}Perdona,{{delay8}} es que{{string value=\"...\"}}{{delay20}} te huele tan bien\nel pelo{{delay8}} que me preguntaba qué\nmarca de champú usabas.\n{{anim id=\"Explain\" target=\"actor\" targetSpec=\"\"}}Nací con un sentido del olfato tan\ndesarrollado{{delay8}} que percibo estas cosas\na kilómetros de distancia."
  },
  {
    "label": "006",
    "attribute": "0x0000030100000000",
    "text": "{{anim id=\"BigSmile\" target=\"actor\" targetSpec=\"\"}}¡Atención, pregunta!{{delay40}} {{anim id=\"QuestionMark\" target=\"actor\" targetSpec=\"\"}}¿Cuál de estas\ncosas me queda mejor?"
  },
  {
    "label": "006_a",
    "attribute": "0x0700000000000000",
    "text": "Peluca afro\nTupé rockabilly\nCresta mohicana"
  },
  {
    "label": "006_b",
    "attribute": "0x0800000000000000",
    "text": "Máscara de lucha libre\nCasco de rugby\nMáscara de béisbol\nYelmo"
  },
  {
    "label": "006_c",
    "attribute": "0x0900000000000000",
    "text": "Casco de esgrima\nCasco de carreras\nGorro con velo"
  },
  {
    "label": "007",
    "attribute": "0x0000000000000000",
    "text": "{{anim id=\"Aha\" target=\"actor\" targetSpec=\"\"}}¡Es justo lo mismo que yo pensaba!{{delay20}}\n{{anim id=\"ShyBoy\" target=\"actor\" targetSpec=\"\"}}Quizás me pase de atrevido,{{delay8}} pero\nsu toque novedoso vale la pena.\n{{anim id=\"EmotEnd\" target=\"actor\" targetSpec=\"\"}}Te presento a{{string value=\"...\"}}{{delay20}} {{anim id=\"EmotEnd\" target=\"actor\" targetSpec=\"\"}}¡{{string value=\"VillagerName\"}} versión actualizada!{{delay20}} ¡Un derroche de clase,{{delay8}} {{string value=\"Catchphrase\"}} y estilo!"
  },
  {
    "label": "008",
    "attribute": "0x0000000000000000",
    "text": "{{anim id=\"Thinking\" target=\"actor\" targetSpec=\"\"}}Eh{{string value=\"...\"}}{{delay20}} ¿Estás segur{{gender2 m=\"o\" f=\"a\"}}?{{delay20}} Porque la\nverdad es que tapa mi visión\nen un 98 %{{string value=\"...\"}}{{pageBreak}}{{anim id=\"OhGeez\" target=\"actor\" targetSpec=\"\"}}Pero supongo que ir a la última moda\ntiene sus desventajas.{{delay20}} {{anim id=\"Worried\" target=\"actor\" targetSpec=\"\"}}Procuraré no\nconducir por el momento{{string value=\"...\"}}"
  },
  {
    "label": "009",
    "attribute": "0x0000000000000000",
    "text": "{{anim id=\"Angry\" target=\"actor\" targetSpec=\"\"}}Con algo así, sería bastante difícil\nreconocerme.{{delay20}} ¿Eso es lo que quieres\ndecir?\n{{anim id=\"WrySmile\" target=\"actor\" targetSpec=\"\"}}Es un chiste.{{delay20}} ¡La verdad es que me\nencanta!{{delay20}} {{anim id=\"EmotEnd\" target=\"actor\" targetSpec=\"\"}}¡Tienes un gusto \"magnifique\"!"
  },
  {
    "label": "011",
    "attribute": "0x0000100100000000",
    "text": "{{anim id=\"BigSmile\" target=\"actor\" targetSpec=\"\"}}Te voy a hacer una pregunta que\nmarcará un antes y un después\nen tu vida.{{delay20}} ¡Responde con rapidez!{{pageBreak}}{{anim id=\"AbsentMindedness\" target=\"actor\" targetSpec=\"\"}}Piensa en una pradera llena de\nflores.{{delay20}} {{anim id=\"QuestionMark\" target=\"actor\" targetSpec=\"\"}}¿De qué color son las flores?"
  },
  {
    "label": "011_a",
    "attribute": "0x0C00000000000000",
    "text": "Rojas"
  },
  {
    "label": "011_b",
    "attribute": "0x0D00000000000000",
    "text": "Amarillas"
  },
  {
    "label": "011_c",
    "attribute": "0x0E00000000000000",
    "text": "Moradas"
  },
  {
    "label": "011_d",
    "attribute": "0x0F00000000000000",
    "text": "Blancas"
  },
  {
    "label": "012",
    "attribute": "0x0000000000000000",
    "text": "{{anim id=\"Serious\" target=\"actor\" targetSpec=\"\"}}Ya veo.{{delay20}} Eso me revela claramente\nun detalle íntimo sobre ti.{{delay20}}\n{{anim id=\"Grin\" target=\"actor\" targetSpec=\"\"}}Déjame que lo analizo{{string value=\"...\"}}\n{{anim id=\"Nodding\" target=\"actor\" targetSpec=\"\"}}El rojo es el color de la pasión,{{delay8}} así\nque eres una persona apasionada.{{delay20}}\nActúas primero y luego piensas.\n{{anim id=\"Cheering\" target=\"actor\" targetSpec=\"\"}}¡Igualit{{gender2 m=\"o\" f=\"a\"}} a mí!{{delay20}} {{anim id=\"QuestionMark\" target=\"actor\" targetSpec=\"\"}}¿Tengo razón{{string value=\"...\"}}{{delay20}}\no le di justo al clavo?{{delay20}} {{anim id=\"Laughing\" target=\"actor\" targetSpec=\"\"}}¡{{capitalizeNextLetter}}{{string value=\"Catchphrase\"}}!"
  },
  {
    "label": "013",
    "attribute": "0x0000000000000000",
    "text": "{{anim id=\"Serious\" target=\"actor\" targetSpec=\"\"}}Ya veo.{{delay20}} Eso me revela claramente\nun detalle íntimo sobre ti.{{delay20}}\n{{anim id=\"Grin\" target=\"actor\" targetSpec=\"\"}}Déjame que lo analizo{{string value=\"...\"}}\n{{anim id=\"Nodding\" target=\"actor\" targetSpec=\"\"}}Lo tuyo es compartir tu gracia con\nlos demás.{{delay20}} Dondequiera que estés,{{delay8}}\nel entretenimiento está asegurado.\n{{anim id=\"Cheering\" target=\"actor\" targetSpec=\"\"}}¡Igualit{{gender2 m=\"o\" f=\"a\"}} a mí!{{delay20}} {{anim id=\"QuestionMark\" target=\"actor\" targetSpec=\"\"}}¿Tengo razón{{string value=\"...\"}}{{delay20}}\no le di justo al clavo?{{delay20}} {{anim id=\"Laughing\" target=\"actor\" targetSpec=\"\"}}¡{{capitalizeNextLetter}}{{string value=\"Catchphrase\"}}!"
  },
  {
    "label": "014",
    "attribute": "0x0000000000000000",
    "text": "{{anim id=\"Serious\" target=\"actor\" targetSpec=\"\"}}Ya veo.{{delay20}} Eso me revela claramente\nun detalle íntimo sobre ti.{{delay20}}\n{{anim id=\"Grin\" target=\"actor\" targetSpec=\"\"}}Déjame que lo analizo{{string value=\"...\"}}\n{{anim id=\"Nodding\" target=\"actor\" targetSpec=\"\"}}¡Eres muy reservad{{gender2 m=\"o\" f=\"a\"}}!{{delay20}} Ni siquiera sé\nsi lo estoy interpretando bien{{string value=\"...\"}}{{delay20}}\n¡Es muy difícil saber lo que piensas!\n{{anim id=\"Cheering\" target=\"actor\" targetSpec=\"\"}}¡Igualit{{gender2 m=\"o\" f=\"a\"}} a mí!{{delay20}} {{anim id=\"QuestionMark\" target=\"actor\" targetSpec=\"\"}}¿Tengo razón{{string value=\"...\"}}{{delay20}}\no le di justo al clavo?{{delay20}} {{anim id=\"Laughing\" target=\"actor\" targetSpec=\"\"}}¡{{capitalizeNextLetter}}{{string value=\"Catchphrase\"}}!"
  },
  {
    "label": "015",
    "attribute": "0x0000000000000000",
    "text": "{{anim id=\"Serious\" target=\"actor\" targetSpec=\"\"}}Ya veo.{{delay20}} Eso me revela claramente\nun detalle íntimo sobre ti.{{delay20}}\n{{anim id=\"Grin\" target=\"actor\" targetSpec=\"\"}}¡Déjame que lo analizo!\n{{anim id=\"Nodding\" target=\"actor\" targetSpec=\"\"}}En ti se destacan la humildad y\nla generosidad.{{delay20}} Siempre das todo\npor los demás.\n{{anim id=\"Cheering\" target=\"actor\" targetSpec=\"\"}}¡Igualit{{gender2 m=\"o\" f=\"a\"}} a mí!{{delay20}} {{anim id=\"QuestionMark\" target=\"actor\" targetSpec=\"\"}}¿Tengo razón{{string value=\"...\"}}{{delay20}}\no le di justo al clavo?{{delay20}} {{anim id=\"Laughing\" target=\"actor\" targetSpec=\"\"}}¡{{capitalizeNextLetter}}{{string value=\"Catchphrase\"}}!"
  },
  {
    "label": "017",
    "attribute": "0x0000100100000000",
    "text": "Deja lo que estés haciendo.{{delay20}} ¡Llega\nuna nueva pregunta personal,\n{{anim id=\"EmotEnd\" target=\"actor\" targetSpec=\"\"}}exclusiva de {{string value=\"VillagerName\"}}!\n{{anim id=\"Thinking\" target=\"actor\" targetSpec=\"\"}}Imagina que estás conduciendo un\nauto.{{delay20}} ¡No importa qué tipo!{{delay20}} Pero\ndime:{{delay20}} {{anim id=\"QuestionMark\" target=\"actor\" targetSpec=\"\"}}¿por dónde te ves viajando?"
  },
  {
    "label": "017_a",
    "attribute": "0x1200000000000000",
    "text": "Por la ciudad"
  },
  {
    "label": "017_b",
    "attribute": "0x1300000000000000",
    "text": "Por la costa"
  },
  {
    "label": "017_c",
    "attribute": "0x1400000000000000",
    "text": "Por el desierto"
  },
  {
    "label": "017_d",
    "attribute": "0x1500000000000000",
    "text": "Por una montaña"
  },
  {
    "label": "018",
    "attribute": "0x0000000000000000",
    "text": "{{anim id=\"Serious\" target=\"actor\" targetSpec=\"\"}}Bien.{{delay20}} Ahora deja que me ponga el\ntraje de analizar viajes imaginarios{{string value=\"...\"}}{{pageBreak}}{{anim id=\"Thinking\" target=\"actor\" targetSpec=\"\"}}Si prefieres las calles de una ciudad,{{delay8}}\nte gusta estar rodead{{gender2 m=\"o\" f=\"a\"}} de gente y\nruido.{{delay20}} {{anim id=\"Nodding\" target=\"actor\" targetSpec=\"\"}}¡Te gusta el bullicio!\n{{anim id=\"Aha\" target=\"actor\" targetSpec=\"\"}}Y conducir es algo que haces bien.{{delay20}}\n¡Cuando quieras tú y yo nos damos\nuna vuelta por ahí!"
  },
  {
    "label": "019",
    "attribute": "0x0000000000000000",
    "text": "{{anim id=\"Serious\" target=\"actor\" targetSpec=\"\"}}Bien.{{delay20}} Ahora deja que me ponga el\ntraje de analizar viajes imaginarios{{string value=\"...\"}}{{pageBreak}}{{anim id=\"AbsentMindedness\" target=\"actor\" targetSpec=\"\"}}Conducir por la costa puede ser una\nexperiencia relajante{{string value=\"...\"}}{{delay20}} {{anim id=\"Worried\" target=\"actor\" targetSpec=\"\"}}¡o una\naventura de riesgo!\n{{anim id=\"Frantic\" target=\"actor\" targetSpec=\"\"}}¡Acantilados!{{delay20}} ¡Vientos huracanados!{{delay20}}\n¡Pájaros hostiles!{{delay20}} {{anim id=\"WrySmile\" target=\"actor\" targetSpec=\"\"}}¡Debes haber\nperdido el juicio,{{delay8}} {{string value=\"NickName\"}}!"
  },
  {
    "label": "020",
    "attribute": "0x0000000000000000",
    "text": "{{anim id=\"Serious\" target=\"actor\" targetSpec=\"\"}}Bien.{{delay20}} Ahora deja que me ponga el\ntraje de analizar viajes imaginarios{{string value=\"...\"}}{{pageBreak}}{{anim id=\"Thinking\" target=\"actor\" targetSpec=\"\"}}¿Te imaginas por una carretera\nsolitaria en pleno desierto?{{delay20}} {{anim id=\"Aha\" target=\"actor\" targetSpec=\"\"}}Debes\ntener alma de guerrer{{gender2 m=\"o\" f=\"a\"}} motorizad{{gender2 m=\"o\" f=\"a\"}}.\n{{anim id=\"Thinking\" target=\"actor\" targetSpec=\"\"}}Te diré más{{string value=\"...\"}}{{delay20}} Seguro que podrías\nconducir 20 horas seguidas oyendo\nla misma canción en la radio.\n{{anim id=\"Laughing\" target=\"actor\" targetSpec=\"\"}}¡Jamás se me ocurriría dar\nun paseo en auto contigo!"
  },
  {
    "label": "021",
    "attribute": "0x0000000000000000",
    "text": "{{anim id=\"Serious\" target=\"actor\" targetSpec=\"\"}}Bien.{{delay20}} Ahora deja que me ponga el\ntraje de analizar viajes imaginarios{{string value=\"...\"}}{{pageBreak}}{{anim id=\"Shocked\" target=\"actor\" targetSpec=\"\"}}¡Sobre una montaña! {{delay20}}¡Qué ambición!{{delay20}}\n{{anim id=\"WrySmile\" target=\"actor\" targetSpec=\"\"}}Yo preferiría una carretera bien lisita,{{delay20}}\no mejor una acera para ir caminando.\n{{anim id=\"OhGeez\" target=\"actor\" targetSpec=\"\"}}Pero perdona,{{delay8}} estamos hablando\nde ti{{string value=\"...\"}} ¡{{gender2 m=\"El\" f=\"La\"}} {{gender2 m=\"conductor\" f=\"conductora\"}} de altas\ncumbres!{{delay20}} {{anim id=\"Grin\" target=\"actor\" targetSpec=\"\"}}¡No mires hacia abajo!"
  },
  {
    "label": "023",
    "attribute": "0x0000040100000000",
    "text": "{{anim id=\"AbsentMindedness\" target=\"actor\" targetSpec=\"\"}}Vaya,{{delay8}} hoy te vestiste con un\ngusto impecable.{{delay20}} {{anim id=\"EmotEnd\" target=\"actor\" targetSpec=\"\"}}¡Soy tu fan!{{delay20}}\n¿Siempre cuidas tanto tu aspecto?"
  },
  {
    "label": "023_a",
    "attribute": "0x1800000000000000",
    "text": "Por supuesto"
  },
  {
    "label": "023_b",
    "attribute": "0x1900000000000000",
    "text": "Para nada"
  },
  {
    "label": "023_c",
    "attribute": "0x1A00000000000000",
    "text": "Es un secreto"
  },
  {
    "label": "024",
    "attribute": "0x0000000000000000",
    "text": "{{anim id=\"Nodding\" target=\"actor\" targetSpec=\"\"}}Lo sabía.{{delay20}} Me alegra que nos\nentendamos entre los que tenemos\ngustos poco comunes."
  },
  {
    "label": "025",
    "attribute": "0x0000000000000000",
    "text": "{{anim id=\"OhGeez\" target=\"actor\" targetSpec=\"\"}}¿Bromeas?{{delay20}} No puedes ser tan\noriginal sin dedicarle tiempo\nal asunto,{{delay8}} {{anim id=\"Thinking\" target=\"actor\" targetSpec=\"\"}}¿cierto?\n{{anim id=\"AbsentMindedness\" target=\"actor\" targetSpec=\"\"}}¿O acaso has logrado desarrollar\nunas habilidades estéticas que no\nalcanzo a comprender?"
  },
  {
    "label": "026",
    "attribute": "0x0000000000000000",
    "text": "{{anim id=\"WrySmile\" target=\"actor\" targetSpec=\"\"}}¡{{capitalizeNextLetter}}{{string value=\"Catchphrase\"}}!{{delay20}} Ah, ¿sí?{{delay20}}\nPues ahora no pienso contarte qué\ndiseño de calcetines llevo hoy.\n{{anim id=\"BigSmile\" target=\"actor\" targetSpec=\"\"}}¡Ja!{{delay20}} El que poco da, poco recibe."
  },
  {
    "label": "101",
    "attribute": "0x0000100100000000",
    "text": "{{anim id=\"SmugFace\" target=\"actor\" targetSpec=\"\"}}Estoy trabajando en una idea\nmillonaria, {{string value=\"NickName\"}}.\n{{delay20}}{{anim id=\"Nodding\" target=\"actor\" targetSpec=\"\"}}Haré un viaje en auto yo solo.{{pageBreak}}{{anim id=\"AbsentMindedness\" target=\"actor\" targetSpec=\"\"}}Tengo todo preparado:{{delay20}} una selección\nmusical con las últimas obras de\nmúsica atonal, {{delay20}}comida gourmet{{string value=\"...\"}}\n{{anim id=\"Hesitate\" target=\"actor\" targetSpec=\"\"}}Solo me falta un pequeño detalle\npara alcanzar la perfección:{{delay20}}\ndecidir mi destino.{{pageBreak}}{{anim id=\"WrySmile\" target=\"actor\" targetSpec=\"\"}}Y ahí es donde entras tú.{{delay20}}\n¿A dónde me sugieres que vaya?"
  },
  {
    "label": "101_a",
    "attribute": "0x6600000000000000",
    "text": "¡Ve a una gran ciudad!"
  },
  {
    "label": "101_b",
    "attribute": "0x6700000000000000",
    "text": "Recorre la costa"
  },
  {
    "label": "101_c",
    "attribute": "0x6800000000000000",
    "text": "Quédate por la zona"
  },
  {
    "label": "101_d",
    "attribute": "0x6900000000000000",
    "text": "Rumbo al atardecer"
  },
  {
    "label": "102",
    "attribute": "0x6A00000000000000",
    "text": "{{anim id=\"BigSmile\" target=\"actor\" targetSpec=\"\"}}Una idea digna de ti.{{delay20}} Al fin y al cabo,{{delay8}}\n¿qué mejor forma de desconectarse\nde la tranquilidad de la isla?\n{{anim id=\"IdeaBulb\" target=\"actor\" targetSpec=\"\"}}Es como si lo viera: {{delay20}}bocinas de\nvehículos, bullicio, gente frenética\npor las calles{{string value=\"...\"}}{{pageBreak}}{{anim id=\"Thinking\" target=\"actor\" targetSpec=\"\"}}Las grandes ciudades tienen ese\n\"yo no sé cuac\" que solo unos pocos\npodemos apreciar."
  },
  {
    "label": "103",
    "attribute": "0x6A00000000000000",
    "text": "{{anim id=\"Aha\" target=\"actor\" targetSpec=\"\"}}¡Una idea \"fantastique\"! {{delay20}}Como si lo\nestuviera viendo: yo conduciendo,{{delay20}}\nlos acantilados de fondo{{string value=\"...\"}}{{pageBreak}}{{anim id=\"AbsentMindedness\" target=\"actor\" targetSpec=\"\"}}El sol reflejándose en las azuladas\naguas del mar, {{delay8}}el viento en el rostro\nenredando mi cabello{{string value=\"...\"}}\n{{anim id=\"Hesitate\" target=\"actor\" targetSpec=\"\"}}Eh{{string value=\"...\"}}{{delay20}} Bueno,{{delay8}} mejor imaginemos eso\npero con las ventanillas subidas.{{delay20}}\n{{anim id=\"OhGeez\" target=\"actor\" targetSpec=\"\"}}Tengo una imagen que cuidar{{string value=\"...\"}}"
  },
  {
    "label": "104",
    "attribute": "0x6A00000000000000",
    "text": "{{anim id=\"Thinking\" target=\"actor\" targetSpec=\"\"}}Oye,{{delay20}} pues no es mala idea. {{delay frames=\"40\"}}¿Para qué\nirse lejos en busca de aventuras{{anim id=\"BigSmile\" target=\"actor\" targetSpec=\"\"}} si\nlas puedes tener en tu propia casa?\n{{anim id=\"Nodding\" target=\"actor\" targetSpec=\"\"}}Aunque{{string value=\"...\"}}{{delay20}} quizás el artículo en mi\nblog no termine marcando tendencia\nen turismo como de costumbre{{string value=\"...\"}}"
  },
  {
    "label": "105",
    "attribute": "0x6A00000000000000",
    "text": "{{anim id=\"Aha\" target=\"actor\" targetSpec=\"\"}}¡Una idea absolutamente \"magnifique\"! {{delay20}}{{anim id=\"AbsentMindedness\" target=\"actor\" targetSpec=\"\"}}Conducir hacia lo desconocido, {{delay20}}sin rumbo certero{{string value=\"...\"}}{{pageBreak}}Ignorar los mandatos del turismo\nmasificado tradicional{{string value=\"...\"}}{{delay20}}{{anim id=\"QuestionMark\" target=\"actor\" targetSpec=\"\"}} Qué extraño\nque no se me haya ocurrido a mí{{string value=\"...\"}}"
  },
  {
    "label": "106",
    "attribute": "0x0000000000000000",
    "text": "{{anim id=\"Nodding\" target=\"actor\" targetSpec=\"\"}}Bien, {{delay8}}pues ahora que ya tengo\ntodo decidido, {{delay8}}solo me falta un\núltimo mínimo detalle{{string value=\"...\"}}\n{{anim id=\"Grin\" target=\"actor\" targetSpec=\"\"}}Sacarme el permiso de conducir.{{delay20}}\n{{color id=\"4\"}}(No me requerirá esfuerzo{{string value=\"...\"}}).{{color id=\"65535\"}}"
  }
]