﻿Book0,Book1,Book2,Comic0,Comic1,Comic2,Dream0,Dream1,Dream2,Drink0,Drink1,Drink2,Food0,Food1,Food2,Hobby0,Hobby1,Hobby2,Movie0,Movie1,Movie2,Music0,Music1,Music2,Specialty0,Specialty1,Specialty2,Sports0,Sports1,Sports2,TvProgram0,TvProgram1,TvProgram2,UniqueId,Label
50,43,46,69,66,62,184,191,185,143,144,145,161,166,171,207,206,201,88,86,83,27,25,28,223,222,220,128,124,130,103,110,104,0,boy_normal
46,45,47,68,64,60,188,190,181,148,146,143,167,160,169,203,202,214,84,82,80,24,21,25,221,226,231,120,129,121,107,101,109,1,boy_active
48,40,42,62,65,70,182,187,180,140,142,147,164,167,172,211,200,213,87,85,90,21,23,26,227,226,230,125,131,127,105,102,107,2,boy_pride
42,41,44,67,61,62,193,183,194,142,141,149,165,163,168,208,204,211,81,90,80,23,25,27,225,224,230,123,122,129,106,100,103,3,boy_snobby
40,47,45,66,65,70,183,191,189,150,145,140,166,162,173,200,205,212,85,86,81,20,21,22,229,220,228,130,123,126,110,104,105,4,girl_normal
43,41,49,61,63,68,186,193,184,144,140,146,162,161,175,206,209,204,89,88,82,20,24,27,222,225,229,126,120,131,109,101,103,5,girl_active
41,44,48,60,61,67,187,192,185,141,147,149,163,164,174,210,203,213,80,81,89,22,23,28,231,228,223,122,124,128,100,108,106,6,girl_pride
47,43,49,63,64,69,194,188,180,146,148,150,160,165,170,201,208,205,83,84,87,26,20,24,220,224,227,121,127,125,102,110,108,7,girl_big_sis
