﻿[
  {
    "label": "101",
    "attribute": "0x0000020000000000",
    "locale": {
      "CNzh": "{{anim id=\"Sighing\" target=\"actor\" targetSpec=\"\"}}只要那个的分量不出错{{string value=\"...\"}}{{delay20}}\n{{i20_3 arg=\"6\"}}{{anim id=\"FaintSmile\" target=\"actor\" targetSpec=\"\"}}哎呀，{{delay20}}你找我有什么事吗？{{string value=\"6\"}}。",
      "EUde": "{{anim id=\"Sighing\" target=\"actor\" targetSpec=\"\"}}Das muss man aber sehr genau\nabmessen{{string value=\"...\"}}{{delay20}} {{i20_3 arg=\"6\"}}{{anim id=\"FaintSmile\" target=\"actor\" targetSpec=\"\"}}Hi,{{delay8}} {{fun_00060096 arg=\"\"}}!{{delay20}}\n{{anim id=\"FaintSmile\" target=\"actor\" targetSpec=\"\"}}Brauchst du etwas, {{delay8}}{{string value=\"Catchphrase\"}}?",
      "EUen": "{{anim id=\"Sighing\" target=\"actor\" targetSpec=\"\"}}Assuming they measured that out\nright{{string value=\"...\"}}{{delay20}}{{i20_3 arg=\"6\"}} {{anim id=\"FaintSmile\" target=\"actor\" targetSpec=\"\"}}Did you need me?",
      "EUes": "{{anim id=\"Sighing\" target=\"actor\" targetSpec=\"\"}}Espero que lo pesen todo bien{{string value=\"...\"}}{{delay20}}\n{{i20_3 arg=\"6\"}}{{anim id=\"FaintSmile\" target=\"actor\" targetSpec=\"\"}}¡Ah, {{fun_00060096 arg=\"\"}}!{{delay20}}\n{{anim id=\"FaintSmile\" target=\"actor\" targetSpec=\"\"}}¿Puedo ayudarte, {{string value=\"6\"}}?",
      "EUfr": "{{anim id=\"Sighing\" target=\"actor\" targetSpec=\"\"}}Alors,{{delay8}} si les proportions sont\ncorrectes{{string value=\"...\"}}{{delay20}}{{i20_3 arg=\"6\"}} {{anim id=\"FaintSmile\" target=\"actor\" targetSpec=\"\"}}Tu as besoin de moi,\n{{string value=\"6\"}} ?",
      "EUit": "{{anim id=\"Sighing\" target=\"actor\" targetSpec=\"\"}}Sempre che le quantità siano quelle giuste{{string value=\"...\"}}{{i20_3 arg=\"6\"}} {{anim id=\"FaintSmile\" target=\"actor\" targetSpec=\"\"}}Posso aiutarti, {{string value=\"6\"}}?",
      "EUnl": "{{anim id=\"Sighing\" target=\"actor\" targetSpec=\"\"}}Als ze dat juist hebben gewogen,\ndan betekent dat{{string value=\"...\"}}{{delay20}}{{i20_3 arg=\"6\"}} {{anim id=\"FaintSmile\" target=\"actor\" targetSpec=\"\"}}Kan ik je ergens\nmee helpen?",
      "EUru": "{{anim id=\"Sighing\" target=\"actor\" targetSpec=\"\"}}Будем считать, что все точно\nотмерено{{string value=\"...\"}}{{delay20}}{{i20_3 arg=\"6\"}} {{anim id=\"FaintSmile\" target=\"actor\" targetSpec=\"\"}}Я тебе нужна?",
      "JPja": "{{anim id=\"Sighing\" target=\"actor\" targetSpec=\"\"}}アレの{{ruby charSpan=\"2\" value=\"ぶんりょう\"}}分量さえ　{{ruby charSpan=\"2\" value=\"まちが\"}}間違えなければ{{string value=\"...\"}}{{delay20}}\n{{i20_3 arg=\"6\"}}{{anim id=\"FaintSmile\" target=\"actor\" targetSpec=\"\"}}あら、{{delay20}}{{ruby charSpan=\"1\" value=\"なに\"}}何か　ご{{ruby charSpan=\"1\" value=\"よう\"}}用でしょうか？　{{string value=\"6\"}}",
      "KRko": "{{anim id=\"Sighing\" target=\"actor\" targetSpec=\"\"}}그 분량만 안 틀리면{{string value=\"...\"}}{{delay20}}\n{{i20_3 arg=\"6\"}}{{anim id=\"FaintSmile\" target=\"actor\" targetSpec=\"\"}}어머, {{delay20}}{{anim id=\"FaintSmile\" target=\"actor\" targetSpec=\"\"}}무슨 일이신가요? {{string value=\"6\"}}?",
      "TWzh": "{{anim id=\"Sighing\" target=\"actor\" targetSpec=\"\"}}要是搞錯那東西的分量{{string value=\"...\"}}{{delay20}}\n{{i20_3 arg=\"6\"}}{{anim id=\"FaintSmile\" target=\"actor\" targetSpec=\"\"}}哎呀，{{delay20}}你找我有什麼事嗎？{{string value=\"6\"}}。",
      "USen": "{{anim id=\"Sighing\" target=\"actor\" targetSpec=\"\"}}Assuming they measured that out\nright{{string value=\"...\"}}{{delay20}}{{i20_3 arg=\"6\"}} {{anim id=\"FaintSmile\" target=\"actor\" targetSpec=\"\"}}Did you need me?",
      "USes": "{{anim id=\"Sighing\" target=\"actor\" targetSpec=\"\"}}Espero que lo pesen todo bien{{string value=\"...\"}}{{delay20}}\n{{i20_3 arg=\"6\"}}{{anim id=\"FaintSmile\" target=\"actor\" targetSpec=\"\"}}¡Uy, {{fun_00060096 arg=\"\"}}!{{delay20}} ¿Puedo ayudarte, {{string value=\"Catchphrase\"}}⁠?",
      "USfr": "{{anim id=\"Sighing\" target=\"actor\" targetSpec=\"\"}}Alors,{{delay8}} si les proportions sont\ncorrectes{{string value=\"...\"}}{{delay20}}{{i20_3 arg=\"6\"}} {{anim id=\"FaintSmile\" target=\"actor\" targetSpec=\"\"}}Tu as besoin de moi,\n{{string value=\"6\"}}?"
    }
  },
  {
    "label": "101_a",
    "attribute": "0x0000000000000000",
    "locale": {
      "CNzh": "{{anim id=\"EmotEnd\" target=\"actor\" targetSpec=\"\"}}你在做什么？",
      "EUde": "{{anim id=\"EmotEnd\" target=\"actor\" targetSpec=\"\"}}Was bereitest du zu?",
      "EUen": "{{anim id=\"EmotEnd\" target=\"actor\" targetSpec=\"\"}}What are you doing?",
      "EUes": "{{anim id=\"EmotEnd\" target=\"actor\" targetSpec=\"\"}}¿Qué haces?",
      "EUfr": "{{anim id=\"EmotEnd\" target=\"actor\" targetSpec=\"\"}}Qu'est-ce que tu fais ?",
      "EUit": "{{anim id=\"EmotEnd\" target=\"actor\" targetSpec=\"\"}}Cosa stai facendo?",
      "EUnl": "{{anim id=\"EmotEnd\" target=\"actor\" targetSpec=\"\"}}Wat doe je daar?",
      "EUru": "{{anim id=\"EmotEnd\" target=\"actor\" targetSpec=\"\"}}Что готовишь?",
      "JPja": "{{anim id=\"EmotEnd\" target=\"actor\" targetSpec=\"\"}}{{ruby charSpan=\"1\" value=\"なに\"}}何してるの？",
      "KRko": "{{anim id=\"EmotEnd\" target=\"actor\" targetSpec=\"\"}}뭐 하는 거야?",
      "TWzh": "{{anim id=\"EmotEnd\" target=\"actor\" targetSpec=\"\"}}你在做什麼？",
      "USen": "{{anim id=\"EmotEnd\" target=\"actor\" targetSpec=\"\"}}What are you doing?",
      "USes": "{{anim id=\"EmotEnd\" target=\"actor\" targetSpec=\"\"}}¿Qué haces?",
      "USfr": "{{anim id=\"EmotEnd\" target=\"actor\" targetSpec=\"\"}}Qu'est-ce que tu fais?"
    }
  },
  {
    "label": "101_b",
    "attribute": "0x0000000000000000",
    "locale": {
      "CNzh": "没什么事",
      "EUde": "Nein, will nicht stören.",
      "EUen": "No, I don't need anything.",
      "EUes": "No, es igual",
      "EUfr": "Non, pas vraiment.",
      "EUit": "No, tutto a posto.",
      "EUnl": "Nee, er is niks, hoor.",
      "EUru": "Ничего не нужно.",
      "JPja": "なんでもないです",
      "KRko": "아무것도 아니야",
      "TWzh": "沒什麼事",
      "USen": "No, I don't need anything.",
      "USes": "No, todo bien",
      "USfr": "Non, pas vraiment."
    }
  },
  {
    "label": "102",
    "attribute": "0x0000020000000000",
    "locale": {
      "CNzh": "{{anim id=\"Thinking\" target=\"actor\" targetSpec=\"\"}}加入那个之后，就不只是提味了，{{delay8}}\n它的味道会非常有存在感{{string value=\"...\"}}{{delay frames=\"30\"}}\n{{i20_3 arg=\"6\"}}{{anim id=\"Hesitate\" target=\"actor\" targetSpec=\"\"}}{{anim id=\"Surprised\" target=\"actor\" targetSpec=\"\"}}那个……{{delay20}}你听到我在自言自语了？",
      "EUde": "{{anim id=\"Thinking\" target=\"actor\" targetSpec=\"\"}}Aber wenn man das hier hinzufügt,{{delay8}}\nschmeckt das Gericht nach nichts\nanderem mehr{{string value=\"...\"}}\n{{i20_3 arg=\"6\"}}{{anim id=\"Hesitate\" target=\"actor\" targetSpec=\"\"}}Ich{{string value=\"...\"}}{{delay20}} Ich rede nur mit mir selbst{{string value=\"...\"}}{{delay20}}{{anim id=\"FaintSmile\" target=\"actor\" targetSpec=\"\"}}\nKann ich dir weiterhelfen?",
      "EUen": "{{anim id=\"Thinking\" target=\"actor\" targetSpec=\"\"}}If they add that,{{delay8}} it'll take over the\nwhole dish{{string value=\"...\"}}{{delay frames=\"30\"}}{{i20_3 arg=\"6\"}}{{anim id=\"Hesitate\" target=\"actor\" targetSpec=\"\"}} Don't worry—I'm just\ntalking to myself.{{delay20}} Need something?",
      "EUes": "{{anim id=\"Thinking\" target=\"actor\" targetSpec=\"\"}}Si se añade un poquito de esto{{string value=\"...\"}}{{delay20}}\n{{i20_3 arg=\"6\"}}{{anim id=\"Hesitate\" target=\"actor\" targetSpec=\"\"}}Ah, flor.{{delay20}} ¿Necesitas algo?",
      "EUfr": "{{anim id=\"Thinking\" target=\"actor\" targetSpec=\"\"}}Si j'ajoute cet ingrédient,{{delay8}} son goût\ndominera tout le reste{{string value=\"...\"}}{{pageBreak}}{{i20_3 arg=\"6\"}}{{anim id=\"Surprised\" target=\"actor\" targetSpec=\"\"}}AH !{{delay frames=\"40\"}}{{anim id=\"Hesitate\" target=\"actor\" targetSpec=\"\"}} Je parle toute seule{{string value=\"...\"}} Tu as\nbesoin de moi ?",
      "EUit": "{{anim id=\"Thinking\" target=\"actor\" targetSpec=\"\"}}Ma se mettono questo,{{delay8}} poi coprirà\ntutto il sapore{{string value=\"...\"}}{{i20_3 arg=\"6\"}}{{anim id=\"Hesitate\" target=\"actor\" targetSpec=\"\"}} Mi hai sentita\nparlare da sola, n'est-ce-pas?",
      "EUnl": "{{anim id=\"Thinking\" target=\"actor\" targetSpec=\"\"}}Maar als ik dat erbij doe,{{delay8}} dan\noverheerst het heel de maaltijd{{string value=\"...\"}}{{delay frames=\"30\"}}{{i20_3 arg=\"6\"}}{{pageBreak}}{{anim id=\"Hesitate\" target=\"actor\" targetSpec=\"\"}}Maak je maar geen zorgen, ik praat\nwat in mezelf. Heb je soms iets\nnodig?",
      "EUru": "{{anim id=\"Thinking\" target=\"actor\" targetSpec=\"\"}}Если добавить это,{{delay8}} оно весь вкус\nперебьет{{string value=\"...\"}}{{delay frames=\"30\"}}{{i20_3 arg=\"6\"}}{{anim id=\"Hesitate\" target=\"actor\" targetSpec=\"\"}} Я просто сама с собой\nразговариваю.{{delay20}} Тебе что-то нужно?",
      "JPja": "{{anim id=\"Thinking\" target=\"actor\" targetSpec=\"\"}}アレを{{ruby charSpan=\"1\" value=\"い\"}}入れると　{{ruby charSpan=\"1\" value=\"かく\"}}隠し{{ruby charSpan=\"1\" value=\"あじ\"}}味にならなくて{{delay8}}\n{{ruby charSpan=\"2\" value=\"ぜんめん\"}}全面に{{ruby charSpan=\"1\" value=\"で\"}}出ちゃいそうだけど{{string value=\"...\"}}{{delay frames=\"30\"}}\n{{i20_3 arg=\"6\"}}{{anim id=\"Hesitate\" target=\"actor\" targetSpec=\"\"}}あの、{{delay20}}ひとりごと、{{ruby charSpan=\"1\" value=\"き\"}}聞かれちゃいました？",
      "KRko": "{{anim id=\"Thinking\" target=\"actor\" targetSpec=\"\"}}그걸 포인트로 넣고 싶은데{{delay8}}\n잘 어우러지게 하려면{{string value=\"...\"}}{{delay frames=\"30\"}}\n{{i20_3 arg=\"6\"}}{{anim id=\"Hesitate\" target=\"actor\" targetSpec=\"\"}}앗,{{delay20}} 혼잣말하는 거{{string value=\"...\"}} {{delay20}}들으셨나요?",
      "TWzh": "{{anim id=\"Thinking\" target=\"actor\" targetSpec=\"\"}}加入那個似乎沒辦法畫龍點睛，{{delay8}}\n反而會搶走主材料的風味{{string value=\"...\"}}{{delay frames=\"30\"}}\n{{i20_3 arg=\"6\"}}{{anim id=\"Hesitate\" target=\"actor\" targetSpec=\"\"}}那個……{{delay20}}你聽到我的自言自語了嗎？",
      "USen": "{{anim id=\"Thinking\" target=\"actor\" targetSpec=\"\"}}If they add that,{{delay8}} it'll take over the\nwhole dish{{string value=\"...\"}}{{delay frames=\"30\"}}{{i20_3 arg=\"6\"}}{{anim id=\"Hesitate\" target=\"actor\" targetSpec=\"\"}} Don't worry—I'm just\ntalking to myself.{{delay20}} Need something?",
      "USes": "{{anim id=\"Thinking\" target=\"actor\" targetSpec=\"\"}}Con ese ingrediente se acentúan\nlos sabores{{string value=\"...\"}}{{delay20}} {{i20_3 arg=\"6\"}}{{delay20}}{{anim id=\"Hesitate\" target=\"actor\" targetSpec=\"\"}}Ah, lechuguita.{{delay20}}\n¿Necesitas algo?",
      "USfr": "{{anim id=\"Thinking\" target=\"actor\" targetSpec=\"\"}}Si j'ajoute cet ingrédient,{{delay8}} son goût\ndominera tout le reste{{string value=\"...\"}}{{pageBreak}}{{i20_3 arg=\"6\"}}{{anim id=\"Surprised\" target=\"actor\" targetSpec=\"\"}}AH!{{delay frames=\"40\"}}{{anim id=\"Hesitate\" target=\"actor\" targetSpec=\"\"}} Je parle toute seule{{string value=\"...\"}} Tu as\nbesoin de moi?"
    }
  },
  {
    "label": "102_a",
    "attribute": "0x0000000000000000",
    "locale": {
      "CNzh": "{{anim id=\"EmotEnd\" target=\"actor\" targetSpec=\"\"}}你在做什么？",
      "EUde": "{{anim id=\"EmotEnd\" target=\"actor\" targetSpec=\"\"}}Was bereitest du zu?",
      "EUen": "{{anim id=\"EmotEnd\" target=\"actor\" targetSpec=\"\"}}What are you doing?",
      "EUes": "{{anim id=\"EmotEnd\" target=\"actor\" targetSpec=\"\"}}¿Qué haces?",
      "EUfr": "{{anim id=\"EmotEnd\" target=\"actor\" targetSpec=\"\"}}Qu'est-ce que tu fais ?",
      "EUit": "{{anim id=\"EmotEnd\" target=\"actor\" targetSpec=\"\"}}Cosa fai?",
      "EUnl": "{{anim id=\"EmotEnd\" target=\"actor\" targetSpec=\"\"}}Wat doe je daar?",
      "EUru": "{{anim id=\"EmotEnd\" target=\"actor\" targetSpec=\"\"}}Что готовишь?",
      "JPja": "{{anim id=\"EmotEnd\" target=\"actor\" targetSpec=\"\"}}{{ruby charSpan=\"1\" value=\"なに\"}}何してるの？",
      "KRko": "{{anim id=\"EmotEnd\" target=\"actor\" targetSpec=\"\"}}뭐 해?",
      "TWzh": "{{anim id=\"EmotEnd\" target=\"actor\" targetSpec=\"\"}}你在做什麼呢？",
      "USen": "{{anim id=\"EmotEnd\" target=\"actor\" targetSpec=\"\"}}What are you doing?",
      "USes": "{{anim id=\"EmotEnd\" target=\"actor\" targetSpec=\"\"}}¿Qué haces?",
      "USfr": "{{anim id=\"EmotEnd\" target=\"actor\" targetSpec=\"\"}}Qu'est-ce que tu fais?"
    }
  },
  {
    "label": "102_b",
    "attribute": "0x0000000000000000",
    "locale": {
      "CNzh": "没，什么也没听到……",
      "EUde": "Nein, ich glaube nicht.",
      "EUen": "Oh, no, not really...",
      "EUes": "No, nada",
      "EUfr": "Pas vraiment, en fait...",
      "EUit": "Oh no, non proprio...",
      "EUnl": "O, nee, hoor...",
      "EUru": "Я ничего не слышал{{gender2 m=\"\" f=\"а\"}}…",
      "JPja": "いえ、{{ruby charSpan=\"1\" value=\"なに\"}}何も・・・",
      "KRko": "아니, 못 들었어…",
      "TWzh": "不，什麼都沒聽到{{string value=\"...\"}}",
      "USen": "Oh, no, not really...",
      "USes": "No, nada",
      "USfr": "Pas vraiment, en fait..."
    }
  },
  {
    "label": "103",
    "attribute": "0x0000020000000000",
    "locale": {
      "CNzh": "{{anim id=\"Nodding\" target=\"actor\" targetSpec=\"\"}}{{string value=\"...\"}}只要把材料准备好就可以了吧。{{delay frames=\"30\"}}\n{{i20_3 arg=\"6\"}}{{anim id=\"Eh\" target=\"actor\" targetSpec=\"\"}}啊，不好意思！{{delay frames=\"40\"}}\n{{anim id=\"ShyBoy\" target=\"actor\" targetSpec=\"\"}}我在想事情{{string value=\"...\"}}{{string value=\"6\"}}。",
      "EUde": "{{anim id=\"Nodding\" target=\"actor\" targetSpec=\"\"}}Falls es die Zutaten gibt{{string value=\"...\"}}{{delay8}}\n{{i20_3 arg=\"6\"}}{{anim id=\"Eh\" target=\"actor\" targetSpec=\"\"}}Oh! {{delay20}}Bitte entschuldige, {{delay8}}{{anim id=\"ShyBoy\" target=\"actor\" targetSpec=\"\"}}ich war\ngerade etwas geistesabwesend{{string value=\"...\"}}",
      "EUen": "{{anim id=\"Nodding\" target=\"actor\" targetSpec=\"\"}}If they can find the ingredients{{string value=\"...\"}}{{delay frames=\"30\"}} {{i20_3 arg=\"6\"}}{{anim id=\"ShyBoy\" target=\"actor\" targetSpec=\"\"}}My\nmind was elsewhere. Do you need\nsomething, {{string value=\"NickName\"}}?",
      "EUes": "{{anim id=\"Nodding\" target=\"actor\" targetSpec=\"\"}}Si encuentran los ingredientes{{string value=\"...\"}}{{delay20}}{{i20_3 arg=\"6\"}}\n{{anim id=\"ShyBoy\" target=\"actor\" targetSpec=\"\"}}Ay, estaba pensando en mis cosas,\nbichín.{{delay20}} {{anim id=\"FaintSmile\" target=\"actor\" targetSpec=\"\"}}¿Puedo ayudarte?",
      "EUfr": "{{anim id=\"Nodding\" target=\"actor\" targetSpec=\"\"}}Si on peut trouver les ingrédients{{string value=\"...\"}}{{delay frames=\"30\"}}{{i20_3 arg=\"6\"}}{{anim id=\"Eh\" target=\"actor\" targetSpec=\"\"}}\nAh !{{delay20}} Désolée, j'étais en pleine\nréflexion.{{pageBreak}}Tu as besoin de moi, {{string value=\"NickName\"}} ?",
      "EUit": "{{anim id=\"Nodding\" target=\"actor\" targetSpec=\"\"}}Con gli ingredienti giusti{{string value=\"...\"}}{{i20_3 arg=\"6\"}} {{anim id=\"ShyBoy\" target=\"actor\" targetSpec=\"\"}}Ero persa\nnei miei pensieri. Ti serve aiuto,\n{{string value=\"NickName\"}}?",
      "EUnl": "{{anim id=\"Nodding\" target=\"actor\" targetSpec=\"\"}}Als ze die ingrediënten kunnen\nkrijgen{{string value=\"...\"}}{{delay frames=\"30\"}} {{i20_3 arg=\"6\"}}{{anim id=\"ShyBoy\" target=\"actor\" targetSpec=\"\"}}Sorry, ik was in gedachten\nverzonken.{{pageBreak}}Kan ik iets voor je doen, {{string value=\"NickName\"}}?",
      "EUru": "{{anim id=\"Nodding\" target=\"actor\" targetSpec=\"\"}}Если удастся найти ингредиенты{{string value=\"...\"}}{{delay frames=\"30\"}}\n{{i20_3 arg=\"6\"}}{{anim id=\"ShyBoy\" target=\"actor\" targetSpec=\"\"}}Извини, о своем задумалась. Тебе\nчто-то нужно, {{string value=\"NickName\"}}?",
      "JPja": "{{anim id=\"Nodding\" target=\"actor\" targetSpec=\"\"}}{{string value=\"...\"}}{{ruby charSpan=\"2\" value=\"ざいりょう\"}}材料さえ{{ruby charSpan=\"2\" value=\"じゅんび\"}}準備できれば　{{ruby charSpan=\"3\" value=\"だいじょうぶ\"}}大丈夫かな{{delay frames=\"30\"}}\n{{i20_3 arg=\"6\"}}{{anim id=\"Eh\" target=\"actor\" targetSpec=\"\"}}あっ、すみません！{{delay frames=\"40\"}}\n{{anim id=\"ShyBoy\" target=\"actor\" targetSpec=\"\"}}ちょっと　{{ruby charSpan=\"1\" value=\"かんが\"}}考え{{ruby charSpan=\"1\" value=\"ちゅう\"}}中で{{string value=\"...\"}}、{{string value=\"6\"}}",
      "KRko": "{{anim id=\"Nodding\" target=\"actor\" targetSpec=\"\"}}{{string value=\"...\"}}재료만 갖춰지면 괜찮지 않을까{{string value=\"...\"}}?{{delay frames=\"30\"}}\n{{i20_3 arg=\"6\"}}{{anim id=\"Eh\" target=\"actor\" targetSpec=\"\"}}앗, 죄송해요!{{delay frames=\"40\"}}\n{{anim id=\"ShyBoy\" target=\"actor\" targetSpec=\"\"}}잠깐 생각을 좀 하느라, {{string value=\"6\"}}{{string value=\"...\"}}",
      "TWzh": "{{anim id=\"Nodding\" target=\"actor\" targetSpec=\"\"}}只要把材料準備好應該就行了{{string value=\"...\"}}{{delay frames=\"30\"}}\n{{i20_3 arg=\"6\"}}{{anim id=\"Eh\" target=\"actor\" targetSpec=\"\"}}啊，抱歉！{{delay frames=\"40\"}}\n{{anim id=\"ShyBoy\" target=\"actor\" targetSpec=\"\"}}我正在想事情{{string value=\"...\"}}{{string value=\"6\"}}。",
      "USen": "{{anim id=\"Nodding\" target=\"actor\" targetSpec=\"\"}}If they can find the ingredients{{string value=\"...\"}}{{delay frames=\"30\"}} {{i20_3 arg=\"6\"}}{{anim id=\"ShyBoy\" target=\"actor\" targetSpec=\"\"}}My\nmind was elsewhere. Do you need\nsomething, {{string value=\"NickName\"}}?",
      "USes": "{{anim id=\"Nodding\" target=\"actor\" targetSpec=\"\"}}Ese ingrediente es esencial{{string value=\"...\"}}{{delay20}}{{i20_3 arg=\"6\"}}\n{{anim id=\"ShyBoy\" target=\"actor\" targetSpec=\"\"}}Uy,{{delay8}} estaba pensando en mis cosas,\ncalabacita.{{delay20}} {{anim id=\"FaintSmile\" target=\"actor\" targetSpec=\"\"}}¿Puedo ayudarte?",
      "USfr": "{{anim id=\"Nodding\" target=\"actor\" targetSpec=\"\"}}Si on peut trouver les ingrédients{{string value=\"...\"}}{{delay frames=\"30\"}}{{i20_3 arg=\"6\"}}{{anim id=\"Eh\" target=\"actor\" targetSpec=\"\"}}\nAh!{{delay20}} Désolée, j'étais en pleine\nréflexion.{{pageBreak}}Tu as besoin de moi, {{string value=\"NickName\"}}?"
    }
  },
  {
    "label": "103_a",
    "attribute": "0x0000000000000000",
    "locale": {
      "CNzh": "{{anim id=\"EmotEnd\" target=\"actor\" targetSpec=\"\"}}你在做什么？",
      "EUde": "{{anim id=\"EmotEnd\" target=\"actor\" targetSpec=\"\"}}Was bereitest du zu?",
      "EUen": "{{anim id=\"EmotEnd\" target=\"actor\" targetSpec=\"\"}}What are you doing?",
      "EUes": "{{anim id=\"EmotEnd\" target=\"actor\" targetSpec=\"\"}}¿Qué haces?",
      "EUfr": "{{anim id=\"EmotEnd\" target=\"actor\" targetSpec=\"\"}}Qu'est-ce que tu fais ?",
      "EUit": "{{anim id=\"EmotEnd\" target=\"actor\" targetSpec=\"\"}}Cosa stai facendo?",
      "EUnl": "{{anim id=\"EmotEnd\" target=\"actor\" targetSpec=\"\"}}Wat maak je klaar?",
      "EUru": "{{anim id=\"EmotEnd\" target=\"actor\" targetSpec=\"\"}}Что готовишь?",
      "JPja": "{{anim id=\"EmotEnd\" target=\"actor\" targetSpec=\"\"}}{{ruby charSpan=\"1\" value=\"なに\"}}何してるの？",
      "KRko": "{{anim id=\"EmotEnd\" target=\"actor\" targetSpec=\"\"}}뭐 하는 거야?",
      "TWzh": "{{anim id=\"EmotEnd\" target=\"actor\" targetSpec=\"\"}}你在做什麼呢？",
      "USen": "{{anim id=\"EmotEnd\" target=\"actor\" targetSpec=\"\"}}What are you doing?",
      "USes": "{{anim id=\"EmotEnd\" target=\"actor\" targetSpec=\"\"}}¿Qué haces?",
      "USfr": "{{anim id=\"EmotEnd\" target=\"actor\" targetSpec=\"\"}}Qu'est-ce que tu fais?"
    }
  },
  {
    "label": "103_b",
    "attribute": "0x0000000000000000",
    "locale": {
      "CNzh": "{{anim id=\"EmotEnd\" target=\"actor\" targetSpec=\"\"}}这样啊",
      "EUde": "{{anim id=\"EmotEnd\" target=\"actor\" targetSpec=\"\"}}Kein Problem.",
      "EUen": "{{anim id=\"EmotEnd\" target=\"actor\" targetSpec=\"\"}}I understand.",
      "EUes": "No, es igual",
      "EUfr": "{{anim id=\"EmotEnd\" target=\"actor\" targetSpec=\"\"}}Ce n'est rien.",
      "EUit": "{{anim id=\"EmotEnd\" target=\"actor\" targetSpec=\"\"}}Ti capisco.",
      "EUnl": "{{anim id=\"EmotEnd\" target=\"actor\" targetSpec=\"\"}}Ik zal je niet afleiden.",
      "EUru": "{{anim id=\"EmotEnd\" target=\"actor\" targetSpec=\"\"}}Понимаю.",
      "JPja": "{{anim id=\"EmotEnd\" target=\"actor\" targetSpec=\"\"}}そうなんだ",
      "KRko": "{{anim id=\"EmotEnd\" target=\"actor\" targetSpec=\"\"}}그렇구나",
      "TWzh": "{{anim id=\"EmotEnd\" target=\"actor\" targetSpec=\"\"}}這樣啊",
      "USen": "{{anim id=\"EmotEnd\" target=\"actor\" targetSpec=\"\"}}I understand.",
      "USes": "No, todo bien",
      "USfr": "{{anim id=\"EmotEnd\" target=\"actor\" targetSpec=\"\"}}Ce n'est rien."
    }
  },
  {
    "label": "104",
    "attribute": "0x0000000000000000",
    "locale": {
      "CNzh": "{{anim id=\"Explain\" target=\"actor\" targetSpec=\"\"}}其实，{{delay8}}我在想，\n大家在家下厨，{{delay20}}\n是不是也能重现餐厅的味道呢！{{pageBreak}}{{anim id=\"EmotEnd\" target=\"actor\" targetSpec=\"\"}}为了让大家在家也能简单地做出餐厅的味道，{{delay20}}\n{{anim id=\"SmugFace\" target=\"actor\" targetSpec=\"\"}}我正在研究制作的材料和顺序～",
      "EUde": "{{anim id=\"Explain\" target=\"actor\" targetSpec=\"\"}}Ich denke darüber nach, {{delay8}}wie unsere\nGäste unsere Gerichte zu Hause\nnachkochen können.\n{{anim id=\"EmotEnd\" target=\"actor\" targetSpec=\"\"}}Dabei möchte ich es ihnen besonders\nleicht machen, {{delay8}}also {{anim id=\"SmugFace\" target=\"actor\" targetSpec=\"\"}}denke ich gut\nüber Zutaten und Zubereitung nach.",
      "EUen": "{{anim id=\"Explain\" target=\"actor\" targetSpec=\"\"}}I'm thinking of ways that customers\ncan replicate our restaurant's flavors\nin the comfort of their own homes.\n{{anim id=\"EmotEnd\" target=\"actor\" targetSpec=\"\"}}I want to make it easy for folks, {{delay20}}so{{anim id=\"SmugFace\" target=\"actor\" targetSpec=\"\"}} I\nput a lot of thought into the\ningredients and instructions.",
      "EUes": "{{anim id=\"Explain\" target=\"actor\" targetSpec=\"\"}}Estoy preparando unas recetas que\nnuestros clientes puedan replicar\ncómodamente en sus casas.\n{{anim id=\"Nodding\" target=\"actor\" targetSpec=\"\"}}Quiero que las instrucciones sean\nclaras y los ingredientes fáciles\nde encontrar.",
      "EUfr": "{{anim id=\"Explain\" target=\"actor\" targetSpec=\"\"}}J'essaie de mettre au point les\nrecettes de la carte du restaurant{{string value=\"...\"}}{{pageBreak}}Pour que les gens puissent les\nreproduire chez eux.{{pageBreak}}{{anim id=\"EmotEnd\" target=\"actor\" targetSpec=\"\"}}Je veux rendre la cuisine accessible,\n{{delay8}}et pour ça{{anim id=\"SmugFace\" target=\"actor\" targetSpec=\"\"}} je ne dois rien omettre\ndans les instructions.",
      "EUit": "{{anim id=\"Explain\" target=\"actor\" targetSpec=\"\"}}Stavo pensando a come permettere\nai clienti di replicare queste ricette\nnei loro pied-à-terre.{{pageBreak}}{{anim id=\"EmotEnd\" target=\"actor\" targetSpec=\"\"}}Vorrei rendere tutto più semplice,\n{{delay20}}{{anim id=\"SmugFace\" target=\"actor\" targetSpec=\"\"}}a partire dai passi da seguire fino\nagli ingredienti.",
      "EUnl": "{{anim id=\"Explain\" target=\"actor\" targetSpec=\"\"}}Ik ben aan het bedenken hoe we\nonze klanten ook thuis heerlijk\nkunnen laten eten.\n{{anim id=\"EmotEnd\" target=\"actor\" targetSpec=\"\"}}Het mag niet te moeilijk zijn, {{delay20}}dus{{anim id=\"SmugFace\" target=\"actor\" targetSpec=\"\"}} ik\nprobeer de ingrediënten en het\nrecept zo simpel mogelijk te houden.",
      "EUru": "{{anim id=\"Explain\" target=\"actor\" targetSpec=\"\"}}Я думаю, как сделать так, чтобы\nгости могли воссоздавать наши\nблюда у себя дома.{{pageBreak}}{{anim id=\"EmotEnd\" target=\"actor\" targetSpec=\"\"}}Я хочу, чтобы это было легко\nи просто, {{delay20}}вот{{anim id=\"SmugFace\" target=\"actor\" targetSpec=\"\"}} и размышляю над\nингредиентами и рецептами.",
      "JPja": "{{anim id=\"Explain\" target=\"actor\" targetSpec=\"\"}}{{ruby charSpan=\"1\" value=\"じつ\"}}実は、{{delay8}}レストランの{{ruby charSpan=\"1\" value=\"あじ\"}}味を\nみなさんのお{{ruby charSpan=\"1\" value=\"うち\"}}家でも　{{ruby charSpan=\"2\" value=\"さいげん\"}}再現できないかなって{{delay20}}\n{{ruby charSpan=\"1\" value=\"かんが\"}}考えたんです！{{pageBreak}}{{anim id=\"EmotEnd\" target=\"actor\" targetSpec=\"\"}}カンタンに{{ruby charSpan=\"1\" value=\"つく\"}}作れるように、{{delay20}}{{anim id=\"SmugFace\" target=\"actor\" targetSpec=\"\"}}{{ruby charSpan=\"2\" value=\"ざいりょう\"}}材料とか{{ruby charSpan=\"2\" value=\"てじゅん\"}}手順も\n{{ruby charSpan=\"2\" value=\"くふう\"}}工夫してみたんですよ～",
      "KRko": "{{anim id=\"Explain\" target=\"actor\" targetSpec=\"\"}}실은 {{delay8}}레스토랑의 맛을\n집에서 재현할 수 없을지{{delay20}}\n생각해봤어요!{{pageBreak}}{{anim id=\"EmotEnd\" target=\"actor\" targetSpec=\"\"}}간단하게 만들 수 있도록{{delay20}} {{anim id=\"SmugFace\" target=\"actor\" targetSpec=\"\"}}재료나 순서도\n고민해서 조절했답니다～",
      "TWzh": "{{anim id=\"Explain\" target=\"actor\" targetSpec=\"\"}}其實我正在思考，{{delay8}}有沒有辦法讓大家{{delay20}}\n在家裡重現餐廳的滋味！{{pageBreak}}{{anim id=\"EmotEnd\" target=\"actor\" targetSpec=\"\"}}為了讓料理方便製作，{{delay20}}\n{{anim id=\"SmugFace\" target=\"actor\" targetSpec=\"\"}}我打算在材料和料理步驟上下點工夫喔～",
      "USen": "{{anim id=\"Explain\" target=\"actor\" targetSpec=\"\"}}I'm thinking of ways that customers\ncan replicate our restaurant's flavors\nin the comfort of their own homes.\n{{anim id=\"EmotEnd\" target=\"actor\" targetSpec=\"\"}}I want to make it easy for folks, {{delay20}}so{{anim id=\"SmugFace\" target=\"actor\" targetSpec=\"\"}} I\nput a lot of thought into the\ningredients and instructions.",
      "USes": "{{anim id=\"Explain\" target=\"actor\" targetSpec=\"\"}}Estoy preparando unas recetas\nsencillas de replicar para que los\nclientes puedan hacerlas en casa.\n{{anim id=\"Nodding\" target=\"actor\" targetSpec=\"\"}}Quiero que las instrucciones sean\nclaras y los ingredientes fáciles\nde encontrar.",
      "USfr": "{{anim id=\"Explain\" target=\"actor\" targetSpec=\"\"}}J'essaie de mettre au point les\nrecettes du menu du restaurant{{string value=\"...\"}}{{pageBreak}}Pour que les gens puissent les\nreproduire chez eux.{{pageBreak}}{{anim id=\"EmotEnd\" target=\"actor\" targetSpec=\"\"}}Je veux rendre la cuisine accessible,\n{{delay8}}et pour ça{{anim id=\"SmugFace\" target=\"actor\" targetSpec=\"\"}} je ne dois rien omettre\ndans les instructions."
    }
  },
  {
    "label": "105",
    "attribute": "0x0000020000000000",
    "locale": {
      "CNzh": "{{anim id=\"Smiling\" target=\"actor\" targetSpec=\"\"}}你想知道{{delay20}}\n在家也能做的\n{{fun_0000007D arg=\"0x0000\"}}的手册吗？",
      "EUde": "{{anim id=\"Smiling\" target=\"actor\" targetSpec=\"\"}}Möchtest du wissen, {{delay8}}wie du {{i50_27 x=\"0\" y=\"0\" a=\"diesen\" b=\"diese\" c=\"dieses\"}} {{fun_00170032 arg=\"0x01CD\"}}{{fun_0000007D arg=\"0x0000\"}} zu Hause zubereiten kannst?",
      "EUen": "{{anim id=\"Smiling\" target=\"actor\" targetSpec=\"\"}}Do you want to learn how to make\n{{wordArticle}}{{fun_0000007D arg=\"0x0000\"}}?",
      "EUes": "{{anim id=\"FaintSmile\" target=\"actor\" targetSpec=\"\"}}¿Te gustaría aprender a preparar\n{{wordArticle}}{{fun_0000007D arg=\"0x0000\"}}?",
      "EUfr": "{{anim id=\"Smiling\" target=\"actor\" targetSpec=\"\"}}Veux-tu apprendre à faire {{wordArticle}}{{fun_0000007D arg=\"0x0000\"}} chez toi ?",
      "EUit": "{{anim id=\"Smiling\" target=\"actor\" targetSpec=\"\"}}Non vorresti imparare a preparare {{wordArticle}}{{fun_0000007D arg=\"0x0000\"}} chez toi?",
      "EUnl": "{{anim id=\"Smiling\" target=\"actor\" targetSpec=\"\"}}Zou je willen weten hoe je zelf {{wordArticle}}{{fun_0000007D arg=\"0x0000\"}} kunt maken?",
      "EUru": "{{anim id=\"Smiling\" target=\"actor\" targetSpec=\"\"}}Хочешь научиться готовить {{fun_00170032 arg=\"0x01CD\"}}{{fun_0000007D arg=\"0x0000\"}}?",
      "JPja": "{{anim id=\"Smiling\" target=\"actor\" targetSpec=\"\"}}ご{{ruby charSpan=\"2\" value=\"かてい\"}}家庭でも{{ruby charSpan=\"1\" value=\"つく\"}}作れる\n{{fun_0000007D arg=\"0x0000\"}}の\nレシピなんですけど、{{delay20}}{{ruby charSpan=\"1\" value=\"し\"}}知りたいですか？",
      "KRko": "{{anim id=\"Smiling\" target=\"actor\" targetSpec=\"\"}}가정에서도 만들 수 있는\n{{fun_0000007D arg=\"0x0000\"}}의\n레시피인데, {{delay20}}알고 싶으신가요?",
      "TWzh": "{{anim id=\"Smiling\" target=\"actor\" targetSpec=\"\"}}這個方程式可以讓人在家也做得出\n{{fun_0000007D arg=\"0x0000\"}}，{{delay20}}\n你想知道內容嗎？",
      "USen": "{{anim id=\"Smiling\" target=\"actor\" targetSpec=\"\"}}Do you want to learn how to make\n{{wordArticle}}{{fun_0000007D arg=\"0x0000\"}}?",
      "USes": "{{anim id=\"FaintSmile\" target=\"actor\" targetSpec=\"\"}}¿Te gustaría aprender a preparar\n{{wordArticle}}{{fun_0000007D arg=\"0x0000\"}}?",
      "USfr": "{{anim id=\"Smiling\" target=\"actor\" targetSpec=\"\"}}Veux-tu apprendre à faire {{wordArticle}}{{fun_0000007D arg=\"0x0000\"}} chez toi?"
    }
  },
  {
    "label": "105_a",
    "attribute": "0x0000000000000000",
    "locale": {
      "CNzh": "想知道！",
      "EUde": "Ja, gern!",
      "EUen": "I would!",
      "EUes": "¡Claro!",
      "EUfr": "Bien sûr !",
      "EUit": "Certo che sì!",
      "EUnl": "Ja, graag!",
      "EUru": "Конечно, хочу!",
      "JPja": "{{ruby charSpan=\"1\" value=\"し\"}}知りたい！",
      "KRko": "알고 싶어!",
      "TWzh": "我想知道！",
      "USen": "I would!",
      "USes": "¡Claro!",
      "USfr": "Bien sûr!"
    }
  },
  {
    "label": "105_b",
    "attribute": "0x0000000000000000",
    "locale": {
      "CNzh": "不用了",
      "EUde": "Nein, danke.",
      "EUen": "No, thank you.",
      "EUes": "No, la verdad",
      "EUfr": "Non, mais merci.",
      "EUit": "No, non mi interessa.",
      "EUnl": "Nee, dank je.",
      "EUru": "Нет, спасибо.",
      "JPja": "{{ruby charSpan=\"2\" value=\"けっこう\"}}結構です",
      "KRko": "아니, 됐어",
      "TWzh": "不用了",
      "USen": "No, thank you.",
      "USes": "No, gracias",
      "USfr": "Non, mais merci."
    }
  },
  {
    "label": "106",
    "attribute": "0x0000000000000000",
    "locale": {
      "CNzh": "{{anim id=\"Assent\" target=\"actor\" targetSpec=\"\"}}那就交给我吧！{{delay frames=\"60\"}}\n{{anim id=\"Explain\" target=\"actor\" targetSpec=\"\"}}只要按手册来做，{{delay20}}\n就算在家里也能尝到店里的味道！{{anim id=\"FaintSmile\" target=\"actor\" targetSpec=\"\"}}",
      "EUde": "{{anim id=\"Assent\" target=\"actor\" targetSpec=\"\"}}Dann bist du hier genau richtig!{{pageBreak}}{{anim id=\"Explain\" target=\"actor\" targetSpec=\"\"}}Wenn du diesem Rezept folgst,{{delay8}}\nschmeckt es genauso gut wie\nhier im Restaurant.",
      "EUen": "{{anim id=\"Assent\" target=\"actor\" targetSpec=\"\"}}Then you've come to the right\n{{string value=\"VillagerRace\"}}!{{pageBreak}}{{anim id=\"Explain\" target=\"actor\" targetSpec=\"\"}}You'll be able to enjoy the taste of\nour restaurant at home as long as\nyou follow this recipe.",
      "EUes": "{{anim id=\"Assent\" target=\"actor\" targetSpec=\"\"}}¡Pues estás hablando con\n{{gender8 m=\"el\" f=\"la\" n=\"\"}} {{string value=\"VillagerRace\"}} adecuad{{gender8 m=\"o\" f=\"a\" n=\"\"}}!{{pageBreak}}{{anim id=\"FaintSmile\" target=\"actor\" targetSpec=\"\"}}Sigue la receta y podrás disfrutar\nde los sabores de nuestro\nrestaurante en tu hogarcito.",
      "EUfr": "{{anim id=\"Assent\" target=\"actor\" targetSpec=\"\"}}Dans ce cas, je suis celle qu'il te\nfaut !{{pageBreak}}{{anim id=\"Explain\" target=\"actor\" targetSpec=\"\"}}Suis à la lettre cette recette et\ntu retrouveras le goût original de\nnotre restaurant.",
      "EUit": "{{anim id=\"Assent\" target=\"actor\" targetSpec=\"\"}}Allora sono {{fun_00010032 arg=\"\"}}{{string value=\"VillagerRace\"}} che fa al caso tuo!{{pageBreak}}{{anim id=\"Explain\" target=\"actor\" targetSpec=\"\"}}Se seguirai questa ricetta alla\nlettera, {{delay8}}potrai goderti gli stessi\nsapori del ristorante!",
      "EUnl": "{{anim id=\"Assent\" target=\"actor\" targetSpec=\"\"}}Dan ben je bij {{fun_00130032 arg=\"0x050000CD0800640065007A00650006006400690074000000\"}} {{string value=\"VillagerRace\"}} aan het juiste adres!{{pageBreak}}{{anim id=\"Explain\" target=\"actor\" targetSpec=\"\"}}Je zult nog lang kunnen genieten van\nzelfgemaakte restaurantwaardige\nmaaltijden dankzij dit recept.",
      "EUru": "{{anim id=\"Assent\" target=\"actor\" targetSpec=\"\"}}Тогда ты приш{{gender2 m=\"ел\" f=\"ла\"}} к само{{gender7 m=\"му\" f=\"й\" n=\"\" pl=\"\"}} подходяще{{gender7 m=\"му\" f=\"й\" n=\"\" pl=\"\"}} для этого {{fun_00170032 arg=\"0x02CD\"}}{{string value=\"VillagerRace\"}}!{{pageBreak}}{{anim id=\"Explain\" target=\"actor\" targetSpec=\"\"}}У тебя получится настоящий\nресторанный вкус, если сделаешь\nвсе по рецепту.",
      "JPja": "{{anim id=\"Assent\" target=\"actor\" targetSpec=\"\"}}おまかせください！{{delay frames=\"60\"}}\n{{anim id=\"Explain\" target=\"actor\" targetSpec=\"\"}}レシピの{{ruby charSpan=\"1\" value=\"とお\"}}通りに{{ruby charSpan=\"1\" value=\"つく\"}}作れば　{{delay20}}お{{ruby charSpan=\"1\" value=\"みせ\"}}店の{{ruby charSpan=\"1\" value=\"あじ\"}}味を\nお{{ruby charSpan=\"1\" value=\"うち\"}}家でも{{ruby charSpan=\"1\" value=\"たの\"}}楽しめますよ！{{anim id=\"FaintSmile\" target=\"actor\" targetSpec=\"\"}}",
      "KRko": "{{anim id=\"Assent\" target=\"actor\" targetSpec=\"\"}}맡겨주세요!{{delay frames=\"60\"}}\n{{anim id=\"Explain\" target=\"actor\" targetSpec=\"\"}}레시피대로 만들면 {{delay20}}가게의 맛을\n집에서도 즐기실 수 있을 거예요!{{anim id=\"FaintSmile\" target=\"actor\" targetSpec=\"\"}}",
      "TWzh": "{{anim id=\"Assent\" target=\"actor\" targetSpec=\"\"}}交給我吧！{{delay frames=\"60\"}}\n{{anim id=\"Explain\" target=\"actor\" targetSpec=\"\"}}只要照著方程式上的步驟做，{{delay20}}\n就能在家品嚐到餐廳的滋味了！{{anim id=\"FaintSmile\" target=\"actor\" targetSpec=\"\"}}",
      "USen": "{{anim id=\"Assent\" target=\"actor\" targetSpec=\"\"}}Then you've come to the right\n{{string value=\"VillagerRace\"}}!{{pageBreak}}{{anim id=\"Explain\" target=\"actor\" targetSpec=\"\"}}You'll be able to enjoy the taste of\nour restaurant at home as long as\nyou follow this recipe.",
      "USes": "{{anim id=\"Assent\" target=\"actor\" targetSpec=\"\"}}¡Pues ya está!{{pageBreak}}{{anim id=\"FaintSmile\" target=\"actor\" targetSpec=\"\"}}Sigue la receta y podrás disfrutar\nde los sabores de nuestro\nrestaurante en tu hogar.",
      "USfr": "{{anim id=\"Assent\" target=\"actor\" targetSpec=\"\"}}Dans ce cas, je suis celle qu'il te\nfaut!{{pageBreak}}{{anim id=\"Explain\" target=\"actor\" targetSpec=\"\"}}Suis à la lettre cette recette et\ntu retrouveras le goût original de\nnotre restaurant."
    }
  },
  {
    "label": "107",
    "attribute": "0x0000000000000000",
    "locale": {
      "CNzh": "{{anim id=\"Smiling\" target=\"actor\" targetSpec=\"\"}}{{fun_00060096 arg=\"\"}}{{delay20}}\n也请一定要试一下！{{string value=\"6\"}}。",
      "EUde": "{{anim id=\"Smiling\" target=\"actor\" targetSpec=\"\"}}Viel Spaß damit, {{delay8}}{{fun_00060096 arg=\"\"}}, {{delay8}}{{string value=\"Catchphrase\"}}!",
      "EUen": "{{anim id=\"Smiling\" target=\"actor\" targetSpec=\"\"}}I hope you have fun with it,\n{{fun_00060096 arg=\"\"}}, {{string value=\"6\"}}!",
      "EUes": "{{anim id=\"Hello\" target=\"actor\" targetSpec=\"\"}}¡Que te diviertas cocinando,\n{{string value=\"6\"}}!",
      "EUfr": "{{anim id=\"Smiling\" target=\"actor\" targetSpec=\"\"}}J'espère que tu t'amuseras, {{fun_00060096 arg=\"\"}}, {{string value=\"6\"}} !",
      "EUit": "{{anim id=\"Smiling\" target=\"actor\" targetSpec=\"\"}}J'espère che ti divertirai con questa\nricetta, {{fun_00060096 arg=\"\"}}!",
      "EUnl": "{{anim id=\"Smiling\" target=\"actor\" targetSpec=\"\"}}{{capitalizeNextLetter}}{{fun_00060096 arg=\"\"}}, ik hoop dat je ervan zult smullen, {{string value=\"6\"}}!",
      "EUru": "{{anim id=\"Smiling\" target=\"actor\" targetSpec=\"\"}}Надеюсь, тебе понравится готовить\nпо этому рецепту, {{fun_00060096 arg=\"\"}}! {{capitalizeNextLetter}}{{string value=\"6\"}}.",
      "JPja": "{{anim id=\"Smiling\" target=\"actor\" targetSpec=\"\"}}{{fun_00060096 arg=\"\"}}も{{delay20}}\nぜひ　{{ruby charSpan=\"1\" value=\"つく\"}}作ってみてくださいね！　{{string value=\"6\"}}",
      "KRko": "{{anim id=\"Smiling\" target=\"actor\" targetSpec=\"\"}}{{fun_00060096 arg=\"\"}}님도{{delay20}}\n꼭 한번 만들어보세요! {{string value=\"6\"}}!",
      "TWzh": "{{anim id=\"Smiling\" target=\"actor\" targetSpec=\"\"}}{{fun_00060096 arg=\"\"}}，{{delay20}}\n請你也務必要試著做做看喔！{{string value=\"6\"}}。",
      "USen": "{{anim id=\"Smiling\" target=\"actor\" targetSpec=\"\"}}I hope you have fun with it,\n{{fun_00060096 arg=\"\"}}, {{string value=\"6\"}}!",
      "USes": "{{anim id=\"Hello\" target=\"actor\" targetSpec=\"\"}}¡Que te diviertas cocinando,\n{{string value=\"Catchphrase\"}}!",
      "USfr": "{{anim id=\"Smiling\" target=\"actor\" targetSpec=\"\"}}J'espère que tu t'amuseras, {{fun_00060096 arg=\"\"}}, {{string value=\"6\"}}!"
    }
  },
  {
    "label": "108",
    "attribute": "0x0000000000000000",
    "locale": {
      "CNzh": "{{anim id=\"Blushing\" target=\"actor\" targetSpec=\"\"}}料理不仅做起来有意思，{{delay20}}\n研究它的制作方法也很有趣呢～{{delay frames=\"40\"}}\n{{anim id=\"Laughing\" target=\"actor\" targetSpec=\"\"}}当然，吃起来也很让人快乐！",
      "EUde": "{{anim id=\"Blushing\" target=\"actor\" targetSpec=\"\"}}Kochen macht mir Spaß, {{delay8}}weil es nicht\nnur um das Was geht, {{delay8}}sondern auch\ndas Wie.\n{{anim id=\"Laughing\" target=\"actor\" targetSpec=\"\"}}Und dann kann man das Ergebnis\nnatürlich auch noch essen!",
      "EUen": "{{anim id=\"Blushing\" target=\"actor\" targetSpec=\"\"}}I like cooking because it's not just\nabout what you make but how you\nmake it. {{delay20}}{{anim id=\"Laughing\" target=\"actor\" targetSpec=\"\"}}Eating is pretty good too!",
      "EUes": "{{anim id=\"FaintSmile\" target=\"actor\" targetSpec=\"\"}}A la hora de cocinar,{{delay8}} lo importante\nno es qué preparas sino cómo\nlo preparas.\n{{anim id=\"Love\" target=\"actor\" targetSpec=\"\"}}Todo queda más rico si se cocina\ncon amor, {{string value=\"6\"}}.",
      "EUfr": "{{anim id=\"Blushing\" target=\"actor\" targetSpec=\"\"}}Ce que j'aime avec la cuisine,{{delay8}}\nc'est la transmettre. {{delay20}}{{anim id=\"Laughing\" target=\"actor\" targetSpec=\"\"}}Et la déguster\naussi,{{delay8}} bien sûr !",
      "EUit": "{{anim id=\"Blushing\" target=\"actor\" targetSpec=\"\"}}Adoro la cucina. Non è importante\nquello che prepari, ma come.{{delay20}} {{anim id=\"Laughing\" target=\"actor\" targetSpec=\"\"}}E sono\nanche una buona forchetta!",
      "EUnl": "{{anim id=\"Blushing\" target=\"actor\" targetSpec=\"\"}}Koken is zo leuk, want het draait om\nhóé je iets klaarmaakt! {{delay20}}{{anim id=\"Laughing\" target=\"actor\" targetSpec=\"\"}}En vervolgens\nmag je het nog opeten ook!",
      "EUru": "{{anim id=\"Blushing\" target=\"actor\" targetSpec=\"\"}}Я люблю готовить, потому что тут\nважно не только, что ты делаешь,\nно и как. {{delay20}}{{anim id=\"Laughing\" target=\"actor\" targetSpec=\"\"}}Да и поесть я люблю!",
      "JPja": "{{anim id=\"Blushing\" target=\"actor\" targetSpec=\"\"}}お{{ruby charSpan=\"2\" value=\"りょうり\"}}料理って、{{ruby charSpan=\"1\" value=\"つく\"}}作るだけじゃなくって{{delay20}}\n{{ruby charSpan=\"1\" value=\"つく\"}}作り{{ruby charSpan=\"1\" value=\"かた\"}}方を{{ruby charSpan=\"1\" value=\"かんが\"}}考えるのも　{{ruby charSpan=\"1\" value=\"たの\"}}楽しいんですよ～{{delay frames=\"40\"}}\n{{anim id=\"Laughing\" target=\"actor\" targetSpec=\"\"}}もちろん　{{ruby charSpan=\"1\" value=\"た\"}}食べるのも　いいですよね！",
      "KRko": "{{anim id=\"Blushing\" target=\"actor\" targetSpec=\"\"}}요리는 만드는 것뿐만 아니라{{delay20}}\n만드는 법을 생각하는 것도 즐거워요～{{delay frames=\"40\"}}\n{{anim id=\"Laughing\" target=\"actor\" targetSpec=\"\"}}물론 먹는 것도 좋지만요!",
      "TWzh": "{{anim id=\"Blushing\" target=\"actor\" targetSpec=\"\"}}所謂的料理，除了烹調過程之外，{{delay20}}\n就連思考烹調方法都很有趣喔～{{delay frames=\"40\"}}\n{{anim id=\"Laughing\" target=\"actor\" targetSpec=\"\"}}當然品嚐料理的時候也很棒啦！",
      "USen": "{{anim id=\"Blushing\" target=\"actor\" targetSpec=\"\"}}I like cooking because it's not just\nabout what you make but how you\nmake it. {{delay20}}{{anim id=\"Laughing\" target=\"actor\" targetSpec=\"\"}}Eating is pretty good too!",
      "USes": "{{anim id=\"FaintSmile\" target=\"actor\" targetSpec=\"\"}}A la hora de cocinar,{{delay8}} lo importante\nno es qué preparas, sino cómo\nlo preparas.\n{{anim id=\"Love\" target=\"actor\" targetSpec=\"\"}}Todo queda más rico si se cocina\ncon amor, {{string value=\"Catchphrase\"}}.{{delay20}} Y no importa\nsi no queda todo perfecto.",
      "USfr": "{{anim id=\"Blushing\" target=\"actor\" targetSpec=\"\"}}Ce que j'aime avec la cuisine,{{delay8}}\nc'est la transmettre. {{delay20}}{{anim id=\"Laughing\" target=\"actor\" targetSpec=\"\"}}Et la déguster\naussi,{{delay8}} bien sûr!"
    }
  },
  {
    "label": "109",
    "attribute": "0x0000000000000000",
    "locale": {
      "CNzh": "{{anim id=\"SadSpiral\" target=\"actor\" targetSpec=\"\"}}这样啊{{string value=\"...\"}}{{delay frames=\"50\"}}\n{{anim id=\"Eh\" target=\"actor\" targetSpec=\"\"}}啊，{{delay20}}那等你什么时候想做做看了，{{delay20}}\n{{anim id=\"Smiling\" target=\"actor\" targetSpec=\"\"}}请一定要告诉我哦！{{string value=\"6\"}}。",
      "EUde": "{{anim id=\"SadSpiral\" target=\"actor\" targetSpec=\"\"}}Oh, {{delay8}}kein Problem... {{delay20}}{{anim id=\"Smiling\" target=\"actor\" targetSpec=\"\"}}Aber lass es\nmich wissen, {{delay8}}wenn du es dir anders\nüberlegst, {{delay8}}{{string value=\"Catchphrase\"}}!",
      "EUen": "{{anim id=\"SadSpiral\" target=\"actor\" targetSpec=\"\"}}Oh, alright{{string value=\"...\"}}{{delay frames=\"50\"}} {{anim id=\"Smiling\" target=\"actor\" targetSpec=\"\"}}But let me know if you\nchange your mind, {{string value=\"6\"}}!",
      "EUes": "{{anim id=\"WrySmile\" target=\"actor\" targetSpec=\"\"}}Vaya, qué tajante{{string value=\"...\"}}{{delay20}}{{anim id=\"FaintSmile\" target=\"actor\" targetSpec=\"\"}} Ven a verme\nsi cambias de opinión.",
      "EUfr": "{{anim id=\"SadSpiral\" target=\"actor\" targetSpec=\"\"}}Oh, d'accord{{string value=\"...\"}}{{delay frames=\"50\"}} {{anim id=\"Smiling\" target=\"actor\" targetSpec=\"\"}}Si jamais tu changes\nd'avis, tu sais où me trouver, {{string value=\"6\"}} !",
      "EUit": "{{anim id=\"SadSpiral\" target=\"actor\" targetSpec=\"\"}}Oh, d'accord{{string value=\"...\"}} {{delay8}}{{anim id=\"Smiling\" target=\"actor\" targetSpec=\"\"}}Fammi sapere se\ncambi idea, {{string value=\"6\"}}!",
      "EUnl": "{{anim id=\"SadSpiral\" target=\"actor\" targetSpec=\"\"}}O, nou, oké{{string value=\"...\"}}{{delay frames=\"50\"}} {{anim id=\"Smiling\" target=\"actor\" targetSpec=\"\"}}Laat het me weten als\nje je bedenkt, {{string value=\"6\"}}!",
      "EUru": "{{anim id=\"SadSpiral\" target=\"actor\" targetSpec=\"\"}}А, ну ладно{{string value=\"...\"}}{{delay frames=\"50\"}} {{anim id=\"Smiling\" target=\"actor\" targetSpec=\"\"}}Если передумаешь,\nдай мне знать! {{capitalizeNextLetter}}{{string value=\"6\"}}.",
      "JPja": "{{anim id=\"SadSpiral\" target=\"actor\" targetSpec=\"\"}}そうですか～{{string value=\"...\"}}{{delay frames=\"50\"}}\n{{anim id=\"Eh\" target=\"actor\" targetSpec=\"\"}}あ、{{delay20}}やっぱり{{ruby charSpan=\"1\" value=\"つく\"}}作りたいって{{ruby charSpan=\"1\" value=\"おも\"}}思ったら{{delay20}}\n{{anim id=\"Smiling\" target=\"actor\" targetSpec=\"\"}}おっしゃってくださいね！　{{string value=\"6\"}}",
      "KRko": "{{anim id=\"SadSpiral\" target=\"actor\" targetSpec=\"\"}}그런가요～{{string value=\"...\"}}{{delay frames=\"50\"}}\n{{anim id=\"Eh\" target=\"actor\" targetSpec=\"\"}}아, {{delay20}}혹시 만들고 싶다는 생각이 들면{{delay20}}\n{{anim id=\"Smiling\" target=\"actor\" targetSpec=\"\"}}말씀해주세요! {{string value=\"6\"}}!",
      "TWzh": "{{anim id=\"SadSpiral\" target=\"actor\" targetSpec=\"\"}}好吧{{string value=\"...\"}}{{delay frames=\"50\"}}\n{{anim id=\"Eh\" target=\"actor\" targetSpec=\"\"}}啊，{{delay20}}如果你之後還是想試試看的話，{{delay20}}\n{{anim id=\"Smiling\" target=\"actor\" targetSpec=\"\"}}就來跟我說一聲吧！{{string value=\"6\"}}。",
      "USen": "{{anim id=\"SadSpiral\" target=\"actor\" targetSpec=\"\"}}Oh, alright{{string value=\"...\"}}{{delay frames=\"50\"}} {{anim id=\"Smiling\" target=\"actor\" targetSpec=\"\"}}But let me know if you\nchange your mind, {{string value=\"6\"}}!",
      "USes": "{{anim id=\"WrySmile\" target=\"actor\" targetSpec=\"\"}}Bueno{{string value=\"...\"}}{{delay20}}{{anim id=\"FaintSmile\" target=\"actor\" targetSpec=\"\"}} Ven a verme si cambias\nde opinión.",
      "USfr": "{{anim id=\"SadSpiral\" target=\"actor\" targetSpec=\"\"}}Oh, d'accord{{string value=\"...\"}}{{delay frames=\"50\"}} {{anim id=\"Smiling\" target=\"actor\" targetSpec=\"\"}}Si jamais tu changes\nd'avis, tu sais où me trouver, {{string value=\"6\"}}!"
    }
  },
  {
    "label": "110",
    "attribute": "0x0000020000000000",
    "locale": {
      "CNzh": "就是{{fun_0000007D arg=\"0x0000\"}}啦。{{delay20}}\n{{string value=\"...\"}}{{anim id=\"Eh\" target=\"actor\" targetSpec=\"\"}}{{fun_00060096 arg=\"\"}}你也知道\n它的制作方法吗？{{string value=\"6\"}}。",
      "EUde": "{{anim id=\"FaintSmile\" target=\"actor\" targetSpec=\"\"}}Bei diesem Rezept {{i50_27 x=\"0\" y=\"0\" a=\"winkt\" b=\"winkt\" c=\"winkt\"}} am Ende {{wordArticle}}{{i50_27 x=\"0\" y=\"0\" a=\"köstlicher\" b=\"köstliche\" c=\"köstliches\"}} {{fun_0000007D arg=\"0x0000\"}}{{string value=\"...\"}}{{pageBreak}}{{string value=\"...\"}}{{anim id=\"Eh\" target=\"actor\" targetSpec=\"\"}}Oh, {{delay8}}dieses Rezept kennst du\nbereits, {{delay8}}{{fun_00060096 arg=\"\"}}?",
      "EUen": "{{anim id=\"FaintSmile\" target=\"actor\" targetSpec=\"\"}}For example, this recipe I have for\n{{wordArticle}}{{fun_0000007D arg=\"0x0000\"}}{{string value=\"...\"}}{{pageBreak}}{{anim id=\"Eh\" target=\"actor\" targetSpec=\"\"}}Oh, are you already familiar with\nthat recipe, {{fun_00060096 arg=\"\"}}?",
      "EUes": "{{anim id=\"FaintSmile\" target=\"actor\" targetSpec=\"\"}}Como esta receta para preparar\n{{wordArticle}}{{fun_0000007D arg=\"0x0000\"}}{{string value=\"...\"}}{{delay20}}\n{{anim id=\"Eh\" target=\"actor\" targetSpec=\"\"}}¿La conoces, {{fun_00060096 arg=\"\"}}?",
      "EUfr": "{{anim id=\"FaintSmile\" target=\"actor\" targetSpec=\"\"}}Tu vois par exemple,{{delay8}} j'ai une recette\npour faire {{wordArticle}}{{fun_0000007D arg=\"0x0000\"}}{{string value=\"...\"}}{{pageBreak}}{{anim id=\"Eh\" target=\"actor\" targetSpec=\"\"}}Oh,{{delay8}} mais tu la connais déjà, {{fun_00060096 arg=\"\"}} ?",
      "EUit": "{{anim id=\"FaintSmile\" target=\"actor\" targetSpec=\"\"}}Per esempio, ho qui una ricetta per\n{{wordArticle}}{{fun_0000007D arg=\"0x0000\"}}{{string value=\"...\"}}{{pageBreak}}{{anim id=\"Eh\" target=\"actor\" targetSpec=\"\"}}Ah, ma forse la conosci già, {{fun_00060096 arg=\"\"}}?",
      "EUnl": "{{anim id=\"FaintSmile\" target=\"actor\" targetSpec=\"\"}}Dit recept voor {{wordArticle}}{{fun_0000007D arg=\"0x0000\"}} bijvoorbeeld{{string value=\"...\"}}{{pageBreak}}{{anim id=\"Eh\" target=\"actor\" targetSpec=\"\"}}O, je bent al bekend met het recept,\n{{fun_00060096 arg=\"\"}}?",
      "EUru": "{{anim id=\"FaintSmile\" target=\"actor\" targetSpec=\"\"}}Вот это, например, — рецепт\n{{fun_00170032 arg=\"0x03CD\"}}{{fun_0000007D arg=\"0x0000\"}}{{string value=\"...\"}}{{pageBreak}}{{anim id=\"Eh\" target=\"actor\" targetSpec=\"\"}}Ой{{string value=\"...\"}} ты уже умеешь это готовить,\n{{fun_00060096 arg=\"\"}}?",
      "JPja": "{{fun_0000007D arg=\"0x0000\"}}ですけど{{delay20}}\n{{string value=\"...\"}}{{anim id=\"Eh\" target=\"actor\" targetSpec=\"\"}}{{fun_00060096 arg=\"\"}}も\n{{ruby charSpan=\"1\" value=\"つく\"}}作り{{ruby charSpan=\"1\" value=\"かた\"}}方を　ご{{ruby charSpan=\"2\" value=\"ぞんじ\"}}存知なんですか？　{{string value=\"6\"}}",
      "KRko": "{{fun_0000007D arg=\"0x0000\"}}인데{{delay20}}\n{{string value=\"...\"}}{{anim id=\"Eh\" target=\"actor\" targetSpec=\"\"}}{{fun_00060096 arg=\"\"}}님도\n만드는 법을 아시나요? {{string value=\"6\"}}?",
      "TWzh": "那道料理是{{fun_0000007D arg=\"0x0000\"}}{{string value=\"...\"}}{{delay20}}\n{{anim id=\"Eh\" target=\"actor\" targetSpec=\"\"}}咦，{{fun_00060096 arg=\"\"}}\n也知道作法嗎？{{string value=\"6\"}}。",
      "USen": "{{anim id=\"FaintSmile\" target=\"actor\" targetSpec=\"\"}}For example, this recipe I have for\n{{wordArticle}}{{fun_0000007D arg=\"0x0000\"}}{{string value=\"...\"}}{{pageBreak}}{{anim id=\"Eh\" target=\"actor\" targetSpec=\"\"}}Oh, are you already familiar with\nthat recipe, {{fun_00060096 arg=\"\"}}?",
      "USes": "{{anim id=\"FaintSmile\" target=\"actor\" targetSpec=\"\"}}Como esta receta para preparar\n{{wordArticle}}{{fun_0000007D arg=\"0x0000\"}}{{string value=\"...\"}}{{delay20}}\n{{anim id=\"Eh\" target=\"actor\" targetSpec=\"\"}}¿La conoces, {{fun_00060096 arg=\"\"}}?",
      "USfr": "{{anim id=\"FaintSmile\" target=\"actor\" targetSpec=\"\"}}Tu vois par exemple,{{delay8}} j'ai une recette\npour faire {{wordArticle}}{{fun_0000007D arg=\"0x0000\"}}{{string value=\"...\"}}{{pageBreak}}{{anim id=\"Eh\" target=\"actor\" targetSpec=\"\"}}Oh,{{delay8}} mais tu la connais déjà, {{fun_00060096 arg=\"\"}}?"
    }
  },
  {
    "label": "110_a",
    "attribute": "0x0000000000000000",
    "locale": {
      "CNzh": "{{anim id=\"Nodding\" target=\"player\" targetSpec=\"\"}}知道哦！",
      "EUde": "{{anim id=\"Nodding\" target=\"player\" targetSpec=\"\"}}Oh ja!",
      "EUen": "{{anim id=\"Nodding\" target=\"player\" targetSpec=\"\"}}I am!",
      "EUes": "{{anim id=\"Nodding\" target=\"player\" targetSpec=\"\"}}¡Pues claro!",
      "EUfr": "{{anim id=\"Nodding\" target=\"player\" targetSpec=\"\"}}Oui !",
      "EUit": "{{anim id=\"Nodding\" target=\"player\" targetSpec=\"\"}}Proprio così!",
      "EUnl": "{{anim id=\"Nodding\" target=\"player\" targetSpec=\"\"}}Ja!",
      "EUru": "{{anim id=\"Nodding\" target=\"player\" targetSpec=\"\"}}Да, умею!",
      "JPja": "{{anim id=\"Nodding\" target=\"player\" targetSpec=\"\"}}{{ruby charSpan=\"1\" value=\"し\"}}知ってるよ！",
      "KRko": "{{anim id=\"Nodding\" target=\"player\" targetSpec=\"\"}}알고 있어!",
      "TWzh": "{{anim id=\"Nodding\" target=\"player\" targetSpec=\"\"}}我知道喔！",
      "USen": "{{anim id=\"Nodding\" target=\"player\" targetSpec=\"\"}}I am!",
      "USes": "{{anim id=\"Nodding\" target=\"player\" targetSpec=\"\"}}¡Pues claro!",
      "USfr": "{{anim id=\"Nodding\" target=\"player\" targetSpec=\"\"}}Oui!"
    }
  },
  {
    "label": "110_b",
    "attribute": "0x0000000000000000",
    "locale": {
      "CNzh": "{{anim id=\"Nodding\" target=\"player\" targetSpec=\"\"}}算是吧！",
      "EUde": "{{anim id=\"Nodding\" target=\"player\" targetSpec=\"\"}}Das stimmt!",
      "EUen": "{{anim id=\"Nodding\" target=\"player\" targetSpec=\"\"}}Well, you know me!",
      "EUes": "{{anim id=\"Nodding\" target=\"player\" targetSpec=\"\"}}Por supuesto",
      "EUfr": "{{anim id=\"Nodding\" target=\"player\" targetSpec=\"\"}}Eh oui, je suis comme ça !",
      "EUit": "{{anim id=\"Nodding\" target=\"player\" targetSpec=\"\"}}Mi conosci bene!",
      "EUnl": "{{anim id=\"Nodding\" target=\"player\" targetSpec=\"\"}}Tja, eigenlijk wel.",
      "EUru": "{{anim id=\"Nodding\" target=\"player\" targetSpec=\"\"}}Ты меня отлично знаешь!",
      "JPja": "{{anim id=\"Nodding\" target=\"player\" targetSpec=\"\"}}まあね！",
      "KRko": "{{anim id=\"Nodding\" target=\"player\" targetSpec=\"\"}}그럼!",
      "TWzh": "{{anim id=\"Nodding\" target=\"player\" targetSpec=\"\"}}沒錯！",
      "USen": "{{anim id=\"Nodding\" target=\"player\" targetSpec=\"\"}}Well, you know me!",
      "USes": "{{anim id=\"Nodding\" target=\"player\" targetSpec=\"\"}}Por supuesto",
      "USfr": "{{anim id=\"Nodding\" target=\"player\" targetSpec=\"\"}}Eh oui, je suis comme ça!"
    }
  },
  {
    "label": "111",
    "attribute": "0x0000000000000000",
    "locale": {
      "CNzh": "{{anim id=\"HappyDance\" target=\"actor\" targetSpec=\"\"}}真不愧是{{fun_00060096 arg=\"\"}}！{{delay frames=\"50\"}}\n{{anim id=\"Blushing\" target=\"actor\" targetSpec=\"\"}}我们对料理的喜好{{delay20}}\n可能很相似呢。",
      "EUde": "{{anim id=\"HappyDance\" target=\"actor\" targetSpec=\"\"}}Das hätte ich wissen sollen! {{delay20}}{{anim id=\"Blushing\" target=\"actor\" targetSpec=\"\"}}Wenn\nes ums Kochen geht, {{delay8}}haben wir den\ngleichen Geschmack.",
      "EUen": "{{anim id=\"HappyDance\" target=\"actor\" targetSpec=\"\"}}I didn't even need to ask!{{delay frames=\"50\"}}{{anim id=\"Blushing\" target=\"actor\" targetSpec=\"\"}} I have a\nfeeling we have similar tastes when\nit comes to cooking.",
      "EUes": "{{anim id=\"Laughing\" target=\"actor\" targetSpec=\"\"}}No sé ni por qué te pregunto.{{delay8}}\n{{anim id=\"HappyFlower\" target=\"actor\" targetSpec=\"\"}}Es evidente que tenemos los mismos\ngustos culinarios, {{string value=\"6\"}}.",
      "EUfr": "{{anim id=\"HappyDance\" target=\"actor\" targetSpec=\"\"}}Ah, {{delay8}}je m'en doutais !{{delay frames=\"50\"}}{{anim id=\"Blushing\" target=\"actor\" targetSpec=\"\"}} Je sens que\nnous avons une vision assez similaire\nde la cuisine !",
      "EUit": "{{anim id=\"HappyDance\" target=\"actor\" targetSpec=\"\"}}Non avrei neanche dovuto chiedere!\n{{delay20}}{{anim id=\"Blushing\" target=\"actor\" targetSpec=\"\"}}Abbiamo gli stessi gusti in fatto di\ncuisine, in fondo.",
      "EUnl": "{{anim id=\"HappyDance\" target=\"actor\" targetSpec=\"\"}}Ik had het kunnen weten!{{delay frames=\"50\"}}{{anim id=\"Blushing\" target=\"actor\" targetSpec=\"\"}} Wij hebben\nwat koken betreft allebei een heel\nvergelijkbare smaak.",
      "EUru": "{{anim id=\"HappyDance\" target=\"actor\" targetSpec=\"\"}}Могла бы и не спрашивать!{{delay frames=\"50\"}}{{anim id=\"Blushing\" target=\"actor\" targetSpec=\"\"}} Мне\nкажется, у нас похожие вкусы\nв том, что касается готовки.",
      "JPja": "{{anim id=\"HappyDance\" target=\"actor\" targetSpec=\"\"}}さすが　{{fun_00060096 arg=\"\"}}です！{{delay frames=\"50\"}}\n{{anim id=\"Blushing\" target=\"actor\" targetSpec=\"\"}}わたしたち　{{delay20}}お{{ruby charSpan=\"2\" value=\"りょうり\"}}料理の{{ruby charSpan=\"1\" value=\"この\"}}好みが\n{{ruby charSpan=\"1\" value=\"に\"}}似ているのかも　しれませんね",
      "KRko": "{{anim id=\"HappyDance\" target=\"actor\" targetSpec=\"\"}}역시 {{fun_00060096 arg=\"\"}}님이세요!{{delay frames=\"50\"}}\n{{anim id=\"Blushing\" target=\"actor\" targetSpec=\"\"}}저희 {{delay20}}요리 취향이\n비슷한 걸지도 모르겠네요",
      "TWzh": "{{anim id=\"HappyDance\" target=\"actor\" targetSpec=\"\"}}真不愧是{{fun_00060096 arg=\"\"}}！{{delay frames=\"50\"}}\n{{anim id=\"Blushing\" target=\"actor\" targetSpec=\"\"}}我們對料理的喜好，{{delay20}}\n搞不好很相似也說不定喔。",
      "USen": "{{anim id=\"HappyDance\" target=\"actor\" targetSpec=\"\"}}I didn't even need to ask!{{delay frames=\"50\"}}{{anim id=\"Blushing\" target=\"actor\" targetSpec=\"\"}} I have a\nfeeling we have similar tastes when\nit comes to cooking.",
      "USes": "{{anim id=\"Laughing\" target=\"actor\" targetSpec=\"\"}}No sé ni por qué te pregunto.{{delay8}}\n{{anim id=\"HappyFlower\" target=\"actor\" targetSpec=\"\"}}Es evidente que tenemos los mismos\ngustos culinarios, {{string value=\"Catchphrase\"}}.",
      "USfr": "{{anim id=\"HappyDance\" target=\"actor\" targetSpec=\"\"}}Ah, {{delay8}}je m'en doutais!{{delay frames=\"50\"}}{{anim id=\"Blushing\" target=\"actor\" targetSpec=\"\"}} Je sens que\nnous avons une vision assez similaire\nde la cuisine!"
    }
  },
  {
    "label": "112",
    "attribute": "0x0000000000000000",
    "locale": {
      "CNzh": "{{anim id=\"IdeaBulb\" target=\"actor\" targetSpec=\"\"}}既然是这样的话，{{delay20}}\n那你可以先替我保管{{delay20}}\n{{anim id=\"Hello\" target=\"actor\" targetSpec=\"\"}}{{fun_0000007D arg=\"0x0000\"}}的手册吗？{{pageBreak}}{{anim id=\"FaintSmile\" target=\"actor\" targetSpec=\"\"}}要是你看到有谁想试试制作料理，{{delay8}}\n就请把它交给{{delay8}}那个人吧。",
      "EUde": "{{anim id=\"IdeaBulb\" target=\"actor\" targetSpec=\"\"}}Da kommt mir eine Idee! {{delay20}}{{anim id=\"Hello\" target=\"actor\" targetSpec=\"\"}}Ich gebe dir\neine Abschrift meines Rezepts für\n{{i50_27 x=\"0\" y=\"0\" a=\"diesen\" b=\"diese\" c=\"dieses\"}} {{fun_00170032 arg=\"0x01CD\"}}{{fun_0000007D arg=\"0x0000\"}}!\n{{anim id=\"FaintSmile\" target=\"actor\" targetSpec=\"\"}}Dann kannst du es mit jemand\nanders teilen, {{delay8}}der auch gern kocht.",
      "EUen": "{{anim id=\"IdeaBulb\" target=\"actor\" targetSpec=\"\"}}I have an idea though! {{delay20}}{{anim id=\"Hello\" target=\"actor\" targetSpec=\"\"}}Why don't\nyou take a copy of my recipe\nfor {{fun_0000007D arg=\"0x0000\"}}?\n{{anim id=\"FaintSmile\" target=\"actor\" targetSpec=\"\"}}Then you'll be able to share the\nrecipe with someone else who's\nbeen bitten by the cooking bug.",
      "EUes": "{{anim id=\"IdeaBulb\" target=\"actor\" targetSpec=\"\"}}Oye, {{delay8}}¿por qué no te llevas\nuna copia de la receta?{{pageBreak}}{{anim id=\"FaintSmile\" target=\"actor\" targetSpec=\"\"}}Así podrás compartirla con alguien\nque quiera aprender a cocinar\n{{wordArticle}}{{fun_0000007D arg=\"0x0000\"}}.",
      "EUfr": "{{anim id=\"IdeaBulb\" target=\"actor\" targetSpec=\"\"}}Mais j'ai une idée ! {{delay20}}{{anim id=\"Hello\" target=\"actor\" targetSpec=\"\"}}Prends quand\nmême cette recette, et donne-la à\nquelqu'un.{{pageBreak}}{{anim id=\"FaintSmile\" target=\"actor\" targetSpec=\"\"}}Quelqu'un qui voudrait cuisiner\n{{wordArticle}}{{fun_0000007D arg=\"0x0000\"}}, bien sûr !",
      "EUit": "{{anim id=\"IdeaBulb\" target=\"actor\" targetSpec=\"\"}}Ho un'idea! {{delay20}}{{anim id=\"Hello\" target=\"actor\" targetSpec=\"\"}}Perché non prendi\nuna copia della mia ricetta per fare\n{{fun_00010032 arg=\"\"}}{{fun_0000007D arg=\"0x0000\"}}?\n{{anim id=\"FaintSmile\" target=\"actor\" targetSpec=\"\"}}Così potrai condividerla\ncon qualcun altro che adooora\ncucinare quanto noi!",
      "EUnl": "{{anim id=\"IdeaBulb\" target=\"actor\" targetSpec=\"\"}}O, ik heb een idee! {{delay20}}{{anim id=\"Hello\" target=\"actor\" targetSpec=\"\"}}Neem deze kopie van mijn recept voor {{wordArticle}}{{fun_0000007D arg=\"0x0000\"}}!{{pageBreak}}{{anim id=\"FaintSmile\" target=\"actor\" targetSpec=\"\"}}Als je dan nog iemand tegenkomt die\nkookkriebels heeft of zin in iets\nlekkers, dan geef je die het recept.",
      "EUru": "{{anim id=\"IdeaBulb\" target=\"actor\" targetSpec=\"\"}}О! Я кое-что придумала!{{delay20}} {{anim id=\"Hello\" target=\"actor\" targetSpec=\"\"}}Возьми мой рецепт {{fun_00170032 arg=\"0x03CD\"}}{{fun_0000007D arg=\"0x0000\"}}!{{pageBreak}}{{anim id=\"FaintSmile\" target=\"actor\" targetSpec=\"\"}}Поделишься им с другим\nкулинаром-любителем.",
      "JPja": "{{anim id=\"IdeaBulb\" target=\"actor\" targetSpec=\"\"}}そういうことでしたら　{{delay20}}わたしの\n{{fun_0000007D arg=\"0x0000\"}}のレシピ、{{delay20}}\n{{anim id=\"Hello\" target=\"actor\" targetSpec=\"\"}}あなたに　{{ruby charSpan=\"1\" value=\"あず\"}}預けてもいいでしょうか？{{pageBreak}}{{anim id=\"FaintSmile\" target=\"actor\" targetSpec=\"\"}}もし　お{{ruby charSpan=\"2\" value=\"りょうり\"}}料理してみたい、{{delay8}}というかたが\nいらっしゃったら　{{delay8}}{{ruby charSpan=\"1\" value=\"さ\"}}差し{{ruby charSpan=\"1\" value=\"あ\"}}上げてください",
      "KRko": "{{anim id=\"IdeaBulb\" target=\"actor\" targetSpec=\"\"}}그러시다면 {{delay20}}저의\n{{fun_0000007D arg=\"0x0000\"}} 레시피를{{delay20}}\n{{anim id=\"Hello\" target=\"actor\" targetSpec=\"\"}}당신께 맡겨도 될까요?{{pageBreak}}{{anim id=\"FaintSmile\" target=\"actor\" targetSpec=\"\"}}만약 요리해보고 싶어 하시는 분이 계시면{{delay20}}\n그분께 전해주세요!",
      "TWzh": "{{anim id=\"IdeaBulb\" target=\"actor\" targetSpec=\"\"}}既然這樣，{{delay20}}\n我的{{fun_0000007D arg=\"0x0000\"}}方程式{{delay20}}\n{{anim id=\"Hello\" target=\"actor\" targetSpec=\"\"}}就交給你保管吧。{{pageBreak}}{{anim id=\"FaintSmile\" target=\"actor\" targetSpec=\"\"}}如果有人想試試看這道料理的話，{{delay8}}\n再請你將方程式{{delay8}}交給那個人。",
      "USen": "{{anim id=\"IdeaBulb\" target=\"actor\" targetSpec=\"\"}}I have an idea though! {{delay20}}{{anim id=\"Hello\" target=\"actor\" targetSpec=\"\"}}Why don't\nyou take a copy of my recipe\nfor {{fun_0000007D arg=\"0x0000\"}}?\n{{anim id=\"FaintSmile\" target=\"actor\" targetSpec=\"\"}}Then you'll be able to share the\nrecipe with someone else who's\nbeen bitten by the cooking bug.",
      "USes": "{{anim id=\"IdeaBulb\" target=\"actor\" targetSpec=\"\"}}Oye, {{delay8}}¿y si te llevas una copia\nde la receta?{{pageBreak}}{{anim id=\"FaintSmile\" target=\"actor\" targetSpec=\"\"}}Así podrás compartirla con alguien\nque quiera aprender a cocinar\n{{wordArticle}}{{fun_0000007D arg=\"0x0000\"}}.",
      "USfr": "{{anim id=\"IdeaBulb\" target=\"actor\" targetSpec=\"\"}}Mais j'ai une idée! {{delay20}}{{anim id=\"Hello\" target=\"actor\" targetSpec=\"\"}}Prends quand\nmême cette recette, et donne-la à\nquelqu'un.{{pageBreak}}{{anim id=\"FaintSmile\" target=\"actor\" targetSpec=\"\"}}Quelqu'un qui voudrait cuisiner\n{{wordArticle}}{{fun_0000007D arg=\"0x0000\"}}, bien sûr!"
    }
  },
  {
    "label": "113",
    "attribute": "0x0000000000000000",
    "locale": {
      "CNzh": "{{string value=\"...\"}}{{anim id=\"Oops\" target=\"actor\" targetSpec=\"\"}}啊，{{delay20}}你的随身物品满了呀！{{delay frames=\"50\"}}\n{{anim id=\"EmotEnd\" target=\"actor\" targetSpec=\"\"}}请你先把口袋腾出空位，然后再来找我吧。{{delay frames=\"50\"}}\n{{anim id=\"FaintSmile\" target=\"actor\" targetSpec=\"\"}}我到时候再把它给你。{{string value=\"6\"}}。",
      "EUde": "{{string value=\"...\"}}{{anim id=\"Oops\" target=\"actor\" targetSpec=\"\"}}Oh nein, {{delay8}}deine Tasche ist ja voll!{{delay20}}\n{{anim id=\"EmotEnd\" target=\"actor\" targetSpec=\"\"}}Komm wieder, {{delay8}}wenn du genug Platz\nhast. {{delay20}}{{anim id=\"FaintSmile\" target=\"actor\" targetSpec=\"\"}}Dann gebe ich es dir.",
      "EUen": "{{string value=\"...\"}}{{anim id=\"Oops\" target=\"actor\" targetSpec=\"\"}}Aww, your pockets are full!{{delay frames=\"50\"}}{{anim id=\"EmotEnd\" target=\"actor\" targetSpec=\"\"}} Let me\nknow when you have some space.\n{{delay frames=\"50\"}}{{anim id=\"FaintSmile\" target=\"actor\" targetSpec=\"\"}}I'll give you a copy then.",
      "EUes": "{{anim id=\"Oops\" target=\"actor\" targetSpec=\"\"}}Vaya, tienes los bolsillos llenos.{{delay20}}\n{{anim id=\"FaintSmile\" target=\"actor\" targetSpec=\"\"}}Avísame cuando hagas algo de\nespacio y te daré la receta.",
      "EUfr": "{{anim id=\"Oops\" target=\"actor\" targetSpec=\"\"}}Oh non,{{delay8}} tes poches sont pleines !{{delay frames=\"50\"}}\n{{anim id=\"EmotEnd\" target=\"actor\" targetSpec=\"\"}}Reviens me voir quand tu auras\nfait un peu de place.{{pageBreak}}{{anim id=\"FaintSmile\" target=\"actor\" targetSpec=\"\"}}Je pourrai alors te donner la recette.",
      "EUit": "{{anim id=\"Oops\" target=\"actor\" targetSpec=\"\"}}Ma hai le tasche pienissimissime!{{delay20}}\n{{anim id=\"EmotEnd\" target=\"actor\" targetSpec=\"\"}}Torna quando avrai più spazio,{{delay8}}{{anim id=\"FaintSmile\" target=\"actor\" targetSpec=\"\"}} così\nti darò la ricetta.",
      "EUnl": "{{anim id=\"Oops\" target=\"actor\" targetSpec=\"\"}}Hè, je zakken zitten al vol!{{delay frames=\"50\"}}{{anim id=\"EmotEnd\" target=\"actor\" targetSpec=\"\"}} Kom terug\nals je wat meer ruimte gemaakt hebt.{{delay frames=\"50\"}}\n{{anim id=\"FaintSmile\" target=\"actor\" targetSpec=\"\"}}Dan geef ik je het recept.",
      "EUru": "{{anim id=\"Oops\" target=\"actor\" targetSpec=\"\"}}Ох, у тебя в карманах места нет!{{delay frames=\"50\"}}\n{{anim id=\"EmotEnd\" target=\"actor\" targetSpec=\"\"}}Скажи, как их освободишь, {{delay frames=\"50\"}}{{anim id=\"FaintSmile\" target=\"actor\" targetSpec=\"\"}}тогда\nи выдам тебе рецепт.",
      "JPja": "{{string value=\"...\"}}{{anim id=\"Oops\" target=\"actor\" targetSpec=\"\"}}ああ、{{delay20}}もちものが　いっぱいでしたか！{{delay frames=\"50\"}}\n{{anim id=\"EmotEnd\" target=\"actor\" targetSpec=\"\"}}ポケットが{{ruby charSpan=\"1\" value=\"あ\"}}空いたら　また{{ruby charSpan=\"1\" value=\"こえ\"}}声をかけてください{{delay frames=\"50\"}}\n{{anim id=\"FaintSmile\" target=\"actor\" targetSpec=\"\"}}その{{ruby charSpan=\"1\" value=\"とき\"}}時に　お{{ruby charSpan=\"1\" value=\"わた\"}}渡ししますね、{{string value=\"6\"}}",
      "KRko": "{{string value=\"...\"}}{{anim id=\"Oops\" target=\"actor\" targetSpec=\"\"}}아, {{delay20}}주머니가 가득하시네요!{{delay frames=\"50\"}}\n{{anim id=\"EmotEnd\" target=\"actor\" targetSpec=\"\"}}주머니에 자리가 생기면 다시 말해주세요{{delay frames=\"50\"}}\n{{anim id=\"FaintSmile\" target=\"actor\" targetSpec=\"\"}}그때 드릴게요, {{string value=\"6\"}}!",
      "TWzh": "{{anim id=\"Oops\" target=\"actor\" targetSpec=\"\"}}啊{{string value=\"...\"}}{{delay20}}你的持有物品太多了！{{delay frames=\"50\"}}\n{{anim id=\"EmotEnd\" target=\"actor\" targetSpec=\"\"}}等你口袋有空間之後再來跟我說一聲吧，{{delay frames=\"50\"}}\n{{anim id=\"FaintSmile\" target=\"actor\" targetSpec=\"\"}}到時候我再交給你，{{string value=\"6\"}}。",
      "USen": "{{string value=\"...\"}}{{anim id=\"Oops\" target=\"actor\" targetSpec=\"\"}}Aww, your pockets are full!{{delay frames=\"50\"}}{{anim id=\"EmotEnd\" target=\"actor\" targetSpec=\"\"}} Let me\nknow when you have some space.\n{{delay frames=\"50\"}}{{anim id=\"FaintSmile\" target=\"actor\" targetSpec=\"\"}}I'll give you a copy then.",
      "USes": "{{anim id=\"Oops\" target=\"actor\" targetSpec=\"\"}}Vaya, tienes los bolsillos llenos.{{delay20}}\n{{anim id=\"FaintSmile\" target=\"actor\" targetSpec=\"\"}}Avísame cuando hagas algo de\nespacio y te daré la receta.",
      "USfr": "{{anim id=\"Oops\" target=\"actor\" targetSpec=\"\"}}Oh non,{{delay8}} tes poches sont pleines!{{delay frames=\"50\"}}\n{{anim id=\"EmotEnd\" target=\"actor\" targetSpec=\"\"}}Reviens me voir quand tu auras\nfait un peu de place.{{pageBreak}}{{anim id=\"FaintSmile\" target=\"actor\" targetSpec=\"\"}}Je pourrai alors te donner la recette."
    }
  },
  {
    "label": "114",
    "attribute": "0x0000000000000000",
    "locale": {
      "CNzh": "{{anim id=\"HappyDance\" target=\"actor\" targetSpec=\"\"}}如果{{fun_0000007D arg=\"0x0000\"}}的手册{{delay20}}\n能让他人意识到制作料理的乐趣，{{delay8}}\n我会感到很开心的。{{string value=\"6\"}}。",
      "EUde": "{{anim id=\"HappyDance\" target=\"actor\" targetSpec=\"\"}}Es wäre toll, {{delay8}}wenn mein Rezept für\n{{i50_27 x=\"0\" y=\"0\" a=\"diesen\" b=\"diese\" c=\"dieses\"}} {{fun_00170032 arg=\"0x01CD\"}}{{fun_0000007D arg=\"0x0000\"}} noch andere erfreut!",
      "EUen": "{{anim id=\"HappyDance\" target=\"actor\" targetSpec=\"\"}}I'd love it if my recipe helped\nsomeone learn to appreciate\n{{wordArticle}}{{fun_0000007D arg=\"0x0000\"}}!",
      "EUes": "{{anim id=\"Hesitate\" target=\"actor\" targetSpec=\"\"}}Ojalá mi {{fun_0000007D arg=\"0x0000\"}} sirva para transmitir a todo el mundo mi amor por la cocina.",
      "EUfr": "{{anim id=\"HappyDance\" target=\"actor\" targetSpec=\"\"}}J'aimerais tant que ma recette\npermette aux gens d'apprécier {{fun_00010032 arg=\"\"}}{{fun_0000007D arg=\"0x0000\"}} !",
      "EUit": "{{anim id=\"HappyDance\" target=\"actor\" targetSpec=\"\"}}Sarebbe bello se la mia ricetta\ninsegnasse agli altri ad apprezzare\n{{fun_00010032 arg=\"\"}}{{fun_0000007D arg=\"0x0000\"}}!",
      "EUnl": "{{anim id=\"HappyDance\" target=\"actor\" targetSpec=\"\"}}Wat zou het leuk zijn als mijn recept voor {{wordArticle}}{{fun_0000007D arg=\"0x0000\"}} bij anderen in de smaak zou vallen!",
      "EUru": "{{anim id=\"HappyDance\" target=\"actor\" targetSpec=\"\"}}Я буду рада, если этот рецепт\nпривьет кому-то любовь\nк {{fun_00170032 arg=\"0x02CD\"}}{{fun_0000007D arg=\"0x0000\"}}!",
      "JPja": "{{anim id=\"HappyDance\" target=\"actor\" targetSpec=\"\"}}{{fun_0000007D arg=\"0x0000\"}}のレシピで{{delay20}}\nだれかが　お{{ruby charSpan=\"2\" value=\"りょうり\"}}料理の{{ruby charSpan=\"1\" value=\"たの\"}}楽しさに\n{{ruby charSpan=\"1\" value=\"き\"}}気づいてくださると　{{delay8}}うれしいです、{{string value=\"6\"}}",
      "KRko": "{{anim id=\"HappyDance\" target=\"actor\" targetSpec=\"\"}}{{fun_0000007D arg=\"0x0000\"}} 레시피로{{delay20}}\n누군가가 요리의 즐거움을\n깨달으신다면 {{delay8}}참 기쁠 거예요, {{string value=\"6\"}}!",
      "TWzh": "{{anim id=\"HappyDance\" target=\"actor\" targetSpec=\"\"}}如果有人能透過\n{{fun_0000007D arg=\"0x0000\"}}方程式，{{delay20}}\n體會到烹飪的樂趣{{delay8}}那就好了，{{string value=\"6\"}}。",
      "USen": "{{anim id=\"HappyDance\" target=\"actor\" targetSpec=\"\"}}I'd love it if my recipe helped\nsomeone learn to appreciate\n{{wordArticle}}{{fun_0000007D arg=\"0x0000\"}}!",
      "USes": "{{anim id=\"Hesitate\" target=\"actor\" targetSpec=\"\"}}Ojalá mi {{fun_0000007D arg=\"0x0000\"}} sirva para transmitir a todo el mundo mi amor por la cocina.",
      "USfr": "{{anim id=\"HappyDance\" target=\"actor\" targetSpec=\"\"}}J'aimerais tant que ma recette\npermette aux gens d'apprécier {{fun_00010032 arg=\"\"}}{{fun_0000007D arg=\"0x0000\"}}!"
    }
  },
  {
    "label": "115",
    "attribute": "0x0000000000000000",
    "locale": {
      "CNzh": "之前你的随身物品是满的，{{delay20}}\n{{anim id=\"Hello\" target=\"actor\" targetSpec=\"\"}}现在怎么样了呢？{{pageBreak}}{{anim id=\"FaintSmile\" target=\"actor\" targetSpec=\"\"}}能把{{fun_0000007D arg=\"0x0000\"}}的手册{{delay20}}\n交给你了吗？",
      "EUde": "{{anim id=\"Hello\" target=\"actor\" targetSpec=\"\"}}Du konntest mein Rezept gar nicht\nmitnehmen... {{delay20}}Aber jetzt hast du\nwieder Platz in der Tasche?{{pageBreak}}{{anim id=\"FaintSmile\" target=\"actor\" targetSpec=\"\"}}Ich würde mein Rezept für „⁠{{fun_0000007D arg=\"0x0000\"}} für zu Hause“ wirklich gerne mit dir teilen.",
      "EUen": "{{anim id=\"Hello\" target=\"actor\" targetSpec=\"\"}}Your pockets were full before. Did\nyou free up some space?{{pageBreak}}{{anim id=\"FaintSmile\" target=\"actor\" targetSpec=\"\"}}I'd love to be able to give you the\n{{fun_0000007D arg=\"0x0000\"}} recipe.",
      "EUes": "{{anim id=\"QuestionMark\" target=\"actor\" targetSpec=\"\"}}Dime,{{delay8}} ¿tienes ya sitio\nen los bolsillos, flor?{{pageBreak}}{{anim id=\"FaintSmile\" target=\"actor\" targetSpec=\"\"}}Esta vez me gustaría poder\ndarte mi receta para preparar\n{{wordArticle}}{{fun_0000007D arg=\"0x0000\"}}.",
      "EUfr": "{{anim id=\"Hello\" target=\"actor\" targetSpec=\"\"}}Tes poches étaient pleines, la\ndernière fois.{{delay20}} Est-ce que tu as fait\nun peu de place ?{{pageBreak}}{{anim id=\"FaintSmile\" target=\"actor\" targetSpec=\"\"}}Je ne demande pas mieux que te\ndonner cette recette {{gender4 m=\"de \" f=\"d'⁠\"}}{{fun_0000007D arg=\"0x0000\"}}.",
      "EUit": "{{anim id=\"Hello\" target=\"actor\" targetSpec=\"\"}}Hai liberato un peux di spazio\nin tasca?{{pageBreak}}{{anim id=\"FaintSmile\" target=\"actor\" targetSpec=\"\"}}Vorrei tanto darti la ricetta per\n{{fun_00010032 arg=\"\"}}{{fun_0000007D arg=\"0x0000\"}}.",
      "EUnl": "{{anim id=\"Hello\" target=\"actor\" targetSpec=\"\"}}Heb je al wat ruimte gemaakt voor dit\nculinaire schrijfsel?{{pageBreak}}{{anim id=\"FaintSmile\" target=\"actor\" targetSpec=\"\"}}Ik wil zo graag mijn recept voor {{wordArticle}}{{fun_0000007D arg=\"0x0000\"}} met je delen!",
      "EUru": "{{anim id=\"Hello\" target=\"actor\" targetSpec=\"\"}}Раньше у тебя не было места\nв карманах. Ты их освободил{{gender2 m=\"\" f=\"а\"}}?{{pageBreak}}{{anim id=\"FaintSmile\" target=\"actor\" targetSpec=\"\"}}Я очень хочу поделиться с тобой\nрецептом {{fun_00170032 arg=\"0x03CD\"}}{{fun_0000007D arg=\"0x0000\"}}.",
      "JPja": "{{ruby charSpan=\"1\" value=\"さき\"}}先ほどは　もちものが　いっぱいでしたけど{{delay20}}\n{{anim id=\"Hello\" target=\"actor\" targetSpec=\"\"}}{{ruby charSpan=\"1\" value=\"いま\"}}今は　どうでしょう{{pageBreak}}{{anim id=\"FaintSmile\" target=\"actor\" targetSpec=\"\"}}{{fun_0000007D arg=\"0x0000\"}}のレシピ、{{delay20}}\nお{{ruby charSpan=\"1\" value=\"わた\"}}渡ししても　{{ruby charSpan=\"3\" value=\"だいじょうぶ\"}}大丈夫でしょうか？",
      "KRko": "아까는 주머니가 가득하셨는데{{delay20}}\n{{anim id=\"Hello\" target=\"actor\" targetSpec=\"\"}}지금은 여유 공간이 생겼나요?{{pageBreak}}{{anim id=\"FaintSmile\" target=\"actor\" targetSpec=\"\"}}{{fun_0000007D arg=\"0x0000\"}} 레시피를{{delay20}}\n드려도 될까요?",
      "TWzh": "剛剛你帶太多持有物品，{{delay20}}\n{{anim id=\"Hello\" target=\"actor\" targetSpec=\"\"}}現在有清出空位了嗎？{{pageBreak}}{{anim id=\"FaintSmile\" target=\"actor\" targetSpec=\"\"}}你現在方便收下{{delay20}}\n{{fun_0000007D arg=\"0x0000\"}}方程式？",
      "USen": "{{anim id=\"Hello\" target=\"actor\" targetSpec=\"\"}}Your pockets were full before. Did\nyou free up some space?{{pageBreak}}{{anim id=\"FaintSmile\" target=\"actor\" targetSpec=\"\"}}I'd love to be able to give you the\n{{fun_0000007D arg=\"0x0000\"}} recipe.",
      "USes": "{{anim id=\"QuestionMark\" target=\"actor\" targetSpec=\"\"}}Dime,{{delay8}} ¿tienes ya espacio\nen los bolsillos, flor?{{pageBreak}}{{anim id=\"FaintSmile\" target=\"actor\" targetSpec=\"\"}}Me llena de alegría poder compartir\nmi receta para preparar {{wordArticle}}{{fun_0000007D arg=\"0x0000\"}}⁠.",
      "USfr": "{{anim id=\"Hello\" target=\"actor\" targetSpec=\"\"}}Tes poches étaient pleines, la\ndernière fois.{{delay20}} Est-ce que tu as fait\nun peu de place?{{pageBreak}}{{anim id=\"FaintSmile\" target=\"actor\" targetSpec=\"\"}}Je ne demande pas mieux que te\ndonner cette recette {{gender4 m=\"de \" f=\"d'⁠\"}}{{fun_0000007D arg=\"0x0000\"}}."
    }
  }
]