﻿{
  "version": 4,
  "rootNode": {
    "EvtobjCountdownStall[]": [
      {
        "mLightType.Enum": "スポットライト",
        "mIsNightLight.bool": true,
        "mPos.V3f": [14.1,19.2,12.4],
        "mLightColor.C4f": [1.0,0.67,0.45,1.0],
        "mSize.f32": 12.0,
        "mColorOffset.C4f": [0.0,0.0,0.0,0.0],
        "mDir.V3f": [0.0,-1.0,0.0],
        "mBindBoneName.Str": "Root",
        "mFar.f32": 20.0,
        "mIntensity.f32": 30.0,
        "mFovy.f32": 2.617994,
        "mIsUseMaterialColor.bool": false
      },
      {
        "mLightType.Enum": "ポイントライト",
        "mIsNightLight.bool": true,
        "mIsCandle.bool": false,
        "mPos.V3f": [-25.2,18.29,15.5],
        "mRadiusOffset.f32": 1.0,
        "mLightColor.C4f": [1.0,0.67,0.45,1.0],
        "cParamCameraCatcher": "mEvtCountdownDenshoku",
        "mSize.f32": 8.0,
        "mColorOffset.C4f": [0.0,0.0,0.0,0.0],
        "mCycleAR.f32": 0.09,
        "mBindBoneName.Str": "Root",
        "mCycleB.f32": 0.05,
        "mCycleBR.f32": 0.003,
        "mIntensity.f32": 39.0,
        "mRadius.f32": 30.0,
        "mCycleA.f32": 0.2,
        "mIsCandleColor.bool": false,
        "mMaterialColorParam.Enum": "const_color4",
        "mIsUseMaterialColor.bool": true
      }
    ]
  }
}