﻿{
  "version": 4,
  "rootNode": {
    "StrcMuseumA00[]": [
      {
        "mLightType.Enum": "ポイントライト",
        "mIsNightLight.bool": true,
        "mPos.V3f": [0.0,19.5,-17.5],
        "mLightColor.C4f": [1.0,0.85,0.5,1.0],
        "mSize.f32": 5.0,
        "mBindBoneName.Str": "Root",
        "mIntensity.f32": 30.0,
        "mRadius.f32": 30.0,
        "mIsUseMaterialColor.bool": false
      },
      {
        "mLightType.Enum": "スポットライト",
        "mIsNightLight.bool": true,
        "mPos.V3f": [22.0,10.9,-13.0],
        "mLightColor.C4f": [1.0,0.8,0.4,1.0],
        "mSize.f32": 0.0,
        "mDir.V3f": [0.0,-1.0,0.0],
        "mBindBoneName.Str": "Root",
        "mFar.f32": 15.0,
        "mIntensity.f32": 15.0,
        "mFovy.f32": 2.443461,
        "mIsUseMaterialColor.bool": false
      },
      {
        "mLightType.Enum": "なし"
      },
      {
        "mLightType.Enum": "なし"
      },
      {
        "mLightType.Enum": "なし"
      }
    ]
  }
}