﻿[
  {
    "label": "001",
    "attribute": "0x0000000000000000",
    "text": "{{fun_0014003C arg=\"\"}}"
  },
  {
    "label": "001_01",
    "attribute": "0x0000000000000000",
    "text": "{{anim id=\"BigSmile\" target=\"actor\" targetSpec=\"\"}}Наконец-то День игрушек!{{delay20}} Скорее\nбы увидеть Санту и его команду!{{pageBreak}}И взять у них пару автографов!\n{{capitalizeNextLetter}}{{string value=\"6\"}}!"
  },
  {
    "label": "001_02",
    "attribute": "0x0000000000000000",
    "text": "{{anim id=\"SmugFace\" target=\"actor\" targetSpec=\"\"}}Как же я рад Дню игрушек! Просто\nколенки дрожат от волнения!\n{{capitalizeNextLetter}}{{string value=\"6\"}}!{{pageBreak}}{{anim id=\"Nodding\" target=\"actor\" targetSpec=\"\"}}Надеюсь, у Санты не будет болеть\nпоясница после доставки штанги,{{delay20}}\n{{anim id=\"Smiling\" target=\"actor\" targetSpec=\"\"}}которую я попросил в подарок!"
  },
  {
    "label": "001_03",
    "attribute": "0x0000000000000000",
    "text": "{{anim id=\"Worried\" target=\"actor\" targetSpec=\"\"}}Как бы Санта не замерз, развозя\nподарки сегодня ночью.{{anim id=\"EmotEnd\" target=\"actor\" targetSpec=\"\"}}{{pageBreak}}Хм{{string value=\"...\"}} {{anim id=\"IdeaBulb\" target=\"actor\" targetSpec=\"\"}}{{delay20}}Может, предложить ему\nпоединок по армрестлингу?{{delay20}} Это\nотлично согревает. {{capitalizeNextLetter}}{{string value=\"6\"}}!"
  },
  {
    "label": "002",
    "attribute": "0x0000000000000000",
    "text": "{{fun_0014003C arg=\"\"}}"
  },
  {
    "label": "002_01",
    "attribute": "0x0000000000000000",
    "text": "{{anim id=\"BigSmile\" target=\"actor\" targetSpec=\"\"}}С Днем игрушек!{{delay20}} Разогрел{{gender2 m=\"\" f=\"а\"}}\nбицепсы, чтобы разрывать\nподарочную упаковку?{{pageBreak}}{{anim id=\"EmotEnd\" target=\"actor\" targetSpec=\"\"}}Раз уж мы о подарках{{string value=\"...\"}}{{delay8}} {{anim id=\"QuestionMark\" target=\"actor\" targetSpec=\"\"}}Уже видел{{gender2 m=\"\" f=\"а\"}}\nоленя {{color id=\"3\"}}Джингла{{color id=\"65535\"}}?{{delay20}} Они с Сантой\nвместе тренируются.{{delay20}} {{anim id=\"Hello\" target=\"actor\" targetSpec=\"\"}}Круто, да?"
  },
  {
    "label": "002_02",
    "attribute": "0x0000000000000000",
    "text": "{{anim id=\"Worried\" target=\"actor\" targetSpec=\"\"}}Весь дом снегом занесло, как бы\nСанта мимо не прошел{{string value=\"...\"}}{{delay20}}{{pageBreak}}{{anim id=\"Thinking\" target=\"actor\" targetSpec=\"\"}}Может, почистить снег?.. Хотя\nупражнения на руки я уже вчера\nделал."
  },
  {
    "label": "002_03",
    "attribute": "0x0000000000000000",
    "text": "{{anim id=\"WrySmile\" target=\"actor\" targetSpec=\"\"}}Я сегодня пробежал больше, чем\nобычно.{{delay20}} Хотел вытоптать на снегу:{{delay8}}\n«Привет, Санта!»{{delay8}} {{capitalizeNextLetter}}{{string value=\"6\"}}!"
  },
  {
    "label": "003",
    "attribute": "0x0000000000000000",
    "text": "{{fun_0014003C arg=\"\"}}"
  },
  {
    "label": "003_01",
    "attribute": "0x0000000000000000",
    "text": "{{anim id=\"Surprised\" target=\"actor\" targetSpec=\"\"}}Ух ты!{{delay8}} Санта,{{delay20}} бицепсы у тебя что\nнадо!{{delay8}} У меня к тебе куча вопросов{{string value=\"...\"}}\nКакой вес ты выжимаешь?..{{anim id=\"EmotEnd\" target=\"actor\" targetSpec=\"\"}}{{pageBreak}}Подожди-ка{{string value=\"...\"}}{{delay8}} {{anim id=\"Shocked\" target=\"actor\" targetSpec=\"\"}}{{capitalizeNextLetter}}{{string value=\"NickName\"}}!\n{{anim id=\"FaintSmile\" target=\"actor\" targetSpec=\"\"}}Ты меня провел{{gender2 m=\"\" f=\"а\"}}!{{delay frames=\"40\"}} {{anim id=\"ShyBoy\" target=\"actor\" targetSpec=\"\"}}Ну, если увидишь\nСанту,{{delay8}} спроси про жим, ладно?"
  },
  {
    "label": "003_02",
    "attribute": "0x0000000000000000",
    "text": "{{anim id=\"Frantic\" target=\"actor\" targetSpec=\"\"}}Санта?!{{delay20}} Вот это да!{{delay20}} Можно автограф\nпопросить?{{delay8}} {{anim id=\"SadSpiral\" target=\"actor\" targetSpec=\"\"}}Ой, так это ты,\n{{string value=\"NickName\"}}. {{capitalizeNextLetter}}{{string value=\"6\"}}!{{pageBreak}}{{anim id=\"Negative\" target=\"actor\" targetSpec=\"\"}}Не обижайся, но насчет автографа\nя погорячился.{{delay20}} Мне кажется, у меня\nтвой автограф{{delay8}} {{anim id=\"Blushing\" target=\"actor\" targetSpec=\"\"}}уже есть{{string value=\"...\"}}"
  },
  {
    "label": "003_03",
    "attribute": "0x0000000000000000",
    "text": "{{anim id=\"Nodding\" target=\"actor\" targetSpec=\"\"}}{{delay20}}Как жизнь, Санта?{{delay8}} Рад встрече.{{delay20}}\n{{anim id=\"Hesitate\" target=\"actor\" targetSpec=\"\"}}У меня к тебе просьба будет{{anim id=\"EmotEnd\" target=\"actor\" targetSpec=\"\"}}{{string value=\"...\"}}\n{{capitalizeNextLetter}}{{string value=\"6\"}}!{{pageBreak}}Можно я попробую поднять твой\nбольшущий мешок с подарками?{{pageBreak}}{{anim id=\"Eh\" target=\"actor\" targetSpec=\"\"}}Эй, да ты и не Санта вовсе!{{delay20}} Ты\n{{string value=\"NickName\"}}. {{anim id=\"Outraged\" target=\"actor\" targetSpec=\"\"}}{{delay20}}Что за шутки такие?!{{delay frames=\"40\"}} {{anim id=\"SadSpiral\" target=\"actor\" targetSpec=\"\"}}А я-то размечтался!"
  },
  {
    "label": "004",
    "attribute": "0x0000000000000000",
    "text": "{{fun_0014003C arg=\"\"}}"
  },
  {
    "label": "004_01",
    "attribute": "0x0000000000000000",
    "text": "{{anim id=\"EmotEnd\" target=\"actor\" targetSpec=\"\"}}Сани Санты появятся с минуты на\nминуту.{{delay20}} {{anim id=\"Assent\" target=\"actor\" targetSpec=\"\"}}Поддай газу, Санта!{{delay8}} Я готов\nподнимать подарки!"
  },
  {
    "label": "004_02",
    "attribute": "0x0000000000000000",
    "text": "{{anim id=\"Worried\" target=\"actor\" targetSpec=\"\"}}Надеюсь, Санта заглянет ко мне\nсегодня ночью.{{delay frames=\"40\"}}{{pageBreak}}{{anim id=\"OhGeez\" target=\"actor\" targetSpec=\"\"}}Я пролил белковый коктейль на\nписьмо, которое я ему писал,{{delay8}} и не\nсмог его отправить{{string value=\"...\"}}"
  },
  {
    "label": "004_03",
    "attribute": "0x0000000000000000",
    "text": "{{anim id=\"Nodding\" target=\"actor\" targetSpec=\"\"}}Санта наверняка скалолазанием\nзанимается.{{delay8}} Подумай сам{{gender2 m=\"\" f=\"а\"}},{{delay20}} {{anim id=\"ShyBoy\" target=\"actor\" targetSpec=\"\"}}в дом по\nтрубе без подготовки не залезешь."
  },
  {
    "label": "005",
    "attribute": "0x0000000000000000",
    "text": "{{fun_0014003C arg=\"\"}}"
  },
  {
    "label": "005_01",
    "attribute": "0x0000000000000000",
    "text": "{{anim id=\"Scheming\" target=\"actor\" targetSpec=\"\"}}На пробежку выш{{gender2 m=\"ел\" f=\"ла\"}}?{{delay20}} Ты, случайно,\nне за Сантой бегаешь,{{delay8}} чтобы\nподарки пораньше получить?"
  },
  {
    "label": "005_02",
    "attribute": "0x0000000000000000",
    "text": "{{anim id=\"Hot\" target=\"actor\" targetSpec=\"\"}}{{delay20}}Надеюсь, Санта пьет достаточно\nжидкости в эту жару{{string value=\"...\"}}{{delay20}}{{pageBreak}}{{anim id=\"IdeaBulb\" target=\"actor\" targetSpec=\"\"}}{{delay20}}Ледяной белковый коктейль сейчас\nпришелся бы в самый раз. Думаю,\nСанта не отказался бы."
  },
  {
    "label": "005_03",
    "attribute": "0x0000000000000000",
    "text": "{{anim id=\"Explain\" target=\"actor\" targetSpec=\"\"}}Я сегодня пробежал парочку\nлишних кругов. Хотел первым\nувидеть сани Санты.{{pageBreak}}{{anim id=\"EmotEnd\" target=\"actor\" targetSpec=\"\"}}Кстати{{string value=\"...\"}}{{delay8}} {{anim id=\"QuestionMark\" target=\"actor\" targetSpec=\"\"}}Ты уже видел{{gender2 m=\"\" f=\"а\"}} оленя\nДжингла?{{delay20}} Они с Сантой вместе\nтренируются.{{delay20}} {{anim id=\"Hello\" target=\"actor\" targetSpec=\"\"}}Круто, да?"
  },
  {
    "label": "050",
    "attribute": "0x0000000000000000",
    "text": "{{fun_0014003C arg=\"\"}}"
  },
  {
    "label": "050_01",
    "attribute": "0x0000000000000000",
    "text": "{{anim id=\"FaintSmile\" target=\"actor\" targetSpec=\"\"}}Санта классно отыграл в этом\nсезоне!{{delay20}} {{anim id=\"Love\" target=\"actor\" targetSpec=\"\"}}Мне достался тяжеленный\nподарок! {{capitalizeNextLetter}}{{string value=\"6\"}}!"
  },
  {
    "label": "050_02",
    "attribute": "0x0000000000000000",
    "text": "{{anim id=\"Nodding\" target=\"actor\" targetSpec=\"\"}}Вот круто!{{delay frames=\"40\"}} Я получил подарочные\nочки от команды Санты в самом\nначале Дня игрушек! {{anim id=\"Smiling\" target=\"actor\" targetSpec=\"\"}}{{capitalizeNextLetter}}{{string value=\"6\"}}!{{pageBreak}}{{anim id=\"Eh\" target=\"actor\" targetSpec=\"\"}}Эй!{{delay20}} Мы же еще не обменялись\nподарками.{{delay20}} {{anim id=\"Grin\" target=\"actor\" targetSpec=\"\"}}Забегай, когда\nосвободишься, ладно?"
  },
  {
    "label": "050_03",
    "attribute": "0x0000000000000000",
    "text": "{{anim id=\"Explain\" target=\"actor\" targetSpec=\"\"}}Отличная игра в команде Санты!{{delay8}} Ты\nи сам{{gender2 m=\"\" f=\"а\"}} подарок заслужил{{gender2 m=\"\" f=\"а\"}}!{{delay20}} {{anim id=\"Grin\" target=\"actor\" targetSpec=\"\"}}Забегай,\nкогда закончишь матч."
  },
  {
    "label": "051",
    "attribute": "0x0000000000000000",
    "text": "{{fun_0014003C arg=\"\"}}"
  },
  {
    "label": "051_01",
    "attribute": "0x0000010000000000",
    "text": "{{anim id=\"Thinking\" target=\"actor\" targetSpec=\"\"}}{{color id=\"4\"}}Наряд как у Санты{{string value=\"...\"}} Здоровенный\nмешок подарков{{string value=\"...\"}} День игрушек{{string value=\"...\"}}{{i10_4}}\n{{color id=\"65535\"}}{{anim id=\"QuestionMark\" target=\"actor\" targetSpec=\"\"}}Что ты задумал{{gender2 m=\"\" f=\"а\"}}? {{capitalizeNextLetter}}{{string value=\"6\"}}!"
  },
  {
    "label": "051_01_a",
    "attribute": "0x0000000000000000",
    "text": "У меня для тебя подарок!"
  },
  {
    "label": "051_01_b",
    "attribute": "0x0000000000000000",
    "text": "С Днем игрушек!"
  },
  {
    "label": "051_02",
    "attribute": "0x0000010000000000",
    "text": "{{anim id=\"Smiling\" target=\"actor\" targetSpec=\"\"}}Отлично выглядишь!{{delay20}} Наряд Санты\nподчеркивает твою мускулатуру!\n{{capitalizeNextLetter}}{{string value=\"6\"}}!"
  },
  {
    "label": "051_02_a",
    "attribute": "0x0000000000000000",
    "text": "У меня для тебя подарок!"
  },
  {
    "label": "051_02_b",
    "attribute": "0x0000000000000000",
    "text": "С Днем игрушек!"
  },
  {
    "label": "051_03",
    "attribute": "0x0000010000000000",
    "text": "{{anim id=\"Worried\" target=\"actor\" targetSpec=\"\"}}Полегче с тренировками в этом\nнаряде.{{delay20}} В нем жарко, наверное. Пей\nпобольше воды! {{capitalizeNextLetter}}{{string value=\"6\"}}!"
  },
  {
    "label": "051_03_a",
    "attribute": "0x0000000000000000",
    "text": "У меня для тебя подарок!"
  },
  {
    "label": "051_03_b",
    "attribute": "0x0000000000000000",
    "text": "С Днем игрушек!"
  },
  {
    "label": "052",
    "attribute": "0x0000000000000000",
    "text": "{{fun_0014003C arg=\"\"}}"
  },
  {
    "label": "052_01",
    "attribute": "0x0000010000000000",
    "text": "{{anim id=\"WrySmile\" target=\"actor\" targetSpec=\"\"}}Что у тебя в мешке?{{delay20}} Подарки, или\nты инвентарь для {{fun_00170032 arg=\"0x03CD\"}}{{randomSports}}\nтуда сложил{{gender2 m=\"\" f=\"а\"}}? {{capitalizeNextLetter}}{{string value=\"6\"}}!"
  },
  {
    "label": "052_01_a",
    "attribute": "0x0000000000000000",
    "text": "У меня для тебя подарок!"
  },
  {
    "label": "052_01_b",
    "attribute": "0x0000000000000000",
    "text": "С Днем игрушек!"
  },
  {
    "label": "052_02",
    "attribute": "0x0000010000000000",
    "text": "{{anim id=\"EmotEnd\" target=\"actor\" targetSpec=\"\"}}Это что, мешок с подарками? {{anim id=\"IdeaBulb\" target=\"actor\" targetSpec=\"\"}}{{delay20}}А-а-а!{{delay8}}\nПонятно!{{delay8}} У тебя сегодня тренировка\nв стиле Дня игрушек, да?{{delay20}}{{pageBreak}}{{anim id=\"Smiling\" target=\"actor\" targetSpec=\"\"}}Здорово придумано! {{capitalizeNextLetter}}{{string value=\"6\"}}!"
  },
  {
    "label": "052_02_a",
    "attribute": "0x0000000000000000",
    "text": "У меня для тебя подарок!"
  },
  {
    "label": "052_02_b",
    "attribute": "0x0000000000000000",
    "text": "С Днем игрушек!"
  },
  {
    "label": "052_03",
    "attribute": "0x0000010000000000",
    "text": "{{anim id=\"Pardon\" target=\"actor\" targetSpec=\"\"}}Ух ты!{{delay20}} Никогда не видел такого\nздорового мешка потной одежды из\nкачалки!{{anim id=\"Thinking\" target=\"actor\" targetSpec=\"\"}} Или видел{{string value=\"...\"}} {{capitalizeNextLetter}}{{string value=\"6\"}}!"
  },
  {
    "label": "052_03_a",
    "attribute": "0x0000000000000000",
    "text": "У меня для тебя подарок!"
  },
  {
    "label": "052_03_b",
    "attribute": "0x0000000000000000",
    "text": "С Днем игрушек!"
  },
  {
    "label": "053",
    "attribute": "0x0000000000000000",
    "text": "{{fun_0014003C arg=\"\"}}"
  },
  {
    "label": "053_01",
    "attribute": "0x0000000000000000",
    "text": "{{anim id=\"QuestionMark\" target=\"actor\" targetSpec=\"\"}}Подарок?{{delay20}} От{{string value=\"...\"}}{{anim id=\"Aha\" target=\"actor\" targetSpec=\"\"}}{{delay20}} Санты? Так ты по\nего просьбе тяжести поднимаешь?!{{delay8}}\nОбалдеть!{{delay8}} Отлично справляешься!"
  },
  {
    "label": "053_02",
    "attribute": "0x0000000000000000",
    "text": "{{anim id=\"QuestionMark\" target=\"actor\" targetSpec=\"\"}}Подарок?{{delay8}} Что, от Санты?!{{delay20}} {{anim id=\"EmotEnd\" target=\"actor\" targetSpec=\"\"}}Значит{{string value=\"...\"}}\n{{anim id=\"BigSmile\" target=\"actor\" targetSpec=\"\"}}тебя в его команду отобрали?{{delay8}}\nКруто!"
  },
  {
    "label": "054",
    "attribute": "0x0000000000000000",
    "text": "{{fun_0014003C arg=\"\"}}"
  },
  {
    "label": "054_01",
    "attribute": "0x0000000000000000",
    "text": "{{anim id=\"Hello\" target=\"actor\" targetSpec=\"\"}}Возвращаю подачу!{{delay8}} И тебя с Днем\nигрушек!{{delay20}} {{anim id=\"Eh\" target=\"actor\" targetSpec=\"\"}}Подожди-ка, это же\nподарок от Санты!{{pageBreak}}{{anim id=\"Smiling\" target=\"actor\" targetSpec=\"\"}}С каких это пор ты у него играешь\nполузащитником?{{delay20}} Вот круто!{{delay8}} Так\nи до высшей лиги недалеко!"
  },
  {
    "label": "054_02",
    "attribute": "0x0000000000000000",
    "text": "{{anim id=\"Hello\" target=\"actor\" targetSpec=\"\"}}С Днем игрушек!{{delay frames=\"40\"}} {{anim id=\"Worried\" target=\"actor\" targetSpec=\"\"}}Что за подарок?{{i10_4}}\n{{anim id=\"Aha\" target=\"actor\" targetSpec=\"\"}}{{delay20}}А-а!{{delay8}} Так ты у Санты на воротах\nстоишь?{{delay8}} Класс!{{delay8}} Спасибо!"
  },
  {
    "label": "055",
    "attribute": "0x0000000000000000",
    "text": "{{fun_0014003C arg=\"\"}}"
  },
  {
    "label": "055_01",
    "attribute": "0x0000000000000000",
    "text": "{{anim id=\"Smiling\" target=\"actor\" targetSpec=\"\"}}Санта правильно сделал, что\nотобрал тебя в свою команду.{{delay8}}\nЛучше игрока и не придумаешь!{{pageBreak}}{{anim id=\"Grin\" target=\"actor\" targetSpec=\"\"}}{{delay20}}Спасибо, что помог{{gender2 m=\"\" f=\"ла\"}} в таком\nважном деле, {{string value=\"NickName\"}}!{{delay20}} Держи в знак благодарности!"
  },
  {
    "label": "055_02",
    "attribute": "0x0000000000000000",
    "text": "{{anim id=\"Nodding\" target=\"actor\" targetSpec=\"\"}}Так ты, значит, Санте помогаешь?{{delay20}}\nЗавидую!{{delay8}} Поднимать этот мешок —\nотличное упражнение для рук.{{pageBreak}}{{anim id=\"Grin\" target=\"actor\" targetSpec=\"\"}}Как думаешь, сможешь еще один\nподарок поднять?{{delay20}} Держи, это тебе,\n{{string value=\"NickName\"}}."
  },
  {
    "label": "056",
    "attribute": "0x0000000000000000",
    "text": "{{fun_0014003C arg=\"\"}}"
  },
  {
    "label": "056_01",
    "attribute": "0x0000000000000000",
    "text": "{{anim id=\"AbsentMindedness\" target=\"actor\" targetSpec=\"\"}}Поверить не могу: ты работаешь на\nСанту!{{delay20}} Это как попасть в зал славы\n{{fun_00170032 arg=\"0x03CD\"}}{{randomSports}}.{{delay20}} {{anim id=\"BigSmile\" target=\"actor\" targetSpec=\"\"}}Супер!"
  },
  {
    "label": "056_02",
    "attribute": "0x0000000000000000",
    "text": "{{anim id=\"FaintSmile\" target=\"actor\" targetSpec=\"\"}}Похоже, мы оба забили гол в День\nигрушек в этом сезоне!{{delay20}} {{anim id=\"Smiling\" target=\"actor\" targetSpec=\"\"}}Еще раз\nспасибо!"
  },
  {
    "label": "057",
    "attribute": "0x0000000000000000",
    "text": "{{anim id=\"Eh\" target=\"actor\" targetSpec=\"\"}}Ой!{{delay20}} Заминочка!{{delay8}} У тебя карманы до\nотказа набиты.{{delay20}} {{anim id=\"Explain\" target=\"actor\" targetSpec=\"\"}}Освободи-ка место,\nа то мой подарок не помещается!"
  },
  {
    "label": "058",
    "attribute": "0x0000000000000000",
    "text": "{{anim id=\"Hello\" target=\"actor\" targetSpec=\"\"}}А вот и помощни{{gender2 m=\"к\" f=\"ца\"}} Санты!{{delay20}}\nГотов{{gender2 m=\"\" f=\"а\"}} забрать свой подарок?\n{{capitalizeNextLetter}}{{string value=\"6\"}}!"
  },
  {
    "label": "059",
    "attribute": "0x0000000000000000",
    "text": "{{anim id=\"EmotEnd\" target=\"actor\" targetSpec=\"\"}}Я его хотел Санте передать, но так\nдаже лучше.{{delay20}} {{anim id=\"Scheming\" target=\"actor\" targetSpec=\"\"}}Кстати, {{delay8}}тебя ждет еще\nодин подарок ко Дню игрушек!"
  },
  {
    "label": "100",
    "attribute": "0x0000000000000000",
    "text": "{{fun_0014003C arg=\"\"}}"
  },
  {
    "label": "100_01",
    "attribute": "0x0000020000000000",
    "text": "{{anim id=\"Scheming\" target=\"actor\" targetSpec=\"\"}}Готов{{gender2 m=\"\" f=\"а\"}} к обмену подарками один на\nодин?{{i10_4}} {{anim id=\"Outraged\" target=\"actor\" targetSpec=\"\"}}Очень надеюсь! Потому что\nэто вызов на поединок подарков!"
  },
  {
    "label": "100_01_a",
    "attribute": "0x0000000000000000",
    "text": "Давай меняться!"
  },
  {
    "label": "100_01_b",
    "attribute": "0x0000000000000000",
    "text": "Давай в другой раз."
  },
  {
    "label": "100_02",
    "attribute": "0x0000020000000000",
    "text": "{{anim id=\"ShyBoy\" target=\"actor\" targetSpec=\"\"}}Как насчет того, чтобы обменяться\nподарками ко Дню игрушек\nс командой соперника?{{delay20}}{{pageBreak}}Прямо сейчас! {{capitalizeNextLetter}}{{string value=\"6\"}}!"
  },
  {
    "label": "100_02_a",
    "attribute": "0x0000000000000000",
    "text": "Давай меняться!"
  },
  {
    "label": "100_02_b",
    "attribute": "0x0000000000000000",
    "text": "Давай в другой раз."
  },
  {
    "label": "100_03",
    "attribute": "0x0000020000000000",
    "text": "{{anim id=\"EmotEnd\" target=\"actor\" targetSpec=\"\"}}Обменяемся подарками?{{delay20}} Чтобы\nнаучиться их заворачивать, я даже\nтренировку пропустил.{{delay8}}{{pageBreak}}{{anim id=\"SmugFace\" target=\"actor\" targetSpec=\"\"}}Просто не терпится похвастаться\nрезультатом! {{capitalizeNextLetter}}{{string value=\"6\"}}!"
  },
  {
    "label": "100_03_a",
    "attribute": "0x0000000000000000",
    "text": "Давай меняться!"
  },
  {
    "label": "100_03_b",
    "attribute": "0x0000000000000000",
    "text": "Давай в другой раз."
  },
  {
    "label": "110",
    "attribute": "0x0000000000000000",
    "text": "{{fun_0014003C arg=\"\"}}"
  },
  {
    "label": "110_01",
    "attribute": "0x0000000000000000",
    "text": "{{anim id=\"EmotEnd\" target=\"actor\" targetSpec=\"\"}}Трибуны замерли{{string value=\"...\"}}{{anim id=\"OhGeez\" target=\"actor\" targetSpec=\"\"}} и отмерли.{{delay20}}\nНу, дай знать, если передумаешь."
  },
  {
    "label": "110_02",
    "attribute": "0x0000000000000000",
    "text": "{{anim id=\"Eh\" target=\"actor\" targetSpec=\"\"}}Решил{{gender2 m=\"\" f=\"а\"}} взять дополнительное\nвремя в День игрушек?{{delay frames=\"40\"}} {{anim id=\"Greeting\" target=\"actor\" targetSpec=\"\"}}Ладно,{{delay20}}\nприходи, когда будешь готов{{gender2 m=\"\" f=\"а\"}}."
  },
  {
    "label": "111",
    "attribute": "0x0000000000000000",
    "text": "{{anim id=\"QuestionMark\" target=\"actor\" targetSpec=\"\"}}Что,{{delay20}} техническое поражение?{{delay20}}\n{{anim id=\"EmotEnd\" target=\"actor\" targetSpec=\"\"}}Подарок некрасиво завернут? Не\nстрашно.{{delay8}} {{anim id=\"Laughing\" target=\"actor\" targetSpec=\"\"}}Хуже моего не будет!"
  },
  {
    "label": "112",
    "attribute": "0x0000000000000000",
    "text": "{{anim id=\"Worried\" target=\"actor\" targetSpec=\"\"}}Что случилось-то?{{delay20}} Передумал{{gender2 m=\"\" f=\"а\"}}\nменяться?{{delay20}} {{anim id=\"Eh\" target=\"actor\" targetSpec=\"\"}}Возьмем тайм-аут!{{delay8}} У тебя\n{{color id=\"1\"}}обертка{{color id=\"65535\"}}-то есть?{{pageBreak}}{{anim id=\"Explain\" target=\"actor\" targetSpec=\"\"}}Если хочешь выйти в финал со\nсвоим подарком,{{delay8}} без оберточной\nбумаги{{delay8}} тебе не обойтись.{{anim id=\"EmotEnd\" target=\"actor\" targetSpec=\"\"}}{{pageBreak}}Держи, я целую кучу купил. Думал,\nс первой попытки все равно не\nзаверну. {{anim id=\"Greeting\" target=\"actor\" targetSpec=\"\"}}Могу отдать тебе лишнюю."
  },
  {
    "label": "113",
    "attribute": "0x0000000000000000",
    "text": "{{anim id=\"ShyBoy\" target=\"actor\" targetSpec=\"\"}}И не переживай, если упаковка не\nвыходит.{{delay20}} Первый мяч всегда\nв штангу."
  },
  {
    "label": "114",
    "attribute": "0x0000000000000000",
    "text": "{{anim id=\"TakenAback\" target=\"actor\" targetSpec=\"\"}}Нам нужен еще тайм-аут!{{delay20}} Как же\nя тебе дам обертку, если у тебя\nв карманах места совсем нет?{{pageBreak}}{{anim id=\"Nodding\" target=\"actor\" targetSpec=\"\"}}Освободи-ка их немножко\nи прибегай назад, договорились?"
  },
  {
    "label": "115",
    "attribute": "0x0000000000000000",
    "text": "{{anim id=\"Greeting\" target=\"actor\" targetSpec=\"\"}}Ты за {{color id=\"1\"}}оберткой{{color id=\"65535\"}}?{{delay20}} {{anim id=\"Nodding\" target=\"actor\" targetSpec=\"\"}}Вот она.\n{{capitalizeNextLetter}}{{string value=\"6\"}}!"
  },
  {
    "label": "150",
    "attribute": "0x0000000000000000",
    "text": "{{fun_0014003C arg=\"\"}}"
  },
  {
    "label": "150_01",
    "attribute": "0x0000000000000000",
    "text": "{{anim id=\"Smiling\" target=\"actor\" targetSpec=\"\"}}Вот это да! {{delay20}}Высшая лига!{{delay8}} Я ждать не\nмогу — прямо сейчас открою!"
  },
  {
    "label": "150_02",
    "attribute": "0x0000000000000000",
    "text": "{{anim id=\"Grin\" target=\"actor\" targetSpec=\"\"}}Ух ты, обожаю сюрпризы!{{delay20}} Уже\nразворачиваю! Скорее бы\nпосмотреть, что там внутри."
  },
  {
    "label": "150_03",
    "attribute": "0x0000000000000000",
    "text": "{{anim id=\"WrySmile\" target=\"actor\" targetSpec=\"\"}}Готов{{gender2 m=\"\" f=\"а\"}}? Сейчас увидишь, как\nпрофессиональный атлет разорвет\nобертку одним движением!"
  },
  {
    "label": "151",
    "attribute": "0x0000000000000000",
    "text": "{{anim id=\"Aha\" target=\"actor\" targetSpec=\"\"}}{{delay20}}Обожаю {{color id=\"1\"}}рождественское полено{{color id=\"65535\"}}!{{delay20}}\n{{anim id=\"Blushing\" target=\"actor\" targetSpec=\"\"}}Даже могу про диету забыть на\nденек. Спасибо, {{string value=\"NickName\"}}!"
  },
  {
    "label": "152",
    "attribute": "0x0000000000000000",
    "text": "{{anim id=\"Shocked\" target=\"actor\" targetSpec=\"\"}}Эй!{{delay8}} Как ты узнал{{gender2 m=\"\" f=\"а\"}}, что я чуть не\nразбил {{fun_00170032 arg=\"0x01CD\"}}{{fun_0000007D arg=\"0x0000\"}}?{{pageBreak}}{{anim id=\"Blushing\" target=\"actor\" targetSpec=\"\"}}Может, стоит подыскать другое\nместо для метания молота вместо\nгостиной?..{{delay8}} {{anim id=\"Greeting\" target=\"actor\" targetSpec=\"\"}}А за подарок спасибо!"
  },
  {
    "label": "153",
    "attribute": "0x0000000000000000",
    "text": "{{anim id=\"Aha\" target=\"actor\" targetSpec=\"\"}}{{delay20}}{{capitalizeNextLetter}}{{fun_0000007D arg=\"0x0000\"}}!{{pageBreak}}{{anim id=\"Grin\" target=\"actor\" targetSpec=\"\"}}Классная вещь!{{delay20}} Ультрасовременная\nи отлично впитывает пот.{{delay8}} Она мне\nочень пригодится!"
  },
  {
    "label": "153_01",
    "attribute": "0x0000000000000000",
    "text": "{{anim id=\"BigSmile\" target=\"actor\" targetSpec=\"\"}}Мощно!{{delay8}} Ты прямо угадал{{gender2 m=\"\" f=\"а\"}}\nс подарком!{{delay20}}{{pageBreak}}Мо{{gender7 m=\"й\" f=\"я\" n=\"е\" pl=\"и\"}} {{fun_0000007D arg=\"0x0000\"}} как раз поизносил{{gender7 m=\"ся\" f=\"ась\" n=\"ось\" pl=\"ись\"}} после стольких тренировок."
  },
  {
    "label": "153_02",
    "attribute": "0x0000000000000000",
    "text": "{{anim id=\"Aha\" target=\"actor\" targetSpec=\"\"}}{{delay20}}{{capitalizeNextLetter}}{{fun_0000007D arg=\"0x0000\"}}!{{pageBreak}}{{anim id=\"Grin\" target=\"actor\" targetSpec=\"\"}}Здорово!{{delay20}} Теперь надену {{fun_00170032 arg=\"0x01CD\"}}{{fun_0000007D arg=\"0x0000\"}}, и любая тренировка будет удачной!"
  },
  {
    "label": "154",
    "attribute": "0x0000000000000000",
    "text": "{{anim id=\"Aha\" target=\"actor\" targetSpec=\"\"}}{{delay20}}Вот это да!{{delay8}} А я как раз\nзасматривался на тво{{gender7 m=\"й\" f=\"ю\" n=\"е\" pl=\"и\"}} {{fun_00170032 arg=\"0x01CD\"}}{{fun_0000007D arg=\"0x0000\"}}!{{pageBreak}}{{anim id=\"ShyBoy\" target=\"actor\" targetSpec=\"\"}}Купим еще несколько таких же для\nребят{{delay8}}, и будет у нас своя команда\nпо {{fun_00170032 arg=\"0x02CD\"}}{{randomSports}}!"
  },
  {
    "label": "154_01",
    "attribute": "0x0000000000000000",
    "text": "{{anim id=\"Aha\" target=\"actor\" targetSpec=\"\"}}{{delay20}}{{capitalizeNextLetter}}{{fun_0000007D arg=\"0x0000\"}}!{{pageBreak}}{{anim id=\"Nodding\" target=\"actor\" targetSpec=\"\"}}Я как раз думал, какой у тебя\nголовной убор аэродинамичный.{{delay frames=\"40\"}}\n{{anim id=\"Smiling\" target=\"actor\" targetSpec=\"\"}}Наверняка для спринта самое то!"
  },
  {
    "label": "154_02",
    "attribute": "0x0000000000000000",
    "text": "{{anim id=\"Aha\" target=\"actor\" targetSpec=\"\"}}{{delay20}}Ух ты!{{delay20}} У нас теперь будет свой\nсекретный код — {{fun_0000007D arg=\"0x0000\"}}.{{pageBreak}}{{anim id=\"Grin\" target=\"actor\" targetSpec=\"\"}}Если наденем {{gender7 m=\"его\" f=\"ее\" n=\"его\" pl=\"их\"}} в один день,{{delay8}}\nя сделаю в три раза больше\nприседаний.{{delay20}} {{anim id=\"Nodding\" target=\"actor\" targetSpec=\"\"}}Отлично придумано!"
  },
  {
    "label": "155",
    "attribute": "0x0000000000000000",
    "text": "{{fun_0014003C arg=\"\"}}"
  },
  {
    "label": "155_01",
    "attribute": "0x0000000000000000",
    "text": "{{anim id=\"BigSmile\" target=\"actor\" targetSpec=\"\"}}Вот это да!{{delay20}} Ты просто ясновидящ{{gender2 m=\"ий\" f=\"ая\"}}!{{delay8}}{{pageBreak}}Я весь год собирался купить\n{{fun_00170032 arg=\"0x01CD\"}}{{fun_0000007D arg=\"0x0000\"}}, да\nникак не решался!"
  },
  {
    "label": "155_02",
    "attribute": "0x0000000000000000",
    "text": "{{anim id=\"BigSmile\" target=\"actor\" targetSpec=\"\"}}Мощно! {{delay8}}{{capitalizeNextLetter}}{{fun_00170032 arg=\"0x03CD\"}}{{fun_0000007D arg=\"0x0000\"}} я точно не ожидал!{{pageBreak}}{{anim id=\"Nodding\" target=\"actor\" targetSpec=\"\"}}Сразу видно, что мускулы щедрости\nу тебя хорошо накачаны, {{string value=\"NickName\"}}.{{delay8}} Спасибо!"
  },
  {
    "label": "156",
    "attribute": "0x0000000000000000",
    "text": "{{fun_0014003C arg=\"\"}}"
  },
  {
    "label": "156_01",
    "attribute": "0x0000000000000000",
    "text": "{{anim id=\"Aha\" target=\"actor\" targetSpec=\"\"}}{{delay20}}Правда?{{delay20}} Такой мощный подарок!{{delay8}}\nНе верится, что ты подарил{{gender2 m=\"\" f=\"а\"}} мне\n{{fun_00170032 arg=\"0x01CD\"}}{{fun_0000007D arg=\"0x0000\"}}!{{delay20}} {{anim id=\"BigSmile\" target=\"actor\" targetSpec=\"\"}}Класс!"
  },
  {
    "label": "156_02",
    "attribute": "0x0000000000000000",
    "text": "{{anim id=\"Eh\" target=\"actor\" targetSpec=\"\"}}Вот это да!{{delay20}} Ты и вправду приготовил{{gender2 m=\"\" f=\"а\"}} мне {{fun_00170032 arg=\"0x01CD\"}}{{fun_0000007D arg=\"0x0000\"}}?!{{pageBreak}}{{anim id=\"HappyDance\" target=\"actor\" targetSpec=\"\"}}Лучшего спарринг-партнера ни од{{gender7 m=\"ин\" f=\"на\" n=\"\" pl=\"\"}} {{string value=\"VillagerRace\"}} пожелать не может, {{string value=\"NickName\"}}!"
  },
  {
    "label": "157",
    "attribute": "0x0000000000000000",
    "text": "{{fun_0014003C arg=\"\"}}"
  },
  {
    "label": "157_01",
    "attribute": "0x0000000000000000",
    "text": "{{anim id=\"Aha\" target=\"actor\" targetSpec=\"\"}}{{delay20}}Ничего себе!{{delay8}} Ты мне и правда\nрешил{{gender2 m=\"\" f=\"а\"}} {{fun_00170032 arg=\"0x01CD\"}}{{fun_0000007D arg=\"0x0000\"}} подарить?{{delay20}} {{anim id=\"Smiling\" target=\"actor\" targetSpec=\"\"}}Обалдеть!"
  },
  {
    "label": "157_02",
    "attribute": "0x0000000000000000",
    "text": "{{anim id=\"Smiling\" target=\"actor\" targetSpec=\"\"}}Как классно!{{delay20}} Спасибо большущее\nза {{fun_00170032 arg=\"0x01CD\"}}{{fun_0000007D arg=\"0x0000\"}}!"
  },
  {
    "label": "158",
    "attribute": "0x0000000000000000",
    "text": "{{anim id=\"Eh\" target=\"actor\" targetSpec=\"\"}}{{delay20}}Дини?{{delay20}} {{anim id=\"Blushing\" target=\"actor\" targetSpec=\"\"}}Ты не обижайся,{{delay8}} но финансы\nу меня в отличной форме,{{delay20}}\nс рельефными мускулами на счету!{{pageBreak}}{{anim id=\"ShyBoy\" target=\"actor\" targetSpec=\"\"}}Слушай,{{delay8}} забирай-ка эти дини.\nМожем потом еще один подход\nк обмену подарками сделать."
  },
  {
    "label": "159",
    "attribute": "0x0000000000000000",
    "text": "{{anim id=\"Eh\" target=\"actor\" targetSpec=\"\"}}Это что?.. Мусор?{{delay20}} {{anim id=\"Worried\" target=\"actor\" targetSpec=\"\"}}Хм, слушай{{string value=\"...\"}}\nМы, конечно, соперники и все\nтакое, но обижать-то зачем?{{pageBreak}}{{anim id=\"OhGeez\" target=\"actor\" targetSpec=\"\"}}Спарринг-партнеры соревнуются,{{delay20}}\nкто больше веса поднимет,{{delay8}} а не кто{{delay8}}\nбольше мусора подарит.{{pageBreak}}{{anim id=\"Serious\" target=\"actor\" targetSpec=\"\"}}Забирай эту ерунду.{{delay20}} Можем еще раз\nпопробовать обменяться подарками\nпопозже, {{string value=\"NickName\"}}."
  },
  {
    "label": "161",
    "attribute": "0x0000000000000000",
    "text": "{{fun_0014003C arg=\"\"}}"
  },
  {
    "label": "161_01",
    "attribute": "0x0000000000000000",
    "text": "{{anim id=\"Aha\" target=\"actor\" targetSpec=\"\"}}{{delay20}}{{capitalizeNextLetter}}{{fun_0000007D arg=\"0x0000\"}}?!{{pageBreak}}{{anim id=\"Laughing\" target=\"actor\" targetSpec=\"\"}}Гы-гы-гы!{{delay20}} Лучше Дня игрушек\nпраздника нет.{{delay8}}{{pageBreak}}Каждый год в этот день я как будто\nснова превращаюсь в маленьк{{gender7 m=\"ого\" f=\"ую\" n=\"\" pl=\"\"}}\nщупленьк{{gender7 m=\"ого\" f=\"ую\" n=\"\" pl=\"\"}} {{fun_00170032 arg=\"0x01CD\"}}{{string value=\"VillagerRace\"}}."
  },
  {
    "label": "161_02",
    "attribute": "0x0000000000000000",
    "text": "{{anim id=\"Aha\" target=\"actor\" targetSpec=\"\"}}{{delay20}}{{capitalizeNextLetter}}{{fun_0000007D arg=\"0x0000\"}}!{{pageBreak}}{{anim id=\"HappyFlower\" target=\"actor\" targetSpec=\"\"}}День игрушек в {{number value=\"27\"}} году чем\nдальше, тем лучше.{{delay20}} Как марафон, на\nкотором сил только прибавляется!"
  },
  {
    "label": "162",
    "attribute": "0x0000000000000000",
    "text": "{{anim id=\"Aha\" target=\"actor\" targetSpec=\"\"}}{{delay20}}{{capitalizeNextLetter}}{{fun_0000007D arg=\"0x0000\"}}!{{color id=\"4\"}}{{pageBreak}}{{anim id=\"Thinking\" target=\"actor\" targetSpec=\"\"}}{{delay20}}Тайм-аут! Я же сам{{string value=\"...\"}}{{color id=\"65535\"}} {{anim id=\"Eh\" target=\"actor\" targetSpec=\"\"}}Хм?{{delay20}} Не\nобращай внимания.{{delay20}} {{anim id=\"Smiling\" target=\"actor\" targetSpec=\"\"}}Спасибо!{{delay8}}\nКлассный подарок!"
  },
  {
    "label": "200",
    "attribute": "0x0000000000000000",
    "text": "{{fun_0014003C arg=\"\"}}"
  },
  {
    "label": "200_01",
    "attribute": "0x0000000000000000",
    "text": "{{anim id=\"FaintSmile\" target=\"actor\" targetSpec=\"\"}}Хорошо, моя подача!{{delay8}} А ну-ка лови!"
  },
  {
    "label": "200_02",
    "attribute": "0x0000000000000000",
    "text": "{{anim id=\"Grin\" target=\"actor\" targetSpec=\"\"}}Ну-ка посмотри, что я тебе\nприготовил!"
  },
  {
    "label": "201",
    "attribute": "0x0000000000000000",
    "text": "{{fun_0014003C arg=\"\"}}"
  },
  {
    "label": "201_01",
    "attribute": "0x0000000000000000",
    "text": "{{anim id=\"Nodding\" target=\"actor\" targetSpec=\"\"}}Сегодняшнему дню место на\nпьедестале лучших Дней игрушек.\n{{anim id=\"BigSmile\" target=\"actor\" targetSpec=\"\"}}Спасибо, {{string value=\"NickName\"}}!"
  },
  {
    "label": "201_02",
    "attribute": "0x0000000000000000",
    "text": "{{anim id=\"Nodding\" target=\"actor\" targetSpec=\"\"}}Круто было!{{delay20}} День игрушек прошел\nпо высшему разряду благодаря\nтебе.{{delay20}} {{anim id=\"BigSmile\" target=\"actor\" targetSpec=\"\"}}Спасибо, {{string value=\"NickName\"}}!"
  },
  {
    "label": "250",
    "attribute": "0x0000000000000000",
    "text": "{{fun_0014003C arg=\"\"}}"
  },
  {
    "label": "250_01",
    "attribute": "0x0000000000000000",
    "text": "{{anim id=\"HappyFlower\" target=\"actor\" targetSpec=\"\"}}Невероятно! Я получил подарки от\nтебя и от Санты!{{delay20}} Мечты сбываются\nв этот День игрушек. {{capitalizeNextLetter}}{{string value=\"6\"}}!{{pageBreak}}{{anim id=\"Thinking\" target=\"actor\" targetSpec=\"\"}}Должно быть, это мне награда за\nрегулярные тренировки.{{delay20}} Так и знал,\nчто Санта за них баллы начисляет."
  },
  {
    "label": "250_02",
    "attribute": "0x0000000000000000",
    "text": "{{anim id=\"BigSmile\" target=\"actor\" targetSpec=\"\"}}{{delay20}}Я так доволен!{{delay20}} Получил автограф от\nСанты{{string value=\"...\"}}{{delay20}}. {{anim id=\"Blushing\" target=\"actor\" targetSpec=\"\"}}{{delay8}}Он его оставил на подарке{{delay8}} после слова «От».{{delay8}} {{capitalizeNextLetter}}{{string value=\"6\"}}!{{pageBreak}}{{anim id=\"ShyBoy\" target=\"actor\" targetSpec=\"\"}}Да, твоему автографу я бы тоже\nбыл рад,{{delay20}} но он у меня уже есть\nв коллекции{{string value=\"...\"}}"
  },
  {
    "label": "250_03",
    "attribute": "0x0000000000000000",
    "text": "{{anim id=\"FaintSmile\" target=\"actor\" targetSpec=\"\"}}День игрушек прошел гораздо\nлучше, чем я ожидал.{{delay20}} Подарки от\nтебя и Санты!{{delay20}} {{anim id=\"Smiling\" target=\"actor\" targetSpec=\"\"}}Класс! {{capitalizeNextLetter}}{{string value=\"6\"}}!{{pageBreak}}{{anim id=\"Serious\" target=\"actor\" targetSpec=\"\"}}Надо начинать готовиться\nк следующему году.{{delay20}}{{pageBreak}}{{anim id=\"Thinking\" target=\"actor\" targetSpec=\"\"}}Интересно, помогать соседям\nс тяжестями считается за доброе\nдело?"
  },
  {
    "label": "251",
    "attribute": "0x0000000000000000",
    "text": "{{fun_0014003C arg=\"\"}}"
  },
  {
    "label": "251_01",
    "attribute": "0x0000000000000000",
    "text": "{{anim id=\"EmotEnd\" target=\"actor\" targetSpec=\"\"}}Спасибо за крутой подарок на День\nигрушек.{{delay20}} {{anim id=\"SmugFace\" target=\"actor\" targetSpec=\"\"}}Клянусь трицепсами, он\nу меня пылью не покроется!"
  },
  {
    "label": "251_02",
    "attribute": "0x0000000000000000",
    "text": "{{anim id=\"Grin\" target=\"actor\" targetSpec=\"\"}}Вот уж не думал, что могу еще\nбольше полюбить День игрушек,{{delay20}}\nно твой подарок меня удивил.{{delay8}}{{anim id=\"BigSmile\" target=\"actor\" targetSpec=\"\"}}{{pageBreak}}{{anim id=\"ShyBoy\" target=\"actor\" targetSpec=\"\"}}Кажется, сегодня уже и пожелать\nбольше ничего нельзя,{{delay8}} но я еще\nСанту не видел. {{capitalizeNextLetter}}{{string value=\"6\"}}!"
  },
  {
    "label": "251_03",
    "attribute": "0x0000000000000000",
    "text": "{{anim id=\"EmotEnd\" target=\"actor\" targetSpec=\"\"}}Здорово, что мы подарками\nобменялись! {{anim id=\"Sighing\" target=\"actor\" targetSpec=\"\"}}Знаешь, красиво\nзавернуть подарок так трудно!{{delay20}}{{pageBreak}}{{anim id=\"Blushing\" target=\"actor\" targetSpec=\"\"}}Я даже вспотел от усилий{{delay20}} и чуть не\nзаплакал.{{delay20}} {{capitalizeNextLetter}}{{string value=\"6\"}}!"
  },
  {
    "label": "300",
    "attribute": "0x0000000000000000",
    "text": "{{fun_0014003C arg=\"\"}}"
  },
  {
    "label": "300_01",
    "attribute": "0x0000000000000000",
    "text": "{{anim id=\"Serious\" target=\"actor\" targetSpec=\"\"}}День игрушек — как конец второго\nтайма на финале чемпионата мира.{{delay20}}\n{{anim id=\"BigSmile\" target=\"actor\" targetSpec=\"\"}}Я так волнуюсь!"
  },
  {
    "label": "300_02",
    "attribute": "0x0000000000000000",
    "text": "{{anim id=\"ColdChill\" target=\"actor\" targetSpec=\"\"}}Я так нервничаю в День игрушек,\nчто мне даже жарко, хоть на улице\nхолод стоит!{{delay20}}\nПробегусь-ка я пару кружков,\nчтобы не замерзнуть."
  },
  {
    "label": "300_03",
    "attribute": "0x0000000000000000",
    "text": "{{anim id=\"Nodding\" target=\"actor\" targetSpec=\"\"}}Ну и холод! Но я так волнуюсь, что\nменя в дом не затащишь.{{delay frames=\"40\"}}{{pageBreak}}{{anim id=\"SmugFace\" target=\"actor\" targetSpec=\"\"}}В День игрушек сама праздничная\nобстановка тебя согревает. {{capitalizeNextLetter}}{{string value=\"6\"}}!"
  },
  {
    "label": "301",
    "attribute": "0x0000000000000000",
    "text": "{{fun_0014003C arg=\"\"}}"
  },
  {
    "label": "301_01",
    "attribute": "0x0000000000000000",
    "text": "{{anim id=\"Smiling\" target=\"actor\" targetSpec=\"\"}}Как поживаешь, Санта?{{delay20}}{{anim id=\"EmotEnd\" target=\"actor\" targetSpec=\"\"}} Хм{{string value=\"...\"}} Нет, ты\nне Санта.{{delay8}} {{anim id=\"OhGeez\" target=\"actor\" targetSpec=\"\"}}Извини, ошибся.{{pageBreak}}{{anim id=\"Blushing\" target=\"actor\" targetSpec=\"\"}}Я так ждал Дня игрушек,{{delay20}} что мне\nтеперь Санта везде мерещится.\n{{capitalizeNextLetter}}{{string value=\"6\"}}!"
  },
  {
    "label": "301_02",
    "attribute": "0x0000000000000000",
    "text": "{{anim id=\"Eh\" target=\"actor\" targetSpec=\"\"}}Эй, похоже, ты совсем замерз{{gender2 m=\"\" f=\"ла\"}}!{{delay frames=\"40\"}}\n{{anim id=\"Thinking\" target=\"actor\" targetSpec=\"\"}}Приготовить горяченький белковый\nкоктейль к приезду Санты, что ли{{string value=\"...\"}}"
  },
  {
    "label": "301_03",
    "attribute": "0x0000000000000000",
    "text": "{{anim id=\"ShyBoy\" target=\"actor\" targetSpec=\"\"}}Хорошо на улице, да?{{delay20}} Готов{{gender2 m=\"\" f=\"а\"}}\nотмечать День игрушек на острове\n{{string value=\"OtherIslandName\"}} на всю катушку?"
  },
  {
    "label": "302",
    "attribute": "0x0000000000000000",
    "text": "{{fun_0014003C arg=\"\"}}"
  },
  {
    "label": "302_01",
    "attribute": "0x0000000000000000",
    "text": "{{anim id=\"Serious\" target=\"actor\" targetSpec=\"\"}}День игрушек — как конец второго\nтайма на финале чемпионата мира.{{delay20}}\n{{anim id=\"BigSmile\" target=\"actor\" targetSpec=\"\"}}Я так волнуюсь!"
  },
  {
    "label": "302_02",
    "attribute": "0x0000000000000000",
    "text": "{{anim id=\"ColdChill\" target=\"actor\" targetSpec=\"\"}}Я так нервничаю в День игрушек,\nчто холодный пот пробивает в эту\nжару!{{delay20}}\nВсе равно, пробегусь-ка я пару\nкружков, чтобы меня ветром\nобдуло."
  },
  {
    "label": "302_03",
    "attribute": "0x0000000000000000",
    "text": "{{anim id=\"Nodding\" target=\"actor\" targetSpec=\"\"}}Ну и жара! Но я так волнуюсь, что\nменя в дом не затащишь.{{delay frames=\"40\"}}{{pageBreak}}{{anim id=\"SmugFace\" target=\"actor\" targetSpec=\"\"}}В День игрушек сама праздничная\nобстановка лучше всякой прохлады.\n{{capitalizeNextLetter}}{{string value=\"6\"}}!"
  },
  {
    "label": "303",
    "attribute": "0x0000000000000000",
    "text": "{{fun_0014003C arg=\"\"}}"
  },
  {
    "label": "303_01",
    "attribute": "0x0000000000000000",
    "text": "{{anim id=\"Smiling\" target=\"actor\" targetSpec=\"\"}}Как поживаешь, Санта?{{delay20}}{{anim id=\"EmotEnd\" target=\"actor\" targetSpec=\"\"}} Хм{{string value=\"...\"}} Нет, ты\nне Санта.{{delay8}} {{anim id=\"OhGeez\" target=\"actor\" targetSpec=\"\"}}Извини, ошибся.{{pageBreak}}{{anim id=\"Blushing\" target=\"actor\" targetSpec=\"\"}}Я так ждал Дня игрушек,{{delay20}} что мне\nтеперь Санта везде мерещится.\n{{capitalizeNextLetter}}{{string value=\"6\"}}!"
  },
  {
    "label": "303_02",
    "attribute": "0x0000000000000000",
    "text": "{{anim id=\"Eh\" target=\"actor\" targetSpec=\"\"}}Эй, смотри не перегрейся!{{delay frames=\"40\"}}\n{{anim id=\"Thinking\" target=\"actor\" targetSpec=\"\"}}Приготовить ледяной белковый\nкоктейль к приезду Санты, что ли{{string value=\"...\"}}"
  },
  {
    "label": "303_03",
    "attribute": "0x0000000000000000",
    "text": "{{anim id=\"ShyBoy\" target=\"actor\" targetSpec=\"\"}}Хорошо на улице, да?{{delay20}} Готов{{gender2 m=\"\" f=\"а\"}}\nотмечать День игрушек на острове\n{{string value=\"OtherIslandName\"}} на всю катушку?"
  }
]