﻿[
  {
    "label": "001",
    "text": "¡Imagínate, {{string value=\"NickName\"}}!"
  },
  {
    "label": "002",
    "text": "Estimad{{gender2 m=\"o\" f=\"a\"}} torbellinito:"
  },
  {
    "label": "003",
    "text": "Qué relajo, {{string value=\"NickName\"}}..."
  },
  {
    "label": "004",
    "text": "¿Sabes una cosa, {{string value=\"NickName\"}}?"
  },
  {
    "label": "005",
    "text": "¡Necesito ayuda, {{string value=\"NickName\"}}!"
  },
  {
    "label": "006",
    "text": "Para mi amiguísim{{gender2 m=\"o\" f=\"a\"}} {{string value=\"NickName\"}}:"
  },
  {
    "label": "007",
    "text": "Un consejo, {{string value=\"NickName\"}}:"
  },
  {
    "label": "008",
    "text": "Brillante {{string value=\"NickName\"}}:"
  },
  {
    "label": "009",
    "text": "¡Hoooliii, {{string value=\"NickName\"}}!"
  },
  {
    "label": "010",
    "text": "Querid{{gender2 m=\"o\" f=\"a\"}} y especial {{string value=\"NickName\"}}:"
  },
  {
    "label": "101",
    "text": "Una vez en el colegio la maestra\nme descubrió pasándole una nota\na una \"amiga\", y me hizo leerla\nen voz alta. Decía: \"Odio el pop\".\nSí, la escribí, pero solo para caerle\nbien. A ella le gustaba el rock..."
  },
  {
    "label": "102",
    "text": "¿Todo bien? Siempre te veo por\nahí siendo superfabulos{{gender2 m=\"o\" f=\"a\"}} en plan\nsuperbién, pero no te pases, que\nluego te quedas así como sin\nenergías. Escucha uno de mis\nsencillos para que te relajes."
  },
  {
    "label": "103",
    "text": "O sea, siempre me propongo\nescribir pero no sé cómo poner\nlo que quiero decir... ¡Con lo bien\nque se me da escribir letras de\ncanciones! ¿A ti también te pasa?"
  },
  {
    "label": "104",
    "text": "Aunque no lo creas, ser una artista\nes una responsabilidad, o sea...\n¡hipermegagrande! Inspirar a miles\nde fans no es chicle mascado..."
  },
  {
    "label": "105",
    "text": "Necesito pero YA, una estrategia\npara convertirme en estrella de\npop. Ya sé que tengo que ensayar,\naprender a cantar, y más cosas.\nPero los fans ya los tengo... o sea.\nEs justo que ya lo sea, ¿no?"
  },
  {
    "label": "106",
    "text": "¿No te pasa que a veces es como\nmegadifícil decirle a alguien cara\na cara lo que piensas? Pues por\neso decidí escribirte esta tarjeta:\n¡Gracias por ser mi amiguisísim{{gender2 m=\"o\" f=\"a\"}}!"
  },
  {
    "label": "107",
    "text": "Resulta que si leo cuando viajo,\nme mareo. Es en plan: \"Érase\nuna vez...\" y adiós comida, hola\nvergüenza. ¡Pero descubrí algo!\nSi mastico chicle, se me pasa."
  },
  {
    "label": "108",
    "text": "El otro día que fui de compras\nencontré algo hiperfabu, ¡oferta de\nbrillantina! No pude contenerme\ny ahora tengo la casa que parece\nuna bola de discoteca... ¡Compra\ntotalmente recomendable!"
  },
  {
    "label": "109",
    "text": "¿Te has puesto a pensar en lo\ndifícil que es hacer un video\nmusical? O sea, megadifícil...\nLa coreo, los efectos especiales,\nla actuación, saber cantar...\nAgotador."
  },
  {
    "label": "110",
    "text": "Tengo una cajita en la que guardo\ntooodas las tarjetas que mandan\nmis fans y está por reventar,\nen plan no le cabe ni una más...\nJamás pensé preocuparme por\ncajitas, o sea, dificilísimo ser yo."
  },
  {
    "label": "201",
    "text": "Colorín colorado, {{string value=\"VillagerName\"}}"
  },
  {
    "label": "202",
    "text": "Relajadamente, {{string value=\"VillagerName\"}}"
  },
  {
    "label": "203",
    "text": "Anonadadamente, {{string value=\"VillagerName\"}}"
  },
  {
    "label": "204",
    "text": "Desesperadamente, {{string value=\"VillagerName\"}}"
  },
  {
    "label": "205",
    "text": "Tu amiguísima {{string value=\"VillagerName\"}}"
  },
  {
    "label": "206",
    "text": "Amistosamente, {{string value=\"VillagerName\"}}"
  },
  {
    "label": "207",
    "text": "¡Prueba y verás! {{string value=\"VillagerName\"}}"
  },
  {
    "label": "208",
    "text": "Radiantes saludos, {{string value=\"VillagerName\"}}"
  },
  {
    "label": "209",
    "text": "Adiós, {{string value=\"VillagerName\"}}"
  },
  {
    "label": "210",
    "text": "Saludos especiales, {{string value=\"VillagerName\"}}"
  }
]