﻿[
  {
    "label": "001",
    "attribute": "0x00000C0100000000",
    "text": "{{anim id=\"FaintSmile\" target=\"actor\" targetSpec=\"\"}}找我有什么事情吗？{{string value=\"6\"}}。{{setNpcTalkChoices chatOption=\"0\" cancelOption=\"0\"}}"
  },
  {
    "label": "002",
    "attribute": "0x00000C0100000000",
    "text": "{{anim id=\"Eh\" target=\"actor\" targetSpec=\"\"}}请问有什么事吗？{{delay20}}{{anim id=\"EmotEnd\" target=\"actor\" targetSpec=\"\"}}{{string value=\"Catchphrase\"}}。{{setNpcTalkChoices chatOption=\"0\" cancelOption=\"0\"}}"
  },
  {
    "label": "003",
    "attribute": "0x00000C0100000000",
    "text": "{{anim id=\"Greeting\" target=\"actor\" targetSpec=\"\"}}是有什么话想对我说吗？{{string value=\"6\"}}。{{setNpcTalkChoices chatOption=\"1\" cancelOption=\"0\"}}"
  },
  {
    "label": "004",
    "attribute": "0x00000C0100000000",
    "text": "{{anim id=\"FaintSmile\" target=\"actor\" targetSpec=\"\"}}请问怎么了吗？{{string value=\"6\"}}。{{setNpcTalkChoices chatOption=\"0\" cancelOption=\"0\"}}"
  },
  {
    "label": "005",
    "attribute": "0x00000C0100000000",
    "text": "{{anim id=\"Hello\" target=\"actor\" targetSpec=\"\"}}这次是什么事情呢？{{string value=\"6\"}}。{{setNpcTalkChoices chatOption=\"0\" cancelOption=\"0\"}}"
  }
]