﻿[
  {
    "label": "001",
    "attribute": "0x020000010000000A",
    "text": "{{anim id=\"Explain\" target=\"actor\" targetSpec=\"\"}}Ik was laatst een detective aan het\nlezen en vond toen een kaartje{{string value=\"...\"}}\n{{anim id=\"Serious\" target=\"actor\" targetSpec=\"\"}}tussen twee van de pagina's!"
  },
  {
    "label": "002",
    "attribute": "0x0000000000000000",
    "text": "{{fun_0002003C arg=\"0x0300070008000900\"}}"
  },
  {
    "label": "003",
    "attribute": "0x0400000000000000",
    "text": "{{anim id=\"Nodding\" target=\"actor\" targetSpec=\"\"}}Ik las het briefje en stond versteld.\nHet was de naam van een van de\nverdachten. {{anim id=\"Frantic\" target=\"actor\" targetSpec=\"\"}}Was hij de dader?"
  },
  {
    "label": "004",
    "attribute": "0x0000000000000000",
    "text": "{{fun_0000003C arg=\"0x05000600\"}}"
  },
  {
    "label": "005",
    "attribute": "0x0000000000000000",
    "text": "{{anim id=\"Silent\" target=\"actor\" targetSpec=\"\"}}Ik was zo boos. {{delay40}}{{anim id=\"Serious\" target=\"actor\" targetSpec=\"\"}}Dus schreef ik mijn\nnaam op een briefje{{delay20}}{{anim id=\"Grin\" target=\"actor\" targetSpec=\"\"}} en ruilde dat om\nvoor het oude briefje,{{delay20}} {{string value=\"Catchphrase\"}}!"
  },
  {
    "label": "006",
    "attribute": "0x0000000000000000",
    "text": "{{anim id=\"Eh\" target=\"actor\" targetSpec=\"\"}}Ik wist niet of het een grap was, {{delay20}}{{anim id=\"Serious\" target=\"actor\" targetSpec=\"\"}}dus\nlas ik verder. {{delay40}}{{anim id=\"SadSpiral\" target=\"actor\" targetSpec=\"\"}}Helaas bleek het briefje\nte kloppen,{{delay20}} {{string value=\"Catchphrase\"}}."
  },
  {
    "label": "007",
    "attribute": "0x0000000000000000",
    "text": "{{anim id=\"Nodding\" target=\"actor\" targetSpec=\"\"}}Net op die plek in het boek{{delay20}} stak een\npersonage een geheime boodschap\nin een boek, {{anim id=\"Pardon\" target=\"actor\" targetSpec=\"\"}}dus ik stond perplex!\nMaar toen ik het las, {{anim id=\"OhGeez\" target=\"actor\" targetSpec=\"\"}}bleek het briefje\neen boodschappenlijstje te zijn. {{delay40}}{{anim id=\"Serious\" target=\"actor\" targetSpec=\"\"}}Wat\neen afknapper,{{delay20}} {{string value=\"Catchphrase\"}}."
  },
  {
    "label": "008",
    "attribute": "0x0000000000000000",
    "text": "{{anim id=\"Nodding\" target=\"actor\" targetSpec=\"\"}}Ik las het briefje. {{delay20}}Er stond: {{anim id=\"Serious\" target=\"actor\" targetSpec=\"\"}}\"Een mug\nkan een ballon niet lekprikken.\"{{delay40}}\n{{anim id=\"TakenAback\" target=\"actor\" targetSpec=\"\"}}Zo vreemd,{{delay20}} {{string value=\"Catchphrase\"}}.\n{{anim id=\"Confused\" target=\"actor\" targetSpec=\"\"}}Ik werd zo afgeleid door deze\nwoorden, {{delay20}}dat ik me niet meer op het\nboek kon concentreren."
  },
  {
    "label": "009",
    "attribute": "0x0000000000000000",
    "text": "{{anim id=\"Pardon\" target=\"actor\" targetSpec=\"\"}}Er stond op:{{delay20}} \"Pinguïns bevriezen\nniet.\"{{delay frames=\"40\"}} {{anim id=\"Aha\" target=\"actor\" targetSpec=\"\"}}Klopt dat?{{delay40}} Dat zou ik toch wel\nmoeten weten,{{delay20}} {{string value=\"Catchphrase\"}}{{delay8}}{{string value=\"...\"}}{{pageBreak}}{{anim id=\"Explain\" target=\"actor\" targetSpec=\"\"}}Omdat {{gender8 m=\"hij\" f=\"ze\" n=\"\"}} toevallig naast me zat,{{delay20}}\nvroeg ik het aan {{string value=\"11\"}}.{{pageBreak}}{{anim id=\"EmotEnd\" target=\"actor\" targetSpec=\"\"}}We wisten het allebei niet zeker,\n{{delay20}}{{anim id=\"OhGeez\" target=\"actor\" targetSpec=\"\"}}maar besloten{{delay20}} om het een raadsel te\nlaten."
  },
  {
    "label": "010",
    "attribute": "0x0B0000010000000A",
    "text": "{{anim id=\"FaintSmile\" target=\"actor\" targetSpec=\"\"}}Ik bak graag taart, vooral taart\nmet {{string value=\"7\"}}."
  },
  {
    "label": "011",
    "attribute": "0x0000000000000000",
    "text": "{{fun_0001003C arg=\"0x0C000D000E00\"}}"
  },
  {
    "label": "012",
    "attribute": "0x0000000000000000",
    "text": "{{anim id=\"Smiling\" target=\"actor\" targetSpec=\"\"}}Dat is zo lekker met een kopje thee,{{delay20}}\nmaar {{anim id=\"Hesitate\" target=\"actor\" targetSpec=\"\"}}ik eet er altijd veel te veel van,\n{{delay20}}{{string value=\"Catchphrase\"}}.{{pageBreak}}{{anim id=\"FaintSmile\" target=\"actor\" targetSpec=\"\"}}En omdat ik de bakker ben van de\ntaart die ik niet kan weerstaan, {{delay40}}{{anim id=\"Worried\" target=\"actor\" targetSpec=\"\"}}lijkt\nhet erop dat ik een probleem heb{{delay8}}{{string value=\"...\"}}"
  },
  {
    "label": "013",
    "attribute": "0x0000000000000000",
    "text": "{{anim id=\"ShyBoy\" target=\"actor\" targetSpec=\"\"}}Maar als ik telkens dezelfde taart\nmaak, word ik die misschien wel\nbeu{{delay8}}{{string value=\"...\"}}{{pageBreak}}{{anim id=\"EmotEnd\" target=\"actor\" targetSpec=\"\"}}Dus denk ik dat ik een gelukstaart\nga bakken{{delay20}} {{anim id=\"Nodding\" target=\"actor\" targetSpec=\"\"}}met klavertjesvier erin.{{pageBreak}}{{anim id=\"Smiling\" target=\"actor\" targetSpec=\"\"}}{{capitalizeNextLetter}}{{string value=\"NickName\"}}, als dat lekker smaakt, {{delay20}}mag je er ook een stukje van proberen,{{delay20}} {{string value=\"Catchphrase\"}}!"
  },
  {
    "label": "014",
    "attribute": "0x0000000000000000",
    "text": "{{anim id=\"FaintSmile\" target=\"actor\" targetSpec=\"\"}}Ik ben dol op {{string value=\"7\"}},{{delay20}} {{string value=\"Catchphrase\"}}.{{pageBreak}}Ik ben altijd op zoek naar recepten waarin ik {{anim id=\"Hello\" target=\"actor\" targetSpec=\"\"}}{{string value=\"7\"}} kan gebruiken!{{pageBreak}}{{anim id=\"Nodding\" target=\"actor\" targetSpec=\"\"}}De volgende keer dat ik een nieuw\nrecept uitprobeer, {{delay20}}hoop ik dat jij het\nwilt testen!"
  },
  {
    "label": "015",
    "attribute": "0x000000010000000A",
    "text": "{{fun_0001003C arg=\"0x100011001200\"}}"
  },
  {
    "label": "016",
    "attribute": "0x0000000000000000",
    "text": "{{anim id=\"Greeting\" target=\"actor\" targetSpec=\"\"}}Ik wil graag goed worden in breien,{{delay20}}\n{{string value=\"Catchphrase\"}}.{{pageBreak}}{{anim id=\"Explain\" target=\"actor\" targetSpec=\"\"}}In het begin wist ik niet wat ik deed,\nmaar hoe meer ik het doe, {{anim id=\"FaintSmile\" target=\"actor\" targetSpec=\"\"}}hoe\nontspannender ik het vind{{delay8}}{{string value=\"...\"}}\n{{anim id=\"Nodding\" target=\"actor\" targetSpec=\"\"}}Deze hobby past bij me{{string value=\"...\"}}{{delay20}} {{anim id=\"Smiling\" target=\"actor\" targetSpec=\"\"}}Breien is\nhet maken van zachte, comfortabele\ndingen. {{delay20}}Wie houdt daar niet van?"
  },
  {
    "label": "017",
    "attribute": "0x0000000000000000",
    "text": "{{anim id=\"FaintSmile\" target=\"actor\" targetSpec=\"\"}}De laatste tijd probeer ik beter te\nworden in breien,{{delay20}} {{string value=\"Catchphrase\"}}.{{pageBreak}}{{anim id=\"Hesitate\" target=\"actor\" targetSpec=\"\"}}Eerst maakte ik een sjaal voor een\nvan mijn knuffels, maar hij is te lang.{{delay20}}\n{{anim id=\"OhGeez\" target=\"actor\" targetSpec=\"\"}}Dadelijk struikelt ze er nog over{{delay8}}{{string value=\"...\"}}"
  },
  {
    "label": "018",
    "attribute": "0x0000000000000000",
    "text": "{{anim id=\"FaintSmile\" target=\"actor\" targetSpec=\"\"}}De laatste tijd brei ik graag. {{delay20}}{{anim id=\"Explain\" target=\"actor\" targetSpec=\"\"}}Zo heb\nik een onderzetter gemaakt{{delay20}} zodat\nmijn tafel schoon blijft,{{delay20}} {{string value=\"Catchphrase\"}}!\n{{anim id=\"ShyBoy\" target=\"actor\" targetSpec=\"\"}}Dat motiveerde me om meer te\nbreien, maar ik was wat fanatiek. Nu\nheb ik meer onderzetters dan glazen!"
  },
  {
    "label": "019",
    "attribute": "0x650000010000000A",
    "text": "Ik schrijf mijn plannen en afspraken\n{{anim id=\"Nodding\" target=\"actor\" targetSpec=\"\"}}zoveel mogelijk op.{{anim id=\"FaintSmile\" target=\"actor\" targetSpec=\"\"}}"
  },
  {
    "label": "020",
    "attribute": "0x0000000000000000",
    "text": "{{anim id=\"FaintSmile\" target=\"actor\" targetSpec=\"\"}}Ik weet dat tegenwoordig alles\ndigitaal is, {{delay20}}maar{{anim id=\"Nodding\" target=\"actor\" targetSpec=\"\"}} analoog heeft ook\nnog zijn charme,{{delay20}} {{string value=\"Catchphrase\"}}.\n{{anim id=\"HappyDance\" target=\"actor\" targetSpec=\"\"}}Zodra ik de tijd en datum van een\nafspraak opschrijf in mijn agenda,{{delay20}}\nkrijg ik er meteen zin in!\n{{anim id=\"Smiling\" target=\"actor\" targetSpec=\"\"}}Ik vind het ook leuk om in mijn oude\nagenda's te kijken{{delay8}}{{string value=\"...\"}} Ze staan vol\n{{anim id=\"Love\" target=\"actor\" targetSpec=\"\"}}dierbare herinneringen!"
  },
  {
    "label": "021",
    "attribute": "0x0000000000000000",
    "text": "{{anim id=\"Eh\" target=\"actor\" targetSpec=\"\"}}Ik las laatst dat bijna niemand nog\neen papieren agenda gebruikt voor\nzijn of haar werk.{{delay20}} {{anim id=\"Nodding\" target=\"actor\" targetSpec=\"\"}}Dat begrijp ik wel.{{pageBreak}}{{anim id=\"Explain\" target=\"actor\" targetSpec=\"\"}}Sommige agenda's zijn ook best\ngroot en onhandig. {{delay8}}Maar zelf zoek ik\naltijd tot ik een klein formaat vind.{{pageBreak}}{{anim id=\"FaintSmile\" target=\"actor\" targetSpec=\"\"}}Toch zou het handigste zijn {{delay8}}{{anim id=\"Oops\" target=\"actor\" targetSpec=\"\"}}als ik al\nmijn afspraken gewoon zelf kon\nonthouden, {{string value=\"Catchphrase\"}}!"
  },
  {
    "label": "022",
    "attribute": "0x660000010000000A",
    "text": "{{anim id=\"Smiling\" target=\"actor\" targetSpec=\"\"}}Ik ben dol op pennen. {{delay8}}Als ik ze in de\nwinkel op de plank zie liggen, {{anim id=\"Love\" target=\"actor\" targetSpec=\"\"}}krijg ik\nmeteen zin om te schrijven{{string value=\"...\"}}"
  },
  {
    "label": "023",
    "attribute": "0x0000000000000000",
    "text": "{{anim id=\"FaintSmile\" target=\"actor\" targetSpec=\"\"}}Ik verzamel vulpennen en heb er\nenorm veel!{{pageBreak}}{{anim id=\"HappyFlower\" target=\"actor\" targetSpec=\"\"}}Ze glijden zo soepel over het papier.{{delay20}}\nEn je ziet de inkt zo mooi opdrogen{{string value=\"...\"}}\n{{anim id=\"Hello\" target=\"actor\" targetSpec=\"\"}}Geweldig, {{string value=\"Catchphrase\"}}!"
  },
  {
    "label": "024",
    "attribute": "0x0000000000000000",
    "text": "{{anim id=\"Explain\" target=\"actor\" targetSpec=\"\"}}Er zijn ook heel wat soorten pennen,{{delay20}}\ndus {{anim id=\"FaintSmile\" target=\"actor\" targetSpec=\"\"}}is er voor iedereen wel een pen\nte vinden{{delay8}}{{string value=\"...\"}}{{pageBreak}}{{anim id=\"Nodding\" target=\"actor\" targetSpec=\"\"}}Zelf{{delay20}} ben ik dol op de vulpen.{{anim id=\"FaintSmile\" target=\"actor\" targetSpec=\"\"}} Als ik\ndie gebruik,{{delay20}} schrijf ik elk woord extra\nzorgvuldig.{{pageBreak}}{{anim id=\"AbsentMindedness\" target=\"actor\" targetSpec=\"\"}}De inktstreken op papier maken het schrijven extra leuk{{delay8}}{{string value=\"...\"}} {{anim id=\"Smiling\" target=\"actor\" targetSpec=\"\"}}{{capitalizeNextLetter}}{{string value=\"Catchphrase\"}}, het werkt simpelweg inspirerend!"
  },
  {
    "label": "025",
    "attribute": "0x0000000000000000",
    "text": "{{anim id=\"Explain\" target=\"actor\" targetSpec=\"\"}}Je gelooft het misschien niet, {{delay20}}maar\npennen verzamelen {{anim id=\"OhGeez\" target=\"actor\" targetSpec=\"\"}}kan een dure\nhobby zijn. {{capitalizeNextLetter}}{{string value=\"Catchphrase\"}}!{{pageBreak}}{{anim id=\"Restless\" target=\"actor\" targetSpec=\"\"}}Een tijdje geleden heb ik een\nprachtige vulpen gekocht, {{delay20}}maar die kostte wel{{delay8}} {{anim id=\"Pardon\" target=\"actor\" targetSpec=\"\"}}{{color id=\"1\"}}50.000 klingels{{color id=\"65535\"}}{{string value=\"...\"}}"
  },
  {
    "label": "026",
    "attribute": "0x000000010000000A",
    "text": "{{fun_0014003C arg=\"\"}}"
  },
  {
    "label": "026_01",
    "attribute": "0x0000000000000000",
    "text": "{{anim id=\"Restless\" target=\"actor\" targetSpec=\"\"}}Sorry,{{delay8}} {{string value=\"Catchphrase\"}},{{delay8}} maar nu wil ik weten of het verhaal waar is{{string value=\"...\"}}{{pageBreak}}{{anim id=\"Frantic\" target=\"actor\" targetSpec=\"\"}}Was je echt ooit een wereldberoemde superster van {{fun_00010032 arg=\"\"}}{{fun_00170032 arg=\"0x03CD\"}}{{randomMusic}},{{delay8}} met de ene hit na de andere?{{pageBreak}}{{anim id=\"Pardon\" target=\"actor\" targetSpec=\"\"}}Ben je hiernaartoe gevlucht{{delay8}} omdat\nde roem je te veel werd?{{pageBreak}}{{anim id=\"Negative\" target=\"actor\" targetSpec=\"\"}}Nee, {{delay8}}wacht, {{delay8}}je hoeft je geheim niet\nprijs te geven.{{delay20}} {{anim id=\"Serious\" target=\"actor\" targetSpec=\"\"}}Het gaat me ook\neigenlijk helemaal niets aan.{{delay20}} Sorry{{string value=\"...\"}}"
  },
  {
    "label": "026_02",
    "attribute": "0x0000000000000000",
    "text": "Sinds ik je heb ontmoet,{{delay20}} {{anim id=\"Nodding\" target=\"actor\" targetSpec=\"\"}}heb ik het\nidee {{delay8}}dat ik je ergens van ken{{string value=\"...\"}}{{pageBreak}}{{anim id=\"IdeaBulb\" target=\"actor\" targetSpec=\"\"}}{{capitalizeNextLetter}}{{string value=\"Catchphrase\"}},{{delay8}} nu weet ik het!{{pageBreak}}Je stond ooit{{delay8}} op de cover van de\nHandige Handen{{delay20}} bij een stuk {{delay8}}over de\nkunst van{{delay8}} {{randomHobby}}!{{pageBreak}}{{anim id=\"Pardon\" target=\"actor\" targetSpec=\"\"}}Heb ik gelijk{{delay8}} of niet?{{i10_4}} {{anim id=\"Shocked\" target=\"actor\" targetSpec=\"\"}}Niet?{{delay20}} {{anim id=\"EmotEnd\" target=\"actor\" targetSpec=\"\"}}O nee{{string value=\"...\"}}{{pageBreak}}Eh,{{delay20}} {{anim id=\"Blushing\" target=\"actor\" targetSpec=\"\"}}zullen we net doen alsof{{delay8}} ik {{anim id=\"Hello\" target=\"actor\" targetSpec=\"\"}}\nnooit gevraagd heb?"
  },
  {
    "label": "027",
    "attribute": "0x1C0000010000000A",
    "text": "{{anim id=\"Shocked\" target=\"actor\" targetSpec=\"\"}}O, dat herinnert me eraan!{{delay20}} Ik had\nzo'n gekke droom gisternacht{{string value=\"...\"}}{{pageBreak}}{{anim id=\"BigSmile\" target=\"actor\" targetSpec=\"\"}}{{string value=\"...\"}}en jij kwam er ook in voor, {{string value=\"NickName\"}}!"
  },
  {
    "label": "028",
    "attribute": "0x0000000000000000",
    "text": "{{fun_0001003C arg=\"0x1D001E001F00\"}}"
  },
  {
    "label": "029",
    "attribute": "0x0000000000000000",
    "text": "{{anim id=\"AbsentMindedness\" target=\"actor\" targetSpec=\"\"}}Wij deden allebei mee met een toernooi. {{delay20}}Het ging geloof ik om {{randomSports}}.{{pageBreak}}{{anim id=\"Eh\" target=\"actor\" targetSpec=\"\"}}Vraag me niet waarom,{{delay8}} maar ineens had je {{wordArticle}}{{randomObj}} in je hand!{{pageBreak}}{{anim id=\"HappyFlower\" target=\"actor\" targetSpec=\"\"}}Vervolgens heb ik drie miljoen\nklingels op de knollenmarkt verdiend.{{delay40}}\n{{anim id=\"Nodding\" target=\"actor\" targetSpec=\"\"}}Wat was dat een vreemde droom."
  },
  {
    "label": "030",
    "attribute": "0x0000000000000000",
    "text": "{{anim id=\"Explain\" target=\"actor\" targetSpec=\"\"}}We bezochten een populair festival voor {{randomMusic}}{{delay20}} en mochten op het podium komen van een van de bands.{{pageBreak}}{{anim id=\"Blushing\" target=\"actor\" targetSpec=\"\"}}Zelfs ík keek ervan op toen ik opeens begon met {{randomHobby}} voor het publiek.{{pageBreak}}{{anim id=\"Blushing\" target=\"actor\" targetSpec=\"\"}}In mijn dromen ben ik zo talentvol."
  },
  {
    "label": "031",
    "attribute": "0x0000000000000000",
    "text": "{{anim id=\"Explain\" target=\"actor\" targetSpec=\"\"}}Jij en ik wilden een treinreis maken.{{delay20}}\nOf{{string value=\"...\"}}{{anim id=\"QuestionMark\" target=\"actor\" targetSpec=\"\"}}{{delay20}} was het een bootreis?{{pageBreak}}{{anim id=\"Shocked\" target=\"actor\" targetSpec=\"\"}}Ik weet het echt niet meer!{{delay40}} {{anim id=\"AbsentMindedness\" target=\"actor\" targetSpec=\"\"}}Wat gek\ndat je een droom zo snel kunt\nvergeten."
  },
  {
    "label": "032",
    "attribute": "0x210000010000000A",
    "text": "{{anim id=\"Greeting\" target=\"actor\" targetSpec=\"\"}}Vergeet jij ook weleens om blij te zijn\nmet iets waar je eigenlijk heel blij\nmee bent als je in de spiegel kijkt?"
  },
  {
    "label": "033",
    "attribute": "0x0000000000000000",
    "text": "{{fun_0020003C arg=\"0x44007300680070003E00330034002C006300620072003E00330035002C006800720073003E00330035002C006B0061006C003E00330035002C006500740063003E0033003600\"}}"
  },
  {
    "label": "034",
    "attribute": "0x0000000000000000",
    "text": "{{anim id=\"Hello\" target=\"actor\" targetSpec=\"\"}}Dat heb ik soms met mijn wolligheid.{{pageBreak}}{{anim id=\"Thinking\" target=\"actor\" targetSpec=\"\"}}Iemand dacht eens dat mijn wol mij\nbelemmert in de zomer en dat ik\ndaarom liever binnenblijf.{{pageBreak}}{{anim id=\"EmotEnd\" target=\"actor\" targetSpec=\"\"}}Maar jij en ik weten wel beter.{{delay8}}{{anim id=\"Smiling\" target=\"actor\" targetSpec=\"\"}} Ik\nben nu eenmaal graag binnen, {{string value=\"6\"}}!"
  },
  {
    "label": "035",
    "attribute": "0x0000000000000000",
    "text": "{{anim id=\"Hello\" target=\"actor\" targetSpec=\"\"}}Dat heb ik met mijn vacht.{{delay8}} Echt waar.{{pageBreak}}{{anim id=\"AbsentMindedness\" target=\"actor\" targetSpec=\"\"}}Iedere dag neem ik de tijd om er\ngoed voor te zorgen.{{pageBreak}}{{anim id=\"EmotEnd\" target=\"actor\" targetSpec=\"\"}}Mijn vacht vraagt veel aandacht,{{delay8}}\n{{anim id=\"Hello\" target=\"actor\" targetSpec=\"\"}}maar ik zou hem niet kwijt willen, {{string value=\"6\"}}!"
  },
  {
    "label": "036",
    "attribute": "0x0000000000000000",
    "text": "{{fun_0020003C arg=\"0x440063006F0077003E00330037002C006400650072003E00330037002C0067006F0061003E00330037002C007000690067003E00330037002C006500740063003E0033003800\"}}"
  },
  {
    "label": "037",
    "attribute": "0x0000000000000000",
    "text": "{{anim id=\"Blushing\" target=\"actor\" targetSpec=\"\"}}Dat heb ik met mijn hoeven.{{delay20}} Ja, heus.{{pageBreak}}{{anim id=\"OhGeez\" target=\"actor\" targetSpec=\"\"}}Het is wat gênant om dit te zeggen{{string value=\"...\"}}\nmaar waarom zou ik het laten?{{delay20}} {{anim id=\"SmugFace\" target=\"actor\" targetSpec=\"\"}}Mijn\nhoeven zijn prachtig, {{string value=\"6\"}}!"
  },
  {
    "label": "038",
    "attribute": "0x0000000000000000",
    "text": "{{fun_0020003C arg=\"0x440064006F0067003E00330039002C0065006C0070003E00330039002C006D00750073003E00330039002C007200620074003E00330039002C006500740063003E0034003000\"}}"
  },
  {
    "label": "039",
    "attribute": "0x0000000000000000",
    "text": "{{anim id=\"Blushing\" target=\"actor\" targetSpec=\"\"}}Ik zal het maar gewoon zeggen{{string value=\"...\"}} Ik\nben dol op mijn oren, {{string value=\"6\"}}!{{pageBreak}}{{anim id=\"FaintSmile\" target=\"actor\" targetSpec=\"\"}}Voor mij is oorverzorging{{delay8}} net zo\nbelangrijk als haarverzorging voor\nanderen.{{delay8}} Best interessant, hè?"
  },
  {
    "label": "040",
    "attribute": "0x0000000000000000",
    "text": "{{fun_0020003C arg=\"0x44006300610074003E00340031002C006D006E006B003E00340032002C007300710075003E00340032002C006B00670072003E00340033002C006500740063003E0034003400\"}}"
  },
  {
    "label": "041",
    "attribute": "0x0000000000000000",
    "text": "{{anim id=\"Dance\" target=\"actor\" targetSpec=\"\"}}Laat ik het maar eerlijk zeggen, voor\nmij is dat mijn staart. Zo gaat dat als\nje er eentje hebt.{{pageBreak}}{{anim id=\"Worried\" target=\"actor\" targetSpec=\"\"}}Maar ik ben altijd op mijn hoede voor\ndeuren.{{delay20}} {{anim id=\"Nodding\" target=\"actor\" targetSpec=\"\"}}Voorkomen is beter dan\ngenezen, {{string value=\"6\"}}."
  },
  {
    "label": "042",
    "attribute": "0x0000000000000000",
    "text": "{{anim id=\"Dance\" target=\"actor\" targetSpec=\"\"}}Voor mij is dat mijn staart. De manier\nwaarop hij krult!{{pageBreak}}{{anim id=\"Blushing\" target=\"actor\" targetSpec=\"\"}}Oei, ik hoop dat ik er niet te trots op\nlijk. Maar wie een krul heeft, mag er\nbest blij mee zijn, {{string value=\"6\"}}."
  },
  {
    "label": "043",
    "attribute": "0x0000000000000000",
    "text": "{{anim id=\"Dance\" target=\"actor\" targetSpec=\"\"}}Zoals mijn staart.{{delay8}} Ik bedoel, kijk maar\nhoe fijn hij me in balans houdt!{{pageBreak}}{{anim id=\"Hello\" target=\"actor\" targetSpec=\"\"}}Dat kunnen we allemaal wel\ngebruiken, {{string value=\"6\"}}."
  },
  {
    "label": "044",
    "attribute": "0x0000000000000000",
    "text": "Als ik in de spiegel kijk{{string value=\"...\"}} {{anim id=\"ShyBoy\" target=\"actor\" targetSpec=\"\"}}ben ik blij\nmet mijn hele zelf.{{pageBreak}}{{anim id=\"Hello\" target=\"actor\" targetSpec=\"\"}}En elke dag zie ik mezelf een beetje\nmeer mezelf worden, {{string value=\"6\"}}."
  },
  {
    "label": "045",
    "attribute": "0x2E0000010000000A",
    "text": "{{anim id=\"FaintSmile\" target=\"actor\" targetSpec=\"\"}}Ik vind het fijn om ergens naartoe te\nwerken. {{delay20}}Ik wil nu bijvoorbeeld leren\nhoe ik sneller kan zijn bij hardlopen."
  },
  {
    "label": "046",
    "attribute": "0x0000000000000000",
    "text": "{{fun_0014003C arg=\"\"}}"
  },
  {
    "label": "046_01",
    "attribute": "0x0000000000000000",
    "text": "Wat ik zou kunnen proberen, is een grote voorraad {{randomSweets}} bij de finishlijn zetten.{{pageBreak}}{{anim id=\"Confused\" target=\"actor\" targetSpec=\"\"}}Best een leuk idee, maar ik denk dat {{string value=\"11\"}} daar meer aan zou hebben dan ik.{{pageBreak}}{{anim id=\"Sighing\" target=\"actor\" targetSpec=\"\"}}Ik weet ook niet of ik zoiets zou\nwillen eten na het rennen. {{delay20}}Tja,{{delay8}} laat\nhet maar weten jij iets beters weet."
  },
  {
    "label": "046_02",
    "attribute": "0x0000000000000000",
    "text": "{{anim id=\"FaintSmile\" target=\"actor\" targetSpec=\"\"}}Als experiment heb ik gevraagd of {{string value=\"11\"}} me voort wilde duwen.{{pageBreak}}Maar die is veel te lief om hard te\nduwen, dus we stapten uiteindelijk\nniet al te stevig door.{{pageBreak}}{{string value=\"11\"}} is ook nog een eindje meegewandeld,{{anim id=\"Laughing\" target=\"actor\" targetSpec=\"\"}} maar die ging al snel te hard voor ons.{{pageBreak}}{{anim id=\"Sighing\" target=\"actor\" targetSpec=\"\"}}Tja, als jij nog ideeën hebt, dan hoor\nik het graag, {{string value=\"NickName\"}}."
  },
  {
    "label": "046_03",
    "attribute": "0x0000000000000000",
    "text": "{{anim id=\"Pardon\" target=\"actor\" targetSpec=\"\"}}Ik had het idee om mijn rondetijden\naan iedereen voor te lezen wanneer\nik mijn doeltijden niet haal.{{pageBreak}}Het is{{string value=\"...\"}}{{delay20}} een idee. {{delay8}}{{anim id=\"Restless\" target=\"actor\" targetSpec=\"\"}}Maar ik zou me,\neerlijk gezegd, te veel schamen om\ndat lang vol te houden.{{pageBreak}}{{anim id=\"FaintSmile\" target=\"actor\" targetSpec=\"\"}}Dus ik ga op zoek naar een ander\nplan!{{delay20}} Mocht jij nog iets weten, dan\nhoor ik het graag, {{string value=\"Catchphrase\"}}."
  },
  {
    "label": "101",
    "attribute": "0x0000000000000000",
    "text": "{{fun_0000003C arg=\"0x14001500\"}}"
  },
  {
    "label": "102",
    "attribute": "0x0000000000000000",
    "text": "{{fun_0001003C arg=\"0x170018001900\"}}"
  }
]