﻿[
  {
    "label": "001",
    "attribute": "0x0000000000000000",
    "text": "{{anim id=\"Thinking\" target=\"actor\" targetSpec=\"\"}}I don't know{{delay8}}{{string value=\"...\"}} I mean,{{delay20}} {{anim id=\"Nodding\" target=\"subNpc\" targetSpec=\"\"}}I guess that\ncould work.{{delay40}} {{anim id=\"Sighing\" target=\"actor\" targetSpec=\"\"}}It's just,{{delay20}} you know{{delay8}}{{string value=\"...\"}}{{pageBreak}}{{anim id=\"Explain\" target=\"mainNpc\" targetSpec=\"\"}}I wanted something extra special,{{delay20}}\nand that wouldn't really feel—{{delay20}}\n{{i20_3 arg=\"6\"}}{{anim id=\"Hello\" target=\"mainNpc\" targetSpec=\"\"}}Hey there,{{delay20}} {{string value=\"NickName\"}}!{{i20_3 arg=\"8\"}}{{anim id=\"Nodding\" target=\"player\" targetSpec=\"\"}}\n{{anim id=\"Smiling\" target=\"mainNpc\" targetSpec=\"\"}}We're just trying to come up with {{anim id=\"FaintSmile\" target=\"subNpc\" targetSpec=\"\"}}a\ngood gift idea{{delay20}} for {{string value=\"11\"}}."
  },
  {
    "label": "002",
    "attribute": "0x0000000000000000",
    "text": "{{anim id=\"Hesitate\" target=\"actor\" targetSpec=\"\"}}So far,{{delay20}} it's been kind of a struggle\nfor us,{{delay20}} {{string value=\"Catchphrase\"}}.{{i20_2 arg=\"4\"}}{{pageBreak}}{{anim id=\"Restless\" target=\"subNpc\" targetSpec=\"\"}}Something store-bought{{delay20}} wouldn't\nhave that personal touch we want{{delay8}}{{string value=\"...\"}}{{pageBreak}}{{i20_3 arg=\"7\"}}{{anim id=\"IdeaBulb\" target=\"subNpc\" targetSpec=\"\"}}Wait, I know!{{i20_2 arg=\"5\"}}{{delay frames=\"40\"}} We should ask for a gift\nsuggestion from {{string value=\"NickName\"}}!"
  },
  {
    "label": "003",
    "attribute": "0x0000100000000000",
    "text": "{{anim id=\"FaintSmile\" target=\"mainNpc\" targetSpec=\"\"}}That's a great idea,{{delay20}} {{string value=\"Catchphrase\"}}!{{i20_2 arg=\"3\"}}{{pageBreak}}{{i20_3 arg=\"0\"}}{{anim id=\"QuestionMark\" target=\"mainNpc\" targetSpec=\"\"}}What kind of surprise present would\nyou{{anim id=\"FaintSmile\" target=\"subNpc\" targetSpec=\"\"}} like to get,{{delay20}} {{string value=\"NickName\"}}?"
  },
  {
    "label": "003_a",
    "attribute": "0x0000000000000000",
    "text": "A DIY {{randomObj}}."
  },
  {
    "label": "003_b",
    "attribute": "0x0000000000000000",
    "text": "{{capitalizeNextLetter}}{{randomSweets}}!"
  },
  {
    "label": "003_c",
    "attribute": "0x0000000000000000",
    "text": "{{capitalizeNextLetter}}{{randomDrink}} tower?"
  },
  {
    "label": "003_d",
    "attribute": "0x0000000000000000",
    "text": "A look-alike plush toy."
  },
  {
    "label": "003_e",
    "attribute": "0x0000000000000000",
    "text": "A 100-flower bouquet."
  },
  {
    "label": "007",
    "attribute": "0x0000000000000000",
    "text": "{{anim id=\"Nodding\" target=\"mainNpc\" targetSpec=\"\"}}Ooh, yeah!{{delay20}} I love it when someone\ngives me {{i20_2 arg=\"7\"}}{{anim id=\"FaintSmile\" target=\"subNpc\" targetSpec=\"\"}}something{{delay20}} I haven't been\nable to track down for myself!{{anim id=\"Nodding\" target=\"player\" targetSpec=\"\"}}{{pageBreak}}{{i20_3 arg=\"5\"}}{{i20_3 arg=\"7\"}}{{anim id=\"Worried\" target=\"mainNpc\" targetSpec=\"\"}}But{{delay20}} how do we figure out\nwhat {{string value=\"11\"}} is having\ntrouble finding?"
  },
  {
    "label": "008",
    "attribute": "0x0000000000000000",
    "text": "{{anim id=\"Thinking\" target=\"subNpc\" targetSpec=\"\"}}Good point{{delay8}}{{string value=\"...\"}} {{i20_2 arg=\"4\"}}{{anim id=\"IdeaBulb\" target=\"subNpc\" targetSpec=\"\"}}What if we brought up\na thing we can't find{{delay20}} while we're\nshopping with {{string value=\"11\"}}?"
  },
  {
    "label": "009",
    "attribute": "0x0000000000000000",
    "text": "{{anim id=\"Nodding\" target=\"mainNpc\" targetSpec=\"\"}}Great idea!{{delay frames=\"40\"}} {{i20_2 arg=\"3\"}}Maybe sharing our most\ndesired,{{delay20}} hard-to-find item{{delay20}} {{anim id=\"HappyFlower\" target=\"mainNpc\" targetSpec=\"\"}}will get\n{{string value=\"11\"}} to share {{gender3 m=\"his\" f=\"hers\"}}!\n{{anim id=\"Smiling\" target=\"subNpc\" targetSpec=\"\"}}It'll be like an undercover mission\nfrom a spy novel,{{delay20}} {{string value=\"Catchphrase\"}}!"
  },
  {
    "label": "010",
    "attribute": "0x0000000000000000",
    "text": "{{anim id=\"Aha\" target=\"mainNpc\" targetSpec=\"\"}}Oh!{{delay frames=\"40\"}} Why didn't we think of that?{{i20_2 arg=\"7\"}}{{anim id=\"Smiling\" target=\"subNpc\" targetSpec=\"\"}}{{delay40}}\n{{anim id=\"HappyDance\" target=\"mainNpc\" targetSpec=\"\"}}We both love making sweet treats!{{anim id=\"Nodding\" target=\"player\" targetSpec=\"\"}}{{pageBreak}}{{i20_3 arg=\"5\"}}{{i20_3 arg=\"7\"}}{{anim id=\"Smiling\" target=\"mainNpc\" targetSpec=\"\"}}What could be a nicer gift{{delay20}} than\na treat {{anim id=\"Love\" target=\"mainNpc\" targetSpec=\"\"}}made in the kitchen with\nlove and care,{{delay20}} {{string value=\"Catchphrase\"}}?"
  },
  {
    "label": "011",
    "attribute": "0x0000000000000000",
    "text": "{{anim id=\"FaintSmile\" target=\"subNpc\" targetSpec=\"\"}}It's a great excuse {{i20_2 arg=\"4\"}}to cook together!{{delay40}}\n{{anim id=\"IdeaBulb\" target=\"subNpc\" targetSpec=\"\"}}Let's get {{anim id=\"FaintSmile\" target=\"subNpc\" targetSpec=\"\"}}together at my place{{delay8}}{{string value=\"...\"}}{{pageBreak}}{{anim id=\"Blushing\" target=\"subNpc\" targetSpec=\"\"}}I just bought this amazing mixer{{delay20}}\n{{anim id=\"FaintSmile\" target=\"mainNpc\" targetSpec=\"\"}}and I'm dying to try out all its\nspecial features,{{anim id=\"Eh\" target=\"mainNpc\" targetSpec=\"\"}}{{delay20}} {{string value=\"Catchphrase\"}}!"
  },
  {
    "label": "012",
    "attribute": "0x0000000000000000",
    "text": "{{anim id=\"HappyFlower\" target=\"mainNpc\" targetSpec=\"\"}}Sounds great!{{delay frames=\"40\"}} {{i20_2 arg=\"3\"}}I just bought myself\none of those fancy new dessert\ndecorators {{anim id=\"Aha\" target=\"subNpc\" targetSpec=\"\"}}too,{{delay20}} {{string value=\"Catchphrase\"}}!{{pageBreak}}{{anim id=\"Grin\" target=\"mainNpc\" targetSpec=\"\"}}It can hold over a quart of icing,{{delay20}}\n{{anim id=\"FaintSmile\" target=\"subNpc\" targetSpec=\"\"}}and the dispenser came with a wide\nassortment{{delay20}} of different tip styles!{{anim id=\"FaintSmile\" target=\"mainNpc\" targetSpec=\"\"}}\nI can't wait to try it out,{{delay20}} so {{anim id=\"Nodding\" target=\"subNpc\" targetSpec=\"\"}}I'll bring\nit with me{{delay20}} to your place!"
  },
  {
    "label": "013",
    "attribute": "0x0000000000000000",
    "text": "It would be so elegant{{delay20}} {{i20_2 arg=\"7\"}}{{anim id=\"AbsentMindedness\" target=\"subNpc\" targetSpec=\"\"}}to pour\na waterfall of refreshment{{delay20}} down\na tall tower of glasses.{{pageBreak}}{{i20_3 arg=\"5\"}}{{i20_3 arg=\"7\"}}{{anim id=\"EmotEnd\" target=\"mainNpc\" targetSpec=\"\"}}{{anim id=\"Thinking\" target=\"mainNpc\" targetSpec=\"\"}}Hmmm,{{delay20}} I'm not sure I have enough\nglassware at home to build a tower{{delay8}}{{string value=\"...\"}}"
  },
  {
    "label": "014",
    "attribute": "0x0000000000000000",
    "text": "{{anim id=\"Assent\" target=\"subNpc\" targetSpec=\"\"}}I'll bring over{{i20_2 arg=\"4\"}} every last glass I own!{{pageBreak}}{{anim id=\"QuestionMark\" target=\"subNpc\" targetSpec=\"\"}}Although I think it should be you{{anim id=\"Eh\" target=\"mainNpc\" targetSpec=\"\"}}{{delay20}}\nwho pours the {{randomDrink}} down\nthe tower,{{delay20}} {{selection value=\"SelectedVillager\"}}!"
  },
  {
    "label": "015",
    "attribute": "0x0000000000000000",
    "text": "{{anim id=\"Pardon\" target=\"mainNpc\" targetSpec=\"\"}}You really {{i20_2 arg=\"3\"}}{{anim id=\"Nodding\" target=\"subNpc\" targetSpec=\"\"}}want me to,{{delay20}} {{string value=\"Catchphrase\"}}?{{pageBreak}}{{anim id=\"Worried\" target=\"mainNpc\" targetSpec=\"\"}}I just hope{{delay20}} I don't make a big mess.{{anim id=\"Laughing\" target=\"subNpc\" targetSpec=\"\"}}\n{{anim id=\"Hesitate\" target=\"actor\" targetSpec=\"\"}}No,{{delay20}} really!{{delay frames=\"40\"}} That could happen{{delay8}}{{string value=\"...\"}}\nI can be really clumsy sometimes!"
  },
  {
    "label": "016",
    "attribute": "0x0000000000000000",
    "text": "{{anim id=\"HappyDance\" target=\"mainNpc\" targetSpec=\"\"}}What a fun idea,{{delay20}} {{string value=\"NickName\"}}!{{pageBreak}}{{i20_2 arg=\"7\"}}I know I'd love it{{delay20}} if somebody ever\nmade me{{anim id=\"Smiling\" target=\"subNpc\" targetSpec=\"\"}}{{delay20}} a mini plush toy of myself.{{delay frames=\"40\"}}\n{{i20_3 arg=\"5\"}}{{i20_3 arg=\"7\"}}{{anim id=\"Smiling\" target=\"mainNpc\" targetSpec=\"\"}}So how can we make that happen?"
  },
  {
    "label": "017",
    "attribute": "0x0000000000000000",
    "text": "{{anim id=\"FaintSmile\" target=\"subNpc\" targetSpec=\"\"}}I'll start{{delay20}} {{i20_2 arg=\"4\"}}by getting the fabric and\nother materials that we'll need.{{pageBreak}}{{anim id=\"Thinking\" target=\"subNpc\" targetSpec=\"\"}}We'll have to draw a pattern first.{{delay40}}\nIt'd really help to have a picture of\n{{string value=\"11\"}},{{delay20}} for reference{{delay8}}{{string value=\"...\"}}"
  },
  {
    "label": "018",
    "attribute": "0x0000000000000000",
    "text": "Just leave that to me,{{anim id=\"FaintSmile\" target=\"subNpc\" targetSpec=\"\"}}{{delay20}} {{string value=\"Catchphrase\"}}.{{delay40}}\n{{anim id=\"Smiling\" target=\"actor\" targetSpec=\"\"}}I love taking photos!"
  },
  {
    "label": "019",
    "attribute": "0x0000000000000000",
    "text": "{{anim id=\"BigSmile\" target=\"mainNpc\" targetSpec=\"\"}}Who doesn't love a bouquet?{{i20_2 arg=\"7\"}}{{delay frames=\"40\"}}\n{{anim id=\"Thinking\" target=\"mainNpc\" targetSpec=\"\"}}But are there even a hundred\nflowers around here{{delay20}} to gather?"
  },
  {
    "label": "020",
    "attribute": "0x0000000000000000",
    "text": "{{anim id=\"Thinking\" target=\"subNpc\" targetSpec=\"\"}}That's a good question.{{i20_2 arg=\"4\"}}{{delay frames=\"50\"}}{{i20_3 arg=\"5\"}} {{anim id=\"IdeaBulb\" target=\"subNpc\" targetSpec=\"\"}}I know!{{pageBreak}}We can just grow them ourselves!{{anim id=\"Aha\" target=\"mainNpc\" targetSpec=\"\"}}{{delay40}}\n{{anim id=\"Smiling\" target=\"actor\" targetSpec=\"\"}}I have all kinds of flower seeds!"
  },
  {
    "label": "021",
    "attribute": "0x0000000000000000",
    "text": "{{anim id=\"Smiling\" target=\"mainNpc\" targetSpec=\"\"}}That's great,{{delay20}} {{string value=\"Catchphrase\"}}!{{i20_2 arg=\"3\"}}{{delay40}} {{anim id=\"FaintSmile\" target=\"subNpc\" targetSpec=\"\"}}It's like\nyou planned ahead!{{pageBreak}}{{anim id=\"Scheming\" target=\"mainNpc\" targetSpec=\"\"}}Now we just need an out-of-the-way\nplace{{anim id=\"Nodding\" target=\"subNpc\" targetSpec=\"\"}}{{delay20}} to grow our flowers in secret{{delay8}}{{string value=\"...\"}}"
  },
  {
    "label": "022",
    "attribute": "0x0000000000000000",
    "text": "{{anim id=\"Smiling\" target=\"mainNpc\" targetSpec=\"\"}}Thanks so much{{anim id=\"Smiling\" target=\"subNpc\" targetSpec=\"\"}} for your great gift\nidea and help,{{delay20}} {{string value=\"NickName\"}}!"
  },
  {
    "label": "101",
    "attribute": "0x0000000000000000",
    "text": "Why not make the most of it?{{delay frames=\"40\"}}\nThere's nothing like {{anim id=\"Love\" target=\"mainNpc\" targetSpec=\"\"}}{{anim id=\"FaintSmile\" target=\"subNpc\" targetSpec=\"\"}}setting the\nperfect mood{{delay20}} for your reading."
  },
  {
    "label": "102",
    "attribute": "0x0000000000000000",
    "text": "{{anim id=\"Nodding\" target=\"subNpc\" targetSpec=\"\"}}I know!{{delay frames=\"40\"}} {{i20_2 arg=\"4\"}}{{anim id=\"AbsentMindedness\" target=\"subNpc\" targetSpec=\"\"}}Picture this:{{delay20}} some light\njazz, chocolates,{{anim id=\"FaintSmile\" target=\"mainNpc\" targetSpec=\"\"}}{{delay20}} and a {{anim id=\"Blushing\" target=\"subNpc\" targetSpec=\"\"}}romance\nnovel read by soft candlelight!\n{{anim id=\"Sighing\" target=\"actor\" targetSpec=\"\"}}Oh,{{delay20}} {{string value=\"Catchphrase\"}}{{delay8}}{{string value=\"...\"}}{{pageBreak}}{{anim id=\"FaintSmile\" target=\"subNpc\" targetSpec=\"\"}}What's your idea of the perfect\nsetting,{{delay20}} {{anim id=\"Eh\" target=\"mainNpc\" targetSpec=\"\"}}{{selection value=\"SelectedVillager\"}}?"
  },
  {
    "label": "103",
    "attribute": "0x0000000000000000",
    "text": "{{anim id=\"Nodding\" target=\"mainNpc\" targetSpec=\"\"}}For me,{{delay20}} {{i20_2 arg=\"3\"}}it'd have to be {{anim id=\"AbsentMindedness\" target=\"mainNpc\" targetSpec=\"\"}}out under\na clear sky, {{delay20}}full of stars{{delay8}}{{string value=\"...\"}}and\nreading by the light {{anim id=\"FaintSmile\" target=\"mainNpc\" targetSpec=\"\"}}of a lantern."
  },
  {
    "label": "104",
    "attribute": "0x0000000000000000",
    "text": "{{anim id=\"HappyDance\" target=\"subNpc\" targetSpec=\"\"}}Wow,{{delay20}} {{i20_2 arg=\"4\"}}that sounds amazing!{{delay40}}\n{{anim id=\"FaintSmile\" target=\"mainNpc\" targetSpec=\"\"}}Now I want to try doing that.{{anim id=\"EmotEnd\" target=\"mainNpc\" targetSpec=\"\"}}"
  },
  {
    "label": "105",
    "attribute": "0x0000000000000000",
    "text": "{{anim id=\"Hello\" target=\"mainNpc\" targetSpec=\"\"}}Then why don't we {{i20_2 arg=\"3\"}}do it together?{{delay frames=\"40\"}}\n{{anim id=\"BigSmile\" target=\"mainNpc\" targetSpec=\"\"}}Like a book club,{{delay20}} under the stars!{{anim id=\"FaintSmile\" target=\"mainNpc\" targetSpec=\"\"}}"
  },
  {
    "label": "106",
    "attribute": "0x0000000000000000",
    "text": "{{anim id=\"Pardon\" target=\"subNpc\" targetSpec=\"\"}}Oh!{{delay frames=\"40\"}} {{i20_2 arg=\"4\"}}I would absolutely love that!\n{{anim id=\"Restless\" target=\"subNpc\" targetSpec=\"\"}}But{{delay8}}{{string value=\"...\"}} What if it gets cloudy that\nnight{{delay20}} and the stars aren't out?"
  },
  {
    "label": "107",
    "attribute": "0x0000000000000000",
    "text": "{{anim id=\"FaintSmile\" target=\"mainNpc\" targetSpec=\"\"}}We'd still be reading outside after\ndark{{i20_2 arg=\"3\"}}{{delay8}}{{string value=\"...\"}} {{anim id=\"Thinking\" target=\"mainNpc\" targetSpec=\"\"}}If that's not enough,{{delay20}} we\ncould bring tea—{{delay20}} {{anim id=\"Eh\" target=\"subNpc\" targetSpec=\"\"}}Oh,{{delay20}} and cookies!"
  },
  {
    "label": "108",
    "attribute": "0x0000000000000000",
    "text": "{{anim id=\"Worried\" target=\"subNpc\" targetSpec=\"\"}}Hmmm. {{i20_2 arg=\"4\"}}{{anim id=\"OhGeez\" target=\"subNpc\" targetSpec=\"\"}}Sounds more like teatime{{delay20}}\nthan a {{anim id=\"Worried\" target=\"mainNpc\" targetSpec=\"\"}}starlight book club now{{delay8}}{{string value=\"...\"}}"
  },
  {
    "label": "109",
    "attribute": "0x0000000000000000",
    "text": "{{anim id=\"Smiling\" target=\"mainNpc\" targetSpec=\"\"}}It could be both!{{delay frames=\"40\"}} We should wait{{i20_2 arg=\"3\"}} for\na stretch of good weather{{delay20}} {{anim id=\"Nodding\" target=\"mainNpc\" targetSpec=\"\"}}and plan\nto meet up then,{{delay20}} {{string value=\"Catchphrase\"}}."
  },
  {
    "label": "201",
    "attribute": "0x0000000000000000",
    "text": "OK,{{delay20}} sounds like we're all set.{{delay frames=\"40\"}}\n{{anim id=\"FaintSmile\" target=\"mainNpc\" targetSpec=\"\"}}I'll stop by your house with it\nas soon as I can,{{delay20}} {{string value=\"Catchphrase\"}}."
  },
  {
    "label": "202",
    "attribute": "0x0000000000000000",
    "text": "{{anim id=\"HappyDance\" target=\"subNpc\" targetSpec=\"\"}}Thanks!{{delay20}} This is going to be great!{{i20_2 arg=\"4\"}}{{pageBreak}}{{anim id=\"Serious\" target=\"subNpc\" targetSpec=\"\"}}Wait—{{delay20}}before you go, can I ask{{delay8}}{{string value=\"...\"}}\n{{anim id=\"QuestionMark\" target=\"subNpc\" targetSpec=\"\"}}Do you know that you're saying\n\"{{string value=\"Catchphrase\"}}\"{{anim id=\"Eh\" target=\"mainNpc\" targetSpec=\"\"}}{{delay20}} all the time?"
  },
  {
    "label": "203",
    "attribute": "0x0000000000000000",
    "text": "{{anim id=\"Laughing\" target=\"mainNpc\" targetSpec=\"\"}}Of course I know that,{{delay20}} silly!{{i20_2 arg=\"3\"}}{{delay frames=\"40\"}}\n{{anim id=\"FaintSmile\" target=\"subNpc\" targetSpec=\"\"}}I say that on purpose{{delay20}} because{{anim id=\"SmugFace\" target=\"mainNpc\" targetSpec=\"\"}}\nit's my personal catchphrase.{{pageBreak}}{{anim id=\"EmotEnd\" target=\"subNpc\" targetSpec=\"\"}}Saying \"{{string value=\"Catchphrase\"}}\" cheers me up,{{delay20}}\n{{anim id=\"FaintSmile\" target=\"mainNpc\" targetSpec=\"\"}}and I like to think that it makes my\nfriends happy too,{{anim id=\"HappyFlower\" target=\"subNpc\" targetSpec=\"\"}}{{delay20}} {{string value=\"Catchphrase\"}}!"
  },
  {
    "label": "204",
    "attribute": "0x0000000000000000",
    "text": "{{anim id=\"FaintSmile\" target=\"subNpc\" targetSpec=\"\"}}Well,{{delay20}} if you're happy,{{delay20}} I'm happy.{{i20_2 arg=\"4\"}}{{delay40}}\n{{anim id=\"Nodding\" target=\"subNpc\" targetSpec=\"\"}}So I guess your catchphrase works!{{anim id=\"Blushing\" target=\"mainNpc\" targetSpec=\"\"}}{{pageBreak}}{{anim id=\"EmotEnd\" target=\"mainNpc\" targetSpec=\"\"}}{{anim id=\"Hesitate\" target=\"subNpc\" targetSpec=\"\"}}Would you mind if I tried saying it?"
  },
  {
    "label": "205",
    "attribute": "0x0000000000000000",
    "text": "{{anim id=\"BigSmile\" target=\"mainNpc\" targetSpec=\"\"}}Of course not!{{delay40}} {{i20_2 arg=\"3\"}}Why would I mind?{{anim id=\"FaintSmile\" target=\"subNpc\" targetSpec=\"\"}}\n{{anim id=\"Hesitate\" target=\"actor\" targetSpec=\"\"}}{{capitalizeNextLetter}}{{string value=\"Catchphrase\"}},{{delay20}} I think it's flattering\nthat you'd want to use it!"
  },
  {
    "label": "206",
    "attribute": "0x0000000000000000",
    "text": "{{anim id=\"Smiling\" target=\"subNpc\" targetSpec=\"\"}}I just didn't want you to feel{{delay20}} like\nI was stealing your catchphrase\nto try to sound{{anim id=\"Blushing\" target=\"mainNpc\" targetSpec=\"\"}}{{delay20}} as fun as you.{{i20_2 arg=\"4\"}}{{pageBreak}}{{anim id=\"FaintSmile\" target=\"subNpc\" targetSpec=\"\"}}{{anim id=\"FaintSmile\" target=\"player\" targetSpec=\"\"}}Since you don't mind,{{delay20}} let me just say\nthat I'm really excited about our plan\nand{{delay8}}{{string value=\"...\"}} {{anim id=\"Love\" target=\"subNpc\" targetSpec=\"\"}}{{anim id=\"Smiling\" target=\"actor\" targetSpec=\"\"}}See you soon,{{delay20}} {{string value=\"Catchphrase\"}}!"
  },
  {
    "label": "207",
    "attribute": "0x0000000000000000",
    "text": "{{anim id=\"Clapping\" target=\"mainNpc\" targetSpec=\"\"}}I'm excited too!{{delay40}} {{i20_2 arg=\"3\"}}{{anim id=\"FaintSmile\" target=\"mainNpc\" targetSpec=\"\"}}Guess I'll be seeing\nyou again soon then,{{delay20}} {{string value=\"Catchphrase\"}}.{{anim id=\"Smiling\" target=\"subNpc\" targetSpec=\"\"}}{{pageBreak}}{{anim id=\"Aha\" target=\"mainNpc\" targetSpec=\"\"}}{{anim id=\"EmotEnd\" target=\"subNpc\" targetSpec=\"\"}}Wow{{delay8}}{{string value=\"...\"}} {{anim id=\"HappyFlower\" target=\"mainNpc\" targetSpec=\"\"}}We really do sound alike now!{{anim id=\"Smiling\" target=\"subNpc\" targetSpec=\"\"}}"
  }
]