﻿[
  {
    "label": "001",
    "attribute": "0x00000000",
    "text": "{{anim id=\"HappyDance\" target=\"actor\" targetSpec=\"\"}}わぁ～、{{delay20}}すごいやぁ！{{delay40}}\nこれが　ボクの{{ruby charSpan=\"2\" value=\"べっそう\"}}別荘に　なるんだねぇ～{{delay40}}\n{{anim id=\"Smiling\" target=\"actor\" targetSpec=\"\"}}うふふ、{{delay20}}{{ruby charSpan=\"2\" value=\"かんせい\"}}完成が{{ruby charSpan=\"1\" value=\"たの\"}}楽しみだよぉ！"
  },
  {
    "label": "001_01",
    "attribute": "0x00000000",
    "text": "{{anim id=\"FaintSmile\" target=\"actor\" targetSpec=\"\"}}それじゃあ、{{delay8}}あとは{{ruby charSpan=\"1\" value=\"まか\"}}任せるねぇ{{delay40}}\n{{anim id=\"Greeting\" target=\"actor\" targetSpec=\"\"}}どうぞ　よろしくお{{ruby charSpan=\"1\" value=\"ねが\"}}願いしま～す！"
  },
  {
    "label": "002",
    "attribute": "0x02000000",
    "text": "どう～？{{delay20}}　{{anim id=\"FaintSmile\" target=\"actor\" targetSpec=\"\"}}うまく　いきそうかなぁ？"
  },
  {
    "label": "002_01",
    "attribute": "0x04000000",
    "text": "どう～？{{delay20}}　{{anim id=\"FaintSmile\" target=\"actor\" targetSpec=\"\"}}うまく　いきそうかなぁ？"
  },
  {
    "label": "002_01_a",
    "attribute": "0x00000000",
    "text": "{{ruby charSpan=\"2\" value=\"かんせい\"}}完成しました！"
  },
  {
    "label": "002_01_b",
    "attribute": "0x00000000",
    "text": "2{{ruby charSpan=\"1\" value=\"かい\"}}階をつくりませんか？"
  },
  {
    "label": "002_01_c",
    "attribute": "0x00000000",
    "text": "{{anim id=\"EmotEnd\" target=\"player\" targetSpec=\"\"}}もう{{ruby charSpan=\"1\" value=\"すこ\"}}少し　お{{ruby charSpan=\"1\" value=\"ま\"}}待ちください"
  },
  {
    "label": "002_a",
    "attribute": "0x00000000",
    "text": "{{ruby charSpan=\"2\" value=\"かんせい\"}}完成しました！"
  },
  {
    "label": "002_b",
    "attribute": "0x00000000",
    "text": "{{anim id=\"EmotEnd\" target=\"player\" targetSpec=\"\"}}もう{{ruby charSpan=\"1\" value=\"すこ\"}}少し　お{{ruby charSpan=\"1\" value=\"ま\"}}待ちください"
  },
  {
    "label": "003_01",
    "attribute": "0x00000000",
    "text": "{{anim id=\"Shocked\" target=\"actor\" targetSpec=\"\"}}あれぇ？{{delay40}}\n{{anim id=\"Restless\" target=\"actor\" targetSpec=\"\"}}まだ　お{{ruby charSpan=\"1\" value=\"うち\"}}家の{{ruby charSpan=\"1\" value=\"なか\"}}中に{{ruby charSpan=\"1\" value=\"はい\"}}入ってないよねぇ～？"
  },
  {
    "label": "003_02",
    "attribute": "0x00000000",
    "text": "{{anim id=\"Worried\" target=\"actor\" targetSpec=\"\"}}う～ん、{{delay20}}{{ruby charSpan=\"2\" value=\"へや\"}}部屋の{{ruby charSpan=\"1\" value=\"なか\"}}中　ギュウギュウだねぇ{{delay40}}\nちょっと{{delay8}}　{{ruby charSpan=\"1\" value=\"せま\"}}狭いかも{{string value=\"...\"}}{{delay40}}\n{{anim id=\"Restless\" target=\"actor\" targetSpec=\"\"}}もう{{ruby charSpan=\"2\" value=\"いっかい\"}}一回　{{ruby charSpan=\"2\" value=\"かくにん\"}}確認してくれるぅ？"
  },
  {
    "label": "003_03",
    "attribute": "0x00000000",
    "text": "{{anim id=\"Thinking\" target=\"actor\" targetSpec=\"\"}}う～ん、{{delay20}}{{ruby charSpan=\"1\" value=\"いえ\"}}家の{{ruby charSpan=\"1\" value=\"なか\"}}中なんだけど、{{delay20}}\nものが{{ruby charSpan=\"1\" value=\"おお\"}}多すぎる{{ruby charSpan=\"1\" value=\"き\"}}気が　するんだよねぇ{{delay40}}\n{{anim id=\"Worried\" target=\"actor\" targetSpec=\"\"}}ボク{{delay8}}　つまずいちゃいそうだよぉ\n{{anim id=\"Restless\" target=\"actor\" targetSpec=\"\"}}もう{{ruby charSpan=\"1\" value=\"すこ\"}}少し　{{ruby charSpan=\"2\" value=\"せいり\"}}整理してもらっても{{delay8}}\nいいかなぁ？"
  },
  {
    "label": "003_04",
    "attribute": "0x00000000",
    "text": "{{anim id=\"Restless\" target=\"actor\" targetSpec=\"\"}}あのねぇ、{{delay20}}もう{{ruby charSpan=\"2\" value=\"かたほう\"}}片方の{{ruby charSpan=\"2\" value=\"へや\"}}部屋なんだけど、{{delay20}}\nものが　いっぱいありすぎて{{delay8}}\n{{anim id=\"SadSpiral\" target=\"actor\" targetSpec=\"\"}}ボク　{{ruby charSpan=\"2\" value=\"まいご\"}}迷子になっちゃうかも{{string value=\"...\"}}\n{{anim id=\"ShyBoy\" target=\"actor\" targetSpec=\"\"}}もう{{ruby charSpan=\"2\" value=\"いっかい\"}}一回、{{delay20}}{{ruby charSpan=\"2\" value=\"へや\"}}部屋の{{ruby charSpan=\"1\" value=\"なか\"}}中{{delay8}}\n{{ruby charSpan=\"2\" value=\"みなお\"}}見直してもらっても　いいかなぁ？"
  },
  {
    "label": "004",
    "attribute": "0x00000000",
    "text": "{{anim id=\"BigSmile\" target=\"actor\" targetSpec=\"\"}}わぁ～い{{delay20}}　{{ruby charSpan=\"1\" value=\"ま\"}}待ってましたぁ～！{{delay40}}\n{{anim id=\"FaintSmile\" target=\"actor\" targetSpec=\"\"}}ありがとぉ～！"
  },
  {
    "label": "005",
    "attribute": "0x00000000",
    "text": "そうなんだぁ～{{delay40}}\n{{anim id=\"FaintSmile\" target=\"actor\" targetSpec=\"\"}}じゃあ、{{delay20}}できたら　{{ruby charSpan=\"1\" value=\"おし\"}}教えてねぇ～"
  },
  {
    "label": "006",
    "attribute": "0x02000000",
    "text": "{{anim id=\"QuestionMark\" target=\"actor\" targetSpec=\"\"}}2{{ruby charSpan=\"2\" value=\"かいだ\"}}階建て～？{{delay40}}\n{{anim id=\"FaintSmile\" target=\"actor\" targetSpec=\"\"}}キミが{{ruby charSpan=\"1\" value=\"い\"}}言うんだから、{{delay8}}まちがいないねぇ{{delay40}}\n{{anim id=\"Nodding\" target=\"actor\" targetSpec=\"\"}}うん、{{delay20}}お{{ruby charSpan=\"1\" value=\"ねが\"}}願いするよぉ～！"
  },
  {
    "label": "006_a",
    "attribute": "0x00000000",
    "text": "お{{ruby charSpan=\"1\" value=\"まか\"}}任せください！"
  },
  {
    "label": "006_b",
    "attribute": "0x00000000",
    "text": "やっぱりやめましょう"
  },
  {
    "label": "007",
    "attribute": "0x00000000",
    "text": "{{anim id=\"FaintSmile\" target=\"actor\" targetSpec=\"\"}}うふふ、{{delay20}}よろしくねぇ{{delay40}}\n{{anim id=\"Hello\" target=\"actor\" targetSpec=\"\"}}{{ruby charSpan=\"1\" value=\"たの\"}}楽しみにしてるよぉ～！"
  },
  {
    "label": "008",
    "attribute": "0x00000000",
    "text": "{{anim id=\"Eh\" target=\"actor\" targetSpec=\"\"}}あれ、{{delay20}}そうなのぉ？{{delay40}}\n{{anim id=\"EmotEnd\" target=\"actor\" targetSpec=\"\"}}まぁボクは　どっちもアリだったから、{{delay20}}\n{{anim id=\"FaintSmile\" target=\"actor\" targetSpec=\"\"}}ぜんぜん　{{ruby charSpan=\"3\" value=\"だいじょうぶ\"}}大丈夫だよぉ～"
  },
  {
    "label": "011",
    "attribute": "0x00000000",
    "text": "{{anim id=\"Hesitate\" target=\"actor\" targetSpec=\"\"}}ボクのために　{{ruby charSpan=\"1\" value=\"なが\"}}長い{{ruby charSpan=\"2\" value=\"じかん\"}}時間、{{delay20}}\nていねいに　お{{ruby charSpan=\"2\" value=\"しごと\"}}仕事してくれたんだねぇ{{delay40}}\n{{anim id=\"Love\" target=\"actor\" targetSpec=\"\"}}すっごく　うれしいよぉ～"
  },
  {
    "label": "013",
    "attribute": "0x00000000",
    "text": "{{anim id=\"Shocked\" target=\"actor\" targetSpec=\"\"}}あれぇ！{{delay20}}　もう{{ruby charSpan=\"2\" value=\"でき\"}}出来ちゃったのぉ？{{delay40}}\n{{anim id=\"Restless\" target=\"actor\" targetSpec=\"\"}}ボク、{{delay20}}もしかして{{delay8}}　うたた{{ruby charSpan=\"1\" value=\"ね\"}}寝してたのかなぁ{{delay40}}\nしてないよねぇ、{{string value=\"...\"}}{{delay20}}{{anim id=\"HappyFlower\" target=\"actor\" targetSpec=\"\"}}すご～い！"
  },
  {
    "label": "016",
    "attribute": "0x00000000",
    "text": "{{fun_0014003C arg=\"\"}}"
  },
  {
    "label": "016_01",
    "attribute": "0x00000000",
    "text": "{{anim id=\"FaintSmile\" target=\"actor\" targetSpec=\"\"}}とっても　ステキな{{ruby charSpan=\"2\" value=\"べっそう\"}}別荘だよぉ～！{{delay40}}\n{{anim id=\"Nodding\" target=\"actor\" targetSpec=\"\"}}キミに　たのんで、{{delay8}}よかったぁ～！"
  },
  {
    "label": "017",
    "attribute": "0x02000000",
    "text": "{{anim id=\"AbsentMindedness\" target=\"actor\" targetSpec=\"\"}}うふふ、{{delay20}}できたてほやほやの{{ruby charSpan=\"2\" value=\"べっそう\"}}別荘を\n{{ruby charSpan=\"1\" value=\"み\"}}見てまわらなくちゃね～{{delay40}}\n{{anim id=\"FaintSmile\" target=\"actor\" targetSpec=\"\"}}{{string value=\"PlayerName\"}}さんは　どうする～？"
  },
  {
    "label": "017_01",
    "attribute": "0x00000000",
    "text": "そっかぁ～、{{delay40}}\n{{anim id=\"FaintSmile\" target=\"actor\" targetSpec=\"\"}}{{ruby charSpan=\"2\" value=\"きょう\"}}今日は{{delay8}}　ほんとうに　ありがとぉ～{{delay40}}\n{{anim id=\"Greeting\" target=\"actor\" targetSpec=\"\"}}いつでも　{{ruby charSpan=\"1\" value=\"あそ\"}}遊びに{{ruby charSpan=\"1\" value=\"き\"}}来てねぇ！"
  },
  {
    "label": "017_02",
    "attribute": "0x00000000",
    "text": "{{anim id=\"Nodding\" target=\"actor\" targetSpec=\"\"}}もちろん　いいよぉ～！{{delay40}}\nと～ってもステキな　{{ruby charSpan=\"2\" value=\"べっそう\"}}別荘だもん、{{delay20}}\n{{anim id=\"Hello\" target=\"actor\" targetSpec=\"\"}}{{ruby charSpan=\"1\" value=\"おも\"}}思うぞんぶん{{delay8}}　{{ruby charSpan=\"1\" value=\"と\"}}撮っていってねぇ～"
  },
  {
    "label": "017_04",
    "attribute": "0x02000000",
    "text": "{{anim id=\"Hesitate\" target=\"actor\" targetSpec=\"\"}}あの{{string value=\"...\"}}せっかくだし、{{delay20}}\n{{ruby charSpan=\"2\" value=\"きねん\"}}記念に、{{ruby charSpan=\"2\" value=\"べっそう\"}}別荘の{{ruby charSpan=\"2\" value=\"しゃしん\"}}写真　{{delay8}}{{ruby charSpan=\"1\" value=\"と\"}}撮っていくぅ？"
  },
  {
    "label": "017_04_a",
    "attribute": "0x00000000",
    "text": "{{anim id=\"EmotEnd\" target=\"player\" targetSpec=\"\"}}{{color id=\"1\"}}{{color id=\"65535\"}}はい、{{ruby charSpan=\"1\" value=\"と\"}}撮らせてください"
  },
  {
    "label": "017_04_b",
    "attribute": "0x00000000",
    "text": "{{anim id=\"EmotEnd\" target=\"player\" targetSpec=\"\"}}いえ、{{ruby charSpan=\"2\" value=\"しつれい\"}}失礼します"
  },
  {
    "label": "017_05",
    "attribute": "0x00000000",
    "text": "{{anim id=\"Nodding\" target=\"actor\" targetSpec=\"\"}}ステキな{{ruby charSpan=\"2\" value=\"べっそう\"}}別荘だもの、{{delay20}}\n{{anim id=\"FaintSmile\" target=\"actor\" targetSpec=\"\"}}たくさん　{{ruby charSpan=\"1\" value=\"と\"}}撮っていってねえ～！"
  },
  {
    "label": "017_06",
    "attribute": "0x00000000",
    "text": "そっかぁ～、{{delay8}}わかったよぉ{{delay40}}\n{{anim id=\"FaintSmile\" target=\"actor\" targetSpec=\"\"}}{{ruby charSpan=\"2\" value=\"きょう\"}}今日は{{delay8}}　ほんとうに　ありがとぉ～{{delay40}}\n{{anim id=\"Greeting\" target=\"actor\" targetSpec=\"\"}}いつでも　{{ruby charSpan=\"1\" value=\"あそ\"}}遊びに{{ruby charSpan=\"1\" value=\"き\"}}来てねぇ！"
  },
  {
    "label": "017_a",
    "attribute": "0x00000000",
    "text": "{{anim id=\"EmotEnd\" target=\"player\" targetSpec=\"\"}}{{color id=\"1\"}}{{color id=\"65535\"}}{{ruby charSpan=\"2\" value=\"しゃしん\"}}写真を{{ruby charSpan=\"1\" value=\"と\"}}撮らせてください"
  },
  {
    "label": "017_b",
    "attribute": "0x00000000",
    "text": "{{anim id=\"EmotEnd\" target=\"player\" targetSpec=\"\"}}そろそろ{{ruby charSpan=\"2\" value=\"しつれい\"}}失礼します"
  },
  {
    "label": "018",
    "attribute": "0x02000000",
    "text": "おつかれさま～、{{delay20}}{{anim id=\"FaintSmile\" target=\"actor\" targetSpec=\"\"}}どうしたのぉ？"
  },
  {
    "label": "018_a",
    "attribute": "0x00000000",
    "text": "{{anim id=\"EmotEnd\" target=\"player\" targetSpec=\"\"}}{{ruby charSpan=\"1\" value=\"かえ\"}}帰ります"
  },
  {
    "label": "018_b",
    "attribute": "0x00000000",
    "text": "{{anim id=\"EmotEnd\" target=\"player\" targetSpec=\"\"}}なんでもないです"
  },
  {
    "label": "020",
    "attribute": "0x00000000",
    "text": "そうなんだぁ～{{delay40}}\n{{anim id=\"Smiling\" target=\"actor\" targetSpec=\"\"}}ゆっくり　していってねぇ"
  },
  {
    "label": "021",
    "attribute": "0x00000000",
    "text": "{{anim id=\"Nodding\" target=\"actor\" targetSpec=\"\"}}わかったよぉ、{{delay20}}\n{{anim id=\"FaintSmile\" target=\"actor\" targetSpec=\"\"}}{{ruby charSpan=\"2\" value=\"きょう\"}}今日は、{{delay8}}ほんとうに　ありがとぉ～{{delay40}}\n{{anim id=\"Greeting\" target=\"actor\" targetSpec=\"\"}}{{ruby charSpan=\"1\" value=\"き\"}}気をつけて　{{ruby charSpan=\"1\" value=\"かえ\"}}帰ってねぇ～！"
  },
  {
    "label": "022",
    "attribute": "0x00000000",
    "text": "そういえば、{{delay20}}\n{{anim id=\"FaintSmile\" target=\"actor\" targetSpec=\"\"}}この{{ruby charSpan=\"2\" value=\"べっそう\"}}別荘は　どんなテーマなのぉ？{{delay40}}\n{{anim id=\"Hesitate\" target=\"actor\" targetSpec=\"\"}}よかったら　{{ruby charSpan=\"1\" value=\"おし\"}}教えてほしいなぁ～"
  },
  {
    "label": "023",
    "attribute": "0x02000000",
    "text": "{{ruby charSpan=\"1\" value=\"いま\"}}今までの　{{ruby charSpan=\"2\" value=\"べっそう\"}}別荘のテーマ{{ruby charSpan=\"1\" value=\"めい\"}}名って{{delay8}}\n{{color id=\"1\"}}{{fun_00000096 arg=\"0x00CD\"}}{{color id=\"65535\"}}だったけど{{delay20}}\n{{anim id=\"QuestionMark\" target=\"actor\" targetSpec=\"\"}}{{ruby charSpan=\"2\" value=\"こんかい\"}}今回は　どうなるのぉ？"
  },
  {
    "label": "023_a",
    "attribute": "0x00000000",
    "text": "{{anim id=\"EmotEnd\" target=\"player\" targetSpec=\"\"}}{{ruby charSpan=\"1\" value=\"か\"}}変えましょう"
  },
  {
    "label": "023_b",
    "attribute": "0x00000000",
    "text": "{{anim id=\"EmotEnd\" target=\"player\" targetSpec=\"\"}}そのままで"
  },
  {
    "label": "024",
    "attribute": "0x00000000",
    "text": "{{anim id=\"FaintSmile\" target=\"actor\" targetSpec=\"\"}}{{ruby charSpan=\"1\" value=\"か\"}}変わるんだねぇ～{{delay40}}\n{{anim id=\"EmotEnd\" target=\"actor\" targetSpec=\"\"}}それじゃあ　{{ruby charSpan=\"1\" value=\"あたら\"}}新しいテーマ{{ruby charSpan=\"1\" value=\"めい\"}}名を{{delay8}}\n{{anim id=\"Hello\" target=\"actor\" targetSpec=\"\"}}{{ruby charSpan=\"1\" value=\"おし\"}}教えてくれるかなぁ～？"
  },
  {
    "label": "025",
    "attribute": "0x00000000",
    "text": "{{anim id=\"Nodding\" target=\"actor\" targetSpec=\"\"}}{{ruby charSpan=\"1\" value=\"おな\"}}同じままだねぇ～！{{delay40}}\n{{anim id=\"Blushing\" target=\"actor\" targetSpec=\"\"}}お{{ruby charSpan=\"1\" value=\"き\"}}気に{{ruby charSpan=\"1\" value=\"い\"}}入りのテーマ{{ruby charSpan=\"1\" value=\"めい\"}}名だったから、{{delay20}}\n{{ruby charSpan=\"1\" value=\"か\"}}変わらなくて　よかったよぉ～"
  },
  {
    "label": "026",
    "attribute": "0x02000000",
    "text": "{{anim id=\"Eh\" target=\"actor\" targetSpec=\"\"}}あれぇ？{{delay40}}\nやっぱり　{{delay8}}{{ruby charSpan=\"1\" value=\"か\"}}変わらないってことぉ？"
  },
  {
    "label": "026_a",
    "attribute": "0x00000000",
    "text": "やっぱり　そのままで"
  },
  {
    "label": "026_b",
    "attribute": "0x00000000",
    "text": "テーマ{{ruby charSpan=\"1\" value=\"めい\"}}名は　{{ruby charSpan=\"1\" value=\"か\"}}変えます"
  },
  {
    "label": "027",
    "attribute": "0x00000000",
    "text": "それじゃあ、{{delay20}}\n{{anim id=\"Smiling\" target=\"actor\" targetSpec=\"\"}}{{ruby charSpan=\"1\" value=\"あたら\"}}新しい　テーマ{{ruby charSpan=\"1\" value=\"めい\"}}名を{{ruby charSpan=\"1\" value=\"おし\"}}教えてぇ～！"
  },
  {
    "label": "028",
    "attribute": "0x00000000",
    "text": "{{color id=\"1\"}}{{fun_00000096 arg=\"0x00CD\"}}{{color id=\"65535\"}}{{string value=\"...\"}}{{delay40}}\n{{anim id=\"Nodding\" target=\"actor\" targetSpec=\"\"}}うん{{delay8}}　うん、{{delay20}}この{{ruby charSpan=\"2\" value=\"べっそう\"}}別荘に{{delay8}}\n{{anim id=\"BigSmile\" target=\"actor\" targetSpec=\"\"}}ピッタリのテーマ{{ruby charSpan=\"1\" value=\"めい\"}}名だぁ～！"
  },
  {
    "label": "101",
    "attribute": "0x06000000",
    "text": "{{anim id=\"Smiling\" target=\"actor\" targetSpec=\"\"}}やぁ！{{delay20}}　いらっしゃ～い{{delay40}}\n{{anim id=\"EmotEnd\" target=\"actor\" targetSpec=\"\"}}{{string value=\"PlayerName\"}}さん、{{delay8}}どうしたのぉ？{{delay40}}\n{{anim id=\"QuestionMark\" target=\"actor\" targetSpec=\"\"}}ボクに{{ruby charSpan=\"1\" value=\"なに\"}}何か、{{delay8}}お{{ruby charSpan=\"1\" value=\"はなし\"}}話～？"
  },
  {
    "label": "101_01",
    "attribute": "0x06000000",
    "text": "ボクの{{ruby charSpan=\"2\" value=\"べっそう\"}}別荘について？{{delay40}}\n{{anim id=\"QuestionMark\" target=\"actor\" targetSpec=\"\"}}いったい　どんなことぉ～？"
  },
  {
    "label": "101_01_a",
    "attribute": "0x00000000",
    "text": "リフォームしませんか"
  },
  {
    "label": "101_01_b",
    "attribute": "0x00000000",
    "text": "{{ruby charSpan=\"2\" value=\"ひっこ\"}}引越ししませんか"
  },
  {
    "label": "101_01_c",
    "attribute": "0x00000000",
    "text": "ハウスシェアのことで…"
  },
  {
    "label": "101_01_d",
    "attribute": "0x00000000",
    "text": "なんでもないです"
  },
  {
    "label": "101_a",
    "attribute": "0x00000000",
    "text": "いかがお{{ruby charSpan=\"1\" value=\"す\"}}過ごしですか？"
  },
  {
    "label": "101_b",
    "attribute": "0x00000000",
    "text": "{{ruby charSpan=\"2\" value=\"べっそう\"}}別荘のことなのですが"
  },
  {
    "label": "101_c",
    "attribute": "0x00000000",
    "text": "{{ruby charSpan=\"1\" value=\"かえ\"}}帰ります"
  },
  {
    "label": "101_d",
    "attribute": "0x00000000",
    "text": "ごあいさつだけ"
  },
  {
    "label": "102_01",
    "attribute": "0x02000000",
    "text": "{{anim id=\"Aha\" target=\"actor\" targetSpec=\"\"}}{{ruby charSpan=\"2\" value=\"べっそう\"}}別荘のリフォームを　するのぉ？{{delay40}}\n{{string value=\"...\"}}{{anim id=\"Smiling\" target=\"actor\" targetSpec=\"\"}}ステキなお{{ruby charSpan=\"1\" value=\"はなし\"}}話{{delay8}}　ありがとねぇ～{{delay40}}\nせっかくだから　お{{ruby charSpan=\"1\" value=\"ねが\"}}願いしちゃうよぉ～"
  },
  {
    "label": "102_01_a",
    "attribute": "0x00000000",
    "text": "お{{ruby charSpan=\"1\" value=\"まか\"}}任せください！"
  },
  {
    "label": "102_01_b",
    "attribute": "0x00000000",
    "text": "やっぱりやめましょう"
  },
  {
    "label": "104_01",
    "attribute": "0x00000000",
    "text": "{{anim id=\"HappyFlower\" target=\"actor\" targetSpec=\"\"}}うわぁ～{{delay20}}　すごく{{ruby charSpan=\"1\" value=\"たの\"}}楽しみだよぉ～！"
  },
  {
    "label": "107",
    "attribute": "0x00000000",
    "text": "{{anim id=\"QuestionMark\" target=\"actor\" targetSpec=\"\"}}あれぇ？{{delay40}}\nもしかして、{{delay20}}ほかにご{{ruby charSpan=\"2\" value=\"ようじ\"}}用事が　あったぁ？{{pageBreak}}{{anim id=\"Nodding\" target=\"actor\" targetSpec=\"\"}}{{ruby charSpan=\"1\" value=\"わ\"}}分かったよぉ{{delay40}}\n{{anim id=\"EmotEnd\" target=\"actor\" targetSpec=\"\"}}{{ruby charSpan=\"2\" value=\"ざんねん\"}}残念だけど、{{delay20}}{{ruby charSpan=\"2\" value=\"こんかい\"}}今回は　あきらめるねぇ～\n"
  },
  {
    "label": "108",
    "attribute": "0x02000000",
    "text": "{{anim id=\"Aha\" target=\"actor\" targetSpec=\"\"}}えっ？{{delay20}}　お{{ruby charSpan=\"2\" value=\"ひっこ\"}}引越しするのぉ？{{delay40}}\n{{anim id=\"Smiling\" target=\"actor\" targetSpec=\"\"}}キミって　{{ruby charSpan=\"1\" value=\"み\"}}見かけによらず{{delay8}}　ダイタン！{{delay40}}\nかっこいいなぁ～\n{{anim id=\"Nodding\" target=\"actor\" targetSpec=\"\"}}よ～し、{{delay20}}ドキドキしちゃうけど{{delay20}}\n{{ruby charSpan=\"2\" value=\"ゆうき\"}}勇気を{{ruby charSpan=\"1\" value=\"だ\"}}出して{{delay8}}　お{{ruby charSpan=\"1\" value=\"ねが\"}}願いしようかなぁ～\n"
  },
  {
    "label": "108_01",
    "attribute": "0x00000000",
    "text": "{{anim id=\"BigSmile\" target=\"actor\" targetSpec=\"\"}}うわぁ～{{delay8}}　たのもしい～！{{delay40}}\n{{anim id=\"Nodding\" target=\"actor\" targetSpec=\"\"}}うん、{{delay20}}キミに{{ruby charSpan=\"1\" value=\"まか\"}}任せておけば{{ruby charSpan=\"2\" value=\"あんしん\"}}安心だよねぇ{{delay40}}\n{{anim id=\"EmotEnd\" target=\"actor\" targetSpec=\"\"}}それじゃあ、{{delay8}}{{anim id=\"Greeting\" target=\"actor\" targetSpec=\"\"}}お{{ruby charSpan=\"1\" value=\"ねが\"}}願いしまぁ～す！"
  },
  {
    "label": "108_a",
    "attribute": "0x00000000",
    "text": "お{{ruby charSpan=\"1\" value=\"まか\"}}任せください！"
  },
  {
    "label": "108_b",
    "attribute": "0x00000000",
    "text": "やっぱりやめましょう"
  },
  {
    "label": "109",
    "attribute": "0x00000000",
    "text": "{{anim id=\"Eh\" target=\"actor\" targetSpec=\"\"}}ハウスシェアって{{string value=\"...\"}}{{delay40}}\n{{anim id=\"Thinking\" target=\"actor\" targetSpec=\"\"}}{{ruby charSpan=\"1\" value=\"ほか\"}}他の{{ruby charSpan=\"1\" value=\"ひと\"}}人と　いっしょに{{delay8}}\n{{ruby charSpan=\"1\" value=\"おな\"}}同じ{{ruby charSpan=\"2\" value=\"べっそう\"}}別荘を{{ruby charSpan=\"1\" value=\"つか\"}}使うってことだよねぇ{{string value=\"...\"}}{{delay20}}う～ん\n{{anim id=\"Restless\" target=\"actor\" targetSpec=\"\"}}ボクって　のんびりしてるから、{{delay20}}\nお{{ruby charSpan=\"2\" value=\"あいて\"}}相手さんと{{delay8}}　{{ruby charSpan=\"2\" value=\"せいかつ\"}}生活リズムを\nうまく　{{ruby charSpan=\"1\" value=\"あ\"}}合わせられないと{{ruby charSpan=\"1\" value=\"おも\"}}思うんだぁ\n{{anim id=\"Worried\" target=\"actor\" targetSpec=\"\"}}だから　ごめんねぇ、{{delay20}}\n{{anim id=\"Negative\" target=\"actor\" targetSpec=\"\"}}このお{{ruby charSpan=\"1\" value=\"はなし\"}}話は　お{{ruby charSpan=\"1\" value=\"ことわ\"}}断りするよぉ～"
  },
  {
    "label": "110",
    "attribute": "0x00000000",
    "text": "{{anim id=\"Smiling\" target=\"actor\" targetSpec=\"\"}}そっか～{{delay40}}\n{{anim id=\"EmotEnd\" target=\"actor\" targetSpec=\"\"}}じゃあ{{delay8}}　せっかくだから、{{delay20}}\n{{anim id=\"Greeting\" target=\"actor\" targetSpec=\"\"}}ボクの{{ruby charSpan=\"2\" value=\"べっそう\"}}別荘で　ゆっくりしていってねぇ～"
  },
  {
    "label": "110_01",
    "attribute": "0x00000000",
    "text": "{{anim id=\"Smiling\" target=\"actor\" targetSpec=\"\"}}うふふ、{{delay20}}{{ruby charSpan=\"1\" value=\"すこ\"}}少し{{ruby charSpan=\"1\" value=\"き\"}}気になるけど{{delay8}}　まぁいっか～！{{delay40}}\n{{anim id=\"EmotEnd\" target=\"actor\" targetSpec=\"\"}}なにかあったら{{delay8}}　{{anim id=\"Hello\" target=\"actor\" targetSpec=\"\"}}いつでも{{ruby charSpan=\"1\" value=\"い\"}}言ってねぇ"
  },
  {
    "label": "111",
    "attribute": "0x00000000",
    "text": "{{fun_0014003C arg=\"\"}}"
  },
  {
    "label": "111_01",
    "attribute": "0x00000000",
    "text": "このお{{ruby charSpan=\"2\" value=\"へや\"}}部屋に　いるとねぇ～{{delay20}}\n{{anim id=\"FaintSmile\" target=\"actor\" targetSpec=\"\"}}キミに　お{{ruby charSpan=\"2\" value=\"へや\"}}部屋のコーディネートを\n{{ruby charSpan=\"1\" value=\"たの\"}}頼んで　よかったなぁって、{{delay8}}{{ruby charSpan=\"1\" value=\"おも\"}}思えるんだぁ～"
  },
  {
    "label": "111_02",
    "attribute": "0x00000000",
    "text": "お{{ruby charSpan=\"2\" value=\"へや\"}}部屋に　お{{ruby charSpan=\"1\" value=\"はな\"}}花を{{ruby charSpan=\"1\" value=\"かざ\"}}飾るのって、{{delay20}}\n{{anim id=\"FaintSmile\" target=\"actor\" targetSpec=\"\"}}とっても　ステキだよねぇ{{pageBreak}}{{anim id=\"Explain\" target=\"actor\" targetSpec=\"\"}}{{ruby charSpan=\"1\" value=\"み\"}}見てるだけでも　{{ruby charSpan=\"1\" value=\"しあわ\"}}幸せになれるし、{{delay20}}\n{{ruby charSpan=\"2\" value=\"しぜん\"}}自然と　お{{ruby charSpan=\"2\" value=\"へや\"}}部屋をキレイにしたくもなるし、{{delay20}}\n{{anim id=\"Nodding\" target=\"actor\" targetSpec=\"\"}}いいことだらけなんだよぉ～"
  },
  {
    "label": "111_03",
    "attribute": "0x00000000",
    "text": "{{anim id=\"Smiling\" target=\"actor\" targetSpec=\"\"}}{{string value=\"PlayerName\"}}さんは、{{delay20}}\n{{ruby charSpan=\"1\" value=\"す\"}}好きなお{{ruby charSpan=\"1\" value=\"はな\"}}花って{{delay8}}　{{anim id=\"EmotEnd\" target=\"actor\" targetSpec=\"\"}}あるのぉ？{{pageBreak}}{{anim id=\"Thinking\" target=\"actor\" targetSpec=\"\"}}ボクはねぇ、{{delay20}}えっとねぇ～{{string value=\"...\"}}{{delay20}}\nチューリップ{{string value=\"...\"}}{{delay8}}あ、{{delay20}}コスモス{{string value=\"...\"}}{{delay20}}\nう～ん、{{delay20}}パンジーも　いいなぁ{{string value=\"...\"}}\n{{string value=\"...\"}}{{string value=\"...\"}}{{string value=\"...\"}}{{delay20}}\n{{anim id=\"Blushing\" target=\"actor\" targetSpec=\"\"}}ごめんねぇ～、{{delay20}}どのお{{ruby charSpan=\"1\" value=\"はな\"}}花も\nそれぞれ{{ruby charSpan=\"2\" value=\"みりょく\"}}魅力があるから、{{delay8}}{{ruby charSpan=\"1\" value=\"き\"}}決められないやぁ～"
  },
  {
    "label": "111_04",
    "attribute": "0x00000000",
    "text": "{{anim id=\"FaintSmile\" target=\"actor\" targetSpec=\"\"}}あのねぇ、{{delay20}}{{ruby charSpan=\"3\" value=\"たんじょうか\"}}誕生花ってあるでしょ～？{{delay40}}\n{{anim id=\"EmotEnd\" target=\"actor\" targetSpec=\"\"}}{{ruby charSpan=\"1\" value=\"じつ\"}}実は{{delay8}}「この{{ruby charSpan=\"1\" value=\"ひ\"}}日は、ぜったいに　この{{ruby charSpan=\"1\" value=\"はな\"}}花！」って{{delay20}}\n{{ruby charSpan=\"1\" value=\"き\"}}決まってないらしいよぉ\n{{string value=\"...\"}}{{anim id=\"Explain\" target=\"actor\" targetSpec=\"\"}}ってことは、{{delay20}}{{ruby charSpan=\"2\" value=\"じぶん\"}}自分の{{ruby charSpan=\"3\" value=\"たんじょうか\"}}誕生花を{{delay8}}\n{{ruby charSpan=\"2\" value=\"じぶん\"}}自分で{{ruby charSpan=\"1\" value=\"き\"}}決めてもいいって　ことだよねぇ～{{anim id=\"EmotEnd\" target=\"actor\" targetSpec=\"\"}}{{pageBreak}}{{anim id=\"AbsentMindedness\" target=\"actor\" targetSpec=\"\"}}お{{ruby charSpan=\"1\" value=\"き\"}}気に{{ruby charSpan=\"1\" value=\"い\"}}入りの　お{{ruby charSpan=\"1\" value=\"はな\"}}花でもいいし、{{delay20}}\n{{ruby charSpan=\"1\" value=\"おも\"}}思い{{ruby charSpan=\"1\" value=\"で\"}}出のお{{ruby charSpan=\"1\" value=\"はな\"}}花とかあれば{{delay8}}　ロマンチックだねぇ{{delay40}}\n{{anim id=\"HappyDance\" target=\"actor\" targetSpec=\"\"}}{{ruby charSpan=\"1\" value=\"かんが\"}}考えるだけで　{{ruby charSpan=\"1\" value=\"たの\"}}楽しくなっちゃうよぉ～"
  },
  {
    "label": "119",
    "attribute": "0x00000000",
    "text": "{{fun_0014003C arg=\"\"}}"
  },
  {
    "label": "119_01",
    "attribute": "0x00000000",
    "text": "あのねぇ、{{delay20}}\n{{anim id=\"FaintSmile\" target=\"actor\" targetSpec=\"\"}}{{ruby charSpan=\"1\" value=\"いま\"}}今、{{delay8}}なにを{{ruby charSpan=\"1\" value=\"かんが\"}}考えてると{{ruby charSpan=\"1\" value=\"おも\"}}思う？{{pageBreak}}{{string value=\"...\"}}{{anim id=\"Aha\" target=\"actor\" targetSpec=\"\"}}そう！{{delay40}}\nお{{ruby charSpan=\"1\" value=\"はな\"}}花のことだよぉ！{{delay40}}\n{{anim id=\"EmotEnd\" target=\"actor\" targetSpec=\"\"}}なんで{{delay8}}　わかっちゃったのぉ？\n{{anim id=\"FaintSmile\" target=\"actor\" targetSpec=\"\"}}{{string value=\"PlayerName\"}}さんって、{{delay8}}ボクが\nどんな{{ruby charSpan=\"2\" value=\"べっそう\"}}別荘で{{ruby charSpan=\"1\" value=\"す\"}}過ごしたいかも　わかっちゃうし{{delay20}}\n{{ruby charSpan=\"3\" value=\"まほうつか\"}}魔法使いみたいだねぇ！"
  },
  {
    "label": "119_02",
    "attribute": "0x00000000",
    "text": "ボク、{{delay8}}お{{ruby charSpan=\"1\" value=\"にわ\"}}庭のお{{ruby charSpan=\"2\" value=\"てい\"}}手入れが　{{ruby charSpan=\"2\" value=\"だいす\"}}大好きだから、{{delay20}}\n{{anim id=\"FaintSmile\" target=\"actor\" targetSpec=\"\"}}お{{ruby charSpan=\"1\" value=\"にわ\"}}庭がある{{ruby charSpan=\"2\" value=\"べっそう\"}}別荘で　よかったぁ～"
  },
  {
    "label": "119_03",
    "attribute": "0x00000000",
    "text": "{{anim id=\"Smiling\" target=\"actor\" targetSpec=\"\"}}ボクねぇ、{{delay20}}\nこうやって{{delay8}}　お{{ruby charSpan=\"1\" value=\"にわ\"}}庭にいるだけで、{{delay20}}\n{{anim id=\"Hello\" target=\"actor\" targetSpec=\"\"}}{{ruby charSpan=\"2\" value=\"げんき\"}}元気いっぱいに　なるんだよぉ～！\n{{anim id=\"HappyFlower\" target=\"actor\" targetSpec=\"\"}}うふふ、{{delay20}}{{ruby charSpan=\"1\" value=\"み\"}}見てぇ～{{delay40}}\n{{ruby charSpan=\"2\" value=\"げんき\"}}元気すぎて{{delay8}}　いつもの{{ruby charSpan=\"1\" value=\"ばい\"}}倍くらいの{{ruby charSpan=\"1\" value=\"はや\"}}速さで、{{delay8}}\n{{ruby charSpan=\"1\" value=\"うご\"}}動けちゃってるでしょ～？"
  },
  {
    "label": "119_04",
    "attribute": "0x00000000",
    "text": "{{anim id=\"FaintSmile\" target=\"actor\" targetSpec=\"\"}}{{ruby charSpan=\"2\" value=\"しょくぶつ\"}}植物は　すごいよねぇ、{{delay40}}\n{{anim id=\"Explain\" target=\"actor\" targetSpec=\"\"}}だって、{{delay20}}ボクたちが　{{ruby charSpan=\"1\" value=\"い\"}}生きるのに{{ruby charSpan=\"2\" value=\"ひつよう\"}}必要な\n{{ruby charSpan=\"2\" value=\"くうき\"}}空気を　{{ruby charSpan=\"1\" value=\"つく\"}}作ってくれてるんだよぉ～{{anim id=\"EmotEnd\" target=\"actor\" targetSpec=\"\"}}\nだからね、{{delay20}}いつもありがとうって\n{{ruby charSpan=\"2\" value=\"きも\"}}気持ちを{{ruby charSpan=\"1\" value=\"こ\"}}込めて{{delay8}}　{{anim id=\"Love\" target=\"actor\" targetSpec=\"\"}}{{ruby charSpan=\"2\" value=\"たいせつ\"}}大切に{{ruby charSpan=\"1\" value=\"そだ\"}}育ててるんだぁ"
  },
  {
    "label": "124",
    "attribute": "0x00000000",
    "text": "{{anim id=\"HappyDance\" target=\"actor\" targetSpec=\"\"}}うわぁ～！{{delay20}}　ステキな{{ruby charSpan=\"2\" value=\"ばしょ\"}}場所だぁ～{{delay40}}\nボク、{{delay8}}ひと{{ruby charSpan=\"1\" value=\"め\"}}目{{ruby charSpan=\"1\" value=\"み\"}}見て　{{ruby charSpan=\"1\" value=\"き\"}}気に{{ruby charSpan=\"1\" value=\"い\"}}入っちゃったよ～{{delay40}}\n{{anim id=\"AbsentMindedness\" target=\"actor\" targetSpec=\"\"}}ここで{{delay8}}　どんなお{{ruby charSpan=\"1\" value=\"はな\"}}花を{{ruby charSpan=\"1\" value=\"そだ\"}}育てようかなぁ？"
  },
  {
    "label": "124_01",
    "attribute": "0x00000000",
    "text": "{{anim id=\"FaintSmile\" target=\"actor\" targetSpec=\"\"}}うふふ、{{delay20}}{{ruby charSpan=\"1\" value=\"かんが\"}}考えるだけで　ワクワクしてるよぉ！{{delay40}}\n{{anim id=\"EmotEnd\" target=\"actor\" targetSpec=\"\"}}それじゃあ　{{string value=\"PlayerName\"}}さん、{{delay20}}\n{{anim id=\"Nodding\" target=\"actor\" targetSpec=\"\"}}ヨロシクお{{ruby charSpan=\"1\" value=\"ねが\"}}願いしまぁ～す！"
  },
  {
    "label": "129_06",
    "attribute": "0x00000000",
    "text": "{{anim id=\"HappyDance\" target=\"actor\" targetSpec=\"\"}}うわぁ～　ステキな2{{ruby charSpan=\"2\" value=\"かいだ\"}}階建てだねぇ！{{delay40}}\n{{ruby charSpan=\"1\" value=\"い\"}}言ってもらったとおりにして　よかったぁ！"
  },
  {
    "label": "129_07",
    "attribute": "0x00000000",
    "text": "それじゃあ　{{ruby charSpan=\"1\" value=\"つづ\"}}続き、{{delay20}}{{anim id=\"FaintSmile\" target=\"actor\" targetSpec=\"\"}}ヨロシクねぇ～"
  },
  {
    "label": "148",
    "attribute": "0x00000000",
    "text": "わかったよぉ～{{delay40}}\n{{anim id=\"Greeting\" target=\"actor\" targetSpec=\"\"}}また　いつでも{{ruby charSpan=\"1\" value=\"あそ\"}}遊びに{{ruby charSpan=\"1\" value=\"き\"}}来てねぇ～"
  }
]