﻿[
  {
    "label": "001",
    "attribute": "0x0000000000000600",
    "text": "{{i10_12}}{{size value=\"200\"}}EEEEEEEEEEK!!!{{delay20}}{{size value=\"100\"}}{{size value=\"100\"}}\nUm, excuse me?!{{delay8}} What IS this?!{{size value=\"100\"}}"
  },
  {
    "label": "002",
    "attribute": "0x0000000000000600",
    "text": "{{size value=\"200\"}}{{i10_12}}OHMIGOOOOSH!{{delay20}}{{size value=\"100\"}}\nWhat is even happening right now?!"
  },
  {
    "label": "003",
    "attribute": "0x0000000000000600",
    "text": "Um.{{delay20}} I hate this?{{delay20}} SOMEONE HELP ME!"
  }
]