﻿[
  {
    "label": "001",
    "attribute": "0x0000000000000000",
    "text": "{{fun_0014003C arg=\"\"}}"
  },
  {
    "label": "001_01",
    "attribute": "0x0000020000000000",
    "text": "{{anim id=\"Sighing\" target=\"actor\" targetSpec=\"\"}}唉{{string value=\"...\"}}{{delay20}}明明今天海灘那邊有舉辦音樂節，{{delay8}}\n而我卻要在這工作，{{delay20}}\n{{anim id=\"Worried\" target=\"actor\" targetSpec=\"\"}}真是不走運呀，{{string value=\"6\"}}。"
  },
  {
    "label": "001_01_a",
    "attribute": "0x0000000000000000",
    "text": "我們去跳舞吧！"
  },
  {
    "label": "001_01_b",
    "attribute": "0x0000000000000000",
    "text": "{{anim id=\"EmotEnd\" target=\"actor\" targetSpec=\"\"}}工作加油喔"
  },
  {
    "label": "001_02",
    "attribute": "0x0000020000000000",
    "text": "唔{{string value=\"...\"}}我實在是太在意音樂節的情況，{{delay20}}\n{{anim id=\"OhGeez\" target=\"actor\" targetSpec=\"\"}}完全無法專注在工作上呀～{{string value=\"6\"}}。"
  },
  {
    "label": "001_02_a",
    "attribute": "0x0000000000000000",
    "text": "我們去跳舞吧！"
  },
  {
    "label": "001_02_b",
    "attribute": "0x0000000000000000",
    "text": "{{anim id=\"EmotEnd\" target=\"actor\" targetSpec=\"\"}}是喔"
  },
  {
    "label": "001_03",
    "attribute": "0x0000020000000000",
    "text": "我問你{{string value=\"...\"}}{{delay20}}外面的狀況如何？{{delay frames=\"40\"}}\n{{anim id=\"QuestionMark\" target=\"actor\" targetSpec=\"\"}}音樂節是不是很熱鬧呀？{{delay frames=\"40\"}}\n{{anim id=\"Frantic\" target=\"actor\" targetSpec=\"\"}}啊～{{delay20}}真是令人在意！{{string value=\"6\"}}。"
  },
  {
    "label": "001_03_a",
    "attribute": "0x0000000000000000",
    "text": "我們去跳舞吧！"
  },
  {
    "label": "001_03_b",
    "attribute": "0x0000000000000000",
    "text": "{{anim id=\"EmotEnd\" target=\"actor\" targetSpec=\"\"}}的確很令人在意呢"
  },
  {
    "label": "101",
    "attribute": "0x0000000000000000",
    "text": "{{anim id=\"Shocked\" target=\"actor\" targetSpec=\"\"}}可是我還有課要上{{string value=\"...\"}}{{delay frames=\"40\"}}\n{{anim id=\"BigSmile\" target=\"actor\" targetSpec=\"\"}}算了，{{delay20}}我們出發吧！{{delay frames=\"40\"}}\n{{anim id=\"Smiling\" target=\"actor\" targetSpec=\"\"}}這對學生們也是一次很好的經驗，{{string value=\"6\"}}。"
  },
  {
    "label": "102_01",
    "attribute": "0x0000000000000000",
    "text": "一起跳舞{{string value=\"...\"}}{{delay20}}{{anim id=\"Surprised\" target=\"actor\" targetSpec=\"\"}}難道是想邀我去音樂節！？{{delay frames=\"60\"}}\n{{anim id=\"Laughing\" target=\"actor\" targetSpec=\"\"}}居然敢邀請正在工作的我，{{delay8}}您真是大膽呀！{{delay frames=\"40\"}}\n既然如此，那麼大家一起去吧，{{string value=\"6\"}}。"
  },
  {
    "label": "102_02",
    "attribute": "0x0000000000000000",
    "text": "{{anim id=\"Blushing\" target=\"actor\" targetSpec=\"\"}}真是的{{string value=\"...\"}}{{delay20}}既然您都這麼說了，{{delay8}}\n我根本沒有拒絕的理由呀{{string value=\"...\"}}{{delay frames=\"40\"}}\n{{anim id=\"Hello\" target=\"actor\" targetSpec=\"\"}}那麼就邀請大家一起去吧？{{string value=\"6\"}}。"
  },
  {
    "label": "103",
    "attribute": "0x0000000000000000",
    "text": "{{anim id=\"Shocked\" target=\"actor\" targetSpec=\"\"}}現在去嗎？{{delay frames=\"50\"}}{{anim id=\"Thinking\" target=\"actor\" targetSpec=\"\"}}可是{{delay8}}我還在工作{{string value=\"...\"}}{{delay frames=\"40\"}}\n{{anim id=\"Nodding\" target=\"actor\" targetSpec=\"\"}}不過算了！{{delay frames=\"40\"}}\n{{anim id=\"FaintSmile\" target=\"actor\" targetSpec=\"\"}}邀請大家一起去就好啦，{{string value=\"6\"}}。"
  },
  {
    "label": "104",
    "attribute": "0x0000000000000000",
    "text": "{{anim id=\"Aha\" target=\"actor\" targetSpec=\"\"}}哎呀，{{delay frames=\"30\"}}{{anim id=\"HappyDance\" target=\"actor\" targetSpec=\"\"}}真是令人高興的邀請！{{delay8}}\n反正機會難得，那就順便邀大家一起去吧！{{delay frames=\"40\"}}\n{{anim id=\"Grin\" target=\"actor\" targetSpec=\"\"}}得趕緊做出發準備才行！"
  },
  {
    "label": "105",
    "attribute": "0x0000000000000000",
    "text": "{{anim id=\"AbsentMindedness\" target=\"actor\" targetSpec=\"\"}}我還在想解救我離開這裡的人會是誰{{string value=\"...\"}}{{delay20}}\n沒想到那個人{{delay20}}{{anim id=\"Hello\" target=\"actor\" targetSpec=\"\"}}是你呀！{{delay frames=\"40\"}}\n{{anim id=\"FaintSmile\" target=\"actor\" targetSpec=\"\"}}那麼我們趕緊出發吧？{{string value=\"6\"}}。"
  },
  {
    "label": "106",
    "attribute": "0x0000000000000000",
    "text": "{{anim id=\"BigSmile\" target=\"actor\" targetSpec=\"\"}}聽起來真不錯！{{delay frames=\"40\"}}我們走吧！{{delay frames=\"40\"}}\n{{anim id=\"EmotEnd\" target=\"actor\" targetSpec=\"\"}}身為主廚的我都說要去了，{{delay20}}\n{{anim id=\"SmugFace\" target=\"actor\" targetSpec=\"\"}}其他人一定不會有意見的，{{string value=\"6\"}}。"
  },
  {
    "label": "107",
    "attribute": "0x0000000000000000",
    "text": "{{anim id=\"HappyDance\" target=\"actor\" targetSpec=\"\"}}這邀約真是令人高興呀～！{{delay frames=\"40\"}}\n乾脆帶上主廚，{{delay20}}\n大家一起去跳舞吧！{{string value=\"6\"}}。"
  },
  {
    "label": "108",
    "attribute": "0x0000000000000000",
    "text": "{{anim id=\"Eh\" target=\"actor\" targetSpec=\"\"}}咦，{{delay20}}現在去嗎{{string value=\"...\"}}？{{delay frames=\"40\"}}{{anim id=\"BigSmile\" target=\"actor\" targetSpec=\"\"}}好啊！{{delay frames=\"60\"}}\n{{anim id=\"HappyDance\" target=\"actor\" targetSpec=\"\"}}反正機會難得，乾脆順便邀請客人，{{delay20}}\n大家一起去吧！{{string value=\"6\"}}。"
  },
  {
    "label": "109",
    "attribute": "0x0000000000000000",
    "text": "{{anim id=\"Aha\" target=\"actor\" targetSpec=\"\"}}難道您這是{{delay8}}要邀請我\n{{anim id=\"Hello\" target=\"actor\" targetSpec=\"\"}}一起參加音樂節嗎？{{pageBreak}}{{anim id=\"Smiling\" target=\"actor\" targetSpec=\"\"}}聽起來真不賴！{{delay frames=\"40\"}}\n這種日子用來工作{{anim id=\"Negative\" target=\"actor\" targetSpec=\"\"}}實在是太浪費了！{{delay frames=\"40\"}}\n{{anim id=\"HappyFlower\" target=\"actor\" targetSpec=\"\"}}我們一起去跳舞吧！{{string value=\"6\"}}。"
  },
  {
    "label": "200",
    "attribute": "0x0000000000000000",
    "text": "{{fun_0014003C arg=\"\"}}"
  },
  {
    "label": "200_01",
    "attribute": "0x0000000000000000",
    "text": "{{anim id=\"Silent\" target=\"actor\" targetSpec=\"\"}}等我工作做完{{delay8}}\n一定也會去參加的！{{string value=\"6\"}}。"
  },
  {
    "label": "200_02",
    "attribute": "0x0000000000000000",
    "text": "{{anim id=\"Worried\" target=\"actor\" targetSpec=\"\"}}即使今天沒辦法去，{{delay20}}\n{{anim id=\"Nodding\" target=\"actor\" targetSpec=\"\"}}總有一天一定有機會可以參加的，{{string value=\"6\"}}。"
  },
  {
    "label": "200_03",
    "attribute": "0x0000000000000000",
    "text": "{{anim id=\"Negative\" target=\"actor\" targetSpec=\"\"}}唉，算了{{string value=\"...\"}}{{delay frames=\"40\"}}\n{{anim id=\"Hesitate\" target=\"actor\" targetSpec=\"\"}}至少有你在這裡{{delay8}}\n看著努力工作的我，{{string value=\"6\"}}。"
  }
]