﻿[
  {
    "label": "101",
    "attribute": "0x00000013",
    "text": "{{anim id=\"Serious\" target=\"actor\" targetSpec=\"\"}}Sì, sono {{color id=\"3\"}}Polly{{color id=\"65535\"}}.{{delay20}} Che c'è?{{pageBreak}}{{anim id=\"EmotEnd\" target=\"actor\" targetSpec=\"\"}}Chi?{{delay8}} {{color id=\"1\"}}Casimira vacanze{{color id=\"65535\"}}?{{delay8}} Ah, è una di\nquelle telefonate dove vuoi vendermi\nqualcosa?\n{{anim id=\"Angry\" target=\"actor\" targetSpec=\"\"}}Non so chi ti abbia dato il mio\nnumero, ma sappi che{{string value=\"...\"}} {{delay8}}{{anim id=\"Eh\" target=\"actor\" targetSpec=\"\"}}Eh?{{delay8}} Una\ncasa vacanze?{{delay20}} E la progetti tu?{{pageBreak}}{{anim id=\"ShyBoy\" target=\"actor\" targetSpec=\"\"}}E va bene,{{delay8}} perché no?{{delay20}} In fondo\nnon ho niente da fare.{{delay20}} Aspettami,\nvengo lì."
  }
]