﻿[
  {
    "label": "001",
    "attribute": "0x0000000000000000",
    "text": "{{fun_0014003C arg=\"\"}}"
  },
  {
    "label": "001_01",
    "attribute": "0x0000000000000000",
    "text": "{{anim id=\"Shocked\" target=\"actor\" targetSpec=\"\"}}T'es du coin ?{{delay frames=\"40\"}} {{anim id=\"Laughing\" target=\"actor\" targetSpec=\"\"}}Parce qu'à voir\nton air perdu,{{delay8}} on dirait pas !{{pageBreak}}{{anim id=\"Nodding\" target=\"actor\" targetSpec=\"\"}}Moi c'est {{string value=\"VillagerName\"}},{{delay8}}\net je viens tout juste d'emménager\nsur cette île.\n{{anim id=\"FaintSmile\" target=\"actor\" targetSpec=\"\"}}Alors si tu comptes me demander\nton chemin,{{delay8}} {{anim id=\"Laughing\" target=\"actor\" targetSpec=\"\"}}j'ai bien peur que tu\nt'adresses à la mauvaise personne !"
  },
  {
    "label": "001_02",
    "attribute": "0x0000000000000000",
    "text": "{{anim id=\"Serious\" target=\"actor\" targetSpec=\"\"}}Toi,{{delay8}} vu ton air ébahi,{{delay8}} tu dois nous\nvenir d'ailleurs.{{delay20}} {{anim id=\"QuestionMark\" target=\"actor\" targetSpec=\"\"}}Je me trompe ?{{delay20}}\n{{anim id=\"Smiling\" target=\"actor\" targetSpec=\"\"}}Je me présente :{{delay8}} {{string value=\"VillagerName\"}}.\n{{anim id=\"Greeting\" target=\"actor\" targetSpec=\"\"}}Tu l'auras peut-être deviné à la vue\nde tous ces cartons,{{delay8}} mais je viens\ntout juste d'emménager ici.\n{{anim id=\"ShyBoy\" target=\"actor\" targetSpec=\"\"}}Du coup, j'espère que t'avais pas\ndans l'idée de me demander ton\nchemin !\n{{anim id=\"Nodding\" target=\"actor\" targetSpec=\"\"}}Bon,{{delay8}} c'était sympa de faire ta\nconnaissance,{{delay8}} {{anim id=\"Greeting\" target=\"actor\" targetSpec=\"\"}}mais c'est que j'ai\nencore du boulot qui m'attend !"
  },
  {
    "label": "001_03",
    "attribute": "0x0000000000000000",
    "text": "{{anim id=\"Greeting\" target=\"actor\" targetSpec=\"\"}}Salutations !{{delay20}} Tu nous viens d'une\nautre île,{{delay8}} c'est ça?{{pageBreak}}{{anim id=\"ShyBoy\" target=\"actor\" targetSpec=\"\"}}Désolé pour le désordre,{{delay8}} mais\nj'ai une bonne excuse :{{delay8}} je viens\nd'emménager dans le coin.\n{{anim id=\"Greeting\" target=\"actor\" targetSpec=\"\"}}Moi,{{delay8}} c'est {{string value=\"VillagerName\"}}.{{delay20}}\nHeureux de faire ta connaissance !{{pageBreak}}{{anim id=\"FaintSmile\" target=\"actor\" targetSpec=\"\"}}J'espère qu'on aura l'occasion de\npapoter un peu plus convenablement\nquand j'aurai plus de temps."
  },
  {
    "label": "002",
    "attribute": "0x0000000000000000",
    "text": "{{fun_0014003C arg=\"\"}}"
  },
  {
    "label": "002_01",
    "attribute": "0x0000000000000000",
    "text": "{{anim id=\"QuestionMark\" target=\"actor\" targetSpec=\"\"}}C'est la première fois que je te vois{{string value=\"...\"}}\nT'es {{gender2 m=\"un\" f=\"une\"}} touriste ?{{delay frames=\"40\"}} {{anim id=\"Greeting\" target=\"actor\" targetSpec=\"\"}}Moi c'est\n{{string value=\"VillagerName\"}}.{{delay8}} Bienvenue !\n{{anim id=\"Nodding\" target=\"actor\" targetSpec=\"\"}}T'as bien choisi ta destination,{{delay8}}\nc'est moi qui te le dis.{{delay frames=\"40\"}} {{anim id=\"Smiling\" target=\"actor\" targetSpec=\"\"}}Ce bout de\nterre est un petit coin de paradis.\n{{anim id=\"Grin\" target=\"actor\" targetSpec=\"\"}}D'ailleurs tu ne devrais pas trop\nperdre ton temps à m'écouter\njacasser{{string value=\"...\"}}\n{{anim id=\"Cheering\" target=\"actor\" targetSpec=\"\"}}Va donc explorer les environs et\ndécouvrir la beauté des lieux par\ntoi-même !"
  },
  {
    "label": "002_02",
    "attribute": "0x0000000000000000",
    "text": "{{anim id=\"Eh\" target=\"actor\" targetSpec=\"\"}}Oh !{{delay20}} Tu visites le coin ?{{delay frames=\"40\"}}\n{{anim id=\"Greeting\" target=\"actor\" targetSpec=\"\"}}Sois {{gender2 m=\"le bienvenu\" f=\"la bienvenue\"}} !{{delay20}} Moi,{{delay8}}\nc'est {{string value=\"VillagerName\"}}.\nTu verras,{{delay8}}{{anim id=\"Grin\" target=\"actor\" targetSpec=\"\"}} je suis sûr que notre\nchez-nous va te changer de ton\nchez-toi, et en bien !"
  },
  {
    "label": "002_03",
    "attribute": "0x0000000000000000",
    "text": "{{anim id=\"QuestionMark\" target=\"actor\" targetSpec=\"\"}}C'est toi, l'{{gender2 m=\"étranger\" f=\"étrangère\"}} dont tout\nle monde parle aujourd'hui ?{{pageBreak}}{{anim id=\"Explain\" target=\"actor\" targetSpec=\"\"}}Enfin, je voulais pas sembler malpoli,{{delay8}}\nc'est juste que c'est le grand sujet\ndu jour,{{delay8}} et t'as l'air un peu {{gender2 m=\"perdu\" f=\"perdue\"}}{{string value=\"...\"}}\n{{anim id=\"Greeting\" target=\"actor\" targetSpec=\"\"}}Moi c'est {{string value=\"VillagerName\"}}, au fait.{{delay frames=\"40\"}}\n{{anim id=\"Nodding\" target=\"actor\" targetSpec=\"\"}}J'espère que tu te plairas bien\nsur notre petit bout de terre !"
  }
]