﻿[
  {
    "label": "002",
    "attribute": "0x00000000",
    "text": "{{anim id=\"HappyDance\" target=\"actor\" targetSpec=\"\"}}전～부 다 맡길 수 있다니{{delay20}}\n이렇게 잘해줘도 되는 거니～?{{delay frames=\"40\"}}\n{{anim id=\"Nodding\" target=\"actor\" targetSpec=\"\"}}최고로 쿨한 별장을 {{delay frames=\"40\"}}{{anim id=\"Smiling\" target=\"actor\" targetSpec=\"\"}}만들어줘!"
  },
  {
    "label": "003",
    "attribute": "0x01000000",
    "text": "흐음～ {{delay20}}그런 것도 고를 수 있구나{{delay frames=\"40\"}}\n{{anim id=\"OhGeez\" target=\"actor\" targetSpec=\"\"}}하지만 {{delay8}}갑자기 정하려니까 고민되는걸～{{delay frames=\"50\"}}\n{{anim id=\"Grin\" target=\"actor\" targetSpec=\"\"}}저기, {{delay20}}당신이라면 어느 쪽을 고를 거니?"
  },
  {
    "label": "003_01",
    "attribute": "0x00000000",
    "text": "{{anim id=\"HappyFlower\" target=\"actor\" targetSpec=\"\"}}좋았어!{{delay frames=\"40\"}} 춤을 추～고!{{delay20}} 웃고 떠들～고!{{delay frames=\"40\"}}\n난 기분 좋～고!{{delay frames=\"40\"}}\n{{anim id=\"Greeting\" target=\"actor\" targetSpec=\"\"}}오늘은 잘 부탁해～!"
  },
  {
    "label": "003_03",
    "attribute": "0x00000000",
    "text": "{{anim id=\"Aha\" target=\"actor\" targetSpec=\"\"}}옴머머머머!{{delay20}}\n아～주 좋아 보이는걸?!{{delay frames=\"40\"}}\n{{anim id=\"HappyDance\" target=\"actor\" targetSpec=\"\"}}기대돼서 몸이 들썩거려～"
  },
  {
    "label": "003_04",
    "attribute": "0x00000000",
    "text": "{{anim id=\"FaintSmile\" target=\"actor\" targetSpec=\"\"}}또 잘 부탁할게!{{delay frames=\"40\"}}\n이번에도 당신의 센스를 폭발시켜서{{delay20}}\n{{anim id=\"Laughing\" target=\"actor\" targetSpec=\"\"}}날 즐겁게 해줘!"
  },
  {
    "label": "003_a",
    "attribute": "0x00000000",
    "text": "1층 어때?"
  },
  {
    "label": "003_b",
    "attribute": "0x00000000",
    "text": "2층 어때?"
  },
  {
    "label": "004",
    "attribute": "0x00000000",
    "text": "{{anim id=\"BigSmile\" target=\"actor\" targetSpec=\"\"}}오케이～!{{delay frames=\"40\"}}\n그럼 나도 1층으로 할게!{{anim id=\"FaintSmile\" target=\"actor\" targetSpec=\"\"}}"
  },
  {
    "label": "005",
    "attribute": "0x00000000",
    "text": "{{anim id=\"BigSmile\" target=\"actor\" targetSpec=\"\"}}오케이～!{{delay frames=\"40\"}}\n그럼 나도 2층으로 할게!{{anim id=\"FaintSmile\" target=\"actor\" targetSpec=\"\"}}"
  }
]