﻿[
  {
    "label": "001",
    "attribute": "0x0000000000000000",
    "text": "{{fun_0014003C arg=\"\"}}"
  },
  {
    "label": "001_01",
    "attribute": "0x0000000000000000",
    "text": "{{anim id=\"Negative\" target=\"actor\" targetSpec=\"\"}}咖啡的颜色{{delay8}}看起来很吓人～{{delay frames=\"40\"}}\n{{anim id=\"Explain\" target=\"actor\" targetSpec=\"\"}}如果不是因为这诱人的芳香，{{delay20}}\n{{anim id=\"Laughing\" target=\"actor\" targetSpec=\"\"}}我是绝对{{delay8}}不会喝的！{{string value=\"6\"}}。"
  },
  {
    "label": "001_02",
    "attribute": "0x0000000000000000",
    "text": "{{anim id=\"Love\" target=\"actor\" targetSpec=\"\"}}{{color id=\"3\"}}老板{{color id=\"65535\"}}的咖啡，{{delay20}}\n为什么会这么好喝呢～？{{pageBreak}}{{anim id=\"IdeaBulb\" target=\"actor\" targetSpec=\"\"}}{{delay20}}如果我每天都来喝的话，{{delay20}}\n{{anim id=\"Nodding\" target=\"actor\" targetSpec=\"\"}}是不是有一天也能领悟{{delay8}}\n这其中的奥秘呢？{{string value=\"6\"}}。"
  },
  {
    "label": "001_03",
    "attribute": "0x0000000000000000",
    "text": "{{anim id=\"Thinking\" target=\"actor\" targetSpec=\"\"}}虽然{{delay8}}我很怕苦的东西，{{delay20}}\n但不知道为什么，\n这里的咖啡我就能喝得下去～{{pageBreak}}{{anim id=\"Shocked\" target=\"actor\" targetSpec=\"\"}}难道是为我特调的{{delay8}}\n不苦的咖啡？！{{delay frames=\"40\"}}\n{{anim id=\"HappyDance\" target=\"actor\" targetSpec=\"\"}}不愧是{{color id=\"3\"}}老板，{{color id=\"65535\"}}{{delay20}}太专业了～！{{string value=\"6\"}}。"
  },
  {
    "label": "101",
    "attribute": "0x0000000000000000",
    "text": "{{anim id=\"Explain\" target=\"actor\" targetSpec=\"\"}}{{color id=\"3\"}}老板{{color id=\"65535\"}}为我冲的咖啡，{{delay8}}\n有一种不可思议的力量。{{delay20}}{{anim id=\"Smiling\" target=\"actor\" targetSpec=\"\"}}\n喝完之后感觉自己元气满满～！{{pageBreak}}{{anim id=\"Nodding\" target=\"actor\" targetSpec=\"\"}}这下我又活力充沛，{{delay20}}\n{{anim id=\"SmugFace\" target=\"actor\" targetSpec=\"\"}}{{delay8}}可以继续玩耍咯～！{{string value=\"6\"}}。"
  },
  {
    "label": "102",
    "attribute": "0x0000000000000000",
    "text": "{{anim id=\"FaintSmile\" target=\"actor\" targetSpec=\"\"}}诶嘿嘿，{{delay20}}{{color id=\"3\"}}老板{{color id=\"65535\"}}的店让人觉得很安心呢～{{delay frames=\"40\"}}\n散步的时候，{{delay8}}{{anim id=\"Greeting\" target=\"actor\" targetSpec=\"\"}}\n总是忍不住想要往这里走呢～{{string value=\"6\"}}。"
  },
  {
    "label": "103",
    "attribute": "0x0000000000000000",
    "text": "{{anim id=\"Serious\" target=\"actor\" targetSpec=\"\"}}几天不来这里喝咖啡的话，{{delay20}}\n{{anim id=\"Negative\" target=\"actor\" targetSpec=\"\"}}就会渐渐地\n变得没有活力。{{pageBreak}}{{anim id=\"Smiling\" target=\"actor\" targetSpec=\"\"}}因为{{delay20}}{{color id=\"3\"}}老板{{color id=\"65535\"}}的咖啡，\n是我活力的源泉啊～！{{delay frames=\"50\"}}\n{{anim id=\"EmotEnd\" target=\"actor\" targetSpec=\"\"}}好啦～{{anim id=\"BigSmile\" target=\"actor\" targetSpec=\"\"}}{{delay20}}充电、充电！{{string value=\"6\"}}。{{delay8}}{{anim id=\"FaintSmile\" target=\"actor\" targetSpec=\"\"}}"
  },
  {
    "label": "104",
    "attribute": "0x0000000000000000",
    "text": "{{anim id=\"Smiling\" target=\"actor\" targetSpec=\"\"}}嗯{{string value=\"...\"}}{{delay frames=\"40\"}}\n{{anim id=\"Explain\" target=\"actor\" targetSpec=\"\"}}这里有家店，{{delay20}}逛完{{color id=\"1\"}}博物馆{{color id=\"65535\"}}，{{delay8}}\n正好可以过来休息一下。{{pageBreak}}{{anim id=\"EmotEnd\" target=\"actor\" targetSpec=\"\"}}等喝完咖啡，{{delay20}}\n还能再回博物馆转转～{{string value=\"6\"}}。{{delay frames=\"60\"}}\n{{anim id=\"Grin\" target=\"actor\" targetSpec=\"\"}}{{color id=\"4\"}}然后再过来喝咖啡{{string value=\"...\"}}{{delay frames=\"30\"}}诶嘿嘿嘿～{{color id=\"65535\"}}"
  },
  {
    "label": "105",
    "attribute": "0x0000000000000000",
    "text": "{{anim id=\"QuestionMark\" target=\"actor\" targetSpec=\"\"}}{{string value=\"4\"}}也经常来喝吗？{{delay frames=\"40\"}}\n{{anim id=\"Pardon\" target=\"actor\" targetSpec=\"\"}}喝过一次{{delay8}}就会上瘾的{{delay20}}\n{{color id=\"3\"}}老板{{color id=\"65535\"}}特调咖啡！{{pageBreak}}{{anim id=\"EmotEnd\" target=\"actor\" targetSpec=\"\"}}它称得上是{{delay8}}{{string value=\"33\"}}\n{{anim id=\"SmugFace\" target=\"actor\" targetSpec=\"\"}}引以为傲的名品哦！{{string value=\"6\"}}。"
  },
  {
    "label": "106",
    "attribute": "0x0000000000000000",
    "text": "{{anim id=\"Love\" target=\"actor\" targetSpec=\"\"}}这家店{{delay8}}充满了咖啡的香气，{{delay frames=\"60\"}}\n{{anim id=\"EmotEnd\" target=\"actor\" targetSpec=\"\"}}就算没有在店里喝咖啡，{{delay20}}\n{{anim id=\"Laughing\" target=\"actor\" targetSpec=\"\"}}也能体会到品尝咖啡的感觉～{{string value=\"6\"}}。"
  },
  {
    "label": "107",
    "attribute": "0x0000000000000000",
    "text": "{{anim id=\"FaintSmile\" target=\"actor\" targetSpec=\"\"}}周末在咖啡店里{{delay20}}喝咖啡，{{delay8}}\n享受悠闲的时光～{{delay20}}\n{{anim id=\"Blushing\" target=\"actor\" targetSpec=\"\"}}是不是很有大人的感觉～？{{string value=\"6\"}}。"
  },
  {
    "label": "201",
    "attribute": "0x0000000000000000",
    "text": "{{color id=\"3\"}}老板{{color id=\"65535\"}}冲的咖啡喝起来味道很柔和，{{delay20}}\n{{anim id=\"Sleepy\" target=\"actor\" targetSpec=\"\"}}早上还没睡醒的时候，{{delay20}}\n也完全可以喝～{{anim id=\"FaintSmile\" target=\"actor\" targetSpec=\"\"}}{{string value=\"6\"}}。"
  },
  {
    "label": "202",
    "attribute": "0x0000000000000000",
    "text": "{{anim id=\"Sleepy\" target=\"actor\" targetSpec=\"\"}}刚起床感觉还有些迷糊的时候，{{delay20}}\n喝上一杯{{color id=\"3\"}}老板{{color id=\"65535\"}}冲的咖啡，{{delay8}}\n{{anim id=\"FaintSmile\" target=\"actor\" targetSpec=\"\"}}马上就会神清气爽啦～{{string value=\"6\"}}。"
  },
  {
    "label": "203",
    "attribute": "0x0000000000000000",
    "text": "{{anim id=\"Explain\" target=\"actor\" targetSpec=\"\"}}午餐吃得饱饱后，{{delay20}}\n就会开始犯困。{{i10_4}}\n{{anim id=\"BigSmile\" target=\"actor\" targetSpec=\"\"}}这时就该来上一杯{{delay20}}{{color id=\"3\"}}老板{{color id=\"65535\"}}冲的咖啡！{{pageBreak}}{{anim id=\"Greeting\" target=\"actor\" targetSpec=\"\"}}对赶走困意很有帮助哦～{{delay frames=\"40\"}}\n{{anim id=\"EmotEnd\" target=\"actor\" targetSpec=\"\"}}不过嘛，{{delay20}}{{anim id=\"ShyBoy\" target=\"actor\" targetSpec=\"\"}}我的睡意总是能\n战胜咖啡的效果～{{string value=\"6\"}}。"
  },
  {
    "label": "204",
    "attribute": "0x0000000000000000",
    "text": "{{anim id=\"Thinking\" target=\"actor\" targetSpec=\"\"}}晚餐吃什么好呢～{{delay frames=\"60\"}}\n{{anim id=\"EmotEnd\" target=\"actor\" targetSpec=\"\"}}唔，{{delay20}}一边喝咖啡一边考虑的话，{{delay20}}\n{{anim id=\"Blushing\" target=\"actor\" targetSpec=\"\"}}就只能想到甜食了呢～{{string value=\"6\"}}。"
  },
  {
    "label": "205",
    "attribute": "0x0000000000000000",
    "text": "{{anim id=\"Smiling\" target=\"actor\" targetSpec=\"\"}}{{color id=\"3\"}}老板{{color id=\"65535\"}}冲的咖啡很特别，{{delay20}}\n就算是睡前喝，{{delay8}}\n{{anim id=\"Greeting\" target=\"actor\" targetSpec=\"\"}}也完全不会失眠哦～{{pageBreak}}{{anim id=\"Silent\" target=\"actor\" targetSpec=\"\"}}不过，{{delay8}}我只喝一杯，{{delay frames=\"40\"}}\n{{anim id=\"Confused\" target=\"actor\" targetSpec=\"\"}}不然的话，{{delay8}}喝太多晚上总要\n起夜上厕所～{{string value=\"6\"}}。"
  },
  {
    "label": "206",
    "attribute": "0x0000000000000000",
    "text": "{{string value=\"4\"}}{{string value=\"...\"}}{{delay frames=\"40\"}}\n{{anim id=\"Grin\" target=\"actor\" targetSpec=\"\"}}难道你午睡太久，{{delay20}}现在睡不着了？{{i10_4}}\n{{anim id=\"Laughing\" target=\"actor\" targetSpec=\"\"}}哈哈哈，{{delay20}}和我一样呢～！{{string value=\"6\"}}。"
  }
]