﻿[
  {
    "label": "001",
    "attribute": "0x00000C0100000000",
    "text": "{{anim id=\"Nodding\" target=\"actor\" targetSpec=\"\"}}Sí, dime,{{delay20}} {{anim id=\"QuestionMark\" target=\"actor\" targetSpec=\"\"}}¿qué querías, {{string value=\"6\"}}?{{setNpcTalkChoices chatOption=\"0\" cancelOption=\"0\"}}"
  },
  {
    "label": "002",
    "attribute": "0x00000C0100000000",
    "text": "{{anim id=\"Hello\" target=\"actor\" targetSpec=\"\"}}Ah, {{string value=\"NickName\"}},{{delay8}} ¿me buscabas otra vez, {{string value=\"6\"}}?{{setNpcTalkChoices chatOption=\"0\" cancelOption=\"0\"}}"
  },
  {
    "label": "003",
    "attribute": "0x00000C0100000000",
    "text": "{{anim id=\"Hello\" target=\"actor\" targetSpec=\"\"}}Habla, cielo,{{delay8}} ¿va todo bien, {{string value=\"6\"}}?{{setNpcTalkChoices chatOption=\"0\" cancelOption=\"0\"}}"
  },
  {
    "label": "004",
    "attribute": "0x00000C0100000000",
    "text": "{{anim id=\"Hello\" target=\"actor\" targetSpec=\"\"}}Encanto, ¿qué novedades hay?{{delay8}}\n{{anim id=\"Grin\" target=\"actor\" targetSpec=\"\"}}Tus secretos están a salvo conmigo,\n{{string value=\"6\"}}.{{setNpcTalkChoices chatOption=\"0\" cancelOption=\"0\"}}"
  },
  {
    "label": "005",
    "attribute": "0x00000C0100000000",
    "text": "{{anim id=\"FaintSmile\" target=\"actor\" targetSpec=\"\"}}¿Te puedo ayudar en algo, {{string value=\"6\"}}?{{setNpcTalkChoices chatOption=\"0\" cancelOption=\"0\"}}"
  }
]