﻿[
  {
    "label": "001",
    "attribute": "0x000000",
    "text": "{{i20_0 arg=\"N2>N0,N3>N0\"}}{{anim id=\"Smiling\" target=\"actor\" targetSpec=\"\"}}{{anim id=\"Smiling\" target=\"4\" targetSpec=\"N1\"}}We're here!{{anim id=\"EmotEnd\" target=\"4\" targetSpec=\"N1\"}}"
  },
  {
    "label": "002",
    "attribute": "0x000000",
    "text": "Now, I know you must be incredibly\nexcited to explore your new island\nhome, but I have one small request{{string value=\"...\"}}\n{{anim id=\"Smiling\" target=\"actor\" targetSpec=\"\"}}Would you please join us for a\nshort orientation session in the\nnearby {{color id=\"1\"}}plaza{{color id=\"65535\"}}?{{pageBreak}}{{anim id=\"Nodding\" target=\"actor\" targetSpec=\"\"}}Our fearless leader himself will be\ngiving a presentation, so I'd hate\nfor you to miss it.\n{{anim id=\"EmotEnd\" target=\"actor\" targetSpec=\"\"}}{{anim id=\"Smiling\" target=\"actor\" targetSpec=\"\"}}We're heading there right now if\nyou'd like to move {{color id=\"1\"}}{{color id=\"65535\"}} {{anim id=\"Greeting\" target=\"4\" targetSpec=\"N1\"}}to follow us!"
  },
  {
    "label": "003",
    "attribute": "0x000000",
    "text": "{{anim id=\"Smiling\" target=\"actor\" targetSpec=\"\"}}{{anim id=\"Smiling\" target=\"4\" targetSpec=\"N1\"}}Welcome to {{string value=\"OtherIslandName\"}}!{{i10_4}}\nI hope you enjoyed your flight.{{anim id=\"EmotEnd\" target=\"4\" targetSpec=\"N1\"}}"
  },
  {
    "label": "004",
    "attribute": "0x000000",
    "text": "{{anim id=\"FaintSmile\" target=\"actor\" targetSpec=\"\"}}Would you please join us for a\nshort orientation session?{{pageBreak}}{{anim id=\"Explain\" target=\"actor\" targetSpec=\"\"}}Our fearless leader himself will be\ngiving a presentation,{{anim id=\"Smiling\" target=\"actor\" targetSpec=\"\"}} so I'd hate\nfor you to miss it."
  }
]