﻿[
  {
    "label": "001",
    "attribute": "0x0000000100000000",
    "text": "{{anim id=\"HappyFlower\" target=\"actor\" targetSpec=\"\"}}ハッピーニューイヤー！{{delay20}}　{{number value=\"27\"}}{{ruby charSpan=\"1\" value=\"ねん\"}}年！{{delay frames=\"50\"}}\n{{anim id=\"BigSmile\" target=\"actor\" targetSpec=\"\"}}{{ruby charSpan=\"2\" value=\"ことし\"}}今年も　{{string value=\"VillagerName\"}}をヨロシクなー！{{delay20}}{{anim id=\"FaintSmile\" target=\"actor\" targetSpec=\"\"}}\n{{string value=\"NickName\"}}！"
  },
  {
    "label": "002",
    "attribute": "0x0000000100000600",
    "text": "{{i10_14 arg=\"20\"}}{{anim id=\"Cheering\" target=\"actor\" targetSpec=\"\"}}{{i10_12}}{{size value=\"150\"}}あけまして　オメデトー！！！！{{size value=\"100\"}}{{delay20}}{{anim id=\"EmotEnd\" target=\"actor\" targetSpec=\"\"}}{{i10_9}}{{pageBreak}}{{anim id=\"Blushing\" target=\"actor\" targetSpec=\"\"}}へへっ、{{delay8}}{{ruby charSpan=\"2\" value=\"しんねん\"}}新年だから{{delay20}}　{{ruby charSpan=\"3\" value=\"きあいい\"}}気合入れて{{delay8}}\n{{ruby charSpan=\"3\" value=\"おおごえだ\"}}大声出してみたぞー！　{{string value=\"6\"}}"
  },
  {
    "label": "003",
    "attribute": "0x0000000100000000",
    "text": "{{anim id=\"Greeting\" target=\"actor\" targetSpec=\"\"}}あけまして{{delay8}}　オメデトウゴザイマース！！{{delay frames=\"40\"}}\n{{anim id=\"Laughing\" target=\"actor\" targetSpec=\"\"}}おっしゃー！{{delay20}}　{{number value=\"27\"}}{{ruby charSpan=\"1\" value=\"ねん\"}}年も{{delay8}}\nかっとばしていくぞー！！　{{string value=\"6\"}}"
  },
  {
    "label": "004",
    "attribute": "0x0000000100000000",
    "text": "{{anim id=\"BigSmile\" target=\"actor\" targetSpec=\"\"}}ハッピーニューイヤー！{{delay20}}　{{string value=\"NickName\"}}！{{delay frames=\"40\"}}\n{{anim id=\"EmotEnd\" target=\"actor\" targetSpec=\"\"}}{{ruby charSpan=\"2\" value=\"ことし\"}}今年も{{delay8}}ガンガン　キンニクきたえていくぞー！！{{delay20}}\n{{anim id=\"EmotEnd\" target=\"actor\" targetSpec=\"\"}}オマエも{{delay8}}　ついて{{ruby charSpan=\"1\" value=\"こ\"}}来いよなー？！　{{string value=\"6\"}}"
  },
  {
    "label": "005",
    "attribute": "0x0000000100000000",
    "text": "{{anim id=\"Laughing\" target=\"actor\" targetSpec=\"\"}}あけまして　オメデトー！！{{delay frames=\"40\"}}\n{{anim id=\"EmotEnd\" target=\"actor\" targetSpec=\"\"}}{{ruby charSpan=\"2\" value=\"ことし\"}}今年は{{delay8}}　どんなことがあるのかなって、{{delay20}}\n{{anim id=\"BigSmile\" target=\"actor\" targetSpec=\"\"}}{{ruby charSpan=\"1\" value=\"かんが\"}}考えただけで　ワクワクするよな！{{anim id=\"FaintSmile\" target=\"actor\" targetSpec=\"\"}}　{{string value=\"Catchphrase\"}}"
  }
]