﻿[
  {
    "label": "001",
    "attribute": "0x0000000000000000",
    "text": "{{anim id=\"FaintSmile\" target=\"actor\" targetSpec=\"\"}}やっぱ　{{ruby charSpan=\"2\" value=\"はなび\"}}花火って{{ruby charSpan=\"1\" value=\"たの\"}}楽しいなー！{{delay40}}\n{{ruby charSpan=\"2\" value=\"ひばな\"}}火花がチカチカしてんの{{ruby charSpan=\"1\" value=\"み\"}}見てると{{delay20}}\n{{ruby charSpan=\"2\" value=\"じかん\"}}時間がたつのを　わすれちゃうぞー！　{{string value=\"6\"}}"
  },
  {
    "label": "002",
    "attribute": "0x0000000000000000",
    "text": "{{ruby charSpan=\"2\" value=\"ても\"}}手持ち{{ruby charSpan=\"2\" value=\"はなび\"}}花火のヤマ{{ruby charSpan=\"1\" value=\"ば\"}}場は　{{ruby charSpan=\"1\" value=\"ひ\"}}火を{{ruby charSpan=\"1\" value=\"つ\"}}点ける{{ruby charSpan=\"1\" value=\"とき\"}}時だ！{{delay frames=\"30\"}}\n{{anim id=\"Smiling\" target=\"actor\" targetSpec=\"\"}}オイラの　フットワークの{{ruby charSpan=\"1\" value=\"かる\"}}軽さが{{delay20}}\nここで{{ruby charSpan=\"1\" value=\"い\"}}活かされるってなー！　{{string value=\"6\"}}"
  },
  {
    "label": "003",
    "attribute": "0x0000000000000000",
    "text": "キアイをこめて　{{ruby charSpan=\"2\" value=\"はなび\"}}花火を{{ruby charSpan=\"1\" value=\"も\"}}持てば{{delay8}}\nけっこう　{{ruby charSpan=\"2\" value=\"ながも\"}}長持ちするような{{ruby charSpan=\"1\" value=\"き\"}}気がするぞ！{{delay40}}\n{{anim id=\"Smiling\" target=\"actor\" targetSpec=\"\"}}へへっ、{{delay8}}{{ruby charSpan=\"3\" value=\"だいはっけん\"}}大発見だー！　{{string value=\"6\"}}"
  }
]