﻿[
  {
    "label": "001",
    "attribute": "0x0000000000000000",
    "text": "{{fun_0014003C arg=\"\"}}"
  },
  {
    "label": "001_01",
    "attribute": "0x0000000000000000",
    "text": "{{anim id=\"Shocked\" target=\"actor\" targetSpec=\"\"}}Ça alors !{{delay20}} Quel accoutrement,{{delay8}} {{string value=\"NickName\"}} !{{pageBreak}}Je suis pas expert en stylisme,{{delay8}}{{anim id=\"Nodding\" target=\"actor\" targetSpec=\"\"}} mais\nj'ai peut-être quelque chose qui\npourrait compléter ta tenue{{string value=\"...\"}}\n{{anim id=\"Smiling\" target=\"actor\" targetSpec=\"\"}}Et ce quelque chose se trouve être\n{{anim id=\"EmotEnd\" target=\"actor\" targetSpec=\"\"}}{{wordArticle}}{{fun_0006007D arg=\"0x00CD\"}}.{{delay20}} {{anim id=\"Hello\" target=\"actor\" targetSpec=\"\"}}J'espère que t'en feras bon usage !"
  },
  {
    "label": "001_02",
    "attribute": "0x0000000000000000",
    "text": "{{anim id=\"Shocked\" target=\"actor\" targetSpec=\"\"}}Dis donc,{{delay8}} {{string value=\"NickName\"}}{{string value=\"...\"}}\n{{anim id=\"FaintSmile\" target=\"actor\" targetSpec=\"\"}}J'aime beaucoup ta tenue,{{delay8}}\nje tiens à ce que tu le saches !\n{{anim id=\"IdeaBulb\" target=\"actor\" targetSpec=\"\"}}Tu sais quoi ? {{delay20}}{{anim id=\"FaintSmile\" target=\"actor\" targetSpec=\"\"}}J'ai peut-être un petit\nquelque chose qui la sublimera !{{pageBreak}}{{anim id=\"EmotEnd\" target=\"actor\" targetSpec=\"\"}}Qu'est-ce que tu dirais si je t'offrais {{wordArticle}}{{fun_0006007D arg=\"0x00CD\"}} ?{{delay20}} {{anim id=\"FaintSmile\" target=\"actor\" targetSpec=\"\"}}Ça serait pas mal,{{delay8}} hein ?{{i10_4}} {{anim id=\"Hello\" target=\"actor\" targetSpec=\"\"}}Prends-{{gender8 m=\"le\" f=\"la\" n=\"\"}} !"
  },
  {
    "label": "001_03",
    "attribute": "0x0000000000000000",
    "text": "{{anim id=\"Smiling\" target=\"actor\" targetSpec=\"\"}}{{capitalizeNextLetter}}{{string value=\"NickName\"}},{{delay8}} c'est une bien belle tenue que tu as là !{{delay20}}{{anim id=\"Nodding\" target=\"actor\" targetSpec=\"\"}} J'aime beaucoup ce style.{{pageBreak}}{{anim id=\"IdeaBulb\" target=\"actor\" targetSpec=\"\"}}Ah !{{delay8}} J'ai peut-être quelque chose\nqui la sublimera{{string value=\"...\"}}{{anim id=\"ShyBoy\" target=\"actor\" targetSpec=\"\"}} Je pensais à\n{{wordArticle}}{{fun_0006007D arg=\"0x00CD\"}}.\n{{anim id=\"FaintSmile\" target=\"actor\" targetSpec=\"\"}}C'est cadeau, {{gender2 m=\"gamin\" f=\"gamine\"}}."
  },
  {
    "label": "002",
    "attribute": "0x0000000000000000",
    "text": "{{fun_0014003C arg=\"\"}}"
  },
  {
    "label": "002_01",
    "attribute": "0x0000000000000000",
    "text": "{{anim id=\"BigSmile\" target=\"actor\" targetSpec=\"\"}}J'avais juste envie d'être sympa avec\ntoi,{{delay8}} tout simplement !"
  },
  {
    "label": "002_02",
    "attribute": "0x0000000000000000",
    "text": "{{anim id=\"Greeting\" target=\"actor\" targetSpec=\"\"}}Y a pas de piège,{{delay8}} promis !{{delay20}}\n{{anim id=\"BigSmile\" target=\"actor\" targetSpec=\"\"}}Ça me fait plaisir de te faire plaisir,{{delay8}}\n{{string value=\"Catchphrase\"}} !"
  },
  {
    "label": "002_03",
    "attribute": "0x0000000000000000",
    "text": "{{anim id=\"FaintSmile\" target=\"actor\" targetSpec=\"\"}}Tu m'as déjà rendu bien des services.{{delay20}}\n{{anim id=\"Greeting\" target=\"actor\" targetSpec=\"\"}}À mon tour d'être généreux."
  },
  {
    "label": "101",
    "attribute": "0x0000000000000000",
    "text": "{{anim id=\"FaintSmile\" target=\"actor\" targetSpec=\"\"}}Sa couleur complète bien celle\nde ta tenue,{{delay8}} je trouve."
  },
  {
    "label": "102",
    "attribute": "0x0000000000000000",
    "text": "{{anim id=\"FaintSmile\" target=\"actor\" targetSpec=\"\"}}Ça apportera la touche finale à\nton style."
  },
  {
    "label": "104",
    "attribute": "0x0000000000000000",
    "text": "{{anim id=\"FaintSmile\" target=\"actor\" targetSpec=\"\"}}Ça t'aidera à te protéger de dame nature."
  }
]