﻿[
  {
    "label": "001",
    "attribute": "0x0200000100000009",
    "text": "{{anim id=\"QuestionMark\" target=\"actor\" targetSpec=\"\"}}Tu veux savoir comment je fais pour\nme calmer les nerfs et baisser ma\ntension artérielle ? {{i10_4}}{{anim id=\"BigSmile\" target=\"actor\" targetSpec=\"\"}}Je jardine !\n{{anim id=\"SmugFace\" target=\"actor\" targetSpec=\"\"}}Eh ouais, {{gender2 m=\"gamin\" f=\"gamine\"}}.{{delay20}} Si je suis aussi\ndétendu et agréable à vivre,{{delay8}} c'est\nparce que j'ai la patte verte !"
  },
  {
    "label": "002",
    "attribute": "0x0000000000000000",
    "text": "{{fun_0001003C arg=\"0x030004000500\"}}"
  },
  {
    "label": "003",
    "attribute": "0x0000000000000000",
    "text": "{{anim id=\"Grin\" target=\"actor\" targetSpec=\"\"}}Tiens, laisse-moi te dire un truc à\npropos des bonsaïs :{{delay20}} {{anim id=\"Explain\" target=\"actor\" targetSpec=\"\"}}c'est important\nde les planter correctement.{{pageBreak}}{{anim id=\"Explain\" target=\"actor\" targetSpec=\"\"}}Il faut que leurs racines occupent\nbien le trou qu'il y a dans le pot,\npour qu'ils restent stables.\n{{anim id=\"OhGeez\" target=\"actor\" targetSpec=\"\"}}Pour bien grandir, il faut avoir des\nbases solides.{{delay20}}{{anim id=\"Nodding\" target=\"actor\" targetSpec=\"\"}} Ça vaut autant pour\nles végétaux que pour nous."
  },
  {
    "label": "004",
    "attribute": "0x0000000000000000",
    "text": "{{anim id=\"Grin\" target=\"actor\" targetSpec=\"\"}}Tiens, laisse-moi te dire un truc à\npropos des bonsaïs :{{delay20}} {{anim id=\"AbsentMindedness\" target=\"actor\" targetSpec=\"\"}}tu savais qu'il\nest conseillé de les arroser le matin ?{{pageBreak}}{{anim id=\"OhGeez\" target=\"actor\" targetSpec=\"\"}}Me demande pas pourquoi, par\ncontre.{{delay8}} J'imagine que c'est comme\nça qu'ils fonctionnent.\n{{anim id=\"Explain\" target=\"actor\" targetSpec=\"\"}}Y a bien des gens qui se douchent\nque le matin,{{delay8}} et d'autres que le soir.{{delay20}}\n{{anim id=\"OhGeez\" target=\"actor\" targetSpec=\"\"}}Alors qui sommes-nous pour juger ?"
  },
  {
    "label": "005",
    "attribute": "0x0000000000000000",
    "text": "{{anim id=\"Grin\" target=\"actor\" targetSpec=\"\"}}Tiens, laisse-moi te dire un truc à\npropos des bonsaïs :{{delay20}}{{anim id=\"Nodding\" target=\"actor\" targetSpec=\"\"}} il faut leur\nlaisser la place de grandir.\n{{anim id=\"Explain\" target=\"actor\" targetSpec=\"\"}}Les gens pensent que parce qu'ils\nsont petits,{{delay8}} ils grandiront jamais,\nmais c'est faux !\n{{anim id=\"Worried\" target=\"actor\" targetSpec=\"\"}}Si tu les plantes dans un pot trop\npetit,{{delay8}} leurs racines vont étouffer\net ils vont finir par mourir.\n{{anim id=\"Explain\" target=\"actor\" targetSpec=\"\"}}Même si quelqu'un ou quelque chose\nse fait tout petit,{{delay20}}{{anim id=\"Angry\" target=\"actor\" targetSpec=\"\"}} il faut lui laisser\nde la place pour respirer !"
  },
  {
    "label": "007",
    "attribute": "0x0800000100000009",
    "text": "Dis-moi{{string value=\"...\"}}{{delay20}} {{anim id=\"QuestionMark\" target=\"actor\" targetSpec=\"\"}}Est-ce que tu prends soin\nde tes affaires ?{{pageBreak}}{{anim id=\"Grin\" target=\"actor\" targetSpec=\"\"}}T'inquiète pas, je vais pas te faire\nla morale.{{delay20}} {{anim id=\"Serious\" target=\"actor\" targetSpec=\"\"}}Ceci dit, laisse-moi te dire\nun truc avant que tu répondes."
  },
  {
    "label": "008",
    "attribute": "0x0000000000000000",
    "text": "{{fun_0001003C arg=\"0x09000A000B00\"}}"
  },
  {
    "label": "009",
    "attribute": "0x0000000000000000",
    "text": "{{anim id=\"Explain\" target=\"actor\" targetSpec=\"\"}}Ce n'est pas tellement ce que tu\npossèdes qui compte,{{delay20}}{{anim id=\"Nodding\" target=\"actor\" targetSpec=\"\"}} mais plutôt\nla manière dont tu en prends soin.{{pageBreak}}{{anim id=\"Serious\" target=\"actor\" targetSpec=\"\"}}Je préfère avoir quelque chose qui\npaie pas de mine,{{delay8}} mais qui dure{{string value=\"...\"}}{{pageBreak}}{{anim id=\"OhGeez\" target=\"actor\" targetSpec=\"\"}}... plutôt que de changer de modèle\ntous les ans ou presque parce que\nje l'aurai de nouveau bousillé."
  },
  {
    "label": "010",
    "attribute": "0x0000000000000000",
    "text": "{{anim id=\"Explain\" target=\"actor\" targetSpec=\"\"}}La façon dont tu traites ce qui\nt'appartient en dit long sur ta\npersonne.{{pageBreak}}{{anim id=\"EmotEnd\" target=\"actor\" targetSpec=\"\"}}Si tu prends soin de tes possessions,{{delay frames=\"40\"}}{{anim id=\"Nodding\" target=\"actor\" targetSpec=\"\"}}\nil y a de fortes chances pour que tu\nsois {{gender2 m=\"attentionné\" f=\"attentionnée\"}} auprès des autres."
  },
  {
    "label": "011",
    "attribute": "0x0000000000000000",
    "text": "{{anim id=\"Explain\" target=\"actor\" targetSpec=\"\"}}Certains pensent que les objets\npeuvent avoir quelque chose qui\ns'apparente à une âme.{{pageBreak}}{{anim id=\"Serious\" target=\"actor\" targetSpec=\"\"}}Vu comme ça, les gens qui jettent ce\ndont ils ne se servent plus{{delay8}}{{anim id=\"Negative\" target=\"actor\" targetSpec=\"\"}} devraient\navoir honte.\n{{anim id=\"AbsentMindedness\" target=\"actor\" targetSpec=\"\"}}Selon moi, il faut toujours essayer\nde donner une deuxième vie à ses\nvieilles possessions{{string value=\"...\"}}"
  },
  {
    "label": "013",
    "attribute": "0x0E00000100000009",
    "text": "{{anim id=\"Nodding\" target=\"actor\" targetSpec=\"\"}}« Tous les goûts sont dans la\nnature. »{{delay20}} Tu connais l'expression,\npas vrai ? {{delay20}}{{anim id=\"Angry\" target=\"actor\" targetSpec=\"\"}}Alors écoute !"
  },
  {
    "label": "014",
    "attribute": "0x0000000000000000",
    "text": "{{fun_0001003C arg=\"0x0F0010001100\"}}"
  },
  {
    "label": "015",
    "attribute": "0x0000000000000000",
    "text": "{{anim id=\"SmugFace\" target=\"actor\" targetSpec=\"\"}}Moi, mon truc,{{delay8}} c'est de collectionner\nles lettres !{{pageBreak}}{{anim id=\"Negative\" target=\"actor\" targetSpec=\"\"}}Les gens ne s'en écrivent quasiment\nplus de nos jours,{{delay8}} alors ça devient\nquelque chose de rare.\n{{anim id=\"AbsentMindedness\" target=\"actor\" targetSpec=\"\"}}Et vu qu'on dit aussi : « Ce qui est\nrare est cher »{{string value=\"...\"}}{{delay20}}{{anim id=\"Laughing\" target=\"actor\" targetSpec=\"\"}} J'imagine que tu\nvois l'idée que j'ai derrière la tête !"
  },
  {
    "label": "016",
    "attribute": "0x0000000000000000",
    "text": "{{anim id=\"ShyBoy\" target=\"actor\" targetSpec=\"\"}}Moi, par exemple, mon objet\npréféré{{string value=\"...\"}}{{delay20}}{{anim id=\"SmugFace\" target=\"actor\" targetSpec=\"\"}} c'est ce caillou tout doux !{{pageBreak}}{{anim id=\"AbsentMindedness\" target=\"actor\" targetSpec=\"\"}}Il est froid et dur,{{delay8}} mais le passage du\ntemps l'a rendu assez poli pour être\nagréable à sa manière{{string value=\"...\"}}\n{{anim id=\"Laughing\" target=\"actor\" targetSpec=\"\"}}C'est un peu mon portrait craché,\n{{delay8}}en fait !"
  },
  {
    "label": "017",
    "attribute": "0x0000000000000000",
    "text": "{{anim id=\"SmugFace\" target=\"actor\" targetSpec=\"\"}}Moi, par exemple, j'ai un trésor :\n{{delay20}}le vieux transistor qui appartenait\nà mon paternel.\n{{anim id=\"Nodding\" target=\"actor\" targetSpec=\"\"}}Déjà quand j'étais gamin, il fallait\nle bidouiller pendant des heures\navant d'arriver à capter une station.\n{{anim id=\"HappyFlower\" target=\"actor\" targetSpec=\"\"}}Mais quand j'arrivais enfin à en\ntrouver une{{string value=\"...\"}} Ah là là,{{delay8}} qu'est-ce\nque j'étais content !"
  },
  {
    "label": "019",
    "attribute": "0x1400000100000009",
    "text": "{{anim id=\"QuestionMark\" target=\"actor\" targetSpec=\"\"}}Tu sais quoi ?{{i10_4}} {{anim id=\"OhGeez\" target=\"actor\" targetSpec=\"\"}}Je comprends rien\nde rien à la mode ! {{delay20}}{{capitalizeNextLetter}}{{string value=\"Catchphrase\"}} !"
  },
  {
    "label": "020",
    "attribute": "0x0000000000000000",
    "text": "{{fun_0001003C arg=\"0x150016001700\"}}"
  },
  {
    "label": "021",
    "attribute": "0x0000000000000000",
    "text": "{{anim id=\"Thinking\" target=\"actor\" targetSpec=\"\"}}Deux chemises et deux pantalons{{string value=\"...\"}}\nc'est largement suffisant pour\ns'en sortir dans la vie,{{delay8}}{{anim id=\"QuestionMark\" target=\"actor\" targetSpec=\"\"}} non ? \n{{anim id=\"Nodding\" target=\"actor\" targetSpec=\"\"}}Au-dessus,{{delay8}} pour moi,{{delay8}} c'est\nde l'extravagance et une perte\nde temps et de clochettes."
  },
  {
    "label": "022",
    "attribute": "0x0000000000000000",
    "text": "{{anim id=\"Explain\" target=\"actor\" targetSpec=\"\"}}Prends les bottes en caoutchouc\npar exemple.{{delay20}}{{anim id=\"QuestionMark\" target=\"actor\" targetSpec=\"\"}} Pourquoi c'est pas\nplus populaire que ça ?\n{{anim id=\"Thinking\" target=\"actor\" targetSpec=\"\"}}On peut aller partout avec,{{delay8}} ça résiste\nà tout,{{delay8}} et ça se lave facilement{{string value=\"...\"}}\n{{anim id=\"OhGeez\" target=\"actor\" targetSpec=\"\"}}Vraiment, on fait pas plus pratique.\n{{anim id=\"Thinking\" target=\"actor\" targetSpec=\"\"}}J'veux dire,{{delay8}} les pieds, c'est fait pour\nêtre en contact avec le sol.{{pageBreak}}{{anim id=\"QuestionMark\" target=\"actor\" targetSpec=\"\"}}Alors pourquoi y enfiler des choses\nfragiles qu'on aurait peur de salir ?"
  },
  {
    "label": "023",
    "attribute": "0x0000000000000000",
    "text": "{{anim id=\"QuestionMark\" target=\"actor\" targetSpec=\"\"}}Comme ces chapeaux tellement\nénormes qu'on touche à peine\nleur bord en tendant les bras{{string value=\"...\"}}\n{{anim id=\"OhGeez\" target=\"actor\" targetSpec=\"\"}}OK,{{delay8}} ils bloquent bien le soleil,\nencore heureux d'ailleurs{{string value=\"...\"}}{{pageBreak}}{{anim id=\"Angry\" target=\"actor\" targetSpec=\"\"}}Mais tu m'ôteras pas de l'idée que\nporter ça, c'est chercher soit le\nridicule,{{delay8}} soit le torticolis{{string value=\"...\"}}"
  },
  {
    "label": "025",
    "attribute": "0x1A00000100000009",
    "text": "{{anim id=\"Serious\" target=\"actor\" targetSpec=\"\"}}« On ne vit qu'une fois. »{{delay20}} C'est ce\nque j'entends les jeunes dire tout\nle temps.{{delay20}}\n{{anim id=\"Angry\" target=\"actor\" targetSpec=\"\"}}Pour une fois,{{delay8}} je trouve qu'ils ont\nraison !"
  },
  {
    "label": "026",
    "attribute": "0x0000000000000000",
    "text": "{{fun_0001003C arg=\"0x1B001C001D00\"}}"
  },
  {
    "label": "027",
    "attribute": "0x0000000000000000",
    "text": "{{anim id=\"Negative\" target=\"actor\" targetSpec=\"\"}}Bon par contre, faut pas se servir\nde cette expression comme excuse\npour faire n'importe quoi,{{delay8}} hein.\n{{anim id=\"Nodding\" target=\"actor\" targetSpec=\"\"}}L'idéal, c'est de vivre sa vie sans\nse soucier des autres{{string value=\"...\"}} mais sans\nles gêner non plus !\n{{anim id=\"Explain\" target=\"actor\" targetSpec=\"\"}}Ça paraît un crédo simple à suivre,\n{{delay8}}dit comme ça,{{delay8}} mais c'est plus\ndifficile qu'il n'y paraît !"
  },
  {
    "label": "028",
    "attribute": "0x0000000000000000",
    "text": "{{anim id=\"Nodding\" target=\"actor\" targetSpec=\"\"}}Pour dire les choses simplement,{{delay8}}\nj'essaie de tirer un maximum de ce\nqui se présente.{{pageBreak}}{{anim id=\"SmugFace\" target=\"actor\" targetSpec=\"\"}}Disons que je vois une montagne{{string value=\"...\"}}\nQu'est-ce qui me retient de la gravir\npour profiter de la vue au sommet ?{{pageBreak}}{{anim id=\"Cheering\" target=\"actor\" targetSpec=\"\"}}À part la flemme, presque rien !"
  },
  {
    "label": "029",
    "attribute": "0x0000000000000000",
    "text": "{{anim id=\"Nodding\" target=\"actor\" targetSpec=\"\"}}Par exemple,{{delay8}} mon but est de mener\nà terme tous les projets que\nj'entreprends dans la vie.\n{{anim id=\"Explain\" target=\"actor\" targetSpec=\"\"}}Mon grand projet du moment,{{delay8}}\nc'est de faire la liste de tous\nmes projets inachevés.\n{{anim id=\"SmugFace\" target=\"actor\" targetSpec=\"\"}}Dès que j'aurai terminé,{{delay8}} ça m'en\nfera déjà un de moins sur ma liste !"
  },
  {
    "label": "030",
    "attribute": "0x1F00000100000009",
    "text": "{{anim id=\"AbsentMindedness\" target=\"actor\" targetSpec=\"\"}}Je me souviens, quand je n'étais\nencore qu'un novice en bricolage,\n{{string value=\"Catchphrase\"}}{{string value=\"...\"}}"
  },
  {
    "label": "031",
    "attribute": "0x0000000000000000",
    "text": "{{fun_0014003C arg=\"\"}}"
  },
  {
    "label": "031_01",
    "attribute": "0x0000000000000000",
    "text": "{{anim id=\"Explain\" target=\"actor\" targetSpec=\"\"}}Je commençais un petit projet en\npensant n'y consacrer que quelques\nminutes{{string value=\"...\"}}\n{{anim id=\"Shocked\" target=\"actor\" targetSpec=\"\"}}Et le temps de m'en rendre compte,\nla nuit était tombée ! {{delay frames=\"40\"}}{{anim id=\"Frantic\" target=\"actor\" targetSpec=\"\"}}Pire, une\nsemaine entière était passée !{{pageBreak}}{{anim id=\"Sighing\" target=\"actor\" targetSpec=\"\"}}Mais le jeu en valait la chandelle.{{delay frames=\"40\"}}\nCette hache rudimentaire a tenu\npresque 20 minutes. {{delay20}}{{anim id=\"Laughing\" target=\"actor\" targetSpec=\"\"}}Ha ha ha !"
  },
  {
    "label": "031_02",
    "attribute": "0x0000000000000000",
    "text": "{{anim id=\"Thinking\" target=\"actor\" targetSpec=\"\"}}Une fois, je suis certain d'avoir suivi\nle plan à la lettre, mais le résultat\nn'était pas ce à quoi je m'attendais !{{pageBreak}}{{anim id=\"Explain\" target=\"actor\" targetSpec=\"\"}}J'ai voulu fabriquer {{wordArticle}}{{randomObj}}, mais à la fin, j'avais {{wordArticle}}{{randomObj}} !{{pageBreak}}{{anim id=\"OhGeez\" target=\"actor\" targetSpec=\"\"}}Tant pis ! {{delay20}}J'ai juste fait comme si\nc'était {{wordArticle}}{{randomObj}} et {{gender8 m=\"il\" f=\"elle\" n=\"\"}} a fonctionné au poil. {{delay20}}{{anim id=\"Laughing\" target=\"actor\" targetSpec=\"\"}}Ha ha ha !"
  },
  {
    "label": "031_03",
    "attribute": "0x0000000000000000",
    "text": "{{anim id=\"Oops\" target=\"actor\" targetSpec=\"\"}}Une fois, je tapais avec un marteau\nquand je me suis mis un coup sur le\ndoigt !{{delay20}}\nJ'ai lâché le marteau, qui a atterri sur\nmon pied{{string value=\"...\"}} {{anim id=\"Angry\" target=\"actor\" targetSpec=\"\"}}Et mon ami qui était là\ns'est mis à rire comme une baleine.{{delay frames=\"40\"}}\n{{anim id=\"OhGeez\" target=\"actor\" targetSpec=\"\"}}Tu parles d'une combinaison\nblessure, blessure, moquerie !"
  },
  {
    "label": "032",
    "attribute": "0x2100000100000009",
    "text": "{{anim id=\"EmotEnd\" target=\"actor\" targetSpec=\"\"}}Dis, {{delay8}}{{anim id=\"QuestionMark\" target=\"actor\" targetSpec=\"\"}}qu'est-ce que tu penses des\nachats en ligne ?{{delay20}} J'ai l'impression\nque tout le monde s'y est mis{{string value=\"...\"}}"
  },
  {
    "label": "033",
    "attribute": "0x0000000000000000",
    "text": "{{fun_0014003C arg=\"\"}}"
  },
  {
    "label": "033_01",
    "attribute": "0x0000000000000000",
    "text": "{{anim id=\"Negative\" target=\"actor\" targetSpec=\"\"}}J'ai du mal à acheter des choses que\nje n'ai pas vues de mes yeux.{{delay20}} Je me\nméfie.{{pageBreak}}{{anim id=\"Explain\" target=\"actor\" targetSpec=\"\"}}Une fois, {{delay8}}j'ai commandé en ligne une\npetite figurine,{{delay8}} et une semaine après,{{delay8}}\nj'ai reçu un colis gigantesque !{{pageBreak}}{{anim id=\"Frantic\" target=\"actor\" targetSpec=\"\"}}C'était pas une figurine du tout,{{delay8}}\nmais une statue de trois mètres\nde haut ! {{delay8}}Je mets ça où, moi ?!{{pageBreak}}{{anim id=\"Thinking\" target=\"actor\" targetSpec=\"\"}}J'aurais dû me douter qu'il y avait un\ntruc louche quand ils ont annoncé\n20 000 clochettes de frais de port{{string value=\"...\"}}"
  },
  {
    "label": "033_02",
    "attribute": "0x0000000000000000",
    "text": "{{anim id=\"Serious\" target=\"actor\" targetSpec=\"\"}}Moi, je sais pas. {{delay8}}J'ai toujours\nl'impression qu'il y a arnaque sous\nroche.{{pageBreak}}{{anim id=\"Explain\" target=\"actor\" targetSpec=\"\"}}Un jour, je voulais commander un\ntruc,{{delay8}} et je vois que les frais de port\nsont offerts pour 10 achetés.{{pageBreak}}{{anim id=\"SmugFace\" target=\"actor\" targetSpec=\"\"}}Et comme je ne passe jamais à côté\nd'une promo,{{delay8}} je me suis jeté sur\ncette affaire en or, {{string value=\"6\"}} !{{pageBreak}}{{anim id=\"OhGeez\" target=\"actor\" targetSpec=\"\"}}Sauf que j'avais acheté un bouquin{{string value=\"...\"}}{{delay20}}\n« {{randomBook}} » en 10 exemplaires, merci bien !"
  },
  {
    "label": "033_03",
    "attribute": "0x0000000000000000",
    "text": "{{anim id=\"Negative\" target=\"actor\" targetSpec=\"\"}}Je sais pas. {{delay8}}J'ai pas confiance, et\nc'est trop facile de dépenser des\nfortunes là-dedans.{{pageBreak}}{{anim id=\"Explain\" target=\"actor\" targetSpec=\"\"}}Un jour,{{delay8}} je voulais acheter un\ncouteau à beurre, et le site m'a étalé\nde super affaires devant les yeux.{{pageBreak}}{{anim id=\"Confused\" target=\"actor\" targetSpec=\"\"}}Et en un rien de temps, {{delay8}}j'ai ajouté\ntout un tas d'articles dont je n'avais\npas besoin à mon panier !{{pageBreak}}{{anim id=\"OhGeez\" target=\"actor\" targetSpec=\"\"}}Certes, {{delay8}}tout était joli, mais j'avais\ndéjà toutes ces choses chez moi !{{pageBreak}}{{anim id=\"Shocked\" target=\"actor\" targetSpec=\"\"}}Et puis j'ai pris peur{{string value=\"...\"}} Comment ils\nfaisaient pour cibler mes goûts à ce\npoint ?!{{pageBreak}}{{anim id=\"OhGeez\" target=\"actor\" targetSpec=\"\"}}Le shopping en ligne, c'est pas pour\nles faibles,{{delay8}} crois-moi, {{string value=\"6\"}} !"
  },
  {
    "label": "034",
    "attribute": "0x2300000100000009",
    "text": "{{anim id=\"Worried\" target=\"actor\" targetSpec=\"\"}}Laisse-moi te dire quelque chose\nque j'ai appris à mes dépens{{string value=\"...\"}}{{pageBreak}}{{anim id=\"OhGeez\" target=\"actor\" targetSpec=\"\"}}Il ne faut pas essayer de toujours\ntout faire soi-même.{{pageBreak}}{{anim id=\"Serious\" target=\"actor\" targetSpec=\"\"}}Parfois, il vaut mieux faire appel à un\nprofessionnel pour les travaux de\nrénovations immobilières."
  },
  {
    "label": "035",
    "attribute": "0x0000000000000000",
    "text": "{{fun_0014003C arg=\"\"}}"
  },
  {
    "label": "035_01",
    "attribute": "0x2400000000000000",
    "text": "{{anim id=\"Negative\" target=\"actor\" targetSpec=\"\"}}La plomberie,{{delay8}} par exemple. {{delay20}}Des\nbêtes tuyaux,{{delay8}} c'est à la portée de\nn'importe qui,{{delay8}} non ?{{delay20}} {{anim id=\"Negative\" target=\"actor\" targetSpec=\"\"}}Ben non.{{pageBreak}}{{anim id=\"AbsentMindedness\" target=\"actor\" targetSpec=\"\"}}J'ai passé des semaines à mesurer,{{delay8}}\ncouper et assembler pour me\nconstruire une belle douche.{{pageBreak}}{{anim id=\"QuestionMark\" target=\"actor\" targetSpec=\"\"}}Et ce qui devait arriver arriva,{{delay frames=\"40\"}} quand\nj'ai voulu me doucher,{{delay20}}{{anim id=\"Frantic\" target=\"actor\" targetSpec=\"\"}} le pommeau a\nvolé et tout a été inondé !"
  },
  {
    "label": "035_02",
    "attribute": "0x2400000000000000",
    "text": "{{anim id=\"Worried\" target=\"actor\" targetSpec=\"\"}}Par exemple, l'électricité.{{delay20}} Je te le dis,\ngamin{{gender2 m=\"\" f=\"e\"}},{{delay20}} {{anim id=\"Shaking\" target=\"actor\" targetSpec=\"\"}}jouer avec l'électricité c'est\ndan-{{delay8}}ge-{{delay8}}reux !{{delay20}} Travailler avec aussi !{{pageBreak}}{{anim id=\"Nodding\" target=\"actor\" targetSpec=\"\"}}Il faut s'y connaître en voltage,{{delay8}} en\nampérage,{{delay8}} en câblage,{{delay8}} en prise de\nterre{{string value=\"...\"}}{{delay20}}{{anim id=\"Serious\" target=\"actor\" targetSpec=\"\"}} et les erreurs sont interdites.{{pageBreak}}{{anim id=\"Negative\" target=\"actor\" targetSpec=\"\"}}J'ai essayé une fois.{{delay frames=\"40\"}} {{anim id=\"OhGeez\" target=\"actor\" targetSpec=\"\"}}Et laisse-moi te\ndire qu'on se prend facilement un\ncoup de jus.{{delay20}} C'en est{{string value=\"...\"}} choquant !"
  },
  {
    "label": "035_03",
    "attribute": "0x2400000000000000",
    "text": "{{anim id=\"Explain\" target=\"actor\" targetSpec=\"\"}}La menuiserie,{{delay8}} par exemple.{{delay20}} Suffit\npas d'avoir une scie,{{delay8}} faut aussi être\nun as en maths !{{pageBreak}}{{anim id=\"AbsentMindedness\" target=\"actor\" targetSpec=\"\"}}Moi,{{delay8}} par exemple,{{delay8}} un jour j'ai voulu\nme construire une étagère.{{pageBreak}}{{anim id=\"EmotEnd\" target=\"actor\" targetSpec=\"\"}}Alors,{{delay8}} j'ai fait plein de calculs\nsavants,{{delay20}} et j'ai réussi à fabriquer{{string value=\"...\"}}{{anim id=\"Sighing\" target=\"actor\" targetSpec=\"\"}}\nune superbe sculpture moderne.{{pageBreak}}{{anim id=\"Negative\" target=\"actor\" targetSpec=\"\"}}Et quand j'ai essayé de poser des\nbouquins dessus,{{delay8}} tout s'est écroulé\navec perte et fracas{{string value=\"...\"}}"
  },
  {
    "label": "036",
    "attribute": "0x0000000000000000",
    "text": "{{anim id=\"Blushing\" target=\"actor\" targetSpec=\"\"}}Enfin, j'm'en suis pas trop mal tiré{{string value=\"...\"}}\nCette petite mésaventure aurait pu\nfaire bien plus de dégâts.{{pageBreak}}{{anim id=\"EmotEnd\" target=\"actor\" targetSpec=\"\"}}Alors crois-moi, gamin{{gender2 m=\"\" f=\"e\"}}{{string value=\"...\"}}{{delay20}} {{anim id=\"OhGeez\" target=\"actor\" targetSpec=\"\"}}si t'es pas\nsûr{{gender2 m=\"\" f=\"e\"}} de ce que tu fais,{{delay8}} ravale ta\nfierté et fais appel à un pro."
  }
]