﻿[
  {
    "label": "001",
    "attribute": "0x0000030100000009",
    "text": "{{anim id=\"FaintSmile\" target=\"actor\" targetSpec=\"\"}}Tu sais quoi ? {{delay8}}La télé, c'est plus ce\nque c'était.{{delay20}}{{anim id=\"Negative\" target=\"actor\" targetSpec=\"\"}} Je ne regarde même plus\nles infos, pour tout te dire. \n{{anim id=\"QuestionMark\" target=\"actor\" targetSpec=\"\"}}Et toi ?{{delay20}} Tu passes beaucoup\nde temps devant le petit écran ?"
  },
  {
    "label": "001_a",
    "attribute": "0x0200000000000000",
    "text": "Une heure, max."
  },
  {
    "label": "001_b",
    "attribute": "0x0300000000000000",
    "text": "Quasiment pas."
  },
  {
    "label": "001_c",
    "attribute": "0x0400000000000000",
    "text": "J'en décroche pas !"
  },
  {
    "label": "002",
    "attribute": "0x0000000000000000",
    "text": "{{anim id=\"Nodding\" target=\"actor\" targetSpec=\"\"}}Ah, voilà qui fait plaisir à entendre.\n{{delay20}}Tu sais donc faire preuve de\nmodération.{{pageBreak}}{{anim id=\"Thinking\" target=\"actor\" targetSpec=\"\"}}Si je devais y consacrer une heure,\nça serait pour une de ces émissions\navec des débats de société.\n{{anim id=\"Grin\" target=\"actor\" targetSpec=\"\"}}Voir des gens s'énerver pour rien,\nça me détend.{{delay20}} {{anim id=\"Laughing\" target=\"actor\" targetSpec=\"\"}}Ha ha !"
  },
  {
    "label": "003",
    "attribute": "0x0000000000000000",
    "text": "{{anim id=\"Pardon\" target=\"actor\" targetSpec=\"\"}}C'est vrai ?{{delay20}} {{anim id=\"Nodding\" target=\"actor\" targetSpec=\"\"}}Tant mieux pour toi,\n{{gender2 m=\"gamin\" f=\"gamine\"}}.{{pageBreak}}{{anim id=\"Explain\" target=\"actor\" targetSpec=\"\"}}À ton âge, on a mieux à faire de\ntoute façon.{{delay20}} {{anim id=\"AbsentMindedness\" target=\"actor\" targetSpec=\"\"}}Comme grimper aux\narbres, courir dans l'herbe{{string value=\"...\"}}\n{{anim id=\"HappyFlower\" target=\"actor\" targetSpec=\"\"}}Puis se reposer devant un bon\nchocolat chaud et un dessin anim{{string value=\"...\"}}\n{{anim id=\"Oops\" target=\"actor\" targetSpec=\"\"}}Euh, non, oublie la dernière partie."
  },
  {
    "label": "004",
    "attribute": "0x0000000000000000",
    "text": "{{anim id=\"BigSmile\" target=\"actor\" targetSpec=\"\"}}Ha ! {{delay8}}T'as au moins le mérite d'être\nhonnête !{{pageBreak}}Mais dis-moi{{string value=\"...\"}}{{anim id=\"QuestionMark\" target=\"actor\" targetSpec=\"\"}} T'as pas l'impression\nde rater toutes sortes d'occasions en\nrestant {{gender2 m=\"enfermé\" f=\"enfermée\"}} chez toi ?\nJ'veux dire :{{delay8}}{{anim id=\"Cheering\" target=\"actor\" targetSpec=\"\"}} 100 % des gens qui ont\ntrouvé un billet de tombola gagnant\nl'ont trouvé dehors !"
  },
  {
    "label": "006",
    "attribute": "0x0700000100000009",
    "text": "{{anim id=\"Sighing\" target=\"actor\" targetSpec=\"\"}}Salut.{{delay8}} Faut que je te confie un truc :\n{{delay20}}{{anim id=\"Angry\" target=\"actor\" targetSpec=\"\"}}je déteste les visites chez le\ndocteur !"
  },
  {
    "label": "007",
    "attribute": "0x0000000000000000",
    "text": "{{fun_0001003C arg=\"0x080009000A00\"}}"
  },
  {
    "label": "008",
    "attribute": "0x0000000000000000",
    "text": "{{anim id=\"QuestionMark\" target=\"actor\" targetSpec=\"\"}}Qu'est-ce qui te vient à l'esprit\nen premier quand on te parle de\ndocteur ? {{delay20}}{{anim id=\"Frantic\" target=\"actor\" targetSpec=\"\"}}Les piqûres, pas vrai ?!\nLes médecins prétendent que ça va\npas faire mal,{{delay8}}{{anim id=\"Outraged\" target=\"actor\" targetSpec=\"\"}} mais rien que le nom\ndu truc dit que c'est censé piquer !\n{{anim id=\"OhGeez\" target=\"actor\" targetSpec=\"\"}}Si c'était si indolore que ça, on aurait\nappelé ça une « mêmepasmalure »\nou une « tuvasriensenture », non ?"
  },
  {
    "label": "009",
    "attribute": "0x0000000000000000",
    "text": "{{anim id=\"OhGeez\" target=\"actor\" targetSpec=\"\"}}Qu'est-ce que ça pue ! {{delay20}}Ça sent\nle médicament et l'antiseptique\nà plein nez{{string value=\"...\"}}{{anim id=\"ColdChill\" target=\"actor\" targetSpec=\"\"}} Beurk !\n{{anim id=\"Worried\" target=\"actor\" targetSpec=\"\"}}Je trouve ça louche quand ça sent\ntrop le propre. {{delay20}}À mon avis, ça cache\nquelque chose."
  },
  {
    "label": "010",
    "attribute": "0x0000000000000000",
    "text": "{{anim id=\"Thinking\" target=\"actor\" targetSpec=\"\"}}Quand j'étais petit, mes parents\navaient la manie de m'emmener\nlà-bas pour un rien.\n{{anim id=\"OhGeez\" target=\"actor\" targetSpec=\"\"}}Il suffisait que je me sois égratigné\nle genou en jouant dehors pour\nqu'ils se mettent à paniquer{{string value=\"...\"}}\n{{anim id=\"Oops\" target=\"actor\" targetSpec=\"\"}}Résultat, j'y vais plus que quand je\nsuis à l'article de la mort. {{delay8}}Et c'est\npas une bonne habitude, crois-moi{{string value=\"...\"}}"
  },
  {
    "label": "012",
    "attribute": "0x0D00000100000009",
    "text": "{{anim id=\"AbsentMindedness\" target=\"actor\" targetSpec=\"\"}}Maintenant que j'ai atteint un certain\nâge, je me suis rangé. Mais dans\nma jeunesse, j'étais un vrai rebelle."
  },
  {
    "label": "013",
    "attribute": "0x0000000000000000",
    "text": "{{fun_0001003C arg=\"0x0E000F001000\"}}"
  },
  {
    "label": "014",
    "attribute": "0x0000000000000000",
    "text": "{{anim id=\"AbsentMindedness\" target=\"actor\" targetSpec=\"\"}}J'avais ces chaussures top tendance\nqui étaient deux fois plus longues\nque ce que vous portez maintenant{{string value=\"...\"}}{{pageBreak}}{{anim id=\"OhGeez\" target=\"actor\" targetSpec=\"\"}}Tu peux pas comprendre. {{delay8}}À l'époque,\nc'était la marque des vrais durs.{{delay20}}\n{{anim id=\"Angry\" target=\"actor\" targetSpec=\"\"}}Hé !{{delay8}} Arrête tout de suite de sourire !"
  },
  {
    "label": "015",
    "attribute": "0x0000000000000000",
    "text": "{{anim id=\"WrySmile\" target=\"actor\" targetSpec=\"\"}}Je portais des pantalons tellement\namples qu'on pouvait littéralement\ns'en servir comme parachutes.\n{{anim id=\"Negative\" target=\"actor\" targetSpec=\"\"}}Impossible de courir avec, bien sûr.\n{{delay8}}C'est à peine si je pouvais marcher,{{delay8}}{{anim id=\"SmugFace\" target=\"actor\" targetSpec=\"\"}}\nmais j'avais une telle classe !"
  },
  {
    "label": "016",
    "attribute": "0x0000000000000000",
    "text": "{{anim id=\"AbsentMindedness\" target=\"actor\" targetSpec=\"\"}}J'avais cette super bécane, tu vois{{string value=\"...\"}}{{pageBreak}}{{anim id=\"Nodding\" target=\"actor\" targetSpec=\"\"}}Je l'avais bricolée pour mettre\nla selle au ras du sol et monter\nle guidon le plus haut possible.\n{{anim id=\"OhGeez\" target=\"actor\" targetSpec=\"\"}}Bien sûr, j'y voyais rien et c'est à\npeine si je pouvais la conduire{{string value=\"...\"}}{{pageBreak}}{{anim id=\"SmugFace\" target=\"actor\" targetSpec=\"\"}}Mais vu le nombre de gens qui\ns'arrêtaient sur mon passage,\nje devais dégager une classe folle !"
  },
  {
    "label": "018",
    "attribute": "0x1300000100000009",
    "text": "{{anim id=\"WrySmile\" target=\"actor\" targetSpec=\"\"}}Hé hé{{string value=\"...\"}}{{pageBreak}}{{anim id=\"ShyBoy\" target=\"actor\" targetSpec=\"\"}}Ah,{{delay8}} désolé {{gender2 m=\"gamin\" f=\"gamine\"}}. {{delay8}}J'pensais à un jeu\nauquel on jouait quand j'étais petit.\nOn savait s'amuser à l'époque{{string value=\"...\"}}"
  },
  {
    "label": "019",
    "attribute": "0x0000000000000000",
    "text": "{{fun_0001003C arg=\"0x140015001600\"}}"
  },
  {
    "label": "020",
    "attribute": "0x0000000000000000",
    "text": "{{anim id=\"AbsentMindedness\" target=\"actor\" targetSpec=\"\"}}On jouait à ce jeu qui s'appelait\n« Ça perçait ».{{pageBreak}}{{anim id=\"Explain\" target=\"actor\" targetSpec=\"\"}}Un joueur faisait le « perceur » et il\ndevait arriver à en toucher un autre\ndu bout du doigt pour le « percer ».\n{{anim id=\"Explain\" target=\"actor\" targetSpec=\"\"}}Le joueur percé devait alors faire un\ntrou dans ses vêtements et rejoignait\nle camp du perceur.\n{{anim id=\"Assent\" target=\"actor\" targetSpec=\"\"}}Pour gagner, il fallait être le dernier\nà garder ses vêtements intacts.{{pageBreak}}{{anim id=\"OhGeez\" target=\"actor\" targetSpec=\"\"}}Va savoir pourquoi,{{delay8}} mais nos parents\nnous ont très vite interdit de jouer\nà ce jeu{{string value=\"...\"}}"
  },
  {
    "label": "021",
    "attribute": "0x0000000000000000",
    "text": "{{anim id=\"Nodding\" target=\"actor\" targetSpec=\"\"}}On n'avait pas besoin de tous ces\nbidules électroniques sur lesquels\nvous restez collés toute la journée.{{pageBreak}}{{anim id=\"AbsentMindedness\" target=\"actor\" targetSpec=\"\"}}On n'avait besoin que de ce que\nla nature voulait bien nous donner\net d'une bonne dose d'imagination{{string value=\"...\"}}\n{{anim id=\"Angry\" target=\"actor\" targetSpec=\"\"}}Et ça nous suffisait amplement !"
  },
  {
    "label": "022",
    "attribute": "0x0000000000000000",
    "text": "{{anim id=\"SmugFace\" target=\"actor\" targetSpec=\"\"}}Ça s'appelait « 1, 2, 3, sommeil ».\n{{anim id=\"AbsentMindedness\" target=\"actor\" targetSpec=\"\"}}Ça se jouait presque de la même\nfaçon que « 1, 2, 3, soleil »{{string value=\"...\"}}\n{{anim id=\"Explain\" target=\"actor\" targetSpec=\"\"}}Sauf que quand celui qui comptait\nse retournait, il fallait que tout le\nmonde soit couché sur le sol."
  },
  {
    "label": "024",
    "attribute": "0x1B00000100000009",
    "text": "{{anim id=\"Worried\" target=\"actor\" targetSpec=\"\"}}J'ai toujours une tête bizarre sur les\nphotos{{string value=\"...\"}}{{delay8}}{{anim id=\"Hesitate\" target=\"actor\" targetSpec=\"\"}} Comment font ceux qui\narrivent à avoir l'air naturel ?"
  },
  {
    "label": "025",
    "attribute": "0x0000000000000000",
    "text": "{{anim id=\"Restless\" target=\"actor\" targetSpec=\"\"}}Ça me crispe quand on pointe un\nobjectif sur moi.{{delay20}}{{anim id=\"OhGeez\" target=\"actor\" targetSpec=\"\"}} Je sais jamais ce\nque je dois faire,{{delay8}} {{string value=\"Catchphrase\"}}.\n{{anim id=\"Explain\" target=\"actor\" targetSpec=\"\"}}On m'a dit {{delay8}}« sois naturel ! »{{delay frames=\"40\"}} {{anim id=\"Negative\" target=\"actor\" targetSpec=\"\"}}Mais si\nmon naturel, c'est d'être crispé face\nà un objectif,{{delay8}} je fais comment ?"
  },
  {
    "label": "026",
    "attribute": "0x0000000000000000",
    "text": "{{anim id=\"Oops\" target=\"actor\" targetSpec=\"\"}}On m'a dit « sois naturel »{{string value=\"...\"}}\n{{anim id=\"Angry\" target=\"actor\" targetSpec=\"\"}}Merci,{{delay8}} mais c'est le meilleur moyen\nd'obtenir l'effet inverse !\n{{anim id=\"Pardon\" target=\"actor\" targetSpec=\"\"}}Tu ne me crois pas ? {{delay20}}Ben essaie de\nrespirer normalement pendant une\nminute,{{delay8}} on va voir si t'y arrives !"
  },
  {
    "label": "027",
    "attribute": "0x0000000000000000",
    "text": "{{fun_0000003C arg=\"0x19001A00\"}}"
  },
  {
    "label": "028",
    "attribute": "0x1D00000100000009",
    "text": "{{anim id=\"AbsentMindedness\" target=\"actor\" targetSpec=\"\"}}Y a rien de mieux que regarder le ciel\nétoilé, gamin{{gender2 m=\"\" f=\"e\"}}. À chaque fois, je me\npose des tas de questions{{string value=\"...\"}}"
  },
  {
    "label": "029",
    "attribute": "0x0000000000000000",
    "text": "{{fun_0014003C arg=\"\"}}"
  },
  {
    "label": "029_01",
    "attribute": "0x0000000000000000",
    "text": "{{anim id=\"Confused\" target=\"actor\" targetSpec=\"\"}}Je comprends pas{{string value=\"...\"}} Comment je\npeux voir des étoiles à des millions\nd'années-lumière{{string value=\"...\"}}\n... mais j'ai besoin de mes lunettes\npour lire le journal ?{{pageBreak}}{{anim id=\"QuestionMark\" target=\"actor\" targetSpec=\"\"}}Et si le fond des océans et le sommet\ndes montagnes était en fait la même\nchose, d'une certaine manière ?{{pageBreak}}{{anim id=\"Worried\" target=\"actor\" targetSpec=\"\"}}Si {{wordArticle}}{{randomObj}} tombe chez moi, mais que je suis pas là pour l'entendre, {{gender8 m=\"il\" f=\"elle\" n=\"\"}} fait du bruit ?{{pageBreak}}{{anim id=\"OhGeez\" target=\"actor\" targetSpec=\"\"}}Pfiou ! {{delay20}}Les questions existentielles,\nça suffit pour l'instant. {{delay20}}{{anim id=\"AbsentMindedness\" target=\"actor\" targetSpec=\"\"}}Je vais juste\ncontinuer de regarder les étoiles{{string value=\"...\"}}"
  },
  {
    "label": "029_02",
    "attribute": "0x0000000000000000",
    "text": "{{anim id=\"Thinking\" target=\"actor\" targetSpec=\"\"}}Tu sais ce qu'on dit ? Que tout est\nfait de poussière d'étoiles.{{delay frames=\"40\"}}{{anim id=\"Angry\" target=\"actor\" targetSpec=\"\"}} Mais\ncomment c'est possible ?\n{{anim id=\"Shocked\" target=\"actor\" targetSpec=\"\"}}{{capitalizeNextLetter}}{{wordArticle}}{{randomObj}} n'est que de la poussière d'étoiles ? {{delay20}}Et {{fun_00010032 arg=\"\"}}{{randomObj}} dans mon salon ?!{{pageBreak}}{{anim id=\"Frantic\" target=\"actor\" targetSpec=\"\"}}Et hier soir, j'ai mangé {{wordArticle}}{{randomFood}}. Tu vas me dire que j'ai mangé des étoiles ?{{pageBreak}}{{anim id=\"OhGeez\" target=\"actor\" targetSpec=\"\"}}Hm, maintenant que j'y pense, c'était\nquand même un peu épicé{{string value=\"...\"}}"
  },
  {
    "label": "029_03",
    "attribute": "0x0000000000000000",
    "text": "{{anim id=\"AbsentMindedness\" target=\"actor\" targetSpec=\"\"}}Toutes ces étoiles{{string value=\"...\"}} tu trouves pas\nqu'elles ressemblent à plein de petits\ngrains de riz ?{{pageBreak}}{{anim id=\"Thinking\" target=\"actor\" targetSpec=\"\"}}Au fait, qui a bien pu avoir l'idée de\ngoûter du riz pour savoir si c'est\nbon ?{{anim id=\"EmotEnd\" target=\"actor\" targetSpec=\"\"}}\nEst-ce que les gens mangeaient tout\net n'importe quoi en espérant que ce\nsoit comestible ?{{pageBreak}}{{anim id=\"Shocked\" target=\"actor\" targetSpec=\"\"}}Et le goût, comment ça marche ?\n{{delay20}}Pourquoi {{fun_00010032 arg=\"\"}}{{randomFood}} est meilleur{{gender8 m=\"\" f=\"e\" n=\"\"}} que le sable grillé ?{{pageBreak}}{{anim id=\"Silent\" target=\"actor\" targetSpec=\"\"}}Je répondrai pas aux questions sur\nle sable grillé. J'étais jeune, il y a\nprescription, {{string value=\"Catchphrase\"}}."
  },
  {
    "label": "030",
    "attribute": "0x1F00000100000009",
    "text": "{{anim id=\"QuestionMark\" target=\"actor\" targetSpec=\"\"}}Ça t'est déjà arrivé de te mettre à un\nnouveau hobby et de ne pas voir la\njournée passer ?"
  },
  {
    "label": "031",
    "attribute": "0x0000000000000000",
    "text": "{{fun_0014003C arg=\"\"}}"
  },
  {
    "label": "031_01",
    "attribute": "0x0000000000000000",
    "text": "{{anim id=\"Nodding\" target=\"actor\" targetSpec=\"\"}}Récemment, {{delay8}}je me suis pris d'intérêt\npour le taillage de crayons. {{delay20}}Je me\nsuis offert un taille-crayon de pro.{{pageBreak}}{{anim id=\"Grin\" target=\"actor\" targetSpec=\"\"}}Quand j'étais petiot, {{delay8}}je cassais mes\nmines exprès pour pouvoir utiliser le\ntaille-crayons de compète de l'instit.{{pageBreak}}{{anim id=\"AbsentMindedness\" target=\"actor\" targetSpec=\"\"}}Aaah, {{delay8}}l'odeur du bois, {{delay8}}et les jolies\népluchures en tire-bouchon{{string value=\"...\"}} {{anim id=\"BigSmile\" target=\"actor\" targetSpec=\"\"}}Mes\nmeilleurs souvenirs scolaires, ça !{{pageBreak}}{{anim id=\"Smiling\" target=\"actor\" targetSpec=\"\"}}Et maintenant, je peux revivre ces\nsensations quand je veux !{{delay20}} Parfois,\ngrandir a du bon, {{string value=\"6\"}} !"
  },
  {
    "label": "031_02",
    "attribute": "0x0000000000000000",
    "text": "{{anim id=\"Nodding\" target=\"actor\" targetSpec=\"\"}}Dernièrement,{{delay8}} je me suis pris\nd'intérêt pour le pelage d'échalotes\nen série.{{pageBreak}}{{anim id=\"AbsentMindedness\" target=\"actor\" targetSpec=\"\"}}J'adore retirer la couche sèche\njusqu'à atteindre la chair croquante.{{pageBreak}}{{anim id=\"Grin\" target=\"actor\" targetSpec=\"\"}}Chaque fois, je compte combien\nj'arrive à en peler avant que mes\nyeux ne se mettent à dégouliner.{{pageBreak}}{{anim id=\"Smiling\" target=\"actor\" targetSpec=\"\"}}Mon record, c'est {{number value=\"1\" index=\"0\"}}, {{string value=\"6\"}} !{{delay20}} {{anim id=\"Laughing\" target=\"actor\" targetSpec=\"\"}}Ha ha ha !"
  },
  {
    "label": "031_03",
    "attribute": "0x0000000000000000",
    "text": "{{anim id=\"AbsentMindedness\" target=\"actor\" targetSpec=\"\"}}Par exemple, {{delay8}}découper des choux,\nça me passionne, {{string value=\"6\"}}.{{anim id=\"EmotEnd\" target=\"actor\" targetSpec=\"\"}}{{pageBreak}}Une fois que tu as pris le rythme,\nc'est l'extase ! {{delay8}}Et là, les heures\nfilent,{{delay8}} c'est fou !{{pageBreak}}{{anim id=\"ShyBoy\" target=\"actor\" targetSpec=\"\"}}Et après, {{delay8}}tu mets le tout dans ta\nbaignoire avec du sel,{{delay8}} et tu prépares\nde la choucroute !"
  },
  {
    "label": "032",
    "attribute": "0x2100000100000009",
    "text": "{{anim id=\"EmotEnd\" target=\"actor\" targetSpec=\"\"}}Tu es du genre à apprécier les\nastuces non sollicitées, pas vrai ?{{delay20}}\n{{anim id=\"Smiling\" target=\"actor\" targetSpec=\"\"}}Ça tombe bien, j'en ai une !"
  },
  {
    "label": "033",
    "attribute": "0x0000000000000000",
    "text": "{{fun_0014003C arg=\"\"}}"
  },
  {
    "label": "033_01",
    "attribute": "0x2200000000000000",
    "text": "{{anim id=\"EmotEnd\" target=\"actor\" targetSpec=\"\"}}Tu savais{{string value=\"...\"}}{{delay20}}{{anim id=\"BigSmile\" target=\"actor\" targetSpec=\"\"}} qu'on peut effacer les\ntraces de marqueur permanent avec\ndes peaux d'oranges ?{{pageBreak}}{{anim id=\"Explain\" target=\"actor\" targetSpec=\"\"}}J'ai cru que c'était un bobard\njusqu'au jour où la nièce d'un pote a\nlâché sa créativité sur ses murs.{{pageBreak}}{{anim id=\"Confused\" target=\"actor\" targetSpec=\"\"}}Faut quand même faire gaffe,{{delay8}} parce\nque quand on plie une peau\nd'orange,{{delay8}} elle peut gicler !{{pageBreak}}{{anim id=\"Negative\" target=\"actor\" targetSpec=\"\"}}Alors attention les yeux{{string value=\"...\"}} au pire,\ntu peux mettre des lunettes de\nplongée."
  },
  {
    "label": "033_02",
    "attribute": "0x2200000000000000",
    "text": "{{anim id=\"Serious\" target=\"actor\" targetSpec=\"\"}}Tu seras certainement d'accord que\ntout le monde fait des listes de\ncourses.{{pageBreak}}{{anim id=\"Blushing\" target=\"actor\" targetSpec=\"\"}}Et que tout le monde oublie\nd'emporter sa liste en allant au\nmagasin.{{delay20}} La solution ?{{delay20}} {{anim id=\"Smiling\" target=\"actor\" targetSpec=\"\"}}La poster !{{pageBreak}}{{anim id=\"SmugFace\" target=\"actor\" targetSpec=\"\"}}Ouaip !{{delay20}} J'écris ma liste,{{delay8}} je la mets\ndans une enveloppe{{delay8}} et je l'envoie\nau magasin.{{delay20}} Elle m'attendra là-bas !{{pageBreak}}{{anim id=\"Restless\" target=\"actor\" targetSpec=\"\"}}Bien sûr, il faut s'y prendre un peu\nen avance, le temps que le courrier\narrive.{{delay20}} Faut que j'y réfléchisse{{string value=\"...\"}}"
  },
  {
    "label": "033_03",
    "attribute": "0x2200000000000000",
    "text": "{{anim id=\"EmotEnd\" target=\"actor\" targetSpec=\"\"}}Tu savais{{string value=\"...\"}}{{delay20}}{{anim id=\"BigSmile\" target=\"actor\" targetSpec=\"\"}} que tu peux préserver\ntes vêtements en les lavant à\nl'envers ?{{pageBreak}}{{anim id=\"Explain\" target=\"actor\" targetSpec=\"\"}}Par contre, oublie pas de les\nretourner avant de t'habiller,\ngamin{{gender2 m=\"\" f=\"e\"}}.{{pageBreak}}{{anim id=\"Blushing\" target=\"actor\" targetSpec=\"\"}}{{size value=\"75\"}}Ça m'arrive souvent d'oublier, alors j'apprécierais\nque tu fasses semblant d'avoir rien vu,{{delay8}} je te le\nrevaudrai.{{size value=\"100\"}}"
  },
  {
    "label": "033_04",
    "attribute": "0x2200000000000000",
    "text": "{{anim id=\"EmotEnd\" target=\"actor\" targetSpec=\"\"}}Tu savais{{string value=\"...\"}}{{anim id=\"BigSmile\" target=\"actor\" targetSpec=\"\"}} que le meilleur moyen de\nnettoyer tes carreaux est d'utiliser\ndu papier journal, {{string value=\"6\"}} ?{{pageBreak}}{{anim id=\"Nodding\" target=\"actor\" targetSpec=\"\"}}Eh ouais !{{delay20}} Avec du papier journal et\nun peu de lave-vitre, tes carreaux\nseront ultra propres !{{pageBreak}}{{anim id=\"EmotEnd\" target=\"actor\" targetSpec=\"\"}}Et en prime,{{delay8}} {{anim id=\"ShyBoy\" target=\"actor\" targetSpec=\"\"}}t'auras de quoi lire s'il\nte prend l'envie de faire une pause !"
  },
  {
    "label": "034",
    "attribute": "0x0000000000000000",
    "text": "{{anim id=\"FaintSmile\" target=\"actor\" targetSpec=\"\"}}Grâce à moi,{{delay8}} t'auras de quoi épater\ntes amis !{{delay20}} {{anim id=\"Greeting\" target=\"actor\" targetSpec=\"\"}}Inutile de me remercier,\nc'est d'bon cœur, {{string value=\"6\"}}."
  }
]