﻿[
  {
    "label": "001",
    "text": "¡{{capitalizeNextLetter}}{{string value=\"NickName\"}}!"
  },
  {
    "label": "002",
    "text": "¡Hola, {{string value=\"NickName\"}}!"
  },
  {
    "label": "003",
    "text": "Querid{{gender2 m=\"o\" f=\"a\"}} {{string value=\"NickName\"}}:"
  },
  {
    "label": "004",
    "text": "Buenas, {{string value=\"NickName\"}}:"
  },
  {
    "label": "005",
    "text": "Saludos, {{string value=\"NickName\"}}:"
  },
  {
    "label": "006",
    "text": "¡Muy buenas, {{string value=\"NickName\"}}!"
  },
  {
    "label": "007",
    "text": "¿Qué tal, {{string value=\"NickName\"}}?"
  },
  {
    "label": "008",
    "text": "Hola, {{string value=\"NickName\"}}:"
  },
  {
    "label": "009",
    "text": "Mi estimad{{gender2 m=\"o\" f=\"a\"}} {{string value=\"NickName\"}}..."
  },
  {
    "label": "010",
    "text": "¡Hola, hola, {{string value=\"NickName\"}}!"
  },
  {
    "label": "201",
    "text": "{{string value=\"VillagerName\"}}"
  },
  {
    "label": "202",
    "text": "Tu amigo, {{string value=\"VillagerName\"}}"
  },
  {
    "label": "203",
    "text": "Saludos, {{string value=\"VillagerName\"}}"
  },
  {
    "label": "204",
    "text": "Hasta la próxima, {{string value=\"VillagerName\"}}"
  },
  {
    "label": "205",
    "text": "Nos vemos, {{string value=\"VillagerName\"}}"
  },
  {
    "label": "206",
    "text": "Cambio y fuera, {{string value=\"VillagerName\"}}"
  },
  {
    "label": "207",
    "text": "Saluditos, {{string value=\"VillagerName\"}}"
  },
  {
    "label": "208",
    "text": "Carpe diem, {{string value=\"VillagerName\"}}"
  },
  {
    "label": "209",
    "text": "Hasta la vista, {{string value=\"VillagerName\"}}"
  },
  {
    "label": "210",
    "text": "Sin otro particular, {{string value=\"VillagerName\"}}"
  }
]