﻿[
  {
    "label": "0010",
    "text": "Wachtkamer"
  },
  {
    "label": "0011",
    "text": "Behandelkamer"
  },
  {
    "label": "0012",
    "text": "Ziekenzaal"
  },
  {
    "label": "0020",
    "text": "Eetzaal"
  },
  {
    "label": "0021",
    "text": "Keuken"
  },
  {
    "label": "0022",
    "text": "Vip-eetruimte"
  },
  {
    "label": "0030",
    "text": "Eetruimte"
  },
  {
    "label": "0031",
    "text": "Galerie"
  },
  {
    "label": "0100",
    "text": "Vakantiehuis van {{selection value=\"SelectedVillager\"}}"
  },
  {
    "label": "0105",
    "text": "Vakantiehuis van {{selection value=\"SelectedVillager\"}} en {{selection value=\"SelectedVillager\"}}"
  },
  {
    "label": "0106",
    "text": "Vakantiehuis van {{fun_00090096 arg=\"0x00CD\"}}"
  },
  {
    "label": "0107",
    "text": "{{capitalizeNextLetter}}{{fun_00030096 arg=\"0x00CD\"}}"
  },
  {
    "label": "0201",
    "text": "School"
  },
  {
    "label": "0202",
    "text": "Ziekenhuis"
  },
  {
    "label": "0203",
    "text": "Restaurant"
  },
  {
    "label": "0204",
    "text": "Café"
  },
  {
    "label": "0205",
    "text": "Kledingwinkel"
  },
  {
    "label": "0301",
    "text": "Wie moet er dezelfde outfit aan als {{color id=\"1\"}}{{selection value=\"SelectedVillager\"}}{{color id=\"65535\"}}?"
  }
]