﻿[
  {
    "label": "0001",
    "text": "Wanneer wil je dit ontvangen?"
  },
  {
    "label": "0101",
    "text": "Oké"
  },
  {
    "label": "0301",
    "text": "Jaar"
  },
  {
    "label": "0401",
    "text": "Maand"
  },
  {
    "label": "0501",
    "text": "Dag"
  },
  {
    "label": "0601",
    "text": "-"
  },
  {
    "label": "0701",
    "text": "-"
  }
]