﻿[
  {
    "label": "0021",
    "text": "Spaargeld"
  },
  {
    "label": "0031",
    "text": "Resterende lening"
  },
  {
    "label": "0041",
    "text": "Maak een keuze in het onderstaande menu."
  },
  {
    "label": "0131",
    "text": "Hoe wil je je lening aflossen?"
  },
  {
    "label": "0151",
    "text": "Bedankt voor je bezoek!"
  },
  {
    "label": "0171",
    "text": "Lening aflossen"
  },
  {
    "label": "0172",
    "text": "Klingels storten"
  },
  {
    "label": "0173",
    "text": "Klingels opnemen"
  },
  {
    "label": "0175",
    "text": "Contant"
  },
  {
    "label": "0176",
    "text": "Met spaargeld"
  }
]