﻿[
  {
    "label": "001",
    "text": "{{wordInfo gender=\"0\" indefArticle=\"1\" defArticle=\"3\"}}brick island counter"
  },
  {
    "label": "002",
    "text": "{{wordInfo gender=\"0\" indefArticle=\"1\" defArticle=\"3\"}}simple island counter"
  },
  {
    "label": "003",
    "text": "{{wordInfo gender=\"0\" indefArticle=\"1\" defArticle=\"3\"}}concrete island counter"
  },
  {
    "label": "004",
    "text": "{{wordInfo gender=\"0\" indefArticle=\"1\" defArticle=\"3\"}}marble island counter"
  },
  {
    "label": "005",
    "text": "{{wordInfo gender=\"0\" indefArticle=\"1\" defArticle=\"3\"}}steel island counter"
  },
  {
    "label": "006",
    "text": "{{wordInfo gender=\"0\" indefArticle=\"1\" defArticle=\"3\"}}golden island counter"
  }
]