﻿[
  {
    "label": "001",
    "attribute": "0x0000020000000000",
    "text": "{{anim id=\"FaintSmile\" target=\"actor\" targetSpec=\"\"}}Non vorrei disturbarti, {{string value=\"6\"}},\n{{delay20}}{{anim id=\"ShyBoy\" target=\"actor\" targetSpec=\"\"}}ma che ne diresti di comprare\n{{gender8 m=\"il\" f=\"la\" n=\"\"}} {{gender8 m=\"mio\" f=\"mia\" n=\"\"}} {{fun_0000007D arg=\"0x0000\"}}?"
  },
  {
    "label": "001_a",
    "attribute": "0x0000000000000000",
    "text": "Sì, ma quanto costa?"
  },
  {
    "label": "001_b",
    "attribute": "0x0000000000000000",
    "text": "{{anim id=\"ColdChill\" target=\"player\" targetSpec=\"\"}}No, grazie."
  },
  {
    "label": "002",
    "attribute": "0x0000020000000000",
    "text": "{{anim id=\"FaintSmile\" target=\"actor\" targetSpec=\"\"}}Ehi {{string value=\"PlayerName\"}}, che ne dici di{{delay20}}\n{{anim id=\"ShyBoy\" target=\"actor\" targetSpec=\"\"}}farti un regalo e comprare {{gender8 m=\"il mio\" f=\"la mia\" n=\"\"}}\n{{fun_0000007D arg=\"0x0000\"}}?"
  },
  {
    "label": "002_a",
    "attribute": "0x0000000000000000",
    "text": "{{anim id=\"EmotEnd\" target=\"actor\" targetSpec=\"\"}}Sì. Quante stelline?"
  },
  {
    "label": "002_b",
    "attribute": "0x0000000000000000",
    "text": "Non mi interessa."
  },
  {
    "label": "003",
    "attribute": "0x0000020000000000",
    "text": "{{anim id=\"Aha\" target=\"actor\" targetSpec=\"\"}}Oh!{{delay frames=\"13\"}} Che coincidenza!{{delay40}}{{anim id=\"ShyBoy\" target=\"actor\" targetSpec=\"\"}} Sto facendo un\npo' di spazio in casa e vorrei disfarmi\ndi ciò che non mi serve vendendolo{{string value=\"...\"}}\n{{anim id=\"Worried\" target=\"actor\" targetSpec=\"\"}}Le cose però non vanno secondo\ni piani. {{delay20}}{{anim id=\"OhGeez\" target=\"actor\" targetSpec=\"\"}}Ho ancora quattro articoli\ninvenduti.\n{{anim id=\"Restless\" target=\"actor\" targetSpec=\"\"}}Forse, {{delay8}}ti interesserebbe aiutarmi, {{string value=\"6\"}}?"
  },
  {
    "label": "003_a",
    "attribute": "0x0000000000000000",
    "text": "{{anim id=\"EmotEnd\" target=\"actor\" targetSpec=\"\"}}Dimmi cosa fare."
  },
  {
    "label": "003_b",
    "attribute": "0x0000000000000000",
    "text": "{{anim id=\"Worried\" target=\"actor\" targetSpec=\"\"}}Ho troppo da fare."
  },
  {
    "label": "004",
    "attribute": "0x0000020000000000",
    "text": "{{anim id=\"Eh\" target=\"actor\" targetSpec=\"\"}}Oh, {{string value=\"NickName\"}}.{{delay40}}{{anim id=\"EmotEnd\" target=\"actor\" targetSpec=\"\"}} Al concorso\ncon i punti del latte ho vinto\n{{wordArticle}}{{fun_0000007D arg=\"0x0000\"}}{{string value=\"...\"}}\n{{anim id=\"Thinking\" target=\"actor\" targetSpec=\"\"}}È meraviglioso, certo, solo che{{delay20}}{{anim id=\"Negative\" target=\"actor\" targetSpec=\"\"}} non\npensavo avrei vinto,{{delay20}}{{anim id=\"WrySmile\" target=\"actor\" targetSpec=\"\"}} quindi avevo già\ncomprato lo stesso esatto articolo!{{pageBreak}}{{anim id=\"ShyBoy\" target=\"actor\" targetSpec=\"\"}}Non mi pare abbia senso averne due\nidentici,{{delay20}} {{anim id=\"FaintSmile\" target=\"actor\" targetSpec=\"\"}}quindi ecco, se lo comprassi\ntu{{string value=\"...\"}}"
  },
  {
    "label": "004_a",
    "attribute": "0x0000000000000000",
    "text": "{{anim id=\"EmotEnd\" target=\"actor\" targetSpec=\"\"}}OK. Quanto vuoi?"
  },
  {
    "label": "004_b",
    "attribute": "0x0000000000000000",
    "text": "Oh! No, mi dispiace."
  },
  {
    "label": "005",
    "attribute": "0x0000000000000000",
    "text": "{{anim id=\"Serious\" target=\"actor\" targetSpec=\"\"}}Oh{{string value=\"...\"}}{{delay20}} Va bene.{{delay40}} {{anim id=\"EmotEnd\" target=\"actor\" targetSpec=\"\"}}Dunque sì,{{delay20}} chiederò\nin giro. {{anim id=\"FaintSmile\" target=\"actor\" targetSpec=\"\"}}Sono sicura che interesserà\na qualcun altro, {{string value=\"6\"}}."
  },
  {
    "label": "006",
    "attribute": "0x0000000000000000",
    "text": "{{anim id=\"Worried\" target=\"actor\" targetSpec=\"\"}}Oh{{string value=\"...\"}}{{delay20}} Che peccato.{{delay20}}{{anim id=\"Negative\" target=\"actor\" targetSpec=\"\"}} Non sono riuscita\na destare il tuo interesse.{{delay20}} {{anim id=\"FaintSmile\" target=\"actor\" targetSpec=\"\"}}Magari in\nun altro momento, {{string value=\"6\"}}..."
  },
  {
    "label": "007",
    "attribute": "0x0000000000000000",
    "text": "{{anim id=\"Negative\" target=\"actor\" targetSpec=\"\"}}Troppo da fare per prendere al volo\nun affare?{{delay frames=\"13\"}}{{anim id=\"EmotEnd\" target=\"actor\" targetSpec=\"\"}} Va bene. Troverò una\nsoluzione.{{delay20}}{{anim id=\"FaintSmile\" target=\"actor\" targetSpec=\"\"}} Grazie a {{delay frames=\"13\"}}qualcun altro."
  },
  {
    "label": "008",
    "attribute": "0x0000000000000000",
    "text": "{{anim id=\"Negative\" target=\"actor\" targetSpec=\"\"}}Oh, no.{{delay20}} Va bene.{{delay20}} Non preoccuparti,\n{{string value=\"6\"}}!{{delay40}} {{anim id=\"EmotEnd\" target=\"actor\" targetSpec=\"\"}}Mi cercherò un'altra\nvittima, allora.{{delay frames=\"40\"}}{{anim id=\"FaintSmile\" target=\"actor\" targetSpec=\"\"}} Ops{{string value=\"...\"}} un altro cliente."
  },
  {
    "label": "009",
    "attribute": "0x0000000000000000",
    "text": "{{anim id=\"HappyFlower\" target=\"actor\" targetSpec=\"\"}}Oh, sì, {{delay8}}benissimo! {{delay frames=\"40\"}}{{anim id=\"Silent\" target=\"actor\" targetSpec=\"\"}}Ma senti, car{{gender2 m=\"o\" f=\"a\"}},{{delay20}} mi\nsembra che tu non abbia abbastanza\nstelline.{{pageBreak}}{{anim id=\"Sighing\" target=\"actor\" targetSpec=\"\"}}Mi dispiace averti fatto pressione{{delay20}}\nin un momento economicamente\ndifficile per te, {{string value=\"6\"}}.\n{{anim id=\"Nodding\" target=\"actor\" targetSpec=\"\"}}So come ci si sente, credimi.{{delay20}}\n{{anim id=\"FaintSmile\" target=\"actor\" targetSpec=\"\"}}Facciamo un'altra volta."
  },
  {
    "label": "100",
    "attribute": "0x0000020000000000",
    "text": "{{anim id=\"Smiling\" target=\"actor\" targetSpec=\"\"}}Oh, meraviglioso!{{delay40}} {{anim id=\"EmotEnd\" target=\"actor\" targetSpec=\"\"}}Che ne dici di\n{{delay20}}{{anim id=\"QuestionMark\" target=\"actor\" targetSpec=\"\"}}{{number value=\"21\" index=\"2\"}}?"
  },
  {
    "label": "100_a",
    "attribute": "0x0000000000000000",
    "text": "Dico di sì!"
  },
  {
    "label": "100_b",
    "attribute": "0x0000000000000000",
    "text": "Dico di no."
  },
  {
    "label": "101",
    "attribute": "0x0000000000000000",
    "text": "{{anim id=\"HappyDance\" target=\"actor\" targetSpec=\"\"}}Sei fantastic{{gender2 m=\"o\" f=\"a\"}}!"
  },
  {
    "label": "102",
    "attribute": "0x0000000000000000",
    "text": "{{anim id=\"Nodding\" target=\"actor\" targetSpec=\"\"}}Sapere che avrai cura {{gender8 m=\"del\" f=\"della\" n=\"\"}} {{gender8 m=\"mio\" f=\"mia\" n=\"\"}} {{fun_0000007D arg=\"0x0000\"}}{{delay20}} {{anim id=\"Smiling\" target=\"actor\" targetSpec=\"\"}}mi tranquillizza, {{string value=\"6\"}}."
  },
  {
    "label": "103",
    "attribute": "0x0000000000000000",
    "text": "{{anim id=\"Thinking\" target=\"actor\" targetSpec=\"\"}}Oh, capisco{{string value=\"...\"}}{{delay20}} Però,{{delay frames=\"40\"}}{{anim id=\"Pardon\" target=\"actor\" targetSpec=\"\"}} forse potrei\ncederti il mio articolo in modo del\ntutto gratuito?{{delay frames=\"40\"}}{{anim id=\"FaintSmile\" target=\"actor\" targetSpec=\"\"}} Mi faresti un favore."
  },
  {
    "label": "104",
    "attribute": "0x0000000000000000",
    "text": "{{anim id=\"Greeting\" target=\"actor\" targetSpec=\"\"}}Se {{fun_00010032 arg=\"\"}}{{fun_0000007D arg=\"0x0000\"}} ti tornasse utile,{{delay20}}{{anim id=\"Smiling\" target=\"actor\" targetSpec=\"\"}} sarebbe tanto di guadagnato, {{string value=\"6\"}}!"
  },
  {
    "label": "105",
    "attribute": "0x0000000000000000",
    "text": "{{anim id=\"Worried\" target=\"actor\" targetSpec=\"\"}}Oh, va bene{{string value=\"...\"}}{{delay40}}{{anim id=\"EmotEnd\" target=\"actor\" targetSpec=\"\"}} Allora chiederò in giro.\n{{delay20}}{{anim id=\"FaintSmile\" target=\"actor\" targetSpec=\"\"}}Sono certa che qualcuno sia in cerca\ndi un affare {{string value=\"6\"}}."
  },
  {
    "label": "200",
    "attribute": "0x0000040000000000",
    "text": "{{anim id=\"Greeting\" target=\"actor\" targetSpec=\"\"}}Oh!{{delay20}} Perfetto!{{delay40}} Come reagiresti se\nti chiedessi{{string value=\"...\"}} {{number value=\"21\" index=\"4\"}}?"
  },
  {
    "label": "200_a",
    "attribute": "0x0000000000000000",
    "text": "Penserei a un raggiro."
  },
  {
    "label": "200_b",
    "attribute": "0x0000000000000000",
    "text": "Mi starebbe bene."
  },
  {
    "label": "200_c",
    "attribute": "0x0000000000000000",
    "text": "Lascerei perdere."
  },
  {
    "label": "201",
    "attribute": "0x0000020000000000",
    "text": "{{anim id=\"Laughing\" target=\"actor\" targetSpec=\"\"}}Ah ah ah! Va bene, va bene.{{delay20}}{{anim id=\"Smiling\" target=\"actor\" targetSpec=\"\"}} Ti va\ndi tirare sul prezzo, eh?{{delay40}} Allora\nfacciamo pure {{number value=\"21\" index=\"2\"}}!"
  },
  {
    "label": "201_a",
    "attribute": "0x0000000000000000",
    "text": "Affare fatto!"
  },
  {
    "label": "201_b",
    "attribute": "0x0000000000000000",
    "text": "{{anim id=\"EmotEnd\" target=\"actor\" targetSpec=\"\"}}Mmmmmmh..."
  },
  {
    "label": "202",
    "attribute": "0x0000000000000000",
    "text": "{{anim id=\"Smiling\" target=\"actor\" targetSpec=\"\"}}Fantastico! Aggiudicato!{{delay40}}\nTi ringrazio molto, {{string value=\"6\"}}!"
  },
  {
    "label": "203",
    "attribute": "0x0000000000000000",
    "text": "{{anim id=\"Nodding\" target=\"actor\" targetSpec=\"\"}}Spero proprio che l'acquisto di\n{{gender8 m=\"questo\" f=\"questa\" n=\"\"}} {{fun_0000007D arg=\"0x0000\"}}\npossa renderti felice quanto me!"
  },
  {
    "label": "204",
    "attribute": "0x0000000000000000",
    "text": "{{anim id=\"Worried\" target=\"actor\" targetSpec=\"\"}}Oh no{{string value=\"...\"}} Non sono riuscita a tenere\nvivo il tuo interesse?{{delay40}}{{anim id=\"EmotEnd\" target=\"actor\" targetSpec=\"\"}}{{anim id=\"FaintSmile\" target=\"actor\" targetSpec=\"\"}} Chissà, magari\ncambi idea più tardi, {{string value=\"6\"}}."
  },
  {
    "label": "205",
    "attribute": "0x0000020000000000",
    "text": "{{anim id=\"Thinking\" target=\"actor\" targetSpec=\"\"}}Va bene{{string value=\"...\"}}{{delay40}} Facciamo {{anim id=\"QuestionMark\" target=\"actor\" targetSpec=\"\"}}{{number value=\"21\" index=\"1\"}}?{{delay20}}\nÈ la mia ultima offerta."
  },
  {
    "label": "205_a",
    "attribute": "0x0000000000000000",
    "text": "Aggiudicato!"
  },
  {
    "label": "205_b",
    "attribute": "0x0000000000000000",
    "text": "{{anim id=\"EmotEnd\" target=\"actor\" targetSpec=\"\"}}È davvero l'ultima?"
  },
  {
    "label": "206",
    "attribute": "0x0000000000000000",
    "text": "{{anim id=\"Confused\" target=\"actor\" targetSpec=\"\"}}Mmmh.{{delay20}}{{anim id=\"Negative\" target=\"actor\" targetSpec=\"\"}} Mi dispiace, {{delay frames=\"13\"}}ma non posso\nscendere al di sotto di questa\nsomma, {{string value=\"6\"}}{{string value=\"...\"}}"
  },
  {
    "label": "207",
    "attribute": "0x0000020000000000",
    "text": "{{anim id=\"ShyBoy\" target=\"actor\" targetSpec=\"\"}}Non sei {{gender2 m=\"uno\" f=\"una\"}} che molla facilmente,\neh {{string value=\"NickName\"}}? {{anim id=\"EmotEnd\" target=\"actor\" targetSpec=\"\"}}Va bene.\nVada per {{delay20}}{{number value=\"21\" index=\"0\"}}!"
  },
  {
    "label": "207_a",
    "attribute": "0x0000000000000000",
    "text": "Affare fatto."
  },
  {
    "label": "207_b",
    "attribute": "0x0000000000000000",
    "text": "Non mi convince."
  },
  {
    "label": "208",
    "attribute": "0x0000000000000000",
    "text": "{{anim id=\"Smiling\" target=\"actor\" targetSpec=\"\"}}Fantastico! Sapevo che avremmo\ntrovato un accordo."
  },
  {
    "label": "209",
    "attribute": "0x0000000000000000",
    "text": "{{anim id=\"ShyBoy\" target=\"actor\" targetSpec=\"\"}}Sei un osso duro, {{string value=\"NickName\"}}, quando si tratta di contrattare,{{delay20}} {{string value=\"6\"}}."
  },
  {
    "label": "210",
    "attribute": "0x0000000000000000",
    "text": "{{anim id=\"Worried\" target=\"actor\" targetSpec=\"\"}}Oh{{string value=\"...\"}} {{anim id=\"EmotEnd\" target=\"actor\" targetSpec=\"\"}}Va bene, {{string value=\"6\"}}{{string value=\"...\"}}\nMagari forse{{string value=\"...\"}}{{anim id=\"FaintSmile\" target=\"actor\" targetSpec=\"\"}} La prossima volta\nandrà meglio!"
  },
  {
    "label": "300",
    "attribute": "0x0000020000000000",
    "text": "{{anim id=\"Smiling\" target=\"actor\" targetSpec=\"\"}}Oh, che carin{{gender2 m=\"o\" f=\"a\"}}!{{pageBreak}}{{anim id=\"EmotEnd\" target=\"actor\" targetSpec=\"\"}}{{anim id=\"FaintSmile\" target=\"actor\" targetSpec=\"\"}}Potresti cominciare dall'acquisto di\n{{gender8 m=\"questo\" f=\"questa\" n=\"\"}} {{fun_0000007D arg=\"0x0000\"}}{{delay20}} per {{anim id=\"Hello\" target=\"actor\" targetSpec=\"\"}}{{number value=\"21\" index=\"1\"}}.{{pageBreak}}{{anim id=\"Nodding\" target=\"actor\" targetSpec=\"\"}}Sempre se per te va bene{{string value=\"...\"}}"
  },
  {
    "label": "300_a",
    "attribute": "0x0000000000000000",
    "text": "Ma certo!"
  },
  {
    "label": "300_b",
    "attribute": "0x0000000000000000",
    "text": "Non va bene."
  },
  {
    "label": "301",
    "attribute": "0x0000000000000000",
    "text": "{{anim id=\"HappyDance\" target=\"actor\" targetSpec=\"\"}}Perfetto! Sapevo di poter contare\nsul tuo aiuto!"
  },
  {
    "label": "302",
    "attribute": "0x0000000000000000",
    "text": "{{anim id=\"Nodding\" target=\"actor\" targetSpec=\"\"}}Grazie a te casa mia sembrerà un po'\npiù ordinata!{{delay40}} {{anim id=\"Hello\" target=\"actor\" targetSpec=\"\"}}Ti ringrazio molto,\n{{string value=\"6\"}}!"
  },
  {
    "label": "303",
    "attribute": "0x0000020000000000",
    "text": "{{anim id=\"Nodding\" target=\"actor\" targetSpec=\"\"}}Va bene.{{delay8}} Che ne dici allora di\n{{wordArticle}}{{fun_0000007D arg=\"0x0000\"}}\nper{{delay20}} {{anim id=\"QuestionMark\" target=\"actor\" targetSpec=\"\"}}{{number value=\"21\" index=\"1\"}}? È un affare!"
  },
  {
    "label": "303_a",
    "attribute": "0x0000000000000000",
    "text": "Colgo l'affare al volo!"
  },
  {
    "label": "303_b",
    "attribute": "0x0000000000000000",
    "text": "{{anim id=\"EmotEnd\" target=\"actor\" targetSpec=\"\"}}Riprova."
  },
  {
    "label": "304",
    "attribute": "0x0000020000000000",
    "text": "{{anim id=\"Thinking\" target=\"actor\" targetSpec=\"\"}}Va bene{{string value=\"...\"}}{{anim id=\"EmotEnd\" target=\"actor\" targetSpec=\"\"}}{{delay20}} Che ne diresti allora{{anim id=\"EmotEnd\" target=\"actor\" targetSpec=\"\"}}{{anim id=\"QuestionMark\" target=\"actor\" targetSpec=\"\"}}\ndi {{number value=\"21\" index=\"1\"}} in cambio di{{delay20}}\n{{wordArticle}}{{fun_0000007D arg=\"0x0000\"}}?"
  },
  {
    "label": "304_a",
    "attribute": "0x0000000000000000",
    "text": "Ci sto."
  },
  {
    "label": "304_b",
    "attribute": "0x0000000000000000",
    "text": "No, grazie."
  },
  {
    "label": "305",
    "attribute": "0x0000020000000000",
    "text": "{{anim id=\"Restless\" target=\"actor\" targetSpec=\"\"}}Va bene, va bene. {{delay20}}Ultima offerta:{{delay20}}\n{{wordArticle}}{{anim id=\"EmotEnd\" target=\"actor\" targetSpec=\"\"}}{{fun_0000007D arg=\"0x0000\"}}{{delay20}}\nper {{anim id=\"QuestionMark\" target=\"actor\" targetSpec=\"\"}}{{number value=\"21\" index=\"1\"}}. Che ne pensi?"
  },
  {
    "label": "305_a",
    "attribute": "0x0000000000000000",
    "text": "Ora sì che si ragiona."
  },
  {
    "label": "305_b",
    "attribute": "0x0000000000000000",
    "text": "No, grazie..."
  },
  {
    "label": "306",
    "attribute": "0x0000000000000000",
    "text": "{{anim id=\"Worried\" target=\"actor\" targetSpec=\"\"}}Oh, no{{string value=\"...\"}}{{delay40}}{{anim id=\"EmotEnd\" target=\"actor\" targetSpec=\"\"}}{{anim id=\"FaintSmile\" target=\"actor\" targetSpec=\"\"}} Vorrà dire che andrò in\ngiro a chiedere se qualcun altro\nè interessato, {{string value=\"6\"}}."
  },
  {
    "label": "400",
    "attribute": "0x0000020000000000",
    "text": "{{anim id=\"Smiling\" target=\"actor\" targetSpec=\"\"}}Oh, che bellezza! Sono così felice\ndi aver destato il tuo interesse!{{delay40}}\n{{anim id=\"EmotEnd\" target=\"actor\" targetSpec=\"\"}}Dunque,{{delay20}} facciamo {{anim id=\"QuestionMark\" target=\"actor\" targetSpec=\"\"}}{{number value=\"21\" index=\"3\"}}?"
  },
  {
    "label": "400_a",
    "attribute": "0x0000000000000000",
    "text": "Ci sto!"
  },
  {
    "label": "400_b",
    "attribute": "0x0000000000000000",
    "text": "{{anim id=\"EmotEnd\" target=\"actor\" targetSpec=\"\"}}Sono troppe stelline."
  },
  {
    "label": "401",
    "attribute": "0x0000000000000000",
    "text": "{{anim id=\"HappyDance\" target=\"actor\" targetSpec=\"\"}}Fantastico! Ti ringrazio molto!{{delay frames=\"40\"}} Vedrai\nche non te ne pentirai. Puoi starne\ncert{{gender2 m=\"o\" f=\"a\"}}!"
  },
  {
    "label": "402",
    "attribute": "0x0000000000000000",
    "text": "{{anim id=\"Smiling\" target=\"actor\" targetSpec=\"\"}}Ahah, {{string value=\"6\"}}!{{delay20}} Proprio una\nbella e semplice{{delay20}} maniera{{anim id=\"Grin\" target=\"actor\" targetSpec=\"\"}} per\nguadagnare un po' di stelline{{string value=\"...\"}}"
  },
  {
    "label": "403",
    "attribute": "0x0000020000000000",
    "text": "{{anim id=\"Thinking\" target=\"actor\" targetSpec=\"\"}}Mmmh, vediamo{{string value=\"...\"}} {{delay20}}{{anim id=\"QuestionMark\" target=\"actor\" targetSpec=\"\"}}{{number value=\"21\" index=\"2\"}}?"
  },
  {
    "label": "403_a",
    "attribute": "0x0000000000000000",
    "text": "Accetto."
  },
  {
    "label": "403_b",
    "attribute": "0x0000000000000000",
    "text": "{{anim id=\"EmotEnd\" target=\"actor\" targetSpec=\"\"}}Costa troppo!"
  },
  {
    "label": "404",
    "attribute": "0x0000020000000000",
    "text": "{{anim id=\"Thinking\" target=\"actor\" targetSpec=\"\"}}Fammi pensare{{string value=\"...\"}}{{delay40}}{{anim id=\"QuestionMark\" target=\"actor\" targetSpec=\"\"}} {{number value=\"21\" index=\"1\"}}\nsono una cifra accettabile?"
  },
  {
    "label": "404_a",
    "attribute": "0x0000000000000000",
    "text": "Sì, certo!"
  },
  {
    "label": "404_b",
    "attribute": "0x0000000000000000",
    "text": "{{anim id=\"EmotEnd\" target=\"actor\" targetSpec=\"\"}}No, ancora no."
  },
  {
    "label": "405",
    "attribute": "0x0000020000000000",
    "text": "{{anim id=\"Thinking\" target=\"actor\" targetSpec=\"\"}}Mmmh{{string value=\"...\"}}{{i10_4}} {{anim id=\"EmotEnd\" target=\"actor\" targetSpec=\"\"}}Va bene, hai vinto tu, ma\nquesta è la mia ultima offerta:{{delay40}}\n{{number value=\"21\" index=\"0\"}}."
  },
  {
    "label": "405_a",
    "attribute": "0x0000000000000000",
    "text": "Offerta accettata!"
  },
  {
    "label": "405_b",
    "attribute": "0x0000000000000000",
    "text": "Troppo per me..."
  },
  {
    "label": "406",
    "attribute": "0x0000000000000000",
    "text": "{{anim id=\"Smiling\" target=\"actor\" targetSpec=\"\"}}Fiuuu! Ero davvero sulle spine.{{delay40}} {{anim id=\"Nodding\" target=\"actor\" targetSpec=\"\"}}Sono\ncontenta che sia andato tutto bene,\nalla fine."
  },
  {
    "label": "407",
    "attribute": "0x0000000000000000",
    "text": "{{anim id=\"HappyDance\" target=\"actor\" targetSpec=\"\"}}Ogni tanto è divertente{{string value=\"...\"}}{{anim id=\"FaintSmile\" target=\"actor\" targetSpec=\"\"}} tralasciare\nle faccende e comportarsi come una\nvera donna d'affari, {{string value=\"6\"}}."
  },
  {
    "label": "408",
    "attribute": "0x0000000000000000",
    "text": "{{anim id=\"Worried\" target=\"actor\" targetSpec=\"\"}}Che peccato{{string value=\"...\"}}{{delay40}}{{anim id=\"EmotEnd\" target=\"actor\" targetSpec=\"\"}} Forse troverò altri\ninteressati all'acquisto.{{delay20}}{{anim id=\"FaintSmile\" target=\"actor\" targetSpec=\"\"}} Però mi sono\ndivertita a contrattare, {{string value=\"6\"}}."
  },
  {
    "label": "409",
    "attribute": "0x0000000000000000",
    "text": "{{anim id=\"Restless\" target=\"actor\" targetSpec=\"\"}}Mmmh{{string value=\"...\"}}{{delay40}} {{anim id=\"Negative\" target=\"actor\" targetSpec=\"\"}}Non posso scendere ancora\ndi più con il prezzo.{{delay40}}{{anim id=\"EmotEnd\" target=\"actor\" targetSpec=\"\"}} Poco male.{{delay8}}\n{{anim id=\"FaintSmile\" target=\"actor\" targetSpec=\"\"}}Magari un'altra volta, {{string value=\"6\"}}!"
  },
  {
    "label": "410",
    "attribute": "0x0000000000000000",
    "text": "{{anim id=\"Worried\" target=\"actor\" targetSpec=\"\"}}Mi dispiace.{{delay20}} {{anim id=\"Negative\" target=\"actor\" targetSpec=\"\"}}Non posso fare più\ndi così.{{delay40}}{{anim id=\"FaintSmile\" target=\"actor\" targetSpec=\"\"}} La trattativa finisce qui.\nMi arrendo, {{string value=\"6\"}}!"
  },
  {
    "label": "411",
    "attribute": "0x0000000000000000",
    "text": "{{anim id=\"Worried\" target=\"actor\" targetSpec=\"\"}}Peccato, {{string value=\"6\"}}.{{delay40}}{{anim id=\"Negative\" target=\"actor\" targetSpec=\"\"}} Non posso\nfarti un'offerta migliore{{string value=\"...\"}}{{delay40}}{{anim id=\"EmotEnd\" target=\"actor\" targetSpec=\"\"}} Chissà,\n{{delay8}}forse la prossima volta andrà meglio."
  }
]