﻿[
  {
    "label": "001",
    "attribute": "0x0000020000000000",
    "text": "{{anim id=\"Aha\" target=\"actor\" targetSpec=\"\"}}Lo sapevo!{{delay20}} Lo sa-pe-vo!{{delay40}}{{anim id=\"Smiling\" target=\"actor\" targetSpec=\"\"}} Tu hai\n{{delay20}}{{wordArticle}}{{fun_0000007D arg=\"0x0000\"}},\nvero?{{pageBreak}}{{anim id=\"Restless\" target=\"actor\" targetSpec=\"\"}}In altre parole,{{delay20}} tu hai proprio quello\nche stavo cercando.{{pageBreak}}{{anim id=\"Worried\" target=\"actor\" targetSpec=\"\"}}Sempre se non ci sei troppo\naffezionat{{gender2 m=\"o\" f=\"a\"}},{{delay20}} pensi che potresti\ncedermel{{gender8 m=\"o\" f=\"a\" n=\"\"}}?{{delay40}}{{anim id=\"Nodding\" target=\"actor\" targetSpec=\"\"}} Dietro compenso, ovvio!{{pageBreak}}{{anim id=\"Greeting\" target=\"actor\" targetSpec=\"\"}}Ti darei in cambio {{gender8 m=\"il mio\" f=\"la mia\" n=\"\"}}\n{{fun_0000007D arg=\"0x0100\"}}.\nÈ un affare, fidati."
  },
  {
    "label": "001_a",
    "attribute": "0x0000000000000000",
    "text": "Sì, mi fido di te."
  },
  {
    "label": "001_b",
    "attribute": "0x0000000000000000",
    "text": "Non se ne parla."
  },
  {
    "label": "002",
    "attribute": "0x0000020000000000",
    "text": "{{anim id=\"FaintSmile\" target=\"actor\" targetSpec=\"\"}}Ti andrebbe di fare un gioco, {{anim id=\"HappyDance\" target=\"actor\" targetSpec=\"\"}}{{string value=\"NickName\"}}? Ci serve{{delay20}}\n{{gender8 m=\"il tuo\" f=\"la tua\" n=\"\"}} {{fun_0000007D arg=\"0x0000\"}}!{{pageBreak}}{{anim id=\"Explain\" target=\"actor\" targetSpec=\"\"}}In realtà non è un vero e proprio\ngioco.{{delay8}} {{anim id=\"Greeting\" target=\"actor\" targetSpec=\"\"}}Funziona così: prima tu mi dai\n{{fun_00010032 arg=\"\"}}{{fun_0000007D arg=\"0x0000\"}}{{string value=\"...\"}}{{pageBreak}}{{anim id=\"Grin\" target=\"actor\" targetSpec=\"\"}}Poi io ti do un articolo misterioso\nin cambio.{{delay8}} Sembra divertente, no?{{i10_4}}\n{{anim id=\"Smiling\" target=\"actor\" targetSpec=\"\"}}Certo che lo è! {{delay20}}Allora, giochiamo?"
  },
  {
    "label": "002_a",
    "attribute": "0x0000000000000000",
    "text": "Sì, sembra divertente!"
  },
  {
    "label": "002_b",
    "attribute": "0x0000000000000000",
    "text": "No, sembra un furto!"
  },
  {
    "label": "003",
    "attribute": "0x0000020000000000",
    "text": "{{anim id=\"Sighing\" target=\"actor\" targetSpec=\"\"}}Uffa{{string value=\"...\"}} A volte sono proprio sbadata.{{delay40}}{{anim id=\"OhGeez\" target=\"actor\" targetSpec=\"\"}}\nTi è mai capitato di aver comprato\ncose inutili?{{delay20}}{{anim id=\"Worried\" target=\"actor\" targetSpec=\"\"}} A me sì{{string value=\"...\"}}\n{{anim id=\"Restless\" target=\"actor\" targetSpec=\"\"}}Ho appena pagato stelline sonanti\nper una cosa che avevo già a casa:\n{{wordArticle}}{{fun_0000007D arg=\"0x0100\"}}!\n{{anim id=\"Thinking\" target=\"actor\" targetSpec=\"\"}}Finirà in mezzo a tutte le altre\ncianfrusaglie{{string value=\"...\"}}{{delay20}}{{anim id=\"IdeaBulb\" target=\"actor\" targetSpec=\"\"}} Però! Ho un'idea!{{delay frames=\"40\"}}{{anim id=\"Hesitate\" target=\"actor\" targetSpec=\"\"}}\nTi faccio una proposta{{string value=\"...\"}}{{pageBreak}}{{anim id=\"Nodding\" target=\"actor\" targetSpec=\"\"}}Potrei scambiare {{gender8 m=\"il mio\" f=\"la mia\" n=\"\"}}\n{{fun_0000007D arg=\"0x0100\"}}{{delay20}}{{anim id=\"Hello\" target=\"actor\" targetSpec=\"\"}} per {{gender8 m=\"il tuo\" f=\"la tua\" n=\"\"}} {{fun_0000007D arg=\"0x0000\"}}!"
  },
  {
    "label": "003_a",
    "attribute": "0x0000000000000000",
    "text": "Vai con lo scambio!"
  },
  {
    "label": "003_b",
    "attribute": "0x0000000000000000",
    "text": "Non posso accettare."
  },
  {
    "label": "004",
    "attribute": "0x0000020000000000",
    "text": "{{anim id=\"Explain\" target=\"actor\" targetSpec=\"\"}}Ho cercato in lungo e in largo\n{{wordArticle}}{{fun_0000007D arg=\"0x0000\"}} per così tanto tempo{{string value=\"...\"}}{{pageBreak}}{{anim id=\"Thinking\" target=\"actor\" targetSpec=\"\"}}Sembra che non ce ne siano più,\nin giro.{{delay frames=\"40\"}} {{anim id=\"OhGeez\" target=\"actor\" targetSpec=\"\"}}Ma non riesco proprio a\nfarmene una ragione.{{pageBreak}}{{anim id=\"Surprised\" target=\"actor\" targetSpec=\"\"}}Oh!{{delay20}} Ma tu{{string value=\"...\"}} Sì, tu!{{delay8}} Tu, tra tutti gli\noggetti in tuo possesso, hai\n{{wordArticle}}{{fun_0000007D arg=\"0x0000\"}}!{{pageBreak}}{{anim id=\"Frantic\" target=\"actor\" targetSpec=\"\"}}Per favore, ti scongiuro! Facciamo\nuno scambio. Non puoi dirmi di no.{{pageBreak}}{{anim id=\"Hesitate\" target=\"actor\" targetSpec=\"\"}}Ecco!{{delay20}} Tieni pure {{gender8 m=\"il mio prezioso\" f=\"la mia preziosa\" n=\"\"}}\n{{fun_0000007D arg=\"0x0100\"}}{{string value=\"...\"}}!"
  },
  {
    "label": "004_a",
    "attribute": "0x0000000000000000",
    "text": "D'accordo!"
  },
  {
    "label": "004_b",
    "attribute": "0x0000000000000000",
    "text": "Per niente al mondo."
  },
  {
    "label": "100",
    "attribute": "0x0000000000000000",
    "text": "{{anim id=\"BigSmile\" target=\"actor\" targetSpec=\"\"}}Questo sì che è lo spirito giusto!{{delay40}}\n{{anim id=\"Greeting\" target=\"actor\" targetSpec=\"\"}}Procediamo subito allo scambio!"
  },
  {
    "label": "101",
    "attribute": "0x0000000000000000",
    "text": "{{anim id=\"Worried\" target=\"actor\" targetSpec=\"\"}}Oh{{string value=\"...\"}}{{delay40}}{{anim id=\"EmotEnd\" target=\"actor\" targetSpec=\"\"}} Che peccato.{{pageBreak}}{{anim id=\"Nodding\" target=\"actor\" targetSpec=\"\"}}Sono sicura, però, che tu sia spint{{gender2 m=\"o\" f=\"a\"}}\npiù dal tuo attaccamento all'oggetto\nche dalla mancanza di fiducia in me.\n{{anim id=\"FaintSmile\" target=\"actor\" targetSpec=\"\"}}Va bene.{{delay20}} Allora{{string value=\"...\"}} alla prossima,\n{{string value=\"6\"}}."
  },
  {
    "label": "102",
    "attribute": "0x0000000000000000",
    "text": "{{anim id=\"Smiling\" target=\"actor\" targetSpec=\"\"}}Sei eccezionale, {{string value=\"NickName\"}}!{{delay40}}\n{{anim id=\"HappyDance\" target=\"actor\" targetSpec=\"\"}}Eccezionale come questa giornata,\n{{string value=\"6\"}}!"
  },
  {
    "label": "200",
    "attribute": "0x0000000000000000",
    "text": "{{anim id=\"Greeting\" target=\"actor\" targetSpec=\"\"}}Certo che lo è!{{delay40}} Non avevo dubbi sulla\ntua partecipazione.{{delay40}}{{anim id=\"BigSmile\" target=\"actor\" targetSpec=\"\"}} Allora,{{delay20}} pront{{gender2 m=\"o\" f=\"a\"}}?{{pageBreak}}{{anim id=\"AbsentMindedness\" target=\"actor\" targetSpec=\"\"}}{{gender8 m=\"Il tuo\" f=\"La tua\" n=\"\"}} {{fun_0000007D arg=\"0x0000\"}}{{delay20}} per\n{{gender8 m=\"il mio\" f=\"la mia\" n=\"\"}}{{string value=\"...\"}}{{anim id=\"HappyFlower\" target=\"actor\" targetSpec=\"\"}}{{fun_0000007D arg=\"0x0100\"}}!{{pageBreak}}Che meraviglioso scambio!"
  },
  {
    "label": "201",
    "attribute": "0x0000000000000000",
    "text": "{{anim id=\"Angry\" target=\"actor\" targetSpec=\"\"}}Cosa?{{delay20}} Con questo che vorresti dire?!{{delay20}}\n{{anim id=\"FaintSmile\" target=\"actor\" targetSpec=\"\"}}Avvisami quando smetti di detestare\nil divertimento, {{string value=\"6\"}}!"
  },
  {
    "label": "202",
    "attribute": "0x0000000000000000",
    "text": "{{anim id=\"Smiling\" target=\"actor\" targetSpec=\"\"}}Eh eh!{{delay20}} Sono o non sono brava a\ntrasformare gli eventi della vita\n{{anim id=\"HappyFlower\" target=\"actor\" targetSpec=\"\"}}in giochi divertenti, {{string value=\"6\"}}?"
  },
  {
    "label": "300",
    "attribute": "0x0000000000000000",
    "text": "{{anim id=\"HappyDance\" target=\"actor\" targetSpec=\"\"}}Fantastico, {{string value=\"NickName\"}}!{{delay40}}\nSono così contenta!{{delay40}}{{anim id=\"Greeting\" target=\"actor\" targetSpec=\"\"}} Molto bene\nallora,{{delay20}} procediamo allo scambio{{string value=\"...\"}}"
  },
  {
    "label": "301",
    "attribute": "0x0000000000000000",
    "text": "{{anim id=\"BigSmile\" target=\"actor\" targetSpec=\"\"}}Sono così sollevata!{{delay40}} {{anim id=\"FaintSmile\" target=\"actor\" targetSpec=\"\"}}Ecco qua!"
  },
  {
    "label": "302",
    "attribute": "0x0000000000000000",
    "text": "{{anim id=\"Smiling\" target=\"actor\" targetSpec=\"\"}}Mi ricorderò di tornare da te tutte le\nvolte che cercherò una sistemazione\nnuova per le mie cose, {{string value=\"6\"}}."
  },
  {
    "label": "303",
    "attribute": "0x0000000000000000",
    "text": "{{anim id=\"FaintSmile\" target=\"actor\" targetSpec=\"\"}}Sono pronta a farlo di nuovo al più\npresto, {{string value=\"6\"}}!"
  },
  {
    "label": "400",
    "attribute": "0x0000000000000000",
    "text": "{{anim id=\"Worried\" target=\"actor\" targetSpec=\"\"}}Oh{{string value=\"...\"}} Va bene così.{{delay40}}{{anim id=\"EmotEnd\" target=\"actor\" targetSpec=\"\"}} Non ti biasimo.{{delay20}}{{anim id=\"FaintSmile\" target=\"actor\" targetSpec=\"\"}}\nSarà per un'altra volta, {{string value=\"6\"}}."
  },
  {
    "label": "401",
    "attribute": "0x0000000000000000",
    "text": "{{anim id=\"Worried\" target=\"actor\" targetSpec=\"\"}}Oh, no,{{delay8}} che peccato.{{delay frames=\"40\"}}{{anim id=\"EmotEnd\" target=\"actor\" targetSpec=\"\"}} Del resto, però,\nquesta è pur sempre la tua\ndecisione{{string value=\"...\"}}{{pageBreak}}{{anim id=\"Restless\" target=\"actor\" targetSpec=\"\"}}Evidentemente è una cosa a cui tieni\nmolto,{{delay20}} {{anim id=\"Negative\" target=\"actor\" targetSpec=\"\"}}mentre io, senza pensarci,\nti ho proposto di separartene. \n{{anim id=\"Nodding\" target=\"actor\" targetSpec=\"\"}}Devo solo rivolgermi a qualcun altro{{delay20}}\n{{anim id=\"Greeting\" target=\"actor\" targetSpec=\"\"}}che sia meno legato alle sue cose,\n{{string value=\"6\"}}."
  }
]