﻿[
  {
    "label": "001",
    "attribute": "0x0000000000000000",
    "text": "{{anim id=\"FaintSmile\" target=\"actor\" targetSpec=\"\"}}Новый год на носу!{{delay8}}\n{{anim id=\"HappyDance\" target=\"actor\" targetSpec=\"\"}}Я так радуюсь, не могу\nусидеть на месте!"
  },
  {
    "label": "004",
    "attribute": "0x0000000000000000",
    "text": "{{anim id=\"Thinking\" target=\"actor\" targetSpec=\"\"}}Сейчас же не слишком рано идти\nна площадь для отсчета?{{anim id=\"EmotEnd\" target=\"actor\" targetSpec=\"\"}}{{pageBreak}}{{anim id=\"Worried\" target=\"actor\" targetSpec=\"\"}}Хочу посмотреть, во что одеты все\nостальные,{{delay20}} вдруг придется сбегать\nдомой и переодеться.{{delay20}} {{capitalizeNextLetter}}{{string value=\"Catchphrase\"}}!"
  },
  {
    "label": "005",
    "attribute": "0x0000000000000000",
    "text": "{{anim id=\"QuestionMark\" target=\"actor\" targetSpec=\"\"}}Успел{{gender2 m=\"\" f=\"а\"}} закончить все дела в этом\nгоду?{{delay20}} {{anim id=\"FaintSmile\" target=\"actor\" targetSpec=\"\"}}У тебя еще есть немного\nвремени{{string value=\"...\"}}{{pageBreak}}{{anim id=\"Hesitate\" target=\"actor\" targetSpec=\"\"}}Но лучше поторопись. {{delay8}}До Нового\nгода осталось меньше часа!"
  },
  {
    "label": "006",
    "attribute": "0x0000000000000000",
    "text": "Ух, этот год так быстро прошел!\n{{anim id=\"Smiling\" target=\"actor\" targetSpec=\"\"}}Но это потому, что мы были заняты\nтакими интересными делами...{{pageBreak}}{{anim id=\"AbsentMindedness\" target=\"actor\" targetSpec=\"\"}}{{capitalizeNextLetter}}{{string value=\"Catchphrase\"}}! Надеюсь, в будущем\nгоду будет так же интересно!{{anim id=\"FaintSmile\" target=\"actor\" targetSpec=\"\"}}"
  },
  {
    "label": "007",
    "attribute": "0x0000000000000000",
    "text": "{{anim id=\"Aha\" target=\"actor\" targetSpec=\"\"}}У тебя красивая новогодняя\nшапочка!{{pageBreak}}А как тебе моя? {{anim id=\"Hello\" target=\"actor\" targetSpec=\"\"}}Хороша, правда?"
  },
  {
    "label": "008",
    "attribute": "0x0000000000000000",
    "text": "{{anim id=\"Hello\" target=\"actor\" targetSpec=\"\"}}Только посмотри! {{anim id=\"FaintSmile\" target=\"actor\" targetSpec=\"\"}}Мы с тобой уже\nготовы праздновать, да?{{pageBreak}}В конце концов, {{anim id=\"Laughing\" target=\"actor\" targetSpec=\"\"}}когда еще\nнадевать такие вещи!"
  },
  {
    "label": "009",
    "attribute": "0x0000000000000000",
    "text": "{{anim id=\"Eh\" target=\"actor\" targetSpec=\"\"}}Рановато для новогодней шапочки?{{pageBreak}}{{anim id=\"Blushing\" target=\"actor\" targetSpec=\"\"}}Думаю, по мне уже видно,\nв каком я восторге!"
  },
  {
    "label": "010",
    "attribute": "0x0000000000000000",
    "text": "А ты еще не в новогодней шапочке,\n{{string value=\"NickName\"}}?\n{{anim id=\"FaintSmile\" target=\"actor\" targetSpec=\"\"}}Она тебе будет очень к лицу!"
  },
  {
    "label": "011",
    "attribute": "0x0000000000000000",
    "text": "{{anim id=\"Shocked\" target=\"actor\" targetSpec=\"\"}}Какая отличная новогодняя\nшапочка!{{delay8}}\n{{anim id=\"Frantic\" target=\"actor\" targetSpec=\"\"}}Ты начал{{gender2 m=\"\" f=\"а\"}} праздновать до меня!"
  },
  {
    "label": "012",
    "attribute": "0x0000000000000000",
    "text": "{{anim id=\"Aha\" target=\"actor\" targetSpec=\"\"}}Ты уже надел{{gender2 m=\"\" f=\"а\"}} новогоднюю\nшапочку! {{delay8}}{{anim id=\"ShyBoy\" target=\"actor\" targetSpec=\"\"}}А я вот еще не успела\nдостать свою{{string value=\"...\"}}"
  },
  {
    "label": "013",
    "attribute": "0x0000000000000000",
    "text": "{{anim id=\"Hello\" target=\"actor\" targetSpec=\"\"}}Ну что, как тебе?\n{{anim id=\"HappyDance\" target=\"actor\" targetSpec=\"\"}}Теперь я готова к празднику!"
  },
  {
    "label": "014",
    "attribute": "0x0000000000000000",
    "text": "{{anim id=\"Nodding\" target=\"actor\" targetSpec=\"\"}}Долгожданный момент все ближе{{string value=\"...\"}}"
  },
  {
    "label": "015",
    "attribute": "0x0000000000000000",
    "text": "{{anim id=\"Aha\" target=\"actor\" targetSpec=\"\"}}Oй, чуть не забыла!{{delay20}}{{anim id=\"EmotEnd\" target=\"actor\" targetSpec=\"\"}}\nСмотри, что у меня есть{{string value=\"...\"}}"
  },
  {
    "label": "016",
    "attribute": "0x0000000000000000",
    "text": "{{anim id=\"BigSmile\" target=\"actor\" targetSpec=\"\"}}Вот!{{delay20}} {{anim id=\"FaintSmile\" target=\"actor\" targetSpec=\"\"}}Взяла сегодня на площади!\nТеперь я полностью готова\n{{anim id=\"Dance\" target=\"actor\" targetSpec=\"\"}}к новогодней вечеринке!"
  },
  {
    "label": "018",
    "attribute": "0x0000000000000000",
    "text": "Остались считанные минуты до\nНового года. {{anim id=\"Frantic\" target=\"actor\" targetSpec=\"\"}}Эти минуты ожидания\nвсегда самые волнительные!"
  },
  {
    "label": "019",
    "attribute": "0x0000000000000000",
    "text": "{{anim id=\"FaintSmile\" target=\"actor\" targetSpec=\"\"}}Мне так нравится вся эта\nновогодняя атмосфера, {{anim id=\"Hello\" target=\"actor\" targetSpec=\"\"}}а тебе?{{delay8}}{{anim id=\"EmotEnd\" target=\"actor\" targetSpec=\"\"}}{{pageBreak}}Иногда мне хочется, чтобы все\nночи были такими чудесными,\nно {{anim id=\"Thinking\" target=\"actor\" targetSpec=\"\"}}столько эмоций я не вынесу."
  },
  {
    "label": "020",
    "attribute": "0x0000000000000000",
    "text": "Я хочу навсегда сохранить\nвоспоминания об {{anim id=\"Nodding\" target=\"actor\" targetSpec=\"\"}}этой чудесной\nвстрече Нового года.{{anim id=\"EmotEnd\" target=\"actor\" targetSpec=\"\"}}{{pageBreak}}{{anim id=\"FaintSmile\" target=\"actor\" targetSpec=\"\"}}В канун нового {{number value=\"27\"}} года мы все\nбыли здесь, вместе. {{anim id=\"Love\" target=\"actor\" targetSpec=\"\"}}Нет, этот вечер\nя никогда не забуду!"
  },
  {
    "label": "021",
    "attribute": "0x0000000000000000",
    "text": "Новогодняя ночь бывает всего раз\nв год, это самое подходящее время\n{{anim id=\"Smiling\" target=\"actor\" targetSpec=\"\"}}для этих новогодних шапочек!"
  },
  {
    "label": "022",
    "attribute": "0x0000000000000000",
    "text": "{{anim id=\"Thinking\" target=\"actor\" targetSpec=\"\"}}Новый год придет, даже если мы\nне наденем шапочки,{{delay8}} но {{anim id=\"Laughing\" target=\"actor\" targetSpec=\"\"}}с ними\nгораздо веселее!"
  },
  {
    "label": "023",
    "attribute": "0x0000000000000000",
    "text": "{{anim id=\"Eh\" target=\"actor\" targetSpec=\"\"}}А ты не будешь надевать свою\nновогоднюю шапочку?{{anim id=\"EmotEnd\" target=\"actor\" targetSpec=\"\"}}{{pageBreak}}Я взяла свою сегодня на площади.\n{{anim id=\"Hesitate\" target=\"actor\" targetSpec=\"\"}}Надеюсь, она мне идет."
  },
  {
    "label": "024",
    "attribute": "0x0000000000000000",
    "text": "{{anim id=\"Blushing\" target=\"actor\" targetSpec=\"\"}}Как тебе моя новогодняя шапочка?{{delay8}}\n{{anim id=\"FaintSmile\" target=\"actor\" targetSpec=\"\"}}Чувствую себя настоящей\nсветской львицей.{{pageBreak}}{{anim id=\"AbsentMindedness\" target=\"actor\" targetSpec=\"\"}}{{capitalizeNextLetter}}{{string value=\"Catchphrase\"}}! Тебе бы она тоже\nбыла к лицу, {{string value=\"NickName\"}}."
  },
  {
    "label": "025",
    "attribute": "0x0000000000000000",
    "text": "{{anim id=\"Smiling\" target=\"actor\" targetSpec=\"\"}}Я вижу, ты уже готов{{gender2 m=\"\" f=\"а\"}}\nк празднику!{{delay8}} {{anim id=\"Thinking\" target=\"actor\" targetSpec=\"\"}}Секундочку, у меня\nтоже есть новогодняя шапочка{{string value=\"...\"}}"
  },
  {
    "label": "026",
    "attribute": "0x0000000000000000",
    "text": "{{anim id=\"Aha\" target=\"actor\" targetSpec=\"\"}}Ага, ты уже готов{{gender2 m=\"\" f=\"а\"}} праздновать?{{delay20}}\n{{anim id=\"FaintSmile\" target=\"actor\" targetSpec=\"\"}}Тогда и мне пора бы приготовиться."
  },
  {
    "label": "027",
    "attribute": "0x0000000000000000",
    "text": "{{anim id=\"Blushing\" target=\"actor\" targetSpec=\"\"}}Что скажешь? {{delay20}}Классная, да?\n{{anim id=\"Smiling\" target=\"actor\" targetSpec=\"\"}}Можно начинать новогодний отсчет!"
  },
  {
    "label": "028",
    "attribute": "0x0000000000000000",
    "text": "{{anim id=\"Grin\" target=\"actor\" targetSpec=\"\"}}Думаю, сейчас самое время?.."
  },
  {
    "label": "029",
    "attribute": "0x0000000000000000",
    "text": "{{anim id=\"Eh\" target=\"actor\" targetSpec=\"\"}}Ого, посмотри на часы!{{delay frames=\"40\"}}\n{{anim id=\"FaintSmile\" target=\"actor\" targetSpec=\"\"}}Время не остановить, правда?"
  },
  {
    "label": "030",
    "attribute": "0x0000000000000000",
    "text": "{{anim id=\"Laughing\" target=\"actor\" targetSpec=\"\"}}{{capitalizeNextLetter}}{{string value=\"Catchphrase\"}}! Та-дам!{{delay8}}\n{{anim id=\"FaintSmile\" target=\"actor\" targetSpec=\"\"}}Теперь я на сто процентов\nготова праздновать!"
  },
  {
    "label": "032",
    "attribute": "0x0000000000000000",
    "text": "{{anim id=\"HappyDance\" target=\"actor\" targetSpec=\"\"}}Не могу поверить, что Новый год\nпочти наступил. {{delay frames=\"40\"}}Так волнительно!{{anim id=\"EmotEnd\" target=\"actor\" targetSpec=\"\"}}{{pageBreak}}Я слышала, {{anim id=\"Nodding\" target=\"actor\" targetSpec=\"\"}}на площади все еще\nпродают хлопушки, если у тебя нет!{{anim id=\"FaintSmile\" target=\"actor\" targetSpec=\"\"}}"
  },
  {
    "label": "033",
    "attribute": "0x0000000000000000",
    "text": "{{anim id=\"Shocked\" target=\"actor\" targetSpec=\"\"}}Через несколько минут {{number value=\"27\"}} год\nзакончится!{{delay8}} {{anim id=\"Frantic\" target=\"actor\" targetSpec=\"\"}}Напряжение достигло\nпочти невыносимого предела!"
  },
  {
    "label": "034",
    "attribute": "0x0000000000000000",
    "text": "{{anim id=\"Pardon\" target=\"actor\" targetSpec=\"\"}}Чувствуешь? Площадь гудит!{{delay8}}\n{{anim id=\"Smiling\" target=\"actor\" targetSpec=\"\"}}Отсчет вот-вот начнется.\n{{capitalizeNextLetter}}{{string value=\"NickName\"}}, {{anim id=\"Dance\" target=\"actor\" targetSpec=\"\"}}ура!"
  },
  {
    "label": "035",
    "attribute": "0x0000000000000000",
    "text": "{{anim id=\"Frantic\" target=\"actor\" targetSpec=\"\"}}Старый год почти закончился{{string value=\"...\"}}\nНе уходи, {{number value=\"27\"}}-й!{{delay frames=\"40\"}}\nОстанься еще ненадолго{{string value=\"...\"}}{{i10_7 arg=\"120\"}}"
  },
  {
    "label": "036",
    "attribute": "0x0000000000000000",
    "text": "{{anim id=\"Frantic\" target=\"actor\" targetSpec=\"\"}}От радости у меня голова кругом!{{delay8}}\n{{capitalizeNextLetter}}{{string value=\"NickName\"}}, Новый год\nнаступает!{{i10_7 arg=\"120\"}}"
  },
  {
    "label": "038",
    "attribute": "0x0000000000000000",
    "text": "{{anim id=\"Confused\" target=\"actor\" targetSpec=\"\"}}День так быстро пролетел.{{delay8}}\n{{anim id=\"Frantic\" target=\"actor\" targetSpec=\"\"}}А мне еще столько всего надо\nуспеть в этом году!"
  },
  {
    "label": "039",
    "attribute": "0x0000000000000000",
    "text": "{{anim id=\"FaintSmile\" target=\"actor\" targetSpec=\"\"}}В {{number value=\"27\"}} году было так весело,\nи я надеюсь, что следующий\nпройдет не хуже.{{anim id=\"EmotEnd\" target=\"actor\" targetSpec=\"\"}}{{pageBreak}}{{anim id=\"Thinking\" target=\"actor\" targetSpec=\"\"}}Я считаю, что лучше относиться\nк будущему с оптимизмом, {{anim id=\"Nodding\" target=\"actor\" targetSpec=\"\"}}хоть\nэто не всегда просто."
  },
  {
    "label": "040",
    "attribute": "0x0000000000000000",
    "text": "{{anim id=\"Confused\" target=\"actor\" targetSpec=\"\"}}У меня такое ощущение, что\nпод конец года у меня всегда\nдел невпроворот.{{anim id=\"EmotEnd\" target=\"actor\" targetSpec=\"\"}}{{pageBreak}}Но, с другой стороны, {{anim id=\"Nodding\" target=\"actor\" targetSpec=\"\"}}вовремя\nуладив все дела,{{delay8}} можно {{anim id=\"Sighing\" target=\"actor\" targetSpec=\"\"}}спокойно\nотдыхать и праздновать!{{delay8}}{{anim id=\"FaintSmile\" target=\"actor\" targetSpec=\"\"}}"
  },
  {
    "label": "046",
    "attribute": "0x0000000000000000",
    "text": "До Нового года всего несколько\nминут, но, по-моему, {{anim id=\"Nodding\" target=\"actor\" targetSpec=\"\"}}я успела\nсделать все, что хотела{{string value=\"...\"}}{{pageBreak}}{{anim id=\"Shocked\" target=\"actor\" targetSpec=\"\"}}Ой, нет! {{delay20}}Я же забыла раздать всем\nсвои домашние {{fun_00170032 arg=\"0x01CD\"}}{{randomSweets}},\nчтобы так проводить старый год{{string value=\"...\"}}{{pageBreak}}{{anim id=\"Thinking\" target=\"actor\" targetSpec=\"\"}}Что ж, тогда можно начать новый\nгод с угощения друзей{{string value=\"...\"}}"
  },
  {
    "label": "047",
    "attribute": "0x0000000000000000",
    "text": "{{anim id=\"Thinking\" target=\"actor\" targetSpec=\"\"}}{{capitalizeNextLetter}}{{string value=\"Catchphrase\"}}! Я составила для себя\nсписок планов на будущий год{{string value=\"...\"}}{{pageBreak}}{{anim id=\"Serious\" target=\"actor\" targetSpec=\"\"}}Читать много книг!{{delay8}}\n{{anim id=\"Silent\" target=\"actor\" targetSpec=\"\"}}Готовить много еды!{{delay8}}\n{{anim id=\"Angry\" target=\"actor\" targetSpec=\"\"}}Регулярно убирать!{{anim id=\"EmotEnd\" target=\"actor\" targetSpec=\"\"}}\nВ принципе, {{anim id=\"OhGeez\" target=\"actor\" targetSpec=\"\"}}с прошлого года\nпока ничего не поменялось."
  },
  {
    "label": "048",
    "attribute": "0x0000000000000000",
    "text": "{{capitalizeNextLetter}}{{string value=\"NickName\"}}, надеюсь, что\nнаступающий год{{anim id=\"Hello\" target=\"actor\" targetSpec=\"\"}} будет самым\nлучшим в твоей жизни!{{pageBreak}}{{anim id=\"HappyFlower\" target=\"actor\" targetSpec=\"\"}}И у меня хорошее предчувствие!"
  },
  {
    "label": "054",
    "attribute": "0x0000000000000000",
    "text": "{{anim id=\"Eh\" target=\"actor\" targetSpec=\"\"}}Остались считанные минуты!{{delay8}}\n{{anim id=\"Frantic\" target=\"actor\" targetSpec=\"\"}}Я еще успею отлучиться?"
  },
  {
    "label": "055",
    "attribute": "0x0000000000000000",
    "text": "{{anim id=\"Smiling\" target=\"actor\" targetSpec=\"\"}}У тебя еще есть возможность успеть\nна площадь для отсчета!{{pageBreak}}{{anim id=\"Blushing\" target=\"actor\" targetSpec=\"\"}}Конечно же, я только за, если ты\nхочешь встретить Новый год\nдома, со мной."
  },
  {
    "label": "056",
    "attribute": "0x0000000000000000",
    "text": "Я так рада, {{anim id=\"Love\" target=\"actor\" targetSpec=\"\"}}что в этот новогодний\nвечер ты был{{gender2 m=\"\" f=\"а\"}} со мной.{{delay8}}\n{{anim id=\"Smiling\" target=\"actor\" targetSpec=\"\"}}Какой чудесный праздник!"
  },
  {
    "label": "057",
    "attribute": "0x0000000000000000",
    "text": "{{anim id=\"Frantic\" target=\"actor\" targetSpec=\"\"}}{{number value=\"27\"}} год почти закончился{{string value=\"...\"}}{{delay frames=\"30\"}}\n{{capitalizeNextLetter}}{{string value=\"NickName\"}}, мы же будем\nдружить в следующем, правда?{{i10_7 arg=\"120\"}}"
  },
  {
    "label": "058",
    "attribute": "0x0000000000000000",
    "text": "{{anim id=\"Frantic\" target=\"actor\" targetSpec=\"\"}}Прощай, {{number value=\"27\"}} год!\nМы тебя не забудем!{{i10_7 arg=\"120\"}}"
  },
  {
    "label": "060",
    "attribute": "0x0000000000000000",
    "text": "{{anim id=\"Laughing\" target=\"actor\" targetSpec=\"\"}}Вот это вечеринка! Так весело!{{anim id=\"EmotEnd\" target=\"actor\" targetSpec=\"\"}}{{pageBreak}}{{anim id=\"Smiling\" target=\"actor\" targetSpec=\"\"}}{{capitalizeNextLetter}}{{string value=\"Catchphrase\"}}! Надеюсь, весь\n{{number value=\"27\"}} год будет таким веселым!"
  },
  {
    "label": "061",
    "attribute": "0x0000000000000000",
    "text": "{{anim id=\"Smiling\" target=\"actor\" targetSpec=\"\"}}Тоже любишь фейерверки?\n{{anim id=\"Love\" target=\"actor\" targetSpec=\"\"}}{{number value=\"27\"}} год начинается просто\nвосхитительно!"
  },
  {
    "label": "062",
    "attribute": "0x0000000000000000",
    "text": "Я так рада, {{anim id=\"HappyFlower\" target=\"actor\" targetSpec=\"\"}}что начинаю {{number value=\"27\"}} год\nс тобой, {{string value=\"NickName\"}}.{{pageBreak}}{{anim id=\"Smiling\" target=\"actor\" targetSpec=\"\"}}Давай пообещаем друг другу\nпочаще проводить время вместе,\nчто скажешь?"
  },
  {
    "label": "063",
    "attribute": "0x0000000000000000",
    "text": "{{anim id=\"Nodding\" target=\"actor\" targetSpec=\"\"}}Фейерверки такие громкие, что\nот них может быть не по себе!{{anim id=\"EmotEnd\" target=\"actor\" targetSpec=\"\"}}{{pageBreak}}Но это не беда.{{delay20}}{{anim id=\"Smiling\" target=\"actor\" targetSpec=\"\"}} Новый год нужно\nвстречать громко и ярко!"
  },
  {
    "label": "065",
    "attribute": "0x0000000000000000",
    "text": "Кажется, салют закончился, {{anim id=\"Hesitate\" target=\"actor\" targetSpec=\"\"}}но\nмне еще хочется праздновать!{{delay20}}\n{{anim id=\"Sleepy\" target=\"actor\" targetSpec=\"\"}}Правда, я уже немного устала{{string value=\"...\"}}"
  },
  {
    "label": "066",
    "attribute": "0x0000000000000000",
    "text": "Я знала, что мы будем веселиться\nдопоздна, поэтому {{anim id=\"SmugFace\" target=\"actor\" targetSpec=\"\"}}отдохнула вчера!\n{{anim id=\"FaintSmile\" target=\"actor\" targetSpec=\"\"}}Вечеринка до утра!{{delay20}} {{anim id=\"Sleepy\" target=\"actor\" targetSpec=\"\"}}Ура{{string value=\"...\"}}"
  },
  {
    "label": "067",
    "attribute": "0x0000000000000000",
    "text": "{{anim id=\"AbsentMindedness\" target=\"actor\" targetSpec=\"\"}}Думаю, наступивший год стоит\nначать с{{string value=\"...\"}} {{anim id=\"SmugFace\" target=\"actor\" targetSpec=\"\"}}{{fun_00170032 arg=\"0x03CD\"}}{{randomSweets}}!{{pageBreak}}{{anim id=\"Thinking\" target=\"actor\" targetSpec=\"\"}}А, может, стоит все-таки\nприготовить {{fun_00170032 arg=\"0x01CD\"}}{{randomSweets}}{{string value=\"...\"}}{{anim id=\"EmotEnd\" target=\"actor\" targetSpec=\"\"}}{{pageBreak}}{{capitalizeNextLetter}}{{string value=\"Catchphrase\"}}! {{anim id=\"Confused\" target=\"actor\" targetSpec=\"\"}}Год начинается\nс такого непростого выбора!"
  },
  {
    "label": "068",
    "attribute": "0x0000000000000000",
    "text": "Проводить время с тобой —\n{{anim id=\"HappyFlower\" target=\"actor\" targetSpec=\"\"}}лучший способ начать год!"
  },
  {
    "label": "070",
    "attribute": "0x0000000000000000",
    "text": "{{anim id=\"FaintSmile\" target=\"actor\" targetSpec=\"\"}}{{capitalizeNextLetter}}{{string value=\"Catchphrase\"}}! Ты мог{{gender2 m=\"\" f=\"ла\"}} бы\nотметить Новый год где угодно,\n{{delay8}}{{anim id=\"HappyFlower\" target=\"actor\" targetSpec=\"\"}}но решила встретить его со мной."
  },
  {
    "label": "071",
    "attribute": "0x0000000000000000",
    "text": "{{anim id=\"Laughing\" target=\"actor\" targetSpec=\"\"}}Они там с ума сходят от салюта,\nда? {{delay8}}{{anim id=\"Nodding\" target=\"actor\" targetSpec=\"\"}}Он наверняка очень\nгромкий, особенно вблизи{{string value=\"...\"}}"
  },
  {
    "label": "072",
    "attribute": "0x0000000000000000",
    "text": "Я решила {{anim id=\"Nodding\" target=\"actor\" targetSpec=\"\"}}сделать {{number value=\"27\"}} год лучшим\nгодом нашей дружбы!"
  },
  {
    "label": "073",
    "attribute": "0x0000000000000000",
    "text": "{{anim id=\"FaintSmile\" target=\"actor\" targetSpec=\"\"}}Конечно, на площади очень весело,\nно {{anim id=\"HappyFlower\" target=\"actor\" targetSpec=\"\"}}встречать Новый год дома\nтоже приятно{{string value=\"...\"}}"
  },
  {
    "label": "075",
    "attribute": "0x0000000000000000",
    "text": "{{capitalizeNextLetter}}{{string value=\"Catchphrase\"}}! Я рада, {{anim id=\"FaintSmile\" target=\"actor\" targetSpec=\"\"}}что решила\nостаться дома в этот Новый год.{{anim id=\"EmotEnd\" target=\"actor\" targetSpec=\"\"}}{{pageBreak}}Ведь я всегда могу пойти спать,\n{{anim id=\"WrySmile\" target=\"actor\" targetSpec=\"\"}}когда устану веселиться!"
  },
  {
    "label": "076",
    "attribute": "0x0000000000000000",
    "text": "{{anim id=\"Worried\" target=\"actor\" targetSpec=\"\"}}{{capitalizeNextLetter}}{{string value=\"NickName\"}}, тебе кажется\nстранным, что я записываю все\nсвои планы на будущий год?{{anim id=\"EmotEnd\" target=\"actor\" targetSpec=\"\"}}{{pageBreak}}{{anim id=\"Explain\" target=\"actor\" targetSpec=\"\"}}Ведь это хорошая возможность\nпоработать над своим почерком.{{delay8}}\nЭто у меня тоже записано в планах!"
  },
  {
    "label": "077",
    "attribute": "0x0000000000000000",
    "text": "{{anim id=\"FaintSmile\" target=\"actor\" targetSpec=\"\"}}Хорошо, что я напилась кофе,\nтеперь я могу{{anim id=\"Sleepy\" target=\"actor\" targetSpec=\"\"}} веселиться{{string value=\"...\"}} без\nустали{{string value=\"...\"}}"
  },
  {
    "label": "078",
    "attribute": "0x0000000000000000",
    "text": "Кажется, фейерверк закончился.\n{{anim id=\"Nodding\" target=\"actor\" targetSpec=\"\"}}По крайней мере, я больше\nничего не слышу{{string value=\"...\"}}{{pageBreak}}{{anim id=\"Smiling\" target=\"actor\" targetSpec=\"\"}}Теперь можно спокойно поговорить."
  }
]