﻿[
  {
    "label": "0001",
    "attribute": "0x00000000",
    "text": "{{anim id=\"Smiling\" target=\"actor\" targetSpec=\"\"}}А, {{delay8}}{{string value=\"PlayerName\"}}!{{delay20}}\nПривет!{{pageBreak}}Знаешь, я давно хотел{{delay20}} сделать так,\nчтобы все думали {{delay20}}{{anim id=\"HappyFlower\" target=\"actor\" targetSpec=\"\"}}о природе!{{pageBreak}}И лучше это сделать,{{delay20}}{{anim id=\"HappyFlower\" target=\"actor\" targetSpec=\"\"}} устроив\nпраздник!{{delay8}} {{color id=\"1\"}}День природы{{color id=\"65535\"}}!{{pageBreak}}{{anim id=\"EmotEnd\" target=\"actor\" targetSpec=\"\"}}Как раз сейчас {{delay8}}мы готовимся к его\nпроведению.{{delay8}}{{anim id=\"Nodding\" target=\"actor\" targetSpec=\"\"}} Запланированы\nособые мероприятия!{{pageBreak}}{{anim id=\"FaintSmile\" target=\"actor\" targetSpec=\"\"}}{{capitalizeNextLetter}}{{string value=\"PlayerName\"}},{{delay8}} прими участие\nи заработай побольше миль!\n{{delay20}}{{anim id=\"Greeting\" target=\"actor\" targetSpec=\"\"}}Я буду за тебя очень рад!"
  },
  {
    "label": "0002",
    "attribute": "0x00000000",
    "text": "{{anim id=\"Smiling\" target=\"actor\" targetSpec=\"\"}}А, {{delay20}}{{string value=\"PlayerName\"}}!{{delay20}}\nПривет! Ты уже знаешь?{{pageBreak}}В течение ограниченного времени{{delay20}}{{anim id=\"HappyFlower\" target=\"mainNpc\" targetSpec=\"\"}}\nбудет идти специальная кампания\nв рамках программы «{{color id=\"1\"}}Мили Нука+{{color id=\"65535\"}}»!{{pageBreak}}{{anim id=\"EmotEnd\" target=\"actor\" targetSpec=\"\"}}Это все в честь {{color id=\"1\"}}Дня природы{{color id=\"65535\"}}!{{delay8}}{{anim id=\"Explain\" target=\"actor\" targetSpec=\"\"}}\nДелай все во благо острова\n{{delay20}}{{anim id=\"Assent\" target=\"mainNpc\" targetSpec=\"\"}}и получишь больше миль!{{pageBreak}}{{anim id=\"Nodding\" target=\"actor\" targetSpec=\"\"}}Мы также подготовили особый\nподарок,{{delay20}}{{anim id=\"Hello\" target=\"actor\" targetSpec=\"\"}} так что участвуй активно!{{color id=\"4\"}}{{pageBreak}}{{anim id=\"EmotEnd\" target=\"actor\" targetSpec=\"\"}}Вот бы все жители острова {{delay8}}думали\nо природе всегда,{{delay20}} а не только\nв День природы{{string value=\"...\"}}{{color id=\"65535\"}}"
  },
  {
    "label": "0003",
    "attribute": "0x00000000",
    "text": "{{anim id=\"Aha\" target=\"actor\" targetSpec=\"\"}}Что-что?{{delay40}}{{anim id=\"HappyDance\" target=\"actor\" targetSpec=\"\"}} Значит, ты уже успел{{gender2 m=\"\" f=\"а\"}}\nпринять участие в мероприятиях ко\n{{color id=\"1\"}}Дню природы{{color id=\"65535\"}}, {{string value=\"PlayerName\"}}?"
  },
  {
    "label": "0004",
    "attribute": "0x00000000",
    "text": "{{anim id=\"Smiling\" target=\"actor\" targetSpec=\"\"}}Да-да!{{delay20}}{{anim id=\"Clapping\" target=\"actor\" targetSpec=\"\"}} Я знал, что ты сразу же\nвозьмешься за дело.{{i10_4}}{{anim id=\"SmugFace\" target=\"actor\" targetSpec=\"\"}} Островитянам\nследует брать с тебя пример!{{pageBreak}}{{anim id=\"EmotEnd\" target=\"actor\" targetSpec=\"\"}}Кажется,{{delay20}} пришло время наградить\nтебя за заботу об окружающей\nсреде.{{delay20}}{{anim id=\"FaintSmile\" target=\"actor\" targetSpec=\"\"}} Я и подарок подготовил.{{pageBreak}}{{anim id=\"HappyFlower\" target=\"actor\" targetSpec=\"\"}}Идеальный подарок для любого\nсадовода — инструкция «Сделай\nсам» для {{color id=\"1\"}}живой изгороди{{color id=\"65535\"}}!"
  },
  {
    "label": "0005",
    "attribute": "0x00000000",
    "text": "Так держать!{{delay20}}{{anim id=\"HappyDance\" target=\"actor\" targetSpec=\"\"}} Я буду рад, если\nты продолжишь участвовать\nв мероприятиях ко {{color id=\"1\"}}Дню природы{{color id=\"65535\"}}!"
  },
  {
    "label": "0006",
    "attribute": "0x00000000",
    "text": "{{anim id=\"Eh\" target=\"actor\" targetSpec=\"\"}}А!{{i10_4}}{{anim id=\"EmotEnd\" target=\"actor\" targetSpec=\"\"}} Похоже, ты уже поучаствовал{{gender2 m=\"\" f=\"а\"}}{{anim id=\"HappyDance\" target=\"actor\" targetSpec=\"\"}}\nв мероприятиях ко {{color id=\"1\"}}Дню природы{{color id=\"65535\"}}.\nОчень рад, {{string value=\"PlayerName\"}}!"
  }
]