﻿[
  {
    "label": "001",
    "attribute": "0x0000000000000000",
    "text": "{{fun_0014003C arg=\"\"}}"
  },
  {
    "label": "001_01",
    "attribute": "0x0000000000000000",
    "text": "{{color id=\"5\"}}(Zzz{{string value=\"...\"}}{{delay8}} zzz{{string value=\"...\"}}{{delay8}} luego va y me dice{{string value=\"...\"}}{{delay8}}\nzzz{{string value=\"...\"}}{{delay8}} zzz{{string value=\"...\"}}{{delay8}} y le dije yo que no,\nque cómo iba a ser eso y{{string value=\"...\"}}{{delay8}}){{color id=\"65535\"}}{{delay8}} {{anim id=\"Sleepy\" target=\"actor\" targetSpec=\"\"}}¿Eh?{{anim id=\"EmotEnd\" target=\"actor\" targetSpec=\"\"}}{{i10_7 arg=\"120\"}}"
  },
  {
    "label": "001_02",
    "attribute": "0x0000000000000000",
    "text": "{{color id=\"5\"}}(Zzz{{string value=\"...\"}}{{delay8}} Zzz{{string value=\"...\"}}{{delay8}} Qué delicadezzz{{string value=\"...\"}}{{delay8}}\nZzz{{string value=\"...\"}}{{delay8}} Es una maravi{{string value=\"...\"}}{{delay8}} maravi{{string value=\"...\"}}{{delay8}}\nZzz{{string value=\"...\"}}{{delay8}}) {{color id=\"65535\"}}{{anim id=\"Sleepy\" target=\"actor\" targetSpec=\"\"}}Mmm{{string value=\"...\"}} ¿Qué?{{anim id=\"EmotEnd\" target=\"actor\" targetSpec=\"\"}}{{i10_7 arg=\"120\"}}"
  },
  {
    "label": "001_03",
    "attribute": "0x0000000000000000",
    "text": "{{anim id=\"Sleepy\" target=\"actor\" targetSpec=\"\"}}Uaaahhh,{{delay8}} ña,{{delay8}} ña,{{delay8}} ña{{string value=\"...\"}}{{anim id=\"EmotEnd\" target=\"actor\" targetSpec=\"\"}}{{i10_7 arg=\"120\"}}"
  },
  {
    "label": "010",
    "attribute": "0x0000000000000000",
    "text": "{{fun_0014003C arg=\"\"}}"
  },
  {
    "label": "010_01",
    "attribute": "0x0000000000000000",
    "text": "{{anim id=\"Shocked\" target=\"actor\" targetSpec=\"\"}}Oh,{{delay8}} ¿acabas de llegar, {{string value=\"6\"}}?{{delay20}}\n{{anim id=\"Blushing\" target=\"actor\" targetSpec=\"\"}}Estaba concentrada pensando\nsi echarme una cabezadita{{string value=\"...\"}}"
  },
  {
    "label": "010_02",
    "attribute": "0x0000000000000000",
    "text": "{{anim id=\"Shocked\" target=\"actor\" targetSpec=\"\"}}¡Huy, perdona, amor!{{delay8}} Todavía\nno estoy espabilada del todo.{{pageBreak}}{{anim id=\"WrySmile\" target=\"actor\" targetSpec=\"\"}}Debería refrescarme con un poco\nde agua.{{delay20}} Mi cutis lo agradecerá y\n{{anim id=\"Grin\" target=\"actor\" targetSpec=\"\"}}los vecinos seguramente también."
  },
  {
    "label": "011",
    "attribute": "0x0000000000000000",
    "text": "{{fun_0014003C arg=\"\"}}"
  },
  {
    "label": "011_01",
    "attribute": "0x0000000000000000",
    "text": "{{anim id=\"TakenAback\" target=\"actor\" targetSpec=\"\"}}¡Ay, porras!{{delay20}} Se me cierran los ojos.{{delay20}}\n{{anim id=\"Restless\" target=\"actor\" targetSpec=\"\"}}Anoche no podía parar de ver\nepisodios de mi serie favorita{{string value=\"...\"}}\n{{anim id=\"OhGeez\" target=\"actor\" targetSpec=\"\"}}Y claro,{{delay8}} ahora estoy pagando\nlas consecuencias."
  },
  {
    "label": "011_02",
    "attribute": "0x0000000000000000",
    "text": "{{anim id=\"Sighing\" target=\"actor\" targetSpec=\"\"}}Vaya,{{delay8}} anoche no lograba pegar ojo\ny hoy no consigo mantenerme\ndespierta.{{delay20}} {{anim id=\"OhGeez\" target=\"actor\" targetSpec=\"\"}}Qué descontrol llevo{{string value=\"...\"}}"
  },
  {
    "label": "012",
    "attribute": "0x0000000000000000",
    "text": "{{fun_0014003C arg=\"\"}}"
  },
  {
    "label": "012_01",
    "attribute": "0x0000000000000000",
    "text": "{{anim id=\"Shocked\" target=\"actor\" targetSpec=\"\"}}Uh,{{delay8}} me he quedado traspuesta.{{delay20}}\n{{anim id=\"Blushing\" target=\"actor\" targetSpec=\"\"}}No me pasaba desde que asistí\na aquella ópera en dieciséis actos{{string value=\"...\"}}"
  },
  {
    "label": "012_02",
    "attribute": "0x0000000000000000",
    "text": "{{anim id=\"TakenAback\" target=\"actor\" targetSpec=\"\"}}¿Ves?{{delay8}} Si es que no me puedo sentar\nni un segundo.{{delay20}} {{anim id=\"Restless\" target=\"actor\" targetSpec=\"\"}}Tengo que mantener\nactivos el cuerpo y la mente.\n{{anim id=\"WrySmile\" target=\"actor\" targetSpec=\"\"}}Porque si no,{{delay8}} luego pasa lo que pasa,\n{{string value=\"6\"}}{{string value=\"...\"}}"
  },
  {
    "label": "013",
    "attribute": "0x0000000000000000",
    "text": "{{fun_0014003C arg=\"\"}}"
  },
  {
    "label": "013_01",
    "attribute": "0x0000000000000000",
    "text": "{{anim id=\"Shocked\" target=\"actor\" targetSpec=\"\"}}¡No estoy dormida!"
  },
  {
    "label": "013_02",
    "attribute": "0x0000000000000000",
    "text": "{{anim id=\"TakenAback\" target=\"actor\" targetSpec=\"\"}}¿{{capitalizeNextLetter}}{{string value=\"NickName\"}}?{{delay20}} ¿Sales de mi sueño o estabas ahí ya de antes?{{pageBreak}}{{anim id=\"Blushing\" target=\"actor\" targetSpec=\"\"}}Siento que hayas tenido que verme\nen una situación tan indecorosa,\n{{string value=\"6\"}}{{string value=\"...\"}}"
  },
  {
    "label": "014",
    "attribute": "0x0000000000000000",
    "text": "{{fun_0014003C arg=\"\"}}"
  },
  {
    "label": "014_01",
    "attribute": "0x0000000000000000",
    "text": "{{anim id=\"Eh\" target=\"actor\" targetSpec=\"\"}}Querid{{gender2 m=\"o\" f=\"a\"}}, mi sueño reparador{{delay8}} {{anim id=\"73\" target=\"actor\" targetSpec=\"\"}}no ha\nempezado a reparar todavía,{{delay8}} {{anim id=\"ShyBoy\" target=\"actor\" targetSpec=\"\"}}pero sí\nha empezado a soñar, {{string value=\"6\"}}{{string value=\"...\"}}"
  },
  {
    "label": "014_02",
    "attribute": "0x0000000000000000",
    "text": "{{anim id=\"TakenAback\" target=\"actor\" targetSpec=\"\"}}Hola, {{string value=\"NickName\"}}.{{delay20}} Me estaba preparando para irme a la cama,{{delay8}} {{anim id=\"Hesitate\" target=\"actor\" targetSpec=\"\"}}que ya se me cierran los ojillos.{{pageBreak}}{{anim id=\"Pardon\" target=\"actor\" targetSpec=\"\"}}¿Tú no tienes sueño?"
  },
  {
    "label": "015",
    "attribute": "0x0000000000000000",
    "text": "{{fun_0014003C arg=\"\"}}"
  },
  {
    "label": "015_01",
    "attribute": "0x0000000000000000",
    "text": "{{anim id=\"Eh\" target=\"actor\" targetSpec=\"\"}}¿Me he quedado dormida?{{delay8}}\n¿De pie?{{delay20}} {{anim id=\"Surprised\" target=\"actor\" targetSpec=\"\"}}¿Aquí?{{delay8}} ¡{{capitalizeNextLetter}}{{string value=\"Catchphrase\"}}!{{pageBreak}}{{anim id=\"Love\" target=\"actor\" targetSpec=\"\"}}Muchas gracias por despertarme.{{delay20}}\n{{anim id=\"Frantic\" target=\"actor\" targetSpec=\"\"}}Mejor tú que no un paseo sonámbulo\npor las olas{{string value=\"...\"}}"
  },
  {
    "label": "015_02",
    "attribute": "0x0000000000000000",
    "text": "{{anim id=\"TakenAback\" target=\"actor\" targetSpec=\"\"}}¡No!{{delay20}} No me digas que me he\nquedado dormida de pie.{{delay20}} {{anim id=\"Angry\" target=\"actor\" targetSpec=\"\"}}Prométeme\nque no subirás fotos a internet."
  }
]