﻿[
  {
    "label": "001",
    "attribute": "0x0000000000000000",
    "text": "{{anim id=\"Thinking\" target=\"actor\" targetSpec=\"\"}}看你拿着铲子{{string value=\"...\"}}{{delay frames=\"40\"}}\n{{anim id=\"Shocked\" target=\"actor\" targetSpec=\"\"}}是要去{{delay20}}\n寻找宝藏吗～？{{pageBreak}}{{anim id=\"HappyFlower\" target=\"actor\" targetSpec=\"\"}}如果你在土里{{delay20}}\n挖到了奇怪的化石，{{delay20}}\n希望到时候你能给我看看呢～{{string value=\"6\"}}。"
  },
  {
    "label": "002",
    "attribute": "0x0000000000000000",
    "text": "{{fun_001B003C arg=\"0x64006500660067006800\"}}"
  },
  {
    "label": "003",
    "attribute": "0x0000000000000000",
    "text": "{{fun_001A003C arg=\"0x69006A006B006C006D00\"}}"
  },
  {
    "label": "004",
    "attribute": "0x0000000000000000",
    "text": "{{fun_0008003C arg=\"0x6E006E006F006F006E006E006E00\"}}"
  },
  {
    "label": "005",
    "attribute": "0x0000000000000000",
    "text": "{{anim id=\"Smiling\" target=\"actor\" targetSpec=\"\"}}{{string value=\"4\"}}～\n你拿着的这把伞{{delay20}}真好看啊～{{pageBreak}}没想到你对伞也那么讲究～{{delay20}}\n{{anim id=\"Love\" target=\"actor\" targetSpec=\"\"}}感觉很成熟呢～{{string value=\"6\"}}。"
  },
  {
    "label": "006",
    "attribute": "0x0000000000000000",
    "text": "{{anim id=\"Eh\" target=\"actor\" targetSpec=\"\"}}你刚才{{delay20}}是不是拿着斧子？{{delay frames=\"40\"}}\n{{anim id=\"Laughing\" target=\"actor\" targetSpec=\"\"}}样子看上去就好像一位樵夫呢～{{anim id=\"FaintSmile\" target=\"actor\" targetSpec=\"\"}}{{pageBreak}}{{anim id=\"FaintSmile\" target=\"actor\" targetSpec=\"\"}}砍完树后留下的树墩，{{delay20}}\n还可以拿来坐哦～{{delay20}}\n{{anim id=\"Nodding\" target=\"actor\" targetSpec=\"\"}}非常适合稍作休息的时候使用～{{string value=\"6\"}}。"
  },
  {
    "label": "007",
    "attribute": "0x0000000000000000",
    "text": "{{anim id=\"QuestionMark\" target=\"actor\" targetSpec=\"\"}}这个弹弓是用来干什么的呀～？{{delay frames=\"40\"}}\n{{anim id=\"Smiling\" target=\"actor\" targetSpec=\"\"}}要是能用它击落{{string value=\"7\"}}，{{delay20}}\n那该多方便啊～{{pageBreak}}{{anim id=\"EmotEnd\" target=\"actor\" targetSpec=\"\"}}{{string value=\"...\"}}不过，{{delay8}}最后还是要自己去捡的，{{delay20}}\n{{anim id=\"WrySmile\" target=\"actor\" targetSpec=\"\"}}好像也没有多省力呢～{{string value=\"6\"}}。"
  },
  {
    "label": "008",
    "attribute": "0x0000000000000000",
    "text": "{{anim id=\"Eh\" target=\"actor\" targetSpec=\"\"}}这个变身棒，{{delay20}}\n{{anim id=\"Pardon\" target=\"actor\" targetSpec=\"\"}}应该是{{delay8}}只要轻轻一挥，\n就能够变身{{delay8}}的那种吧～{{anim id=\"EmotEnd\" target=\"actor\" targetSpec=\"\"}}{{pageBreak}}{{anim id=\"HappyDance\" target=\"actor\" targetSpec=\"\"}}哇～{{delay20}}好棒～好棒啊～{{delay frames=\"40\"}}\n{{string value=\"4\"}}你想要{{delay20}}\n变身成为什么样子呢～？{{pageBreak}}{{anim id=\"AbsentMindedness\" target=\"actor\" targetSpec=\"\"}}要是能靠变身换上睡衣，{{delay20}}\n那一下子就能钻进被窝了～{{delay20}}\n{{anim id=\"FaintSmile\" target=\"actor\" targetSpec=\"\"}}一定很方便吧～{{string value=\"6\"}}。"
  },
  {
    "label": "009",
    "attribute": "0x0000000000000000",
    "text": "{{anim id=\"Smiling\" target=\"actor\" targetSpec=\"\"}}{{string value=\"4\"}}～{{delay20}}\n你还有{{delay20}}\n修整地面的道具啊～{{pageBreak}}{{anim id=\"Nodding\" target=\"actor\" targetSpec=\"\"}}要是同一条路，{{delay20}}能用砖块、石头等等{{delay20}}\n各种材质来铺成，一定很有意思吧～{{delay frames=\"40\"}}\n{{anim id=\"Greeting\" target=\"actor\" targetSpec=\"\"}}嘻嘻～{{delay20}}我很期待哦～{{string value=\"6\"}}。"
  },
  {
    "label": "010",
    "attribute": "0x0000000000000000",
    "text": "{{string value=\"4\"}}！{{delay frames=\"40\"}}\n{{anim id=\"Explain\" target=\"actor\" targetSpec=\"\"}}你是打算造一个悬崖吧～{{delay20}}\n{{anim id=\"Greeting\" target=\"actor\" targetSpec=\"\"}}那等完工了，记得告诉我哦～！{{pageBreak}}{{anim id=\"Explain\" target=\"actor\" targetSpec=\"\"}}我想亲眼看看{{delay20}}\n到底发生了哪些变化～{{delay frames=\"40\"}}\n{{anim id=\"SmugFace\" target=\"actor\" targetSpec=\"\"}}毕竟，我可是个探险家呀！{{string value=\"6\"}}。"
  },
  {
    "label": "012",
    "attribute": "0x0000000000000000",
    "text": "{{string value=\"4\"}}，{{delay20}}\n{{anim id=\"QuestionMark\" target=\"actor\" targetSpec=\"\"}}你是不是有挖掘池塘和河道的工具～？{{pageBreak}}{{anim id=\"Aha\" target=\"actor\" targetSpec=\"\"}}{{delay20}}要是你能在家周围，{{delay20}}\n挖出像环绕城堡一样的护城河，{{delay20}}\n{{anim id=\"Love\" target=\"actor\" targetSpec=\"\"}}那该多帅啊～{{string value=\"6\"}}。"
  },
  {
    "label": "013",
    "attribute": "0x0000000000000000",
    "text": "{{anim id=\"Aha\" target=\"actor\" targetSpec=\"\"}}{{delay frames=\"40\"}}我还在想是从哪里飘来的香味呢～{{delay20}}\n{{anim id=\"FaintSmile\" target=\"actor\" targetSpec=\"\"}}原来是{{string value=\"4\"}}你{{delay20}}\n端着咖啡啊～{{pageBreak}}喝着咖啡散着步～{{delay20}}\n{{anim id=\"Greeting\" target=\"actor\" targetSpec=\"\"}}很有大人的感觉呢～{{delay frames=\"40\"}}\n我{{delay20}}{{anim id=\"Love\" target=\"actor\" targetSpec=\"\"}}好羡慕啊～{{string value=\"6\"}}。"
  },
  {
    "label": "014",
    "attribute": "0x0000000000000000",
    "text": "{{anim id=\"Shocked\" target=\"actor\" targetSpec=\"\"}}{{string value=\"4\"}}，{{delay20}}\n你手里拿的是拉炮吗～？！{{i10_4}}\n{{anim id=\"EmotEnd\" target=\"actor\" targetSpec=\"\"}}哇～{{anim id=\"Love\" target=\"actor\" targetSpec=\"\"}}我也很喜欢这个呢～{{pageBreak}}{{anim id=\"Nodding\" target=\"actor\" targetSpec=\"\"}}不仅仅是“嘭”地一声很好听～{{delay20}}\n{{anim id=\"AbsentMindedness\" target=\"actor\" targetSpec=\"\"}}拉响以后慢慢散开的那个味道，{{delay20}}\n我也觉得很好闻呢～{{string value=\"6\"}}。"
  },
  {
    "label": "015",
    "attribute": "0x0000000000000000",
    "text": "你手里拿的{{delay20}}{{anim id=\"Hello\" target=\"actor\" targetSpec=\"\"}}是梯子吗～？{{delay frames=\"40\"}}\n{{anim id=\"Nodding\" target=\"actor\" targetSpec=\"\"}}有了它，{{delay20}}就算是很高的悬崖，{{delay8}}\n也可以{{delay8}}很轻松地爬上去呢～{{pageBreak}}{{anim id=\"AbsentMindedness\" target=\"actor\" targetSpec=\"\"}}我也梦想自己{{delay8}}有一天{{delay20}}可以手拿梯子，\n{{delay8}}踏遍{{string value=\"33\"}}的\n每一个角落。{{string value=\"6\"}}。"
  },
  {
    "label": "016",
    "attribute": "0x0000000000000000",
    "text": "{{anim id=\"FaintSmile\" target=\"actor\" targetSpec=\"\"}}你手里拿的是撑杆跳竿子啊{{string value=\"...\"}}{{delay frames=\"40\"}}\n{{anim id=\"EmotEnd\" target=\"actor\" targetSpec=\"\"}}用它来跳过河，\n{{anim id=\"Love\" target=\"actor\" targetSpec=\"\"}}一定很爽快吧～{{pageBreak}}{{anim id=\"Shocked\" target=\"actor\" targetSpec=\"\"}}不过，{{delay20}}要是不小心掉到河里去的话，{{delay20}}\n会吓到鱼儿们的，{{delay20}}\n{{anim id=\"Greeting\" target=\"actor\" targetSpec=\"\"}}所以跳的时候要小心哦～{{string value=\"6\"}}。"
  },
  {
    "label": "017",
    "attribute": "0x0000000000000000",
    "text": "你手里拿的，{{delay20}}\n{{anim id=\"Hello\" target=\"actor\" targetSpec=\"\"}}是{{delay8}}派对吹笛吧～？{{delay frames=\"40\"}}\n{{anim id=\"FaintSmile\" target=\"actor\" targetSpec=\"\"}}只需要吹气就能玩，玩法很简单呢～{{pageBreak}}{{anim id=\"Aha\" target=\"actor\" targetSpec=\"\"}}{{delay20}}不过，{{delay8}}坚持一口气吹很长时间，\n中途一直不换气的话，{{delay20}}\n{{anim id=\"Laughing\" target=\"actor\" targetSpec=\"\"}}也算是一种不错的运动吧～{{string value=\"6\"}}。{{delay8}}{{anim id=\"FaintSmile\" target=\"actor\" targetSpec=\"\"}}"
  },
  {
    "label": "018",
    "attribute": "0x0000000000000000",
    "text": "{{anim id=\"Smiling\" target=\"actor\" targetSpec=\"\"}}啊！{{delay20}}{{string value=\"4\"}}～\n你手里拿的这个{{delay20}}\n是肥皂泡吧～{{pageBreak}}{{anim id=\"FaintSmile\" target=\"actor\" targetSpec=\"\"}}嘻嘻，{{delay20}}肥皂泡很漂亮呢～{{delay frames=\"40\"}}\n{{anim id=\"Love\" target=\"actor\" targetSpec=\"\"}}晶莹剔透的，{{delay8}}就好像宝石一样～{{delay frames=\"60\"}}\n{{anim id=\"EmotEnd\" target=\"actor\" targetSpec=\"\"}}{{string value=\"...\"}}{{anim id=\"WrySmile\" target=\"actor\" targetSpec=\"\"}}不过，总是很快就会消失呢～{{string value=\"6\"}}。"
  },
  {
    "label": "019",
    "attribute": "0x0000000000000000",
    "text": "{{anim id=\"FaintSmile\" target=\"actor\" targetSpec=\"\"}}这个纸风车{{delay20}}好可爱啊～{{delay frames=\"50\"}}\n{{anim id=\"Thinking\" target=\"actor\" targetSpec=\"\"}}如果一直盯着它转啊转{{string value=\"...\"}}{{delay frames=\"40\"}}\n{{anim id=\"Laughing\" target=\"actor\" targetSpec=\"\"}}我的脑袋也会跟着转晕呢～{{string value=\"6\"}}。{{anim id=\"FaintSmile\" target=\"actor\" targetSpec=\"\"}}"
  },
  {
    "label": "020",
    "attribute": "0x0000000000000000",
    "text": "{{anim id=\"Shocked\" target=\"actor\" targetSpec=\"\"}}咦？{{delay20}}你拿着扇子是打算去哪里呀～？{{delay frames=\"40\"}}\n{{anim id=\"FaintSmile\" target=\"actor\" targetSpec=\"\"}}手里拿着扇子出门，{{delay20}}\n{{anim id=\"Greeting\" target=\"actor\" targetSpec=\"\"}}很有过节的感觉呢～！{{string value=\"6\"}}。"
  },
  {
    "label": "021",
    "attribute": "0x0000000000000000",
    "text": "{{anim id=\"Aha\" target=\"actor\" targetSpec=\"\"}}啊！{{delay20}}你手里拿的这个{{string value=\"...\"}}{{delay frames=\"30\"}}\n{{anim id=\"Smiling\" target=\"actor\" targetSpec=\"\"}}是烟花棒吧～！{{pageBreak}}{{anim id=\"Love\" target=\"actor\" targetSpec=\"\"}}真好啊，{{delay8}}烟花{{string value=\"...\"}}{{delay frames=\"40\"}}\n{{anim id=\"Explain\" target=\"actor\" targetSpec=\"\"}}我不仅喜欢{{delay8}}烟花的漂亮，{{delay20}}\n还很喜欢{{delay8}}{{anim id=\"BigSmile\" target=\"actor\" targetSpec=\"\"}}燃烧时火药的气味～！{{string value=\"6\"}}。{{delay8}}{{anim id=\"FaintSmile\" target=\"actor\" targetSpec=\"\"}}"
  },
  {
    "label": "022",
    "attribute": "0x0000000000000000",
    "text": "啊！{{string value=\"4\"}}～{{delay frames=\"30\"}}\n{{anim id=\"Greeting\" target=\"actor\" targetSpec=\"\"}}你为什么牵着气球呀～？{{pageBreak}}{{anim id=\"Explain\" target=\"actor\" targetSpec=\"\"}}牵着气球{{delay8}}走路的时候，{{delay20}}\n它会跟在身后飘呀飘，{{delay8}}\n{{anim id=\"Blushing\" target=\"actor\" targetSpec=\"\"}}看起来好可爱啊～{{string value=\"6\"}}。"
  },
  {
    "label": "100",
    "attribute": "0x0000000000000000",
    "text": "{{anim id=\"Thinking\" target=\"actor\" targetSpec=\"\"}}你手里拿着捕虫网，{{delay frames=\"30\"}}\n{{anim id=\"FaintSmile\" target=\"actor\" targetSpec=\"\"}}是要去抓虫子吧～{{pageBreak}}{{anim id=\"Nodding\" target=\"actor\" targetSpec=\"\"}}虫子们大多喜欢{{delay8}}\n在花草树木边上玩躲猫猫～{{delay20}}\n{{anim id=\"FaintSmile\" target=\"actor\" targetSpec=\"\"}}希望你能顺利找到它们～！{{pageBreak}}{{anim id=\"Serious\" target=\"actor\" targetSpec=\"\"}}抓虫子的秘诀就在于{{delay frames=\"40\"}}\n{{anim id=\"EmotEnd\" target=\"actor\" targetSpec=\"\"}}做什么{{delay8}}动静都要{{delay8}}尽量小哦～{{string value=\"6\"}}。"
  },
  {
    "label": "101",
    "attribute": "0x0000000000000000",
    "text": "{{anim id=\"QuestionMark\" target=\"actor\" targetSpec=\"\"}}你找到想找的虫子了吗～？{{delay frames=\"60\"}}\n{{anim id=\"Smiling\" target=\"actor\" targetSpec=\"\"}}我至今还记得{{delay20}}\n我第一次去抓虫子的时候～{{pageBreak}}{{anim id=\"HappyFlower\" target=\"actor\" targetSpec=\"\"}}抓的是随处可见的蝴蝶～{{delay20}}\n但在我眼里它们就像在发光一样～{{delay frames=\"60\"}}\n{{anim id=\"Nodding\" target=\"actor\" targetSpec=\"\"}}这一定就是命运的安排吧～{{string value=\"6\"}}。"
  },
  {
    "label": "102",
    "attribute": "0x0000000000000000",
    "text": "{{anim id=\"Hello\" target=\"actor\" targetSpec=\"\"}}状态怎么样～？{{delay frames=\"40\"}}\n{{anim id=\"Smiling\" target=\"actor\" targetSpec=\"\"}}捕虫这件事，\n是会越做越熟练的～{{pageBreak}}{{anim id=\"HappyDance\" target=\"actor\" targetSpec=\"\"}}为了不输给\n{{string value=\"4\"}}你，{{delay20}}\n我也要多加练习捕虫的技巧才是～{{string value=\"6\"}}。"
  },
  {
    "label": "103",
    "attribute": "0x0000000000000000",
    "text": "{{anim id=\"Aha\" target=\"actor\" targetSpec=\"\"}}{{string value=\"4\"}}～{{delay20}}\n{{anim id=\"FaintSmile\" target=\"actor\" targetSpec=\"\"}}你捕虫的本事{{delay20}}\n进步了不少啊～{{pageBreak}}{{anim id=\"Nodding\" target=\"actor\" targetSpec=\"\"}}经常看到你拿着捕虫网到处走呢～{{delay20}}\n所以我就在想{{string value=\"...\"}}\n你应该很喜欢捕虫吧～{{pageBreak}}{{anim id=\"HappyDance\" target=\"actor\" targetSpec=\"\"}}你的捕虫技术已经很高超了吧～{{delay20}}\n真厉害呀～！{{string value=\"6\"}}。"
  },
  {
    "label": "104",
    "attribute": "0x0000000000000000",
    "text": "{{anim id=\"Shocked\" target=\"actor\" targetSpec=\"\"}}哇～{{delay8}}好厉害～！{{delay frames=\"30\"}}\n{{anim id=\"HappyDance\" target=\"actor\" targetSpec=\"\"}}{{string value=\"4\"}}～{{delay8}}\n你拿着捕虫网的样子真帅～！{{pageBreak}}{{anim id=\"Nodding\" target=\"actor\" targetSpec=\"\"}}要是我在捕虫的时候遇到问题，{{delay20}}\n我就去找你哦～！{{delay frames=\"40\"}}\n{{anim id=\"Smiling\" target=\"actor\" targetSpec=\"\"}}全都靠你啦～{{string value=\"6\"}}。"
  },
  {
    "label": "105",
    "attribute": "0x0000000000000000",
    "text": "{{anim id=\"QuestionMark\" target=\"actor\" targetSpec=\"\"}}你钓到{{delay20}}\n想要的鱼了吗～？{{pageBreak}}我{{anim id=\"Sleepy\" target=\"actor\" targetSpec=\"\"}}不知道为什么，{{delay20}}\n一钓鱼就会犯困呢～{{pageBreak}}{{anim id=\"Worried\" target=\"actor\" targetSpec=\"\"}}一不注意就会开始打瞌睡～{{delay20}}\n我有些担心，是不是在我迷迷糊糊的时候，\n被鱼儿们{{delay8}}嘲笑了呢～？{{string value=\"6\"}}。"
  },
  {
    "label": "106",
    "attribute": "0x0000000000000000",
    "text": "{{anim id=\"Nodding\" target=\"actor\" targetSpec=\"\"}}不同品种的{{delay8}}鱼儿们，{{delay20}}\n{{anim id=\"Hello\" target=\"actor\" targetSpec=\"\"}}生活的地方也不一样吧～？{{pageBreak}}{{anim id=\"AbsentMindedness\" target=\"actor\" targetSpec=\"\"}}要是有一天，{{delay20}}我能看遍世界上所有种类的鱼～{{delay8}}\n那该多好呀～{{string value=\"6\"}}。"
  },
  {
    "label": "107",
    "attribute": "0x0000000000000000",
    "text": "{{anim id=\"Thinking\" target=\"actor\" targetSpec=\"\"}}嗯{{string value=\"...\"}}{{delay20}}\n要是我也能像{{string value=\"4\"}}你一样{{delay20}}\n那么会钓鱼就好了～{{pageBreak}}{{anim id=\"IdeaBulb\" target=\"actor\" targetSpec=\"\"}}对了～！{{delay frames=\"40\"}}\n{{anim id=\"HappyDance\" target=\"actor\" targetSpec=\"\"}}我就在晚上{{delay20}}\n悄悄地练习一下钓鱼吧～！{{pageBreak}}{{anim id=\"TakenAback\" target=\"actor\" targetSpec=\"\"}}啊！{{delay8}}我本来打算{{delay20}}\n{{anim id=\"Frantic\" target=\"actor\" targetSpec=\"\"}}瞒着你偷偷练习的～{{delay20}}\n一不小心说漏嘴了～{{string value=\"6\"}}。"
  },
  {
    "label": "108",
    "attribute": "0x0000000000000000",
    "text": "{{anim id=\"Nodding\" target=\"actor\" targetSpec=\"\"}}我觉得～{{delay20}}\n{{anim id=\"FaintSmile\" target=\"actor\" targetSpec=\"\"}}钓鱼钓得好的人，\n一定是被鱼儿们喜欢的人～{{pageBreak}}{{anim id=\"ShyBoy\" target=\"actor\" targetSpec=\"\"}}我也想变得{{delay20}}\n像{{string value=\"4\"}}你这样{{delay20}}\n受鱼儿们欢迎呢～{{string value=\"6\"}}。"
  },
  {
    "label": "109",
    "attribute": "0x0000000000000000",
    "text": "{{anim id=\"HappyDance\" target=\"actor\" targetSpec=\"\"}}{{string value=\"4\"}}～{{delay20}}\n你已经钓到过{{delay8}}\n所有种类的鱼了吗～？！{{pageBreak}}{{anim id=\"EmotEnd\" target=\"actor\" targetSpec=\"\"}}你真的{{delay20}}\n{{anim id=\"FaintSmile\" target=\"actor\" targetSpec=\"\"}}很喜欢鱼呢～{{pageBreak}}{{anim id=\"Nodding\" target=\"actor\" targetSpec=\"\"}}钓鱼的技术也是专业级别的～{{delay20}}\n{{anim id=\"HappyFlower\" target=\"actor\" targetSpec=\"\"}}你只是拿着钓竿站着，{{delay20}}\n看上去都闪耀着光芒呢～{{string value=\"6\"}}。"
  },
  {
    "label": "110",
    "attribute": "0x0000000000000000",
    "text": "{{anim id=\"Aha\" target=\"actor\" targetSpec=\"\"}}{{string value=\"4\"}}～{{delay20}}\n你在给花浇水吗～？{{delay frames=\"40\"}}\n{{anim id=\"HappyFlower\" target=\"actor\" targetSpec=\"\"}}花儿们一定也很高兴呢～{{string value=\"6\"}}。"
  },
  {
    "label": "111",
    "attribute": "0x0000000000000000",
    "text": "{{anim id=\"Shocked\" target=\"actor\" targetSpec=\"\"}}{{string value=\"4\"}}～{{delay20}}\n这种天气，{{delay8}}\n你也会给花儿浇水吗？{{pageBreak}}{{anim id=\"Smiling\" target=\"actor\" targetSpec=\"\"}}能享受到你和天空{{delay8}}\n同时为它们浇水，{{delay20}}\n{{anim id=\"Laughing\" target=\"actor\" targetSpec=\"\"}}花儿们一定也很兴奋吧！{{string value=\"6\"}}。"
  }
]