﻿[
  {
    "label": "001",
    "attribute": "0x0000002800000000",
    "text": "{{anim id=\"HappyDance\" target=\"actor\" targetSpec=\"\"}}呵呵呵，{{delay20}}今天是期待已久的\n烟花大会～{{pageBreak}}{{anim id=\"Explain\" target=\"actor\" targetSpec=\"\"}}到晚上7点还有一段时间，{{delay20}}\n在此之前，{{delay8}}得先把打扫卫生之类的杂事\n{{anim id=\"EmotEnd\" target=\"actor\" targetSpec=\"\"}}都搞定才行呢！{{string value=\"6\"}}。"
  },
  {
    "label": "002",
    "attribute": "0x0000002800000000",
    "text": "{{anim id=\"Love\" target=\"actor\" targetSpec=\"\"}}在广场上摆出小吃摊，{{delay8}}\n庆典氛围就会高涨起来呢～{{pageBreak}}{{anim id=\"IdeaBulb\" target=\"actor\" targetSpec=\"\"}}对了对了，{{delay20}}抽奖是从晚上7点开始吧。{{delay frames=\"40\"}}\n{{anim id=\"EmotEnd\" target=\"actor\" targetSpec=\"\"}}希望{{string value=\"4\"}}你{{delay8}}\n{{anim id=\"Greeting\" target=\"actor\" targetSpec=\"\"}}也能获得好东西！{{string value=\"6\"}}。"
  },
  {
    "label": "003",
    "attribute": "0x0000002800000000",
    "text": "{{anim id=\"Explain\" target=\"actor\" targetSpec=\"\"}}今天一整天好像都是大晴天，{{delay8}}\n是放烟花的绝佳天气！{{pageBreak}}{{anim id=\"AbsentMindedness\" target=\"actor\" targetSpec=\"\"}}在夜空中绽放的盛大烟花{{string value=\"...\"}}{{delay20}}\n{{anim id=\"Smiling\" target=\"actor\" targetSpec=\"\"}}我现在就期待不已。{{string value=\"6\"}}。"
  },
  {
    "label": "004",
    "attribute": "0x0000002700000000",
    "text": "{{anim id=\"Hesitate\" target=\"actor\" targetSpec=\"\"}}一想到烟花大会马上就要开始了，{{delay8}}\n我就心神不宁呢。{{pageBreak}}{{anim id=\"Hello\" target=\"actor\" targetSpec=\"\"}}{{string value=\"4\"}}，\n你也很期待吧？{{delay frames=\"40\"}}\n{{anim id=\"Blushing\" target=\"actor\" targetSpec=\"\"}}不是只有我这样就好～{{string value=\"6\"}}。"
  },
  {
    "label": "005",
    "attribute": "0x0000002700000000",
    "text": "我{{delay20}}最喜欢\n{{anim id=\"Love\" target=\"actor\" targetSpec=\"\"}}烟花燃放前的{{delay8}}\n心跳与兴奋感了～\n{{anim id=\"Hesitate\" target=\"actor\" targetSpec=\"\"}}开始燃放之后，{{delay8}}就会为烟花升空的声音\n兴奋不已～{{string value=\"6\"}}。"
  },
  {
    "label": "006",
    "attribute": "0x0000002700000000",
    "text": "{{anim id=\"Aha\" target=\"actor\" targetSpec=\"\"}}{{string value=\"4\"}}，{{delay20}}\n{{anim id=\"Smiling\" target=\"actor\" targetSpec=\"\"}}再过一会儿，就要开始放烟花了哦！{{pageBreak}}{{anim id=\"EmotEnd\" target=\"actor\" targetSpec=\"\"}}传统的烟花也很美，{{delay20}}\n{{anim id=\"Love\" target=\"actor\" targetSpec=\"\"}}不过，{{delay20}}稍显奇特的烟花，\n我也挺喜欢的。{{string value=\"6\"}}。"
  },
  {
    "label": "007",
    "attribute": "0x0000002600000000",
    "text": "{{anim id=\"Smiling\" target=\"actor\" targetSpec=\"\"}}烟花放完后，{{delay8}}\n总感觉比平时的夜晚更加安静呢。{{pageBreak}}{{anim id=\"AbsentMindedness\" target=\"actor\" targetSpec=\"\"}}不过，像这样闭上眼睛，{{delay20}}\n在夜空中盛放的巨大烟花\n仍残留在眼前呢～{{string value=\"6\"}}。"
  },
  {
    "label": "008",
    "attribute": "0x0000002600000000",
    "text": "{{anim id=\"Nodding\" target=\"actor\" targetSpec=\"\"}}烟花的光芒与响声激荡人心{{string value=\"...\"}}{{delay20}}\n{{anim id=\"FaintSmile\" target=\"actor\" targetSpec=\"\"}}为了不忘记这份感动，{{delay8}}\n{{anim id=\"Assent\" target=\"actor\" targetSpec=\"\"}}得在日记中写下来才行。{{string value=\"6\"}}。"
  },
  {
    "label": "009",
    "attribute": "0x0000002600000000",
    "text": "{{anim id=\"Worried\" target=\"actor\" targetSpec=\"\"}}在烟花放完之后，{{delay20}}\n我感到有一点孤单。{{pageBreak}}{{anim id=\"BigSmile\" target=\"actor\" targetSpec=\"\"}}不过，和{{string value=\"4\"}}你聊了聊，{{delay20}}\n孤单落寞的感觉\n{{anim id=\"EmotEnd\" target=\"actor\" targetSpec=\"\"}}就一扫而空了！{{string value=\"6\"}}。"
  },
  {
    "label": "010",
    "attribute": "0x0000002900000000",
    "text": "{{anim id=\"Nodding\" target=\"actor\" targetSpec=\"\"}}今年最后一次烟花大会{{delay20}}\n终于结束了呢～{{pageBreak}}{{anim id=\"AbsentMindedness\" target=\"actor\" targetSpec=\"\"}}希望明年，\n我也能在{{string value=\"33\"}}\n看烟花呢。{{string value=\"6\"}}。"
  },
  {
    "label": "011",
    "attribute": "0x0000002900000000",
    "text": "虽然大会结束了，{{delay20}}\n{{anim id=\"HappyFlower\" target=\"actor\" targetSpec=\"\"}}但我看到了很多烟花，\n非常幸福！\n{{anim id=\"Explain\" target=\"actor\" targetSpec=\"\"}}{{number value=\"27\"}}年的烟花会留在我的心里，{{delay20}}\n而我现在就开始期待明年的烟花了。{{delay frames=\"40\"}}\n{{anim id=\"Hesitate\" target=\"actor\" targetSpec=\"\"}}我{{delay20}}是不是太贪心了呢？{{string value=\"6\"}}。"
  },
  {
    "label": "012",
    "attribute": "0x0000002900000000",
    "text": "{{anim id=\"Love\" target=\"actor\" targetSpec=\"\"}}今天的烟花大会，{{delay8}}\n作为收场来说真是太精彩了{{string value=\"...\"}}{{pageBreak}}{{anim id=\"EmotEnd\" target=\"actor\" targetSpec=\"\"}}在烟花谢幕后感到落寞是人之常情，{{delay20}}\n{{anim id=\"Smiling\" target=\"actor\" targetSpec=\"\"}}我却觉得心旷神怡，很奇异呢。{{string value=\"6\"}}。"
  }
]