﻿[
  {
    "label": "004",
    "attribute": "0x02000000",
    "text": "Puoi pagare dopo{{fun_00050096 arg=\"\"}} visto che è un\noggetto solo.{{delay20}} Allora, vuoi effettuare\nl'acquisto?"
  },
  {
    "label": "004_a",
    "attribute": "0x00000000",
    "text": "{{anim id=\"Nodding\" target=\"actor\" targetSpec=\"\"}}Sì, grazie!"
  },
  {
    "label": "004_b",
    "attribute": "0x00000000",
    "text": "{{anim id=\"Negative\" target=\"actor\" targetSpec=\"\"}}Preferisco di no."
  },
  {
    "label": "005",
    "attribute": "0x00000000",
    "text": "Hai le tasche{{fun_00050096 arg=\"\"}} strabordanti.{{delay20}} Se vuoi{{delay20}}\n{{anim id=\"Nodding\" target=\"actor\" targetSpec=\"\"}}puoi mettere da parte le tue cose\nnel mobiletto{{fun_00050096 arg=\"\"}} al piano di sopra."
  },
  {
    "label": "007",
    "attribute": "0x00000000",
    "text": "Quelle{{fun_00050096 arg=\"\"}} sono {{color id=\"1\"}}scatole di praline\nsouvenir{{color id=\"65535\"}}. {{delay20}}Sono dolci e mooooolto\nbuone.{{delay20}} Un'ottima idea regalo{{fun_00050096 arg=\"\"}}"
  },
  {
    "label": "008",
    "attribute": "0x00000000",
    "text": "Ehi{{fun_00050096 arg=\"\"}} {{string value=\"PlayerName\"}}!{{pageBreak}}{{anim id=\"Smiling\" target=\"actor\" targetSpec=\"\"}}Grazie per l'acquisto{{fun_00050096 arg=\"\"}} Sei un{{gender2 m=\"o\" f=\"a\"}} de{{gender2 m=\"i\" f=\"lle\"}}\nmigliori clienti che abbiamo.{{pageBreak}}{{anim id=\"Nodding\" target=\"actor\" targetSpec=\"\"}}Se vuoi fare un ordine speciale{{fun_00050096 arg=\"\"}}\nfammi sapere. {{anim id=\"EmotEnd\" target=\"actor\" targetSpec=\"\"}}{{delay frames=\"40\"}}D'accordo?"
  },
  {
    "label": "009",
    "attribute": "0x00000000",
    "text": "Senti, {{string value=\"PlayerName\"}}{{fun_00050096 arg=\"\"}} Ho qualcosa da dirti.{{pageBreak}}Ora offriamo{{fun_00050096 arg=\"\"}} un nuovo servizio.{{pageBreak}}{{anim id=\"Nodding\" target=\"actor\" targetSpec=\"\"}}Chi lavora da {{color id=\"1\"}}Casimira vacanze{{color id=\"65535\"}}{{fun_00050096 arg=\"\"}}\npuò pagare dopo i suoi acquisti{{fun_00050096 arg=\"\"}}\n{{delay20}}se non ha abbastanza poki.{{pageBreak}}{{anim id=\"Smiling\" target=\"actor\" targetSpec=\"\"}}Beh{{fun_00050096 arg=\"\"}} fammi sapere se ti interessa{{fun_00050096 arg=\"\"}}\nqualcosa."
  },
  {
    "label": "010",
    "attribute": "0x00000000",
    "text": "{{anim id=\"Nodding\" target=\"actor\" targetSpec=\"\"}}OK! {{delay20}}Allora ricordati di pagare{{fun_00050096 arg=\"\"}} in\nun altro momento."
  },
  {
    "label": "012",
    "attribute": "0x00000000",
    "text": "{{fun_00050096 arg=\"\"}}{{delay20}}{{anim id=\"Nodding\" target=\"actor\" targetSpec=\"\"}} Come vuoi."
  },
  {
    "label": "101",
    "attribute": "0x00000000",
    "text": "{{fun_00050096 arg=\"\"}}{{delay20}} Buongiorno."
  },
  {
    "label": "102",
    "attribute": "0x00000000",
    "text": "{{fun_00050096 arg=\"\"}}{{delay20}} Ciao."
  },
  {
    "label": "103",
    "attribute": "0x00000000",
    "text": "{{fun_00050096 arg=\"\"}}{{delay20}} Buonasera."
  },
  {
    "label": "104",
    "attribute": "0x00000000",
    "text": "{{fun_00050096 arg=\"\"}}{{anim id=\"FaintSmile\" target=\"actor\" targetSpec=\"\"}}{{delay20}} Buongiorno{{fun_00050096 arg=\"\"}} {{string value=\"PlayerName\"}}."
  },
  {
    "label": "105",
    "attribute": "0x00000000",
    "text": "{{fun_00050096 arg=\"\"}}{{anim id=\"FaintSmile\" target=\"actor\" targetSpec=\"\"}}{{delay20}} Ciao{{fun_00050096 arg=\"\"}} {{string value=\"PlayerName\"}}."
  },
  {
    "label": "106",
    "attribute": "0x00000000",
    "text": "{{fun_00050096 arg=\"\"}}{{anim id=\"FaintSmile\" target=\"actor\" targetSpec=\"\"}}{{delay20}} Buonasera{{fun_00050096 arg=\"\"}} {{string value=\"PlayerName\"}}."
  },
  {
    "label": "120",
    "attribute": "0x00000000",
    "text": "{{fun_00050096 arg=\"\"}} {{fun_00050096 arg=\"\"}}"
  },
  {
    "label": "121",
    "attribute": "0x00000000",
    "text": "{{fun_0014003C arg=\"\"}}"
  },
  {
    "label": "121_01",
    "attribute": "0x00000000",
    "text": "{{anim id=\"FaintSmile\" target=\"actor\" targetSpec=\"\"}}Oggi{{fun_00050096 arg=\"\"}}{{delay20}} sembri in gran forma."
  },
  {
    "label": "121_02",
    "attribute": "0x00000000",
    "text": "Non lavorare troppo{{fun_00050096 arg=\"\"}} {{anim id=\"Nodding\" target=\"actor\" targetSpec=\"\"}}OK?"
  },
  {
    "label": "122",
    "attribute": "0x00000000",
    "text": "{{fun_0014003C arg=\"\"}}"
  },
  {
    "label": "122_01",
    "attribute": "0x00000000",
    "text": "Ti stai{{anim id=\"QuestionMark\" target=\"actor\" targetSpec=\"\"}}{{delay20}}{{fun_00050096 arg=\"\"}} abituando al lavoro?"
  },
  {
    "label": "122_02",
    "attribute": "0x00000000",
    "text": "Gli oggetti del negozio cambiano{{fun_00050096 arg=\"\"}}{{delay20}}\nogni giorno."
  },
  {
    "label": "123",
    "attribute": "0x00000000",
    "text": "{{fun_0014003C arg=\"\"}}"
  },
  {
    "label": "123_01",
    "attribute": "0x00000000",
    "text": "{{anim id=\"FaintSmile\" target=\"actor\" targetSpec=\"\"}}Diamoci un bel po' da fare{{fun_00050096 arg=\"\"}}{{delay20}} anche\noggi."
  },
  {
    "label": "123_02",
    "attribute": "0x00000000",
    "text": "Ti consiglio{{fun_00050096 arg=\"\"}}{{anim id=\"Nodding\" target=\"actor\" targetSpec=\"\"}}{{delay20}} tutto quello che\nvendiamo."
  },
  {
    "label": "141",
    "attribute": "0x00000000",
    "text": "{{fun_0014003C arg=\"\"}}"
  },
  {
    "label": "141_01",
    "attribute": "0x00000000",
    "text": "{{fun_00050096 arg=\"\"}} {{fun_00050096 arg=\"\"}}"
  },
  {
    "label": "141_02",
    "attribute": "0x00000000",
    "text": "{{fun_00050096 arg=\"\"}}{{delay20}} Stai lavorando adesso?"
  },
  {
    "label": "141_03",
    "attribute": "0x00000000",
    "text": "{{fun_00050096 arg=\"\"}}{{anim id=\"Nodding\" target=\"actor\" targetSpec=\"\"}}{{delay20}} Buona fortuna."
  },
  {
    "label": "151",
    "attribute": "0x02000000",
    "text": "Beh{{fun_00050096 arg=\"\"}} che si dice?"
  },
  {
    "label": "151_a",
    "attribute": "0x00000000",
    "text": "Posso ordinare qualcosa?"
  },
  {
    "label": "151_b",
    "attribute": "0x00000000",
    "text": "..."
  },
  {
    "label": "152",
    "attribute": "0x02000000",
    "text": "Beh{{fun_00050096 arg=\"\"}} che si dice?"
  },
  {
    "label": "152_a",
    "attribute": "0x00000000",
    "text": "Vorrei saldare il conto."
  },
  {
    "label": "152_b",
    "attribute": "0x00000000",
    "text": "..."
  },
  {
    "label": "153",
    "attribute": "0x04000000",
    "text": "Beh{{fun_00050096 arg=\"\"}} che si dice?"
  },
  {
    "label": "153_a",
    "attribute": "0x00000000",
    "text": "Posso ordinare qualcosa?"
  },
  {
    "label": "153_b",
    "attribute": "0x00000000",
    "text": "Vorrei saldare il conto."
  },
  {
    "label": "153_c",
    "attribute": "0x00000000",
    "text": "..."
  },
  {
    "label": "154",
    "attribute": "0x00000000",
    "text": "{{fun_00050096 arg=\"\"}}"
  },
  {
    "label": "162",
    "attribute": "0x00000000",
    "text": "Grazie{{fun_00050096 arg=\"\"}}"
  },
  {
    "label": "171",
    "attribute": "0x00000000",
    "text": "{{anim id=\"Nodding\" target=\"actor\" targetSpec=\"\"}}Oh.{{delay20}} Vuoi pagare{{fun_00050096 arg=\"\"}}"
  },
  {
    "label": "172",
    "attribute": "0x00000000",
    "text": "{{fun_00050096 arg=\"\"}}{{delay20}}{{anim id=\"FaintSmile\" target=\"actor\" targetSpec=\"\"}} Bene, grazie."
  },
  {
    "label": "173",
    "attribute": "0x00000000",
    "text": "{{anim id=\"Eh\" target=\"actor\" targetSpec=\"\"}}Oh{{fun_00050096 arg=\"\"}}{{delay20}} Hai pagato{{fun_00050096 arg=\"\"}}{{delay20}} tutto l'importo.{{pageBreak}}Se ti dovesse capitare di non avere\nabbastanza poki{{fun_00050096 arg=\"\"}}{{delay20}}{{anim id=\"Nodding\" target=\"actor\" targetSpec=\"\"}} puoi sempre usare\nquesto servizio."
  },
  {
    "label": "174",
    "attribute": "0x00000000",
    "text": "{{fun_00050096 arg=\"\"}} Nessun problema.{{delay20}} A presto."
  },
  {
    "label": "191",
    "attribute": "0x02000000",
    "text": "Beh{{fun_00050096 arg=\"\"}} che si dice?"
  },
  {
    "label": "191_a",
    "attribute": "0x00000000",
    "text": "Balliamo!"
  },
  {
    "label": "191_b",
    "attribute": "0x00000000",
    "text": "..."
  },
  {
    "label": "192",
    "attribute": "0x04000000",
    "text": "Beh{{fun_00050096 arg=\"\"}} che si dice?"
  },
  {
    "label": "192_a",
    "attribute": "0x00000000",
    "text": "Posso ordinare qualcosa?"
  },
  {
    "label": "192_b",
    "attribute": "0x00000000",
    "text": "Balliamo!"
  },
  {
    "label": "192_c",
    "attribute": "0x00000000",
    "text": "..."
  },
  {
    "label": "193",
    "attribute": "0x04000000",
    "text": "Beh{{fun_00050096 arg=\"\"}} che si dice?"
  },
  {
    "label": "193_a",
    "attribute": "0x00000000",
    "text": "Vorrei saldare il conto."
  },
  {
    "label": "193_b",
    "attribute": "0x00000000",
    "text": "Balliamo!"
  },
  {
    "label": "193_c",
    "attribute": "0x00000000",
    "text": "..."
  },
  {
    "label": "194",
    "attribute": "0x06000000",
    "text": "Beh{{fun_00050096 arg=\"\"}} che si dice?"
  },
  {
    "label": "194_a",
    "attribute": "0x00000000",
    "text": "Posso ordinare qualcosa?"
  },
  {
    "label": "194_b",
    "attribute": "0x00000000",
    "text": "Vorrei saldare il conto."
  },
  {
    "label": "194_c",
    "attribute": "0x00000000",
    "text": "Balliamo!"
  },
  {
    "label": "194_d",
    "attribute": "0x00000000",
    "text": "..."
  },
  {
    "label": "199",
    "attribute": "0x00000000",
    "text": "{{anim id=\"Aha\" target=\"actor\" targetSpec=\"\"}}Pfff{{fun_00050096 arg=\"\"}}{{anim id=\"EmotEnd\" target=\"actor\" targetSpec=\"\"}} OK, andiamoci{{fun_00050096 arg=\"\"}}{{delay20}}{{anim id=\"FaintSmile\" target=\"actor\" targetSpec=\"\"}} insieme.{{anim id=\"EmotEnd\" target=\"actor\" targetSpec=\"\"}}"
  },
  {
    "label": "301",
    "attribute": "0x00000000",
    "text": "{{fun_00050096 arg=\"\"}}"
  },
  {
    "label": "302",
    "attribute": "0x00000000",
    "text": "{{anim id=\"FaintSmile\" target=\"actor\" targetSpec=\"\"}}{{fun_00050096 arg=\"\"}}"
  },
  {
    "label": "303",
    "attribute": "0x00000000",
    "text": "{{fun_0014003C arg=\"\"}}"
  },
  {
    "label": "303_01",
    "attribute": "0x00000000",
    "text": "{{anim id=\"FaintSmile\" target=\"actor\" targetSpec=\"\"}}{{fun_00050096 arg=\"\"}} {{delay20}}{{fun_00050096 arg=\"\"}}"
  },
  {
    "label": "303_02",
    "attribute": "0x00000000",
    "text": "Credo che{{anim id=\"Nodding\" target=\"actor\" targetSpec=\"\"}}{{fun_00050096 arg=\"\"}} te la caverai bene."
  },
  {
    "label": "303_03",
    "attribute": "0x00000000",
    "text": "Saluta {{color id=\"3\"}}Gilbertuccio{{color id=\"65535\"}}{{fun_00050096 arg=\"\"}} da parte mia."
  },
  {
    "label": "304",
    "attribute": "0x00000000",
    "text": "{{anim id=\"FaintSmile\" target=\"actor\" targetSpec=\"\"}}{{fun_00050096 arg=\"\"}} {{delay20}}{{fun_00050096 arg=\"\"}}"
  },
  {
    "label": "305",
    "attribute": "0x00000000",
    "text": "{{fun_0014003C arg=\"\"}}"
  },
  {
    "label": "305_01",
    "attribute": "0x00000000",
    "text": "{{fun_00050096 arg=\"\"}}{{delay frames=\"40\"}} {{delay20}}{{fun_00050096 arg=\"\"}}"
  },
  {
    "label": "305_02",
    "attribute": "0x00000000",
    "text": "Aiuterai{{fun_00050096 arg=\"\"}} {{color id=\"3\"}}Gilbertuccio {{color id=\"65535\"}}per me?"
  },
  {
    "label": "305_03",
    "attribute": "0x00000000",
    "text": "Saluta {{color id=\"3\"}}Gilbertuccio{{color id=\"65535\"}}{{fun_00050096 arg=\"\"}} da parte mia."
  },
  {
    "label": "306",
    "attribute": "0x00000000",
    "text": "{{fun_0014003C arg=\"\"}}"
  },
  {
    "label": "306_01",
    "attribute": "0x00000000",
    "text": "{{anim id=\"FaintSmile\" target=\"actor\" targetSpec=\"\"}}{{fun_00050096 arg=\"\"}} {{delay20}}{{fun_00050096 arg=\"\"}}"
  },
  {
    "label": "306_02",
    "attribute": "0x00000000",
    "text": "Bene{{fun_00050096 arg=\"\"}}{{delay8}}{{anim id=\"FaintSmile\" target=\"actor\" targetSpec=\"\"}} sono contento."
  },
  {
    "label": "308",
    "attribute": "0x00000000",
    "text": "Grazie{{fun_00050096 arg=\"\"}}{{delay20}} {{anim id=\"FaintSmile\" target=\"actor\" targetSpec=\"\"}}per prima."
  },
  {
    "label": "309",
    "attribute": "0x00000000",
    "text": "Dovremmo di nuovo ascoltare\ninsieme i suoni che ci circondano{{fun_00050096 arg=\"\"}}{{delay20}}{{anim id=\"Nodding\" target=\"actor\" targetSpec=\"\"}}\nL'altra volta è stato piacevole."
  },
  {
    "label": "310",
    "attribute": "0x00000000",
    "text": "Spero che ascoltare i suoni che\nci circondano{{fun_00050096 arg=\"\"}} ti aiuti a trovare\nla pace interiore."
  }
]