﻿[
  {
    "label": "001",
    "text": "Yo, vreemde vreemde!"
  },
  {
    "label": "002",
    "text": "Aan iemand ergens ooit,"
  },
  {
    "label": "003",
    "text": "Hé, ik-weet-niet-wie,"
  },
  {
    "label": "004",
    "text": "Yo, slimme speurneus!"
  },
  {
    "label": "005",
    "text": "Aan de gelukkige vinder,"
  },
  {
    "label": "101",
    "text": "Tijdens een ommetje langs het\nstrand schoot me toch een tof\ndoe-het-zelfplan te binnen!"
  },
  {
    "label": "102",
    "text": "Een doe-het-zelfplan bedenken nét\nop het moment dat je wegdut...\nIrritant, maar nuttig!"
  },
  {
    "label": "103",
    "text": "In mijn tuintje was ik weer eens\nin de aarde aan het wroeten, en ja,\nhoor! Krijg ik een doe-het-zelfidee!"
  },
  {
    "label": "104",
    "text": "Op een kaart van mijn vader stond\niets, vraag me niet meer wat, dat\nme een goed doe-het-zelfidee gaf!"
  },
  {
    "label": "105",
    "text": "Ik was buiten aan het... (dat maakt\ngeen fluit uit en wie maalt erom?!)\ntoen ik een doe-het-zelfidee kreeg."
  },
  {
    "label": "201",
    "text": "Zoiets tofs moest ik gewoon met\niemand delen!"
  },
  {
    "label": "202",
    "text": "Zo'n maf idee moet ik ook gewoon\nop een maffe manier delen!"
  },
  {
    "label": "203",
    "text": "Ik heb het gelijk genoteerd. Mijn\ngeheugen is een zeef, weet je."
  },
  {
    "label": "204",
    "text": "En toen dacht ik: waarom zou ik\nzoiets nou voor mezelf houden?"
  },
  {
    "label": "205",
    "text": "Ik bedacht me dat íémand zoiets\ntoch ook cool zou moeten vinden."
  },
  {
    "label": "301",
    "text": "Nu is het aan jou!"
  },
  {
    "label": "302",
    "text": "Laat er geen gras over groeien!"
  },
  {
    "label": "303",
    "text": "Dus, eh... veel succes, joh!"
  },
  {
    "label": "304",
    "text": "Je kunt dit! Ik sta achter je."
  },
  {
    "label": "305",
    "text": "Ontploffen doet het niet, denk ik..."
  },
  {
    "label": "401",
    "text": "Genie in de dop, {{string value=\"VillagerName\"}}"
  },
  {
    "label": "402",
    "text": "DOEI-het-zelf, {{string value=\"VillagerName\"}}"
  },
  {
    "label": "403",
    "text": "Hopelijk tot ooit, {{string value=\"VillagerName\"}}"
  },
  {
    "label": "404",
    "text": "Koene klusser {{string value=\"VillagerName\"}}"
  },
  {
    "label": "405",
    "text": "Later! {{string value=\"VillagerName\"}}"
  },
  {
    "label": "501",
    "text": "Wil jij af en toe in een spiegel\nkoekeloeren om te zien of je haar\nniet alle kanten op staat? Dan heb\nik hét doe-het-zelfplan voor je!\nProbeer maar uit, joh!"
  }
]