﻿[
  {
    "label": "001",
    "attribute": "0x0000000000000000",
    "text": "{{fun_0014003C arg=\"\"}}"
  },
  {
    "label": "001_01",
    "attribute": "0x0000000000000000",
    "text": "{{anim id=\"Sleepy\" target=\"actor\" targetSpec=\"\"}}ふぁぁ～{{string value=\"...\"}}{{delay frames=\"40\"}}　あれぇ？{{delay frames=\"40\"}}\nキミ、{{delay8}}だぁれ～？{{delay frames=\"40\"}}\n{{anim id=\"EmotEnd\" target=\"actor\" targetSpec=\"\"}}どうやって　ここに{{ruby charSpan=\"1\" value=\"き\"}}来たのぉ？　{{string value=\"6\"}}"
  },
  {
    "label": "001_02",
    "attribute": "0x0000000000000000",
    "text": "{{anim id=\"Eh\" target=\"actor\" targetSpec=\"\"}}あれ？{{delay frames=\"30\"}}　{{ruby charSpan=\"1\" value=\"み\"}}見たことないコだねぇ{{delay frames=\"40\"}}\n{{anim id=\"Smiling\" target=\"actor\" targetSpec=\"\"}}この{{string value=\"32\"}}は、ステキなところが　{{ruby charSpan=\"1\" value=\"おお\"}}多いから{{delay20}}\nゆっくりしていくと　いいよぉ、{{string value=\"6\"}}"
  },
  {
    "label": "001_03",
    "attribute": "0x0000000000000000",
    "text": "ん？{{delay frames=\"40\"}}　{{anim id=\"QuestionMark\" target=\"actor\" targetSpec=\"\"}}キミは、{{delay8}}どこから{{ruby charSpan=\"1\" value=\"き\"}}来たの～？{{delay frames=\"40\"}}\n{{anim id=\"EmotEnd\" target=\"actor\" targetSpec=\"\"}}この{{string value=\"32\"}}は　{{ruby charSpan=\"1\" value=\"み\"}}見ドコロが　いっぱいあるから{{delay20}}\n{{anim id=\"Greeting\" target=\"actor\" targetSpec=\"\"}}じっくり　たんけんしてみてねぇ、{{string value=\"6\"}}　"
  },
  {
    "label": "002",
    "attribute": "0x0000000000000000",
    "text": "{{fun_0014003C arg=\"\"}}"
  },
  {
    "label": "002_01",
    "attribute": "0x0000000000000000",
    "text": "{{anim id=\"Shocked\" target=\"actor\" targetSpec=\"\"}}あれぇ？{{delay frames=\"30\"}}　{{string value=\"4\"}}？！{{delay frames=\"40\"}}\n{{anim id=\"Smiling\" target=\"actor\" targetSpec=\"\"}}こんなところで　またキミに{{ruby charSpan=\"1\" value=\"あ\"}}会うなんて{{delay8}}\nきぐうだねぇ、{{string value=\"6\"}}"
  },
  {
    "label": "002_02",
    "attribute": "0x0000000000000000",
    "text": "{{anim id=\"Smiling\" target=\"actor\" targetSpec=\"\"}}やっほぉ、{{delay20}}{{string value=\"4\"}}！{{delay frames=\"40\"}}\nキミと　また{{ruby charSpan=\"1\" value=\"あ\"}}会えるなんて　{{delay8}}ユメみたいだよぉ{{delay frames=\"40\"}}\n{{string value=\"...\"}}って　{{anim id=\"Laughing\" target=\"actor\" targetSpec=\"\"}}ユメなんだっけぇ？　{{string value=\"6\"}}"
  },
  {
    "label": "002_03",
    "attribute": "0x0000000000000000",
    "text": "{{anim id=\"Greeting\" target=\"actor\" targetSpec=\"\"}}あ、{{delay20}}{{string value=\"4\"}}！{{delay frames=\"40\"}}\n{{anim id=\"Hesitate\" target=\"actor\" targetSpec=\"\"}}ボク、{{delay8}}ユメでもいいから　キミに{{ruby charSpan=\"1\" value=\"あ\"}}会いたいって\n{{ruby charSpan=\"1\" value=\"おも\"}}思ってたところだったんだぁ、{{string value=\"6\"}}"
  },
  {
    "label": "003",
    "attribute": "0x0000000000000000",
    "text": "{{fun_0014003C arg=\"\"}}"
  },
  {
    "label": "003_01",
    "attribute": "0x0000000000000000",
    "text": "{{anim id=\"Greeting\" target=\"actor\" targetSpec=\"\"}}やっほぉ～！{{delay frames=\"40\"}}\n{{anim id=\"FaintSmile\" target=\"actor\" targetSpec=\"\"}}ここは　{{string value=\"33\"}}って\nいうんだよぉ～、{{string value=\"6\"}}"
  },
  {
    "label": "003_02",
    "attribute": "0x0000000000000000",
    "text": "{{anim id=\"Greeting\" target=\"actor\" targetSpec=\"\"}}やぁ、{{delay8}}こんばんわぁ～{{delay frames=\"40\"}}\n{{anim id=\"FaintSmile\" target=\"actor\" targetSpec=\"\"}}ボク、おひるね{{ruby charSpan=\"1\" value=\"ちゅう\"}}中でも{{delay20}}　ユメの{{ruby charSpan=\"1\" value=\"なか\"}}中では\n「こんばんわ」って　{{ruby charSpan=\"1\" value=\"い\"}}言うんだぁ～、{{string value=\"6\"}}"
  },
  {
    "label": "003_03",
    "attribute": "0x0000000000000000",
    "text": "{{anim id=\"BigSmile\" target=\"actor\" targetSpec=\"\"}}やっほ～！{{delay frames=\"40\"}}\n{{anim id=\"FaintSmile\" target=\"actor\" targetSpec=\"\"}}この{{string value=\"32\"}}は　とっても　ステキなトコロだから、{{delay20}}\nじっくり　たんけんしてってねぇ、{{string value=\"6\"}}"
  },
  {
    "label": "004",
    "attribute": "0x0000000000000000",
    "text": "{{fun_0014003C arg=\"\"}}"
  },
  {
    "label": "004_01",
    "attribute": "0x0000000000000000",
    "text": "{{anim id=\"Sleepy\" target=\"actor\" targetSpec=\"\"}}ふぁぁ～{{string value=\"...\"}}{{delay frames=\"70\"}}\n{{anim id=\"ShyBoy\" target=\"actor\" targetSpec=\"\"}}ユメの{{ruby charSpan=\"1\" value=\"なか\"}}中なのに{{delay8}}　ねむくなっちゃうのは\nどうしてなんだろう～、{{string value=\"6\"}}"
  },
  {
    "label": "004_02",
    "attribute": "0x0000000000000000",
    "text": "{{anim id=\"Explain\" target=\"actor\" targetSpec=\"\"}}なんだか　ユメの{{ruby charSpan=\"1\" value=\"なか\"}}中って、{{delay20}}どんなことでも\nできちゃいそうな{{ruby charSpan=\"1\" value=\"き\"}}気がしない～？{{delay frames=\"40\"}}\n{{anim id=\"AbsentMindedness\" target=\"actor\" targetSpec=\"\"}}{{ruby charSpan=\"1\" value=\"そら\"}}空を　とべたりしないかなぁ{{string value=\"...\"}}、{{string value=\"6\"}}"
  },
  {
    "label": "004_03",
    "attribute": "0x0000000000000000",
    "text": "ユメって、{{delay20}}いつもは　ぼんやりしてて\nすぐわすれちゃうことが　{{ruby charSpan=\"1\" value=\"おお\"}}多いけど{{delay20}}\n{{anim id=\"HappyDance\" target=\"actor\" targetSpec=\"\"}}{{ruby charSpan=\"2\" value=\"きょう\"}}今日のは　ちがう{{ruby charSpan=\"1\" value=\"き\"}}気がするなぁ～、{{string value=\"6\"}}"
  },
  {
    "label": "005",
    "attribute": "0x0000000000000000",
    "text": "{{fun_0014003C arg=\"\"}}"
  },
  {
    "label": "005_01",
    "attribute": "0x0000000000000000",
    "text": "{{anim id=\"Nodding\" target=\"actor\" targetSpec=\"\"}}せっかく　あそびに{{ruby charSpan=\"1\" value=\"き\"}}来たんだもん{{delay frames=\"40\"}}\n{{anim id=\"FaintSmile\" target=\"actor\" targetSpec=\"\"}}{{ruby charSpan=\"1\" value=\"おも\"}}思いっきり　{{ruby charSpan=\"1\" value=\"たの\"}}楽しんでってねぇ！　{{string value=\"6\"}}"
  },
  {
    "label": "005_02",
    "attribute": "0x0000000000000000",
    "text": "{{anim id=\"Explain\" target=\"actor\" targetSpec=\"\"}}ボク、{{delay20}}ユメの{{ruby charSpan=\"1\" value=\"なか\"}}中って{{delay8}}　どんだけ　{{ruby charSpan=\"1\" value=\"た\"}}食べても\nへっちゃらなんだと　{{ruby charSpan=\"1\" value=\"おも\"}}思うんだよねぇ{{delay frames=\"40\"}}\n{{anim id=\"Grin\" target=\"actor\" targetSpec=\"\"}}{{delay8}}{{string value=\"...\"}}ちょっと　ためしてみようかなぁ、{{string value=\"6\"}}"
  },
  {
    "label": "005_03",
    "attribute": "0x0000000000000000",
    "text": "{{anim id=\"Smiling\" target=\"actor\" targetSpec=\"\"}}ユメの{{ruby charSpan=\"1\" value=\"なか\"}}中の{{string value=\"32\"}}ってね、{{delay20}}\nいつもとは　また　ちがった{{ruby charSpan=\"2\" value=\"はっけん\"}}発見があって{{delay20}}\nすっごく　{{ruby charSpan=\"2\" value=\"おもしろ\"}}面白いんだぁ、{{string value=\"6\"}}"
  }
]