﻿[
  {
    "label": "001",
    "attribute": "0x0000000000000000",
    "text": "{{fun_0014003C arg=\"\"}}"
  },
  {
    "label": "001_01",
    "attribute": "0x0000000000000000",
    "text": "{{anim id=\"Nodding\" target=\"actor\" targetSpec=\"\"}}Vive le changement !{{delay40}} {{anim id=\"HappyDance\" target=\"actor\" targetSpec=\"\"}}J'ai hâte de\ndémarrer ma nouvelle vie{{string value=\"...\"}}{{delay20}} dans un\nautre coin de l'île, {{string value=\"6\"}} !"
  },
  {
    "label": "002",
    "attribute": "0x0000000000000000",
    "text": "{{anim id=\"Nodding\" target=\"actor\" targetSpec=\"\"}}Bien sûr que ça me va !{{delay20}} J'ai même\ncarrément trop hâte !{{delay20}} {{anim id=\"HappyDance\" target=\"actor\" targetSpec=\"\"}}Oh là là !\nVive les rénovations !"
  }
]