﻿[
  {
    "label": "002",
    "attribute": "0x0000030500070000",
    "text": "{{anim id=\"HappyDance\" target=\"actor\" targetSpec=\"\"}}Het is een mooie dag om te sporten.{{delay20}}\n{{anim id=\"Smiling\" target=\"actor\" targetSpec=\"\"}}Welke van deze sporten zou jij nu\nhet liefst doen, {{string value=\"NickName\"}}?"
  },
  {
    "label": "002_a",
    "attribute": "0x0300000000000000",
    "text": "Zwemmen."
  },
  {
    "label": "002_b",
    "attribute": "0x0400000000000000",
    "text": "Voetbal."
  },
  {
    "label": "002_c",
    "attribute": "0x0500000000000000",
    "text": "Trefbal."
  },
  {
    "label": "003",
    "attribute": "0x0000000000000000",
    "text": "{{anim id=\"Aha\" target=\"actor\" targetSpec=\"\"}}Ik ook! {{delay frames=\"40\"}}Ik ging in de zomer altijd met\nopa naar het buitenzwembad. Daar\nhadden ze lekkere ijsjes en patat{{string value=\"...\"}}{{pageBreak}}{{anim id=\"HappyFlower\" target=\"actor\" targetSpec=\"\"}}Later thuis at ik {{randomFood}}, {{randomFood}} en ook nog wat {{randomFood}}!{{pageBreak}}Van zwemmen krijg je echt honger!"
  },
  {
    "label": "004",
    "attribute": "0x0000000000000000",
    "text": "{{anim id=\"Nodding\" target=\"actor\" targetSpec=\"\"}}Het is heerlijk om na de wedstrijd bij\nte komen met {{randomDrink}}, of je nou gewonnen hebt of verloren.{{pageBreak}}{{anim id=\"SmugFace\" target=\"actor\" targetSpec=\"\"}}Als ik moe word op het veld,{{delay8}} denk ik\naan {{anim id=\"FaintSmile\" target=\"actor\" targetSpec=\"\"}}{{fun_00010032 arg=\"\"}}{{randomDrink}} {{fun_00130032 arg=\"0x1E0000CD060064006900650006006400610074000600640069006500\"}} op me wacht. Daar krijg ik weer energie van."
  },
  {
    "label": "005",
    "attribute": "0x0000000000000000",
    "text": "{{anim id=\"Greeting\" target=\"actor\" targetSpec=\"\"}}Iedereen wil altijd trefbal tegen mij\nspelen, {{anim id=\"Laughing\" target=\"actor\" targetSpec=\"\"}}want dan hoeven ze niet\nbang te zijn om geraakt te worden!"
  },
  {
    "label": "007",
    "attribute": "0x0000030500080000",
    "text": "{{anim id=\"FaintSmile\" target=\"actor\" targetSpec=\"\"}}Op zonnige dagen lijken wolken op\nsuikerspinnen.{{delay20}}{{anim id=\"Pardon\" target=\"actor\" targetSpec=\"\"}} Maar hoe zouden ze\nop een bewolkte dag smaken?"
  },
  {
    "label": "007_a",
    "attribute": "0x0800000000000000",
    "text": "Als aardappelpuree."
  },
  {
    "label": "007_b",
    "attribute": "0x0900000000000000",
    "text": "Sponzig."
  },
  {
    "label": "007_c",
    "attribute": "0x0A00000000000000",
    "text": "Nog steeds zoet."
  },
  {
    "label": "008",
    "attribute": "0x0000000000000000",
    "text": "{{anim id=\"QuestionMark\" target=\"actor\" targetSpec=\"\"}}Als aardappelpuree?{{delay20}}{{anim id=\"EmotEnd\" target=\"actor\" targetSpec=\"\"}} Daar lijken\nwolken inderdaad wel wat op.{{delay40}} {{anim id=\"FaintSmile\" target=\"actor\" targetSpec=\"\"}}Moet\ner dan eigenlijk ook jus bij?{{pageBreak}}En hoe diep moet de kuil voor de jus\nzijn?{{anim id=\"Thinking\" target=\"actor\" targetSpec=\"\"}} Tegen de tijd dat ik klaar ben\nmet graven, is de wolk vast al koud."
  },
  {
    "label": "009",
    "attribute": "0x0000000000000000",
    "text": "{{anim id=\"Eh\" target=\"actor\" targetSpec=\"\"}}Sponzig? Bah! Dat klinkt helemaal\nniet lekker!{{pageBreak}}{{anim id=\"Nodding\" target=\"actor\" targetSpec=\"\"}}Nou ja, een zacht geworden koekje\nzou ik nog wel eten.{{i10_4}} Als ik erge\nhonger had.{{i10_4}} Of een klein beetje."
  },
  {
    "label": "010",
    "attribute": "0x0000000000000000",
    "text": "{{anim id=\"Aha\" target=\"actor\" targetSpec=\"\"}}Denk je dat ze nog steeds zoet\nzullen zijn?{{delay20}}{{anim id=\"Nodding\" target=\"actor\" targetSpec=\"\"}} Hm{{string value=\"...\"}} Ja, dat kan wel.\nIk hoop het in ieder geval.{{pageBreak}}{{anim id=\"IdeaBulb\" target=\"actor\" targetSpec=\"\"}}Nu moet ik ze echt gaan proeven, {{string value=\"NickName\"}}. {{anim id=\"Serious\" target=\"actor\" targetSpec=\"\"}}Je weet dus zeker dat ze zoet zijn?"
  },
  {
    "label": "016",
    "attribute": "0x0000000500000000",
    "text": "{{anim id=\"Smiling\" target=\"actor\" targetSpec=\"\"}}Van goed weer krijg ik altijd zin om\nte zingen.{{delay frames=\"40\"}}{{anim id=\"HappyDance\" target=\"actor\" targetSpec=\"\"}} Er is vast een oervogel\ndie diep in me leeft."
  },
  {
    "label": "017",
    "attribute": "0x0000000700000000",
    "text": "{{anim id=\"Love\" target=\"actor\" targetSpec=\"\"}}Ik heb laatst supermooie laarzen\ngekocht. Echt waar!{{pageBreak}}{{anim id=\"AbsentMindedness\" target=\"actor\" targetSpec=\"\"}}Ze zijn blauw{{string value=\"...\"}} en ze zijn glanzend{{string value=\"...\"}}\nen ze zijn héél cool!{{delay20}}{{anim id=\"Blushing\" target=\"actor\" targetSpec=\"\"}} Te cool om in te\nlopen, dus ze blijven altijd thuis."
  },
  {
    "label": "018",
    "attribute": "0x0000000900000000",
    "text": "{{anim id=\"Greeting\" target=\"actor\" targetSpec=\"\"}}Het is niet goed om stil te staan op\nkoude dagen, want dan verander je\nin een soort grote ijslolly.{{pageBreak}}{{anim id=\"ShyBoy\" target=\"actor\" targetSpec=\"\"}}Maar dat vergeet ik soms, en dan\nmoet iemand {{anim id=\"Oops\" target=\"actor\" targetSpec=\"\"}}warme chocolademelk\nin me gieten om me te ontdooien!"
  },
  {
    "label": "019",
    "attribute": "0x0000000700000000",
    "text": "{{anim id=\"Thinking\" target=\"actor\" targetSpec=\"\"}}Als het regent, is het net alsof de\nlucht verdrietig is en huilt{{string value=\"...\"}}{{i10_4}} {{anim id=\"Laughing\" target=\"actor\" targetSpec=\"\"}}Opa zei\naltijd al dat ik te veel fantasie heb."
  },
  {
    "label": "020",
    "attribute": "0x0000000600000000",
    "text": "{{anim id=\"Worried\" target=\"actor\" targetSpec=\"\"}}Van bewolkte dagen word ik soms\neen beetje treurig{{string value=\"...\"}}{{delay20}}{{anim id=\"Blushing\" target=\"actor\" targetSpec=\"\"}} Maar gelukkig\nkomt er altijd weer {{anim id=\"Love\" target=\"actor\" targetSpec=\"\"}}een zonnige dag!"
  },
  {
    "label": "021",
    "attribute": "0x1600000500090000",
    "text": "{{anim id=\"Smiling\" target=\"actor\" targetSpec=\"\"}}Wat is het zonnetje toch fijn!{{delay20}} Zelfs\nals de zon is verdwenen,{{delay8}} blijf ik vaak\nnog even buiten om na te genieten.{{pageBreak}}{{anim id=\"Laughing\" target=\"actor\" targetSpec=\"\"}}Als ik veel lol maak, vergeet ik\nsowieso hoe laat het is. Soms\nvergeet ik zelfs waar ik woon!"
  },
  {
    "label": "022",
    "attribute": "0x0000000000000000",
    "text": "{{fun_0014003C arg=\"\"}}"
  },
  {
    "label": "022_01",
    "attribute": "0x0000000000000000",
    "text": "{{anim id=\"Greeting\" target=\"actor\" targetSpec=\"\"}}Weet jij waarom er nog wat licht is,{{delay8}} {{string value=\"NickName\"}}?{{delay frames=\"40\"}}{{anim id=\"Explain\" target=\"actor\" targetSpec=\"\"}} Dat komt doordat de maan {{anim id=\"Love\" target=\"actor\" targetSpec=\"\"}}een soort lamp is!"
  },
  {
    "label": "022_02",
    "attribute": "0x0000000000000000",
    "text": "{{anim id=\"IdeaBulb\" target=\"actor\" targetSpec=\"\"}}In het donker kun je leuk tikkertje\nspelen!{{delay frames=\"50\"}} Pas wel op voor bomen,{{delay20}} want\ndie kunnen gemeen terugtikken!"
  },
  {
    "label": "022_03",
    "attribute": "0x0000000000000000",
    "text": "{{anim id=\"Shocked\" target=\"actor\" targetSpec=\"\"}}Waarom ben ik buiten?{{delay20}} Hoe ben ik de\ndeur uitgekomen?{{delay20}}{{anim id=\"Frantic\" target=\"actor\" targetSpec=\"\"}} Ik heb{{delay8}} toch\nniemand gebeten, hè?!{{pageBreak}}Nee, natuurlijk heb ik niemand\ngebeten!{{delay40}}{{anim id=\"Laughing\" target=\"actor\" targetSpec=\"\"}} Anders zou ik het wel\nproeven."
  },
  {
    "label": "023",
    "attribute": "0x18000005000A0000",
    "text": "{{anim id=\"Smiling\" target=\"actor\" targetSpec=\"\"}}Het is vandaag lekker weer!{{delay20}} Ik vraag\nme af of de zon lacht!{{delay20}} Hahaha, ik ga\nheus niet naar de zon kijken, gekkie!{{pageBreak}}{{anim id=\"Serious\" target=\"actor\" targetSpec=\"\"}}Dat mag niet van opa{{string value=\"...\"}}"
  },
  {
    "label": "024",
    "attribute": "0x0000000000000000",
    "text": "{{fun_0014003C arg=\"\"}}"
  },
  {
    "label": "024_01",
    "attribute": "0x0000000000000000",
    "text": "Ik droomde dat de maan niet naar\nbed wilde en dat de zon humeurig\nwas, omdat hij niet kon werken.{{pageBreak}}{{anim id=\"Laughing\" target=\"actor\" targetSpec=\"\"}}Wat een suffe droom{{string value=\"...\"}}"
  },
  {
    "label": "024_02",
    "attribute": "0x0000000000000000",
    "text": "{{anim id=\"Nodding\" target=\"actor\" targetSpec=\"\"}}Ik slaap soms buiten,{{delay8}} omdat mijn bed\nbinnen is{{delay8}} en binnen is{{delay8}} ver weg."
  },
  {
    "label": "024_03",
    "attribute": "0x0000000000000000",
    "text": "{{anim id=\"Hello\" target=\"actor\" targetSpec=\"\"}}Het is zonnig en ik werd net begroet\ndoor een beestje! Je krijgt bij dezen\nde groeten, {{string value=\"NickName\"}}!"
  },
  {
    "label": "025",
    "attribute": "0x1A00000100000000",
    "text": "{{anim id=\"AbsentMindedness\" target=\"actor\" targetSpec=\"\"}}Het is echt bizar hoe de lucht en de\nwolken van kleur veranderen als het\nweer anders wordt{{string value=\"...\"}}"
  },
  {
    "label": "026",
    "attribute": "0x0000000000000000",
    "text": "{{fun_0008003C arg=\"0x1B001C001D001D001E001E001B00\"}}"
  },
  {
    "label": "027",
    "attribute": "0x0000000000000000",
    "text": "{{anim id=\"AbsentMindedness\" target=\"actor\" targetSpec=\"\"}}Wat is de lucht toch mooi op zonnige\ndagen!{{delay20}} Het is net alsof we in een\nbosbessenkwarktaart leven.{{delay40}} {{anim id=\"Love\" target=\"actor\" targetSpec=\"\"}}Lekker{{string value=\"...\"}}"
  },
  {
    "label": "028",
    "attribute": "0x0000000000000000",
    "text": "Als ik zoveel wolken zie,{{delay8}}{{anim id=\"Confused\" target=\"actor\" targetSpec=\"\"}} vraag ik me\nweleens af of het wel echt allemaal\nwolken zijn.{{pageBreak}}{{anim id=\"Silent\" target=\"actor\" targetSpec=\"\"}}Misschien zitten er wel een paar\nsuikerspinnen tussen die zijn\nweggewaaid."
  },
  {
    "label": "029",
    "attribute": "0x0000000000000000",
    "text": "{{anim id=\"AbsentMindedness\" target=\"actor\" targetSpec=\"\"}}Als het regent, krijgt de lucht\ndezelfde kleur als alles op mijn\noma's televisie{{string value=\"...\"}}"
  },
  {
    "label": "030",
    "attribute": "0x0000000000000000",
    "text": "Je hebt cool en je hebt koel{{string value=\"...\"}}{{anim id=\"Shaking\" target=\"actor\" targetSpec=\"\"}} Maar\ner is niks{{delay8}} cools{{delay8}} aan deze{{delay8}} kou!"
  },
  {
    "label": "101",
    "attribute": "0x0000000000000000",
    "text": "{{anim id=\"Smiling\" target=\"actor\" targetSpec=\"\"}}Wat een mooie ochtend{{string value=\"...\"}} De lucht\nis superhelder, {{string value=\"6\"}}.{{pageBreak}}Ik hoop dat het zo blijft{{string value=\"...\"}}{{delay20}}{{anim id=\"Love\" target=\"actor\" targetSpec=\"\"}} want dan\nzien we vanavond misschien de\nsterrenregen wel!"
  },
  {
    "label": "102",
    "attribute": "0x0000000000000000",
    "text": "{{anim id=\"Smiling\" target=\"actor\" targetSpec=\"\"}}Als het zulk goed weer blijft, zijn\nstraks de sterren te zien.{{delay8}} Misschien\nzien we ook wel meteoren!{{pageBreak}}Ik weet niet wat meteoren zijn,{{delay8}} dus\ndaarom {{anim id=\"Pardon\" target=\"actor\" targetSpec=\"\"}}wil ik er helemaal eentje\nzien!"
  },
  {
    "label": "103",
    "attribute": "0x0000000000000000",
    "text": "{{fun_0001003C arg=\"0xC900CA00CB00\"}}"
  },
  {
    "label": "104",
    "attribute": "0x0000000000000000",
    "text": "{{anim id=\"HappyFlower\" target=\"actor\" targetSpec=\"\"}}Kijk, {{string value=\"NickName\"}}! Daar in de lucht!{{delay40}} Een grote regenboog{{string value=\"...\"}}{{i10_4}} {{anim id=\"Love\" target=\"actor\" targetSpec=\"\"}}Hij ziet eruit of hij naar snoep smaakt!"
  },
  {
    "label": "105",
    "attribute": "0x0000000000000000",
    "text": "{{anim id=\"Aha\" target=\"actor\" targetSpec=\"\"}}{{capitalizeNextLetter}}{{string value=\"6\"}}! Zie jij dat ook?! {{anim id=\"HappyFlower\" target=\"actor\" targetSpec=\"\"}}Een dubbele regenboog!{{pageBreak}}Ik zie dingen anders alleen maar\ndubbel als ik weer eens ergens\ntegenaan ben gelopen."
  },
  {
    "label": "106",
    "attribute": "0x0000000000000000",
    "text": "{{anim id=\"Shaking\" target=\"actor\" targetSpec=\"\"}}{{delay20}}Als het niet s-s-snel warmer wordt{{string value=\"...\"}}{{delay20}}\n{{anim id=\"ColdChill\" target=\"actor\" targetSpec=\"\"}}bevriest vannacht misschien de hele\nhemel."
  },
  {
    "label": "107",
    "attribute": "0x0000000000000000",
    "text": "{{anim id=\"BigSmile\" target=\"actor\" targetSpec=\"\"}}Heb je het {{weatherArea north=\"noorderlicht\" south=\"zuiderlicht\"}} gezien, {{string value=\"NickName\"}}?!{{pageBreak}}{{anim id=\"Greeting\" target=\"actor\" targetSpec=\"\"}}Het was supergaaf{{string value=\"...\"}}{{delay frames=\"40\"}}{{anim id=\"Love\" target=\"actor\" targetSpec=\"\"}} net alsof\niemand een gordijn van regenbogen\nhad gemaakt."
  },
  {
    "label": "108",
    "attribute": "0x0000000000000000",
    "text": "{{anim id=\"TakenAback\" target=\"actor\" targetSpec=\"\"}}Wie is daar?!{{delay frames=\"50\"}}{{anim id=\"ShyBoy\" target=\"actor\" targetSpec=\"\"}} O{{string value=\"...\"}} jij bent het,\n{{string value=\"NickName\"}}.{{pageBreak}}{{anim id=\"Negative\" target=\"actor\" targetSpec=\"\"}}Waarom is alles zo wazig buiten?{{delay20}}\n{{anim id=\"Confused\" target=\"actor\" targetSpec=\"\"}}Ik kan mijn eigen huis niet eens\nvinden!"
  },
  {
    "label": "109",
    "attribute": "0x0000000000000000",
    "text": "{{anim id=\"Thinking\" target=\"actor\" targetSpec=\"\"}}Wauw! Is er een feest aan de gang?{{delay20}}\n{{anim id=\"Pardon\" target=\"actor\" targetSpec=\"\"}}Wat een flitsen en herrie in de lucht!"
  },
  {
    "label": "201",
    "attribute": "0x0000000000000000",
    "text": "{{anim id=\"HappyFlower\" target=\"actor\" targetSpec=\"\"}}Moet je al die sterren eens zien!{{pageBreak}}{{anim id=\"Aha\" target=\"actor\" targetSpec=\"\"}}De lijm waarmee ze aan de lucht\nvastzitten laat steeds los en dan zie\nik ze vallen!{{pageBreak}}Kruimels, kan iemand ze even\nstopzetten? Ze gaan veel te snel om\neen wens te kunnen doen!"
  },
  {
    "label": "202",
    "attribute": "0x0000000000000000",
    "text": "{{anim id=\"Smiling\" target=\"actor\" targetSpec=\"\"}}Hé, {{string value=\"NickName\"}}.{{delay20}} Er vallen allemaal sterren uit de lucht{{string value=\"...\"}} Ze zien eruit als grote toverballen.{{pageBreak}}{{anim id=\"EmotEnd\" target=\"actor\" targetSpec=\"\"}}Ja.{{delay8}} Als ik de plek vind waar ze heen\ngaan{{string value=\"...\"}}{{delay8}}{{anim id=\"Grin\" target=\"actor\" targetSpec=\"\"}} moet het daar vol liggen met\ntoverballen.{{delay20}} Vast en zeker!"
  },
  {
    "label": "203",
    "attribute": "0x0000000000000000",
    "text": "{{anim id=\"Smiling\" target=\"actor\" targetSpec=\"\"}}{{capitalizeNextLetter}}{{string value=\"NickName\"}}!{{delay20}} Heb jij al een wens gedaan?{{pageBreak}}{{anim id=\"EmotEnd\" target=\"actor\" targetSpec=\"\"}}Als je met {{color id=\"1\"}}{{color id=\"65535\"}} omhoogkijkt{{delay20}} en bij het\nzien van een vallende ster op {{color id=\"1\"}}\n{{color id=\"65535\"}}drukt,{{delay20}} {{anim id=\"Greeting\" target=\"actor\" targetSpec=\"\"}}komt je wens uit!{{pageBreak}}{{anim id=\"Hesitate\" target=\"actor\" targetSpec=\"\"}}Ik weet niet wat er bedoeld wordt\nmet {{color id=\"1\"}}{{color id=\"65535\"}} en {{color id=\"1\"}}{{color id=\"65535\"}}{{delay8}} maar het klinkt gaaf!\n{{anim id=\"Love\" target=\"actor\" targetSpec=\"\"}}Hopelijk heb je wat aan deze tip!"
  }
]