﻿[
  {
    "label": "001",
    "attribute": "0x0000000000000000",
    "text": "{{anim id=\"Smiling\" target=\"actor\" targetSpec=\"\"}}Oh là là, ça y est, c'est ce soir!\nLe compte à rebours du Nouvel An,\nsur la place!{{pageBreak}}{{anim id=\"HappyDance\" target=\"actor\" targetSpec=\"\"}}Je veux souhaiter la bienvenue à la\nnouvelle année avec tous mes amis!"
  },
  {
    "label": "004",
    "attribute": "0x0000000000000000",
    "text": "{{anim id=\"Sighing\" target=\"actor\" targetSpec=\"\"}}Ça y est, l'année touche à sa fin!{{delay frames=\"40\"}}\nJ'avais tellement de grands projets,\net finalement j'ai rien fait du tout!{{pageBreak}}{{anim id=\"Worried\" target=\"actor\" targetSpec=\"\"}}Goûter les chips au poulet rôti{{string value=\"...\"}}\n{{delay40}}Essayer les chips aux algues{{string value=\"...\"}}{{delay40}}\n{{anim id=\"Crying\" target=\"actor\" targetSpec=\"\"}}Tester les chips au pâté!{{pageBreak}}{{anim id=\"Worried\" target=\"actor\" targetSpec=\"\"}}J'ai tenu aucune de mes résolutions.\nAlors est-ce que ça vaut la peine\nd'en prendre pour cette année?{{pageBreak}}{{anim id=\"Greeting\" target=\"actor\" targetSpec=\"\"}}L'avantage, c'est que je peux\ntoujours recycler celles de l'année\ndernière!"
  },
  {
    "label": "005",
    "attribute": "0x0000000000000000",
    "text": "{{anim id=\"Frantic\" target=\"actor\" targetSpec=\"\"}}Au secours, {{string value=\"NickName\"}}!{{delay frames=\"40\"}}\nIl faut que tu m'aides!{{pageBreak}}L'année est presque finie, et je suis\nsûr que j'ai oublié de faire un truc{{string value=\"...\"}}\nMais j'arrive pas à me rappeler quoi!"
  },
  {
    "label": "006",
    "attribute": "0x0000000000000000",
    "text": "{{anim id=\"FaintSmile\" target=\"actor\" targetSpec=\"\"}}La nouvelle année sera là dans\nmoins d'une heure!{{delay20}} {{anim id=\"Worried\" target=\"actor\" targetSpec=\"\"}}Sauf si son\nvol a du retard, bien sûr!"
  },
  {
    "label": "007",
    "attribute": "0x0000000000000000",
    "text": "{{anim id=\"HappyFlower\" target=\"actor\" targetSpec=\"\"}}Ça va bientôt être le compte à\nrebours, {{string value=\"NickName\"}}!\nTu es prêt{{gender2 m=\"\" f=\"e\"}} pour la fête de l'année?"
  },
  {
    "label": "008",
    "attribute": "0x0000000000000000",
    "text": "{{capitalizeNextLetter}}{{string value=\"NickName\"}}!{{delay frames=\"40\"}} {{anim id=\"Greeting\" target=\"actor\" targetSpec=\"\"}}Il te va bien, ton chapeau!{{delay frames=\"40\"}} {{anim id=\"Blushing\" target=\"actor\" targetSpec=\"\"}}Et le mien? Tu le trouves joli?"
  },
  {
    "label": "009",
    "attribute": "0x0000000000000000",
    "text": "{{anim id=\"HappyDance\" target=\"actor\" targetSpec=\"\"}}T'as vu mon chapeau?{{delay frames=\"40\"}} C'est\nl'occasion de le porter!{{delay frames=\"50\"}} Tu devrais\nmettre le tien, toi aussi!"
  },
  {
    "label": "010",
    "attribute": "0x0000000000000000",
    "text": "Tu ne veux pas mettre ton chapeau\ndu Nouvel An, {{string value=\"NickName\"}}?{{delay40}}\n{{anim id=\"FaintSmile\" target=\"actor\" targetSpec=\"\"}}Je parie qu'il te va bien, pourtant!"
  },
  {
    "label": "011",
    "attribute": "0x0000000000000000",
    "text": "{{anim id=\"Shocked\" target=\"actor\" targetSpec=\"\"}}Oh, tu as déjà mis ton chapeau du\nNouvel An, {{string value=\"NickName\"}}?{{pageBreak}}{{anim id=\"Laughing\" target=\"actor\" targetSpec=\"\"}}Tu n'en peux plus d'attendre, c'est\nça? Tu sais quoi, tu me donnes\nenvie de mettre le mien!"
  },
  {
    "label": "012",
    "attribute": "0x0000000000000000",
    "text": "{{anim id=\"Thinking\" target=\"actor\" targetSpec=\"\"}}Tu as quelque chose de différent,\n{{string value=\"NickName\"}}{{string value=\"...\"}}{{i10_4}} {{anim id=\"Aha\" target=\"actor\" targetSpec=\"\"}}Oh! Mais c'est ton chapeau!{{pageBreak}}{{anim id=\"Hello\" target=\"actor\" targetSpec=\"\"}}Tu es impatient{{gender2 m=\"\" f=\"e\"}} qu'on passe à la\nnouvelle année, c'est ça?{{delay frames=\"40\"}} Allez,\nje vais mettre le mien aussi!"
  },
  {
    "label": "013",
    "attribute": "0x0000000000000000",
    "text": "{{anim id=\"Dance\" target=\"actor\" targetSpec=\"\"}}{{delay frames=\"60\"}}Et voilà!{{delay frames=\"40\"}} {{anim id=\"BigSmile\" target=\"actor\" targetSpec=\"\"}}La nouvelle année peut\nvenir, je suis tout prêt!{{delay frames=\"40\"}} On n'a plus\n{{anim id=\"Smiling\" target=\"actor\" targetSpec=\"\"}}qu'à attendre le décompte!"
  },
  {
    "label": "014",
    "attribute": "0x0000000000000000",
    "text": "{{anim id=\"Explain\" target=\"actor\" targetSpec=\"\"}}Tu sais qu'il y a un accessoire\nindispensable à porter pour le\ndécompte{{string value=\"...\"}} {{delay frames=\"60\"}}{{anim id=\"Smiling\" target=\"actor\" targetSpec=\"\"}}Tu devines?"
  },
  {
    "label": "015",
    "attribute": "0x0000000000000000",
    "text": "{{anim id=\"Pardon\" target=\"actor\" targetSpec=\"\"}}{{capitalizeNextLetter}}{{string value=\"NickName\"}}!{{delay frames=\"40\"}} Regarde un peu par là, vite!{{delay frames=\"60\"}}{{anim id=\"Serious\" target=\"actor\" targetSpec=\"\"}} Est-ce que tu es prêt{{gender2 m=\"\" f=\"e\"}}?"
  },
  {
    "label": "016",
    "attribute": "0x0000000000000000",
    "text": "{{anim id=\"Dance\" target=\"actor\" targetSpec=\"\"}}{{delay frames=\"60\"}}TADAAM!{{delay frames=\"40\"}}{{anim id=\"Hello\" target=\"actor\" targetSpec=\"\"}} Voilà mon chapeau du\nNouvel An!{{delay frames=\"40\"}} {{anim id=\"Blushing\" target=\"actor\" targetSpec=\"\"}}Ça marche plutôt bien,\ntu trouves pas?"
  },
  {
    "label": "018",
    "attribute": "0x0000000000000000",
    "text": "{{anim id=\"Smiling\" target=\"actor\" targetSpec=\"\"}}Il y a quelque chose de différent\ndans l'air le dernier jour de l'année.{{delay40}}\n{{anim id=\"Thinking\" target=\"actor\" targetSpec=\"\"}}Comme un parfum de renouveau!"
  },
  {
    "label": "019",
    "attribute": "0x0000000000000000",
    "text": "{{anim id=\"QuestionMark\" target=\"actor\" targetSpec=\"\"}}Combien de temps encore avant de\nchanger d'année?{{delay frames=\"40\"}}{{anim id=\"Nodding\" target=\"actor\" targetSpec=\"\"}} Je vais interroger\nmon estomac!{{pageBreak}}{{anim id=\"EmotEnd\" target=\"actor\" targetSpec=\"\"}}{{color id=\"5\"}}Grom grom{{string value=\"...\"}}{{color id=\"65535\"}}{{anim id=\"Aha\" target=\"actor\" targetSpec=\"\"}}{{delay frames=\"60\"}}{{anim id=\"Greeting\" target=\"actor\" targetSpec=\"\"}} Mais je te demande\npas le temps qu'il fait! Je demande\ncombien il reste avant l'an prochain!{{pageBreak}}{{color id=\"5\"}}Grom grom{{string value=\"...\"}}{{color id=\"65535\"}} {{anim id=\"Surprised\" target=\"actor\" targetSpec=\"\"}}{{delay frames=\"60\"}}Oh, franchement! {{delay8}}Mon\nestomac est de plus en plus {{delay8}}malpoli!"
  },
  {
    "label": "020",
    "attribute": "0x0000000000000000",
    "text": "{{anim id=\"EmotEnd\" target=\"actor\" targetSpec=\"\"}}{{number value=\"27\"}} est prête à tirer sa révérence{{string value=\"...\"}}{{delay frames=\"40\"}}\n{{anim id=\"AbsentMindedness\" target=\"actor\" targetSpec=\"\"}}Une nouvelle année de grignotage\ns'annonce, il faut que je me prépare!"
  },
  {
    "label": "021",
    "attribute": "0x0000000000000000",
    "text": "{{anim id=\"Nodding\" target=\"actor\" targetSpec=\"\"}}On dirait que tout le monde est prêt!{{delay20}}\nNous avons tous {{anim id=\"BigSmile\" target=\"actor\" targetSpec=\"\"}}nos chapeaux du\nNouvel An!{{delay frames=\"40\"}} {{anim id=\"FaintSmile\" target=\"actor\" targetSpec=\"\"}}C'est partiiiii!"
  },
  {
    "label": "022",
    "attribute": "0x0000000000000000",
    "text": "Avec ce chapeau sur la tête,{{anim id=\"SmugFace\" target=\"actor\" targetSpec=\"\"}} je suis\nprêt pour faire la fête toute la nuit!"
  },
  {
    "label": "023",
    "attribute": "0x0000000000000000",
    "text": "{{anim id=\"SmugFace\" target=\"actor\" targetSpec=\"\"}}Il est pas chic, mon chapeau?{{delay frames=\"40\"}}\n{{anim id=\"Pardon\" target=\"actor\" targetSpec=\"\"}}Si tu veux faire pareil, hésite pas,\n{{string value=\"NickName\"}}!"
  },
  {
    "label": "024",
    "attribute": "0x0000000000000000",
    "text": "{{anim id=\"Shocked\" target=\"actor\" targetSpec=\"\"}}Hein? T'as pas encore mis ton\nchapeau, {{string value=\"NickName\"}}?{{pageBreak}}{{anim id=\"OhGeez\" target=\"actor\" targetSpec=\"\"}}Comment veux-tu ressentir l'esprit\nde la fête sans chapeau?{{i10_4}}{{anim id=\"Pardon\" target=\"actor\" targetSpec=\"\"}} T'as envie\nde faire la fête, rassure-moi?"
  },
  {
    "label": "025",
    "attribute": "0x0000000000000000",
    "text": "{{anim id=\"Clapping\" target=\"actor\" targetSpec=\"\"}}Super, ton chapeau!{{delay frames=\"40\"}} {{anim id=\"SmugFace\" target=\"actor\" targetSpec=\"\"}}Et regarde\nun peu le mien{{string value=\"...\"}}{{delay frames=\"40\"}}{{anim id=\"TakenAback\" target=\"actor\" targetSpec=\"\"}}"
  },
  {
    "label": "026",
    "attribute": "0x0000000000000000",
    "text": "{{anim id=\"Thinking\" target=\"actor\" targetSpec=\"\"}}Il me manque quelque chose, non?\nTu as un truc que j'ai pas, on dirait{{string value=\"...\"}}{{delay frames=\"60\"}}\n{{anim id=\"IdeaBulb\" target=\"actor\" targetSpec=\"\"}}{{delay20}}Oh! Un chapeau!"
  },
  {
    "label": "027",
    "attribute": "0x0000000000000000",
    "text": "{{anim id=\"Laughing\" target=\"actor\" targetSpec=\"\"}}Ouf, on a frôlé la catastrophe!\nUn peu plus et je changeais d'année\ntête nue, tu imagines!"
  },
  {
    "label": "028",
    "attribute": "0x0000000000000000",
    "text": "{{anim id=\"HappyDance\" target=\"actor\" targetSpec=\"\"}}{{capitalizeNextLetter}}{{string value=\"6\"}}! Où est ton chapeau?\nC'est l'heure de bondir dans le futur,\non est presque l'année prochaine!"
  },
  {
    "label": "029",
    "attribute": "0x0000000000000000",
    "text": "{{anim id=\"HappyDance\" target=\"actor\" targetSpec=\"\"}}Ouh, il va être l'heure de mettre nos\nchapeaux! Faut qu'on se fasse beaux\npour accueillir la nouvelle année!"
  },
  {
    "label": "030",
    "attribute": "0x0000000000000000",
    "text": "{{anim id=\"FaintSmile\" target=\"actor\" targetSpec=\"\"}}{{capitalizeNextLetter}}{{string value=\"NickName\"}}?{{delay frames=\"40\"}} Mets ton chapeau, tu veux bien?{{anim id=\"Greeting\" target=\"actor\" targetSpec=\"\"}} Je veux voir s'il te va bien!"
  },
  {
    "label": "032",
    "attribute": "0x0000000000000000",
    "text": "{{anim id=\"TakenAback\" target=\"actor\" targetSpec=\"\"}}Dans cinq minutes, la nouvelle\nannée est là?!{{i10_4}} {{anim id=\"Restless\" target=\"actor\" targetSpec=\"\"}}Ouh, l'angoisse!\nTu crois que je vais lui plaire?"
  },
  {
    "label": "033",
    "attribute": "0x0000000000000000",
    "text": "On est presque demain!{{delay frames=\"40\"}}\n{{anim id=\"BigSmile\" target=\"actor\" targetSpec=\"\"}}Et demain, c'est l'année prochaine!{{delay frames=\"40\"}}\n{{anim id=\"HappyDance\" target=\"actor\" targetSpec=\"\"}}C'est trop bizarre, j'adore!"
  },
  {
    "label": "034",
    "attribute": "0x0000000000000000",
    "text": "{{anim id=\"Serious\" target=\"actor\" targetSpec=\"\"}}Le compte à rebours va bientôt\ncommencer{{string value=\"...\"}}{{delay frames=\"40\"}}{{pageBreak}}Oh, on pourra faire un truc rigolo :\non se dit à l'année prochaine, on\nferme les yeux{{string value=\"...\"}}{{pageBreak}}Et une fois le décompte fini,\non dit {{anim id=\"Pardon\" target=\"actor\" targetSpec=\"\"}}« Hé, on s'est pas vus depuis\nl'année dernière! » {{delay40}}{{anim id=\"Laughing\" target=\"actor\" targetSpec=\"\"}}TROP DRÔLE!"
  },
  {
    "label": "035",
    "attribute": "0x0000000000000000",
    "text": "{{capitalizeNextLetter}}{{string value=\"NickName\"}}!{{delay frames=\"40\"}}{{anim id=\"BigSmile\" target=\"actor\" targetSpec=\"\"}} Ça y est, c'est l'heure!{{delay frames=\"40\"}} Tu es prêt{{gender2 m=\"\" f=\"e\"}}{{anim id=\"Pardon\" target=\"actor\" targetSpec=\"\"}}?{{delay20}} Tu as ta baguette fluo à portée de main?{{i10_7 arg=\"120\"}}"
  },
  {
    "label": "036",
    "attribute": "0x0000000000000000",
    "text": "{{anim id=\"Nodding\" target=\"actor\" targetSpec=\"\"}}Bon, donc on fait 3, {{delay20}}2, {{delay20}}1, {{delay20}}0, {{delay20}}{{anim id=\"Hello\" target=\"actor\" targetSpec=\"\"}}et on\nagite sa baguette fluo,{{delay8}} c'est ça?{{delay20}}\n{{anim id=\"Confused\" target=\"actor\" targetSpec=\"\"}}J'espère ne pas me tromper{{string value=\"...\"}}{{i10_7 arg=\"120\"}}"
  },
  {
    "label": "038",
    "attribute": "0x0000000000000000",
    "text": "{{anim id=\"Nodding\" target=\"actor\" targetSpec=\"\"}}La nouvelle année approche{{string value=\"...\"}}{{delay frames=\"40\"}} {{anim id=\"ShyBoy\" target=\"actor\" targetSpec=\"\"}}Tu as\ndéjà pris de bonnes résolutions, toi,\n{{string value=\"NickName\"}}?"
  },
  {
    "label": "039",
    "attribute": "0x0000000000000000",
    "text": "La nouvelle année sera bientôt là!{{delay frames=\"40\"}}\nSauf si elle est coincée dans le trafic,\nj'imagine{{string value=\"...\"}}"
  },
  {
    "label": "040",
    "attribute": "0x0000000000000000",
    "text": "{{number value=\"27\"}} va tirer sa révérence, ça y est.{{delay frames=\"40\"}}\n{{anim id=\"QuestionMark\" target=\"actor\" targetSpec=\"\"}}C'est bizarre, j'ai l'impression d'avoir\noublié quelque chose d'important{{string value=\"...\"}}{{pageBreak}}{{anim id=\"Aha\" target=\"actor\" targetSpec=\"\"}}{{delay20}}Oh! Ça me revient!{{delay frames=\"40\"}}{{anim id=\"HappyDance\" target=\"actor\" targetSpec=\"\"}} Je devais faire\n{{wordArticle}}{{randomSweets}} pour bien commencer l'année prochaine!"
  },
  {
    "label": "046",
    "attribute": "0x0000000000000000",
    "text": "{{anim id=\"FaintSmile\" target=\"actor\" targetSpec=\"\"}}Dans quelques minutes, c'est bye\nbye {{number value=\"27\"}}!{{delay frames=\"40\"}}{{anim id=\"Grin\" target=\"actor\" targetSpec=\"\"}} Faut que je me dépêche\nde trouver de bonnes résolutions!"
  },
  {
    "label": "047",
    "attribute": "0x0000000000000000",
    "text": "{{anim id=\"Sleepy\" target=\"actor\" targetSpec=\"\"}}Ouh, il commence à être tard{{string value=\"...\"}}{{delay frames=\"40\"}}\nJ'ai les yeux qui se ferment{{string value=\"...\"}}{{delay frames=\"40\"}}{{anim id=\"Shocked\" target=\"actor\" targetSpec=\"\"}}{{pageBreak}}{{anim id=\"Angry\" target=\"actor\" targetSpec=\"\"}}Oh non!{{delay frames=\"40\"}} Je dois pas m'endormir!\nLa nouvelle année sera bientôt là,\nje dois lui souhaiter la bienvenue!{{delay frames=\"40\"}}"
  },
  {
    "label": "048",
    "attribute": "0x0000000000000000",
    "text": "{{anim id=\"Smiling\" target=\"actor\" targetSpec=\"\"}}Il est déjà {{number value=\"33\"}}?!{{delay frames=\"50\"}} {{anim id=\"AbsentMindedness\" target=\"actor\" targetSpec=\"\"}}Quelle belle\nannée on a passée, quand même!\n{{delay frames=\"70\"}}{{anim id=\"EmotEnd\" target=\"actor\" targetSpec=\"\"}}La prochaine sera meilleure encore!{{delay8}}{{pageBreak}}{{anim id=\"Greeting\" target=\"actor\" targetSpec=\"\"}}Ce ne sera plus très long,\nmaintenant!"
  },
  {
    "label": "054",
    "attribute": "0x0000000000000000",
    "text": "{{anim id=\"Eh\" target=\"actor\" targetSpec=\"\"}}Il reste moins de cinq minutes!{{delay frames=\"40\"}}{{anim id=\"EmotEnd\" target=\"actor\" targetSpec=\"\"}}\nTu ne vas pas sur la place,\n{{anim id=\"QuestionMark\" target=\"actor\" targetSpec=\"\"}}{{string value=\"6\"}}?"
  },
  {
    "label": "055",
    "attribute": "0x0000000000000000",
    "text": "{{anim id=\"Eh\" target=\"actor\" targetSpec=\"\"}}Tu as prévu de changer d'année chez\nmoi, {{string value=\"NickName\"}}?{{pageBreak}}{{anim id=\"HappyFlower\" target=\"actor\" targetSpec=\"\"}}Quelle chance! Nous allons pouvoir\nfaire le compte à rebours ensemble!"
  },
  {
    "label": "056",
    "attribute": "0x0000000000000000",
    "text": "{{anim id=\"Sleepy\" target=\"actor\" targetSpec=\"\"}}{{delay frames=\"40\"}}Si tu t'endors pile à l'heure du\nNouvel An, tu feras le tout premier\nrêve de l'année.{{pageBreak}}Si tu y croises la chenille du\nNouvel An,{{delay8}} elle te dira un secret{{delay20}}\nque nul autre{{delay8}} n'a jamais{{delay8}} entendu."
  },
  {
    "label": "057",
    "attribute": "0x0000000000000000",
    "text": "{{anim id=\"Aha\" target=\"actor\" targetSpec=\"\"}}{{capitalizeNextLetter}}{{string value=\"NickName\"}}!{{delay frames=\"40\"}}\nIl reste moins d'une minute!{{delay frames=\"40\"}}\n{{anim id=\"Love\" target=\"actor\" targetSpec=\"\"}}J'ai le cœur qui bat la chamade!{{i10_7 arg=\"120\"}}"
  },
  {
    "label": "058",
    "attribute": "0x0000000000000000",
    "text": "Ouuuh! Ça y est presque,{{delay20}} ça {{delay20}}y\nest{{delay20}} preeeeesque! On va changer\nd'année!{{i10_7 arg=\"120\"}}"
  },
  {
    "label": "060",
    "attribute": "0x0000000000000000",
    "text": "{{anim id=\"HappyDance\" target=\"actor\" targetSpec=\"\"}}BONNE ANNÉE, tout le monde!"
  },
  {
    "label": "061",
    "attribute": "0x0000000000000000",
    "text": "{{anim id=\"Laughing\" target=\"actor\" targetSpec=\"\"}}Le Nouvel An, c'est encore mieux\nque les jours de fête! C'est la fête\npour tout le monde en même temps!"
  },
  {
    "label": "062",
    "attribute": "0x0000000000000000",
    "text": "Le décompte, c'est toujours\nmagique. {{anim id=\"Blushing\" target=\"actor\" targetSpec=\"\"}}Ça me donne l'impression\nd'être un grand!"
  },
  {
    "label": "063",
    "attribute": "0x0000000000000000",
    "text": "Quels jolis{{anim id=\"Love\" target=\"actor\" targetSpec=\"\"}} feux d'artifice!{{delay frames=\"60\"}}\n{{anim id=\"Clapping\" target=\"actor\" targetSpec=\"\"}}J'en veux encore, j'en veux encore!"
  },
  {
    "label": "065",
    "attribute": "0x0000000000000000",
    "text": "{{anim id=\"Sleepy\" target=\"actor\" targetSpec=\"\"}}Eh ben,{{delay frames=\"40\"}} il est déjà {{number value=\"30\"}} h?{{delay frames=\"40\"}} {{anim id=\"WrySmile\" target=\"actor\" targetSpec=\"\"}}Je ferais\nmieux de rentrer souhaiter une\nbonne année aux insectes{{string value=\"...\"}}"
  },
  {
    "label": "066",
    "attribute": "0x0000000000000000",
    "text": "{{anim id=\"Smiling\" target=\"actor\" targetSpec=\"\"}}Respire un peu cet air!{{delay frames=\"40\"}} Tu sens\nle parfum de la nouveauté?"
  },
  {
    "label": "067",
    "attribute": "0x0000000000000000",
    "text": "{{anim id=\"SmugFace\" target=\"actor\" targetSpec=\"\"}}Eh ben moi, j'ai connu le monde\n{{delay8}}d'AVANT {{number value=\"27\"}}! L'histoire s'est\nécrite avec moi!"
  },
  {
    "label": "068",
    "attribute": "0x0000000000000000",
    "text": "{{anim id=\"Smiling\" target=\"actor\" targetSpec=\"\"}}J'ai mangé tant de bonbons ce soir\nque {{anim id=\"BigSmile\" target=\"actor\" targetSpec=\"\"}}je devrais rester éveillé jusqu'au\npremier lever du soleil de l'année!{{anim id=\"FaintSmile\" target=\"actor\" targetSpec=\"\"}}"
  },
  {
    "label": "070",
    "attribute": "0x0000000000000000",
    "text": "{{capitalizeNextLetter}}{{string value=\"NickName\"}}!{{delay frames=\"40\"}}{{anim id=\"HappyDance\" target=\"actor\" targetSpec=\"\"}} {{number value=\"27\"}} est là!\n{{delay frames=\"40\"}}C'est la fête!"
  },
  {
    "label": "071",
    "attribute": "0x0000000000000000",
    "text": "{{anim id=\"AbsentMindedness\" target=\"actor\" targetSpec=\"\"}}Hier, c'était encore une tout autre\nannée{{string value=\"...\"}}{{i10_4}}{{anim id=\"Shocked\" target=\"actor\" targetSpec=\"\"}} Ça veut dire que j'ai voyagé\ndans le temps?!"
  },
  {
    "label": "072",
    "attribute": "0x0000000000000000",
    "text": "{{anim id=\"Explain\" target=\"actor\" targetSpec=\"\"}}Je ne me couche jamais avant minuit,\ncar je papote toujours tard avec mes\namis insectes.{{pageBreak}}{{anim id=\"Greeting\" target=\"actor\" targetSpec=\"\"}}Mais c'est amusant comme ça aussi!"
  },
  {
    "label": "073",
    "attribute": "0x0000000000000000",
    "text": "{{anim id=\"AbsentMindedness\" target=\"actor\" targetSpec=\"\"}}Je me sens différent depuis le Nouvel\nAn{{string value=\"...\"}}{{delay40}} {{anim id=\"Explain\" target=\"actor\" targetSpec=\"\"}}Il y a une heure, je n'avais pas\nfaim. Maintenant, je suis affamé.{{pageBreak}}{{anim id=\"Nodding\" target=\"actor\" targetSpec=\"\"}}C'est amusant comme on change\navec le temps, non?"
  },
  {
    "label": "075",
    "attribute": "0x0000000000000000",
    "text": "{{anim id=\"Pardon\" target=\"actor\" targetSpec=\"\"}}Je n'arrive pas à me calmer depuis\nle compte à rebours!{{delay20}} Sans compter\ntous les bonbons que j'ai mangés!{{delay40}}\n{{anim id=\"Pardon\" target=\"actor\" targetSpec=\"\"}}J'ai l'impression que je n'arriverai\npas à dormir avant l'année\nprochaine!"
  },
  {
    "label": "076",
    "attribute": "0x0000000000000000",
    "text": "{{anim id=\"QuestionMark\" target=\"actor\" targetSpec=\"\"}}Qu'est-ce que je pourrais bien faire\npour commencer l'année du bon\npied?{{pageBreak}}{{anim id=\"QuestionMark\" target=\"actor\" targetSpec=\"\"}}Grignoter un petit truc que j'aime,\npeut-être?{{delay20}}{{anim id=\"FaintSmile\" target=\"actor\" targetSpec=\"\"}}{{i10_4}}{{anim id=\"Laughing\" target=\"actor\" targetSpec=\"\"}} Quelle excellente idée!{{delay40}}\nVoilà déjà une question de réglée!"
  },
  {
    "label": "077",
    "attribute": "0x0000000000000000",
    "text": "Le Nouvel An, c'est la promesse\n{{anim id=\"Smiling\" target=\"actor\" targetSpec=\"\"}}d'une année entière de bons petits\nplats, {{delay frames=\"40\"}}{{string value=\"6\"}}!{{pageBreak}}{{anim id=\"Grin\" target=\"actor\" targetSpec=\"\"}}Vivement l'heure du prochain repas!"
  },
  {
    "label": "078",
    "attribute": "0x0000000000000000",
    "text": "{{anim id=\"Sleepy\" target=\"actor\" targetSpec=\"\"}}Il est {{number value=\"30\"}} h et t'es toujours pas\ncouché{{gender2 m=\"\" f=\"e\"}}?!{{delay frames=\"60\"}}{{anim id=\"SmugFace\" target=\"actor\" targetSpec=\"\"}}{{delay20}} Si tu crois que je vais\njeter l'éponge avant toi, tu rêves!"
  }
]