﻿[
  {
    "label": "002",
    "attribute": "0x00000000",
    "text": "{{anim id=\"Love\" target=\"actor\" targetSpec=\"\"}}¡Una caza de vacacionez para mami,\npapi, mi abuelita y yo mizma!{{pageBreak}}{{anim id=\"Laughing\" target=\"actor\" targetSpec=\"\"}}¡Ya quiero ver cómo queda,{{delay8}} {{string value=\"PlayerName\"}}!"
  },
  {
    "label": "003",
    "attribute": "0x01000000",
    "text": "{{anim id=\"Restless\" target=\"actor\" targetSpec=\"\"}}Ez una decizión muy importante{{string value=\"...\"}}{{delay20}}\n{{anim id=\"EmotEnd\" target=\"actor\" targetSpec=\"\"}}¿Qué haríaz tú,{{delay8}} {{anim id=\"Hello\" target=\"actor\" targetSpec=\"\"}}{{string value=\"PlayerName\"}}?"
  },
  {
    "label": "003_01",
    "attribute": "0x00000000",
    "text": "{{anim id=\"HappyDance\" target=\"actor\" targetSpec=\"\"}}¡Ezto ez demaziado interezante!{{delay20}}\n¡Ez como jugar a zer dizeñadora en\nuna empreza inmobiliaria o algo!"
  },
  {
    "label": "003_03",
    "attribute": "0x00000000",
    "text": "{{anim id=\"BigSmile\" target=\"actor\" targetSpec=\"\"}}¡Caracolez!{{delay20}} {{anim id=\"Smiling\" target=\"actor\" targetSpec=\"\"}}¡Me encantaría tener\nuna caza de vacacionez allí!"
  },
  {
    "label": "003_04",
    "attribute": "0x00000000",
    "text": "{{anim id=\"HappyDance\" target=\"actor\" targetSpec=\"\"}}¡Zí!{{delay20}} ¡Ya quiero mudarme!"
  },
  {
    "label": "003_a",
    "attribute": "0x00000000",
    "text": "Una casa de un piso"
  },
  {
    "label": "003_b",
    "attribute": "0x00000000",
    "text": "Una casa de dos pisos"
  },
  {
    "label": "004",
    "attribute": "0x00000000",
    "text": "{{anim id=\"Smiling\" target=\"actor\" targetSpec=\"\"}}¡Eztá bien!{{delay20}} ¡Zolo un pizo!"
  },
  {
    "label": "005",
    "attribute": "0x00000000",
    "text": "{{anim id=\"Smiling\" target=\"actor\" targetSpec=\"\"}}¡Eztá bien!{{delay20}} ¡Doz pizoz!"
  }
]