﻿[
  {
    "label": "001",
    "attribute": "0x0000000000000000",
    "text": "{{anim id=\"Aha\" target=\"actor\" targetSpec=\"\"}}Oh, c'est vrai! {{delay8}}La{{color id=\"1\"}} ghirlanda festiva{{color id=\"65535\"}}!\n{{delay20}}{{anim id=\"Smiling\" target=\"actor\" targetSpec=\"\"}}L'ho conservata per benino in modo\nda potertela dare."
  },
  {
    "label": "002",
    "attribute": "0x0000000000000000",
    "text": "{{anim id=\"BigSmile\" target=\"actor\" targetSpec=\"\"}}Ecco qua! {{delay frames=\"40\"}}{{anim id=\"FaintSmile\" target=\"actor\" targetSpec=\"\"}}Appendila dove tutti possano ammirarla, {{string value=\"6\"}}!"
  },
  {
    "label": "003",
    "attribute": "0x0000000000000000",
    "text": "{{anim id=\"BrokenHeart\" target=\"actor\" targetSpec=\"\"}}Oh no{{string value=\"...\"}} Hai ancora le tasche piene!\n{{delay20}}{{anim id=\"EmotEnd\" target=\"actor\" targetSpec=\"\"}}Che destino crudele{{string value=\"...\"}}{{pageBreak}}{{anim id=\"Worried\" target=\"actor\" targetSpec=\"\"}}Va bene, la terrò io fino a quando\nnon avrai fatto spazio. {{delay20}}{{anim id=\"Hello\" target=\"actor\" targetSpec=\"\"}}Ti aspetto,\n{{string value=\"6\"}}."
  }
]