﻿[
  {
    "label": "001",
    "attribute": "0x0000000000000000",
    "text": "{{anim id=\"WrySmile\" target=\"actor\" targetSpec=\"\"}}Spero che oggi tu sia\npiù fortunat{{gender2 m=\"o\" f=\"a\"}} di me!"
  },
  {
    "label": "002",
    "attribute": "0x0000000000000000",
    "text": "Non ti riposare troppo!{{delay8}}\n{{anim id=\"Smiling\" target=\"actor\" targetSpec=\"\"}}Sappi che faccio il tifo per te!"
  },
  {
    "label": "003",
    "attribute": "0x0000000000000000",
    "text": "Non c'è tempo per chiacchierare!{{delay8}}\n{{anim id=\"BigSmile\" target=\"actor\" targetSpec=\"\"}}Ce la puoi fare!"
  },
  {
    "label": "004",
    "attribute": "0x0000000000000000",
    "text": "{{anim id=\"Smiling\" target=\"actor\" targetSpec=\"\"}}Mettiamocela tutta!"
  },
  {
    "label": "005",
    "attribute": "0x0000000000000000",
    "text": "Non c'è tempo da perdere!{{delay20}}\n{{anim id=\"Smiling\" target=\"actor\" targetSpec=\"\"}}Forza e coraggio!"
  },
  {
    "label": "006",
    "attribute": "0x0000000000000000",
    "text": "{{anim id=\"BigSmile\" target=\"actor\" targetSpec=\"\"}}Tieni duro! {{delay8}}Puoi farcela!"
  }
]