﻿[
  {
    "label": "001",
    "text": "Merci, {{string value=\"NickName\"}} !"
  },
  {
    "label": "002",
    "text": "Y a pas moyen, {{string value=\"NickName\"}} !"
  },
  {
    "label": "003",
    "text": "Tu es terrible, {{string value=\"NickName\"}} !"
  },
  {
    "label": "004",
    "text": "Kikou, {{string value=\"NickName\"}},"
  },
  {
    "label": "005",
    "text": "Ça baigne, {{string value=\"NickName\"}} ?"
  },
  {
    "label": "006",
    "text": "{{gender2 m=\"Cher\" f=\"Chère\"}} {{string value=\"NickName\"}},"
  },
  {
    "label": "101",
    "text": "Merci, merci, merci pour la carte\nd'anniversaire ! Et ton cadeau était\ngénial, aussi ! Tiens, en retour,\naccepte ce petit quelque chose\npour te redire et re-redire...\nMerci !"
  },
  {
    "label": "102",
    "text": "Juste comme ça, je vais chercher\nmon courrier, ce matin, et là... je\ntrouve une carte et un cadeau de\nta part ! C'est trop sympa ! Du\ncoup, tiens, j'ai aussi un cadeau\npour toi. Tu me diras si ça te plaît !"
  },
  {
    "label": "103",
    "text": "Ton cadeau d'anniv est arrivé en\nun seul morceau ! C'était ze\nsurprise du jour, méga merci ! Juré,\nj'en prendrai trop soin... même si\nma mère en doute. Oh, et j'ai aussi\nun petit cadeau pour toi."
  },
  {
    "label": "104",
    "text": "J'ai bien reçu ta carte, et tu sais\nquoi ? J'en ai presque pleuré,\ntellement elle m'a fait plaisir !\nAlors merci mille millions de fois,\net j'espère qu'on restera toujours\nles meilleur{{gender2 m=\"\" f=\"e\"}}s ami{{gender2 m=\"\" f=\"e\"}}s du monde !"
  },
  {
    "label": "105",
    "text": "Ta carte d'anniv m'a enchantée !\nJe me suis sentie comme dans un\nconte de fées, baignée par ta\nmagie bonheurifiante ! En fait,\nc'est trop ça... {{capitalizeNextLetter}}{{string value=\"NickName\"}}\ntu es un{{gender2 m=\"\" f=\"e\"}} magicien{{gender2 m=\"\" f=\"ne\"}} du bonheur !"
  },
  {
    "label": "106",
    "text": "Je viens de recevoir ta carte, et...\nOuah ! Recevoir une lettre m'a\nrarement mise dans un état pareil !\nTu m'as donné une pêche d'enfer\net je déborde d'énergie. C'est\nsimple, je t'écris ça en courant !"
  },
  {
    "label": "201",
    "text": "De rien, {{string value=\"VillagerName\"}}"
  },
  {
    "label": "202",
    "text": "{{string value=\"VillagerName\"}} qui hallucine"
  },
  {
    "label": "203",
    "text": "{{string value=\"VillagerName\"}}, un peu plus vieille"
  },
  {
    "label": "204",
    "text": "{{string value=\"VillagerName\"}} qui a pas pleuré"
  },
  {
    "label": "205",
    "text": "{{string value=\"VillagerName\"}} pleine de bonheur"
  },
  {
    "label": "206",
    "text": "En toute énergie, {{string value=\"VillagerName\"}}"
  }
]