﻿[
  {
    "label": "101",
    "attribute": "0x0000020000000000",
    "text": "{{anim id=\"Thinking\" target=\"actor\" targetSpec=\"\"}}把那个食材加进去的话，会怎么样呢{{string value=\"...\"}}{{delay frames=\"50\"}}\n{{i20_2 arg=\"6\"}}{{anim id=\"ShyBoy\" target=\"actor\" targetSpec=\"\"}}抱歉，{{delay20}}我刚刚是把心里话说出来了吗？"
  },
  {
    "label": "101_a",
    "attribute": "0x0000000000000000",
    "text": "{{anim id=\"EmotEnd\" target=\"actor\" targetSpec=\"\"}}你在做什么？"
  },
  {
    "label": "101_b",
    "attribute": "0x0000000000000000",
    "text": "{{anim id=\"EmotEnd\" target=\"actor\" targetSpec=\"\"}}你看起来很忙呢"
  },
  {
    "label": "102",
    "attribute": "0x0000020000000000",
    "text": "{{anim id=\"Nodding\" target=\"actor\" targetSpec=\"\"}}通过加入佐料来调整料理的口味，{{delay20}}\n由此来增加味道的层次感，这样或许不错{{string value=\"...\"}}{{delay frames=\"50\"}}\n{{i20_2 arg=\"6\"}}{{anim id=\"FaintSmile\" target=\"actor\" targetSpec=\"\"}}啊！{{delay20}}有什么事吗？"
  },
  {
    "label": "102_a",
    "attribute": "0x0000000000000000",
    "text": "{{anim id=\"EmotEnd\" target=\"actor\" targetSpec=\"\"}}你在做什么？"
  },
  {
    "label": "102_b",
    "attribute": "0x0000000000000000",
    "text": "{{anim id=\"EmotEnd\" target=\"actor\" targetSpec=\"\"}}你看起来很忙呢"
  },
  {
    "label": "103",
    "attribute": "0x0000020000000000",
    "text": "{{anim id=\"Negative\" target=\"actor\" targetSpec=\"\"}}果然少不了那样食材啊{{string value=\"...\"}}{{delay frames=\"50\"}}\n{{i20_2 arg=\"6\"}}{{anim id=\"QuestionMark\" target=\"actor\" targetSpec=\"\"}}嗯？{{delay frames=\"40\"}}怎么了？"
  },
  {
    "label": "103_a",
    "attribute": "0x0000000000000000",
    "text": "{{anim id=\"EmotEnd\" target=\"actor\" targetSpec=\"\"}}你在做什么？"
  },
  {
    "label": "103_b",
    "attribute": "0x0000000000000000",
    "text": "{{anim id=\"EmotEnd\" target=\"actor\" targetSpec=\"\"}}你看起来很忙呢"
  },
  {
    "label": "104",
    "attribute": "0x0000000000000000",
    "text": "{{anim id=\"Explain\" target=\"actor\" targetSpec=\"\"}}我现在{{delay20}}正在考虑把小时候老妈做给我吃的\n{{fun_0000007D arg=\"0x0000\"}}{{delay20}}\n{{anim id=\"FaintSmile\" target=\"actor\" targetSpec=\"\"}}改成店里的料理。"
  },
  {
    "label": "105",
    "attribute": "0x0000020000000000",
    "text": "你来得正好，{{delay20}}\n{{anim id=\"Pardon\" target=\"actor\" targetSpec=\"\"}}要我教给你{{delay20}}{{string value=\"VillagerName\"}}家祖传的\n料理手册吗？{{string value=\"6\"}}。"
  },
  {
    "label": "105_a",
    "attribute": "0x0000000000000000",
    "text": "请教给我！"
  },
  {
    "label": "105_b",
    "attribute": "0x0000000000000000",
    "text": "不用了"
  },
  {
    "label": "106",
    "attribute": "0x0000000000000000",
    "text": "{{anim id=\"Blushing\" target=\"actor\" targetSpec=\"\"}}嘿嘿嘿，{{delay20}}好的～{{delay frames=\"40\"}}\n{{anim id=\"FaintSmile\" target=\"actor\" targetSpec=\"\"}}那你拿好{{delay20}}这份手册吧。{{delay frames=\"40\"}}\n只要有了它，就永远不会做失败。"
  },
  {
    "label": "107",
    "attribute": "0x0000000000000000",
    "text": "{{anim id=\"Explain\" target=\"actor\" targetSpec=\"\"}}只要按照上面写的来做，{{delay20}}\n就能完美地还原这道料理。{{delay frames=\"40\"}}\n{{anim id=\"BigSmile\" target=\"actor\" targetSpec=\"\"}}想做的话就试试吧！{{string value=\"6\"}}。{{delay8}}{{anim id=\"FaintSmile\" target=\"actor\" targetSpec=\"\"}}"
  },
  {
    "label": "108",
    "attribute": "0x0000000000000000",
    "text": "{{anim id=\"SmugFace\" target=\"actor\" targetSpec=\"\"}}算是吧～！{{delay frames=\"80\"}}{{anim id=\"Nodding\" target=\"actor\" targetSpec=\"\"}}我知道这话听起来有些自卖自夸，{{delay20}}\n{{anim id=\"Grin\" target=\"actor\" targetSpec=\"\"}}不过我的料理可是这个度假区的{{delay8}}\n一大卖点啊！{{string value=\"6\"}}。"
  },
  {
    "label": "109",
    "attribute": "0x0000000000000000",
    "text": "{{anim id=\"Eh\" target=\"actor\" targetSpec=\"\"}}干嘛不要啊？{{delay20}}你不用这么客气的{{string value=\"...\"}}{{delay frames=\"40\"}}\n{{anim id=\"EmotEnd\" target=\"actor\" targetSpec=\"\"}}既然如此，{{delay20}}那我就继续工作了。{{delay frames=\"40\"}}\n{{anim id=\"Nodding\" target=\"actor\" targetSpec=\"\"}}要做的事还多着呢。{{string value=\"6\"}}。"
  },
  {
    "label": "110",
    "attribute": "0x0000020000000000",
    "text": "{{string value=\"...\"}}{{anim id=\"TakenAback\" target=\"actor\" targetSpec=\"\"}}什么？！{{delay frames=\"60\"}}\n{{anim id=\"EmotEnd\" target=\"actor\" targetSpec=\"\"}}{{fun_0000007D arg=\"0x0000\"}}的做法，{{delay20}}\n{{anim id=\"QuestionMark\" target=\"actor\" targetSpec=\"\"}}你也知道？{{string value=\"6\"}}。"
  },
  {
    "label": "110_a",
    "attribute": "0x0000000000000000",
    "text": "{{anim id=\"Nodding\" target=\"player\" targetSpec=\"\"}}知道哦！"
  },
  {
    "label": "110_b",
    "attribute": "0x0000000000000000",
    "text": "{{anim id=\"Nodding\" target=\"player\" targetSpec=\"\"}}算是吧！"
  },
  {
    "label": "111",
    "attribute": "0x0000000000000000",
    "text": "啊，{{delay20}}这样吗{{string value=\"...\"}}{{delay frames=\"40\"}}\n{{anim id=\"Negative\" target=\"actor\" targetSpec=\"\"}}看来只是我不知道啊，{{delay20}}\n{{anim id=\"ShyBoy\" target=\"actor\" targetSpec=\"\"}}没想到它还挺有名的。"
  },
  {
    "label": "112",
    "attribute": "0x0000000000000000",
    "text": "算了，{{delay8}}不管了。{{delay frames=\"50\"}}\n{{anim id=\"FaintSmile\" target=\"actor\" targetSpec=\"\"}}难得你来一趟，{{delay20}}这手册你就先收着。{{delay frames=\"40\"}}\n{{anim id=\"Greeting\" target=\"actor\" targetSpec=\"\"}}以后遇到谁想要就给谁好了。"
  },
  {
    "label": "113",
    "attribute": "0x0000000000000000",
    "text": "{{string value=\"...\"}}不过，{{delay20}}\n{{anim id=\"OhGeez\" target=\"actor\" targetSpec=\"\"}}你的随身物品太多，拿不下了啊。{{delay frames=\"50\"}}\n{{anim id=\"EmotEnd\" target=\"actor\" targetSpec=\"\"}}先去整理一下再过来吧。{{string value=\"6\"}}。"
  },
  {
    "label": "114",
    "attribute": "0x0000000000000000",
    "text": "{{anim id=\"Nodding\" target=\"actor\" targetSpec=\"\"}}这样一来，{{delay20}}就又能让更多人品尝到\n老妈独创的味道了{{string value=\"...\"}}{{delay frames=\"50\"}}\n{{anim id=\"Laughing\" target=\"actor\" targetSpec=\"\"}}怪不得它是道名料理呢！{{string value=\"6\"}}。"
  },
  {
    "label": "115",
    "attribute": "0x0000000000000000",
    "text": "{{anim id=\"FaintSmile\" target=\"actor\" targetSpec=\"\"}}哟，{{delay20}}你是来取\n刚刚没能交给你的{{delay20}}\n{{fun_0000007D arg=\"0x0000\"}}的手册吗？{{pageBreak}}{{anim id=\"EmotEnd\" target=\"actor\" targetSpec=\"\"}}就是这个，{{delay20}}你拿好。{{delay frames=\"40\"}}\n{{anim id=\"Explain\" target=\"actor\" targetSpec=\"\"}}千万别搞丢了啊，{{delay20}}\n{{anim id=\"FaintSmile\" target=\"actor\" targetSpec=\"\"}}要好好把它带回去。"
  }
]