﻿[
  {
    "label": "001",
    "attribute": "0x00000B0000000000",
    "text": "{{anim id=\"IdeaBulb\" target=\"actor\" targetSpec=\"\"}}對了！{{string value=\"4\"}}！{{delay frames=\"40\"}}\n{{anim id=\"EmotEnd\" target=\"actor\" targetSpec=\"\"}}這可能有點突然{{string value=\"...\"}}{{delay20}}\n{{anim id=\"QuestionMark\" target=\"actor\" targetSpec=\"\"}}但你要不要猜猜看裡面裝了什麼呀？{{pageBreak}}{{anim id=\"Nodding\" target=\"actor\" targetSpec=\"\"}}如果你能猜中的話，{{delay20}}\n我就給你一個好東西喔！{{string value=\"6\"}}。"
  },
  {
    "label": "002",
    "attribute": "0x0000000000000000",
    "text": "{{anim id=\"Serious\" target=\"actor\" targetSpec=\"\"}}{{fun_00000082 arg=\"0x00CD\"}}就是你的{{delay20}}\nFinal answer了嗎？{{i10_4}}\n{{anim id=\"Nodding\" target=\"actor\" targetSpec=\"\"}}那麼就打開來看看吧{{string value=\"...\"}}"
  },
  {
    "label": "003",
    "attribute": "0x0000000000000000",
    "text": "{{anim id=\"BigSmile\" target=\"actor\" targetSpec=\"\"}}裡面是……{{fun_00000082 arg=\"0x01CD\"}}！{{delay20}}\nExcellent！完全正確！{{pageBreak}}{{anim id=\"Serious\" target=\"actor\" targetSpec=\"\"}}那麼，我也遵守約定{{string value=\"...\"}}{{delay20}}\n{{anim id=\"Grin\" target=\"actor\" targetSpec=\"\"}}給你這個東西吧！"
  },
  {
    "label": "004",
    "attribute": "0x0000000000000000",
    "text": "{{anim id=\"BigSmile\" target=\"actor\" targetSpec=\"\"}}裡面是{{fun_00000082 arg=\"0x01CD\"}}！{{delay frames=\"40\"}}\n{{anim id=\"Oops\" target=\"actor\" targetSpec=\"\"}}真可惜{{string value=\"...\"}}答錯了。"
  },
  {
    "label": "005",
    "attribute": "0x0000000000000000",
    "text": "{{anim id=\"FaintSmile\" target=\"actor\" targetSpec=\"\"}}這是剛剛才送回我手上的{{delay20}}\n{{fun_0000007D arg=\"0x0000\"}}，{{delay frames=\"40\"}}\n請你不要客氣，收下它吧。"
  },
  {
    "label": "006",
    "attribute": "0x0000000000000000",
    "text": "{{anim id=\"FaintSmile\" target=\"actor\" targetSpec=\"\"}}這是我之前忘在別人家裡的{{delay20}}\n{{fun_0000007D arg=\"0x0000\"}}，{{delay frames=\"40\"}}\n請你收下它吧。"
  },
  {
    "label": "007",
    "attribute": "0x0000000000000000",
    "text": "{{anim id=\"FaintSmile\" target=\"actor\" targetSpec=\"\"}}這是我在網路上購買的{{delay20}}\n{{fun_0000007D arg=\"0x0000\"}}，{{delay frames=\"40\"}}\n來，收下它吧。"
  },
  {
    "label": "008",
    "attribute": "0x0000000000000000",
    "text": "{{anim id=\"Shocked\" target=\"actor\" targetSpec=\"\"}}啊，另外還想請你{{delay20}}\n{{anim id=\"Greeting\" target=\"actor\" targetSpec=\"\"}}順便幫我帶個問候{{delay20}}\n給{{selection value=\"SelectedVillager\"}}{{string value=\"13\"}}，可以嗎？{{string value=\"6\"}}。"
  },
  {
    "label": "009",
    "attribute": "0x0000000000000000",
    "text": "{{anim id=\"Hesitate\" target=\"actor\" targetSpec=\"\"}}不過還是非常感謝你{{delay20}}\n特地為我跑了這一趟，{{delay20}}\n{{string value=\"4\"}}。{{pageBreak}}{{anim id=\"Greeting\" target=\"actor\" targetSpec=\"\"}}再請你順便幫我{{delay20}}\n向{{selection value=\"SelectedVillager\"}}{{string value=\"13\"}}問個好啊，{{string value=\"6\"}}。"
  },
  {
    "label": "101",
    "attribute": "0x0000000000000000",
    "text": "{{anim id=\"Blushing\" target=\"actor\" targetSpec=\"\"}}謝謝你特地把東西送到我家來，{{delay20}}\n{{string value=\"4\"}}。{{pageBreak}}{{anim id=\"Thinking\" target=\"actor\" targetSpec=\"\"}}都這樣特地跑一趟了，{{delay20}}\n我想應該給你一點謝禮才行～{{delay frames=\"40\"}}\n{{anim id=\"Nodding\" target=\"actor\" targetSpec=\"\"}}好，{{delay20}}就請你收下這個吧！"
  },
  {
    "label": "102",
    "attribute": "0x0000000000000000",
    "text": "{{anim id=\"Smiling\" target=\"actor\" targetSpec=\"\"}}謝謝你把東西送過來！{{delay8}}\n{{string value=\"4\"}}！{{pageBreak}}{{anim id=\"Hesitate\" target=\"actor\" targetSpec=\"\"}}多虧有你協助，{{delay20}}我覺得可以\n跟{{selection value=\"SelectedVillager\"}}{{string value=\"13\"}}和好了{{string value=\"...\"}}{{delay20}}\n{{anim id=\"Hello\" target=\"actor\" targetSpec=\"\"}}請收下這個謝禮吧！"
  },
  {
    "label": "103",
    "attribute": "0x0000000000000000",
    "text": "{{anim id=\"BigSmile\" target=\"actor\" targetSpec=\"\"}}是{{fun_0004007D arg=\"0x0000\"}}！{{delay frames=\"40\"}}\n{{anim id=\"Nodding\" target=\"actor\" targetSpec=\"\"}}希望你把它當成我的分身，{{delay20}}\n好好珍惜，{{string value=\"6\"}}。"
  },
  {
    "label": "104",
    "attribute": "0x0000000000000000",
    "text": "{{anim id=\"BigSmile\" target=\"actor\" targetSpec=\"\"}}是{{fun_0004007D arg=\"0x0000\"}}！{{delay frames=\"40\"}}\n{{anim id=\"Grin\" target=\"actor\" targetSpec=\"\"}}這一定能成為你房間的焦點！{{string value=\"6\"}}。"
  },
  {
    "label": "105",
    "attribute": "0x0000000000000000",
    "text": "{{anim id=\"BigSmile\" target=\"actor\" targetSpec=\"\"}}是{{fun_0004007D arg=\"0x0000\"}}！{{delay frames=\"40\"}}\n{{anim id=\"Grin\" target=\"actor\" targetSpec=\"\"}}把它融入你平時的穿搭吧！{{string value=\"6\"}}。"
  },
  {
    "label": "106",
    "attribute": "0x0000000000000000",
    "text": "{{anim id=\"BigSmile\" target=\"actor\" targetSpec=\"\"}}是{{fun_0004007D arg=\"0x0000\"}}！{{delay frames=\"40\"}}\n{{anim id=\"Grin\" target=\"actor\" targetSpec=\"\"}}請在優雅的午茶時光享用吧！{{string value=\"6\"}}。"
  },
  {
    "label": "107",
    "attribute": "0x0000000000000000",
    "text": "{{anim id=\"Smiling\" target=\"actor\" targetSpec=\"\"}}總之，{{delay20}}非常謝謝你把東西送過來！{{delay20}}\n{{string value=\"4\"}}！"
  },
  {
    "label": "108",
    "attribute": "0x0000000000000000",
    "text": "{{anim id=\"Hesitate\" target=\"actor\" targetSpec=\"\"}}先不說這個了，{{delay20}}\n抱歉把你捲入{{delay20}}我們之間的紛爭啊，{{delay8}}\n{{string value=\"4\"}}。"
  },
  {
    "label": "109",
    "attribute": "0x0000000000000000",
    "text": "{{anim id=\"FaintSmile\" target=\"actor\" targetSpec=\"\"}}我就把剛剛還穿在身上的{{delay20}}\n{{fun_0004007D arg=\"0x0000\"}}\n送給你吧！{{string value=\"6\"}}。"
  },
  {
    "label": "110",
    "attribute": "0x0000000000000000",
    "text": "{{anim id=\"ShyBoy\" target=\"actor\" targetSpec=\"\"}}雖然不知道{{delay20}}這樣算不算是謝禮……{{i10_4}}\n{{anim id=\"Serious\" target=\"actor\" targetSpec=\"\"}}但還是請你{{string value=\"...\"}}{{delay20}}\n{{anim id=\"Grin\" target=\"actor\" targetSpec=\"\"}}感受我的體溫吧！{{string value=\"6\"}}。"
  },
  {
    "label": "111",
    "attribute": "0x0000000000000000",
    "text": "{{anim id=\"ShyBoy\" target=\"actor\" targetSpec=\"\"}}雖然不是什麼了不起的東西，{{delay20}}\n不過還是請你收下這個\n{{fun_0004007D arg=\"0x0000\"}}吧。"
  },
  {
    "label": "112",
    "attribute": "0x0000000000000000",
    "text": "{{anim id=\"Restless\" target=\"actor\" targetSpec=\"\"}}這是我非常推薦的風格，{{delay frames=\"40\"}}\n希望你也能喜歡{{string value=\"...\"}}{{string value=\"6\"}}。"
  },
  {
    "label": "201",
    "attribute": "0x0000000000000000",
    "text": "{{anim id=\"Nodding\" target=\"actor\" targetSpec=\"\"}}啊，這個東西{{string value=\"...\"}}{{delay20}}\n我記得之前好像是借給了{{delay20}}\n{{selection value=\"SelectedVillager\"}}{{string value=\"13\"}}吧，{{string value=\"6\"}}。"
  },
  {
    "label": "202",
    "attribute": "0x0000000000000000",
    "text": "{{anim id=\"Aha\" target=\"actor\" targetSpec=\"\"}}{{fun_0000007D arg=\"0x0000\"}}！{{i10_4}}\n{{anim id=\"ShyBoy\" target=\"actor\" targetSpec=\"\"}}原來如此，{{delay20}}我把它忘在{{delay8}}\n{{selection value=\"SelectedVillager\"}}{{string value=\"13\"}}家裡了！{{string value=\"6\"}}。"
  },
  {
    "label": "203",
    "attribute": "0x0000020000000000",
    "text": "{{anim id=\"QuestionMark\" target=\"actor\" targetSpec=\"\"}}這包裹送到{{selection value=\"SelectedVillager\"}}{{string value=\"13\"}}家去了？{{i10_4}}\n{{anim id=\"WrySmile\" target=\"actor\" targetSpec=\"\"}}不過{{string value=\"...\"}}為什麼包裹的內容物\n已經探出頭來打招呼了呢？{{string value=\"6\"}}。"
  },
  {
    "label": "203_a",
    "attribute": "0x0000000000000000",
    "text": "{{anim id=\"EmotEnd\" target=\"player\" targetSpec=\"\"}}是我……"
  },
  {
    "label": "203_b",
    "attribute": "0x0000000000000000",
    "text": "{{anim id=\"EmotEnd\" target=\"player\" targetSpec=\"\"}}為什麼呢～？"
  },
  {
    "label": "204",
    "attribute": "0x0000000000000000",
    "text": "{{anim id=\"Serious\" target=\"actor\" targetSpec=\"\"}}{{fun_0000007D arg=\"0x0000\"}}{{string value=\"...\"}}{{delay frames=\"40\"}}\n{{anim id=\"WrySmile\" target=\"actor\" targetSpec=\"\"}}呵呵呵，{{delay20}}{{selection value=\"SelectedVillager\"}}{{string value=\"13\"}}居然{{delay20}}\n也有這樣的一面啊，{{string value=\"6\"}}。"
  },
  {
    "label": "205",
    "attribute": "0x0000000000000000",
    "text": "{{anim id=\"ShyBoy\" target=\"actor\" targetSpec=\"\"}}{{selection value=\"SelectedVillager\"}}{{string value=\"13\"}}居然\n送來了賠罪的禮物{{string value=\"...\"}}{{delay20}}\n難道{{gender3 m=\"他\" f=\"她\"}}還把那時候的事情放在心上嗎？{{pageBreak}}{{anim id=\"Grin\" target=\"actor\" targetSpec=\"\"}}眼淚不適合{{gender3 m=\"他\" f=\"她\"}}{{string value=\"...\"}}{{delay20}}\n{{anim id=\"Nodding\" target=\"actor\" targetSpec=\"\"}}我也去向{{gender3 m=\"他\" f=\"她\"}}道歉，重修舊好吧，{{string value=\"6\"}}。"
  },
  {
    "label": "206",
    "attribute": "0x0000000000000000",
    "text": "{{anim id=\"ShyBoy\" target=\"actor\" targetSpec=\"\"}}連我自己都已經{{delay20}}\n忘得一乾二淨了啊{{string value=\"...\"}}{{pageBreak}}{{anim id=\"Smiling\" target=\"actor\" targetSpec=\"\"}}謝謝你幫忙送過來！{{delay frames=\"40\"}}\n也請你幫我跟{{selection value=\"SelectedVillager\"}}{{string value=\"13\"}}{{delay20}}\n打個招呼吧，{{string value=\"6\"}}。"
  },
  {
    "label": "207",
    "attribute": "0x0000000000000000",
    "text": "{{anim id=\"WrySmile\" target=\"actor\" targetSpec=\"\"}}我還以為它踏上了旅途，{{delay20}}\n沒有要回來的意思啊{{string value=\"...\"}}{{pageBreak}}{{anim id=\"Nodding\" target=\"actor\" targetSpec=\"\"}}總之呢，{{delay20}}謝謝你把我的\n{{fun_0000007D arg=\"0x0000\"}}{{delay8}}\n帶回到我身邊！{{string value=\"6\"}}。"
  },
  {
    "label": "208",
    "attribute": "0x0000000000000000",
    "text": "{{anim id=\"Serious\" target=\"actor\" targetSpec=\"\"}}說不定是{{selection value=\"SelectedVillager\"}}{{string value=\"13\"}}{{delay20}}\n不小心打開的吧？{{pageBreak}}{{anim id=\"WrySmile\" target=\"actor\" targetSpec=\"\"}}呵呵呵，{{delay20}}居然偷窺了{{delay8}}\n我的潘朵拉之盒嗎{{string value=\"...\"}}{{i10_4}}\n{{anim id=\"Grin\" target=\"actor\" targetSpec=\"\"}}雖然沒什麼關係啦，{{string value=\"6\"}}。{{pageBreak}}{{anim id=\"Nodding\" target=\"actor\" targetSpec=\"\"}}總之，感謝你幫忙把東西送來，{{delay frames=\"40\"}}\n{{anim id=\"Apologize\" target=\"actor\" targetSpec=\"\"}}{{string value=\"4\"}}，{{delay20}}謝謝你。"
  },
  {
    "label": "209",
    "attribute": "0x0000000000000000",
    "text": "{{anim id=\"Shocked\" target=\"actor\" targetSpec=\"\"}}啊，我非常感謝你喔！{{delay frames=\"40\"}}\n{{anim id=\"Nodding\" target=\"actor\" targetSpec=\"\"}}{{string value=\"4\"}}，{{delay20}}\n謝謝你特地把東西送過來。"
  },
  {
    "label": "210",
    "attribute": "0x0000000000000000",
    "text": "{{anim id=\"Nodding\" target=\"actor\" targetSpec=\"\"}}也承蒙你照顧了，\n{{string value=\"4\"}}。{{delay20}}\n謝謝你把東西送過來，{{string value=\"6\"}}。"
  },
  {
    "label": "220",
    "attribute": "0x0000020000000000",
    "text": "{{anim id=\"OhGeez\" target=\"actor\" targetSpec=\"\"}}不過，居然就這樣子{{delay20}}直接送過來，{{delay20}}\n未免也太失禮了吧{{string value=\"...\"}}{{pageBreak}}{{anim id=\"Explain\" target=\"actor\" targetSpec=\"\"}}我覺得包裝可以表達出{{delay20}}你在乎對方的\n{{anim id=\"Explain\" target=\"actor\" targetSpec=\"\"}}程度，所以也很重要喔，{{string value=\"6\"}}。{{pageBreak}}{{anim id=\"Shocked\" target=\"actor\" targetSpec=\"\"}}啊，抱歉！{{delay frames=\"40\"}}\n{{anim id=\"WrySmile\" target=\"actor\" targetSpec=\"\"}}我沒有要責怪\n{{string value=\"4\"}}的意思{{string value=\"...\"}}"
  },
  {
    "label": "220_a",
    "attribute": "0x0000000000000000",
    "text": "{{anim id=\"EmotEnd\" target=\"player\" targetSpec=\"\"}}其實{{string value=\"...\"}}"
  },
  {
    "label": "220_b",
    "attribute": "0x0000000000000000",
    "text": "{{anim id=\"EmotEnd\" target=\"player\" targetSpec=\"\"}}……"
  },
  {
    "label": "221",
    "attribute": "0x0000000000000000",
    "text": "{{anim id=\"Silent\" target=\"actor\" targetSpec=\"\"}}原來如此，{{delay20}}是這樣啊{{string value=\"...\"}}{{delay frames=\"40\"}}\n{{anim id=\"WrySmile\" target=\"actor\" targetSpec=\"\"}}我差點就誤會了{{delay20}}\n{{selection value=\"SelectedVillager\"}}{{string value=\"13\"}}啊。"
  },
  {
    "label": "222",
    "attribute": "0x0000000000000000",
    "text": "{{anim id=\"Nodding\" target=\"actor\" targetSpec=\"\"}}謝謝你這麼誠實地坦白，{{delay20}}\n{{delay8}}{{string value=\"4\"}}。{{i10_4}}\n{{anim id=\"Grin\" target=\"actor\" targetSpec=\"\"}}我已經原諒你了，{{string value=\"6\"}}。"
  },
  {
    "label": "223",
    "attribute": "0x0000000000000000",
    "text": "{{anim id=\"Serious\" target=\"actor\" targetSpec=\"\"}}雖然{{fun_0000007D arg=\"0x0000\"}}{{delay20}}\n是以這種狀態回到我手上，{{delay20}}\n但它至少是回來了{{string value=\"...\"}}{{pageBreak}}{{anim id=\"Nodding\" target=\"actor\" targetSpec=\"\"}}最重要的，是你有好好負起責任，\n成功把它帶到我的手上。{{delay frames=\"40\"}}\n{{anim id=\"Hello\" target=\"actor\" targetSpec=\"\"}}這一點薄禮，就請你收下吧。"
  },
  {
    "label": "224",
    "attribute": "0x0000000000000000",
    "text": "{{anim id=\"FaintSmile\" target=\"actor\" targetSpec=\"\"}}是{{fun_0004007D arg=\"0x0000\"}}！{{delay frames=\"40\"}}\n{{anim id=\"Nodding\" target=\"actor\" targetSpec=\"\"}}包裝裡頭不只有物品，{{delay20}}\n也包含了送禮人的心意，{{delay20}}可別忘囉！"
  },
  {
    "label": "225",
    "attribute": "0x0000000000000000",
    "text": "{{anim id=\"Serious\" target=\"actor\" targetSpec=\"\"}}為對方著想的心意{{string value=\"...\"}}{{delay20}}\n{{anim id=\"Nodding\" target=\"actor\" targetSpec=\"\"}}不用大費周章，{{delay20}}\n我認為在小細節就能表現出來囉，{{string value=\"6\"}}。{{pageBreak}}{{anim id=\"FaintSmile\" target=\"actor\" targetSpec=\"\"}}不只讓你幫忙跑腿，{{delay20}}\n還聽我說了這麼多話，多謝囉！{{delay8}}\n{{string value=\"4\"}}！"
  },
  {
    "label": "226",
    "attribute": "0x0000000000000000",
    "text": "{{anim id=\"Blushing\" target=\"actor\" targetSpec=\"\"}}一想到在我不知道的地方，{{delay20}}\n我的東西被許多人看過，{{delay20}}\n就覺得有點不好意思呢{{string value=\"...\"}}{{pageBreak}}{{anim id=\"FaintSmile\" target=\"actor\" targetSpec=\"\"}}也謝謝你，{{delay20}}\n還特地跑一趟送來給我，{{string value=\"6\"}}。"
  },
  {
    "label": "227",
    "attribute": "0x0000000000000000",
    "text": "{{anim id=\"ShyBoy\" target=\"actor\" targetSpec=\"\"}}站在接受別人好意的立場，{{delay20}}\n還這樣一直埋怨，實在不太好呢。{{i10_4}}\n{{anim id=\"Serious\" target=\"actor\" targetSpec=\"\"}}這些話，請你就別說出去了{{string value=\"...\"}}{{pageBreak}}{{anim id=\"Nodding\" target=\"actor\" targetSpec=\"\"}}還麻煩你這樣特地跑一趟，{{delay20}}\n我總覺得有點歉疚啊，{{string value=\"6\"}}。"
  },
  {
    "label": "228",
    "attribute": "0x0000000000000000",
    "text": "{{anim id=\"Nodding\" target=\"actor\" targetSpec=\"\"}}不過，我明白對方是打算{{delay20}}\n要跟我和好的了。{{delay frames=\"40\"}}\n{{anim id=\"FaintSmile\" target=\"actor\" targetSpec=\"\"}}我也得冷靜下來，好好面對呢。{{pageBreak}}{{anim id=\"Hesitate\" target=\"actor\" targetSpec=\"\"}}多虧有你幫忙，{{delay20}}\n我覺得應該能跟{{delay20}}\n{{selection value=\"SelectedVillager\"}}{{string value=\"13\"}}和好了{{string value=\"...\"}}{{string value=\"6\"}}。"
  },
  {
    "label": "230",
    "attribute": "0x0000000000000000",
    "text": "{{anim id=\"TakenAback\" target=\"actor\" targetSpec=\"\"}}咦，{{delay8}}是這樣嗎？"
  },
  {
    "label": "231",
    "attribute": "0x0000000000000000",
    "text": "{{string value=\"...\"}}不管你是出於什麼原因打開的，{{delay frames=\"40\"}}\n{{anim id=\"FaintSmile\" target=\"actor\" targetSpec=\"\"}}我還是感謝你願意坦承自己的行為，{{delay20}}\n{{string value=\"4\"}}。"
  },
  {
    "label": "232",
    "attribute": "0x0000000000000000",
    "text": "{{anim id=\"Worried\" target=\"actor\" targetSpec=\"\"}}因為再怎麼追究也沒用，{{delay20}}\n所以這次就先算了{{string value=\"...\"}}{{delay20}}\n{{anim id=\"Silent\" target=\"actor\" targetSpec=\"\"}}以後你要多注意喔！{{string value=\"6\"}}。"
  },
  {
    "label": "233",
    "attribute": "0x0000000000000000",
    "text": "{{anim id=\"Serious\" target=\"actor\" targetSpec=\"\"}}雖然東西變成這樣了，{{delay20}}但它能夠回到\n我身邊還是要歸功於你，{{delay frames=\"40\"}}\n{{anim id=\"Grin\" target=\"actor\" targetSpec=\"\"}}這是不爭的事實。{{pageBreak}}{{anim id=\"Nodding\" target=\"actor\" targetSpec=\"\"}}所以，{{delay20}}請你收下\n我的一點薄禮吧……"
  },
  {
    "label": "234",
    "attribute": "0x0000000000000000",
    "text": "{{anim id=\"FaintSmile\" target=\"actor\" targetSpec=\"\"}}是{{fun_0004007D arg=\"0x0000\"}}！{{delay frames=\"40\"}}\n{{anim id=\"Greeting\" target=\"actor\" targetSpec=\"\"}}也幫我跟{{selection value=\"SelectedVillager\"}}{{string value=\"13\"}}{{delay20}}\n打聲招呼吧，{{string value=\"6\"}}。"
  },
  {
    "label": "235",
    "attribute": "0x0000000000000000",
    "text": "{{anim id=\"Angry\" target=\"actor\" targetSpec=\"\"}}就算我們吃同一鍋米長大，{{delay8}}\n有些分寸{{delay20}}還是應該要注意一下喔{{string value=\"...\"}}{{pageBreak}}{{anim id=\"Nodding\" target=\"actor\" targetSpec=\"\"}}也就是說，{{delay20}}\n至少應該保持最低限度的禮節！"
  },
  {
    "label": "236",
    "attribute": "0x0000000000000000",
    "text": "{{anim id=\"Blushing\" target=\"actor\" targetSpec=\"\"}}居然這麼在意男士的包包內容，{{delay20}}\n你意外地很大膽呢{{string value=\"...\"}}{{pageBreak}}{{anim id=\"Explain\" target=\"actor\" targetSpec=\"\"}}即使我們有著異性之間的友誼，{{delay20}}\n{{anim id=\"Explain\" target=\"actor\" targetSpec=\"\"}}你對我來說，{{delay20}}也依然是一位淑女啊。{{pageBreak}}{{anim id=\"Blushing\" target=\"actor\" targetSpec=\"\"}}所以，包包的內容被你看光光，{{delay20}}\n我還是會有點害羞的{{string value=\"...\"}}"
  },
  {
    "label": "237",
    "attribute": "0x0000000000000000",
    "text": "{{anim id=\"Restless\" target=\"actor\" targetSpec=\"\"}}不過，你願意這樣坦承，{{delay20}}\n其實也讓我{{delay20}}有點開心呢。{{pageBreak}}{{anim id=\"Serious\" target=\"actor\" targetSpec=\"\"}}請至少讓我說出這句話……{{delay frames=\"40\"}}\n{{anim id=\"BigSmile\" target=\"actor\" targetSpec=\"\"}}謝謝你特地幫我把東西送過來，{{string value=\"6\"}}。"
  },
  {
    "label": "238",
    "attribute": "0x0000000000000000",
    "text": "{{anim id=\"Hesitate\" target=\"actor\" targetSpec=\"\"}}事到如今，實在是有點難以啟齒……{{delay20}}\n這東西，其實是我打算送給{{delay20}}\n{{string value=\"4\"}}的禮物{{string value=\"...\"}}{{pageBreak}}{{anim id=\"WrySmile\" target=\"actor\" targetSpec=\"\"}}結果不只送錯人，{{delay20}}內容也被看光了。{{delay20}}\n這下根本不算是個驚喜啦。{{pageBreak}}{{anim id=\"Nodding\" target=\"actor\" targetSpec=\"\"}}唉，事情就是這樣，{{delay20}}\n{{string value=\"4\"}}，{{delay8}}\n你就直接收下吧。"
  },
  {
    "label": "239",
    "attribute": "0x0000000000000000",
    "text": "{{anim id=\"Serious\" target=\"actor\" targetSpec=\"\"}}我的腦袋裡頭，{{delay20}}\n可是充滿了最棒的計劃，{{delay frames=\"40\"}}\n{{anim id=\"Grin\" target=\"actor\" targetSpec=\"\"}}能夠為他人帶來歡笑喔！{{string value=\"6\"}}。"
  }
]