﻿[
  {
    "label": "001",
    "text": "To my worthy rival, {{string value=\"NickName\"}}!"
  },
  {
    "label": "002",
    "text": "Exerciser {{string value=\"NickName\"}},"
  },
  {
    "label": "003",
    "text": "To my fitness friend {{string value=\"NickName\"}},"
  },
  {
    "label": "004",
    "text": "To mega-delts {{string value=\"NickName\"}},"
  },
  {
    "label": "005",
    "text": "Always-motivated {{string value=\"NickName\"}},"
  },
  {
    "label": "006",
    "text": "Yo! {{capitalizeNextLetter}}{{string value=\"NickName\"}}!"
  },
  {
    "label": "007",
    "text": "Hope you're good, {{string value=\"NickName\"}}!"
  },
  {
    "label": "008",
    "text": "Dear {{string value=\"NickName\"}},"
  },
  {
    "label": "009",
    "text": "My bud {{string value=\"NickName\"}},"
  },
  {
    "label": "010",
    "text": "Keep fightin', {{string value=\"NickName\"}},"
  },
  {
    "label": "011",
    "text": "Yo, {{string value=\"NickName\"}}!"
  },
  {
    "label": "012",
    "text": "To stone-abs {{string value=\"NickName\"}},"
  },
  {
    "label": "013",
    "text": "Fully stoked {{string value=\"NickName\"}},"
  },
  {
    "label": "014",
    "text": "Hey, {{string value=\"NickName\"}},"
  },
  {
    "label": "018",
    "text": "Hey hey, {{string value=\"NickName\"}}!"
  },
  {
    "label": "019",
    "text": "Adventurous {{string value=\"NickName\"}},"
  },
  {
    "label": "020",
    "text": "Primal bud {{string value=\"NickName\"}},"
  },
  {
    "label": "021",
    "text": "My workout pal {{string value=\"NickName\"}},"
  },
  {
    "label": "101",
    "text": "I tried on the clothing you gave me.\nIt fits my body and shows off the\ncontours of my muscles, so of\ncourse I love it! I figured you\ndeserve something in return, so\ntake this gift."
  },
  {
    "label": "102",
    "text": "I tried on the clothing you sent me\nthe other day, and it fits perfectly.\nYou're the best! So I thought I'd\nreturn the favor, with great big\nbiceps of gratitude."
  },
  {
    "label": "103",
    "text": "I'm using the clothing you sent me\nas training gear! More and more of\nmy sweat soaks into it every day,\nso it should be worn-in soon. I'll\nhave to let you check it out one of\nthese days!"
  },
  {
    "label": "104",
    "text": "Believe it or not, I'm not the best\nat something...interior decorating.\nWhere would be the coolest place\nto put the furniture you gave me?\nI could use some advice. But for\nnow, here's a gift for you!"
  },
  {
    "label": "105",
    "text": "Thanks for the gift you gave me!\nI'm not sure if you meant for this to\nhappen, but it's coming in handy\nduring my workouts. Almost\nanything can be used for strength\ntraining if you lift it enough!"
  },
  {
    "label": "106",
    "text": "I got your present! So cool! Please\naccept this thank-you gift in\nreturn. It's a special present with\nmy heart and soul poured into it.\nAnd some sweat too, I guess."
  },
  {
    "label": "107",
    "text": "Thanks for the present! I was a bit\nsurprised because I already own\nthe exact same thing. But maybe I\ncan turn the pair into dumbbells.\nAnyway, this just proves that we're\non the same wavelength."
  },
  {
    "label": "108",
    "text": "Thanks for your gift the other day!\nGetting a gift from a fan like that\nputs me in the ranks of elite\nathletes. Which I guess it puts you\nin the ranks of elite superfans."
  },
  {
    "label": "109",
    "text": "So I was headed out to plant your\ngift when I kinda...dropped it\nbehind my couch. Wow! I really,\nREALLY need to clean back there\nmore often. COINCIDENTALLY, this\nwas behind my couch. Enjoy!"
  },
  {
    "label": "110",
    "text": "Oh this is for that training trick,\nright? If you practice jumping over\na sapling every day, your jumping\nability will improve, yeah? If that's\ntrue, I'll be a super jumper soon!"
  },
  {
    "label": "111",
    "text": "You sent money with your letter!\nIs that pocket money for me? Are\nyou worried about my money\nsituation? My money muscles do\nneed more conditioning though.\nTime to pump up my wallet!"
  },
  {
    "label": "112",
    "text": "Thank you for the cool music\npresent! I've been doing {{number value=\"Count\" index=\"0\"}} reps\nof exercises for my abs and back\nmuscles every day to the beat.\nI can't wait to see how I look in\na month!"
  },
  {
    "label": "113",
    "text": "I'm using the gift you gave me\nevery day. A practical present like\nthat really comes in handy,\nespecially since I normally try to\ndo everything with my bare hands."
  },
  {
    "label": "114",
    "text": "I've been using that art you sent\nto try to bulk up my mind through\nmeditation, but I don't think it's\nworking. All I've been able to do\nwith my mind so far is bend a\nspoon! Guess I'll keep trying."
  },
  {
    "label": "118",
    "text": "I got your fossil! Are you sure it's\nOK for me to have it? It's like the\ndiscovery of the century! Let me\njust say that your kind deed has\nbeen forever engraved in this\ntough guy's heart muscle."
  },
  {
    "label": "119",
    "text": "A fossil that hasn't been appraised\nis full of mystery, isn't it? I bet if I\nwork out while thinking about what\nit is, I'd get so strong that even\nthe fiercest dinosaur wouldn't want\na piece of me! Yeah!"
  },
  {
    "label": "120",
    "text": "Thanks for the present! I was\nso shocked to get something I\nalready had. In return, I'm sending\nyou something that I hope will\nshock you in return!"
  },
  {
    "label": "121",
    "text": "Thanks for the present! I love\nsurprises, but I didn't realize that\na surprise could make me so\nhappy! My grin muscles are getting\na serious workout! You deserve\nsomething in return. Enjoy!"
  },
  {
    "label": "201",
    "text": "Rippedly yours, {{string value=\"VillagerName\"}}"
  },
  {
    "label": "202",
    "text": "From tough-guy {{string value=\"VillagerName\"}}"
  },
  {
    "label": "203",
    "text": "–{{string value=\"VillagerName\"}}"
  },
  {
    "label": "204",
    "text": "In it to win it, {{string value=\"VillagerName\"}}"
  },
  {
    "label": "205",
    "text": "Your six-pack pal, {{string value=\"VillagerName\"}}"
  },
  {
    "label": "206",
    "text": "Later! From {{string value=\"VillagerName\"}}"
  },
  {
    "label": "207",
    "text": "Always pumped, {{string value=\"VillagerName\"}}"
  },
  {
    "label": "208",
    "text": "From your friend, {{string value=\"VillagerName\"}}"
  },
  {
    "label": "209",
    "text": "Fired up and yours, {{string value=\"VillagerName\"}}"
  },
  {
    "label": "210",
    "text": "Go, team! –{{capitalizeNextLetter}}{{string value=\"VillagerName\"}}"
  },
  {
    "label": "211",
    "text": "Buds, {{string value=\"VillagerName\"}}"
  },
  {
    "label": "212",
    "text": "Yours in soreness, {{string value=\"VillagerName\"}}"
  },
  {
    "label": "213",
    "text": "Good to go, {{string value=\"VillagerName\"}}"
  },
  {
    "label": "214",
    "text": "–Mindbender {{string value=\"VillagerName\"}}"
  },
  {
    "label": "218",
    "text": "From sweaty {{string value=\"VillagerName\"}}"
  },
  {
    "label": "219",
    "text": "Abs on fire, {{string value=\"VillagerName\"}}"
  },
  {
    "label": "220",
    "text": "Intensely yours, {{string value=\"VillagerName\"}}"
  },
  {
    "label": "221",
    "text": "Buff buds, {{string value=\"VillagerName\"}}"
  }
]