﻿[
  {
    "label": "001",
    "text": "Huhu, {{string value=\"NickName\"}}!"
  },
  {
    "label": "002",
    "text": "Geburtstag, {{string value=\"NickName\"}}?"
  },
  {
    "label": "003",
    "text": "Wie geht's dir, {{string value=\"NickName\"}}?"
  },
  {
    "label": "004",
    "text": "Huhu, {{string value=\"NickName\"}}!"
  },
  {
    "label": "005",
    "text": "Hallihallo, {{string value=\"NickName\"}}!"
  },
  {
    "label": "006",
    "text": "Rate mal, {{string value=\"NickName\"}}!"
  },
  {
    "label": "101",
    "text": "Die ganzen Karten von dir waren\neine tolle Überraschung! So viele\nhab ich noch nie gekriegt!\n\nHier ist auch was für dich!"
  },
  {
    "label": "102",
    "text": "Mein Briefkasten war voller Karten\nund Geschenke! Hab ich meinen\nGeburtstag vergessen? Oder den\nvon meinem Briefkasten? Ich\nmuss ihm auch was schicken, falls\ner heute Geburtstag hat!"
  },
  {
    "label": "103",
    "text": "Ich hab versucht, alle deine Karten\nzu lesen, und bin dabei eingeschla-\nfen. Und als ich dann aufgewacht\nbin, haben ein paar Karten an\nmeinem Gesicht geklebt. Das war\ntoll! Hier ist ein Geschenk für dich!"
  },
  {
    "label": "104",
    "text": "Danke für die vielen Karten! Ich\nhab versucht, ein Kartenhaus mit\nihnen zu bauen! Das ist nicht sehr\nhoch geworden. Hat aber trotzdem\nSpaß gemacht!"
  },
  {
    "label": "105",
    "text": "Danke für die ganz vielen Karten!\nIch hab sie die ganze Zeit gelesen\nund vergessen zu schlafen! Aber\nkeine Sorge, ans Essen hab ich\ngedacht. Ich hab eine ganze Chips-\ntüte aufgegessen! Ganz allein!"
  },
  {
    "label": "106",
    "text": "Ich hab mir Sorgen gemacht, weil\nich dachte, ich muss deine Karten\nin einer bestimmten Reihenfolge\nlesen. Also hab ich eine Nacht\ndrüber geschlafen und was geges-\nsen, und jetzt ist mir alles klar."
  },
  {
    "label": "201",
    "text": "Ich mag Karten! {{string value=\"VillagerName\"}}"
  },
  {
    "label": "202",
    "text": "Geburtstag ist toll! {{string value=\"VillagerName\"}}"
  },
  {
    "label": "203",
    "text": "Das war lustig! {{string value=\"VillagerName\"}}"
  },
  {
    "label": "204",
    "text": "Baumeister {{string value=\"VillagerName\"}}"
  },
  {
    "label": "205",
    "text": "Tüten sind eklig. {{string value=\"VillagerName\"}}"
  },
  {
    "label": "206",
    "text": "Danke fürs Rätsel! {{string value=\"VillagerName\"}}"
  }
]