﻿[
  {
    "label": "001",
    "attribute": "0x0000000000000000",
    "text": "{{fun_0014003C arg=\"\"}}"
  },
  {
    "label": "001_01",
    "attribute": "0x0000000000000000",
    "text": "{{color id=\"5\"}}{{string value=\"...\"}}呵{{delay20}}{{string value=\"...\"}}呼{{delay20}}{{string value=\"...\"}}呼噜{{delay frames=\"40\"}}\n{{string value=\"...\"}}呵{{string value=\"...\"}}呼{{string value=\"...\"}}{{color id=\"65535\"}}{{anim id=\"EmotEnd\" target=\"actor\" targetSpec=\"\"}}"
  },
  {
    "label": "001_02",
    "attribute": "0x0000000000000000",
    "text": "{{color id=\"5\"}}呼{{string value=\"...\"}}{{delay20}}呼{{string value=\"...\"}}{{color id=\"65535\"}}{{delay20}}\n{{color id=\"4\"}}我是第{{number value=\"30\"}}名{{string value=\"...\"}}{{color id=\"65535\"}}\n{{color id=\"5\"}}ZZZ{{string value=\"...\"}}{{anim id=\"EmotEnd\" target=\"actor\" targetSpec=\"\"}}{{color id=\"65535\"}}"
  },
  {
    "label": "001_03",
    "attribute": "0x0000000000000000",
    "text": "唔{{string value=\"...\"}}唔嗯{{string value=\"...\"}}{{string value=\"...\"}}{{delay frames=\"40\"}}{{color id=\"5\"}}\nZZZ{{string value=\"...\"}}{{color id=\"65535\"}}{{anim id=\"EmotEnd\" target=\"actor\" targetSpec=\"\"}}"
  },
  {
    "label": "101",
    "attribute": "0x0000000000000000",
    "text": "{{fun_0014003C arg=\"\"}}"
  },
  {
    "label": "101_01",
    "attribute": "0x0000000000000000",
    "text": "{{color id=\"5\"}}{{string value=\"...\"}}呵{{delay20}}{{string value=\"...\"}}呼{{delay20}}{{string value=\"...\"}}呼噜{{delay frames=\"40\"}}\n{{string value=\"...\"}}呵{{string value=\"...\"}}呼{{string value=\"...\"}}{{color id=\"65535\"}}"
  },
  {
    "label": "101_02",
    "attribute": "0x0000000000000000",
    "text": "{{color id=\"5\"}}呼{{string value=\"...\"}}{{delay20}}呼{{string value=\"...\"}}{{color id=\"65535\"}}{{delay20}}\n{{color id=\"4\"}}你的心情{{string value=\"...\"}}我非常明白{{string value=\"...\"}}{{color id=\"65535\"}}"
  },
  {
    "label": "101_03",
    "attribute": "0x0000000000000000",
    "text": "{{color id=\"4\"}}唔{{string value=\"...\"}}唔嗯{{string value=\"...\"}}{{color id=\"65535\"}}{{color id=\"5\"}}\nZZZ{{string value=\"...\"}}{{color id=\"65535\"}}"
  },
  {
    "label": "102",
    "attribute": "0x0000000000000000",
    "text": "{{fun_0014003C arg=\"\"}}"
  },
  {
    "label": "102_01",
    "attribute": "0x0000000000000000",
    "text": "{{anim id=\"Shocked\" target=\"actor\" targetSpec=\"\"}}啊！{{delay frames=\"40\"}}{{anim id=\"73\" target=\"actor\" targetSpec=\"\"}}{{i20_2 arg=\"6\"}}什、{{delay20}}什么{{string value=\"...\"}}？{{delay frames=\"40\"}}\n{{string value=\"...\"}}{{anim id=\"Eh\" target=\"actor\" targetSpec=\"\"}}哎呀，{{delay20}}我睡着了？！{{delay frames=\"40\"}}\n{{anim id=\"FaintSmile\" target=\"actor\" targetSpec=\"\"}}谢谢你叫醒我。{{string value=\"6\"}}。{{anim id=\"EmotEnd\" target=\"actor\" targetSpec=\"\"}}"
  },
  {
    "label": "102_02",
    "attribute": "0x0000000000000000",
    "text": "{{i20_2 arg=\"6\"}}{{anim id=\"Eh\" target=\"actor\" targetSpec=\"\"}}哎呀，{{delay20}}抱歉，{{delay frames=\"40\"}}\n{{anim id=\"Blushing\" target=\"actor\" targetSpec=\"\"}}我刚才有点困。{{string value=\"6\"}}。{{anim id=\"EmotEnd\" target=\"actor\" targetSpec=\"\"}}"
  },
  {
    "label": "102_03",
    "attribute": "0x0000000000000000",
    "text": "{{i20_2 arg=\"6\"}}{{anim id=\"Aha\" target=\"actor\" targetSpec=\"\"}}哎、{{delay20}}哎呀！{{delay frames=\"40\"}}\n{{anim id=\"Hello\" target=\"actor\" targetSpec=\"\"}}是你叫醒我的？{{string value=\"6\"}}。{{delay frames=\"40\"}}\n{{anim id=\"Worried\" target=\"actor\" targetSpec=\"\"}}{{color id=\"4\"}}不知道有没有看见{{delay20}}我的睡脸{{string value=\"...\"}}{{color id=\"65535\"}}{{anim id=\"EmotEnd\" target=\"actor\" targetSpec=\"\"}}"
  }
]