﻿[
  {
    "label": "001",
    "text": "Creativ{{gender2 m=\"o\" f=\"a\"}} {{string value=\"NickName\"}}:"
  },
  {
    "label": "002",
    "text": "Estimad{{gender2 m=\"o\" f=\"a\"}} {{string value=\"NickName\"}}:"
  },
  {
    "label": "003",
    "text": "Prolífic{{gender2 m=\"o\" f=\"a\"}} {{string value=\"NickName\"}}:"
  },
  {
    "label": "004",
    "text": "Apreciad{{gender2 m=\"o\" f=\"a\"}} {{string value=\"NickName\"}}:"
  },
  {
    "label": "005",
    "text": "Productiv{{gender2 m=\"o\" f=\"a\"}} {{string value=\"NickName\"}}:"
  },
  {
    "label": "006",
    "text": "Querid{{gender2 m=\"o\" f=\"a\"}} {{string value=\"NickName\"}}:"
  },
  {
    "label": "101",
    "text": "El mensaje que me enviaste era\ntoda una avalancha de emociones.\nMe imagino que terminarías\nárid{{gender2 m=\"o\" f=\"a\"}} después de semejante\nesfuerzo. Te mando algo de vuelta\npara compensar el detalle."
  },
  {
    "label": "102",
    "text": "Me contabas tantas cosas en tu\ntarjeta que podrían servir como\nguion para varias temporadas de\nuna serie. Te respondo con estas\nlíneas y, para no quedarme corto,\nte mando también un regalito."
  },
  {
    "label": "103",
    "text": "Valoro mucho que me hayas\nenviado toda una enciclopedia\nde tarjeta... Yo que soy todo un\nescritor, sé de todo el esfuerzo\nque hay detrás. Te mando un\ndetalle por tu esfuerzo."
  },
  {
    "label": "104",
    "text": "Tu tarjeta tenía más contenido\nque el de mi barrita energética\nde granos ancestrales y frutos\ndel bosque libre de gluten.\nTe mando un regalo como premio."
  },
  {
    "label": "105",
    "text": "Al leer tu tarjeta me quedé sin\npalabras. Sobre todo porque tú\nlas usaste prácticamente todas...\n¡Eres {{gender2 m=\"un\" f=\"una\"}} sapiente del lenguaje!\nY bastante prolífic{{gender2 m=\"o\" f=\"a\"}}, tengo que\ndecir..."
  },
  {
    "label": "106",
    "text": "Tu mensaje cargado de emociones\nme dejó impresionado. Qué calidad\ny, sobre todo... ¡cuánta cantidad!\nMe animé a responderte para\nno quedarme atrás. Espero darte\ntambién una alegría."
  },
  {
    "label": "201",
    "text": "Con aprecio, {{string value=\"VillagerName\"}}"
  },
  {
    "label": "202",
    "text": "Con inspiración, {{string value=\"VillagerName\"}}"
  },
  {
    "label": "203",
    "text": "El insuperable, {{string value=\"VillagerName\"}}"
  },
  {
    "label": "204",
    "text": "¡Sigue así! {{string value=\"VillagerName\"}}"
  },
  {
    "label": "205",
    "text": "Jocosamente, {{string value=\"VillagerName\"}}"
  },
  {
    "label": "206",
    "text": "Atónito, {{string value=\"VillagerName\"}}"
  }
]