﻿[
  {
    "label": "001",
    "text": "Compañer{{gender2 m=\"o\" f=\"a\"}} {{string value=\"NickName\"}}:"
  },
  {
    "label": "002",
    "text": "Fantastique {{string value=\"NickName\"}}:"
  },
  {
    "label": "003",
    "text": "¡Es{{gender2 m=\"e\" f=\"a\"}} {{string value=\"NickName\"}}!"
  },
  {
    "label": "004",
    "text": "Eminente {{string value=\"NickName\"}}:"
  },
  {
    "label": "101",
    "text": "Pero qué ampliación de hogar tan\nespectacular hiciste, así que...\n¡\"bien fuatto\"! Lo que quiere decir\n\"bien hecho\" en finlandés (creo).\nComo sea, te mando un regalo\nexclusivísimo, igual que yo."
  },
  {
    "label": "102",
    "text": "Veo que tu humilde morada ya no\nes tan humilde. ¡Pero de eso se\ntrata, de ser cada día una mejor\nversión de sí mismo! Con este\npresente que te mando, lo serás\naún más, ¡pues tiene mi estilo!"
  },
  {
    "label": "103",
    "text": "¡Felicitaciones por ampliar tu\nhogar! Te mando un regalo muy\nexclusivo... De hecho es tan\nexclusivo que dudo que lo tengan\nen cualquier tienda. No te puedo\ndecir dónde lo conseguí, lo siento."
  },
  {
    "label": "104",
    "text": "Me quito la boina de diseñador\nante tu casa. ¡Qué majestuosidad!\nTe mando un obsequio que estoy\nseguro de que combinará a la\nperfección. Si quieres presumirlo,\nadelante."
  },
  {
    "label": "201",
    "text": "Honestamente, {{string value=\"VillagerName\"}}"
  },
  {
    "label": "202",
    "text": "Te desea lo mejor, {{string value=\"VillagerName\"}}"
  },
  {
    "label": "203",
    "text": "Envidiosamente, {{string value=\"VillagerName\"}}"
  },
  {
    "label": "204",
    "text": "Afectuosamente, {{string value=\"VillagerName\"}}"
  }
]