﻿[
  {
    "label": "001",
    "text": "Mi querid{{gender2 m=\"o\" f=\"a\"}} {{string value=\"NickName\"}}:"
  },
  {
    "label": "002",
    "text": "{{capitalizeNextLetter}}{{string value=\"NickName\"}}, \"my friend\":"
  },
  {
    "label": "003",
    "text": "Honorable {{string value=\"NickName\"}}:"
  },
  {
    "label": "101",
    "text": "Aquí tienes el regalo que quise\nentregarte anteriormente. Espero\nque lo recibas antes de que esté\npasado de moda. O, mejor dicho,\nantes de que se haya puesto de\nmoda. ¡Espero que te guste!"
  },
  {
    "label": "102",
    "text": "Había elegido esto para ti y no te\nlo pude entregar en su momento,\nasí que aquí lo tienes. Enviar cosas\npor correo ordinario es lo último\nen tendencias \"vintage\", ya sabes.\n¡Ábrelo \"veloce\"!"
  },
  {
    "label": "103",
    "text": "¿Te acuerdas del regalo de\nagradecimiento que te debía?\nPues aquí te lo mando en exclusiva\nhasta tu hogar. Sí, ya sé, cuando\nquiero hacer las cosas bien, no hay\nquien me gane."
  },
  {
    "label": "201",
    "text": "Adelantadamente, {{string value=\"VillagerName\"}}"
  },
  {
    "label": "202",
    "text": "Impacientemente, {{string value=\"VillagerName\"}}"
  },
  {
    "label": "203",
    "text": "Insuperablemente, {{string value=\"VillagerName\"}}"
  }
]