﻿{
  "version": 4,
  "rootNode": {
    "ItemPresetB21": {
      "mItemList[]": [
        {
          "mHalfUnitZ.s32": 28,
          "mItemLayerID.u8": 0,
          "mHalfUnitX.s32": 76,
          "mItemSaveParam": {
            "mItemNameParam.u64": 60009
          }
        },
        {
          "mHalfUnitZ.s32": 28,
          "mItemLayerID.u8": 0,
          "mHalfUnitX.s32": 120,
          "mItemSaveParam": {
            "mItemNameParam.u64": 60209
          }
        },
        {
          "mHalfUnitZ.s32": 30,
          "mItemLayerID.u8": 0,
          "mHalfUnitX.s32": 56,
          "mItemSaveParam": {
            "mItemNameParam.u64": 60009
          }
        },
        {
          "mHalfUnitZ.s32": 30,
          "mItemLayerID.u8": 0,
          "mHalfUnitX.s32": 66,
          "mItemSaveParam": {
            "mItemNameParam.u64": 60009
          }
        },
        {
          "mHalfUnitZ.s32": 30,
          "mItemLayerID.u8": 0,
          "mHalfUnitX.s32": 70,
          "mItemSaveParam": {
            "mItemNameParam.u64": 68719536756
          }
        },
        {
          "mHalfUnitZ.s32": 30,
          "mItemLayerID.u8": 0,
          "mHalfUnitX.s32": 82,
          "mItemSaveParam": {
            "mItemNameParam.u64": 60009
          }
        },
        {
          "mHalfUnitZ.s32": 30,
          "mItemLayerID.u8": 0,
          "mHalfUnitX.s32": 86,
          "mItemSaveParam": {
            "mItemNameParam.u64": 60209
          }
        },
        {
          "mHalfUnitZ.s32": 30,
          "mItemLayerID.u8": 0,
          "mHalfUnitX.s32": 96,
          "mItemSaveParam": {
            "mItemNameParam.u64": 60009
          }
        },
        {
          "mHalfUnitZ.s32": 30,
          "mItemLayerID.u8": 0,
          "mHalfUnitX.s32": 114,
          "mItemSaveParam": {
            "mItemNameParam.u64": 60009
          }
        },
        {
          "mHalfUnitZ.s32": 30,
          "mItemLayerID.u8": 0,
          "mHalfUnitX.s32": 134,
          "mItemSaveParam": {
            "mItemNameParam.u64": 12884961905
          }
        },
        {
          "mHalfUnitZ.s32": 32,
          "mItemLayerID.u8": 0,
          "mHalfUnitX.s32": 36,
          "mItemSaveParam": {
            "mItemNameParam.u64": 60000
          }
        },
        {
          "mHalfUnitZ.s32": 32,
          "mItemLayerID.u8": 0,
          "mHalfUnitX.s32": 48,
          "mItemSaveParam": {
            "mItemNameParam.u64": 60009
          }
        },
        {
          "mHalfUnitZ.s32": 32,
          "mItemLayerID.u8": 0,
          "mHalfUnitX.s32": 74,
          "mItemSaveParam": {
            "mItemNameParam.u64": 60208
          }
        },
        {
          "mHalfUnitZ.s32": 32,
          "mItemLayerID.u8": 0,
          "mHalfUnitX.s32": 76,
          "mItemSaveParam": {
            "mItemNameParam.u64": 12884961905
          }
        },
        {
          "mHalfUnitZ.s32": 32,
          "mItemLayerID.u8": 0,
          "mHalfUnitX.s32": 78,
          "mItemSaveParam": {
            "mItemNameParam.u64": 120259144331
          }
        },
        {
          "mHalfUnitZ.s32": 32,
          "mItemLayerID.u8": 0,
          "mHalfUnitX.s32": 90,
          "mItemSaveParam": {
            "mItemNameParam.u64": 60009
          }
        },
        {
          "mHalfUnitZ.s32": 32,
          "mItemLayerID.u8": 0,
          "mHalfUnitX.s32": 106,
          "mItemSaveParam": {
            "mItemNameParam.u64": 60009
          }
        },
        {
          "mHalfUnitZ.s32": 32,
          "mItemLayerID.u8": 0,
          "mHalfUnitX.s32": 124,
          "mItemSaveParam": {
            "mItemNameParam.u64": 60009
          }
        },
        {
          "mHalfUnitZ.s32": 32,
          "mItemLayerID.u8": 0,
          "mHalfUnitX.s32": 132,
          "mItemSaveParam": {
            "mItemNameParam.u64": 120259144331
          }
        },
        {
          "mHalfUnitZ.s32": 32,
          "mItemLayerID.u8": 0,
          "mHalfUnitX.s32": 138,
          "mItemSaveParam": {
            "mItemNameParam.u64": 60009
          }
        },
        {
          "mHalfUnitZ.s32": 32,
          "mItemLayerID.u8": 0,
          "mHalfUnitX.s32": 142,
          "mItemSaveParam": {
            "mItemNameParam.u64": 60209
          }
        },
        {
          "mHalfUnitZ.s32": 32,
          "mItemLayerID.u8": 0,
          "mHalfUnitX.s32": 156,
          "mItemSaveParam": {
            "mItemNameParam.u64": 60009
          }
        },
        {
          "mHalfUnitZ.s32": 32,
          "mItemLayerID.u8": 0,
          "mHalfUnitX.s32": 178,
          "mItemSaveParam": {
            "mItemNameParam.u64": 60009
          }
        },
        {
          "mHalfUnitZ.s32": 34,
          "mItemLayerID.u8": 0,
          "mHalfUnitX.s32": 44,
          "mItemSaveParam": {
            "mItemNameParam.u64": 12884961905
          }
        },
        {
          "mHalfUnitZ.s32": 34,
          "mItemLayerID.u8": 0,
          "mHalfUnitX.s32": 56,
          "mItemSaveParam": {
            "mItemNameParam.u64": 60208
          }
        },
        {
          "mHalfUnitZ.s32": 34,
          "mItemLayerID.u8": 0,
          "mHalfUnitX.s32": 84,
          "mItemSaveParam": {
            "mItemNameParam.u64": 68719536756
          }
        },
        {
          "mHalfUnitZ.s32": 34,
          "mItemLayerID.u8": 0,
          "mHalfUnitX.s32": 96,
          "mItemSaveParam": {
            "mItemNameParam.u64": 60200
          }
        },
        {
          "mHalfUnitZ.s32": 34,
          "mItemLayerID.u8": 0,
          "mHalfUnitX.s32": 142,
          "mItemSaveParam": {
            "mItemNameParam.u64": 68719536756
          }
        },
        {
          "mHalfUnitZ.s32": 34,
          "mItemLayerID.u8": 0,
          "mHalfUnitX.s32": 146,
          "mItemSaveParam": {
            "mItemNameParam.u64": 60009
          }
        },
        {
          "mHalfUnitZ.s32": 34,
          "mItemLayerID.u8": 0,
          "mHalfUnitX.s32": 162,
          "mItemSaveParam": {
            "mItemNameParam.u64": 60009
          }
        },
        {
          "mHalfUnitZ.s32": 34,
          "mItemLayerID.u8": 0,
          "mHalfUnitX.s32": 166,
          "mItemSaveParam": {
            "mItemNameParam.u64": 60208
          }
        },
        {
          "mHalfUnitZ.s32": 34,
          "mItemLayerID.u8": 0,
          "mHalfUnitX.s32": 170,
          "mItemSaveParam": {
            "mItemNameParam.u64": 60009
          }
        },
        {
          "mHalfUnitZ.s32": 34,
          "mItemLayerID.u8": 0,
          "mHalfUnitX.s32": 184,
          "mItemSaveParam": {
            "mItemNameParam.u64": 60009
          }
        },
        {
          "mHalfUnitZ.s32": 36,
          "mItemLayerID.u8": 0,
          "mHalfUnitX.s32": 30,
          "mItemSaveParam": {
            "mItemNameParam.u64": 60001
          }
        },
        {
          "mHalfUnitZ.s32": 36,
          "mItemLayerID.u8": 0,
          "mHalfUnitX.s32": 38,
          "mItemSaveParam": {
            "mItemNameParam.u64": 60200
          }
        },
        {
          "mHalfUnitZ.s32": 36,
          "mItemLayerID.u8": 0,
          "mHalfUnitX.s32": 62,
          "mItemSaveParam": {
            "mItemNameParam.u64": 60009
          }
        },
        {
          "mHalfUnitZ.s32": 36,
          "mItemLayerID.u8": 0,
          "mHalfUnitX.s32": 100,
          "mItemSaveParam": {
            "mItemNameParam.u64": 60009
          }
        },
        {
          "mHalfUnitZ.s32": 36,
          "mItemLayerID.u8": 0,
          "mHalfUnitX.s32": 114,
          "mItemSaveParam": {
            "mItemNameParam.u64": 60209
          }
        },
        {
          "mHalfUnitZ.s32": 36,
          "mItemLayerID.u8": 0,
          "mHalfUnitX.s32": 118,
          "mItemSaveParam": {
            "mItemNameParam.u64": 60009
          }
        },
        {
          "mHalfUnitZ.s32": 36,
          "mItemLayerID.u8": 0,
          "mHalfUnitX.s32": 124,
          "mItemSaveParam": {
            "mItemNameParam.u64": 60208
          }
        },
        {
          "mHalfUnitZ.s32": 36,
          "mItemLayerID.u8": 0,
          "mHalfUnitX.s32": 152,
          "mItemSaveParam": {
            "mItemNameParam.u64": 12884961905
          }
        },
        {
          "mHalfUnitZ.s32": 36,
          "mItemLayerID.u8": 0,
          "mHalfUnitX.s32": 154,
          "mItemSaveParam": {
            "mItemNameParam.u64": 60200
          }
        },
        {
          "mHalfUnitZ.s32": 36,
          "mItemLayerID.u8": 0,
          "mHalfUnitX.s32": 158,
          "mItemSaveParam": {
            "mItemNameParam.u64": 120259144331
          }
        },
        {
          "mHalfUnitZ.s32": 38,
          "mItemLayerID.u8": 0,
          "mHalfUnitX.s32": 44,
          "mItemSaveParam": {
            "mItemNameParam.u64": 120259144331
          }
        },
        {
          "mHalfUnitZ.s32": 38,
          "mItemLayerID.u8": 0,
          "mHalfUnitX.s32": 46,
          "mItemSaveParam": {
            "mItemNameParam.u64": 60200
          }
        },
        {
          "mHalfUnitZ.s32": 38,
          "mItemLayerID.u8": 0,
          "mHalfUnitX.s32": 52,
          "mItemSaveParam": {
            "mItemNameParam.u64": 60009
          }
        },
        {
          "mHalfUnitZ.s32": 38,
          "mItemLayerID.u8": 0,
          "mHalfUnitX.s32": 94,
          "mItemSaveParam": {
            "mItemNameParam.u64": 60178
          }
        },
        {
          "mHalfUnitZ.s32": 38,
          "mItemLayerID.u8": 0,
          "mHalfUnitX.s32": 106,
          "mItemSaveParam": {
            "mItemNameParam.u64": 60208
          }
        },
        {
          "mHalfUnitZ.s32": 38,
          "mItemLayerID.u8": 0,
          "mHalfUnitX.s32": 110,
          "mItemSaveParam": {
            "mItemNameParam.u64": 60009
          }
        },
        {
          "mHalfUnitZ.s32": 38,
          "mItemLayerID.u8": 0,
          "mHalfUnitX.s32": 162,
          "mItemSaveParam": {
            "mItemNameParam.u64": 12884961905
          }
        },
        {
          "mHalfUnitZ.s32": 38,
          "mItemLayerID.u8": 0,
          "mHalfUnitX.s32": 174,
          "mItemSaveParam": {
            "mItemNameParam.u64": 60200
          }
        },
        {
          "mHalfUnitZ.s32": 38,
          "mItemLayerID.u8": 0,
          "mHalfUnitX.s32": 182,
          "mItemSaveParam": {
            "mItemNameParam.u64": 60209
          }
        },
        {
          "mHalfUnitZ.s32": 40,
          "mItemLayerID.u8": 0,
          "mHalfUnitX.s32": 62,
          "mItemSaveParam": {
            "mItemNameParam.u64": 60200
          }
        },
        {
          "mHalfUnitZ.s32": 40,
          "mItemLayerID.u8": 0,
          "mHalfUnitX.s32": 88,
          "mItemSaveParam": {
            "mItemNameParam.u64": 60009
          }
        },
        {
          "mHalfUnitZ.s32": 40,
          "mItemLayerID.u8": 0,
          "mHalfUnitX.s32": 100,
          "mItemSaveParam": {
            "mItemNameParam.u64": 120259144331
          }
        },
        {
          "mHalfUnitZ.s32": 40,
          "mItemLayerID.u8": 0,
          "mHalfUnitX.s32": 104,
          "mItemSaveParam": {
            "mItemNameParam.u64": 68719536756
          }
        },
        {
          "mHalfUnitZ.s32": 40,
          "mItemLayerID.u8": 0,
          "mHalfUnitX.s32": 116,
          "mItemSaveParam": {
            "mItemNameParam.u64": 12884961905
          }
        },
        {
          "mHalfUnitZ.s32": 40,
          "mItemLayerID.u8": 0,
          "mHalfUnitX.s32": 142,
          "mItemSaveParam": {
            "mItemNameParam.u64": 60208
          }
        },
        {
          "mHalfUnitZ.s32": 40,
          "mItemLayerID.u8": 0,
          "mHalfUnitX.s32": 164,
          "mItemSaveParam": {
            "mItemNameParam.u64": 120259144331
          }
        },
        {
          "mHalfUnitZ.s32": 40,
          "mItemLayerID.u8": 0,
          "mHalfUnitX.s32": 190,
          "mItemSaveParam": {
            "mItemNameParam.u64": 60009
          }
        },
        {
          "mHalfUnitZ.s32": 42,
          "mItemLayerID.u8": 0,
          "mHalfUnitX.s32": 46,
          "mItemSaveParam": {
            "mItemNameParam.u64": 68719536756
          }
        },
        {
          "mHalfUnitZ.s32": 42,
          "mItemLayerID.u8": 0,
          "mHalfUnitX.s32": 92,
          "mItemSaveParam": {
            "mItemNameParam.u64": 12884961905
          }
        },
        {
          "mHalfUnitZ.s32": 42,
          "mItemLayerID.u8": 0,
          "mHalfUnitX.s32": 118,
          "mItemSaveParam": {
            "mItemNameParam.u64": 68719536756
          }
        },
        {
          "mHalfUnitZ.s32": 42,
          "mItemLayerID.u8": 0,
          "mHalfUnitX.s32": 128,
          "mItemSaveParam": {
            "mItemNameParam.u64": 60009
          }
        },
        {
          "mHalfUnitZ.s32": 42,
          "mItemLayerID.u8": 0,
          "mHalfUnitX.s32": 136,
          "mItemSaveParam": {
            "mItemNameParam.u64": 60009
          }
        },
        {
          "mHalfUnitZ.s32": 42,
          "mItemLayerID.u8": 0,
          "mHalfUnitX.s32": 140,
          "mItemSaveParam": {
            "mItemNameParam.u64": 120259144331
          }
        },
        {
          "mHalfUnitZ.s32": 42,
          "mItemLayerID.u8": 0,
          "mHalfUnitX.s32": 178,
          "mItemSaveParam": {
            "mItemNameParam.u64": 60009
          }
        },
        {
          "mHalfUnitZ.s32": 44,
          "mItemLayerID.u8": 0,
          "mHalfUnitX.s32": 30,
          "mItemSaveParam": {
            "mItemNameParam.u64": 60208
          }
        },
        {
          "mHalfUnitZ.s32": 44,
          "mItemLayerID.u8": 0,
          "mHalfUnitX.s32": 34,
          "mItemSaveParam": {
            "mItemNameParam.u64": 60000
          }
        },
        {
          "mHalfUnitZ.s32": 44,
          "mItemLayerID.u8": 0,
          "mHalfUnitX.s32": 58,
          "mItemSaveParam": {
            "mItemNameParam.u64": 60009
          }
        },
        {
          "mHalfUnitZ.s32": 44,
          "mItemLayerID.u8": 0,
          "mHalfUnitX.s32": 66,
          "mItemSaveParam": {
            "mItemNameParam.u64": 120259144331
          }
        },
        {
          "mHalfUnitZ.s32": 44,
          "mItemLayerID.u8": 0,
          "mHalfUnitX.s32": 122,
          "mItemSaveParam": {
            "mItemNameParam.u64": 60009
          }
        },
        {
          "mHalfUnitZ.s32": 44,
          "mItemLayerID.u8": 0,
          "mHalfUnitX.s32": 132,
          "mItemSaveParam": {
            "mItemNameParam.u64": 120259144331
          }
        },
        {
          "mHalfUnitZ.s32": 44,
          "mItemLayerID.u8": 0,
          "mHalfUnitX.s32": 168,
          "mItemSaveParam": {
            "mItemNameParam.u64": 60009
          }
        },
        {
          "mHalfUnitZ.s32": 44,
          "mItemLayerID.u8": 0,
          "mHalfUnitX.s32": 186,
          "mItemSaveParam": {
            "mItemNameParam.u64": 60009
          }
        },
        {
          "mHalfUnitZ.s32": 46,
          "mItemLayerID.u8": 0,
          "mHalfUnitX.s32": 50,
          "mItemSaveParam": {
            "mItemNameParam.u64": 60009
          }
        },
        {
          "mHalfUnitZ.s32": 46,
          "mItemLayerID.u8": 0,
          "mHalfUnitX.s32": 54,
          "mItemSaveParam": {
            "mItemNameParam.u64": 12884961905
          }
        },
        {
          "mHalfUnitZ.s32": 46,
          "mItemLayerID.u8": 0,
          "mHalfUnitX.s32": 62,
          "mItemSaveParam": {
            "mItemNameParam.u64": 68719536756
          }
        },
        {
          "mHalfUnitZ.s32": 46,
          "mItemLayerID.u8": 0,
          "mHalfUnitX.s32": 126,
          "mItemSaveParam": {
            "mItemNameParam.u64": 60200
          }
        },
        {
          "mHalfUnitZ.s32": 46,
          "mItemLayerID.u8": 0,
          "mHalfUnitX.s32": 130,
          "mItemSaveParam": {
            "mItemNameParam.u64": 68719536756
          }
        },
        {
          "mHalfUnitZ.s32": 46,
          "mItemLayerID.u8": 0,
          "mHalfUnitX.s32": 182,
          "mItemSaveParam": {
            "mItemNameParam.u64": 68719536756
          }
        },
        {
          "mHalfUnitZ.s32": 46,
          "mItemLayerID.u8": 0,
          "mHalfUnitX.s32": 190,
          "mItemSaveParam": {
            "mItemNameParam.u64": 12884961905
          }
        },
        {
          "mHalfUnitZ.s32": 48,
          "mItemLayerID.u8": 0,
          "mHalfUnitX.s32": 54,
          "mItemSaveParam": {
            "mItemNameParam.u64": 60209
          }
        },
        {
          "mHalfUnitZ.s32": 48,
          "mItemLayerID.u8": 0,
          "mHalfUnitX.s32": 56,
          "mItemSaveParam": {
            "mItemNameParam.u64": 120259144331
          }
        },
        {
          "mHalfUnitZ.s32": 48,
          "mItemLayerID.u8": 0,
          "mHalfUnitX.s32": 104,
          "mItemSaveParam": {
            "mItemNameParam.u64": 60209
          }
        },
        {
          "mHalfUnitZ.s32": 48,
          "mItemLayerID.u8": 0,
          "mHalfUnitX.s32": 174,
          "mItemSaveParam": {
            "mItemNameParam.u64": 60009
          }
        },
        {
          "mHalfUnitZ.s32": 48,
          "mItemLayerID.u8": 0,
          "mHalfUnitX.s32": 180,
          "mItemSaveParam": {
            "mItemNameParam.u64": 68719536756
          }
        },
        {
          "mHalfUnitZ.s32": 50,
          "mItemLayerID.u8": 0,
          "mHalfUnitX.s32": 86,
          "mItemSaveParam": {
            "mItemNameParam.u64": 60209
          }
        },
        {
          "mHalfUnitZ.s32": 50,
          "mItemLayerID.u8": 0,
          "mHalfUnitX.s32": 90,
          "mItemSaveParam": {
            "mItemNameParam.u64": 60000
          }
        },
        {
          "mHalfUnitZ.s32": 50,
          "mItemLayerID.u8": 0,
          "mHalfUnitX.s32": 98,
          "mItemSaveParam": {
            "mItemNameParam.u64": 60001
          }
        },
        {
          "mHalfUnitZ.s32": 50,
          "mItemLayerID.u8": 0,
          "mHalfUnitX.s32": 170,
          "mItemSaveParam": {
            "mItemNameParam.u64": 60200
          }
        },
        {
          "mHalfUnitZ.s32": 50,
          "mItemLayerID.u8": 0,
          "mHalfUnitX.s32": 178,
          "mItemSaveParam": {
            "mItemNameParam.u64": 60208
          }
        },
        {
          "mHalfUnitZ.s32": 52,
          "mItemLayerID.u8": 0,
          "mHalfUnitX.s32": 32,
          "mItemSaveParam": {
            "mItemNameParam.u64": 60000
          }
        },
        {
          "mHalfUnitZ.s32": 52,
          "mItemLayerID.u8": 0,
          "mHalfUnitX.s32": 38,
          "mItemSaveParam": {
            "mItemNameParam.u64": 60209
          }
        },
        {
          "mHalfUnitZ.s32": 52,
          "mItemLayerID.u8": 0,
          "mHalfUnitX.s32": 70,
          "mItemSaveParam": {
            "mItemNameParam.u64": 60209
          }
        },
        {
          "mHalfUnitZ.s32": 52,
          "mItemLayerID.u8": 0,
          "mHalfUnitX.s32": 166,
          "mItemSaveParam": {
            "mItemNameParam.u64": 60009
          }
        },
        {
          "mHalfUnitZ.s32": 52,
          "mItemLayerID.u8": 0,
          "mHalfUnitX.s32": 178,
          "mItemSaveParam": {
            "mItemNameParam.u64": 120259144331
          }
        },
        {
          "mHalfUnitZ.s32": 54,
          "mItemLayerID.u8": 0,
          "mHalfUnitX.s32": 94,
          "mItemSaveParam": {
            "mItemNameParam.u64": 60200
          }
        },
        {
          "mHalfUnitZ.s32": 54,
          "mItemLayerID.u8": 0,
          "mHalfUnitX.s32": 158,
          "mItemSaveParam": {
            "mItemNameParam.u64": 68719536756
          }
        },
        {
          "mHalfUnitZ.s32": 54,
          "mItemLayerID.u8": 0,
          "mHalfUnitX.s32": 192,
          "mItemSaveParam": {
            "mItemNameParam.u64": 60009
          }
        },
        {
          "mHalfUnitZ.s32": 56,
          "mItemLayerID.u8": 0,
          "mHalfUnitX.s32": 42,
          "mItemSaveParam": {
            "mItemNameParam.u64": 60001
          }
        },
        {
          "mHalfUnitZ.s32": 56,
          "mItemLayerID.u8": 0,
          "mHalfUnitX.s32": 66,
          "mItemSaveParam": {
            "mItemNameParam.u64": 60001
          }
        },
        {
          "mHalfUnitZ.s32": 56,
          "mItemLayerID.u8": 0,
          "mHalfUnitX.s32": 148,
          "mItemSaveParam": {
            "mItemNameParam.u64": 60208
          }
        },
        {
          "mHalfUnitZ.s32": 56,
          "mItemLayerID.u8": 0,
          "mHalfUnitX.s32": 172,
          "mItemSaveParam": {
            "mItemNameParam.u64": 60009
          }
        },
        {
          "mHalfUnitZ.s32": 58,
          "mItemLayerID.u8": 0,
          "mHalfUnitX.s32": 54,
          "mItemSaveParam": {
            "mItemNameParam.u64": 60208
          }
        },
        {
          "mHalfUnitZ.s32": 58,
          "mItemLayerID.u8": 0,
          "mHalfUnitX.s32": 58,
          "mItemSaveParam": {
            "mItemNameParam.u64": 60000
          }
        },
        {
          "mHalfUnitZ.s32": 58,
          "mItemLayerID.u8": 0,
          "mHalfUnitX.s32": 140,
          "mItemSaveParam": {
            "mItemNameParam.u64": 68719536756
          }
        },
        {
          "mHalfUnitZ.s32": 58,
          "mItemLayerID.u8": 0,
          "mHalfUnitX.s32": 162,
          "mItemSaveParam": {
            "mItemNameParam.u64": 60009
          }
        },
        {
          "mHalfUnitZ.s32": 58,
          "mItemLayerID.u8": 0,
          "mHalfUnitX.s32": 168,
          "mItemSaveParam": {
            "mItemNameParam.u64": 60209
          }
        },
        {
          "mHalfUnitZ.s32": 58,
          "mItemLayerID.u8": 0,
          "mHalfUnitX.s32": 186,
          "mItemSaveParam": {
            "mItemNameParam.u64": 60009
          }
        },
        {
          "mHalfUnitZ.s32": 60,
          "mItemLayerID.u8": 0,
          "mHalfUnitX.s32": 30,
          "mItemSaveParam": {
            "mItemNameParam.u64": 60000
          }
        },
        {
          "mHalfUnitZ.s32": 60,
          "mItemLayerID.u8": 0,
          "mHalfUnitX.s32": 34,
          "mItemSaveParam": {
            "mItemNameParam.u64": 60200
          }
        },
        {
          "mHalfUnitZ.s32": 60,
          "mItemLayerID.u8": 0,
          "mHalfUnitX.s32": 50,
          "mItemSaveParam": {
            "mItemNameParam.u64": 60000
          }
        },
        {
          "mHalfUnitZ.s32": 60,
          "mItemLayerID.u8": 0,
          "mHalfUnitX.s32": 132,
          "mItemSaveParam": {
            "mItemNameParam.u64": 120259144331
          }
        },
        {
          "mHalfUnitZ.s32": 60,
          "mItemLayerID.u8": 0,
          "mHalfUnitX.s32": 144,
          "mItemSaveParam": {
            "mItemNameParam.u64": 60009
          }
        },
        {
          "mHalfUnitZ.s32": 60,
          "mItemLayerID.u8": 0,
          "mHalfUnitX.s32": 178,
          "mItemSaveParam": {
            "mItemNameParam.u64": 68719536756
          }
        },
        {
          "mHalfUnitZ.s32": 62,
          "mItemLayerID.u8": 0,
          "mHalfUnitX.s32": 44,
          "mItemSaveParam": {
            "mItemNameParam.u64": 60200
          }
        },
        {
          "mHalfUnitZ.s32": 62,
          "mItemLayerID.u8": 0,
          "mHalfUnitX.s32": 122,
          "mItemSaveParam": {
            "mItemNameParam.u64": 68719536756
          }
        },
        {
          "mHalfUnitZ.s32": 62,
          "mItemLayerID.u8": 0,
          "mHalfUnitX.s32": 140,
          "mItemSaveParam": {
            "mItemNameParam.u64": 60200
          }
        },
        {
          "mHalfUnitZ.s32": 62,
          "mItemLayerID.u8": 0,
          "mHalfUnitX.s32": 152,
          "mItemSaveParam": {
            "mItemNameParam.u64": 60009
          }
        },
        {
          "mHalfUnitZ.s32": 62,
          "mItemLayerID.u8": 0,
          "mHalfUnitX.s32": 160,
          "mItemSaveParam": {
            "mItemNameParam.u64": 120259144331
          }
        },
        {
          "mHalfUnitZ.s32": 62,
          "mItemLayerID.u8": 0,
          "mHalfUnitX.s32": 176,
          "mItemSaveParam": {
            "mItemNameParam.u64": 12884961905
          }
        },
        {
          "mHalfUnitZ.s32": 62,
          "mItemLayerID.u8": 0,
          "mHalfUnitX.s32": 194,
          "mItemSaveParam": {
            "mItemNameParam.u64": 60200
          }
        },
        {
          "mHalfUnitZ.s32": 64,
          "mItemLayerID.u8": 0,
          "mHalfUnitX.s32": 38,
          "mItemSaveParam": {
            "mItemNameParam.u64": 60000
          }
        },
        {
          "mHalfUnitZ.s32": 64,
          "mItemLayerID.u8": 0,
          "mHalfUnitX.s32": 72,
          "mItemSaveParam": {
            "mItemNameParam.u64": 60000
          }
        },
        {
          "mHalfUnitZ.s32": 64,
          "mItemLayerID.u8": 0,
          "mHalfUnitX.s32": 76,
          "mItemSaveParam": {
            "mItemNameParam.u64": 60200
          }
        },
        {
          "mHalfUnitZ.s32": 64,
          "mItemLayerID.u8": 0,
          "mHalfUnitX.s32": 122,
          "mItemSaveParam": {
            "mItemNameParam.u64": 120259144331
          }
        },
        {
          "mHalfUnitZ.s32": 64,
          "mItemLayerID.u8": 0,
          "mHalfUnitX.s32": 130,
          "mItemSaveParam": {
            "mItemNameParam.u64": 60208
          }
        },
        {
          "mHalfUnitZ.s32": 64,
          "mItemLayerID.u8": 0,
          "mHalfUnitX.s32": 136,
          "mItemSaveParam": {
            "mItemNameParam.u64": 60009
          }
        },
        {
          "mHalfUnitZ.s32": 64,
          "mItemLayerID.u8": 0,
          "mHalfUnitX.s32": 162,
          "mItemSaveParam": {
            "mItemNameParam.u64": 12884961905
          }
        },
        {
          "mHalfUnitZ.s32": 64,
          "mItemLayerID.u8": 0,
          "mHalfUnitX.s32": 176,
          "mItemSaveParam": {
            "mItemNameParam.u64": 60200
          }
        },
        {
          "mHalfUnitZ.s32": 64,
          "mItemLayerID.u8": 0,
          "mHalfUnitX.s32": 190,
          "mItemSaveParam": {
            "mItemNameParam.u64": 60009
          }
        },
        {
          "mHalfUnitZ.s32": 66,
          "mItemLayerID.u8": 0,
          "mHalfUnitX.s32": 62,
          "mItemSaveParam": {
            "mItemNameParam.u64": 60208
          }
        },
        {
          "mHalfUnitZ.s32": 66,
          "mItemLayerID.u8": 0,
          "mHalfUnitX.s32": 114,
          "mItemSaveParam": {
            "mItemNameParam.u64": 60000
          }
        },
        {
          "mHalfUnitZ.s32": 66,
          "mItemLayerID.u8": 0,
          "mHalfUnitX.s32": 126,
          "mItemSaveParam": {
            "mItemNameParam.u64": 60009
          }
        },
        {
          "mHalfUnitZ.s32": 66,
          "mItemLayerID.u8": 0,
          "mHalfUnitX.s32": 150,
          "mItemSaveParam": {
            "mItemNameParam.u64": 60200
          }
        },
        {
          "mHalfUnitZ.s32": 66,
          "mItemLayerID.u8": 0,
          "mHalfUnitX.s32": 162,
          "mItemSaveParam": {
            "mItemNameParam.u64": 60208
          }
        },
        {
          "mHalfUnitZ.s32": 66,
          "mItemLayerID.u8": 0,
          "mHalfUnitX.s32": 172,
          "mItemSaveParam": {
            "mItemNameParam.u64": 60009
          }
        },
        {
          "mHalfUnitZ.s32": 66,
          "mItemLayerID.u8": 0,
          "mHalfUnitX.s32": 194,
          "mItemSaveParam": {
            "mItemNameParam.u64": 12884961905
          }
        },
        {
          "mHalfUnitZ.s32": 68,
          "mItemLayerID.u8": 0,
          "mHalfUnitX.s32": 56,
          "mItemSaveParam": {
            "mItemNameParam.u64": 60000
          }
        },
        {
          "mHalfUnitZ.s32": 68,
          "mItemLayerID.u8": 0,
          "mHalfUnitX.s32": 162,
          "mItemSaveParam": {
            "mItemNameParam.u64": 68719536756
          }
        },
        {
          "mHalfUnitZ.s32": 68,
          "mItemLayerID.u8": 0,
          "mHalfUnitX.s32": 166,
          "mItemSaveParam": {
            "mItemNameParam.u64": 60009
          }
        },
        {
          "mHalfUnitZ.s32": 68,
          "mItemLayerID.u8": 0,
          "mHalfUnitX.s32": 188,
          "mItemSaveParam": {
            "mItemNameParam.u64": 60208
          }
        },
        {
          "mHalfUnitZ.s32": 70,
          "mItemLayerID.u8": 0,
          "mHalfUnitX.s32": 30,
          "mItemSaveParam": {
            "mItemNameParam.u64": 60001
          }
        },
        {
          "mHalfUnitZ.s32": 70,
          "mItemLayerID.u8": 0,
          "mHalfUnitX.s32": 34,
          "mItemSaveParam": {
            "mItemNameParam.u64": 60208
          }
        },
        {
          "mHalfUnitZ.s32": 70,
          "mItemLayerID.u8": 0,
          "mHalfUnitX.s32": 48,
          "mItemSaveParam": {
            "mItemNameParam.u64": 60001
          }
        },
        {
          "mHalfUnitZ.s32": 70,
          "mItemLayerID.u8": 0,
          "mHalfUnitX.s32": 90,
          "mItemSaveParam": {
            "mItemNameParam.u64": 60200
          }
        },
        {
          "mHalfUnitZ.s32": 70,
          "mItemLayerID.u8": 0,
          "mHalfUnitX.s32": 94,
          "mItemSaveParam": {
            "mItemNameParam.u64": 60178
          }
        },
        {
          "mHalfUnitZ.s32": 70,
          "mItemLayerID.u8": 0,
          "mHalfUnitX.s32": 112,
          "mItemSaveParam": {
            "mItemNameParam.u64": 60209
          }
        },
        {
          "mHalfUnitZ.s32": 70,
          "mItemLayerID.u8": 0,
          "mHalfUnitX.s32": 126,
          "mItemSaveParam": {
            "mItemNameParam.u64": 60200
          }
        },
        {
          "mHalfUnitZ.s32": 70,
          "mItemLayerID.u8": 0,
          "mHalfUnitX.s32": 142,
          "mItemSaveParam": {
            "mItemNameParam.u64": 60009
          }
        },
        {
          "mHalfUnitZ.s32": 70,
          "mItemLayerID.u8": 0,
          "mHalfUnitX.s32": 170,
          "mItemSaveParam": {
            "mItemNameParam.u64": 120259144331
          }
        },
        {
          "mHalfUnitZ.s32": 70,
          "mItemLayerID.u8": 0,
          "mHalfUnitX.s32": 184,
          "mItemSaveParam": {
            "mItemNameParam.u64": 60009
          }
        },
        {
          "mHalfUnitZ.s32": 72,
          "mItemLayerID.u8": 0,
          "mHalfUnitX.s32": 40,
          "mItemSaveParam": {
            "mItemNameParam.u64": 60000
          }
        },
        {
          "mHalfUnitZ.s32": 72,
          "mItemLayerID.u8": 0,
          "mHalfUnitX.s32": 54,
          "mItemSaveParam": {
            "mItemNameParam.u64": 60209
          }
        },
        {
          "mHalfUnitZ.s32": 72,
          "mItemLayerID.u8": 0,
          "mHalfUnitX.s32": 66,
          "mItemSaveParam": {
            "mItemNameParam.u64": 60001
          }
        },
        {
          "mHalfUnitZ.s32": 72,
          "mItemLayerID.u8": 0,
          "mHalfUnitX.s32": 70,
          "mItemSaveParam": {
            "mItemNameParam.u64": 60208
          }
        },
        {
          "mHalfUnitZ.s32": 72,
          "mItemLayerID.u8": 0,
          "mHalfUnitX.s32": 104,
          "mItemSaveParam": {
            "mItemNameParam.u64": 60208
          }
        },
        {
          "mHalfUnitZ.s32": 72,
          "mItemLayerID.u8": 0,
          "mHalfUnitX.s32": 108,
          "mItemSaveParam": {
            "mItemNameParam.u64": 60001
          }
        },
        {
          "mHalfUnitZ.s32": 72,
          "mItemLayerID.u8": 0,
          "mHalfUnitX.s32": 134,
          "mItemSaveParam": {
            "mItemNameParam.u64": 60209
          }
        },
        {
          "mHalfUnitZ.s32": 72,
          "mItemLayerID.u8": 0,
          "mHalfUnitX.s32": 154,
          "mItemSaveParam": {
            "mItemNameParam.u64": 60009
          }
        },
        {
          "mHalfUnitZ.s32": 74,
          "mItemLayerID.u8": 0,
          "mHalfUnitX.s32": 100,
          "mItemSaveParam": {
            "mItemNameParam.u64": 60000
          }
        },
        {
          "mHalfUnitZ.s32": 74,
          "mItemLayerID.u8": 0,
          "mHalfUnitX.s32": 126,
          "mItemSaveParam": {
            "mItemNameParam.u64": 12884961905
          }
        },
        {
          "mHalfUnitZ.s32": 74,
          "mItemLayerID.u8": 0,
          "mHalfUnitX.s32": 130,
          "mItemSaveParam": {
            "mItemNameParam.u64": 60009
          }
        },
        {
          "mHalfUnitZ.s32": 74,
          "mItemLayerID.u8": 0,
          "mHalfUnitX.s32": 192,
          "mItemSaveParam": {
            "mItemNameParam.u64": 60009
          }
        },
        {
          "mHalfUnitZ.s32": 76,
          "mItemLayerID.u8": 0,
          "mHalfUnitX.s32": 44,
          "mItemSaveParam": {
            "mItemNameParam.u64": 60209
          }
        },
        {
          "mHalfUnitZ.s32": 76,
          "mItemLayerID.u8": 0,
          "mHalfUnitX.s32": 58,
          "mItemSaveParam": {
            "mItemNameParam.u64": 60001
          }
        },
        {
          "mHalfUnitZ.s32": 76,
          "mItemLayerID.u8": 0,
          "mHalfUnitX.s32": 62,
          "mItemSaveParam": {
            "mItemNameParam.u64": 60200
          }
        },
        {
          "mHalfUnitZ.s32": 76,
          "mItemLayerID.u8": 0,
          "mHalfUnitX.s32": 118,
          "mItemSaveParam": {
            "mItemNameParam.u64": 60000
          }
        },
        {
          "mHalfUnitZ.s32": 76,
          "mItemLayerID.u8": 0,
          "mHalfUnitX.s32": 148,
          "mItemSaveParam": {
            "mItemNameParam.u64": 60009
          }
        },
        {
          "mHalfUnitZ.s32": 78,
          "mItemLayerID.u8": 0,
          "mHalfUnitX.s32": 50,
          "mItemSaveParam": {
            "mItemNameParam.u64": 60000
          }
        },
        {
          "mHalfUnitZ.s32": 78,
          "mItemLayerID.u8": 0,
          "mHalfUnitX.s32": 130,
          "mItemSaveParam": {
            "mItemNameParam.u64": 120259144331
          }
        },
        {
          "mHalfUnitZ.s32": 78,
          "mItemLayerID.u8": 0,
          "mHalfUnitX.s32": 138,
          "mItemSaveParam": {
            "mItemNameParam.u64": 60009
          }
        },
        {
          "mHalfUnitZ.s32": 78,
          "mItemLayerID.u8": 0,
          "mHalfUnitX.s32": 160,
          "mItemSaveParam": {
            "mItemNameParam.u64": 60009
          }
        },
        {
          "mHalfUnitZ.s32": 78,
          "mItemLayerID.u8": 0,
          "mHalfUnitX.s32": 164,
          "mItemSaveParam": {
            "mItemNameParam.u64": 60200
          }
        },
        {
          "mHalfUnitZ.s32": 78,
          "mItemLayerID.u8": 0,
          "mHalfUnitX.s32": 178,
          "mItemSaveParam": {
            "mItemNameParam.u64": 60009
          }
        },
        {
          "mHalfUnitZ.s32": 78,
          "mItemLayerID.u8": 0,
          "mHalfUnitX.s32": 182,
          "mItemSaveParam": {
            "mItemNameParam.u64": 60208
          }
        },
        {
          "mHalfUnitZ.s32": 78,
          "mItemLayerID.u8": 0,
          "mHalfUnitX.s32": 192,
          "mItemSaveParam": {
            "mItemNameParam.u64": 60209
          }
        },
        {
          "mHalfUnitZ.s32": 80,
          "mItemLayerID.u8": 0,
          "mHalfUnitX.s32": 132,
          "mItemSaveParam": {
            "mItemNameParam.u64": 68719536756
          }
        },
        {
          "mHalfUnitZ.s32": 80,
          "mItemLayerID.u8": 0,
          "mHalfUnitX.s32": 156,
          "mItemSaveParam": {
            "mItemNameParam.u64": 60209
          }
        },
        {
          "mHalfUnitZ.s32": 80,
          "mItemLayerID.u8": 0,
          "mHalfUnitX.s32": 168,
          "mItemSaveParam": {
            "mItemNameParam.u64": 60009
          }
        },
        {
          "mHalfUnitZ.s32": 80,
          "mItemLayerID.u8": 0,
          "mHalfUnitX.s32": 186,
          "mItemSaveParam": {
            "mItemNameParam.u64": 60009
          }
        },
        {
          "mHalfUnitZ.s32": 82,
          "mItemLayerID.u8": 0,
          "mHalfUnitX.s32": 112,
          "mItemSaveParam": {
            "mItemNameParam.u64": 60000
          }
        },
        {
          "mHalfUnitZ.s32": 82,
          "mItemLayerID.u8": 0,
          "mHalfUnitX.s32": 118,
          "mItemSaveParam": {
            "mItemNameParam.u64": 60200
          }
        },
        {
          "mHalfUnitZ.s32": 82,
          "mItemLayerID.u8": 0,
          "mHalfUnitX.s32": 138,
          "mItemSaveParam": {
            "mItemNameParam.u64": 12884961905
          }
        },
        {
          "mHalfUnitZ.s32": 84,
          "mItemLayerID.u8": 0,
          "mHalfUnitX.s32": 104,
          "mItemSaveParam": {
            "mItemNameParam.u64": 60001
          }
        },
        {
          "mHalfUnitZ.s32": 84,
          "mItemLayerID.u8": 0,
          "mHalfUnitX.s32": 108,
          "mItemSaveParam": {
            "mItemNameParam.u64": 60208
          }
        },
        {
          "mHalfUnitZ.s32": 84,
          "mItemLayerID.u8": 0,
          "mHalfUnitX.s32": 140,
          "mItemSaveParam": {
            "mItemNameParam.u64": 12884961905
          }
        },
        {
          "mHalfUnitZ.s32": 84,
          "mItemLayerID.u8": 0,
          "mHalfUnitX.s32": 144,
          "mItemSaveParam": {
            "mItemNameParam.u64": 60009
          }
        },
        {
          "mHalfUnitZ.s32": 84,
          "mItemLayerID.u8": 0,
          "mHalfUnitX.s32": 148,
          "mItemSaveParam": {
            "mItemNameParam.u64": 60209
          }
        },
        {
          "mHalfUnitZ.s32": 84,
          "mItemLayerID.u8": 0,
          "mHalfUnitX.s32": 194,
          "mItemSaveParam": {
            "mItemNameParam.u64": 120259144331
          }
        },
        {
          "mHalfUnitZ.s32": 86,
          "mItemLayerID.u8": 0,
          "mHalfUnitX.s32": 82,
          "mItemSaveParam": {
            "mItemNameParam.u64": 60200
          }
        },
        {
          "mHalfUnitZ.s32": 86,
          "mItemLayerID.u8": 0,
          "mHalfUnitX.s32": 122,
          "mItemSaveParam": {
            "mItemNameParam.u64": 60001
          }
        },
        {
          "mHalfUnitZ.s32": 86,
          "mItemLayerID.u8": 0,
          "mHalfUnitX.s32": 140,
          "mItemSaveParam": {
            "mItemNameParam.u64": 60208
          }
        },
        {
          "mHalfUnitZ.s32": 86,
          "mItemLayerID.u8": 0,
          "mHalfUnitX.s32": 152,
          "mItemSaveParam": {
            "mItemNameParam.u64": 60009
          }
        },
        {
          "mHalfUnitZ.s32": 86,
          "mItemLayerID.u8": 0,
          "mHalfUnitX.s32": 174,
          "mItemSaveParam": {
            "mItemNameParam.u64": 60009
          }
        },
        {
          "mHalfUnitZ.s32": 88,
          "mItemLayerID.u8": 0,
          "mHalfUnitX.s32": 128,
          "mItemSaveParam": {
            "mItemNameParam.u64": 60209
          }
        },
        {
          "mHalfUnitZ.s32": 88,
          "mItemLayerID.u8": 0,
          "mHalfUnitX.s32": 142,
          "mItemSaveParam": {
            "mItemNameParam.u64": 120259144331
          }
        },
        {
          "mHalfUnitZ.s32": 88,
          "mItemLayerID.u8": 0,
          "mHalfUnitX.s32": 146,
          "mItemSaveParam": {
            "mItemNameParam.u64": 68719536756
          }
        },
        {
          "mHalfUnitZ.s32": 88,
          "mItemLayerID.u8": 0,
          "mHalfUnitX.s32": 158,
          "mItemSaveParam": {
            "mItemNameParam.u64": 60009
          }
        },
        {
          "mHalfUnitZ.s32": 88,
          "mItemLayerID.u8": 0,
          "mHalfUnitX.s32": 166,
          "mItemSaveParam": {
            "mItemNameParam.u64": 60009
          }
        },
        {
          "mHalfUnitZ.s32": 88,
          "mItemLayerID.u8": 0,
          "mHalfUnitX.s32": 190,
          "mItemSaveParam": {
            "mItemNameParam.u64": 60009
          }
        },
        {
          "mHalfUnitZ.s32": 90,
          "mItemLayerID.u8": 0,
          "mHalfUnitX.s32": 170,
          "mItemSaveParam": {
            "mItemNameParam.u64": 120259144331
          }
        },
        {
          "mHalfUnitZ.s32": 90,
          "mItemLayerID.u8": 0,
          "mHalfUnitX.s32": 174,
          "mItemSaveParam": {
            "mItemNameParam.u64": 12884961905
          }
        },
        {
          "mHalfUnitZ.s32": 90,
          "mItemLayerID.u8": 0,
          "mHalfUnitX.s32": 182,
          "mItemSaveParam": {
            "mItemNameParam.u64": 60009
          }
        },
        {
          "mHalfUnitZ.s32": 92,
          "mItemLayerID.u8": 0,
          "mHalfUnitX.s32": 30,
          "mItemSaveParam": {
            "mItemNameParam.u64": 60001
          }
        },
        {
          "mHalfUnitZ.s32": 92,
          "mItemLayerID.u8": 0,
          "mHalfUnitX.s32": 86,
          "mItemSaveParam": {
            "mItemNameParam.u64": 60000
          }
        },
        {
          "mHalfUnitZ.s32": 92,
          "mItemLayerID.u8": 0,
          "mHalfUnitX.s32": 114,
          "mItemSaveParam": {
            "mItemNameParam.u64": 60000
          }
        },
        {
          "mHalfUnitZ.s32": 92,
          "mItemLayerID.u8": 0,
          "mHalfUnitX.s32": 120,
          "mItemSaveParam": {
            "mItemNameParam.u64": 60208
          }
        },
        {
          "mHalfUnitZ.s32": 92,
          "mItemLayerID.u8": 0,
          "mHalfUnitX.s32": 132,
          "mItemSaveParam": {
            "mItemNameParam.u64": 60000
          }
        },
        {
          "mHalfUnitZ.s32": 92,
          "mItemLayerID.u8": 0,
          "mHalfUnitX.s32": 162,
          "mItemSaveParam": {
            "mItemNameParam.u64": 12884961905
          }
        },
        {
          "mHalfUnitZ.s32": 92,
          "mItemLayerID.u8": 0,
          "mHalfUnitX.s32": 164,
          "mItemSaveParam": {
            "mItemNameParam.u64": 120259144331
          }
        },
        {
          "mHalfUnitZ.s32": 92,
          "mItemLayerID.u8": 0,
          "mHalfUnitX.s32": 166,
          "mItemSaveParam": {
            "mItemNameParam.u64": 60208
          }
        },
        {
          "mHalfUnitZ.s32": 92,
          "mItemLayerID.u8": 0,
          "mHalfUnitX.s32": 168,
          "mItemSaveParam": {
            "mItemNameParam.u64": 68719536756
          }
        },
        {
          "mHalfUnitZ.s32": 92,
          "mItemLayerID.u8": 0,
          "mHalfUnitX.s32": 176,
          "mItemSaveParam": {
            "mItemNameParam.u64": 60209
          }
        },
        {
          "mHalfUnitZ.s32": 92,
          "mItemLayerID.u8": 0,
          "mHalfUnitX.s32": 178,
          "mItemSaveParam": {
            "mItemNameParam.u64": 68719536756
          }
        },
        {
          "mHalfUnitZ.s32": 92,
          "mItemLayerID.u8": 0,
          "mHalfUnitX.s32": 186,
          "mItemSaveParam": {
            "mItemNameParam.u64": 12884961905
          }
        },
        {
          "mHalfUnitZ.s32": 92,
          "mItemLayerID.u8": 0,
          "mHalfUnitX.s32": 188,
          "mItemSaveParam": {
            "mItemNameParam.u64": 60200
          }
        },
        {
          "mHalfUnitZ.s32": 94,
          "mItemLayerID.u8": 0,
          "mHalfUnitX.s32": 34,
          "mItemSaveParam": {
            "mItemNameParam.u64": 60208
          }
        },
        {
          "mHalfUnitZ.s32": 94,
          "mItemLayerID.u8": 0,
          "mHalfUnitX.s32": 44,
          "mItemSaveParam": {
            "mItemNameParam.u64": 60200
          }
        },
        {
          "mHalfUnitZ.s32": 94,
          "mItemLayerID.u8": 0,
          "mHalfUnitX.s32": 74,
          "mItemSaveParam": {
            "mItemNameParam.u64": 60209
          }
        },
        {
          "mHalfUnitZ.s32": 94,
          "mItemLayerID.u8": 0,
          "mHalfUnitX.s32": 106,
          "mItemSaveParam": {
            "mItemNameParam.u64": 60000
          }
        },
        {
          "mHalfUnitZ.s32": 94,
          "mItemLayerID.u8": 0,
          "mHalfUnitX.s32": 110,
          "mItemSaveParam": {
            "mItemNameParam.u64": 60209
          }
        },
        {
          "mHalfUnitZ.s32": 94,
          "mItemLayerID.u8": 0,
          "mHalfUnitX.s32": 124,
          "mItemSaveParam": {
            "mItemNameParam.u64": 60000
          }
        },
        {
          "mHalfUnitZ.s32": 96,
          "mItemLayerID.u8": 0,
          "mHalfUnitX.s32": 38,
          "mItemSaveParam": {
            "mItemNameParam.u64": 60000
          }
        },
        {
          "mHalfUnitZ.s32": 96,
          "mItemLayerID.u8": 0,
          "mHalfUnitX.s32": 50,
          "mItemSaveParam": {
            "mItemNameParam.u64": 60001
          }
        },
        {
          "mHalfUnitZ.s32": 96,
          "mItemLayerID.u8": 0,
          "mHalfUnitX.s32": 56,
          "mItemSaveParam": {
            "mItemNameParam.u64": 60208
          }
        },
        {
          "mHalfUnitZ.s32": 96,
          "mItemLayerID.u8": 0,
          "mHalfUnitX.s32": 68,
          "mItemSaveParam": {
            "mItemNameParam.u64": 60000
          }
        },
        {
          "mHalfUnitZ.s32": 96,
          "mItemLayerID.u8": 0,
          "mHalfUnitX.s32": 78,
          "mItemSaveParam": {
            "mItemNameParam.u64": 60001
          }
        },
        {
          "mHalfUnitZ.s32": 96,
          "mItemLayerID.u8": 0,
          "mHalfUnitX.s32": 140,
          "mItemSaveParam": {
            "mItemNameParam.u64": 60001
          }
        },
        {
          "mHalfUnitZ.s32": 98,
          "mItemLayerID.u8": 0,
          "mHalfUnitX.s32": 60,
          "mItemSaveParam": {
            "mItemNameParam.u64": 60000
          }
        },
        {
          "mHalfUnitZ.s32": 98,
          "mItemLayerID.u8": 0,
          "mHalfUnitX.s32": 136,
          "mItemSaveParam": {
            "mItemNameParam.u64": 60200
          }
        },
        {
          "mHalfUnitZ.s32": 98,
          "mItemLayerID.u8": 0,
          "mHalfUnitX.s32": 148,
          "mItemSaveParam": {
            "mItemNameParam.u64": 60209
          }
        },
        {
          "mHalfUnitZ.s32": 100,
          "mItemLayerID.u8": 0,
          "mHalfUnitX.s32": 70,
          "mItemSaveParam": {
            "mItemNameParam.u64": 60208
          }
        },
        {
          "mHalfUnitZ.s32": 100,
          "mItemLayerID.u8": 0,
          "mHalfUnitX.s32": 130,
          "mItemSaveParam": {
            "mItemNameParam.u64": 60001
          }
        },
        {
          "mHalfUnitZ.s32": 100,
          "mItemLayerID.u8": 0,
          "mHalfUnitX.s32": 152,
          "mItemSaveParam": {
            "mItemNameParam.u64": 60000
          }
        },
        {
          "mHalfUnitZ.s32": 100,
          "mItemLayerID.u8": 0,
          "mHalfUnitX.s32": 170,
          "mItemSaveParam": {
            "mItemNameParam.u64": 60001
          }
        },
        {
          "mHalfUnitZ.s32": 100,
          "mItemLayerID.u8": 0,
          "mHalfUnitX.s32": 192,
          "mItemSaveParam": {
            "mItemNameParam.u64": 60208
          }
        },
        {
          "mHalfUnitZ.s32": 102,
          "mItemLayerID.u8": 0,
          "mHalfUnitX.s32": 32,
          "mItemSaveParam": {
            "mItemNameParam.u64": 60000
          }
        },
        {
          "mHalfUnitZ.s32": 102,
          "mItemLayerID.u8": 0,
          "mHalfUnitX.s32": 62,
          "mItemSaveParam": {
            "mItemNameParam.u64": 60200
          }
        },
        {
          "mHalfUnitZ.s32": 102,
          "mItemLayerID.u8": 0,
          "mHalfUnitX.s32": 84,
          "mItemSaveParam": {
            "mItemNameParam.u64": 60208
          }
        },
        {
          "mHalfUnitZ.s32": 102,
          "mItemLayerID.u8": 0,
          "mHalfUnitX.s32": 88,
          "mItemSaveParam": {
            "mItemNameParam.u64": 60000
          }
        },
        {
          "mHalfUnitZ.s32": 102,
          "mItemLayerID.u8": 0,
          "mHalfUnitX.s32": 108,
          "mItemSaveParam": {
            "mItemNameParam.u64": 60200
          }
        },
        {
          "mHalfUnitZ.s32": 102,
          "mItemLayerID.u8": 0,
          "mHalfUnitX.s32": 112,
          "mItemSaveParam": {
            "mItemNameParam.u64": 60001
          }
        },
        {
          "mHalfUnitZ.s32": 102,
          "mItemLayerID.u8": 0,
          "mHalfUnitX.s32": 160,
          "mItemSaveParam": {
            "mItemNameParam.u64": 60000
          }
        },
        {
          "mHalfUnitZ.s32": 104,
          "mItemLayerID.u8": 0,
          "mHalfUnitX.s32": 44,
          "mItemSaveParam": {
            "mItemNameParam.u64": 60000
          }
        },
        {
          "mHalfUnitZ.s32": 104,
          "mItemLayerID.u8": 0,
          "mHalfUnitX.s32": 122,
          "mItemSaveParam": {
            "mItemNameParam.u64": 60000
          }
        },
        {
          "mHalfUnitZ.s32": 104,
          "mItemLayerID.u8": 0,
          "mHalfUnitX.s32": 126,
          "mItemSaveParam": {
            "mItemNameParam.u64": 60208
          }
        },
        {
          "mHalfUnitZ.s32": 104,
          "mItemLayerID.u8": 0,
          "mHalfUnitX.s32": 144,
          "mItemSaveParam": {
            "mItemNameParam.u64": 60000
          }
        },
        {
          "mHalfUnitZ.s32": 106,
          "mItemLayerID.u8": 0,
          "mHalfUnitX.s32": 32,
          "mItemSaveParam": {
            "mItemNameParam.u64": 60200
          }
        },
        {
          "mHalfUnitZ.s32": 106,
          "mItemLayerID.u8": 0,
          "mHalfUnitX.s32": 64,
          "mItemSaveParam": {
            "mItemNameParam.u64": 60178
          }
        },
        {
          "mHalfUnitZ.s32": 106,
          "mItemLayerID.u8": 0,
          "mHalfUnitX.s32": 76,
          "mItemSaveParam": {
            "mItemNameParam.u64": 60000
          }
        },
        {
          "mHalfUnitZ.s32": 108,
          "mItemLayerID.u8": 0,
          "mHalfUnitX.s32": 136,
          "mItemSaveParam": {
            "mItemNameParam.u64": 60000
          }
        },
        {
          "mHalfUnitZ.s32": 108,
          "mItemLayerID.u8": 0,
          "mHalfUnitX.s32": 142,
          "mItemSaveParam": {
            "mItemNameParam.u64": 60208
          }
        },
        {
          "mHalfUnitZ.s32": 108,
          "mItemLayerID.u8": 0,
          "mHalfUnitX.s32": 158,
          "mItemSaveParam": {
            "mItemNameParam.u64": 60209
          }
        },
        {
          "mHalfUnitZ.s32": 108,
          "mItemLayerID.u8": 0,
          "mHalfUnitX.s32": 168,
          "mItemSaveParam": {
            "mItemNameParam.u64": 60000
          }
        },
        {
          "mHalfUnitZ.s32": 108,
          "mItemLayerID.u8": 0,
          "mHalfUnitX.s32": 172,
          "mItemSaveParam": {
            "mItemNameParam.u64": 60200
          }
        },
        {
          "mHalfUnitZ.s32": 110,
          "mItemLayerID.u8": 0,
          "mHalfUnitX.s32": 38,
          "mItemSaveParam": {
            "mItemNameParam.u64": 60001
          }
        },
        {
          "mHalfUnitZ.s32": 110,
          "mItemLayerID.u8": 0,
          "mHalfUnitX.s32": 42,
          "mItemSaveParam": {
            "mItemNameParam.u64": 60209
          }
        },
        {
          "mHalfUnitZ.s32": 110,
          "mItemLayerID.u8": 0,
          "mHalfUnitX.s32": 70,
          "mItemSaveParam": {
            "mItemNameParam.u64": 60001
          }
        },
        {
          "mHalfUnitZ.s32": 110,
          "mItemLayerID.u8": 0,
          "mHalfUnitX.s32": 116,
          "mItemSaveParam": {
            "mItemNameParam.u64": 60000
          }
        },
        {
          "mHalfUnitZ.s32": 110,
          "mItemLayerID.u8": 0,
          "mHalfUnitX.s32": 152,
          "mItemSaveParam": {
            "mItemNameParam.u64": 60000
          }
        },
        {
          "mHalfUnitZ.s32": 112,
          "mItemLayerID.u8": 0,
          "mHalfUnitX.s32": 46,
          "mItemSaveParam": {
            "mItemNameParam.u64": 60000
          }
        },
        {
          "mHalfUnitZ.s32": 112,
          "mItemLayerID.u8": 0,
          "mHalfUnitX.s32": 78,
          "mItemSaveParam": {
            "mItemNameParam.u64": 60200
          }
        },
        {
          "mHalfUnitZ.s32": 112,
          "mItemLayerID.u8": 0,
          "mHalfUnitX.s32": 84,
          "mItemSaveParam": {
            "mItemNameParam.u64": 60000
          }
        },
        {
          "mHalfUnitZ.s32": 112,
          "mItemLayerID.u8": 0,
          "mHalfUnitX.s32": 122,
          "mItemSaveParam": {
            "mItemNameParam.u64": 60209
          }
        },
        {
          "mHalfUnitZ.s32": 112,
          "mItemLayerID.u8": 0,
          "mHalfUnitX.s32": 128,
          "mItemSaveParam": {
            "mItemNameParam.u64": 60001
          }
        },
        {
          "mHalfUnitZ.s32": 114,
          "mItemLayerID.u8": 0,
          "mHalfUnitX.s32": 30,
          "mItemSaveParam": {
            "mItemNameParam.u64": 60000
          }
        },
        {
          "mHalfUnitZ.s32": 114,
          "mItemLayerID.u8": 0,
          "mHalfUnitX.s32": 94,
          "mItemSaveParam": {
            "mItemNameParam.u64": 60001
          }
        },
        {
          "mHalfUnitZ.s32": 114,
          "mItemLayerID.u8": 0,
          "mHalfUnitX.s32": 134,
          "mItemSaveParam": {
            "mItemNameParam.u64": 60200
          }
        },
        {
          "mHalfUnitZ.s32": 114,
          "mItemLayerID.u8": 0,
          "mHalfUnitX.s32": 162,
          "mItemSaveParam": {
            "mItemNameParam.u64": 60001
          }
        },
        {
          "mHalfUnitZ.s32": 116,
          "mItemLayerID.u8": 0,
          "mHalfUnitX.s32": 64,
          "mItemSaveParam": {
            "mItemNameParam.u64": 60000
          }
        },
        {
          "mHalfUnitZ.s32": 116,
          "mItemLayerID.u8": 0,
          "mHalfUnitX.s32": 140,
          "mItemSaveParam": {
            "mItemNameParam.u64": 60000
          }
        },
        {
          "mHalfUnitZ.s32": 118,
          "mItemLayerID.u8": 0,
          "mHalfUnitX.s32": 54,
          "mItemSaveParam": {
            "mItemNameParam.u64": 60209
          }
        },
        {
          "mHalfUnitZ.s32": 118,
          "mItemLayerID.u8": 0,
          "mHalfUnitX.s32": 94,
          "mItemSaveParam": {
            "mItemNameParam.u64": 60209
          }
        },
        {
          "mHalfUnitZ.s32": 120,
          "mItemLayerID.u8": 0,
          "mHalfUnitX.s32": 30,
          "mItemSaveParam": {
            "mItemNameParam.u64": 60200
          }
        },
        {
          "mHalfUnitZ.s32": 120,
          "mItemLayerID.u8": 0,
          "mHalfUnitX.s32": 42,
          "mItemSaveParam": {
            "mItemNameParam.u64": 60000
          }
        },
        {
          "mHalfUnitZ.s32": 120,
          "mItemLayerID.u8": 0,
          "mHalfUnitX.s32": 148,
          "mItemSaveParam": {
            "mItemNameParam.u64": 60000
          }
        },
        {
          "mHalfUnitZ.s32": 120,
          "mItemLayerID.u8": 0,
          "mHalfUnitX.s32": 156,
          "mItemSaveParam": {
            "mItemNameParam.u64": 60001
          }
        },
        {
          "mHalfUnitZ.s32": 122,
          "mItemLayerID.u8": 0,
          "mHalfUnitX.s32": 50,
          "mItemSaveParam": {
            "mItemNameParam.u64": 60001
          }
        },
        {
          "mHalfUnitZ.s32": 122,
          "mItemLayerID.u8": 0,
          "mHalfUnitX.s32": 166,
          "mItemSaveParam": {
            "mItemNameParam.u64": 60000
          }
        },
        {
          "mHalfUnitZ.s32": 124,
          "mItemLayerID.u8": 0,
          "mHalfUnitX.s32": 34,
          "mItemSaveParam": {
            "mItemNameParam.u64": 60001
          }
        },
        {
          "mHalfUnitZ.s32": 124,
          "mItemLayerID.u8": 0,
          "mHalfUnitX.s32": 58,
          "mItemSaveParam": {
            "mItemNameParam.u64": 60000
          }
        },
        {
          "mHalfUnitZ.s32": 124,
          "mItemLayerID.u8": 0,
          "mHalfUnitX.s32": 64,
          "mItemSaveParam": {
            "mItemNameParam.u64": 60209
          }
        },
        {
          "mHalfUnitZ.s32": 124,
          "mItemLayerID.u8": 0,
          "mHalfUnitX.s32": 180,
          "mItemSaveParam": {
            "mItemNameParam.u64": 60009
          }
        },
        {
          "mHalfUnitZ.s32": 124,
          "mItemLayerID.u8": 0,
          "mHalfUnitX.s32": 190,
          "mItemSaveParam": {
            "mItemNameParam.u64": 60009
          }
        },
        {
          "mHalfUnitZ.s32": 126,
          "mItemLayerID.u8": 0,
          "mHalfUnitX.s32": 100,
          "mItemSaveParam": {
            "mItemNameParam.u64": 60000
          }
        },
        {
          "mHalfUnitZ.s32": 128,
          "mItemLayerID.u8": 0,
          "mHalfUnitX.s32": 38,
          "mItemSaveParam": {
            "mItemNameParam.u64": 60208
          }
        },
        {
          "mHalfUnitZ.s32": 128,
          "mItemLayerID.u8": 0,
          "mHalfUnitX.s32": 160,
          "mItemSaveParam": {
            "mItemNameParam.u64": 60000
          }
        },
        {
          "mHalfUnitZ.s32": 128,
          "mItemLayerID.u8": 0,
          "mHalfUnitX.s32": 178,
          "mItemSaveParam": {
            "mItemNameParam.u64": 12884961905
          }
        },
        {
          "mHalfUnitZ.s32": 130,
          "mItemLayerID.u8": 0,
          "mHalfUnitX.s32": 44,
          "mItemSaveParam": {
            "mItemNameParam.u64": 60000
          }
        },
        {
          "mHalfUnitZ.s32": 130,
          "mItemLayerID.u8": 0,
          "mHalfUnitX.s32": 114,
          "mItemSaveParam": {
            "mItemNameParam.u64": 60200
          }
        },
        {
          "mHalfUnitZ.s32": 130,
          "mItemLayerID.u8": 0,
          "mHalfUnitX.s32": 126,
          "mItemSaveParam": {
            "mItemNameParam.u64": 60208
          }
        },
        {
          "mHalfUnitZ.s32": 130,
          "mItemLayerID.u8": 0,
          "mHalfUnitX.s32": 184,
          "mItemSaveParam": {
            "mItemNameParam.u64": 60009
          }
        },
        {
          "mHalfUnitZ.s32": 130,
          "mItemLayerID.u8": 0,
          "mHalfUnitX.s32": 194,
          "mItemSaveParam": {
            "mItemNameParam.u64": 60009
          }
        },
        {
          "mHalfUnitZ.s32": 132,
          "mItemLayerID.u8": 0,
          "mHalfUnitX.s32": 62,
          "mItemSaveParam": {
            "mItemNameParam.u64": 60000
          }
        },
        {
          "mHalfUnitZ.s32": 132,
          "mItemLayerID.u8": 0,
          "mHalfUnitX.s32": 102,
          "mItemSaveParam": {
            "mItemNameParam.u64": 60208
          }
        },
        {
          "mHalfUnitZ.s32": 132,
          "mItemLayerID.u8": 0,
          "mHalfUnitX.s32": 108,
          "mItemSaveParam": {
            "mItemNameParam.u64": 60001
          }
        },
        {
          "mHalfUnitZ.s32": 132,
          "mItemLayerID.u8": 0,
          "mHalfUnitX.s32": 154,
          "mItemSaveParam": {
            "mItemNameParam.u64": 60001
          }
        },
        {
          "mHalfUnitZ.s32": 132,
          "mItemLayerID.u8": 0,
          "mHalfUnitX.s32": 168,
          "mItemSaveParam": {
            "mItemNameParam.u64": 60001
          }
        },
        {
          "mHalfUnitZ.s32": 134,
          "mItemLayerID.u8": 0,
          "mHalfUnitX.s32": 32,
          "mItemSaveParam": {
            "mItemNameParam.u64": 60000
          }
        },
        {
          "mHalfUnitZ.s32": 134,
          "mItemLayerID.u8": 0,
          "mHalfUnitX.s32": 52,
          "mItemSaveParam": {
            "mItemNameParam.u64": 60001
          }
        },
        {
          "mHalfUnitZ.s32": 134,
          "mItemLayerID.u8": 0,
          "mHalfUnitX.s32": 58,
          "mItemSaveParam": {
            "mItemNameParam.u64": 60208
          }
        },
        {
          "mHalfUnitZ.s32": 134,
          "mItemLayerID.u8": 0,
          "mHalfUnitX.s32": 114,
          "mItemSaveParam": {
            "mItemNameParam.u64": 60178
          }
        },
        {
          "mHalfUnitZ.s32": 134,
          "mItemLayerID.u8": 0,
          "mHalfUnitX.s32": 158,
          "mItemSaveParam": {
            "mItemNameParam.u64": 60208
          }
        },
        {
          "mHalfUnitZ.s32": 136,
          "mItemLayerID.u8": 0,
          "mHalfUnitX.s32": 98,
          "mItemSaveParam": {
            "mItemNameParam.u64": 60000
          }
        },
        {
          "mHalfUnitZ.s32": 136,
          "mItemLayerID.u8": 0,
          "mHalfUnitX.s32": 122,
          "mItemSaveParam": {
            "mItemNameParam.u64": 60000
          }
        },
        {
          "mHalfUnitZ.s32": 136,
          "mItemLayerID.u8": 0,
          "mHalfUnitX.s32": 190,
          "mItemSaveParam": {
            "mItemNameParam.u64": 60009
          }
        },
        {
          "mHalfUnitZ.s32": 138,
          "mItemLayerID.u8": 0,
          "mHalfUnitX.s32": 28,
          "mItemSaveParam": {
            "mItemNameParam.u64": 60209
          }
        },
        {
          "mHalfUnitZ.s32": 138,
          "mItemLayerID.u8": 0,
          "mHalfUnitX.s32": 46,
          "mItemSaveParam": {
            "mItemNameParam.u64": 60209
          }
        },
        {
          "mHalfUnitZ.s32": 138,
          "mItemLayerID.u8": 0,
          "mHalfUnitX.s32": 132,
          "mItemSaveParam": {
            "mItemNameParam.u64": 60001
          }
        },
        {
          "mHalfUnitZ.s32": 138,
          "mItemLayerID.u8": 0,
          "mHalfUnitX.s32": 136,
          "mItemSaveParam": {
            "mItemNameParam.u64": 60209
          }
        },
        {
          "mHalfUnitZ.s32": 138,
          "mItemLayerID.u8": 0,
          "mHalfUnitX.s32": 182,
          "mItemSaveParam": {
            "mItemNameParam.u64": 60009
          }
        },
        {
          "mHalfUnitZ.s32": 140,
          "mItemLayerID.u8": 0,
          "mHalfUnitX.s32": 40,
          "mItemSaveParam": {
            "mItemNameParam.u64": 60001
          }
        },
        {
          "mHalfUnitZ.s32": 140,
          "mItemLayerID.u8": 0,
          "mHalfUnitX.s32": 122,
          "mItemSaveParam": {
            "mItemNameParam.u64": 60209
          }
        },
        {
          "mHalfUnitZ.s32": 140,
          "mItemLayerID.u8": 0,
          "mHalfUnitX.s32": 166,
          "mItemSaveParam": {
            "mItemNameParam.u64": 60000
          }
        },
        {
          "mHalfUnitZ.s32": 140,
          "mItemLayerID.u8": 0,
          "mHalfUnitX.s32": 188,
          "mItemSaveParam": {
            "mItemNameParam.u64": 12884961905
          }
        },
        {
          "mHalfUnitZ.s32": 142,
          "mItemLayerID.u8": 0,
          "mHalfUnitX.s32": 64,
          "mItemSaveParam": {
            "mItemNameParam.u64": 60000
          }
        },
        {
          "mHalfUnitZ.s32": 142,
          "mItemLayerID.u8": 0,
          "mHalfUnitX.s32": 96,
          "mItemSaveParam": {
            "mItemNameParam.u64": 60208
          }
        },
        {
          "mHalfUnitZ.s32": 142,
          "mItemLayerID.u8": 0,
          "mHalfUnitX.s32": 106,
          "mItemSaveParam": {
            "mItemNameParam.u64": 60000
          }
        },
        {
          "mHalfUnitZ.s32": 142,
          "mItemLayerID.u8": 0,
          "mHalfUnitX.s32": 156,
          "mItemSaveParam": {
            "mItemNameParam.u64": 60000
          }
        },
        {
          "mHalfUnitZ.s32": 142,
          "mItemLayerID.u8": 0,
          "mHalfUnitX.s32": 162,
          "mItemSaveParam": {
            "mItemNameParam.u64": 60200
          }
        },
        {
          "mHalfUnitZ.s32": 144,
          "mItemLayerID.u8": 0,
          "mHalfUnitX.s32": 54,
          "mItemSaveParam": {
            "mItemNameParam.u64": 60000
          }
        },
        {
          "mHalfUnitZ.s32": 144,
          "mItemLayerID.u8": 0,
          "mHalfUnitX.s32": 116,
          "mItemSaveParam": {
            "mItemNameParam.u64": 60001
          }
        },
        {
          "mHalfUnitZ.s32": 146,
          "mItemLayerID.u8": 0,
          "mHalfUnitX.s32": 34,
          "mItemSaveParam": {
            "mItemNameParam.u64": 60000
          }
        },
        {
          "mHalfUnitZ.s32": 146,
          "mItemLayerID.u8": 0,
          "mHalfUnitX.s32": 40,
          "mItemSaveParam": {
            "mItemNameParam.u64": 60208
          }
        },
        {
          "mHalfUnitZ.s32": 146,
          "mItemLayerID.u8": 0,
          "mHalfUnitX.s32": 106,
          "mItemSaveParam": {
            "mItemNameParam.u64": 60200
          }
        },
        {
          "mHalfUnitZ.s32": 146,
          "mItemLayerID.u8": 0,
          "mHalfUnitX.s32": 132,
          "mItemSaveParam": {
            "mItemNameParam.u64": 60208
          }
        },
        {
          "mHalfUnitZ.s32": 146,
          "mItemLayerID.u8": 0,
          "mHalfUnitX.s32": 138,
          "mItemSaveParam": {
            "mItemNameParam.u64": 60000
          }
        },
        {
          "mHalfUnitZ.s32": 148,
          "mItemLayerID.u8": 0,
          "mHalfUnitX.s32": 72,
          "mItemSaveParam": {
            "mItemNameParam.u64": 60200
          }
        },
        {
          "mHalfUnitZ.s32": 148,
          "mItemLayerID.u8": 0,
          "mHalfUnitX.s32": 126,
          "mItemSaveParam": {
            "mItemNameParam.u64": 60000
          }
        },
        {
          "mHalfUnitZ.s32": 150,
          "mItemLayerID.u8": 0,
          "mHalfUnitX.s32": 46,
          "mItemSaveParam": {
            "mItemNameParam.u64": 60000
          }
        },
        {
          "mHalfUnitZ.s32": 150,
          "mItemLayerID.u8": 0,
          "mHalfUnitX.s32": 52,
          "mItemSaveParam": {
            "mItemNameParam.u64": 60200
          }
        },
        {
          "mHalfUnitZ.s32": 150,
          "mItemLayerID.u8": 0,
          "mHalfUnitX.s32": 84,
          "mItemSaveParam": {
            "mItemNameParam.u64": 60209
          }
        },
        {
          "mHalfUnitZ.s32": 150,
          "mItemLayerID.u8": 0,
          "mHalfUnitX.s32": 90,
          "mItemSaveParam": {
            "mItemNameParam.u64": 60000
          }
        },
        {
          "mHalfUnitZ.s32": 150,
          "mItemLayerID.u8": 0,
          "mHalfUnitX.s32": 100,
          "mItemSaveParam": {
            "mItemNameParam.u64": 60001
          }
        },
        {
          "mHalfUnitZ.s32": 150,
          "mItemLayerID.u8": 0,
          "mHalfUnitX.s32": 120,
          "mItemSaveParam": {
            "mItemNameParam.u64": 60200
          }
        },
        {
          "mHalfUnitZ.s32": 150,
          "mItemLayerID.u8": 0,
          "mHalfUnitX.s32": 158,
          "mItemSaveParam": {
            "mItemNameParam.u64": 60000
          }
        },
        {
          "mHalfUnitZ.s32": 150,
          "mItemLayerID.u8": 0,
          "mHalfUnitX.s32": 170,
          "mItemSaveParam": {
            "mItemNameParam.u64": 60001
          }
        },
        {
          "mHalfUnitZ.s32": 150,
          "mItemLayerID.u8": 0,
          "mHalfUnitX.s32": 188,
          "mItemSaveParam": {
            "mItemNameParam.u64": 60000
          }
        },
        {
          "mHalfUnitZ.s32": 152,
          "mItemLayerID.u8": 0,
          "mHalfUnitX.s32": 66,
          "mItemSaveParam": {
            "mItemNameParam.u64": 60001
          }
        },
        {
          "mHalfUnitZ.s32": 152,
          "mItemLayerID.u8": 0,
          "mHalfUnitX.s32": 110,
          "mItemSaveParam": {
            "mItemNameParam.u64": 60000
          }
        },
        {
          "mHalfUnitZ.s32": 152,
          "mItemLayerID.u8": 0,
          "mHalfUnitX.s32": 180,
          "mItemSaveParam": {
            "mItemNameParam.u64": 60000
          }
        },
        {
          "mHalfUnitZ.s32": 154,
          "mItemLayerID.u8": 0,
          "mHalfUnitX.s32": 30,
          "mItemSaveParam": {
            "mItemNameParam.u64": 60001
          }
        },
        {
          "mHalfUnitZ.s32": 154,
          "mItemLayerID.u8": 0,
          "mHalfUnitX.s32": 34,
          "mItemSaveParam": {
            "mItemNameParam.u64": 60200
          }
        },
        {
          "mHalfUnitZ.s32": 154,
          "mItemLayerID.u8": 0,
          "mHalfUnitX.s32": 80,
          "mItemSaveParam": {
            "mItemNameParam.u64": 60178
          }
        },
        {
          "mHalfUnitZ.s32": 154,
          "mItemLayerID.u8": 0,
          "mHalfUnitX.s32": 134,
          "mItemSaveParam": {
            "mItemNameParam.u64": 60000
          }
        },
        {
          "mHalfUnitZ.s32": 154,
          "mItemLayerID.u8": 0,
          "mHalfUnitX.s32": 176,
          "mItemSaveParam": {
            "mItemNameParam.u64": 60208
          }
        },
        {
          "mHalfUnitZ.s32": 154,
          "mItemLayerID.u8": 0,
          "mHalfUnitX.s32": 190,
          "mItemSaveParam": {
            "mItemNameParam.u64": 60200
          }
        },
        {
          "mHalfUnitZ.s32": 158,
          "mItemLayerID.u8": 0,
          "mHalfUnitX.s32": 38,
          "mItemSaveParam": {
            "mItemNameParam.u64": 60000
          }
        },
        {
          "mHalfUnitZ.s32": 158,
          "mItemLayerID.u8": 0,
          "mHalfUnitX.s32": 74,
          "mItemSaveParam": {
            "mItemNameParam.u64": 60000
          }
        },
        {
          "mHalfUnitZ.s32": 158,
          "mItemLayerID.u8": 0,
          "mHalfUnitX.s32": 96,
          "mItemSaveParam": {
            "mItemNameParam.u64": 60001
          }
        },
        {
          "mHalfUnitZ.s32": 158,
          "mItemLayerID.u8": 0,
          "mHalfUnitX.s32": 100,
          "mItemSaveParam": {
            "mItemNameParam.u64": 60208
          }
        },
        {
          "mHalfUnitZ.s32": 158,
          "mItemLayerID.u8": 0,
          "mHalfUnitX.s32": 124,
          "mItemSaveParam": {
            "mItemNameParam.u64": 60001
          }
        },
        {
          "mHalfUnitZ.s32": 158,
          "mItemLayerID.u8": 0,
          "mHalfUnitX.s32": 162,
          "mItemSaveParam": {
            "mItemNameParam.u64": 60000
          }
        },
        {
          "mHalfUnitZ.s32": 160,
          "mItemLayerID.u8": 0,
          "mHalfUnitX.s32": 44,
          "mItemSaveParam": {
            "mItemNameParam.u64": 60208
          }
        },
        {
          "mHalfUnitZ.s32": 160,
          "mItemLayerID.u8": 0,
          "mHalfUnitX.s32": 48,
          "mItemSaveParam": {
            "mItemNameParam.u64": 60001
          }
        },
        {
          "mHalfUnitZ.s32": 160,
          "mItemLayerID.u8": 0,
          "mHalfUnitX.s32": 62,
          "mItemSaveParam": {
            "mItemNameParam.u64": 60000
          }
        },
        {
          "mHalfUnitZ.s32": 160,
          "mItemLayerID.u8": 0,
          "mHalfUnitX.s32": 68,
          "mItemSaveParam": {
            "mItemNameParam.u64": 60208
          }
        },
        {
          "mHalfUnitZ.s32": 160,
          "mItemLayerID.u8": 0,
          "mHalfUnitX.s32": 88,
          "mItemSaveParam": {
            "mItemNameParam.u64": 60000
          }
        },
        {
          "mHalfUnitZ.s32": 160,
          "mItemLayerID.u8": 0,
          "mHalfUnitX.s32": 116,
          "mItemSaveParam": {
            "mItemNameParam.u64": 60000
          }
        },
        {
          "mHalfUnitZ.s32": 160,
          "mItemLayerID.u8": 0,
          "mHalfUnitX.s32": 130,
          "mItemSaveParam": {
            "mItemNameParam.u64": 60200
          }
        },
        {
          "mHalfUnitZ.s32": 160,
          "mItemLayerID.u8": 0,
          "mHalfUnitX.s32": 154,
          "mItemSaveParam": {
            "mItemNameParam.u64": 60000
          }
        },
        {
          "mHalfUnitZ.s32": 160,
          "mItemLayerID.u8": 0,
          "mHalfUnitX.s32": 158,
          "mItemSaveParam": {
            "mItemNameParam.u64": 60209
          }
        },
        {
          "mHalfUnitZ.s32": 160,
          "mItemLayerID.u8": 0,
          "mHalfUnitX.s32": 170,
          "mItemSaveParam": {
            "mItemNameParam.u64": 60001
          }
        },
        {
          "mHalfUnitZ.s32": 160,
          "mItemLayerID.u8": 0,
          "mHalfUnitX.s32": 186,
          "mItemSaveParam": {
            "mItemNameParam.u64": 60001
          }
        },
        {
          "mHalfUnitZ.s32": 162,
          "mItemLayerID.u8": 0,
          "mHalfUnitX.s32": 92,
          "mItemSaveParam": {
            "mItemNameParam.u64": 60200
          }
        },
        {
          "mHalfUnitZ.s32": 162,
          "mItemLayerID.u8": 0,
          "mHalfUnitX.s32": 106,
          "mItemSaveParam": {
            "mItemNameParam.u64": 60001
          }
        },
        {
          "mHalfUnitZ.s32": 162,
          "mItemLayerID.u8": 0,
          "mHalfUnitX.s32": 120,
          "mItemSaveParam": {
            "mItemNameParam.u64": 60208
          }
        },
        {
          "mHalfUnitZ.s32": 164,
          "mItemLayerID.u8": 0,
          "mHalfUnitX.s32": 112,
          "mItemSaveParam": {
            "mItemNameParam.u64": 60209
          }
        },
        {
          "mHalfUnitZ.s32": 164,
          "mItemLayerID.u8": 0,
          "mHalfUnitX.s32": 178,
          "mItemSaveParam": {
            "mItemNameParam.u64": 60000
          }
        }
      ]
    }
  }
}