﻿{
  "version": 4,
  "rootNode": {
    "StructurePresetC23": {
      "mSiteList[]": [
        {
          "mUnitX.s32": 93,
          "mUnitZ.s32": 61
        },
        {
          "mUnitX.s32": 103,
          "mUnitZ.s32": 66
        },
        {
          "mUnitX.s32": 64,
          "mUnitZ.s32": 76
        },
        {
          "mUnitX.s32": 92,
          "mUnitZ.s32": 78
        },
        {
          "mUnitX.s32": 103,
          "mUnitZ.s32": 84
        },
        {
          "mUnitX.s32": 64,
          "mUnitZ.s32": 89
        }
      ]
    }
  }
}