﻿{
  "version": 4,
  "rootNode": {
    "StructurePresetC13": {
      "mSiteList[]": [
        {
          "mUnitX.s32": 104,
          "mUnitZ.s32": 69
        },
        {
          "mUnitX.s32": 94,
          "mUnitZ.s32": 79
        },
        {
          "mUnitX.s32": 105,
          "mUnitZ.s32": 84
        },
        {
          "mUnitX.s32": 84,
          "mUnitZ.s32": 85
        },
        {
          "mUnitX.s32": 74,
          "mUnitZ.s32": 89
        },
        {
          "mUnitX.s32": 64,
          "mUnitZ.s32": 89
        }
      ]
    }
  }
}