﻿[
  {
    "label": "001",
    "attribute": "0x0000000000000000",
    "text": "크리스마스가 다가오면{{delay20}}\n{{anim id=\"AbsentMindedness\" target=\"actor\" targetSpec=\"\"}}어떤 선물을 해야 할지{{delay8}}\n엄청나게 고민되지 않냐－!{{pageBreak}}{{anim id=\"Greeting\" target=\"actor\" targetSpec=\"\"}}내가 추천하는 건 {{delay8}}운동 용품이야!{{delay40}}\n선물받은 운동 용품으로 운동하면{{delay20}}\n{{anim id=\"HappyDance\" target=\"actor\" targetSpec=\"\"}}근육도 생기니까 일석이조잖아－! {{string value=\"6\"}}!"
  },
  {
    "label": "002",
    "attribute": "0x0000000000000000",
    "text": "{{anim id=\"QuestionMark\" target=\"actor\" targetSpec=\"\"}}너, 크리스마스 준비는 잘돼 가냐?{{delay40}}\n{{anim id=\"EmotEnd\" target=\"actor\" targetSpec=\"\"}}나는 {{delay8}}갖고 싶은 선물을{{delay20}}\n{{anim id=\"SmugFace\" target=\"actor\" targetSpec=\"\"}}쫙 적어 놨다－!{{pageBreak}}{{anim id=\"Explain\" target=\"actor\" targetSpec=\"\"}}잠도 안 자고{{delay8}} 100개나 생각했으니까{{delay40}}\n{{anim id=\"Laughing\" target=\"actor\" targetSpec=\"\"}}그중에 하나쯤{{delay20}}\n누가 선물로 주지 않을까－? {{string value=\"6\"}}!"
  },
  {
    "label": "003",
    "attribute": "0x0000000000000000",
    "text": "광장의 트리를 보니까{{delay20}}\n{{anim id=\"Smiling\" target=\"actor\" targetSpec=\"\"}}정말로 크리스마스가 다가온 게 느껴져!{{delay8}}\n신나서 가만있을 수가 없다구－! {{string value=\"6\"}}!{{pageBreak}}{{anim id=\"ShyBoy\" target=\"actor\" targetSpec=\"\"}}그래서 요즘 매일{{delay8}} 섬을 뺑뺑 돌면서{{delay8}}\n마음을 진정시키고 있는데, {{delay frames=\"30\"}}\n{{anim id=\"HappyFlower\" target=\"actor\" targetSpec=\"\"}}다음날 근육통도 생기니까 {{delay8}}엄청 기분 좋아－!"
  }
]