﻿[
  {
    "label": "001",
    "attribute": "0x0000000000000000",
    "text": "{{anim id=\"BigSmile\" target=\"actor\" targetSpec=\"\"}}얘기 들었다－!{{i10_4}}\n{{anim id=\"EmotEnd\" target=\"actor\" targetSpec=\"\"}}너 {{delay20}}가게 세우는 데 필요한{{delay8}}\n{{anim id=\"FaintSmile\" target=\"actor\" targetSpec=\"\"}}재료를 모으기로 했다면서－?{{pageBreak}}{{anim id=\"Nodding\" target=\"actor\" targetSpec=\"\"}}나도 {{string value=\"34\"}}에{{delay8}}\n가게가 생긴다니 {{anim id=\"Smiling\" target=\"actor\" targetSpec=\"\"}}기쁘다－! {{string value=\"6\"}}!"
  },
  {
    "label": "011",
    "attribute": "0x0000000000000000",
    "text": "{{anim id=\"BigSmile\" target=\"actor\" targetSpec=\"\"}}{{delay8}}그러고 보니까 얘기 들었어－!{{i10_4}}\n너 {{delay20}}가게 세우는 거\n돕고 있다면서－?\n{{anim id=\"Nodding\" target=\"actor\" targetSpec=\"\"}}나도 {{string value=\"34\"}}에\n가게를 세우는 데는 찬성이니까{{delay20}}\n응원할게－!{{anim id=\"BigSmile\" target=\"actor\" targetSpec=\"\"}}"
  },
  {
    "label": "012",
    "attribute": "0x0000000000000000",
    "text": "{{anim id=\"BigSmile\" target=\"actor\" targetSpec=\"\"}}{{delay8}}그러고 보니 얘기 들었어－!{{i10_4}}\n네가 {{delay20}}가게 세우는 거 도왔다면서－?{{pageBreak}}{{anim id=\"Nodding\" target=\"actor\" targetSpec=\"\"}}나도 {{string value=\"34\"}}에\n가게가 생긴다니 좋다－!{{anim id=\"BigSmile\" target=\"actor\" targetSpec=\"\"}}"
  }
]