﻿[
  {
    "label": "001",
    "attribute": "0x0000000000000000",
    "text": "{{anim id=\"Surprised\" target=\"actor\" targetSpec=\"\"}}Hey, {{string value=\"NickName\"}}! {{delay20}}What's the\ndeal? {{delay20}}I thought we were\ngonna hang at your place!{{pageBreak}}{{anim id=\"Worried\" target=\"actor\" targetSpec=\"\"}}I told you I was going to visit, but\nno one answered when I knocked.{{delay20}}\nYou weren't even home!{{pageBreak}}{{anim id=\"Angry\" target=\"actor\" targetSpec=\"\"}}Next time we're gonna do this, you'd\nbetter be at home and waiting. {{delay20}}You\ndo NOT want me mad, {{string value=\"Catchphrase\"}}!"
  },
  {
    "label": "002",
    "attribute": "0x0000000000000000",
    "text": "{{anim id=\"TakenAback\" target=\"actor\" targetSpec=\"\"}}Oh, hey! {{delay20}}I know we were gonna hang\nout at your place, buuuuuut it's not\ngonna work out, {{string value=\"Catchphrase\"}}.{{pageBreak}}{{anim id=\"Worried\" target=\"actor\" targetSpec=\"\"}}I know, I know, {{delay20}}I promised.{{delay20}} {{anim id=\"Apologize\" target=\"actor\" targetSpec=\"\"}}I am\nsuper {{delay8}}MEGA sorry about this!{{pageBreak}}{{anim id=\"Nodding\" target=\"actor\" targetSpec=\"\"}}It won't happen again, I swear!{{delay frames=\"40\"}} {{anim id=\"Grin\" target=\"actor\" targetSpec=\"\"}}Come\nbug me later and we'll do this."
  },
  {
    "label": "003",
    "attribute": "0x0000000000000000",
    "text": "{{anim id=\"TakenAback\" target=\"actor\" targetSpec=\"\"}}My bad, {{string value=\"NickName\"}}! {{delay20}}I know\nwe were supposed to\nhang out at your place.{{pageBreak}}{{anim id=\"Restless\" target=\"actor\" targetSpec=\"\"}}It's just that my mom called, and we\nstarted talking, and{{string value=\"...\"}}{{delay frames=\"40\"}}{{anim id=\"Sighing\" target=\"actor\" targetSpec=\"\"}}time just got\naway from us, {{string value=\"Catchphrase\"}}.{{pageBreak}}{{anim id=\"Nodding\" target=\"actor\" targetSpec=\"\"}}I was really looking forward to it too!\n{{delay20}}There'll be a next time though.{{delay20}}\n{{anim id=\"Grin\" target=\"actor\" targetSpec=\"\"}}I promise!"
  }
]