﻿[
  {
    "label": "001",
    "text": "You did it, {{string value=\"NickName\"}}!"
  },
  {
    "label": "002",
    "text": "To my busy bee, {{string value=\"NickName\"}}!"
  },
  {
    "label": "003",
    "text": "My goodness, {{string value=\"NickName\"}}!"
  },
  {
    "label": "004",
    "text": "Congratulations, {{string value=\"NickName\"}}!"
  },
  {
    "label": "101",
    "text": "Congratulations on your new home\nexpansion! I'm sending you a little\ngift to encourage you on. I'd be\ntickled if you used it to decorate\nyour fancy new room, darling."
  },
  {
    "label": "102",
    "text": "You've added yet another room!\nI envy all the fun you'll have\ndecorating so much space! I got\nthis gift to show you how much I\nadmire what you've done. I do hope\nit fits the design of your new room."
  },
  {
    "label": "103",
    "text": "Your house keeps getting bigger\nand bigger! I had to get a present\nfor my diligent little dynamo. With\nso many rooms, it must be hard to\ndecide what goes where! What I\nwouldn't give to have that problem!"
  },
  {
    "label": "104",
    "text": "The passion you pour into building\nyour home deserves respect! To a\nwonderful friend with a wonderful\nhome, I hope you find this little\ngift I picked out wonderful too. I\ncan't wait to see the new addition!"
  },
  {
    "label": "201",
    "text": "Sincerely, {{string value=\"VillagerName\"}}"
  },
  {
    "label": "202",
    "text": "Looking out for you, {{string value=\"VillagerName\"}}"
  },
  {
    "label": "203",
    "text": "Just a little jealous, {{string value=\"VillagerName\"}}"
  },
  {
    "label": "204",
    "text": "From {{string value=\"VillagerName\"}}, with love"
  }
]