﻿[
  {
    "label": "001",
    "attribute": "0x0000000000000000",
    "text": "{{anim id=\"Silent\" target=\"actor\" targetSpec=\"\"}}1년 중에 봄은 옷 고르기가 특히 어려운데{{delay20}}\n{{anim id=\"EmotEnd\" target=\"actor\" targetSpec=\"\"}}{{fun_0000007D arg=\"0x0000\"}}{{gender5 m=\"은\" f=\"는\"}}{{delay8}}\n{{anim id=\"FaintSmile\" target=\"actor\" targetSpec=\"\"}}봄 느낌이 나서 좋네요～ {{string value=\"6\"}}!"
  },
  {
    "label": "002",
    "attribute": "0x0000000000000000",
    "text": "{{anim id=\"Silent\" target=\"actor\" targetSpec=\"\"}}여름 옷차림은 {{delay8}}소재가 중요하다던데{{delay20}}\n{{anim id=\"EmotEnd\" target=\"actor\" targetSpec=\"\"}}{{fun_0000007D arg=\"0x0000\"}}{{gender5 m=\"이\" f=\"\"}}라면{{delay8}}\n{{anim id=\"FaintSmile\" target=\"actor\" targetSpec=\"\"}}문제없겠어요! {{string value=\"6\"}}!"
  },
  {
    "label": "003",
    "attribute": "0x0000000000000000",
    "text": "{{anim id=\"Silent\" target=\"actor\" targetSpec=\"\"}}가을은 갑자기 추워질 때가 있는데{{delay20}}\n{{anim id=\"EmotEnd\" target=\"actor\" targetSpec=\"\"}}{{fun_0000007D arg=\"0x0000\"}}{{gender5 m=\"을\" f=\"를\"}} 입으면\n{{anim id=\"FaintSmile\" target=\"actor\" targetSpec=\"\"}}걱정 없을 것 같아요! {{string value=\"6\"}}!"
  },
  {
    "label": "004",
    "attribute": "0x0000000000000000",
    "text": "{{fun_0000007D arg=\"0x0000\"}}{{gender5 m=\"은\" f=\"는\"}} 역시{{delay20}}\n{{anim id=\"FaintSmile\" target=\"actor\" targetSpec=\"\"}}겨울에만 즐길 수 있는 복장이죠～ {{string value=\"6\"}}!"
  },
  {
    "label": "005",
    "attribute": "0x0000000000000000",
    "text": "{{anim id=\"FaintSmile\" target=\"actor\" targetSpec=\"\"}}{{fun_0000007D arg=\"0x0000\"}},{{delay20}}\n정말 멋지다{{string value=\"...\"}}{{delay frames=\"30\"}}\n저한테도 어울릴까요? {{string value=\"6\"}}?"
  },
  {
    "label": "006",
    "attribute": "0x0000000000000000",
    "text": "{{anim id=\"Sighing\" target=\"actor\" targetSpec=\"\"}}{{fun_0000007D arg=\"0x0000\"}}{{gender5 m=\"은\" f=\"는\"}}{{delay20}}\n저한테 잘 어울리진 않을 것 같지만{{delay20}}\n그래도 관심이 가요, {{string value=\"6\"}}!"
  },
  {
    "label": "007",
    "attribute": "0x0000000000000000",
    "text": "{{anim id=\"Sighing\" target=\"actor\" targetSpec=\"\"}}저는 {{fun_0000007D arg=\"0x0000\"}}{{gender5 m=\"이\" f=\"가\"}}{{delay8}}\n잘 어울리지 않으니까{{delay20}} 이런 게\n{{anim id=\"FaintSmile\" target=\"actor\" targetSpec=\"\"}}어울리는 사람이 부러워요, {{string value=\"6\"}}!"
  },
  {
    "label": "008",
    "attribute": "0x0000000000000000",
    "text": "{{anim id=\"Smiling\" target=\"actor\" targetSpec=\"\"}}{{fun_0000007D arg=\"0x0000\"}}{{gender5 m=\"을\" f=\"를\"}}{{delay8}}\n멋지게 소화해 내는 사람을 보면{{delay20}}\n정말 부럽더라구요～ {{string value=\"6\"}}!"
  },
  {
    "label": "009",
    "attribute": "0x0000000000000000",
    "text": "{{anim id=\"Smiling\" target=\"actor\" targetSpec=\"\"}}{{fun_0000007D arg=\"0x0000\"}}{{gender5 m=\"은\" f=\"는\"}}{{delay20}}\n보고만 있어도 설레는 기분이 들어요!{{delay frames=\"40\"}}\n너무 제 스타일이에요～ {{string value=\"6\"}}!"
  },
  {
    "label": "010",
    "attribute": "0x0000000000000000",
    "text": "{{anim id=\"Hello\" target=\"actor\" targetSpec=\"\"}}{{fun_0000007D arg=\"0x0000\"}},{{delay8}}\n의외로 가벼울지도 모르는데{{delay frames=\"40\"}}\n{{anim id=\"Nodding\" target=\"actor\" targetSpec=\"\"}}한번 입어보고 싶네요～ {{string value=\"6\"}}!"
  },
  {
    "label": "011",
    "attribute": "0x0000000000000000",
    "text": "{{anim id=\"Smiling\" target=\"actor\" targetSpec=\"\"}}{{fun_0000007D arg=\"0x0000\"}}{{gender5 m=\"은\" f=\"는\"}}{{delay frames=\"30\"}}\n하나만 입어도{{delay8}} 꾸민 느낌이 들어서{{delay20}}\n유용할 것 같아요～ {{string value=\"6\"}}!"
  },
  {
    "label": "012",
    "attribute": "0x0000000000000000",
    "text": "{{anim id=\"Serious\" target=\"actor\" targetSpec=\"\"}}{{fun_0000007D arg=\"0x0000\"}},{{delay20}}\n{{anim id=\"EmotEnd\" target=\"actor\" targetSpec=\"\"}}잡지에서 본 것보다 실제로 보니까{{delay8}}\n{{anim id=\"FaintSmile\" target=\"actor\" targetSpec=\"\"}}훨씬 더 근사하네요～ {{string value=\"6\"}}!"
  },
  {
    "label": "013",
    "attribute": "0x0000000000000000",
    "text": "{{anim id=\"IdeaBulb\" target=\"actor\" targetSpec=\"\"}}코디의 마무리로{{delay8}}\n{{fun_0000007D arg=\"0x0000\"}}{{gender5 m=\"을\" f=\"를\"}} 더하면{{delay20}}\n{{anim id=\"Smiling\" target=\"actor\" targetSpec=\"\"}}예쁠 것 같아요, {{string value=\"6\"}}!"
  },
  {
    "label": "014",
    "attribute": "0x0000000000000000",
    "text": "{{anim id=\"Silent\" target=\"actor\" targetSpec=\"\"}}{{fun_0000007D arg=\"0x0000\"}}{{gender5 m=\"을\" f=\"를\"}} 쓰면{{delay8}}\n{{anim id=\"Thinking\" target=\"actor\" targetSpec=\"\"}}앞이 잘 보이진 않겠지만{{delay20}}\n필요한 일이 생길지도{{string value=\"...\"}} {{string value=\"6\"}}{{string value=\"...\"}}"
  },
  {
    "label": "015",
    "attribute": "0x0000000000000000",
    "text": "{{anim id=\"AbsentMindedness\" target=\"actor\" targetSpec=\"\"}}{{fun_0000007D arg=\"0x0000\"}}{{gender6 m=\"으\" f=\"\"}}로{{delay8}}\n코디하면 {{delay20}}{{anim id=\"FaintSmile\" target=\"actor\" targetSpec=\"\"}}저도 패션의 고수가\n될 수 있을까요? {{string value=\"6\"}}?"
  },
  {
    "label": "016",
    "attribute": "0x0000000000000000",
    "text": "{{anim id=\"IdeaBulb\" target=\"actor\" targetSpec=\"\"}}{{fun_0000007D arg=\"0x0000\"}}{{gender5 m=\"을\" f=\"를\"}}\n중심으로 {{delay8}}코디하면{{delay20}}\n{{anim id=\"Smiling\" target=\"actor\" targetSpec=\"\"}}너무 근사할 것 같아요～ {{string value=\"6\"}}!"
  },
  {
    "label": "018",
    "attribute": "0x0000000000000000",
    "text": "전{{delay20}} 신발을 신지 않지만{{delay20}}\n{{anim id=\"EmotEnd\" target=\"actor\" targetSpec=\"\"}}{{fun_0000007D arg=\"0x0000\"}}{{gender5 m=\"은\" f=\"는\"}}{{delay8}}\n{{anim id=\"Smiling\" target=\"actor\" targetSpec=\"\"}}장식용으로 갖고 싶어요, {{string value=\"6\"}}!"
  },
  {
    "label": "020",
    "attribute": "0x0000000000000000",
    "text": "{{anim id=\"Silent\" target=\"actor\" targetSpec=\"\"}}{{fun_0000007D arg=\"0x0000\"}}{{gender5 m=\"을\" f=\"를\"}} 쓴\n제가 {{delay8}}그늘에 숨어 있다가 나타나면{{delay20}}\n{{anim id=\"FaintSmile\" target=\"actor\" targetSpec=\"\"}}다들 깜짝 놀라겠죠? {{string value=\"6\"}}?"
  },
  {
    "label": "051",
    "attribute": "0x0000000000000000",
    "text": "{{i20_2 arg=\"6\"}}{{anim id=\"Shocked\" target=\"actor\" targetSpec=\"\"}}{{string value=\"4\"}}님!{{delay frames=\"40\"}} {{anim id=\"FaintSmile\" target=\"actor\" targetSpec=\"\"}}마침\n당신이 디자인한 작품을 보고 있었어요!{{delay frames=\"30\"}}\n{{anim id=\"Love\" target=\"actor\" targetSpec=\"\"}}너무 훌륭한 디자인이에요, {{string value=\"6\"}}!"
  },
  {
    "label": "052",
    "attribute": "0x0000000000000000",
    "text": "{{i20_2 arg=\"6\"}}{{anim id=\"Smiling\" target=\"actor\" targetSpec=\"\"}}이거 {{delay20}}{{selection value=\"SelectedName\"}}님이\n디자인하신 거래요!{{delay frames=\"40\"}}\n{{anim id=\"Hello\" target=\"actor\" targetSpec=\"\"}}센스가 정말 좋으신 것 같아요, {{string value=\"6\"}}!"
  },
  {
    "label": "053",
    "attribute": "0x0000000000000000",
    "text": "{{i20_2 arg=\"6\"}}{{anim id=\"Explain\" target=\"actor\" targetSpec=\"\"}}이거{{delay20}} {{selection value=\"5\"}}의\n{{selection value=\"SelectedName\"}}님 작품이래요!{{delay frames=\"40\"}}\n{{anim id=\"Smiling\" target=\"actor\" targetSpec=\"\"}}멋진 디자인이네요, {{string value=\"6\"}}!"
  }
]