﻿[
  {
    "label": "001",
    "attribute": "0x0000000000000000",
    "text": "{{anim id=\"FaintSmile\" target=\"actor\" targetSpec=\"\"}}흰동가리는 {{delay8}}눈에 띄는 색이어서{{delay20}}\n자꾸만{{delay8}} 눈이 가요, {{string value=\"6\"}}"
  },
  {
    "label": "002",
    "attribute": "0x0000000000000000",
    "text": "이렇게나 작은 물고기들이{{delay8}}\n일사불란하게 움직이다니{{string value=\"...\"}}{{delay20}}\n{{anim id=\"HappyDance\" target=\"actor\" targetSpec=\"\"}}정말이지 {{delay8}}감동적이에요～! {{string value=\"6\"}}!"
  },
  {
    "label": "003",
    "attribute": "0x0000000000000000",
    "text": "{{anim id=\"FaintSmile\" target=\"actor\" targetSpec=\"\"}}보기만 해도 마음이 이렇게 편해지다니{{delay20}}\n{{anim id=\"Love\" target=\"actor\" targetSpec=\"\"}}클리오네는 정말\n천사 같아요{{string value=\"...\"}} {{string value=\"6\"}}!"
  },
  {
    "label": "004",
    "attribute": "0x0000000000000000",
    "text": "{{anim id=\"Silent\" target=\"actor\" targetSpec=\"\"}}이 비단잉어는{{delay8}}\n하얀 몸에 붉은 무늬니까{{string value=\"...\"}}{{pageBreak}}{{anim id=\"Thinking\" target=\"actor\" targetSpec=\"\"}}품종이 뭐라고 하던데{{string value=\"...\"}}{{delay20}}\n집에 가서 찾아봐야겠어요! {{string value=\"6\"}}!"
  },
  {
    "label": "005",
    "attribute": "0x0000000000000000",
    "text": "{{anim id=\"Love\" target=\"actor\" targetSpec=\"\"}}구피의 지느러미는{{delay20}}\n하늘하늘 정말 근사해요～ {{string value=\"6\"}}!"
  },
  {
    "label": "006",
    "attribute": "0x0000000000000000",
    "text": "베타는 지느러미가 크고 아름다워서{{delay8}}\n몸은 작지만 존재감이 넘치네요～{{delay frames=\"40\"}}\n{{anim id=\"WrySmile\" target=\"actor\" targetSpec=\"\"}}조금 부러워요{{string value=\"...\"}} {{string value=\"6\"}}{{string value=\"...\"}}"
  },
  {
    "label": "007",
    "attribute": "0x0000000000000000",
    "text": "{{anim id=\"FaintSmile\" target=\"actor\" targetSpec=\"\"}}블루탱의 색 조합을 보면{{delay20}}\n{{anim id=\"Nodding\" target=\"actor\" targetSpec=\"\"}}여러모로 배울 점이 있어요～ {{string value=\"6\"}}!"
  },
  {
    "label": "008",
    "attribute": "0x0000000000000000",
    "text": "{{anim id=\"FaintSmile\" target=\"actor\" targetSpec=\"\"}}야생의 일본연어는 웬만해선 보기 힘든데{{delay8}}\n여기에서는 언제든지{{delay8}}\n볼 수 있네요～ {{string value=\"6\"}}!"
  },
  {
    "label": "009",
    "attribute": "0x0000000000000000",
    "text": "{{anim id=\"Shocked\" target=\"actor\" targetSpec=\"\"}}이런 피라루쿠를 강에서 보면{{delay8}}\n아무래도 깜짝 놀라겠죠? {{string value=\"6\"}}?"
  },
  {
    "label": "010",
    "attribute": "0x0000000000000000",
    "text": "{{anim id=\"Serious\" target=\"actor\" targetSpec=\"\"}}저 나폴레옹피시는{{string value=\"...\"}}{{delay20}}\n{{anim id=\"Aha\" target=\"actor\" targetSpec=\"\"}}수컷이네요!{{delay frames=\"40\"}}\n{{anim id=\"Smiling\" target=\"actor\" targetSpec=\"\"}}머리에 훌륭한 혹이 있으니까요, {{string value=\"6\"}}!"
  },
  {
    "label": "011",
    "attribute": "0x0000000000000000",
    "text": "개복치는 옆에서 보는 게 좋지만{{delay20}}\n{{anim id=\"FaintSmile\" target=\"actor\" targetSpec=\"\"}}정면에서 봐도 나름대로의{{delay8}}\n{{anim id=\"Nodding\" target=\"actor\" targetSpec=\"\"}}개성이 느껴져서 좋답니다! {{string value=\"6\"}}!"
  },
  {
    "label": "012",
    "attribute": "0x0000000000000000",
    "text": "{{anim id=\"FaintSmile\" target=\"actor\" targetSpec=\"\"}}여긴 수조가 넓으니까{{delay20}}\n고래상어도 유유히 {{delay8}}헤엄칠 수 있겠어요～{{delay frames=\"40\"}}\n{{anim id=\"EmotEnd\" target=\"actor\" targetSpec=\"\"}}저도 같이 헤엄치고 싶네요! {{anim id=\"FaintSmile\" target=\"actor\" targetSpec=\"\"}}{{string value=\"6\"}}!"
  },
  {
    "label": "013",
    "attribute": "0x0000000000000000",
    "text": "{{anim id=\"FaintSmile\" target=\"actor\" targetSpec=\"\"}}아로와나의 비늘은{{delay8}}\n하나하나가 엄청나게 크답니다～ {{string value=\"6\"}}!"
  },
  {
    "label": "014",
    "attribute": "0x0000000000000000",
    "text": "이 실러캔스는{{delay8}} 몇 살일까요?{{delay frames=\"40\"}}\n{{anim id=\"Silent\" target=\"actor\" targetSpec=\"\"}}으음{{string value=\"...\"}} {{delay8}}50살?{{delay frames=\"30\"}}\n{{anim id=\"Shocked\" target=\"actor\" targetSpec=\"\"}}아니면 100살?! {{string value=\"6\"}}!"
  },
  {
    "label": "015",
    "attribute": "0x0000000000000000",
    "text": "{{anim id=\"FaintSmile\" target=\"actor\" targetSpec=\"\"}}이런 멋진 열목어를{{delay20}}\n제 손으로 직접\n잡아보고 싶어요～ {{string value=\"6\"}}!"
  },
  {
    "label": "016",
    "attribute": "0x0000000000000000",
    "text": "{{anim id=\"Worried\" target=\"actor\" targetSpec=\"\"}}{{string value=\"...\"}}이 피라니아가{{delay20}} 설마 저를{{delay8}}\n먹이라고 생각하진 않겠죠{{string value=\"...\"}}? {{string value=\"6\"}}?"
  },
  {
    "label": "017",
    "attribute": "0x0000000000000000",
    "text": "상어는 피부가 매끈해 보이지만{{string value=\"...\"}}{{delay20}}\n{{anim id=\"Silent\" target=\"actor\" targetSpec=\"\"}}실제로는 거칠다던데 정말일까요?{{delay frames=\"40\"}}\n자세히 봐야겠어요! {{string value=\"6\"}}!"
  },
  {
    "label": "018",
    "attribute": "0x0000000000000000",
    "text": "{{anim id=\"FaintSmile\" target=\"actor\" targetSpec=\"\"}}만새기의 꼬리지느러미는{{delay20}}\n{{anim id=\"Love\" target=\"actor\" targetSpec=\"\"}}샤프하고 정말 근사해요{{string value=\"...\"}} {{string value=\"6\"}}!"
  },
  {
    "label": "019",
    "attribute": "0x0000000000000000",
    "text": "{{anim id=\"Thinking\" target=\"actor\" targetSpec=\"\"}}산갈치의 붉은 지느러미랑{{delay8}}\n은색 몸통의 대비가{{string value=\"...\"}}{{delay20}}\n{{anim id=\"Smiling\" target=\"actor\" targetSpec=\"\"}}정말 예술적이에요～ {{string value=\"6\"}}!"
  },
  {
    "label": "020",
    "attribute": "0x0000000000000000",
    "text": "철갑상어는 이빨이 없다던데{{string value=\"...\"}}{{delay20}}\n{{anim id=\"WrySmile\" target=\"actor\" targetSpec=\"\"}}입이 아래에 있어서{{delay8}}\n안 보이네요, {{string value=\"6\"}}!"
  },
  {
    "label": "021",
    "attribute": "0x0000000000000000",
    "text": "{{anim id=\"Eh\" target=\"actor\" targetSpec=\"\"}}가아 입은{{delay8}} 크게 안 벌어질 텐데{{string value=\"...\"}}{{delay20}}\n{{anim id=\"Thinking\" target=\"actor\" targetSpec=\"\"}}하품할 땐{{delay8}}\n어떻게 하는 걸까요? {{string value=\"6\"}}?"
  },
  {
    "label": "022",
    "attribute": "0x0000000000000000",
    "text": "{{anim id=\"QuestionMark\" target=\"actor\" targetSpec=\"\"}}귀상어의 머리는{{delay8}}\n왜 이런 모양이 된 걸까요?{{delay frames=\"40\"}}\n{{anim id=\"FaintSmile\" target=\"actor\" targetSpec=\"\"}}자연은 참 신비로워요, {{string value=\"6\"}}!"
  },
  {
    "label": "101",
    "attribute": "0x0000000000000000",
    "text": "{{anim id=\"Aha\" target=\"actor\" targetSpec=\"\"}}어머나, {{delay8}}{{string value=\"4\"}}님!{{delay frames=\"30\"}}\n{{anim id=\"Explain\" target=\"actor\" targetSpec=\"\"}}이 물고기를{{delay20}} 직접 기증하셨죠?!{{pageBreak}}{{anim id=\"HappyDance\" target=\"actor\" targetSpec=\"\"}}굉장해요!{{delay frames=\"30\"}}\n도감으로 보는 것보다{{delay8}}\n훨씬 멋져요! {{string value=\"6\"}}!"
  }
]