﻿[
  {
    "label": "001",
    "attribute": "0x0000000000000000",
    "text": "부끄러운 이야기지만{{delay20}}\n{{anim id=\"ShyBoy\" target=\"actor\" targetSpec=\"\"}}자꾸 {{delay8}}몸이 가려워서{{delay20}}\n견딜 수가 없어요, {{string value=\"6\"}}{{string value=\"...\"}}"
  },
  {
    "label": "002",
    "attribute": "0x0000000000000000",
    "text": "{{anim id=\"Frantic\" target=\"actor\" targetSpec=\"\"}}제 주변에서{{delay8}}\n뭔가의 기척이 느껴져요! {{string value=\"6\"}}!{{i10_4}}\n{{anim id=\"Sighing\" target=\"actor\" targetSpec=\"\"}}그게 뭔지는 {{delay8}}모르겠지만요{{string value=\"...\"}}"
  },
  {
    "label": "003",
    "attribute": "0x0000000000000000",
    "text": "{{anim id=\"Worried\" target=\"actor\" targetSpec=\"\"}}시야 끄트머리에서 {{delay8}}뭔가가\n보였다 {{delay8}}안 보였다 하네요{{string value=\"...\"}}{{pageBreak}}{{anim id=\"Frantic\" target=\"actor\" targetSpec=\"\"}}책을 너무 많이 봐서\n눈이 피곤해진 걸까요? {{string value=\"6\"}}?"
  }
]