﻿[
  {
    "label": "001",
    "attribute": "0x00000C0100000000",
    "text": "{{anim id=\"ColdChill\" target=\"actor\" targetSpec=\"\"}}Salut {{gender2 m=\"le jeune\" f=\"la jeune\"}}{{string value=\"...\"}}{{delay8}} T'as pas froid?{{setNpcTalkChoices chatOption=\"1\" cancelOption=\"1\"}}"
  },
  {
    "label": "002",
    "attribute": "0x00000C0100000000",
    "text": "{{anim id=\"FaintSmile\" target=\"actor\" targetSpec=\"\"}}Salut. {{delay20}}Joli temps pour regretter de\npas être resté chez soi,{{delay8}} pas vrai?{{setNpcTalkChoices chatOption=\"0\" cancelOption=\"1\"}}"
  },
  {
    "label": "003",
    "attribute": "0x00000C0100000000",
    "text": "{{anim id=\"Sneezing\" target=\"actor\" targetSpec=\"\"}}{{i10_10}}{{size value=\"150\"}}Aaa-{{delay8}}TCHOUM!{{delay frames=\"20\"}}{{size value=\"100\"}}\n{{i10_9}}Saleté de temps{{string value=\"...\"}}{{setNpcTalkChoices chatOption=\"1\" cancelOption=\"1\"}}"
  },
  {
    "label": "004",
    "attribute": "0x00000C0100000000",
    "text": "{{anim id=\"Greeting\" target=\"actor\" targetSpec=\"\"}}Salut, {{gender2 m=\"le jeune\" f=\"la jeune\"}}.{{delay20}} Fais attention à pas\nprendre froid,{{delay8}} d'accord?{{setNpcTalkChoices chatOption=\"0\" cancelOption=\"1\"}}"
  },
  {
    "label": "005",
    "attribute": "0x00000C0100000000",
    "text": "{{anim id=\"Smiling\" target=\"actor\" targetSpec=\"\"}}Ça fait plaisir de voir que je suis\npas le seul à sortir pour braver\nles éléments,{{delay8}} {{string value=\"Catchphrase\"}}!{{setNpcTalkChoices chatOption=\"0\" cancelOption=\"1\"}}"
  }
]