﻿[
  {
    "label": "001",
    "attribute": "0x0000000000000000",
    "text": "{{anim id=\"Restless\" target=\"actor\" targetSpec=\"\"}}Zeit, {{delay8}}die Kerzen auszupusten!\n{{anim id=\"Scheming\" target=\"actor\" targetSpec=\"\"}}{{size value=\"75\"}}Einfach nur {{color id=\"1\"}}{{color id=\"65535\"}} drücken...{{size value=\"100\"}}"
  },
  {
    "label": "002",
    "attribute": "0x0000000000000000",
    "text": "{{anim id=\"Hello\" target=\"actor\" targetSpec=\"\"}}Du bist der Star, {{delay8}}{{string value=\"NickName\"}}.{{delay20}}\nWenn du bereit bist, {{delay8}}wünsch dir was\nund puste die Kerzen aus.{{pageBreak}}{{anim id=\"Silent\" target=\"actor\" targetSpec=\"\"}}Stell dich einfach direkt davor\nund drücke {{color id=\"1\"}}{{color id=\"65535\"}}."
  },
  {
    "label": "003",
    "attribute": "0x0000000000000000",
    "text": "{{anim id=\"OhGeez\" target=\"actor\" targetSpec=\"\"}}Ich versteh's ja – {{delay20}}du willst es\nspannend machen.{{delay20}} {{anim id=\"Frantic\" target=\"actor\" targetSpec=\"\"}}Aber auspusten\nmusst du sie doch irgendwann!{{pageBreak}}{{anim id=\"Silent\" target=\"actor\" targetSpec=\"\"}}{{size value=\"75\"}}Pssst,{{delay8}} dazu brauchst du einfach nur {{color id=\"1\"}}{{color id=\"65535\"}} drücken...{{size value=\"100\"}}"
  },
  {
    "label": "005",
    "attribute": "0x0000000000000000",
    "text": "{{anim id=\"Thinking\" target=\"actor\" targetSpec=\"\"}}Du bist heute einfach so...{{delay20}}\nIch kann es nicht recht beschreiben,{{delay8}}\naber du strahlst von innen heraus.{{pageBreak}}{{anim id=\"Nodding\" target=\"actor\" targetSpec=\"\"}}Dein Geburtstags-Strahlen. {{delay20}}{{anim id=\"OhGeez\" target=\"actor\" targetSpec=\"\"}}Hach!{{delay20}}\nIch wünschte, {{delay8}}ich könnte es in\nFlaschen abfüllen. {{delay20}}{{anim id=\"Laughing\" target=\"actor\" targetSpec=\"\"}}Und verkaufen."
  },
  {
    "label": "006",
    "attribute": "0x0000000000000000",
    "text": "{{anim id=\"Serious\" target=\"actor\" targetSpec=\"\"}}Meine allerherzlichsten\nGeburtstagsglückwünsche,{{delay8}}\n{{string value=\"NickName\"}}."
  },
  {
    "label": "007",
    "attribute": "0x0000000000000000",
    "text": "{{anim id=\"Serious\" target=\"actor\" targetSpec=\"\"}}Du weißt, {{delay8}}was du heute zu tun hast,{{delay8}}\noder? {{delay20}}{{anim id=\"HappyFlower\" target=\"actor\" targetSpec=\"\"}}Was immer du willst!\n{{delay20}}Schließlich hast du Geburtstag!"
  },
  {
    "label": "008",
    "attribute": "0x0000000000000000",
    "text": "{{anim id=\"Hello\" target=\"actor\" targetSpec=\"\"}}Also, {{delay8}}was hältst du von der\nGeburtstagsdeko? {{delay20}}Stilvoll, {{delay8}}oder?{{pageBreak}}{{anim id=\"AbsentMindedness\" target=\"actor\" targetSpec=\"\"}}Wenn es meine Party wäre,{{delay8}}\nwürde ich natürlich einige\nÄnderungen vornehmen.{{pageBreak}}{{anim id=\"Serious\" target=\"actor\" targetSpec=\"\"}}Unbedingt {{delay8}}mehr Karos..."
  },
  {
    "label": "009",
    "attribute": "0x0000000000000000",
    "text": "{{anim id=\"AbsentMindedness\" target=\"actor\" targetSpec=\"\"}}An einem Geburtstag wird man nicht\nnur älter. {{delay20}}Sondern auch stylisher,{{delay8}}\nweiser...{{delay20}} und gefragter. {{delay20}}{{anim id=\"Laughing\" target=\"actor\" targetSpec=\"\"}}Ha-HA!"
  },
  {
    "label": "011",
    "attribute": "0x0000000000000000",
    "text": "{{anim id=\"Blushing\" target=\"actor\" targetSpec=\"\"}}Das ist jetzt etwas peinlich,{{delay8}}\naber ich habe heute ebenfalls\nGeburtstag.{{pageBreak}}{{anim id=\"Shocked\" target=\"actor\" targetSpec=\"\"}}Peinlich für dich, {{delay8}}befürchte ich!{{delay20}}\n{{anim id=\"Laughing\" target=\"actor\" targetSpec=\"\"}}Ha-HA!"
  },
  {
    "label": "012",
    "attribute": "0x0000000000000000",
    "text": "{{anim id=\"QuestionMark\" target=\"actor\" targetSpec=\"\"}}Wusstest du, {{delay8}}dass ich heute auch\nGeburtstag habe? {{delay20}}{{anim id=\"Cheering\" target=\"actor\" targetSpec=\"\"}}Wir sind\nGeburtstagszwillinge, {{delay8}}{{string value=\"Catchphrase\"}}!{{pageBreak}}{{anim id=\"SmugFace\" target=\"actor\" targetSpec=\"\"}}Heute ist unser Tag auf\n{{string value=\"OtherIslandName\"}}! {{delay20}}Lass ihn uns\nzur Gänze auskosten!"
  },
  {
    "label": "014",
    "attribute": "0x0000000000000000",
    "text": "{{anim id=\"Smiling\" target=\"actor\" targetSpec=\"\"}}Muss nett sein, {{delay8}}am ersten Tag des\nJahres Geburtstag zu haben.{{delay20}}\n{{anim id=\"QuestionMark\" target=\"actor\" targetSpec=\"\"}}Stimmt doch, {{delay8}}{{string value=\"NickName\"}}?{{pageBreak}}{{anim id=\"Thinking\" target=\"actor\" targetSpec=\"\"}}Dann bist du immer genauso alt...{{delay8}}\nwie... {{delay8}}das Jahr auch! {{delay20}}{{anim id=\"Confused\" target=\"actor\" targetSpec=\"\"}}Äh... {{delay8}}Oder so.{{pageBreak}}{{anim id=\"OhGeez\" target=\"actor\" targetSpec=\"\"}}Nun. {{delay20}}Zumindest kannst du dir sicher\nsein, {{delay8}}dass der Tag groß gefeiert wird."
  },
  {
    "label": "015",
    "attribute": "0x0000000000000000",
    "text": "{{anim id=\"Shocked\" target=\"actor\" targetSpec=\"\"}}Moment mal, {{delay8}}du hast nur alle vier\nJahre Geburtstag?!{{pageBreak}}{{anim id=\"Laughing\" target=\"actor\" targetSpec=\"\"}}Dann hoffe ich, {{delay8}}dass du auch\nviermal so viele Geschenke\nbekommst, {{delay8}}{{string value=\"Catchphrase\"}}!{{pageBreak}}{{anim id=\"OhGeez\" target=\"actor\" targetSpec=\"\"}}Und dass du dir diesen Witz nur\neinmal im Jahr anhören musst."
  },
  {
    "label": "016",
    "attribute": "0x0000000000000000",
    "text": "{{anim id=\"Shocked\" target=\"actor\" targetSpec=\"\"}}Hey, {{delay8}}dein Geburtstag ist der\nexklusivste im ganzen Kalender!{{pageBreak}}{{anim id=\"WrySmile\" target=\"actor\" targetSpec=\"\"}}Ich müsste meinen schon auf den\n34. Junvember legen, {{delay8}}um da\nmithalten zu können. {{delay20}}{{anim id=\"Laughing\" target=\"actor\" targetSpec=\"\"}}Ha-HA!"
  },
  {
    "label": "017",
    "attribute": "0x0000000000000000",
    "text": "{{anim id=\"WrySmile\" target=\"actor\" targetSpec=\"\"}}Du hast am {{number value=\"43\"}}{{number value=\"43\"}} Geburtstag? {{delay20}}\nDas ist gar nicht übel!{{pageBreak}}{{anim id=\"SmugFace\" target=\"actor\" targetSpec=\"\"}}Ich bin so etwas wie ein Amateur-\nNumerologe, {{delay8}}und ein solches Datum\npasst einfach perfekt zu dir!"
  },
  {
    "label": "018",
    "attribute": "0x0000000000000000",
    "text": "{{anim id=\"Smiling\" target=\"actor\" targetSpec=\"\"}}Eine wirklich wundervolle Zeit,\num seinen Geburtstag zu feiern,{{delay8}}\n{{string value=\"NickName\"}}!{{pageBreak}}{{anim id=\"AbsentMindedness\" target=\"actor\" targetSpec=\"\"}}So kurz vor Ende des Jahres sind\nalle besinnlich und reflektieren über\nihre liebsten Erinnerungen.\n{{anim id=\"WrySmile\" target=\"actor\" targetSpec=\"\"}}Und ich bin mir sicher, sie denken\ndabei auch an dich{{string value=\"...\"}}{{delay20}} {{anim id=\"HappyFlower\" target=\"actor\" targetSpec=\"\"}}und an mich\nauch, {{delay8}}daran besteht kein Zweifel!"
  },
  {
    "label": "019",
    "attribute": "0x0000000000000000",
    "text": "{{anim id=\"Shocked\" target=\"actor\" targetSpec=\"\"}}Hast du eigentlich auch bemerkt,{{delay8}}\nwie gut gelaunt und festlich\ngestimmt die Leute heute sind?\n{{anim id=\"WrySmile\" target=\"actor\" targetSpec=\"\"}}Ich hatte ja keine Ahnung, dass\ndein Geburtstag so ein besonderes\nEvent ist, {{delay8}}{{string value=\"NickName\"}}!\n{{anim id=\"Thinking\" target=\"actor\" targetSpec=\"\"}}Was muss ich tun, {{delay8}}damit mein\nGeburtstag auch zu einem\ninselweiten Feiertag avanciert?"
  },
  {
    "label": "020",
    "attribute": "0x0000000000000000",
    "text": "{{anim id=\"Restless\" target=\"actor\" targetSpec=\"\"}}Ich kann's kaum erwarten, {{delay8}}dass du\nauf diese Piñata losgehst...{{delay20}} {{anim id=\"IdeaBulb\" target=\"actor\" targetSpec=\"\"}}Ob sie\nmit {{randomSweets}} gefüllt ist?"
  },
  {
    "label": "021",
    "attribute": "0x0000000000000000",
    "text": "{{anim id=\"SmugFace\" target=\"actor\" targetSpec=\"\"}}Wir haben diese Piñata selbst aus\nhandgeschöpftem Papier und Blatt-\ngold gefertigt.{{delay20}} {{anim id=\"Laughing\" target=\"actor\" targetSpec=\"\"}}Aber bitte, {{delay8}}schlag zu!"
  },
  {
    "label": "022",
    "attribute": "0x0000000000000000",
    "text": "{{anim id=\"Thinking\" target=\"actor\" targetSpec=\"\"}}Eine Piñata ist wie das Leben. {{delay20}}Sie ist\nbunt, {{delay8}}geheimnisvoll {{delay8}}und verlangt\neinem einiges an Einsatz ab..."
  }
]