﻿[
  {
    "label": "001",
    "attribute": "0x0000000000000000",
    "text": "{{anim id=\"Greeting\" target=\"actor\" targetSpec=\"\"}}Hey...{{delay20}} {{anim id=\"Hello\" target=\"actor\" targetSpec=\"\"}}Hast du mal einen Moment\nfür mich Zeit, {{delay8}}{{string value=\"NickName\"}}?"
  },
  {
    "label": "002",
    "attribute": "0x0000000000000000",
    "text": "{{anim id=\"WrySmile\" target=\"actor\" targetSpec=\"\"}}{{capitalizeNextLetter}}{{string value=\"NickName\"}}! {{delay20}}Folge mir und stelle keine Fragen..."
  },
  {
    "label": "003",
    "attribute": "0x0000000000000000",
    "text": "{{anim id=\"Hello\" target=\"actor\" targetSpec=\"\"}}Vertraust du mir? {{delay20}}{{anim id=\"Scheming\" target=\"actor\" targetSpec=\"\"}}Dann folge mir\neinfach und stell keine Fragen,{{delay8}}\n{{string value=\"Catchphrase\"}}."
  },
  {
    "label": "005",
    "attribute": "0x0000000000000600",
    "text": "{{i10_12}}{{i10_6}}{{size value=\"150\"}}HERZLICHEN{{delay20}}\nGLÜCKWUNSCH!{{size value=\"100\"}}{{endTag}}"
  },
  {
    "label": "006",
    "attribute": "0x0000000000000000",
    "text": "{{anim id=\"Grin\" target=\"actor\" targetSpec=\"\"}}Du hast doch heute Geburtstag?{{delay20}}\nWir haben beschlossen, {{delay8}}dich zu\nüberraschen!{{pageBreak}}{{anim id=\"Cheering\" target=\"actor\" targetSpec=\"\"}}Komm schon! {{delay20}}Geh zum Kuchen und\npuste mit {{color id=\"1\"}}{{color id=\"65535\"}} die Kerzen aus."
  },
  {
    "label": "007",
    "attribute": "0x0000000000000000",
    "text": "{{anim id=\"Grin\" target=\"actor\" targetSpec=\"\"}}Heute ist doch dein Geburtstag?{{delay20}}\nWir wollten dich überraschen!{{pageBreak}}{{anim id=\"OhGeez\" target=\"actor\" targetSpec=\"\"}}Ich weiß, {{delay8}}dass wir kein Schaltjahr\nhaben, {{delay8}}also haben wir mit dem\nDatum etwas geschummelt.{{pageBreak}}{{anim id=\"Laughing\" target=\"actor\" targetSpec=\"\"}}Verklag uns doch! {{delay20}}{{anim id=\"Cheering\" target=\"actor\" targetSpec=\"\"}}Aber vorher\nsolltest du dir den Kuchen ansehen\nund mit {{color id=\"1\"}}{{color id=\"65535\"}} die Kerzen auspusten."
  },
  {
    "label": "008",
    "attribute": "0x0000000000000000",
    "text": "{{anim id=\"Grin\" target=\"actor\" targetSpec=\"\"}}Heute ist dein RICHTIGER\nGeburtstag, {{delay8}}oder?{{delay20}} Das erste Mal\nin vier langen Jahren?{{pageBreak}}{{anim id=\"HappyDance\" target=\"actor\" targetSpec=\"\"}}Das muss gefeiert werden!{{delay20}}\n{{anim id=\"Cheering\" target=\"actor\" targetSpec=\"\"}}Also los! {{delay20}}Geh zum Kuchen und\npuste mit {{color id=\"1\"}}{{color id=\"65535\"}} die Kerzen aus."
  },
  {
    "label": "009",
    "attribute": "0x0000000000000000",
    "text": "{{anim id=\"Shocked\" target=\"actor\" targetSpec=\"\"}}Wo gehst du denn hin?!{{delay20}} Du kannst\ndie Kerzen doch nicht brennen\nlassen! {{delay20}}{{anim id=\"Frantic\" target=\"actor\" targetSpec=\"\"}}Das ist eine Feuergefahr!"
  },
  {
    "label": "010",
    "attribute": "0x0000000000000000",
    "text": "{{anim id=\"Frantic\" target=\"actor\" targetSpec=\"\"}}Also... {{delay8}}du pustest doch die Kerzen\naus, {{delay8}}ja? {{delay20}}{{anim id=\"Angry\" target=\"actor\" targetSpec=\"\"}}Sonst bekommt der Kuchen\nnoch einen Tortenguss aus Wachs!"
  },
  {
    "label": "011",
    "attribute": "0x0000000000000000",
    "text": "{{anim id=\"Shocked\" target=\"actor\" targetSpec=\"\"}}Hast du nicht etwas vergessen?{{delay20}} Den\nHöhepunkt der Party zum Beispiel?{{delay20}}\n{{anim id=\"OhGeez\" target=\"actor\" targetSpec=\"\"}}Wenn du die Kerzen auspustest?"
  },
  {
    "label": "013",
    "attribute": "0x0000000000000000",
    "text": "{{anim id=\"Clapping\" target=\"actor\" targetSpec=\"\"}}Bravissimo! {{delay20}}Ich wünsche dir den\nglücklichsten aller Geburtstage,{{delay8}}\n{{string value=\"NickName\"}}!"
  },
  {
    "label": "014",
    "attribute": "0x0000000000000000",
    "text": "{{anim id=\"Thinking\" target=\"actor\" targetSpec=\"\"}}Also, {{delay8}}worauf warten wir noch?{{delay20}}\n{{anim id=\"EmotEnd\" target=\"actor\" targetSpec=\"\"}}Zeit für Geschenke!"
  },
  {
    "label": "017",
    "attribute": "0x0000000000000000",
    "text": "Und... {{delay20}}{{anim id=\"BigSmile\" target=\"actor\" targetSpec=\"\"}}voilà."
  },
  {
    "label": "018",
    "attribute": "0x0000000000000000",
    "text": "{{anim id=\"Blushing\" target=\"actor\" targetSpec=\"\"}}Das haben wir gemeinsam\nausgesucht, {{delay8}}{{anim id=\"EmotEnd\" target=\"actor\" targetSpec=\"\"}}mit jeder Menge\nkreativem Input meiner Wenigkeit.{{pageBreak}}Hoffentlich gefällt's dir!{{delay20}}\n{{anim id=\"Scheming\" target=\"actor\" targetSpec=\"\"}}Und das war noch nicht alles!{{delay20}}\nGib mir nur einen Moment..."
  },
  {
    "label": "019",
    "attribute": "0x0000000000000000",
    "text": "{{anim id=\"Eh\" target=\"actor\" targetSpec=\"\"}}Oh! {{delay20}}Du hast nicht genug Platz, {{delay8}}um\ndas jetzt mitzunehmen.{{pageBreak}}{{anim id=\"OhGeez\" target=\"actor\" targetSpec=\"\"}}Kein Problem.{{delay20}} Wir schicken es dir\neinfach zu. {{delay20}}{{anim id=\"Scheming\" target=\"actor\" targetSpec=\"\"}}Und wir haben noch eine\nweitere Überraschung für dich..."
  },
  {
    "label": "020",
    "attribute": "0x0000000000000000",
    "text": "{{anim id=\"BigSmile\" target=\"actor\" targetSpec=\"\"}}Eine Piñata!{{delay20}} Daran kannst du dich\nso richtig abreagieren."
  },
  {
    "label": "021",
    "attribute": "0x0000000000000000",
    "text": "{{anim id=\"Explain\" target=\"actor\" targetSpec=\"\"}}Oh, {{delay8}}und darin befindet sich natürlich\nnoch ein anderes Geschenk. {{delay20}}{{anim id=\"Nodding\" target=\"actor\" targetSpec=\"\"}}Also,{{delay8}}\nnimm dies und dann – {{delay8}}drauf!"
  },
  {
    "label": "022",
    "attribute": "0x0000000000000000",
    "text": "{{anim id=\"Smiling\" target=\"actor\" targetSpec=\"\"}}Wenn du so weit bist, {{delay8}}leg los."
  },
  {
    "label": "023",
    "attribute": "0x0000000000000000",
    "text": "{{anim id=\"FaintSmile\" target=\"actor\" targetSpec=\"\"}}Gut, {{delay8}}du musst einfach nur zu der\nPiñata dort schlendern..."
  },
  {
    "label": "024",
    "attribute": "0x0000000000000000",
    "text": "{{anim id=\"Explain\" target=\"actor\" targetSpec=\"\"}}Ich rufe also {{delay8}}„Los!“ und dann\ndrückst du {{color id=\"1\"}}{{color id=\"65535\"}}, {{delay8}}um den Schläger so\nschnell wie möglich zu schwingen.{{pageBreak}}{{anim id=\"QuestionMark\" target=\"actor\" targetSpec=\"\"}}Bereit?{{delay20}}{{anim id=\"EmotEnd\" target=\"actor\" targetSpec=\"\"}} Dann... {{delay8}}LOS!"
  },
  {
    "label": "025",
    "attribute": "0x0000000000000000",
    "text": "{{anim id=\"BigSmile\" target=\"actor\" targetSpec=\"\"}}Ausgezeichnet! {{delay20}}Du weißt, {{delay8}}wie man\neinen Schläger schwingt... {{delay20}}{{anim id=\"QuestionMark\" target=\"actor\" targetSpec=\"\"}}Bist du\nvielleicht Profi im {{randomSports}}?{{pageBreak}}{{anim id=\"OhGeez\" target=\"actor\" targetSpec=\"\"}}Aber egal, {{delay8}}sehen wir uns deinen\nPreis an. {{delay20}}{{anim id=\"Grin\" target=\"actor\" targetSpec=\"\"}}Es sind {{delay8}}{{color id=\"1\"}}Geburtstags-\nCupcakes{{color id=\"65535\"}}!"
  },
  {
    "label": "026",
    "attribute": "0x0000000000000000",
    "text": "{{anim id=\"Clapping\" target=\"actor\" targetSpec=\"\"}}Oh, {{delay8}}beeindruckend!{{delay20}}\nWirklich beeindruckend!{{pageBreak}}{{anim id=\"WrySmile\" target=\"actor\" targetSpec=\"\"}}Jetzt weiß ich, {{delay8}}wen ich anrufen kann,{{delay8}}\nwenn ich einmal {{gender2 m=\"einen Athleten\" f=\"eine Athletin\"}} für\neine Mode-Vernissage brauche.{{pageBreak}}{{anim id=\"OhGeez\" target=\"actor\" targetSpec=\"\"}}Ach, {{delay8}}aber was rede ich.{{delay20}}\n{{anim id=\"BigSmile\" target=\"actor\" targetSpec=\"\"}}Hier geht es ganz um deinen Preis –{{delay8}}\ndiese {{color id=\"1\"}}Geburtstags-Cupcakes{{color id=\"65535\"}}!"
  },
  {
    "label": "027",
    "attribute": "0x0000000000000000",
    "text": "{{anim id=\"BigSmile\" target=\"actor\" targetSpec=\"\"}}Exquisitsam!{{delay20}} Fantastimo!{{delay20}}\nSuperlativistisch!{{pageBreak}}{{anim id=\"Laughing\" target=\"actor\" targetSpec=\"\"}}Ich muss schon neue Wörter\nerfinden, {{delay8}}um auszudrücken, {{delay8}}wie\nherausragend diese Vorstellung war!{{pageBreak}}{{anim id=\"OhGeez\" target=\"actor\" targetSpec=\"\"}}Ah, {{delay8}}fast hätte ich das Wichtigste\nvergessen – {{delay8}}dein Geschenk.{{delay20}}{{anim id=\"Nodding\" target=\"actor\" targetSpec=\"\"}}\n{{color id=\"1\"}}Geburtstags-Cupcakes{{color id=\"65535\"}}!"
  },
  {
    "label": "028",
    "attribute": "0x0000000000000000",
    "text": "{{anim id=\"Hello\" target=\"actor\" targetSpec=\"\"}}Hier, {{delay8}}bitte schön, {{string value=\"NickName\"}}!{{delay20}}\nLass dir diese {{color id=\"1\"}}Geburtstags-Cupcakes{{color id=\"65535\"}}\nschmecken!"
  },
  {
    "label": "029",
    "attribute": "0x0000000000000000",
    "text": "{{anim id=\"Serious\" target=\"actor\" targetSpec=\"\"}}Falls du sie nicht alle schaffen\nsolltest...{{delay20}} {{anim id=\"Grin\" target=\"actor\" targetSpec=\"\"}}Nun, {{delay8}}es finden sich\nhier sicher noch Abnehmer!"
  },
  {
    "label": "030",
    "attribute": "0x0000000000000000",
    "text": "{{anim id=\"Oops\" target=\"actor\" targetSpec=\"\"}}Oh, {{delay8}}natürlich. {{delay20}}Vorher hattest du\nkeinen Platz, {{delay8}}also jetzt natürlich\nauch nicht. {{delay20}}{{anim id=\"Hello\" target=\"actor\" targetSpec=\"\"}}Ich schicke sie dir zu."
  },
  {
    "label": "031",
    "attribute": "0x0000000000000000",
    "text": "{{anim id=\"Eh\" target=\"actor\" targetSpec=\"\"}}Ah, {{delay8}}du hast keinen Platz mehr...{{delay20}}\n{{anim id=\"Hello\" target=\"actor\" targetSpec=\"\"}}Aber keine Sorge – {{delay8}}ich schicke\nsie dir zu!"
  },
  {
    "label": "032",
    "attribute": "0x0000000000000000",
    "text": "{{anim id=\"Nodding\" target=\"actor\" targetSpec=\"\"}}Und das war's auch schon!{{delay20}}\nKeine weiteren Überraschungen,{{delay8}}\nversprochen.{{pageBreak}}{{anim id=\"Explain\" target=\"actor\" targetSpec=\"\"}}Genieße den Tag und denk an mich,{{delay8}}\nwenn es darum geht, {{delay8}}eine Party oder\nein Firmenevent zu planen.{{pageBreak}}{{anim id=\"Laughing\" target=\"actor\" targetSpec=\"\"}}Ha-HA!{{delay20}} War ein Witz! {{delay20}}Größtenteils.{{delay20}}\n{{anim id=\"Smiling\" target=\"actor\" targetSpec=\"\"}}Also, {{delay8}}amüsier dich gut, {{delay8}}{{string value=\"Catchphrase\"}}!"
  },
  {
    "label": "033",
    "attribute": "0x0000000000000000",
    "text": "{{anim id=\"OhGeez\" target=\"actor\" targetSpec=\"\"}}Was, {{delay8}}ist es schon so spät?{{pageBreak}}{{anim id=\"WrySmile\" target=\"actor\" targetSpec=\"\"}}Ich werde sogleich damit beginnen,{{delay8}}\ndie Minuten bis zu deinem nächsten\nGeburtstag zu zählen. {{delay20}}{{anim id=\"Laughing\" target=\"actor\" targetSpec=\"\"}}Ha-HA!"
  },
  {
    "label": "035",
    "attribute": "0x0000000000000000",
    "text": "{{anim id=\"Shocked\" target=\"actor\" targetSpec=\"\"}}Wusstest du das nicht?{{delay20}}\nMan lässt niemals eine Piñata\nhängen, {{delay8}}{{string value=\"Catchphrase\"}}!"
  },
  {
    "label": "036",
    "attribute": "0x0000000000000000",
    "text": "{{anim id=\"Shocked\" target=\"actor\" targetSpec=\"\"}}Du willst wirklich gehen, {{delay8}}ohne zu\nsehen, {{delay8}}was in der Piñata ist?{{pageBreak}}{{anim id=\"Hesitate\" target=\"actor\" targetSpec=\"\"}}Wir haben so hart daran gearbeitet,{{delay8}}\nnur damit du sie kaputtschlagen\nkannst!"
  },
  {
    "label": "037",
    "attribute": "0x0000000000000000",
    "text": "{{anim id=\"Angry\" target=\"actor\" targetSpec=\"\"}}Die Party ist erst vorbei, {{delay8}}wenn sich\njemand die Piñata vorgenommen hat!{{delay20}}\n{{anim id=\"Grin\" target=\"actor\" targetSpec=\"\"}}Ich hab die Regeln nicht gemacht."
  },
  {
    "label": "100",
    "attribute": "0x0000000000000000",
    "text": "{{anim id=\"WrySmile\" target=\"actor\" targetSpec=\"\"}}Ich persönlich puste meine Kerzen\nja immer mit {{color id=\"1\"}}{{color id=\"65535\"}} aus. {{delay20}}Aber mach du\nes so, {{delay8}}wie du es für richtig hältst!"
  },
  {
    "label": "101",
    "attribute": "0x0000000000000000",
    "text": "{{anim id=\"Hello\" target=\"actor\" targetSpec=\"\"}}Nicht vergessen, {{delay8}}wenn du bereit\nbist, {{delay8}}geh zum Kuchen und drücke {{color id=\"1\"}}{{color id=\"65535\"}},{{delay8}}\num die Kerzen auszupusten."
  },
  {
    "label": "102",
    "attribute": "0x0000000000000000",
    "text": "{{anim id=\"Cheering\" target=\"actor\" targetSpec=\"\"}}Los – {{delay8}}puste die Kerzen aus, {{delay8}}der\nspannende Höhepunkt der Party!{{delay20}}\n{{anim id=\"Hesitate\" target=\"actor\" targetSpec=\"\"}}Du weißt schon, {{delay8}}einfach mit {{color id=\"1\"}}{{color id=\"65535\"}}..."
  },
  {
    "label": "103",
    "attribute": "0x0000000000000000",
    "text": "{{anim id=\"AbsentMindedness\" target=\"actor\" targetSpec=\"\"}}Exklusive Events sind großartig, {{delay8}}doch\nes macht auch Spaß, {{delay8}}eine Party zu\nfeiern, {{delay8}}zu der alle eingeladen sind.{{pageBreak}}{{anim id=\"Serious\" target=\"actor\" targetSpec=\"\"}}Gut! {{delay20}}{{anim id=\"EmotEnd\" target=\"actor\" targetSpec=\"\"}}Ich werde also meine Gästeliste\nauf die top 1000 Einwohner von\n{{string value=\"OtherIslandName\"}} ausweiten!"
  },
  {
    "label": "104",
    "attribute": "0x0000000000000000",
    "text": "{{anim id=\"HappyFlower\" target=\"actor\" targetSpec=\"\"}}Auf ein weiteres Jahr voller Glück,{{delay8}}\nGesundheit {{delay8}}und trendbewusster\nPersönlichkeitsentfaltung!"
  },
  {
    "label": "105",
    "attribute": "0x0000000000000000",
    "text": "{{anim id=\"Hesitate\" target=\"actor\" targetSpec=\"\"}}Jeder sieht die Mühe, {{delay8}}die du dir\ndas gesamte Jahr über gemacht\nhast.{{delay20}} {{anim id=\"Nodding\" target=\"actor\" targetSpec=\"\"}}Du bist wirklich unermüdlich.{{pageBreak}}{{anim id=\"Blushing\" target=\"actor\" targetSpec=\"\"}}Ich bin stolz auf dich,{{delay8}}\n{{string value=\"NickName\"}}!"
  },
  {
    "label": "106",
    "attribute": "0x0000000000000000",
    "text": "{{anim id=\"BigSmile\" target=\"actor\" targetSpec=\"\"}}Du hättest dein Gesicht sehen\nsollen, {{delay8}}als die Piñata explodiert ist!{{delay20}}\n{{anim id=\"Laughing\" target=\"actor\" targetSpec=\"\"}}Und das der Piñata erst!"
  },
  {
    "label": "107",
    "attribute": "0x0000000000000000",
    "text": "{{anim id=\"Shocked\" target=\"actor\" targetSpec=\"\"}}Wie gut, {{delay8}}dass ich die Piñata nicht wie\nzuerst geplant mit {{randomFood}}\ngefüllt habe!"
  }
]