﻿[
  {
    "label": "001",
    "attribute": "0x0000000000000000",
    "text": "{{fun_0014003C arg=\"\"}}"
  },
  {
    "label": "001_01",
    "attribute": "0x0000000000000000",
    "text": "{{anim id=\"Eh\" target=\"actor\" targetSpec=\"\"}}Oh, {{delay8}}ich hatte gar nicht damit\ngerechnet, {{delay8}}jemanden auf dieser\nTour zu treffen, {{delay8}}{{string value=\"Catchphrase\"}}!{{pageBreak}}{{anim id=\"Greeting\" target=\"actor\" targetSpec=\"\"}}Ich bin {{string value=\"VillagerName\"}}. {{delay20}}{{anim id=\"FaintSmile\" target=\"actor\" targetSpec=\"\"}}Und du bist? {{i10_4}}{{anim id=\"Hello\" target=\"actor\" targetSpec=\"\"}}Aha, {{delay8}}{{string value=\"NickName\"}} von {{string value=\"IslandName\"}}.{{pageBreak}}{{anim id=\"Nodding\" target=\"actor\" targetSpec=\"\"}}Nett, {{delay8}}dass du dir die Zeit nimmst, mit\n{{delay8}}mir zu reden! {{delay20}}Neue Bekanntschaften\nsind doch das Beste am Reisen!"
  },
  {
    "label": "001_02",
    "attribute": "0x0000000000000000",
    "text": "{{anim id=\"Shocked\" target=\"actor\" targetSpec=\"\"}}Huch! {{delay20}}{{anim id=\"FaintSmile\" target=\"actor\" targetSpec=\"\"}}Ich dachte, {{delay8}}dass außer mir\nniemand diese Tour macht... {{delay40}}\nIch bin {{string value=\"VillagerName\"}}! {{delay frames=\"40\"}}Und du?\n{{anim id=\"EmotEnd\" target=\"actor\" targetSpec=\"\"}}Aha, {{delay8}}{{string value=\"NickName\"}}. {{delay20}}{{anim id=\"Pardon\" target=\"actor\" targetSpec=\"\"}}Und du bist wirklich von {{string value=\"IslandName\"}} extra bis hierher gereist?{{pageBreak}}{{anim id=\"Thinking\" target=\"actor\" targetSpec=\"\"}}Ich habe {{string value=\"IslandName\"}} schon vom Flugzeug aus gesehen, {{delay8}}glaube ich. {{delay frames=\"40\"}}{{anim id=\"Smiling\" target=\"actor\" targetSpec=\"\"}}Von oben sieht es schön aus!"
  },
  {
    "label": "001_03",
    "attribute": "0x0000000000000000",
    "text": "{{anim id=\"Greeting\" target=\"actor\" targetSpec=\"\"}}Oh, {{delay20}}hallo!{{delay frames=\"40\"}} Ich bin {{string value=\"VillagerName\"}}. {{i10_4}}{{anim id=\"Nodding\" target=\"actor\" targetSpec=\"\"}}Aha, {{delay8}}{{string value=\"NickName\"}} heißt du.{{pageBreak}}{{anim id=\"Eh\" target=\"actor\" targetSpec=\"\"}}Und du bist von {{string value=\"IslandName\"}} bis hierher gereist? {{delay20}}{{anim id=\"Smiling\" target=\"actor\" targetSpec=\"\"}}Das finde ich bewundernswert, {{delay8}}{{string value=\"Catchphrase\"}}!{{pageBreak}}{{anim id=\"Explain\" target=\"actor\" targetSpec=\"\"}}Aber ich bin auch offen für Neues,{{delay8}}\nsonst wäre ich ja nicht hier.{{pageBreak}}{{anim id=\"ShyBoy\" target=\"actor\" targetSpec=\"\"}}Insofern sind wir ein bisschen auf\neiner Wellenlänge, {{delay8}}{{string value=\"Catchphrase\"}}."
  },
  {
    "label": "004",
    "attribute": "0x0000020000000000",
    "text": "{{anim id=\"Nodding\" target=\"actor\" targetSpec=\"\"}}Den Alltagsstress hinter sich zu\nlassen und hier einfach mal zu\nentspannen, {{delay20}}das tut gut!{{pageBreak}}{{anim id=\"Sighing\" target=\"actor\" targetSpec=\"\"}}Meine Heimat ist ja ganz nett,{{delay8}}\naber irgendwas fehlt mir..."
  },
  {
    "label": "004_a",
    "attribute": "0x0000000000000000",
    "text": "{{anim id=\"EmotEnd\" target=\"player\" targetSpec=\"\"}}Zieh auf meine Insel!"
  },
  {
    "label": "004_b",
    "attribute": "0x0000000000000000",
    "text": "{{anim id=\"EmotEnd\" target=\"player\" targetSpec=\"\"}}Echt so schlimm?"
  },
  {
    "label": "005",
    "attribute": "0x0000000000000000",
    "text": "{{anim id=\"Negative\" target=\"actor\" targetSpec=\"\"}}Nein, {{delay8}}natürlich nicht. {{delay frames=\"40\"}}{{anim id=\"Smiling\" target=\"actor\" targetSpec=\"\"}}Ich meckere\nauf hohem Niveau. {{delay20}}Ich habe ein\nschönes Haus und nette Freunde...{{pageBreak}}{{anim id=\"Explain\" target=\"actor\" targetSpec=\"\"}}Es gibt bestimmt viele Leute, {{delay8}}denen\nes schlechter geht, {{delay8}}{{string value=\"Catchphrase\"}}!"
  },
  {
    "label": "006",
    "attribute": "0x0000000000000000",
    "text": "{{anim id=\"Pardon\" target=\"actor\" targetSpec=\"\"}}Nach {{delay8}}{{string value=\"IslandName\"}}?{{delay40}}\n{{anim id=\"Eh\" target=\"actor\" targetSpec=\"\"}}Das ist eine{{string value=\"...\"}}{{delay8}} interessante Idee!{{pageBreak}}{{anim id=\"Thinking\" target=\"actor\" targetSpec=\"\"}}Ich habe die Insel übrigens vor einer\nWeile schon einmal wegen eines\nmöglichen Umzugs kontaktiert.{{pageBreak}}{{anim id=\"Laughing\" target=\"actor\" targetSpec=\"\"}}Ist doch verrückt, {{delay8}}dass ich jetzt hier\njemanden von {{string value=\"IslandName\"}} treffe, {{delay8}}{{string value=\"Catchphrase\"}}!{{pageBreak}}{{anim id=\"FaintSmile\" target=\"actor\" targetSpec=\"\"}}Deine Unterstützung bedeutet mir\njedenfalls viel. {{delay frames=\"40\"}}{{anim id=\"Explain\" target=\"actor\" targetSpec=\"\"}}Deshalb habe ich\nauch schon entschieden...{{pageBreak}}{{anim id=\"Nodding\" target=\"actor\" targetSpec=\"\"}}Sobald ich von dieser Insel\nheimkehre,{{delay8}} fange ich mit dem\nPacken der Umzugskisten an!"
  },
  {
    "label": "007",
    "attribute": "0x0000010000000000",
    "text": "{{anim id=\"Eh\" target=\"actor\" targetSpec=\"\"}}Oh,{{delay8}} was für ein toller Vorschlag!{{delay40}}\n{{anim id=\"Smiling\" target=\"actor\" targetSpec=\"\"}}Danke für deine Unterstützung!{{pageBreak}}{{anim id=\"Hesitate\" target=\"actor\" targetSpec=\"\"}}Mit so was hatte ich jetzt wirklich\nnicht gerechnet. {{delay40}}{{anim id=\"Confused\" target=\"actor\" targetSpec=\"\"}}Hast du mich\nauch nicht einfach nur veräppelt?{{pageBreak}}{{anim id=\"Worried\" target=\"actor\" targetSpec=\"\"}}Meinst du es ernst, {{delay8}}{{string value=\"Catchphrase\"}}?"
  },
  {
    "label": "007_a",
    "attribute": "0x0000000000000000",
    "text": "Es wird dir gefallen!"
  },
  {
    "label": "007_b",
    "attribute": "0x0000000000000000",
    "text": "Aber natürlich!"
  },
  {
    "label": "008",
    "attribute": "0x0000000000000000",
    "text": "{{anim id=\"BigSmile\" target=\"actor\" targetSpec=\"\"}}Oh, {{delay8}}wie aufregend! {{delay frames=\"40\"}}{{anim id=\"Frantic\" target=\"actor\" targetSpec=\"\"}}Jetzt kann ich es\nkaum erwarten heimzukehren, {{delay8}}um mit\nden Vorbereitungen zu beginnen.\n{{anim id=\"Thinking\" target=\"actor\" targetSpec=\"\"}}Wenn ich mich recht erinnere,{{delay8}}\nmuss ich einen gewissen {{color id=\"3\"}}Tom Nook\n{{color id=\"65535\"}}kontaktieren,{{delay8}} bevor ich umziehe.{{pageBreak}}{{anim id=\"Nodding\" target=\"actor\" targetSpec=\"\"}}Dann mache ich das mal lieber\nschnell, bevor ich es vergesse, {{delay8}}{{string value=\"Catchphrase\"}}!"
  },
  {
    "label": "009",
    "attribute": "0x0000000000000000",
    "text": "{{fun_0014003C arg=\"\"}}"
  },
  {
    "label": "009_01",
    "attribute": "0x0000000000000000",
    "text": "{{anim id=\"Thinking\" target=\"actor\" targetSpec=\"\"}}Auf dieser Insel kann man bestimmt\neiniges einsammeln, {{delay8}}was mir bei\nmeinen Projekten helfen würde.{{pageBreak}}{{anim id=\"Worried\" target=\"actor\" targetSpec=\"\"}}Wenn ich mich doch nur daran\nerinnern könnte, {{delay8}}was genau ich\neigentlich brauche, {{delay8}}{{string value=\"Catchphrase\"}}..."
  },
  {
    "label": "009_02",
    "attribute": "0x0000000000000000",
    "text": "{{anim id=\"Restless\" target=\"actor\" targetSpec=\"\"}}Auf einer fremden Insel sollte\nman seiner Umgebung erhöhte\nAufmerksamkeit widmen.{{pageBreak}}{{anim id=\"Explain\" target=\"actor\" targetSpec=\"\"}}Ich sollte versuchen, {{delay8}}mir markante\nStellen zu merken, {{delay8}}und genau\naufpassen, {{delay8}}wo ich hingehe."
  },
  {
    "label": "009_03",
    "attribute": "0x0000000000000000",
    "text": "{{anim id=\"Sighing\" target=\"actor\" targetSpec=\"\"}}Ich weiß auch nicht, {{delay8}}wo ich\nmanchmal meinen Kopf habe...{{pageBreak}}{{anim id=\"Worried\" target=\"actor\" targetSpec=\"\"}}Direkt nach meiner Ankunft hier\nhabe ich bemerkt, {{delay8}}dass ich all meine\nWerkzeuge zu Hause gelassen hatte.{{pageBreak}}{{anim id=\"Hesitate\" target=\"actor\" targetSpec=\"\"}}Zum Glück konnte ich bei {{color id=\"3\"}}Udo{{color id=\"65535\"}} ein\npaar {{color id=\"1\"}}Nook-Meilen{{color id=\"65535\"}} gegen Werkzeuge\neintauschen, {{delay8}}{{string value=\"Catchphrase\"}}."
  },
  {
    "label": "010",
    "attribute": "0x0000000000000000",
    "text": "{{fun_0014003C arg=\"\"}}"
  },
  {
    "label": "010_01",
    "attribute": "0x0000000000000000",
    "text": "{{anim id=\"Thinking\" target=\"actor\" targetSpec=\"\"}}Ich bin schon ganz gespannt, {{delay8}}wie {{string value=\"IslandName\"}} so ist, {{delay8}}{{string value=\"Catchphrase\"}}."
  },
  {
    "label": "010_02",
    "attribute": "0x0000000000000000",
    "text": "{{anim id=\"ShyBoy\" target=\"actor\" targetSpec=\"\"}}Auf eine andere Insel zu ziehen,{{delay8}}\nverlangt schon etwas Mut.{{pageBreak}}{{anim id=\"BigSmile\" target=\"actor\" targetSpec=\"\"}}Deshalb beruhigt mich der\nGedanke doch sehr, {{delay8}}dass du\nauch dort sein wirst, {{delay8}}{{string value=\"Catchphrase\"}}.{{delay20}}{{anim id=\"FaintSmile\" target=\"actor\" targetSpec=\"\"}}"
  },
  {
    "label": "010_03",
    "attribute": "0x0000000000000000",
    "text": "{{anim id=\"Nodding\" target=\"actor\" targetSpec=\"\"}}Wenn man sich in neue Gefilde\naufmacht, {{delay8}}{{anim id=\"FaintSmile\" target=\"actor\" targetSpec=\"\"}}trifft man immer\ninteressante Leute.{{pageBreak}}{{anim id=\"SmugFace\" target=\"actor\" targetSpec=\"\"}}Was {{string value=\"IslandName\"}} in der Hinsicht wohl für Überraschungen für mich bereithält, {{delay8}}{{string value=\"Catchphrase\"}}?"
  }
]