﻿[
  {
    "label": "002",
    "attribute": "0x00000000",
    "text": "{{string value=\"PlayerName\"}}{{gender2 m=\"군\" f=\"양\"}}{{delay20}}\n{{anim id=\"FaintSmile\" target=\"actor\" targetSpec=\"\"}}멋진 별장을 만들어줘서 고맙네{{delay40}}\n{{anim id=\"Nodding\" target=\"actor\" targetSpec=\"\"}}무척 {{delay20}}내 마음에 드는구먼{{string value=\"...\"}}{{pageBreak}}{{anim id=\"EmotEnd\" target=\"actor\" targetSpec=\"\"}}그래서 선물을{{delay20}} 준비했다네{{delay40}}\n{{anim id=\"Smiling\" target=\"actor\" targetSpec=\"\"}}이걸 받아주게{{string value=\"...\"}}"
  },
  {
    "label": "002_001",
    "attribute": "0x00000000",
    "text": "{{anim id=\"ShyBoy\" target=\"actor\" targetSpec=\"\"}}{{fun_0000007D arg=\"0x0000\"}}{{gender5 m=\"이\" f=\"\"}}라네{{delay frames=\"50\"}}\n{{anim id=\"EmotEnd\" target=\"actor\" targetSpec=\"\"}}내가 쓰는 거랑{{string value=\"...\"}} {{delay20}}{{anim id=\"Smiling\" target=\"actor\" targetSpec=\"\"}}같은 물건이지"
  },
  {
    "label": "002_002",
    "attribute": "0x00000000",
    "text": "{{anim id=\"Eh\" target=\"actor\" targetSpec=\"\"}}음{{string value=\"...\"}}{{delay frames=\"40\"}}\n{{anim id=\"EmotEnd\" target=\"actor\" targetSpec=\"\"}}주머니가 가득해서 줄 수가 없으니{{delay20}}\n{{anim id=\"Nodding\" target=\"actor\" targetSpec=\"\"}}정리한 뒤에 {{delay8}}다시 와주면 좋겠구먼"
  },
  {
    "label": "002_003",
    "attribute": "0x00000000",
    "text": "{{anim id=\"FaintSmile\" target=\"actor\" targetSpec=\"\"}}주머니 정리{{string value=\"...\"}} {{delay20}}하고 왔는가?{{delay40}}\n{{anim id=\"Nodding\" target=\"actor\" targetSpec=\"\"}}그럼 선물을 {{delay20}}{{anim id=\"FaintSmile\" target=\"actor\" targetSpec=\"\"}}받아주게나{{string value=\"...\"}}"
  }
]