﻿[
  {
    "label": "001",
    "attribute": "0x0000000000000000",
    "text": "{{fun_0014003C arg=\"\"}}"
  },
  {
    "label": "001_01",
    "attribute": "0x0000000000000000",
    "text": "{{anim id=\"FaintSmile\" target=\"actor\" targetSpec=\"\"}}{{ruby charSpan=\"2\" value=\"すてき\"}}素敵な　{{fun_0005007D arg=\"0x00CD\"}}！{{delay20}}\n{{anim id=\"EmotEnd\" target=\"actor\" targetSpec=\"\"}}アナタ、{{delay8}}{{anim id=\"Nodding\" target=\"actor\" targetSpec=\"\"}}ほんとに　{{ruby charSpan=\"1\" value=\"なん\"}}何でも{{ruby charSpan=\"2\" value=\"にあ\"}}似合っちゃうのね～"
  },
  {
    "label": "001_02",
    "attribute": "0x0000000000000000",
    "text": "{{anim id=\"FaintSmile\" target=\"actor\" targetSpec=\"\"}}その{{ruby charSpan=\"1\" value=\"ふく\"}}服のセレクト、{{delay20}}\n{{anim id=\"Love\" target=\"actor\" targetSpec=\"\"}}{{string value=\"4\"}}の　センスが{{delay8}}\n{{ruby charSpan=\"1\" value=\"ひか\"}}光ってるわね～"
  },
  {
    "label": "001_03",
    "attribute": "0x0000000000000000",
    "text": "その　{{fun_0005007D arg=\"0x00CD\"}}、{{delay20}}\nとっても　{{ruby charSpan=\"2\" value=\"すてき\"}}素敵だけど、{{delay8}}{{anim id=\"QuestionMark\" target=\"actor\" targetSpec=\"\"}}アナタにしては{{delay8}}\nちょっと　おとなしく　まとめすぎじゃない？"
  },
  {
    "label": "002",
    "attribute": "0x0000000000000000",
    "text": "{{fun_0014003C arg=\"\"}}"
  },
  {
    "label": "002_01",
    "attribute": "0x0000000000000000",
    "text": "{{anim id=\"Smiling\" target=\"actor\" targetSpec=\"\"}}{{ruby charSpan=\"1\" value=\"き\"}}気が{{ruby charSpan=\"1\" value=\"む\"}}向いたら　{{ruby charSpan=\"1\" value=\"いま\"}}今のコーデに{{delay8}}\nプラスしてみてちょうだい！　{{string value=\"6\"}}"
  },
  {
    "label": "002_02",
    "attribute": "0x0000000000000000",
    "text": "{{anim id=\"FaintSmile\" target=\"actor\" targetSpec=\"\"}}エンリョなく　{{ruby charSpan=\"1\" value=\"う\"}}受け{{ruby charSpan=\"1\" value=\"と\"}}取ってね{{delay20}}\n{{anim id=\"HappyDance\" target=\"actor\" targetSpec=\"\"}}{{string value=\"4\"}}が{{delay8}}\n{{ruby charSpan=\"1\" value=\"き\"}}気に{{ruby charSpan=\"1\" value=\"い\"}}入ってくれたら　{{ruby charSpan=\"1\" value=\"うれ\"}}嬉しいわ、{{string value=\"6\"}}"
  },
  {
    "label": "002_03",
    "attribute": "0x0000000000000000",
    "text": "{{anim id=\"ShyBoy\" target=\"actor\" targetSpec=\"\"}}{{ruby charSpan=\"1\" value=\"き\"}}気に{{ruby charSpan=\"1\" value=\"い\"}}入ってくれると　いいんだけど{{string value=\"...\"}}{{delay8}}\n{{anim id=\"FaintSmile\" target=\"actor\" targetSpec=\"\"}}もし　よかったら　{{ruby charSpan=\"1\" value=\"ため\"}}試してみてね、{{string value=\"6\"}}"
  },
  {
    "label": "101",
    "attribute": "0x0000000000000000",
    "text": "{{string value=\"...\"}}{{delay8}}{{anim id=\"Aha\" target=\"actor\" targetSpec=\"\"}}そうだわ！{{delay20}}　いいもの　{{ruby charSpan=\"1\" value=\"も\"}}持ってるのよ！{{delay40}}\n{{anim id=\"FaintSmile\" target=\"actor\" targetSpec=\"\"}}{{fun_0006007D arg=\"0x00CD\"}}なんだけど、{{delay8}}\nその{{ruby charSpan=\"1\" value=\"ふく\"}}服のカラーが　よく{{ruby charSpan=\"1\" value=\"は\"}}映えると{{ruby charSpan=\"1\" value=\"おも\"}}思うの{{pageBreak}}{{anim id=\"EmotEnd\" target=\"actor\" targetSpec=\"\"}}{{delay8}}アタシから　プレゼントさせてもらうわ"
  },
  {
    "label": "102",
    "attribute": "0x0000000000000000",
    "text": "{{anim id=\"Aha\" target=\"actor\" targetSpec=\"\"}}そうね、{{delay frames=\"40\"}}{{anim id=\"FaintSmile\" target=\"actor\" targetSpec=\"\"}}{{fun_0006007D arg=\"0x00CD\"}}なら{{delay8}}\nその{{ruby charSpan=\"1\" value=\"ふく\"}}服と　{{ruby charSpan=\"3\" value=\"ふんいき\"}}雰囲気が{{ruby charSpan=\"1\" value=\"あ\"}}合うと　{{ruby charSpan=\"1\" value=\"おも\"}}思うの！{{delay20}}\n{{anim id=\"Hello\" target=\"actor\" targetSpec=\"\"}}アタシから　アナタに　プレゼントさせて！"
  },
  {
    "label": "104",
    "attribute": "0x0000000000000000",
    "text": "{{anim id=\"BigSmile\" target=\"actor\" targetSpec=\"\"}}そうだわ！{{delay20}}\n{{fun_0006007D arg=\"0x00CD\"}}を{{delay8}}\n{{anim id=\"Hello\" target=\"actor\" targetSpec=\"\"}}プレゼントするから　{{ruby charSpan=\"1\" value=\"あ\"}}合わせてみない？{{pageBreak}}{{anim id=\"FaintSmile\" target=\"actor\" targetSpec=\"\"}}{{ruby charSpan=\"1\" value=\"ふく\"}}服が　{{ruby charSpan=\"2\" value=\"きわだ\"}}際立つ　{{ruby charSpan=\"2\" value=\"こもの\"}}小物{{ruby charSpan=\"1\" value=\"づか\"}}使いで{{delay8}}\nさらに　パーフェクトな{{ruby charSpan=\"1\" value=\"よそお\"}}装いに{{delay8}}\n{{anim id=\"Greeting\" target=\"actor\" targetSpec=\"\"}}レベルアップよ！"
  }
]