﻿[
  {
    "label": "001",
    "attribute": "0x0000000000000000",
    "text": "{{anim id=\"Silent\" target=\"actor\" targetSpec=\"\"}}Qué bonito es esto,{{delay20}} y qué rápido\nse consume y se apaga como si nada."
  },
  {
    "label": "002",
    "attribute": "0x0000000000000000",
    "text": "{{anim id=\"Serious\" target=\"actor\" targetSpec=\"\"}}No me gusta mucho el olor a pólvora\nque tiene esto{{string value=\"...\"}}{{delay8}} pero se lo perdono\nporque es demasiado bonito."
  },
  {
    "label": "003",
    "attribute": "0x0000000000000000",
    "text": "{{anim id=\"Worried\" target=\"actor\" targetSpec=\"\"}}Creo que se me ha metido un poco\nde humo en los ojos, pero es que\neste coso me hipnotiza{{string value=\"...\"}}"
  }
]