﻿[
  {
    "label": "001",
    "attribute": "0x0000000000000000",
    "text": "{{fun_0014003C arg=\"\"}}"
  },
  {
    "label": "001_01",
    "attribute": "0x0000000000000000",
    "text": "{{anim id=\"Greeting\" target=\"actor\" targetSpec=\"\"}}Ehi, chi c'è qui? {{delay20}}Non credo di averti\nmai vist{{gender2 m=\"o\" f=\"a\"}} prima.{{delay frames=\"40\"}} {{anim id=\"Smiling\" target=\"actor\" targetSpec=\"\"}}Io sono {{string value=\"VillagerName\"}}.{{pageBreak}}{{delay20}}E tu chi saresti, {{string value=\"Catchphrase\"}}?{{pageBreak}}{{anim id=\"Nodding\" target=\"player\" targetSpec=\"\"}}{{delay frames=\"40\"}}{{anim id=\"Nodding\" target=\"actor\" targetSpec=\"\"}}Ah, {{string value=\"NickName\"}}? {{delay20}}E di dove sei?{{i10_4}} {{anim id=\"Nodding\" target=\"player\" targetSpec=\"\"}}{{delay frames=\"40\"}}{{anim id=\"FaintSmile\" target=\"actor\" targetSpec=\"\"}}Di {{string value=\"IslandName\"}}? Niente male, quel posto. {{pageBreak}}{{delay20}}Anche tu sei qui per rilassarti?\n{{anim id=\"Explain\" target=\"actor\" targetSpec=\"\"}}Quest'isola è più che decente. {{delay20}}Ci si\npuò rilassare nel bel mezzo del nulla.{{pageBreak}}{{anim id=\"Grin\" target=\"actor\" targetSpec=\"\"}}Vedrai che tranquillità, qui{{string value=\"...\"}} Anche\ntroppa, ma va beh.{{delay frames=\"40\"}} {{anim id=\"Hello\" target=\"actor\" targetSpec=\"\"}}Divertiti!"
  },
  {
    "label": "001_02",
    "attribute": "0x0000000000000000",
    "text": "{{anim id=\"Smiling\" target=\"actor\" targetSpec=\"\"}}Oh! {{delay20}}Ciao! {{delay20}}Ci conosciamo già?{{delay frames=\"40\"}} {{anim id=\"Greeting\" target=\"actor\" targetSpec=\"\"}}Io sono {{string value=\"VillagerName\"}}.{{pageBreak}}{{anim id=\"Explain\" target=\"actor\" targetSpec=\"\"}}Ammetto che {{delay20}}non avevo idea di dove\nmi avrebbe portato questo viaggio.{{delay frames=\"40\"}}\n{{anim id=\"ShyBoy\" target=\"actor\" targetSpec=\"\"}}In ogni caso, cambiare fa bene, no?{{pageBreak}}{{anim id=\"Grin\" target=\"actor\" targetSpec=\"\"}}Alla fine questo posto è tranquillo.\n{{delay20}}Mi posso concentrare su di me{{delay20}}, ciò\ndi cui avevo bisogno, {{string value=\"Catchphrase\"}}.{{pageBreak}}{{anim id=\"Nodding\" target=\"actor\" targetSpec=\"\"}}Bene, ora basta con le chiacchiere.\n{{delay20}}Mi raccomando, {{delay20}}fai come me e goditi\nil bel paesaggio che hai intorno."
  },
  {
    "label": "001_03",
    "attribute": "0x0000000000000000",
    "text": "Ehi, ma tu sei{{string value=\"...\"}}{{anim id=\"Thinking\" target=\"actor\" targetSpec=\"\"}} aspetta. Forse io e\nte non ci conosciamo... {{delay frames=\"40\"}}{{anim id=\"Hello\" target=\"actor\" targetSpec=\"\"}}Io sono {{string value=\"VillagerName\"}}, {{string value=\"Catchphrase\"}}!{{pageBreak}}{{anim id=\"OhGeez\" target=\"actor\" targetSpec=\"\"}}Sono l'unica che si immaginava\nquesto viaggio come qualcosa di\n{{delay20}}più {{delay20}}avventuroso?{{pageBreak}}{{anim id=\"Serious\" target=\"actor\" targetSpec=\"\"}}Quest'isola è mooolto tranquilla.{{delay20}} È\nanche vero che potrei sempre fare\nuna grande festa al mio rientro.{{pageBreak}}Insomma{{delay20}} {{anim id=\"Grin\" target=\"actor\" targetSpec=\"\"}}per ora sto qui calma a\nriposare.{{delay20}} Ogni tanto bisogna pure\nricaricare le batterie."
  },
  {
    "label": "004",
    "attribute": "0x0000020000000000",
    "text": "{{anim id=\"Thinking\" target=\"actor\" targetSpec=\"\"}}Questo posto non è malvagio, ma{{string value=\"...\"}}\nè come se sentissi il bisogno di\n\"scuoterlo\" un po', {{string value=\"Catchphrase\"}}.{{anim id=\"EmotEnd\" target=\"actor\" targetSpec=\"\"}}{{pageBreak}}{{anim id=\"WrySmile\" target=\"actor\" targetSpec=\"\"}}Vivere su un'isola quasi deserta\ndopotutto non è la mia massima\naspirazione{{string value=\"...\"}} {{anim id=\"IdeaBulb\" target=\"actor\" targetSpec=\"\"}}{{delay20}}Forse devo andar via!"
  },
  {
    "label": "004_a",
    "attribute": "0x0000000000000000",
    "text": "{{anim id=\"EmotEnd\" target=\"player\" targetSpec=\"\"}}Vieni sulla mia isola!"
  },
  {
    "label": "004_b",
    "attribute": "0x0000000000000000",
    "text": "{{anim id=\"EmotEnd\" target=\"actor\" targetSpec=\"\"}}Beh, in bocca al lupo!"
  },
  {
    "label": "005",
    "attribute": "0x0000000000000000",
    "text": "{{anim id=\"Serious\" target=\"actor\" targetSpec=\"\"}}Allora anche tu pensi che sia meglio\nandarsene da qui? {{delay20}}È dura decidere.{{delay20}}{{pageBreak}}Ma almeno non sono l'unica a\npensare {{anim id=\"Sighing\" target=\"actor\" targetSpec=\"\"}}che sia arrivata l'ora di\ntrasferirsi in un altro posto{{string value=\"...\"}}\n{{anim id=\"FaintSmile\" target=\"actor\" targetSpec=\"\"}}Beh, che dire? Grazie."
  },
  {
    "label": "007",
    "attribute": "0x0000010000000000",
    "text": "{{anim id=\"Smiling\" target=\"actor\" targetSpec=\"\"}}Senza mezzi termini, eh? {{delay20}}Sei sicur{{gender2 m=\"o\" f=\"a\"}}\ndi volere intorno una come me?{{delay frames=\"40\"}} {{anim id=\"QuestionMark\" target=\"actor\" targetSpec=\"\"}}E a\nproposito, quale sarebbe l'isola?{{pageBreak}}{{anim id=\"Nodding\" target=\"actor\" targetSpec=\"\"}}Oh, {{string value=\"IslandName\"}}! {{delay20}}Credo di averne già sentito parlare. {{delay20}}Se non sbaglio, organizzate belle feste lì.{{pageBreak}}{{anim id=\"Grin\" target=\"actor\" targetSpec=\"\"}}Sai, {{delay20}}credo che andar via sia\nl'unico modo per poter abbandonare\nla monotonia della mia vita attuale.{{pageBreak}}{{anim id=\"ShyBoy\" target=\"actor\" targetSpec=\"\"}}E avrò il vantaggio che tu mi\npresenterai a tutti in giro e mi\nporterai agli eventi più in dell'isola!"
  },
  {
    "label": "007_a",
    "attribute": "0x0000000000000000",
    "text": "Sì, puoi contarci!"
  },
  {
    "label": "007_b",
    "attribute": "0x0000000000000000",
    "text": "{{anim id=\"HappyFlower\" target=\"actor\" targetSpec=\"\"}}Vedrai quante feste!"
  },
  {
    "label": "008",
    "attribute": "0x0000000000000000",
    "text": "{{anim id=\"Laughing\" target=\"actor\" targetSpec=\"\"}}Ah ah ah! {{delay20}}E va bene! Mi hai convinta!{{pageBreak}}{{anim id=\"Smiling\" target=\"actor\" targetSpec=\"\"}}Incredibile! {{delay20}}Non mi aspettavo affatto\ndi prendere una decisione così in\nfretta, {{delay20}}ma doveva essere destino!{{pageBreak}}{{anim id=\"Thinking\" target=\"actor\" targetSpec=\"\"}}Immagino che ci siano dei documenti\nda compilare{{string value=\"...\"}}{{delay20}} A chi devo chiedere?{{pageBreak}}{{anim id=\"FaintSmile\" target=\"actor\" targetSpec=\"\"}}{{color id=\"3\"}}Tom Nook{{color id=\"65535\"}}, eh? {{delay20}}D'accordo, mi faccio\ndare da lui tutte le informazioni.{{delay frames=\"40\"}} {{anim id=\"BigSmile\" target=\"actor\" targetSpec=\"\"}}Sarò\nlì a breve, {{delay8}}{{string value=\"Catchphrase\"}}!"
  },
  {
    "label": "009",
    "attribute": "0x0000000000000000",
    "text": "{{fun_0014003C arg=\"\"}}"
  },
  {
    "label": "009_01",
    "attribute": "0x0000000000000000",
    "text": "{{anim id=\"Nodding\" target=\"actor\" targetSpec=\"\"}}Qui c'è qualsiasi cosa possa servire,{{delay20}}\nanche se non so a cosa possa\nservire, {{string value=\"Catchphrase\"}}.{{pageBreak}}{{anim id=\"Grin\" target=\"actor\" targetSpec=\"\"}}Ma non ho tempo da perdere. {{delay20}}Ora\nraccoglierò tutto quello che riesco\n{{delay20}}e dopo penserò a cosa farmene."
  },
  {
    "label": "009_02",
    "attribute": "0x0000000000000000",
    "text": "{{anim id=\"Thinking\" target=\"actor\" targetSpec=\"\"}}Il terreno qui è abbastanza livellato.\n{{delay20}}Mi chiedo come si sia formata l'isola,{{delay frames=\"40\"}}\nse non con la solita storia della lava."
  },
  {
    "label": "009_03",
    "attribute": "0x0000000000000000",
    "text": "{{anim id=\"Explain\" target=\"actor\" targetSpec=\"\"}}Ascolta cosa mi è successo. {{delay20}}Prendo\nl'aereo per venire qui, {{delay20}}mi metto\ncomoda, {{delay20}}decolliamo e{{string value=\"...\"}}{{anim id=\"Serious\" target=\"actor\" targetSpec=\"\"}} panico!{{pageBreak}}{{anim id=\"OhGeez\" target=\"actor\" targetSpec=\"\"}}In pratica ho lasciato a casa tutto ciò che mi serve durante il viaggio, {{string value=\"Catchphrase\"}}.{{delay frames=\"40\"}} {{anim id=\"Eh\" target=\"actor\" targetSpec=\"\"}}Ma non importa{{string value=\"...\"}}{{pageBreak}}{{anim id=\"Nodding\" target=\"actor\" targetSpec=\"\"}}Ho chiesto a quel {{color id=\"3\"}}Dodoardo {{color id=\"65535\"}}se aveva\nqualche strumento da prestarmi,{{delay frames=\"40\"}}\n{{anim id=\"BigSmile\" target=\"actor\" targetSpec=\"\"}}e mi ha mostrato un'intera bottega!{{pageBreak}}{{anim id=\"Blushing\" target=\"actor\" targetSpec=\"\"}}Che sia di lezione anche a te!{{delay20}} Se ti\ncapita di essere {{gender2 m=\"smemorato\" f=\"smemorata\"}} come\nme, {{delay20}}puoi chiedere aiuto a {{color id=\"3\"}}Dodoardo{{color id=\"65535\"}}!"
  },
  {
    "label": "010",
    "attribute": "0x0000000000000000",
    "text": "{{fun_0014003C arg=\"\"}}"
  },
  {
    "label": "010_01",
    "attribute": "0x0000000000000000",
    "text": "{{anim id=\"Hesitate\" target=\"actor\" targetSpec=\"\"}}Credi che sia strano che io mi affretti\nper tornare a casa e iniziare a\npreparare le valigie?{{pageBreak}}{{anim id=\"Blushing\" target=\"actor\" targetSpec=\"\"}}Potrebbe essere strano, sì. {{delay20}}In fondo,\na chi piace fare le valigie?{{delay frames=\"40\"}}{{pageBreak}}{{anim id=\"BigSmile\" target=\"actor\" targetSpec=\"\"}}Il fatto è che non vedo l'ora\ndi poter andare a vivere {{fun_000F0032 arg=\"\"}} {{string value=\"IslandName\"}}!"
  },
  {
    "label": "010_02",
    "attribute": "0x0000000000000000",
    "text": "{{anim id=\"AbsentMindedness\" target=\"actor\" targetSpec=\"\"}}Che giornata! {{delay20}}Sono venuta qui per\ndivertirmi un po' su questa pacifica\ne remota isola, {{string value=\"Catchphrase\"}}{{string value=\"...\"}}{{anim id=\"EmotEnd\" target=\"actor\" targetSpec=\"\"}}{{pageBreak}}E ora mi sento pronta a togliere le\nradici e a metterle su un'altra isola.{{delay frames=\"40\"}}\n{{anim id=\"BigSmile\" target=\"actor\" targetSpec=\"\"}}Questa sì che è una vita avventurosa!"
  },
  {
    "label": "010_03",
    "attribute": "0x0000000000000000",
    "text": "{{anim id=\"Grin\" target=\"actor\" targetSpec=\"\"}}Più ci penso, {{delay20}}più sale il mio\nentusiasmo per il trasloco.{{pageBreak}}{{anim id=\"Smiling\" target=\"actor\" targetSpec=\"\"}}Se gli abitanti di {{string value=\"IslandName\"}} sono simpatici quanto te, {{delay20}}non sarà male, {{string value=\"Catchphrase\"}}!"
  }
]