﻿[
  {
    "label": "001",
    "attribute": "0x0000000000000000",
    "text": "{{fun_0014003C arg=\"\"}}"
  },
  {
    "label": "001_01",
    "attribute": "0x0000000000000000",
    "text": "{{anim id=\"Nodding\" target=\"actor\" targetSpec=\"\"}}Guardare i pesci di acqua dolce è{{string value=\"...\"}}\nrilassante.{{delay20}} {{anim id=\"FaintSmile\" target=\"actor\" targetSpec=\"\"}}Loro sì che sanno come\nfarsi trascinare dalla corrente.\n{{anim id=\"AbsentMindedness\" target=\"actor\" targetSpec=\"\"}}Mi ricordano le barchette di carta\nche facevamo da piccoli.\n{{anim id=\"Laughing\" target=\"actor\" targetSpec=\"\"}}{{delay8}}O me sul materassino gonfiabile!"
  },
  {
    "label": "001_02",
    "attribute": "0x0000000000000000",
    "text": "{{anim id=\"Explain\" target=\"actor\" targetSpec=\"\"}}L'acqua di fiume di solito è torbida\ne i pesci non si vedono bene.{{delay frames=\"40\"}}\n{{anim id=\"Nodding\" target=\"actor\" targetSpec=\"\"}}Questo problema qui non esiste!{{pageBreak}}{{anim id=\"Thinking\" target=\"actor\" targetSpec=\"\"}}Guarda che colori, che forme!{{delay frames=\"40\"}}\n{{anim id=\"Thinking\" target=\"actor\" targetSpec=\"\"}}Chissà quali altre meraviglie non\nsiamo in grado di vedere."
  },
  {
    "label": "001_03",
    "attribute": "0x0000000000000000",
    "text": "{{anim id=\"Eh\" target=\"actor\" targetSpec=\"\"}}Questo {{color id=\"1\"}}museo {{color id=\"65535\"}}non è male!{{delay20}} {{anim id=\"Hello\" target=\"actor\" targetSpec=\"\"}}In tutta {{string value=\"33\"}}, solo qui puoi trovare tutti questi pesci insieme!{{pageBreak}}{{anim id=\"Greeting\" target=\"actor\" targetSpec=\"\"}}È senz'altro uno dei miei posti\npreferiti dell'isola{{string value=\"...\"}} {{delay8}}Casa mia\na parte, {{string value=\"6\"}}!"
  },
  {
    "label": "002",
    "attribute": "0x0000000000000000",
    "text": "{{fun_0014003C arg=\"\"}}"
  },
  {
    "label": "002_01",
    "attribute": "0x0000000000000000",
    "text": "{{anim id=\"Explain\" target=\"actor\" targetSpec=\"\"}}Questo silenzio, queste luci soffuse{{string value=\"...\"}}{{delay8}}\n{{anim id=\"Sleepy\" target=\"actor\" targetSpec=\"\"}}Potrebbe essere il posto ideale per\nun pisolino rigenerante.\n{{anim id=\"AbsentMindedness\" target=\"actor\" targetSpec=\"\"}}Ma se passa il custode e mi sente\nrussare{{string value=\"...\"}}{{anim id=\"Laughing\" target=\"actor\" targetSpec=\"\"}} penserà che lo squalo\nsega stia tentando di fuggire!"
  },
  {
    "label": "002_02",
    "attribute": "0x0000000000000000",
    "text": "{{anim id=\"Love\" target=\"actor\" targetSpec=\"\"}}Nell'oceano ci sono molte creature\ndavvero incredibili, {{string value=\"6\"}}!{{pageBreak}}{{anim id=\"AbsentMindedness\" target=\"actor\" targetSpec=\"\"}}A volte vivere su un'isola mi\nfa sentire come se fossi su una\ngrande nave che esplora i mari."
  },
  {
    "label": "002_03",
    "attribute": "0x0000000000000000",
    "text": "{{anim id=\"Nodding\" target=\"actor\" targetSpec=\"\"}}Stare seduta qui a osservare i pesci\nmi rilassa tantissimo. {{delay20}}{{anim id=\"FaintSmile\" target=\"actor\" targetSpec=\"\"}}Potrei restare\nqui tutto il giorno, {{string value=\"Catchphrase\"}}."
  },
  {
    "label": "003",
    "attribute": "0x0000000000000000",
    "text": "{{fun_0014003C arg=\"\"}}"
  },
  {
    "label": "003_01",
    "attribute": "0x0000000000000000",
    "text": "{{anim id=\"FaintSmile\" target=\"actor\" targetSpec=\"\"}}Il tempo sembra scorrere più lento,\n{{delay8}}quando sono qui.{{pageBreak}}{{anim id=\"Nodding\" target=\"actor\" targetSpec=\"\"}}Queste enormi creature marine fanno\nsembrare le mie preoccupazioni{{string value=\"...\"}}{{delay8}}\n{{anim id=\"ShyBoy\" target=\"actor\" targetSpec=\"\"}}minuscole, {{string value=\"6\"}}."
  },
  {
    "label": "003_02",
    "attribute": "0x0000000000000000",
    "text": "{{anim id=\"Worried\" target=\"actor\" targetSpec=\"\"}}Che creature enormi{{string value=\"...\"}}{{delay8}} Se ne vedessi\nuna nuotarmi accanto, {{delay8}}{{anim id=\"Frantic\" target=\"actor\" targetSpec=\"\"}}temo che con\nogni probabilità cadrei nel panico!\n{{anim id=\"Thinking\" target=\"actor\" targetSpec=\"\"}}Però quegli occhioni pacifici{{string value=\"...\"}}\n{{anim id=\"ShyBoy\" target=\"actor\" targetSpec=\"\"}}mi fanno venire voglia di nuotare\ncon loro lo stesso!"
  },
  {
    "label": "003_03",
    "attribute": "0x0000000000000000",
    "text": "{{anim id=\"Aha\" target=\"actor\" targetSpec=\"\"}}Se ci pensi, queste creature vivono\na pochi metri dalla spiaggia!{{delay frames=\"40\"}} {{anim id=\"Nodding\" target=\"actor\" targetSpec=\"\"}}Sono\nquindi abitanti di {{string value=\"33\"}}!{{pageBreak}}{{anim id=\"Thinking\" target=\"actor\" targetSpec=\"\"}}Chissà se hanno anche loro una\ncomunità subacquea, con un museo\nsimile a questo..."
  },
  {
    "label": "100",
    "attribute": "0x0000000000000000",
    "text": "{{fun_0014003C arg=\"\"}}"
  },
  {
    "label": "100_01",
    "attribute": "0x0000000000000000",
    "text": "{{anim id=\"SmugFace\" target=\"actor\" targetSpec=\"\"}}Questo {{color id=\"1\"}}museo{{color id=\"65535\"}} è motivo di orgoglio\nper l'isola.{{delay frames=\"40\"}} {{anim id=\"Nodding\" target=\"actor\" targetSpec=\"\"}}Se non esistesse, lo\ninventerei io, {{string value=\"6\"}}!"
  },
  {
    "label": "100_02",
    "attribute": "0x0000000000000000",
    "text": "{{anim id=\"Eh\" target=\"actor\" targetSpec=\"\"}}Sei venut{{gender8 m=\"o\" f=\"a\" n=\"\"}} fin qui da {{string value=\"IslandName\"}} per vedere\nil nostro {{color id=\"1\"}}museo{{color id=\"65535\"}}? {{delay20}}{{anim id=\"SmugFace\" target=\"actor\" targetSpec=\"\"}}Ottima scelta!"
  },
  {
    "label": "100_03",
    "attribute": "0x0000000000000000",
    "text": "{{anim id=\"QuestionMark\" target=\"actor\" targetSpec=\"\"}}Non riesci a staccare gli occhi da\nquesti pesci? {{delay8}}E allora perché non ti\ntrasferisci qui? {{anim id=\"Laughing\" target=\"actor\" targetSpec=\"\"}}{{delay20}}Ah ah ah! {{delay20}}Scheeerzo!"
  },
  {
    "label": "200",
    "attribute": "0x0000000000000000",
    "text": "{{fun_0014003C arg=\"\"}}"
  },
  {
    "label": "200_01",
    "attribute": "0x0000000000000000",
    "text": "{{anim id=\"Clapping\" target=\"actor\" targetSpec=\"\"}}È ottimo che ci sia un {{color id=\"1\"}}museo\n{{color id=\"65535\"}}sull'isola! {{delay8}}Ed è pure comodo\nper me, {{string value=\"6\"}}.\n{{anim id=\"Thinking\" target=\"actor\" targetSpec=\"\"}}Ho un sacco di cose che posso\ndonare:{{delay20}} cianfrusaglie varie,{{delay8}} scarpe\nrotte, {{delay8}}vecchi dischi{{string value=\"...\"}}\n{{anim id=\"SmugFace\" target=\"actor\" targetSpec=\"\"}}Non c'è niente di meglio per fare\nun po' di pulizia in casa!"
  },
  {
    "label": "200_02",
    "attribute": "0x0000000000000000",
    "text": "{{anim id=\"HappyDance\" target=\"actor\" targetSpec=\"\"}}Sentire che su quest'isola ha aperto\nun {{color id=\"1\"}}museo{{color id=\"65535\"}}, {{delay8}}mi ha dato una carica che\nnon ti dico, {{string value=\"6\"}}!{{pageBreak}}{{anim id=\"AbsentMindedness\" target=\"actor\" targetSpec=\"\"}}Ho intenzione di visitarlo{{delay8}} ogni{{delay8}}\ngiorno{{delay20}} e di presentarmi a tutti i loro\npesciotti!{{delay20}} {{anim id=\"Scheming\" target=\"actor\" targetSpec=\"\"}}{{size value=\"75\"}}Devono capire chi comanda qui{{string value=\"...\"}}{{size value=\"100\"}}"
  },
  {
    "label": "200_03",
    "attribute": "0x0000000000000000",
    "text": "{{anim id=\"BigSmile\" target=\"actor\" targetSpec=\"\"}}Uau! {{delay20}}Non riesco a credere che\nquest'isola abbia aperto un {{color id=\"1\"}}museo\n{{color id=\"65535\"}}tutto suo, {{string value=\"6\"}}!\n{{anim id=\"EmotEnd\" target=\"actor\" targetSpec=\"\"}}Chissà se cercano qualcuno da\nassumere{{string value=\"...\"}}{{pageBreak}}{{anim id=\"Smiling\" target=\"actor\" targetSpec=\"\"}}Beh, {{delay8}}potrei comunque autoeleggermi\ncapa del comitato d'accoglienza dei\npesci!"
  }
]