﻿[
  {
    "label": "001",
    "attribute": "0x0000000000000000",
    "text": "{{anim id=\"FaintSmile\" target=\"actor\" targetSpec=\"\"}}꼼꼼히 정성 들여 만들어줘서{{delay8}}\n고맙다, {{fun_00060096 arg=\"\"}}!{{delay frames=\"40\"}}\n{{anim id=\"BigSmile\" target=\"actor\" targetSpec=\"\"}}정말 만족스럽군!"
  },
  {
    "label": "002",
    "attribute": "0x0000010000000000",
    "text": "{{anim id=\"Nodding\" target=\"actor\" targetSpec=\"\"}}이렇게 멋진 별장이 완성됐는데{{delay8}}\n{{anim id=\"Explain\" target=\"actor\" targetSpec=\"\"}}언제든지 다시 꺼내서 볼 수 있게{{delay20}}\n{{anim id=\"Greeting\" target=\"actor\" targetSpec=\"\"}}사진이라도 찍어 두면 어떻겠냐? {{string value=\"6\"}}!"
  },
  {
    "label": "002_a",
    "attribute": "0x0000000000000000",
    "text": "{{anim id=\"Nodding\" target=\"actor\" targetSpec=\"\"}}오케이!"
  },
  {
    "label": "002_b",
    "attribute": "0x0000000000000000",
    "text": "{{anim id=\"Nodding\" target=\"actor\" targetSpec=\"\"}}좋아!"
  },
  {
    "label": "003",
    "attribute": "0x0000000000000000",
    "text": "{{anim id=\"Grin\" target=\"actor\" targetSpec=\"\"}}헤헷, {{delay20}}광고에 나오는 것처럼 부탁한다～!{{delay frames=\"40\"}}\n{{anim id=\"FaintSmile\" target=\"actor\" targetSpec=\"\"}}사진은 {{delay20}}스마트폰의 {{color id=\"1\"}}카메라{{color id=\"65535\"}} 앱으로{{delay8}}\n찍으면 돼! {{string value=\"6\"}}!"
  },
  {
    "label": "004",
    "attribute": "0x0000000000000000",
    "text": "{{anim id=\"SmugFace\" target=\"actor\" targetSpec=\"\"}}그래, {{delay20}}얼마든지 써라!{{delay frames=\"50\"}}\n{{anim id=\"EmotEnd\" target=\"actor\" targetSpec=\"\"}}내 별장 사진이 {{anim id=\"EmotEnd\" target=\"actor\" targetSpec=\"\"}}홍보용 사진이 된다니{{delay20}}\n{{anim id=\"Laughing\" target=\"actor\" targetSpec=\"\"}}살다 보니 이런 날도 오는구만, {{string value=\"6\"}}!"
  },
  {
    "label": "005",
    "attribute": "0x0000000000000000",
    "text": "{{anim id=\"Greeting\" target=\"actor\" targetSpec=\"\"}}그럼 {{delay20}}잘 찍어줘!{{delay frames=\"40\"}}\n{{anim id=\"Nodding\" target=\"actor\" targetSpec=\"\"}}마음에 드는 사진이 나오면{{delay20}}\n{{anim id=\"FaintSmile\" target=\"actor\" targetSpec=\"\"}}나한테 말해달라고! {{string value=\"6\"}}!"
  },
  {
    "label": "011",
    "attribute": "0x0000000000000000",
    "text": "{{fun_0014003C arg=\"\"}}"
  },
  {
    "label": "011_01",
    "attribute": "0x0000000000000000",
    "text": "{{anim id=\"Explain\" target=\"actor\" targetSpec=\"\"}}사진은{{delay8}} 스마트폰의 {{color id=\"1\"}}카메라{{color id=\"65535\"}} 앱으로 찍으면 돼{{delay frames=\"40\"}}\n{{anim id=\"Smiling\" target=\"actor\" targetSpec=\"\"}}{{anim id=\"Smiling\" target=\"actor\" targetSpec=\"\"}}여러 가지 특수 효과도 있으니까{{delay20}}\n써보는 것도 괜찮을 거다, {{string value=\"6\"}}"
  },
  {
    "label": "011_02",
    "attribute": "0x0000000000000000",
    "text": "{{anim id=\"SmugFace\" target=\"actor\" targetSpec=\"\"}}드디어 손에 넣었다!{{delay frames=\"50\"}}\n꿈에 그리던 휴양지의 별장 생활{{string value=\"...\"}}{{delay frames=\"50\"}}\n{{anim id=\"Love\" target=\"actor\" targetSpec=\"\"}}하아～ {{delay20}}최고야～! {{string value=\"6\"}}!"
  },
  {
    "label": "012",
    "attribute": "0x0000020000000000",
    "text": "무슨 일이냐?{{delay frames=\"50\"}}\n{{anim id=\"Hello\" target=\"actor\" targetSpec=\"\"}}괜찮은 사진이라도 나왔어? {{string value=\"6\"}}?"
  },
  {
    "label": "012_a",
    "attribute": "0x0000000000000000",
    "text": "{{anim id=\"Nodding\" target=\"actor\" targetSpec=\"\"}}잘 찍혔어!"
  },
  {
    "label": "012_b",
    "attribute": "0x0000000000000000",
    "text": "조금만 더 기다려"
  },
  {
    "label": "013",
    "attribute": "0x0000000000000000",
    "text": "{{anim id=\"BigSmile\" target=\"actor\" targetSpec=\"\"}}오, {{delay20}}잘 찍었는데!{{delay frames=\"40\"}}\n{{anim id=\"Nodding\" target=\"actor\" targetSpec=\"\"}}이 별장의 장점이 한눈에 딱 들어오는 게{{delay20}}\n{{anim id=\"FaintSmile\" target=\"actor\" targetSpec=\"\"}}더할 나위 없는 한 장이군!"
  },
  {
    "label": "014",
    "attribute": "0x0000000000000000",
    "text": "이번엔 이래저래 신세 많이 졌다{{delay frames=\"40\"}}\n{{anim id=\"Smiling\" target=\"actor\" targetSpec=\"\"}}널 만나서 정말 다행이야!{{delay frames=\"40\"}}\n{{anim id=\"BigSmile\" target=\"actor\" targetSpec=\"\"}}앞으로도 오래오래 잘 부탁한다! {{string value=\"6\"}}!{{delay8}}{{anim id=\"FaintSmile\" target=\"actor\" targetSpec=\"\"}}"
  },
  {
    "label": "015",
    "attribute": "0x0000000000000000",
    "text": "그래, {{delay20}}난 신경 쓸 거 없다{{delay frames=\"40\"}}\n{{anim id=\"Explain\" target=\"actor\" targetSpec=\"\"}}네가 만족할 만한 사진이 나올 때까지{{delay20}}\n{{anim id=\"Laughing\" target=\"actor\" targetSpec=\"\"}}얼마든지 기다려주마! {{string value=\"6\"}}!{{anim id=\"FaintSmile\" target=\"actor\" targetSpec=\"\"}}"
  },
  {
    "label": "021",
    "attribute": "0x0000000000000000",
    "text": "{{anim id=\"Smiling\" target=\"actor\" targetSpec=\"\"}}오, {{delay20}}드디어 완성했냐!{{delay frames=\"40\"}}\n그럼 {{delay20}}바로 감상해볼까!"
  },
  {
    "label": "022",
    "attribute": "0x0000000000000000",
    "text": "{{anim id=\"QuestionMark\" target=\"actor\" targetSpec=\"\"}}방금 그건 가구 손질 이야기냐?{{delay frames=\"60\"}}\n{{anim id=\"Nodding\" target=\"actor\" targetSpec=\"\"}}그런 서비스까지 해주다니{{delay frames=\"40\"}}\n{{anim id=\"BigSmile\" target=\"actor\" targetSpec=\"\"}}이거야 원, 더 바랄 게 없구만! {{string value=\"6\"}}!{{delay8}}{{anim id=\"FaintSmile\" target=\"actor\" targetSpec=\"\"}}"
  },
  {
    "label": "031",
    "attribute": "0x0000000000000000",
    "text": "{{anim id=\"Thinking\" target=\"actor\" targetSpec=\"\"}}흐음, {{delay20}}장소 희망이라{{string value=\"...\"}}{{delay frames=\"40\"}}\n{{anim id=\"Negative\" target=\"actor\" targetSpec=\"\"}}딱히 원하는 조건도 없는데{{delay20}}\n{{anim id=\"ShyBoy\" target=\"actor\" targetSpec=\"\"}}적당히 골라줄 수 있겠냐? {{string value=\"6\"}}?"
  },
  {
    "label": "032",
    "attribute": "0x0000000000000000",
    "text": "{{anim id=\"Nodding\" target=\"actor\" targetSpec=\"\"}}호오, {{delay20}}나쁘지 않군{{delay frames=\"40\"}}\n{{anim id=\"FaintSmile\" target=\"actor\" targetSpec=\"\"}}직접 볼 가치는 있겠어, {{string value=\"6\"}}"
  },
  {
    "label": "041",
    "attribute": "0x0000000000000000",
    "text": "{{anim id=\"Aha\" target=\"actor\" targetSpec=\"\"}}오오오～ {{delay20}}엄청 좋잖아!{{delay frames=\"40\"}}\n{{anim id=\"Nodding\" target=\"actor\" targetSpec=\"\"}}생각했던 것보다도 훨씬 더 좋아{{delay frames=\"40\"}}\n{{anim id=\"Laughing\" target=\"actor\" targetSpec=\"\"}}역시{{delay8}} 실물을 봐야 한다니까! {{string value=\"6\"}}!"
  },
  {
    "label": "051",
    "attribute": "0x0000000000000000",
    "text": "{{anim id=\"QuestionMark\" target=\"actor\" targetSpec=\"\"}}이 벽 같은 건 또 뭐냐?{{delay frames=\"40\"}}\n{{anim id=\"EmotEnd\" target=\"actor\" targetSpec=\"\"}}방이 두 개로 쪼개진 게{{delay20}}\n{{anim id=\"Laughing\" target=\"actor\" targetSpec=\"\"}}뭔가 재미있구만, {{string value=\"6\"}}"
  },
  {
    "label": "052",
    "attribute": "0x0000000000000000",
    "text": "{{anim id=\"Eh\" target=\"actor\" targetSpec=\"\"}}호오～ {{delay20}}그런 방법도 있군{{delay frames=\"40\"}}\n{{anim id=\"Nodding\" target=\"actor\" targetSpec=\"\"}}방 인테리어하고 어울린다면{{delay20}}\n{{anim id=\"Smiling\" target=\"actor\" targetSpec=\"\"}}그렇게 해보는 것도 좋겠구만, {{string value=\"6\"}}!"
  },
  {
    "label": "061",
    "attribute": "0x0000000000000000",
    "text": "{{string value=\"...\"}}잠시 실례한다～ {{string value=\"6\"}}～"
  },
  {
    "label": "062",
    "attribute": "0x0000000000000000",
    "text": "{{anim id=\"Explain\" target=\"actor\" targetSpec=\"\"}}여기까지 왔으니까{{delay20}}\n눈 딱 감고 말하는 건데{{delay20}}\n난 말이다{{string value=\"...\"}} {{delay20}}{{anim id=\"Pardon\" target=\"actor\" targetSpec=\"\"}}{{color id=\"1\"}}별장을 셰어{{color id=\"65535\"}}하고 싶어{{pageBreak}}{{anim id=\"Nodding\" target=\"actor\" targetSpec=\"\"}}혼자 즐기는 바캉스도 좋지만{{delay20}}\n{{anim id=\"EmotEnd\" target=\"actor\" targetSpec=\"\"}}같이 놀 상대가 있으면{{delay8}} {{anim id=\"FaintSmile\" target=\"actor\" targetSpec=\"\"}}뭘 해도\n지금보다 신날 것 같거든"
  },
  {
    "label": "063",
    "attribute": "0x0000000000000000",
    "text": "{{anim id=\"Negative\" target=\"actor\" targetSpec=\"\"}}그런데 {{delay20}}상대를 어떻게 찾아야 할지\n전혀 모르겠지 뭐냐{{i10_4}}\n{{anim id=\"QuestionMark\" target=\"actor\" targetSpec=\"\"}}뭔가 좋은 방법 없을까?"
  },
  {
    "label": "064",
    "attribute": "0x0000000000000000",
    "text": "{{anim id=\"Eh\" target=\"actor\" targetSpec=\"\"}}대신 상대를 찾아주겠다고?{{delay frames=\"60\"}}\n{{anim id=\"BigSmile\" target=\"actor\" targetSpec=\"\"}}이거 참 {{delay20}}뭐라고 감사해야 하나～!{{delay frames=\"40\"}}\n{{anim id=\"Greeting\" target=\"actor\" targetSpec=\"\"}}상담하러 오길 정말 잘했군, {{string value=\"6\"}}!"
  },
  {
    "label": "070",
    "attribute": "0x0000000000000000",
    "text": "잠깐 실례한다～!{{delay frames=\"50\"}}\n{{anim id=\"Explain\" target=\"actor\" targetSpec=\"\"}}별장을 가지고 싶으면{{delay8}} 여기로 가라는\n얘기를 듣고 왔는데{{string value=\"...\"}}"
  },
  {
    "label": "071",
    "attribute": "0x0000000000000000",
    "text": "오,{{delay20}} 그거 잘됐군!{{delay frames=\"40\"}}\n{{anim id=\"Greeting\" target=\"actor\" targetSpec=\"\"}}그럼{{delay20}} 내 별장도 부탁해도 되냐?"
  },
  {
    "label": "072",
    "attribute": "0x0000000000000000",
    "text": "{{anim id=\"HappyDance\" target=\"actor\" targetSpec=\"\"}}드디어 나한테도 별장이 생기는군～{{delay frames=\"40\"}}\n헤헷,{{delay20}} 기대되는걸! {{string value=\"6\"}}!"
  }
]