﻿[
  {
    "label": "001",
    "attribute": "0x00000C0100000000",
    "text": "{{anim id=\"QuestionMark\" target=\"actor\" targetSpec=\"\"}}{{capitalizeNextLetter}}{{string value=\"NickName\"}}{{delay20}}, ben je ook hier voor {{selection value=\"SelectedVillager\"}}?{{setNpcTalkChoices chatOption=\"0\" cancelOption=\"1\"}}"
  },
  {
    "label": "002",
    "attribute": "0x00000C0100000000",
    "text": "{{anim id=\"Smiling\" target=\"actor\" targetSpec=\"\"}}Haha!{{delay40}} Sjeempie, {{delay40}}{{anim id=\"Greeting\" target=\"actor\" targetSpec=\"\"}}wist je soms dat ik\nook hier was?{{setNpcTalkChoices chatOption=\"0\" cancelOption=\"0\"}}"
  },
  {
    "label": "003",
    "attribute": "0x00000C0100000000",
    "text": "{{anim id=\"FaintSmile\" target=\"actor\" targetSpec=\"\"}}Ik ben ook, zeg maar, {{delay20}}hier voor\n{{selection value=\"SelectedVillager\"}}!{{setNpcTalkChoices chatOption=\"0\" cancelOption=\"1\"}}"
  }
]