﻿[
  {
    "label": "001",
    "attribute": "0x0200000100000009",
    "text": "{{anim id=\"Nodding\" target=\"actor\" targetSpec=\"\"}}Je me demandais quel sport choisir\npour débuter ma carrière pro{{string value=\"...\"}}"
  },
  {
    "label": "002",
    "attribute": "0x0000000000000000",
    "text": "{{fun_0001003C arg=\"0x030004000500\"}}"
  },
  {
    "label": "003",
    "attribute": "0x0000000000000000",
    "text": "{{anim id=\"ShyBoy\" target=\"actor\" targetSpec=\"\"}}Le foot devrait être un bon choix{{string value=\"...\"}}{{delay20}}\nJe m'y débrouillerais plutôt bien.{{pageBreak}}{{anim id=\"AbsentMindedness\" target=\"actor\" targetSpec=\"\"}}Je me vois déjà parcourir la moitié\ndu terrain d'une superbe foulée, et\nexpédier le ballon dans les filets !\n{{anim id=\"HappyFlower\" target=\"actor\" targetSpec=\"\"}}Et là, j'arracherais mon maillot pour\nfaire admirer mes muscles à la foule\nen délire qui envahirait la pelouse !"
  },
  {
    "label": "004",
    "attribute": "0x0000000000000000",
    "text": "{{anim id=\"ShyBoy\" target=\"actor\" targetSpec=\"\"}}Le tennis,{{delay8}} ce serait une bonne idée{{string value=\"...\"}}\nJe devrais m'en sortir pas mal,\n{{string value=\"6\"}}.{{pageBreak}}{{anim id=\"AbsentMindedness\" target=\"actor\" targetSpec=\"\"}}Je vois déjà le public qui m'applaudit\ndans les gradins,{{delay8}} au moment où je\nréussis un ace surpuissant !\n{{anim id=\"HappyFlower\" target=\"actor\" targetSpec=\"\"}}Jeu,{{delay8}} set{{delay8}} et match !{{delay20}} Et là,{{delay8}} j'arrache\nmon t-shirt pour faire admirer mes\nsuperbes abdos à la foule en délire !\n{{anim id=\"SmugFace\" target=\"actor\" targetSpec=\"\"}}Je recevrai des volées d'acclamations{{delay8}}\nsans subir aucun revers ni prendre\nde break{{string value=\"...\"}}{{delay8}} Y a que des avantages !"
  },
  {
    "label": "005",
    "attribute": "0x0000000000000000",
    "text": "{{anim id=\"ShyBoy\" target=\"actor\" targetSpec=\"\"}}Je crois que le basket m'irait bien{{string value=\"...\"}}\nJ'y serais sûrement pas mauvais.{{pageBreak}}{{anim id=\"AbsentMindedness\" target=\"actor\" targetSpec=\"\"}}Je me vois déjà expédier à la dernière\nseconde un tir à trois points décisif\npour remporter le championnat.\n{{anim id=\"HappyFlower\" target=\"actor\" targetSpec=\"\"}}Et là, j'arracherais mon maillot pour\nfaire admirer mes muscles à la foule\nen délire qui envahirait le parquet !"
  },
  {
    "label": "009",
    "attribute": "0x0000000100000009",
    "text": "{{fun_0001003C arg=\"0x0A000B000C00\"}}"
  },
  {
    "label": "010",
    "attribute": "0x0000000000000000",
    "text": "{{anim id=\"SmugFace\" target=\"actor\" targetSpec=\"\"}}Si on créait une ligne de vêtements\nde sport signée {{string value=\"VillagerName\"}},\nje suis sûr qu'elle ferait un carton.\n{{anim id=\"Explain\" target=\"actor\" targetSpec=\"\"}}Elle intégrerait les derniers progrès\nde la science, et tout. {{anim id=\"AbsentMindedness\" target=\"actor\" targetSpec=\"\"}}Imagine : des\nt-shirts illustrés de beaux muscles.\n{{anim id=\"Nodding\" target=\"actor\" targetSpec=\"\"}}N'importe qui pourrait alors exhiber\nun superbe physique athlétique rien\nqu'en enfilant un t-shirt !\n{{anim id=\"HappyDance\" target=\"actor\" targetSpec=\"\"}}Ce serait un véritable rêve, non ?\n{{capitalizeNextLetter}}{{string value=\"6\"}} !"
  },
  {
    "label": "011",
    "attribute": "0x0000000000000000",
    "text": "{{anim id=\"Explain\" target=\"actor\" targetSpec=\"\"}}Ça serait bien d'avoir des sortes de\nmarcels spécial mains pour mettre\nen valeur des doigts musclés.\n{{anim id=\"WrySmile\" target=\"actor\" targetSpec=\"\"}}Des genres de gants moulants,{{delay8}}\nquoi, {{string value=\"6\"}}{{string value=\"...\"}}{{pageBreak}}{{color id=\"4\"}}{{anim id=\"Thinking\" target=\"actor\" targetSpec=\"\"}}Attends{{string value=\"...\"}} Si les gens admirent mes\ndoigts musclés,{{delay8}} ils risquent de faire\nmoins attention à mes bras costauds.{{color id=\"65535\"}}\n{{anim id=\"Eh\" target=\"actor\" targetSpec=\"\"}}Ha, ha !{{delay20}} {{anim id=\"Confused\" target=\"actor\" targetSpec=\"\"}}Euh{{string value=\"...\"}}{{delay8}} désolé.{{delay20}} Oublie ce que\nj'ai dit,{{delay8}} en fait."
  },
  {
    "label": "012",
    "attribute": "0x0000000000000000",
    "text": "{{anim id=\"Thinking\" target=\"actor\" targetSpec=\"\"}}Je pensais à une chose{{string value=\"...\"}}{{delay20}} La natation\nest le sport où on exhibe le plus ses\nmuscles. Enfin{{string value=\"...\"}} pour certains.\n{{anim id=\"Nodding\" target=\"actor\" targetSpec=\"\"}}Parce que moi, pour nager, je porte\ntoujours des brassards de natation\net une bouée, {{string value=\"6\"}}.\n{{anim id=\"Oops\" target=\"actor\" targetSpec=\"\"}}Il devrait y avoir moyen d'en inventer\nqui laissent les muscles apparents,\nau lieu de les masquer{{string value=\"...\"}}"
  },
  {
    "label": "016",
    "attribute": "0x1100000100000009",
    "text": "{{anim id=\"Nodding\" target=\"actor\" targetSpec=\"\"}}Si tu veux savoir quelque chose en\nmatière de sports,{{delay20}} je suis un expert !"
  },
  {
    "label": "017",
    "attribute": "0x0000000000000000",
    "text": "{{fun_0002003C arg=\"0x1200130014001500\"}}"
  },
  {
    "label": "018",
    "attribute": "0x0000000000000000",
    "text": "{{anim id=\"FaintSmile\" target=\"actor\" targetSpec=\"\"}}Tiens, les sportifs en tenue d'escrime\nont toujours l'air impressionnant,\nhein ?\n{{anim id=\"Nodding\" target=\"actor\" targetSpec=\"\"}}C'est sans doute parce qu'avec le\nmasque et la cuirasse, ils nous font\npenser aux chevaliers du Moyen-Âge.\n{{anim id=\"Explain\" target=\"actor\" targetSpec=\"\"}}Mais en fait{{string value=\"...\"}} ça sent plutôt mauvais\ndans leur équipement.{{delay20}} Le Moyen-Âge\nest fini, allez laver votre matériel !"
  },
  {
    "label": "019",
    "attribute": "0x0000000000000000",
    "text": "{{anim id=\"Nodding\" target=\"actor\" targetSpec=\"\"}}Par exemple, la « nage libre » n'est\nen fait pas si libre que ça. J'ai pu en\njuger par moi-même, {{string value=\"Catchphrase\"}}{{string value=\"...\"}}\n{{anim id=\"Blushing\" target=\"actor\" targetSpec=\"\"}}J'étais dans la piscine olympique\navec mes brassards et ma bouée, et\ntous les nageurs m'ont hurlé dessus."
  },
  {
    "label": "020",
    "attribute": "0x0000000000000000",
    "text": "{{anim id=\"Explain\" target=\"actor\" targetSpec=\"\"}}Exemple : après une longue course,\non ressent un sentiment d'euphorie,\nc'est l'« ivresse du coureur ».\n{{anim id=\"Nodding\" target=\"actor\" targetSpec=\"\"}}Et de la même façon, si on enchaîne\n500 sauts à la perche, on ressent\nune « ivresse du perchiste »{{string value=\"...\"}}"
  },
  {
    "label": "021",
    "attribute": "0x0000000000000000",
    "text": "{{anim id=\"FaintSmile\" target=\"actor\" targetSpec=\"\"}}Mais je parie que tu préfères\ndécouvrir des trucs par toi-même\nplutôt que de te les faire raconter.\n{{anim id=\"BigSmile\" target=\"actor\" targetSpec=\"\"}}Pour ça, on est pareils, {{gender2 m=\"p'tit gars\" f=\"ma grande\"}} !"
  },
  {
    "label": "025",
    "attribute": "0x1B00000100000009",
    "text": "Hé,{{delay20}} {{anim id=\"QuestionMark\" target=\"actor\" targetSpec=\"\"}}tu sais ce qui est plus important\nque tout, dans un exercice de survie\nen pleine nature ?"
  },
  {
    "label": "027",
    "attribute": "0x0000000000000000",
    "text": "{{fun_0001003C arg=\"0x1F0020002100\"}}"
  },
  {
    "label": "031",
    "attribute": "0x2200000000000000",
    "text": "{{anim id=\"Serious\" target=\"actor\" targetSpec=\"\"}}C'est les pectoraux. {{delay frames=\"40\"}}{{anim id=\"Nodding\" target=\"actor\" targetSpec=\"\"}}Si tu veux\nt'en sortir, t'as intérêt à en avoir\ndes costauds !"
  },
  {
    "label": "032",
    "attribute": "0x2300000000000000",
    "text": "{{anim id=\"Serious\" target=\"actor\" targetSpec=\"\"}}C'est les biceps. {{delay frames=\"40\"}}{{anim id=\"Nodding\" target=\"actor\" targetSpec=\"\"}}Si tu veux t'en\nsortir, t'as intérêt à ce qu'ils soient\nbien entraînés !"
  },
  {
    "label": "033",
    "attribute": "0x2400000000000000",
    "text": "{{anim id=\"Serious\" target=\"actor\" targetSpec=\"\"}}C'est les jarrets. {{delay frames=\"40\"}}{{anim id=\"Nodding\" target=\"actor\" targetSpec=\"\"}}Si tu veux t'en\nsortir, t'as intérêt à en avoir des\nsolides !"
  },
  {
    "label": "034",
    "attribute": "0x0000000000000000",
    "text": "{{anim id=\"Smiling\" target=\"actor\" targetSpec=\"\"}}On dit que les muscles bien endurcis\nrecèlent une force intérieure.{{delay20}} {{anim id=\"Hello\" target=\"actor\" targetSpec=\"\"}}Tu as\ndéjà entendu ça, je suppose ?\n{{anim id=\"Serious\" target=\"actor\" targetSpec=\"\"}}Un cœur à l'abri derrière de solides\npectoraux ne risque rien, même dans\nde dures conditions de survie{{string value=\"...\"}}\n{{anim id=\"SmugFace\" target=\"actor\" targetSpec=\"\"}}Conclusion :{{delay8}} une poitrine musclée\nest absolument essentielle,\n{{string value=\"Catchphrase\"}} !"
  },
  {
    "label": "035",
    "attribute": "0x0000000000000000",
    "text": "{{anim id=\"Smiling\" target=\"actor\" targetSpec=\"\"}}En pleine nature, on doit porter\ndes choses lourdes ou traverser\nà la nage des rivières déchaînées.\n{{anim id=\"Serious\" target=\"actor\" targetSpec=\"\"}}Il faut pouvoir se fier à ses bras{{string value=\"...\"}}\nLeur faire totalement confiance.{{pageBreak}}{{anim id=\"SmugFace\" target=\"actor\" targetSpec=\"\"}}Conclusion :{{delay8}} des biceps en acier\ntrempé sont indispensables !"
  },
  {
    "label": "036",
    "attribute": "0x0000000000000000",
    "text": "{{anim id=\"WrySmile\" target=\"actor\" targetSpec=\"\"}}Pas le morceau de viande, hein,{{delay20}} je\nparle ici des cuisses{{delay8}} et des muscles\nqu'elles abritent, {{string value=\"6\"}} !\n{{anim id=\"Serious\" target=\"actor\" targetSpec=\"\"}}En pleine nature,{{delay20}} si on veut survivre,\nil faut pouvoir courir.{{delay8}} Et courir vite !{{pageBreak}}{{anim id=\"SmugFace\" target=\"actor\" targetSpec=\"\"}}Conclusion :{{delay8}} les muscles des cuisses\nsont bien essentiels pour un exercice\nde survie réussi !"
  },
  {
    "label": "042",
    "attribute": "0x2B00000100000009",
    "text": "{{anim id=\"Nodding\" target=\"actor\" targetSpec=\"\"}}J'ai imaginé ce qui pourrait faire\nun chouette serment des sportifs.{{delay40}}\n{{anim id=\"Hello\" target=\"actor\" targetSpec=\"\"}}Écoute un peu, {{string value=\"6\"}}."
  },
  {
    "label": "043",
    "attribute": "0x0000000000000000",
    "text": "{{fun_0001003C arg=\"0x2C002D002E00\"}}"
  },
  {
    "label": "044",
    "attribute": "0x0000000000000000",
    "text": "{{anim id=\"Cheering\" target=\"actor\" targetSpec=\"\"}}N'aie pas peur des courbatures !{{delay20}}\n{{anim id=\"Cheering\" target=\"actor\" targetSpec=\"\"}}Repousse tes limites, comme ton\ncapitaine :{{delay20}} {{anim id=\"Cheering\" target=\"actor\" targetSpec=\"\"}}{{string value=\"VillagerName\"}} !{{pageBreak}}{{anim id=\"Sighing\" target=\"actor\" targetSpec=\"\"}}Pff{{string value=\"...\"}}{{delay20}} Je sais pas si ça va vraiment\nenthousiasmer tout le monde{{string value=\"...\"}}"
  },
  {
    "label": "045",
    "attribute": "0x0000000000000000",
    "text": "{{anim id=\"Cheering\" target=\"actor\" targetSpec=\"\"}}Un tour de piste pour s'échauffer !{{delay20}}\n{{anim id=\"Cheering\" target=\"actor\" targetSpec=\"\"}}Du saut à la corde pour continuer !{{delay20}}\n{{anim id=\"Cheering\" target=\"actor\" targetSpec=\"\"}}Et des flexions sans s'arrêter !{{delay20}}\n{{anim id=\"Thinking\" target=\"actor\" targetSpec=\"\"}}Hmm{{string value=\"...\"}} Je crois qu'il faut encore\nque je le retravaille un peu."
  },
  {
    "label": "046",
    "attribute": "0x0000000000000000",
    "text": "{{anim id=\"Cheering\" target=\"actor\" targetSpec=\"\"}}Face aux douleurs musculaires,{{delay8}} {{anim id=\"Cheering\" target=\"actor\" targetSpec=\"\"}}vive\nla crème relaxante et les compresses\nchaudes !{{delay20}} {{anim id=\"Cheering\" target=\"actor\" targetSpec=\"\"}}Athlètes jusqu'au bout !\n{{anim id=\"Oops\" target=\"actor\" targetSpec=\"\"}}Hum{{string value=\"...\"}} Faudrait peut-être mettre\nun peu plus l'accent sur le sport\nlui-même, {{string value=\"6\"}}."
  },
  {
    "label": "048",
    "attribute": "0x3100000100000009",
    "text": "Je pensais à un truc{{string value=\"...\"}} {{anim id=\"Serious\" target=\"actor\" targetSpec=\"\"}}J'ai pas été\ntrès spécifique, quand je t'ai dit que\ntes abdos étaient magnifiques."
  },
  {
    "label": "049",
    "attribute": "0x0000000000000000",
    "text": "{{fun_0001003C arg=\"0x320033003400\"}}"
  },
  {
    "label": "050",
    "attribute": "0x0000000000000000",
    "text": "{{anim id=\"Explain\" target=\"actor\" targetSpec=\"\"}}Ton grand droit abdominal, par\nexemple. {{delay20}}Tu sais, ce muscle devant\nton estomac ?{{pageBreak}}{{anim id=\"Smiling\" target=\"actor\" targetSpec=\"\"}}Le tien est juste sublime ! {{delay20}}Une\ntablette de chocolat qui en ferait\npâlir plus d'un.{{delay20}} Bravo, {{string value=\"Catchphrase\"}} !"
  },
  {
    "label": "051",
    "attribute": "0x0000000000000000",
    "text": "{{anim id=\"Explain\" target=\"actor\" targetSpec=\"\"}}Prends ton transverse abdominal, par\nexemple !{{delay20}} C'est ce muscle dans ton\nventre qui soutient ton dos.{{pageBreak}}{{anim id=\"Grin\" target=\"actor\" targetSpec=\"\"}}Quand on voit avec quelle souplesse\ntu te déplaces, le tien doit être\nsuperbe.\n{{anim id=\"Nodding\" target=\"actor\" targetSpec=\"\"}}Tout le monde ne s'en rend pas\ncompte, {{delay8}}mais à moi,{{delay8}} ça n'a pas\néchappé !"
  },
  {
    "label": "052",
    "attribute": "0x0000000000000000",
    "text": "{{anim id=\"Explain\" target=\"actor\" targetSpec=\"\"}}Je pense entre autres à tes beaux\nmuscles obliques. {{delay20}}Tu sais, ceux sur\nle côté, sous tes bras.{{pageBreak}}{{anim id=\"ShyBoy\" target=\"actor\" targetSpec=\"\"}}Tu ne me l'entendras pas dire tous\nles jours, mais ta posture est{{string value=\"...\"}}\nhéroïque, {{string value=\"Catchphrase\"}} !"
  },
  {
    "label": "053",
    "attribute": "0x3600000100000009",
    "text": "{{anim id=\"Eh\" target=\"actor\" targetSpec=\"\"}}Faut qu'on parle, {{string value=\"NickName\"}}.{{delay frames=\"40\"}} {{anim id=\"Scheming\" target=\"actor\" targetSpec=\"\"}}Je pense que tu es prêt{{gender2 m=\"\" f=\"e\"}} à entendre mon plus grands secret de fitness{{string value=\"...\"}}"
  },
  {
    "label": "054",
    "attribute": "0x0000000000000000",
    "text": "{{fun_0001003C arg=\"0x370038003900\"}}"
  },
  {
    "label": "055",
    "attribute": "0x0000000000000000",
    "text": "{{anim id=\"Blushing\" target=\"actor\" targetSpec=\"\"}}C'est pas très conventionnel, mais\nécoute-moi.{{delay frames=\"40\"}}{{anim id=\"Explain\" target=\"actor\" targetSpec=\"\"}} Un, tu regardes l'océan.{{delay8}}\nDeux, tu respires un grand coup.\nTrois{{string value=\"...\"}}{{delay20}}{{anim id=\"Pardon\" target=\"actor\" targetSpec=\"\"}} Tu hurles un truc motivant du\nfond de tes poumons !{{pageBreak}}{{i10_12}}{{anim id=\"Cheering\" target=\"actor\" targetSpec=\"\"}}{{delay20}}{{size value=\"150\"}}J'AIME MES MUSCLES !{{size value=\"100\"}}{{delay20}}{{anim id=\"EmotEnd\" target=\"actor\" targetSpec=\"\"}}{{delay frames=\"30\"}}{{pageBreak}}{{anim id=\"OhGeez\" target=\"actor\" targetSpec=\"\"}}C'est juste un exemple.{{delay frames=\"40\"}} {{anim id=\"WrySmile\" target=\"actor\" targetSpec=\"\"}}Mais fais très\nattention !{{delay20}} Cette technique est plus\npuissante que tu l'imagines."
  },
  {
    "label": "056",
    "attribute": "0x0000000000000000",
    "text": "{{anim id=\"OhGeez\" target=\"actor\" targetSpec=\"\"}}C'est tellement simple que tu vas en\nrire. {{delay frames=\"40\"}}{{anim id=\"BigSmile\" target=\"actor\" targetSpec=\"\"}}Pense à bien t'étirer !{{pageBreak}}{{anim id=\"Explain\" target=\"actor\" targetSpec=\"\"}}Même les muscles les mieux dessinés\nont besoin d'étirements avant de\nmarcher à plein régime.{{pageBreak}}{{anim id=\"Hello\" target=\"actor\" targetSpec=\"\"}}Mais le truc ultime, c'est de\nt'échauffer AVANT de t'étirer.{{delay20}}\n{{anim id=\"Greeting\" target=\"actor\" targetSpec=\"\"}}Tes muscles te le revaudront."
  },
  {
    "label": "057",
    "attribute": "0x0000000000000000",
    "text": "{{anim id=\"Serious\" target=\"actor\" targetSpec=\"\"}}Ça tient en un mot.{{i10_4}}{{anim id=\"BigSmile\" target=\"actor\" targetSpec=\"\"}} Méditation !{{pageBreak}}{{anim id=\"Explain\" target=\"actor\" targetSpec=\"\"}}Tu imagines que je suis à la salle de\nmuscu 24 heures sur 24, mais je fais\naussi beaucoup de visualisation.{{pageBreak}}{{anim id=\"AbsentMindedness\" target=\"actor\" targetSpec=\"\"}}Je me vide l'esprit et je ne pense\nqu'à mes muscles en train de briller\nau soleil{{string value=\"...\"}}{{pageBreak}}{{anim id=\"Nodding\" target=\"actor\" targetSpec=\"\"}}Essaie, à l'occasion !{{delay20}} {{anim id=\"Hesitate\" target=\"actor\" targetSpec=\"\"}}Euh, avec tes\nmuscles, on est d'accord, {{string value=\"6\"}}."
  },
  {
    "label": "058",
    "attribute": "0x3B00000100000009",
    "text": "Hé, {{string value=\"NickName\"}} !{{delay20}} {{anim id=\"QuestionMark\" target=\"actor\" targetSpec=\"\"}}Tu fais quoi\nquand tu te rends compte que tu es\ntotalement perdu{{gender2 m=\"\" f=\"e\"}}, {{string value=\"6\"}} ?"
  },
  {
    "label": "059",
    "attribute": "0x0000000000000000",
    "text": "{{fun_0014003C arg=\"\"}}"
  },
  {
    "label": "059_01",
    "attribute": "0x0000000000000000",
    "text": "{{anim id=\"Nodding\" target=\"actor\" targetSpec=\"\"}}Moi, je cherche un endroit surélevé\npour me repérer. {{delay20}}Et si je peux faire\nde l'escalade, c'est encore mieux !{{pageBreak}}{{anim id=\"Laughing\" target=\"actor\" targetSpec=\"\"}}Le seul problème, c'est que si je me\nperds deux jours de suite, j'ai trop de\ncourbatures aux biceps pour grimper."
  },
  {
    "label": "059_02",
    "attribute": "0x0000000000000000",
    "text": "{{anim id=\"Explain\" target=\"actor\" targetSpec=\"\"}}Mon truc, c'est de faire le même\nchemin en sens inverse. {{delay20}}En plus,{{delay8}} ça\nexerce les mollets !{{pageBreak}}{{anim id=\"ShyBoy\" target=\"actor\" targetSpec=\"\"}}Mais{{string value=\"...\"}} chaque fois,{{delay8}} je me prends\ntellement au jeu que je poursuis ma\ncourse au-delà de ma destination{{string value=\"...\"}}"
  },
  {
    "label": "059_03",
    "attribute": "0x0000000000000000",
    "text": "{{anim id=\"SmugFace\" target=\"actor\" targetSpec=\"\"}}Quand ça m'arrive, je suis mon\ninstinct et je cours à toute vitesse\ntoujours dans la même direction.{{pageBreak}}{{anim id=\"Laughing\" target=\"actor\" targetSpec=\"\"}}Et en général{{string value=\"...\"}} ça n'arrange pas du\ntout les choses !"
  }
]