﻿[
  {
    "label": "0101",
    "text": "Outfit 1"
  },
  {
    "label": "0102",
    "text": "Outfit 2"
  },
  {
    "label": "0103",
    "text": "Outfit 3"
  },
  {
    "label": "0104",
    "text": "Outfit 4"
  },
  {
    "label": "0105",
    "text": "Outfit 5"
  },
  {
    "label": "0106",
    "text": "Outfit 6"
  },
  {
    "label": "0107",
    "text": "Outfit 7"
  },
  {
    "label": "0108",
    "text": "Outfit 8"
  }
]