﻿[
  {
    "label": "001",
    "attribute": "0x00000000",
    "text": "{{fun_0014003C arg=\"\"}}"
  },
  {
    "label": "001_01",
    "attribute": "0x00000000",
    "text": "{{anim id=\"HappyDance\" target=\"actor\" targetSpec=\"\"}}¡Tatatachán!{{delay40}} {{anim id=\"Smiling\" target=\"actor\" targetSpec=\"\"}}¡Gracias por invitarme!"
  },
  {
    "label": "002",
    "attribute": "0x00000000",
    "text": "{{fun_0014003C arg=\"\"}}"
  },
  {
    "label": "002_01",
    "attribute": "0x00000000",
    "text": "{{anim id=\"HappyDance\" target=\"actor\" targetSpec=\"\"}}Si el público quiere otra, {{delay8}}no seré\nyo quien los defraude.{{delay20}}{{anim id=\"Smiling\" target=\"actor\" targetSpec=\"\"}} No tengo\nmaterial nuevo, {{delay8}}¡pero improvisaré!"
  },
  {
    "label": "003",
    "attribute": "0x00000000",
    "text": "{{fun_0014003C arg=\"\"}}"
  },
  {
    "label": "003_01",
    "attribute": "0x00000000",
    "text": ""
  },
  {
    "label": "101",
    "attribute": "0x00000000",
    "text": "{{fun_0014003C arg=\"\"}}"
  },
  {
    "label": "101_01",
    "attribute": "0x00000000",
    "text": "{{anim id=\"AbsentMindedness\" target=\"actor\" targetSpec=\"\"}}Esta cafetería me recuerda a\nmis primeros años de gira con\nmi espectáculo{{string value=\"...\"}}\n{{anim id=\"Explain\" target=\"actor\" targetSpec=\"\"}}Me pasaba las noches en vela\nbebiendo café y escribiendo\nchistes malísimos.\n{{anim id=\"WrySmile\" target=\"actor\" targetSpec=\"\"}}A día de hoy, el café ha mejorado{{string value=\"...\"}}{{delay8}}\n¡y mis chistes han empeorado!"
  },
  {
    "label": "101_02",
    "attribute": "0x00000000",
    "text": "{{anim id=\"AbsentMindedness\" target=\"actor\" targetSpec=\"\"}}En mis años mozos bebía un montón\nde café para estar bien despierto\ncuando actuaba de madrugada.\n{{anim id=\"OhGeez\" target=\"actor\" targetSpec=\"\"}}Ojalá el público hubiese hecho\nlo mismo{{string value=\"...\"}}"
  },
  {
    "label": "101_03",
    "attribute": "0x00000000",
    "text": "{{anim id=\"Negative\" target=\"actor\" targetSpec=\"\"}}No temas,{{delay8}} que no he venido para\ncontarte un chiste malo{{string value=\"...\"}}{{delay20}} {{anim id=\"Laughing\" target=\"actor\" targetSpec=\"\"}}He venido\na contarte TODOS los chistes malos."
  },
  {
    "label": "101_04",
    "attribute": "0x00000000",
    "text": "{{anim id=\"OhGeez\" target=\"actor\" targetSpec=\"\"}}Ojalá hubiesen existido las redes\nsociales cuando era un cómico\nen ciernes{{string value=\"...\"}}\n{{anim id=\"Grin\" target=\"actor\" targetSpec=\"\"}}Así habría podido contar los chistes\nuna sola vez{{delay8}} y quedarían registrados\nen internet de por vida."
  },
  {
    "label": "101_05",
    "attribute": "0x00000000",
    "text": "{{anim id=\"Smiling\" target=\"actor\" targetSpec=\"\"}}Que conste que puedo distinguir\nperfectamente entre el café de\ncalidad y los que son una birria.\n{{anim id=\"Explain\" target=\"actor\" targetSpec=\"\"}}Lo sé porque, cuando empezaba en\nesto del humor,{{delay8}} le hice muchísimos\ncafés a mi mentor.\n{{anim id=\"SmugFace\" target=\"actor\" targetSpec=\"\"}}Él me enseñó todo lo que sé{{string value=\"...\"}}{{delay8}}\n{{anim id=\"Oops\" target=\"actor\" targetSpec=\"\"}}sobre café.{{delay20}} Algunas lecciones de\ncomedia{{delay8}} {{anim id=\"OhGeez\" target=\"actor\" targetSpec=\"\"}}no habrían estado mal."
  }
]