﻿[
  {
    "label": "001",
    "attribute": "0x00000000",
    "text": "{{fun_0014003C arg=\"\"}}"
  },
  {
    "label": "001_01",
    "attribute": "0x00000000",
    "text": "{{anim id=\"Greeting\" target=\"actor\" targetSpec=\"\"}}¡Ah,{{delay8}} hola,{{delay8}} {{string value=\"PlayerName\"}}!"
  },
  {
    "label": "002",
    "attribute": "0x00000000",
    "text": "{{fun_0014003C arg=\"\"}}"
  },
  {
    "label": "002_01",
    "attribute": "0x00000000",
    "text": "{{anim id=\"FaintSmile\" target=\"actor\" targetSpec=\"\"}}¡Gracias por volver a invitarme,{{delay8}}\n{{string value=\"PlayerName\"}}!"
  },
  {
    "label": "003",
    "attribute": "0x00000000",
    "text": "{{fun_0014003C arg=\"\"}}"
  },
  {
    "label": "003_01",
    "attribute": "0x00000000",
    "text": ""
  },
  {
    "label": "101",
    "attribute": "0x00000000",
    "text": "{{fun_0014003C arg=\"\"}}"
  },
  {
    "label": "101_01",
    "attribute": "0x00000000",
    "text": "{{anim id=\"Nodding\" target=\"actor\" targetSpec=\"\"}}Mis pupilos me mantienen\ninformado de cómo van los\nnegocios por aquí,{{delay8}} sí,{{delay8}} sí.{{pageBreak}}{{anim id=\"Scheming\" target=\"actor\" targetSpec=\"\"}}Y también me avisan si {{color id=\"3\"}}Fígaro \n{{color id=\"65535\"}}tiene novedades en el menú."
  },
  {
    "label": "101_02",
    "attribute": "0x00000000",
    "text": "{{anim id=\"FaintSmile\" target=\"actor\" targetSpec=\"\"}}{{color id=\"3\"}}Tendo {{color id=\"65535\"}}y {{color id=\"3\"}}Nendo{{color id=\"65535\"}} han entendido como\nnadie mi ética empresarial.{{pageBreak}}{{anim id=\"Nodding\" target=\"actor\" targetSpec=\"\"}}Estoy seguro de que pueden lograr\ntodo lo que se propongan,{{delay8}} sí,{{delay8}} sí."
  },
  {
    "label": "101_03",
    "attribute": "0x00000000",
    "text": "{{anim id=\"FaintSmile\" target=\"actor\" targetSpec=\"\"}}Éramos conscientes de los desafíos\nque presentaba la vida en una isla\ndesierta{{string value=\"...\"}}{{pageBreak}}{{anim id=\"SmugFace\" target=\"actor\" targetSpec=\"\"}}¡Pero eso solo nos motivó más\npara ofrecer un mejor servicio!"
  },
  {
    "label": "101_04",
    "attribute": "0x00000000",
    "text": "{{anim id=\"Nodding\" target=\"actor\" targetSpec=\"\"}}Es admirable con qué eficiencia lleva\ntodo {{color id=\"3\"}}Canela {{color id=\"65535\"}}en la oficina de gestión\nvecinal.{{pageBreak}}{{anim id=\"FaintSmile\" target=\"actor\" targetSpec=\"\"}}Qué menos que llevarle un café,{{delay8}} ¿sí?"
  },
  {
    "label": "101_05",
    "attribute": "0x00000000",
    "text": "{{anim id=\"FaintSmile\" target=\"actor\" targetSpec=\"\"}}Admiro desde hace años el café\nde {{color id=\"3\"}}Fígaro{{color id=\"65535\"}},{{delay8}} ¡sí,{{delay8}} sí!{{pageBreak}}{{anim id=\"AbsentMindedness\" target=\"actor\" targetSpec=\"\"}}Y confío en que su presencia aquí\ncontribuirá también al desarrollo\nde otros sectores del comercio."
  }
]