﻿[
  {
    "label": "001",
    "attribute": "0x00000000",
    "text": "{{fun_0014003C arg=\"\"}}"
  },
  {
    "label": "001_01",
    "attribute": "0x00000000",
    "text": "{{anim id=\"Smiling\" target=\"actor\" targetSpec=\"\"}}Gracias por la invitación,{{delay8}} tesoro.{{delay20}}\nUn café es {{anim id=\"Nodding\" target=\"actor\" targetSpec=\"\"}}justo lo que necesitaba."
  },
  {
    "label": "002",
    "attribute": "0x00000000",
    "text": "{{fun_0014003C arg=\"\"}}"
  },
  {
    "label": "002_01",
    "attribute": "0x00000000",
    "text": "{{anim id=\"Grin\" target=\"actor\" targetSpec=\"\"}}Soy como un peinado pasado\nde moda:{{delay20}} siempre vuelvo."
  },
  {
    "label": "003",
    "attribute": "0x00000000",
    "text": "{{fun_0014003C arg=\"\"}}"
  },
  {
    "label": "003_01",
    "attribute": "0x00000000",
    "text": ""
  },
  {
    "label": "101",
    "attribute": "0x00000000",
    "text": "{{fun_0014003C arg=\"\"}}"
  },
  {
    "label": "101_01",
    "attribute": "0x00000000",
    "text": "{{anim id=\"Aha\" target=\"actor\" targetSpec=\"\"}}¿A {{color id=\"3\"}}Fígaro{{color id=\"65535\"}} siempre le sale el café\nasí de bueno?{{delay20}} {{anim id=\"Love\" target=\"actor\" targetSpec=\"\"}}Me duele la boca\nde tanto sonreír.{{delay8}}{{anim id=\"Smiling\" target=\"actor\" targetSpec=\"\"}}"
  },
  {
    "label": "101_02",
    "attribute": "0x00000000",
    "text": "{{anim id=\"Smiling\" target=\"actor\" targetSpec=\"\"}}Me encanta tu peinado.{{delay20}}\n{{anim id=\"Grin\" target=\"actor\" targetSpec=\"\"}}¿Quién te lo ha hecho?"
  },
  {
    "label": "101_03",
    "attribute": "0x00000000",
    "text": "{{anim id=\"Nodding\" target=\"actor\" targetSpec=\"\"}}Sé lo difícil que puede ser encontrar\nun estilo con el que te sientes\ncómod{{gender2 m=\"o\" f=\"a\"}}.{{delay20}} {{anim id=\"Smiling\" target=\"actor\" targetSpec=\"\"}}Tú lo llevas genial,{{delay8}} tesoro."
  },
  {
    "label": "101_04",
    "attribute": "0x00000000",
    "text": "{{anim id=\"ShyBoy\" target=\"actor\" targetSpec=\"\"}}Perdona si me quedo mirando,{{delay8}}\npero es que adoro tu estilo.{{delay20}}\n{{anim id=\"Love\" target=\"actor\" targetSpec=\"\"}}Rebosa personalidad.\n{{anim id=\"Smiling\" target=\"actor\" targetSpec=\"\"}}Si alguna vez necesito {{gender2 m=\"un\" f=\"una\"}} modelo\nde peinados,{{delay8}} {{anim id=\"Nodding\" target=\"actor\" targetSpec=\"\"}}pensaré en ti."
  },
  {
    "label": "101_05",
    "attribute": "0x00000000",
    "text": "{{anim id=\"Thinking\" target=\"actor\" targetSpec=\"\"}}Podría pedir un café para llevar.{{delay20}}\nSeguro que le gustaría{{string value=\"...\"}}{{delay20}} {{anim id=\"Shocked\" target=\"actor\" targetSpec=\"\"}}¡Oh!{{delay20}}\nPerdón,{{delay8}} estaba {{anim id=\"Blushing\" target=\"actor\" targetSpec=\"\"}}pensando en voz alta."
  }
]