﻿[
  {
    "label": "001",
    "attribute": "0x00000000",
    "text": "{{fun_0014003C arg=\"\"}}"
  },
  {
    "label": "001_01",
    "attribute": "0x00000000",
    "text": "{{anim id=\"FaintSmile\" target=\"actor\" targetSpec=\"\"}}Me deleita que hayas decidido\ninvitarme,{{delay8}} querid{{gender2 m=\"o\" f=\"a\"}}."
  },
  {
    "label": "002",
    "attribute": "0x00000000",
    "text": "{{fun_0014003C arg=\"\"}}"
  },
  {
    "label": "002_01",
    "attribute": "0x00000000",
    "text": "{{anim id=\"FaintSmile\" target=\"actor\" targetSpec=\"\"}}Me complace sobremanera que hayas\nvuelto a invitarme,{{delay8}} querid{{gender2 m=\"o\" f=\"a\"}}.{{delay20}} Siempre\nes agradable charlar."
  },
  {
    "label": "003",
    "attribute": "0x00000000",
    "text": "{{fun_0014003C arg=\"\"}}"
  },
  {
    "label": "003_01",
    "attribute": "0x00000000",
    "text": ""
  },
  {
    "label": "101",
    "attribute": "0x00000000",
    "text": "{{fun_0014003C arg=\"\"}}"
  },
  {
    "label": "101_01",
    "attribute": "0x00000000",
    "text": "{{anim id=\"Smiling\" target=\"actor\" targetSpec=\"\"}}Es muy importante dormir bien por\nlas noches,{{delay8}} pero {{anim id=\"AbsentMindedness\" target=\"actor\" targetSpec=\"\"}}¿quién se puede\nresistir a una buena taza de café?\n{{anim id=\"Explain\" target=\"actor\" targetSpec=\"\"}}La clave está en la moderación.{{delay20}}\nO en el descafeinado."
  },
  {
    "label": "101_02",
    "attribute": "0x00000000",
    "text": "{{anim id=\"Smiling\" target=\"actor\" targetSpec=\"\"}}Es un placer compartir este sueño\nconti{{string value=\"...\"}}{{anim id=\"Eh\" target=\"actor\" targetSpec=\"\"}}{{delay8}} Espera,{{delay8}} no.{{delay20}} Esta parte es\nreal,{{delay8}} ¿verdad?{{delay20}} {{anim id=\"ShyBoy\" target=\"actor\" targetSpec=\"\"}}A veces no distingo."
  },
  {
    "label": "101_03",
    "attribute": "0x00000000",
    "text": "{{anim id=\"Nodding\" target=\"actor\" targetSpec=\"\"}}Todas estas caras me son conocidas,{{delay8}}\nporque me han visitado en sueños.{{delay20}}\n{{anim id=\"Smiling\" target=\"actor\" targetSpec=\"\"}}¡Es fascinante encontraros en vigilia!"
  },
  {
    "label": "101_04",
    "attribute": "0x00000000",
    "text": "{{anim id=\"Nodding\" target=\"actor\" targetSpec=\"\"}}Después de un sueño placentero,{{delay8}}\n{{anim id=\"AbsentMindedness\" target=\"actor\" targetSpec=\"\"}}no hay nada como una buena taza\nde café.\n{{anim id=\"Explain\" target=\"actor\" targetSpec=\"\"}}Al comenzar el día con el espíritu\nalegre y en calma,{{delay8}} {{anim id=\"FaintSmile\" target=\"actor\" targetSpec=\"\"}}marco el tono\npara el resto de la jornada."
  },
  {
    "label": "101_05",
    "attribute": "0x00000000",
    "text": "{{anim id=\"FaintSmile\" target=\"actor\" targetSpec=\"\"}}Ah,{{delay8}} el aroma del café me resulta\nde lo más relajante{{string value=\"...\"}}"
  }
]