﻿[
  {
    "label": "001",
    "attribute": "0x00000021",
    "text": "시스템 점검 중이므로\n이용하실 수 없습니다"
  },
  {
    "label": "002",
    "attribute": "0x00000021",
    "text": "{{color id=\"0\"}}＜너굴 은행에서 알려드립니다＞{{color id=\"65535\"}}\n이 ATM에서는\n현금 입금 및 출금만 가능합니다"
  },
  {
    "label": "003",
    "attribute": "0x00000021",
    "text": "서비스를 이용하시려면\n주소를 등록하셔야 합니다"
  },
  {
    "label": "004",
    "attribute": "0x00000021",
    "text": "너굴 은행 출장 ATM입니다"
  }
]