﻿[
  {
    "label": "001",
    "attribute": "0x0000000000000000",
    "text": "{{anim id=\"Worried\" target=\"actor\" targetSpec=\"\"}}Sorry, ik voelde me niet zo lekker\ntoen je eerder op bezoek kwam,\n{{string value=\"6\"}}.\n{{anim id=\"Nodding\" target=\"actor\" targetSpec=\"\"}}Maar toen kreeg ik een {{color id=\"1\"}}medicijn {{color id=\"65535\"}}van {{selection value=\"SelectedName\"}} {{anim id=\"BigSmile\" target=\"actor\" targetSpec=\"\"}}en nu ben ik weer in topvorm! {{capitalizeNextLetter}}{{string value=\"6\"}}!"
  },
  {
    "label": "002",
    "attribute": "0x0000000000000000",
    "text": "{{anim id=\"Smiling\" target=\"actor\" targetSpec=\"\"}}Fijn dat je even langs bent gekomen,\n{{string value=\"Catchphrase\"}}.{{pageBreak}}{{anim id=\"Nodding\" target=\"actor\" targetSpec=\"\"}}Ik heb net van {{selection value=\"SelectedName\"}} een {{color id=\"1\"}}medicijn {{color id=\"65535\"}}gekregen, {{delay frames=\"40\"}}{{anim id=\"SmugFace\" target=\"actor\" targetSpec=\"\"}}en met wat rustige push-ups ben ik zo de oude!"
  },
  {
    "label": "003",
    "attribute": "0x0000000000000000",
    "text": "{{anim id=\"Laughing\" target=\"actor\" targetSpec=\"\"}}Het spijt me dat ik laatst niet de fitte\ngastheer was die je gewend bent,\n{{string value=\"NickName\"}}!{{pageBreak}}{{anim id=\"HappyDance\" target=\"actor\" targetSpec=\"\"}}Maar ik voel me weer helemaal in\norde dankzij het {{color id=\"1\"}}medicijn {{color id=\"65535\"}}van\n{{selection value=\"SelectedName\"}}. {{capitalizeNextLetter}}{{string value=\"6\"}}."
  },
  {
    "label": "004",
    "attribute": "0x0000000000000000",
    "text": "{{anim id=\"Negative\" target=\"actor\" targetSpec=\"\"}}Sorry dat je laatst hebt moeten zien\ndat zélfs ik af en toe ziek ben. {{anim id=\"SmugFace\" target=\"actor\" targetSpec=\"\"}}Maar\nik ben weer topfit, {{string value=\"6\"}}.{{pageBreak}}{{anim id=\"Nodding\" target=\"actor\" targetSpec=\"\"}}Dankzij het {{color id=\"1\"}}medicijn {{color id=\"65535\"}}van die aardige\n{{selection value=\"SelectedName\"}}{{anim id=\"FaintSmile\" target=\"actor\" targetSpec=\"\"}} voelen mijn spieren weer als vanouds!"
  },
  {
    "label": "005",
    "attribute": "0x0000000000000000",
    "text": "{{anim id=\"Sighing\" target=\"actor\" targetSpec=\"\"}}Poeh! Ik voelde me laatst echt knap\nbelabberd.{{pageBreak}}{{anim id=\"Nodding\" target=\"actor\" targetSpec=\"\"}}Maar {{selection value=\"SelectedName\"}} heeft me een {{color id=\"1\"}}medicijn {{color id=\"65535\"}}gegeven waardoor {{anim id=\"BigSmile\" target=\"actor\" targetSpec=\"\"}}ik weer beter ben! {{capitalizeNextLetter}}{{string value=\"6\"}}!"
  },
  {
    "label": "006",
    "attribute": "0x0000000000000000",
    "text": "{{anim id=\"OhGeez\" target=\"actor\" targetSpec=\"\"}}Ik was vandaag ziek, dus mijn\nnormale ochtendwork-out ging niet\ndoor{{string value=\"...\"}}\n{{anim id=\"Nodding\" target=\"actor\" targetSpec=\"\"}}Maar {{selection value=\"SelectedName\"}} heeft me aan een {{color id=\"1\"}}medicijn {{color id=\"65535\"}}geholpen. {{anim id=\"HappyDance\" target=\"actor\" targetSpec=\"\"}}Dus laat die sit-ups maar komen!"
  },
  {
    "label": "007",
    "attribute": "0x0000000000000000",
    "text": "{{anim id=\"ShyBoy\" target=\"actor\" targetSpec=\"\"}}Laatst had ik een koutje gevat.{{delay20}} {{anim id=\"Angry\" target=\"actor\" targetSpec=\"\"}}Kun\nje het geloven dat zo'n stomme\nverkoudheid mij heeft geveld!\n{{anim id=\"Smiling\" target=\"actor\" targetSpec=\"\"}}Maar {{selection value=\"SelectedName\"}} heeft me een {{color id=\"1\"}}medicijn {{color id=\"65535\"}}gebracht en {{delay frames=\"40\"}}{{anim id=\"Laughing\" target=\"actor\" targetSpec=\"\"}}voel ik me weer stukken beter, {{string value=\"Catchphrase\"}}."
  },
  {
    "label": "008",
    "attribute": "0x0000000000000000",
    "text": "{{anim id=\"Worried\" target=\"actor\" targetSpec=\"\"}}Onlangs heb ik het afgelegd tegen\neen verkoudheid. {{delay20}}Het was erg\ngênant.\n{{anim id=\"Nodding\" target=\"actor\" targetSpec=\"\"}}Maar {{selection value=\"SelectedName\"}} heeft me een {{color id=\"1\"}}medicijn {{color id=\"65535\"}}gegeven{{delay20}} en{{string value=\"...\"}}{{delay frames=\"40\"}} {{anim id=\"BigSmile\" target=\"actor\" targetSpec=\"\"}}Kom maar op! {{capitalizeNextLetter}}{{string value=\"6\"}}."
  },
  {
    "label": "101",
    "attribute": "0x0000000000000000",
    "text": "{{anim id=\"BigSmile\" target=\"actor\" targetSpec=\"\"}}Bedankt voor het {{color id=\"1\"}}medicijn{{color id=\"65535\"}}!{{delay frames=\"40\"}} {{anim id=\"Greeting\" target=\"actor\" targetSpec=\"\"}}Dankzij\njou kan ik mijn training hervatten!\n{{capitalizeNextLetter}}{{string value=\"6\"}}!"
  },
  {
    "label": "102",
    "attribute": "0x0000000000000000",
    "text": "{{anim id=\"HappyDance\" target=\"actor\" targetSpec=\"\"}}Ik voel me zoveel beter nu ik dat\n{{color id=\"1\"}}medicijn {{color id=\"65535\"}}genomen heb!{{delay20}} {{anim id=\"EmotEnd\" target=\"actor\" targetSpec=\"\"}}Ik hoor mijn\nhalters al roepen!"
  },
  {
    "label": "103",
    "attribute": "0x0000000000000000",
    "text": "{{anim id=\"HappyFlower\" target=\"actor\" targetSpec=\"\"}}Dankzij je {{color id=\"1\"}}medicijn {{color id=\"65535\"}}voel ik me weer\nhartstikke goed! {{delay20}}Je bent de beste,\n{{string value=\"NickName\"}}!{{pageBreak}}{{anim id=\"EmotEnd\" target=\"actor\" targetSpec=\"\"}}Het is de hoogste tijd{{delay8}} om alle\nbuikspieroefeningen die ik gemist\nheb, weer in te halen, {{string value=\"6\"}}!"
  }
]