﻿[
  {
    "label": "001",
    "attribute": "0x0000000000000000",
    "text": "{{fun_0014003C arg=\"\"}}"
  },
  {
    "label": "001_01",
    "attribute": "0x0000000000000000",
    "text": "是没见过的客人呢。{{delay8}}\n{{anim id=\"Hello\" target=\"actor\" targetSpec=\"\"}}你是从其他地方来的吗？{{pageBreak}}{{anim id=\"Love\" target=\"actor\" targetSpec=\"\"}}这是一座\n像是会在梦境中出现的美好{{string value=\"32\"}}屿。{{delay frames=\"40\"}}\n{{anim id=\"Greeting\" target=\"actor\" targetSpec=\"\"}}请好好享受吧！{{string value=\"6\"}}。"
  },
  {
    "label": "001_02",
    "attribute": "0x0000000000000000",
    "text": "{{anim id=\"Aha\" target=\"actor\" targetSpec=\"\"}}哎呀？{{delay frames=\"40\"}}\n{{anim id=\"FaintSmile\" target=\"actor\" targetSpec=\"\"}}你莫非是客人？{{pageBreak}}{{anim id=\"Blushing\" target=\"actor\" targetSpec=\"\"}}我才刚起床，还有些晕乎乎的，{{delay8}}\n不能招待你，{{delay20}}\n{{anim id=\"HappyDance\" target=\"actor\" targetSpec=\"\"}}不过，还请你能玩得开心！{{string value=\"6\"}}。"
  },
  {
    "label": "001_03",
    "attribute": "0x0000000000000000",
    "text": "{{anim id=\"Eh\" target=\"actor\" targetSpec=\"\"}}哎呀？{{delay frames=\"30\"}}{{anim id=\"BigSmile\" target=\"actor\" targetSpec=\"\"}}我们是初次见面吧！{{delay frames=\"40\"}}\n{{anim id=\"FaintSmile\" target=\"actor\" targetSpec=\"\"}}请在{{string value=\"33\"}}{{delay8}}\n{{anim id=\"Greeting\" target=\"actor\" targetSpec=\"\"}}尽情享受吧。{{string value=\"6\"}}。"
  },
  {
    "label": "002",
    "attribute": "0x0000000000000000",
    "text": "{{fun_0014003C arg=\"\"}}"
  },
  {
    "label": "002_01",
    "attribute": "0x0000000000000000",
    "text": "{{anim id=\"Aha\" target=\"actor\" targetSpec=\"\"}}哎呀，{{delay20}}{{string value=\"4\"}}，{{delay frames=\"40\"}}\n{{anim id=\"HappyFlower\" target=\"actor\" targetSpec=\"\"}}没想到会在这里遇见你！{{pageBreak}}{{anim id=\"FaintSmile\" target=\"actor\" targetSpec=\"\"}}我想要与你再会的愿望{{delay8}}\n{{anim id=\"Love\" target=\"actor\" targetSpec=\"\"}}实现了呢。{{string value=\"6\"}}。"
  },
  {
    "label": "002_02",
    "attribute": "0x0000000000000000",
    "text": "{{anim id=\"BigSmile\" target=\"actor\" targetSpec=\"\"}}呀！{{delay frames=\"30\"}}{{anim id=\"FaintSmile\" target=\"actor\" targetSpec=\"\"}}没想到会遇见{{string value=\"4\"}}，{{delay8}}\n真巧呢。{{delay frames=\"40\"}}\n{{anim id=\"HappyDance\" target=\"actor\" targetSpec=\"\"}}就像在梦境中一样，我太高兴了！{{string value=\"6\"}}。"
  },
  {
    "label": "002_03",
    "attribute": "0x0000000000000000",
    "text": "{{anim id=\"Shocked\" target=\"actor\" targetSpec=\"\"}}呀，{{delay20}}{{string value=\"4\"}}，{{delay frames=\"40\"}}\n{{anim id=\"AbsentMindedness\" target=\"actor\" targetSpec=\"\"}}昨晚{{delay8}}我睡前才祈祷过，{{delay20}}\n{{anim id=\"Blushing\" target=\"actor\" targetSpec=\"\"}}希望{{delay8}}能与你再会！{{string value=\"6\"}}。"
  },
  {
    "label": "003",
    "attribute": "0x0000000000000000",
    "text": "{{fun_0014003C arg=\"\"}}"
  },
  {
    "label": "003_01",
    "attribute": "0x0000000000000000",
    "text": "{{anim id=\"Aha\" target=\"actor\" targetSpec=\"\"}}哎呀，{{delay8}}你来了啊！{{delay frames=\"40\"}}\n{{anim id=\"HappyFlower\" target=\"actor\" targetSpec=\"\"}}能在这里遇见你，{{delay8}}\n我{{delay8}}真是非常高兴。{{string value=\"6\"}}。"
  },
  {
    "label": "003_02",
    "attribute": "0x0000000000000000",
    "text": "{{anim id=\"Eh\" target=\"actor\" targetSpec=\"\"}}呀，{{delay frames=\"30\"}}{{anim id=\"Hello\" target=\"actor\" targetSpec=\"\"}}你来玩啦。{{delay frames=\"40\"}}\n{{anim id=\"Pardon\" target=\"actor\" targetSpec=\"\"}}嗯？{{delay frames=\"30\"}}好像{{anim id=\"Smiling\" target=\"actor\" targetSpec=\"\"}}有点困？！{{string value=\"6\"}}。"
  },
  {
    "label": "003_03",
    "attribute": "0x0000000000000000",
    "text": "{{anim id=\"Aha\" target=\"actor\" targetSpec=\"\"}}哎呀，{{delay20}}{{anim id=\"Smiling\" target=\"actor\" targetSpec=\"\"}}你好！{{delay frames=\"40\"}}\n{{anim id=\"Hesitate\" target=\"actor\" targetSpec=\"\"}}我{{delay8}}原以为在梦境中{{string value=\"...\"}}{{pageBreak}}{{anim id=\"EmotEnd\" target=\"actor\" targetSpec=\"\"}}看得这么清楚，{{delay20}}\n{{anim id=\"EmotEnd\" target=\"actor\" targetSpec=\"\"}}就好像是现实一样呢！{{string value=\"6\"}}。"
  },
  {
    "label": "004",
    "attribute": "0x0000000000000000",
    "text": "{{fun_0014003C arg=\"\"}}"
  },
  {
    "label": "004_01",
    "attribute": "0x0000000000000000",
    "text": "{{anim id=\"Hello\" target=\"actor\" targetSpec=\"\"}}你逛完{{string value=\"32\"}}了吗？{{delay frames=\"40\"}}\n{{anim id=\"HappyDance\" target=\"actor\" targetSpec=\"\"}}这里有很多值得一看的地方，{{delay8}}不用着急，\n请慢慢逛吧。{{string value=\"6\"}}。"
  },
  {
    "label": "004_02",
    "attribute": "0x0000000000000000",
    "text": "{{anim id=\"AbsentMindedness\" target=\"actor\" targetSpec=\"\"}}如果是在故事中，{{delay20}}\n在梦境里出现的人一定就是命中注定之人了～{{delay frames=\"40\"}}\n{{anim id=\"Love\" target=\"actor\" targetSpec=\"\"}}实在是太浪漫了！{{string value=\"6\"}}。"
  },
  {
    "label": "004_03",
    "attribute": "0x0000000000000000",
    "text": "{{anim id=\"Serious\" target=\"actor\" targetSpec=\"\"}}就算这只是梦境{{string value=\"...\"}}{{delay20}}\n{{anim id=\"HappyFlower\" target=\"actor\" targetSpec=\"\"}}今天与你的相遇{{delay8}}\n也会是我珍贵的回忆。{{string value=\"6\"}}。"
  },
  {
    "label": "005",
    "attribute": "0x0000000000000000",
    "text": "{{fun_0014003C arg=\"\"}}"
  },
  {
    "label": "005_01",
    "attribute": "0x0000000000000000",
    "text": "{{anim id=\"HappyDance\" target=\"actor\" targetSpec=\"\"}}机会难得，{{delay8}}在醒来之前，{{delay20}}\n让我们一起{{delay8}}在{{string value=\"32\"}}上\n度过愉快的时光吧！{{string value=\"6\"}}。"
  },
  {
    "label": "005_02",
    "attribute": "0x0000000000000000",
    "text": "{{anim id=\"Love\" target=\"actor\" targetSpec=\"\"}}能和你一起玩，真让人高兴！{{delay frames=\"40\"}}\n{{anim id=\"Hello\" target=\"actor\" targetSpec=\"\"}}让我们尽情享受吧。{{string value=\"6\"}}。"
  },
  {
    "label": "005_03",
    "attribute": "0x0000000000000000",
    "text": "{{anim id=\"HappyFlower\" target=\"actor\" targetSpec=\"\"}}呵呵呵，{{delay20}}\n就算只是在梦境中，{{delay8}}能与你相遇，{{delay frames=\"30\"}}\n已经令我{{delay20}}足够幸福了。{{string value=\"6\"}}。"
  }
]