﻿[
  {
    "label": "001",
    "attribute": "0x0000000000000000",
    "text": "{{anim id=\"Eh\" target=\"actor\" targetSpec=\"\"}}Hey! {{delay20}}Ich hab da was für dich.{{delay20}}\n{{gender8 m=\"'nen \" f=\"'ne \" n=\"Ein \"}}{{fun_00170032 arg=\"0x01CD\"}}{{fun_0000007D arg=\"0x0000\"}}!"
  },
  {
    "label": "002",
    "attribute": "0x0000000000000000",
    "text": "{{anim id=\"Grin\" target=\"actor\" targetSpec=\"\"}}Gut, dass ich dich treffe! {{delay20}}{{anim id=\"WrySmile\" target=\"actor\" targetSpec=\"\"}}Ich hab\n{{gender8 m=\"'nen \" f=\"'ne \" n=\"ein \"}}{{fun_00170032 arg=\"0x01CD\"}}{{fun_0000007D arg=\"0x0000\"}}.{{delay20}}\n{{gender8 m=\"Den\" f=\"Die\" n=\"Das\"}} brauch ich eh nich' mehr."
  },
  {
    "label": "003",
    "attribute": "0x0000020000000000",
    "text": "{{anim id=\"Aha\" target=\"actor\" targetSpec=\"\"}}Oh,{{delay8}} hey, {{string value=\"NickName\"}}. {{delay20}}{{anim id=\"Greeting\" target=\"actor\" targetSpec=\"\"}}Sag mal... {{delay20}}Wolltest du nich' schon immer {{gender8 m=\"'nen \" f=\"'ne \" n=\"ein \"}}{{fun_00170032 arg=\"0x01CD\"}}{{fun_0000007D arg=\"0x0000\"}}?"
  },
  {
    "label": "003_a",
    "attribute": "0x0000000000000000",
    "text": "{{anim id=\"Negative\" target=\"actor\" targetSpec=\"\"}}Eher nich'."
  },
  {
    "label": "003_b",
    "attribute": "0x0000000000000000",
    "text": "{{anim id=\"EmotEnd\" target=\"player\" targetSpec=\"\"}}Ach ja?"
  },
  {
    "label": "004",
    "attribute": "0x0000000000000000",
    "text": "{{anim id=\"Shocked\" target=\"actor\" targetSpec=\"\"}}Hey-ho!{{delay20}}\nGenau deine Type brauch ich jetzt.{{pageBreak}}{{anim id=\"Explain\" target=\"actor\" targetSpec=\"\"}}Da war dieses krasse Angebot für\n{{gender8 m=\"'nen\" f=\"'ne\" n=\"ein\"}} {{fun_00170032 arg=\"0x01CD\"}}{{fun_0000007D arg=\"0x0000\"}}.{{delay8}}\n{{anim id=\"OhGeez\" target=\"actor\" targetSpec=\"\"}}Aber jetzt hab ich zwei.{{pageBreak}}{{anim id=\"WrySmile\" target=\"actor\" targetSpec=\"\"}}Das Extra ist für dich!{{delay20}}\nNach dem Motto: {{delay20}}Ein Griffel wäscht\nden anderen, {{delay8}}{{string value=\"Catchphrase\"}}."
  },
  {
    "label": "100",
    "attribute": "0x0000000000000000",
    "text": "{{anim id=\"Hesitate\" target=\"actor\" targetSpec=\"\"}}Du hilfst mir immer aus der Patsche,{{delay8}}\nalso wollt ich dich mal feiern,{{delay8}}\n{{string value=\"Catchphrase\"}}.{{pageBreak}}{{anim id=\"Worried\" target=\"actor\" targetSpec=\"\"}}Ich warn dich!{{delay20}} {{anim id=\"WrySmile\" target=\"actor\" targetSpec=\"\"}}Wenn du weiter so\nblumig mit mir umgehst, {{delay8}}is' diese\nFreundschaft für immer und ewig!"
  },
  {
    "label": "101",
    "attribute": "0x0000000000000000",
    "text": "{{anim id=\"Explain\" target=\"actor\" targetSpec=\"\"}}Echt ey!{{delay20}} Als ich das sah,{{delay8}} wusste ich\nsofort, wer's kriegt.{{delay20}}{{anim id=\"Assent\" target=\"actor\" targetSpec=\"\"}} Hoffe, du\nfreust dir ein Gänseblümchen."
  },
  {
    "label": "200",
    "attribute": "0x0000000000000000",
    "text": "{{anim id=\"OhGeez\" target=\"actor\" targetSpec=\"\"}}Kennste bestimmt: {{delay20}}Du brauchst was,{{delay8}}\nkaufst es, {{delay8}}vergisst es {{delay8}}und kaufst es\nnoch mal. {{delay20}}{{anim id=\"Restless\" target=\"actor\" targetSpec=\"\"}}Is' mir letztens passiert...\n{{anim id=\"Nodding\" target=\"actor\" targetSpec=\"\"}}Aber das Teil ist voll dufte. {{i10_4}}{{anim id=\"TakenAback\" target=\"actor\" targetSpec=\"\"}}Ich dreh\ndir hier echt keinen Plunder an!{{delay20}}\n{{anim id=\"Worried\" target=\"actor\" targetSpec=\"\"}}Nur das Neueste vom Neuesten!"
  },
  {
    "label": "201",
    "attribute": "0x0000000000000000",
    "text": "{{anim id=\"Explain\" target=\"actor\" targetSpec=\"\"}}Gut, wir reden hier nich' vom\ntotalen Neuzustand, {{delay8}}{{anim id=\"Assent\" target=\"actor\" targetSpec=\"\"}}aber so gut\nwie,{{delay8}} {{string value=\"Catchphrase\"}}.{{pageBreak}}{{anim id=\"OhGeez\" target=\"actor\" targetSpec=\"\"}}Wenn du's nicht willst, {{delay8}}dann...{{delay20}}\nstampf es halt ein, {{delay8}}oder so."
  },
  {
    "label": "202",
    "attribute": "0x0000000000000000",
    "text": "{{anim id=\"OhGeez\" target=\"actor\" targetSpec=\"\"}}Ist doch okay, {{delay8}}oder? {{delay20}}{{anim id=\"EmotEnd\" target=\"actor\" targetSpec=\"\"}}Wenn nich',{{delay8}}\nkannste es ja weiterschenken.{{delay20}}\n{{anim id=\"Blushing\" target=\"actor\" targetSpec=\"\"}}Dachte aber, {{delay8}}das wär was für dich."
  },
  {
    "label": "300",
    "attribute": "0x0000000000000000",
    "text": "{{anim id=\"Shocked\" target=\"actor\" targetSpec=\"\"}}Nich' dein Ernst! {{delay frames=\"40\"}}{{anim id=\"Thinking\" target=\"actor\" targetSpec=\"\"}}Könnte schwören,{{delay8}}\njemand hätte behauptet, {{delay8}}du wärst\nscharf auf so was.{{pageBreak}}{{anim id=\"OhGeez\" target=\"actor\" targetSpec=\"\"}}Tja. {{delay20}}Wie gesagt, ich brauch's nich'.{{delay20}}\n{{anim id=\"Grin\" target=\"actor\" targetSpec=\"\"}}Ist deins, {{delay8}}ob du willst oder nich'!"
  },
  {
    "label": "301",
    "attribute": "0x0000000000000000",
    "text": "{{anim id=\"QuestionMark\" target=\"actor\" targetSpec=\"\"}}Schon vergessen? {{delay20}}{{anim id=\"Grin\" target=\"actor\" targetSpec=\"\"}}Du musst ja\nmordsbeschäftigt sein!{{pageBreak}}{{anim id=\"Laughing\" target=\"actor\" targetSpec=\"\"}}Also, letztes Mal hattest du's\nvon nix anderem.{{delay20}} Echt jetzt!\n{{delay20}}{{anim id=\"Worried\" target=\"actor\" targetSpec=\"\"}}Würde ich mir so was ausdenken?"
  },
  {
    "label": "302",
    "attribute": "0x0000000000000000",
    "text": "{{anim id=\"ShyBoy\" target=\"actor\" targetSpec=\"\"}}Wenn du keinen Platz dafür hast,{{delay8}}\nweg damit. {{delay20}}Is' mir echt schnurz,{{delay8}}\n{{string value=\"Catchphrase\"}}."
  },
  {
    "label": "303",
    "attribute": "0x0000000000000000",
    "text": "{{anim id=\"Blushing\" target=\"actor\" targetSpec=\"\"}}Uff. {{delay8}}Hätte nie gedacht, {{delay8}}wie schön\nes is', {{delay8}}{{gender2 m=\"'nem Kumpel\" f=\"'ner Kumpeline\"}} was Gutes\nzu tun, {{delay8}}{{string value=\"Catchphrase\"}}..."
  },
  {
    "label": "400",
    "attribute": "0x0000000000000000",
    "text": "{{anim id=\"ShyBoy\" target=\"actor\" targetSpec=\"\"}}Musst es nich' behalten,{{delay8}} wenn du\nkeinen Bock drauf hast. {{delay20}}{{anim id=\"OhGeez\" target=\"actor\" targetSpec=\"\"}}Wenn du das\nTeil abtrittst, {{delay8}}sag's mir besser nich'..."
  }
]