﻿{
  "version": 4,
  "rootNode": {
    "XLink": {
      "mPartsParamBuffer[]": null,
      "mUserName.Str": "UI_MyDesignFinish",
      "mIsUniqueUserId.bool": false,
      "mAnimOperationParamBuffer[]": null
    }
  }
}