﻿[
  {
    "label": "0101",
    "text": "{{fun_00000096 arg=\"0x00CD\"}}"
  },
  {
    "label": "0102",
    "text": "別墅提案"
  },
  {
    "label": "0301",
    "text": "{{fun_00000096 arg=\"0x00CD\"}}"
  },
  {
    "label": "0302",
    "text": "{{fun_00010096 arg=\"0x00CD\"}}"
  },
  {
    "label": "0601",
    "text": "展示室"
  },
  {
    "label": "0801",
    "text": "工作中"
  },
  {
    "label": "0901",
    "text": "選擇要刊登的物件吧"
  }
]