﻿[
  {
    "label": "0000",
    "text": "New!"
  },
  {
    "label": "0001",
    "text": "獲得哩數！"
  },
  {
    "label": "0002",
    "text": "{{number value=\"3\" index=\"0\"}}/{{number value=\"1\" index=\"1\"}}/{{number value=\"1\" index=\"2\"}}"
  },
  {
    "label": "0003",
    "text": ""
  },
  {
    "label": "0004",
    "text": "接收"
  }
]