﻿[
  {
    "label": "001",
    "attribute": "0x0000000000000000",
    "text": "{{fun_0014003C arg=\"\"}}"
  },
  {
    "label": "001_01",
    "attribute": "0x0000000000000000",
    "text": "{{anim id=\"Eh\" target=\"actor\" targetSpec=\"\"}}Tiens?{{delay8}} T'es pas du coin,{{delay8}} toi,{{delay8}} si?\nJe ne me souviens pas avoir croisé\nune paire de biceps comme les tiens.{{pageBreak}}{{anim id=\"Smiling\" target=\"actor\" targetSpec=\"\"}}Je m'appelle {{string value=\"VillagerName\"}}.{{delay20}} {{anim id=\"Nodding\" target=\"actor\" targetSpec=\"\"}}En fait{{string value=\"...\"}} je viens d'emménager à {{string value=\"OtherIslandName\"}}.{{pageBreak}}{{anim id=\"Angry\" target=\"actor\" targetSpec=\"\"}}Une bonne étoile a sûrement guidé\nnotre rencontre!{{delay20}} {{anim id=\"BigSmile\" target=\"actor\" targetSpec=\"\"}}Et elle nous dit{{delay8}}\n« ⁠Devenez chums, {{string value=\"6\"}}! »{{anim id=\"FaintSmile\" target=\"actor\" targetSpec=\"\"}}"
  },
  {
    "label": "001_02",
    "attribute": "0x0000000000000000",
    "text": "{{anim id=\"Greeting\" target=\"actor\" targetSpec=\"\"}}Yo!{{delay8}} T'es venu{{gender2 m=\"\" f=\"e\"}} visiter cette île?{{pageBreak}}{{anim id=\"EmotEnd\" target=\"actor\" targetSpec=\"\"}}Je m'appelle {{string value=\"VillagerName\"}}!{{delay20}}\nJ'ai emménagé ici aujourd'hui,{{delay20}} prêt\nà commencer ma nouvelle vie!{{pageBreak}}{{anim id=\"WrySmile\" target=\"actor\" targetSpec=\"\"}}J'te ferais bien visiter le coin,{{delay8}} mais je\nconnais pas assez les lieux.{{delay20}} Je nous\nperdrais sûrement, {{string value=\"6\"}}{{string value=\"...\"}}{{pageBreak}}{{anim id=\"Nodding\" target=\"actor\" targetSpec=\"\"}}T'en fais pas :{{delay8}} la prochaine fois,{{delay8}} je te\nferai une visite guidée.{{delay20}} {{anim id=\"ShyBoy\" target=\"actor\" targetSpec=\"\"}}Mais pour le\nmoment,{{delay8}} je peux pas t'aider,{{delay8}} désolé."
  },
  {
    "label": "001_03",
    "attribute": "0x0000000000000000",
    "text": "{{anim id=\"BigSmile\" target=\"actor\" targetSpec=\"\"}}Salut!{{delay20}} {{anim id=\"QuestionMark\" target=\"actor\" targetSpec=\"\"}}Tu viens d'une autre île?{{pageBreak}}{{anim id=\"Smiling\" target=\"actor\" targetSpec=\"\"}}Je suis {{string value=\"VillagerName\"}}.{{delay20}} T'as sans\ndoute déjà entendu parler de moi :{{delay8}}\n« ⁠la légende {{gender4 m=\"de \" f=\"d'\"}}⁠{{string value=\"OtherIslandName\"}} ».\n{{anim id=\"Eh\" target=\"actor\" targetSpec=\"\"}}Pardon?{{delay20}} Pourquoi{{delay8}} « ⁠la légende »?{{delay40}}\n{{anim id=\"Laughing\" target=\"actor\" targetSpec=\"\"}}Une fois,{{delay8}} j'ai fait {{number value=\"3\" index=\"0\"}} pompes{{delay8}} avec\nun chaton sur le dos.{{delay8}} Pas mal, hein?"
  },
  {
    "label": "002",
    "attribute": "0x0000000000000000",
    "text": "{{fun_0014003C arg=\"\"}}"
  },
  {
    "label": "002_01",
    "attribute": "0x0000000000000000",
    "text": "{{anim id=\"Shocked\" target=\"actor\" targetSpec=\"\"}}Tiens?{{delay8}} Un visage nouveau!{{delay8}} T'es de\npassage,{{delay8}} tu viens d'une autre île?{{pageBreak}}{{anim id=\"Nodding\" target=\"actor\" targetSpec=\"\"}}Je m'appelle {{string value=\"VillagerName\"}}!{{delay20}}\nEt toi,{{delay8}} tu es{{string value=\"...\"}}?{{delay40}} {{anim id=\"Smiling\" target=\"actor\" targetSpec=\"\"}}{{capitalizeNextLetter}}{{string value=\"NickName\"}}?{{delay20}}\nAh, sympa comme nom.{{pageBreak}}{{anim id=\"ShyBoy\" target=\"actor\" targetSpec=\"\"}}Ça fait pas très longtemps que j'ai\nemménagé ici.{{delay20}} {{anim id=\"BigSmile\" target=\"actor\" targetSpec=\"\"}}Je suis ravi de faire\nta connaissance, {{gender2 m=\"mon chum\" f=\"ma chumette\"}}!{{pageBreak}}{{anim id=\"Greeting\" target=\"actor\" targetSpec=\"\"}}Fais-moi signe si tu reviens faire un\ntour à {{string value=\"OtherIslandName\"}},{{delay8}} d'accord?\n{{capitalizeNextLetter}}{{string value=\"6\"}}."
  },
  {
    "label": "002_02",
    "attribute": "0x0000000000000000",
    "text": "{{anim id=\"Eh\" target=\"actor\" targetSpec=\"\"}}Hé!{{delay8}} T'es venu{{gender2 m=\"\" f=\"e\"}} faire un tour ici\ndepuis une autre île,{{delay8}} pas vrai?{{delay20}} {{anim id=\"Smiling\" target=\"actor\" targetSpec=\"\"}}Je\nsuis {{string value=\"VillagerName\"}},{{delay8}} enchanté!{{pageBreak}}{{anim id=\"ShyBoy\" target=\"actor\" targetSpec=\"\"}}Moi-même,{{delay8}} y'a pas si longtemps que\nj'ai emménagé ici.{{delay20}} Je peux pas trop\nte servir de guide pour le moment.{{pageBreak}}{{anim id=\"BigSmile\" target=\"actor\" targetSpec=\"\"}}Mais ça fait plaisir de voir débarquer\ndes visiteurs :{{delay8}} {{string value=\"OtherIslandName\"}} est un endroit agréable et apprécié!"
  },
  {
    "label": "002_03",
    "attribute": "0x0000000000000600",
    "text": "{{i10_14 arg=\"20\"}}{{anim id=\"Cheering\" target=\"actor\" targetSpec=\"\"}}{{i10_12}}{{size value=\"150\"}}BIENVENUUUE!{{size value=\"100\"}}{{pageBreak}}{{i10_9}}{{anim id=\"Blushing\" target=\"actor\" targetSpec=\"\"}}Hé hé{{string value=\"...\"}} je t'ai fait peur?{{delay20}} Désolé.{{delay20}}\nParfois,{{delay8}} je dois libérer un trop-plein\nd'énergie{{string value=\"...\"}} et je crie trop fort.{{pageBreak}}{{anim id=\"Smiling\" target=\"actor\" targetSpec=\"\"}}T'es de passage ici,{{delay8}} hein?{{delay40}} {{anim id=\"Nodding\" target=\"actor\" targetSpec=\"\"}}Ça, c'est\ncool,{{delay8}} alors!{{delay20}} Moi, je m'appelle{{delay8}}\n{{string value=\"VillagerName\"}}!{{pageBreak}}{{anim id=\"BigSmile\" target=\"actor\" targetSpec=\"\"}}Je suis encore un peu nouveau sur\nl'île,{{delay8}} mais ça me ferait plaisir d'avoir\n{{gender2 m=\"un chum\" f=\"une chumette\"}} venu{{gender2 m=\"\" f=\"e\"}} d'ailleurs!{{anim id=\"FaintSmile\" target=\"actor\" targetSpec=\"\"}}"
  }
]