﻿[
  {
    "label": "001",
    "attribute": "0x0000000000000000",
    "text": "{{anim id=\"Smiling\" target=\"actor\" targetSpec=\"\"}}Ce poisson-clown nage bien plus vite\nque je m'y attendais, {{string value=\"6\"}}.{{delay20}} J'aimerais savoir nager comme ça!"
  },
  {
    "label": "002",
    "attribute": "0x0000000000000000",
    "text": "{{anim id=\"FaintSmile\" target=\"actor\" targetSpec=\"\"}}Question coordination en équipe,{{delay8}}\nl'{{wordInfo gender=\"1\" indefArticle=\"1\" defArticle=\"5\"}}anchois est un champion :{{delay8}} y'a qu'à\nles voir nager en banc!"
  },
  {
    "label": "003",
    "attribute": "0x0000000000000000",
    "text": "{{anim id=\"Serious\" target=\"actor\" targetSpec=\"\"}}On dirait que le {{wordInfo gender=\"1\" indefArticle=\"1\" defArticle=\"3\"}}papillon de mer a\nune paire d'ailes{{string value=\"...\"}} mais ce sont\nen fait des nageoires."
  },
  {
    "label": "004",
    "attribute": "0x0000000000000000",
    "text": "{{anim id=\"Serious\" target=\"actor\" targetSpec=\"\"}}Si on observe de près une {{wordInfo gender=\"2\" indefArticle=\"2\" defArticle=\"4\"}}carpe koï,{{delay8}}\nelle est plutôt musclée.{{delay20}} Les carpes\ndoivent s'entraîner régulièrement{{string value=\"...\"}}"
  },
  {
    "label": "005",
    "attribute": "0x0000000000000000",
    "text": "{{anim id=\"FaintSmile\" target=\"actor\" targetSpec=\"\"}}Observer ce {{wordInfo gender=\"1\" indefArticle=\"1\" defArticle=\"3\"}}guppy est très relaxant,{{delay8}}\nje trouve.{{delay20}} On peut l'encourager :{{delay20}}\nnage,{{delay8}} petit poisson,{{delay8}} nage!"
  },
  {
    "label": "006",
    "attribute": "0x0000000000000000",
    "text": "{{anim id=\"Serious\" target=\"actor\" targetSpec=\"\"}}Voilà donc un combattant{{string value=\"...\"}} {{anim id=\"Angry\" target=\"actor\" targetSpec=\"\"}}Eh ben,{{delay8}}\nmontre que tu mérites ce nom!{{delay20}} Fais\nvoir de quoi t'es cap', {{string value=\"6\"}}!"
  },
  {
    "label": "007",
    "attribute": "0x0000000000000000",
    "text": "{{anim id=\"FaintSmile\" target=\"actor\" targetSpec=\"\"}}Quand on parle de poissons colorés,{{delay8}}\nc'est un {{wordInfo gender=\"1\" indefArticle=\"1\" defArticle=\"3\"}}poisson-chirurgien comme\ncelui-ci qui me vient à l'esprit."
  },
  {
    "label": "008",
    "attribute": "0x0000000000000000",
    "text": "{{anim id=\"Smiling\" target=\"actor\" targetSpec=\"\"}}Attraper un {{wordInfo gender=\"1\" indefArticle=\"1\" defArticle=\"3\"}}dai yu n'est pas évident,{{delay8}}\nce poisson tire très fort sur la ligne.{{delay20}}\nUne chance que le {{color id=\"1\"}}musée{{color id=\"65535\"}} en ait un!"
  },
  {
    "label": "009",
    "attribute": "0x0000000000000000",
    "text": "{{anim id=\"Serious\" target=\"actor\" targetSpec=\"\"}}Avec sa longue nageoire dorsale\ntoute à l'arrière,{{delay8}} l'arapaïma est\nvraiment impressionnant!"
  },
  {
    "label": "010",
    "attribute": "0x0000000000000000",
    "text": "{{anim id=\"Worried\" target=\"actor\" targetSpec=\"\"}}Le regard ferme de ce napoléon{{string value=\"...\"}} j'ai\nun peu le même quand je m'entraîne\nau lever d'haltères, {{string value=\"6\"}}."
  },
  {
    "label": "011",
    "attribute": "0x0000000000000000",
    "text": "{{anim id=\"Serious\" target=\"actor\" targetSpec=\"\"}}Hmm{{string value=\"...\"}}{{delay frames=\"40\"}} {{anim id=\"Smiling\" target=\"actor\" targetSpec=\"\"}}C'est le {{wordInfo gender=\"1\" indefArticle=\"1\" defArticle=\"3\"}}poisson-lune qui\nbrille dans la pénombre,{{delay8}} ou c'est\nl'aquarium qui est très lumineux?"
  },
  {
    "label": "012",
    "attribute": "0x0000000000000000",
    "text": "Ouah!{{delay20}} {{anim id=\"Silent\" target=\"actor\" targetSpec=\"\"}}Ce {{wordInfo gender=\"1\" indefArticle=\"1\" defArticle=\"3\"}}requin-baleine a vraiment\nl'air super costaud.{{delay20}} Quelle masse de\nmuscles,{{delay8}} c'est impressionnant!"
  },
  {
    "label": "013",
    "attribute": "0x0000000000000000",
    "text": "{{anim id=\"Shocked\" target=\"actor\" targetSpec=\"\"}}T'as vu le regard de cet {{wordInfo gender=\"1\" indefArticle=\"1\" defArticle=\"5\"}}arowana?!{{delay20}}\n{{anim id=\"Angry\" target=\"actor\" targetSpec=\"\"}}Il a une telle détermination{{string value=\"...\"}} Il serait\nprêt à affronter le monde entier!"
  },
  {
    "label": "014",
    "attribute": "0x0000000000000000",
    "text": "{{anim id=\"Serious\" target=\"actor\" targetSpec=\"\"}}Le {{wordInfo gender=\"1\" indefArticle=\"1\" defArticle=\"3\"}}cœlacanthe est un fossile vivant,\nà ce qu'on dit.{{delay20}} {{anim id=\"FaintSmile\" target=\"actor\" targetSpec=\"\"}}Ses muscles ont l'air\ndurs comme du roc, en tout cas!"
  },
  {
    "label": "015",
    "attribute": "0x0000000000000000",
    "text": "{{anim id=\"FaintSmile\" target=\"actor\" targetSpec=\"\"}}L'omble a une tête sympathique,{{delay8}}\n{{anim id=\"Worried\" target=\"actor\" targetSpec=\"\"}}mais ses mouvements sont plutôt\nbrutaux.{{delay20}} Mieux vaut faire attention!"
  },
  {
    "label": "016",
    "attribute": "0x0000000000000000",
    "text": "{{anim id=\"Shocked\" target=\"actor\" targetSpec=\"\"}}T'as vu les dents de ce piranha?!{{delay20}}\n{{anim id=\"Angry\" target=\"actor\" targetSpec=\"\"}}Je voudrais pas me retrouver à l'eau\nà proximité d'une mâchoire pareille!"
  },
  {
    "label": "017",
    "attribute": "0x0000000000000000",
    "text": "{{anim id=\"Smiling\" target=\"actor\" targetSpec=\"\"}}Ouah{{string value=\"...\"}} Ce grand requin blanc donne\nl'impression d'être un muscle géant,{{delay8}} \nfort et souple.{{delay20}} Je suis jaloux!"
  },
  {
    "label": "018",
    "attribute": "0x0000000000000000",
    "text": "{{anim id=\"Smiling\" target=\"actor\" targetSpec=\"\"}}Ce {{wordInfo gender=\"0\" indefArticle=\"1\" defArticle=\"3\"}}mahi-mahi a une tête plutôt\ncharmante,{{delay8}} en fait.{{delay20}} Enfin{{string value=\"...\"}} pour\nun poisson,{{delay8}} quoi!"
  },
  {
    "label": "019",
    "attribute": "0x0000000000000000",
    "text": "{{anim id=\"Eh\" target=\"actor\" targetSpec=\"\"}}Pourrait-on utiliser un {{wordInfo gender=\"1\" indefArticle=\"1\" defArticle=\"3\"}}poisson-ruban\npour mesurer la longueur d'un saut?{{delay20}}\n{{anim id=\"EmotEnd\" target=\"actor\" targetSpec=\"\"}}Non,{{delay8}} sa peau a l'air trop visqueuse{{string value=\"...\"}}"
  },
  {
    "label": "020",
    "attribute": "0x0000000000000000",
    "text": "{{anim id=\"FaintSmile\" target=\"actor\" targetSpec=\"\"}}Tu connais le caviar d'esturgeon?{{delay8}}\nC'est plein de protéines il paraît.{{pageBreak}}{{anim id=\"Smiling\" target=\"actor\" targetSpec=\"\"}}Et c'est tellement riche en fer que\nchaque cuillerée doit être comme\nun épaulé-jeté!"
  },
  {
    "label": "021",
    "attribute": "0x0000000000000000",
    "text": "{{anim id=\"Shocked\" target=\"actor\" targetSpec=\"\"}}Ce poisson ressemble à un javelot\navec des dents!"
  },
  {
    "label": "022",
    "attribute": "0x0000000000000000",
    "text": "{{anim id=\"Serious\" target=\"actor\" targetSpec=\"\"}}Je voulais m'entraîner au lancer\nde requin-marteau, {{delay20}}{{anim id=\"Worried\" target=\"actor\" targetSpec=\"\"}}mais le {{color id=\"1\"}}musée{{color id=\"65535\"}}\nne prête pas ses pensionnaires{{string value=\"...\"}}"
  },
  {
    "label": "101",
    "attribute": "0x0000000000000000",
    "text": "{{anim id=\"Eh\" target=\"actor\" targetSpec=\"\"}}Ouah!{{delay20}} Et c'est toi qui en as fait don\nau {{color id=\"1\"}}musée{{color id=\"65535\"}},{{delay8}} {{string value=\"NickName\"}}?{{pageBreak}}{{anim id=\"FaintSmile\" target=\"actor\" targetSpec=\"\"}}Quelle magnifique créature,{{delay8}} hein{{string value=\"...\"}}{{delay8}}\nJe resterais des heures à l'admirer,\n{{string value=\"6\"}}!"
  }
]