﻿[
  {
    "label": "001_01",
    "attribute": "0x0000000000000000",
    "text": "{{anim id=\"BigSmile\" target=\"actor\" targetSpec=\"\"}}Yo, {{string value=\"NickName\"}}!{{delay20}} J'aime vraiment l'endroit que t'as trouvé pour moi.{{delay20}} {{anim id=\"Hello\" target=\"actor\" targetSpec=\"\"}}Encore merci!{{pageBreak}}{{anim id=\"Smiling\" target=\"actor\" targetSpec=\"\"}}Pourvu qu'on continue à s'entraider\ncomme ça à l'avenir.{{delay20}} {{anim id=\"FaintSmile\" target=\"actor\" targetSpec=\"\"}}C'est cool\nd'avoir {{gender2 m=\"un chum\" f=\"une chumette\"}}, {{string value=\"6\"}}!"
  },
  {
    "label": "001_02",
    "attribute": "0x0000000000000000",
    "text": "{{anim id=\"BigSmile\" target=\"actor\" targetSpec=\"\"}}Yo, {{string value=\"NickName\"}}!{{delay20}} Cet endroit que t'as trouvé pour moi est juste incroyable.{{delay20}} {{anim id=\"Hello\" target=\"actor\" targetSpec=\"\"}}Encore merci à toi!{{pageBreak}}{{anim id=\"Smiling\" target=\"actor\" targetSpec=\"\"}}Pourvu qu'on continue à s'entraider\ncomme ça à l'avenir.{{delay20}} {{anim id=\"FaintSmile\" target=\"actor\" targetSpec=\"\"}}C'est cool\nd'avoir {{gender2 m=\"un chum\" f=\"une chumette\"}}, {{string value=\"6\"}}!"
  },
  {
    "label": "002",
    "attribute": "0x0000000000000000",
    "text": "{{anim id=\"BigSmile\" target=\"actor\" targetSpec=\"\"}}Yo, {{string value=\"NickName\"}}!{{delay20}} {{anim id=\"Nodding\" target=\"actor\" targetSpec=\"\"}}J'ai planté ma tente à un endroit très cool.{{pageBreak}}{{anim id=\"Greeting\" target=\"actor\" targetSpec=\"\"}}C'est un peu grâce à toi :{{delay8}} merci de\nm'avoir aidé à choisir!{{pageBreak}}{{anim id=\"Smiling\" target=\"actor\" targetSpec=\"\"}}Pourvu qu'on continue à s'entraider\ncomme ça à l'avenir.{{delay20}} {{anim id=\"FaintSmile\" target=\"actor\" targetSpec=\"\"}}C'est cool\nd'avoir {{gender2 m=\"un chum\" f=\"une chumette\"}}, {{string value=\"6\"}}!"
  },
  {
    "label": "003_01",
    "attribute": "0x0000000000000000",
    "text": "{{anim id=\"IdeaBulb\" target=\"actor\" targetSpec=\"\"}}Oh,{{delay8}} j'ai failli oublier :{{delay20}} {{anim id=\"Smiling\" target=\"actor\" targetSpec=\"\"}}voilà un cadeau\npour te remercier!{{delay20}} Je suis si content\nde mon emplacement, {{string value=\"6\"}}!"
  },
  {
    "label": "003_02",
    "attribute": "0x0000000000000000",
    "text": "{{anim id=\"Smiling\" target=\"actor\" targetSpec=\"\"}}{{capitalizeNextLetter}}{{fun_00010032 arg=\"\"}}{{fun_0006007D arg=\"0x00CD\"}} parfait{{gender8 m=\"\" f=\"e\" n=\"\"}} pour {{string value=\"OtherIslandName\"}}!{{pageBreak}}{{anim id=\"Greeting\" target=\"actor\" targetSpec=\"\"}}Si tu veux l'essayer,{{delay8}} ouvre d'abord\ntes poches en appuyant sur {{color id=\"1\"}}{{color id=\"65535\"}}, sélectionne-{{gender8 m=\"le\" f=\"la\" n=\"\"}}, puis appuie sur {{color id=\"1\"}}{{color id=\"65535\"}}.\n{{anim id=\"Explain\" target=\"actor\" targetSpec=\"\"}}Choisis ensuite « ⁠Porter » pour {{gender8 m=\"le\" f=\"la\" n=\"\"}}\nmettre. {{delay frames=\"40\"}}{{anim id=\"WrySmile\" target=\"actor\" targetSpec=\"\"}}Tu pourras toujours l'enlever\nplus tard si ça te gêne pour courir."
  },
  {
    "label": "004",
    "attribute": "0x0000000000000000",
    "text": "{{anim id=\"IdeaBulb\" target=\"actor\" targetSpec=\"\"}}Oh, j'ai failli oublier :{{delay20}} {{anim id=\"Smiling\" target=\"actor\" targetSpec=\"\"}}j'ai un petit\ncadeau pour te remercier!{{delay20}} Je suis\nsi content de mon emplacement!{{pageBreak}}{{anim id=\"Sighing\" target=\"actor\" targetSpec=\"\"}}Zut{{string value=\"...\"}}{{delay8}} tes poches ont l'air pleines.{{delay20}}\n{{anim id=\"Nodding\" target=\"actor\" targetSpec=\"\"}}Pas grave!{{delay20}} En faisant mon jogging,{{delay8}} je\nle glisserai dans ta boîte aux lettres."
  },
  {
    "label": "011",
    "attribute": "0x0000000000000000",
    "text": "{{anim id=\"Eh\" target=\"actor\" targetSpec=\"\"}}Hé,{{delay8}} ce serait pas le chapeau que\nje t'ai offert?{{delay20}} {{anim id=\"Smiling\" target=\"actor\" targetSpec=\"\"}}Il te va bien!{{delay20}} Ça met\nen valeur les muscles de ta tête!"
  }
]