﻿[
  {
    "label": "001",
    "attribute": "0x0000000000000000",
    "text": "{{fun_0014003C arg=\"\"}}"
  },
  {
    "label": "001_01",
    "attribute": "0x0000000000000000",
    "text": "{{i20_2 arg=\"14\"}}{{anim id=\"Smiling\" target=\"actor\" targetSpec=\"\"}}Prego, rilassati{{delay20}} e mangia tutto quello\nche vuoi!{{delay20}} {{anim id=\"Greeting\" target=\"actor\" targetSpec=\"\"}}Fai come se fossi a casa\ntua, {{string value=\"6\"}}!"
  },
  {
    "label": "001_02",
    "attribute": "0x0000000000000000",
    "text": "{{i20_2 arg=\"6\"}}{{anim id=\"Blushing\" target=\"actor\" targetSpec=\"\"}}Ah ah ah! {{delay8}}La mia pancia brontola!\nDice:{{delay8}} \"Ho fame!\" {{delay20}}{{anim id=\"Laughing\" target=\"actor\" targetSpec=\"\"}}Beh, rilassati, cara,\n{{delay8}}anche io ho fame!"
  },
  {
    "label": "001_03",
    "attribute": "0x0000000000000000",
    "text": "{{i20_3 arg=\"14\"}}{{anim id=\"HappyFlower\" target=\"actor\" targetSpec=\"\"}}Mi piace sorridere quando tutti\nsorridono!{{delay20}}{{anim id=\"Scheming\" target=\"actor\" targetSpec=\"\"}} Ma a volte mi chiedo se\nsorridiamo per lo stesso motivo."
  },
  {
    "label": "001_04",
    "attribute": "0x0000000000000000",
    "text": "{{i20_2 arg=\"14\"}}{{anim id=\"Greeting\" target=\"actor\" targetSpec=\"\"}}Ti porto un menu,{{delay8}} tu vai e prendi\nposto, {{string value=\"6\"}}!"
  },
  {
    "label": "001_05",
    "attribute": "0x0000000000000000",
    "text": "{{i20_2 arg=\"6\"}}{{anim id=\"Eh\" target=\"actor\" targetSpec=\"\"}}Un tovagliolo?{{delay20}}{{anim id=\"EmotEnd\" target=\"actor\" targetSpec=\"\"}} Solo un attimo{{string value=\"...\"}}\nMmmh, {{delay8}}ma dove sono finiti?\n{{delay20}}Pensavo di averli in tasca."
  },
  {
    "label": "002",
    "attribute": "0x0000000000000000",
    "text": "{{fun_0014003C arg=\"\"}}"
  },
  {
    "label": "002_01",
    "attribute": "0x0000000000000000",
    "text": "{{i20_2 arg=\"14\"}}{{anim id=\"FaintSmile\" target=\"actor\" targetSpec=\"\"}}Ecco il conto!{{delay20}} E non scordarti dello\nscontrino. {{delay20}}{{anim id=\"Blushing\" target=\"actor\" targetSpec=\"\"}}O di me, {{string value=\"6\"}}!"
  },
  {
    "label": "002_02",
    "attribute": "0x0000000000000000",
    "text": "{{anim id=\"Serious\" target=\"actor\" targetSpec=\"\"}}Il segreto per contare il resto\nnel modo giusto è andare piano.{{delay20}}\n{{anim id=\"Nodding\" target=\"actor\" targetSpec=\"\"}}Mooooolto{{string value=\"...\"}} piaaaaano."
  },
  {
    "label": "002_03",
    "attribute": "0x0000000000000000",
    "text": "{{anim id=\"Nodding\" target=\"actor\" targetSpec=\"\"}}1000 poki{{string value=\"...\"}} 2000 poki{{string value=\"...\"}}{{delay20}}{{anim id=\"HappyFlower\" target=\"actor\" targetSpec=\"\"}} Ah ah ah,\n{{delay8}}i clienti non fanno che darci soldi,\n{{string value=\"6\"}}!"
  },
  {
    "label": "002_04",
    "attribute": "0x0000000000000000",
    "text": "{{anim id=\"Hello\" target=\"actor\" targetSpec=\"\"}}Hai una tessera punti? {{delay8}}Non ricordo\nse qui le abbiamo. {{delay20}}{{anim id=\"QuestionMark\" target=\"actor\" targetSpec=\"\"}}Se fai abbastanza\npunti, ti danno la tessera record?"
  },
  {
    "label": "002_05",
    "attribute": "0x0000000000000000",
    "text": "{{anim id=\"Smiling\" target=\"actor\" targetSpec=\"\"}}Lavorare alla cassa è mitico! {{delay8}}Ci sono\ntanti pulsanti!{{delay20}} {{anim id=\"IdeaBulb\" target=\"actor\" targetSpec=\"\"}}Mmmh, {{delay8}}chissà cosa\nsuccede se li premo tutti insieme{{string value=\"...\"}}"
  },
  {
    "label": "003",
    "attribute": "0x0000000000000000",
    "text": "{{i20_2 arg=\"6\"}}Il nostro chef è il migliore. {{delay8}}Lo so\nbene, perché lecco{{string value=\"...\"}} ehm, assaggio\nogni singolo piatto!"
  },
  {
    "label": "091",
    "attribute": "0x0000000000000000",
    "text": "{{anim id=\"Smiling\" target=\"actor\" targetSpec=\"\"}}Ti do il benvenuto!{{delay20}}{{anim id=\"Greeting\" target=\"actor\" targetSpec=\"\"}} Qui al ristorante\n{{color id=\"1\"}}{{fun_00030096 arg=\"0x00CD\"}}{{color id=\"65535\"}} i clienti sono sempre soddisfatti!"
  },
  {
    "label": "092",
    "attribute": "0x0000000000000000",
    "text": "{{anim id=\"BigSmile\" target=\"actor\" targetSpec=\"\"}}Benvenut{{gender2 m=\"o\" f=\"a\"}}!{{delay20}} Sono davvero contento\ndi vederti qui."
  },
  {
    "label": "093",
    "attribute": "0x0000000000000000",
    "text": "{{anim id=\"Greeting\" target=\"actor\" targetSpec=\"\"}}Grazie della visita!{{delay20}} {{anim id=\"FaintSmile\" target=\"actor\" targetSpec=\"\"}}Torna presto!"
  },
  {
    "label": "101",
    "attribute": "0x0000000000000000",
    "text": "{{fun_0014003C arg=\"\"}}"
  },
  {
    "label": "101_01",
    "attribute": "0x0000000000000000",
    "text": "{{i20_2 arg=\"6\"}}Se hai fame o bisogno di qualcosa,\nchiedi pure, {{string value=\"6\"}}!"
  },
  {
    "label": "101_02",
    "attribute": "0x0000000000000000",
    "text": "{{i20_3 arg=\"6\"}}{{anim id=\"Pardon\" target=\"actor\" targetSpec=\"\"}}Pensa, {{delay8}}a fine pasto abbiamo anche\nil dessert! {{delay20}}{{anim id=\"Grin\" target=\"actor\" targetSpec=\"\"}}A casa lo mangio sempre\nper primo, di solito."
  },
  {
    "label": "101_03",
    "attribute": "0x0000000000000000",
    "text": "{{i20_2 arg=\"6\"}}Sai già cosa vuoi?{{delay20}}{{anim id=\"FaintSmile\" target=\"actor\" targetSpec=\"\"}} Se vuoi posso\nconsigliarti io:{{delay8}} prendi qualcosa da\nmangiare, {{string value=\"6\"}}."
  },
  {
    "label": "101_04",
    "attribute": "0x0000000000000000",
    "text": "{{i20_3 arg=\"6\"}}Mi piace riempire il bicchiere dei\nclienti quando è vuoto. {{anim id=\"SmugFace\" target=\"actor\" targetSpec=\"\"}}{{delay20}}Nessuno\ndeve patire la sete con me!"
  },
  {
    "label": "101_05",
    "attribute": "0x0000000000000000",
    "text": "{{i20_2 arg=\"6\"}}{{anim id=\"Greeting\" target=\"actor\" targetSpec=\"\"}}Rilassati, {{delay8}}respira a pieni polmoni\nil profumo di cibo {{delay8}}e mangia più\nche puoi. {{delay20}}Se hai bisogno, chiamami!"
  },
  {
    "label": "102",
    "attribute": "0x0000000000000000",
    "text": "{{i20_2 arg=\"6\"}}{{anim id=\"Serious\" target=\"actor\" targetSpec=\"\"}}Quello che adoro qui al ristorante {{color id=\"1\"}}{{fun_00030096 arg=\"0x00CD\"}}{{color id=\"65535\"}}{{anim id=\"Laughing\" target=\"actor\" targetSpec=\"\"}} è riempire di nuovo il bicchiere gratis!"
  },
  {
    "label": "201",
    "attribute": "0x0000000000000000",
    "text": "{{fun_0014003C arg=\"\"}}"
  },
  {
    "label": "201_01",
    "attribute": "0x0000000000000000",
    "text": "{{i20_2 arg=\"6\"}}{{anim id=\"BigSmile\" target=\"actor\" targetSpec=\"\"}}Ho letto un sacco di fumetti oggi,\nquindi ho una gran fame! {{delay8}}Adesso\nfaccio rifornimento, poi ricomincio!"
  },
  {
    "label": "201_02",
    "attribute": "0x0000000000000000",
    "text": "{{i20_2 arg=\"14\"}}Scusa! {{delay20}}{{anim id=\"FaintSmile\" target=\"actor\" targetSpec=\"\"}}Posso avere altri due\nidrogeni e un ossigeno? {{delay20}}Ho una\nsete incredibile, {{string value=\"6\"}}."
  },
  {
    "label": "201_03",
    "attribute": "0x0000000000000000",
    "text": "{{i20_2 arg=\"14\"}}Non so decidermi. {{delay20}}{{anim id=\"QuestionMark\" target=\"actor\" targetSpec=\"\"}}Cosa mangiano\ngli altri?{{delay20}}{{anim id=\"Hesitate\" target=\"actor\" targetSpec=\"\"}} Pensi che mi lascerebbero\nassaggiare i loro piatti?"
  },
  {
    "label": "201_04",
    "attribute": "0x0000000000000000",
    "text": "{{i20_2 arg=\"6\"}}{{anim id=\"SmugFace\" target=\"actor\" targetSpec=\"\"}}Starò qui finché non avrò provato\ntutti i piatti del menu! {{delay20}}{{anim id=\"Laughing\" target=\"actor\" targetSpec=\"\"}}Potrei dover\nrestare fino a domani, in effetti."
  },
  {
    "label": "201_05",
    "attribute": "0x0000000000000000",
    "text": "{{i20_2 arg=\"6\"}}{{anim id=\"Love\" target=\"actor\" targetSpec=\"\"}}Il profumino che viene dalla cucina\nè da acquolina in bocca. {{delay20}}Stanno di\ncerto preparando della roba mitica!"
  },
  {
    "label": "202",
    "attribute": "0x0000000000000000",
    "text": "{{fun_0014003C arg=\"\"}}"
  },
  {
    "label": "202_01",
    "attribute": "0x0000000000000000",
    "text": "{{anim id=\"BigSmile\" target=\"actor\" targetSpec=\"\"}}Sono qui per mangiare{{string value=\"...\"}}{{delay8}} fino\na scoppiare!{{delay20}}{{anim id=\"HappyFlower\" target=\"actor\" targetSpec=\"\"}} Pancia mia fatti\ncapanna!"
  },
  {
    "label": "202_02",
    "attribute": "0x0000000000000000",
    "text": "{{anim id=\"Nodding\" target=\"actor\" targetSpec=\"\"}}Molto bene,{{delay8}} il mio naso ha avuto\ndi che saziarsi. {{delay20}}{{anim id=\"HappyDance\" target=\"actor\" targetSpec=\"\"}}Ora è il momento\ndi passare al palato{{string value=\"...\"}} {{delay8}}Si mangia!"
  },
  {
    "label": "202_03",
    "attribute": "0x0000000000000000",
    "text": "{{size value=\"150\"}}{{i20_2 arg=\"14\"}}Oh, chiedo scusa!{{delay40}}{{pageBreak}}{{size value=\"100\"}}{{anim id=\"SmugFace\" target=\"actor\" targetSpec=\"\"}}Mi è scappato un ruttino.{{delay20}} Ora c'è\npiù spazio nella mia pancia!"
  },
  {
    "label": "202_04",
    "attribute": "0x0000000000000000",
    "text": "{{anim id=\"Thinking\" target=\"actor\" targetSpec=\"\"}}È così che si tengono forchetta e\ncoltello?{{delay20}}{{anim id=\"Laughing\" target=\"actor\" targetSpec=\"\"}} Non sono pratico, {{delay8}}a casa\nmangio direttamente con le zampe!"
  },
  {
    "label": "202_05",
    "attribute": "0x0000000000000000",
    "text": "{{anim id=\"Smiling\" target=\"actor\" targetSpec=\"\"}}Qui è tutto così buono!{{delay20}}{{anim id=\"Hello\" target=\"actor\" targetSpec=\"\"}} Voglio fare\nil bis{{string value=\"...\"}} anzi, il tris!"
  },
  {
    "label": "203",
    "attribute": "0x0000000000000000",
    "text": "{{i20_2 arg=\"6\"}}{{anim id=\"Love\" target=\"actor\" targetSpec=\"\"}}Ho battuto il mio record di\nacquolina in bocca al ristorante\n{{color id=\"1\"}}{{fun_00030096 arg=\"0x00CD\"}}{{color id=\"65535\"}}!"
  },
  {
    "label": "301",
    "attribute": "0x0000000000000000",
    "text": "{{fun_0014003C arg=\"\"}}"
  },
  {
    "label": "301_01",
    "attribute": "0x0000000000000000",
    "text": "{{i20_2 arg=\"14\"}}{{anim id=\"QuestionMark\" target=\"actor\" targetSpec=\"\"}}Dove sono gli ingredienti per il\nprossimo piatto? {{delay20}}Aspetta{{string value=\"...\"}} QUALI\nsono? {{delay8}}Tu lo sai, {{selection value=\"SelectedVillager\"}}?"
  },
  {
    "label": "301_02",
    "attribute": "0x0000000000000000",
    "text": "{{i20_2 arg=\"6\"}}{{anim id=\"Thinking\" target=\"actor\" targetSpec=\"\"}}Chissà se alla gente piacciono i\nmiei piatti{{string value=\"...\"}}{{delay20}} {{anim id=\"Negative\" target=\"actor\" targetSpec=\"\"}}Non cucino mai a casa.\n{{delay8}}Le merendine bastano e avanzano."
  },
  {
    "label": "301_03",
    "attribute": "0x0000000000000000",
    "text": "{{i20_2 arg=\"6\"}}{{anim id=\"Explain\" target=\"actor\" targetSpec=\"\"}}Cucinare è facile, basta pensare\nal cliente per cui stai cucinando{{string value=\"...\"}}{{delay8}}{{anim id=\"Love\" target=\"actor\" targetSpec=\"\"}}\ne preparare quello che ha ordinato!"
  },
  {
    "label": "301_04",
    "attribute": "0x0000000000000000",
    "text": "{{i20_2 arg=\"6\"}}{{anim id=\"Smiling\" target=\"actor\" targetSpec=\"\"}}Come capo chef, decido io la\nspecialità del giorno.{{pageBreak}}{{anim id=\"Worried\" target=\"actor\" targetSpec=\"\"}}Scelgo una cosa che mi piace, {{delay20}}poi\nprego che piaccia anche ai clienti!"
  },
  {
    "label": "301_05",
    "attribute": "0x0000000000000000",
    "text": "{{i20_2 arg=\"6\"}}{{anim id=\"Explain\" target=\"actor\" targetSpec=\"\"}}In cucina devi lavare i piatti, {{delay8}}mettere\na posto le provviste, {{delay8}}passare lo\nstraccio e{{string value=\"...\"}}{{delay8}}{{anim id=\"Confused\" target=\"actor\" targetSpec=\"\"}} non appisolarti! {{delay8}}Argh!"
  },
  {
    "label": "302",
    "attribute": "0x0000000000000000",
    "text": "{{fun_0014003C arg=\"\"}}"
  },
  {
    "label": "302_01",
    "attribute": "0x0000000000000000",
    "text": "{{i20_2 arg=\"14\"}}È quasi pronto. {{delay8}}Puoi portarmi\nun piatto, {{string value=\"6\"}}?"
  },
  {
    "label": "302_02",
    "attribute": "0x0000000000000000",
    "text": "{{anim id=\"BigSmile\" target=\"actor\" targetSpec=\"\"}}OK, è tempo di cucinare! {{delay20}}Ne faccio\nsempre un po' di più, così dopo mi\nposso mangiare gli avanzi."
  },
  {
    "label": "302_03",
    "attribute": "0x0000000000000000",
    "text": "{{anim id=\"EmotEnd\" target=\"actor\" targetSpec=\"\"}}D'accordo,{{delay20}} il piatto è pronto.{{delay20}} {{i20_2 arg=\"14\"}}Ehi,\n{{selection value=\"SelectedVillager\"}}! {{delay20}}Portalo a chi l'ha ordinato, OK?"
  },
  {
    "label": "302_04",
    "attribute": "0x0000000000000000",
    "text": "{{i20_2 arg=\"6\"}}Ah ah ah! {{delay8}}Ha un bell'aspetto, no?\n{{delay8}}Beh, è buonissimo! {{delay20}}{{anim id=\"Laughing\" target=\"actor\" targetSpec=\"\"}}E ora chiedimi\ncome faccio a saperlo!"
  },
  {
    "label": "302_05",
    "attribute": "0x0000000000000000",
    "text": "{{anim id=\"Nodding\" target=\"actor\" targetSpec=\"\"}}E ora aggiungo il mio ingrediente\nsegreto{{string value=\"...\"}}{{delay8}} {{i20_2 arg=\"6\"}}Esatto. {{delay20}}{{anim id=\"Love\" target=\"actor\" targetSpec=\"\"}}È l'amore!{{delay20}} {{anim id=\"Laughing\" target=\"actor\" targetSpec=\"\"}}E un\nsacco di aglio!"
  },
  {
    "label": "303",
    "attribute": "0x0000000000000000",
    "text": "{{i20_2 arg=\"6\"}}{{anim id=\"SmugFace\" target=\"actor\" targetSpec=\"\"}}Se vuoi mangiare il cibo che cucina\nil sottoscritto, vai al ristorante\n{{color id=\"1\"}}{{fun_00030096 arg=\"0x00CD\"}}{{color id=\"65535\"}}!{{pageBreak}}Non ho mai lavorato nel campo\ndella pubblicità, {{delay8}}{{anim id=\"Laughing\" target=\"actor\" targetSpec=\"\"}}ma me la cavo,\nnon credi, {{string value=\"6\"}}?"
  },
  {
    "label": "401",
    "attribute": "0x0000000000000000",
    "text": "{{fun_0014003C arg=\"\"}}"
  },
  {
    "label": "401_01",
    "attribute": "0x0000000000000000",
    "text": "{{i20_2 arg=\"6\"}}{{anim id=\"Serious\" target=\"actor\" targetSpec=\"\"}}Mmmh{{string value=\"...\"}}{{delay20}} {{anim id=\"AbsentMindedness\" target=\"actor\" targetSpec=\"\"}}Cosa mangio durante la\npausa, {{string value=\"6\"}}?"
  },
  {
    "label": "401_02",
    "attribute": "0x0000000000000000",
    "text": "{{anim id=\"Thinking\" target=\"actor\" targetSpec=\"\"}}Ingredienti?{{delay8}} Cos'è un grediente?\n{{delay8}}Perché mai contiene qualcosa?{{delay20}}{{anim id=\"EmotEnd\" target=\"actor\" targetSpec=\"\"}}\n{{i20_2 arg=\"6\"}}Questo lavoro è un mistero."
  },
  {
    "label": "401_03",
    "attribute": "0x0000000000000000",
    "text": "{{i20_2 arg=\"6\"}}A volte, {{delay8}}se nessuno sta guardando,\n{{delay8}}riesco ad assaggiare il cibo preparato\nda chef {{selection value=\"SelectedVillager\"}}!"
  },
  {
    "label": "401_04",
    "attribute": "0x0000000000000000",
    "text": "{{anim id=\"Smiling\" target=\"actor\" targetSpec=\"\"}}Vado a preparare i piatti!{{delay20}}{{i20_2 arg=\"6\"}} Mi piace\nfargli un discorso d'incoraggiamento\nprima che vadano in tavola."
  },
  {
    "label": "401_05",
    "attribute": "0x0000000000000000",
    "text": "{{anim id=\"Confused\" target=\"actor\" targetSpec=\"\"}}Quanta gente! Sono occupatissimo!\n{{delay20}}{{anim id=\"Worried\" target=\"actor\" targetSpec=\"\"}}Gente, clienti!{{delay20}}{{anim id=\"Frantic\" target=\"actor\" targetSpec=\"\"}} Sono troppo occupato\nper essere occupato! {{i20_2 arg=\"6\"}}{{delay20}}{{anim id=\"Crying\" target=\"actor\" targetSpec=\"\"}}AAAAAAAAH!"
  },
  {
    "label": "402",
    "attribute": "0x0000000000000000",
    "text": "{{fun_0014003C arg=\"\"}}"
  },
  {
    "label": "402_01",
    "attribute": "0x0000000000000000",
    "text": "{{anim id=\"AbsentMindedness\" target=\"actor\" targetSpec=\"\"}}Scommetto che quando chef {{selection value=\"SelectedVillager\"}} assaggerà la mia ricetta{{string value=\"...\"}}{{delay20}} {{anim id=\"Laughing\" target=\"actor\" targetSpec=\"\"}}Ah ah ah, {{string value=\"6\"}}!"
  },
  {
    "label": "402_02",
    "attribute": "0x0000000000000000",
    "text": "{{i20_2 arg=\"6\"}}{{anim id=\"Explain\" target=\"actor\" targetSpec=\"\"}}Quando ho un po' di tempo, lo uso\nper una pausa spuntino!"
  },
  {
    "label": "402_03",
    "attribute": "0x0000000000000000",
    "text": "{{i20_2 arg=\"6\"}}Io cucino per lo staff. {{delay20}}{{anim id=\"SmugFace\" target=\"actor\" targetSpec=\"\"}}Faccio del mio meglio, così {{selection value=\"SelectedVillager\"}} non mi chiede se so usare un coltello!"
  },
  {
    "label": "402_04",
    "attribute": "0x0000000000000000",
    "text": "{{anim id=\"Nodding\" target=\"actor\" targetSpec=\"\"}}Bene, bene, {{delay8}}ha un bell'aspetto!{{delay20}}\nDecisamente.{{delay8}} E che profumino!{{delay20}}{{anim id=\"ShyBoy\" target=\"actor\" targetSpec=\"\"}}\nE che consistenza al tatto!"
  },
  {
    "label": "402_05",
    "attribute": "0x0000000000000000",
    "text": "{{i20_2 arg=\"6\"}}Vedendo cosa si inventano gli chef\nprofessionisti, capisci che sono\npraticamente dei maghi.{{pageBreak}}{{anim id=\"Explain\" target=\"actor\" targetSpec=\"\"}}Cioè, {{delay8}}tutti e due si vestono in modo\nstrano, {{delay8}}urlano cose senza senso {{delay20}}{{anim id=\"Love\" target=\"actor\" targetSpec=\"\"}}e\nmi danno i biscotti quando piango."
  },
  {
    "label": "403",
    "attribute": "0x0000000000000000",
    "text": "{{i20_2 arg=\"6\"}}Vorrei essere lo chef del ristorante\n{{delay8}}{{anim id=\"Love\" target=\"actor\" targetSpec=\"\"}}{{color id=\"1\"}}{{fun_00030096 arg=\"0x00CD\"}}{{color id=\"65535\"}}! {{delay8}}Se solo sapessi cucinare{{string value=\"...\"}}"
  },
  {
    "label": "503",
    "attribute": "0x0000000000000000",
    "text": "{{i20_2 arg=\"6\"}}{{anim id=\"Explain\" target=\"actor\" targetSpec=\"\"}}Questa è sicuramente la stanza\npiù elegante del ristorante\n{{color id=\"1\"}}{{fun_00030096 arg=\"0x00CD\"}}{{color id=\"65535\"}}.{{pageBreak}}{{anim id=\"Explain\" target=\"actor\" targetSpec=\"\"}}La scienza ha dimostrato che il cibo\nè più buono quando ti senti molto\nelegante, {{string value=\"6\"}}!"
  },
  {
    "label": "510",
    "attribute": "0x0000000000000000",
    "text": "{{fun_0014003C arg=\"\"}}"
  },
  {
    "label": "510_01",
    "attribute": "0x0000000000000000",
    "text": "{{i20_2 arg=\"6\"}}{{anim id=\"Explain\" target=\"actor\" targetSpec=\"\"}}Non ci sono clienti in giro, è un po'\ninquietante, {{string value=\"6\"}}."
  },
  {
    "label": "510_02",
    "attribute": "0x0000000000000000",
    "text": "{{i20_2 arg=\"6\"}}{{anim id=\"Explain\" target=\"actor\" targetSpec=\"\"}}Lo sai che solo due clienti alla volta\npossono entrare qui?{{delay20}} {{anim id=\"SmugFace\" target=\"actor\" targetSpec=\"\"}}È un posto\nsuuuper esclusivo.{{pageBreak}}{{anim id=\"HappyDance\" target=\"actor\" targetSpec=\"\"}}♪ Siamo troppo belli e bravi e\nnessun altro è abbastanza bello e\nbravo da poter giocare con noi! ♪"
  },
  {
    "label": "510_03",
    "attribute": "0x0000000000000000",
    "text": "{{i20_2 arg=\"6\"}}Questa è una stanza speciale, pare.{{delay20}}\nNon so perché.{{delay20}} Mi sembra normale.{{delay20}}\n{{anim id=\"Confused\" target=\"actor\" targetSpec=\"\"}}Quattro pavimenti, una parete, no?"
  },
  {
    "label": "511",
    "attribute": "0x0000000000000000",
    "text": "{{fun_0014003C arg=\"\"}}"
  },
  {
    "label": "511_01",
    "attribute": "0x0000000000000000",
    "text": "{{i20_2 arg=\"6\"}}Questa stanza è prenotata solo per\n{{anim id=\"SmugFace\" target=\"actor\" targetSpec=\"\"}}me e {{delay20}}{{selection value=\"SelectedVillager\"}}!{{pageBreak}}È come un fortino e lo difenderemo\ncon tutte le nostre forze!"
  },
  {
    "label": "511_02",
    "attribute": "0x0000000000000000",
    "text": "{{anim id=\"AbsentMindedness\" target=\"actor\" targetSpec=\"\"}}Prenotare una stanza per poter\nmangiare da soli{{string value=\"...\"}}{{pageBreak}}{{anim id=\"EmotEnd\" target=\"actor\" targetSpec=\"\"}}{{i20_2 arg=\"6\"}}{{anim id=\"QuestionMark\" target=\"actor\" targetSpec=\"\"}}Non è una cosa un po' strana?{{delay20}}{{anim id=\"Laughing\" target=\"actor\" targetSpec=\"\"}}\nPotevamo stare da soli a casa nostra,\nsenza spendere niente."
  },
  {
    "label": "511_03",
    "attribute": "0x0000000000000000",
    "text": "{{anim id=\"Thinking\" target=\"actor\" targetSpec=\"\"}}Gli unici che possono entrare qui{{delay20}}\nsiamo io e {{selection value=\"SelectedVillager\"}}.{{pageBreak}}{{anim id=\"Nodding\" target=\"actor\" targetSpec=\"\"}}Qualcuno ha provato a entrare, ma\nl'abbiamo cacciato. {{delay8}}Così ora non ci\nvogliono più portare da mangiare."
  },
  {
    "label": "512",
    "attribute": "0x0000000000000000",
    "text": "{{fun_0014003C arg=\"\"}}"
  },
  {
    "label": "512_01",
    "attribute": "0x0000000000000000",
    "text": "{{i20_2 arg=\"6\"}}{{anim id=\"FaintSmile\" target=\"actor\" targetSpec=\"\"}}Scusa, potrei avere una copia del\nmenu segreto? {{delay20}}Quello che tieni per\ni clienti{{string value=\"...\"}}{{delay8}}{{anim id=\"SmugFace\" target=\"actor\" targetSpec=\"\"}} affezionati?"
  },
  {
    "label": "512_02",
    "attribute": "0x0000000000000000",
    "text": "{{anim id=\"FaintSmile\" target=\"actor\" targetSpec=\"\"}}Mangerò finché non riesco più a\nmuovermi. {{delay20}}Te lo dico giusto per\navvertirti, {{string value=\"6\"}}!"
  },
  {
    "label": "512_03",
    "attribute": "0x0000000000000000",
    "text": "{{anim id=\"Nodding\" target=\"actor\" targetSpec=\"\"}}Le stanze segrete per rimpinzarsi al\nristorante sono carine.{{delay20}}{{anim id=\"SmugFace\" target=\"actor\" targetSpec=\"\"}} Ma se vedessi\nla dispensa segreta a casa mia{{string value=\"...\"}}"
  },
  {
    "label": "513",
    "attribute": "0x0000000000000000",
    "text": "{{fun_0014003C arg=\"\"}}"
  },
  {
    "label": "513_01",
    "attribute": "0x0000000000000000",
    "text": "{{i20_2 arg=\"6\"}}{{anim id=\"FaintSmile\" target=\"actor\" targetSpec=\"\"}}Ti chiedi mai quante merendine\nsono state divorate in questa\nstanza, {{string value=\"6\"}}?"
  },
  {
    "label": "513_02",
    "attribute": "0x0000000000000000",
    "text": "{{anim id=\"Nodding\" target=\"actor\" targetSpec=\"\"}}Questi posticini così mi piacciono\nun sacco.{{pageBreak}}{{anim id=\"HappyFlower\" target=\"actor\" targetSpec=\"\"}}Ma mi piacciono tutti i posticini\ndove posso mettere qualcosa sotto\nai denti con {{selection value=\"SelectedVillager\"}}!"
  },
  {
    "label": "513_03",
    "attribute": "0x0000000000000000",
    "text": "{{i20_2 arg=\"6\"}}{{anim id=\"BigSmile\" target=\"actor\" targetSpec=\"\"}}Oggi faremo un esperimento:\nriusciremo a mangiare una carriola\ndi dolci, {{string value=\"6\"}}?{{pageBreak}}{{anim id=\"Explain\" target=\"actor\" targetSpec=\"\"}}Io ho detto che sui dolci non ho\ndubbi, {{delay8}}ma sulla carriola non saprei.\n{{delay20}}{{anim id=\"Laughing\" target=\"actor\" targetSpec=\"\"}}E {{selection value=\"SelectedVillager\"}} mi ha sgridato!"
  }
]