﻿[
  {
    "label": "001",
    "attribute": "0x0000000000000000",
    "text": "{{anim id=\"Shocked\" target=\"actor\" targetSpec=\"\"}}Ich bin entsetzt!{{delay20}} {{anim id=\"Negative\" target=\"actor\" targetSpec=\"\"}}Normalerweise bist\ndu doch so nett!{{delay20}}{{anim id=\"Angry\" target=\"actor\" targetSpec=\"\"}} Wozu dieser\nGewaltausbruch, {{delay8}}{{string value=\"NickName\"}}?"
  },
  {
    "label": "002",
    "attribute": "0x0000000000000000",
    "text": "{{anim id=\"Outraged\" target=\"actor\" targetSpec=\"\"}}Was war das denn?{{delay20}}{{anim id=\"Angry\" target=\"actor\" targetSpec=\"\"}} Ist da irgendein\nKonfliktpotenzial, von dem ich bisher\nkeine Kenntnis hatte?{{pageBreak}}{{anim id=\"Fuming\" target=\"actor\" targetSpec=\"\"}}Das war äußerst schmerzhaft!{{delay20}}\nSind dir meine Gefühle de facto\neinerlei, {{delay8}}{{string value=\"Catchphrase\"}}?{{anim id=\"EmotEnd\" target=\"actor\" targetSpec=\"\"}}"
  },
  {
    "label": "003",
    "attribute": "0x0000000000000000",
    "text": "{{anim id=\"Outraged\" target=\"actor\" targetSpec=\"\"}}Wann wirst du endlich erwachsen?!{{delay20}}\n{{anim id=\"Angry\" target=\"actor\" targetSpec=\"\"}}Es gibt gesündere Arten,\nsich abzureagieren!{{pageBreak}}{{anim id=\"Silent\" target=\"actor\" targetSpec=\"\"}}Und es gibt bessere Arten, auf\nsich aufmerksam zu machen.{{delay20}}{{anim id=\"Outraged\" target=\"actor\" targetSpec=\"\"}}\nWesentlich bessere Arten!{{anim id=\"EmotEnd\" target=\"actor\" targetSpec=\"\"}}"
  },
  {
    "label": "004",
    "attribute": "0x0000000000000000",
    "text": "{{anim id=\"Confused\" target=\"actor\" targetSpec=\"\"}}Hoppla! {{delay20}}Vorsicht, bevor ein\nrichtiges Unglück passiert!{{pageBreak}}{{anim id=\"Worried\" target=\"actor\" targetSpec=\"\"}}Seit wann bist du so gemein?{{delay20}}\n{{anim id=\"SadSpiral\" target=\"actor\" targetSpec=\"\"}}Ich hatte dich für so kultiviert wie\nmich selbst gehalten, {{delay8}}{{string value=\"Catchphrase\"}}.{{anim id=\"EmotEnd\" target=\"actor\" targetSpec=\"\"}}"
  },
  {
    "label": "005",
    "attribute": "0x0000000000000000",
    "text": "{{anim id=\"Worried\" target=\"actor\" targetSpec=\"\"}}Autsch. {{delay20}}Was ist denn mit dir los?{{delay40}}\n{{anim id=\"SadSpiral\" target=\"actor\" targetSpec=\"\"}}Und ich hatte dich für respektierlich\nund sympathisch gehalten.{{anim id=\"EmotEnd\" target=\"actor\" targetSpec=\"\"}}"
  },
  {
    "label": "006",
    "attribute": "0x0000000000000000",
    "text": "{{anim id=\"Pardon\" target=\"actor\" targetSpec=\"\"}}Könntest du so etwas bitte\nunterlassen?{{delay40}} {{anim id=\"OhGeez\" target=\"actor\" targetSpec=\"\"}}Für solch unreifes\nVerhalten habe ich nichts übrig!"
  }
]