﻿[
  {
    "label": "001",
    "attribute": "0x0000000100000000",
    "text": "{{anim id=\"WrySmile\" target=\"actor\" targetSpec=\"\"}}Ya estoy a punto de deciros adiós\na esta isla{{delay8}} y a ti.{{pageBreak}}{{anim id=\"Nodding\" target=\"actor\" targetSpec=\"\"}}Te voy a echar de menos,{{delay20}} {{anim id=\"Love\" target=\"actor\" targetSpec=\"\"}}¡pero me\nalegra pensar que a los dos nos esperan nuevas y grandes aventuras!"
  },
  {
    "label": "002",
    "attribute": "0x0000000100000000",
    "text": "{{anim id=\"Frantic\" target=\"actor\" targetSpec=\"\"}}Tendré que empezar a hacer maletas\npronto{{delay20}} si quiero mudarme a tiempo{{string value=\"...\"}}{{pageBreak}}{{anim id=\"SmugFace\" target=\"actor\" targetSpec=\"\"}}Lo que pasa es que estoy muy\nocupado.{{delay20}} {{anim id=\"ShyBoy\" target=\"actor\" targetSpec=\"\"}}Tengo que comer,{{delay8}} echar la\nsiesta,{{delay8}} pensar qué voy a merendar{{string value=\"...\"}}"
  },
  {
    "label": "003",
    "attribute": "0x0000000100000000",
    "text": "{{anim id=\"Nodding\" target=\"actor\" targetSpec=\"\"}}Ya no me queda nada por aquí{{string value=\"...\"}}{{pageBreak}}{{anim id=\"Thinking\" target=\"actor\" targetSpec=\"\"}}Y me preocupa una cosa{{string value=\"...\"}}{{delay20}} {{anim id=\"Laughing\" target=\"actor\" targetSpec=\"\"}}¡No sé si\nvoy a tener cajas suficientes para\nmeter todas mis figuras!"
  }
]