﻿[
  {
    "label": "001",
    "attribute": "0x0000030100000000",
    "text": "{{anim id=\"FaintSmile\" target=\"actor\" targetSpec=\"\"}}¿Has tomado ya hoy algún\ntentempié?"
  },
  {
    "label": "001_a",
    "attribute": "0x0200000000000000",
    "text": "¡Sí!"
  },
  {
    "label": "001_b",
    "attribute": "0x0300000000000000",
    "text": "Aún no..."
  },
  {
    "label": "001_c",
    "attribute": "0x0400000000000000",
    "text": "Estaba a punto..."
  },
  {
    "label": "002",
    "attribute": "0x0000000000000000",
    "text": "¡Qué suerte!{{delay8}} {{anim id=\"Sighing\" target=\"actor\" targetSpec=\"\"}}Yo aún no he tenido\ntiempo.{{delay20}} {{anim id=\"Thinking\" target=\"actor\" targetSpec=\"\"}}He estado ocupado haciendo\nla lista de lo que me apetece{{string value=\"...\"}}\n{{anim id=\"Explain\" target=\"actor\" targetSpec=\"\"}}Por fin he conseguido reducirla a\nveinte opciones,{{delay8}} {{anim id=\"Pardon\" target=\"actor\" targetSpec=\"\"}}pero quedarse solo\ncon una es lo que más va a costar."
  },
  {
    "label": "003",
    "attribute": "0x0000000000000000",
    "text": "{{anim id=\"Shocked\" target=\"actor\" targetSpec=\"\"}}¿Qué? ¿Y cómo es eso?{{pageBreak}}{{anim id=\"EmotEnd\" target=\"actor\" targetSpec=\"\"}}Mira que a mí se me olvidan cosas,{{delay8}}\n{{anim id=\"Laughing\" target=\"actor\" targetSpec=\"\"}}¡pero cuando se trata de comer,{{delay8}}\nno paso una!"
  },
  {
    "label": "004",
    "attribute": "0x0000000000000000",
    "text": "{{anim id=\"HappyDance\" target=\"actor\" targetSpec=\"\"}}¡Vaya, qué emocionante!{{pageBreak}}{{anim id=\"Confused\" target=\"actor\" targetSpec=\"\"}}Yo no tengo tanta paciencia;{{delay8}}\nde hecho ya me comí ayer\nel tentempié de hoy.\n{{anim id=\"IdeaBulb\" target=\"actor\" targetSpec=\"\"}}Un momento{{string value=\"...\"}}{{delay20}} {{anim id=\"Grin\" target=\"actor\" targetSpec=\"\"}}¿y si me como hoy\nlo que tengo para mañana?{{delay20}}\n{{anim id=\"EmotEnd\" target=\"actor\" targetSpec=\"\"}}¡Soy un genio!"
  },
  {
    "label": "005",
    "attribute": "0x0000030100000000",
    "text": "Oye, {{string value=\"NickName\"}}{{string value=\"...\"}}{{delay8}} {{anim id=\"QuestionMark\" target=\"actor\" targetSpec=\"\"}}a la hora de la merienda,{{delay8}} ¿qué es lo que más te apetece?"
  },
  {
    "label": "005_a",
    "attribute": "0x0600000000000000",
    "text": "Tarta\nChocolate\nRosquillas"
  },
  {
    "label": "005_b",
    "attribute": "0x0700000000000000",
    "text": "Altramuces\nPepinillos en vinagre\nAnchoas"
  },
  {
    "label": "005_c",
    "attribute": "0x0800000000000000",
    "text": "Pues no sé..."
  },
  {
    "label": "006",
    "attribute": "0x0000000000000000",
    "text": "{{anim id=\"Pardon\" target=\"actor\" targetSpec=\"\"}}¡Eso es exactamente lo que había\nplaneado para mi próxima merienda!{{pageBreak}}{{anim id=\"Nodding\" target=\"actor\" targetSpec=\"\"}}No hay nada como algo dulce a la\nhora de merendar{{string value=\"...\"}}{{delay8}} {{anim id=\"Love\" target=\"actor\" targetSpec=\"\"}}¡o a cualquier\nhora, en realidad!"
  },
  {
    "label": "007",
    "attribute": "0x0000000000000000",
    "text": "{{anim id=\"Shocked\" target=\"actor\" targetSpec=\"\"}}¡Vaya, no se me había ocurrido!{{delay8}}\n¡Me acabas de abrir los ojos a un\nnuevo mundo de posibilidades!\n{{anim id=\"EmotEnd\" target=\"actor\" targetSpec=\"\"}}No parece mala idea;{{delay20}} {{anim id=\"Laughing\" target=\"actor\" targetSpec=\"\"}}¡dependiendo\nde la hora, lo salado entra mucho mejor que lo dulce!"
  },
  {
    "label": "008",
    "attribute": "0x0000000000000000",
    "text": "{{anim id=\"Smiling\" target=\"actor\" targetSpec=\"\"}}Sí{{string value=\"...\"}}{{delay8}} te entiendo perfectamente.{{pageBreak}}{{anim id=\"EmotEnd\" target=\"actor\" targetSpec=\"\"}}Es muy difícil decidir si quieres algo\ndulce o algo salado para merendar.{{delay20}}\n{{anim id=\"HappyFlower\" target=\"actor\" targetSpec=\"\"}}¡Por eso yo suelo mezclarlo todo!"
  },
  {
    "label": "009",
    "attribute": "0x0000100100000000",
    "text": "{{anim id=\"Smiling\" target=\"actor\" targetSpec=\"\"}}Oye, {{string value=\"NickName\"}},{{delay8}} ¿cuál de estos es tu tentempié favorito?"
  },
  {
    "label": "009_a",
    "attribute": "0x0A00000000000000",
    "text": "Galletas"
  },
  {
    "label": "009_b",
    "attribute": "0x0B00000000000000",
    "text": "Chocolate"
  },
  {
    "label": "009_c",
    "attribute": "0x0C00000000000000",
    "text": "Helado"
  },
  {
    "label": "009_d",
    "attribute": "0x0D00000000000000",
    "text": "Tarta"
  },
  {
    "label": "010",
    "attribute": "0x0000000000000000",
    "text": "{{anim id=\"Aha\" target=\"actor\" targetSpec=\"\"}}¡A mí también me chiflan\nlas galletas!{{i10_4}} {{anim id=\"AbsentMindedness\" target=\"actor\" targetSpec=\"\"}}Sobre todo bien\nmojaditas en leche{{string value=\"...\"}}{{delay8}} {{anim id=\"Love\" target=\"actor\" targetSpec=\"\"}}¡Ñam!\n{{anim id=\"HappyFlower\" target=\"actor\" targetSpec=\"\"}}¡Tengo que decirte que tienes unos\ngustos culinarios su{{delay8}}per{{delay8}}cha{{delay8}}chis!"
  },
  {
    "label": "011",
    "attribute": "0x0000000000000000",
    "text": "{{anim id=\"Aha\" target=\"actor\" targetSpec=\"\"}}¡A mí también me encanta\nel chocolate!{{pageBreak}}{{anim id=\"AbsentMindedness\" target=\"actor\" targetSpec=\"\"}}¿Te gusta puro o con leche?{{delay20}}\nAunque no se me ocurre de qué\nforma podría estar malo el chocolate.\n{{anim id=\"HappyFlower\" target=\"actor\" targetSpec=\"\"}}¡Es mi mejor amigo de cualquier\nforma!{{delay8}} ¡Igual que tú, {{string value=\"NickName\"}}!"
  },
  {
    "label": "012",
    "attribute": "0x0000000000000000",
    "text": "{{anim id=\"AbsentMindedness\" target=\"actor\" targetSpec=\"\"}}Helado{{string value=\"...\"}}{{delay8}} Qué delicia{{string value=\"...\"}}{{delay20}}\nEstá dulce y fresquito.{{pageBreak}}{{anim id=\"HappyFlower\" target=\"actor\" targetSpec=\"\"}}¡Cualquiera a quien le guste\nel helado{{delay8}} es amig{{gender2 m=\"o\" f=\"a\"}} mí{{gender2 m=\"o\" f=\"a\"}}!"
  },
  {
    "label": "013",
    "attribute": "0x0000000000000000",
    "text": "{{anim id=\"Nodding\" target=\"actor\" targetSpec=\"\"}}Es verdad. No hay nada mejor\nque las tartas.{{pageBreak}}{{anim id=\"AbsentMindedness\" target=\"actor\" targetSpec=\"\"}}Me gustan las que tienen la masa\nblandita, están rellenas de nata\ny tienen por encima crema y fresas.\n{{anim id=\"HappyFlower\" target=\"actor\" targetSpec=\"\"}}Cuando te apetezca hablar\nsobre tartas,{{delay8}} no lo dudes:{{delay20}}\n{{anim id=\"Assent\" target=\"actor\" targetSpec=\"\"}}¡yo soy tu animal!"
  },
  {
    "label": "014",
    "attribute": "0x0000100100000000",
    "text": "{{anim id=\"Smiling\" target=\"actor\" targetSpec=\"\"}}Perdona si te parece rara la\npregunta, pero{{string value=\"...\"}}{{delay8}} ¿qué color\nte gusta más?"
  },
  {
    "label": "014_a",
    "attribute": "0x0F00000000000000",
    "text": "El rojo"
  },
  {
    "label": "014_b",
    "attribute": "0x1000000000000000",
    "text": "El naranja"
  },
  {
    "label": "014_c",
    "attribute": "0x1100000000000000",
    "text": "El amarillo"
  },
  {
    "label": "014_d",
    "attribute": "0x1200000000000000",
    "text": "El dorado"
  },
  {
    "label": "015",
    "attribute": "0x0000000000000000",
    "text": "{{anim id=\"BigSmile\" target=\"actor\" targetSpec=\"\"}}Puedo decirte un montón de cosas\nbasándome en el color que elijas.{{pageBreak}}{{anim id=\"Explain\" target=\"actor\" targetSpec=\"\"}}Has elegido el rojo,{{delay8}} así que seguro\nque te sobra fuerza y energía.{{delay20}}\n{{anim id=\"Thinking\" target=\"actor\" targetSpec=\"\"}}Si fueras una comida, serías{{string value=\"...\"}}\n{{anim id=\"IdeaBulb\" target=\"actor\" targetSpec=\"\"}}¡Una guindilla!{{delay20}} Cinco minutos contigo,{{delay8}} {{anim id=\"Laughing\" target=\"actor\" targetSpec=\"\"}}¡y ya está todo el\nmundo revolucionado!"
  },
  {
    "label": "016",
    "attribute": "0x0000000000000000",
    "text": "{{anim id=\"BigSmile\" target=\"actor\" targetSpec=\"\"}}¿Sabías que el color que elijas\ndice mucho sobre ti?{{pageBreak}}{{anim id=\"Explain\" target=\"actor\" targetSpec=\"\"}}Si has elegido el naranja,{{delay8}} seguro\nque la gente se lo pasa muy bien\ncontigo{{string value=\"...\"}}\n{{anim id=\"Thinking\" target=\"actor\" targetSpec=\"\"}}Pero me apuesto la merienda a que\ntambién te sientes sol{{gender2 m=\"o\" f=\"a\"}} con mucha\nfacilidad, ¿no?\n{{anim id=\"EmotEnd\" target=\"actor\" targetSpec=\"\"}}Si fueras comida{{string value=\"...\"}}{{delay8}} {{anim id=\"Nodding\" target=\"actor\" targetSpec=\"\"}}serías una\ncebolla,{{delay8}} que sirve muy bien de aliño,{{delay8}}\n{{anim id=\"WrySmile\" target=\"actor\" targetSpec=\"\"}}pero a veces te hace llorar."
  },
  {
    "label": "017",
    "attribute": "0x0000000000000000",
    "text": "{{anim id=\"BigSmile\" target=\"actor\" targetSpec=\"\"}}¿Te digo lo que indica tu respuesta?{{pageBreak}}{{anim id=\"Explain\" target=\"actor\" targetSpec=\"\"}}Has elegido el amarillo,{{delay8}} así que eres\nel alma de la fiesta.{{delay20}} Todo el mundo\nquiere estar contigo{{string value=\"...\"}}\n{{anim id=\"EmotEnd\" target=\"actor\" targetSpec=\"\"}}Si fueras comida,{{delay8}} seguro que serías\nun limón:{{delay20}} {{anim id=\"HappyDance\" target=\"actor\" targetSpec=\"\"}}¡das un toque de sabor\nen cualquier situación!"
  },
  {
    "label": "018",
    "attribute": "0x0000000000000000",
    "text": "{{anim id=\"BigSmile\" target=\"actor\" targetSpec=\"\"}}Vaya, eso dice mucho sobre ti{{string value=\"...\"}}{{pageBreak}}{{anim id=\"Explain\" target=\"actor\" targetSpec=\"\"}}El dorado indica que te gusta\ndestacar y ser el centro de atención.{{pageBreak}}{{anim id=\"EmotEnd\" target=\"actor\" targetSpec=\"\"}}Si fueras comida{{string value=\"...\"}}{{delay frames=\"20\"}} {{anim id=\"Love\" target=\"actor\" targetSpec=\"\"}}¡fijo que serías\nun durián!{{delay frames=\"20\"}} ¡Esa fruta destaca hasta\npor el nombre!"
  },
  {
    "label": "019",
    "attribute": "0x0000030100000000",
    "text": "{{anim id=\"Sleepy\" target=\"actor\" targetSpec=\"\"}}Jo{{string value=\"...\"}}{{delay20}} Llevo todo el día bostezando.{{delay frames=\"40\"}}\n{{anim id=\"QuestionMark\" target=\"actor\" targetSpec=\"\"}}¿Es verdad eso de que los bostezos\nson contagiosos?{{delay20}} ¿Tú tienes sueño?"
  },
  {
    "label": "019_a",
    "attribute": "0x1400000000000000",
    "text": "Sí, bastante..."
  },
  {
    "label": "019_b",
    "attribute": "0x1500000000000000",
    "text": "Ahora mismo, ninguno"
  },
  {
    "label": "019_c",
    "attribute": "0x1600000000000000",
    "text": "Duermo regular..."
  },
  {
    "label": "020",
    "attribute": "0x0000000000000000",
    "text": "Igual que yo.{{delay20}} {{anim id=\"Sleepy\" target=\"actor\" targetSpec=\"\"}}¿Qué nos estará\npasando hoy?{{pageBreak}}{{anim id=\"Shocked\" target=\"actor\" targetSpec=\"\"}}¡Espera!{{delay20}} ¿Y si no somos solo\nnosotros dos?{{pageBreak}}{{anim id=\"Surprised\" target=\"actor\" targetSpec=\"\"}}¡¿Y si toda {{string value=\"OtherIslandName\"}}\nestuviera bajo el influjo maligno\nde una siesta colectiva eterna?!\n{{anim id=\"WrySmile\" target=\"actor\" targetSpec=\"\"}}Pero qué tonterías que digo{{string value=\"...\"}}{{delay8}}\n{{anim id=\"Laughing\" target=\"actor\" targetSpec=\"\"}}¿Cómo va a ser maligna una siesta?"
  },
  {
    "label": "021",
    "attribute": "0x0000000000000000",
    "text": "{{anim id=\"Eh\" target=\"actor\" targetSpec=\"\"}}¿No tienes sueño?{{delay frames=\"40\"}} {{anim id=\"Sleepy\" target=\"actor\" targetSpec=\"\"}}¿Ni un mísero\nbostezo te sale?{{pageBreak}}{{anim id=\"OhGeez\" target=\"actor\" targetSpec=\"\"}}Jo{{string value=\"...\"}}{{delay8}} Parece que hoy todo el sopor\ndel mundo me ataca solo a mí{{string value=\"...\"}}"
  },
  {
    "label": "022",
    "attribute": "0x0000000000000000",
    "text": "{{anim id=\"Aha\" target=\"actor\" targetSpec=\"\"}}¿Ah, sí?{{delay20}} Vaya,{{delay8}} {{anim id=\"OhGeez\" target=\"actor\" targetSpec=\"\"}}lo siento{{string value=\"...\"}}{{delay20}}\nUnos tantos y otros tan poco.{{pageBreak}}{{anim id=\"Blushing\" target=\"actor\" targetSpec=\"\"}}Yo,{{delay8}} si se trata de dormir,{{delay8}} el único\nproblema que tengo es despertarme.{{pageBreak}}{{anim id=\"Sleepy\" target=\"actor\" targetSpec=\"\"}}Me quedo frito donde sea y cuando\nsea{{string value=\"...\"}}{{delay20}} ¡además,{{delay8}} en tiempo récord!{{delay20}}\nTres segundos y{{string value=\"...\"}}{{delay20}} {{anim id=\"Sleep\" target=\"actor\" targetSpec=\"\"}}Zzz{{string value=\"...\"}}"
  }
]