﻿[
  {
    "label": "001",
    "text": "Voor {{string value=\"NickName\"}},"
  },
  {
    "label": "002",
    "text": "Beste {{string value=\"NickName\"}},"
  },
  {
    "label": "003",
    "text": "{{capitalizeNextLetter}}{{string value=\"NickName\"}}!"
  },
  {
    "label": "101",
    "text": "Even een klein berichtje om je te\nlaten weten dat ik je dit laatst had\nwillen geven. Het is maar iets\nkleins, maar hopelijk vind je het\nleuk!"
  },
  {
    "label": "102",
    "text": "Bijgaand het cadeautje dat ik je\neigenlijk persoonlijk had willen\noverhandigen. Alsjeblieft! Hopelijk\nkomt het van pas!"
  },
  {
    "label": "103",
    "text": "Sorry nog voor de vorige keer! Ik\nweet maar al te goed dat het soms\nschrikken is als je zo onverwacht\niets krijgt. Hopelijk is het zo beter!\nAls je het niets vindt, kun je het\ngewoon weggeven of verkopen."
  },
  {
    "label": "201",
    "text": "{{string value=\"VillagerName\"}}"
  },
  {
    "label": "202",
    "text": "Groetjes van {{string value=\"VillagerName\"}}"
  },
  {
    "label": "203",
    "text": "Je vriendin, {{string value=\"VillagerName\"}}"
  }
]