﻿[
  {
    "label": "001",
    "text": "{{gender2 m=\"Cher\" f=\"Chère\"}} {{string value=\"NickName\"}},"
  },
  {
    "label": "002",
    "text": "{{gender2 m=\"Mon cher\" f=\"Ma chère\"}} {{string value=\"NickName\"}},"
  },
  {
    "label": "003",
    "text": "Bonjour {{string value=\"NickName\"}},"
  },
  {
    "label": "004",
    "text": "{{capitalizeNextLetter}}{{string value=\"NickName\"}},"
  },
  {
    "label": "005",
    "text": "Comment vas-tu, {{string value=\"NickName\"}} ?"
  },
  {
    "label": "006",
    "text": "Salut {{string value=\"NickName\"}},"
  },
  {
    "label": "007",
    "text": "{{capitalizeNextLetter}}{{string value=\"NickName\"}}..."
  },
  {
    "label": "008",
    "text": "{{capitalizeNextLetter}}{{string value=\"NickName\"}}, mon ami{{gender2 m=\"\" f=\"e\"}},"
  },
  {
    "label": "009",
    "text": "Je te salue, {{string value=\"NickName\"}}."
  },
  {
    "label": "010",
    "text": "Coucou {{string value=\"NickName\"}},"
  },
  {
    "label": "201",
    "text": "Je t'embrasse, {{string value=\"VillagerName\"}}"
  },
  {
    "label": "202",
    "text": "Bisous, {{string value=\"VillagerName\"}}"
  },
  {
    "label": "203",
    "text": "Affectueusement, {{string value=\"VillagerName\"}}"
  },
  {
    "label": "204",
    "text": "Cordialement, {{string value=\"VillagerName\"}}"
  },
  {
    "label": "205",
    "text": "À très bientôt, {{string value=\"VillagerName\"}}"
  },
  {
    "label": "206",
    "text": "Ton amie, {{string value=\"VillagerName\"}}"
  },
  {
    "label": "207",
    "text": "Amitiés, {{string value=\"VillagerName\"}}"
  },
  {
    "label": "208",
    "text": "À bientôt, {{string value=\"VillagerName\"}}"
  },
  {
    "label": "209",
    "text": "{{gender4 m=\"Ta\" f=\"Ton\"}} {{string value=\"VillagerName\"}} préférée"
  },
  {
    "label": "210",
    "text": "Bises, {{string value=\"VillagerName\"}}"
  }
]