﻿[
  {
    "label": "001",
    "attribute": "0x0000002700000000",
    "locale": {
      "CNzh": "你身心都做好准备了吗？{{delay40}}\n{{anim id=\"Grin\" target=\"actor\" targetSpec=\"\"}}胃容量锻炼之{{delay8}}感恩节活动，{{delay frames=\"30\"}}\n{{anim id=\"BigSmile\" target=\"actor\" targetSpec=\"\"}}很快就要开始啦！！{{anim id=\"FaintSmile\" target=\"actor\" targetSpec=\"\"}}{{pageBreak}}{{anim id=\"HappyDance\" target=\"actor\" targetSpec=\"\"}}今天我要吃到尽可能多的美味料理，{{delay20}}\n塑造最棒的肌肉！{{delay40}}\n{{anim id=\"EmotEnd\" target=\"actor\" targetSpec=\"\"}}噢耶！{{delay20}}放马过来！！{{string value=\"6\"}}。",
      "EUde": "{{anim id=\"Grin\" target=\"actor\" targetSpec=\"\"}}Leg schon mal den Bauchgurt\nbereit,{{delay8}} das Schlemmfest steht\nvor der Tür,{{delay8}} {{string value=\"Catchphrase\"}}!{{pageBreak}}{{anim id=\"Nodding\" target=\"actor\" targetSpec=\"\"}}Hoffe ja mal,{{delay8}} die Portionen stimmen.{{delay frames=\"40\"}}\n{{anim id=\"SmugFace\" target=\"actor\" targetSpec=\"\"}}Wenn ich's nicht kreuzheben muss,{{delay8}}\nist es zu wenig!",
      "EUen": "{{anim id=\"Grin\" target=\"actor\" targetSpec=\"\"}}Better get your core in gear!{{delay20}} The big\nTurkey Day feast is coming up to the\nstarting line, {{string value=\"Catchphrase\"}}!{{pageBreak}}{{anim id=\"Nodding\" target=\"actor\" targetSpec=\"\"}}I've been doing septuple arm sets\nto bulk up my silverware technique.{{delay frames=\"40\"}}\n{{anim id=\"SmugFace\" target=\"actor\" targetSpec=\"\"}}That food doesn't stand a chance!",
      "EUes": "{{anim id=\"Grin\" target=\"actor\" targetSpec=\"\"}}Prepárate para ejercitar todos\ntus músculos{{string value=\"...\"}}{{pageBreak}}{{anim id=\"HappyDance\" target=\"actor\" targetSpec=\"\"}}¡Porque después del festín del {{color id=\"1\"}}Día{{color id=\"65535\"}}\n{{color id=\"1\"}}del Pavo{{color id=\"65535\"}} vas a tener que quemar\ncalorías a saco, {{string value=\"6\"}}!\n{{anim id=\"Nodding\" target=\"actor\" targetSpec=\"\"}}Te recomiendo que empieces\ntambién a fortaIecer {{anim id=\"SmugFace\" target=\"actor\" targetSpec=\"\"}}los músculos\nde la mandíbula, como yo.",
      "EUfr": "{{anim id=\"Grin\" target=\"actor\" targetSpec=\"\"}}C'est l'heure des derniers réglages !{{delay20}}\nEnsuite, tous dans les starting-\nblocks pour la fête du partage !\n{{anim id=\"Nodding\" target=\"actor\" targetSpec=\"\"}}J'ai fait 200 tractions avec tous les\nmuscles qui me servent à touiller.{{delay frames=\"40\"}}{{anim id=\"SmugFace\" target=\"actor\" targetSpec=\"\"}} Les\ningrédients n'ont aucune chance !",
      "EUit": "{{anim id=\"Grin\" target=\"actor\" targetSpec=\"\"}}Il festival delle primizie è alle porte\ne dobbiamo arrivarci ben allenati,\n{{string value=\"6\"}}!\n{{anim id=\"SmugFace\" target=\"actor\" targetSpec=\"\"}}Pesi extra per iI sollevamento vassoi\n{{delay8}}e addominali per contenere meglio\ntutto il cibo che ci spazzoleremo!",
      "EUnl": "{{anim id=\"Grin\" target=\"actor\" targetSpec=\"\"}}Je kunt maar beter aan je core\nwerken!{{delay20}} Het startschot voor het\nSmakenfestijn wordt bijna gegeven!{{pageBreak}}{{anim id=\"Nodding\" target=\"actor\" targetSpec=\"\"}}Ik heb mijn vorkheftechnieken in de\nafgelopen tijd geperfectioneerd,\n{{string value=\"Catchphrase\"}}. {{delay frames=\"40\"}}{{anim id=\"Negative\" target=\"actor\" targetSpec=\"\"}}En dat niet alleen!{{pageBreak}}{{anim id=\"SmugFace\" target=\"actor\" targetSpec=\"\"}}Al dat eten maakt geen schijn\nvan kans tegen mijn superieure\nkaakkracht!",
      "EUru": "{{anim id=\"Grin\" target=\"actor\" targetSpec=\"\"}}Начинай разминаться!{{delay20}} День\nизобилия уже на стартовой линии!\n{{capitalizeNextLetter}}{{string value=\"Catchphrase\"}}!{{pageBreak}}{{anim id=\"Nodding\" target=\"actor\" targetSpec=\"\"}}Я в семь раз больше отжимался,\nчтобы улучшить технику владения\nвилкой. {{delay frames=\"40\"}}{{anim id=\"SmugFace\" target=\"actor\" targetSpec=\"\"}}Еда меня не одолеет!",
      "JPja": "{{ruby charSpan=\"1\" value=\"こころ\"}}心と{{ruby charSpan=\"1\" value=\"からだ\"}}体のじゅんびは　オッケーか？{{delay40}}\n{{anim id=\"Grin\" target=\"actor\" targetSpec=\"\"}}もうすぐ{{delay8}}　{{ruby charSpan=\"1\" value=\"い\"}}胃ぶくろのトレーニング、{{delay frames=\"30\"}}\n{{anim id=\"BigSmile\" target=\"actor\" targetSpec=\"\"}}サンクスギビングのパーティーが{{ruby charSpan=\"1\" value=\"はじ\"}}始まるぞー！{{anim id=\"FaintSmile\" target=\"actor\" targetSpec=\"\"}}{{pageBreak}}{{anim id=\"HappyDance\" target=\"actor\" targetSpec=\"\"}}{{ruby charSpan=\"2\" value=\"きょう\"}}今日は　うまい{{ruby charSpan=\"2\" value=\"りょうり\"}}料理を　いっぱい{{ruby charSpan=\"1\" value=\"た\"}}食べて{{delay20}}\nサイコーのキンニクを{{ruby charSpan=\"1\" value=\"つく\"}}作るんだ！{{delay40}}\n{{anim id=\"EmotEnd\" target=\"actor\" targetSpec=\"\"}}おっしゃー！{{delay20}}　ばっちこーい！！　{{string value=\"6\"}}",
      "KRko": "너, 준비는 다 됐냐?{{delay40}}\n{{anim id=\"Grin\" target=\"actor\" targetSpec=\"\"}}조금 있으면 {{delay8}}위장을 단련하는{{delay frames=\"30\"}}\n{{anim id=\"BigSmile\" target=\"actor\" targetSpec=\"\"}}추수감사절 파티가 시작된다구－!!{{anim id=\"FaintSmile\" target=\"actor\" targetSpec=\"\"}}{{pageBreak}}{{anim id=\"HappyDance\" target=\"actor\" targetSpec=\"\"}}오늘은 맛있는 요리를 잔뜩 먹어서{{delay20}}\n영양소를 전부 근육으로 보낼 거야!{{delay40}}\n{{anim id=\"EmotEnd\" target=\"actor\" targetSpec=\"\"}}좋았어－! {{delay20}}다 덤벼라－!! {{string value=\"6\"}}!!",
      "TWzh": "你的身體和心理都準備就緒了嗎？{{delay40}}\n{{anim id=\"Grin\" target=\"actor\" targetSpec=\"\"}}腸胃的訓練——{{delay8}}感恩節{{delay frames=\"30\"}}\n{{anim id=\"BigSmile\" target=\"actor\" targetSpec=\"\"}}就快要開始了喔！！{{anim id=\"FaintSmile\" target=\"actor\" targetSpec=\"\"}}{{pageBreak}}{{anim id=\"HappyDance\" target=\"actor\" targetSpec=\"\"}}今天要吃很多好吃的料理，{{delay20}}\n然後鍛鍊出最棒的肌肉喔！{{delay40}}\n{{anim id=\"EmotEnd\" target=\"actor\" targetSpec=\"\"}}好啊！{{delay20}}放馬過來吧——！！{{string value=\"6\"}}。",
      "USen": "{{anim id=\"Grin\" target=\"actor\" targetSpec=\"\"}}Better get your core in gear!{{delay20}} The big\nTurkey Day feast is coming up to the\nstarting line, {{string value=\"Catchphrase\"}}!{{pageBreak}}{{anim id=\"Nodding\" target=\"actor\" targetSpec=\"\"}}I've been doing septuple arm sets\nto bulk up my silverware technique.{{delay frames=\"40\"}}\n{{anim id=\"SmugFace\" target=\"actor\" targetSpec=\"\"}}That food doesn't stand a chance!",
      "USes": "{{anim id=\"Grin\" target=\"actor\" targetSpec=\"\"}}Prepárate para ejercitar todos\ntus músculos{{string value=\"...\"}}{{pageBreak}}{{anim id=\"HappyDance\" target=\"actor\" targetSpec=\"\"}}¡Porque después del festín del {{color id=\"1\"}}Día{{color id=\"65535\"}}\n{{color id=\"1\"}}del Pavo{{color id=\"65535\"}} vas a tener que quemar\ncalorías a lo loco, {{string value=\"6\"}}!\n{{anim id=\"Nodding\" target=\"actor\" targetSpec=\"\"}}Te recomiendo que empieces\ntambién a fortalecer {{anim id=\"SmugFace\" target=\"actor\" targetSpec=\"\"}}los músculos\nde la mandíbula, como yo.",
      "USfr": "{{anim id=\"Grin\" target=\"actor\" targetSpec=\"\"}}C'est l'heure des derniers réglages!{{delay20}}\nEnsuite, tous dans les blocs de\ndépart pour la fête du partage!\n{{anim id=\"Nodding\" target=\"actor\" targetSpec=\"\"}}J'ai fait 200 tractions avec tous les\nmuscles qui me servent à touiller.{{delay frames=\"40\"}}{{anim id=\"SmugFace\" target=\"actor\" targetSpec=\"\"}} Les\ningrédients n'ont aucune chance!"
    }
  },
  {
    "label": "002",
    "attribute": "0x0000002700000000",
    "locale": {
      "CNzh": "{{anim id=\"FaintSmile\" target=\"actor\" targetSpec=\"\"}}{{string value=\"NickName\"}}！{{delay20}}\n终于感恩节活动就要开始啦！{{delay40}}\n{{anim id=\"HappyDance\" target=\"actor\" targetSpec=\"\"}}嘿嘿，{{delay8}}真叫人激动啊！！{{pageBreak}}{{anim id=\"Nodding\" target=\"actor\" targetSpec=\"\"}}为了这一刻，{{delay20}}\n我从昨天开始就没有吃东西了{{string value=\"...\"}}{{delay40}}\n{{anim id=\"SadSpiral\" target=\"actor\" targetSpec=\"\"}}几乎就要忍不住啦！{{string value=\"6\"}}。",
      "EUde": "{{anim id=\"Silent\" target=\"actor\" targetSpec=\"\"}}Hörste? {{delay20}}Das ist die Ruhe vor dem\nSpachtelsturm.{{delay20}} Das Schlemmfest\nkann jede Sekunde losgehen!{{pageBreak}}{{anim id=\"Grin\" target=\"actor\" targetSpec=\"\"}}Ich mache schon seit gestern Abend\nKlappmesser,{{delay8}} {{anim id=\"HappyDance\" target=\"actor\" targetSpec=\"\"}}damit mein Bauch auch\ndafür gestählt ist,{{delay8}} {{string value=\"Catchphrase\"}}!",
      "EUen": "{{anim id=\"Silent\" target=\"actor\" targetSpec=\"\"}}Hear that?{{delay8}} It's the calm before the\nfood-storm.{{delay20}} The Turkey Day feast is\ngonna kick off any minute now.{{pageBreak}}{{anim id=\"Grin\" target=\"actor\" targetSpec=\"\"}}I've been doing crunches non-stop\nsince yesterday to get my abs ready\nfor this, {{string value=\"Catchphrase\"}}.{{delay20}} {{anim id=\"HappyDance\" target=\"actor\" targetSpec=\"\"}}Bring it on!",
      "EUes": "{{anim id=\"Silent\" target=\"actor\" targetSpec=\"\"}}¿Lo notas?{{delay20}} Es la calma antes\nde la tempestad{{string value=\"...\"}}{{delay8}} El {{color id=\"1\"}}Día del Pavo{{color id=\"65535\"}}\nestá a punto de comenzar.\n{{anim id=\"Grin\" target=\"actor\" targetSpec=\"\"}}Llevo desde ayer haciendo ejercicios\nde coordinación de cuchillo y\ntenedor, {{string value=\"6\"}}.{{delay20}} {{anim id=\"HappyDance\" target=\"actor\" targetSpec=\"\"}}¡A por todas!",
      "EUfr": "{{anim id=\"Silent\" target=\"actor\" targetSpec=\"\"}}Tu entends ?{{delay8}} C'est le calme avant la\ntempête de nourriture.{{delay20}} La fête du\npartage ne va plus tarder à débuter.{{pageBreak}}{{anim id=\"Grin\" target=\"actor\" targetSpec=\"\"}}J'ai fait des exercices spécialement\npour préparer mes abdos à cette\nfête, {{string value=\"Catchphrase\"}}.{{delay20}} {{anim id=\"HappyDance\" target=\"actor\" targetSpec=\"\"}}Je suis bouillant !",
      "EUit": "{{anim id=\"Silent\" target=\"actor\" targetSpec=\"\"}}La senti?{{delay8}} È la quiete prima della\ntempesta di cibo che inizierà tra\npoco con il festival delle primizie!\n{{anim id=\"Grin\" target=\"actor\" targetSpec=\"\"}}È da giorni che faccio esercizi\ndi coordinazione con forchette\ne coltelli{{string value=\"...\"}} {{delay20}}{{anim id=\"HappyDance\" target=\"actor\" targetSpec=\"\"}}Ce la metterò tutta!",
      "EUnl": "{{anim id=\"Silent\" target=\"actor\" targetSpec=\"\"}}Voel je het?{{delay8}} Het is de stilte voor de\nstorm.{{delay20}} Het Smakenfestijn kan ieder\nmoment beginnen.{{pageBreak}}{{anim id=\"Grin\" target=\"actor\" targetSpec=\"\"}}Ik heb non-stop buikspieroefeningen gedaan gisteren, {{string value=\"Catchphrase\"}}.{{delay20}} {{anim id=\"HappyDance\" target=\"actor\" targetSpec=\"\"}}Ik ben er helemaal klaar voor!",
      "EUru": "{{anim id=\"Silent\" target=\"actor\" targetSpec=\"\"}}Слышишь?{{delay8}} Это затишье перед\nпищевой бурей.{{delay20}} Пир в честь Дня\nизобилия вот-вот начнется.{{pageBreak}}{{anim id=\"Grin\" target=\"actor\" targetSpec=\"\"}}Я весь день вчера ради этого качал\nпресс! {{capitalizeNextLetter}}{{string value=\"Catchphrase\"}}! {{delay20}}{{anim id=\"HappyDance\" target=\"actor\" targetSpec=\"\"}}Теперь мне\nникакая буря не страшна!",
      "JPja": "{{anim id=\"FaintSmile\" target=\"actor\" targetSpec=\"\"}}{{string value=\"NickName\"}}！{{delay20}}　いよいよ\nサンクスギビングのパーティーが{{ruby charSpan=\"1\" value=\"はじ\"}}始まるぞ！{{delay40}}\n{{anim id=\"HappyDance\" target=\"actor\" targetSpec=\"\"}}へへっ、{{delay8}}テンション{{ruby charSpan=\"1\" value=\"あ\"}}上がるよなー！！{{pageBreak}}{{anim id=\"Nodding\" target=\"actor\" targetSpec=\"\"}}オイラ　このために{{delay20}}　きのうから\n{{ruby charSpan=\"1\" value=\"はら\"}}腹ペコをキープしてるんだけど{{string value=\"...\"}}{{delay40}}\n{{anim id=\"SadSpiral\" target=\"actor\" targetSpec=\"\"}}そろそろ　ガマンのゲンカイだー！　{{string value=\"6\"}}",
      "KRko": "{{anim id=\"FaintSmile\" target=\"actor\" targetSpec=\"\"}}{{string value=\"NickName\"}}! {{delay20}}이제 곧\n기다리던 추수감사절 파티 시작이야!{{delay40}}\n{{anim id=\"HappyDance\" target=\"actor\" targetSpec=\"\"}}헤헷, {{delay8}}엄청 신나지 않냐－?!{{pageBreak}}{{anim id=\"Nodding\" target=\"actor\" targetSpec=\"\"}}난 이 파티를 위해서 {{delay20}}어제부터 계속\n배고픈 상태를 유지하고 있는데{{string value=\"...\"}}{{delay40}}\n{{anim id=\"SadSpiral\" target=\"actor\" targetSpec=\"\"}}이제 슬슬 못 참겠어－! {{string value=\"6\"}}!",
      "TWzh": "{{anim id=\"FaintSmile\" target=\"actor\" targetSpec=\"\"}}{{string value=\"NickName\"}}！{{delay20}}感恩節\n終於要開始了喔！{{delay40}}\n{{anim id=\"HappyDance\" target=\"actor\" targetSpec=\"\"}}嘿嘿，{{delay8}}讓人興奮起來了啊！！{{pageBreak}}{{anim id=\"Nodding\" target=\"actor\" targetSpec=\"\"}}我為了今天，{{delay20}}從昨天開始\n就餓著肚子{{string value=\"...\"}}{{delay40}}\n{{anim id=\"SadSpiral\" target=\"actor\" targetSpec=\"\"}}差不多快忍耐到極限啦！{{string value=\"6\"}}。",
      "USen": "{{anim id=\"Silent\" target=\"actor\" targetSpec=\"\"}}Hear that?{{delay8}} It's the calm before the\nfood-storm.{{delay20}} The Turkey Day feast is\ngonna kick off any minute now.{{pageBreak}}{{anim id=\"Grin\" target=\"actor\" targetSpec=\"\"}}I've been doing crunches non-stop\nsince yesterday to get my abs ready\nfor this, {{string value=\"Catchphrase\"}}.{{delay20}} {{anim id=\"HappyDance\" target=\"actor\" targetSpec=\"\"}}Bring it on!",
      "USes": "{{anim id=\"Silent\" target=\"actor\" targetSpec=\"\"}}¿Escuchas eso?{{delay20}} Es la calma antes\nde la tempestad{{string value=\"...\"}}{{delay8}} El {{color id=\"1\"}}Día del Pavo{{color id=\"65535\"}}\nestá a punto de comenzar.\n{{anim id=\"Grin\" target=\"actor\" targetSpec=\"\"}}Llevo desde ayer haciendo ejercicios\nde coordinación de cuchillo y\ntenedor, {{string value=\"6\"}}.{{delay20}} {{anim id=\"HappyDance\" target=\"actor\" targetSpec=\"\"}}¡Estoy listo!",
      "USfr": "{{anim id=\"Silent\" target=\"actor\" targetSpec=\"\"}}Tu entends?{{delay8}} C'est le calme avant la\ntempête de nourriture.{{delay20}} La fête du\npartage ne va plus tarder à débuter.{{pageBreak}}{{anim id=\"Grin\" target=\"actor\" targetSpec=\"\"}}J'ai fait des exercices spécialement\npour préparer mes abdos à cette\nfête, {{string value=\"Catchphrase\"}}.{{delay20}} {{anim id=\"HappyDance\" target=\"actor\" targetSpec=\"\"}}Je suis bouillant!"
    }
  },
  {
    "label": "003",
    "attribute": "0x0000002700000000",
    "locale": {
      "CNzh": "感恩节活动很快就要开始了！{{delay40}}\n{{anim id=\"FaintSmile\" target=\"actor\" targetSpec=\"\"}}我当然很期待美食，{{delay20}}{{anim id=\"SmugFace\" target=\"actor\" targetSpec=\"\"}}不过今天也会{{delay20}}\n鼓足干劲挑战做料理哦！{{pageBreak}}{{anim id=\"Explain\" target=\"actor\" targetSpec=\"\"}}我会好好学习{{delay8}}专业人士的技巧，{{delay20}}\n创造出最强的运动员菜单！{{pageBreak}}{{anim id=\"Nodding\" target=\"actor\" targetSpec=\"\"}}{{string value=\"NickName\"}}，{{delay20}}\n你愿意的话，就来尝尝吧！{{delay40}}\n{{anim id=\"Greeting\" target=\"actor\" targetSpec=\"\"}}我随时{{delay8}}欢迎你来哦！{{string value=\"6\"}}。",
      "EUde": "{{anim id=\"EmotEnd\" target=\"actor\" targetSpec=\"\"}}Schlemmfeeest!{{delay20}} Das heißt so,{{delay8}}\nweil man da so feste schlemmen\nmuss,{{delay8}} wie man's nur hinkriegt!{{pageBreak}}{{anim id=\"Explain\" target=\"actor\" targetSpec=\"\"}}Dazu hab ich schon nachgeschaut,{{delay8}}\nwelche Zutat man mit welchem\nProteinpulver ersetzen kann!{{pageBreak}}{{anim id=\"EmotEnd\" target=\"actor\" targetSpec=\"\"}}Komm mal vorbeigesprintet{{delay8}} {{anim id=\"Greeting\" target=\"actor\" targetSpec=\"\"}}und\nsag Hallo,{{delay8}} {{string value=\"Catchphrase\"}}!",
      "EUen": "{{anim id=\"EmotEnd\" target=\"actor\" targetSpec=\"\"}}It's the most protein-packed day of\nthe year, and I am PUMPED to start\ncooking!{{delay20}} Come on Turkey Day!{{pageBreak}}{{anim id=\"Explain\" target=\"actor\" targetSpec=\"\"}}I've been researching pro-athlete\ncuisine,{{delay8}} and I even brought out the\nGOOD protein powder, {{string value=\"Catchphrase\"}}!{{pageBreak}}{{anim id=\"EmotEnd\" target=\"actor\" targetSpec=\"\"}}If you've got time later,{{delay8}} {{anim id=\"Greeting\" target=\"actor\" targetSpec=\"\"}}you should\nabsolutely sprint by for a taste test.",
      "EUes": "{{anim id=\"EmotEnd\" target=\"actor\" targetSpec=\"\"}}El {{color id=\"1\"}}Día del Pavo{{color id=\"65535\"}} es una celebración\nllena de proteínas y vitaminas.{{pageBreak}}{{anim id=\"Explain\" target=\"actor\" targetSpec=\"\"}}Claro que también tiene demasiadas\ncalorías{{string value=\"...\"}}{{delay8}} ¡y eso hay que quemarlo,\n{{string value=\"6\"}}!\n{{anim id=\"EmotEnd\" target=\"actor\" targetSpec=\"\"}}Pero todo con calma,{{delay8}} {{anim id=\"Greeting\" target=\"actor\" targetSpec=\"\"}}después de\nhaber hecho una buena digestión.",
      "EUfr": "{{anim id=\"EmotEnd\" target=\"actor\" targetSpec=\"\"}}C'est la journée la plus protéinée de\nl'année.{{delay20}} Fête du partage, je t'attends\nde patte ferme !{{pageBreak}}{{anim id=\"Explain\" target=\"actor\" targetSpec=\"\"}}J'ai étudié la cuisine spéciale\nathlètes,{{delay8}} j'ai quelques recettes\nsous le coude, {{string value=\"6\"}} !{{pageBreak}}{{anim id=\"EmotEnd\" target=\"actor\" targetSpec=\"\"}}Si tu as un moment tout à l'heure,{{delay8}}\n{{anim id=\"Greeting\" target=\"actor\" targetSpec=\"\"}}passe donc me voir, je te ferai\ngoûter !",
      "EUit": "{{anim id=\"EmotEnd\" target=\"actor\" targetSpec=\"\"}}Il festival delle primizie è la festa\npiù proteica dell'anno.{{pageBreak}}{{anim id=\"Explain\" target=\"actor\" targetSpec=\"\"}}Io sto facendo sollevamento pentole\nmentre cucino per l'evento!{{pageBreak}}{{anim id=\"Nodding\" target=\"actor\" targetSpec=\"\"}}Preparerò piatti salutari, ma anche\ngolosi.{{delay20}} {{anim id=\"Greeting\" target=\"actor\" targetSpec=\"\"}}Vedrai, verrà a tutti voglia\ndi allenarsi e mangiare sano!",
      "EUnl": "{{anim id=\"EmotEnd\" target=\"actor\" targetSpec=\"\"}}Het Smakenfestijn is een viering van\nproteïnes en vitamines!{{pageBreak}}{{anim id=\"Explain\" target=\"actor\" targetSpec=\"\"}}Ik ga zo ontzettend veel calorieën\nbinnenkrijgen{{delay20}}{{anim id=\"Love\" target=\"actor\" targetSpec=\"\"}} en die mag ik allemaal\nweer verbranden, {{string value=\"Catchphrase\"}}!{{pageBreak}}{{anim id=\"EmotEnd\" target=\"actor\" targetSpec=\"\"}}Als je straks tijd hebt,{{delay8}} {{anim id=\"Greeting\" target=\"actor\" targetSpec=\"\"}}moet je maar\neven langssprinten om je smaak-\npapillen te trainen!",
      "EUru": "{{anim id=\"EmotEnd\" target=\"actor\" targetSpec=\"\"}}Это самый протеиновый праздник.\nСкоро я задам жару своей кухне!{{delay20}}\nНу, День изобилия, не подведи!{{pageBreak}}{{anim id=\"Explain\" target=\"actor\" targetSpec=\"\"}}Я нашел кучу спортивных рецептов{{delay8}}\nи даже достал лучший протеиновый\nпорошок! {{capitalizeNextLetter}}{{string value=\"Catchphrase\"}}!{{pageBreak}}{{anim id=\"EmotEnd\" target=\"actor\" targetSpec=\"\"}}Если найдешь время,{{delay8}} {{anim id=\"Greeting\" target=\"actor\" targetSpec=\"\"}}можешь\nзабежать ко мне и попробовать.",
      "JPja": "{{anim id=\"FaintSmile\" target=\"actor\" targetSpec=\"\"}}サンクスギビングのパーティー、ワクワクだな！{{delay40}}\n{{anim id=\"EmotEnd\" target=\"actor\" targetSpec=\"\"}}ごちそうも{{ruby charSpan=\"1\" value=\"たの\"}}楽しみだけど、{{delay20}}{{anim id=\"SmugFace\" target=\"actor\" targetSpec=\"\"}}{{ruby charSpan=\"2\" value=\"きょう\"}}今日は{{ruby charSpan=\"2\" value=\"きあ\"}}気合い{{ruby charSpan=\"1\" value=\"い\"}}入れて{{delay20}}\n{{ruby charSpan=\"2\" value=\"りょうり\"}}料理にも　チャレンジしてみるつもりなんだ！{{pageBreak}}{{anim id=\"Explain\" target=\"actor\" targetSpec=\"\"}}プロのワザを{{delay8}}　バッチリチェックして{{delay20}}\n{{ruby charSpan=\"2\" value=\"さいきょう\"}}最強のアスリートメニューを{{ruby charSpan=\"1\" value=\"かんが\"}}考えるぞ！{{pageBreak}}{{anim id=\"Nodding\" target=\"actor\" targetSpec=\"\"}}{{string value=\"NickName\"}}、{{delay20}}\nよかったら　{{ruby charSpan=\"2\" value=\"あじみ\"}}味見に{{ruby charSpan=\"1\" value=\"き\"}}来てくれよ！{{delay40}}\n{{anim id=\"Greeting\" target=\"actor\" targetSpec=\"\"}}オマエなら{{delay8}}　いつでもウェルカムだー！　{{string value=\"6\"}}",
      "KRko": "곧 있으면 추수감사절 파티가 시작돼!{{delay40}}\n{{anim id=\"FaintSmile\" target=\"actor\" targetSpec=\"\"}}맛있는 음식도 기대되지만{{delay20}} {{anim id=\"SmugFace\" target=\"actor\" targetSpec=\"\"}}오늘은 나도{{delay20}}\n기합 빡 넣고 요리에도 도전할 생각이다－!{{pageBreak}}{{anim id=\"Explain\" target=\"actor\" targetSpec=\"\"}}프로 요리사가 어떻게 하는지 {{delay8}}잘 보고서{{delay20}}\n최고의 선수용 식단을 개발할 거라구－!{{pageBreak}}{{anim id=\"Nodding\" target=\"actor\" targetSpec=\"\"}}{{string value=\"NickName\"}},{{delay20}}\n시간 나면 너도 맛보러 와라!{{delay40}}\n{{anim id=\"Greeting\" target=\"actor\" targetSpec=\"\"}}니가 온다면 {{delay8}}언제든지 환영이야－! {{string value=\"6\"}}!",
      "TWzh": "感恩節馬上就要開始了！{{delay40}}\n{{anim id=\"FaintSmile\" target=\"actor\" targetSpec=\"\"}}雖然我也很期待美味的料理，{{delay20}}\n{{anim id=\"SmugFace\" target=\"actor\" targetSpec=\"\"}}不過我今天{{delay20}}打算鼓足幹勁親自下廚。{{pageBreak}}{{anim id=\"Explain\" target=\"actor\" targetSpec=\"\"}}我會參考{{delay8}}專業人士的技巧，{{delay20}}\n想出最強的運動員菜單！{{pageBreak}}{{anim id=\"Nodding\" target=\"actor\" targetSpec=\"\"}}{{string value=\"NickName\"}}，{{delay20}}\n你不嫌棄的話，就來幫我試吃吧！{{delay40}}\n{{anim id=\"Greeting\" target=\"actor\" targetSpec=\"\"}}我隨時{{delay8}}歡迎你喔——！{{string value=\"6\"}}。",
      "USen": "{{anim id=\"EmotEnd\" target=\"actor\" targetSpec=\"\"}}It's the most protein-packed day of\nthe year, and I am PUMPED to start\ncooking!{{delay20}} Come on Turkey Day!{{pageBreak}}{{anim id=\"Explain\" target=\"actor\" targetSpec=\"\"}}I've been researching pro-athlete\ncuisine,{{delay8}} and I even brought out the\nGOOD protein powder, {{string value=\"Catchphrase\"}}!{{pageBreak}}{{anim id=\"EmotEnd\" target=\"actor\" targetSpec=\"\"}}If you've got time later,{{delay8}} {{anim id=\"Greeting\" target=\"actor\" targetSpec=\"\"}}you should\nabsolutely sprint by for a taste test.",
      "USes": "{{anim id=\"EmotEnd\" target=\"actor\" targetSpec=\"\"}}El {{color id=\"1\"}}Día del Pavo{{color id=\"65535\"}} es una celebración\nllena de proteínas y vitaminas.{{pageBreak}}{{anim id=\"Explain\" target=\"actor\" targetSpec=\"\"}}Claro que también tiene demasiadas\ncalorías{{string value=\"...\"}}{{delay8}} ¡y eso hay que quemarlo,\n{{string value=\"6\"}}!\n{{anim id=\"EmotEnd\" target=\"actor\" targetSpec=\"\"}}Pero todo con calma,{{delay8}} {{anim id=\"Greeting\" target=\"actor\" targetSpec=\"\"}}después de\nhaber hecho una buena digestión.",
      "USfr": "{{anim id=\"EmotEnd\" target=\"actor\" targetSpec=\"\"}}C'est la journée la plus protéinée de\nl'année.{{delay20}} Fête du partage, je t'attends\nde patte ferme!{{pageBreak}}{{anim id=\"Explain\" target=\"actor\" targetSpec=\"\"}}J'ai étudié la cuisine spéciale\nathlètes,{{delay8}} j'ai quelques recettes\nsous le coude, {{string value=\"6\"}}!{{pageBreak}}{{anim id=\"EmotEnd\" target=\"actor\" targetSpec=\"\"}}Si tu as un moment tout à l'heure,{{delay8}}\n{{anim id=\"Greeting\" target=\"actor\" targetSpec=\"\"}}passe donc me voir, je te ferai\ngoûter!"
    }
  }
]