﻿[
  {
    "label": "001",
    "attribute": "0x0000000000000000",
    "text": "{{fun_0014003C arg=\"\"}}"
  },
  {
    "label": "001_01",
    "attribute": "0x0000020000000000",
    "text": "{{anim id=\"Grin\" target=\"actor\" targetSpec=\"\"}}あら、{{delay20}}アタシが　{{ruby charSpan=\"1\" value=\"なに\"}}何を{{ruby charSpan=\"1\" value=\"つく\"}}作ってるか{{delay8}}\nそんなに　{{ruby charSpan=\"2\" value=\"きょうみ\"}}興味があるの？　{{string value=\"6\"}}"
  },
  {
    "label": "001_01_a",
    "attribute": "0x0000000000000000",
    "text": "{{ruby charSpan=\"2\" value=\"きょうみ\"}}興味がある！"
  },
  {
    "label": "001_01_b",
    "attribute": "0x0000000000000000",
    "text": "ないです"
  },
  {
    "label": "001_02",
    "attribute": "0x0000020000000000",
    "text": "{{anim id=\"Hesitate\" target=\"actor\" targetSpec=\"\"}}なあに？　{{delay20}}そんなに{{ruby charSpan=\"1\" value=\"み\"}}見られちゃ{{delay8}}\n{{ruby charSpan=\"1\" value=\"き\"}}気になっちゃうわ、{{string value=\"6\"}}"
  },
  {
    "label": "001_02_a",
    "attribute": "0x0000000000000000",
    "text": "{{anim id=\"EmotEnd\" target=\"actor\" targetSpec=\"\"}}なにしてるの？"
  },
  {
    "label": "001_02_b",
    "attribute": "0x0000000000000000",
    "text": "なんでもないです"
  },
  {
    "label": "001_03",
    "attribute": "0x0000020000000000",
    "text": "{{anim id=\"Eh\" target=\"actor\" targetSpec=\"\"}}ゴメンなさいね{{delay frames=\"40\"}}\n{{anim id=\"FaintSmile\" target=\"actor\" targetSpec=\"\"}}これを{{ruby charSpan=\"1\" value=\"つく\"}}作るのに　{{ruby charSpan=\"2\" value=\"むちゅう\"}}夢中だったの{{delay frames=\"40\"}}\n{{anim id=\"Grin\" target=\"actor\" targetSpec=\"\"}}{{ruby charSpan=\"1\" value=\"なに\"}}何を{{ruby charSpan=\"1\" value=\"つく\"}}作ってるか　{{delay8}}{{ruby charSpan=\"1\" value=\"し\"}}知りたい？　{{string value=\"6\"}}"
  },
  {
    "label": "001_03_a",
    "attribute": "0x0000000000000000",
    "text": "{{anim id=\"EmotEnd\" target=\"actor\" targetSpec=\"\"}}なに{{ruby charSpan=\"1\" value=\"つく\"}}作ってるの？"
  },
  {
    "label": "001_03_b",
    "attribute": "0x0000000000000000",
    "text": "いえ、けっこうです"
  },
  {
    "label": "002",
    "attribute": "0x0000000000000000",
    "text": "{{anim id=\"Smiling\" target=\"actor\" targetSpec=\"\"}}これはね、{{delay20}}{{fun_0000007D arg=\"0x0000\"}}を\n{{ruby charSpan=\"1\" value=\"つく\"}}作ってるところなの{{delay frames=\"40\"}}\n{{anim id=\"Nodding\" target=\"actor\" targetSpec=\"\"}}いわゆる　{{ruby charSpan=\"3\" value=\"ディアイワイ\"}}ＤＩＹってやつね\n{{anim id=\"EmotEnd\" target=\"actor\" targetSpec=\"\"}}{{ruby charSpan=\"2\" value=\"じぶん\"}}自分の{{ruby charSpan=\"1\" value=\"おも\"}}思ったものが\n{{ruby charSpan=\"1\" value=\"かたち\"}}形になっていくのって{{delay20}}\n{{anim id=\"Love\" target=\"actor\" targetSpec=\"\"}}すごく　{{ruby charSpan=\"3\" value=\"しげきてき\"}}刺激的なんだから"
  },
  {
    "label": "003",
    "attribute": "0x0000020000000000",
    "text": "{{anim id=\"IdeaBulb\" target=\"actor\" targetSpec=\"\"}}そうだ！{{delay frames=\"40\"}}\nよかったら　アナタも{{ruby charSpan=\"1\" value=\"つく\"}}作ってみない？{{anim id=\"Smiling\" target=\"actor\" targetSpec=\"\"}}{{pageBreak}}{{fun_0000007D arg=\"0x0000\"}}の{{ruby charSpan=\"1\" value=\"つく\"}}作り{{ruby charSpan=\"1\" value=\"かた\"}}方、{{delay20}}\n{{ruby charSpan=\"1\" value=\"おし\"}}教えてあげるわよ、{{string value=\"6\"}}"
  },
  {
    "label": "003_a",
    "attribute": "0x0000000000000000",
    "text": "{{ruby charSpan=\"1\" value=\"し\"}}知りたい！"
  },
  {
    "label": "003_b",
    "attribute": "0x0000000000000000",
    "text": "{{ruby charSpan=\"1\" value=\"ま\"}}間に{{ruby charSpan=\"1\" value=\"あ\"}}合ってます"
  },
  {
    "label": "007",
    "attribute": "0x0000000000000000",
    "text": "{{anim id=\"Eh\" target=\"actor\" targetSpec=\"\"}}あら、{{delay20}}そうなの？{{delay frames=\"40\"}}\n{{anim id=\"FaintSmile\" target=\"actor\" targetSpec=\"\"}}じゃあアタシ、{{delay8}}{{ruby charSpan=\"2\" value=\"かんせい\"}}完成まで　{{ruby charSpan=\"1\" value=\"すす\"}}進めたいから{{delay20}}\nこのまま　{{ruby charSpan=\"2\" value=\"さぎょう\"}}作業させてもらうわね、{{string value=\"6\"}}"
  },
  {
    "label": "008",
    "attribute": "0x0000010000000000",
    "text": "{{string value=\"...\"}}まぁ！　{{anim id=\"Shocked\" target=\"actor\" targetSpec=\"\"}}{{delay20}}アナタ{{delay frames=\"30\"}}\n{{anim id=\"EmotEnd\" target=\"actor\" targetSpec=\"\"}}{{fun_0000007D arg=\"0x0000\"}}の{{ruby charSpan=\"1\" value=\"つく\"}}作り{{ruby charSpan=\"1\" value=\"かた\"}}方{{delay20}}\n{{anim id=\"Pardon\" target=\"actor\" targetSpec=\"\"}}{{ruby charSpan=\"1\" value=\"し\"}}知ってたの？　{{string value=\"6\"}}"
  },
  {
    "label": "008_a",
    "attribute": "0x0000000000000000",
    "text": "{{ruby charSpan=\"1\" value=\"し\"}}知ってた！"
  },
  {
    "label": "008_b",
    "attribute": "0x0000000000000000",
    "text": "まあね！"
  },
  {
    "label": "009",
    "attribute": "0x0000000000000000",
    "text": "{{anim id=\"HappyDance\" target=\"actor\" targetSpec=\"\"}}さすがね、{{delay20}}{{string value=\"4\"}}！{{delay frames=\"40\"}}\n{{anim id=\"Nodding\" target=\"actor\" targetSpec=\"\"}}アタシが　{{ruby charSpan=\"2\" value=\"みこ\"}}見込んだだけあるわ"
  },
  {
    "label": "010",
    "attribute": "0x0000000000000000",
    "text": "{{string value=\"...\"}}やだ、{{anim id=\"Shocked\" target=\"actor\" targetSpec=\"\"}}{{delay20}}アナタ　もちものがいっぱいよ？{{delay frames=\"40\"}}\n{{anim id=\"Worried\" target=\"actor\" targetSpec=\"\"}}せっかくだけど　{{ruby charSpan=\"1\" value=\"いま\"}}今のままじゃ　{{ruby charSpan=\"1\" value=\"わた\"}}渡せないわね{{delay frames=\"40\"}}\n{{anim id=\"OhGeez\" target=\"actor\" targetSpec=\"\"}}{{ruby charSpan=\"2\" value=\"ざんねん\"}}残念だわ、{{string value=\"6\"}}"
  },
  {
    "label": "017",
    "attribute": "0x0000000000000000",
    "text": "{{anim id=\"FaintSmile\" target=\"actor\" targetSpec=\"\"}}いい{{ruby charSpan=\"2\" value=\"へんじ\"}}返事ね、{{delay20}}{{ruby charSpan=\"1\" value=\"うれ\"}}嬉しいわ{{i10_4}}\n{{anim id=\"Explain\" target=\"actor\" targetSpec=\"\"}}ここに　レシピを{{ruby charSpan=\"1\" value=\"か\"}}書いたメモがあるから{{delay20}}\n{{anim id=\"Greeting\" target=\"actor\" targetSpec=\"\"}}それを　アナタに　あげるわね"
  },
  {
    "label": "018",
    "attribute": "0x0000000000000000",
    "text": "{{anim id=\"Smiling\" target=\"actor\" targetSpec=\"\"}}とっても　{{ruby charSpan=\"2\" value=\"かんたん\"}}簡単だから{{delay20}}\nきっと　アナタなら{{delay20}}　{{ruby charSpan=\"2\" value=\"ざいりょう\"}}材料さえあれば\nすぐに　{{ruby charSpan=\"1\" value=\"つく\"}}作れちゃうはずよ、{{string value=\"6\"}}"
  },
  {
    "label": "019",
    "attribute": "0x0000000000000000",
    "text": "{{anim id=\"Explain\" target=\"actor\" targetSpec=\"\"}}{{fun_0000007D arg=\"0x0000\"}}の　{{ruby charSpan=\"1\" value=\"よ\"}}良さを{{delay8}}\nもっと　たくさんの{{ruby charSpan=\"1\" value=\"ひと\"}}人に　{{ruby charSpan=\"1\" value=\"し\"}}知ってほしくて{{delay20}}\n{{anim id=\"Greeting\" target=\"actor\" targetSpec=\"\"}}アタシ、{{delay8}}レシピカードを　{{ruby charSpan=\"1\" value=\"つく\"}}作ってみたの{{pageBreak}}{{anim id=\"Hesitate\" target=\"actor\" targetSpec=\"\"}}アナタの{{ruby charSpan=\"1\" value=\"まわ\"}}周りで{{delay20}}\n{{ruby charSpan=\"3\" value=\"ディアイワイ\"}}ＤＩＹに　{{ruby charSpan=\"2\" value=\"きょうみ\"}}興味のありそうな{{ruby charSpan=\"1\" value=\"ひと\"}}人がいたら{{delay20}}\n{{ruby charSpan=\"1\" value=\"わた\"}}渡してあげてくれない？　"
  },
  {
    "label": "020",
    "attribute": "0x0000000000000000",
    "text": "{{anim id=\"Nodding\" target=\"actor\" targetSpec=\"\"}}このレシピが　{{ruby charSpan=\"1\" value=\"ひろ\"}}広まれば、{{delay20}}\n{{fun_0000007D arg=\"0x0000\"}}の　{{ruby charSpan=\"2\" value=\"みりょく\"}}魅力を{{delay8}}\n{{anim id=\"EmotEnd\" target=\"actor\" targetSpec=\"\"}}{{ruby charSpan=\"2\" value=\"りかい\"}}理解してくれる{{ruby charSpan=\"1\" value=\"ひと\"}}人が　{{ruby charSpan=\"1\" value=\"ふ\"}}増えるはず！　{{string value=\"6\"}}"
  },
  {
    "label": "021",
    "attribute": "0x0000000000000000",
    "text": "{{anim id=\"Explain\" target=\"actor\" targetSpec=\"\"}}これが{{delay20}}　アタシが{{ruby charSpan=\"1\" value=\"つく\"}}作ってた{{delay8}}\n{{fun_0000007D arg=\"0x0000\"}}の　レシピよ{{delay frames=\"40\"}}\n{{anim id=\"FaintSmile\" target=\"actor\" targetSpec=\"\"}}{{ruby charSpan=\"2\" value=\"やくだ\"}}役立ててもらえると　{{ruby charSpan=\"1\" value=\"うれ\"}}嬉しいわ"
  },
  {
    "label": "030",
    "attribute": "0x0000000000000000",
    "text": "{{anim id=\"Silent\" target=\"actor\" targetSpec=\"\"}}あと、{{delay8}}もうひとつ{{string value=\"...\"}}{{delay40}}\n{{anim id=\"EmotEnd\" target=\"actor\" targetSpec=\"\"}}{{string value=\"VillagerName\"}}の{{delay8}}　ワンポイントアドバイスよ{{i10_4}}\n{{anim id=\"Explain\" target=\"actor\" targetSpec=\"\"}}これを{{ruby charSpan=\"1\" value=\"つく\"}}作るには、{{delay20}}カボチャが{{ruby charSpan=\"2\" value=\"ひつよう\"}}必要なの！\n{{anim id=\"FaintSmile\" target=\"actor\" targetSpec=\"\"}}カボチャを{{ruby charSpan=\"1\" value=\"みずか\"}}自ら{{ruby charSpan=\"1\" value=\"そだ\"}}育てて{{delay8}}　{{ruby charSpan=\"2\" value=\"ざいりょう\"}}材料にすれば、{{delay20}}\n{{anim id=\"Love\" target=\"actor\" targetSpec=\"\"}}より{{ruby charSpan=\"2\" value=\"あいちゃく\"}}愛着が{{delay8}}　わきそうだと{{ruby charSpan=\"1\" value=\"おも\"}}思わない？{{delay40}}\n{{anim id=\"Hello\" target=\"actor\" targetSpec=\"\"}}ぜひ　やってみてちょうだい、{{string value=\"6\"}}"
  },
  {
    "label": "031",
    "attribute": "0x0000000000000000",
    "text": "{{anim id=\"Thinking\" target=\"actor\" targetSpec=\"\"}}{{ruby charSpan=\"1\" value=\"じつ\"}}実はこれ、{{delay8}}リメイクが{{ruby charSpan=\"2\" value=\"かのう\"}}可能なんだけど{{delay20}}\n{{ruby charSpan=\"2\" value=\"ざいりょう\"}}材料が　{{ruby charSpan=\"2\" value=\"にゅうしゅ\"}}入手しづらいのよね{{string value=\"...\"}}{{delay40}}\n{{anim id=\"EmotEnd\" target=\"actor\" targetSpec=\"\"}}{{ruby charSpan=\"1\" value=\"いろ\"}}色が{{ruby charSpan=\"1\" value=\"ちが\"}}違うカボチャのこと、{{delay20}}{{anim id=\"QuestionMark\" target=\"actor\" targetSpec=\"\"}}ご{{ruby charSpan=\"1\" value=\"ぞん\"}}存じかしら？\n{{anim id=\"EmotEnd\" target=\"actor\" targetSpec=\"\"}}もし　{{ruby charSpan=\"1\" value=\"も\"}}持っていなくても、{{delay20}}\n{{anim id=\"FaintSmile\" target=\"actor\" targetSpec=\"\"}}カボチャを{{delay8}}　たくさん{{ruby charSpan=\"1\" value=\"そだ\"}}育てていれば、{{delay20}}\n{{anim id=\"Nodding\" target=\"actor\" targetSpec=\"\"}}そのうち　きっと、{{delay8}}{{ruby charSpan=\"2\" value=\"であ\"}}出会えるわよ、{{string value=\"6\"}}"
  },
  {
    "label": "032",
    "attribute": "0x0000000000000000",
    "text": "{{anim id=\"FaintSmile\" target=\"actor\" targetSpec=\"\"}}はい{{delay20}}　どうぞ、{{delay40}}\n{{anim id=\"EmotEnd\" target=\"actor\" targetSpec=\"\"}}さっき　{{ruby charSpan=\"1\" value=\"わた\"}}渡せなかったものよ"
  },
  {
    "label": "033",
    "attribute": "0x0000000000000000",
    "text": "{{string value=\"...\"}}{{anim id=\"Eh\" target=\"actor\" targetSpec=\"\"}}あら！　{{delay20}}アナタ{{delay frames=\"30\"}}\n{{anim id=\"EmotEnd\" target=\"actor\" targetSpec=\"\"}}{{fun_0000007D arg=\"0x0000\"}}の{{ruby charSpan=\"1\" value=\"つく\"}}作り{{ruby charSpan=\"1\" value=\"かた\"}}方、{{delay20}}\nすでに　{{ruby charSpan=\"1\" value=\"し\"}}知ってたのね！"
  },
  {
    "label": "034",
    "attribute": "0x0000000000000000",
    "text": "{{anim id=\"OhGeez\" target=\"actor\" targetSpec=\"\"}}なら、{{delay20}}レシピは　{{ruby charSpan=\"2\" value=\"ふよう\"}}不要ね{{string value=\"...\"}}{{delay40}}\n{{anim id=\"EmotEnd\" target=\"actor\" targetSpec=\"\"}}そのかわりと{{ruby charSpan=\"1\" value=\"い\"}}言っては　なんだけど、{{delay20}}\n{{anim id=\"FaintSmile\" target=\"actor\" targetSpec=\"\"}}アタシの{{ruby charSpan=\"1\" value=\"も\"}}持ってる{{ruby charSpan=\"2\" value=\"ざいりょう\"}}材料を{{delay8}}　{{ruby charSpan=\"1\" value=\"わ\"}}分けてあげるわ"
  },
  {
    "label": "035",
    "attribute": "0x0000000000000000",
    "text": "{{anim id=\"Greeting\" target=\"actor\" targetSpec=\"\"}}{{color id=\"1\"}}カボチャ{{color id=\"65535\"}}よ！{{delay40}}\n{{anim id=\"Blushing\" target=\"actor\" targetSpec=\"\"}}{{ruby charSpan=\"1\" value=\"じつ\"}}実は{{delay8}}　{{ruby charSpan=\"2\" value=\"よぶん\"}}余分に{{ruby charSpan=\"2\" value=\"ようい\"}}用意しすぎちゃったから、{{delay20}}\nえんりょなく　もらってちょうだい、{{string value=\"6\"}}{{anim id=\"FaintSmile\" target=\"actor\" targetSpec=\"\"}}"
  },
  {
    "label": "036",
    "attribute": "0x0000000000000000",
    "text": "{{anim id=\"Negative\" target=\"actor\" targetSpec=\"\"}}さすが{{delay8}}　{{string value=\"4\"}}ね{{delay40}}\n{{anim id=\"EmotEnd\" target=\"actor\" targetSpec=\"\"}}すこし{{ruby charSpan=\"2\" value=\"とくべつ\"}}特別なレシピ　だったものだから、{{delay20}}\n{{anim id=\"OhGeez\" target=\"actor\" targetSpec=\"\"}}イイ{{ruby charSpan=\"1\" value=\"かお\"}}顔できると{{ruby charSpan=\"1\" value=\"おも\"}}思ったのに{{string value=\"...\"}}{{delay20}}{{anim id=\"FaintSmile\" target=\"actor\" targetSpec=\"\"}}うふふ\n{{anim id=\"Thinking\" target=\"actor\" targetSpec=\"\"}}それより、{{delay8}}せっかくのハロウィンムードなのに{{delay20}}\nこのまま　{{ruby charSpan=\"1\" value=\"て\"}}手ぶらで{{ruby charSpan=\"1\" value=\"かえ\"}}帰すのもシャクだわね{{delay40}}\n{{string value=\"...\"}}{{anim id=\"EmotEnd\" target=\"actor\" targetSpec=\"\"}}あっ、{{delay20}}{{anim id=\"Nodding\" target=\"actor\" targetSpec=\"\"}}そうだわ！"
  },
  {
    "label": "037",
    "attribute": "0x0000000000000000",
    "text": "{{anim id=\"BigSmile\" target=\"actor\" targetSpec=\"\"}}{{color id=\"1\"}}アメ{{color id=\"65535\"}}ちゃんよ！{{delay40}}\n{{anim id=\"Explain\" target=\"actor\" targetSpec=\"\"}}イベントを　より{{ruby charSpan=\"1\" value=\"たの\"}}楽しむための　モノだから{{delay20}}\n{{anim id=\"Hello\" target=\"actor\" targetSpec=\"\"}}{{ruby charSpan=\"3\" value=\"こんげつまつ\"}}今月末まで{{delay8}}　とっておくといいわ、{{string value=\"6\"}}"
  },
  {
    "label": "040",
    "attribute": "0x0000000000000000",
    "text": "{{string value=\"...\"}}{{anim id=\"Eh\" target=\"actor\" targetSpec=\"\"}}あら！　{{delay20}}アナタ{{delay frames=\"30\"}}\n{{anim id=\"EmotEnd\" target=\"actor\" targetSpec=\"\"}}{{fun_0000007D arg=\"0x0000\"}}の{{ruby charSpan=\"1\" value=\"つく\"}}作り{{ruby charSpan=\"1\" value=\"かた\"}}方、{{delay20}}\nすでに　{{ruby charSpan=\"1\" value=\"し\"}}知ってたのね！"
  },
  {
    "label": "041",
    "attribute": "0x0000000000000000",
    "text": "{{anim id=\"OhGeez\" target=\"actor\" targetSpec=\"\"}}なら、{{delay20}}レシピは　{{ruby charSpan=\"2\" value=\"ふよう\"}}不要ね{{string value=\"...\"}}{{delay40}}\n{{anim id=\"EmotEnd\" target=\"actor\" targetSpec=\"\"}}そのかわりと{{ruby charSpan=\"1\" value=\"い\"}}言っては　なんだけど、{{delay20}}\n{{anim id=\"FaintSmile\" target=\"actor\" targetSpec=\"\"}}アタシの{{ruby charSpan=\"1\" value=\"も\"}}持ってる{{ruby charSpan=\"2\" value=\"ざいりょう\"}}材料を{{delay8}}　{{ruby charSpan=\"1\" value=\"わ\"}}分けてあげるわ"
  },
  {
    "label": "042",
    "attribute": "0x0000000000000000",
    "text": "{{anim id=\"Greeting\" target=\"actor\" targetSpec=\"\"}}{{color id=\"1\"}}{{fun_0000007D arg=\"0x0100\"}}　{{color id=\"65535\"}}3つよ！{{delay40}}\n{{anim id=\"Blushing\" target=\"actor\" targetSpec=\"\"}}{{ruby charSpan=\"1\" value=\"じつ\"}}実は{{delay8}}　{{ruby charSpan=\"2\" value=\"よぶん\"}}余分に{{ruby charSpan=\"2\" value=\"ようい\"}}用意しすぎちゃったから、{{delay20}}\nえんりょなく　もらってちょうだい、{{string value=\"6\"}}{{anim id=\"FaintSmile\" target=\"actor\" targetSpec=\"\"}}"
  },
  {
    "label": "043",
    "attribute": "0x0000000000000000",
    "text": "{{anim id=\"FaintSmile\" target=\"actor\" targetSpec=\"\"}}はい{{delay20}}　どうぞ、{{delay40}}\n{{anim id=\"EmotEnd\" target=\"actor\" targetSpec=\"\"}}さっき　{{ruby charSpan=\"1\" value=\"わた\"}}渡せなかったものよ"
  }
]