﻿[
  {
    "label": "100",
    "attribute": "0x0000000000000000",
    "text": "{{anim id=\"FaintSmile\" target=\"actor\" targetSpec=\"\"}}さっき　{{selection value=\"SelectedVillager\"}}{{string value=\"13\"}}と{{delay20}}\n{{string value=\"7\"}}の　{{ruby charSpan=\"2\" value=\"おい\"}}美味しさについて\n{{ruby charSpan=\"1\" value=\"かた\"}}語り{{ruby charSpan=\"1\" value=\"あ\"}}合っていたのよ{{pageBreak}}{{anim id=\"Love\" target=\"actor\" targetSpec=\"\"}}ひと{{ruby charSpan=\"1\" value=\"くち\"}}口　{{ruby charSpan=\"1\" value=\"た\"}}食べるだけで、{{delay20}}\nみずみずしい　フルーツの{{ruby charSpan=\"1\" value=\"かお\"}}香りが\n{{ruby charSpan=\"1\" value=\"くち\"}}口いっぱいに　{{ruby charSpan=\"1\" value=\"ひろ\"}}広がるのよね{{pageBreak}}{{anim id=\"HappyDance\" target=\"actor\" targetSpec=\"\"}}この{{ruby charSpan=\"1\" value=\"よろこ\"}}喜びを{{ruby charSpan=\"1\" value=\"かた\"}}語り{{ruby charSpan=\"1\" value=\"あ\"}}合える　{{ruby charSpan=\"2\" value=\"なかま\"}}仲間がいる{{string value=\"...\"}}{{delay20}}\nああ、なんて　{{ruby charSpan=\"1\" value=\"しあわ\"}}幸せなのかしら、{{string value=\"6\"}}{{anim id=\"EmotEnd\" target=\"actor\" targetSpec=\"\"}}"
  },
  {
    "label": "101",
    "attribute": "0x0000000000000000",
    "text": "{{anim id=\"AbsentMindedness\" target=\"actor\" targetSpec=\"\"}}{{ruby charSpan=\"1\" value=\"ほ\"}}欲しいものを　{{ruby charSpan=\"1\" value=\"か\"}}買ったつもりで{{delay8}}\nその{{ruby charSpan=\"2\" value=\"きんがく\"}}金額を{{ruby charSpan=\"2\" value=\"ちょきん\"}}貯金する「つもり{{ruby charSpan=\"2\" value=\"ちょきん\"}}貯金」が、{{delay20}}\n{{anim id=\"SmugFace\" target=\"actor\" targetSpec=\"\"}}ついに{{ruby charSpan=\"2\" value=\"もくひょう\"}}目標の{{ruby charSpan=\"1\" value=\"がく\"}}額に　{{ruby charSpan=\"2\" value=\"とうたつ\"}}到達したのよ\n{{anim id=\"Smiling\" target=\"actor\" targetSpec=\"\"}}もともとは{{delay8}}　{{selection value=\"SelectedVillager\"}}{{string value=\"13\"}}に\nオススメされて　{{ruby charSpan=\"1\" value=\"はじ\"}}始めたんだけど、{{delay20}}\n{{anim id=\"ShyBoy\" target=\"actor\" targetSpec=\"\"}}なんだか　アタシに{{ruby charSpan=\"1\" value=\"あ\"}}合ってたみたい！\n{{anim id=\"HappyDance\" target=\"actor\" targetSpec=\"\"}}うふふ、{{delay20}}{{ruby charSpan=\"1\" value=\"た\"}}貯まった{{ruby charSpan=\"2\" value=\"ちょきん\"}}貯金で\n{{ruby charSpan=\"1\" value=\"なに\"}}何を{{ruby charSpan=\"1\" value=\"か\"}}買おうか　{{ruby charSpan=\"1\" value=\"かんが\"}}考えるだけで、{{delay20}}\nワクワクしてきちゃうわ！　{{string value=\"6\"}}{{anim id=\"EmotEnd\" target=\"actor\" targetSpec=\"\"}}"
  },
  {
    "label": "102",
    "attribute": "0x0000000000000000",
    "text": "{{anim id=\"FaintSmile\" target=\"actor\" targetSpec=\"\"}}{{selection value=\"SelectedVillager\"}}{{string value=\"13\"}}に{{delay20}}\n{{anim id=\"Nodding\" target=\"actor\" targetSpec=\"\"}}{{randomMusic}}{{ruby charSpan=\"1\" value=\"けい\"}}系の{{ruby charSpan=\"1\" value=\"きょく\"}}曲を{{delay8}}\n{{ruby charSpan=\"1\" value=\"おし\"}}教えてもらったの{{pageBreak}}{{anim id=\"ShyBoy\" target=\"actor\" targetSpec=\"\"}}{{ruby charSpan=\"2\" value=\"きがる\"}}気軽な{{ruby charSpan=\"2\" value=\"きも\"}}気持ちで　{{ruby charSpan=\"1\" value=\"き\"}}聞いてみたら、{{delay20}}\nアタシ、いつの{{ruby charSpan=\"1\" value=\"ま\"}}間にか　ハマっちゃって{{string value=\"...\"}}{{delay frames=\"40\"}}\n{{anim id=\"Smiling\" target=\"actor\" targetSpec=\"\"}}{{ruby charSpan=\"2\" value=\"じかん\"}}時間を{{ruby charSpan=\"1\" value=\"み\"}}見つけては　{{ruby charSpan=\"1\" value=\"き\"}}聞いてるのよ、{{delay20}}{{string value=\"6\"}}{{anim id=\"EmotEnd\" target=\"actor\" targetSpec=\"\"}}"
  },
  {
    "label": "200",
    "attribute": "0x0000000000000000",
    "text": "{{anim id=\"Hello\" target=\"actor\" targetSpec=\"\"}}{{string value=\"4\"}}との{{ruby charSpan=\"2\" value=\"かんけい\"}}関係は{{delay20}}\n{{anim id=\"AbsentMindedness\" target=\"actor\" targetSpec=\"\"}}これから　もっと{{ruby charSpan=\"2\" value=\"しんみつ\"}}親密になる{{ruby charSpan=\"1\" value=\"き\"}}気がするわ{{i10_4}}\n{{anim id=\"Smiling\" target=\"actor\" targetSpec=\"\"}}ほら、{{delay20}}ベストフレンド{{string value=\"...\"}}みたいな？\n{{anim id=\"Blushing\" target=\"actor\" targetSpec=\"\"}}うふふ、{{delay20}}あらためて　{{ruby charSpan=\"2\" value=\"ことば\"}}言葉にするのは\nなんだか　{{ruby charSpan=\"1\" value=\"て\"}}照れくさいけれど、{{delay20}}\n{{anim id=\"FaintSmile\" target=\"actor\" targetSpec=\"\"}}これからも　どうぞよろしくね、{{string value=\"6\"}}{{anim id=\"EmotEnd\" target=\"actor\" targetSpec=\"\"}}"
  },
  {
    "label": "201",
    "attribute": "0x0000000000000000",
    "text": "{{anim id=\"Thinking\" target=\"actor\" targetSpec=\"\"}}{{ruby charSpan=\"1\" value=\"いま\"}}今まで　アタシ、{{delay20}}\n{{string value=\"4\"}}のことを{{delay8}}\n{{anim id=\"Negative\" target=\"actor\" targetSpec=\"\"}}{{ruby charSpan=\"2\" value=\"りかい\"}}理解しきれてなかった　{{ruby charSpan=\"1\" value=\"き\"}}気がするわ{{pageBreak}}{{anim id=\"Nodding\" target=\"actor\" targetSpec=\"\"}}でも、そうよ！{{delay40}}\n{{anim id=\"Blushing\" target=\"actor\" targetSpec=\"\"}}きっと　これからは、ツーカーの{{ruby charSpan=\"1\" value=\"なか\"}}仲で{{delay20}}\nやっていけるんじゃないかしら、{{string value=\"6\"}}{{anim id=\"EmotEnd\" target=\"actor\" targetSpec=\"\"}}"
  },
  {
    "label": "202",
    "attribute": "0x0000000000000000",
    "text": "{{anim id=\"Nodding\" target=\"actor\" targetSpec=\"\"}}{{string value=\"4\"}}のおかげで、{{delay40}}\n{{anim id=\"Restless\" target=\"actor\" targetSpec=\"\"}}なんだかアタシ、{{delay20}}オトナになれた{{ruby charSpan=\"1\" value=\"き\"}}気がするの{{pageBreak}}{{anim id=\"FaintSmile\" target=\"actor\" targetSpec=\"\"}}いろいろあったけど、{{delay20}}\n{{ruby charSpan=\"2\" value=\"さいご\"}}最後には　お{{ruby charSpan=\"1\" value=\"たが\"}}互いを{{ruby charSpan=\"2\" value=\"りかい\"}}理解し{{ruby charSpan=\"1\" value=\"あ\"}}合える\n{{ruby charSpan=\"2\" value=\"かんけい\"}}関係になれて{{delay8}}　とっても{{ruby charSpan=\"1\" value=\"よ\"}}良かったわ\n{{anim id=\"HappyDance\" target=\"actor\" targetSpec=\"\"}}これからも　{{ruby charSpan=\"2\" value=\"なかよ\"}}仲良くしましょうね、{{string value=\"6\"}}{{anim id=\"EmotEnd\" target=\"actor\" targetSpec=\"\"}}"
  }
]