﻿[
  {
    "label": "001",
    "attribute": "0x0000000000000000",
    "text": "{{anim id=\"FaintSmile\" target=\"actor\" targetSpec=\"\"}}El color del caparazón del {{wordInfo gender=\"1\" indefArticle=\"1\" defArticle=\"3\"}}escarabajo astado japonés me parece tan bonito\ny enigmático{{string value=\"...\"}}"
  },
  {
    "label": "002",
    "attribute": "0x0000000000000000",
    "text": "{{anim id=\"Eh\" target=\"actor\" targetSpec=\"\"}}Leí que las mandíbulas del\n{{wordInfo gender=\"1\" indefArticle=\"1\" defArticle=\"3\"}}escarabajo ciervo gigante son\nmuy fuertes.\n{{anim id=\"Worried\" target=\"actor\" targetSpec=\"\"}}No me gustaría verlo enojado{{string value=\"...\"}}"
  },
  {
    "label": "003",
    "attribute": "0x0000000000000000",
    "text": "{{anim id=\"Eh\" target=\"actor\" targetSpec=\"\"}}Qué mandíbulas tan bonitas tiene\nese {{wordInfo gender=\"1\" indefArticle=\"1\" defArticle=\"3\"}}escarabajo ciervo sierra{{string value=\"...\"}}{{delay8}} son\ncurvas.\n{{anim id=\"FaintSmile\" target=\"actor\" targetSpec=\"\"}}Parecen troncos de madera pulidos\ny tallados."
  },
  {
    "label": "004",
    "attribute": "0x0000000000000000",
    "text": "{{anim id=\"FaintSmile\" target=\"actor\" targetSpec=\"\"}}Este {{wordInfo gender=\"1\" indefArticle=\"1\" defArticle=\"3\"}}escarabajo astado hércules\ntiene cuernos; {{delay8}}eso significa que\nes un macho.\nLeí que usan los cuernos para\nintimidar a los rivales.{{delay20}} {{anim id=\"Serious\" target=\"actor\" targetSpec=\"\"}}Sí funciona{{string value=\"...\"}}{{delay20}}\nY eso que no somos rivales."
  },
  {
    "label": "005",
    "attribute": "0x0000000000000000",
    "text": "{{anim id=\"Silent\" target=\"actor\" targetSpec=\"\"}}No quiero apartar la mirada de esa\n{{wordInfo gender=\"2\" indefArticle=\"2\" defArticle=\"4\"}}mantis religiosa.{{pageBreak}}{{anim id=\"FaintSmile\" target=\"actor\" targetSpec=\"\"}}Da la sensación de que me va\na saltar encima en cualquier\nmomento."
  },
  {
    "label": "006",
    "attribute": "0x0000000000000000",
    "text": "{{anim id=\"Smiling\" target=\"actor\" targetSpec=\"\"}}¡Los colores de esta {{wordInfo gender=\"2\" indefArticle=\"2\" defArticle=\"4\"}}polilla crepuscular son increíbles!{{delay20}}\nParece una obra de arte."
  },
  {
    "label": "007",
    "attribute": "0x0000000000000000",
    "text": "{{anim id=\"FaintSmile\" target=\"actor\" targetSpec=\"\"}}Este {{wordInfo gender=\"1\" indefArticle=\"1\" defArticle=\"3\"}}escarabajo oro es tan brillante\nque hasta puedo verme reflejada\nen su caparazón."
  },
  {
    "label": "008",
    "attribute": "0x0000000000000000",
    "text": "{{anim id=\"Smiling\" target=\"actor\" targetSpec=\"\"}}¿Viste esta mariposa emperador\njaponés?{{delay20}} Qué alas tan majestuosas.\n{{anim id=\"Worried\" target=\"actor\" targetSpec=\"\"}}¿Debería hacerle una reverencia?"
  },
  {
    "label": "009",
    "attribute": "0x0000000000000000",
    "text": "{{anim id=\"FaintSmile\" target=\"actor\" targetSpec=\"\"}}¿Ya notaste que ese {{wordInfo gender=\"1\" indefArticle=\"1\" defArticle=\"3\"}}escarabajo joya\ncambia de color?{{pageBreak}}Eso ocurre porque la luz refleja\ndistintos colores según el ángulo\nen que lo mires."
  },
  {
    "label": "010",
    "attribute": "0x0000000000000000",
    "text": "{{anim id=\"Smiling\" target=\"actor\" targetSpec=\"\"}}¿Tú crees que esa {{wordInfo gender=\"2\" indefArticle=\"2\" defArticle=\"4\"}}mariposa narciso es consciente de lo hermosas que\nson sus alas?"
  },
  {
    "label": "011",
    "attribute": "0x0000000000000000",
    "text": "{{anim id=\"FaintSmile\" target=\"actor\" targetSpec=\"\"}}Qué diferente se ve la {{wordInfo gender=\"2\" indefArticle=\"2\" defArticle=\"4\"}}mariposa celeste cuando cierra las alas.{{delay20}}\n{{anim id=\"Eh\" target=\"actor\" targetSpec=\"\"}}¡El color azul desaparece!"
  },
  {
    "label": "012",
    "attribute": "0x0000000000000000",
    "text": "{{anim id=\"Smiling\" target=\"actor\" targetSpec=\"\"}}Las luciérnagas siempre me han\nparecido seres mágicos.{{pageBreak}}Son como pequeñas hadas flotando\nen la oscuridad de la noche."
  },
  {
    "label": "013",
    "attribute": "0x0000000000000000",
    "text": "{{anim id=\"Shocked\" target=\"actor\" targetSpec=\"\"}}Esa polilla es más grande que mi\ncabeza.{{delay20}} {{anim id=\"Serious\" target=\"actor\" targetSpec=\"\"}}Es fascinante y a la vez\nda un poco de miedo."
  },
  {
    "label": "014",
    "attribute": "0x0000000000000000",
    "text": "{{anim id=\"Eh\" target=\"actor\" targetSpec=\"\"}}Ya entiendo por qué se llama {{wordInfo gender=\"2\" indefArticle=\"2\" defArticle=\"4\"}}mariposa alas de pájaro:{{delay8}} ¡es enorme!"
  },
  {
    "label": "015",
    "attribute": "0x0000000000000000",
    "text": "{{anim id=\"Worried\" target=\"actor\" targetSpec=\"\"}}La majestuosidad de los escorpiones\nes mejor admirarla desde lejos{{string value=\"...\"}}"
  },
  {
    "label": "016",
    "attribute": "0x0000000000000000",
    "text": "{{anim id=\"Serious\" target=\"actor\" targetSpec=\"\"}}Las avispas son seres pacíficos que\nsolo pican cuando las molestan{{string value=\"...\"}}{{pageBreak}}No hay que molestarlas, {{anim id=\"FaintSmile\" target=\"actor\" targetSpec=\"\"}}ellas solo\nestán haciendo su trabajo."
  },
  {
    "label": "017",
    "attribute": "0x0000000000000000",
    "text": "{{anim id=\"WrySmile\" target=\"actor\" targetSpec=\"\"}}El esplendor de las luciérnagas\nse puede apreciar más durante la\nnoche."
  },
  {
    "label": "018",
    "attribute": "0x0000000000000000",
    "text": "{{anim id=\"Worried\" target=\"actor\" targetSpec=\"\"}}¿Esta {{wordInfo gender=\"2\" indefArticle=\"2\" defArticle=\"4\"}}chinche con rostro humano me está viendo feo?{{delay20}} No estoy segura{{string value=\"...\"}}"
  },
  {
    "label": "019",
    "attribute": "0x0000000000000000",
    "text": "{{anim id=\"Shocked\" target=\"actor\" targetSpec=\"\"}}¡Mira, una hoja con patas!{{delay20}}{{anim id=\"FaintSmile\" target=\"actor\" targetSpec=\"\"}} Ji, ji,{{delay20}}\nno es cierto{{string value=\"...\"}} se trata de un\n{{wordInfo gender=\"1\" indefArticle=\"1\" defArticle=\"3\"}}insecto hoja."
  },
  {
    "label": "020",
    "attribute": "0x0000000000000000",
    "text": "{{anim id=\"FaintSmile\" target=\"actor\" targetSpec=\"\"}}Leí que cada {{wordInfo gender=\"1\" indefArticle=\"1\" defArticle=\"3\"}}grillo campana\nsuena distinto a los demás. {{delay20}}Sería\ninteresante comprobarlo{{string value=\"...\"}}"
  },
  {
    "label": "021",
    "attribute": "0x0000000000000000",
    "text": "{{anim id=\"Smiling\" target=\"actor\" targetSpec=\"\"}}Mira esta {{wordInfo gender=\"2\" indefArticle=\"2\" defArticle=\"4\"}}carcasa de cigarra{{string value=\"...\"}}{{pageBreak}}{{anim id=\"Explain\" target=\"actor\" targetSpec=\"\"}}Cuando la vi primero pensé que\nera un insecto dormido."
  },
  {
    "label": "022",
    "attribute": "0x0000000000000000",
    "text": "{{anim id=\"FaintSmile\" target=\"actor\" targetSpec=\"\"}}El {{wordInfo gender=\"1\" indefArticle=\"1\" defArticle=\"3\"}}escarabajo rosalia batesi tiene\nunos colores muy vistosos.{{delay20}}\n¡Parece una obra de arte!"
  },
  {
    "label": "023",
    "attribute": "0x0000000000000000",
    "text": "{{anim id=\"FaintSmile\" target=\"actor\" targetSpec=\"\"}}Qué cuerpecito tan esbelto tiene\nla {{wordInfo gender=\"2\" indefArticle=\"2\" defArticle=\"4\"}}libélula damisela.{{pageBreak}}{{anim id=\"Worried\" target=\"actor\" targetSpec=\"\"}}Supongo que es para volar mejor,\npero parece tan frágil{{string value=\"...\"}}"
  },
  {
    "label": "024",
    "attribute": "0x0000000000000000",
    "text": "¿Crees que un mosquito podría\nestallar un globo con su aguijón?{{pageBreak}}{{anim id=\"Worried\" target=\"actor\" targetSpec=\"\"}}Espero que no{{string value=\"...\"}} se llevaría un\ntremendo susto."
  },
  {
    "label": "101",
    "attribute": "0x0000000000000000",
    "text": "{{anim id=\"Aha\" target=\"actor\" targetSpec=\"\"}}Por cierto, tú eres quien atrapó\neste insecto, ¿no?{{delay20}} {{anim id=\"Smiling\" target=\"actor\" targetSpec=\"\"}}Puedes sentirte\nmuy orgullos{{gender2 m=\"o\" f=\"a\"}}."
  },
  {
    "label": "102",
    "attribute": "0x0000000000000000",
    "text": "¡Ay, no!{{delay20}} ¡No peleen! {{delay20}}¡Espero\nque nadie salga herido!{{delay20}} ¿Debería\npedir ayuda?"
  }
]