﻿[
  {
    "label": "001_01",
    "attribute": "0x00000012",
    "text": "{{fun_00080064 arg=\"\"}}{{size value=\"75\"}}Testing,{{delay20}} testing.{{delay20}} {{anim id=\"Serious\" target=\"actor\" targetSpec=\"\"}}Test, test, test{{size value=\"100\"}}{{string value=\"...\"}}{{i10_8 arg=\"40\"}}{{endTag}}"
  },
  {
    "label": "001_02",
    "attribute": "0x00000012",
    "text": "{{fun_00080064 arg=\"\"}}{{i10_10}}{{i10_12}}{{size value=\"200\"}}Hello, every—{{anim id=\"Shocked\" target=\"actor\" targetSpec=\"\"}}{{size value=\"100\"}}{{anim id=\"EmotEnd\" target=\"actor\" targetSpec=\"\"}}{{i10_8 arg=\"30\"}}{{endTag}}"
  },
  {
    "label": "001_03",
    "attribute": "0x00000012",
    "text": "{{fun_00080064 arg=\"\"}}{{anim id=\"Confused\" target=\"actor\" targetSpec=\"\"}}Oh dear.{{delay8}} So, so sorry about that!{{delay frames=\"40\"}}\n{{anim id=\"ShyBoy\" target=\"actor\" targetSpec=\"\"}}{{size value=\"75\"}}The volume was a little loud there{{size value=\"100\"}}{{string value=\"...\"}}{{pageBreak}}{{anim id=\"FaintSmile\" target=\"actor\" targetSpec=\"\"}}Hello, everyone!{{endTag}}"
  },
  {
    "label": "001_04",
    "attribute": "0x00000012",
    "text": "{{fun_00080064 arg=\"\"}}{{anim id=\"Smiling\" target=\"actor\" targetSpec=\"\"}}Starting today, {{delay20}}{{anim id=\"EmotEnd\" target=\"actor\" targetSpec=\"\"}}I'll be doing an\n{{color id=\"1\"}}island-wide broadcast{{delay20}}{{color id=\"65535\"}} {{anim id=\"Smiling\" target=\"actor\" targetSpec=\"\"}}full of island\nupdates, goings-on, and such, hm?{{endTag}}"
  },
  {
    "label": "001_05",
    "attribute": "0x00000012",
    "text": "{{fun_00080064 arg=\"\"}}{{anim id=\"Nodding\" target=\"actor\" targetSpec=\"\"}}I'll go over some things that are {{anim id=\"Serious\" target=\"actor\" targetSpec=\"\"}}very\nimportant to island life,{{delay20}}{{anim id=\"Hello\" target=\"actor\" targetSpec=\"\"}} so lend me\nyour island ears for a short time!{{endTag}}"
  },
  {
    "label": "001_06",
    "attribute": "0x00000012",
    "text": "{{fun_00080064 arg=\"\"}}{{anim id=\"Serious\" target=\"actor\" targetSpec=\"\"}}Now{{string value=\"...\"}}{{anim id=\"EmotEnd\" target=\"actor\" targetSpec=\"\"}}it's only fitting that we kick off\nthis daily ritual with a doozy of an\nisland announcement{{string value=\"...\"}}{{endTag}}"
  },
  {
    "label": "001_07",
    "attribute": "0x00000012",
    "text": "{{fun_00080064 arg=\"\"}}{{anim id=\"HappyFlower\" target=\"actor\" targetSpec=\"\"}}The {{color id=\"1\"}}{{capitalizeNextWord}}{{i10_13}}{{string value=\"OtherIslandName\"}}{{endTag}} Airport{{color id=\"65535\"}} is\nnow open for business!{{pageBreak}}{{anim id=\"EmotEnd\" target=\"actor\" targetSpec=\"\"}}Starting today,{{delay8}}{{anim id=\"Nodding\" target=\"actor\" targetSpec=\"\"}} you can use {{color id=\"1\"}}online{{color id=\"65535\"}} or\n{{color id=\"1\"}}local communication{{color id=\"65535\"}} to fly to other\nislands {{anim id=\"Greeting\" target=\"actor\" targetSpec=\"\"}}for a visit.\n{{anim id=\"Eh\" target=\"actor\" targetSpec=\"\"}}That's not all. No, no!{{delay20}}{{anim id=\"FaintSmile\" target=\"actor\" targetSpec=\"\"}} The airport\ncounter now offers {{color id=\"1\"}}postal{{color id=\"65535\"}} services!{{pageBreak}}{{anim id=\"EmotEnd\" target=\"actor\" targetSpec=\"\"}}And just like the Resident Services\ncenter, the {{color id=\"1\"}}airport{{color id=\"65535\"}} is open 24 hours a\nday.{{delay8}}{{anim id=\"Hello\" target=\"actor\" targetSpec=\"\"}} So please do drop by for a look!{{endTag}}"
  },
  {
    "label": "001_07_01",
    "attribute": "0x00000012",
    "text": "{{fun_00080064 arg=\"\"}}{{anim id=\"HappyFlower\" target=\"actor\" targetSpec=\"\"}}The {{color id=\"1\"}}{{capitalizeNextWord}}{{i10_13}}{{string value=\"OtherIslandName\"}}{{endTag}} Airport{{color id=\"65535\"}} is\nalready open for business!{{pageBreak}}{{anim id=\"EmotEnd\" target=\"actor\" targetSpec=\"\"}}If you'd like,{{delay8}}{{anim id=\"Nodding\" target=\"actor\" targetSpec=\"\"}} you can use {{color id=\"1\"}}online{{color id=\"65535\"}} or\n{{color id=\"1\"}}local communication{{color id=\"65535\"}} to fly to other\nislands {{anim id=\"Greeting\" target=\"actor\" targetSpec=\"\"}}for a visit.\n{{anim id=\"Eh\" target=\"actor\" targetSpec=\"\"}}That's not all. No, no!{{delay20}}{{anim id=\"FaintSmile\" target=\"actor\" targetSpec=\"\"}} The airport\ncounter also offers {{color id=\"1\"}}postal{{color id=\"65535\"}} services!{{pageBreak}}{{anim id=\"EmotEnd\" target=\"actor\" targetSpec=\"\"}}And just like the Resident Services\ncenter, the {{color id=\"1\"}}airport{{color id=\"65535\"}} is open 24 hours a\nday.{{delay8}}{{anim id=\"Hello\" target=\"actor\" targetSpec=\"\"}} So please do drop by for a look!{{endTag}}"
  },
  {
    "label": "001_08",
    "attribute": "0x00000012",
    "text": "{{fun_00080064 arg=\"\"}}{{anim id=\"Serious\" target=\"actor\" targetSpec=\"\"}}{{delay20}}Oh! I do have one other item to\nshare.{{delay20}} And it, too, is a whopper, hm?{{endTag}}"
  },
  {
    "label": "002_00",
    "attribute": "0x00000012",
    "text": "{{fun_00080064 arg=\"\"}}{{anim id=\"Greeting\" target=\"actor\" targetSpec=\"\"}}Hello, {{delay8}}hello!{{endTag}}"
  },
  {
    "label": "002_01",
    "attribute": "0x00000012",
    "text": ""
  },
  {
    "label": "002_02",
    "attribute": "0x00000012",
    "text": "{{fun_00080064 arg=\"\"}}{{anim id=\"Nodding\" target=\"actor\" targetSpec=\"\"}}Time for an {{color id=\"1\"}}island-wide broadcast{{color id=\"65535\"}},{{delay20}}\n{{anim id=\"Greeting\" target=\"actor\" targetSpec=\"\"}}your source for island news!{{endTag}}"
  },
  {
    "label": "002_03",
    "attribute": "0x00000012",
    "text": "{{fun_00080064 arg=\"\"}}{{anim id=\"Nodding\" target=\"actor\" targetSpec=\"\"}}I'll go over some things that are {{anim id=\"Serious\" target=\"actor\" targetSpec=\"\"}}very\nimportant to island life,{{delay20}}{{anim id=\"Hello\" target=\"actor\" targetSpec=\"\"}} so lend me\nyour island ears for a short time!{{endTag}}"
  },
  {
    "label": "002_04",
    "attribute": "0x00000012",
    "text": "{{fun_00080064 arg=\"\"}}Let's get started{{string value=\"...\"}}{{endTag}}"
  },
  {
    "label": "003_01",
    "attribute": "0x00000012",
    "text": "{{fun_00080064 arg=\"\"}}{{anim id=\"Explain\" target=\"actor\" targetSpec=\"\"}}As I mentioned yesterday,\n{{color id=\"1\"}}Resident Services{{color id=\"65535\"}} is closed\ntoday due to construction.{{pageBreak}}{{anim id=\"EmotEnd\" target=\"actor\" targetSpec=\"\"}}I realize this may be a bit of an\ninconvenience, but I promise the\nisland will be better for it. {{delay20}}{{anim id=\"Smiling\" target=\"actor\" targetSpec=\"\"}}You'll see!{{endTag}}"
  },
  {
    "label": "003_02",
    "attribute": "0x00000012",
    "text": "{{fun_00080064 arg=\"\"}}{{anim id=\"Explain\" target=\"actor\" targetSpec=\"\"}}I realize some of you may not have\nheard yesterday's broadcast, so\nplease indulge me for a moment.{{pageBreak}}{{anim id=\"Smiling\" target=\"actor\" targetSpec=\"\"}}With new residents come new\nresponsibilities—namely, improving\nsupport for all island residents{{string value=\"...\"}}{{pageBreak}}{{anim id=\"BigSmile\" target=\"actor\" targetSpec=\"\"}}So today {{color id=\"1\"}}Resident Services {{color id=\"65535\"}}will be\nclosed for renovations. We'll build\na proper service center for you all!{{pageBreak}}{{anim id=\"EmotEnd\" target=\"actor\" targetSpec=\"\"}}I realize this may be a bit of an\ninconvenience, but I promise the\nisland will be better for it. {{delay20}}{{anim id=\"Smiling\" target=\"actor\" targetSpec=\"\"}}You'll see!{{endTag}}"
  },
  {
    "label": "003_03",
    "attribute": "0x00000012",
    "text": "{{fun_00080064 arg=\"\"}}{{anim id=\"ShyBoy\" target=\"actor\" targetSpec=\"\"}}As you can imagine, I'll have my\npaws full today with the {{color id=\"1\"}}Resident Services{{color id=\"65535\"}} construction.{{pageBreak}}{{anim id=\"Greeting\" target=\"actor\" targetSpec=\"\"}}I'll be getting back to that now.\nHave a good day, everyone!{{endTag}}"
  },
  {
    "label": "101_01",
    "attribute": "0x00000012",
    "text": "{{fun_00080064 arg=\"\"}}{{anim id=\"HappyFlower\" target=\"actor\" targetSpec=\"\"}}As of this very day, {{delay8}}a brilliant fellow\nby the name of {{color id=\"3\"}}Blathers{{color id=\"65535\"}} will be\njoining us on {{string value=\"IslandName\"}}!{{endTag}}"
  },
  {
    "label": "101_02",
    "attribute": "0x00000012",
    "text": "{{fun_00080064 arg=\"\"}}{{anim id=\"HappyFlower\" target=\"actor\" targetSpec=\"\"}}A brilliant fellow named {{color id=\"3\"}}Blathers {{color id=\"65535\"}}has\njoined us on {{string value=\"IslandName\"}}!{{endTag}}"
  },
  {
    "label": "102",
    "attribute": "0x00000012",
    "text": "{{fun_00080064 arg=\"\"}}{{color id=\"3\"}}{{anim id=\"Explain\" target=\"actor\" targetSpec=\"\"}}Blathers{{color id=\"65535\"}} has a keen interest in\nbiology—past and present—and he's\nhere to study {{string value=\"IslandName\"}}.{{endTag}}"
  },
  {
    "label": "103_01",
    "attribute": "0x00000012",
    "text": "{{fun_00080064 arg=\"\"}}{{anim id=\"FaintSmile\" target=\"actor\" targetSpec=\"\"}}I sincerely hope everyone lends their\ncooperation.{{delay20}}{{anim id=\"EmotEnd\" target=\"actor\" targetSpec=\"\"}} Inquisitive residents\nshould{{anim id=\"Greeting\" target=\"actor\" targetSpec=\"\"}} stop by his tent for details!{{endTag}}"
  },
  {
    "label": "103_02",
    "attribute": "0x00000012",
    "text": "{{fun_00080064 arg=\"\"}}{{anim id=\"Grin\" target=\"actor\" targetSpec=\"\"}}And would you believe, as a result\nof that research{{string value=\"...\"}}{{delay40}}{{anim id=\"Clapping\" target=\"actor\" targetSpec=\"\"}}we've decided to\nbuild our own island {{color id=\"1\"}}museum{{color id=\"65535\"}}!{{pageBreak}}{{anim id=\"HappyDance\" target=\"actor\" targetSpec=\"\"}}{{capitalizeNextLetter}}{{string value=\"IslandName\"}} is developing\nat an incredible pace! I hope\nyou can all keep up!{{endTag}}"
  },
  {
    "label": "104_01",
    "attribute": "0x00000012",
    "text": "{{fun_00080064 arg=\"\"}}{{anim id=\"BigSmile\" target=\"actor\" targetSpec=\"\"}}Some stunning news just in!{{delay40}} We're\nmoving forward with construction of\nthe {{color id=\"1\"}}{{capitalizeNextWord}}{{i10_13}}{{string value=\"OtherIslandName\"}}{{endTag}} Museum{{color id=\"65535\"}}!{{delay40}}{{anim id=\"EmotEnd\" target=\"actor\" targetSpec=\"\"}}{{endTag}}"
  },
  {
    "label": "104_02",
    "attribute": "0x00000012",
    "text": "{{fun_00080064 arg=\"\"}}{{anim id=\"Smiling\" target=\"actor\" targetSpec=\"\"}}Some of you might have heard the\nannouncement yesterday, but{{string value=\"...\"}}{{pageBreak}}{{anim id=\"Clapping\" target=\"actor\" targetSpec=\"\"}}We're moving forward with\nconstruction of a {{color id=\"1\"}}museum{{color id=\"65535\"}} for\n{{string value=\"OtherIslandName\"}}!{{delay40}}{{anim id=\"EmotEnd\" target=\"actor\" targetSpec=\"\"}}{{endTag}}"
  },
  {
    "label": "105_01",
    "attribute": "0x00000012",
    "text": "{{fun_00080064 arg=\"\"}}{{anim id=\"Nodding\" target=\"actor\" targetSpec=\"\"}}Neither {{color id=\"3\"}}Blathers {{color id=\"65535\"}}nor I imagined we'd\nbe getting ready to build a {{color id=\"1\"}}museum{{color id=\"65535\"}}\non his very first day on the island!\n{{anim id=\"Smiling\" target=\"actor\" targetSpec=\"\"}}We're very grateful for everyone's\ncooperation.{{pageBreak}}{{anim id=\"Smiling\" target=\"actor\" targetSpec=\"\"}}Anyhoo, {{delay20}}we've started construction\nfor the {{color id=\"1\"}}museum{{color id=\"65535\"}} at the very spot\nwhere {{color id=\"3\"}}Blathers {{color id=\"65535\"}}had his tent!{{endTag}}"
  },
  {
    "label": "105_02",
    "attribute": "0x00000012",
    "text": "{{fun_00080064 arg=\"\"}}{{anim id=\"Smiling\" target=\"actor\" targetSpec=\"\"}}We'll build the {{color id=\"1\"}}museum{{color id=\"65535\"}} on the very\nspot where {{color id=\"3\"}}Blathers {{color id=\"65535\"}}had his tent.{{endTag}}"
  },
  {
    "label": "106",
    "attribute": "0x00000012",
    "text": "{{fun_00080064 arg=\"\"}}{{anim id=\"Explain\" target=\"actor\" targetSpec=\"\"}}{{fun_00090064 arg=\"0x09CD\"}}{{color id=\"1\"}}\"So sorry to inconvenience you all\nlike this today. 'Tis a shame to\nsuspend your scientific endeavors.\nHowever, I hope having our splendid\nnew museum completed by tomorrow\nwill make up for this little setback!\"{{color id=\"65535\"}}{{endTag}}{{endTag}}{{anim id=\"EmotEnd\" target=\"actor\" targetSpec=\"\"}}"
  },
  {
    "label": "107",
    "attribute": "0x00000012",
    "text": "{{fun_00080064 arg=\"\"}}{{anim id=\"EmotEnd\" target=\"actor\" targetSpec=\"\"}}{{anim id=\"Smiling\" target=\"actor\" targetSpec=\"\"}}That{{string value=\"...\"}}was a little message {{color id=\"3\"}}Blathers{{color id=\"65535\"}}\nasked me to pass on to all of you.{{endTag}}"
  },
  {
    "label": "111_01",
    "attribute": "0x00000012",
    "text": "{{fun_00080064 arg=\"\"}}{{anim id=\"Smiling\" target=\"actor\" targetSpec=\"\"}}Ta-da!{{i10_4}} {{anim id=\"HappyFlower\" target=\"actor\" targetSpec=\"\"}}Today, {{delay8}}{{string value=\"IslandName\"}}\nhas its very own {{color id=\"1\"}}museum{{color id=\"65535\"}}!{{endTag}}"
  },
  {
    "label": "111_02",
    "attribute": "0x00000012",
    "text": "{{fun_00080064 arg=\"\"}}A grand {{color id=\"1\"}}museum{{color id=\"65535\"}} has opened up here\non {{string value=\"IslandName\"}}.{{delay20}} {{anim id=\"QuestionMark\" target=\"actor\" targetSpec=\"\"}}Did you hear\nabout it yet?{{endTag}}"
  },
  {
    "label": "112",
    "attribute": "0x00000012",
    "text": "{{fun_00080064 arg=\"\"}}{{anim id=\"HappyFlower\" target=\"actor\" targetSpec=\"\"}}Oh yes! It's a grand {{color id=\"1\"}}museum{{color id=\"65535\"}} indeed,\nwith separate exhibit rooms for\ninsects, fish, and fossils.{{pageBreak}}{{anim id=\"Smiling\" target=\"actor\" targetSpec=\"\"}}{{color id=\"3\"}}Blathers{{color id=\"65535\"}}, the museum curator,{{delay8}}{{anim id=\"Explain\" target=\"actor\" targetSpec=\"\"}} says\nhe's always available to accept\ndonations or assess fossils.{{pageBreak}}And museum admission is free,\nso stop by whenever you like.{{endTag}}"
  },
  {
    "label": "113",
    "attribute": "0x00000012",
    "text": "{{fun_00080064 arg=\"\"}}{{anim id=\"BigSmile\" target=\"actor\" targetSpec=\"\"}}Wonderful news, everyone!{{delay40}} We've\nreceived permission to{{anim id=\"Clapping\" target=\"actor\" targetSpec=\"\"}} {{color id=\"1\"}}expand{{color id=\"65535\"}} our\n{{color id=\"1\"}}{{i10_13}}{{capitalizeNextWord}}{{string value=\"OtherIslandName\"}}{{endTag}} Museum{{color id=\"65535\"}}!{{delay40}}{{anim id=\"EmotEnd\" target=\"actor\" targetSpec=\"\"}}{{endTag}}"
  },
  {
    "label": "114",
    "attribute": "0x00000012",
    "text": "{{fun_00080064 arg=\"\"}}{{anim id=\"Smiling\" target=\"actor\" targetSpec=\"\"}}Now, there's no time like the\npresent, so our {{color id=\"1\"}}museum{{color id=\"65535\"}} is under\nrenovation today!{{endTag}}"
  },
  {
    "label": "115",
    "attribute": "0x00000012",
    "text": "{{fun_00080064 arg=\"\"}}{{anim id=\"Explain\" target=\"actor\" targetSpec=\"\"}}{{fun_00090064 arg=\"0x09CD\"}}{{color id=\"1\"}}\"Eh wot! Terribly sorry I can't assist\nvisitors today.{{delay frames=\"30\"}} Please peruse our new\nand improved space tomorrow!\"{{color id=\"65535\"}}{{endTag}}{{endTag}}{{anim id=\"EmotEnd\" target=\"actor\" targetSpec=\"\"}}"
  },
  {
    "label": "116",
    "attribute": "0x00000012",
    "text": "{{fun_00080064 arg=\"\"}}{{anim id=\"EmotEnd\" target=\"actor\" targetSpec=\"\"}}{{anim id=\"Smiling\" target=\"actor\" targetSpec=\"\"}}Good old {{color id=\"3\"}}Blathers{{color id=\"65535\"}}. Always ready with\na statement for our broadcasts.{{endTag}}"
  },
  {
    "label": "117",
    "attribute": "0x00000012",
    "text": "{{fun_00080064 arg=\"\"}}{{anim id=\"Smiling\" target=\"actor\" targetSpec=\"\"}}Ta-da!{{i10_4}}{{anim id=\"HappyFlower\" target=\"actor\" targetSpec=\"\"}} Today, a new {{color id=\"1\"}}art gallery{{color id=\"65535\"}} opens\nin our beloved {{color id=\"1\"}}museum{{color id=\"65535\"}}!{{endTag}}"
  },
  {
    "label": "118",
    "attribute": "0x00000012",
    "text": "{{fun_00080064 arg=\"\"}}{{delay8}}An amazing {{color id=\"1\"}}art gallery{{color id=\"65535\"}} has opened\nwithin our beloved {{color id=\"1\"}}museum{{color id=\"65535\"}}.{{delay20}} {{anim id=\"QuestionMark\" target=\"actor\" targetSpec=\"\"}}Perhaps\nyou've already visited, hm?{{endTag}}"
  },
  {
    "label": "119",
    "attribute": "0x00000012",
    "text": "{{fun_00080064 arg=\"\"}}{{anim id=\"HappyFlower\" target=\"actor\" targetSpec=\"\"}}Oh yes, it's a grand {{color id=\"1\"}}gallery{{color id=\"65535\"}} indeed\nwith plenty of space for paintings,\nsculptures, and other works of art.{{pageBreak}}{{anim id=\"Smiling\" target=\"actor\" targetSpec=\"\"}}{{color id=\"3\"}}Blathers{{color id=\"65535\"}}, the museum curator, says\nhe's always available to accept any\nnew donations of {{color id=\"1\"}}artwork{{color id=\"65535\"}}.{{pageBreak}}{{anim id=\"Worried\" target=\"actor\" targetSpec=\"\"}}However, there is some disturbing\nnews about {{color id=\"1\"}}fake artwork{{color id=\"65535\"}} circulating\nin the marketplace, so buyer beware!\n{{anim id=\"Smiling\" target=\"actor\" targetSpec=\"\"}}I trust you'll all do your best to avoid\nany questionable purchases, hm?{{endTag}}"
  },
  {
    "label": "1201",
    "attribute": "0x00000012",
    "text": "{{fun_00080064 arg=\"\"}}{{anim id=\"HappyFlower\" target=\"actor\" targetSpec=\"\"}}Oh yes! It's a grand {{color id=\"1\"}}museum{{color id=\"65535\"}} indeed,\nwith separate exhibit rooms for fish,\nbugs, fossils, and even works of art.{{pageBreak}}{{anim id=\"Smiling\" target=\"actor\" targetSpec=\"\"}}{{color id=\"3\"}}Blathers{{color id=\"65535\"}}, the museum curator,{{delay8}}{{anim id=\"Explain\" target=\"actor\" targetSpec=\"\"}} says\nhe's always available to accept\ndonations or assess fossils.{{pageBreak}}{{anim id=\"Nodding\" target=\"actor\" targetSpec=\"\"}}And museum admission is free,\nso stop by whenever you like.{{endTag}}"
  },
  {
    "label": "121_01",
    "attribute": "0x00000012",
    "text": "{{fun_00080064 arg=\"\"}}{{anim id=\"HappyFlower\" target=\"actor\" targetSpec=\"\"}}My staff, {{color id=\"3\"}}Timmy{{color id=\"65535\"}} and {{color id=\"3\"}}Tommy{{color id=\"65535\"}}, opened\nup their new {{color id=\"1\"}}shop {{color id=\"65535\"}}today!{{endTag}}"
  },
  {
    "label": "121_02",
    "attribute": "0x00000012",
    "text": "{{fun_00080064 arg=\"\"}}{{anim id=\"HappyFlower\" target=\"actor\" targetSpec=\"\"}}Business is booming at the {{color id=\"1\"}}shop {{color id=\"65535\"}}my\nstaff opened. Well done, masters\n{{color id=\"3\"}}Timmy{{color id=\"65535\"}} and {{color id=\"3\"}}Tommy{{color id=\"65535\"}}!{{endTag}}"
  },
  {
    "label": "122",
    "attribute": "0x00000012",
    "text": "{{fun_00080064 arg=\"\"}}{{anim id=\"Smiling\" target=\"actor\" targetSpec=\"\"}}It's a small shop, {{delay20}}{{anim id=\"Explain\" target=\"actor\" targetSpec=\"\"}}but they'll change\nstock daily and carry a selection of\ngoods {{anim id=\"FaintSmile\" target=\"actor\" targetSpec=\"\"}}sure to better your island life.{{endTag}}"
  },
  {
    "label": "123_01",
    "attribute": "0x00000012",
    "text": "{{fun_00080064 arg=\"\"}}{{anim id=\"Nodding\" target=\"actor\" targetSpec=\"\"}}Come by from 8 AM to 10 PM daily.{{delay8}}\n{{anim id=\"Laughing\" target=\"actor\" targetSpec=\"\"}}And if the store is closed, simply use\ntheir {{color id=\"1\"}}drop-off box{{color id=\"65535\"}} to sell your items!{{endTag}}"
  },
  {
    "label": "123_02",
    "attribute": "0x00000012",
    "text": "{{fun_00080064 arg=\"\"}}{{anim id=\"Nodding\" target=\"actor\" targetSpec=\"\"}}It's open from 8 AM to 10 PM, so it's\na bit early yet, but I do hope you'll\npop in later.{{anim id=\"Smiling\" target=\"actor\" targetSpec=\"\"}}{{pageBreak}}{{anim id=\"EmotEnd\" target=\"actor\" targetSpec=\"\"}}That's a good segue, though.{{delay8}}{{anim id=\"Grin\" target=\"actor\" targetSpec=\"\"}} When\nthe shop isn't open, you can still\ntake advantage of the {{color id=\"1\"}}drop-off box{{color id=\"65535\"}}.\n{{anim id=\"Smiling\" target=\"actor\" targetSpec=\"\"}}Drop off anything you don't need,\nand our shop stewards will send\npayment to your account later!{{endTag}}"
  },
  {
    "label": "123_03",
    "attribute": "0x00000012",
    "text": "{{fun_00080064 arg=\"\"}}{{anim id=\"Nodding\" target=\"actor\" targetSpec=\"\"}}It's open from 8 AM to 10 PM, so it's\ntoo late now, but I do hope you'll\npop in tomorrow.{{anim id=\"Smiling\" target=\"actor\" targetSpec=\"\"}}{{pageBreak}}{{anim id=\"EmotEnd\" target=\"actor\" targetSpec=\"\"}}That's a good segue, though.{{delay8}}{{anim id=\"Grin\" target=\"actor\" targetSpec=\"\"}} When\nthe shop isn't open, you can still\ntake advantage of the {{color id=\"1\"}}drop-off box{{color id=\"65535\"}}.\n{{anim id=\"Smiling\" target=\"actor\" targetSpec=\"\"}}Drop off anything you don't need,\nand our shop stewards will send\npayment to your account later!{{endTag}}"
  },
  {
    "label": "124",
    "attribute": "0x00000012",
    "text": "{{fun_00080064 arg=\"\"}}{{anim id=\"Eh\" target=\"actor\" targetSpec=\"\"}}Ah! One more thing{{string value=\"...\"}}{{pageBreak}}{{anim id=\"Explain\" target=\"actor\" targetSpec=\"\"}}To celebrate the opening of the shop,{{delay20}}\nwe've added a new {{color id=\"1\"}}catalog{{color id=\"65535\"}} service to{{anim id=\"FaintSmile\" target=\"actor\" targetSpec=\"\"}}\n{{color id=\"1\"}}Nook Shopping{{color id=\"65535\"}}.\n{{anim id=\"EmotEnd\" target=\"actor\" targetSpec=\"\"}}The {{color id=\"1\"}}catalog{{color id=\"65535\"}} lets customers see a\nrecord of items they've obtained\nor purchased.{{pageBreak}}{{anim id=\"Nodding\" target=\"actor\" targetSpec=\"\"}}Any mass-marketed items can be\nordered directly through the catalog,{{delay20}}\n{{anim id=\"Smiling\" target=\"actor\" targetSpec=\"\"}}so make good use of it!{{pageBreak}}{{anim id=\"EmotEnd\" target=\"actor\" targetSpec=\"\"}}Now then, with all that said{{string value=\"...\"}}{{delay40}}{{anim id=\"HappyDance\" target=\"actor\" targetSpec=\"\"}}I hope\neveryone takes advantage of the new\n{{color id=\"1\"}}Nook's Cranny{{color id=\"65535\"}}!{{endTag}}"
  },
  {
    "label": "126",
    "attribute": "0x00000012",
    "text": "{{fun_00080064 arg=\"\"}}{{anim id=\"Smiling\" target=\"actor\" targetSpec=\"\"}}Business at {{color id=\"1\"}}Nook's Cranny{{color id=\"65535\"}} has been\nbooming, thanks to you all.{{pageBreak}}It's only right that we remodel the\nshop and give our {{anim id=\"Nodding\" target=\"actor\" targetSpec=\"\"}}shop clerks a new,\nexpanded place to work!{{endTag}}"
  },
  {
    "label": "127_01",
    "attribute": "0x00000012",
    "text": "{{fun_00080064 arg=\"\"}}{{anim id=\"Explain\" target=\"actor\" targetSpec=\"\"}}The shop will be closed all day for\nthe remodel tomorrow. The {{color id=\"1\"}}drop-off\nbox{{color id=\"65535\"}} will be unavailable as well.{{anim id=\"EmotEnd\" target=\"actor\" targetSpec=\"\"}}{{pageBreak}}If you need to do any urgent buying\nor selling, {{anim id=\"Nodding\" target=\"actor\" targetSpec=\"\"}}make sure you get it done\nduring business hours today!{{anim id=\"Smiling\" target=\"actor\" targetSpec=\"\"}}{{endTag}}"
  },
  {
    "label": "127_02",
    "attribute": "0x00000012",
    "text": "{{fun_00080064 arg=\"\"}}{{anim id=\"Explain\" target=\"actor\" targetSpec=\"\"}}The shop will be closed all day for\nthe remodel tomorrow, and the {{color id=\"1\"}}drop-\noff box{{color id=\"65535\"}} will be unavailable as well.\nI do hope you understand!{{anim id=\"Smiling\" target=\"actor\" targetSpec=\"\"}}{{endTag}}"
  },
  {
    "label": "129_01",
    "attribute": "0x00000012",
    "text": "{{fun_00080064 arg=\"\"}}{{anim id=\"Explain\" target=\"actor\" targetSpec=\"\"}}As I said in yesterday's broadcast,\n{{color id=\"1\"}}Nook's Cranny{{color id=\"65535\"}} will be closed for\nrenovations today!{{anim id=\"Smiling\" target=\"actor\" targetSpec=\"\"}}{{endTag}}"
  },
  {
    "label": "129_02",
    "attribute": "0x00000012",
    "text": "{{fun_00080064 arg=\"\"}}{{anim id=\"Smiling\" target=\"actor\" targetSpec=\"\"}}Thanks to our customers, business at\n{{color id=\"1\"}}Nook's Cranny{{color id=\"65535\"}} has been booming!{{pageBreak}}That's why we've {{anim id=\"Nodding\" target=\"actor\" targetSpec=\"\"}}decided to remodel\nthe shop and give our clerks even\nmore space to work with.\n{{anim id=\"Explain\" target=\"actor\" targetSpec=\"\"}}The shop will be closed today for\nrenovations.{{delay20}} Please understand this\nmeans no {{color id=\"1\"}}drop-off box{{color id=\"65535\"}} today either.{{anim id=\"EmotEnd\" target=\"actor\" targetSpec=\"\"}}{{endTag}}"
  },
  {
    "label": "130",
    "attribute": "0x00000012",
    "text": "{{fun_00080064 arg=\"\"}}{{anim id=\"Nodding\" target=\"actor\" targetSpec=\"\"}}The brand-new {{color id=\"1\"}}Nook's Cranny{{color id=\"65535\"}} will\nhave a grand reopening at 8 AM\ntomorrow.{{delay20}}{{anim id=\"Greeting\" target=\"actor\" targetSpec=\"\"}} Yes, yes! So exciting!{{endTag}}"
  },
  {
    "label": "131_01",
    "attribute": "0x00000012",
    "text": "{{fun_00080064 arg=\"\"}}{{anim id=\"HappyFlower\" target=\"actor\" targetSpec=\"\"}}Today, {{color id=\"1\"}}Nook's Cranny{{color id=\"65535\"}} is celebrating\na grand reopening!{{endTag}}"
  },
  {
    "label": "131_02",
    "attribute": "0x00000012",
    "text": "{{fun_00080064 arg=\"\"}}{{anim id=\"HappyFlower\" target=\"actor\" targetSpec=\"\"}}Business is booming at the {{color id=\"1\"}}shop{{color id=\"65535\"}}\nmy staff, {{color id=\"3\"}}Timmy{{color id=\"65535\"}} and {{color id=\"3\"}}Tommy{{color id=\"65535\"}}, opened!{{endTag}}"
  },
  {
    "label": "132",
    "attribute": "0x00000012",
    "text": "{{fun_00080064 arg=\"\"}}{{anim id=\"Smiling\" target=\"actor\" targetSpec=\"\"}}The shop interior has expanded\nand they sell even more products\nthan before.{{pageBreak}}{{anim id=\"HappyDance\" target=\"actor\" targetSpec=\"\"}}I hope all of you continue to shop\nwith {{color id=\"3\"}}Timmy{{color id=\"65535\"}} and {{color id=\"3\"}}Tommy{{color id=\"65535\"}} at the new\n{{color id=\"1\"}}Nook's Cranny{{color id=\"65535\"}}!{{endTag}}"
  },
  {
    "label": "141_01",
    "attribute": "0x00000012",
    "text": "{{fun_00080064 arg=\"\"}}{{anim id=\"HappyFlower\" target=\"actor\" targetSpec=\"\"}}Today, {{delay20}}{{color id=\"1\"}}Able Sisters{{color id=\"65535\"}}, a new {{color id=\"1\"}}tailor\nshop{{color id=\"65535\"}}, has opened up on our island!{{endTag}}"
  },
  {
    "label": "141_02",
    "attribute": "0x00000012",
    "text": "{{fun_00080064 arg=\"\"}}{{anim id=\"HappyFlower\" target=\"actor\" targetSpec=\"\"}}{{color id=\"1\"}}Able Sisters{{color id=\"65535\"}}, a {{color id=\"1\"}}tailor shop{{color id=\"65535\"}}, is open\nfor business on {{string value=\"OtherIslandName\"}}{{endTag}}!"
  },
  {
    "label": "142",
    "attribute": "0x00000012",
    "text": "{{fun_00080064 arg=\"\"}}{{anim id=\"Smiling\" target=\"actor\" targetSpec=\"\"}}The {{color id=\"1\"}}tailor shop{{color id=\"65535\"}} has a number of\nfashionable items for purchase,\nas well as a custom-design gallery.{{pageBreak}}{{anim id=\"HappyDance\" target=\"actor\" targetSpec=\"\"}}So show off your style and perhaps\ntry creating design trends that will\nput {{string value=\"OtherIslandName\"}} on the map!{{endTag}}"
  },
  {
    "label": "161_01",
    "attribute": "0x00000012",
    "text": "{{fun_00080064 arg=\"\"}}{{anim id=\"Serious\" target=\"actor\" targetSpec=\"\"}}Now then{{string value=\"...\"}}{{delay20}} I have one more bit of\nimportant news to wrap things up.{{endTag}}"
  },
  {
    "label": "161_02",
    "attribute": "0x00000012",
    "text": "{{fun_00080064 arg=\"\"}}{{anim id=\"BigSmile\" target=\"actor\" targetSpec=\"\"}}There's only a single announcement\ntoday, but it's a big one. Yes, yes!{{endTag}}"
  },
  {
    "label": "162",
    "attribute": "0x00000012",
    "text": "{{fun_00080064 arg=\"\"}}{{anim id=\"Smiling\" target=\"actor\" targetSpec=\"\"}}It's so wonderful to see all the\nenthusiasm for island life. Our\npopulation is certainly growing, hm?{{pageBreak}}{{capitalizeNextLetter}}{{string value=\"OtherIslandName\"}} is becoming a\nrather bustling place! Yes, yes!{{pageBreak}}Our goal, as always, is to provide\nyou all with the top-quality support\nyou deserve. And so, please note{{string value=\"...\"}}{{pageBreak}}{{anim id=\"Clapping\" target=\"actor\" targetSpec=\"\"}}{{color id=\"1\"}}Resident Services {{color id=\"65535\"}}will soon relocate\nfrom its current tent{{delay8}} into a new,\nmore permanent building!\n{{anim id=\"EmotEnd\" target=\"actor\" targetSpec=\"\"}}It's a big move, and construction will\ntake some time,{{delay8}} so we will be closed\ntomorrow.\n{{anim id=\"Explain\" target=\"actor\" targetSpec=\"\"}}Please check on lost items at the\n{{color id=\"1\"}}recycle box{{color id=\"65535\"}}, or use the {{color id=\"1\"}}Nook Stop\n{{color id=\"65535\"}}today while it's available, yes, yes?{{anim id=\"Smiling\" target=\"actor\" targetSpec=\"\"}}{{endTag}}"
  },
  {
    "label": "163_00_01",
    "attribute": "0x00000012",
    "text": "{{fun_00080064 arg=\"\"}}Now then,{{delay20}} I'm sure you all can guess\nwhat I'm going to tell you next{{string value=\"...\"}}{{delay40}} {{anim id=\"BigSmile\" target=\"actor\" targetSpec=\"\"}}It's\ntoday's big announcement!{{endTag}}"
  },
  {
    "label": "163_00_02",
    "attribute": "0x00000012",
    "text": "{{fun_00080064 arg=\"\"}}Now then,{{delay20}} I'm sure you've all been\nwaiting for this next announcement.{{delay40}}\n{{anim id=\"BigSmile\" target=\"actor\" targetSpec=\"\"}}Saving the big news for the end, hm?{{endTag}}"
  },
  {
    "label": "163_01",
    "attribute": "0x00000012",
    "text": "{{fun_00080064 arg=\"\"}}{{anim id=\"Nodding\" target=\"mainNpc\" targetSpec=\"\"}}As stated in a previous broadcast,\ntoday we've completed construction\n{{anim id=\"HappyFlower\" target=\"mainNpc\" targetSpec=\"\"}}of the {{color id=\"1\"}}Resident Services{{color id=\"65535\"}} building!{{delay20}}{{pageBreak}}{{anim id=\"Pardon\" target=\"mainNpc\" targetSpec=\"\"}}That's not all the big news for today.{{delay frames=\"40\"}}\n{{anim id=\"BigSmile\" target=\"mainNpc\" targetSpec=\"\"}}We've also added someone to our\nisland staff!{{endTag}}"
  },
  {
    "label": "163_01_01",
    "attribute": "0x00000012",
    "text": "{{fun_00080064 arg=\"\"}}{{anim id=\"Nodding\" target=\"mainNpc\" targetSpec=\"\"}}{{delay20}}Come on over!{{anim id=\"Smiling\" target=\"mainNpc\" targetSpec=\"\"}}{{endTag}}"
  },
  {
    "label": "163_02",
    "attribute": "0x00000012",
    "text": "{{fun_00080064 arg=\"\"}}{{anim id=\"Hello\" target=\"subNpc\" targetSpec=\"\"}}Hello!{{anim id=\"FaintSmile\" target=\"mainNpc\" targetSpec=\"\"}}{{delay20}} I'm {{color id=\"3\"}}Isabelle{{color id=\"65535\"}}!{{delay20}}{{anim id=\"EmotEnd\" target=\"subNpc\" targetSpec=\"\"}} As {{color id=\"3\"}}Mr. Nook {{color id=\"65535\"}}said,{{anim id=\"EmotEnd\" target=\"mainNpc\" targetSpec=\"\"}}{{delay8}}\nI'm part of the {{anim id=\"FaintSmile\" target=\"subNpc\" targetSpec=\"\"}}{{color id=\"1\"}}Resident Services\n{{color id=\"65535\"}}staff{{anim id=\"FaintSmile\" target=\"mainNpc\" targetSpec=\"\"}} here on {{string value=\"IslandName\"}}!\n{{anim id=\"Negative\" target=\"subNpc\" targetSpec=\"\"}}While I still have much to learn,{{delay20}}{{anim id=\"Nodding\" target=\"subNpc\" targetSpec=\"\"}} I will\ndo my best{{delay20}}{{anim id=\"Nodding\" target=\"mainNpc\" targetSpec=\"\"}} to support everyone{{anim id=\"BigSmile\" target=\"subNpc\" targetSpec=\"\"}} who\ncalls this island home.{{delay20}}{{anim id=\"FaintSmile\" target=\"subNpc\" targetSpec=\"\"}}{{anim id=\"EmotEnd\" target=\"mainNpc\" targetSpec=\"\"}}{{anim id=\"EmotEnd\" target=\"subNpc\" targetSpec=\"\"}}{{endTag}}"
  },
  {
    "label": "163_03",
    "attribute": "0x00000012",
    "text": "{{fun_00080064 arg=\"\"}}{{anim id=\"Explain\" target=\"mainNpc\" targetSpec=\"\"}}{{color id=\"3\"}}Isabelle{{color id=\"65535\"}} has previously{{anim id=\"FaintSmile\" target=\"subNpc\" targetSpec=\"\"}} done resident\nsupport work, so{{delay frames=\"40\"}}{{anim id=\"BigSmile\" target=\"mainNpc\" targetSpec=\"\"}} I'm sure she'll be\na big help{{anim id=\"ShyBoy\" target=\"subNpc\" targetSpec=\"\"}} to everyone here, hm?{{endTag}}"
  },
  {
    "label": "163_04",
    "attribute": "0x00000012",
    "text": "{{fun_00080064 arg=\"\"}}I've got more to share!{{pageBreak}}{{anim id=\"Explain\" target=\"mainNpc\" targetSpec=\"\"}}The building isn't the only new thing\naround here. {{anim id=\"Smiling\" target=\"subNpc\" targetSpec=\"\"}}We gave the {{color id=\"1\"}}plaza{{color id=\"65535\"}} {{anim id=\"SmugFace\" target=\"mainNpc\" targetSpec=\"\"}}{{anim id=\"Clapping\" target=\"subNpc\" targetSpec=\"\"}}some\nmuch-needed improvements as well!{{pageBreak}}{{anim id=\"EmotEnd\" target=\"mainNpc\" targetSpec=\"\"}}{{anim id=\"EmotEnd\" target=\"subNpc\" targetSpec=\"\"}}Normally the {{color id=\"1\"}}plaza{{color id=\"65535\"}} is for residents\nand visiting peddlers who take\nadvantage of its prime location{{string value=\"...\"}}{{pageBreak}}{{anim id=\"Smiling\" target=\"mainNpc\" targetSpec=\"\"}}But keep an eye out for occasional{{anim id=\"Smiling\" target=\"subNpc\" targetSpec=\"\"}}\nseasonal events too! Should be\nsuch fun for everyone, yes, yes!{{endTag}}"
  },
  {
    "label": "163_05",
    "attribute": "0x00000012",
    "text": "{{fun_00080064 arg=\"\"}}{{anim id=\"Serious\" target=\"mainNpc\" targetSpec=\"\"}}Well{{string value=\"...\"}}I believe that wraps up all my\nannouncements for today.{{pageBreak}}{{anim id=\"ShyBoy\" target=\"mainNpc\" targetSpec=\"\"}}{{anim id=\"FaintSmile\" target=\"subNpc\" targetSpec=\"\"}}Except for one final thing. This was\nmy very last broadcast!{{pageBreak}}{{anim id=\"EmotEnd\" target=\"mainNpc\" targetSpec=\"\"}}{{anim id=\"EmotEnd\" target=\"subNpc\" targetSpec=\"\"}}Starting tomorrow{{string value=\"...\"}}{{delay40}}{{i20_2 arg=\"5\"}}{{color id=\"3\"}}Isabelle{{color id=\"65535\"}}{{anim id=\"Smiling\" target=\"subNpc\" targetSpec=\"\"}} will be\nyour new source for island news!{{endTag}}"
  },
  {
    "label": "163_06",
    "attribute": "0x00000012",
    "text": "{{fun_00080064 arg=\"\"}}{{anim id=\"Blushing\" target=\"subNpc\" targetSpec=\"\"}}{{anim id=\"Smiling\" target=\"mainNpc\" targetSpec=\"\"}}I'll do my best to share all the latest\nupdates with you, so I hope you'll\ntune in often!{{anim id=\"Smiling\" target=\"subNpc\" targetSpec=\"\"}}{{endTag}}"
  },
  {
    "label": "163_07",
    "attribute": "0x00000012",
    "text": "{{fun_00080064 arg=\"\"}}{{anim id=\"Nodding\" target=\"mainNpc\" targetSpec=\"\"}}Yes, yes! There you have it{{string value=\"...\"}}{{anim id=\"EmotEnd\" target=\"subNpc\" targetSpec=\"\"}}{{delay frames=\"40\"}}{{anim id=\"FaintSmile\" target=\"mainNpc\" targetSpec=\"\"}}\nNew building,{{anim id=\"FaintSmile\" target=\"subNpc\" targetSpec=\"\"}} new island staff.{{delay20}}{{anim id=\"Greeting\" target=\"mainNpc\" targetSpec=\"\"}}\nWe are growing, growing, growing.{{pageBreak}}{{anim id=\"Explain\" target=\"mainNpc\" targetSpec=\"\"}}Finding out what's {{color id=\"1\"}}new{{color id=\"65535\"}}{{anim id=\"EmotEnd\" target=\"subNpc\" targetSpec=\"\"}} at {{color id=\"1\"}}Resident\nServices{{color id=\"65535\"}}{{delay20}}{{anim id=\"FaintSmile\" target=\"mainNpc\" targetSpec=\"\"}}{{anim id=\"FaintSmile\" target=\"subNpc\" targetSpec=\"\"}} is as easy as stopping by\nand inquiring, hm?{{endTag}}"
  },
  {
    "label": "163_08_01",
    "attribute": "0x00000012",
    "text": "{{fun_00080064 arg=\"\"}}{{anim id=\"Smiling\" target=\"mainNpc\" targetSpec=\"\"}}{{anim id=\"Smiling\" target=\"subNpc\" targetSpec=\"\"}}Of course, we plan on holding a\nceremony to commemorate the new\n{{color id=\"1\"}}Resident Services{{color id=\"65535\"}} building.\nWe'd love for everyone to take part!{{endTag}}"
  },
  {
    "label": "163_08_02",
    "attribute": "0x00000012",
    "text": "{{fun_00080064 arg=\"\"}}{{anim id=\"Smiling\" target=\"mainNpc\" targetSpec=\"\"}}{{anim id=\"Smiling\" target=\"subNpc\" targetSpec=\"\"}}We'll be holding a ceremony to\ncommemorate the new {{color id=\"1\"}}Resident\nServices{{color id=\"65535\"}} building.{{pageBreak}}{{anim id=\"Nodding\" target=\"mainNpc\" targetSpec=\"\"}}{{anim id=\"FaintSmile\" target=\"subNpc\" targetSpec=\"\"}}Anyone who wants to take part{{delay8}}\nshould stop by {{color id=\"1\"}}Resident Services\n{{color id=\"65535\"}}within one week to let me know.{{anim id=\"Smiling\" target=\"mainNpc\" targetSpec=\"\"}}{{endTag}}"
  },
  {
    "label": "163_09",
    "attribute": "0x00000012",
    "text": "{{fun_00080064 arg=\"\"}}I believe that sums it all up{{string value=\"...\"}}{{delay40}}\n{{anim id=\"Nodding\" target=\"mainNpc\" targetSpec=\"\"}}{{anim id=\"EmotEnd\" target=\"mainNpc\" targetSpec=\"\"}}{{anim id=\"EmotEnd\" target=\"subNpc\" targetSpec=\"\"}}{{color id=\"3\"}}Isabelle {{color id=\"65535\"}}and I{{delay20}}{{anim id=\"Greeting\" target=\"mainNpc\" targetSpec=\"\"}}{{anim id=\"Hello\" target=\"subNpc\" targetSpec=\"\"}} will be there to help\nyou whenever you need us!{{anim id=\"EmotEnd\" target=\"mainNpc\" targetSpec=\"\"}}{{anim id=\"EmotEnd\" target=\"subNpc\" targetSpec=\"\"}}{{endTag}}"
  },
  {
    "label": "191",
    "attribute": "0x00000012",
    "text": "{{fun_00080064 arg=\"\"}}{{anim id=\"Shocked\" target=\"actor\" targetSpec=\"\"}}{{delay8}}By the way, whenever we cover big\nisland developments like this{{string value=\"...\"}}{{pageBreak}}{{anim id=\"Smiling\" target=\"actor\" targetSpec=\"\"}}we'll hold a special commemorative\nceremony afterward!{{pageBreak}}{{anim id=\"HappyDance\" target=\"actor\" targetSpec=\"\"}}We'd like as many folks as possible\nto take part, so stop by {{color id=\"1\"}}Resident Services {{color id=\"65535\"}}if you're interested.{{endTag}}"
  },
  {
    "label": "192_01",
    "attribute": "0x00000012",
    "text": "{{fun_00080064 arg=\"\"}}{{anim id=\"Shocked\" target=\"actor\" targetSpec=\"\"}}{{delay8}}By the way, whenever we cover big\nisland developments like this{{string value=\"...\"}}{{pageBreak}}{{anim id=\"Smiling\" target=\"actor\" targetSpec=\"\"}}we'll hold a special commemorative\nceremony afterward!{{pageBreak}}{{anim id=\"HappyDance\" target=\"actor\" targetSpec=\"\"}}We'd like as many folks as possible\nto take part, so stop by {{color id=\"1\"}}Resident Services{{color id=\"65535\"}} if you're interested.{{endTag}}"
  },
  {
    "label": "192_02",
    "attribute": "0x00000012",
    "text": "{{fun_00080064 arg=\"\"}}{{anim id=\"Smiling\" target=\"actor\" targetSpec=\"\"}}By the way, we will be holding a\nspecial commemorative ceremony\nsoon, as usual.{{pageBreak}}{{anim id=\"HappyDance\" target=\"actor\" targetSpec=\"\"}}Stop by {{color id=\"1\"}}Resident Services{{color id=\"65535\"}} if you'd\nlike to participate!{{endTag}}"
  },
  {
    "label": "201",
    "attribute": "0x00000012",
    "text": "{{fun_00080064 arg=\"\"}}{{anim id=\"Eh\" target=\"actor\" targetSpec=\"\"}}Oh dear.{{delay20}} Never fails.{{delay8}} Of course this\nwould happen right in the middle of\na broadcast{{string value=\"...\"}}\n{{anim id=\"WrySmile\" target=\"actor\" targetSpec=\"\"}}A{{string value=\"...\"}}haaaa{{string value=\"...\"}}{{delay8}} One moment, please.{{endTag}}"
  },
  {
    "label": "202_01",
    "attribute": "0x00000013",
    "text": "{{size value=\"75\"}}{{anim id=\"Worried\" target=\"actor\" targetSpec=\"\"}}{{delay20}}Hello?{{delay20}} This is {{color id=\"3\"}}Tom Nook{{color id=\"65535\"}} from Nook Inc., yes{{string value=\"...\"}}{{delay20}}\n{{anim id=\"Shocked\" target=\"actor\" targetSpec=\"\"}}What? {{delay8}}The getaway package?{{pageBreak}}{{size value=\"100\"}}{{size value=\"150\"}}{{anim id=\"BigSmile\" target=\"actor\" targetSpec=\"\"}}Why, yes! Yes, yes!{{delay frames=\"30\"}}\n{{anim id=\"HappyDance\" target=\"actor\" targetSpec=\"\"}}Of course!{{size value=\"100\"}}"
  },
  {
    "label": "203",
    "attribute": "0x00000012",
    "text": "{{fun_00080064 arg=\"\"}}{{anim id=\"Serious\" target=\"actor\" targetSpec=\"\"}}And that's all for today's\n{{color id=\"1\"}}island-wide broadcast{{color id=\"65535\"}}.{{delay20}}{{endTag}}"
  },
  {
    "label": "204_01",
    "attribute": "0x00000013",
    "text": "{{delay20}}{{anim id=\"Smiling\" target=\"actor\" targetSpec=\"\"}}Ah, {{delay20}}so sorry to put you on hold.{{delay frames=\"40\"}}\nAllow me to give you a full\noverview of the{{string value=\"...\"}}"
  },
  {
    "label": "210",
    "attribute": "0x00000012",
    "text": "{{fun_00080064 arg=\"\"}}{{anim id=\"EmotEnd\" target=\"actor\" targetSpec=\"\"}}Alright. It's time for our final\nannouncement of the day{{string value=\"...\"}}{{endTag}}"
  },
  {
    "label": "210_01",
    "attribute": "0x00000012",
    "text": "{{fun_00080064 arg=\"\"}}{{anim id=\"EmotEnd\" target=\"actor\" targetSpec=\"\"}}Now then,{{delay20}} I only have one piece of\nnews for today{{string value=\"...\"}}{{endTag}}"
  },
  {
    "label": "211",
    "attribute": "0x00000012",
    "text": "{{fun_00080064 arg=\"\"}}{{anim id=\"Smiling\" target=\"actor\" targetSpec=\"\"}}For all of you DIY-loving island\nresidents out there, I have a\nvery special announcement.{{pageBreak}}{{anim id=\"EmotEnd\" target=\"actor\" targetSpec=\"\"}}DIY veterans can now take part{{delay20}}\n{{anim id=\"HappyFlower\" target=\"actor\" targetSpec=\"\"}}in a special {{color id=\"1\"}}customization\nworkshop {{color id=\"65535\"}}I'm hosting!{{pageBreak}}{{anim id=\"Explain\" target=\"actor\" targetSpec=\"\"}}Learning how to {{color id=\"1\"}}customize{{color id=\"65535\"}} will help\nyou change up the look of any DIY\nprojects you create, hm?\n{{anim id=\"BigSmile\" target=\"actor\" targetSpec=\"\"}}I have no doubt it will broaden your\ncreative expertise!{{endTag}}"
  },
  {
    "label": "212_01",
    "attribute": "0x00000012",
    "text": "{{fun_00080064 arg=\"\"}}{{anim id=\"Smiling\" target=\"actor\" targetSpec=\"\"}}I'll conduct this DIY workshop inside\n{{color id=\"1\"}}Resident Services{{color id=\"65535\"}}.{{delay20}}{{anim id=\"Greeting\" target=\"actor\" targetSpec=\"\"}} Curious crafters\nshould stop by!{{endTag}}"
  },
  {
    "label": "212_02",
    "attribute": "0x00000012",
    "text": "{{fun_00080064 arg=\"\"}}{{anim id=\"Explain\" target=\"actor\" targetSpec=\"\"}}Now, anyone wishing to learn about\ncustomization will need to take my\nbasic {{color id=\"1\"}}DIY workshop{{color id=\"65535\"}} first, hm?{{pageBreak}}{{anim id=\"Smiling\" target=\"actor\" targetSpec=\"\"}}The workshop is held in {{color id=\"1\"}}Resident Services{{color id=\"65535\"}}, so if you haven't tried DIY\nfor yourself yet, come on by!{{endTag}}"
  }
]