﻿[
  {
    "label": "001",
    "text": "{{gender2 m=\"Cher\" f=\"Chère\"}} {{string value=\"NickName\"}},"
  },
  {
    "label": "002",
    "text": "{{gender2 m=\"Cher\" f=\"Chère\"}} {{string value=\"NickName\"}},"
  },
  {
    "label": "003",
    "text": "{{gender2 m=\"Cher\" f=\"Chère\"}} plus si jeune {{string value=\"NickName\"}},"
  },
  {
    "label": "004",
    "text": "{{gender2 m=\"Cher\" f=\"Chère\"}} star du jour,"
  },
  {
    "label": "005",
    "text": "Salut {{string value=\"NickName\"}} !"
  },
  {
    "label": "006",
    "text": "{{gender2 m=\"Cher roi\" f=\"Chère reine\"}} de la fête,"
  },
  {
    "label": "007",
    "text": "{{gender2 m=\"Cher gamin\" f=\"Chère gamine\"}},"
  },
  {
    "label": "008",
    "text": "{{gender2 m=\"Cher\" f=\"Chère\"}} {{string value=\"NickName\"}},"
  },
  {
    "label": "009",
    "text": "Salut {{string value=\"NickName\"}} !"
  },
  {
    "label": "101",
    "text": "Comme promis, voilà le cadeau que\nje n'ai pas pu t'offrir durant ta fête\nd'anniversaire. D'ailleurs, c'était\nvraiment sympa de t'y voir. Je sais\nque t'es {{gender2 m=\"un bûcheur, gamin\" f=\"une bûcheuse, gamine\"}},\ncette nouvelle année te réussira !"
  },
  {
    "label": "102",
    "text": "Voilà le cadeau que je n'ai pas pu\nt'offrir plus tôt. J'espère qu'il te\nplaira, parce que quand je l'ai vu,\nje me suis tout de suite dit que\nça serait le cadeau parfait pour toi."
  },
  {
    "label": "103",
    "text": "Elle était vraiment bien, ta fête.\nDommage qu'il n'y en ait une\nqu'une fois par an. Avant que\nj'oublie, voilà un petit cadeau\npour toi. J'espère qu'il te fera\nplaisir."
  },
  {
    "label": "104",
    "text": "Voilà les cupcakes que j'ai pas pu\nt'offrir. J'espère qu'ils auront pas\ntrop moisi quand tu ouvriras ce\ncourrier. En tout cas, c'était sympa\nde fêter ton anniversaire !"
  },
  {
    "label": "105",
    "text": "Je sais pas toi, mais je me suis\nbien amusé lors de ta fête\nd'anniversaire. Au fait, voilà les\ncupcakes que j'ai promis de\nt'envoyer. Partage-les avec\nceux qui n'ont pas pu être là !"
  },
  {
    "label": "106",
    "text": "Quelle fête ça a été ! Il me reste\nencore des cupcakes qui sont\ntombés de la piñata, je me suis dit\nque ça te ferait plaisir que je te les\nenvoie. Hésite pas à partager avec\ntous les gourmands du coin !"
  },
  {
    "label": "107",
    "text": "Sache que ça m'a fait très plaisir\nque tu m'offres un cupcake. À tel\npoint que j'ai moi aussi envie de\nt'offrir quelque chose en retour.\nJ'espère que ça te fera plaisir."
  },
  {
    "label": "108",
    "text": "Je voulais te remercier encore une\nfois pour le cupcake, {{gender2 m=\"gamin\" f=\"gamine\"}}. Mais\ncette fois-ci avec un cadeau en\nbonne et due forme. J'espère\nqu'il te sera utile !"
  },
  {
    "label": "109",
    "text": "Merci encore pour le cupcake, il\nétait vraiment pas mauvais. Avant\nque j'oublie, voilà le cadeau que je\nn'ai pas eu l'opportunité de t'offrir\nen pattes propres. J'espère qu'il\nte fera plaisir."
  },
  {
    "label": "201",
    "text": "Crois-moi, {{string value=\"VillagerName\"}}."
  },
  {
    "label": "202",
    "text": "À la prochaine, {{string value=\"VillagerName\"}}."
  },
  {
    "label": "203",
    "text": "De rien, {{string value=\"VillagerName\"}}."
  },
  {
    "label": "204",
    "text": "Garde la pêche, {{string value=\"VillagerName\"}}."
  },
  {
    "label": "205",
    "text": "Sinon, mange-les. {{string value=\"VillagerName\"}}"
  },
  {
    "label": "206",
    "text": "{{string value=\"VillagerName\"}} le généreux."
  },
  {
    "label": "207",
    "text": "À plus, {{string value=\"VillagerName\"}}."
  },
  {
    "label": "208",
    "text": "Amicalement, {{string value=\"VillagerName\"}}."
  },
  {
    "label": "209",
    "text": "À plus, {{string value=\"VillagerName\"}}."
  }
]