﻿[
  {
    "label": "001",
    "text": "Querid{{gender2 m=\"o\" f=\"a\"}} {{string value=\"PlayerName\"}}:"
  },
  {
    "label": "002",
    "text": "Querid{{gender2 m=\"o\" f=\"a\"}} {{string value=\"PlayerName\"}}:"
  },
  {
    "label": "003",
    "text": "Querid{{gender2 m=\"o\" f=\"a\"}} {{string value=\"PlayerName\"}}:"
  },
  {
    "label": "004",
    "text": "Querid{{gender2 m=\"o\" f=\"a\"}} {{string value=\"PlayerName\"}}:"
  },
  {
    "label": "005",
    "text": "Querid{{gender2 m=\"o\" f=\"a\"}} {{string value=\"PlayerName\"}}:"
  },
  {
    "label": "101",
    "text": "¡Tu ayuda en la sesión de\nfotos fue increíble! Te envío\nun regalo para agradecértelo.\nLo hizo mi Almendrito, así que\ntrátalo con mucho cariño."
  },
  {
    "label": "102",
    "text": "Aquí te envío las {{wordInfo gender=\"2\" indefArticle=\"8\" defArticle=\"6\"}}joyas amorosas\nque no pude darte. Las puedes\ncanjear por objetos. ¡Habla con\nmi maridito y él se ocupará de\ntodo!"
  },
  {
    "label": "103",
    "text": "¡Eh, piltrafita! ¡Gracias por\nayudarnos con la sesión\nfotográfica! Aquí te envío lo que \ncanjeaste por las joyas amorosas.\n¡Espero que disfrutes tu\n{{fun_0000007D arg=\"0x0000\"}}!"
  },
  {
    "label": "104",
    "text": "¡Granujita! Aquí tienes el esquema\nde la {{wordInfo gender=\"2\" indefArticle=\"2\" defArticle=\"4\"}}varita ramo de boda que no te\npude dar el otro día. ¡Ya me dirás\nqué te parece! Por cierto, ¡gracias\npor tu ayuda de parte nuestra!"
  },
  {
    "label": "105",
    "text": "Gracias por esa fiesta tan bonita\nque nos hiciste. Mi maridito y yo\nte mandamos este regalo para\nagradecerte todo lo que hiciste\npor nosotros."
  },
  {
    "label": "201",
    "text": "Al y Paca"
  },
  {
    "label": "202",
    "text": "Al y Paca"
  },
  {
    "label": "203",
    "text": "Al y Paca"
  },
  {
    "label": "204",
    "text": "Al y Paca"
  },
  {
    "label": "205",
    "text": "Al y Paca"
  }
]