﻿[
  {
    "label": "001",
    "attribute": "0x00000000",
    "text": "{{anim id=\"EmotEnd\" target=\"actor\" targetSpec=\"\"}}Vaya, vaya, ¿a quién tenemos aquí?{{delay20}}\n{{anim id=\"Hello\" target=\"actor\" targetSpec=\"\"}}Soy {{color id=\"3\"}}Ladino{{color id=\"65535\"}}, me dedico a la venta\nde objetos.\n{{anim id=\"QuestionMark\" target=\"actor\" targetSpec=\"\"}}¿Tú eres? ¿{{capitalizeNextLetter}}{{string value=\"PlayerName\"}}?{{delay20}}\n{{anim id=\"Nodding\" target=\"actor\" targetSpec=\"\"}}Me gusta.{{delay8}} Transmite fuerza e\ninteligencia.\n{{anim id=\"Smiling\" target=\"actor\" targetSpec=\"\"}}Tú y yo vamos a llevarnos bien.\nLo presiento.{{delay20}} Es un placer conocerte."
  },
  {
    "label": "001_01",
    "attribute": "0x00000000",
    "text": "{{anim id=\"Aha\" target=\"actor\" targetSpec=\"\"}}¡Un momento!{{delay20}} Yo a ti te conozco{{string value=\"...\"}}{{delay8}}\n{{anim id=\"Nodding\" target=\"actor\" targetSpec=\"\"}}Ya hicimos negocios antes,\n¿verdad, prim{{gender2 m=\"o\" f=\"a\"}}?\n{{anim id=\"SmugFace\" target=\"actor\" targetSpec=\"\"}}Sí, soy yo, ¡{{color id=\"3\"}}Ladino{{color id=\"65535\"}}! {{delay20}}Y tú eras{{string value=\"...\"}}{{delay8}}\n{{anim id=\"Hello\" target=\"actor\" targetSpec=\"\"}}¡{{string value=\"PlayerName\"}}, por supuesto!{{delay8}}\n¿Cómo te trata la vida?"
  },
  {
    "label": "001_02",
    "attribute": "0x00000000",
    "text": "{{anim id=\"Aha\" target=\"actor\" targetSpec=\"\"}}¡Un momento!{{delay20}} Yo a ti te conozco{{string value=\"...\"}}{{delay8}}\n{{anim id=\"Laughing\" target=\"actor\" targetSpec=\"\"}}Me alegro de verte, prim{{gender2 m=\"o\" f=\"a\"}}."
  },
  {
    "label": "002_01",
    "attribute": "0x00000000",
    "text": "{{anim id=\"Thinking\" target=\"actor\" targetSpec=\"\"}}¿Sabes qué?{{delay8}} Creo que no fue\nninguna casualidad que nos hayamos\nconocido precisamente ahora.\n{{anim id=\"EmotEnd\" target=\"actor\" targetSpec=\"\"}}Como te dije, me dedico a las\nventas,{{delay8}}{{anim id=\"Grin\" target=\"actor\" targetSpec=\"\"}} y me huelo que en esta isla\npuede haber negocio para mí.\n{{anim id=\"FaintSmile\" target=\"actor\" targetSpec=\"\"}}Espero que pases a verme cuando\nabra mi negocio.{{delay20}}{{anim id=\"Smiling\" target=\"actor\" targetSpec=\"\"}} ¡Hasta te haré\ndescuento de amig{{gender2 m=\"o\" f=\"a\"}}, prim{{gender2 m=\"o\" f=\"a\"}}!"
  },
  {
    "label": "002_02",
    "attribute": "0x00000000",
    "text": "{{anim id=\"Explain\" target=\"actor\" targetSpec=\"\"}}Me han dicho que aquí tienen\nun {{color id=\"1\"}}{{wordInfo gender=\"1\" indefArticle=\"1\" defArticle=\"3\"}}museo {{color id=\"65535\"}}muy grande, ¿es cierto?{{pageBreak}}{{anim id=\"Smiling\" target=\"actor\" targetSpec=\"\"}}Porque da la casualidad de que\ntengo un depósito lleno de obras\nde arte que me gustaría vender.\n{{anim id=\"FaintSmile\" target=\"actor\" targetSpec=\"\"}}En fin, tú avísame si oyes algo.{{delay20}}\n{{anim id=\"Nodding\" target=\"actor\" targetSpec=\"\"}}Te compensaré con un buen\ndescuento."
  },
  {
    "label": "003_01",
    "attribute": "0x00000000",
    "text": "{{anim id=\"Serious\" target=\"actor\" targetSpec=\"\"}}¿Puedo comentarte una cosa, prim{{gender2 m=\"o\" f=\"a\"}}?{{delay20}}\n{{anim id=\"Nodding\" target=\"actor\" targetSpec=\"\"}}Algo me dice que tienes buen ojo\npara el arte.\n{{anim id=\"Laughing\" target=\"actor\" targetSpec=\"\"}}No te sorprendas, tengo habilidad\npara leer a la gente.{{delay20}}{{anim id=\"Assent\" target=\"actor\" targetSpec=\"\"}} Mi instinto\nnunca falla.\n{{anim id=\"EmotEnd\" target=\"actor\" targetSpec=\"\"}}Y hablando de instinto,{{anim id=\"Grin\" target=\"actor\" targetSpec=\"\"}} antes de\nvenir se me ocurrió traer esto,{{delay8}}\npor si las moscas.\n{{anim id=\"Smiling\" target=\"actor\" targetSpec=\"\"}}¡{{capitalizeNextLetter}}{{wordArticle}}{{fun_0000007D arg=\"0x0000\"}}!"
  },
  {
    "label": "003_02",
    "attribute": "0x01000000",
    "text": "{{anim id=\"Grin\" target=\"actor\" targetSpec=\"\"}}Qué suerte, ¿no?{{delay20}} Ahora tienes\nla oportunidad de comprarme\nesta maravilla.\n{{anim id=\"FaintSmile\" target=\"actor\" targetSpec=\"\"}}Como ya te dije, me caes bien,{{delay8}}\nasí que te haré un descuento.{{pageBreak}}{{anim id=\"Thinking\" target=\"actor\" targetSpec=\"\"}}Veamos,{{delay8}} qué te parece{{string value=\"...\"}}{{delay8}}\n{{anim id=\"Smiling\" target=\"actor\" targetSpec=\"\"}}¿{{color id=\"1\"}}498 000 bayas{{color id=\"65535\"}}?{{delay20}} ¡Es casi un regalo!"
  },
  {
    "label": "003_02_a",
    "attribute": "0x00000000",
    "text": "¡Olvídalo!"
  },
  {
    "label": "003_02_b",
    "attribute": "0x00000000",
    "text": "¡¿Cuánto?!"
  },
  {
    "label": "004",
    "attribute": "0x02000000",
    "text": "{{anim id=\"Negative\" target=\"actor\" targetSpec=\"\"}}Te aseguro que nadie te ofrecerá\nmejores precios que el viejo {{color id=\"3\"}}Ladino{{color id=\"65535\"}}.{{pageBreak}}{{anim id=\"Nodding\" target=\"actor\" targetSpec=\"\"}}Pero te aprecio,{{delay8}} ya eres un{{gender2 m=\"\" f=\"a\"}} amig{{gender2 m=\"o\" f=\"a\"}},{{delay8}}\ny no me gustaría que te fueras\ncon las manos vacías.\n{{anim id=\"Scheming\" target=\"actor\" targetSpec=\"\"}}Vamos,{{delay8}} por ser tú, te haré\nun descuento especial que\nno ofrezco a cualquiera.\n{{anim id=\"Smiling\" target=\"actor\" targetSpec=\"\"}}Por solo {{number value=\"21\" index=\"0\"}} puedes ser\n{{gender2 m=\"el orgulloso dueño\" f=\"la orgullosa dueña\"}} de est{{gender8 m=\"e\" f=\"a\" n=\"\"}} {{fun_0000007D arg=\"0x0000\"}}."
  },
  {
    "label": "004_a",
    "attribute": "0x00000000",
    "text": "¡Trato hecho!"
  },
  {
    "label": "004_b",
    "attribute": "0x00000000",
    "text": "Paso"
  },
  {
    "label": "005",
    "attribute": "0x00000000",
    "text": "{{anim id=\"BigSmile\" target=\"actor\" targetSpec=\"\"}}¡Buena decisión! No te arrepentirás."
  },
  {
    "label": "006",
    "attribute": "0x00000000",
    "text": "{{anim id=\"Laughing\" target=\"actor\" targetSpec=\"\"}}Sabía que alguien con tan buen\ncriterio no dejaría escapar esta\noportunidad."
  },
  {
    "label": "007",
    "attribute": "0x00000000",
    "text": "Vaya,{{anim id=\"Negative\" target=\"actor\" targetSpec=\"\"}} no me esperaba esa\nrespuesta{{string value=\"...\"}}{{pageBreak}}{{anim id=\"OhGeez\" target=\"actor\" targetSpec=\"\"}}Yo no dejaría escapar una oferta\ncomo esta,{{delay8}} pero tú sabrás, prim{{gender2 m=\"o\" f=\"a\"}}.{{pageBreak}}{{anim id=\"FaintSmile\" target=\"actor\" targetSpec=\"\"}}Mira, me quedaré por aquí por si\ncambias de idea.{{delay20}} No quiero que\nmañana te arrepientas."
  },
  {
    "label": "008",
    "attribute": "0x00000000",
    "text": "{{anim id=\"BigSmile\" target=\"actor\" targetSpec=\"\"}}¡Muy bien!{{delay8}} Pues aquí tien{{string value=\"...\"}}{{delay20}}\n{{anim id=\"TakenAback\" target=\"actor\" targetSpec=\"\"}}¡Por mis bigotes!{{delay8}} Parece que este\nmes estás just{{gender2 m=\"o\" f=\"a\"}} de bayas, prim{{gender2 m=\"o\" f=\"a\"}}.\n{{anim id=\"OhGeez\" target=\"actor\" targetSpec=\"\"}}Lo siento, pero si no hay bayas,\nno hay trato.{{delay20}} Vuelve cuando tengas\nla bolsa más llena."
  },
  {
    "label": "009",
    "attribute": "0x00000000",
    "text": "{{anim id=\"BigSmile\" target=\"actor\" targetSpec=\"\"}}¡Genial!{{delay8}} No te arrepent{{string value=\"...\"}}{{delay20}}\n{{anim id=\"EmotEnd\" target=\"actor\" targetSpec=\"\"}}Oye,{{delay20}} {{anim id=\"Frantic\" target=\"actor\" targetSpec=\"\"}}¿puede ser que no tengas\nespacio en los bolsillos, prim{{gender2 m=\"o\" f=\"a\"}}?\n{{anim id=\"Oops\" target=\"actor\" targetSpec=\"\"}}¿Tú sabes lo que ocupa una obra\nde arte?{{delay20}} {{anim id=\"Worried\" target=\"actor\" targetSpec=\"\"}}Ve a hacer algo de espacio\ny búscame luego.\n{{anim id=\"OhGeez\" target=\"actor\" targetSpec=\"\"}}No querrás perder esta oportunidad\núnica, ¿no?"
  },
  {
    "label": "010",
    "attribute": "0x00000000",
    "text": "{{anim id=\"Smiling\" target=\"actor\" targetSpec=\"\"}}Vaya, si es mi amig{{gender2 m=\"o\" f=\"a\"}} {{string value=\"PlayerName\"}}.{{delay20}} Me alegro de verte."
  },
  {
    "label": "011",
    "attribute": "0x00000000",
    "text": "{{anim id=\"Smiling\" target=\"actor\" targetSpec=\"\"}}Aquí estás.{{delay20}} Sabía que no podrías\nresistirte a mi oferta."
  },
  {
    "label": "012",
    "attribute": "0x02000000",
    "text": "{{anim id=\"Grin\" target=\"actor\" targetSpec=\"\"}}Con el descuento especial serán\n{{number value=\"Amount\" index=\"0\"}} por {{fun_00010032 arg=\"\"}}{{fun_0000007D arg=\"0x0000\"}}.{{delay8}} ¿Hecho?"
  },
  {
    "label": "012_a",
    "attribute": "0x00000000",
    "text": "¡Trato hecho!"
  },
  {
    "label": "012_b",
    "attribute": "0x00000000",
    "text": "No me interesa"
  },
  {
    "label": "013",
    "attribute": "0x00000000",
    "text": "{{anim id=\"TakenAback\" target=\"actor\" targetSpec=\"\"}}¿En serio?{{delay8}} Ya no te puedo hacer más\nrebajas, prim{{gender2 m=\"o\" f=\"a\"}}.{{delay8}} {{anim id=\"Sighing\" target=\"actor\" targetSpec=\"\"}}Yo también necesito\ncomer.\n{{anim id=\"OhGeez\" target=\"actor\" targetSpec=\"\"}}En fin, espero que recapacites\ny te des cuenta de la oportunidad\nque estás dejando pasar."
  },
  {
    "label": "014",
    "attribute": "0x00000000",
    "text": "{{anim id=\"Restless\" target=\"actor\" targetSpec=\"\"}}Este{{string value=\"...\"}}{{delay8}} Lo siento, prim{{gender2 m=\"o\" f=\"a\"}}, pero ya\nvendí {{fun_00010032 arg=\"\"}}{{fun_0000007D arg=\"0x0000\"}}.{{pageBreak}}{{anim id=\"Frantic\" target=\"actor\" targetSpec=\"\"}}Créeme que quería reservártel{{gender8 m=\"o\" f=\"a\" n=\"\"}},{{delay8}}\npero me insistieron tanto que\nno pude negarme.\n{{anim id=\"OhGeez\" target=\"actor\" targetSpec=\"\"}}Te dije que era un ofertón.{{delay20}}\nEra cuestión de tiempo que\nalguien más se diera cuenta.\n{{anim id=\"FaintSmile\" target=\"actor\" targetSpec=\"\"}}Pero no te preocupes,{{delay8}} pronto\ntraeré más cosas para vender."
  },
  {
    "label": "015",
    "attribute": "0x00000000",
    "text": "{{anim id=\"Aha\" target=\"actor\" targetSpec=\"\"}}Qué alegría volver a verte, {{string value=\"PlayerName\"}}.{{pageBreak}}{{anim id=\"Grin\" target=\"actor\" targetSpec=\"\"}}Me gusta venir a este lugar. {{delay8}}Está\nclaro que saben apreciar el arte.{{pageBreak}}{{anim id=\"FaintSmile\" target=\"actor\" targetSpec=\"\"}}Es una lástima que no haya más\ngente capaz de disfrutar de las\n{{color id=\"1\"}}obras de arte{{color id=\"65535\"}}, ¿verdad?"
  },
  {
    "label": "016",
    "attribute": "0x00000000",
    "text": "{{anim id=\"FaintSmile\" target=\"actor\" targetSpec=\"\"}}¡Es todo un placer volver a verte,\n{{string value=\"PlayerName\"}}!{{pageBreak}}{{anim id=\"Scheming\" target=\"actor\" targetSpec=\"\"}}Hay poca gente como tú,{{delay8}} con gusto\npor el arte y olfato para reconocer\nuna oferta cuando la tiene delante."
  },
  {
    "label": "017",
    "attribute": "0x02000000",
    "text": "{{anim id=\"Smiling\" target=\"actor\" targetSpec=\"\"}}¡Oye,{{delay8}} {{string value=\"PlayerName\"}}!{{delay20}}\n{{anim id=\"QuestionMark\" target=\"actor\" targetSpec=\"\"}}¿Buscas algo en particular?"
  },
  {
    "label": "017_a",
    "attribute": "0x00000000",
    "text": "{{anim id=\"Explain\" target=\"actor\" targetSpec=\"\"}}¡Una obra de arte!"
  },
  {
    "label": "017_b",
    "attribute": "0x00000000",
    "text": "{{anim id=\"Negative\" target=\"actor\" targetSpec=\"\"}}Solo quería saludarte"
  },
  {
    "label": "018",
    "attribute": "0x00000000",
    "text": "{{anim id=\"EmotEnd\" target=\"actor\" targetSpec=\"\"}}¿Eh?{{delay20}} {{anim id=\"BigSmile\" target=\"actor\" targetSpec=\"\"}}Ah,{{delay8}} bueno,{{delay8}} ¡muy amable\nde tu parte,{{delay8}} prim{{gender2 m=\"o\" f=\"a\"}}!{{pageBreak}}{{anim id=\"FaintSmile\" target=\"actor\" targetSpec=\"\"}}Qué buen clima para un paseo.\n{{delay20}}¡Nos vemos!"
  },
  {
    "label": "019",
    "attribute": "0x00000000",
    "text": "{{anim id=\"Laughing\" target=\"actor\" targetSpec=\"\"}}¡Je, je!{{delay20}} Así me gusta,{{delay8}} directo\nal grano.{{pageBreak}}{{anim id=\"ShyBoy\" target=\"actor\" targetSpec=\"\"}}Pues fíjate que precisamente tengo\n{{wordArticle}}{{fun_0000007D arg=\"0x0000\"}}{{string value=\"...\"}}{{delay8}} Qué suerte,{{delay8}} ¿eh?{{pageBreak}}{{anim id=\"Scheming\" target=\"actor\" targetSpec=\"\"}}No me preguntes de dónde l{{gender8 m=\"o\" f=\"a\" n=\"\"}} saqué,{{delay8}}\npero cuando {{gender8 m=\"lo\" f=\"la\" n=\"\"}} vi,{{delay8}} supe que estaba\ndestinad{{gender8 m=\"o\" f=\"a\" n=\"\"}} a ser tuy{{gender8 m=\"o\" f=\"a\" n=\"\"}}.{{pageBreak}}{{anim id=\"Thinking\" target=\"actor\" targetSpec=\"\"}}Por tu expresión,{{delay8}} yo diría que estás\nansios{{gender2 m=\"o\" f=\"a\"}} por comprarl{{gender8 m=\"o\" f=\"a\" n=\"\"}} o estás\nteniendo un déjà vu.\nO las dos cosas.{{delay20}} Aunque yo diría\nque más bien lo primero{{string value=\"...\"}}{{anim id=\"EmotEnd\" target=\"actor\" targetSpec=\"\"}}"
  },
  {
    "label": "019_01",
    "attribute": "0x02000000",
    "text": "{{anim id=\"Nodding\" target=\"actor\" targetSpec=\"\"}}Así que,{{delay8}} teniendo en cuenta tus\nganas y el hecho de que me caes\nbien{{string value=\"...\"}}{{delay8}} te {{gender8 m=\"lo\" f=\"la\" n=\"\"}} dejo por {{number value=\"Amount\" index=\"0\"}}.{{pageBreak}}{{anim id=\"Smiling\" target=\"actor\" targetSpec=\"\"}}¿Qué te parece?{{delay20}} ¿Hacemos trato?"
  },
  {
    "label": "019_01_a",
    "attribute": "0x00000000",
    "text": "{{anim id=\"Nodding\" target=\"actor\" targetSpec=\"\"}}¡Sí!"
  },
  {
    "label": "019_01_b",
    "attribute": "0x00000000",
    "text": "{{anim id=\"Negative\" target=\"actor\" targetSpec=\"\"}}Mejor no..."
  },
  {
    "label": "020",
    "attribute": "0x00000000",
    "text": "{{anim id=\"TakenAback\" target=\"actor\" targetSpec=\"\"}}¿Eh?{{delay20}} ¿Lo dices en serio?{{pageBreak}}{{anim id=\"Worried\" target=\"actor\" targetSpec=\"\"}}Pocas veces tendrás la ocasión\nde conseguir una obra maestra\nde este calibre{{delay8}} a este precio.\n{{anim id=\"OhGeez\" target=\"actor\" targetSpec=\"\"}}Pero allá tú.{{delay20}} Lo último que quisiera\nes influir en tus decisiones."
  },
  {
    "label": "021",
    "attribute": "0x00000000",
    "text": "{{anim id=\"BigSmile\" target=\"actor\" targetSpec=\"\"}}¡Así me gusta!{{delay20}} Tú sí sabes reconocer\ncuando una oferta es irre{{delay20}}pe{{delay20}}ti{{delay20}}ble.{{delay20}}\n¡Felicitaciones!{{pageBreak}}{{anim id=\"Nodding\" target=\"actor\" targetSpec=\"\"}}Vas a ser muy feliz con tu\n{{fun_0000007D arg=\"0x0000\"}}.{{delay20}}\n{{anim id=\"Greeting\" target=\"actor\" targetSpec=\"\"}}¡Te lo digo yo!"
  },
  {
    "label": "050",
    "attribute": "0x00000000",
    "text": "{{fun_0014003C arg=\"\"}}"
  },
  {
    "label": "050_01",
    "attribute": "0x00000000",
    "text": "{{anim id=\"Scheming\" target=\"actor\" targetSpec=\"\"}}¿Sabes qué?{{delay20}} Esta isla es especial.{{delay20}}\nTodo el mundo es tan amable,{{delay8}}\ngeneroso y confiado{{string value=\"...\"}}{{delay8}} {{anim id=\"Smiling\" target=\"actor\" targetSpec=\"\"}}¡Me encanta!"
  },
  {
    "label": "050_02",
    "attribute": "0x00000000",
    "text": "{{anim id=\"Thinking\" target=\"actor\" targetSpec=\"\"}}Mmm{{string value=\"...\"}}{{delay8}} Ese barco pesquero que\ncompré aquella vez en liquidación{{string value=\"...\"}}{{pageBreak}}A lo mejor lo puedo usar como sala\nde exposiciones improvisada."
  },
  {
    "label": "050_03",
    "attribute": "0x00000000",
    "text": "{{anim id=\"FaintSmile\" target=\"actor\" targetSpec=\"\"}}El arte no sabe de edades.{{delay20}} Habla\nal corazón de las viejas y las nuevas\ngeneraciones.\n{{anim id=\"ShyBoy\" target=\"actor\" targetSpec=\"\"}}¡Por eso es un mercado tan activo\ny con tantas ofertas!"
  },
  {
    "label": "060",
    "attribute": "0x00000000",
    "text": "Corrígeme si me equivoco,{{delay8}} {{anim id=\"QuestionMark\" target=\"actor\" targetSpec=\"\"}}pero no\neres de aquí,{{delay8}} ¿verdad?{{delay20}} {{anim id=\"Negative\" target=\"player\" targetSpec=\"\"}}{{anim id=\"Smiling\" target=\"actor\" targetSpec=\"\"}}¡Pues mira\nqué coincidencia!{{delay20}} Yo tampoco.{{pageBreak}}{{anim id=\"Sighing\" target=\"actor\" targetSpec=\"\"}}Lamento no tener nada para venderte\nahora.{{delay20}} Pero no te preocupes;{{delay8}} {{anim id=\"Hello\" target=\"actor\" targetSpec=\"\"}}sé que\nnos volveremos a ver."
  },
  {
    "label": "061",
    "attribute": "0x00000000",
    "text": "{{fun_0014003C arg=\"\"}}"
  },
  {
    "label": "061_01",
    "attribute": "0x00000000",
    "text": "{{anim id=\"Grin\" target=\"actor\" targetSpec=\"\"}}¿Estás de visita?{{delay20}} Es increíble el\nambiente de este lugar.{{delay20}} Como una\nobra de arte en sí mismo{{string value=\"...\"}}{{delay8}} {{anim id=\"Laughing\" target=\"actor\" targetSpec=\"\"}}¡Je, je!"
  },
  {
    "label": "061_02",
    "attribute": "0x00000000",
    "text": "{{anim id=\"Blushing\" target=\"actor\" targetSpec=\"\"}}Normalmente te haría una oferta que\nno podrías resistir{{string value=\"...\"}}{{delay8}} Pero ahora no\ntengo nada que vender.{{pageBreak}}{{anim id=\"EmotEnd\" target=\"actor\" targetSpec=\"\"}}{{anim id=\"SmugFace\" target=\"actor\" targetSpec=\"\"}}La próxima vez tendré alguna pieza\nde incalculable valor,{{delay8}} ¡y te la dejaré\nal mejor precio imaginable!"
  },
  {
    "label": "061_03",
    "attribute": "0x00000000",
    "text": "¿Ya estuviste en el {{color id=\"1\"}}{{wordInfo gender=\"1\" indefArticle=\"1\" defArticle=\"3\"}}museo {{color id=\"65535\"}}de la isla?{{delay20}}\n{{anim id=\"Smiling\" target=\"actor\" targetSpec=\"\"}}Puedo asegurarte que vale la pena\nverlo{{string value=\"...\"}}{{delay8}}{{anim id=\"OhGeez\" target=\"actor\" targetSpec=\"\"}} por lo menos por fuera.{{pageBreak}}{{anim id=\"ShyBoy\" target=\"actor\" targetSpec=\"\"}}Por dentro no sé porque tengo\ntantos clientes que todavía no he\npodido verlo.{{delay20}} Me debo a mi negocio."
  },
  {
    "label": "101",
    "attribute": "0x00000000",
    "text": "{{anim id=\"EmotEnd\" target=\"actor\" targetSpec=\"\"}}Vaya, vaya, ¿a quién tenemos aquí?{{delay20}}\n{{anim id=\"Hello\" target=\"actor\" targetSpec=\"\"}}Soy {{color id=\"3\"}}Ladino{{color id=\"65535\"}}, me dedico a la venta\nde objetos.\n{{anim id=\"QuestionMark\" target=\"actor\" targetSpec=\"\"}}¿Tú eres? ¿{{capitalizeNextLetter}}{{string value=\"PlayerName\"}}?{{delay20}}\n{{anim id=\"Nodding\" target=\"actor\" targetSpec=\"\"}}Me gusta.{{delay8}} Transmite fuerza e\ninteligencia.\n{{anim id=\"Smiling\" target=\"actor\" targetSpec=\"\"}}Tú y yo vamos a llevarnos bien.\nLo presiento.{{delay20}} Es un placer conocerte.{{pageBreak}}{{anim id=\"Serious\" target=\"actor\" targetSpec=\"\"}}Por cierto, ¿puedo contar contigo\npara un proyecto?"
  },
  {
    "label": "101_01",
    "attribute": "0x00000000",
    "text": "{{anim id=\"Aha\" target=\"actor\" targetSpec=\"\"}}¡Un momento!{{delay20}} Yo a ti te conozco{{string value=\"...\"}}{{delay8}}\n{{anim id=\"Nodding\" target=\"actor\" targetSpec=\"\"}}Ya hicimos negocio alguna vez,\n¿verdad, prim{{gender2 m=\"o\" f=\"a\"}}?\n{{anim id=\"SmugFace\" target=\"actor\" targetSpec=\"\"}}Sí, soy yo, ¡{{color id=\"3\"}}Ladino{{color id=\"65535\"}}! {{delay20}}Y tú eras{{string value=\"...\"}}{{delay8}}\n{{anim id=\"Hello\" target=\"actor\" targetSpec=\"\"}}¡{{string value=\"PlayerName\"}}, claro! Jamás olvido el nombre de un{{gender2 m=\"\" f=\"a\"}} client{{gender2 m=\"e\" f=\"a\"}}.{{pageBreak}}{{anim id=\"AbsentMindedness\" target=\"actor\" targetSpec=\"\"}}Estaba encantado en esta isla,\npero ahora que te veo, {{delay8}}¡me siento\nincluso mejor!\n{{anim id=\"Nodding\" target=\"actor\" targetSpec=\"\"}}Salta a la vista que aquí se vive\nmuy bien,{{delay8}}{{anim id=\"FaintSmile\" target=\"actor\" targetSpec=\"\"}} ¡y que hay mucho gusto\npor el arte!"
  },
  {
    "label": "102_01",
    "attribute": "0x00000000",
    "text": "Eh,{{delay8}} me alegra volver a ver tu cara\npor aquí.{{delay20}} {{anim id=\"Hello\" target=\"actor\" targetSpec=\"\"}}¿Cómo estás,{{delay8}} {{string value=\"PlayerName\"}}?{{pageBreak}}{{anim id=\"ShyBoy\" target=\"actor\" targetSpec=\"\"}}Tu última compra fue todo un acierto.\nTenía a muchos otros clientes\ninteresados en esa gran obra."
  },
  {
    "label": "102_02",
    "attribute": "0x00000000",
    "text": "{{anim id=\"Aha\" target=\"actor\" targetSpec=\"\"}}¡Vaya,{{delay8}} {{string value=\"PlayerName\"}}!{{delay20}}\n{{anim id=\"Laughing\" target=\"actor\" targetSpec=\"\"}}¿Cómo te trata la vida?"
  },
  {
    "label": "103",
    "attribute": "0x00000000",
    "text": "{{anim id=\"AbsentMindedness\" target=\"actor\" targetSpec=\"\"}}Voy a ser totalmente franco contigo.{{delay20}}\nMe encanta {{string value=\"OtherIslandName\"}}.{{pageBreak}}{{anim id=\"FaintSmile\" target=\"actor\" targetSpec=\"\"}}Me gusta la manera en que han\ndesarrollado el lugar.{{delay20}} {{anim id=\"Nodding\" target=\"actor\" targetSpec=\"\"}}Y además hay\nun gran interés por el arte{{string value=\"...\"}}"
  },
  {
    "label": "104",
    "attribute": "0x00000000",
    "text": "{{anim id=\"Smiling\" target=\"actor\" targetSpec=\"\"}}¡{{capitalizeNextLetter}}{{string value=\"PlayerName\"}}!{{delay20}} Justo la persona que necesitaba.{{delay20}} Verás,{{delay8}} he estado pensando{{string value=\"...\"}}"
  },
  {
    "label": "105",
    "attribute": "0x01000000",
    "text": "{{anim id=\"FaintSmile\" target=\"actor\" targetSpec=\"\"}}Está claro que en {{string value=\"OtherIslandName\"}} hay una gran demanda de arte,{{delay8}} y yo tengo mucho para ofrecer.{{pageBreak}}{{anim id=\"Thinking\" target=\"actor\" targetSpec=\"\"}}Pero no puedo venderle a cualquiera\nlas piezas que con tanto esfuerzo\nhe ido adquiriendo.{{delay20}}\nTiene que ser alguien de confianza.{{delay20}}\nAlguien que yo sienta que es como\nde mi familia{{string value=\"...\"}}{{anim id=\"EmotEnd\" target=\"actor\" targetSpec=\"\"}}{{pageBreak}}Contigo tengo esa sensación.{{delay20}} \nY como,{{delay8}} además,{{delay8}} tienes buen gusto\npara el arte{{string value=\"...\"}}\n{{anim id=\"Smiling\" target=\"actor\" targetSpec=\"\"}}¡Quiero que esa persona seas tú!"
  },
  {
    "label": "105_01",
    "attribute": "0x00000000",
    "text": "{{anim id=\"BigSmile\" target=\"actor\" targetSpec=\"\"}}¡Es{{gender2 m=\"e\" f=\"a\"}} es mi prim{{gender2 m=\"o\" f=\"a\"}}!{{delay20}} Sabía que contigo no podía equivocarme."
  },
  {
    "label": "105_02",
    "attribute": "0x00000000",
    "text": "{{anim id=\"TakenAback\" target=\"actor\" targetSpec=\"\"}}Eso me hirió un poco{{string value=\"...\"}}{{delay20}} ¿No confías\nen mí?{{delay20}} Lo mío es un negocio muy\nserio y puedo demostrarlo."
  },
  {
    "label": "105_03",
    "attribute": "0x00000000",
    "text": "{{anim id=\"Nodding\" target=\"actor\" targetSpec=\"\"}}Tengo un barco anclado en la {{color id=\"1\"}}costa\nnorte{{color id=\"65535\"}} y ya casi le tapé todos los\nagujeros. (Es una larga historia).\n{{anim id=\"EmotEnd\" target=\"actor\" targetSpec=\"\"}}Ven y te muestro lo que tengo a la\nventa allí.{{delay20}} {{anim id=\"Scheming\" target=\"actor\" targetSpec=\"\"}}¡No te arrepentirás!"
  },
  {
    "label": "105_a",
    "attribute": "0x00000000",
    "text": "¡Cuenta conmigo!"
  },
  {
    "label": "105_b",
    "attribute": "0x00000000",
    "text": "Esto no me suena bien..."
  },
  {
    "label": "106",
    "attribute": "0x00000000",
    "text": "La cuestión es que{{string value=\"...\"}}{{delay8}} {{anim id=\"Eh\" target=\"actor\" targetSpec=\"\"}}Oye,{{delay8}} parece que\ntienes compañía,{{delay8}} {{anim id=\"Negative\" target=\"actor\" targetSpec=\"\"}}y yo puedo esperar.{{pageBreak}}{{anim id=\"ShyBoy\" target=\"actor\" targetSpec=\"\"}}Mejor hablamos cuando tengamos\nmás privacidad,{{delay8}} ¿de acuerdo?"
  },
  {
    "label": "107",
    "attribute": "0x00000000",
    "text": "{{anim id=\"Grin\" target=\"actor\" targetSpec=\"\"}}Oye,{{delay8}} quisiera contarte una gran idea\nque tuve.{{delay20}} ¡Puede ser redituable!{{pageBreak}}{{anim id=\"Negative\" target=\"actor\" targetSpec=\"\"}}Pero veo que tienes compañía y no\nquiero distraerte.{{delay20}} Mejor hablamos a\nsolas en otro momento,{{delay8}} ¿te parece?"
  },
  {
    "label": "160",
    "attribute": "0x00000000",
    "text": "Corrígeme si me equivoco,{{delay8}} {{anim id=\"QuestionMark\" target=\"actor\" targetSpec=\"\"}}pero no\neres de aquí,{{delay8}} ¿verdad?{{delay20}} {{anim id=\"Negative\" target=\"player\" targetSpec=\"\"}}{{anim id=\"Smiling\" target=\"actor\" targetSpec=\"\"}}¡Pues mira\nqué coincidencia!{{delay20}} Yo tampoco.{{pageBreak}}{{anim id=\"Sighing\" target=\"actor\" targetSpec=\"\"}}Lamento no tener nada para venderte\nahora.{{delay20}} Pero no te preocupes;{{delay8}} {{anim id=\"Hello\" target=\"actor\" targetSpec=\"\"}}sé que\nnos volveremos a ver."
  },
  {
    "label": "161",
    "attribute": "0x00000000",
    "text": "{{fun_0014003C arg=\"\"}}"
  },
  {
    "label": "161_01",
    "attribute": "0x00000000",
    "text": "{{anim id=\"Grin\" target=\"actor\" targetSpec=\"\"}}¿Estás de visita?{{delay20}} Es increíble el\nambiente de este lugar.{{delay20}} Como una\nobra de arte en sí mismo{{string value=\"...\"}}{{delay8}} {{anim id=\"Laughing\" target=\"actor\" targetSpec=\"\"}}¡Je, je!"
  },
  {
    "label": "161_02",
    "attribute": "0x00000000",
    "text": "{{anim id=\"Blushing\" target=\"actor\" targetSpec=\"\"}}Normalmente te haría una oferta que\nno podrías resistir{{string value=\"...\"}}{{delay8}} Pero ahora no\ntengo nada para vender.{{pageBreak}}{{anim id=\"EmotEnd\" target=\"actor\" targetSpec=\"\"}}{{anim id=\"SmugFace\" target=\"actor\" targetSpec=\"\"}}La próxima vez tendré alguna pieza\nde incalculable valor,{{delay8}} ¡y te la dejaré\nal mejor precio imaginable!"
  },
  {
    "label": "161_03",
    "attribute": "0x00000000",
    "text": "¿Ya estuviste en el {{color id=\"1\"}}{{wordInfo gender=\"1\" indefArticle=\"1\" defArticle=\"3\"}}museo {{color id=\"65535\"}}de la isla?{{delay20}}\n{{anim id=\"Smiling\" target=\"actor\" targetSpec=\"\"}}Puedo asegurarte que vale la pena\nverlo{{string value=\"...\"}}{{delay8}}{{anim id=\"OhGeez\" target=\"actor\" targetSpec=\"\"}} por lo menos por fuera.{{pageBreak}}{{anim id=\"ShyBoy\" target=\"actor\" targetSpec=\"\"}}Por dentro no sé porque tengo\ntantos clientes que todavía no he\npodido verlo.{{delay20}} Me debo a mi negocio."
  }
]