﻿[
  {
    "label": "RoomFloor_04797",
    "text": "{{wordInfo gender=\"4\" indefArticle=\"1\" defArticle=\"3\"}}keldervloer"
  },
  {
    "label": "RoomFloor_04950",
    "text": "{{wordInfo gender=\"4\" indefArticle=\"1\" defArticle=\"3\"}}scheepsdekvloer"
  },
  {
    "label": "RoomFloor_04951",
    "text": "{{wordInfo gender=\"4\" indefArticle=\"1\" defArticle=\"3\"}}betonvloer"
  },
  {
    "label": "RoomFloor_04952",
    "text": "{{wordInfo gender=\"4\" indefArticle=\"1\" defArticle=\"3\"}}groene rubbervloer"
  },
  {
    "label": "RoomFloor_04953",
    "text": "{{wordInfo gender=\"4\" indefArticle=\"1\" defArticle=\"3\"}}arabeske vloer"
  },
  {
    "label": "RoomFloor_04954",
    "text": "{{wordInfo gender=\"4\" indefArticle=\"1\" defArticle=\"3\"}}blauwe rubbervloer"
  },
  {
    "label": "RoomFloor_04955",
    "text": "{{wordInfo gender=\"5\" indefArticle=\"2\" defArticle=\"3\"}}gecombineerde matten"
  },
  {
    "label": "RoomFloor_04956",
    "text": "{{wordInfo gender=\"4\" indefArticle=\"1\" defArticle=\"3\"}}pastelkleurige puzzelvloer"
  },
  {
    "label": "RoomFloor_04957",
    "text": "{{wordInfo gender=\"4\" indefArticle=\"1\" defArticle=\"3\"}}kleurrijke puzzelvloer"
  },
  {
    "label": "RoomFloor_04958",
    "text": "{{wordInfo gender=\"4\" indefArticle=\"1\" defArticle=\"3\"}}rozenvloer"
  },
  {
    "label": "RoomFloor_04959",
    "text": "{{wordInfo gender=\"4\" indefArticle=\"1\" defArticle=\"3\"}}luipaardvloer"
  },
  {
    "label": "RoomFloor_04960",
    "text": "{{wordInfo gender=\"4\" indefArticle=\"1\" defArticle=\"3\"}}stalen vloer"
  },
  {
    "label": "RoomFloor_04961",
    "text": "{{wordInfo gender=\"4\" indefArticle=\"1\" defArticle=\"3\"}}giraffevloer"
  },
  {
    "label": "RoomFloor_04962",
    "text": "{{wordInfo gender=\"4\" indefArticle=\"1\" defArticle=\"3\"}}zebravloer"
  },
  {
    "label": "RoomFloor_04963",
    "text": "{{wordInfo gender=\"4\" indefArticle=\"1\" defArticle=\"3\"}}gestreepte vloer"
  },
  {
    "label": "RoomFloor_04964",
    "text": "{{wordInfo gender=\"4\" indefArticle=\"1\" defArticle=\"3\"}}bamboevloer"
  },
  {
    "label": "RoomFloor_04965",
    "text": "{{wordInfo gender=\"4\" indefArticle=\"1\" defArticle=\"3\"}}beige Marokkaanse vloer"
  },
  {
    "label": "RoomFloor_04966",
    "text": "{{wordInfo gender=\"4\" indefArticle=\"1\" defArticle=\"3\"}}kleurige Marokkaanse vloer"
  },
  {
    "label": "RoomFloor_04967",
    "text": "{{wordInfo gender=\"4\" indefArticle=\"1\" defArticle=\"3\"}}rotanvloer"
  },
  {
    "label": "RoomFloor_04968",
    "text": "{{wordInfo gender=\"3\" indefArticle=\"1\" defArticle=\"4\"}}maanlandschap"
  },
  {
    "label": "RoomFloor_04969",
    "text": "{{wordInfo gender=\"4\" indefArticle=\"1\" defArticle=\"3\"}}kurken vloer"
  },
  {
    "label": "RoomFloor_04970",
    "text": "{{wordInfo gender=\"4\" indefArticle=\"1\" defArticle=\"3\"}}zandstrandvloer"
  },
  {
    "label": "RoomFloor_04971",
    "text": "{{wordInfo gender=\"4\" indefArticle=\"1\" defArticle=\"3\"}}terracotta vloer"
  },
  {
    "label": "RoomFloor_04972",
    "text": "{{wordInfo gender=\"4\" indefArticle=\"1\" defArticle=\"3\"}}zesbladerigebloemvloer"
  },
  {
    "label": "RoomFloor_04973",
    "text": "{{wordInfo gender=\"4\" indefArticle=\"1\" defArticle=\"3\"}}wirwartegelvloer"
  },
  {
    "label": "RoomFloor_04974",
    "text": "{{wordInfo gender=\"4\" indefArticle=\"1\" defArticle=\"3\"}}witte bakstenen vloer"
  },
  {
    "label": "RoomFloor_04975",
    "text": "{{wordInfo gender=\"4\" indefArticle=\"1\" defArticle=\"3\"}}rode bakstenen vloer"
  },
  {
    "label": "RoomFloor_04976",
    "text": "{{wordInfo gender=\"4\" indefArticle=\"1\" defArticle=\"3\"}}zwarte bakstenen vloer"
  },
  {
    "label": "RoomFloor_04977",
    "text": "{{wordInfo gender=\"5\" indefArticle=\"2\" defArticle=\"3\"}}gebloemde biezen matten"
  },
  {
    "label": "RoomFloor_04978",
    "text": "{{wordInfo gender=\"4\" indefArticle=\"1\" defArticle=\"3\"}}kiezelsteenvloer"
  },
  {
    "label": "RoomFloor_04979",
    "text": "{{wordInfo gender=\"3\" indefArticle=\"1\" defArticle=\"4\"}}tuingazon"
  },
  {
    "label": "RoomFloor_04980",
    "text": "{{wordInfo gender=\"3\" indefArticle=\"1\" defArticle=\"4\"}}veld"
  },
  {
    "label": "RoomFloor_04981",
    "text": "{{wordInfo gender=\"4\" indefArticle=\"1\" defArticle=\"3\"}}aarde"
  },
  {
    "label": "RoomFloor_04982",
    "text": "{{wordInfo gender=\"4\" indefArticle=\"1\" defArticle=\"3\"}}boksringmat"
  },
  {
    "label": "RoomFloor_04983",
    "text": "{{wordInfo gender=\"4\" indefArticle=\"1\" defArticle=\"3\"}}woestijnvloer"
  },
  {
    "label": "RoomFloor_04984",
    "text": "{{wordInfo gender=\"4\" indefArticle=\"1\" defArticle=\"3\"}}westernvloer"
  },
  {
    "label": "RoomFloor_04985",
    "text": "{{wordInfo gender=\"4\" indefArticle=\"1\" defArticle=\"3\"}}zandvloer"
  },
  {
    "label": "RoomFloor_04986",
    "text": "{{wordInfo gender=\"4\" indefArticle=\"1\" defArticle=\"3\"}}poenvloer"
  },
  {
    "label": "RoomFloor_04987",
    "text": "{{wordInfo gender=\"3\" indefArticle=\"1\" defArticle=\"4\"}}kubusparket"
  },
  {
    "label": "RoomFloor_04988",
    "text": "{{wordInfo gender=\"4\" indefArticle=\"1\" defArticle=\"3\"}}paintballvloer"
  },
  {
    "label": "RoomFloor_04989",
    "text": "{{wordInfo gender=\"4\" indefArticle=\"1\" defArticle=\"3\"}}skihellingvloer"
  },
  {
    "label": "RoomFloor_04990",
    "text": "{{wordInfo gender=\"4\" indefArticle=\"1\" defArticle=\"3\"}}herfstblaadjesvloer"
  },
  {
    "label": "RoomFloor_04991",
    "text": "{{wordInfo gender=\"3\" indefArticle=\"1\" defArticle=\"4\"}}licht{{wordCase nom=\"\" acc=\"\" dat=\"\" gen=\"e\"}} intarsiaparket"
  },
  {
    "label": "RoomFloor_04992",
    "text": "{{wordInfo gender=\"3\" indefArticle=\"1\" defArticle=\"4\"}}donker{{wordCase nom=\"\" acc=\"\" dat=\"\" gen=\"e\"}} intarsiaparket"
  },
  {
    "label": "RoomFloor_04993",
    "text": "{{wordInfo gender=\"4\" indefArticle=\"1\" defArticle=\"3\"}}bloemmozaïektegelvloer"
  },
  {
    "label": "RoomFloor_04994",
    "text": "{{wordInfo gender=\"4\" indefArticle=\"1\" defArticle=\"3\"}}geruite tegelvloer"
  },
  {
    "label": "RoomFloor_04995",
    "text": "{{wordInfo gender=\"4\" indefArticle=\"1\" defArticle=\"3\"}}patchworktegelvloer"
  },
  {
    "label": "RoomFloor_04996",
    "text": "{{wordInfo gender=\"4\" indefArticle=\"1\" defArticle=\"3\"}}atletiekbaan"
  },
  {
    "label": "RoomFloor_04997",
    "text": "{{wordInfo gender=\"4\" indefArticle=\"1\" defArticle=\"3\"}}parkeerplaats"
  },
  {
    "label": "RoomFloor_04998",
    "text": "{{wordInfo gender=\"4\" indefArticle=\"1\" defArticle=\"3\"}}kasseien vloer"
  },
  {
    "label": "RoomFloor_04999",
    "text": "{{wordInfo gender=\"4\" indefArticle=\"1\" defArticle=\"3\"}}honingraatvloer"
  },
  {
    "label": "RoomFloor_05000",
    "text": "{{wordInfo gender=\"4\" indefArticle=\"1\" defArticle=\"3\"}}simpele rode vloer"
  },
  {
    "label": "RoomFloor_05001",
    "text": "{{wordInfo gender=\"4\" indefArticle=\"1\" defArticle=\"3\"}}simpele blauwe vloer"
  },
  {
    "label": "RoomFloor_05003",
    "text": "{{wordInfo gender=\"4\" indefArticle=\"1\" defArticle=\"3\"}}simpele paarse vloer"
  },
  {
    "label": "RoomFloor_05004",
    "text": "{{wordInfo gender=\"4\" indefArticle=\"1\" defArticle=\"3\"}}simpele witte vloer"
  },
  {
    "label": "RoomFloor_05005",
    "text": "{{wordInfo gender=\"3\" indefArticle=\"1\" defArticle=\"4\"}}madeliefjesveld"
  },
  {
    "label": "RoomFloor_05006",
    "text": "{{wordInfo gender=\"4\" indefArticle=\"1\" defArticle=\"3\"}}bloemenweide"
  },
  {
    "label": "RoomFloor_05007",
    "text": "{{wordInfo gender=\"4\" indefArticle=\"1\" defArticle=\"3\"}}zebrapadvloer"
  },
  {
    "label": "RoomFloor_05008",
    "text": "{{wordInfo gender=\"4\" indefArticle=\"1\" defArticle=\"3\"}}trottoirvloer"
  },
  {
    "label": "RoomFloor_05009",
    "text": "{{wordInfo gender=\"4\" indefArticle=\"1\" defArticle=\"3\"}}spoorwegvloer"
  },
  {
    "label": "RoomFloor_05010",
    "text": "{{wordInfo gender=\"4\" indefArticle=\"1\" defArticle=\"3\"}}kruispuntvloer"
  },
  {
    "label": "RoomFloor_05011",
    "text": "{{wordInfo gender=\"4\" indefArticle=\"1\" defArticle=\"3\"}}opgravingsvloer"
  },
  {
    "label": "RoomFloor_05012",
    "text": "{{wordInfo gender=\"4\" indefArticle=\"1\" defArticle=\"3\"}}keizerlijke tegelvloer"
  },
  {
    "label": "RoomFloor_05013",
    "text": "{{wordInfo gender=\"4\" indefArticle=\"1\" defArticle=\"3\"}}sumo-ring"
  },
  {
    "label": "RoomFloor_05015",
    "text": "{{wordInfo gender=\"4\" indefArticle=\"1\" defArticle=\"3\"}}camouflagevloer"
  },
  {
    "label": "RoomFloor_05016",
    "text": "{{wordInfo gender=\"4\" indefArticle=\"1\" defArticle=\"3\"}}blauwe camouflagevloer"
  },
  {
    "label": "RoomFloor_05017",
    "text": "{{wordInfo gender=\"4\" indefArticle=\"1\" defArticle=\"3\"}}paarse camouflagevloer"
  },
  {
    "label": "RoomFloor_05018",
    "text": "{{wordInfo gender=\"4\" indefArticle=\"1\" defArticle=\"3\"}}standaardvloer"
  },
  {
    "label": "RoomFloor_05019",
    "text": "{{wordInfo gender=\"3\" indefArticle=\"1\" defArticle=\"4\"}}dennenhouten parket"
  },
  {
    "label": "RoomFloor_05020",
    "text": "{{wordInfo gender=\"4\" indefArticle=\"1\" defArticle=\"3\"}}witte mozaïektegelvloer"
  },
  {
    "label": "RoomFloor_05021",
    "text": "{{wordInfo gender=\"4\" indefArticle=\"1\" defArticle=\"3\"}}gouden vloer"
  },
  {
    "label": "RoomFloor_05022",
    "text": "{{wordInfo gender=\"3\" indefArticle=\"1\" defArticle=\"4\"}}licht{{wordCase nom=\"\" acc=\"\" dat=\"\" gen=\"e\"}} ruitparket"
  },
  {
    "label": "RoomFloor_05023",
    "text": "{{wordInfo gender=\"4\" indefArticle=\"1\" defArticle=\"3\"}}grijze stippelvloer"
  },
  {
    "label": "RoomFloor_05024",
    "text": "{{wordInfo gender=\"4\" indefArticle=\"1\" defArticle=\"3\"}}zwiependezeevloer"
  },
  {
    "label": "RoomFloor_05025",
    "text": "{{wordInfo gender=\"3\" indefArticle=\"1\" defArticle=\"4\"}}donker{{wordCase nom=\"\" acc=\"\" dat=\"\" gen=\"e\"}} ruitparket"
  },
  {
    "label": "RoomFloor_05026",
    "text": "{{wordInfo gender=\"4\" indefArticle=\"1\" defArticle=\"3\"}}groene stippelvloer"
  },
  {
    "label": "RoomFloor_05027",
    "text": "{{wordInfo gender=\"4\" indefArticle=\"1\" defArticle=\"3\"}}rode stippelvloer"
  },
  {
    "label": "RoomFloor_05028",
    "text": "{{wordInfo gender=\"4\" indefArticle=\"1\" defArticle=\"3\"}}blauwe stippelvloer"
  },
  {
    "label": "RoomFloor_05030",
    "text": "{{wordInfo gender=\"4\" indefArticle=\"1\" defArticle=\"3\"}}watervloer"
  },
  {
    "label": "RoomFloor_05031",
    "text": "{{wordInfo gender=\"4\" indefArticle=\"1\" defArticle=\"3\"}}leistenen vloer"
  },
  {
    "label": "RoomFloor_05032",
    "text": "{{wordInfo gender=\"3\" indefArticle=\"1\" defArticle=\"4\"}}berkenhouten parket"
  },
  {
    "label": "RoomFloor_05033",
    "text": "{{wordInfo gender=\"4\" indefArticle=\"1\" defArticle=\"3\"}}naturel houten blokvloer"
  },
  {
    "label": "RoomFloor_05034",
    "text": "{{wordInfo gender=\"4\" indefArticle=\"1\" defArticle=\"3\"}}lobbyvloer"
  },
  {
    "label": "RoomFloor_05035",
    "text": "{{wordInfo gender=\"4\" indefArticle=\"1\" defArticle=\"3\"}}donkere houten blokvloer"
  },
  {
    "label": "RoomFloor_05036",
    "text": "{{wordInfo gender=\"4\" indefArticle=\"1\" defArticle=\"3\"}}turquoise mozaïektegelvloer"
  },
  {
    "label": "RoomFloor_05037",
    "text": "{{wordInfo gender=\"4\" indefArticle=\"1\" defArticle=\"3\"}}kleurrijke mozaïektegelvloer"
  },
  {
    "label": "RoomFloor_05038",
    "text": "{{wordInfo gender=\"4\" indefArticle=\"1\" defArticle=\"3\"}}bruine bijenraattegelvloer"
  },
  {
    "label": "RoomFloor_05039",
    "text": "{{wordInfo gender=\"5\" indefArticle=\"2\" defArticle=\"3\"}}tatamimatten"
  },
  {
    "label": "RoomFloor_05040",
    "text": "{{wordInfo gender=\"4\" indefArticle=\"1\" defArticle=\"3\"}}blauwe bijenraattegelvloer"
  },
  {
    "label": "RoomFloor_05041",
    "text": "{{wordInfo gender=\"4\" indefArticle=\"1\" defArticle=\"3\"}}groene bijenraattegelvloer"
  },
  {
    "label": "RoomFloor_05042",
    "text": "{{wordInfo gender=\"4\" indefArticle=\"1\" defArticle=\"3\"}}witte bijenraattegelvloer"
  },
  {
    "label": "RoomFloor_05043",
    "text": "{{wordInfo gender=\"4\" indefArticle=\"1\" defArticle=\"3\"}}oranje retrovloer"
  },
  {
    "label": "RoomFloor_05044",
    "text": "{{wordInfo gender=\"4\" indefArticle=\"1\" defArticle=\"3\"}}moderne houten vloer"
  },
  {
    "label": "RoomFloor_05045",
    "text": "{{wordInfo gender=\"4\" indefArticle=\"1\" defArticle=\"3\"}}groene retrovloer"
  },
  {
    "label": "RoomFloor_05046",
    "text": "{{wordInfo gender=\"4\" indefArticle=\"1\" defArticle=\"3\"}}zwart-witte vinylvloer"
  },
  {
    "label": "RoomFloor_05047",
    "text": "{{wordInfo gender=\"4\" indefArticle=\"1\" defArticle=\"3\"}}zwart-rode vinylvloer"
  },
  {
    "label": "RoomFloor_05048",
    "text": "{{wordInfo gender=\"4\" indefArticle=\"1\" defArticle=\"3\"}}groene vinylvloer"
  },
  {
    "label": "RoomFloor_05049",
    "text": "{{wordInfo gender=\"4\" indefArticle=\"1\" defArticle=\"3\"}}houtenknoestvloer"
  },
  {
    "label": "RoomFloor_05050",
    "text": "{{wordInfo gender=\"4\" indefArticle=\"1\" defArticle=\"3\"}}purechocoladevloer"
  },
  {
    "label": "RoomFloor_05051",
    "text": "{{wordInfo gender=\"4\" indefArticle=\"1\" defArticle=\"3\"}}paleistegelvloer"
  },
  {
    "label": "RoomFloor_05052",
    "text": "{{wordInfo gender=\"4\" indefArticle=\"1\" defArticle=\"3\"}}wittechocoladevloer"
  },
  {
    "label": "RoomFloor_05053",
    "text": "{{wordInfo gender=\"4\" indefArticle=\"1\" defArticle=\"3\"}}aardbeichocoladevloer"
  },
  {
    "label": "RoomFloor_05054",
    "text": "{{wordInfo gender=\"4\" indefArticle=\"1\" defArticle=\"3\"}}piramidevloer"
  },
  {
    "label": "RoomFloor_05055",
    "text": "{{wordInfo gender=\"4\" indefArticle=\"1\" defArticle=\"3\"}}steampunkvloer"
  },
  {
    "label": "RoomFloor_05056",
    "text": "{{wordInfo gender=\"4\" indefArticle=\"1\" defArticle=\"3\"}}kersenbloesemroze vloer"
  },
  {
    "label": "RoomFloor_05057",
    "text": "{{wordInfo gender=\"4\" indefArticle=\"1\" defArticle=\"3\"}}blauwe vloer"
  },
  {
    "label": "RoomFloor_05058",
    "text": "{{wordInfo gender=\"4\" indefArticle=\"1\" defArticle=\"3\"}}groene vloer"
  },
  {
    "label": "RoomFloor_05059",
    "text": "{{wordInfo gender=\"4\" indefArticle=\"1\" defArticle=\"3\"}}roze vloer"
  },
  {
    "label": "RoomFloor_05060",
    "text": "{{wordInfo gender=\"4\" indefArticle=\"1\" defArticle=\"3\"}}witte vloer"
  },
  {
    "label": "RoomFloor_05061",
    "text": "{{wordInfo gender=\"3\" indefArticle=\"1\" defArticle=\"4\"}}licht visgraatparket"
  },
  {
    "label": "RoomFloor_05062",
    "text": "{{wordInfo gender=\"3\" indefArticle=\"1\" defArticle=\"4\"}}donker visgraatparket"
  },
  {
    "label": "RoomFloor_05063",
    "text": "{{wordInfo gender=\"3\" indefArticle=\"1\" defArticle=\"4\"}}rozenhouten parket"
  },
  {
    "label": "RoomFloor_05064",
    "text": "{{wordInfo gender=\"3\" indefArticle=\"1\" defArticle=\"4\"}}parket met goudinleg"
  },
  {
    "label": "RoomFloor_05065",
    "text": "{{wordInfo gender=\"3\" indefArticle=\"1\" defArticle=\"4\"}}parket met zilverinleg"
  },
  {
    "label": "RoomFloor_05066",
    "text": "{{wordInfo gender=\"3\" indefArticle=\"1\" defArticle=\"4\"}}zwart{{wordCase nom=\"\" acc=\"\" dat=\"\" gen=\"e\"}} parket met ijzerinleg"
  },
  {
    "label": "RoomFloor_05067",
    "text": "{{wordInfo gender=\"5\" indefArticle=\"2\" defArticle=\"3\"}}effen tapijttegels"
  },
  {
    "label": "RoomFloor_05068",
    "text": "{{wordInfo gender=\"5\" indefArticle=\"2\" defArticle=\"3\"}}kleurrijke tapijttegels"
  },
  {
    "label": "RoomFloor_05069",
    "text": "{{wordInfo gender=\"4\" indefArticle=\"1\" defArticle=\"3\"}}stenen tegelvloer"
  },
  {
    "label": "RoomFloor_05070",
    "text": "{{wordInfo gender=\"4\" indefArticle=\"1\" defArticle=\"3\"}}warmkleurig geverfde vloer"
  },
  {
    "label": "RoomFloor_05071",
    "text": "{{wordInfo gender=\"4\" indefArticle=\"1\" defArticle=\"3\"}}koelkleurig geverfde vloer"
  },
  {
    "label": "RoomFloor_05072",
    "text": "{{wordInfo gender=\"4\" indefArticle=\"1\" defArticle=\"3\"}}robotvloer"
  },
  {
    "label": "RoomFloor_05073",
    "text": "{{wordInfo gender=\"4\" indefArticle=\"1\" defArticle=\"3\"}}gele bloemetjesvloer"
  },
  {
    "label": "RoomFloor_05074",
    "text": "{{wordInfo gender=\"4\" indefArticle=\"1\" defArticle=\"3\"}}blauwe bloemetjesvloer"
  },
  {
    "label": "RoomFloor_05075",
    "text": "{{wordInfo gender=\"4\" indefArticle=\"1\" defArticle=\"3\"}}bruine bloemetjesvloer"
  },
  {
    "label": "RoomFloor_05076",
    "text": "{{wordInfo gender=\"4\" indefArticle=\"1\" defArticle=\"3\"}}kitscherige tegelvloer"
  },
  {
    "label": "RoomFloor_05077",
    "text": "{{wordInfo gender=\"4\" indefArticle=\"1\" defArticle=\"3\"}}groene tatamivloer"
  },
  {
    "label": "RoomFloor_05078",
    "text": "{{wordInfo gender=\"4\" indefArticle=\"1\" defArticle=\"3\"}}bruine tatamivloer"
  },
  {
    "label": "RoomFloor_05079",
    "text": "{{wordInfo gender=\"5\" indefArticle=\"2\" defArticle=\"3\"}}biezen tatamimatten"
  },
  {
    "label": "RoomFloor_05080",
    "text": "{{wordInfo gender=\"4\" indefArticle=\"1\" defArticle=\"3\"}}grijze geruite tegelvloer"
  },
  {
    "label": "RoomFloor_05081",
    "text": "{{wordInfo gender=\"4\" indefArticle=\"1\" defArticle=\"3\"}}bruine geruite tegelvloer"
  },
  {
    "label": "RoomFloor_05082",
    "text": "{{wordInfo gender=\"4\" indefArticle=\"1\" defArticle=\"3\"}}printplaatvloer"
  },
  {
    "label": "RoomFloor_05163",
    "text": "{{wordInfo gender=\"4\" indefArticle=\"1\" defArticle=\"3\"}}rubberen tegelvloer"
  },
  {
    "label": "RoomFloor_05232",
    "text": "{{wordInfo gender=\"3\" indefArticle=\"1\" defArticle=\"4\"}}artistiek{{wordCase nom=\"\" acc=\"\" dat=\"\" gen=\"e\"}} parket"
  },
  {
    "label": "RoomFloor_05233",
    "text": "{{wordInfo gender=\"4\" indefArticle=\"1\" defArticle=\"3\"}}leien vloer"
  },
  {
    "label": "RoomFloor_05234",
    "text": "{{wordInfo gender=\"4\" indefArticle=\"1\" defArticle=\"3\"}}mossige tuinvloer"
  },
  {
    "label": "RoomFloor_05235",
    "text": "{{wordInfo gender=\"4\" indefArticle=\"1\" defArticle=\"3\"}}bouwplaatsvloer"
  },
  {
    "label": "RoomFloor_05236",
    "text": "{{wordInfo gender=\"4\" indefArticle=\"1\" defArticle=\"3\"}}stortplaatsvloer"
  },
  {
    "label": "RoomFloor_05237",
    "text": "{{wordInfo gender=\"4\" indefArticle=\"1\" defArticle=\"3\"}}snelwegvloer"
  },
  {
    "label": "RoomFloor_05238",
    "text": "{{wordInfo gender=\"4\" indefArticle=\"1\" defArticle=\"3\"}}moerasvloer"
  },
  {
    "label": "RoomFloor_05239",
    "text": "{{wordInfo gender=\"4\" indefArticle=\"1\" defArticle=\"3\"}}rotsachtige vloer"
  },
  {
    "label": "RoomFloor_05240",
    "text": "{{wordInfo gender=\"4\" indefArticle=\"1\" defArticle=\"3\"}}krakkemikkige vloer"
  },
  {
    "label": "RoomFloor_05241",
    "text": "{{wordInfo gender=\"4\" indefArticle=\"1\" defArticle=\"3\"}}feestvloer"
  },
  {
    "label": "RoomFloor_05243",
    "text": "{{wordInfo gender=\"4\" indefArticle=\"1\" defArticle=\"3\"}}graancirkelvloer"
  },
  {
    "label": "RoomFloor_05248",
    "text": "{{wordInfo gender=\"4\" indefArticle=\"1\" defArticle=\"3\"}}schedelprintvloer"
  },
  {
    "label": "RoomFloor_05249",
    "text": "{{wordInfo gender=\"4\" indefArticle=\"1\" defArticle=\"3\"}}magischecirkelvloer"
  },
  {
    "label": "RoomFloor_05250",
    "text": "{{wordInfo gender=\"4\" indefArticle=\"1\" defArticle=\"3\"}}futuristische vloer"
  },
  {
    "label": "RoomFloor_05253",
    "text": "{{wordInfo gender=\"4\" indefArticle=\"1\" defArticle=\"3\"}}ijsbergvloer"
  },
  {
    "label": "RoomFloor_05255",
    "text": "{{wordInfo gender=\"4\" indefArticle=\"1\" defArticle=\"3\"}}oasisvloer"
  },
  {
    "label": "RoomFloor_05267",
    "text": "{{wordInfo gender=\"4\" indefArticle=\"1\" defArticle=\"3\"}}wolkenvloer"
  },
  {
    "label": "RoomFloor_05268",
    "text": "{{wordInfo gender=\"4\" indefArticle=\"1\" defArticle=\"3\"}}onderwatervloer"
  },
  {
    "label": "RoomFloor_05269",
    "text": "{{wordInfo gender=\"4\" indefArticle=\"1\" defArticle=\"3\"}}melkwegvloer"
  },
  {
    "label": "RoomFloor_05270",
    "text": "{{wordInfo gender=\"4\" indefArticle=\"1\" defArticle=\"3\"}}sciencefictionvloer"
  },
  {
    "label": "RoomFloor_05273",
    "text": "{{wordInfo gender=\"4\" indefArticle=\"1\" defArticle=\"3\"}}riviervloer"
  },
  {
    "label": "RoomFloor_05274",
    "text": "{{wordInfo gender=\"4\" indefArticle=\"1\" defArticle=\"3\"}}lavavloer"
  },
  {
    "label": "RoomFloor_05515",
    "text": "{{wordInfo gender=\"4\" indefArticle=\"1\" defArticle=\"3\"}}junglevloer"
  },
  {
    "label": "RoomFloor_05516",
    "text": "{{wordInfo gender=\"4\" indefArticle=\"1\" defArticle=\"3\"}}ijsvloer"
  },
  {
    "label": "RoomFloor_06005",
    "text": "{{wordInfo gender=\"4\" indefArticle=\"1\" defArticle=\"3\"}}Nook Inc.-vloer"
  },
  {
    "label": "RoomFloor_06843",
    "text": "{{wordInfo gender=\"3\" indefArticle=\"1\" defArticle=\"4\"}}wit{{wordCase nom=\"\" acc=\"\" dat=\"\" gen=\"te\"}} parket met ijzerinleg"
  },
  {
    "label": "RoomFloor_06844",
    "text": "{{wordInfo gender=\"4\" indefArticle=\"1\" defArticle=\"3\"}}blauwe vinylvloer"
  },
  {
    "label": "RoomFloor_06845",
    "text": "{{wordInfo gender=\"4\" indefArticle=\"1\" defArticle=\"3\"}}oranje camouflagevloer"
  },
  {
    "label": "RoomFloor_06846",
    "text": "{{wordInfo gender=\"4\" indefArticle=\"1\" defArticle=\"3\"}}blauwe mozaïektegelvloer"
  },
  {
    "label": "RoomFloor_06847",
    "text": "{{wordInfo gender=\"4\" indefArticle=\"1\" defArticle=\"3\"}}groene bloemetjesvloer"
  },
  {
    "label": "RoomFloor_06848",
    "text": "{{wordInfo gender=\"4\" indefArticle=\"1\" defArticle=\"3\"}}tijgerstreepvloer"
  },
  {
    "label": "RoomFloor_06849",
    "text": "{{wordInfo gender=\"4\" indefArticle=\"1\" defArticle=\"3\"}}bruine bakstenen vloer"
  },
  {
    "label": "RoomFloor_06927",
    "text": "{{wordInfo gender=\"4\" indefArticle=\"1\" defArticle=\"3\"}}paarse Marokkaanse vloer"
  },
  {
    "label": "RoomFloor_06928",
    "text": "{{wordInfo gender=\"4\" indefArticle=\"1\" defArticle=\"3\"}}groene Marokkaanse vloer"
  },
  {
    "label": "RoomFloor_07184",
    "text": "{{wordInfo gender=\"4\" indefArticle=\"1\" defArticle=\"3\"}}sepia puzzelvloer"
  },
  {
    "label": "RoomFloor_07185",
    "text": "{{wordInfo gender=\"4\" indefArticle=\"1\" defArticle=\"3\"}}paarse puzzelvloer"
  },
  {
    "label": "RoomFloor_07186",
    "text": "{{wordInfo gender=\"4\" indefArticle=\"1\" defArticle=\"3\"}}bosvloer"
  },
  {
    "label": "RoomFloor_07204",
    "text": "{{wordInfo gender=\"4\" indefArticle=\"1\" defArticle=\"3\"}}kersenbloesemvloer"
  },
  {
    "label": "RoomFloor_07219",
    "text": "{{wordInfo gender=\"4\" indefArticle=\"1\" defArticle=\"3\"}}sierlijke witte tegelvloer"
  },
  {
    "label": "RoomFloor_07220",
    "text": "{{wordInfo gender=\"4\" indefArticle=\"1\" defArticle=\"3\"}}sierlijke rode tegelvloer"
  },
  {
    "label": "RoomFloor_07221",
    "text": "{{wordInfo gender=\"4\" indefArticle=\"1\" defArticle=\"3\"}}sierlijke blauwe tegelvloer"
  },
  {
    "label": "RoomFloor_07222",
    "text": "{{wordInfo gender=\"4\" indefArticle=\"1\" defArticle=\"3\"}}sierlijke gele tegelvloer"
  },
  {
    "label": "RoomFloor_07239",
    "text": "{{wordInfo gender=\"4\" indefArticle=\"1\" defArticle=\"3\"}}glitterzandvloer"
  },
  {
    "label": "RoomFloor_10178",
    "text": "{{wordInfo gender=\"4\" indefArticle=\"1\" defArticle=\"3\"}}Kerokerokeroppi-vloer"
  },
  {
    "label": "RoomFloor_10179",
    "text": "{{wordInfo gender=\"4\" indefArticle=\"1\" defArticle=\"3\"}}Kiki-&-Lala-vloer"
  },
  {
    "label": "RoomFloor_10180",
    "text": "{{wordInfo gender=\"4\" indefArticle=\"1\" defArticle=\"3\"}}My Melody-vloer"
  },
  {
    "label": "RoomFloor_10181",
    "text": "{{wordInfo gender=\"4\" indefArticle=\"1\" defArticle=\"3\"}}Pompompurin-vloer"
  },
  {
    "label": "RoomFloor_10182",
    "text": "{{wordInfo gender=\"4\" indefArticle=\"1\" defArticle=\"3\"}}Cinnamoroll-vloer"
  },
  {
    "label": "RoomFloor_10183",
    "text": "{{wordInfo gender=\"4\" indefArticle=\"1\" defArticle=\"3\"}}Hello Kitty-vloer"
  },
  {
    "label": "RoomFloor_12423",
    "text": "{{wordInfo gender=\"4\" indefArticle=\"1\" defArticle=\"3\"}}eiervloer"
  },
  {
    "label": "RoomFloor_12431",
    "text": "{{wordInfo gender=\"4\" indefArticle=\"1\" defArticle=\"3\"}}witte trouwvloer"
  },
  {
    "label": "RoomFloor_12433",
    "text": "{{wordInfo gender=\"4\" indefArticle=\"1\" defArticle=\"3\"}}bruine trouwvloer"
  },
  {
    "label": "RoomFloor_12434",
    "text": "{{wordInfo gender=\"4\" indefArticle=\"1\" defArticle=\"3\"}}groene trouwvloer"
  },
  {
    "label": "RoomFloor_12568",
    "text": "{{wordInfo gender=\"4\" indefArticle=\"1\" defArticle=\"3\"}}meerminnenvloer"
  },
  {
    "label": "RoomFloor_12569",
    "text": "{{wordInfo gender=\"4\" indefArticle=\"1\" defArticle=\"3\"}}piratenvloer"
  },
  {
    "label": "RoomFloor_12726",
    "text": "{{wordInfo gender=\"4\" indefArticle=\"1\" defArticle=\"3\"}}ziekenzaalvloer"
  },
  {
    "label": "RoomFloor_12727",
    "text": "{{wordInfo gender=\"4\" indefArticle=\"1\" defArticle=\"3\"}}circusvloer"
  },
  {
    "label": "RoomFloor_12729",
    "text": "{{wordInfo gender=\"4\" indefArticle=\"1\" defArticle=\"3\"}}operatiezaalvloer"
  },
  {
    "label": "RoomFloor_12730",
    "text": "{{wordInfo gender=\"4\" indefArticle=\"1\" defArticle=\"3\"}}oude tegelvloer"
  },
  {
    "label": "RoomFloor_12852",
    "text": "{{wordInfo gender=\"4\" indefArticle=\"1\" defArticle=\"3\"}}natuurlijke vloer"
  },
  {
    "label": "RoomFloor_12853",
    "text": "{{wordInfo gender=\"4\" indefArticle=\"1\" defArticle=\"3\"}}hinkelbaanvloer"
  },
  {
    "label": "RoomFloor_12854",
    "text": "{{wordInfo gender=\"4\" indefArticle=\"1\" defArticle=\"3\"}}gymzaalvloer"
  },
  {
    "label": "RoomFloor_12915",
    "text": "{{wordInfo gender=\"4\" indefArticle=\"1\" defArticle=\"3\"}}restaurantkeukenvloer"
  },
  {
    "label": "RoomFloor_12917",
    "text": "{{wordInfo gender=\"4\" indefArticle=\"1\" defArticle=\"3\"}}fastfoodvloer"
  },
  {
    "label": "RoomFloor_13026",
    "text": "{{wordInfo gender=\"4\" indefArticle=\"1\" defArticle=\"3\"}}resortplanbureauvloer"
  },
  {
    "label": "RoomFloor_13127",
    "text": "{{wordInfo gender=\"4\" indefArticle=\"1\" defArticle=\"3\"}}oude klinkerpadvloer"
  },
  {
    "label": "RoomFloor_13193",
    "text": "{{wordInfo gender=\"4\" indefArticle=\"1\" defArticle=\"3\"}}discovloer"
  },
  {
    "label": "RoomFloor_13225",
    "text": "{{wordInfo gender=\"4\" indefArticle=\"1\" defArticle=\"3\"}}pompoenvloer"
  },
  {
    "label": "RoomFloor_13319",
    "text": "{{wordInfo gender=\"4\" indefArticle=\"1\" defArticle=\"3\"}}smakenfestijnvloer"
  },
  {
    "label": "RoomFloor_13484",
    "text": "{{wordInfo gender=\"3\" indefArticle=\"1\" defArticle=\"4\"}}oud{{wordCase nom=\"\" acc=\"\" dat=\"\" gen=\"e\"}} parket"
  },
  {
    "label": "RoomFloor_13485",
    "text": "{{wordInfo gender=\"4\" indefArticle=\"1\" defArticle=\"3\"}}tentvloer"
  },
  {
    "label": "RoomFloor_13604",
    "text": "{{wordInfo gender=\"4\" indefArticle=\"1\" defArticle=\"3\"}}Marokkaanse tegelvloer"
  },
  {
    "label": "RoomFloor_13804",
    "text": "{{wordInfo gender=\"4\" indefArticle=\"1\" defArticle=\"3\"}}blokkenvloer"
  },
  {
    "label": "RoomFloor_13879",
    "text": "{{wordInfo gender=\"4\" indefArticle=\"1\" defArticle=\"3\"}}lichtmosvloer"
  },
  {
    "label": "RoomFloor_13880",
    "text": "{{wordInfo gender=\"4\" indefArticle=\"1\" defArticle=\"3\"}}touwnetvloer"
  },
  {
    "label": "RoomFloor_14253",
    "text": "{{wordInfo gender=\"4\" indefArticle=\"1\" defArticle=\"3\"}}galavloer"
  },
  {
    "label": "RoomFloor_14897",
    "text": "{{wordInfo gender=\"4\" indefArticle=\"1\" defArticle=\"3\"}}interieurontwerpvloer"
  }
]