﻿[
  {
    "label": "001",
    "attribute": "0x0000000000000000",
    "text": "I'm bored{{delay8}}{{string value=\"...\"}} {{anim id=\"QuestionMark\" target=\"actor\" targetSpec=\"\"}}Does a kiddo like you{{delay20}}\nhave any interestin' yarns to tell?{{delay40}}\nSome corker of a real scary story?"
  },
  {
    "label": "002",
    "attribute": "0x0000000000000000",
    "text": "{{anim id=\"Nodding\" target=\"actor\" targetSpec=\"\"}}Sure do!{{delay40}} So get this{{delay8}}{{string value=\"...\"}}{{pageBreak}}{{anim id=\"Explain\" target=\"actor\" targetSpec=\"\"}}I'm out for a power walk first thing\nin the morning,{{delay20}} and I spot {{anim id=\"Eh\" target=\"mainNpc\" targetSpec=\"\"}}someone\nflailing around on the beach!{{pageBreak}}{{anim id=\"Thinking\" target=\"actor\" targetSpec=\"\"}}I'm thinking scorpion attack,{{delay20}} or else\nmaybe whoever it is{{delay20}} sat on a wasp?{{pageBreak}}{{anim id=\"Explain\" target=\"actor\" targetSpec=\"\"}}But up close,{{delay20}} I see it's just\n{{string value=\"11\"}},{{delay20}} {{anim id=\"Pardon\" target=\"actor\" targetSpec=\"\"}}{{anim id=\"EmotEnd\" target=\"mainNpc\" targetSpec=\"\"}}doing the worst\ndancing I've ever seen.\n{{anim id=\"Shaking\" target=\"actor\" targetSpec=\"\"}}I think I cringed so hard{{delay20}} it hurt.{{delay40}}\n{{anim id=\"Explain\" target=\"actor\" targetSpec=\"\"}}Then I power walked myself right\nout of there{{delay20}} before {{gender3 m=\"he\" f=\"she\"}} saw me!"
  },
  {
    "label": "003",
    "attribute": "0x0000000000000000",
    "text": "{{anim id=\"Worried\" target=\"actor\" targetSpec=\"\"}}Boy howdy,{{delay20}} that was a bloodcurdlin'\ntale of terror.{{delay40}} {{anim id=\"Grin\" target=\"actor\" targetSpec=\"\"}}I'd better go lie down{{delay8}}{{string value=\"...\"}}"
  },
  {
    "label": "004",
    "attribute": "0x0000000000000000",
    "text": "Here's one{{delay20}} that's {{anim id=\"Nodding\" target=\"actor\" targetSpec=\"\"}}been keeping\nme up at night lately{{delay8}}{{string value=\"...\"}}{{pageBreak}}{{anim id=\"Explain\" target=\"actor\" targetSpec=\"\"}}The other day,{{delay20}} {{string value=\"11\"}}\nwas reading {{anim id=\"QuestionMark\" target=\"mainNpc\" targetSpec=\"\"}}a book{{delay20}} called\nMastering {{capitalizeNextWord}}{{randomSports}}.{{pageBreak}}{{anim id=\"Frantic\" target=\"actor\" targetSpec=\"\"}}But {{gender3 m=\"he\" f=\"she\"}} has to know{{delay20}} that I'm already\na master at that!{{delay40}} With all my training\nand routines,{{delay20}} I have enough stress{{delay8}}{{string value=\"...\"}}{{pageBreak}}{{anim id=\"Worried\" target=\"actor\" targetSpec=\"\"}}And now I need to worry about {{gender3 m=\"him\" f=\"her\"}}{{delay20}}\ncoming for my trophy some day!"
  },
  {
    "label": "005",
    "attribute": "0x0000000000000000",
    "text": "{{anim id=\"Nodding\" target=\"actor\" targetSpec=\"\"}}Oh yeah!{{delay40}} {{anim id=\"Explain\" target=\"actor\" targetSpec=\"\"}}Just yesterday,{{delay20}} I went out\nwithout remembering to lock up.{{pageBreak}}{{anim id=\"Restless\" target=\"actor\" targetSpec=\"\"}}I get back,{{delay20}} see my door is open,{{delay20}} and\nrush around checking my place out.{{delay40}}\n{{anim id=\"Serious\" target=\"actor\" targetSpec=\"\"}}Nothing's out of place{{delay20}} or missing{{delay8}}{{string value=\"...\"}}\n{{anim id=\"Surprised\" target=\"actor\" targetSpec=\"\"}}Except someone's eaten\n{{wordArticle}}{{randomSweets}}{{anim id=\"Eh\" target=\"mainNpc\" targetSpec=\"\"}}{{delay20}} I'd set aside\nfor my next cheat day!{{anim id=\"EmotEnd\" target=\"mainNpc\" targetSpec=\"\"}}\n{{anim id=\"Negative\" target=\"actor\" targetSpec=\"\"}}And I'm no cheater on my diet.{{delay40}}\n{{anim id=\"Worried\" target=\"actor\" targetSpec=\"\"}}What kind of monster{{delay20}} does a thing\nlike that to a guy,{{delay20}} anyway?"
  },
  {
    "label": "101",
    "attribute": "0x0000000000000000",
    "text": "{{anim id=\"Grin\" target=\"actor\" targetSpec=\"\"}}So you think you're real tough stuff?"
  },
  {
    "label": "102",
    "attribute": "0x0000030000000000",
    "text": "{{anim id=\"FaintSmile\" target=\"actor\" targetSpec=\"\"}}You know it!{{i10_4}} {{i20_3 arg=\"8\"}}{{i20_3 arg=\"6\"}}{{anim id=\"Greeting\" target=\"actor\" targetSpec=\"\"}}Yo, {{string value=\"NickName\"}},{{delay20}}\ngreat timing!{{pageBreak}}{{i20_2 arg=\"4\"}}{{anim id=\"FaintSmile\" target=\"actor\" targetSpec=\"\"}}{{capitalizeNextLetter}}{{string value=\"31\"}} here{{delay20}} wants to\nspar with me,{{delay20}} but I worry\nI'll {{anim id=\"Eh\" target=\"mainNpc\" targetSpec=\"\"}}hurt the guy.\n{{anim id=\"QuestionMark\" target=\"actor\" targetSpec=\"\"}}Can you think of a fairer contest?"
  },
  {
    "label": "102_a",
    "attribute": "0x0000000000000000",
    "text": "Arm wrestling."
  },
  {
    "label": "102_b",
    "attribute": "0x0000000000000000",
    "text": "A word game."
  },
  {
    "label": "102_c",
    "attribute": "0x0000000000000000",
    "text": "Singing."
  },
  {
    "label": "103",
    "attribute": "0x0000000000000000",
    "text": "{{anim id=\"FaintSmile\" target=\"actor\" targetSpec=\"\"}}Oh,{{delay20}} I don't know{{delay8}}{{string value=\"...\"}} {{anim id=\"Grin\" target=\"actor\" targetSpec=\"\"}}What if I snapped\none of those rusty {{anim id=\"Eh\" target=\"mainNpc\" targetSpec=\"\"}}hinges off of him?"
  },
  {
    "label": "104",
    "attribute": "0x0000000000000000",
    "text": "{{anim id=\"Outraged\" target=\"actor\" targetSpec=\"\"}}Why you{{i20_2 arg=\"7\"}}{{delay8}}{{string value=\"...\"}} Underestimate me at\nyour peril, kiddo!{{delay40}} {{anim id=\"SmugFace\" target=\"actor\" targetSpec=\"\"}}{{anim id=\"Smiling\" target=\"subNpc\" targetSpec=\"\"}}I'm fixin' to\nshow you{{delay20}} who's rusty!"
  },
  {
    "label": "105",
    "attribute": "0x0000000000000000",
    "text": "{{anim id=\"FaintSmile\" target=\"actor\" targetSpec=\"\"}}That might work,{{delay20}} yeah!{{i20_2 arg=\"5\"}}{{delay40}} {{anim id=\"IdeaBulb\" target=\"actor\" targetSpec=\"\"}}Why don't\nwe test our brains on our brawn,{{delay20}}\nand take turns naming muscles?\n{{anim id=\"Grin\" target=\"actor\" targetSpec=\"\"}}But no repeats!{{delay40}}\n{{anim id=\"FaintSmile\" target=\"actor\" targetSpec=\"\"}}Strong idea,{{delay20}} right?"
  },
  {
    "label": "106",
    "attribute": "0x0000000000000000",
    "text": "{{anim id=\"Restless\" target=\"actor\" targetSpec=\"\"}}You're the one who stays up late\nstudyin' his own parts,{{anim id=\"TakenAback\" target=\"subNpc\" targetSpec=\"\"}}{{delay20}} {{i20_2 arg=\"7\"}}but I guess\nI'm game,{{delay frames=\"40\"}} if you are{{delay8}}{{string value=\"...\"}} {{anim id=\"Smiling\" target=\"actor\" targetSpec=\"\"}}{{anim id=\"Smiling\" target=\"subNpc\" targetSpec=\"\"}}BICEPS!"
  },
  {
    "label": "107",
    "attribute": "0x0000000000000000",
    "text": "{{anim id=\"Nodding\" target=\"actor\" targetSpec=\"\"}}No problem!{{delay40}} Strong core muscles,{{delay20}}\nstrong voice, right?{{delay40}} {{i20_2 arg=\"5\"}}Check this out{{delay8}}{{string value=\"...\"}}{{pageBreak}}{{i10_12}}{{anim id=\"Cheering\" target=\"actor\" targetSpec=\"\"}}{{i10_10}}{{size value=\"150\"}}♪ Strong abs and back,{{delay20}}\nmuscles not slack! ♪{{anim id=\"Worried\" target=\"mainNpc\" targetSpec=\"\"}}{{size value=\"100\"}}"
  },
  {
    "label": "108",
    "attribute": "0x0000000000000000",
    "text": "{{anim id=\"Angry\" target=\"actor\" targetSpec=\"\"}}No fair,{{delay20}} attackin' a guy's eardrums!{{delay40}}\n{{i20_2 arg=\"7\"}}Singin's about more than bein' loud.{{delay40}}\n{{anim id=\"Serious\" target=\"actor\" targetSpec=\"\"}}{{anim id=\"ShyBoy\" target=\"subNpc\" targetSpec=\"\"}}You gotta at least try to sing good!"
  },
  {
    "label": "201",
    "attribute": "0x0000000000000000",
    "text": "{{anim id=\"Serious\" target=\"actor\" targetSpec=\"\"}}Listen up,{{delay20}} {{string value=\"31\"}}!{{delay40}}{{pageBreak}}{{anim id=\"Negative\" target=\"actor\" targetSpec=\"\"}}Strength ain't just a physical thing!{{delay40}}\n{{anim id=\"Pardon\" target=\"actor\" targetSpec=\"\"}}You gotta have a certain presence{{delay8}}{{string value=\"...\"}}{{anim id=\"EmotEnd\" target=\"actor\" targetSpec=\"\"}}{{pageBreak}}And that comes {{anim id=\"SmugFace\" target=\"actor\" targetSpec=\"\"}}from self-confidence{{delay20}}\nand havin' conviction,{{delay20}} {{anim id=\"Eh\" target=\"subNpc\" targetSpec=\"\"}}{{string value=\"Catchphrase\"}}!"
  },
  {
    "label": "202",
    "attribute": "0x0000000000000000",
    "text": "{{anim id=\"Confused\" target=\"actor\" targetSpec=\"\"}}So what's the exercise regimen\nfor that?{{delay40}} How am I supposed\nto train up my conviction?"
  },
  {
    "label": "203",
    "attribute": "0x0000000000000000",
    "text": "{{anim id=\"FaintSmile\" target=\"actor\" targetSpec=\"\"}}Aw,{{delay20}} it's easy!{{delay40}} {{anim id=\"Explain\" target=\"actor\" targetSpec=\"\"}}Don't get flustered{{delay20}}\nwhen someone glares at you.{{delay40}}\nAlways stand proud and tall! \n{{anim id=\"Nodding\" target=\"actor\" targetSpec=\"\"}}{{anim id=\"FaintSmile\" target=\"subNpc\" targetSpec=\"\"}}And make sure to get your points\nacross loud and clear,{{delay20}} {{string value=\"Catchphrase\"}}!"
  },
  {
    "label": "204",
    "attribute": "0x0000000000000000",
    "text": "{{anim id=\"Nodding\" target=\"actor\" targetSpec=\"\"}}You definitely come on\nstrong,{{delay20}} {{string value=\"31\"}}!{{delay40}}\n{{anim id=\"IdeaBulb\" target=\"actor\" targetSpec=\"\"}}Maybe it's your catchphrase?{{delay40}}\n{{anim id=\"Scheming\" target=\"actor\" targetSpec=\"\"}}Bet if I said \"{{string value=\"Catchphrase\"}}\" all the\ntime,{{delay20}} I'd make an impression too!\n{{anim id=\"Serious\" target=\"actor\" targetSpec=\"\"}}Listen up,{{delay20}} {{string value=\"Catchphrase\"}}!{{anim id=\"Eh\" target=\"subNpc\" targetSpec=\"\"}} {{delay40}} {{anim id=\"FaintSmile\" target=\"actor\" targetSpec=\"\"}}Yeah{{delay8}}{{string value=\"...\"}}"
  },
  {
    "label": "205",
    "attribute": "0x0000000000000000",
    "text": "{{anim id=\"BigSmile\" target=\"actor\" targetSpec=\"\"}}There you go.{{delay40}} {{anim id=\"FaintSmile\" target=\"actor\" targetSpec=\"\"}}Reckon it's workin' for you already,{{delay20}} {{string value=\"Catchphrase\"}}!"
  }
]