﻿[
  {
    "label": "001",
    "attribute": "0x000000",
    "text": "Bonjour, bonjour, {{gender2 m=\"cher\" f=\"chère\"}} ami{{gender2 m=\"\" f=\"e\"}}!"
  },
  {
    "label": "001_01",
    "attribute": "0x000000",
    "text": "Bien le bonjour, mon ami{{gender2 m=\"\" f=\"e\"}}!"
  },
  {
    "label": "001_02",
    "attribute": "0x000000",
    "text": "Bonsoir, bonsoir, l'ami{{gender2 m=\"\" f=\"e\"}}!"
  },
  {
    "label": "001_03",
    "attribute": "0x000000",
    "text": "Merci pour cette visite tardive!"
  },
  {
    "label": "002",
    "attribute": "0x000000",
    "text": "En ce moment,{{delay8}} nous collectons\ndes fonds pour bâtir {{wordArticle}}{{fun_0000007D arg=\"0x0000\"}}."
  },
  {
    "label": "003",
    "attribute": "0x020000",
    "text": "Notre objectif est de collecter {{color id=\"1\"}}{{number value=\"23\" index=\"0\"}}{{color id=\"65535\"}}.{{pageBreak}}Pour l'instant, nous en sommes à{{delay8}} {{color id=\"1\"}}{{number value=\"23\" index=\"2\"}}{{color id=\"65535\"}},{{delay8}} il nous reste donc à trouver {{color id=\"1\"}}{{number value=\"23\" index=\"1\"}}{{color id=\"65535\"}}.{{pageBreak}}Toute aide est la bienvenue, alors\nn'hésitez pas à donner ne serait-ce\nqu'une clochette!"
  },
  {
    "label": "003_a",
    "attribute": "0x000000",
    "text": "D'accord!"
  },
  {
    "label": "003_b",
    "attribute": "0x000000",
    "text": "{{anim id=\"EmotEnd\" target=\"actor\" targetSpec=\"\"}}Une autre fois."
  },
  {
    "label": "004",
    "attribute": "0x000000",
    "text": "Ah, d'accord{{string value=\"...\"}}{{i10_4}} C'est entendu,{{delay8}}\nnous nous réjouissons à l'avance\nde votre future contribution!"
  },
  {
    "label": "005",
    "attribute": "0x000000",
    "text": "Eh bien{{string value=\"...\"}} nous nous réjouissons à\nl'avance de votre future contribution."
  },
  {
    "label": "006",
    "attribute": "0x020000",
    "text": "Voulez-vous bien faire un don de\n{{color id=\"1\"}}{{number value=\"23\" index=\"3\"}}{{color id=\"65535\"}}, mon ami{{gender2 m=\"\" f=\"e\"}}?"
  },
  {
    "label": "006_01",
    "attribute": "0x000000",
    "text": "Merci pour votre contribution!"
  },
  {
    "label": "006_a",
    "attribute": "0x000000",
    "text": "Tiens!"
  },
  {
    "label": "006_b",
    "attribute": "0x000000",
    "text": "Laisse tomber."
  },
  {
    "label": "007",
    "attribute": "0x000000",
    "text": "Grâce à vous, notre objectif de\n{{color id=\"1\"}}{{number value=\"23\" index=\"0\"}}{{color id=\"65535\"}} a été atteint!{{pageBreak}}Vous pourrez bientôt admirer\nle résultat, merci à tous!"
  },
  {
    "label": "008",
    "attribute": "0x000000",
    "text": "La collecte de fonds pour bâtir\n{{wordArticle}}{{fun_0000007D arg=\"0x0000\"}} a malheureusement été annulée.{{pageBreak}}Merci néanmoins à tous\npour votre soutien!"
  },
  {
    "label": "009",
    "attribute": "0x000000",
    "text": "{{capitalizeNextLetter}}{{wordArticle}}{{fun_0000007D arg=\"0x0000\"}} devrait être construit{{gender8 m=\"\" f=\"e\" n=\"\"}} à cet endroit prochainement!"
  },
  {
    "label": "010",
    "attribute": "0x000000",
    "text": "Notre objectif de {{color id=\"1\"}}{{number value=\"23\" index=\"0\"}}{{color id=\"65535\"}}\na été atteint!{{i10_4}} Vous pourrez bientôt\nadmirer le résultat, merci à tous!"
  },
  {
    "label": "011",
    "attribute": "0x000000",
    "text": "Je suis là pour récolter des fonds\nafin de financer {{wordArticle}}{{fun_0000007D arg=\"0x0000\"}}.{{pageBreak}}Cependant{{string value=\"...\"}} nous n'acceptons pas\nles clochettes oniriques!{{pageBreak}}Ceci dit, nous nous réjouissons\nà l'avance de votre contribution\ndans le monde réel."
  }
]