﻿[
  {
    "label": "001",
    "attribute": "0x000000",
    "text": "Bonjour, bonjour, {{gender2 m=\"cher\" f=\"chère\"}} ami{{gender2 m=\"\" f=\"e\"}}!"
  },
  {
    "label": "001_01",
    "attribute": "0x000000",
    "text": "Bien le bonjour, mon ami{{gender2 m=\"\" f=\"e\"}}!"
  },
  {
    "label": "001_02",
    "attribute": "0x000000",
    "text": "Bonsoir, bonsoir, l'ami{{gender2 m=\"\" f=\"e\"}}!"
  },
  {
    "label": "001_03",
    "attribute": "0x000000",
    "text": "Merci pour cette visite tardive!"
  },
  {
    "label": "002",
    "attribute": "0x000000",
    "text": "En ce moment,{{delay8}} nous collectons\ndes fonds pour bâtir {{wordArticle}}{{fun_0000007D arg=\"0x0000\"}}."
  },
  {
    "label": "003",
    "attribute": "0x020000",
    "text": "Notre objectif est de collecter {{color id=\"1\"}}{{number value=\"23\" index=\"0\"}}{{color id=\"65535\"}}.{{pageBreak}}Pour l'instant, nous en sommes à{{delay8}} {{color id=\"1\"}}{{number value=\"23\" index=\"2\"}}{{color id=\"65535\"}},{{delay8}} il nous reste donc à trouver {{color id=\"1\"}}{{number value=\"23\" index=\"1\"}}{{color id=\"65535\"}}.{{pageBreak}}Toute aide est la bienvenue, alors\nn'hésitez pas à donner ne serait-ce\nqu'une clochette!"
  },
  {
    "label": "003_a",
    "attribute": "0x000000",
    "text": "D'accord!"
  },
  {
    "label": "003_b",
    "attribute": "0x000000",
    "text": "{{anim id=\"EmotEnd\" target=\"actor\" targetSpec=\"\"}}Une autre fois."
  },
  {
    "label": "004",
    "attribute": "0x000000",
    "text": "Ah, d'accord{{string value=\"...\"}}{{i10_4}} C'est entendu,{{delay8}}\nnous nous réjouissons à l'avance\nde votre future contribution!"
  },
  {
    "label": "005",
    "attribute": "0x000000",
    "text": "Eh bien{{string value=\"...\"}} nous nous réjouissons à\nl'avance de votre future contribution."
  },
  {
    "label": "006",
    "attribute": "0x020000",
    "text": "Voulez-vous bien faire un don de\n{{color id=\"1\"}}{{number value=\"23\" index=\"3\"}}{{color id=\"65535\"}}, mon ami{{gender2 m=\"\" f=\"e\"}}?"
  },
  {
    "label": "006_a",
    "attribute": "0x000000",
    "text": "Tiens!"
  },
  {
    "label": "006_b",
    "attribute": "0x000000",
    "text": "Laisse tomber."
  },
  {
    "label": "007",
    "attribute": "0x000000",
    "text": "Grâce à vous, notre objectif de\n{{color id=\"1\"}}{{number value=\"23\" index=\"0\"}}{{color id=\"65535\"}} a été atteint!{{pageBreak}}Vous pourrez bientôt admirer\nle résultat, merci à tous!"
  },
  {
    "label": "012",
    "attribute": "0x000000",
    "text": "Nous n'acceptons plus de dons.\n{{delay frames=\"40\"}}Reviens un autre jour!"
  },
  {
    "label": "013",
    "attribute": "0x000000",
    "text": "Nous allons envoyer une invitation à\n{{color id=\"1\"}}deux époux talentueux spécialistes\nde la personnalisation de meubles{{color id=\"65535\"}}!"
  },
  {
    "label": "014",
    "attribute": "0x000000",
    "text": "Nous allons envoyer une invitation\nà un {{color id=\"1\"}}expert en botanique au pouce\ntrès vert{{color id=\"65535\"}}!"
  },
  {
    "label": "015",
    "attribute": "0x000000",
    "text": "Nous allons envoyer une invitation\nà un {{color id=\"1\"}}marchand de chaussures et\nde sacs plein de classe{{color id=\"65535\"}}!"
  },
  {
    "label": "016",
    "attribute": "0x000000",
    "text": "Nous allons envoyer une invitation\nà une {{color id=\"1\"}}négociante en tapis et en\npapiers peints mystérieux{{color id=\"65535\"}}!"
  },
  {
    "label": "017",
    "attribute": "0x000000",
    "text": "Nous allons envoyer une invitation\nà un {{color id=\"1\"}}négociant en œuvres d'art\nauthentiques{{color id=\"65535\"}}!"
  },
  {
    "label": "018",
    "attribute": "0x000000",
    "text": "Nous allons envoyer une invitation\nà une {{color id=\"1\"}}mystérieuse voyante{{color id=\"65535\"}}!"
  },
  {
    "label": "020",
    "attribute": "0x000000",
    "text": "Les dons sont acceptés pour inviter\n{{color id=\"1\"}}deux époux talentueux spécialistes\nde la personnalisation de meubles{{color id=\"65535\"}}!"
  },
  {
    "label": "021",
    "attribute": "0x000000",
    "text": "Les dons sont acceptés pour inviter\nun {{color id=\"1\"}}expert en botanique à la patte\ntrès verte{{color id=\"65535\"}}!"
  },
  {
    "label": "022",
    "attribute": "0x000000",
    "text": "Les dons sont acceptés pour inviter\nun {{color id=\"1\"}}marchand de chaussures et de\nsacs plein de classe{{color id=\"65535\"}}!"
  },
  {
    "label": "023",
    "attribute": "0x000000",
    "text": "Les dons sont acceptés pour inviter\nune {{color id=\"1\"}}négociante en tapis et en\npapiers peints mystérieux{{color id=\"65535\"}}!"
  },
  {
    "label": "024",
    "attribute": "0x000000",
    "text": "Les dons sont acceptés pour inviter\nun{{color id=\"1\"}} négociant en œuvres d'art\nauthentiques{{color id=\"65535\"}}!"
  },
  {
    "label": "025",
    "attribute": "0x000000",
    "text": "Les dons sont acceptés pour inviter\nune {{color id=\"1\"}}mystérieuse voyante{{color id=\"65535\"}}!"
  },
  {
    "label": "026",
    "attribute": "0x000000",
    "text": "Merci de nous avoir aidés à atteindre\nl'objectif de {{number value=\"24\" index=\"0\"}}!"
  },
  {
    "label": "027",
    "attribute": "0x000000",
    "text": "L'objectif de {{number value=\"24\" index=\"0\"}} vient d'être atteint!{{delay frames=\"30\"}} Merci à tous ceux qui ont contribué à la collecte!"
  },
  {
    "label": "028",
    "attribute": "0x000000",
    "text": "Nous allons envoyer une invitation à\nun {{color id=\"1\"}}grand-père qui te donnera accès\nà ton espace de rangement{{color id=\"65535\"}}!"
  },
  {
    "label": "029",
    "attribute": "0x000000",
    "text": "Les dons sont acceptés pour inviter\nun {{color id=\"1\"}}grand-père qui te donnera accès\nà ton espace de rangement{{color id=\"65535\"}}!"
  }
]