﻿[
  {
    "label": "001",
    "text": "Was war da los, {{string value=\"NickName\"}}?"
  },
  {
    "label": "002",
    "text": "Äh, {{string value=\"NickName\"}}..."
  },
  {
    "label": "003",
    "text": "Gut gemacht, {{string value=\"NickName\"}}!"
  },
  {
    "label": "004",
    "text": "Zu mysteriös, {{string value=\"NickName\"}}!"
  },
  {
    "label": "005",
    "text": "He, {{string value=\"NickName\"}}..."
  },
  {
    "label": "006",
    "text": "An {{gender2 m=\"den rätselhaften\" f=\"die rätselhafte\"}} {{string value=\"NickName\"}}"
  },
  {
    "label": "101",
    "text": "Hast du die Karte abgeschickt,\nbevor sie fertig war? Danke fürs\nGeschenk, aber mich würde schon\ninteressieren, was du sagen woll-\ntest. Hab dir mal was geschickt,\ndas gegen Schreibblockade hilft."
  },
  {
    "label": "102",
    "text": "War deine Karte so 'ne Art Rätsel?\nOder ein Witz, den ich nicht\nverstehe? Ist das Geschenk ein\nHinweis? Sag mir einfach, was ich\nmachen soll, {{gender2 m=\"Kleiner\" f=\"Kleines\"}}! Hier, ich\nschick dir sogar ein Geschenk."
  },
  {
    "label": "103",
    "text": "Heißt es nicht „In der Kürze liegt\ndie Würze“? Dann hast du ja ganz\nschön gut gewürzt, {{gender2 m=\"Kleiner\" f=\"Kleines\"}}! Ich\nmach's dir einfach mal nach. Hier\nist ein Geschenk für dich, und jetzt\nSchluss mit dem Geschreibsel."
  },
  {
    "label": "104",
    "text": "Deine Karte hat mich neugierig\nwerden lassen. War das ein Witz?\nOder hab ich was verpasst?\nDie Kunst der geheimnisvollen\nAndeutung hast du jedenfalls ge-\nmeistert, das muss ich dir lassen!"
  },
  {
    "label": "105",
    "text": "Danke für die Karte, aber was ist\nmit den ganzen leeren Stellen?\nWolltest du da clever sein?\nZwischen den Zeilen lesen, und so?\nEgal, ich versteh's nicht. Wenn du\nwas zu sagen hast, dann sag's halt!"
  },
  {
    "label": "106",
    "text": "Hast du mir versehentlich deinen\nEinkaufszettel geschickt? Oder ein\nHaiku? Oder sonst so einen neumo-\ndischen Kram? Denn ich kann nicht\ndas Geringste damit anfangen.\nHilf mir auf die Sprünge!"
  },
  {
    "label": "201",
    "text": "Dein neugieriger {{string value=\"VillagerName\"}}"
  },
  {
    "label": "202",
    "text": "Gib mir einen Tipp! –{{string value=\"VillagerName\"}}"
  },
  {
    "label": "203",
    "text": "Dein beeindruckter {{string value=\"VillagerName\"}}"
  },
  {
    "label": "204",
    "text": "Ein echter Brüller! –{{string value=\"VillagerName\"}}"
  },
  {
    "label": "205",
    "text": "Hört dir zu: {{string value=\"VillagerName\"}}"
  },
  {
    "label": "206",
    "text": "Kapiert's nicht: {{string value=\"VillagerName\"}}"
  }
]