﻿[
  {
    "label": "001",
    "attribute": "0x0000000000000000",
    "text": "{{anim id=\"BigSmile\" target=\"actor\" targetSpec=\"\"}}안녕, {{string value=\"NickName\"}}!{{delay40}}\n{{anim id=\"EmotEnd\" target=\"actor\" targetSpec=\"\"}}오늘은 드디어 카니발이야{{delay20}}\n{{anim id=\"Hello\" target=\"actor\" targetSpec=\"\"}}컨디션은 어떠냐?{{pageBreak}}{{anim id=\"ShyBoy\" target=\"actor\" targetSpec=\"\"}}남 앞에서 춤출 생각을 하니 좀 쑥스럽지만{{delay20}}\n{{anim id=\"HappyDance\" target=\"actor\" targetSpec=\"\"}}일단 그런 건 제쳐 두고{{delay8}}\n신나게 즐기자! {{string value=\"6\"}}!"
  },
  {
    "label": "002",
    "attribute": "0x0000000000000000",
    "text": "야, {{string value=\"4\"}}!{{delay20}}\n{{anim id=\"Explain\" target=\"actor\" targetSpec=\"\"}}하늘에 떠다니는 깃털을{{delay20}} 얼마나 모을 수 있을지{{delay40}}\n{{anim id=\"Nodding\" target=\"actor\" targetSpec=\"\"}}나랑 같이 도전해보지 않을래?{{pageBreak}}{{anim id=\"AbsentMindedness\" target=\"actor\" targetSpec=\"\"}}잠자리채로 다양한 색의 깃털을 모으다 보면{{delay8}}\n동기 부여도 될 것 같고,{{delay20}}\n{{anim id=\"Smiling\" target=\"actor\" targetSpec=\"\"}}의외로 재밌을 수도 있잖아, {{string value=\"6\"}}!"
  },
  {
    "label": "003",
    "attribute": "0x0000000000000000",
    "text": "{{anim id=\"FaintSmile\" target=\"actor\" targetSpec=\"\"}}{{fun_0000007D arg=\"0x0000\"}} 말야,{{delay frames=\"30\"}}\n엄청 예쁘지 않냐?{{delay40}}\n{{anim id=\"Explain\" target=\"actor\" targetSpec=\"\"}}난 {{delay8}}이게 엄청 마음에 들더라{{pageBreak}}{{anim id=\"ShyBoy\" target=\"actor\" targetSpec=\"\"}}근데 이상하게 꼭{{delay20}} 갖고 싶은 깃털은{{delay8}}\n잘 안 잡힌단 말이지～{{delay40}}\n{{anim id=\"Nodding\" target=\"actor\" targetSpec=\"\"}}누가 교환해주면 좋을 텐데, {{string value=\"6\"}}!"
  },
  {
    "label": "005",
    "attribute": "0x0000000000000000",
    "text": "{{anim id=\"Surprised\" target=\"actor\" targetSpec=\"\"}}우와, {{delay8}}{{string value=\"NickName\"}}{{string value=\"...\"}}{{delay20}}\n{{anim id=\"Laughing\" target=\"actor\" targetSpec=\"\"}}너 오늘 {{delay8}}엄청 번쩍거린다!{{pageBreak}}{{anim id=\"Nodding\" target=\"actor\" targetSpec=\"\"}}특히 그 옷차림이{{delay20}} 카니발에 딱이라서{{delay8}}\n보는 나까지 즐거워지네{{delay frames=\"50\"}}\n{{anim id=\"Greeting\" target=\"actor\" targetSpec=\"\"}}좋아, {{delay8}}우리 오늘은 신나게 춤추자!"
  },
  {
    "label": "006",
    "attribute": "0x0000000000000000",
    "text": "{{anim id=\"Nodding\" target=\"actor\" targetSpec=\"\"}}오늘은 나도{{delay8}} 기합 빡 넣고{{delay20}}\n{{anim id=\"EmotEnd\" target=\"actor\" targetSpec=\"\"}}멋지게 꾸미고 왔지, {{string value=\"6\"}}!{{pageBreak}}{{anim id=\"EmotEnd\" target=\"actor\" targetSpec=\"\"}}그래서 그런가?{{delay20}}\n{{anim id=\"HappyFlower\" target=\"actor\" targetSpec=\"\"}}완전히 카니발 기분이야!"
  },
  {
    "label": "007",
    "attribute": "0x0000000000000000",
    "text": "{{anim id=\"QuestionMark\" target=\"actor\" targetSpec=\"\"}}너, {{delay8}}{{color id=\"3\"}}베르리나{{color id=\"65535\"}}가 누군지 알아?{{delay40}}\n{{anim id=\"Explain\" target=\"actor\" targetSpec=\"\"}}일단 그 녀석의 댄스는 한번 봐 둘 가치가 있어!{{delay frames=\"30\"}}\n{{anim id=\"EmotEnd\" target=\"actor\" targetSpec=\"\"}}절도 있고 화려한 움직임이 장난 아니라고!{{pageBreak}}{{anim id=\"AbsentMindedness\" target=\"actor\" targetSpec=\"\"}}그렇게 자유자재로 춤출 수 있다면{{delay40}}\n{{anim id=\"BigSmile\" target=\"actor\" targetSpec=\"\"}}오늘 같은 날 엄청 신나겠지? {{string value=\"6\"}}!{{anim id=\"FaintSmile\" target=\"actor\" targetSpec=\"\"}}"
  },
  {
    "label": "008",
    "attribute": "0x0000000000000000",
    "text": "{{anim id=\"Smiling\" target=\"actor\" targetSpec=\"\"}}카니발은 {{delay20}}즐기고 있어?{{delay40}}\n{{anim id=\"EmotEnd\" target=\"actor\" targetSpec=\"\"}}오늘 같은 날엔 {{delay20}}남의 시선 신경 안 쓰고\n춤출 수 있으니까{{delay8}} {{anim id=\"Laughing\" target=\"actor\" targetSpec=\"\"}}지금 엄청 신난다!"
  },
  {
    "label": "009",
    "attribute": "0x0000000000000000",
    "text": "하늘에서 떨어지는 깃털은 여러 가지지만{{delay20}}\n{{anim id=\"AbsentMindedness\" target=\"actor\" targetSpec=\"\"}}이왕이면 {{delay8}}{{color id=\"1\"}}무지개 깃털{{color id=\"65535\"}}을{{delay8}}\n잡고 싶단 말이지～{{pageBreak}}{{anim id=\"Negative\" target=\"actor\" targetSpec=\"\"}}다른 거에 비해 잘 눈에 띄지 않지만{{delay frames=\"30\"}}\n{{anim id=\"Grin\" target=\"actor\" targetSpec=\"\"}}그만큼 {{delay8}}잡았을 때의 성취감이{{delay20}}\n장난 아니라니까, {{string value=\"6\"}}!"
  },
  {
    "label": "010",
    "attribute": "0x0000000000000000",
    "text": "{{anim id=\"Negative\" target=\"actor\" targetSpec=\"\"}}사람들 앞에서 춤추는 건{{delay8}}\n좀 부끄럽다고 생각했는데{{delay20}}\n{{anim id=\"Laughing\" target=\"actor\" targetSpec=\"\"}}막상 해보니까 별것도 아니네, {{string value=\"6\"}}!{{pageBreak}}{{anim id=\"Blushing\" target=\"actor\" targetSpec=\"\"}}오히려 {{delay8}}춤을 안 추는게 부끄러운 일 같아{{delay20}}\n카니발은 참 신기하구만!{{delay40}}\n{{anim id=\"Greeting\" target=\"actor\" targetSpec=\"\"}}자, {{delay8}}너도 같이 신나게 춤추자!"
  },
  {
    "label": "011",
    "attribute": "0x0000000000000000",
    "text": "오늘의 나, {{delay20}}{{anim id=\"SmugFace\" target=\"actor\" targetSpec=\"\"}}완전 프로 댄서 같지?{{delay frames=\"50\"}}\n{{anim id=\"EmotEnd\" target=\"actor\" targetSpec=\"\"}}역시 {{delay8}}카니발을 진심으로 즐기려면{{delay20}}\n{{anim id=\"Laughing\" target=\"actor\" targetSpec=\"\"}}겉모습도 신경 써야 하지 않겠냐, {{string value=\"6\"}}!"
  },
  {
    "label": "012",
    "attribute": "0x0000000000000000",
    "text": "{{anim id=\"BigSmile\" target=\"actor\" targetSpec=\"\"}}이미 카니발은 시작됐어!{{delay40}}\n{{anim id=\"HappyDance\" target=\"actor\" targetSpec=\"\"}}자, {{delay8}}너도 어서 춤추라구～ {{string value=\"6\"}}!"
  },
  {
    "label": "013",
    "attribute": "0x0000000000000000",
    "text": "순식간에 낮 시간이 됐어{{delay frames=\"30\"}}\n{{anim id=\"QuestionMark\" target=\"actor\" targetSpec=\"\"}}혹시 {{delay8}}벌써 지친 건 아니지?{{pageBreak}}{{anim id=\"Nodding\" target=\"actor\" targetSpec=\"\"}}이 기세로 밤까지 계속 춤춰야 하니까{{delay frames=\"30\"}}\n{{anim id=\"EmotEnd\" target=\"actor\" targetSpec=\"\"}}아직 늘어지면 안 된다! {{string value=\"6\"}}!"
  },
  {
    "label": "014",
    "attribute": "0x0000000000000000",
    "text": "{{anim id=\"Eh\" target=\"actor\" targetSpec=\"\"}}벌써 이런 시간이 됐네{{delay40}}\n{{anim id=\"ShyBoy\" target=\"actor\" targetSpec=\"\"}}세상모르고 춤추다 보니 {{delay8}}그런 줄도 몰랐어{{pageBreak}}{{anim id=\"Nodding\" target=\"actor\" targetSpec=\"\"}}자, {{delay8}}또 계속 춤춰볼까!{{delay40}}\n{{anim id=\"Assent\" target=\"actor\" targetSpec=\"\"}}자신의 한계를 뛰어넘는 거야! {{string value=\"6\"}}!"
  },
  {
    "label": "016",
    "attribute": "0x0000000000000000",
    "text": "{{anim id=\"Smiling\" target=\"actor\" targetSpec=\"\"}}카니발 분위기는 어때?{{delay40}}\n{{anim id=\"EmotEnd\" target=\"actor\" targetSpec=\"\"}}다들 웃는 얼굴로 춤추는 걸 보면{{delay20}}\n{{anim id=\"ShyBoy\" target=\"actor\" targetSpec=\"\"}}왠～지 모르게{{delay8}} 나까지 행복해진다니까!"
  },
  {
    "label": "017",
    "attribute": "0x0000000000000000",
    "text": "{{anim id=\"Nodding\" target=\"actor\" targetSpec=\"\"}}땀도 많이 흘렸으니까 {{delay20}}잠깐 쉬는 중이야{{i10_4}}\n너도 좀 힘들다 싶으면{{delay20}}\n{{anim id=\"Hello\" target=\"actor\" targetSpec=\"\"}}방에서 잠깐{{delay8}} 쉬고 나오라구, {{string value=\"6\"}}!"
  },
  {
    "label": "018",
    "attribute": "0x0000000000000000",
    "text": "{{anim id=\"Nodding\" target=\"actor\" targetSpec=\"\"}}한 발짝만 밖으로 나가면{{delay20}}\n언제나 보던 풍경에{{delay8}} 종이 꽃가루가\n흩날리고 있어서{{delay8}} 정말 예쁜 것 같아!{{pageBreak}}마치 하늘이 이 {{string value=\"32\"}}을{{delay20}}\n{{anim id=\"Hello\" target=\"actor\" targetSpec=\"\"}}축복하고 있는 것 같지 않냐? {{string value=\"6\"}}!"
  },
  {
    "label": "019",
    "attribute": "0x0000000000000000",
    "text": "{{anim id=\"QuestionMark\" target=\"actor\" targetSpec=\"\"}}너는 {{delay8}}춤을 잘 추는 편이냐?{{delay40}}\n{{anim id=\"ShyBoy\" target=\"actor\" targetSpec=\"\"}}난 춤추는 걸 좋아하긴 하는데{{delay20}}\n남한테 보여줄 정도는 아니거든{{string value=\"...\"}}{{pageBreak}}{{anim id=\"Explain\" target=\"actor\" targetSpec=\"\"}}하지만 {{delay8}}카니발을 맞아 다 함께 춤추면{{delay20}}\n그런 건 하나도 신경 안 쓰일 정도로 신난다고{{delay40}}\n{{anim id=\"HappyDance\" target=\"actor\" targetSpec=\"\"}}오늘은 정말 기분 최고야! {{string value=\"6\"}}!"
  },
  {
    "label": "020",
    "attribute": "0x0000000000000000",
    "text": "난 말야, {{delay8}}카니발도 그렇지만{{delay frames=\"30\"}}\n{{anim id=\"Nodding\" target=\"actor\" targetSpec=\"\"}}이벤트는 뭐가 됐든{{delay8}}\n즐겁게 노는 게 제일이라고 생각해{{pageBreak}}{{anim id=\"AbsentMindedness\" target=\"actor\" targetSpec=\"\"}}친구들이랑 같이 신나게 즐기면{{delay40}}\n{{anim id=\"BigSmile\" target=\"actor\" targetSpec=\"\"}}분명 그 자체로 멋진 추억이 될 거라고{{delay20}}\n안 그러냐?{{anim id=\"FaintSmile\" target=\"actor\" targetSpec=\"\"}} {{string value=\"Catchphrase\"}}!"
  },
  {
    "label": "021",
    "attribute": "0x0000000000000000",
    "text": "{{anim id=\"Nodding\" target=\"actor\" targetSpec=\"\"}}오늘은 날이 맑아서 다행이네～!{{delay40}}\n{{anim id=\"Smiling\" target=\"actor\" targetSpec=\"\"}}그야말로 카니발 축제에\n딱 어울리는 날이구만, {{string value=\"6\"}}!"
  },
  {
    "label": "022",
    "attribute": "0x0000000000000000",
    "text": "{{anim id=\"ShyBoy\" target=\"actor\" targetSpec=\"\"}}카니발의 열기 때문에 들떠서{{delay8}}\n너무 춤을 열심히 췄나 봐{{delay frames=\"30\"}}\n{{anim id=\"EmotEnd\" target=\"actor\" targetSpec=\"\"}}그래서 잠깐 {{delay8}}쉬는 중이야, {{string value=\"6\"}}!{{pageBreak}}{{anim id=\"OhGeez\" target=\"actor\" targetSpec=\"\"}}아무리 즐거운 이벤트라도{{delay20}}\n기운 빠져서 다치기라도 하면 큰일이니까{{string value=\"...\"}}{{delay20}}\n{{anim id=\"Smiling\" target=\"actor\" targetSpec=\"\"}}너도 {{delay8}}무리는 하지 마라!"
  },
  {
    "label": "023",
    "attribute": "0x0000000000000000",
    "text": "오늘은 {{delay8}}아침부터 쭉\n카니발을 즐겼는데{{delay20}}\n{{anim id=\"Hello\" target=\"actor\" targetSpec=\"\"}}아직도 더 춤출 수 있을 것 같아, {{string value=\"6\"}}{{pageBreak}}{{anim id=\"Nodding\" target=\"actor\" targetSpec=\"\"}}이렇게 된 이상{{delay20}} 마지막의 마지막까지{{delay8}}\n{{anim id=\"Laughing\" target=\"actor\" targetSpec=\"\"}}신나게 불태워주마!"
  },
  {
    "label": "026",
    "attribute": "0x0000020000000000",
    "text": "{{anim id=\"Aha\" target=\"actor\" targetSpec=\"\"}}아!{{delay20}} {{string value=\"NickName\"}} 니가 갖고 있는{{delay8}}\n그 {{fun_0000007D arg=\"0x0000\"}},{{delay20}}\n{{anim id=\"EmotEnd\" target=\"actor\" targetSpec=\"\"}}내가 엄청 찾던 건데!{{pageBreak}}{{anim id=\"ShyBoy\" target=\"actor\" targetSpec=\"\"}}저기, {{delay20}}강요는 안 할 테니까,{{delay20}} {{anim id=\"Hesitate\" target=\"actor\" targetSpec=\"\"}}혹시 괜찮으면\n내 {{fun_0000007D arg=\"0x0100\"}}이랑{{delay20}}\n교환하지 않을래? {{string value=\"6\"}}?"
  },
  {
    "label": "026_a",
    "attribute": "0x0000000000000000",
    "text": "그래!"
  },
  {
    "label": "026_b",
    "attribute": "0x0000000000000000",
    "text": "미안{{string value=\"...\"}}"
  },
  {
    "label": "027",
    "attribute": "0x0000020000000000",
    "text": "{{anim id=\"Eh\" target=\"actor\" targetSpec=\"\"}}어라, {{delay20}}니가 갖고 있는 거{{delay8}}\n{{fun_0000007D arg=\"0x0000\"}} 아니야?{{delay40}}\n{{anim id=\"Nodding\" target=\"actor\" targetSpec=\"\"}}사실은 그거 {{delay8}}나도 갖고 싶었거든{{string value=\"...\"}}{{pageBreak}}{{anim id=\"Restless\" target=\"actor\" targetSpec=\"\"}}야, {{string value=\"NickName\"}}!{{delay20}} 내가 갖고 있는{{delay8}}\n{{fun_0000007D arg=\"0x0100\"}}이랑{{delay20}}\n{{anim id=\"Nodding\" target=\"actor\" targetSpec=\"\"}}교환하면 안 되겠냐? {{string value=\"6\"}}?"
  },
  {
    "label": "027_a",
    "attribute": "0x0000000000000000",
    "text": "교환하자!"
  },
  {
    "label": "027_b",
    "attribute": "0x0000000000000000",
    "text": "으음{{string value=\"...\"}}"
  },
  {
    "label": "028",
    "attribute": "0x0000000000000000",
    "text": "{{anim id=\"Aha\" target=\"actor\" targetSpec=\"\"}}어, {{delay8}}진짜?!{{delay40}}\n{{anim id=\"FaintSmile\" target=\"actor\" targetSpec=\"\"}}대답 한번 시원시원하구만～{{delay frames=\"30\"}}\n{{anim id=\"EmotEnd\" target=\"actor\" targetSpec=\"\"}}고맙다! {{delay20}}그럼 바로 교환하자!"
  },
  {
    "label": "029",
    "attribute": "0x0000000000000000",
    "text": "{{anim id=\"Laughing\" target=\"actor\" targetSpec=\"\"}}아싸!{{delay20}} 역시 {{string value=\"NickName\"}}{{gender5 m=\"은\" f=\"는\"}}{{delay frames=\"30\"}}\n{{anim id=\"EmotEnd\" target=\"actor\" targetSpec=\"\"}}그릇이 크다니까～!{{delay40}}\n{{anim id=\"Hello\" target=\"actor\" targetSpec=\"\"}}그럼 {{delay8}}바로 받아 간다?"
  },
  {
    "label": "030",
    "attribute": "0x0000000000000000",
    "text": "{{anim id=\"HappyDance\" target=\"actor\" targetSpec=\"\"}}아 이거지～!{{delay frames=\"60\"}}\n{{anim id=\"EmotEnd\" target=\"actor\" targetSpec=\"\"}}고맙다, {{string value=\"NickName\"}}!{{delay20}}\n{{anim id=\"BigSmile\" target=\"actor\" targetSpec=\"\"}}덕분에 {{delay8}}무진장 만족스러워! {{anim id=\"FaintSmile\" target=\"actor\" targetSpec=\"\"}}{{string value=\"Catchphrase\"}}!"
  },
  {
    "label": "031",
    "attribute": "0x0000000000000000",
    "text": "{{anim id=\"Blushing\" target=\"actor\" targetSpec=\"\"}}고마워, {{delay8}}{{string value=\"NickName\"}}!{{delay40}}\n{{anim id=\"EmotEnd\" target=\"actor\" targetSpec=\"\"}}잘 모이지 않아서 곤란했거든{{delay20}}\n{{anim id=\"Smiling\" target=\"actor\" targetSpec=\"\"}}니가 내 구세주다! {{string value=\"6\"}}!"
  },
  {
    "label": "032",
    "attribute": "0x0000000000000000",
    "text": "{{anim id=\"Worried\" target=\"actor\" targetSpec=\"\"}}아하, {{delay20}}아쉽지만 어쩔 수 없지{{string value=\"...\"}}{{delay20}}\n{{anim id=\"EmotEnd\" target=\"actor\" targetSpec=\"\"}}나야말로 괜히 부담 줘서{{delay8}} 미안하다{{delay40}}\n{{anim id=\"Hello\" target=\"actor\" targetSpec=\"\"}}다른 사람한테 물어볼게, {{string value=\"6\"}}!"
  },
  {
    "label": "033",
    "attribute": "0x0000000000000000",
    "text": "{{anim id=\"Eh\" target=\"actor\" targetSpec=\"\"}}오케이, {{delay8}}알았어{{string value=\"...\"}}{{delay20}}\n{{anim id=\"EmotEnd\" target=\"actor\" targetSpec=\"\"}}너무 신경 쓰지는 마!{{delay40}}\n{{anim id=\"Smiling\" target=\"actor\" targetSpec=\"\"}}뭐, {{delay8}}어떻게든 되겠지! {{string value=\"6\"}}!"
  },
  {
    "label": "034",
    "attribute": "0x0000020000000000",
    "text": "{{anim id=\"Explain\" target=\"actor\" targetSpec=\"\"}}{{fun_0000007D arg=\"0x0000\"}} {{color id=\"1\"}}{{number value=\"0\" index=\"0\"}}개{{color id=\"65535\"}}를{{delay frames=\"30\"}}\n{{fun_0000007D arg=\"0x0100\"}} {{color id=\"1\"}}{{number value=\"0\" index=\"0\"}}개{{color id=\"65535\"}}랑{{delay20}}\n{{anim id=\"QuestionMark\" target=\"actor\" targetSpec=\"\"}}교환하는 거 맞지? {{string value=\"6\"}}?"
  },
  {
    "label": "034_a",
    "attribute": "0x0000000000000000",
    "text": "맞아!"
  },
  {
    "label": "034_b",
    "attribute": "0x0000000000000000",
    "text": "그냥 안 할래"
  }
]