﻿[
  {
    "label": "001",
    "text": "親愛的{{string value=\"PlayerName\"}}"
  },
  {
    "label": "002",
    "text": "要不要被短暫的夢境療癒一下呢？"
  },
  {
    "label": "003",
    "text": "親愛的{{string value=\"PlayerName\"}}"
  },
  {
    "label": "004",
    "text": "親愛的{{string value=\"PlayerName\"}}"
  },
  {
    "label": "101",
    "text": "由衷感謝您\n提供了這麼美好的夢境。\n在此送上一點小小的心意。\n歡迎您隨時再過來。"
  },
  {
    "label": "102",
    "text": "在忙碌的無人島生活中，\n要不要體驗一下美好的夢境，\n轉換一下心情呢？\n只要在家裡的床鋪上休息，\n我就會為您準備您想要的夢境喔。"
  },
  {
    "label": "103",
    "text": "謝謝您上次過來一趟。\n要是您還想再做一場美好的夢，\n歡迎再過來我這裡。\n只要在家裡的床鋪上休息，\n我們就能隨時相見了。"
  },
  {
    "label": "104",
    "text": "為您送上一則好消息。\n現在可以藉由「交給你決定」\n來提取夢境了。\n讓您能夠更輕鬆地\n享受美好的夢境。\n期待您的光臨。"
  },
  {
    "label": "201",
    "text": "夢美　留"
  },
  {
    "label": "202",
    "text": "夢美　留"
  },
  {
    "label": "203",
    "text": "夢美　留"
  },
  {
    "label": "204",
    "text": "夢美　留"
  }
]