﻿[
  {
    "label": "001",
    "attribute": "0x0000000000000000",
    "text": "{{fun_0014003C arg=\"\"}}"
  },
  {
    "label": "001_01",
    "attribute": "0x0000000000000000",
    "text": "{{anim id=\"Eh\" target=\"actor\" targetSpec=\"\"}}Ik hoorde dat jij de hoofdontwerper\nwordt voor mijn nieuwe woning!{{pageBreak}}{{anim id=\"Blushing\" target=\"actor\" targetSpec=\"\"}}Ik weet niet hoe ik je moet bedanken!{{delay frames=\"40\"}}\n{{anim id=\"Scheming\" target=\"actor\" targetSpec=\"\"}}Behalve je bij elke stap in het proces\nop de voet te volgen. {{i10_4}}{{anim id=\"Laughing\" target=\"actor\" targetSpec=\"\"}}Géintje! {{delay20}}HaHA!"
  },
  {
    "label": "001_02",
    "attribute": "0x0000000000000000",
    "text": "{{anim id=\"Hello\" target=\"actor\" targetSpec=\"\"}}Zoals {{color id=\"3\"}}Tom Nook {{color id=\"65535\"}}zei, krijg jij de regie\nover de remake van mijn woning.{{delay20}} Dat\nklopt toch, {{string value=\"Catchphrase\"}}?{{pageBreak}}{{anim id=\"BigSmile\" target=\"actor\" targetSpec=\"\"}}Cool! {{delay frames=\"40\"}}{{anim id=\"Grin\" target=\"actor\" targetSpec=\"\"}}Ik zal proberen me er zo min\nmogelijk mee te bemoeien.{{delay20}} Tenzij het\nmijn rol ten goede komt, natuurlijk."
  },
  {
    "label": "001_03",
    "attribute": "0x0000000000000000",
    "text": "{{anim id=\"Eh\" target=\"actor\" targetSpec=\"\"}}Dus jij gaat mijn nieuwe huis\nvormgeven? {{delay20}}Dat heeft {{color id=\"3\"}}Tom Nook{{color id=\"65535\"}} me\nin ieder geval gezegd, {{string value=\"Catchphrase\"}}!{{pageBreak}}{{anim id=\"AbsentMindedness\" target=\"actor\" targetSpec=\"\"}}Ik verwacht een complete verrassing\ndie perfect bij me past!{{delay frames=\"40\"}}{{anim id=\"Grin\" target=\"actor\" targetSpec=\"\"}} Verder eis ik\nniets, {{string value=\"NickName\"}}{{string value=\"...\"}}"
  },
  {
    "label": "002",
    "attribute": "0x0000000000000000",
    "text": "{{fun_0014003C arg=\"\"}}"
  },
  {
    "label": "002_01",
    "attribute": "0x0000000000000000",
    "text": "{{anim id=\"Smiling\" target=\"actor\" targetSpec=\"\"}}Waarom vertelde je me niet eerder\ndat je ideeën hebt voor mijn huis?{{pageBreak}}{{anim id=\"BigSmile\" target=\"actor\" targetSpec=\"\"}}Ik sta altijd open voor suggesties,\ndus ga je gang. {{delay frames=\"40\"}}{{anim id=\"HappyDance\" target=\"actor\" targetSpec=\"\"}}Ik hoor het wel\nwanneer je klaar bent!"
  },
  {
    "label": "002_02",
    "attribute": "0x0000000000000000",
    "text": "{{anim id=\"Silent\" target=\"actor\" targetSpec=\"\"}}Dus je vond mijn interieur niet goed\ngenoeg?{{i10_4}}{{anim id=\"Laughing\" target=\"actor\" targetSpec=\"\"}} HaHA!{{delay20}} Niet schrikken, ik\nplaag je maar een beetje!{{pageBreak}}{{anim id=\"SmugFace\" target=\"actor\" targetSpec=\"\"}}Leef je vooral uit, je mag alles onder-\nsteboven gooien.{{delay20}} Ik ben voor! {{delay20}}{{anim id=\"Nodding\" target=\"actor\" targetSpec=\"\"}}En als\nje klaar bent, hoor ik het wel, hè?"
  },
  {
    "label": "003",
    "attribute": "0x0000000000000000",
    "text": "{{fun_0014003C arg=\"\"}}"
  },
  {
    "label": "003_01",
    "attribute": "0x0000000000000000",
    "text": "{{anim id=\"Serious\" target=\"actor\" targetSpec=\"\"}}Welkom in de geheel vernieuwde{{string value=\"...\"}}{{delay frames=\"40\"}}\n{{anim id=\"EmotEnd\" target=\"actor\" targetSpec=\"\"}}Chambre de {{string value=\"VillagerName\"}}!{{pageBreak}}{{anim id=\"Explain\" target=\"actor\" targetSpec=\"\"}}Oké, jij bent de ontwerper, dus je\nkent het hier beter dan ik.{{delay frames=\"40\"}}{{anim id=\"SmugFace\" target=\"actor\" targetSpec=\"\"}} Maar met\nMIJ erin is het pas echt af.{{pageBreak}}{{anim id=\"Smiling\" target=\"actor\" targetSpec=\"\"}}Enfin, doe of je thuis bent.{{delay20}} Ga lekker\nzitten! {{delay20}}{{anim id=\"Grin\" target=\"actor\" targetSpec=\"\"}}Je hebt het totaal verdiend,\n{{string value=\"Catchphrase\"}}!"
  },
  {
    "label": "003_02",
    "attribute": "0x0000000000000000",
    "text": "{{anim id=\"Greeting\" target=\"actor\" targetSpec=\"\"}}Welkom in mijn geheel nieuw ogende huis, {{string value=\"NickName\"}}! {{delay frames=\"40\"}}{{anim id=\"Nodding\" target=\"actor\" targetSpec=\"\"}}Je hebt jezelf absoluut overtroffen!{{pageBreak}}{{anim id=\"SmugFace\" target=\"actor\" targetSpec=\"\"}}Dit is voor mij de perfecte plek om\nvolledig uit de verf en tot mijn recht\nte komen, {{string value=\"Catchphrase\"}}.{{pageBreak}}{{anim id=\"AbsentMindedness\" target=\"actor\" targetSpec=\"\"}}Ik chill hier nog wel even rond, dus je\nkunt altijd langskomen."
  },
  {
    "label": "003_03",
    "attribute": "0x0000000000000000",
    "text": "{{anim id=\"Hello\" target=\"actor\" targetSpec=\"\"}}Welkom, welkom{{string value=\"...\"}}{{delay20}}{{anim id=\"EmotEnd\" target=\"actor\" targetSpec=\"\"}} in de volledig heringerichte {{string value=\"VillagerName\"}}-wereld!{{pageBreak}}{{anim id=\"Explain\" target=\"actor\" targetSpec=\"\"}}Je hebt zorgvuldig jouw stempel op\nalle details gedrukt. {{delay frames=\"40\"}}{{anim id=\"Nodding\" target=\"actor\" targetSpec=\"\"}}Eerlijk gezegd\nben ik zwaar onder de indruk.{{pageBreak}}{{anim id=\"Love\" target=\"actor\" targetSpec=\"\"}}Wat ben ik jou dankbaar!{{delay frames=\"40\"}} {{anim id=\"Smiling\" target=\"actor\" targetSpec=\"\"}}Dus: van nu\naf aan mag je jezelf in dit huis als vip\nbeschouwen en doen wat je wilt!"
  },
  {
    "label": "004",
    "attribute": "0x0000000000000000",
    "text": "{{fun_0014003C arg=\"\"}}"
  },
  {
    "label": "004_01",
    "attribute": "0x0000000000000000",
    "text": "{{anim id=\"QuestionMark\" target=\"actor\" targetSpec=\"\"}}Heb je de laatste make-over van mijn\nhuis gezien, {{string value=\"NickName\"}}?{{pageBreak}}{{anim id=\"OhGeez\" target=\"actor\" targetSpec=\"\"}}Ach, waar zit ik met mijn verstand?\n{{delay20}}Natuurlijk heb je het gezien! {{delay20}}Je was\ner zelf verantwoordelijk voor!{{pageBreak}}{{anim id=\"SmugFace\" target=\"actor\" targetSpec=\"\"}}Maar ik ga uiteraard met de eer\nstrijken, dat je het even weet. {{delay20}}Ik was\nalvast aan het oefenen.{{delay20}}{{anim id=\"Laughing\" target=\"actor\" targetSpec=\"\"}} HaHA!"
  },
  {
    "label": "004_02",
    "attribute": "0x0000000000000000",
    "text": "{{anim id=\"Hesitate\" target=\"actor\" targetSpec=\"\"}}Ik heb een belangrijke boodschap voor je, {{string value=\"NickName\"}}{{string value=\"...\"}}{{delay frames=\"40\"}} {{anim id=\"BigSmile\" target=\"actor\" targetSpec=\"\"}}Arigato! {{delay8}}Grazie! {{delay8}}Dank je wel!{{pageBreak}}{{anim id=\"Love\" target=\"actor\" targetSpec=\"\"}}Mijn woonruimte is een toonbeeld van sublieme {{string value=\"VillagerName\"}}-stijl, {{string value=\"Catchphrase\"}}!"
  },
  {
    "label": "005",
    "attribute": "0x0000000000000000",
    "text": "{{fun_0014003C arg=\"\"}}"
  },
  {
    "label": "005_01",
    "attribute": "0x0000000000000000",
    "text": "{{anim id=\"Grin\" target=\"actor\" targetSpec=\"\"}}Bedankt voor al je harde werk.{{delay20}} Ik kan\nniet wachten tot ik het resultaat zie\nvan die metamorfose van mijn huis!{{pageBreak}}{{anim id=\"Frantic\" target=\"actor\" targetSpec=\"\"}}Ik tril helemaal{{delay20}} en ik ben draaierig\nvan de spanning! {{delay20}}Dus zet er een\nbeetje vaart achter, wil je?{{delay20}}{{anim id=\"Laughing\" target=\"actor\" targetSpec=\"\"}} HaHA!"
  },
  {
    "label": "005_02",
    "attribute": "0x0000000000000000",
    "text": "{{anim id=\"AbsentMindedness\" target=\"actor\" targetSpec=\"\"}}Ik was zo verrast dat ik geselecteerd\nben voor een huisrenovatie{{string value=\"...\"}}{{pageBreak}}{{anim id=\"Grin\" target=\"actor\" targetSpec=\"\"}}De buitenkant is waar het om draait!\nEen goed uiterlijk is het halve\nwerk!{{pageBreak}}{{anim id=\"Cheering\" target=\"actor\" targetSpec=\"\"}}Ik heb er zin in, {{string value=\"NickName\"}}!{{delay20}} Ik kan niet wachten tot ik het resultaat zie!"
  },
  {
    "label": "006",
    "attribute": "0x0000000000000000",
    "text": "{{fun_0014003C arg=\"\"}}"
  },
  {
    "label": "006_01",
    "attribute": "0x0000000000000000",
    "text": "{{anim id=\"BigSmile\" target=\"actor\" targetSpec=\"\"}}Je hebt het voor elkaar, {{string value=\"NickName\"}}!{{pageBreak}}{{anim id=\"HappyFlower\" target=\"actor\" targetSpec=\"\"}}Mijn huis ziet er vanbuiten in één\nwoord verbluffend uit. {{delay20}}Bravo!{{pageBreak}}{{anim id=\"WrySmile\" target=\"actor\" targetSpec=\"\"}}Je bent hier altijd welkom, dan kan ik\nje aan mijn vrienden voorstellen als\nmijn persoonlijke ontwerper!"
  },
  {
    "label": "006_02",
    "attribute": "0x0000000000000000",
    "text": "{{anim id=\"Shocked\" target=\"actor\" targetSpec=\"\"}}Wauw{{string value=\"...\"}} {{delay frames=\"40\"}}{{anim id=\"BigSmile\" target=\"actor\" targetSpec=\"\"}}mijn huis ziet er van buiten\nmagnifique uit! Je hebt jezelf\novertroffen.{{delay20}} Ik sta pafst!{{pageBreak}}{{anim id=\"SmugFace\" target=\"actor\" targetSpec=\"\"}}Dat is de overtreffende trap van\n\"paf\".{{delay frames=\"40\"}} {{anim id=\"Laughing\" target=\"actor\" targetSpec=\"\"}}HaHA!{{delay20}} Ik bedoel dat ik onder\nde indruk ben, {{string value=\"NickName\"}}.\n{{anim id=\"Explain\" target=\"actor\" targetSpec=\"\"}}Enfin, nu ga ik er natuurlijk\nverschrikkelijk over opscheppen,\ndus bereid je maar voor{{string value=\"...\"}}{{pageBreak}}{{anim id=\"Nodding\" target=\"actor\" targetSpec=\"\"}}Binnen de kortste keren staat\niedereen bij je op de stoep voor ook\nzo'n modelwoning.{{delay frames=\"40\"}} {{anim id=\"Greeting\" target=\"actor\" targetSpec=\"\"}}Nou, ciao, hè!"
  }
]