﻿[
  {
    "label": "001",
    "attribute": "0x0000000000000000",
    "text": "{{anim id=\"Frantic\" target=\"actor\" targetSpec=\"\"}}Ik heb de hele tijd zo'n rare jeuk,\nmaar aan mijn juten designerhemd\nkan het niet liggen, {{string value=\"6\"}}."
  },
  {
    "label": "002",
    "attribute": "0x0000000000000000",
    "text": "{{anim id=\"Frantic\" target=\"actor\" targetSpec=\"\"}}Niet krabben, niet aan denken{{string value=\"...\"}}\nNiet krabben, niet aan denken{{string value=\"...\"}}{{delay20}}\n{{capitalizeNextLetter}}{{string value=\"6\"}}!{{pageBreak}}{{anim id=\"Aha\" target=\"actor\" targetSpec=\"\"}}Hé, kan ik van jou een dwangbuis\nlenen?{{delay frames=\"40\"}} {{anim id=\"Restless\" target=\"actor\" targetSpec=\"\"}}Ik hou mijn handen niet onder\ncontrole, zoveel jeuk heb ik{{string value=\"...\"}}"
  },
  {
    "label": "003",
    "attribute": "0x0000000000000000",
    "text": "{{anim id=\"Worried\" target=\"actor\" targetSpec=\"\"}}Mijn rug kriebelt vandaag als een\ngek en ik heb geen idee waarom,\n{{string value=\"6\"}}!"
  }
]