﻿[
  {
    "label": "001",
    "attribute": "0x0000000000000000",
    "text": "{{anim id=\"Serious\" target=\"actor\" targetSpec=\"\"}}Daar ben je, {{string value=\"Catchphrase\"}}!{{delay40}}{{anim id=\"QuestionMark\" target=\"actor\" targetSpec=\"\"}} Ben je er klaar voor om mijn felbegeerde plan voor een {{color id=\"1\"}}eierkroon {{color id=\"65535\"}}aan te nemen?"
  },
  {
    "label": "002",
    "attribute": "0x0000000000000000",
    "text": "{{anim id=\"Greeting\" target=\"actor\" targetSpec=\"\"}}Yo.{{delay20}} Ik neem aan dat je je zaakjes nu\nop orde hebt?{{pageBreak}}{{anim id=\"SmugFace\" target=\"actor\" targetSpec=\"\"}}Dit doe-het-zelfplan voor een {{color id=\"1\"}}eiertas{{color id=\"65535\"}}\nis bijzonder populair de laatste tijd,\n{{string value=\"Catchphrase\"}}."
  },
  {
    "label": "010",
    "attribute": "0x0000000000000000",
    "text": "{{anim id=\"HappyDance\" target=\"actor\" targetSpec=\"\"}}Finalimisimo!{{delay40}}{{anim id=\"Hesitate\" target=\"actor\" targetSpec=\"\"}} Ik bedoel{{string value=\"...\"}}{{delay40}}{{anim id=\"Blushing\" target=\"actor\" targetSpec=\"\"}} Het was\nheus geen probleem voor mij om er\nnog even mee rond te moeten lopen."
  },
  {
    "label": "011",
    "attribute": "0x0000000000000000",
    "text": "{{anim id=\"Shocked\" target=\"actor\" targetSpec=\"\"}}Wat een plotwending!{{delay20}} Je zakken\nzitten nog steeds vol.{{delay40}}{{anim id=\"EmotEnd\" target=\"actor\" targetSpec=\"\"}} Geen zorgen.{{delay20}}\n{{anim id=\"BigSmile\" target=\"actor\" targetSpec=\"\"}}Ik zal er nog wel even op passen."
  },
  {
    "label": "020",
    "attribute": "0x0000000000000000",
    "text": "{{anim id=\"Eh\" target=\"actor\" targetSpec=\"\"}}Hé,{{delay20}} moet je horen{{string value=\"...\"}} Ik heb de\nhand weten te leggen op{{string value=\"...\"}}{{delay40}}{{anim id=\"HappyDance\" target=\"actor\" targetSpec=\"\"}} een\nplan voor een {{color id=\"1\"}}eierkroon{{color id=\"65535\"}}!{{pageBreak}}{{anim id=\"Scheming\" target=\"actor\" targetSpec=\"\"}}Ben je jaloers?{{delay40}} {{anim id=\"Smiling\" target=\"actor\" targetSpec=\"\"}}Ik wist het, ik heb al\neen oplossing verzonnen! {{delay40}}{{anim id=\"Nodding\" target=\"actor\" targetSpec=\"\"}}Ik heb een\nkopietje gemaakt.{{delay20}} Met handtekening!"
  },
  {
    "label": "021",
    "attribute": "0x0000000000000000",
    "text": "{{anim id=\"SmugFace\" target=\"actor\" targetSpec=\"\"}}Wil je iets bijzonders horen?{{i10_4}}{{anim id=\"HappyFlower\" target=\"actor\" targetSpec=\"\"}} Ik heb\neen doe-het-zelfplan gevonden voor\neen {{color id=\"1\"}}eiertas{{color id=\"65535\"}}!{{pageBreak}}{{anim id=\"Thinking\" target=\"actor\" targetSpec=\"\"}}Alhoewel,{{delay20}} nu ik erover nadenk,{{delay20}}{{anim id=\"Nodding\" target=\"actor\" targetSpec=\"\"}} is het\nhelemaal niet zo bijzonder dat ik met\nmijn talenten dat plan heb gevonden.{{pageBreak}}{{anim id=\"Eh\" target=\"actor\" targetSpec=\"\"}}Nadat ik mezelf een schouderklopje\nhad gegeven, moest ik in mijn\ngoedheid gelijk aan jou denken.{{pageBreak}}{{anim id=\"Smiling\" target=\"actor\" targetSpec=\"\"}}Hier,{{delay20}} deze kopie is voor jou!"
  },
  {
    "label": "100",
    "attribute": "0x0000000000000000",
    "text": "{{anim id=\"Eh\" target=\"actor\" targetSpec=\"\"}}Wacht heel even,{{delay8}} {{string value=\"NickName\"}}.{{delay frames=\"40\"}} {{anim id=\"Explain\" target=\"actor\" targetSpec=\"\"}}Hier ga ik voor staan."
  },
  {
    "label": "101",
    "attribute": "0x0000000000000000",
    "text": "{{anim id=\"Eh\" target=\"actor\" targetSpec=\"\"}}O!{{delay8}} {{capitalizeNextLetter}}{{string value=\"NickName\"}}!{{delay frames=\"40\"}} {{anim id=\"FaintSmile\" target=\"actor\" targetSpec=\"\"}}Un momentino, alsjeblieft{{string value=\"...\"}}"
  },
  {
    "label": "200",
    "attribute": "0x0000000000000000",
    "text": "{{anim id=\"Aha\" target=\"actor\" targetSpec=\"\"}}Ah! {{delay8}}Daar ben je weer! {{delay20}}Dan geef ik je\nnu je {{color id=\"1\"}}{{fun_0000007D arg=\"0x0002\"}}{{color id=\"65535\"}}!"
  },
  {
    "label": "201",
    "attribute": "0x0000000000000000",
    "text": "{{anim id=\"Nodding\" target=\"actor\" targetSpec=\"\"}}Dat is geregeld.{{delay20}} Bedankt dat je terug\nbent gekomen.{{delay20}} Ik ben blij dat ik bij\njou{{anim id=\"Laughing\" target=\"actor\" targetSpec=\"\"}} mijn ei kwijt kon."
  },
  {
    "label": "202",
    "attribute": "0x0000000000000000",
    "text": "{{anim id=\"Worried\" target=\"actor\" targetSpec=\"\"}}Eh{{string value=\"...\"}} Je zakken zitten nog steeds vol.{{delay20}}\n{{anim id=\"OhGeez\" target=\"actor\" targetSpec=\"\"}}Geen zorgen, dat kan de beste\noverkomen, {{string value=\"Catchphrase\"}}.{{pageBreak}}{{anim id=\"Hello\" target=\"actor\" targetSpec=\"\"}}Ik pas nog wel even op die eitjes\ntot je minder zwaarbeladen bent!"
  }
]