﻿[
  {
    "label": "001",
    "attribute": "0x0000000000000000",
    "text": "{{anim id=\"Greeting\" target=\"actor\" targetSpec=\"\"}}어!{{delay8}} {{string value=\"NickName\"}}!{{delay frames=\"40\"}}\n보다시피 난 지금{{delay8}}\n이삿짐을 싸느라 정신이 없어{{pageBreak}}내가 떠나고 나면{{delay8}}\n{{anim id=\"FaintSmile\" target=\"actor\" targetSpec=\"\"}}니가 {{string value=\"33\"}}{{gender5 m=\"을\" f=\"를\"}}\n잘 지켜봐줘야 된다! {{string value=\"6\"}}!"
  },
  {
    "label": "002",
    "attribute": "0x0000000000000000",
    "text": "{{anim id=\"Greeting\" target=\"actor\" targetSpec=\"\"}}엇! {{delay8}}{{string value=\"NickName\"}}!{{delay frames=\"40\"}}\n{{anim id=\"Pardon\" target=\"actor\" targetSpec=\"\"}}짐 싸는 거 도와주려고?{{i10_4}}\n{{anim id=\"Smiling\" target=\"actor\" targetSpec=\"\"}}농담이야! {{delay8}}{{anim id=\"Laughing\" target=\"actor\" targetSpec=\"\"}}으－하하핫!\n{{anim id=\"ShyBoy\" target=\"actor\" targetSpec=\"\"}}그동안 너한테 여러모로 신세 많이 졌다!{{delay frames=\"40\"}}\n서로 다른 {{string value=\"32\"}}에 산다고{{delay8}}\n{{anim id=\"Hello\" target=\"actor\" targetSpec=\"\"}}나를 잊어버리면 안 된다! {{string value=\"6\"}}!"
  },
  {
    "label": "003",
    "attribute": "0x0000000000000000",
    "text": "{{anim id=\"Smiling\" target=\"actor\" targetSpec=\"\"}}여어!{{delay8}} {{string value=\"NickName\"}}!{{delay20}}\n{{anim id=\"EmotEnd\" target=\"actor\" targetSpec=\"\"}}슬슬 짐을 싸야겠다!{{delay20}}\n내일이 이삿날이거든\n{{anim id=\"BigSmile\" target=\"actor\" targetSpec=\"\"}}니 덕분에{{anim id=\"FaintSmile\" target=\"actor\" targetSpec=\"\"}} 이 {{string value=\"32\"}}에서 사는 동안{{delay8}}\n하루하루가 즐거웠어{{delay20}}\n{{anim id=\"Hello\" target=\"actor\" targetSpec=\"\"}}정말 고맙다! {{string value=\"6\"}}!"
  },
  {
    "label": "004",
    "attribute": "0x0000000000000000",
    "text": "{{anim id=\"Aha\" target=\"actor\" targetSpec=\"\"}}앗!{{delay8}} {{string value=\"NickName\"}}!{{delay20}}\n{{anim id=\"EmotEnd\" target=\"actor\" targetSpec=\"\"}}갑작스러운 얘기지만{{string value=\"...\"}}\n나 {{delay8}}내일 이사 가!{{pageBreak}}{{anim id=\"ShyBoy\" target=\"actor\" targetSpec=\"\"}}말할 기회가 없어서 이제야 얘기하네{{string value=\"...\"}}{{delay8}}\n그래서{{delay8}} 지금{{delay8}} 이사 준비 중이야{{pageBreak}}{{anim id=\"WrySmile\" target=\"actor\" targetSpec=\"\"}}니 얼굴도 이제 못 보겠구나{{string value=\"...\"}}{{delay20}}\n{{anim id=\"FaintSmile\" target=\"actor\" targetSpec=\"\"}}지금까지 고마웠다! {{string value=\"6\"}}!"
  },
  {
    "label": "005",
    "attribute": "0x0000000000000000",
    "text": "{{anim id=\"QuestionMark\" target=\"actor\" targetSpec=\"\"}}응? {{delay8}}넌 이 {{string value=\"32\"}} 주민이냐?{{delay frames=\"40\"}}\n{{anim id=\"FaintSmile\" target=\"actor\" targetSpec=\"\"}}난 {{string value=\"VillagerName\"}}{{gender5 m=\"이\" f=\"\"}}라고 한다!{{delay20}}\n잘 부탁해!\n{{anim id=\"WrySmile\" target=\"actor\" targetSpec=\"\"}}뭐, {{delay8}}내가 이 {{string value=\"32\"}} 주민인 건 오늘까지지만!{{pageBreak}}{{anim id=\"Nodding\" target=\"actor\" targetSpec=\"\"}}그래도 얼굴은 보고 가서 다행이다!{{delay20}}\n{{anim id=\"FaintSmile\" target=\"actor\" targetSpec=\"\"}}다른 녀석들이랑 잘 지내봐, {{string value=\"6\"}}"
  },
  {
    "label": "006",
    "attribute": "0x0000010000000000",
    "text": "{{anim id=\"Shocked\" target=\"actor\" targetSpec=\"\"}}엇, {{delay8}}{{string value=\"NickName\"}}!{{delay20}}\n놀러왔냐?{{delay20}}\n{{anim id=\"EmotEnd\" target=\"actor\" targetSpec=\"\"}}마침 너한테 할 얘기가 있어\n{{anim id=\"Hesitate\" target=\"actor\" targetSpec=\"\"}}나, {{delay8}}이 {{string value=\"32\"}}을 떠나{{string value=\"...\"}}{{delay frames=\"40\"}}\n그러니까 너랑 이렇게 얘기하는 것도{{delay8}}\n오늘이 마지막이지\n{{anim id=\"WrySmile\" target=\"actor\" targetSpec=\"\"}}뭐{{string value=\"...\"}}{{delay8}} 아직 이사 갈 곳도\n못 정했지만 말이야{{string value=\"...\"}}{{delay frames=\"40\"}}\n{{anim id=\"ShyBoy\" target=\"actor\" targetSpec=\"\"}}그냥 발길 닿는대로 가보려고 해, {{string value=\"6\"}}"
  },
  {
    "label": "006_01",
    "attribute": "0x0000000000000000",
    "text": "{{anim id=\"Shocked\" target=\"actor\" targetSpec=\"\"}}엇, {{delay8}}{{string value=\"NickName\"}}!{{delay20}}\n놀러왔냐?{{delay20}}\n{{anim id=\"EmotEnd\" target=\"actor\" targetSpec=\"\"}}마침 너한테 할 얘기가 있어\n{{anim id=\"Hesitate\" target=\"actor\" targetSpec=\"\"}}나, {{delay8}}이 {{string value=\"32\"}}을 떠나{{string value=\"...\"}}{{delay frames=\"40\"}}\n{{anim id=\"EmotEnd\" target=\"actor\" targetSpec=\"\"}}그러니까 너랑 이렇게 얘기하는 것도{{delay8}}\n{{anim id=\"WrySmile\" target=\"actor\" targetSpec=\"\"}}오늘이 마지막이지\n{{anim id=\"Laughing\" target=\"actor\" targetSpec=\"\"}}에이, {{delay20}}내가 여기에 없어도{{delay8}}\n다른 녀석들이 있으니까{{delay20}}\n{{anim id=\"FaintSmile\" target=\"actor\" targetSpec=\"\"}}계속 와주면 좋겠어, {{string value=\"6\"}}!"
  },
  {
    "label": "006_a",
    "attribute": "0x0000000000000000",
    "text": "내가 사는 데로 올래?"
  },
  {
    "label": "006_b",
    "attribute": "0x0000000000000000",
    "text": "힘내!"
  },
  {
    "label": "007",
    "attribute": "0x0000000000000000",
    "text": "{{anim id=\"Eh\" target=\"actor\" targetSpec=\"\"}}응? {{delay8}}우리 처음 만나는 거 맞지?{{delay frames=\"40\"}}\n{{anim id=\"FaintSmile\" target=\"actor\" targetSpec=\"\"}}난 {{string value=\"VillagerName\"}}{{gender5 m=\"이\" f=\"\"}}라고 한다!{{delay20}}\n잘 부탁해!\n{{anim id=\"WrySmile\" target=\"actor\" targetSpec=\"\"}}사실 {{delay8}}난 내일 이 {{string value=\"32\"}}을 떠나{{pageBreak}}{{anim id=\"Nodding\" target=\"actor\" targetSpec=\"\"}}그래도 마지막 인사는 해서 다행이다{{delay20}}\n{{anim id=\"FaintSmile\" target=\"actor\" targetSpec=\"\"}}다른 녀석들이랑 잘 지내라, {{string value=\"6\"}}!"
  },
  {
    "label": "007_01",
    "attribute": "0x0000000000000000",
    "text": "{{anim id=\"Eh\" target=\"actor\" targetSpec=\"\"}}응? {{delay8}}우리 처음 만나는 거 맞지?{{delay frames=\"40\"}}\n{{anim id=\"FaintSmile\" target=\"actor\" targetSpec=\"\"}}난 {{string value=\"VillagerName\"}}{{gender5 m=\"이\" f=\"\"}}라고 한다!{{delay20}}\n잘 부탁해!{{pageBreak}}{{anim id=\"ShyBoy\" target=\"actor\" targetSpec=\"\"}}근데 {{delay20}}내 소개를 하긴 했지만{{delay20}}\n사실 난 내일 이곳을 떠날 거다!{{pageBreak}}{{anim id=\"Explain\" target=\"actor\" targetSpec=\"\"}}갈 곳도 이미 정해져 있어{{delay20}}\n너랑 연이 있다면 언젠가는 다시 만나겠지!{{delay frames=\"40\"}}\n{{anim id=\"BigSmile\" target=\"actor\" targetSpec=\"\"}}그때까지 건강해라! {{string value=\"6\"}}!{{delay8}}{{anim id=\"FaintSmile\" target=\"actor\" targetSpec=\"\"}}"
  },
  {
    "label": "008",
    "attribute": "0x0000000000000000",
    "text": "{{anim id=\"BigSmile\" target=\"actor\" targetSpec=\"\"}}고맙다!{{delay20}}{{anim id=\"FaintSmile\" target=\"actor\" targetSpec=\"\"}}\n이렇게 되는대로 흘러가는 인생{{delay8}}\n즐기면서 살아야지!{{pageBreak}}{{anim id=\"Nodding\" target=\"actor\" targetSpec=\"\"}}뭐 어쨌든{{delay20}}\n{{string value=\"32\"}}을 떠나기 전에\n{{anim id=\"FaintSmile\" target=\"actor\" targetSpec=\"\"}}이렇게 너랑 얘기 나눠서 다행이다\n나는 떠나지만{{delay20}}\n앞으로도 {{string value=\"33\"}}에\n{{anim id=\"Hello\" target=\"actor\" targetSpec=\"\"}}자주 놀러오라고! {{string value=\"6\"}}!"
  },
  {
    "label": "101",
    "attribute": "0x0000000000000000",
    "text": "내 새로운 터전은{{delay8}}\n{{anim id=\"BigSmile\" target=\"actor\" targetSpec=\"\"}}{{selection value=\"5\"}}{{gender6 m=\"으로\" f=\"로\"}} 정했어!{{anim id=\"FaintSmile\" target=\"actor\" targetSpec=\"\"}}{{delay frames=\"40\"}}\n어때,{{delay8}} {{string value=\"32\"}} 이름 끝내주지?\n{{anim id=\"FaintSmile\" target=\"actor\" targetSpec=\"\"}}{{string value=\"NickName\"}}!{{delay20}}\n너도 시간 날 때 놀러오라고!{{delay frames=\"40\"}}\n{{anim id=\"Greeting\" target=\"actor\" targetSpec=\"\"}}기다리고 있을게, {{string value=\"6\"}}!"
  },
  {
    "label": "102",
    "attribute": "0x0000000000000000",
    "text": "{{anim id=\"Nodding\" target=\"actor\" targetSpec=\"\"}}흐음{{string value=\"...\"}}{{delay8}}\n어디로 갈지는 짐 싸면서\n{{anim id=\"FaintSmile\" target=\"actor\" targetSpec=\"\"}}대충 생각해봐야지\n나중에 어딘가에서 다시 만나면\n편하게 말 걸어줘!{{delay20}}\n{{anim id=\"Greeting\" target=\"actor\" targetSpec=\"\"}}{{string value=\"NickName\"}}, 잘 있어라!{{delay20}} {{string value=\"6\"}}!"
  },
  {
    "label": "103",
    "attribute": "0x0000000000000000",
    "text": "{{anim id=\"FaintSmile\" target=\"actor\" targetSpec=\"\"}}니가 이웃이면{{delay8}} 심심하진 않겠어{{delay20}}\n{{anim id=\"Grin\" target=\"actor\" targetSpec=\"\"}}옛날처럼 또{{delay8}} 밤새도록\n시답잖은 얘기 나눠보자고! {{string value=\"6\"}}!"
  },
  {
    "label": "104",
    "attribute": "0x0000000000000000",
    "text": "{{anim id=\"FaintSmile\" target=\"actor\" targetSpec=\"\"}}다음엔{{delay8}} {{string value=\"34\"}}에서\n만날 생각을 하니 기대되는구만!{{pageBreak}}{{anim id=\"Silent\" target=\"actor\" targetSpec=\"\"}}모르는 거 있으면 너한테 물어볼게!{{delay20}}\n{{anim id=\"Greeting\" target=\"actor\" targetSpec=\"\"}}잘 부탁한다, {{delay8}}선배님!{{delay20}}\n{{anim id=\"Laughing\" target=\"actor\" targetSpec=\"\"}}으－하하핫!{{delay frames=\"40\"}}{{anim id=\"FaintSmile\" target=\"actor\" targetSpec=\"\"}}"
  },
  {
    "label": "105",
    "attribute": "0x0000000000000000",
    "text": "{{anim id=\"QuestionMark\" target=\"actor\" targetSpec=\"\"}}너{{delay8}} {{selection value=\"SelectedIslandName\"}}{{gender5 m=\"이\" f=\"\"}}라고 아냐?{{i10_4}}\n{{anim id=\"Smiling\" target=\"actor\" targetSpec=\"\"}}나 거기로 이사 간다!{{pageBreak}}{{anim id=\"HappyDance\" target=\"actor\" targetSpec=\"\"}}어떤 삶이 날 기다리고 있을지{{delay8}}\n기대되는구만! {{string value=\"6\"}}!"
  },
  {
    "label": "106",
    "attribute": "0x0000000000000000",
    "text": "{{anim id=\"Nodding\" target=\"actor\" targetSpec=\"\"}}새로운 {{string value=\"32\"}}에서 만날{{delay8}}\n녀석들도 다 소중한 인연이니까{{delay8}}\n두루두루 친하게 지낼 생각이야\n{{anim id=\"Smiling\" target=\"actor\" targetSpec=\"\"}}걱정 마! 이 {{string value=\"32\"}}에서 만난{{delay8}}\n너도 평생 안 잊을 거니까!{{i10_4}}\n{{anim id=\"EmotEnd\" target=\"actor\" targetSpec=\"\"}}{{string value=\"...\"}}아마도! {{delay8}}{{anim id=\"Laughing\" target=\"actor\" targetSpec=\"\"}}으－하하핫!{{delay frames=\"40\"}}{{anim id=\"Smiling\" target=\"actor\" targetSpec=\"\"}}"
  },
  {
    "label": "107",
    "attribute": "0x0000000000000000",
    "text": "{{anim id=\"Sighing\" target=\"actor\" targetSpec=\"\"}}휴{{string value=\"...\"}}{{delay8}}\n짐 싸고 대청소하다 보면{{delay8}}\n하루가 통째로 날아가버린다니까\n{{anim id=\"OhGeez\" target=\"actor\" targetSpec=\"\"}}근데{{delay8}} 짐 싸다가 만화가 나오면\n나도 모르게 읽게 된단 말이지{{delay20}}\n{{anim id=\"Worried\" target=\"actor\" targetSpec=\"\"}}그러다 보니 정리가 끝나질 않아, {{string value=\"6\"}}"
  },
  {
    "label": "108",
    "attribute": "0x0000000000000000",
    "text": "{{anim id=\"SmugFace\" target=\"actor\" targetSpec=\"\"}}나는 새 터전에서도{{delay8}}\n꾸준히 내 스타일을 밀고 나가겠어!{{pageBreak}}{{anim id=\"EmotEnd\" target=\"actor\" targetSpec=\"\"}}예를 들면{{string value=\"...\"}} 가게에서 물수건을 받으면{{delay20}}\n{{anim id=\"Explain\" target=\"actor\" targetSpec=\"\"}}얼굴이랑 목도 싹싹 닦을 거라고!{{delay frames=\"40\"}}\n{{anim id=\"Silent\" target=\"actor\" targetSpec=\"\"}}이것만은 포기할 수 없어, {{string value=\"6\"}}"
  },
  {
    "label": "200",
    "attribute": "0x0000010000000000",
    "text": "{{anim id=\"Thinking\" target=\"actor\" targetSpec=\"\"}}흐음{{string value=\"...\"}}{{delay8}}\n나가기론 확실히 결정했는데{{delay8}}\n어디로 갈지가 문제로군{{string value=\"...\"}}\n{{anim id=\"OhGeez\" target=\"actor\" targetSpec=\"\"}}너무 소란스러운 것도 싫지만{{delay8}}\n그렇다고 따분한 {{string value=\"32\"}}도 싫단 말이지{{pageBreak}}{{anim id=\"EmotEnd\" target=\"actor\" targetSpec=\"\"}}너 혹시{{delay8}}\n어디 괜찮은 {{string value=\"32\"}} 알면{{delay8}}\n{{anim id=\"QuestionMark\" target=\"actor\" targetSpec=\"\"}}살짝 좀 알려줄 수 있냐? {{string value=\"6\"}}?"
  },
  {
    "label": "200_a",
    "attribute": "0x0000000000000000",
    "text": "우리 {{string value=\"32\"}} 어때?!"
  },
  {
    "label": "200_b",
    "attribute": "0x0000000000000000",
    "text": "모르겠어"
  },
  {
    "label": "201",
    "attribute": "0x0000000000000000",
    "text": "{{anim id=\"Shocked\" target=\"actor\" targetSpec=\"\"}}뭐, {{delay8}}또?!{{i10_4}}\n{{anim id=\"Thinking\" target=\"actor\" targetSpec=\"\"}}그래, 그것도 좋겠다!{{delay frames=\"60\"}}\n{{anim id=\"Nodding\" target=\"actor\" targetSpec=\"\"}}너네 {{string value=\"32\"}} 살기 좋았으니까{{pageBreak}}{{anim id=\"BigSmile\" target=\"actor\" targetSpec=\"\"}}좋～았어! {{delay8}}그럼 얼른{{delay20}}\n{{anim id=\"FaintSmile\" target=\"actor\" targetSpec=\"\"}}{{string value=\"34\"}} {{color id=\"1\"}}안내소{{color id=\"65535\"}}에{{delay8}}\n연락해봐야겠다! {{string value=\"6\"}}!"
  },
  {
    "label": "202",
    "attribute": "0x0000000000000000",
    "text": "{{anim id=\"Shocked\" target=\"actor\" targetSpec=\"\"}}엇, {{delay8}}너네 {{string value=\"32\"}}?!{{delay frames=\"40\"}}\n{{anim id=\"Thinking\" target=\"actor\" targetSpec=\"\"}}{{string value=\"...\"}}하긴 {{delay8}}그것도 좋은 생각이다{{pageBreak}}{{anim id=\"BigSmile\" target=\"actor\" targetSpec=\"\"}}좋아! {{delay20}}결심했다!{{delay20}}\n{{anim id=\"FaintSmile\" target=\"actor\" targetSpec=\"\"}}내 새로운 터전은{{delay8}}\n{{string value=\"34\"}}{{gender6 m=\"으로\" f=\"로\"}} 정했어!{{pageBreak}}{{anim id=\"HappyDance\" target=\"actor\" targetSpec=\"\"}}쇠뿔도 단김에 빼랬다고{{delay frames=\"40\"}}\n얼른 너네 {{color id=\"1\"}}안내소{{color id=\"65535\"}}에{{delay8}}\n연락해봐야겠다! {{string value=\"6\"}}!"
  },
  {
    "label": "203",
    "attribute": "0x0000000000000000",
    "text": "뭐! {{delay20}}{{anim id=\"Nodding\" target=\"actor\" targetSpec=\"\"}}방랑자처럼{{delay8}}\n여러 {{string value=\"32\"}}을 여행하는 것도 괜찮겠지!{{pageBreak}}{{anim id=\"FaintSmile\" target=\"actor\" targetSpec=\"\"}}{{string value=\"33\"}}처럼\n살기 좋은 {{string value=\"32\"}}을 만날 때까지{{delay20}}\n{{anim id=\"Greeting\" target=\"actor\" targetSpec=\"\"}}느긋하게 찾아봐야겠어, {{string value=\"6\"}}"
  },
  {
    "label": "204",
    "attribute": "0x0000000000000000",
    "text": "{{anim id=\"FaintSmile\" target=\"actor\" targetSpec=\"\"}}많이 기다렸지!{{delay frames=\"40\"}}\n{{anim id=\"EmotEnd\" target=\"actor\" targetSpec=\"\"}}{{string value=\"NickName\"}} 너네\n{{color id=\"1\"}}안내소{{color id=\"65535\"}}에 연락해봤는데{{string value=\"...\"}}\n{{anim id=\"BigSmile\" target=\"actor\" targetSpec=\"\"}}이사 와도 된다고{{delay8}} 그러더라!{{anim id=\"FaintSmile\" target=\"actor\" targetSpec=\"\"}}{{delay20}}\n헤헷{{delay8}} 이제 나도\n{{string value=\"34\"}} 주민이다!\n{{anim id=\"EmotEnd\" target=\"actor\" targetSpec=\"\"}}앞으로 많이 신세를 지게 될 텐데{{delay8}}\n{{anim id=\"Hello\" target=\"actor\" targetSpec=\"\"}}잘 부탁한다, {{string value=\"6\"}}!"
  },
  {
    "label": "208",
    "attribute": "0x0000000000000000",
    "text": "{{anim id=\"FaintSmile\" target=\"actor\" targetSpec=\"\"}}많이 기다렸지!{{delay frames=\"40\"}}\n{{anim id=\"EmotEnd\" target=\"actor\" targetSpec=\"\"}}{{string value=\"NickName\"}} 너네 쪽\n{{color id=\"1\"}}안내소{{color id=\"65535\"}}에 연락해봤는데{{string value=\"...\"}}\n{{anim id=\"Worried\" target=\"actor\" targetSpec=\"\"}}지금 {{delay8}}너네 {{string value=\"32\"}}엔 주민이 많아서{{delay20}}\n{{anim id=\"Negative\" target=\"actor\" targetSpec=\"\"}}새 주민을 받아들일 여유가 없다네{{pageBreak}}{{anim id=\"Sighing\" target=\"actor\" targetSpec=\"\"}}그런 이유라면 어쩔 수 없지{{string value=\"...\"}}{{delay8}}\n아쉽지만 이번엔 포기하려고, {{string value=\"6\"}}"
  },
  {
    "label": "209",
    "attribute": "0x0000000000000000",
    "text": "{{anim id=\"FaintSmile\" target=\"actor\" targetSpec=\"\"}}많이 기다렸지!{{delay frames=\"40\"}}\n{{anim id=\"EmotEnd\" target=\"actor\" targetSpec=\"\"}}{{string value=\"NickName\"}} 너네\n{{color id=\"1\"}}안내소{{color id=\"65535\"}}에 연락해봤는데{{string value=\"...\"}}\n{{anim id=\"Confused\" target=\"actor\" targetSpec=\"\"}}지금{{delay8}} 너네 {{string value=\"32\"}}엔\n내가 살 집을 지을 만한{{delay8}}\n공간이 없다는 모양이야\n{{anim id=\"Sighing\" target=\"actor\" targetSpec=\"\"}}그런 이유라면 어쩔 수 없지{{string value=\"...\"}}{{delay8}}\n아쉽지만 이번엔 포기하려고, {{string value=\"6\"}}"
  },
  {
    "label": "213",
    "attribute": "0x0000000000000000",
    "text": "{{anim id=\"WrySmile\" target=\"actor\" targetSpec=\"\"}}새 입주민을 제한할 정도라니{{delay20}}\n너네 {{string value=\"32\"}} 대체 어떻게 된 거야?!{{i10_4}}\n{{anim id=\"Nodding\" target=\"actor\" targetSpec=\"\"}}어지간히 인기가 많은가 봐\n그런 {{string value=\"32\"}}에 못 가게 돼서 아쉽지만{{delay8}}\n{{anim id=\"FaintSmile\" target=\"actor\" targetSpec=\"\"}}초대받아서{{delay8}} 기뻤어!{{delay20}} 다른 데서 만나면\n인사나 주고받자, {{string value=\"6\"}}!"
  },
  {
    "label": "214",
    "attribute": "0x0000000000000000",
    "text": "그건 그렇고{{delay8}}\n집을 지을 자리가 없을 정도로{{delay8}}\n{{anim id=\"QuestionMark\" target=\"actor\" targetSpec=\"\"}}너네 {{string value=\"32\"}}은 {{delay8}}북적북적한가 봐?\n{{anim id=\"EmotEnd\" target=\"actor\" targetSpec=\"\"}}그런 {{string value=\"32\"}}에 못 가게 돼서 좀 아쉽지만{{delay8}}\n{{anim id=\"FaintSmile\" target=\"actor\" targetSpec=\"\"}}초대받아서{{delay8}} 기뻤어!{{delay20}} 다른 데서 만나면\n인사나 주고받자, {{string value=\"6\"}}!"
  },
  {
    "label": "300",
    "attribute": "0x0000010000000000",
    "text": "{{anim id=\"Thinking\" target=\"actor\" targetSpec=\"\"}}{{string value=\"...\"}}아니, {{delay20}}근데{{delay8}} 잠깐!{{delay20}}\n마지막으로 한 번만 더 물어볼까?{{delay frames=\"40\"}}\n{{anim id=\"EmotEnd\" target=\"actor\" targetSpec=\"\"}}어쩌면 이번엔 될지도 몰라! {{string value=\"6\"}}!"
  },
  {
    "label": "300_a",
    "attribute": "0x0000000000000000",
    "text": "맞아, 맞아!"
  },
  {
    "label": "300_b",
    "attribute": "0x0000000000000000",
    "text": "글쎄…?"
  },
  {
    "label": "301",
    "attribute": "0x0000000000000000",
    "text": "{{anim id=\"ShyBoy\" target=\"actor\" targetSpec=\"\"}}흐음{{string value=\"...\"}}{{delay8}} 아무래도 힘들려나?{{delay20}}{{pageBreak}}{{anim id=\"EmotEnd\" target=\"actor\" targetSpec=\"\"}}실낱같은 희망을 한번 믿어볼까 했는데{{delay20}}\n그렇게 쉽게 풀릴 일이었으면{{delay20}}\n{{anim id=\"WrySmile\" target=\"actor\" targetSpec=\"\"}}진작에 해결됐겠지, {{string value=\"6\"}}?"
  }
]