﻿[
  {
    "label": "002",
    "attribute": "0x00000000",
    "text": "{{anim id=\"Laughing\" target=\"actor\" targetSpec=\"\"}}Каждый должен заниматься своим\nделом, так что я тебе мешать не\nбуду!"
  },
  {
    "label": "003",
    "attribute": "0x01000000",
    "text": "{{anim id=\"Aha\" target=\"actor\" targetSpec=\"\"}}А, мне нужно что-то выбрать?{{delay20}}\nХм{{string value=\"...\"}}{{delay20}} {{anim id=\"QuestionMark\" target=\"actor\" targetSpec=\"\"}}А ты как думаешь?"
  },
  {
    "label": "003_01",
    "attribute": "0x00000000",
    "text": "{{anim id=\"Laughing\" target=\"actor\" targetSpec=\"\"}}Привет-привет! Ты наверняка {{string value=\"PlayerName\"}}."
  },
  {
    "label": "003_03",
    "attribute": "0x00000000",
    "text": "{{anim id=\"Nodding\" target=\"actor\" targetSpec=\"\"}}Ага, ясно! На фотографии выглядит\nклассно."
  },
  {
    "label": "003_04",
    "attribute": "0x00000000",
    "text": "{{anim id=\"Smiling\" target=\"actor\" targetSpec=\"\"}}Оставляю все решения тебе."
  },
  {
    "label": "003_a",
    "attribute": "0x00000000",
    "text": "Пусть будет 1 этаж."
  },
  {
    "label": "003_b",
    "attribute": "0x00000000",
    "text": "Пусть будут 2 этажа."
  },
  {
    "label": "004",
    "attribute": "0x00000000",
    "text": "{{anim id=\"Nodding\" target=\"actor\" targetSpec=\"\"}}Угу, согласен.{{delay20}} {{anim id=\"FaintSmile\" target=\"actor\" targetSpec=\"\"}}Одного этажа хватит."
  },
  {
    "label": "005",
    "attribute": "0x00000000",
    "text": "{{anim id=\"Nodding\" target=\"actor\" targetSpec=\"\"}}Угу, согласен.{{delay20}} {{anim id=\"FaintSmile\" target=\"actor\" targetSpec=\"\"}}Два этажа лучше."
  }
]