﻿[
  {
    "label": "001",
    "attribute": "0x0000000000000000",
    "text": "{{i20_2 arg=\"10\"}}{{anim id=\"HappyDance\" target=\"actor\" targetSpec=\"\"}}¡Ah, mi {{fun_0000007D arg=\"0x0000\"}} {{i20_2 arg=\"9\"}}ha absorbido litros y litros de mi sudor!{{pageBreak}}{{i20_3 arg=\"6\"}}{{i20_3 arg=\"3\"}}{{anim id=\"Love\" target=\"actor\" targetSpec=\"\"}}Hace que el cuarto huela a gimnasio\nque alimenta{{string value=\"...\"}}{{pageBreak}}{{anim id=\"Smiling\" target=\"actor\" targetSpec=\"\"}}¡Y así duermo como un tonificado\ny musculado bebé, {{string value=\"Catchphrase\"}}!"
  },
  {
    "label": "002",
    "attribute": "0x0000000000000000",
    "text": "{{i20_2 arg=\"10\"}}{{i20_2 arg=\"9\"}}{{anim id=\"Nodding\" target=\"actor\" targetSpec=\"\"}}A mí lo que más me gusta ver en la\ntele son los deportes,{{delay8}} {{anim id=\"Smiling\" target=\"actor\" targetSpec=\"\"}}¡sobre todo las\nretransmisiones de {{randomSports}}!\n{{i20_3 arg=\"6\"}}{{i20_3 arg=\"3\"}}{{anim id=\"WrySmile\" target=\"actor\" targetSpec=\"\"}}¡A veces me pongo a animar con\ntanto ahínco que acabo con unas\nagujetas de campeonato!"
  },
  {
    "label": "003",
    "attribute": "0x0000000000000000",
    "text": "{{i20_2 arg=\"10\"}}{{i20_2 arg=\"9\"}}{{anim id=\"Smiling\" target=\"actor\" targetSpec=\"\"}}Escuchar música con mi {{fun_0000007D arg=\"0x0000\"}} mientras entreno es lo más.{{pageBreak}}{{i20_3 arg=\"6\"}}{{i20_3 arg=\"3\"}}{{anim id=\"Laughing\" target=\"actor\" targetSpec=\"\"}}¡Una vez que empezamos,{{delay8}} ni yo\nni mis músculos podemos parar!"
  },
  {
    "label": "004",
    "attribute": "0x0000000000000000",
    "text": "{{i20_2 arg=\"10\"}}{{i20_2 arg=\"9\"}}{{anim id=\"AbsentMindedness\" target=\"actor\" targetSpec=\"\"}}Ah, mi {{fun_0000007D arg=\"0x0000\"}},{{delay8}} fiel compañer{{gender8 m=\"o\" f=\"a\" n=\"\"}} que cuenta mis horas de entreno{{string value=\"...\"}}{{pageBreak}}{{i20_3 arg=\"6\"}}{{i20_3 arg=\"3\"}}{{anim id=\"Nodding\" target=\"actor\" targetSpec=\"\"}}Como comprenderás,{{delay8}} hay que estar\nsiempre muy pendiente del tiempo,\n{{gender2 m=\"tigre\" f=\"leona\"}}.\n{{anim id=\"SmugFace\" target=\"actor\" targetSpec=\"\"}}¡Para entrenar como toca,{{delay8}} no puedes\nperder ni un segundo, {{string value=\"6\"}}!"
  },
  {
    "label": "005",
    "attribute": "0x0000000000000000",
    "text": "{{i20_2 arg=\"10\"}}{{i20_2 arg=\"9\"}}{{anim id=\"FaintSmile\" target=\"actor\" targetSpec=\"\"}}Las plantas crecen superrápido,{{delay8}} pero, por más que las miro fijamente,\nno hay forma de ver cómo lo hacen{{string value=\"...\"}}\n{{i20_3 arg=\"6\"}}{{i20_3 arg=\"3\"}}{{anim id=\"Shocked\" target=\"actor\" targetSpec=\"\"}}¿Será que solo crecen cuando estoy\ndurmiendo para que no descubra\nsu secreto?\n{{anim id=\"ColdChill\" target=\"actor\" targetSpec=\"\"}}Huy, qué mal rollo{{string value=\"...\"}}"
  },
  {
    "label": "006",
    "attribute": "0x0000000000000000",
    "text": "{{i20_2 arg=\"10\"}}{{i20_2 arg=\"9\"}}{{anim id=\"Serious\" target=\"actor\" targetSpec=\"\"}}Mi {{fun_0000007D arg=\"0x0000\"}} es de vital importancia para mi entreno,{{delay8}} ¿sabes, deportista?{{pageBreak}}{{anim id=\"AbsentMindedness\" target=\"actor\" targetSpec=\"\"}}{{i20_3 arg=\"3\"}}{{anim id=\"AbsentMindedness\" target=\"actor\" targetSpec=\"\"}}Primero hago mi ración de\nacuabdominales y sentadillas\ndiaria{{string value=\"...\"}}\n{{anim id=\"Laughing\" target=\"actor\" targetSpec=\"\"}}¡Y después no hay nada mejor que\ntomar un baño calentito para relajar\nlos músculos, {{string value=\"6\"}}!"
  },
  {
    "label": "008",
    "attribute": "0x0000000000000000",
    "text": "{{i20_2 arg=\"10\"}}{{i20_2 arg=\"9\"}}{{anim id=\"Explain\" target=\"actor\" targetSpec=\"\"}}Cuando no entreno,{{delay8}} me gusta\nsentarme un rato a mi {{fun_0000007D arg=\"0x0000\"}} y leer{{string value=\"...\"}}{{pageBreak}}{{i20_3 arg=\"6\"}}{{i20_3 arg=\"3\"}}{{anim id=\"ShyBoy\" target=\"actor\" targetSpec=\"\"}}Como ves,{{delay8}} no está muy usad{{gender8 m=\"o\" f=\"a\" n=\"\"}}, {{string value=\"6\"}}."
  },
  {
    "label": "009",
    "attribute": "0x0000000000000000",
    "text": "{{i20_2 arg=\"10\"}}{{i20_2 arg=\"9\"}}{{anim id=\"Smiling\" target=\"actor\" targetSpec=\"\"}}¡Bien!{{delay20}} Veo que has encontrado mi\nlugar favorito para hacer pesas,{{delay8}}\n{{string value=\"Catchphrase\"}}.{{pageBreak}}{{i20_3 arg=\"6\"}}{{i20_3 arg=\"3\"}}{{anim id=\"AbsentMindedness\" target=\"actor\" targetSpec=\"\"}}He ganado tanta masa muscular con\nmi {{fun_0000007D arg=\"0x0000\"}}{{string value=\"...\"}}{{pageBreak}}¡que me siento más fuerte solo con {{gender8 m=\"mencionarlo\" f=\"mencionarla\" n=\"\"}}!"
  },
  {
    "label": "010",
    "attribute": "0x0000000000000000",
    "text": "{{i20_2 arg=\"10\"}}{{i20_2 arg=\"9\"}}{{anim id=\"ShyBoy\" target=\"actor\" targetSpec=\"\"}}Mi {{fun_0000007D arg=\"0x0000\"}} me sirve para fortalecer mi imagen.{{pageBreak}}{{i20_3 arg=\"6\"}}{{i20_3 arg=\"3\"}}{{anim id=\"AbsentMindedness\" target=\"actor\" targetSpec=\"\"}}Imagínate el espectáculo de verme\ncon esto sobre el escenario mientras\nmis fans disfrutan de mis músculos.\n{{anim id=\"Hesitate\" target=\"actor\" targetSpec=\"\"}}Aunque a lo mejor me cuesta\nun poco aprender a tocarl{{gender8 m=\"o\" f=\"a\" n=\"\"}}{{string value=\"...\"}}"
  },
  {
    "label": "011",
    "attribute": "0x0000000000000000",
    "text": "{{i20_2 arg=\"10\"}}{{i20_2 arg=\"9\"}}{{anim id=\"Smiling\" target=\"actor\" targetSpec=\"\"}}¿Qué?{{delay8}} ¿Echándole un vistazo\na mi {{fun_0000007D arg=\"0x0000\"}}?{{pageBreak}}{{i20_3 arg=\"6\"}}{{i20_3 arg=\"3\"}}{{anim id=\"Explain\" target=\"actor\" targetSpec=\"\"}}El entreno no solo consiste en\nlevantar mancuernas;{{delay8}} {{anim id=\"SmugFace\" target=\"actor\" targetSpec=\"\"}}¡también es\ncrucial alimentarse como toca!{{pageBreak}}{{anim id=\"Thinking\" target=\"actor\" targetSpec=\"\"}}En temas de cocina,{{delay8}} sé usar {{fun_00010032 arg=\"\"}}\n{{fun_0000007D arg=\"0x0000\"}} y{{string value=\"...\"}}{{anim id=\"Blushing\" target=\"actor\" targetSpec=\"\"}}{{delay8}} hervir agua,{{delay8}} de momento."
  },
  {
    "label": "012",
    "attribute": "0x0000000000000000",
    "text": "{{i20_3 arg=\"6\"}}{{i20_3 arg=\"3\"}}{{anim id=\"Thinking\" target=\"actor\" targetSpec=\"\"}}Hay gente que necesita tener en casa\nuna silla,{{delay8}} una mesa,{{delay8}} una cama y un\nmueble para la ropa{{string value=\"...\"}}\n{{anim id=\"OhGeez\" target=\"actor\" targetSpec=\"\"}}Si me preguntas a mí,{{delay8}} {{i20_2 arg=\"10\"}}{{i20_2 arg=\"9\"}}te diré que\n{{wordArticle}}{{fun_0000007D arg=\"0x0000\"}}{{anim id=\"SmugFace\" target=\"actor\" targetSpec=\"\"}}{{delay8}} es fundamental, {{string value=\"6\"}}."
  },
  {
    "label": "016",
    "attribute": "0x0000000000000000",
    "text": "{{i20_2 arg=\"10\"}}{{i20_2 arg=\"9\"}}{{anim id=\"Worried\" target=\"actor\" targetSpec=\"\"}}¡Anda,{{delay8}} diría que has encontrado\nmi {{fun_0000007D arg=\"0x0000\"}}!{{pageBreak}}{{i20_3 arg=\"6\"}}{{i20_3 arg=\"3\"}}{{anim id=\"Nodding\" target=\"actor\" targetSpec=\"\"}}A veces me gusta sentirme en\ncontacto con la naturaleza{{string value=\"...\"}}{{delay8}}\n{{anim id=\"Laughing\" target=\"actor\" targetSpec=\"\"}}¡incluso dentro de casa!"
  },
  {
    "label": "017",
    "attribute": "0x0000000000000000",
    "text": "{{i20_2 arg=\"10\"}}{{i20_2 arg=\"9\"}}{{anim id=\"Restless\" target=\"actor\" targetSpec=\"\"}}Ah,{{delay8}} parece que te gusta\nmi {{fun_0000007D arg=\"0x0000\"}}{{string value=\"...\"}}{{pageBreak}}{{i20_3 arg=\"6\"}}{{i20_3 arg=\"3\"}}{{anim id=\"OhGeez\" target=\"actor\" targetSpec=\"\"}}Tengo una pesadilla recurrente\nen la que mis músculos se vuelven\nflácidos.{{pageBreak}}{{anim id=\"FaintSmile\" target=\"actor\" targetSpec=\"\"}}Con esta luz puedo comprobar\nel perfecto estado de mis músculos\ny volver a dormirme tan feliz."
  },
  {
    "label": "018",
    "attribute": "0x0000000000000000",
    "text": "{{i20_2 arg=\"10\"}}{{i20_2 arg=\"9\"}}{{anim id=\"Blushing\" target=\"actor\" targetSpec=\"\"}}Vale,{{delay8}} te voy a confesar una cosa,{{delay8}} {{string value=\"Catchphrase\"}}.{{delay20}} Pero que quede entre tú y yo{{string value=\"...\"}}{{pageBreak}}{{i20_3 arg=\"6\"}}{{i20_3 arg=\"3\"}}{{anim id=\"SmugFace\" target=\"actor\" targetSpec=\"\"}}Ensayo poses de culturismo delante\nde mi {{fun_0000007D arg=\"0x0000\"}}."
  },
  {
    "label": "019",
    "attribute": "0x0000000000000000",
    "text": "{{i20_2 arg=\"10\"}}{{i20_2 arg=\"9\"}}{{anim id=\"Eh\" target=\"actor\" targetSpec=\"\"}}Esto{{string value=\"...\"}}{{delay20}} No deberías abrir\nmi {{fun_0000007D arg=\"0x0000\"}}{{string value=\"...\"}}{{pageBreak}}{{i20_3 arg=\"6\"}}{{i20_3 arg=\"3\"}}{{anim id=\"Blushing\" target=\"actor\" targetSpec=\"\"}}A menos que te guste el olor \na ropa sudada,{{delay8}} {{string value=\"Catchphrase\"}}."
  },
  {
    "label": "020",
    "attribute": "0x0000000000000000",
    "text": "{{i20_2 arg=\"10\"}}{{i20_2 arg=\"9\"}}{{anim id=\"ShyBoy\" target=\"actor\" targetSpec=\"\"}}Cuando me creo el más fuerte del\nmundo,{{delay8}} me curo la soberbia mirando\na mi {{fun_0000007D arg=\"0x0000\"}}.\n{{i20_3 arg=\"6\"}}{{i20_3 arg=\"3\"}}{{anim id=\"Shocked\" target=\"actor\" targetSpec=\"\"}}¡Los bichos sí que están cuadrados!{{pageBreak}}Algunos pueden levantar cosas que\npesan cien veces más que ellos.{{delay20}}\n{{anim id=\"AbsentMindedness\" target=\"actor\" targetSpec=\"\"}}Ya quisiera yo, {{string value=\"6\"}}{{string value=\"...\"}}\n{{anim id=\"Thinking\" target=\"actor\" targetSpec=\"\"}}Pero, en mi caso,{{delay8}} ¿cuántos kilos\nserían?{{string value=\"...\"}}{{delay8}} {{color id=\"4\"}}(si sumo y me llevo tres{{string value=\"...\"}}{{delay8}}){{color id=\"65535\"}}{{delay8}}\n{{anim id=\"Surprised\" target=\"actor\" targetSpec=\"\"}}¡Huy,{{delay8}} quita, quita!{{delay20}} No quiero hernias."
  },
  {
    "label": "021",
    "attribute": "0x0000000000000000",
    "text": "{{anim id=\"Eh\" target=\"actor\" targetSpec=\"\"}}Fíjate,{{delay8}} su presencia me inspira para\nnadar.{{delay20}} {{anim id=\"Nodding\" target=\"actor\" targetSpec=\"\"}}En el agua,{{delay8}} quiero ser como\n{{wordArticle}}{{fun_0000007D arg=\"0x0000\"}}.\n{{anim id=\"AbsentMindedness\" target=\"actor\" targetSpec=\"\"}}Tanto me motiva,{{delay8}} que pronto podré\nnadar sin flotadores,{{delay8}} {{string value=\"Catchphrase\"}}."
  },
  {
    "label": "022",
    "attribute": "0x0000000000000000",
    "text": ""
  },
  {
    "label": "023",
    "attribute": "0x0000000000000000",
    "text": "{{i20_2 arg=\"10\"}}{{i20_2 arg=\"9\"}}{{anim id=\"SmugFace\" target=\"actor\" targetSpec=\"\"}}¡Ja!{{delay8}} Mi {{fun_0000007D arg=\"0x0000\"}} es mi gran obra de arte.{{pageBreak}}{{i20_3 arg=\"6\"}}{{i20_3 arg=\"3\"}}{{anim id=\"Explain\" target=\"actor\" targetSpec=\"\"}}Eso sí,{{delay8}} ahora debo tener cuidado\ncuando practico {{randomSports}} en casa,{{delay8}} no vaya a ser que me {{gender8 m=\"lo\" f=\"la\" n=\"\"}} cargue."
  },
  {
    "label": "024",
    "attribute": "0x0000000000000000",
    "text": "{{i20_2 arg=\"10\"}}{{i20_2 arg=\"9\"}}{{anim id=\"WrySmile\" target=\"actor\" targetSpec=\"\"}}Ah,{{delay8}} te gusta mi {{fun_0000007D arg=\"0x0000\"}},{{delay8}} ¿eh?{{delay20}} Es multifuncional.{{pageBreak}}{{i20_3 arg=\"6\"}}{{i20_3 arg=\"3\"}}{{anim id=\"Nodding\" target=\"actor\" targetSpec=\"\"}}Es decir,{{delay8}} sirve de decoración{{string value=\"...\"}}{{delay8}}\n{{anim id=\"SmugFace\" target=\"actor\" targetSpec=\"\"}}¡y también como peso para levantar!"
  },
  {
    "label": "025",
    "attribute": "0x0000000000000000",
    "text": "{{i20_2 arg=\"10\"}}{{i20_2 arg=\"9\"}}{{anim id=\"Serious\" target=\"actor\" targetSpec=\"\"}}{{capitalizeNextLetter}}{{wordArticle}}{{fun_0000007D arg=\"0x0000\"}} contradice el extendido prejuicio{{delay8}} {{anim id=\"OhGeez\" target=\"actor\" targetSpec=\"\"}}de que solo rindo culto a los músculos.{{pageBreak}}{{i20_3 arg=\"6\"}}{{i20_3 arg=\"3\"}}{{anim id=\"Explain\" target=\"actor\" targetSpec=\"\"}}En realidad mi gran pasión es el arte.{{delay20}}\nLo que pasa es que mi cuerpo{{delay8}} {{anim id=\"SmugFace\" target=\"actor\" targetSpec=\"\"}}entra\nen esa categoría, {{string value=\"6\"}}."
  },
  {
    "label": "026",
    "attribute": "0x0000000000000000",
    "text": "{{i20_2 arg=\"10\"}}{{i20_2 arg=\"9\"}}{{anim id=\"SmugFace\" target=\"actor\" targetSpec=\"\"}}Sí, puede llegar a hacer bastante\nfresco con {{gender8 m=\"ese\" f=\"esa\" n=\"\"}} {{fun_0000007D arg=\"0x0000\"}} aquí.{{pageBreak}}{{i20_3 arg=\"6\"}}{{i20_3 arg=\"3\"}}{{anim id=\"Worried\" target=\"actor\" targetSpec=\"\"}}Y debo tener cuidado,{{delay8}} porque no es\nbueno {{anim id=\"ColdChill\" target=\"actor\" targetSpec=\"\"}}enfriarse de golpe después\nde haber sudado a saco."
  },
  {
    "label": "027",
    "attribute": "0x0000000000000000",
    "text": "{{i20_2 arg=\"10\"}}{{i20_2 arg=\"9\"}}{{anim id=\"OhGeez\" target=\"actor\" targetSpec=\"\"}}No estarás pensando echarle\nun pulso de miradas a mi\n{{fun_0000007D arg=\"0x0000\"}},{{delay8}} ¿no?{{pageBreak}}{{i20_3 arg=\"6\"}}{{i20_3 arg=\"3\"}}{{anim id=\"Negative\" target=\"actor\" targetSpec=\"\"}}Desde ya te digo que no le vas\na ganar.{{delay20}} {{anim id=\"Pardon\" target=\"actor\" targetSpec=\"\"}}¡Yo lo intenté y me hice\nun esguince en el ojo derecho!"
  },
  {
    "label": "028",
    "attribute": "0x0000000000000000",
    "text": "{{i20_2 arg=\"10\"}}{{i20_2 arg=\"9\"}}{{anim id=\"Blushing\" target=\"actor\" targetSpec=\"\"}}Ah,{{delay8}} sí{{string value=\"...\"}}{{delay8}} {{delay20}}Me hice ese retrato cuando\nme encontraba en la plenitud\nde mis facultades físicas.{{pageBreak}}{{i20_3 arg=\"6\"}}{{i20_3 arg=\"3\"}}{{anim id=\"SmugFace\" target=\"actor\" targetSpec=\"\"}}Lo cual no es mucho especificar,{{delay8}}\nporque ese es mi estado habitual,{{delay8}} {{string value=\"Catchphrase\"}}."
  },
  {
    "label": "029",
    "attribute": "0x0000000000000000",
    "text": "{{i20_2 arg=\"10\"}}{{i20_2 arg=\"9\"}}{{anim id=\"OhGeez\" target=\"actor\" targetSpec=\"\"}}{{capitalizeNextLetter}}{{fun_00010032 arg=\"\"}}{{fun_0000007D arg=\"0x0000\"}} es de esas cosas que se tienen en casa por pura nostalgia.{{pageBreak}}{{i20_3 arg=\"6\"}}{{i20_3 arg=\"3\"}}{{anim id=\"AbsentMindedness\" target=\"actor\" targetSpec=\"\"}}{{gender8 m=\"Lo\" f=\"La\" n=\"\"}} miro y me acuerdo de cuando era\n{{wordArticle}}{{string value=\"VillagerRace\"}} esmirriad{{gender8 m=\"o\" f=\"a\" n=\"\"}} y con el cuerpo aún por desarrollar{{string value=\"...\"}}{{pageBreak}}{{anim id=\"Blushing\" target=\"actor\" targetSpec=\"\"}}Vamos,{{delay8}} que no es que juegue con {{gender8 m=\"él\" f=\"ella\" n=\"\"}} ni nada de eso{{string value=\"...\"}}"
  },
  {
    "label": "030",
    "attribute": "0x0000000000000000",
    "text": "{{i20_2 arg=\"10\"}}{{i20_2 arg=\"9\"}}{{anim id=\"SmugFace\" target=\"actor\" targetSpec=\"\"}}{{capitalizeNextLetter}}{{fun_00010032 arg=\"\"}}{{fun_0000007D arg=\"0x0000\"}}{{string value=\"...\"}} es mi máquina de ejercicio para el coco.{{pageBreak}}{{i20_3 arg=\"6\"}}{{i20_3 arg=\"3\"}}{{anim id=\"OhGeez\" target=\"actor\" targetSpec=\"\"}}Después de todo,{{delay8}} el cerebro es como\nun músculo más,{{delay8}} {{anim id=\"EmotEnd\" target=\"actor\" targetSpec=\"\"}}y lo quiero tener\nbien tonificado, {{string value=\"6\"}}."
  },
  {
    "label": "031",
    "attribute": "0x0000000000000000",
    "text": "{{i20_2 arg=\"10\"}}{{i20_2 arg=\"9\"}}{{anim id=\"Eh\" target=\"actor\" targetSpec=\"\"}}Hace poco soñé que {{wordArticle}}{{fun_0000007D arg=\"0x0000\"}} como {{gender8 m=\"este\" f=\"esta\" n=\"\"}}{{delay8}} {{i20_3 arg=\"6\"}}{{i20_3 arg=\"3\"}}{{anim id=\"Shaking\" target=\"actor\" targetSpec=\"\"}}cobraba vida y me perseguía.{{pageBreak}}{{anim id=\"Sighing\" target=\"actor\" targetSpec=\"\"}}Imagínate que ocurriese de verdad.{{delay20}}\n{{anim id=\"WrySmile\" target=\"actor\" targetSpec=\"\"}}Entonces sí que iba a batir todos\nlos récords de velocidad{{string value=\"...\"}}"
  },
  {
    "label": "032",
    "attribute": "0x0000000000000000",
    "text": "{{i20_2 arg=\"10\"}}{{i20_2 arg=\"9\"}}{{anim id=\"Angry\" target=\"actor\" targetSpec=\"\"}}Por supuesto que sé usar mi {{fun_0000007D arg=\"0x0000\"}}.{{delay20}} {{anim id=\"WrySmile\" target=\"actor\" targetSpec=\"\"}}¿Creías que el tarro solo me da para correr?{{pageBreak}}{{i20_3 arg=\"6\"}}{{i20_3 arg=\"3\"}}{{anim id=\"Negative\" target=\"actor\" targetSpec=\"\"}}No me hizo falta ni mirar el manual\nde instrucciones para aprender\na {{gender8 m=\"lanzarlo\" f=\"lanzarla\" n=\"\"}}."
  },
  {
    "label": "033",
    "attribute": "0x0000000000000000",
    "text": "{{i20_2 arg=\"10\"}}{{i20_2 arg=\"9\"}}Sé lo que estás pensando,{{delay8}} pero no:{{delay8}} no uso {{fun_00010032 arg=\"\"}}{{fun_0000007D arg=\"0x0000\"}} para el calentamiento.{{pageBreak}}{{i20_3 arg=\"6\"}}{{i20_3 arg=\"3\"}}{{anim id=\"Smiling\" target=\"actor\" targetSpec=\"\"}}Eso sí,{{delay8}} va genial para entrenos\nsudorosos, {{string value=\"6\"}}."
  },
  {
    "label": "034",
    "attribute": "0x0000000000000000",
    "text": "{{i20_2 arg=\"10\"}}{{i20_2 arg=\"9\"}}{{anim id=\"Smiling\" target=\"actor\" targetSpec=\"\"}}Se te van los ojos, ¿eh?{{delay20}}{{anim id=\"Explain\" target=\"actor\" targetSpec=\"\"}} Normal, le\npasa a todo el mundo.{{delay8}} La perfección\nfísica es lo que tiene.\n{{i20_3 arg=\"6\"}}{{i20_3 arg=\"3\"}}{{anim id=\"HappyDance\" target=\"actor\" targetSpec=\"\"}}Posé justo después de terminar\nuna sesión de brazos,{{delay8}} por eso me\nsalen tan marcados los bíceps."
  },
  {
    "label": "035",
    "attribute": "0x0000000000000000",
    "text": "{{anim id=\"Nodding\" target=\"actor\" targetSpec=\"\"}}Las portadas de discos siempre\nquedan genial como decoración.{{pageBreak}}{{i20_2 arg=\"10\"}}{{i20_2 arg=\"9\"}}{{anim id=\"SmugFace\" target=\"actor\" targetSpec=\"\"}}Mi {{fun_0000007D arg=\"0x0000\"}} me hace parecer más culto y sofisticado.{{pageBreak}}{{i20_3 arg=\"6\"}}{{i20_3 arg=\"3\"}}{{anim id=\"Smiling\" target=\"actor\" targetSpec=\"\"}}Y, por si fuera poco, la canción\ntambién me viene al pelo para\nhacer cardio. {{delay8}}¡Todo son ventajas!"
  },
  {
    "label": "036",
    "attribute": "0x0000000000000000",
    "text": "{{i20_2 arg=\"10\"}}{{i20_2 arg=\"9\"}}{{anim id=\"OhGeez\" target=\"actor\" targetSpec=\"\"}}Alguien me dijo que mi casa olía\nraro, {{delay8}}así que espero que mejore con\n{{fun_00010032 arg=\"\"}}{{fun_0000007D arg=\"0x0000\"}}.{{pageBreak}}{{i20_3 arg=\"6\"}}{{i20_3 arg=\"3\"}}{{anim id=\"Nodding\" target=\"actor\" targetSpec=\"\"}}Hace poco {{string value=\"11\"}} estuvo aquí y se marchó con cara chunga, {{delay8}}{{anim id=\"Frantic\" target=\"actor\" targetSpec=\"\"}}así que no sé si ayuda mucho."
  },
  {
    "label": "037",
    "attribute": "0x0000000000000000",
    "text": "{{i20_2 arg=\"10\"}}{{i20_2 arg=\"9\"}}{{anim id=\"Scheming\" target=\"actor\" targetSpec=\"\"}}No me lo digas: {{delay8}}te intriga mucho\nmi {{fun_0000007D arg=\"0x0000\"}}.{{pageBreak}}{{i20_3 arg=\"6\"}}{{i20_3 arg=\"3\"}}{{anim id=\"Nodding\" target=\"actor\" targetSpec=\"\"}}Está expuest{{gender8 m=\"o\" f=\"a\" n=\"\"}} para no confundirlo\ncon la ropa de entreno y ponérmel{{gender8 m=\"o\" f=\"a\" n=\"\"}}\nantes de tonificar por error.\nDigamos que{{string value=\"...\"}}{{delay8}}{{anim id=\"ColdChill\" target=\"actor\" targetSpec=\"\"}} es un error que\nno quiero volver a cometer, {{string value=\"6\"}}."
  },
  {
    "label": "038",
    "attribute": "0x0000000000000000",
    "text": "{{i20_2 arg=\"10\"}}{{i20_2 arg=\"9\"}}{{anim id=\"Smiling\" target=\"actor\" targetSpec=\"\"}}Al parecer se lleva lo de decorar con\n{{wordArticle}}{{fun_0000007D arg=\"0x0000\"}}.{{pageBreak}}{{i20_3 arg=\"6\"}}{{i20_3 arg=\"3\"}}¡Me viene al pelo!{{delay20}}{{anim id=\"Scheming\" target=\"actor\" targetSpec=\"\"}} Así aireo la ropa\ndespués de entrenar y la casa está\nadornada. {{delay8}}¡Viva la eficiencia!"
  },
  {
    "label": "039",
    "attribute": "0x0000000000000000",
    "text": "{{i20_2 arg=\"10\"}}{{i20_2 arg=\"9\"}}{{anim id=\"TakenAback\" target=\"actor\" targetSpec=\"\"}}¡Pero bueno!{{delay8}} ¡No te acerques tanto\na mi {{fun_0000007D arg=\"0x0000\"}}!{{pageBreak}}{{i20_3 arg=\"6\"}}{{i20_3 arg=\"3\"}}{{anim id=\"Explain\" target=\"actor\" targetSpec=\"\"}}Le he puesto unas pesas interiores\npara hacer más músculo cuando\ncamino, {{string value=\"6\"}}.\n{{anim id=\"OhGeez\" target=\"actor\" targetSpec=\"\"}}Como tú no estás acostumbrad{{gender2 m=\"o\" f=\"a\"}}\na darle tanta caña a las piernas,\nlo mismo podrías hacerte daño."
  },
  {
    "label": "040",
    "attribute": "0x0000000000000000",
    "text": "{{i20_2 arg=\"9\"}}{{i20_2 arg=\"10\"}}{{anim id=\"Grin\" target=\"actor\" targetSpec=\"\"}}No me imaginaba que se podían\nobtener unos resultados tan brutales\nentrenando en el cenódromo.{{pageBreak}}{{i20_3 arg=\"3\"}}{{i20_3 arg=\"6\"}}{{anim id=\"Blushing\" target=\"actor\" targetSpec=\"\"}}Sí,{{delay8}} así llamo yo a la cocina.{{delay20}}\n{{anim id=\"SmugFace\" target=\"actor\" targetSpec=\"\"}}¡A tonificar el paladar con {{wordArticle}}\n{{fun_0000007D arg=\"0x0000\"}}!"
  },
  {
    "label": "041",
    "attribute": "0x0000000000000000",
    "text": "{{i20_2 arg=\"10\"}}{{i20_2 arg=\"9\"}}{{anim id=\"SmugFace\" target=\"actor\" targetSpec=\"\"}}Parece mentira que a alguien\nse le haya ocurrido elaborar {{fun_00010032 arg=\"\"}}\n{{fun_0000007D arg=\"0x0000\"}} de ahí.{{pageBreak}}{{i20_3 arg=\"3\"}}{{i20_3 arg=\"6\"}}{{anim id=\"Smiling\" target=\"actor\" targetSpec=\"\"}}Y con ingredientes 100 % naturales,{{delay8}}\nmás orgánicos que el campo.{{delay20}}\n¡Como lo oyes!{{pageBreak}}{{anim id=\"Worried\" target=\"actor\" targetSpec=\"\"}}Ejem{{string value=\"...\"}}{{delay8}} ¿Qué pasa?{{delay20}}\n¿Por qué pones esa cara?"
  },
  {
    "label": "999",
    "attribute": "0x0000000000000000",
    "text": "{{fun_0014003C arg=\"\"}}"
  },
  {
    "label": "999_01",
    "attribute": "0x0000000000000000",
    "text": "{{i20_2 arg=\"9\"}}{{anim id=\"Aha\" target=\"actor\" targetSpec=\"\"}}Vaya,{{delay8}} veo que te interesa mucho\n{{i20_2 arg=\"10\"}}lo que tengo en casa,{{delay8}} atleta{{string value=\"...\"}}{{pageBreak}}{{anim id=\"Laughing\" target=\"actor\" targetSpec=\"\"}}Pero,{{delay8}} {{i20_3 arg=\"6\"}}{{i20_3 arg=\"3\"}}si lo que buscas es descubrir\nmis secretos de entreno, ¡vas list{{gender2 m=\"o\" f=\"a\"}}!"
  },
  {
    "label": "999_02",
    "attribute": "0x0000000000000000",
    "text": "{{i20_2 arg=\"10\"}}{{i20_2 arg=\"9\"}}{{anim id=\"Aha\" target=\"actor\" targetSpec=\"\"}}¡Anda, se me había olvidado por\ncompleto que tenía a la vista mi {{fun_0000007D arg=\"0x0000\"}}!{{pageBreak}}{{i20_3 arg=\"6\"}}{{i20_3 arg=\"3\"}}{{anim id=\"Blushing\" target=\"actor\" targetSpec=\"\"}}Ahora ya sabes cuál es mi secreto\npara hacer la tabla anaeróbica\nperfecta, {{string value=\"6\"}}{{string value=\"...\"}}\n{{anim id=\"Scheming\" target=\"actor\" targetSpec=\"\"}}Que quede entre tú y yo,{{delay8}}\n¿vale, máquina?"
  },
  {
    "label": "999_03",
    "attribute": "0x0000000000000000",
    "text": "{{i20_2 arg=\"10\"}}{{i20_2 arg=\"9\"}}{{anim id=\"Nodding\" target=\"actor\" targetSpec=\"\"}}Siempre me dicen que la decoración\nde mi casa no está muy equilibrada\nporque no pienso demasiado en ella.\n{{i20_3 arg=\"6\"}}{{i20_3 arg=\"3\"}}{{anim id=\"Laughing\" target=\"actor\" targetSpec=\"\"}}Pero, como corporalmente tengo un\nsentido del equilibrio perfecto, una\ncosa compensa la otra, {{string value=\"6\"}}."
  }
]