﻿[
  {
    "label": "001",
    "attribute": "0x00000013",
    "text": "{{anim id=\"EmotEnd\" target=\"actor\" targetSpec=\"\"}}Hello, this is {{color id=\"3\"}}Luna{{color id=\"65535\"}}.{{delay8}} {{anim id=\"Eh\" target=\"actor\" targetSpec=\"\"}}Ah!{{delay20}} It is you,\n{{string value=\"PlayerName\"}}.{{delay20}} {{anim id=\"QuestionMark\" target=\"actor\" targetSpec=\"\"}}How may I help\nyou?"
  },
  {
    "label": "002",
    "attribute": "0x00000013",
    "text": "{{anim id=\"EmotEnd\" target=\"actor\" targetSpec=\"\"}}A {{color id=\"1\"}}campsite{{color id=\"65535\"}}, you say?{{delay20}} {{anim id=\"AbsentMindedness\" target=\"actor\" targetSpec=\"\"}}{{delay20}}To decompress\nand dream beneath a canopy of stars\nsounds wonderful{{string value=\"...\"}}{{delay20}}{{anim id=\"Negative\" target=\"actor\" targetSpec=\"\"}}but no, I cannot.{{pageBreak}}{{anim id=\"Explain\" target=\"actor\" targetSpec=\"\"}}There are many sweet dreams to\ncompile and many travelers in need\nof a guide.{{delay20}} {{anim id=\"FaintSmile\" target=\"actor\" targetSpec=\"\"}}Another time, perhaps."
  },
  {
    "label": "101",
    "attribute": "0x00000013",
    "text": "{{anim id=\"EmotEnd\" target=\"actor\" targetSpec=\"\"}}Hello, this is {{color id=\"3\"}}{{string value=\"VillagerName\"}}{{color id=\"65535\"}}.{{delay20}}\n{{anim id=\"Hello\" target=\"actor\" targetSpec=\"\"}}How may I help you?{{pageBreak}}{{anim id=\"EmotEnd\" target=\"actor\" targetSpec=\"\"}}You wish to offer me a vacation\nhome?{{delay frames=\"40\"}} {{anim id=\"Thinking\" target=\"actor\" targetSpec=\"\"}}I admit it would be pleasant\nto dream from somewhere else{{string value=\"...\"}}{{pageBreak}}{{anim id=\"Eh\" target=\"actor\" targetSpec=\"\"}}Oh, and you say I may leave the\ndetails to you?{{delay frames=\"40\"}} {{anim id=\"FaintSmile\" target=\"actor\" targetSpec=\"\"}}Yes, that would be\nsplendid.{{delay20}} I accept."
  }
]