﻿[
  {
    "label": "001",
    "locale": {
      "CNzh": "恭喜你！{{string value=\"NickName\"}}！",
      "EUde": "Happy Birthday, {{string value=\"NickName\"}}!",
      "EUen": "Happy birthday, {{string value=\"NickName\"}}!",
      "EUes": "¡Felicidades, {{string value=\"NickName\"}}!",
      "EUfr": "Bon anniversaire, {{string value=\"NickName\"}} !",
      "EUit": "Buon compleanno, {{string value=\"NickName\"}}!",
      "EUnl": "Gefeliciteerd, {{string value=\"NickName\"}}!",
      "EUru": "С днем рождения, {{string value=\"NickName\"}}!",
      "JPja": "おめでとう！　{{string value=\"NickName\"}}！",
      "KRko": "축하해! {{string value=\"NickName\"}}{{gender5 m=\"아\" f=\"야\"}}!",
      "TWzh": "生日快樂！{{string value=\"NickName\"}}！",
      "USen": "Happy birthday, {{string value=\"NickName\"}}!",
      "USes": "¡Felicidades, {{string value=\"NickName\"}}!",
      "USfr": "Bonne fête, {{string value=\"NickName\"}}!"
    }
  },
  {
    "label": "002",
    "locale": {
      "CNzh": "给可喜可贺的{{string value=\"NickName\"}}",
      "EUde": "{{capitalizeNextLetter}}{{string value=\"NickName\"}}, Geburtstagskind!",
      "EUen": "{{capitalizeNextLetter}}{{string value=\"NickName\"}}, my birthday bud!",
      "EUes": "¡Feliz cumpleaños, {{gender2 m=\"tigre\" f=\"leona\"}}!",
      "EUfr": "{{capitalizeNextLetter}}{{string value=\"NickName\"}}, {{gender2 m=\"mon p'tit gars\" f=\"ma grande\"}} !",
      "EUit": "Che bello, {{string value=\"NickName\"}}!",
      "EUnl": "{{capitalizeNextLetter}}{{string value=\"NickName\"}}, mijn jarige gabber,",
      "EUru": "{{capitalizeNextLetter}}{{string value=\"NickName\"}}, поздравляю!",
      "JPja": "めでたい　{{string value=\"NickName\"}}へ",
      "KRko": "축하 대상 {{string value=\"NickName\"}}에게",
      "TWzh": "給壽星{{string value=\"NickName\"}}",
      "USen": "{{capitalizeNextLetter}}{{string value=\"NickName\"}}, my birthday bud!",
      "USes": "¡Feliz cumpleaños, {{gender2 m=\"tigre\" f=\"leona\"}}!",
      "USfr": "{{capitalizeNextLetter}}{{string value=\"NickName\"}}, {{gender2 m=\"mon chum\" f=\"ma chumette\"}}!"
    }
  },
  {
    "label": "003",
    "locale": {
      "CNzh": "毅力！{{string value=\"NickName\"}}",
      "EUde": "Hau rein, {{string value=\"NickName\"}}!",
      "EUen": "You're a wild one, {{string value=\"NickName\"}}!",
      "EUes": "¡Hoy es tu gran día, campe{{gender2 m=\"ón\" f=\"ona\"}}!",
      "EUfr": "{{capitalizeNextLetter}}{{string value=\"NickName\"}}, {{gender2 m=\"mon champion\" f=\"ma championne\"}} !",
      "EUit": "{{gender2 m=\"Al\" f=\"Alla\"}} selvaggi{{gender2 m=\"o\" f=\"a\"}} {{string value=\"NickName\"}}!",
      "EUnl": "Ga lekker los, {{string value=\"NickName\"}}!",
      "EUru": "{{capitalizeNextLetter}}{{string value=\"NickName\"}}, дорог{{gender2 m=\"ой\" f=\"ая\"}}!",
      "JPja": "こんじょうだー！　{{string value=\"NickName\"}}",
      "KRko": "내 정성이야－! {{string value=\"NickName\"}}!",
      "TWzh": "拿出毅力──！{{string value=\"NickName\"}}",
      "USen": "You're a wild one, {{string value=\"NickName\"}}!",
      "USes": "¡Hoy es tu gran día, campe{{gender2 m=\"ón\" f=\"ona\"}}!",
      "USfr": "{{capitalizeNextLetter}}{{string value=\"NickName\"}}, {{gender2 m=\"mon champion\" f=\"ma championne\"}}!"
    }
  },
  {
    "label": "004",
    "locale": {
      "CNzh": "给欢喜的{{string value=\"NickName\"}}！",
      "EUde": "{{capitalizeNextLetter}}{{string value=\"NickName\"}}, du Party{{gender2 m=\"löwe\" f=\"löwin\"}}!",
      "EUen": "{{capitalizeNextLetter}}{{string value=\"NickName\"}}, you party animal!",
      "EUes": "¡A tonificar pulmones soplando velas!",
      "EUfr": "Yo ! Joyeux anniv, {{string value=\"NickName\"}} !",
      "EUit": "{{gender2 m=\"Al\" f=\"Alla\"}} festaiol{{gender2 m=\"o\" f=\"a\"}} {{string value=\"NickName\"}}...",
      "EUnl": "{{capitalizeNextLetter}}{{string value=\"NickName\"}}, jij feestbeest!",
      "EUru": "{{capitalizeNextLetter}}{{string value=\"NickName\"}}, здорово!",
      "JPja": "うかれた　{{string value=\"NickName\"}}へ！",
      "KRko": "들뜬 {{string value=\"NickName\"}}에게!",
      "TWzh": "給得意忘形的{{string value=\"NickName\"}}！",
      "USen": "{{capitalizeNextLetter}}{{string value=\"NickName\"}}, you party animal!",
      "USes": "¡A tonificar pulmones soplando velas!",
      "USfr": "Yo! bonne fête, {{string value=\"NickName\"}}!"
    }
  },
  {
    "label": "005",
    "locale": {
      "CNzh": "可喜可贺的{{string value=\"NickName\"}}！",
      "EUde": "Punkt für dich, {{string value=\"NickName\"}}!",
      "EUen": "Score one birthday, {{string value=\"NickName\"}}!",
      "EUes": "¡Has superado tu récord de edad!",
      "EUfr": "T'as gagné un an, {{string value=\"NickName\"}} !",
      "EUit": "Hai un anno in più, {{string value=\"NickName\"}}!",
      "EUnl": "Wat een knalfeest!",
      "EUru": "Физкульт-привет, {{string value=\"NickName\"}}!",
      "JPja": "めでたい　{{string value=\"NickName\"}}！",
      "KRko": "축하한다, {{string value=\"NickName\"}}!",
      "TWzh": "可喜可賀，{{string value=\"NickName\"}}！",
      "USen": "Score one birthday, {{string value=\"NickName\"}}!",
      "USes": "¡Has superado tu récord de edad!",
      "USfr": "T'as gagné un an, {{string value=\"NickName\"}}!"
    }
  },
  {
    "label": "006",
    "locale": {
      "CNzh": "{{string value=\"NickName\"}}！恭喜！",
      "EUde": "{{capitalizeNextLetter}}{{string value=\"NickName\"}}! Alles Gute!",
      "EUen": "{{capitalizeNextLetter}}{{string value=\"NickName\"}}! Happy birthday!",
      "EUes": "¡Muchas felicidades, plusmarquista!",
      "EUfr": "{{capitalizeNextLetter}}{{string value=\"NickName\"}} ! Bon anniversaire !",
      "EUit": "Ancora tanti auguri, {{string value=\"NickName\"}}!",
      "EUnl": "{{capitalizeNextLetter}}{{string value=\"NickName\"}}! Fijne verjaardag!",
      "EUru": "{{capitalizeNextLetter}}{{string value=\"NickName\"}}, с днюхой!",
      "JPja": "{{string value=\"NickName\"}}！　おめでとう！",
      "KRko": "{{string value=\"NickName\"}}! 축하해!",
      "TWzh": "{{string value=\"NickName\"}}！恭喜你！",
      "USen": "{{capitalizeNextLetter}}{{string value=\"NickName\"}}! Happy birthday!",
      "USes": "¡Felicidades, {{string value=\"NickName\"}}!",
      "USfr": "{{capitalizeNextLetter}}{{string value=\"NickName\"}}! Bonne fête!"
    }
  },
  {
    "label": "007",
    "locale": {
      "CNzh": "恭喜！{{string value=\"NickName\"}}！",
      "EUde": "An Sportsfreund{{gender2 m=\"\" f=\"in\"}} {{string value=\"NickName\"}}",
      "EUen": "To {{string value=\"NickName\"}}, my dear old bud.",
      "EUes": "¡Enhorabuena por tu nueva marca!",
      "EUfr": "{{gender2 m=\"Mon p'tit gars\" f=\"Ma grande\"}} {{string value=\"NickName\"}},",
      "EUit": "{{gender2 m=\"Caro amico\" f=\"Cara amica\"}} {{string value=\"NickName\"}}...",
      "EUnl": "Aan {{string value=\"NickName\"}}, mijn gabber.",
      "EUru": "{{capitalizeNextLetter}}{{string value=\"NickName\"}}, привет!",
      "JPja": "おめでとー！　{{string value=\"NickName\"}}！",
      "KRko": "축하한다－! {{string value=\"NickName\"}}!",
      "TWzh": "祝你生日快樂──！{{string value=\"NickName\"}}！",
      "USen": "To {{string value=\"NickName\"}}, my dear old bud.",
      "USes": "¡Felicidades por tu nueva marca!",
      "USfr": "{{gender2 m=\"Mon chum\" f=\"Ma chumette\"}} {{string value=\"NickName\"}},"
    }
  },
  {
    "label": "008",
    "locale": {
      "CNzh": "嘿！{{string value=\"NickName\"}}！",
      "EUde": "Yo, {{string value=\"NickName\"}}!",
      "EUen": "Yo, {{string value=\"NickName\"}}! Happy happy!",
      "EUes": "¡Feliz cumple, {{string value=\"NickName\"}}!",
      "EUfr": "Yo, {{string value=\"NickName\"}} ! Joyeux anniv !",
      "EUit": "Ciao, {{string value=\"NickName\"}}! Evviva!",
      "EUnl": "Yo, {{string value=\"NickName\"}}! Dit is zo vet!",
      "EUru": "Йо, {{string value=\"NickName\"}}! Поздравляю!",
      "JPja": "よー！　{{string value=\"NickName\"}}！",
      "KRko": "여－! {{string value=\"NickName\"}}!",
      "TWzh": "嗨──！{{string value=\"NickName\"}}！",
      "USen": "Yo, {{string value=\"NickName\"}}! Happy happy!",
      "USes": "¡Feliz cumple, {{string value=\"NickName\"}}!",
      "USfr": "Yo, {{string value=\"NickName\"}}! Bonne fête!"
    }
  },
  {
    "label": "009",
    "locale": {
      "CNzh": "好耶！{{string value=\"NickName\"}}！",
      "EUde": "Für {{string value=\"NickName\"}}",
      "EUen": "Aging like a pro, {{string value=\"NickName\"}}!",
      "EUes": "¡Así se cumple, {{string value=\"NickName\"}}!",
      "EUfr": "Joyeux anniv, {{string value=\"NickName\"}} !",
      "EUit": "Sempre giovane {{string value=\"NickName\"}}...",
      "EUnl": "Ouwe spierbonk, {{string value=\"NickName\"}}!",
      "EUru": "{{capitalizeNextLetter}}{{string value=\"NickName\"}}, я помню о тебе!",
      "JPja": "ヨッシャー！　{{string value=\"NickName\"}}！",
      "KRko": "아주 좋다구－! {{string value=\"NickName\"}}!",
      "TWzh": "太好啦──！{{string value=\"NickName\"}}！",
      "USen": "Aging like a pro, {{string value=\"NickName\"}}!",
      "USes": "¡Así se hace, {{string value=\"NickName\"}}!",
      "USfr": "Bonne fête, {{string value=\"NickName\"}}!"
    }
  },
  {
    "label": "101",
    "locale": {
      "CNzh": "我给你寄来了\n刚才没能交给你的生日礼物！\n我已经许下心愿，\n希望这一年里，\n你的肌肉能茁壮成长！\n哎呀，你也别忘记锻炼哦？",
      "EUde": "Was geht, Geburtstagskind?\nAls ich vorhin am Flughafen\nvorbeigejoggt bin, ist mir\neingefallen, dass ich dir\nnoch ein Geschenk schulde.\nViel Spaß damit!",
      "EUen": "What's up, birthday bud? So, I was\ndoing sprints over by the airport,\nand suddenly I remembered I still\nneeded to send you that birthday\ngift from before! Hope it's not TOO\nheavy for you. Enjoy!",
      "EUes": "Hoy es tu cumpleaños, ¿no, crack?\nHe aprovechado mi sesión diaria\nde esprints por las pistas del\naeródromo para enviarte esta\ntarjeta con un regalito incluido.\n¡Espero que lo disfrutes!",
      "EUfr": "C'est ton anniversaire, aujourd'hui,\npas vrai ? Je faisais mon footing du\ncôté de l'aéroport, alors je me suis\ndit que je pouvais en profiter pour\nt'envoyer une carte d'anniversaire.\nJ'espère que mon cadeau te plaira.",
      "EUit": "Ehilà, festeggiat{{gender2 m=\"o\" f=\"a\"}}! Stavo correndo\nintorno all'aeroporto, quando mi è\nvenuto in mente che dovevo ancora\nspedirti il regalo di compleanno\ndall'ultima volta. Spero non sia\ntroppo pesante per te!",
      "EUnl": "En, voel je je nog een beetje jarig?\nIk was bij de luchthaven aan het\njoggen en bedacht ineens dat ik je\nje verjaardagscadeau nog zou\nsturen. Ik hoop dat het je niet te\nzwaar valt. Ha, veel plezier ermee!",
      "EUru": "Как жизнь? Я тут бегал вокруг\nаэропорта и вспомнил, что надо\nтебе послать тот подарок на день\nрождения! Надеюсь, сможешь его\nподнять!",
      "JPja": "さっき　わたせなかった\nたんじょうびプレゼントを　おくるぞ！\nこの1ねん、オマエのキンニクが\nバッチリ　そだつよう\nしっかりガンかけ　しといたからな！\nおっと、キントレも　わすれるなよー？",
      "KRko": "아까 못 줬던 생일 선물을 보낸다!\n앞으로 1년 동안 너의 근육이\n아주 튼튼하게 자랄 수 있도록\n내가 이 선물에 기를 불어넣어 놨어!\n아, 그래도 운동 게을리하면 안 된다－?",
      "TWzh": "我已經把剛剛\n沒辦法送給你的生日禮物寄過去囉！\n我也好好地許願了，\n希望這一年當中，\n你的肌肉能夠順利成長！\n啊，還是不可以忘記做健身運動喔？",
      "USen": "What's up, birthday bud? So, I was\ndoing sprints over by the airport,\nand suddenly I remembered I still\nneeded to send you that birthday\ngift from before! Hope it's not TOO\nheavy for you. Enjoy!",
      "USes": "Hoy es tu cumpleaños, ¿no?\nEstaba entrenando por las pistas\ndel aeródromo y aproveché para\nenviarte esta tarjeta con un regalo\nincluido. ¡Espero que lo disfrutes!",
      "USfr": "C'est ta fête, aujourd'hui, pas vrai?\nJe faisais mon jogging du côté de\nl'aéroport, alors je me suis dit que\nje pouvais en profiter pour\nt'envoyer une carte de fête.\nJ'espère que mon cadeau te plaira."
    }
  },
  {
    "label": "102",
    "locale": {
      "CNzh": "刚才没能交给你的生日礼物，\n我给你寄来咯！\n用我的真心和气势，\n祝你这一整年\n都能快快乐乐！\n要全身心地收下祝福哦！",
      "EUde": "Was geht? Bringst du deinen um\nein Jahr gealterten Körper in\nSchuss? Hiermit reiche ich noch\nmein Geschenk nach. In besonders\nreißfestem Papier, damit das Öffnen\nauch einen Trainingseffekt hat!",
      "EUen": "What's up? Getting that birthday\nbod in buff shape? Here's that gift\nI couldn't give you before. I\nwrapped it in extra-tough paper\n'cause I know how you like to flex\nthose bonkers-tier biceps!",
      "EUes": "Tu edad aumenta hoy su grado de\ntonificación, así que aprovecho\nun descanso entre mis sesiones\nde acuabdominales para felicitarte\ny mandarte un detallito. ¡A ver\nsi te gusta!",
      "EUfr": "C'est aujourd'hui ton anniversaire,\nnon ? Aussi prenant que soit mon\nentraînement, je voudrais surtout\npas laisser passer cette occasion !\nJe joins à ma carte un cadeau pour\ntoi : vas-y, ouvre-le vite !",
      "EUit": "Come va? Ho qui il tuo regalo di\ncompleanno che non avevo potuto\ndarti l'altra volta. È impacchettato\ncon carta extra forte, perché so\nche ti piace pompare quei bicipiti\nin ogni occasione. Goditelo!",
      "EUnl": "Zo, hou je je jarige lijf nog een\nbeetje in vorm? Hier is het cadeau\ndat ik je nog zou geven. Ik heb het\nextra stevig ingepakt, zodat je die\nbrute bicepsen van je lekker aan\nhet werk kunt zetten!",
      "EUru": "Как жизнь спортивная? Кстати,\nвот подарок, который я тебе не\nсмог тогда отдать. Я его очень\nплотно упаковал. Будешь\nразворачивать — заодно бицепсы\nпрокачаешь.",
      "JPja": "さっき　わたせなかったプレゼント、\nおくっておくぞー！\nこの1ねん　たのしく　すごせるように\nオイラの　まごころと\nキアイをこめておいたから、\nココロして　うけとってくれー！",
      "KRko": "아까 못 준 선물 보낸다－!\n니가 다음에 돌아올 생일까지\n즐겁게 보낼 수 있도록\n내 마음과 기를 팍팍 불어넣어놨으니까\n너도 기쁜 마음으로\n받아줬으면 좋겠다－!",
      "TWzh": "我把剛剛沒送出去的禮物\n直接寄過去囉──！\n祝你接下來一年能夠過得快樂！\n那禮物裡頭滿滿的都是\n我真誠的祝福與衝勁，\n你就好好銘記在心，然後收下吧──！",
      "USen": "What's up? Getting that birthday\nbod in buff shape? Here's that gift\nI couldn't give you before. I\nwrapped it in extra-tough paper\n'cause I know how you like to flex\nthose bonkers-tier biceps!",
      "USes": "Tu edad aumenta hoy su grado de\ntonificación, así que aprovecho\nun descanso entre mis sesiones\nde acuabdominales para felicitarte\ny mandarte un detalle. ¡A ver\nsi te gusta!",
      "USfr": "C'est aujourd'hui ta fête, non?\nAussi prenant que soit mon\nentraînement, je voudrais surtout\npas laisser passer cette occasion!\nJe joins à ma carte un cadeau pour\ntoi : vas-y, ouvre-le vite!"
    }
  },
  {
    "label": "103",
    "locale": {
      "CNzh": "把刚才没能交给你的礼物\n寄过来了哦！\n嘿嘿，只要你开心，\n我就开心啦！\n说不定会有一点膏药的味道，\n不要在意哦！",
      "EUde": "Alles Gute zum Geburtstag! Anbei\ndas Geschenk, das ich dir zuvor\ngeben wollte. Entschuldige die\nSchweißflecken auf der Karte.\nIch hatte sie im Fitnessstudio mit\nmeinem Handtuch verwechselt.",
      "EUen": "Happy birthday! I'm sending along\nthe present I couldn't give you\nbefore. Also, sorry about the sweat\nstains on the card. I accidentally\ngrabbed this letter instead of my\ntowel after cardio yesterday...",
      "EUes": "Tu cumple es un día especial,\nasí que te mereces un regalo de\ncampeonato como este que te\nmando. Me ha costado tiempo,\nesfuerzo y, sobre todo, ¡ríos de\nsudor escogerlo para ti!",
      "EUfr": "Joyeux anniversaire ! Aujourd'hui,\nc'est toi {{gender2 m=\"le héros\" f=\"l'héroïne\"}} du jour ! Entre\ngrands rivaux sportifs, j'ai le plaisir\nde t'adresser pour l'occasion cette\ncarte parfumée de sueur, avec un\ncadeau, pour ton appréciation !",
      "EUit": "Buon compleanno! Ti invio il regalo\nche non avevo potuto darti prima.\nAh, scusa per le macchie di sudore\nsul biglietto... Ieri l'ho afferrato per\nsbaglio al posto dell'asciugamano\ndopo il mio cardiofitness.",
      "EUnl": "Gefeliciteerd met je verjaardag!\nHier is het cadeau dat ik je nog\nwilde geven. En sorry voor de\nzweetvlekken. Ik had me het snot\nvoor de ogen getraind en zag het\npakpapier voor een handdoek aan.",
      "EUru": "С днем рождения! Отправляю\nтебе тот подарок, который я не\nсмог тебе тогда отдать. Извини,\nоткрытка слегка намокла, я ее\nс полотенцем перепутал после\nтренировки.",
      "JPja": "わたせなかった　プレゼント\nおくっておいたぞー！\nへへっ、オマエが　よろこんでくれたら\nオイラ　うれしいぞ！\nもしかしたら　シップのニオイがするかも\nしれないけど、きにしないでくれー！",
      "KRko": "미처 못 준 선물도 같이 보낸다－!\n헤헷, 니 맘에 들었으면 좋겠다!\n선물에서 파스 냄새가 좀 날지도\n모르는데 너무 신경 쓰지 말고\n그냥 써줘－!",
      "TWzh": "我把剛剛沒送到你手上的禮物\n直接寄過去囉──！\n嘿嘿，如果你開心的話，\n我也會很開心喔！\n雖然可能有沾上一點痠痛貼布的味道，\n不過這點小事就別在意了吧──！",
      "USen": "Happy birthday! I'm sending along\nthe present I couldn't give you\nbefore. Also, sorry about the sweat\nstains on the card. I accidentally\ngrabbed this letter instead of my\ntowel after cardio yesterday...",
      "USes": "Tu cumple es como llegar a una\nnueva meta, así que te mereces\nun regalo de campeonato como\neste que te mando. Me costó\ntiempo, esfuerzo y, sobre todo,\n¡ríos de sudor escogerlo para ti!",
      "USfr": "Bonne fête! Aujourd'hui,\nc'est toi {{gender2 m=\"le héros\" f=\"l'héroïne\"}} du jour! Entre\ngrands rivaux sportifs, j'ai le plaisir\nde t'adresser pour l'occasion cette\ncarte parfumée de sueur, avec un\ncadeau, pour ton appréciation!"
    }
  },
  {
    "label": "104",
    "locale": {
      "CNzh": "生日过得开心吗？\n你砸皮纳塔时的表情，\n连我这个对手都觉得很帅气呢！\n给你寄来了\n刚才没能交给你的纸杯蛋糕，\n随便你蒸来吃还是烤来吃哦！！",
      "EUde": "Ich schulde dir noch Cupcakes von\ndeiner Geburtstagsparty. Hier sind\nsie! Verputz sie nicht alle auf einen\nBissen, ja? Hoffentlich können\nwir bald mal ein paar Gewichte\nzusammen stemmen.",
      "EUen": "Remember those cupcakes from\nyour birthday bash? Surprise! Well,\nprobably not too surprising.\nWhatever, here you go. Don't scarf\n'em all at once, alright? Let's\nsmash our quads later!",
      "EUes": "Aquí te envío los pastelitos de\ncumpleaños que no habías podido\nllevarte antes. Que lo pases bien\ny no perdones ni una sola\nsentadilla.",
      "EUfr": "Voilà comme promis les cupcakes\nd'anniversaire que t'as pas pu\nemporter ! Ils devraient te donner\nle plein d'énergie, et tu pourras\nsoulever plein de fonte. Enfin, t'en\nsoulèveras jamais autant que moi...",
      "EUit": "Ricordi i cupcake di compleanno\nche non avevi potuto prendere\ncon te? Beh, eccoli qui! Vedi di\nnon sbafarteli tutti in un colpo\nsolo, eh? Ti aspetto per fare\naddominali più tardi!",
      "EUnl": "Die cupcakes van je verjaardag,\nherinner je je die nog? Verrassing!\nOf misschien zag je ze al van\nmijlenver aankomen. In elk geval,\nstop je niet meteen helemaal vol.\nWe moeten nog trainen.",
      "EUru": "Помнишь те кексики с твоего дня\nрождения? Это они! Жаль, что не\nполучилось сюрприза, ну ладно.\nТолько все сразу не ешь. У нас же\nпотом тренировка будет.",
      "JPja": "たんじょうかい　たのしかったか？\nピニャータを　たたきわる　オマエのかお\nライバルながら、スゲーかっこよかったぞ！\nさっき　わたせなかった\nカップケーキを　おくるから、\nにるなり　やくなり　スキにしてくれー！！",
      "KRko": "생일 파티 재밌었냐?\n피냐타를 깨부수는 너의 모습\n내 라이벌이지만 솔직히 엄청\n멋있었다!\n아까 못 준 컵케이크도 같이 보내니까\n구워 먹든 삶아 먹든 마음대로 하라구－!",
      "TWzh": "在慶生會上玩得還開心嗎？\n雖然你是我的勁敵，\n不過敲破皮納塔那時候的表情真的很帥喔！\n剛剛沒機會拿給你的紙杯蛋糕，\n我已經送過去了，\n要蒸要煮就看你喜歡吧！",
      "USen": "Remember those cupcakes from\nyour birthday bash? Surprise! Well,\nprobably not too surprising.\nWhatever, here you go. Don't scarf\n'em all at once, alright? Let's\nsmash our quads later!",
      "USes": "Aquí te envío el regalo de cumple\nque no habías podido llevarte\nantes. Que la sigas pasando bien\ny entrenando duro como siempre.",
      "USfr": "Voilà comme promis les cupcakes\nque t'as pas pu emporter!\nIls devraient te donner plein\nd'énergie, et tu pourras soulever\nplein de fonte. Enfin, t'en\nsoulèveras jamais autant que moi..."
    }
  },
  {
    "label": "105",
    "locale": {
      "CNzh": "刚才没能交给你的纸杯蛋糕，\n我给你寄过来啦！\n这个是我特制的蛋白粉加料版，\n一定超美味！！\n……开玩笑的啦！\n哈哈！吓到了没有？",
      "EUde": "Hier sind die Cupcakes zum\nGeburtstag, die ich dir noch\nschicken wollte. Da ich sonst\nnicht mehr viel zu sagen habe,\nfülle ich den Rest der Karte einfach\nmit einem nichtssagenden Satz.",
      "EUen": "Here are those birthday cupcakes I\nsaid I was gonna send. My writing\nmuscles are kind of cramping up\nright now and I don't know what\nelse to say, so now I'm just filling\nup space. My fingers hurt.",
      "EUes": "Te mando los pastelitos de cumple\nque te habías dejado atrás, con\nmis mejores deseos de agujetas\npara todo el año. ¡No dejes que\nlos años te destonifiquen los\nmúsculos, {{gender2 m=\"tigre\" f=\"leona\"}}!",
      "EUfr": "Voilà tes cupcakes d'anniversaire !\nJ'ai concentré toutes mes forces\net mes pensées pour te souhaiter\nune année riche en joies. Je me\nsens si fatigué après ça, j'espère\nque mon souhait se réalisera !",
      "EUit": "Ecco i tuoi cupcake di compleanno\nche dovevo spedirti. Per scriverti\nqueste poche righe mi sono venuti\ni crampi ai polsi, quindi ora vado a\nfare una seduta defaticante di 2000\nflessioni. Ci si vede!",
      "EUnl": "Hier zijn de cupcakes van je\nverjaardag die ik nog zou opsturen.\nIk heb een beetje kramp in mijn\nschrijfspieren en ik weet ook niet\nmeer wat ik moet zeggen. Dus.",
      "EUru": "Вот тебе кексики на день\nрождения, как я и обещал. Что-то\nу меня уже пальцы устали писать,\nя их перекачал. Да и не знаю, что\nеще писать, так что закругляюсь.",
      "JPja": "さっき　わたせなかった\nカップケーキを　おくるぞ！\nオイラとくせいの　プロテインいりだから\nきっと　うまいハズだー！！\n・・・なーんて　ジョーダンだよ！\nハハッ、ビックリしたかー？",
      "KRko": "아까 못 준 컵케이크를 보낸다!\n내 특제 프로틴을 넣어서\n만들었으니까 틀림없이 엄청나게\n맛있을 거야－!!\n…는 농담이야!\n하하, 깜짝 놀랐냐－?",
      "TWzh": "我把剛剛沒拿給你的紙杯蛋糕\n送過去囉──！\n那是我特製的「乳清蛋白紙杯蛋糕」，\n吃起來一定非常美味喔──！！\n……嘿嘿，開玩笑的啦！\n哈哈，嚇到你了嗎？",
      "USen": "Here are those birthday cupcakes I\nsaid I was gonna send. My writing\nmuscles are kind of cramping up\nright now and I don't know what\nelse to say, so now I'm just filling\nup space. My fingers hurt.",
      "USes": "Te mando los pastelitos que no\nte pudiste llevar. Espero que\nsuperes muchos logros en esta\nnueva carrera que te pone la vida.\n¡No dejes que los años te\ndestonifiquen, {{gender2 m=\"campeón\" f=\"campeona\"}}!",
      "USfr": "Voilà tes cupcakes!\nJ'ai concentré toutes mes forces\net mes pensées pour te souhaiter\nune année riche en joies. Je me\nsens si fatigué après ça, j'espère\nque mon souhait se réalisera!"
    }
  },
  {
    "label": "106",
    "locale": {
      "CNzh": "按照约定，我给你寄来了\n刚才没能交给你的纸杯蛋糕！\n蛋糕里满满加料了我的气势哦，\n你要用心品尝！！\n如果一个人吃不光，\n分给大家也可以哦！",
      "EUde": "Hier sind deine Geburtstags-\nHanteln! Wenn dir die Packung\netwas leicht vorkommt, dann hast\ndu wohl gut trainiert! Oder es liegt\ndaran, dass in Wirklichkeit deine\nGeburtstags-Cupcakes drin sind...",
      "EUen": "Here are the cupcakes from your\nbig day! I almost mistook the box\nfor a crate full of random free\nweights I've been training with this\nweek. It felt kinda light. Enjoy your\ncupcakes!",
      "EUes": "Con esta nota te hago llegar los\npastelitos de cumpleaños que no te\nhabías llevado todavía. Espero que\nte tonifique el ánimo tanto como a\nmí saber que eres mi mejor compi\nde entreno.",
      "EUfr": "Voilà par courrier les cupcakes que\ntu n'avais pas pu ranger dans tes\npoches. Je serais vraiment ravi\ns'ils pouvaient te faire plaisir : ça\nferait de nous deux très bons amis\nsuper heureux. Profites-en bien !",
      "EUit": "Ecco qui belli caldi e croccanti\ni cupcake della tua festa di\ncompleanno! Per sicurezza,\nho chiuso il pacchetto con\ndel filo di ferro, spero avrai\nforza sufficiente per aprirlo!",
      "EUnl": "Hier zijn de cupcakes van je\nverjaardag! Ik dacht eerst dat het\neen doos gewichten was waar ik\neerder mee aan het trainen was, en\nhij voelde ineens zo vreemd licht.\nNou, geniet ervan!",
      "EUru": "Вот тебе кексики с твоего самого\nважного дня! Чуть было не\nперепутал их с коробкой гирь,\nона мне очень легкой показалась.\nПриятного аппетита.",
      "JPja": "やくそくどおり　さっき　わたせなかった\nカップケーキ、おくっておくよ！\nオイラのキアイも　ガッツリいれといたから\nこころして　たべてくれ！！\nもし　たべきれなかったら\nみんなにも　わけてやるといいぞー！",
      "KRko": "약속대로 아까 못 준 컵케이크\n집으로 보내 놓는다!\n내 기운도 팍팍 넣었으니까\n맛있게 먹어줬음 좋겠다!!\n혹시 다 못 먹으면 다른 사람들한테\n나눠줘도 돼－!",
      "TWzh": "跟之前說好的一樣，\n我已經把剛剛沒送給你的紙杯蛋糕寄過去囉！\n裡面灌滿了我的衝勁，\n你就銘記在心，然後吃下去吧！！\n如果吃不完的話，\n也可以分給大家一起吃喔──！",
      "USen": "Here are the cupcakes from your\nbig day! I almost mistook the box\nfor a crate full of random free\nweights I've been training with this\nweek. It felt kinda light. Enjoy your\ncupcakes!",
      "USes": "Con esta nota te hago llegar los\npastelitos de cumpleaños que no\nte pudiste llevar. Espero que te\ntonifique el ánimo tanto como a\nmí saber que eres mi mejor colega\nde entrenamiento.",
      "USfr": "Voilà par courrier les cupcakes\nque tu n'avais pas pu mettre\ndans tes poches. Je serais\nvraiment ravi s'ils peuvent te faire\nplaisir : ça ferait de nous deux de\ntrès bons chums. Profites-en bien!"
    }
  },
  {
    "label": "107",
    "locale": {
      "CNzh": "谢谢你之前的纸杯蛋糕！\n我给你寄来了\n当时没能交给你的生日礼物，\n今天你一定要收下哦？！\n在新的一年里，\n也要做你自己，锻炼肌肉哦！！",
      "EUde": "Danke für den Cupcake letztens!\nHier ist das Geschenk, für das du\nkeinen Platz hattest. Mögen die\nFitness-Götter ein weiteres Jahr\nlang mit dir sein!",
      "EUen": "Thanks for the cupcake the other\nday! I've sent you a birthday gift\nthat I wasn't able to pass along the\nother day. It comes with my wish\nthat you get super-mega-buff in\nthe coming year.",
      "EUes": "Muchas gracias por los pastelitos\nde cumpleaños. Aquí te envío el\nregalo que no te habías podido\nllevar. Aprovecho para desearte\nlos mejores resultados en todas\ntus próximas competiciones.",
      "EUfr": "Merci pour ce délicieux cupcake\nd'anniversaire que tu m'as offert !\nTu trouveras mon cadeau ci-joint,\navec tous mes vœux pour que\ntes muscles se développent autant\nque tu le désires, à l'avenir !",
      "EUit": "Tantissime grazie per il cupcake\ndel tuo compleanno! Con questo\nbiglietto ti mando il regalo che non\navevi potuto prendere con te. Ne\napprofitto per augurarti un anno di\ngrandi soddisfazioni sportive!",
      "EUnl": "Nog bedankt voor die cupcake\nlaatst! Ik heb je je verjaardags-\ncadeau opgestuurd dat je toen niet\nmeer kon meepakken. Ik hoop dat\nje dit jaar net zo supermega-\ngespierd wordt als ik!",
      "EUru": "Спасибо тебе за кекс! Высылаю\nтебе подарок, который не смог\nпередать ранее. Желаю тебе\nв этом году накачать мегамощные\nмышцы!",
      "JPja": "こないだは　カップケーキをありがとな！\nあのとき　わたせなかった　\nバースデープレゼントを　おくるから、\nきょうこそは　うけとってくれるかー？！\nあたらしいとしも　オマエらしく、\nしっかり　キンニクきたえろよー！！",
      "KRko": "저번에 준 컵케이크, 고마웠다!\n그때 너한테 못 줬던\n생일 선물을 보내줄 테니까\n오늘에야말로 꼭 받아라－?!\n다음에 돌아올 생일까지 앞으로 1년도\n너답게 착실하게 근육 단련을 하라구－!!",
      "TWzh": "謝謝你之前送我的紙杯蛋糕！\n我把之前來不及拿給你的\n生日禮物寄過去了，\n希望你今天還願意收下！\n就算多了一歲，也要繼續做自己，\n好好地鍛鍊肌肉喔──！！",
      "USen": "Thanks for the cupcake the other\nday! I've sent you a birthday gift\nthat I wasn't able to pass along the\nother day. It comes with my wish\nthat you get super-mega-buff in\nthe coming year.",
      "USes": "Muchas gracias por los pastelitos\nde cumpleaños. Aquí te envío el\nregalo que no te habías podido\nllevar. Aprovecho para desearte\nlos mejores resultados en todas\ntus próximas competiciones.",
      "USfr": "Merci pour ce délicieux cupcake\nque tu m'as offert!\nTu trouveras mon cadeau ci-joint,\navec tous mes vœux pour que\ntes muscles se développent autant\nque tu le désires, à l'avenir!"
    }
  },
  {
    "label": "108",
    "locale": {
      "CNzh": "我给你寄来了\n之前没能交给你的生日礼物！\n我也永远不会忘记\n你给我的\n生日纸杯蛋糕的味道。\n今后也请多多指教啦！",
      "EUde": "Hier hast du das Geschenk, das\nnicht mehr in deine Tasche\ngepasst hat. Dein Cupcake hat\nextrem gut geschmeckt. Du bist\n{{gender2 m=\"ein echter\" f=\"eine echte\"}} Sportsfreund{{gender2 m=\"\" f=\"in\"}}!",
      "EUen": "Here's the birthday gift I wasn't\nable to hand you the other day.\nAlso thanks for the birthday\ncupcake. The sugar rush I got from\nit really boosted my next workout.\nYou're a good bud. Keep in touch!",
      "EUes": "Los pastelitos que me diste\nestaban de rechupete. ¡Casi tanto\ncomo un batido de proteínas!\nAprovecho para mandarte el regalo\nque no habías podido llevarte.\n¡Salud y mancuernas, {{gender2 m=\"chaval\" f=\"chavala\"}}!",
      "EUfr": "Voilà par courrier le cadeau que\nj'ai pas pu t'offrir l'autre jour.\nJ'oublierai jamais le goût de ton\nexcellent cupcake d'anniversaire !\nY a pas à dire, t'es vraiment un{{gender2 m=\"\" f=\"e\"}}\nchouette {{gender2 m=\"pote\" f=\"copine\"}} ! À bientôt !",
      "EUit": "Sto saltando dalla gioia (così mi\nalleno, anche) perché con questo\nbiglietto troverai il mio regalo di\nringraziamento per quel tuo super\ndeliziosissimo cupcake! Spero che\nti piaccia, amic{{gender2 m=\"o mio\" f=\"a mia\"}}. A presto!",
      "EUnl": "Hier is dat verjaardagscadeau dat\nik je laatst niet meer kon geven. En\nnog bedankt voor je cupcake, ik\nkreeg er megaveel energie van.\nSuper van je! Tot gauw, man!",
      "EUru": "Высылаю тебе подарок, который\nне смог передать тебе ранее.\nЭти твои кексики просто чудо!\nВ них столько сахара, что я потом\nкак заведенный тренировался.\nРеспект тебе! До скорого!",
      "JPja": "このまえ、オマエに　わたしそびれた\nたんじょうびプレゼントを　おくるぞー！\nオイラも、オマエがくれた\nバースデーカップケーキのあじは、\nずっと　わすれないからな。\nこれからも　ヨロシクたのんだぞー！",
      "KRko": "저번에 너한테 못 줬던\n생일 선물을 보내줄게－!\n니가 준 생일 컵케이크의 맛은\n나도 아마 평생 못 잊을 거야!\n앞으로도 사이좋게 지내자－!",
      "TWzh": "之前來不及拿給你的生日禮物，\n我就直接寄給你啦──！\n我永遠不會忘記\n你那天送我的\n生日紙杯蛋糕的味道喔。\n從今以後也請你多多指教囉～！",
      "USen": "Here's the birthday gift I wasn't\nable to hand you the other day.\nAlso thanks for the birthday\ncupcake. The sugar rush I got from\nit really boosted my next workout.\nYou're a good bud. Keep in touch!",
      "USes": "Los pastelitos que me diste\nestaban de rechupete. ¡Casi tanto\ncomo un licuado de proteínas!\nAprovecho para mandarte el regalo\nque no habías podido llevarte.\n¡Salud y mancuernas!",
      "USfr": "Je te fais livrer le cadeau que\nj'ai pas pu t'offrir l'autre jour.\nJ'oublierai jamais le goût de ton\nexcellent cupcake!\nY'a pas à dire, t'es vraiment un{{gender2 m=\"\" f=\"e\"}}\n{{gender2 m=\"chum\" f=\"chumette\"}} cool! À bientôt!"
    }
  },
  {
    "label": "109",
    "locale": {
      "CNzh": "虽然有点晚了，\n但这是之前的生日礼物哦。\n并不是因为你分了我蛋糕，\n我才匆匆忙忙准备起来的，\n绝对没有那种事哦！\n只是刚好这个时候给你罢了！",
      "EUde": "Besser spät als nie: Hier ist dein\nGeburtstagsgeschenk. Glaub nicht,\ndass du das jetzt nur bekommst,\nweil du mir einen Cupcake gegeben\nhast, so im Nachhinein. Du solltest\ndas sowieso kriegen – ehrlich!",
      "EUen": "Sorry I'm late, but I'm sending you\na birthday present. I swear I didn't\njust get something for you at the\nlast minute because you shared a\ncupcake with me. The timing just\nworked out that way! Yeah...",
      "EUes": "Perdón por llegar tarde a la meta,\npero aquí tienes el regalo que te\npertenece. Te apuntaste un buen\ntanto con los pastelitos que me\ndiste, fiera. ¡Con esto espero\npoder empatar el partido!",
      "EUfr": "Désolé d'avoir tardé à te l'envoyer,\nmais voilà un cadeau d'anniversaire\nde ma part. C'est pas un achat de\ndernière minute parce que tu m'as\noffert un cupcake, j'ai juste pas pu\nte l'offrir avant, c'est tout !",
      "EUit": "Ma come fai? Palestra, corsa e\nantiossidanti? Ad ogni modo,\nspero ti piacerà il regalo sprint\nche ti mando per augurarti buon\ncompleanno e ringraziarti del\ngustoso cupcake che mi hai dato!",
      "EUnl": "Sorry dat ik zo laat ben, maar ik\nstuur ook een verjaardagscadeau\nmee. En dat is niet alleen omdat\nje een cupcake met me deelde.\nHet komt gewoon precies goed uit!",
      "EUru": "Лучше поздно, чем никогда!\nВысылаю тебе подарок. Только\nне подумай, что я решил подарить\nтебе ответный подарок за твои\nкексы. Это обычное совпадение!",
      "JPja": "おそくなったけど、こないだの\nバースデープレゼントおくるよ。\nべつに、おすそわけを　もらったから\nあわてて　よういしたとか\nそういうんじゃ　ないんだからなー！\nたまたま　このタイミングだっただけだー！",
      "KRko": "늦었지만 저번에 못 준\n생일 선물을 보낸다－\n딱히 니가 컵케이크를 나눠줘서\n허둥지둥 준비해서 보내는 건\n절대로 아니란 걸 알아 둬－!\n그냥 타이밍이 그랬을 뿐이라구－!",
      "TWzh": "雖然現在好像已經有點晚了，\n不過我把生日禮物寄給你囉。\n我不是因為收到你分享的紙杯蛋糕，\n所以才急急忙忙地準備了禮物喔！\n絕對不是喔──！\n只是碰巧時間點一樣而已啦！",
      "USen": "Sorry I'm late, but I'm sending you\na birthday present. I swear I didn't\njust get something for you at the\nlast minute because you shared a\ncupcake with me. The timing just\nworked out that way! Yeah...",
      "USes": "Perdón por llegar tarde a la meta,\npero aquí tienes el regalo que te\npertenece. Te sacaste buena\npuntuación con los pastelitos que\nme diste. ¡Te mando un regalo\npara empatar el detalle!",
      "USfr": "Désolé d'avoir tardé à te l'envoyer,\nmais voilà un cadeau de fête\nde ma part. C'est pas un achat de\ndernière minute parce que tu m'as\noffert un cupcake, j'ai juste pas\npu te l'offrir avant, c'est tout!"
    }
  },
  {
    "label": "201",
    "locale": {
      "CNzh": "运动员{{string value=\"VillagerName\"}}",
      "EUde": "Dein Teamplayer {{string value=\"VillagerName\"}}",
      "EUen": "Yours in sports, {{string value=\"VillagerName\"}}",
      "EUes": "Con deportividad, {{string value=\"VillagerName\"}}",
      "EUfr": "Sportives amitiés, {{string value=\"VillagerName\"}}",
      "EUit": "Tuo indolenzito {{string value=\"VillagerName\"}}",
      "EUnl": "Je sportmaatje, {{string value=\"VillagerName\"}}",
      "EUru": "Твой лучший друг {{string value=\"VillagerName\"}}",
      "JPja": "アスリートの　{{string value=\"VillagerName\"}}より",
      "KRko": "운동선수 {{string value=\"VillagerName\"}}{{gender5 m=\"이\" f=\"가\"}}",
      "TWzh": "職業運動員{{string value=\"VillagerName\"}}　筆",
      "USen": "Yours in sports, {{string value=\"VillagerName\"}}",
      "USes": "Con deportividad, {{string value=\"VillagerName\"}}",
      "USfr": "Sportives amitiés, {{string value=\"VillagerName\"}}"
    }
  },
  {
    "label": "202",
    "locale": {
      "CNzh": "肌肉伙伴{{string value=\"VillagerName\"}}",
      "EUde": "Dein fitter {{string value=\"VillagerName\"}}",
      "EUen": "Your buff bud, {{string value=\"VillagerName\"}}",
      "EUes": "Tu compi y rival, {{string value=\"VillagerName\"}}",
      "EUfr": "Ton pote costaud {{string value=\"VillagerName\"}}",
      "EUit": "Tuo palestratissimo {{string value=\"VillagerName\"}}",
      "EUnl": "Je gespierde vriend, {{string value=\"VillagerName\"}}",
      "EUru": "Великий спортсмен {{string value=\"VillagerName\"}}",
      "JPja": "キンニクなかま　{{string value=\"VillagerName\"}}より",
      "KRko": "근육맨 동지 {{string value=\"VillagerName\"}}{{gender5 m=\"이\" f=\"가\"}}",
      "TWzh": "健身好夥伴{{string value=\"VillagerName\"}}　筆",
      "USen": "Your buff bud, {{string value=\"VillagerName\"}}",
      "USes": "Tu colega y rival, {{string value=\"VillagerName\"}}",
      "USfr": "Ton chum costaud {{string value=\"VillagerName\"}}"
    }
  },
  {
    "label": "203",
    "locale": {
      "CNzh": "你的教练{{string value=\"VillagerName\"}}",
      "EUde": "Schwitzige Grüße, {{string value=\"VillagerName\"}}",
      "EUen": "Sincerely, Captain {{capitalizeNextLetter}}{{string value=\"VillagerName\"}}",
      "EUes": "Saludos tonificados, {{string value=\"VillagerName\"}}",
      "EUfr": "Ton rival et ami, {{string value=\"VillagerName\"}}",
      "EUit": "Tuo {{string value=\"VillagerName\"}}",
      "EUnl": "Groetjes, Captain {{string value=\"VillagerName\"}}",
      "EUru": "Капитан команды {{string value=\"VillagerName\"}}",
      "JPja": "オマエのコーチ　{{string value=\"VillagerName\"}}より",
      "KRko": "너의 코치 {{string value=\"VillagerName\"}} 보냄",
      "TWzh": "你的教練{{string value=\"VillagerName\"}}　筆",
      "USen": "Sincerely, Captain {{capitalizeNextLetter}}{{string value=\"VillagerName\"}}",
      "USes": "Saludos tonificados, {{string value=\"VillagerName\"}}",
      "USfr": "Ton rival et chum, {{string value=\"VillagerName\"}}"
    }
  },
  {
    "label": "204",
    "locale": {
      "CNzh": "很合适吧？{{string value=\"VillagerName\"}}",
      "EUde": "Dein Trainer {{string value=\"VillagerName\"}}",
      "EUen": "Taut always, {{string value=\"VillagerName\"}}",
      "EUes": "Buen entreno, {{string value=\"VillagerName\"}}",
      "EUfr": "Bon entraînement ! {{string value=\"VillagerName\"}}",
      "EUit": "Tuo sodissimo {{string value=\"VillagerName\"}}",
      "EUnl": "Je trainer, {{string value=\"VillagerName\"}}",
      "EUru": "Занимайся спортом! {{string value=\"VillagerName\"}}",
      "JPja": "バッチリだろ？　{{string value=\"VillagerName\"}}",
      "KRko": "아주 완벽하지? {{string value=\"VillagerName\"}}",
      "TWzh": "我很可靠吧？{{string value=\"VillagerName\"}}",
      "USen": "Taut always, {{string value=\"VillagerName\"}}",
      "USes": "¡Felices pesas! {{string value=\"VillagerName\"}}",
      "USfr": "Bon entraînement! {{capitalizeNextLetter}}{{string value=\"VillagerName\"}}"
    }
  },
  {
    "label": "205",
    "locale": {
      "CNzh": "气势十足！{{string value=\"VillagerName\"}}",
      "EUde": "Fix und alle: {{string value=\"VillagerName\"}}",
      "EUen": "Fully stoked, {{string value=\"VillagerName\"}}",
      "EUes": "A sentadilla limpia, {{string value=\"VillagerName\"}}",
      "EUfr": "Énergiquement, {{string value=\"VillagerName\"}}",
      "EUit": "Tuo estenuato {{string value=\"VillagerName\"}}",
      "EUnl": "Boks, {{string value=\"VillagerName\"}}",
      "EUru": "Твой друг-качок {{string value=\"VillagerName\"}}",
      "JPja": "キアイじゅうぶん　{{string value=\"VillagerName\"}}",
      "KRko": "의욕이 넘치는 {{string value=\"VillagerName\"}}",
      "TWzh": "衝勁十足的{{string value=\"VillagerName\"}}",
      "USen": "Fully stoked, {{string value=\"VillagerName\"}}",
      "USes": "¡Sigue así! {{string value=\"VillagerName\"}}",
      "USfr": "Énergiquement, {{string value=\"VillagerName\"}}"
    }
  },
  {
    "label": "206",
    "locale": {
      "CNzh": "炫耀肌肉！{{string value=\"VillagerName\"}}",
      "EUde": "Und das bin ich, {{string value=\"VillagerName\"}}",
      "EUen": "Swole forever, {{string value=\"VillagerName\"}}",
      "EUes": "Musculadamente, {{string value=\"VillagerName\"}}",
      "EUfr": "Sportivement, {{string value=\"VillagerName\"}}",
      "EUit": "Con mille sorrisi, {{string value=\"VillagerName\"}}",
      "EUnl": "Je sportieve vriend, {{string value=\"VillagerName\"}}",
      "EUru": "Качок навсегда, {{string value=\"VillagerName\"}}",
      "JPja": "キンニクじまん　{{string value=\"VillagerName\"}}",
      "KRko": "자랑스러운 근육맨 {{string value=\"VillagerName\"}}",
      "TWzh": "對肌肉很有自信的{{string value=\"VillagerName\"}}",
      "USen": "Swole forever, {{string value=\"VillagerName\"}}",
      "USes": "Tu amigo musculoso, {{string value=\"VillagerName\"}}",
      "USfr": "Sportivement, {{string value=\"VillagerName\"}}"
    }
  },
  {
    "label": "207",
    "locale": {
      "CNzh": "再见啦！{{string value=\"VillagerName\"}}！",
      "EUde": "Fromme Grüße, {{string value=\"VillagerName\"}}",
      "EUen": "In it to win it, {{string value=\"VillagerName\"}}",
      "EUes": "A por la medalla, {{string value=\"VillagerName\"}}",
      "EUfr": "Amitiés musclées, {{string value=\"VillagerName\"}}",
      "EUit": "Il tuo tifoso {{string value=\"VillagerName\"}}",
      "EUnl": "Tik hem aan, {{string value=\"VillagerName\"}}!",
      "EUru": "До скорого! {{capitalizeNextLetter}}{{string value=\"VillagerName\"}}",
      "JPja": "じゃーな！　{{string value=\"VillagerName\"}}！",
      "KRko": "그럼 이만－! {{string value=\"VillagerName\"}}!",
      "TWzh": "再會啦！{{string value=\"VillagerName\"}}！",
      "USen": "In it to win it, {{string value=\"VillagerName\"}}",
      "USes": "¡Felices sentadillas! {{string value=\"VillagerName\"}}",
      "USfr": "Amitiés musclées, {{string value=\"VillagerName\"}}"
    }
  },
  {
    "label": "208",
    "locale": {
      "CNzh": "肌肉好友{{string value=\"VillagerName\"}}",
      "EUde": "Alles fürs Team! –{{string value=\"VillagerName\"}}",
      "EUen": "Team {{capitalizeNextLetter}}{{string value=\"VillagerName\"}} for the win!",
      "EUes": "Todo por el músculo, {{string value=\"VillagerName\"}}",
      "EUfr": "Ton pote musclé {{string value=\"VillagerName\"}}",
      "EUit": "Tuo saltellante {{string value=\"VillagerName\"}}",
      "EUnl": "Alles voor team {{string value=\"VillagerName\"}}!",
      "EUru": "Мы — команда! {{capitalizeNextLetter}}{{string value=\"VillagerName\"}}",
      "JPja": "キンニクフレンド　{{string value=\"VillagerName\"}}より",
      "KRko": "근육 친구 {{string value=\"VillagerName\"}}{{gender5 m=\"이\" f=\"가\"}}",
      "TWzh": "同為肌肉好友的{{string value=\"VillagerName\"}}　筆",
      "USen": "Team {{capitalizeNextLetter}}{{string value=\"VillagerName\"}} for the win!",
      "USes": "¡A entrenar! {{string value=\"VillagerName\"}}",
      "USfr": "Ton chum musclé {{string value=\"VillagerName\"}}"
    }
  },
  {
    "label": "209",
    "locale": {
      "CNzh": "健忘的{{string value=\"VillagerName\"}}",
      "EUde": "Vorausschauend: {{string value=\"VillagerName\"}}",
      "EUen": "Best buds forever, {{string value=\"VillagerName\"}}",
      "EUes": "Felices agujetas, {{string value=\"VillagerName\"}}",
      "EUfr": "Mille excuses ! {{string value=\"VillagerName\"}}",
      "EUit": "Il tuo ammiratore {{string value=\"VillagerName\"}}",
      "EUnl": "Je beste vriend, {{string value=\"VillagerName\"}}",
      "EUru": "Твой друг навеки {{string value=\"VillagerName\"}}",
      "JPja": "わすれっぽい　{{string value=\"VillagerName\"}}より",
      "KRko": "잘 까먹는 {{string value=\"VillagerName\"}} 보냄",
      "TWzh": "忘東忘西的{{string value=\"VillagerName\"}}　筆",
      "USen": "Best buds forever, {{string value=\"VillagerName\"}}",
      "USes": "¡Sigue así! {{string value=\"VillagerName\"}}",
      "USfr": "Mille excuses! {{capitalizeNextLetter}}{{string value=\"VillagerName\"}}"
    }
  }
]