﻿[
  {
    "label": "002",
    "attribute": "0x00000000",
    "text": "{{anim id=\"Greeting\" target=\"actor\" targetSpec=\"\"}}Bedankt dat je alles regelt!"
  },
  {
    "label": "003",
    "attribute": "0x01000000",
    "text": "{{anim id=\"Thinking\" target=\"actor\" targetSpec=\"\"}}Hmm{{string value=\"...\"}} Ik had nog niet nagedacht\nover een tweede verdieping.{{delay frames=\"40\"}} {{anim id=\"Hello\" target=\"actor\" targetSpec=\"\"}}Wat\nraad jij me aan?"
  },
  {
    "label": "003_01",
    "attribute": "0x00000000",
    "text": "Bedankt voor alle moeite die je al\nhebt gedaan!{{delay frames=\"40\"}} {{color id=\"3\"}}{{anim id=\"HappyFlower\" target=\"actor\" targetSpec=\"\"}}Timmy {{color id=\"65535\"}}was ook erg blij\nom te horen dat jij alles zou regelen!"
  },
  {
    "label": "003_03",
    "attribute": "0x00000000",
    "text": "{{anim id=\"HappyFlower\" target=\"actor\" targetSpec=\"\"}}Dit is fantastisch!{{delay frames=\"40\"}} Ik kan bijna niet\ngeloven dat ons vakantiehuis hier\nwordt gebouwd!"
  },
  {
    "label": "003_04",
    "attribute": "0x00000000",
    "text": "{{anim id=\"Smiling\" target=\"actor\" targetSpec=\"\"}}We verheugen ons op het\nuiteindelijke resultaat!{{delay frames=\"40\"}} {{anim id=\"Greeting\" target=\"actor\" targetSpec=\"\"}}Bedankt!"
  },
  {
    "label": "003_a",
    "attribute": "0x00000000",
    "text": "Eén verdieping."
  },
  {
    "label": "003_b",
    "attribute": "0x00000000",
    "text": "Twee verdiepingen."
  },
  {
    "label": "004",
    "attribute": "0x00000000",
    "text": "Oké{{string value=\"...\"}}{{delay20}} {{anim id=\"BigSmile\" target=\"actor\" targetSpec=\"\"}}Bedankt voor je hulp!{{delay frames=\"40\"}}\n{{anim id=\"Smiling\" target=\"actor\" targetSpec=\"\"}}Dan wil ik graag één verdieping!"
  },
  {
    "label": "005",
    "attribute": "0x00000000",
    "text": "Oké{{string value=\"...\"}}{{delay20}} {{anim id=\"BigSmile\" target=\"actor\" targetSpec=\"\"}}Bedankt voor je hulp!{{delay frames=\"40\"}}\n{{anim id=\"Smiling\" target=\"actor\" targetSpec=\"\"}}Dan wil ik graag twee verdiepingen!"
  }
]