﻿[
  {
    "label": "101",
    "attribute": "0x00000013",
    "text": "どうも{{string value=\"...\"}}{{delay20}}オイラ　{{color id=\"3\"}}{{string value=\"VillagerName\"}}{{color id=\"65535\"}}でゴワス{{delay40}}\n{{anim id=\"QuestionMark\" target=\"actor\" targetSpec=\"\"}}どちらさまでゴワスか？{{delay frames=\"50\"}}\n{{anim id=\"Eh\" target=\"actor\" targetSpec=\"\"}}{{string value=\"...\"}}えっ？！{{delay20}}　オイラに{{ruby charSpan=\"2\" value=\"べっそう\"}}別荘の{{ruby charSpan=\"2\" value=\"ていあん\"}}提案？！{{pageBreak}}{{anim id=\"Frantic\" target=\"actor\" targetSpec=\"\"}}あ、{{delay8}}ありがたい！{{delay40}}\n{{anim id=\"Hesitate\" target=\"actor\" targetSpec=\"\"}}ちょうど{{delay20}}　じっくり{{ruby charSpan=\"1\" value=\"え\"}}絵に{{ruby charSpan=\"1\" value=\"と\"}}取りかかれる\nアトリエが　{{ruby charSpan=\"1\" value=\"ほ\"}}欲しかったんでゴワス！{{pageBreak}}{{anim id=\"Nodding\" target=\"actor\" targetSpec=\"\"}}{{ruby charSpan=\"1\" value=\"くわ\"}}詳しい{{ruby charSpan=\"1\" value=\"はなし\"}}話を　{{ruby charSpan=\"1\" value=\"き\"}}聞きたいから{{delay frames=\"30\"}}\n{{anim id=\"Greeting\" target=\"actor\" targetSpec=\"\"}}{{ruby charSpan=\"1\" value=\"いま\"}}今すぐ{{delay20}}　そちらに　{{ruby charSpan=\"1\" value=\"うかが\"}}伺わせてもらうでゴワス！"
  }
]