﻿[
  {
    "label": "001_a",
    "text": "{{anim id=\"Nodding\" target=\"actor\" targetSpec=\"\"}}Sì, certo!"
  },
  {
    "label": "001_b",
    "text": "{{anim id=\"Negative\" target=\"actor\" targetSpec=\"\"}}Adesso no, grazie."
  },
  {
    "label": "002_a",
    "text": "{{anim id=\"Nodding\" target=\"actor\" targetSpec=\"\"}}Sì, mi piacerebbe!"
  },
  {
    "label": "002_b",
    "text": "{{anim id=\"Negative\" target=\"actor\" targetSpec=\"\"}}Adesso no, grazie."
  },
  {
    "label": "003_a",
    "text": "{{anim id=\"Nodding\" target=\"actor\" targetSpec=\"\"}}Sì, certo!"
  },
  {
    "label": "003_b",
    "text": "{{anim id=\"Negative\" target=\"actor\" targetSpec=\"\"}}Adesso no, grazie."
  },
  {
    "label": "004_a",
    "text": "{{anim id=\"Nodding\" target=\"actor\" targetSpec=\"\"}}Senz'altro!"
  },
  {
    "label": "004_b",
    "text": "{{anim id=\"Negative\" target=\"actor\" targetSpec=\"\"}}Adesso no, grazie."
  },
  {
    "label": "005_a",
    "text": "Lascio fare a te."
  },
  {
    "label": "005_b",
    "text": "In base al mio umore."
  },
  {
    "label": "005_c",
    "text": "Un pezzo in particolare."
  },
  {
    "label": "005_d",
    "text": "{{anim id=\"Negative\" target=\"actor\" targetSpec=\"\"}}Ho cambiato idea."
  },
  {
    "label": "010_a",
    "text": "{{anim id=\"Nodding\" target=\"actor\" targetSpec=\"\"}}Sentiamo!"
  },
  {
    "label": "010_b",
    "text": "{{anim id=\"Negative\" target=\"actor\" targetSpec=\"\"}}No, grazie."
  },
  {
    "label": "011_a",
    "text": "{{anim id=\"Nodding\" target=\"actor\" targetSpec=\"\"}}Ne compro un po'."
  },
  {
    "label": "011_b",
    "text": "{{anim id=\"Explain\" target=\"actor\" targetSpec=\"\"}}Spiegami meglio."
  },
  {
    "label": "011_c",
    "text": "{{anim id=\"Negative\" target=\"actor\" targetSpec=\"\"}}No, grazie."
  },
  {
    "label": "015_a",
    "text": "{{anim id=\"Nodding\" target=\"actor\" targetSpec=\"\"}}Te li restituisco."
  },
  {
    "label": "015_b",
    "text": "{{anim id=\"Negative\" target=\"actor\" targetSpec=\"\"}}Me li tengo io."
  },
  {
    "label": "020_a",
    "text": "{{anim id=\"Nodding\" target=\"actor\" targetSpec=\"\"}}Certo, ci penso io!"
  },
  {
    "label": "020_b",
    "text": "{{anim id=\"Negative\" target=\"actor\" targetSpec=\"\"}}Non se ne parla!"
  },
  {
    "label": "030_a",
    "text": "{{anim id=\"Nodding\" target=\"actor\" targetSpec=\"\"}}Eccome!"
  },
  {
    "label": "030_b",
    "text": "{{anim id=\"Negative\" target=\"actor\" targetSpec=\"\"}}Direi di no..."
  },
  {
    "label": "031_a",
    "text": "{{anim id=\"Nodding\" target=\"actor\" targetSpec=\"\"}}Affare fatto."
  },
  {
    "label": "031_b",
    "text": "{{anim id=\"Negative\" target=\"actor\" targetSpec=\"\"}}No, grazie."
  },
  {
    "label": "032",
    "text": "No, non mi serve."
  },
  {
    "label": "033_a",
    "text": "Un tappeto."
  },
  {
    "label": "033_b",
    "text": "Carta misteriosa."
  },
  {
    "label": "033_c",
    "text": "Pavimento misterioso."
  },
  {
    "label": "033_d",
    "text": "Sono a posto, grazie."
  },
  {
    "label": "050_a",
    "text": "Cappello di Capodanno!"
  },
  {
    "label": "050_b",
    "text": "Uno sparacoriandoli."
  },
  {
    "label": "050_c",
    "text": "{{anim id=\"Negative\" target=\"actor\" targetSpec=\"\"}}Non mi serve niente."
  },
  {
    "label": "051",
    "text": "Rosso"
  },
  {
    "label": "052",
    "text": "Blu"
  },
  {
    "label": "053",
    "text": "Giallo"
  },
  {
    "label": "054",
    "text": "Verde"
  },
  {
    "label": "055",
    "text": "Arancione"
  },
  {
    "label": "056",
    "text": "Viola"
  },
  {
    "label": "057",
    "text": "Rosa"
  },
  {
    "label": "058",
    "text": "Turchese"
  }
]