﻿[
  {
    "label": "002",
    "attribute": "0x00000000",
    "text": "這裡就是我和奶奶、{{delay8}}老媽{{delay8}}還有老爸\n{{anim id=\"Love\" target=\"actor\" targetSpec=\"\"}}大家一起住的別墅唄～！{{pageBreak}}{{anim id=\"Laughing\" target=\"actor\" targetSpec=\"\"}}因為我還小，{{delay20}}有很多事都不懂，{{delay8}}\n所以全～部的工作都交給\n{{string value=\"PlayerName\"}}處理了～！"
  },
  {
    "label": "003",
    "attribute": "0x01000000",
    "text": "{{anim id=\"Restless\" target=\"actor\" targetSpec=\"\"}}咦～{{delay20}}可以讓我決定嗎{{string value=\"...\"}}？{{delay20}}\n{{anim id=\"EmotEnd\" target=\"actor\" targetSpec=\"\"}}{{string value=\"PlayerName\"}}，{{delay8}}\n{{anim id=\"Hello\" target=\"actor\" targetSpec=\"\"}}你覺得哪種比較好呢～？"
  },
  {
    "label": "003_01",
    "attribute": "0x00000000",
    "text": "{{anim id=\"HappyDance\" target=\"actor\" targetSpec=\"\"}}嘻嘻，{{delay20}}這樣好像在扮演不動產公司的人，{{delay20}}\n感覺真開心～"
  },
  {
    "label": "003_03",
    "attribute": "0x00000000",
    "text": "{{anim id=\"BigSmile\" target=\"actor\" targetSpec=\"\"}}哇～！{{delay frames=\"40\"}}{{anim id=\"Smiling\" target=\"actor\" targetSpec=\"\"}}如果能選這裡，{{delay8}}我會很高興的～"
  },
  {
    "label": "003_04",
    "attribute": "0x00000000",
    "text": "{{anim id=\"HappyDance\" target=\"actor\" targetSpec=\"\"}}這樣啊～{{delay frames=\"40\"}}好期待搬家喔～"
  },
  {
    "label": "003_a",
    "attribute": "0x00000000",
    "text": "一層樓"
  },
  {
    "label": "003_b",
    "attribute": "0x00000000",
    "text": "兩層樓"
  },
  {
    "label": "004",
    "attribute": "0x00000000",
    "text": "{{anim id=\"Smiling\" target=\"actor\" targetSpec=\"\"}}那就請你蓋成一層樓吧～！"
  },
  {
    "label": "005",
    "attribute": "0x00000000",
    "text": "{{anim id=\"Smiling\" target=\"actor\" targetSpec=\"\"}}那就請你蓋成兩層樓吧～！"
  }
]