﻿[
  {
    "label": "001",
    "attribute": "0x0000002800000000",
    "text": "{{anim id=\"BigSmile\" target=\"actor\" targetSpec=\"\"}}Ci siamo,{{delay8}} amic{{gender2 m=\"o\" f=\"a\"}}!{{delay20}} È la notte di\nHalloween! {{delay20}}Ci sarai all'evento delle\n17:00? {{delay20}}Io sì,{{delay8}} puoi scommetterci!"
  },
  {
    "label": "002",
    "attribute": "0x0000002800000000",
    "text": "{{anim id=\"FaintSmile\" target=\"actor\" targetSpec=\"\"}}Halloween,{{delay8}} finalmente! {{delay20}}Non manca\nmolto all'inizio dei festeggiamenti.\n{{delay20}}{{anim id=\"Greeting\" target=\"actor\" targetSpec=\"\"}}Aspetta e vedrai, {{string value=\"6\"}}!"
  },
  {
    "label": "003",
    "attribute": "0x0000002800000000",
    "text": "{{anim id=\"EmotEnd\" target=\"actor\" targetSpec=\"\"}}È Halloween!{{delay20}} {{anim id=\"Scheming\" target=\"actor\" targetSpec=\"\"}}Spero che siate pronti.{{delay20}}\nHo preparato battute ancora più\nspassose del solito, {{string value=\"6\"}}!"
  },
  {
    "label": "004",
    "attribute": "0x0000002700000000",
    "text": "{{anim id=\"HappyDance\" target=\"actor\" targetSpec=\"\"}}Manca pochissimo all'inizio del grande evento di Halloween, {{string value=\"6\"}}!"
  },
  {
    "label": "005",
    "attribute": "0x0000002700000000",
    "text": "{{anim id=\"Explain\" target=\"actor\" targetSpec=\"\"}}Sai, {{delay8}}la parte più snervante di questa\nfesta di Halloween è il controllo dei\npreparativi all'ultimo minuto.{{pageBreak}}{{anim id=\"Restless\" target=\"actor\" targetSpec=\"\"}}Avrò preparato tutto bene?{{delay20}} Avrei\ndovuto prendere più caramelle?{{delay20}} O\npiù scherzetti?\n{{anim id=\"Eh\" target=\"actor\" targetSpec=\"\"}}Come ci si può divertire in queste\ncondizioni, {{string value=\"6\"}}?"
  },
  {
    "label": "006",
    "attribute": "0x0000002700000000",
    "text": "{{anim id=\"EmotEnd\" target=\"actor\" targetSpec=\"\"}}È quasi l'ora! {{delay20}}Sono quasi le 17:00!{{delay20}}\n{{anim id=\"Worried\" target=\"actor\" targetSpec=\"\"}}E se poi questo Halloween è davvero\npauroso come dicono tutti gli anni?"
  },
  {
    "label": "100",
    "attribute": "0x0000000000000000",
    "text": "{{anim id=\"FaintSmile\" target=\"actor\" targetSpec=\"\"}}È divertente vedere le decorazioni\ndi Halloween che spuntano un po'\ncome funghi,{{delay8}} vero?{{pageBreak}}{{anim id=\"Grin\" target=\"actor\" targetSpec=\"\"}}Basta che non spuntino funghi veri,{{delay8}}\nnon sono un gran fan. {{anim id=\"Laughing\" target=\"actor\" targetSpec=\"\"}}{{delay20}}AHAHAH!{{delay8}}{{anim id=\"FaintSmile\" target=\"actor\" targetSpec=\"\"}}"
  },
  {
    "label": "101",
    "attribute": "0x0000000000000000",
    "text": "{{anim id=\"Thinking\" target=\"actor\" targetSpec=\"\"}}A vedere tutte queste decorazioni di\nHalloween in giro mi sto agitando un\npo', {{string value=\"6\"}}.{{pageBreak}}{{anim id=\"EmotEnd\" target=\"actor\" targetSpec=\"\"}}Forse Halloween mi piace più di\nquanto pensassi{{string value=\"...\"}}{{delay20}} {{anim id=\"Blushing\" target=\"actor\" targetSpec=\"\"}}O forse mi è\nrimasta la cena di ieri sullo stomaco?"
  },
  {
    "label": "102",
    "attribute": "0x0000000000000000",
    "text": "Certo,{{delay8}} sono solo decorazioni di\nHalloween{{string value=\"...\"}}{{delay20}} {{anim id=\"Smiling\" target=\"actor\" targetSpec=\"\"}}ma messe tutte insieme\nfanno impressione, {{string value=\"6\"}}.{{pageBreak}}{{anim id=\"Nodding\" target=\"actor\" targetSpec=\"\"}}Sento che questo Halloween sarà\ndavvero speciale{{string value=\"...\"}}{{delay20}} o almeno molto,{{delay8}}\nmolto arancione! {{anim id=\"Laughing\" target=\"actor\" targetSpec=\"\"}}{{delay20}}AHAHAH!{{delay8}}{{anim id=\"FaintSmile\" target=\"actor\" targetSpec=\"\"}}"
  },
  {
    "label": "103",
    "attribute": "0x0000000000000000",
    "text": "{{anim id=\"Restless\" target=\"actor\" targetSpec=\"\"}}Fooorse quest'isola sta un filino\nesagerando con tutte queste\ndecorazioni, {{string value=\"6\"}}.{{pageBreak}}{{anim id=\"Serious\" target=\"actor\" targetSpec=\"\"}}Per carità, {{delay8}}mi piacciono Halloween e\nle zucche{{string value=\"...\"}}{{delay20}} {{anim id=\"OhGeez\" target=\"actor\" targetSpec=\"\"}}ma non riesco a smettere\ndi pensare a chi dovrà rassettare."
  }
]