﻿[
  {
    "label": "001",
    "attribute": "0x0000000000000000",
    "text": "{{fun_0014003C arg=\"\"}}"
  },
  {
    "label": "001_01",
    "attribute": "0x0000000000000000",
    "text": "{{size value=\"75\"}}Hmm{{string value=\"...\"}} Celui qui essaiera de me chatouiller{{string value=\"...\"}}\nrisque de le regretter{{string value=\"...\"}}{{size value=\"100\"}}{{anim id=\"EmotEnd\" target=\"actor\" targetSpec=\"\"}}"
  },
  {
    "label": "001_02",
    "attribute": "0x0000000000000000",
    "text": "{{size value=\"75\"}}{{string value=\"...\"}} Grm{{string value=\"...\"}} Nan, attends, gamin{{string value=\"...\"}} J'vais te montrer\ncomment faire pour attraper la lune{{string value=\"...\"}}{{delay frames=\"40\"}}{{size value=\"100\"}}{{anim id=\"EmotEnd\" target=\"actor\" targetSpec=\"\"}}"
  },
  {
    "label": "001_03",
    "attribute": "0x0000000000000000",
    "text": "{{color id=\"4\"}}Zzzz{{string value=\"...\"}}{{delay8}} Zzzz{{string value=\"...\"}} Tu veux ma photo{{string value=\"...\"}}?{{color id=\"65535\"}}{{delay frames=\"40\"}}{{anim id=\"EmotEnd\" target=\"actor\" targetSpec=\"\"}}"
  },
  {
    "label": "101",
    "attribute": "0x0000000000000000",
    "text": "{{fun_0014003C arg=\"\"}}"
  },
  {
    "label": "101_01",
    "attribute": "0x0000000000000000",
    "text": "Zzz{{string value=\"...\"}} {{color id=\"4\"}}Hi hi hi{{string value=\"...\"}}{{color id=\"65535\"}} {{color id=\"4\"}}Arrête tout de suite.{{color id=\"65535\"}}\n{{color id=\"4\"}}J'ai dit que j'suis pas chatouilleux{{string value=\"...\"}}{{color id=\"65535\"}}\n{{color id=\"4\"}}Alors me donne pas tort{{string value=\"...\"}}{{color id=\"65535\"}} Zzz{{string value=\"...\"}}"
  },
  {
    "label": "101_02",
    "attribute": "0x0000000000000000",
    "text": "Mmm{{string value=\"...\"}} {{color id=\"4\"}}Si tu veux attraper la lune{{string value=\"...\"}}{{color id=\"65535\"}}\n{{color id=\"4\"}}tends-lui un bout d'fromage{{string value=\"...\"}}{{color id=\"65535\"}}\n{{color id=\"4\"}}Attends, j'te montre{{string value=\"...\"}}{{color id=\"65535\"}} Zzz{{string value=\"...\"}}"
  },
  {
    "label": "101_03",
    "attribute": "0x0000000000000000",
    "text": "Mmm{{string value=\"...\"}} {{color id=\"4\"}}comment ça, je suis{{color id=\"65535\"}} {{color id=\"4\"}}{{wordArticle}}{{string value=\"VillagerRace\"}}{{string value=\"...\"}}? Depuis quand{{string value=\"...\"}}?{{color id=\"65535\"}} Zzz{{string value=\"...\"}}"
  },
  {
    "label": "102",
    "attribute": "0x0000000000000000",
    "text": "{{fun_0014003C arg=\"\"}}"
  },
  {
    "label": "102_01",
    "attribute": "0x0000000000000000",
    "text": "{{anim id=\"Shocked\" target=\"actor\" targetSpec=\"\"}}Wouah ?!{{delay20}}{{anim id=\"73\" target=\"actor\" targetSpec=\"\"}}{{i20_2 arg=\"6\"}} {{anim id=\"Restless\" target=\"actor\" targetSpec=\"\"}}Keskispasse ?{{delay20}} Oh, je{{string value=\"...\"}} je\nme suis assoupi ?{{delay20}} {{anim id=\"Greeting\" target=\"actor\" targetSpec=\"\"}}Merci de m'avoir\nréveillé !{{anim id=\"EmotEnd\" target=\"actor\" targetSpec=\"\"}}"
  },
  {
    "label": "102_02",
    "attribute": "0x0000000000000000",
    "text": "{{anim id=\"Outraged\" target=\"actor\" targetSpec=\"\"}}{{delay20}}Hé, mais c'est quoi ton problème ?!{{delay frames=\"40\"}} {{anim id=\"73\" target=\"actor\" targetSpec=\"\"}}{{i20_2 arg=\"6\"}}{{anim id=\"ShyBoy\" target=\"actor\" targetSpec=\"\"}}Oh, je pionçais ?{{delay20}} Merci de m'avoir\nréveillé, {{string value=\"6\"}}.{{anim id=\"EmotEnd\" target=\"actor\" targetSpec=\"\"}}"
  },
  {
    "label": "102_03",
    "attribute": "0x0000000000000000",
    "text": "{{i20_2 arg=\"6\"}}{{anim id=\"Sleepy\" target=\"actor\" targetSpec=\"\"}}Hem, non, je dormais pas.{{delay20}} Je, euh,\nje{{string value=\"...\"}}{{anim id=\"73\" target=\"actor\" targetSpec=\"\"}} {{anim id=\"Blushing\" target=\"actor\" targetSpec=\"\"}}Bon, OK, oui, je dormais, {{string value=\"6\"}} !{{anim id=\"EmotEnd\" target=\"actor\" targetSpec=\"\"}}"
  }
]