﻿[
  {
    "label": "001",
    "attribute": "0x0000000000000000",
    "text": "{{anim id=\"Smiling\" target=\"actor\" targetSpec=\"\"}}这就是我的别墅啊{{string value=\"...\"}}{{delay frames=\"40\"}}\n{{anim id=\"AbsentMindedness\" target=\"actor\" targetSpec=\"\"}}接下来它会变成什么模样呢，{{delay20}}\n我很期待哦～{{string value=\"6\"}}。"
  },
  {
    "label": "001_01",
    "attribute": "0x0000000000000000",
    "text": "{{anim id=\"EmotEnd\" target=\"actor\" targetSpec=\"\"}}那么，{{fun_00060096 arg=\"\"}}，{{delay frames=\"40\"}}\n别墅就全权交由你来负责了，{{delay20}}\n{{anim id=\"Greeting\" target=\"actor\" targetSpec=\"\"}}接下来的事情就麻烦你了哦～！{{string value=\"6\"}}。"
  },
  {
    "label": "002",
    "attribute": "0x0000020000000000",
    "text": "{{anim id=\"Eh\" target=\"actor\" targetSpec=\"\"}}怎么了？{{delay20}}\n难道已经完成了吗？！"
  },
  {
    "label": "002_01",
    "attribute": "0x0000040000000000",
    "text": "{{anim id=\"Eh\" target=\"actor\" targetSpec=\"\"}}怎么了？{{delay20}}\n难道已经完成了吗？！"
  },
  {
    "label": "002_01_a",
    "attribute": "0x0000000000000000",
    "text": "完成了！"
  },
  {
    "label": "002_01_b",
    "attribute": "0x0000000000000000",
    "text": "来建造2楼吧？"
  },
  {
    "label": "002_01_c",
    "attribute": "0x0000000000000000",
    "text": "{{anim id=\"EmotEnd\" target=\"player\" targetSpec=\"\"}}请稍等一下"
  },
  {
    "label": "002_a",
    "attribute": "0x0000000000000000",
    "text": "完成了！"
  },
  {
    "label": "002_b",
    "attribute": "0x0000000000000000",
    "text": "{{anim id=\"EmotEnd\" target=\"player\" targetSpec=\"\"}}请稍等一下"
  },
  {
    "label": "003",
    "attribute": "0x0000000000000000",
    "text": "{{anim id=\"Negative\" target=\"actor\" targetSpec=\"\"}}咦？真奇怪{{string value=\"...\"}}{{delay frames=\"40\"}}\n{{anim id=\"QuestionMark\" target=\"actor\" targetSpec=\"\"}}难道我正在做梦吗？{{delay frames=\"40\"}}\n{{anim id=\"Worried\" target=\"actor\" targetSpec=\"\"}}纸箱看起来还没打开啊{{string value=\"...\"}}"
  },
  {
    "label": "003_01",
    "attribute": "0x0000000000000000",
    "text": "{{anim id=\"WrySmile\" target=\"actor\" targetSpec=\"\"}}呵呵呵，{{delay20}}这是黑色幽默吗？{{delay frames=\"40\"}}\n你都没进家里看过呢{{string value=\"...\"}}{{i10_4}}\n{{anim id=\"Greeting\" target=\"actor\" targetSpec=\"\"}}快，{{delay20}}你还是先进屋子里看看吧。{{string value=\"6\"}}。"
  },
  {
    "label": "003_02",
    "attribute": "0x0000000000000000",
    "text": "{{anim id=\"WrySmile\" target=\"actor\" targetSpec=\"\"}}哎呀，这{{string value=\"...\"}}{{delay20}}\n这屋子里的东西{{delay20}}\n真是多得超乎我的想象呢{{string value=\"...\"}}{{pageBreak}}{{anim id=\"ShyBoy\" target=\"actor\" targetSpec=\"\"}}麻烦你这么多事情真不好意思，{{delay frames=\"40\"}}\n不过为了让我能在这栋别墅里舒适地生活，{{delay frames=\"40\"}}\n{{anim id=\"QuestionMark\" target=\"actor\" targetSpec=\"\"}}可以请你再收拾一下吗？"
  },
  {
    "label": "003_03",
    "attribute": "0x0000000000000000",
    "text": "{{anim id=\"Serious\" target=\"actor\" targetSpec=\"\"}}这个房间，东西也太多了吧{{string value=\"...\"}}{{delay20}}\n{{anim id=\"Thinking\" target=\"actor\" targetSpec=\"\"}}难得拥有了一栋别墅，可照这样下去，{{delay20}}\n都没办法好好过日子了。{{pageBreak}}{{anim id=\"ShyBoy\" target=\"actor\" targetSpec=\"\"}}不好意思啊，{{delay20}}\n可以请你再稍微收拾一下吗？{{string value=\"6\"}}。"
  },
  {
    "label": "003_04",
    "attribute": "0x0000000000000000",
    "text": "{{anim id=\"ShyBoy\" target=\"actor\" targetSpec=\"\"}}那个{{string value=\"...\"}}{{delay20}}\n另一间房间里的东西{{string value=\"...\"}}{{delay20}}\n好像也太多了啊。{{pageBreak}}{{anim id=\"Explain\" target=\"actor\" targetSpec=\"\"}}因为我想在这栋别墅里长住，{{delay20}}\n所以想尽量降低维护房子的成本。{{i10_4}}\n{{anim id=\"QuestionMark\" target=\"actor\" targetSpec=\"\"}}不好意思啊，{{delay20}}可以请你再收拾一下吗？"
  },
  {
    "label": "003_05",
    "attribute": "0x0000000000000000",
    "text": "{{anim id=\"Hesitate\" target=\"actor\" targetSpec=\"\"}}那个，{{fun_00060096 arg=\"\"}}，{{delay20}}\n之前准备的那些家具{{delay20}}\n都跑到哪里去了？{{pageBreak}}{{anim id=\"Worried\" target=\"actor\" targetSpec=\"\"}}不好意思啊{{string value=\"...\"}}\n可以请你再确认一下{{color id=\"1\"}}订购{{color id=\"65535\"}}情况，{{delay20}}\n{{anim id=\"QuestionMark\" target=\"actor\" targetSpec=\"\"}}然后按照上面的需求摆放好家具吗？"
  },
  {
    "label": "004",
    "attribute": "0x0000000000000000",
    "text": "{{anim id=\"BigSmile\" target=\"actor\" targetSpec=\"\"}}太棒了！{{delay frames=\"40\"}}\n{{anim id=\"Smiling\" target=\"actor\" targetSpec=\"\"}}我就等着这一刻呢！{{string value=\"6\"}}。"
  },
  {
    "label": "005",
    "attribute": "0x0000000000000000",
    "text": "{{anim id=\"Hello\" target=\"actor\" targetSpec=\"\"}}好的！{{delay frames=\"40\"}}\n{{anim id=\"Serious\" target=\"actor\" targetSpec=\"\"}}我会继续等待的，{{delay frames=\"40\"}}\n{{anim id=\"Grin\" target=\"actor\" targetSpec=\"\"}}直到你对你的作品感到满意为止{{string value=\"...\"}}"
  },
  {
    "label": "006",
    "attribute": "0x0000020000000000",
    "text": "{{anim id=\"Shocked\" target=\"actor\" targetSpec=\"\"}}都到现在这个阶段了，{{delay8}}还能扩建吗？！{{i10_4}}\n{{anim id=\"Thinking\" target=\"actor\" targetSpec=\"\"}}唔～{{delay20}}怎么办呢{{string value=\"...\"}}{{delay frames=\"30\"}}\n那要不我就恭敬不如从命了？{{string value=\"6\"}}。"
  },
  {
    "label": "006_a",
    "attribute": "0x0000000000000000",
    "text": "请交给我吧！"
  },
  {
    "label": "006_b",
    "attribute": "0x0000000000000000",
    "text": "还是算了吧"
  },
  {
    "label": "007",
    "attribute": "0x0000000000000000",
    "text": "{{anim id=\"Hello\" target=\"actor\" targetSpec=\"\"}}谢谢你！{{fun_00060096 arg=\"\"}}！{{delay frames=\"40\"}}\n{{anim id=\"Nodding\" target=\"actor\" targetSpec=\"\"}}那就{{delay8}}全都交给你了哦～{{string value=\"6\"}}。"
  },
  {
    "label": "008",
    "attribute": "0x0000000000000000",
    "text": "{{anim id=\"Eh\" target=\"actor\" targetSpec=\"\"}}啊？{{delay20}}看来还是不方便吗？{{delay frames=\"40\"}}\n{{anim id=\"FaintSmile\" target=\"actor\" targetSpec=\"\"}}那等下次有机会再说吧。{{string value=\"6\"}}。"
  },
  {
    "label": "011",
    "attribute": "0x0000000000000000",
    "text": "{{anim id=\"Blushing\" target=\"actor\" targetSpec=\"\"}}话说回来，{{delay20}}\n你竟然为我勤勤恳恳地工作了这么久{{string value=\"...\"}}{{delay20}}\n谢谢你的心意，我很高兴。{{string value=\"6\"}}。"
  },
  {
    "label": "013",
    "attribute": "0x0000000000000000",
    "text": "{{anim id=\"TakenAback\" target=\"actor\" targetSpec=\"\"}}咦？{{delay20}}竟然这么快就完成了吗？{{delay20}}\n你究竟使用了什么魔法？{{i10_4}}\n{{anim id=\"Nodding\" target=\"actor\" targetSpec=\"\"}}就让我来{{delay20}}看看你的成果吧。"
  },
  {
    "label": "016",
    "attribute": "0x0000000000000000",
    "text": "{{fun_0014003C arg=\"\"}}"
  },
  {
    "label": "016_01",
    "attribute": "0x0000000000000000",
    "text": "{{anim id=\"Nodding\" target=\"actor\" targetSpec=\"\"}}今天受了你不少照顾啊！{{delay20}}\n{{fun_00060096 arg=\"\"}}！"
  },
  {
    "label": "016_02",
    "attribute": "0x0000000000000000",
    "text": "{{anim id=\"Greeting\" target=\"actor\" targetSpec=\"\"}}今天谢谢你了！{{delay20}}\n{{fun_00060096 arg=\"\"}}！"
  },
  {
    "label": "017",
    "attribute": "0x0000020000000000",
    "text": "{{anim id=\"EmotEnd\" target=\"actor\" targetSpec=\"\"}}对了，{{delay20}}{{anim id=\"Hello\" target=\"actor\" targetSpec=\"\"}}你接下来要做什么？{{string value=\"6\"}}。"
  },
  {
    "label": "017_01",
    "attribute": "0x0000000000000000",
    "text": "{{anim id=\"Nodding\" target=\"actor\" targetSpec=\"\"}}好的！{{delay frames=\"40\"}}\n{{anim id=\"FaintSmile\" target=\"actor\" targetSpec=\"\"}}有空的话记得来找我玩哦。{{delay frames=\"40\"}}\n{{anim id=\"Nodding\" target=\"actor\" targetSpec=\"\"}}我随时欢迎你。{{string value=\"6\"}}。"
  },
  {
    "label": "017_02",
    "attribute": "0x0000000000000000",
    "text": "{{anim id=\"BigSmile\" target=\"actor\" targetSpec=\"\"}}当然没问题！{{delay frames=\"40\"}}\n{{anim id=\"WrySmile\" target=\"actor\" targetSpec=\"\"}}呵呵呵，{{delay20}}要拍得好看些哦！{{delay frames=\"40\"}}\n{{anim id=\"FaintSmile\" target=\"actor\" targetSpec=\"\"}}还有，{{delay20}}结束了记得跟我说一声。"
  },
  {
    "label": "017_03",
    "attribute": "0x0000000000000000",
    "text": "{{anim id=\"Nodding\" target=\"actor\" targetSpec=\"\"}}好的！{{delay frames=\"40\"}}\n{{anim id=\"FaintSmile\" target=\"actor\" targetSpec=\"\"}}有空的话记得过来玩哦。{{pageBreak}}{{anim id=\"ShyBoy\" target=\"actor\" targetSpec=\"\"}}只要{{fun_00060096 arg=\"\"}}你愿意来，{{delay20}}\n我和{{selection value=\"SelectedVillager\"}}{{string value=\"13\"}}{{delay20}}\n随时都欢迎你。{{string value=\"6\"}}。"
  },
  {
    "label": "017_04",
    "attribute": "0x0000020000000000",
    "text": "{{anim id=\"Eh\" target=\"actor\" targetSpec=\"\"}}啊，{{delay20}}你愿意的话，\n要不要拍张纪念照片再走呢？{{delay frames=\"40\"}}\n{{anim id=\"Grin\" target=\"actor\" targetSpec=\"\"}}定格{{string value=\"VillagerName\"}}家别墅的瞬间{{string value=\"...\"}}"
  },
  {
    "label": "017_04_a",
    "attribute": "0x0000000000000000",
    "text": "{{anim id=\"EmotEnd\" target=\"player\" targetSpec=\"\"}}{{color id=\"1\"}}{{color id=\"65535\"}}好的，请让我拍照"
  },
  {
    "label": "017_04_b",
    "attribute": "0x0000000000000000",
    "text": "{{anim id=\"EmotEnd\" target=\"player\" targetSpec=\"\"}}抱歉，我要先走了"
  },
  {
    "label": "017_05",
    "attribute": "0x0000000000000000",
    "text": "{{anim id=\"BigSmile\" target=\"actor\" targetSpec=\"\"}}就等着你这句话呢！{{delay frames=\"40\"}}\n{{anim id=\"WrySmile\" target=\"actor\" targetSpec=\"\"}}呵呵呵，{{delay20}}要拍得好看些哦！{{delay frames=\"40\"}}\n{{anim id=\"Greeting\" target=\"actor\" targetSpec=\"\"}}还有，{{delay20}}结束了记得跟我说一声。"
  },
  {
    "label": "017_06",
    "attribute": "0x0000000000000000",
    "text": "{{anim id=\"Nodding\" target=\"actor\" targetSpec=\"\"}}好的！{{delay frames=\"40\"}}\n{{anim id=\"FaintSmile\" target=\"actor\" targetSpec=\"\"}}有空的话记得来找我玩哦。{{delay frames=\"40\"}}\n{{anim id=\"Nodding\" target=\"actor\" targetSpec=\"\"}}我随时欢迎你。{{string value=\"6\"}}。"
  },
  {
    "label": "017_07",
    "attribute": "0x0000000000000000",
    "text": "{{anim id=\"Nodding\" target=\"actor\" targetSpec=\"\"}}好的！{{delay frames=\"40\"}}\n{{anim id=\"FaintSmile\" target=\"actor\" targetSpec=\"\"}}有空的话记得过来玩哦。{{pageBreak}}{{anim id=\"ShyBoy\" target=\"actor\" targetSpec=\"\"}}只要{{fun_00060096 arg=\"\"}}你愿意来，{{delay20}}\n我和{{selection value=\"SelectedVillager\"}}{{string value=\"13\"}}{{delay20}}\n随时都欢迎你。{{string value=\"6\"}}。"
  },
  {
    "label": "017_a",
    "attribute": "0x0000000000000000",
    "text": "{{anim id=\"EmotEnd\" target=\"player\" targetSpec=\"\"}}{{color id=\"1\"}}{{color id=\"65535\"}}请让我拍张照"
  },
  {
    "label": "017_b",
    "attribute": "0x0000000000000000",
    "text": "{{anim id=\"EmotEnd\" target=\"player\" targetSpec=\"\"}}差不多该回去了"
  },
  {
    "label": "018",
    "attribute": "0x0000020000000000",
    "text": "{{anim id=\"Greeting\" target=\"actor\" targetSpec=\"\"}}{{fun_00060096 arg=\"\"}}，{{delay20}}你辛苦了～{{delay frames=\"40\"}}\n{{anim id=\"Hello\" target=\"actor\" targetSpec=\"\"}}有什么事吗？"
  },
  {
    "label": "018_a",
    "attribute": "0x0000000000000000",
    "text": "{{anim id=\"EmotEnd\" target=\"player\" targetSpec=\"\"}}要回去了"
  },
  {
    "label": "018_b",
    "attribute": "0x0000000000000000",
    "text": "{{anim id=\"EmotEnd\" target=\"player\" targetSpec=\"\"}}没什么"
  },
  {
    "label": "020",
    "attribute": "0x0000000000000000",
    "text": "{{anim id=\"Nodding\" target=\"actor\" targetSpec=\"\"}}好的。{{delay20}}\n虽然我也拿不出什么好东西来招待你，{{delay20}}\n但还是请你在这里多待一会儿吧～{{string value=\"6\"}}。"
  },
  {
    "label": "021",
    "attribute": "0x0000000000000000",
    "text": "{{anim id=\"Hello\" target=\"actor\" targetSpec=\"\"}}好的！{{delay frames=\"40\"}}\n谢谢你帮了我这么多。{{delay frames=\"40\"}}\n{{anim id=\"Nodding\" target=\"actor\" targetSpec=\"\"}}有空常来啊。{{string value=\"6\"}}。"
  },
  {
    "label": "021_01",
    "attribute": "0x0000000000000000",
    "text": "{{anim id=\"Eh\" target=\"actor\" targetSpec=\"\"}}竟然已经到这个时间了{{string value=\"...\"}}{{delay20}}\n{{anim id=\"Greeting\" target=\"actor\" targetSpec=\"\"}}那你{{delay20}}回去路上小心哦！{{pageBreak}}{{anim id=\"Hello\" target=\"actor\" targetSpec=\"\"}}以后有空记得过来玩啊。\n{{anim id=\"FaintSmile\" target=\"actor\" targetSpec=\"\"}}我和{{selection value=\"SelectedVillager\"}}{{string value=\"13\"}}{{delay20}}\n会一直等着你的。"
  },
  {
    "label": "022",
    "attribute": "0x0000000000000000",
    "text": "{{anim id=\"Eh\" target=\"actor\" targetSpec=\"\"}}对了{{string value=\"...\"}}{{delay20}}\n{{anim id=\"Explain\" target=\"actor\" targetSpec=\"\"}}说起来，你可以告诉我{{delay20}}\n这栋别墅的主题名称是什么吗？"
  },
  {
    "label": "023",
    "attribute": "0x0000020000000000",
    "text": "{{anim id=\"Explain\" target=\"actor\" targetSpec=\"\"}}对了，这栋别墅的主题名称之前是{{delay20}}\n{{fun_00000096 arg=\"0x00CD\"}}来着，{{delay20}}\n{{anim id=\"QuestionMark\" target=\"actor\" targetSpec=\"\"}}这次的主题名称也和上次一样吗？"
  },
  {
    "label": "023_a",
    "attribute": "0x0000000000000000",
    "text": "{{anim id=\"EmotEnd\" target=\"player\" targetSpec=\"\"}}更改吧"
  },
  {
    "label": "023_b",
    "attribute": "0x0000000000000000",
    "text": "{{anim id=\"EmotEnd\" target=\"player\" targetSpec=\"\"}}保持现状"
  },
  {
    "label": "024",
    "attribute": "0x0000000000000000",
    "text": "{{anim id=\"Nodding\" target=\"actor\" targetSpec=\"\"}}好的！{{delay frames=\"40\"}}\n{{anim id=\"EmotEnd\" target=\"actor\" targetSpec=\"\"}}那就请你告诉我{{delay20}}\n{{anim id=\"QuestionMark\" target=\"actor\" targetSpec=\"\"}}新的主题名称是什么吧？{{string value=\"6\"}}。"
  },
  {
    "label": "025",
    "attribute": "0x0000000000000000",
    "text": "{{anim id=\"Nodding\" target=\"actor\" targetSpec=\"\"}}好的！{{delay frames=\"40\"}}\n{{anim id=\"FaintSmile\" target=\"actor\" targetSpec=\"\"}}我会好好地把之前的主题名称{{delay20}}\n沿用下去的。{{string value=\"6\"}}。"
  },
  {
    "label": "026",
    "attribute": "0x0000020000000000",
    "text": "{{anim id=\"Shocked\" target=\"actor\" targetSpec=\"\"}}哎呀？{{delay frames=\"40\"}}\n{{anim id=\"QuestionMark\" target=\"actor\" targetSpec=\"\"}}也就是说，{{delay20}}还是用同一个主题名称吗？"
  },
  {
    "label": "026_a",
    "attribute": "0x0000000000000000",
    "text": "还是保持现状吧"
  },
  {
    "label": "026_b",
    "attribute": "0x0000000000000000",
    "text": "更改主题名称"
  },
  {
    "label": "027",
    "attribute": "0x0000000000000000",
    "text": "{{anim id=\"EmotEnd\" target=\"actor\" targetSpec=\"\"}}那这次就请你{{delay20}}\n正式地告诉我{{string value=\"...\"}}{{delay20}}\n{{anim id=\"QuestionMark\" target=\"actor\" targetSpec=\"\"}}新的主题名称{{delay8}}是什么吧？"
  },
  {
    "label": "028",
    "attribute": "0x0000000000000000",
    "text": "{{anim id=\"Hello\" target=\"actor\" targetSpec=\"\"}}{{fun_00000096 arg=\"0x00CD\"}}啊！{{i10_4}}\n{{anim id=\"Nodding\" target=\"actor\" targetSpec=\"\"}}真不错～{{delay frames=\"40\"}}\n我也很喜欢哦。{{string value=\"6\"}}。"
  },
  {
    "label": "101",
    "attribute": "0x0000060000000000",
    "text": "{{anim id=\"Eh\" target=\"actor\" targetSpec=\"\"}}嗯？{{delay20}}怎么了？"
  },
  {
    "label": "101_01",
    "attribute": "0x0000060000000000",
    "text": "{{anim id=\"Nodding\" target=\"actor\" targetSpec=\"\"}}啊，{{delay20}}我家别墅的事情啊。{{delay frames=\"40\"}}\n我家别墅怎么了吗？{{string value=\"6\"}}。"
  },
  {
    "label": "101_01_a",
    "attribute": "0x0000000000000000",
    "text": "关于装修"
  },
  {
    "label": "101_01_b",
    "attribute": "0x0000000000000000",
    "text": "关于搬家"
  },
  {
    "label": "101_01_c",
    "attribute": "0x0000000000000000",
    "text": "关于合住"
  },
  {
    "label": "101_01_d",
    "attribute": "0x0000000000000000",
    "text": "没什么"
  },
  {
    "label": "101_02",
    "attribute": "0x0000040000000000",
    "text": "{{anim id=\"Nodding\" target=\"actor\" targetSpec=\"\"}}啊，{{delay20}}我家别墅的事情啊。{{delay frames=\"40\"}}\n我家别墅怎么了吗？{{string value=\"6\"}}。"
  },
  {
    "label": "101_02_a",
    "attribute": "0x0000000000000000",
    "text": "关于装修"
  },
  {
    "label": "101_02_b",
    "attribute": "0x0000000000000000",
    "text": "关于搬家"
  },
  {
    "label": "101_02_c",
    "attribute": "0x0000000000000000",
    "text": "没什么"
  },
  {
    "label": "101_a",
    "attribute": "0x0000000000000000",
    "text": "过得怎么样？"
  },
  {
    "label": "101_b",
    "attribute": "0x0000000000000000",
    "text": "关于别墅"
  },
  {
    "label": "101_c",
    "attribute": "0x0000000000000000",
    "text": "要回去了"
  },
  {
    "label": "101_d",
    "attribute": "0x0000000000000000",
    "text": "只是打个招呼"
  },
  {
    "label": "102_01",
    "attribute": "0x0000020000000000",
    "text": "{{anim id=\"BigSmile\" target=\"actor\" targetSpec=\"\"}}你提议的时机刚刚好！{{delay frames=\"40\"}}\n{{anim id=\"ShyBoy\" target=\"actor\" targetSpec=\"\"}}我正想着{{delay8}}\n要装修一下呢。{{pageBreak}}{{anim id=\"FaintSmile\" target=\"actor\" targetSpec=\"\"}}既然如此，{{delay8}}可以把事情{{delay20}}\n{{anim id=\"Hello\" target=\"actor\" targetSpec=\"\"}}都拜托给你吗？{{string value=\"6\"}}。"
  },
  {
    "label": "102_01_a",
    "attribute": "0x0000000000000000",
    "text": "请交给我吧！"
  },
  {
    "label": "102_01_b",
    "attribute": "0x0000000000000000",
    "text": "还是算了吧"
  },
  {
    "label": "104_01",
    "attribute": "0x0000000000000000",
    "text": "{{anim id=\"FaintSmile\" target=\"actor\" targetSpec=\"\"}}这可靠的答复真叫人开心。{{delay frames=\"40\"}}\n{{anim id=\"Greeting\" target=\"actor\" targetSpec=\"\"}}那就{{delay20}}麻烦你了！"
  },
  {
    "label": "107",
    "attribute": "0x0000000000000000",
    "text": "{{anim id=\"Eh\" target=\"actor\" targetSpec=\"\"}}啊，{{delay8}}这样吗？{{delay frames=\"40\"}}\n{{anim id=\"FaintSmile\" target=\"actor\" targetSpec=\"\"}}那{{delay8}}之后你还有什么事的话，{{delay20}}\n可以随时来找我说哦。{{string value=\"6\"}}。"
  },
  {
    "label": "108",
    "attribute": "0x0000020000000000",
    "text": "{{anim id=\"ShyBoy\" target=\"actor\" targetSpec=\"\"}}唔～{{delay20}}搬家啊～{{delay frames=\"40\"}}\n如果有比这里更好的地方，{{delay20}}\n那应该也挺不错的{{string value=\"...\"}}{{pageBreak}}{{anim id=\"Thinking\" target=\"actor\" targetSpec=\"\"}}只要是你推荐的地方，{{delay20}}\n我想也不会出什么差错{{string value=\"...\"}}{{delay frames=\"40\"}}\n{{anim id=\"EmotEnd\" target=\"actor\" targetSpec=\"\"}}好，{{delay20}}那我就拜托你吧？"
  },
  {
    "label": "108_01",
    "attribute": "0x0000000000000000",
    "text": "{{anim id=\"Nodding\" target=\"actor\" targetSpec=\"\"}}你这么说，我就放心了。{{delay frames=\"40\"}}\n{{anim id=\"FaintSmile\" target=\"actor\" targetSpec=\"\"}}那{{delay8}}你能带我去{{delay20}}\n{{anim id=\"Hello\" target=\"actor\" targetSpec=\"\"}}搬家的候选地看看吗？{{string value=\"6\"}}。"
  },
  {
    "label": "108_a",
    "attribute": "0x0000000000000000",
    "text": "请交给我吧！"
  },
  {
    "label": "108_b",
    "attribute": "0x0000000000000000",
    "text": "还是算了吧"
  },
  {
    "label": "109",
    "attribute": "0x0000020000000000",
    "text": "{{anim id=\"Shocked\" target=\"actor\" targetSpec=\"\"}}唔，{{delay20}}合住吗？！{{delay frames=\"40\"}}\n{{anim id=\"ShyBoy\" target=\"actor\" targetSpec=\"\"}}虽说和别人一起生活需要勇气，{{delay20}}\n但试着挑战一下似乎也不错{{string value=\"...\"}}{{pageBreak}}{{anim id=\"FaintSmile\" target=\"actor\" targetSpec=\"\"}}我会态度积极地考虑这件事情的，{{delay20}}\n{{anim id=\"Hello\" target=\"actor\" targetSpec=\"\"}}你能先帮我安排一下{{delay8}}\n怎么和对方见面吗？{{string value=\"6\"}}。"
  },
  {
    "label": "109_01",
    "attribute": "0x0000000000000000",
    "text": "{{anim id=\"Nodding\" target=\"actor\" targetSpec=\"\"}}嗯，{{delay20}}那就麻烦你了！{{string value=\"6\"}}。"
  },
  {
    "label": "109_a",
    "attribute": "0x0000000000000000",
    "text": "请交给我吧！"
  },
  {
    "label": "109_b",
    "attribute": "0x0000000000000000",
    "text": "还是算了吧"
  },
  {
    "label": "110",
    "attribute": "0x0000000000000000",
    "text": "{{anim id=\"WrySmile\" target=\"actor\" targetSpec=\"\"}}呵呵呵，{{delay20}}你这么注重礼节啊。{{i10_4}}\n{{anim id=\"FaintSmile\" target=\"actor\" targetSpec=\"\"}}总之，{{delay8}}如果有什么事情的话，{{delay20}}\n你可以随时来找我。{{string value=\"6\"}}。"
  },
  {
    "label": "110_01",
    "attribute": "0x0000000000000000",
    "text": "{{anim id=\"Eh\" target=\"actor\" targetSpec=\"\"}}啊，{{delay8}}这样吗？{{delay frames=\"40\"}}\n{{anim id=\"FaintSmile\" target=\"actor\" targetSpec=\"\"}}如果你有什么事情，我随时都愿意听你说的，{{delay20}}\n所以你不用客气，尽管来找我吧。{{string value=\"6\"}}。"
  },
  {
    "label": "111",
    "attribute": "0x0000000000000000",
    "text": "{{fun_0014003C arg=\"\"}}"
  },
  {
    "label": "111_01",
    "attribute": "0x0000000000000000",
    "text": "{{anim id=\"FaintSmile\" target=\"actor\" targetSpec=\"\"}}你为我打造的房间，{{delay frames=\"40\"}}\n住起来真的很舒适。{{pageBreak}}{{anim id=\"WrySmile\" target=\"actor\" targetSpec=\"\"}}不过，{{delay20}}你应该{{delay20}}\n也会接受别人的委托吧？{{i10_4}}\n{{anim id=\"Restless\" target=\"actor\" targetSpec=\"\"}}总觉得有些嫉妒呢～{{string value=\"6\"}}。"
  },
  {
    "label": "111_02",
    "attribute": "0x0000000000000000",
    "text": "{{anim id=\"ShyBoy\" target=\"actor\" targetSpec=\"\"}}哎呀{{string value=\"...\"}}{{delay20}}\n能有一间这么棒的房间，{{delay20}}\n我可真是一个幸福之人呢～{{string value=\"6\"}}。{{pageBreak}}{{anim id=\"Explain\" target=\"actor\" targetSpec=\"\"}}我一个人独占也不太好，{{delay20}}\n趁着这难得的机会，{{delay20}}{{anim id=\"Hello\" target=\"actor\" targetSpec=\"\"}}要不你和我一起住吧？{{i10_4}}\n{{string value=\"...\"}}{{anim id=\"BigSmile\" target=\"actor\" targetSpec=\"\"}}我开玩笑的，{{delay8}}哈哈！"
  },
  {
    "label": "111_03",
    "attribute": "0x0000000000000000",
    "text": "{{anim id=\"AbsentMindedness\" target=\"actor\" targetSpec=\"\"}}来到这里，{{delay20}}就能感受到和家里不一样的氛围，{{delay20}}\n整个人都很放松～{{pageBreak}}{{anim id=\"WrySmile\" target=\"actor\" targetSpec=\"\"}}呵呵呵，{{delay20}}可能是因为脑海中会浮现{{delay frames=\"40\"}}\n{{anim id=\"Grin\" target=\"actor\" targetSpec=\"\"}}那个帮我打造它的人……也就是你的模样？"
  },
  {
    "label": "111_04",
    "attribute": "0x0000000000000000",
    "text": "{{anim id=\"AbsentMindedness\" target=\"actor\" targetSpec=\"\"}}这个房间，{{delay20}}包括空间的使用方法，{{delay20}}\n所见之处都体现了{{delay20}}\n{{fun_00060096 arg=\"\"}}你的深思熟虑{{string value=\"...\"}}{{pageBreak}}{{anim id=\"Explain\" target=\"actor\" targetSpec=\"\"}}如果你又想到了什么{{delay20}}\n适合这个房间的家具或风格，{{delay frames=\"30\"}}\n{{anim id=\"Nodding\" target=\"actor\" targetSpec=\"\"}}我还想请你帮我布置哦～{{string value=\"6\"}}。"
  },
  {
    "label": "112",
    "attribute": "0x0000000000000000",
    "text": "{{fun_0014003C arg=\"\"}}"
  },
  {
    "label": "112_01",
    "attribute": "0x0000000000000000",
    "text": "{{anim id=\"Nodding\" target=\"actor\" targetSpec=\"\"}}嗯，{{delay20}}我过得很开心哦。{{delay frames=\"40\"}}\n这样的生活也不错呢。{{string value=\"6\"}}。{{pageBreak}}{{anim id=\"Explain\" target=\"actor\" targetSpec=\"\"}}比如，每当我回到别墅的时候，{{delay20}}\n都能听到一声“你回来啦”的问候，{{delay20}}\n{{anim id=\"Smiling\" target=\"actor\" targetSpec=\"\"}}让我感受到自己不是独自一人，心里很欢喜。"
  },
  {
    "label": "112_02",
    "attribute": "0x0000000000000000",
    "text": "{{anim id=\"Explain\" target=\"actor\" targetSpec=\"\"}}合住真的是一次很新鲜的体验呢。{{delay frames=\"40\"}}\n{{anim id=\"ShyBoy\" target=\"actor\" targetSpec=\"\"}}特别是对于我这种{{delay20}}\n习惯了独居生活的人来说。{{string value=\"6\"}}。"
  },
  {
    "label": "112_03",
    "attribute": "0x0000000000000000",
    "text": "{{anim id=\"Blushing\" target=\"actor\" targetSpec=\"\"}}{{selection value=\"SelectedVillager\"}}{{string value=\"13\"}}给我做了{{delay8}}\n{{randomFood}}。{{delay frames=\"40\"}}\n这份心意让我感到非常开心{{string value=\"...\"}}{{pageBreak}}{{anim id=\"FaintSmile\" target=\"actor\" targetSpec=\"\"}}我真的很庆幸\n自己当初选了{{selection value=\"SelectedVillager\"}}{{string value=\"13\"}}{{delay20}}\n{{anim id=\"Nodding\" target=\"actor\" targetSpec=\"\"}}来做我的室友。{{string value=\"6\"}}。"
  },
  {
    "label": "112_04",
    "attribute": "0x0000000000000000",
    "text": "{{anim id=\"Silent\" target=\"actor\" targetSpec=\"\"}}合住生活{{string value=\"...\"}}{{delay20}}\n{{anim id=\"AbsentMindedness\" target=\"actor\" targetSpec=\"\"}}其实是加深友谊的绝佳机会。{{delay20}}\n就像是和同学一起去过的修学旅行一样。{{pageBreak}}{{anim id=\"ShyBoy\" target=\"actor\" targetSpec=\"\"}}希望以后{{delay20}}\n我和{{selection value=\"SelectedVillager\"}}{{string value=\"13\"}}的关系{{delay20}}\n能越来越好。{{string value=\"6\"}}。"
  },
  {
    "label": "113",
    "attribute": "0x0000000000000000",
    "text": "{{fun_0014003C arg=\"\"}}"
  },
  {
    "label": "113_01",
    "attribute": "0x0000000000000000",
    "text": "{{anim id=\"Nodding\" target=\"actor\" targetSpec=\"\"}}嗯，{{delay20}}我每天都过得很充实。{{i10_4}}\n{{anim id=\"Explain\" target=\"actor\" targetSpec=\"\"}}平凡的日常生活中{{delay20}}\n有一个能说说心里话的知心朋友{{string value=\"...\"}}{{pageBreak}}{{anim id=\"Grin\" target=\"actor\" targetSpec=\"\"}}所谓幸福生活{{delay8}}\n大概就是如此吧？{{string value=\"6\"}}。"
  },
  {
    "label": "113_02",
    "attribute": "0x0000000000000000",
    "text": "{{anim id=\"Explain\" target=\"actor\" targetSpec=\"\"}}合住的话，{{delay20}}\n一个人做不到的事情，{{delay20}}\n可以两个人合力一起做，{{delay frames=\"30\"}}{{anim id=\"Nodding\" target=\"actor\" targetSpec=\"\"}}这一点真的很棒。{{pageBreak}}{{anim id=\"ShyBoy\" target=\"actor\" targetSpec=\"\"}}如果{{selection value=\"SelectedVillager\"}}{{string value=\"13\"}}{{delay20}}\n也跟我有相同的感受，{{delay frames=\"40\"}}\n觉得我是一个可靠的人就好了{{string value=\"...\"}}"
  },
  {
    "label": "113_03",
    "attribute": "0x0000000000000000",
    "text": "{{anim id=\"Explain\" target=\"actor\" targetSpec=\"\"}}{{selection value=\"SelectedVillager\"}}{{string value=\"13\"}}这人啊，{{delay20}}\n其实{{gender3 m=\"他\" f=\"她\"}}{{delay20}}睡相可差了{{string value=\"...\"}}{{i10_4}}\n{{anim id=\"Nodding\" target=\"actor\" targetSpec=\"\"}}看来人真是不可貌相呢。{{pageBreak}}{{anim id=\"Silent\" target=\"actor\" targetSpec=\"\"}}不过，{{delay8}}说是这么说，{{delay frames=\"40\"}}\n{{anim id=\"WrySmile\" target=\"actor\" targetSpec=\"\"}}但其实我也有{{delay8}}\n不愿意让人知道的小习惯哦{{string value=\"...\"}}{{string value=\"6\"}}。"
  },
  {
    "label": "113_04",
    "attribute": "0x0000000000000000",
    "text": "{{anim id=\"Explain\" target=\"actor\" targetSpec=\"\"}}为了我们能在一起舒适地生活，{{delay20}}\n我和{{selection value=\"SelectedVillager\"}}{{string value=\"13\"}}{{delay20}}\n{{anim id=\"Explain\" target=\"actor\" targetSpec=\"\"}}制定了一些合住的规则。{{pageBreak}}{{anim id=\"Serious\" target=\"actor\" targetSpec=\"\"}}不过，{{delay8}}我基本上只负责听对方说，{{delay frames=\"30\"}}\n{{anim id=\"WrySmile\" target=\"actor\" targetSpec=\"\"}}一般都是{{selection value=\"SelectedVillager\"}}{{string value=\"13\"}}提出{{delay8}}\n各种各样的要求{{string value=\"...\"}}"
  },
  {
    "label": "114",
    "attribute": "0x0000010000000000",
    "text": "{{anim id=\"Thinking\" target=\"actor\" targetSpec=\"\"}}唔，{{delay20}}是啊{{string value=\"...\"}}{{delay20}}\n合住确实能感受到人与人之间的温暖，{{delay20}}\n这一点是很不错{{string value=\"...\"}}{{pageBreak}}{{anim id=\"Restless\" target=\"actor\" targetSpec=\"\"}}不过，这话我只跟你说啊，{{delay20}}\n我有的时候{{delay20}}也会希望能{{delay20}}\n一个人安静地享受私人时间。{{string value=\"6\"}}。"
  },
  {
    "label": "114_01",
    "attribute": "0x0000000000000000",
    "text": "{{anim id=\"Explain\" target=\"actor\" targetSpec=\"\"}}对我而言，{{delay20}}\n合住的经历是无可替代的宝物。{{pageBreak}}{{anim id=\"ShyBoy\" target=\"actor\" targetSpec=\"\"}}每天感受到的细小感动{{delay20}}\n都有人能一起分享。{{delay frames=\"30\"}}\n仅仅如此，就让我感到非常开心～"
  },
  {
    "label": "114_a",
    "attribute": "0x0000000000000000",
    "text": "{{anim id=\"EmotEnd\" target=\"player\" targetSpec=\"\"}}要独自生活吗？"
  },
  {
    "label": "114_b",
    "attribute": "0x0000000000000000",
    "text": "{{anim id=\"EmotEnd\" target=\"player\" targetSpec=\"\"}}确实……"
  },
  {
    "label": "115",
    "attribute": "0x0000020000000000",
    "text": "{{anim id=\"IdeaBulb\" target=\"actor\" targetSpec=\"\"}}对哦！{{delay20}}还可以这样！{{pageBreak}}{{anim id=\"ShyBoy\" target=\"actor\" targetSpec=\"\"}}交给你的话我也放心，{{delay20}}\n你能再为我{{delay20}}\n{{anim id=\"QuestionMark\" target=\"actor\" targetSpec=\"\"}}布置一栋别墅吗？"
  },
  {
    "label": "115_a",
    "attribute": "0x0000000000000000",
    "text": "请交给我吧"
  },
  {
    "label": "115_b",
    "attribute": "0x0000000000000000",
    "text": "还是算了吧"
  },
  {
    "label": "116",
    "attribute": "0x0000000000000000",
    "text": "{{anim id=\"Apologize\" target=\"actor\" targetSpec=\"\"}}谢谢你，{{delay20}}{{string value=\"4\"}}！{{delay frames=\"40\"}}\n真的非常感谢。{{pageBreak}}{{anim id=\"Restless\" target=\"actor\" targetSpec=\"\"}}我还有些话{{delay20}}\n想要最后和{{selection value=\"SelectedVillager\"}}{{string value=\"13\"}}说，{{delay frames=\"29\"}}\n你可以先去事务所吗？"
  },
  {
    "label": "117",
    "attribute": "0x0000000000000000",
    "text": "{{anim id=\"Worried\" target=\"actor\" targetSpec=\"\"}}这样啊{{string value=\"...\"}}{{delay20}}\n我可能也是太急于下结论了吧。{{delay frames=\"40\"}}\n{{anim id=\"Nodding\" target=\"actor\" targetSpec=\"\"}}那我再冷静地想想看。"
  },
  {
    "label": "118",
    "attribute": "0x0000000000000000",
    "text": "{{anim id=\"WrySmile\" target=\"actor\" targetSpec=\"\"}}呵呵呵，{{delay20}}\n或许是我{{delay20}}\n要求太多了吧{{string value=\"...\"}}"
  },
  {
    "label": "119",
    "attribute": "0x0000000000000000",
    "text": "{{fun_0014003C arg=\"\"}}"
  },
  {
    "label": "119_01",
    "attribute": "0x0000000000000000",
    "text": "{{anim id=\"Serious\" target=\"actor\" targetSpec=\"\"}}这栋建筑就是我引以为豪的别墅了！{{delay frames=\"40\"}}\n{{anim id=\"Grin\" target=\"actor\" targetSpec=\"\"}}当然，我能这么说，也都是你的功劳啊，{{delay20}}\n{{fun_00060096 arg=\"\"}}。"
  },
  {
    "label": "119_02",
    "attribute": "0x0000000000000000",
    "text": "{{anim id=\"AbsentMindedness\" target=\"actor\" targetSpec=\"\"}}每次看到这栋别墅，{{delay20}}　\n我都会想起你哦{{string value=\"...\"}}{{pageBreak}}{{anim id=\"Serious\" target=\"actor\" targetSpec=\"\"}}如果当时{{delay20}}你没有向我搭话，{{delay frames=\"40\"}}\n{{anim id=\"Grin\" target=\"actor\" targetSpec=\"\"}}应该就没有现在的我了吧。{{string value=\"6\"}}。"
  },
  {
    "label": "119_03",
    "attribute": "0x0000000000000000",
    "text": "{{anim id=\"ShyBoy\" target=\"actor\" targetSpec=\"\"}}哎呀{{string value=\"...\"}}{{delay frames=\"40\"}}\n多亏了你，我现在过得很充实啊。{{pageBreak}}{{anim id=\"AbsentMindedness\" target=\"actor\" targetSpec=\"\"}}哪天我把朋友们都叫过来，{{delay20}}\n在这里开一个派对{{string value=\"...\"}}{{delay20}}\n{{anim id=\"Nodding\" target=\"actor\" targetSpec=\"\"}}那可就太舒爽了。{{string value=\"6\"}}。"
  },
  {
    "label": "119_04",
    "attribute": "0x0000000000000000",
    "text": "{{anim id=\"Nodding\" target=\"actor\" targetSpec=\"\"}}这里真的是个好地方呢。{{delay20}}\n这栋别墅最适合悠闲地享受假期了。{{i10_4}}\n{{anim id=\"WrySmile\" target=\"actor\" targetSpec=\"\"}}其实每天都像在放假一样啦，{{delay frames=\"40\"}}{{anim id=\"BigSmile\" target=\"actor\" targetSpec=\"\"}}哈哈！{{delay frames=\"40\"}}{{anim id=\"FaintSmile\" target=\"actor\" targetSpec=\"\"}}"
  },
  {
    "label": "123",
    "attribute": "0x0000000000000000",
    "text": "{{anim id=\"BigSmile\" target=\"actor\" targetSpec=\"\"}}好，{{delay20}}我们到了～！"
  },
  {
    "label": "123_01",
    "attribute": "0x0000000000000000",
    "text": "{{anim id=\"SmugFace\" target=\"actor\" targetSpec=\"\"}}欢迎来到{{delay20}}{{string value=\"VillagerName\"}}的别墅！{{delay frames=\"40\"}}\n{{anim id=\"Hello\" target=\"actor\" targetSpec=\"\"}}请尽情地放松休息吧。{{string value=\"6\"}}。"
  },
  {
    "label": "124",
    "attribute": "0x0000000000000000",
    "text": "{{anim id=\"HappyFlower\" target=\"actor\" targetSpec=\"\"}}哇{{string value=\"...\"}}{{delay20}}\n不愧是你推荐的地方，{{delay20}}\n这里也太棒了吧～"
  },
  {
    "label": "124_01",
    "attribute": "0x0000000000000000",
    "text": "{{anim id=\"AbsentMindedness\" target=\"actor\" targetSpec=\"\"}}我非常期待{{delay20}}\n即将从这里开启的新生活哦～{{string value=\"6\"}}。"
  },
  {
    "label": "128_01",
    "attribute": "0x0000000000000000",
    "text": "{{anim id=\"Smiling\" target=\"actor\" targetSpec=\"\"}}{{selection value=\"SelectedVillager\"}}{{string value=\"13\"}}，{{delay20}}你看，{{delay20}}\n这里是我们的别墅！"
  },
  {
    "label": "128_02",
    "attribute": "0x0000000000000000",
    "text": "{{anim id=\"Aha\" target=\"actor\" targetSpec=\"\"}}这就是我们的{{string value=\"...\"}}{{delay20}}\n{{anim id=\"Love\" target=\"actor\" targetSpec=\"\"}}这别墅好有氛围啊，真好～{{delay frames=\"40\"}}\n{{anim id=\"Nodding\" target=\"actor\" targetSpec=\"\"}}我非常喜欢！{{string value=\"6\"}}。"
  },
  {
    "label": "128_03",
    "attribute": "0x0000000000000000",
    "text": "{{anim id=\"Serious\" target=\"actor\" targetSpec=\"\"}}那么，{{fun_00060096 arg=\"\"}}，{{delay frames=\"40\"}}\n{{anim id=\"FaintSmile\" target=\"actor\" targetSpec=\"\"}}为了我们能顺利开启新生活，{{delay20}}\n{{anim id=\"Greeting\" target=\"actor\" targetSpec=\"\"}}就拜托你用心打造别墅了。{{string value=\"6\"}}。"
  },
  {
    "label": "129_01",
    "attribute": "0x0000000000000000",
    "text": "{{anim id=\"AbsentMindedness\" target=\"actor\" targetSpec=\"\"}}呵呵呵，{{delay20}}\n我的别墅{{delay20}}会变成什么样呢{{string value=\"...\"}}"
  },
  {
    "label": "129_01_01",
    "attribute": "0x0000000000000000",
    "text": "{{anim id=\"Explain\" target=\"actor\" targetSpec=\"\"}}这里的一切你都可以随意变动，{{delay frames=\"30\"}}\n{{anim id=\"Greeting\" target=\"actor\" targetSpec=\"\"}}那么接下来就拜托你了。{{string value=\"6\"}}。"
  },
  {
    "label": "129_06",
    "attribute": "0x0000000000000000",
    "text": "{{anim id=\"Love\" target=\"actor\" targetSpec=\"\"}}好厉害{{string value=\"...\"}}居然这么快{{delay20}}\n就把2楼建好了{{string value=\"...\"}}"
  },
  {
    "label": "129_07",
    "attribute": "0x0000000000000000",
    "text": "{{anim id=\"Nodding\" target=\"actor\" targetSpec=\"\"}}这里会变成一个什么风格的房间呢？{{delay20}}\n我好期待啊。{{string value=\"6\"}}。"
  },
  {
    "label": "139",
    "attribute": "0x0000000000000000",
    "text": "{{anim id=\"AbsentMindedness\" target=\"actor\" targetSpec=\"\"}}从今天开始，我也要在这里一起{{string value=\"...\"}}{{delay frames=\"40\"}}\n{{anim id=\"WrySmile\" target=\"actor\" targetSpec=\"\"}}呵呵呵，{{delay20}}兴奋得我心怦怦跳，{{delay frames=\"40\"}}\n甚至都能听到自己心跳的声音了。"
  },
  {
    "label": "140",
    "attribute": "0x0000000000000000",
    "text": "{{anim id=\"Serious\" target=\"actor\" targetSpec=\"\"}}专为我们打造的装修风格{{string value=\"...\"}}{{delay20}}\n{{anim id=\"AbsentMindedness\" target=\"actor\" targetSpec=\"\"}}究竟{{delay8}}会变成什么样呢？{{delay20}}\n我好期待啊～{{string value=\"6\"}}。"
  },
  {
    "label": "148",
    "attribute": "0x0000000000000000",
    "text": "{{anim id=\"Hello\" target=\"actor\" targetSpec=\"\"}}好的！{{delay20}}\n那你回去路上注意安全啊。{{delay frames=\"40\"}}\n{{anim id=\"Greeting\" target=\"actor\" targetSpec=\"\"}}欢迎随时再过来玩。{{string value=\"6\"}}。"
  }
]