﻿[
  {
    "label": "001",
    "text": "写给不知身在何处的某位陌生人"
  },
  {
    "label": "002",
    "text": "写给捡到这个的幸运儿"
  },
  {
    "label": "003",
    "text": "谢谢你捡起了这个～"
  },
  {
    "label": "004",
    "text": "写给其它岛上的某位陌生人"
  },
  {
    "label": "005",
    "text": "写给不认识的你"
  },
  {
    "label": "101",
    "text": "昨天我在岛上一边散步，\n一边收集DIY用的材料，\n结果灵光闪现，想出了一本很棒的手册～"
  },
  {
    "label": "102",
    "text": "昨天晚上我梦见自己成为了DIY大师。\n在那个梦里，\n我就是按照这本手册在制作东西～"
  },
  {
    "label": "103",
    "text": "昨天我在家做DIY的时候，\n弄错了使用的材料，\n结果做出了这样一件东西～"
  },
  {
    "label": "104",
    "text": "我看了一个电视上的DIY节目，\nDIY之魂就燃起来了，\n然后我就想出了这样一本手册～"
  },
  {
    "label": "105",
    "text": "我从一本很久没读过的书里\n找到了这样一本手册～\n会不会是爸爸落下的呢？"
  },
  {
    "label": "201",
    "text": "为了分享我的成果，\n我把详细的制作方法一起写给你啦～！"
  },
  {
    "label": "202",
    "text": "这么好的设计只有我一个人知道太可惜了～！\n所以我要把详细的制作方法教给你！"
  },
  {
    "label": "203",
    "text": "因为我想让大家都知道我的成果，\n所以我把详细的制作方法也放进这个瓶子啦～"
  },
  {
    "label": "204",
    "text": "制作方法其实很简单哦～\n毕竟是连我都能做出来的～！"
  },
  {
    "label": "205",
    "text": "我也想过要把这手册当作秘密，\n但还是忍不住想要说给别人听呢～！"
  },
  {
    "label": "301",
    "text": "你要是愿意，也可以试着做做看哦～"
  },
  {
    "label": "302",
    "text": "你也可以把这个制作方法告诉给其他人哦～"
  },
  {
    "label": "303",
    "text": "要是你愿意试着做一做的话，我会很高兴的。"
  },
  {
    "label": "304",
    "text": "你要是做出来了，能不能拿来给我看看呀～"
  },
  {
    "label": "305",
    "text": "制作的时候，要小心不要弄伤自己哦～"
  },
  {
    "label": "401",
    "text": "来自工匠{{string value=\"VillagerName\"}}"
  },
  {
    "label": "402",
    "text": "来自大发明家{{string value=\"VillagerName\"}}"
  },
  {
    "label": "403",
    "text": "我是不是天才？来自{{string value=\"VillagerName\"}}"
  },
  {
    "label": "404",
    "text": "来自擅长手工制作的{{string value=\"VillagerName\"}}"
  },
  {
    "label": "405",
    "text": "来自热爱制作手工艺的{{string value=\"VillagerName\"}}"
  },
  {
    "label": "501",
    "text": "谢谢你将它捡起，\n赠送你可以制作出精美镜子的\nDIY手册作为礼物～！\n你知道吗？镜子中呀，有一种神奇的力量，\n可以使你成为理想中的你～。\n你愿意的话，就试着做做看吧～！"
  }
]