﻿[
  {
    "label": "001",
    "attribute": "0x00000C0100000000",
    "text": "{{anim id=\"QuestionMark\" target=\"actor\" targetSpec=\"\"}}Tiens ?{{delay40}}{{anim id=\"Smiling\" target=\"actor\" targetSpec=\"\"}} Encore à vadrouiller ? Moi\naussi, j'aime vadrouiller ! On est\ncop{{gender2 m=\"ains\" f=\"ines\"}} de vadrouille,{{anim id=\"Laughing\" target=\"actor\" targetSpec=\"\"}} lol !{{setNpcTalkChoices chatOption=\"1\" cancelOption=\"1\"}}"
  },
  {
    "label": "002",
    "attribute": "0x00000C0100000000",
    "text": "{{anim id=\"QuestionMark\" target=\"actor\" targetSpec=\"\"}}T'as oublié un truc ?{{delay40}}{{i10_4}} {{anim id=\"TakenAback\" target=\"actor\" targetSpec=\"\"}}{{color id=\"4\"}}(Ou alors {{gender2 m=\"il\" f=\"elle\"}}\ncherche « ça »... {{delay20}}Non, {{gender2 m=\"il\" f=\"elle\"}} peut pas\nsavoir qu'il est ici, je suis parano...){{color id=\"65535\"}}\n{{anim id=\"EmotEnd\" target=\"actor\" targetSpec=\"\"}}Hmm ? {{anim id=\"OhGeez\" target=\"actor\" targetSpec=\"\"}}Nan, rien... Fais comme\nchez toi !{{setNpcTalkChoices chatOption=\"1\" cancelOption=\"1\"}}"
  },
  {
    "label": "003",
    "attribute": "0x00000C0100000000",
    "text": "{{anim id=\"QuestionMark\" target=\"actor\" targetSpec=\"\"}}Tout va bien ?{{delay40}}{{anim id=\"Smiling\" target=\"actor\" targetSpec=\"\"}} C'est chouette de te\nvoir, {{string value=\"6\"}} !{{string value=\"...\"}} Encore et\nencore, {{anim id=\"Laughing\" target=\"actor\" targetSpec=\"\"}}lol !{{setNpcTalkChoices chatOption=\"1\" cancelOption=\"1\"}}"
  }
]