﻿[
  {
    "label": "001",
    "attribute": "0x0000000000000000",
    "text": "{{anim id=\"Surprised\" target=\"actor\" targetSpec=\"\"}}Wauw, {{string value=\"NickName\"}}! Jou heb ik al{{string value=\"...\"}} wat, {{number value=\"1\" index=\"2\"}} jaar niet gesproken?{{pageBreak}}{{anim id=\"Worried\" target=\"actor\" targetSpec=\"\"}}Elke dag heb ik doorgebracht met\n{{randomHobby}}, hopende je weer te zien{{string value=\"...\"}}{{pageBreak}}{{anim id=\"Hesitate\" target=\"actor\" targetSpec=\"\"}}Maar genoeg daarover. {{anim id=\"Nodding\" target=\"actor\" targetSpec=\"\"}}Ik ben\nblij dat je weer terug bent,\n{{anim id=\"FaintSmile\" target=\"actor\" targetSpec=\"\"}}{{string value=\"Catchphrase\"}}!"
  },
  {
    "label": "002",
    "attribute": "0x0000000000000000",
    "text": "{{anim id=\"Shocked\" target=\"actor\" targetSpec=\"\"}}{{capitalizeNextLetter}}{{string value=\"NickName\"}}!{{pageBreak}}Hoelang heb ik je niet gezien?\nZo'n {{anim id=\"Thinking\" target=\"actor\" targetSpec=\"\"}}{{number value=\"1\" index=\"2\"}} jaar en {{number value=\"1\" index=\"1\"}} {{i50_8 x=\"0\" y=\"1\" a=\"maanden\" b=\"maand\" c=\"maanden\"}}, toch?\n{{anim id=\"Eh\" target=\"actor\" targetSpec=\"\"}}Wauw{{string value=\"...\"}}{{pageBreak}}{{anim id=\"FaintSmile\" target=\"actor\" targetSpec=\"\"}}Ik hoopte dat ik je weer zou zien,\n{{anim id=\"ShyBoy\" target=\"actor\" targetSpec=\"\"}}maar ik ben verrast dat dat vandaag\nis gebeurd, {{string value=\"Catchphrase\"}}.{{pageBreak}}{{anim id=\"Smiling\" target=\"actor\" targetSpec=\"\"}}Maar ik ben enorm blij om je te zien!"
  },
  {
    "label": "003",
    "attribute": "0x0000000000000000",
    "text": "{{fun_0014003C arg=\"\"}}"
  },
  {
    "label": "003_01",
    "attribute": "0x0000000000000000",
    "text": "{{anim id=\"Surprised\" target=\"actor\" targetSpec=\"\"}}{{capitalizeNextLetter}}{{string value=\"NickName\"}}! {{anim id=\"Frantic\" target=\"actor\" targetSpec=\"\"}}Waar ben jij geweest?{{pageBreak}}{{anim id=\"Worried\" target=\"actor\" targetSpec=\"\"}}Ik kon bijna niets meer verzinnen om\nmijn dagen te vullen zonder jouw\ngezelschap.{{pageBreak}}{{anim id=\"HappyFlower\" target=\"actor\" targetSpec=\"\"}}Ik kan niet wachten om te horen wat\nje in de tussentijd hebt gedaan!"
  },
  {
    "label": "003_02",
    "attribute": "0x0000000000000000",
    "text": "{{anim id=\"Surprised\" target=\"actor\" targetSpec=\"\"}}{{capitalizeNextLetter}}{{string value=\"NickName\"}}! Ik vroeg me al af wat er met jou gebeurd was{{string value=\"...\"}}{{pageBreak}}{{anim id=\"Confused\" target=\"actor\" targetSpec=\"\"}}Je bent al een tijdje niet thuis\ngeweest en niemand had je gezien.\n{{anim id=\"Worried\" target=\"actor\" targetSpec=\"\"}}Ik was ongerust, {{string value=\"Catchphrase\"}}.{{pageBreak}}{{anim id=\"Nodding\" target=\"actor\" targetSpec=\"\"}}Maar ik ben blij dat je in orde lijkt\nte zijn!{{anim id=\"FaintSmile\" target=\"actor\" targetSpec=\"\"}}"
  },
  {
    "label": "004",
    "attribute": "0x0000000000000000",
    "text": "{{fun_0014003C arg=\"\"}}"
  },
  {
    "label": "004_01",
    "attribute": "0x0000000000000000",
    "text": "{{anim id=\"Surprised\" target=\"actor\" targetSpec=\"\"}}{{capitalizeNextLetter}}{{string value=\"NickName\"}}!{{pageBreak}}Goh, jou heb ik al{{string value=\"...\"}}{{delay8}} {{anim id=\"IdeaBulb\" target=\"actor\" targetSpec=\"\"}}{{number value=\"1\" index=\"1\"}} {{i50_8 x=\"0\" y=\"1\" a=\"maanden\" b=\"maand\" c=\"maanden\"}} niet gezien?{{pageBreak}}{{anim id=\"AbsentMindedness\" target=\"actor\" targetSpec=\"\"}}Je ziet er anders uit, geloof ik{{string value=\"...\"}}\n{{anim id=\"FaintSmile\" target=\"actor\" targetSpec=\"\"}}Misschien wat volwassener?{{pageBreak}}{{anim id=\"Hesitate\" target=\"actor\" targetSpec=\"\"}}Volgens mij ben ik geen druppel\nveranderd."
  },
  {
    "label": "004_02",
    "attribute": "0x0000000000000000",
    "text": "{{anim id=\"Shocked\" target=\"actor\" targetSpec=\"\"}}{{capitalizeNextLetter}}{{string value=\"NickName\"}}! {{anim id=\"Smiling\" target=\"actor\" targetSpec=\"\"}}Dat is lang geleden. Hoe gaat het?{{pageBreak}}{{anim id=\"Hesitate\" target=\"actor\" targetSpec=\"\"}}Als ik je eerder had gezien, had ik je uitgenodigd om bij mijn club \"Dol op {{randomSweets}}\" te komen.{{pageBreak}}{{anim id=\"WrySmile\" target=\"actor\" targetSpec=\"\"}}Oké, er zijn nog geen andere leden,\nmaar toch{{string value=\"...\"}}"
  },
  {
    "label": "004_03",
    "attribute": "0x0000000000000000",
    "text": "{{anim id=\"Aha\" target=\"actor\" targetSpec=\"\"}}{{capitalizeNextLetter}}{{string value=\"NickName\"}}! O, wauw! {{anim id=\"Smiling\" target=\"actor\" targetSpec=\"\"}}Wat leuk om je weer te zien!{{pageBreak}}{{anim id=\"QuestionMark\" target=\"actor\" targetSpec=\"\"}}Waar ben je al die tijd geweest?\n{{anim id=\"Worried\" target=\"actor\" targetSpec=\"\"}}Ik heb een paar keer bij je\naangeklopt, maar je was nooit thuis{{string value=\"...\"}}{{pageBreak}}{{anim id=\"IdeaBulb\" target=\"actor\" targetSpec=\"\"}}Je was vast op een geheime missie!{{i10_4}}\n{{anim id=\"AbsentMindedness\" target=\"actor\" targetSpec=\"\"}}Ja, op een exotische locatie, {{anim id=\"Pardon\" target=\"actor\" targetSpec=\"\"}}waar\noveral gevaar op de loer lag!{{pageBreak}}{{anim id=\"EmotEnd\" target=\"actor\" targetSpec=\"\"}}Sorry{{string value=\"...\"}} {{anim id=\"Blushing\" target=\"actor\" targetSpec=\"\"}}Volgens mij heb ik iets te\nveel avonturenboeken gelezen.{{pageBreak}}{{anim id=\"Smiling\" target=\"actor\" targetSpec=\"\"}}Welkom terug, {{string value=\"Catchphrase\"}}!"
  },
  {
    "label": "005",
    "attribute": "0x0000000000000000",
    "text": "{{fun_0014003C arg=\"\"}}"
  },
  {
    "label": "005_01",
    "attribute": "0x0000000000000000",
    "text": "{{anim id=\"Restless\" target=\"actor\" targetSpec=\"\"}}Dus, eh, {{string value=\"NickName\"}}{{string value=\"...\"}} Ik vraag het gewoon, oké. {{anim id=\"QuestionMark\" target=\"actor\" targetSpec=\"\"}}Heb je me expres ontweken?{{pageBreak}}{{anim id=\"Worried\" target=\"actor\" targetSpec=\"\"}}We hebben elkaar al {{number value=\"1\" index=\"1\"}} {{i50_8 x=\"0\" y=\"1\" a=\"maanden\" b=\"maand\" c=\"maanden\"}}\nniet gesproken! Als ik iets verkeerd\nheb gedaan {{anim id=\"Frantic\" target=\"actor\" targetSpec=\"\"}}spijt me dat enorm!\n{{anim id=\"Thinking\" target=\"actor\" targetSpec=\"\"}}Maar je praat nu met me, dus\nmisschien kan ik beter niet te veel zeggen{{anim id=\"Worried\" target=\"actor\" targetSpec=\"\"}} voor ik je weer irriteer{{string value=\"...\"}}"
  },
  {
    "label": "005_02",
    "attribute": "0x0000000000000000",
    "text": "{{anim id=\"Hesitate\" target=\"actor\" targetSpec=\"\"}}Je bent hier al een tijdje niet\ngeweest, {{string value=\"NickName\"}}.{{pageBreak}}{{anim id=\"Thinking\" target=\"actor\" targetSpec=\"\"}}We hebben ook al, eh{{string value=\"...\"}} {{anim id=\"TakenAback\" target=\"actor\" targetSpec=\"\"}}{{number value=\"1\" index=\"1\"}} {{i50_8 x=\"0\" y=\"1\" a=\"maanden\" b=\"maand\" c=\"maanden\"}}\nniet gesproken?{{delay8}} Klopt dat?{{pageBreak}}{{anim id=\"Confused\" target=\"actor\" targetSpec=\"\"}}Ik vind het fijn om te weten hoe het\nmet je gaat, {{anim id=\"Nodding\" target=\"actor\" targetSpec=\"\"}}dus laten we proberen\nelkaar wat vaker te zien, oké?{{anim id=\"FaintSmile\" target=\"actor\" targetSpec=\"\"}}"
  },
  {
    "label": "005_03",
    "attribute": "0x0000000000000000",
    "text": "{{anim id=\"Aha\" target=\"actor\" targetSpec=\"\"}}{{capitalizeNextLetter}}{{string value=\"NickName\"}}! {{anim id=\"Smiling\" target=\"actor\" targetSpec=\"\"}}Eindelijk heb ik weer eens de kans om met je te praten!{{pageBreak}}De laatste keer is alweer {{number value=\"1\" index=\"1\"}} {{i50_8 x=\"0\" y=\"1\" a=\"maanden\" b=\"maand\" c=\"maanden\"}} geleden, toch?{{pageBreak}}{{anim id=\"Sighing\" target=\"actor\" targetSpec=\"\"}}{{capitalizeNextLetter}}{{string value=\"Catchphrase\"}}{{string value=\"...\"}} {{anim id=\"FaintSmile\" target=\"actor\" targetSpec=\"\"}}Ik ben nu \"⁠{{randomBook}}⁠\" aan het lezen{{string value=\"...\"}}{{pageBreak}}{{anim id=\"Hesitate\" target=\"actor\" targetSpec=\"\"}}Ik ben dol op lezen, maar heb onze\ngesprekken gemist."
  }
]