﻿[
  {
    "label": "001",
    "attribute": "0x00000C0100000000",
    "text": "{{anim id=\"Aha\" target=\"actor\" targetSpec=\"\"}}Oh!{{delay40}} {{anim id=\"Nodding\" target=\"actor\" targetSpec=\"\"}}Ehi, {{string value=\"NickName\"}}!{{delay40}} {{anim id=\"Smiling\" target=\"actor\" targetSpec=\"\"}}Come te la passi oggi?{{setNpcTalkChoices chatOption=\"0\" cancelOption=\"0\"}}"
  },
  {
    "label": "002",
    "attribute": "0x00000C0100000000",
    "text": "{{anim id=\"Greeting\" target=\"actor\" targetSpec=\"\"}}Ma guarda! C'è {{string value=\"NickName\"}}!{{delay20}} {{anim id=\"Hello\" target=\"actor\" targetSpec=\"\"}}Hai bisogno di qualcosa, amic{{gender2 m=\"o\" f=\"a\"}}?{{setNpcTalkChoices chatOption=\"0\" cancelOption=\"0\"}}"
  },
  {
    "label": "003",
    "attribute": "0x00000C0100000000",
    "text": "{{anim id=\"Hello\" target=\"actor\" targetSpec=\"\"}}Oh! Ehi, {{string value=\"NickName\"}}!{{delay40}} {{anim id=\"QuestionMark\" target=\"actor\" targetSpec=\"\"}}Che mi racconti?{{setNpcTalkChoices chatOption=\"0\" cancelOption=\"0\"}}"
  },
  {
    "label": "004",
    "attribute": "0x00000C0100000000",
    "text": "{{anim id=\"Smiling\" target=\"actor\" targetSpec=\"\"}}Ehilà, {{string value=\"NickName\"}}!{{delay40}} {{anim id=\"QuestionMark\" target=\"actor\" targetSpec=\"\"}}Come ti vanno le cose?{{setNpcTalkChoices chatOption=\"0\" cancelOption=\"0\"}}"
  },
  {
    "label": "005",
    "attribute": "0x00000C0100000000",
    "text": "{{anim id=\"Hesitate\" target=\"actor\" targetSpec=\"\"}}Che piacere, {{string value=\"NickName\"}}!{{delay40}} {{anim id=\"Blushing\" target=\"actor\" targetSpec=\"\"}}Posso fare qualcosa per te, amic{{gender2 m=\"o\" f=\"a\"}}?{{setNpcTalkChoices chatOption=\"0\" cancelOption=\"0\"}}"
  }
]