﻿[
  {
    "label": "002",
    "attribute": "0x00000000",
    "text": "{{anim id=\"HappyFlower\" target=\"actor\" targetSpec=\"\"}}Sono davvero felice di come hai\nsistemato la casa.{{delay20}} Non ti ringrazierò\nmai abbastanza per l'impegno.{{pageBreak}}{{anim id=\"Grin\" target=\"actor\" targetSpec=\"\"}}Ma{{string value=\"...\"}} ho pensato di provarci, {{delay8}}almeno,\ne ti ho preso un regalino."
  },
  {
    "label": "002_001",
    "attribute": "0x00000000",
    "text": "{{anim id=\"Nodding\" target=\"actor\" targetSpec=\"\"}}Credo che ti possa piacere {{wordArticle}}{{fun_0000007D arg=\"0x0000\"}}.{{delay20}} Spero di non sbagliarmi!"
  },
  {
    "label": "002_002",
    "attribute": "0x00000000",
    "text": "{{anim id=\"OhGeez\" target=\"actor\" targetSpec=\"\"}}Per tutti i pistilli!{{delay20}} Sembra che tu\nnon possa portare altro.{{pageBreak}}{{anim id=\"Explain\" target=\"actor\" targetSpec=\"\"}}Facciamo così: per ora mi tengo il\nregalo e tu puoi tornare a prenderlo\nquando avrai fatto un po' di spazio."
  },
  {
    "label": "002_003",
    "attribute": "0x00000000",
    "text": "{{anim id=\"Smiling\" target=\"actor\" targetSpec=\"\"}}Sono felice di vederti.{{delay20}} Sembra che\nora tu abbia spazio nelle tasche,\nquindi ecco il regalo.{{delay20}} {{anim id=\"Greeting\" target=\"actor\" targetSpec=\"\"}}Grazie ancora!"
  }
]