﻿[
  {
    "label": "001_00_01",
    "attribute": "0x00000000",
    "text": "{{anim id=\"Shocked\" target=\"actor\" targetSpec=\"\"}}Oh!{{delay20}} How could I forget, hm?{{delay20}} I should\ngive you a brief explanation about\nthat terminal."
  },
  {
    "label": "001_00_02",
    "attribute": "0x00000000",
    "text": "{{anim id=\"Shocked\" target=\"actor\" targetSpec=\"\"}}Ah! I should give you a brief\nintroduction to that terminal\nas well."
  },
  {
    "label": "001_01",
    "attribute": "0x00000000",
    "text": "{{anim id=\"EmotEnd\" target=\"actor\" targetSpec=\"\"}}That{{string value=\"...\"}}is our {{color id=\"1\"}}Nook Stop{{color id=\"65535\"}}. It's a\nterminal for services that will\nfurther enhance your island life."
  },
  {
    "label": "001_02",
    "attribute": "0x00000000",
    "text": "At the moment you can use two\nservices, {{string value=\"PlayerName\"}}.{{pageBreak}}{{anim id=\"Smiling\" target=\"actor\" targetSpec=\"\"}}The first is {{color id=\"1\"}}Nook Shopping{{color id=\"65535\"}}.{{delay8}} It's a\ncatalog shopping service for items\nthat can be hard to find on an island.\nSecond, this terminal serves as {{delay8}}an\nAutomatic Bell Dispenser—or {{color id=\"1\"}}ABD{{color id=\"65535\"}}—\nfor the Bank of Nook.{{pageBreak}}{{anim id=\"EmotEnd\" target=\"actor\" targetSpec=\"\"}}We're also working on a service by\nwhich you'll be able to redeem {{color id=\"1\"}}Nook Miles {{color id=\"65535\"}}for various things{{string value=\"...\"}}\n{{anim id=\"BigSmile\" target=\"actor\" targetSpec=\"\"}}Please take advantage of these\nwonderful services. Quite beneficial\nindeed! Yes, yes!"
  },
  {
    "label": "001_03",
    "attribute": "0x00000000",
    "text": "Of course, you can use this terminal\nfor {{color id=\"1\"}}catalog shopping{{color id=\"65535\"}} or as an {{color id=\"1\"}}ABD{{color id=\"65535\"}},\nbut you can also redeem {{color id=\"1\"}}Nook Miles{{color id=\"65535\"}}!\n{{anim id=\"BigSmile\" target=\"actor\" targetSpec=\"\"}}Please take advantage of these\nwonderful services. Quite beneficial\nindeed! Yes, yes!"
  },
  {
    "label": "001_04",
    "attribute": "0x00000000",
    "text": "Currently, you can use several\nservices, {{string value=\"PlayerName\"}}.{{pageBreak}}{{anim id=\"Smiling\" target=\"actor\" targetSpec=\"\"}}The first is {{color id=\"1\"}}Nook Shopping{{color id=\"65535\"}}.{{delay8}} It's a\ncatalog shopping service for items\nthat can be hard to find on an island.\nSecond, this terminal serves as {{delay8}}an\nAutomatic Bell Dispenser—or {{color id=\"1\"}}ABD{{color id=\"65535\"}}—\nfor the Bank of Nook.{{pageBreak}}{{anim id=\"FaintSmile\" target=\"actor\" targetSpec=\"\"}}The terminal can also be used in\nconjunction with {{color id=\"1\"}}amiibo {{color id=\"65535\"}}to invite\ncampers to our campsite.\n{{anim id=\"EmotEnd\" target=\"actor\" targetSpec=\"\"}}We're also working on a service by\nwhich you'll be able to redeem {{color id=\"1\"}}Nook Miles {{color id=\"65535\"}}for various things{{string value=\"...\"}}\n{{anim id=\"BigSmile\" target=\"actor\" targetSpec=\"\"}}Please access it to take advantage\nof these wonderful services! Yes,\nquite beneficial to you indeed!"
  },
  {
    "label": "001_05",
    "attribute": "0x00000000",
    "text": "Of course, you can use this terminal\nfor {{color id=\"1\"}}catalog shopping{{color id=\"65535\"}},{{delay8}} as an {{color id=\"1\"}}ABD{{color id=\"65535\"}},{{delay8}} or\nto invite campers with {{color id=\"1\"}}amiibo{{color id=\"65535\"}}.\n{{anim id=\"Smiling\" target=\"actor\" targetSpec=\"\"}}But you can also redeem those lovely\n{{color id=\"1\"}}Nook Miles {{color id=\"65535\"}}you've earned. You'll find\na nice variety of redemption options.\n{{anim id=\"BigSmile\" target=\"actor\" targetSpec=\"\"}}Please access it to take advantage\nof these wonderful services!{{delay8}} Yes,{{delay8}}\nquite beneficial to you indeed!"
  },
  {
    "label": "002",
    "attribute": "0x00000000",
    "text": "{{anim id=\"Smiling\" target=\"actor\" targetSpec=\"\"}}The {{color id=\"1\"}}Nook Stop {{color id=\"65535\"}}terminal has a variety\nof helpful services that can make life\neasier for island residents.{{pageBreak}}{{anim id=\"EmotEnd\" target=\"actor\" targetSpec=\"\"}}You'll need to register an address to\nuse these features, so please pick a\nspot for your home first, hm?"
  },
  {
    "label": "011_01",
    "attribute": "0x00000000",
    "text": "{{anim id=\"Shocked\" target=\"actor\" targetSpec=\"\"}}Oh! How silly of me to forget! I need\nto give you a brief introduction to\nthat box there."
  },
  {
    "label": "011_02",
    "attribute": "0x00000000",
    "text": "{{anim id=\"Shocked\" target=\"actor\" targetSpec=\"\"}}Oh! I should give you a brief\nintroduction to that box too."
  },
  {
    "label": "012",
    "attribute": "0x00000000",
    "text": "{{anim id=\"Explain\" target=\"actor\" targetSpec=\"\"}}That is a{{color id=\"1\"}} recycle box{{color id=\"65535\"}} for all the\nisland residents to use.{{anim id=\"Smiling\" target=\"actor\" targetSpec=\"\"}}"
  },
  {
    "label": "013_01",
    "attribute": "0x00000000",
    "text": "{{anim id=\"Nodding\" target=\"actor\" targetSpec=\"\"}}We'll be using it for items removed\nduring construction and such.{{anim id=\"EmotEnd\" target=\"actor\" targetSpec=\"\"}}"
  },
  {
    "label": "013_02",
    "attribute": "0x00000000",
    "text": "{{anim id=\"Nodding\" target=\"actor\" targetSpec=\"\"}}We'll be using it for items removed\nduring construction and such.{{pageBreak}}{{anim id=\"EmotEnd\" target=\"actor\" targetSpec=\"\"}}And{{anim id=\"Explain\" target=\"actor\" targetSpec=\"\"}} if you use the app to call\nanother resident,{{delay frames=\"30\"}}{{anim id=\"FaintSmile\" target=\"actor\" targetSpec=\"\"}} anything they dig\nup or catch will go there as well."
  },
  {
    "label": "014",
    "attribute": "0x00000000",
    "text": "{{anim id=\"Smiling\" target=\"actor\" targetSpec=\"\"}}Yes, yes! If you see anything you\nlike, feel free to take it right\non home.{{pageBreak}}{{anim id=\"Explain\" target=\"actor\" targetSpec=\"\"}}If the box gets full, we'll get rid of\nthe oldest items first,{{delay20}}{{anim id=\"Smiling\" target=\"actor\" targetSpec=\"\"}} so don't delay\nin picking out what you want."
  },
  {
    "label": "015",
    "attribute": "0x00000000",
    "text": "{{anim id=\"Smiling\" target=\"actor\" targetSpec=\"\"}}Please don't hesitate to take\nanything you like, hm!"
  },
  {
    "label": "016",
    "attribute": "0x00000000",
    "text": "{{anim id=\"Nodding\" target=\"actor\" targetSpec=\"\"}}That's also where you'll find anything\nyou entrusted to me{{delay20}}{{anim id=\"Explain\" target=\"actor\" targetSpec=\"\"}} when we sorted\nout your belongings after your move."
  },
  {
    "label": "016_01",
    "attribute": "0x00000000",
    "text": "{{anim id=\"Nodding\" target=\"actor\" targetSpec=\"\"}}That's also where you'll find anything\nleft in your tent{{delay20}}{{anim id=\"Explain\" target=\"actor\" targetSpec=\"\"}} when we removed it\nto set up your home."
  },
  {
    "label": "016_02",
    "attribute": "0x00000000",
    "text": "{{anim id=\"Nodding\" target=\"actor\" targetSpec=\"\"}}That's also where you'll find any\nitems you entrusted to me{{delay20}}{{anim id=\"Explain\" target=\"actor\" targetSpec=\"\"}} when\nyou moved here."
  },
  {
    "label": "017",
    "attribute": "0x00000000",
    "text": "{{anim id=\"Explain\" target=\"actor\" targetSpec=\"\"}}If the box gets full, we'll get rid of\nthe oldest items first,{{delay20}}{{anim id=\"Smiling\" target=\"actor\" targetSpec=\"\"}} so don't delay\nin pulling out your belongings!"
  },
  {
    "label": "021",
    "attribute": "0x00000000",
    "text": "{{anim id=\"Shocked\" target=\"actor\" targetSpec=\"\"}}Ah—yes, yes!{{delay20}}{{anim id=\"Smiling\" target=\"actor\" targetSpec=\"\"}} I have something to\ntell you, {{string value=\"PlayerName\"}}."
  },
  {
    "label": "022",
    "attribute": "0x00000000",
    "text": "It's about our {{color id=\"1\"}}campsite{{color id=\"65535\"}}{{string value=\"...\"}}{{pageBreak}}{{anim id=\"Smiling\" target=\"actor\" targetSpec=\"\"}}Waiting for visitors is OK, but maybe\nyou're interested in taking a more\nproactive approach?\n{{anim id=\"EmotEnd\" target=\"actor\" targetSpec=\"\"}}If so, you can use {{color id=\"1\"}}amiibo {{color id=\"65535\"}}to invite\n{{anim id=\"Smiling\" target=\"actor\" targetSpec=\"\"}}guests to the campsite with the new\nservice I've added!"
  },
  {
    "label": "023",
    "attribute": "0x00000000",
    "text": "{{anim id=\"Smiling\" target=\"actor\" targetSpec=\"\"}}You know that we now have a\n{{color id=\"1\"}}campsite{{color id=\"65535\"}}{{anim id=\"QuestionMark\" target=\"actor\" targetSpec=\"\"}} on the island, yes?{{pageBreak}}{{anim id=\"EmotEnd\" target=\"actor\" targetSpec=\"\"}}Well, I've added a new service {{anim id=\"Smiling\" target=\"actor\" targetSpec=\"\"}}that\nlets you invite a guest to said\ncampsite!"
  },
  {
    "label": "024",
    "attribute": "0x00000000",
    "text": "{{anim id=\"Smiling\" target=\"actor\" targetSpec=\"\"}}You can access the service via the\n{{color id=\"1\"}}Nook Stop{{color id=\"65535\"}}.{{delay20}}{{anim id=\"Greeting\" target=\"actor\" targetSpec=\"\"}} It works with an {{color id=\"1\"}}Animal\nCrossing character's amiibo{{color id=\"65535\"}}."
  },
  {
    "label": "031",
    "attribute": "0x00000000",
    "text": "{{anim id=\"Shocked\" target=\"actor\" targetSpec=\"\"}}Ah—yes, yes!{{delay20}}{{anim id=\"Smiling\" target=\"actor\" targetSpec=\"\"}} I have something to\ntell you, {{string value=\"PlayerName\"}}."
  },
  {
    "label": "032",
    "attribute": "0x00000000",
    "text": "I've started offering {{anim id=\"Smiling\" target=\"actor\" targetSpec=\"\"}}{{color id=\"1\"}}fencing recipes{{color id=\"65535\"}}{{delay20}}\nas a miles-redemption option at the\n{{color id=\"1\"}}Nook Stop{{color id=\"65535\"}}!\n{{anim id=\"AbsentMindedness\" target=\"actor\" targetSpec=\"\"}}You could use fencing to surround\nyour home,{{delay20}} parcel off a bit of land to\ncreate a park,{{delay8}} and more.\n{{anim id=\"Smiling\" target=\"actor\" targetSpec=\"\"}}I hope you redeem some miles for\nfencing recipes. It'll be fun to see\nwhat you do with them!"
  }
]