﻿[
  {
    "label": "000",
    "attribute": "0x00000018",
    "text": "{{string value=\"...\"}}My phone is ringing."
  },
  {
    "label": "001",
    "attribute": "0x01000000",
    "text": "{{fun_00050064 arg=\"\"}}Hello? {{delay20}}That you, {{string value=\"PlayerName\"}}?{{i10_4}}\nYes, yes, this is {{color id=\"3\"}}Tom Nook{{color id=\"65535\"}}!{{delay frames=\"40\"}} How goes\nyour search for housing land?{{endTag}}"
  },
  {
    "label": "001_a",
    "attribute": "0x00000000",
    "text": "I've got some ideas."
  },
  {
    "label": "001_b",
    "attribute": "0x00000000",
    "text": "It's going great."
  },
  {
    "label": "002_01",
    "attribute": "0x00000000",
    "text": "{{fun_00050064 arg=\"\"}}Stupendous! I'm relieved to hear\nthat everything is going according\nto plan.{{pageBreak}}Be sure to check the {{color id=\"1\"}}box{{color id=\"65535\"}} in front of\nthe plot for each home. It'll show the\nitems required for that plot.\nInterior items should be placed in the\n{{color id=\"1\"}}box{{color id=\"65535\"}}, while exterior items should be\nplaced outside around the plot.\nWe want to make it look nice and\ndecorative, now, hm?{{endTag}}"
  },
  {
    "label": "002_02",
    "attribute": "0x00000000",
    "text": "{{fun_00050064 arg=\"\"}}{{string value=\"...\"}}Ah, yes!{{delay40}} You're going to need a\nwreath made from {{color id=\"1\"}}flowers{{color id=\"65535\"}} as well.{{pageBreak}}There are plenty of beautiful flowers\nblooming {{color id=\"1\"}}up on the cliffs{{color id=\"65535\"}} of\n{{string value=\"OtherIslandName\"}}.{{pageBreak}}Climb up high and pluck what you\nneed. I've sent you the recipe for\nmaking a {{color id=\"1\"}}{{wordInfo gender=\"0\" indefArticle=\"1\" defArticle=\"3\"}}ladder{{color id=\"65535\"}} to get up there.{{endTag}}"
  },
  {
    "label": "002_03",
    "attribute": "0x00000000",
    "text": "{{fun_00050064 arg=\"\"}}Once you've set up the plots for all\n3 homes{{delay20}} and placed the required\nitems, come report back to me!{{pageBreak}}I'll be waiting in {{color id=\"1\"}}Resident Services{{color id=\"65535\"}}.{{delay20}}\nThanks again for your help!{{endTag}}"
  },
  {
    "label": "003_01",
    "attribute": "0x00000000",
    "text": "{{fun_00050064 arg=\"\"}}Er, {{delay20}}{{string value=\"PlayerName\"}}?{{i10_4}} It's me again.\nSorry for the repeated calls.{{delay frames=\"40\"}} I forgot\nto tell you something important!{{endTag}}"
  },
  {
    "label": "003_02",
    "attribute": "0x00000000",
    "text": "{{fun_00050064 arg=\"\"}}You see, you'll need to get a wreath\nmade from {{color id=\"1\"}}flowers{{color id=\"65535\"}}{{string value=\"...\"}}{{pageBreak}}There are plenty of pretty flowers\ngrowing up on the {{color id=\"1\"}}cliffs{{color id=\"65535\"}} of the island,{{delay20}}\nso tootle up there if you need to!{{pageBreak}}I've already sent you a recipe for a\n{{color id=\"1\"}}{{wordInfo gender=\"0\" indefArticle=\"1\" defArticle=\"3\"}}ladder{{color id=\"65535\"}}.{{delay20}} It's the ideal tool for when\nyou need to scale those cliffs!{{pageBreak}}Anyhoo, keep up the good work, hm?{{endTag}}"
  },
  {
    "label": "101",
    "attribute": "0x00000018",
    "text": "{{string value=\"...\"}}My phone is ringing."
  },
  {
    "label": "102",
    "attribute": "0x00000000",
    "text": "{{fun_00050064 arg=\"\"}}Hello? {{delay20}}{{capitalizeNextLetter}}{{string value=\"PlayerName\"}}?{{i10_4}}\nThis is {{color id=\"3\"}}Tom Nook{{color id=\"65535\"}}!{{endTag}}"
  },
  {
    "label": "103",
    "attribute": "0x00000000",
    "text": "{{fun_00050064 arg=\"\"}}Sorry for the sudden phone call, hm?{{delay frames=\"40\"}}\nThere's an app I think you should\nknow about.{{endTag}}"
  },
  {
    "label": "103_01",
    "attribute": "0x00000000",
    "text": "{{fun_00050064 arg=\"\"}}I know this must seem a little odd\nsince we were just speaking\nface-to-face a moment ago.{{pageBreak}}Yes, yes,{{delay8}} I forgot to tell you about\nan app I think you should have.{{endTag}}"
  },
  {
    "label": "104",
    "attribute": "0x00000000",
    "text": "{{fun_00050064 arg=\"\"}}I'll send it to your phone now.{{delay20}} Leave\nthe call going and take a look at the\nscreen for me, please.{{endTag}}"
  },
  {
    "label": "105",
    "attribute": "0x00000000",
    "text": "{{fun_00050064 arg=\"\"}}Wonderful! It finished downloading,\nhm?{{i10_4}} The app I've sent you is the\n{{color id=\"1\"}}Call Resident {{color id=\"65535\"}}app.\nYou can use that app to get in touch\nwith other residents of this island so\nyou can spend time together.{{endTag}}"
  },
  {
    "label": "106",
    "attribute": "0x00000000",
    "text": "{{fun_00050064 arg=\"\"}}You'll get more details when you {{color id=\"1\"}}use\nthe app{{color id=\"65535\"}} to play together. Try it out\nwhen you get a chance!{{endTag}}"
  },
  {
    "label": "107",
    "attribute": "0x00000000",
    "text": "{{fun_00050064 arg=\"\"}}Bye now!{{endTag}}"
  },
  {
    "label": "151",
    "attribute": "0x00000018",
    "text": "Oh!{{color id=\"3\"}}{{delay20}} Tom Nook {{color id=\"65535\"}}sent me a new app!{{delay frames=\"40\"}}\nLet's see what he says about it{{string value=\"...\"}}"
  },
  {
    "label": "152",
    "attribute": "0x00000022",
    "text": "\"I've sent the {{color id=\"1\"}}Call Resident {{color id=\"65535\"}}app to all\nthe residents of {{string value=\"IslandName\"}}!{{pageBreak}}You can use the app to get in touch\nwith other residents of this island so\nyou can spend time together.\nYou'll get more details when you {{color id=\"1\"}}use\nthe app{{color id=\"65535\"}} to play together. Try it out\nwhen you get a chance!\""
  },
  {
    "label": "153",
    "attribute": "0x00000018",
    "text": "Huh.{{delay frames=\"40\"}} I really need to try that!"
  },
  {
    "label": "201",
    "attribute": "0x00000018",
    "text": "{{string value=\"...\"}}My phone is ringing."
  },
  {
    "label": "202",
    "attribute": "0x00000000",
    "text": "{{fun_00050064 arg=\"\"}}Hello? {{delay20}}{{capitalizeNextLetter}}{{string value=\"PlayerName\"}}?{{i10_4}}\n{{color id=\"3\"}}Tom Nook {{color id=\"65535\"}}here!{{endTag}}"
  },
  {
    "label": "203",
    "attribute": "0x01000000",
    "text": "{{fun_00050064 arg=\"\"}}Did you find a good spot for the\n{{fun_0000007D arg=\"0x0000\"}}?{{endTag}}"
  },
  {
    "label": "203_a",
    "attribute": "0x00000000",
    "text": "I found a great spot."
  },
  {
    "label": "203_b",
    "attribute": "0x00000000",
    "text": "Yeah, a perfect spot!"
  },
  {
    "label": "204",
    "attribute": "0x00000000",
    "text": "{{fun_00050064 arg=\"\"}}Wonderful!{{pageBreak}}Now, as part of the kit you set up,{{delay20}}\n{{color id=\"3\"}}Lloid {{color id=\"65535\"}}will stay and collect donations\nfor the construction fees.{{endTag}}"
  },
  {
    "label": "205",
    "attribute": "0x00000000",
    "text": "{{fun_00050064 arg=\"\"}}Island residents can contribute little\nby little. Once we reach our goal,\nconstruction will begin!{{endTag}}"
  },
  {
    "label": "206",
    "attribute": "0x00000000",
    "text": "{{fun_00050064 arg=\"\"}}Of course, you can feel free to make\nwhatever hefty donations you want,\n{{string value=\"PlayerName\"}}.{{pageBreak}}{{size value=\"75\"}}And if you don't make any hefty donations, our\ngoal might never become a reality{{string value=\"...\"}}{{size value=\"100\"}}{{endTag}}"
  },
  {
    "label": "207",
    "attribute": "0x00000000",
    "text": "{{fun_00050064 arg=\"\"}}Anyhoo{{string value=\"...\"}} All construction donations\nshould go to {{color id=\"3\"}}Lloid{{color id=\"65535\"}}.{{delay frames=\"40\"}} And we'll talk\nagain soon, hm?{{endTag}}"
  },
  {
    "label": "301",
    "attribute": "0x00000018",
    "text": "{{string value=\"...\"}}My phone is ringing."
  },
  {
    "label": "302",
    "attribute": "0x00000000",
    "text": "{{fun_00050064 arg=\"\"}}Hello? {{delay20}}{{capitalizeNextLetter}}{{string value=\"PlayerName\"}}?{{i10_4}}\nThis is {{color id=\"3\"}}Tom Nook{{color id=\"65535\"}}!{{endTag}}"
  },
  {
    "label": "303",
    "attribute": "0x00000000",
    "text": "{{fun_00050064 arg=\"\"}}Sorry for the sudden phone call, hm?{{delay frames=\"40\"}}\nThere's an app I think you should\nknow about.{{endTag}}"
  },
  {
    "label": "304",
    "attribute": "0x00000000",
    "text": "{{fun_00050064 arg=\"\"}}I'll send it to your phone now.{{delay20}} Leave\nthe call going and take a look at the\nscreen for me, please.{{endTag}}"
  },
  {
    "label": "305",
    "attribute": "0x00000000",
    "text": "{{fun_00050064 arg=\"\"}}I've just sent you an amazing little\napp called {{color id=\"1\"}}Island Designer{{color id=\"65535\"}}.{{pageBreak}}Developed by {{color id=\"1\"}}Nook Inc.{{color id=\"65535\"}}, it'll let you\nget a little more hands-on with the\n{{color id=\"1\"}}bolder side of island development{{color id=\"65535\"}}.{{pageBreak}}At first, you'll only have permission\nto create paths, but you can redeem\nyour {{color id=\"1\"}}miles{{color id=\"65535\"}} for more{{string value=\"...\"}}robust options.\nYou can unlock different kinds of\npaths, sure. But you can also alter\nthe cliffs and rivers of the island.{{pageBreak}}Once you get a taste for island\ndesigning, I'm sure you'll want to\nget every permit available!{{endTag}}"
  },
  {
    "label": "306",
    "attribute": "0x00000000",
    "text": "{{fun_00050064 arg=\"\"}}Well then{{string value=\"...\"}}enjoy your new app, and\nhave fun creating your ideal island!{{endTag}}"
  },
  {
    "label": "401",
    "attribute": "0x00000018",
    "text": "{{string value=\"...\"}}My phone is ringing."
  },
  {
    "label": "402",
    "attribute": "0x00000000",
    "text": "{{fun_00050064 arg=\"\"}}Hello? {{delay20}}{{capitalizeNextLetter}}{{string value=\"PlayerName\"}}?{{i10_4}}\nThis is {{color id=\"3\"}}Tom Nook{{color id=\"65535\"}}!{{endTag}}"
  },
  {
    "label": "402_01",
    "attribute": "0x00000000",
    "text": "{{fun_00050064 arg=\"\"}}Ah, {{string value=\"PlayerName\"}}?{{delay20}} It's me{{string value=\"...\"}}\nagain. There's something\nI forgot to tell you.{{endTag}}"
  },
  {
    "label": "403",
    "attribute": "0x00000000",
    "text": "{{fun_00050064 arg=\"\"}}Are you busy?{{delay20}} I have a visitor here\nthat I'd love to introduce you to.{{pageBreak}}Sorry to barge in on your day,{{delay8}}\nbut would you please come to the\n{{color id=\"1\"}}airport{{color id=\"65535\"}} so you can meet her?{{endTag}}"
  },
  {
    "label": "501",
    "attribute": "0x00000018",
    "text": "{{string value=\"...\"}}My phone is ringing."
  },
  {
    "label": "502",
    "attribute": "0x00000000",
    "text": "{{fun_00050064 arg=\"\"}}Hello? {{delay20}}{{capitalizeNextLetter}}{{string value=\"PlayerName\"}}?{{i10_4}}\nThis is {{color id=\"3\"}}Tom Nook{{color id=\"65535\"}}!{{endTag}}"
  },
  {
    "label": "503",
    "attribute": "0x00000000",
    "text": "{{fun_00050064 arg=\"\"}}{{capitalizeNextLetter}}{{string value=\"PlayerName\"}}?{{delay20}} It's me.{{delay20}} Sorry to\nkeep bothering you.{{delay frames=\"40\"}} I forgot\nto tell you something.{{endTag}}"
  },
  {
    "label": "504",
    "attribute": "0x00000000",
    "text": "{{fun_00050064 arg=\"\"}}I just got off the phone with {{color id=\"3\"}}Lottie{{color id=\"65535\"}}.{{pageBreak}}It sounds like that big music festival\n{{color id=\"1\"}}Paradise Planning{{color id=\"65535\"}} sponsored went\noff without a hitch, hm?{{pageBreak}}I'm so happy for everyone there.{{delay20}} Of\ncourse, I was rooting for all of you\nall the way!{{delay8}} Yes, yes!{{pageBreak}}Oh, and she also said that you,{{delay20}} in\nparticular,{{delay20}} were invaluable in getting\nit off the ground.{{delay20}} Well done!{{endTag}}"
  },
  {
    "label": "505",
    "attribute": "0x00000000",
    "text": "{{fun_00050064 arg=\"\"}}Anyhow,{{delay20}} I have a bold idea I'd like to\nrun past an established professional\ndesigner like yourself.{{pageBreak}}It's easier to explain face-to-face\nthough.{{delay20}} Do you think you could stop\nby {{color id=\"1\"}}Resident Services{{color id=\"65535\"}}?{{pageBreak}}Whenever you have time, that is.{{delay20}}\nI know you're busy.{{endTag}}"
  },
  {
    "label": "601",
    "attribute": "0x00000018",
    "text": "{{string value=\"...\"}}My phone is ringing."
  },
  {
    "label": "602",
    "attribute": "0x00000000",
    "text": "{{fun_00050064 arg=\"\"}}Hello? {{delay20}}{{capitalizeNextLetter}}{{string value=\"PlayerName\"}}?{{i10_4}}\nThis is {{color id=\"3\"}}Tom Nook{{color id=\"65535\"}}!{{endTag}}"
  },
  {
    "label": "603",
    "attribute": "0x00000000",
    "text": "{{fun_00050064 arg=\"\"}}{{capitalizeNextLetter}}{{string value=\"PlayerName\"}}?{{delay20}} It's me.{{delay20}} Sorry to\nkeep bothering you.{{delay frames=\"40\"}} I forgot\nto tell you something.{{endTag}}"
  },
  {
    "label": "604",
    "attribute": "0x00000000",
    "text": "{{fun_00050064 arg=\"\"}}In the spirit of May 1st—May Day—\nI've arranged a {{color id=\"1\"}}special tour{{color id=\"65535\"}} as a way\nof saying thanks to everyone!{{endTag}}"
  },
  {
    "label": "605",
    "attribute": "0x00000000",
    "text": "{{fun_00050064 arg=\"\"}}Tour flights are taking off through\nthe end of the day, so don't forget to\nstop by the {{color id=\"1\"}}airport{{color id=\"65535\"}}.{{delay20}} Have fun, hm?{{endTag}}"
  },
  {
    "label": "605_01",
    "attribute": "0x00000000",
    "text": "{{fun_00050064 arg=\"\"}}Tour flights will be taking off through\nMay 7th, so stop by the {{color id=\"1\"}}airport\n{{color id=\"65535\"}}whenever you're ready.{{delay20}} Have fun!{{endTag}}"
  }
]