﻿[
  {
    "label": "001",
    "attribute": "0x0000020000000000",
    "text": "{{anim id=\"Hesitate\" target=\"actor\" targetSpec=\"\"}}Eh, {{string value=\"NickName\"}},{{delay20}} zou je het leuk vinden als ik een keer bij je op bezoek zou komen, {{string value=\"Catchphrase\"}}?"
  },
  {
    "label": "001_a",
    "attribute": "0x0000000000000000",
    "text": "Ja, hoor!"
  },
  {
    "label": "001_b",
    "attribute": "0x0000000000000000",
    "text": "Dat heb ik liever niet."
  },
  {
    "label": "002",
    "attribute": "0x0000020000000000",
    "text": "{{anim id=\"IdeaBulb\" target=\"actor\" targetSpec=\"\"}}{{delay20}}Het lijkt me leuk om eens in alle rust\nbij te kletsen! {{delay20}}{{anim id=\"Smiling\" target=\"actor\" targetSpec=\"\"}}Misschien wel bij jou\nthuis, {{string value=\"Catchphrase\"}}?"
  },
  {
    "label": "002_a",
    "attribute": "0x0000000000000000",
    "text": "Klinkt goed."
  },
  {
    "label": "002_b",
    "attribute": "0x0000000000000000",
    "text": "Sorry, nu even niet."
  },
  {
    "label": "003",
    "attribute": "0x0000020000000000",
    "text": "{{anim id=\"Thinking\" target=\"actor\" targetSpec=\"\"}}Weet je, {{delay8}}ik wil mijn huis opnieuw\ninrichten, {{delay8}}maar ik weet niet zo goed\nwaar ik moet beginnen{{string value=\"...\"}}{{pageBreak}}{{anim id=\"IdeaBulb\" target=\"actor\" targetSpec=\"\"}}Ik heb een geweldig idee!{{delay40}} {{anim id=\"QuestionMark\" target=\"actor\" targetSpec=\"\"}}Mag ik bij\njou thuis rondkijken om ideeën op te\ndoen, {{string value=\"Catchphrase\"}}?{{pageBreak}}{{anim id=\"Blushing\" target=\"actor\" targetSpec=\"\"}}Ik heb jouw stijl namelijk altijd\nbewonderd."
  },
  {
    "label": "003_a",
    "attribute": "0x0000000000000000",
    "text": "Oké, waarom niet?"
  },
  {
    "label": "003_b",
    "attribute": "0x0000000000000000",
    "text": "Dat komt nu niet uit."
  },
  {
    "label": "004",
    "attribute": "0x0000000000000000",
    "text": "{{anim id=\"Nodding\" target=\"actor\" targetSpec=\"\"}}Natuurlijk! Dat is geen probleem.\n{{anim id=\"Hesitate\" target=\"actor\" targetSpec=\"\"}}Misschien een andere keer?"
  },
  {
    "label": "005",
    "attribute": "0x0000000000000000",
    "text": "{{anim id=\"Nodding\" target=\"actor\" targetSpec=\"\"}}Oké, het was maar een idee.{{delay20}}\n{{anim id=\"Hesitate\" target=\"actor\" targetSpec=\"\"}}Een andere keer misschien?"
  },
  {
    "label": "006",
    "attribute": "0x0000000000000000",
    "text": "{{anim id=\"Nodding\" target=\"actor\" targetSpec=\"\"}}O, geen probleem!{{delay8}} {{anim id=\"ShyBoy\" target=\"actor\" targetSpec=\"\"}}Ik heb niet zo'n\ngoede timing."
  },
  {
    "label": "007",
    "attribute": "0x0000010000000000",
    "text": "{{anim id=\"BigSmile\" target=\"actor\" targetSpec=\"\"}}Hoera! {{delay20}}Wanneer komt het uit?"
  },
  {
    "label": "007_a",
    "attribute": "0x0000000000000000",
    "text": "Nu is prima."
  },
  {
    "label": "007_b",
    "attribute": "0x0000000000000000",
    "text": "Morgen is beter."
  },
  {
    "label": "008",
    "attribute": "0x0000010000000000",
    "text": "{{anim id=\"BigSmile\" target=\"actor\" targetSpec=\"\"}}Heel erg bedankt!{{delay20}} Hoe laat wil je\ndat ik kom?"
  },
  {
    "label": "008_a",
    "attribute": "0x0000000000000000",
    "text": "Kom nu meteen!"
  },
  {
    "label": "008_b",
    "attribute": "0x0000000000000000",
    "text": "Morgen is prima."
  },
  {
    "label": "009",
    "attribute": "0x0000010000000000",
    "text": "{{anim id=\"Clapping\" target=\"actor\" targetSpec=\"\"}}Dit wordt zo leuk!{{delay frames=\"40\"}} {{anim id=\"EmotEnd\" target=\"actor\" targetSpec=\"\"}}Hoe laat {{anim id=\"Hello\" target=\"actor\" targetSpec=\"\"}}kan ik er\nhet beste zijn?"
  },
  {
    "label": "009_a",
    "attribute": "0x0000000000000000",
    "text": "Komt nu uit?"
  },
  {
    "label": "009_b",
    "attribute": "0x0000000000000000",
    "text": "Morgen is prima."
  },
  {
    "label": "101",
    "attribute": "0x0000000000000000",
    "text": "{{anim id=\"HappyDance\" target=\"actor\" targetSpec=\"\"}}Kom, dan gaan we!"
  },
  {
    "label": "102",
    "attribute": "0x0000000000000000",
    "text": "{{anim id=\"HappyDance\" target=\"actor\" targetSpec=\"\"}}Ga maar, dan volg ik jou."
  },
  {
    "label": "103",
    "attribute": "0x0000000000000000",
    "text": "{{anim id=\"HappyDance\" target=\"actor\" targetSpec=\"\"}}Zullen we dan maar?"
  },
  {
    "label": "104",
    "attribute": "0x0000000000000000",
    "text": "{{anim id=\"Smiling\" target=\"actor\" targetSpec=\"\"}}Volgens mij is dit de eerste keer dat\nik je huis zie!{{pageBreak}}{{anim id=\"ShyBoy\" target=\"actor\" targetSpec=\"\"}}{{capitalizeNextLetter}}{{string value=\"Catchphrase\"}}, ik heb er zo'n zin in!"
  },
  {
    "label": "105",
    "attribute": "0x0000000000000000",
    "text": "{{anim id=\"Smiling\" target=\"actor\" targetSpec=\"\"}}Ik heb er zo'n zin in, want {{anim id=\"Blushing\" target=\"actor\" targetSpec=\"\"}}dit is de\neerste keer dat ik bij je thuis kom!"
  },
  {
    "label": "106",
    "attribute": "0x0000000000000000",
    "text": "{{anim id=\"TakenAback\" target=\"actor\" targetSpec=\"\"}}Ik realiseer me opeens hoe laat het\nis!{{pageBreak}}{{anim id=\"Negative\" target=\"actor\" targetSpec=\"\"}}Het is veel te laat om nog gasten te\nontvangen, dus {{anim id=\"EmotEnd\" target=\"actor\" targetSpec=\"\"}}laten we {{anim id=\"FaintSmile\" target=\"actor\" targetSpec=\"\"}}het een\nandere keer doen."
  },
  {
    "label": "201",
    "attribute": "0x0000000000000000",
    "text": "{{anim id=\"Nodding\" target=\"actor\" targetSpec=\"\"}}Dat komt mij ook het beste uit!\n{{anim id=\"Smiling\" target=\"actor\" targetSpec=\"\"}}Tot morgen dan maar!"
  },
  {
    "label": "202",
    "attribute": "0x0000000000000000",
    "text": "{{anim id=\"Smiling\" target=\"actor\" targetSpec=\"\"}}Klinkt goed! Dan kom ik morgen bij\nje langs."
  },
  {
    "label": "203",
    "attribute": "0x0000000000000000",
    "text": "Morgen? {{anim id=\"Smiling\" target=\"actor\" targetSpec=\"\"}}Dat komt mij ook goed uit!"
  },
  {
    "label": "204",
    "attribute": "0x0000000000000000",
    "text": "{{anim id=\"Nodding\" target=\"actor\" targetSpec=\"\"}}Ik zal proberen om {{anim id=\"FaintSmile\" target=\"actor\" targetSpec=\"\"}}er vroeg op de\ndag te zijn, {{string value=\"Catchphrase\"}}."
  },
  {
    "label": "205",
    "attribute": "0x0000000000000000",
    "text": "{{anim id=\"Nodding\" target=\"actor\" targetSpec=\"\"}}Ik zal proberen om er vroeg op de\ndag te zijn, {{anim id=\"FaintSmile\" target=\"actor\" targetSpec=\"\"}}voor het geval dat je ook\nnog andere plannen hebt."
  },
  {
    "label": "206",
    "attribute": "0x0000000000000000",
    "text": "Ik zal proberen {{anim id=\"FaintSmile\" target=\"actor\" targetSpec=\"\"}}om er niet al te laat\nte zijn."
  },
  {
    "label": "207",
    "attribute": "0x0000000000000000",
    "text": "{{anim id=\"HappyDance\" target=\"actor\" targetSpec=\"\"}}Ik kan niet wachten om je woning\nte zien. Dit is de eerste keer.\n{{anim id=\"Hello\" target=\"actor\" targetSpec=\"\"}}Wat spannend!"
  },
  {
    "label": "208",
    "attribute": "0x0000000000000000",
    "text": "{{anim id=\"HappyDance\" target=\"actor\" targetSpec=\"\"}}Hoera! Ik kan haast niet wachten\nom je woning {{anim id=\"Smiling\" target=\"actor\" targetSpec=\"\"}}vanbinnen te zien!"
  },
  {
    "label": "301",
    "attribute": "0x0000000000000000",
    "text": "{{anim id=\"FaintSmile\" target=\"actor\" targetSpec=\"\"}}Vergeet niet dat je me hebt\nuitgenodigd om morgen langs\nte komen. {{anim id=\"Smiling\" target=\"actor\" targetSpec=\"\"}}Ik heb er zin in!"
  },
  {
    "label": "302",
    "attribute": "0x0000000000000000",
    "text": "{{anim id=\"Smiling\" target=\"actor\" targetSpec=\"\"}}Als ik vrolijk lijk, komt dat omdat je\nme hebt uitgenodigd om morgen\nop bezoek te komen!"
  },
  {
    "label": "303",
    "attribute": "0x0000000000000000",
    "text": "{{anim id=\"FaintSmile\" target=\"actor\" targetSpec=\"\"}}Ik heb zo'n zin in mijn bezoek aan\njou morgen!{{pageBreak}}{{anim id=\"Nodding\" target=\"actor\" targetSpec=\"\"}}Ik zal proberen om er niet al te laat\nte zijn."
  },
  {
    "label": "304",
    "attribute": "0x0000000000000000",
    "text": "{{anim id=\"Hello\" target=\"actor\" targetSpec=\"\"}}Ik vind het zo lief van je dat je me\nvandaag bij jou thuis wilt ontvangen.{{pageBreak}}{{anim id=\"Smiling\" target=\"actor\" targetSpec=\"\"}}De gedachte alleen al tovert een\nglimlach op mijn gezicht! {{delay8}}{{anim id=\"Nodding\" target=\"actor\" targetSpec=\"\"}}Ik ben er\ndan later.{{delay8}} Tot dan, {{string value=\"Catchphrase\"}}!"
  },
  {
    "label": "305",
    "attribute": "0x0000000000000000",
    "text": "{{anim id=\"Nodding\" target=\"actor\" targetSpec=\"\"}}Sinds we het er gisteren over gehad\nhebben, kijk ik er erg naar uit je thuis\nte bezoeken, {{string value=\"NickName\"}}.\n{{anim id=\"Grin\" target=\"actor\" targetSpec=\"\"}}Hoe pijnlijk zou het zijn als ik bij\nje op de stoep zou staan,{{delay8}}{{anim id=\"Laughing\" target=\"actor\" targetSpec=\"\"}} maar er\nniemand open zou doen!\n{{anim id=\"Serious\" target=\"actor\" targetSpec=\"\"}}Laat het alsjeblieft niet zover komen!"
  },
  {
    "label": "306",
    "attribute": "0x0000000000000000",
    "text": "{{anim id=\"Hello\" target=\"actor\" targetSpec=\"\"}}Ik hoop dat onze plannen voor\nvandaag nog steeds doorgaan.{{pageBreak}}{{anim id=\"Nodding\" target=\"actor\" targetSpec=\"\"}}Het wordt sowieso het hoogtepunt\nvan mijn week, {{string value=\"Catchphrase\"}}.{{pageBreak}}{{anim id=\"FaintSmile\" target=\"actor\" targetSpec=\"\"}}Ik beloof niet al te laat langs te\nkomen, oké?"
  },
  {
    "label": "401",
    "attribute": "0x0000020000000000",
    "text": "{{anim id=\"Hesitate\" target=\"actor\" targetSpec=\"\"}}Ik hoop dat dit niet onbeleefd klinkt,{{delay8}}\nmaar kunnen we naar jouw woning\ngaan?{{pageBreak}}{{anim id=\"Blushing\" target=\"actor\" targetSpec=\"\"}}Begrijp me niet verkeerd,{{delay8}} ik vind het\nheerlijk buiten.{{pageBreak}}{{anim id=\"BigSmile\" target=\"actor\" targetSpec=\"\"}}Maar soms vind ik het binnen nóg\nfijner, {{string value=\"Catchphrase\"}}."
  },
  {
    "label": "401_a",
    "attribute": "0x0000000000000000",
    "text": "Laten we gaan!"
  },
  {
    "label": "401_b",
    "attribute": "0x0000000000000000",
    "text": "Dat komt nu niet uit."
  },
  {
    "label": "402",
    "attribute": "0x0000020000000000",
    "text": "{{anim id=\"Serious\" target=\"actor\" targetSpec=\"\"}}Misschien ligt het aan het weer,{{delay8}} maar\nik heb geen zin alleen te zijn.{{delay20}} {{anim id=\"FaintSmile\" target=\"actor\" targetSpec=\"\"}}Ik kan\nwel wat gezelschap gebruiken.{{pageBreak}}{{anim id=\"Hello\" target=\"actor\" targetSpec=\"\"}}Vind je het leuk als ik even bij jou op\nbezoek kom, {{string value=\"Catchphrase\"}}?"
  },
  {
    "label": "402_a",
    "attribute": "0x0000000000000000",
    "text": "Kom maar, hoor."
  },
  {
    "label": "402_b",
    "attribute": "0x0000000000000000",
    "text": "Sorry, dat gaat niet."
  },
  {
    "label": "403",
    "attribute": "0x0000000000000000",
    "text": "{{anim id=\"Hesitate\" target=\"actor\" targetSpec=\"\"}}Sorry, ik wilde je niet storen.{{delay20}} {{anim id=\"FaintSmile\" target=\"actor\" targetSpec=\"\"}}Misschien een andere keer, {{string value=\"Catchphrase\"}}."
  },
  {
    "label": "404",
    "attribute": "0x0000000000000000",
    "text": "{{anim id=\"Nodding\" target=\"actor\" targetSpec=\"\"}}Geen probleem, {{delay20}}ik begrijp het wel.\n{{anim id=\"Hesitate\" target=\"actor\" targetSpec=\"\"}}Misschien kan ik je beter een andere\nkeer bezoeken,{{delay20}} {{string value=\"Catchphrase\"}}."
  }
]