﻿[
  {
    "label": "001",
    "attribute": "0x0000000000000000",
    "text": "{{anim id=\"Eh\" target=\"actor\" targetSpec=\"\"}}Ga je al naar huis?{{delay8}}\n{{anim id=\"FaintSmile\" target=\"actor\" targetSpec=\"\"}}Jammer dat de pret voorbij is,\nmaar bedankt voor het komen."
  },
  {
    "label": "002",
    "attribute": "0x0000000000000000",
    "text": "{{anim id=\"Eh\" target=\"actor\" targetSpec=\"\"}}Je gaat er vandoor?\n{{anim id=\"Smiling\" target=\"actor\" targetSpec=\"\"}}Bedankt voor je bezoekje."
  },
  {
    "label": "003",
    "attribute": "0x0000000000000000",
    "text": "{{anim id=\"Worried\" target=\"actor\" targetSpec=\"\"}}Ah, moet je al gaan?{{delay8}} {{anim id=\"Hesitate\" target=\"actor\" targetSpec=\"\"}}Ik hoop dat je\nhet naar je zin hebt gehad."
  },
  {
    "label": "004",
    "attribute": "0x0000000000000000",
    "text": "{{anim id=\"Shocked\" target=\"actor\" targetSpec=\"\"}}O? {{delay40}}Maar{{string value=\"...\"}}{{anim id=\"Confused\" target=\"actor\" targetSpec=\"\"}} het was net zo gezellig.{{delay8}}\nMoet je er echt al zo snel weer\nvandoor, {{string value=\"Catchphrase\"}}?"
  },
  {
    "label": "005",
    "attribute": "0x0000000000000000",
    "text": "{{anim id=\"Shocked\" target=\"actor\" targetSpec=\"\"}}Ga je al? {{delay20}}{{anim id=\"Confused\" target=\"actor\" targetSpec=\"\"}}Maar je bent er nog\nmaar net, {{string value=\"Catchphrase\"}}."
  },
  {
    "label": "006",
    "attribute": "0x0000000000000000",
    "text": "{{anim id=\"Confused\" target=\"actor\" targetSpec=\"\"}}Dat was een kort bezoekje{{string value=\"...\"}}{{delay20}}\nKun je niet wat langer blijven,\n{{string value=\"Catchphrase\"}}?"
  },
  {
    "label": "100",
    "attribute": "0x0000000000000000",
    "text": "{{anim id=\"IdeaBulb\" target=\"actor\" targetSpec=\"\"}}O! {{anim id=\"EmotEnd\" target=\"actor\" targetSpec=\"\"}}Ik heb nog iets voor je{{string value=\"...\"}}\n{{anim id=\"Smiling\" target=\"actor\" targetSpec=\"\"}}{{capitalizeNextLetter}}{{wordArticle}}{{fun_0004007D arg=\"0x0000\"}}."
  },
  {
    "label": "101",
    "attribute": "0x0000000000000000",
    "text": "{{anim id=\"Shocked\" target=\"actor\" targetSpec=\"\"}}Ik zou het bijna vergeten{{string value=\"...\"}} {{anim id=\"EmotEnd\" target=\"actor\" targetSpec=\"\"}}{{anim id=\"FaintSmile\" target=\"actor\" targetSpec=\"\"}}{{fun_00130032 arg=\"0x160000CD0800440065007A00650006004400690074000800440065007A006500\"}} {{fun_00170032 arg=\"0x03CD\"}}{{fun_0004007D arg=\"0x0000\"}} {{fun_00130032 arg=\"0x160000CD04006900730004006900730008007A0069006A006E00\"}} voor jou."
  },
  {
    "label": "102",
    "attribute": "0x0000000000000000",
    "text": "{{anim id=\"Shocked\" target=\"actor\" targetSpec=\"\"}}O, hoi{{string value=\"...\"}} Ik heb een cadeau voor je!{{anim id=\"EmotEnd\" target=\"actor\" targetSpec=\"\"}}{{pageBreak}}{{anim id=\"Smiling\" target=\"actor\" targetSpec=\"\"}}Je krijgt van mij {{wordArticle}}{{fun_0004007D arg=\"0x0000\"}}."
  },
  {
    "label": "103",
    "attribute": "0x0000000000000000",
    "text": "{{anim id=\"FaintSmile\" target=\"actor\" targetSpec=\"\"}}{{capitalizeNextLetter}}{{string value=\"Catchphrase\"}}, het was hartstikke leuk. {{anim id=\"Smiling\" target=\"actor\" targetSpec=\"\"}}Laten we dit snel nog eens doen!"
  },
  {
    "label": "104",
    "attribute": "0x0000000000000000",
    "text": "{{anim id=\"Smiling\" target=\"actor\" targetSpec=\"\"}}Het was heel gezellig. {{anim id=\"FaintSmile\" target=\"actor\" targetSpec=\"\"}}Ik hoop dat\nje binnenkort nog eens langs kunt\nkomen."
  },
  {
    "label": "105",
    "attribute": "0x0000000000000000",
    "text": "{{anim id=\"FaintSmile\" target=\"actor\" targetSpec=\"\"}}Ik heb het goed naar mijn zin gehad, {{string value=\"Catchphrase\"}}. {{anim id=\"Smiling\" target=\"actor\" targetSpec=\"\"}}Kom binnenkort nog eens terug!"
  },
  {
    "label": "106",
    "attribute": "0x0000000000000000",
    "text": "{{anim id=\"FaintSmile\" target=\"actor\" targetSpec=\"\"}}Maar je zakken zijn al vol, {{string value=\"NickName\"}}{{string value=\"...\"}}{{pageBreak}}{{anim id=\"EmotEnd\" target=\"actor\" targetSpec=\"\"}}Ik stuur dit wel naar je op, oké? {{delay20}}{{anim id=\"Smiling\" target=\"actor\" targetSpec=\"\"}}Dit was leuk! {{delay8}}Hopelijk tot snel, {{string value=\"Catchphrase\"}}."
  },
  {
    "label": "200",
    "attribute": "0x0000000000000000",
    "text": "{{anim id=\"Aha\" target=\"actor\" targetSpec=\"\"}}{{delay20}}O, trouwens! {{delay8}}Heel erg bedankt dat je\nop mijn uitnodiging bent ingegaan.{{delay20}}\n{{anim id=\"Hesitate\" target=\"actor\" targetSpec=\"\"}}Eh, ik heb nog iets voor je{{string value=\"...\"}}{{pageBreak}}{{anim id=\"FaintSmile\" target=\"actor\" targetSpec=\"\"}}Een van mijn favoriete liedjes, \"⁠{{fun_00170032 arg=\"0x03CD\"}}{{fun_0000007D arg=\"0x0000\"}}⁠\".{{pageBreak}}{{anim id=\"Hesitate\" target=\"actor\" targetSpec=\"\"}}Misschien denk je wel aan mij als je\nernaar luistert. {{delay20}}{{anim id=\"Blushing\" target=\"actor\" targetSpec=\"\"}}Ik hoop dat je er blij\nmee bent."
  },
  {
    "label": "201",
    "attribute": "0x0000000000000000",
    "text": "{{anim id=\"Eh\" target=\"actor\" targetSpec=\"\"}}O, voor ik het vergeet{{string value=\"...\"}} {{anim id=\"EmotEnd\" target=\"actor\" targetSpec=\"\"}}Ik heb nog\niets voor je omdat ik zo blij was dat\nje op mijn uitnodiging bent ingegaan.{{pageBreak}}{{anim id=\"Smiling\" target=\"actor\" targetSpec=\"\"}}{{fun_00170032 arg=\"0x03CD\"}}\"⁠{{fun_0000007D arg=\"0x0000\"}}⁠\" is een van mijn favoriete liedjes! {{delay8}}{{anim id=\"Hesitate\" target=\"actor\" targetSpec=\"\"}}Hopelijk vind je het net zo leuk als ik."
  },
  {
    "label": "202",
    "attribute": "0x0000000000000000",
    "text": "{{anim id=\"Smiling\" target=\"actor\" targetSpec=\"\"}}{{capitalizeNextLetter}}{{string value=\"Catchphrase\"}}, het was echt leuk dat je er was!"
  },
  {
    "label": "203",
    "attribute": "0x0000000000000000",
    "text": "{{anim id=\"HappyFlower\" target=\"actor\" targetSpec=\"\"}}Het was echt leuk dat je er was, {{string value=\"Catchphrase\"}}! {{delay8}}{{anim id=\"FaintSmile\" target=\"actor\" targetSpec=\"\"}}Bedankt voor je komst!"
  }
]