﻿[
  {
    "label": "100",
    "attribute": "0x0000000000000000",
    "text": "{{anim id=\"Worried\" target=\"actor\" targetSpec=\"\"}}Sorry, ik ben nu schattenjacht aan\nhet spelen. {{anim id=\"FaintSmile\" target=\"actor\" targetSpec=\"\"}}Laten we een andere\nkeer bijkletsen, oké?"
  },
  {
    "label": "101",
    "attribute": "0x0000000000000000",
    "text": "{{anim id=\"FaintSmile\" target=\"actor\" targetSpec=\"\"}}Ik wil graag met je bijkletsen, {{anim id=\"Hesitate\" target=\"actor\" targetSpec=\"\"}}maar\nik ben nu schattenjacht aan het\nspelen. {{anim id=\"FaintSmile\" target=\"actor\" targetSpec=\"\"}}Kan het ook later?"
  },
  {
    "label": "102",
    "attribute": "0x0000000000000000",
    "text": "{{anim id=\"Worried\" target=\"actor\" targetSpec=\"\"}}Ik ben nu schattenjacht aan het\nspelen, sorry{{string value=\"...\"}}{{pageBreak}}{{anim id=\"FaintSmile\" target=\"actor\" targetSpec=\"\"}}Zodra het is afgelopen, wil ik\ndolgraag met je kletsen."
  },
  {
    "label": "200",
    "attribute": "0x0000000000000000",
    "text": "{{anim id=\"FaintSmile\" target=\"actor\" targetSpec=\"\"}}De schat is ergens op dit eiland\nverstopt. {{anim id=\"Smiling\" target=\"actor\" targetSpec=\"\"}}Veel succes met zoeken!"
  },
  {
    "label": "201",
    "attribute": "0x0000000000000000",
    "text": "{{anim id=\"FaintSmile\" target=\"actor\" targetSpec=\"\"}}Ik heb echt een schat begraven,\nergens hier op het eiland{{string value=\"...\"}}{{pageBreak}}{{anim id=\"Smiling\" target=\"actor\" targetSpec=\"\"}}Ik hoop dat je hem kunt vinden!"
  },
  {
    "label": "202",
    "attribute": "0x0000000000000000",
    "text": "{{anim id=\"FaintSmile\" target=\"actor\" targetSpec=\"\"}}De schat is ergens op het eiland\nbegraven. {{anim id=\"Smiling\" target=\"actor\" targetSpec=\"\"}}Ik duim voor je!"
  }
]