﻿[
  {
    "label": "0001",
    "text": "Кому отправить?"
  },
  {
    "label": "0002",
    "text": "В этой категории\nникого нет."
  },
  {
    "label": "0003",
    "text": "{{selection value=\"SelectedIslandName\"}}"
  },
  {
    "label": "0004",
    "text": "{{selection value=\"SelectedName\"}}"
  }
]