﻿[
  {
    "label": "002",
    "attribute": "0x0000000000000000",
    "locale": {
      "CNzh": "{{anim id=\"IdeaBulb\" target=\"actor\" targetSpec=\"\"}}对了，{{delay20}}{{string value=\"4\"}}！{{delay frames=\"40\"}}\n{{anim id=\"FaintSmile\" target=\"actor\" targetSpec=\"\"}}你的房子建成了对吧，{{delay20}}\n{{anim id=\"Clapping\" target=\"actor\" targetSpec=\"\"}}恭喜你！\n{{anim id=\"Nodding\" target=\"actor\" targetSpec=\"\"}}今后就能体验室内装潢的乐趣了呢。{{delay frames=\"40\"}}\n{{anim id=\"EmotEnd\" target=\"actor\" targetSpec=\"\"}}{{string value=\"4\"}}你到底会把房间\n布置成什么样子呀？{{delay8}}{{anim id=\"BigSmile\" target=\"actor\" targetSpec=\"\"}}我好期待！{{string value=\"6\"}}。{{delay8}}{{anim id=\"FaintSmile\" target=\"actor\" targetSpec=\"\"}}",
      "EUde": "{{anim id=\"IdeaBulb\" target=\"actor\" targetSpec=\"\"}}Oh! {{delay20}}{{capitalizeNextLetter}}{{string value=\"NickName\"}}!{{delay frames=\"40\"}}\n{{anim id=\"Clapping\" target=\"actor\" targetSpec=\"\"}}Ich wollte dir noch zu deinem\nEigenheim gratulieren!{{pageBreak}}{{anim id=\"Nodding\" target=\"actor\" targetSpec=\"\"}}Viel Spaß bei der Auswahl der\nInneneinrichtung!{{delay frames=\"40\"}} {{anim id=\"EmotEnd\" target=\"actor\" targetSpec=\"\"}}Ich bin schon{{anim id=\"BigSmile\" target=\"actor\" targetSpec=\"\"}}\nsehr gespannt, {{delay8}}{{string value=\"Catchphrase\"}}.{{delay8}}{{anim id=\"FaintSmile\" target=\"actor\" targetSpec=\"\"}}",
      "EUen": "{{anim id=\"IdeaBulb\" target=\"actor\" targetSpec=\"\"}}Oh! {{delay20}}{{capitalizeNextLetter}}{{string value=\"NickName\"}}!{{delay frames=\"40\"}} {{anim id=\"FaintSmile\" target=\"actor\" targetSpec=\"\"}}I wanted to\ncongratulate you on your new house!{{pageBreak}}{{anim id=\"HappyFlower\" target=\"actor\" targetSpec=\"\"}}I bet you'll have so much fun\ndesigning the interior!{{delay frames=\"40\"}} {{anim id=\"BigSmile\" target=\"actor\" targetSpec=\"\"}}I can't wait\nto see what you put together.{{delay frames=\"40\"}}{{anim id=\"FaintSmile\" target=\"actor\" targetSpec=\"\"}}",
      "EUes": "{{anim id=\"FaintSmile\" target=\"actor\" targetSpec=\"\"}}Por cierto,{{delay8}} enhorabuena por\ntu nueva casa,{{delay8}} {{string value=\"NickName\"}}.{{pageBreak}}{{anim id=\"HappyFlower\" target=\"actor\" targetSpec=\"\"}}Seguro que te lo pasarás en grande\ndecorándola a tu gusto.{{pageBreak}}{{anim id=\"Hesitate\" target=\"actor\" targetSpec=\"\"}}¿Me invitarás algún día a tomar algo\npara enseñármela?{{delay20}} {{anim id=\"Smiling\" target=\"actor\" targetSpec=\"\"}}¡Me haría mucha\nilusión, {{string value=\"6\"}}!",
      "EUfr": "{{anim id=\"IdeaBulb\" target=\"actor\" targetSpec=\"\"}}Oh !{{delay20}} {{capitalizeNextLetter}}{{string value=\"NickName\"}} !{{delay20}} {{anim id=\"FaintSmile\" target=\"actor\" targetSpec=\"\"}}Je voulais justement te féliciter pour ta nouvelle maison !{{pageBreak}}{{anim id=\"HappyFlower\" target=\"actor\" targetSpec=\"\"}}Tu vas pouvoir t'en donner à cœur\njoie pour la déco, joyeu{{gender2 m=\"x\" f=\"se\"}} fripon{{gender2 m=\"\" f=\"ne\"}} !\n{{anim id=\"BigSmile\" target=\"actor\" targetSpec=\"\"}}{{delay20}}J'ai hâte de voir le résultat !{{delay frames=\"40\"}}{{anim id=\"FaintSmile\" target=\"actor\" targetSpec=\"\"}}",
      "EUit": "{{anim id=\"IdeaBulb\" target=\"actor\" targetSpec=\"\"}}Oh, {{delay20}}{{string value=\"NickName\"}}!{{delay frames=\"40\"}} {{anim id=\"FaintSmile\" target=\"actor\" targetSpec=\"\"}}Volevo congratularmi con te per il tuo nuovo pied-à-terre!{{pageBreak}}{{anim id=\"HappyFlower\" target=\"actor\" targetSpec=\"\"}}Immagino che avrai un bel daffare a\ndecorare gli interni.{{delay frames=\"40\"}} {{anim id=\"BigSmile\" target=\"actor\" targetSpec=\"\"}}Non vedo l'ora\ndi ammirare il risultato finale!",
      "EUnl": "{{anim id=\"IdeaBulb\" target=\"actor\" targetSpec=\"\"}}O! {{delay20}}{{capitalizeNextLetter}}{{string value=\"NickName\"}}!{{delay frames=\"40\"}} {{anim id=\"FaintSmile\" target=\"actor\" targetSpec=\"\"}}Ik wilde je net feliciteren met je nieuwe huis!{{pageBreak}}{{anim id=\"HappyFlower\" target=\"actor\" targetSpec=\"\"}}Je zult vast veel plezier hebben met\nde inrichting ervan.{{delay frames=\"40\"}} {{anim id=\"BigSmile\" target=\"actor\" targetSpec=\"\"}}Ik ben echt zo\nbenieuwd wat je ervan gaat maken!{{delay frames=\"40\"}}{{anim id=\"FaintSmile\" target=\"actor\" targetSpec=\"\"}}",
      "EUru": "{{anim id=\"IdeaBulb\" target=\"actor\" targetSpec=\"\"}}А, {{capitalizeNextLetter}}{{string value=\"NickName\"}}!{{delay frames=\"40\"}} {{anim id=\"FaintSmile\" target=\"actor\" targetSpec=\"\"}}Я как раз\nхотела поздравить тебя\nс новосельем!{{pageBreak}}{{anim id=\"HappyFlower\" target=\"actor\" targetSpec=\"\"}}Сейчас, наверное, вовсю дизайном\nинтерьера занимаешься, да?{{delay frames=\"40\"}}\n{{anim id=\"BigSmile\" target=\"actor\" targetSpec=\"\"}}С радостью посмотрю на результат!{{delay frames=\"40\"}}{{anim id=\"FaintSmile\" target=\"actor\" targetSpec=\"\"}}",
      "JPja": "{{anim id=\"IdeaBulb\" target=\"actor\" targetSpec=\"\"}}そうだ、{{delay20}}{{string value=\"4\"}}！{{delay frames=\"40\"}}\n{{anim id=\"FaintSmile\" target=\"actor\" targetSpec=\"\"}}このたびは　マイホームの{{ruby charSpan=\"2\" value=\"かんせい\"}}完成{{delay20}}\n{{anim id=\"Clapping\" target=\"actor\" targetSpec=\"\"}}おめでとうございまーす！\n{{anim id=\"Nodding\" target=\"actor\" targetSpec=\"\"}}これからは　インテリアも　{{ruby charSpan=\"1\" value=\"たの\"}}楽しめますよね{{delay frames=\"40\"}}\n{{anim id=\"EmotEnd\" target=\"actor\" targetSpec=\"\"}}{{string value=\"4\"}}が　どんな\nお{{ruby charSpan=\"2\" value=\"へや\"}}部屋づくりをするか　{{delay8}}{{anim id=\"BigSmile\" target=\"actor\" targetSpec=\"\"}}{{ruby charSpan=\"1\" value=\"たの\"}}楽しみです、{{string value=\"6\"}}{{delay8}}{{anim id=\"FaintSmile\" target=\"actor\" targetSpec=\"\"}}",
      "KRko": "{{anim id=\"IdeaBulb\" target=\"actor\" targetSpec=\"\"}}아 맞다, {{delay20}}{{string value=\"4\"}}님!{{delay frames=\"40\"}}\n{{anim id=\"FaintSmile\" target=\"actor\" targetSpec=\"\"}}최근에 집을 마련하셨죠?{{delay20}}\n{{anim id=\"Clapping\" target=\"actor\" targetSpec=\"\"}}진심으로 축하드려요!\n{{anim id=\"Nodding\" target=\"actor\" targetSpec=\"\"}}앞으로는 인테리어를 즐길 수 있겠어요!{{delay frames=\"40\"}}\n{{anim id=\"EmotEnd\" target=\"actor\" targetSpec=\"\"}}{{string value=\"4\"}}님이 집을 어떻게\n꾸미실지 {{delay8}}{{anim id=\"BigSmile\" target=\"actor\" targetSpec=\"\"}}기대되네요, {{string value=\"6\"}}!{{delay8}}{{anim id=\"FaintSmile\" target=\"actor\" targetSpec=\"\"}}",
      "TWzh": "{{anim id=\"IdeaBulb\" target=\"actor\" targetSpec=\"\"}}對了，{{delay20}}{{string value=\"4\"}}！{{delay frames=\"40\"}}\n{{anim id=\"FaintSmile\" target=\"actor\" targetSpec=\"\"}}你的房子完工了，{{delay20}}\n{{anim id=\"Clapping\" target=\"actor\" targetSpec=\"\"}}恭喜你！\n{{anim id=\"Nodding\" target=\"actor\" targetSpec=\"\"}}接下來就能好好享受室內裝潢的樂趣了。{{delay frames=\"40\"}}\n{{anim id=\"EmotEnd\" target=\"actor\" targetSpec=\"\"}}究竟{{string value=\"4\"}}會將房子\n裝潢成什麼樣子呢，{{delay8}}{{anim id=\"BigSmile\" target=\"actor\" targetSpec=\"\"}}我好期待喔，{{string value=\"6\"}}{{delay8}}。{{anim id=\"FaintSmile\" target=\"actor\" targetSpec=\"\"}}",
      "USen": "{{anim id=\"IdeaBulb\" target=\"actor\" targetSpec=\"\"}}Oh! {{delay20}}{{capitalizeNextLetter}}{{string value=\"NickName\"}}!{{delay frames=\"40\"}} {{anim id=\"FaintSmile\" target=\"actor\" targetSpec=\"\"}}I wanted to\ncongratulate you on your new house!{{pageBreak}}{{anim id=\"HappyFlower\" target=\"actor\" targetSpec=\"\"}}I bet you'll have so much fun\ndesigning the interior!{{delay frames=\"40\"}} {{anim id=\"BigSmile\" target=\"actor\" targetSpec=\"\"}}I can't wait\nto see what you put together.{{delay frames=\"40\"}}{{anim id=\"FaintSmile\" target=\"actor\" targetSpec=\"\"}}",
      "USes": "{{anim id=\"FaintSmile\" target=\"actor\" targetSpec=\"\"}}Por cierto,{{delay8}} felicitaciones por\ntu nueva casa,{{delay8}} {{string value=\"NickName\"}}.{{pageBreak}}{{anim id=\"HappyFlower\" target=\"actor\" targetSpec=\"\"}}Seguro que la pasarás genial\ndecorándola a tu gusto.{{pageBreak}}{{anim id=\"Hesitate\" target=\"actor\" targetSpec=\"\"}}¿Me invitarás algún día a tomar algo\npara mostrármela?{{delay20}} {{anim id=\"Smiling\" target=\"actor\" targetSpec=\"\"}}¡Me daría mucha\nemoción, {{string value=\"6\"}}!",
      "USfr": "{{anim id=\"IdeaBulb\" target=\"actor\" targetSpec=\"\"}}Oh!{{delay20}} {{capitalizeNextLetter}}{{string value=\"NickName\"}}!{{delay20}} {{anim id=\"FaintSmile\" target=\"actor\" targetSpec=\"\"}}Je voulais justement te féliciter pour ta nouvelle maison!{{pageBreak}}{{anim id=\"HappyFlower\" target=\"actor\" targetSpec=\"\"}}Tu vas pouvoir t'en donner à cœur\njoie pour la décorer, joyeu{{gender2 m=\"x\" f=\"se\"}}\nfripon{{gender2 m=\"\" f=\"ne\"}}!{{pageBreak}}{{anim id=\"BigSmile\" target=\"actor\" targetSpec=\"\"}}{{delay20}}J'ai hâte de voir le résultat!{{delay frames=\"40\"}}{{anim id=\"FaintSmile\" target=\"actor\" targetSpec=\"\"}}"
    }
  },
  {
    "label": "003",
    "attribute": "0x0000000000000000",
    "locale": {
      "CNzh": "{{anim id=\"Pardon\" target=\"actor\" targetSpec=\"\"}}我去看过{{delay20}}\n{{string value=\"4\"}}你的家了！{{pageBreak}}{{anim id=\"FaintSmile\" target=\"actor\" targetSpec=\"\"}}我之前就觉得很厉害，{{delay20}}\n但没想到连地下室都有建呢。{{pageBreak}}{{anim id=\"Laughing\" target=\"actor\" targetSpec=\"\"}}以后，{{delay8}}\n都要称呼它是{{delay8}}\n{{string value=\"4\"}}宅邸了。{{string value=\"6\"}}。",
      "EUde": "{{anim id=\"Pardon\" target=\"actor\" targetSpec=\"\"}}Oh, {{delay8}}{{string value=\"NickName\"}}, {{delay8}}dein Haus\nsieht ja toll aus!{{pageBreak}}{{anim id=\"FaintSmile\" target=\"actor\" targetSpec=\"\"}}Ich war vorher schon beeindruckt\ngewesen, {{delay8}}{{anim id=\"Smiling\" target=\"actor\" targetSpec=\"\"}}doch du hast es noch\nweiter verbessert, {{delay8}}{{string value=\"Catchphrase\"}}!{{pageBreak}}{{anim id=\"Laughing\" target=\"actor\" targetSpec=\"\"}}Vielleicht müssen wir es bald\n„Schloss {{capitalizeNextLetter}}{{string value=\"PlayerName\"}}“ nennen!",
      "EUen": "{{anim id=\"Pardon\" target=\"actor\" targetSpec=\"\"}}Wow, {{string value=\"NickName\"}},{{delay20}} your home\nis looking great!{{pageBreak}}{{anim id=\"FaintSmile\" target=\"actor\" targetSpec=\"\"}}I was already impressed,{{delay20}} but\n{{anim id=\"Smiling\" target=\"actor\" targetSpec=\"\"}}somehow you manage to keep\nimproving on it,{{delay20}} {{string value=\"Catchphrase\"}}!{{pageBreak}}{{anim id=\"Laughing\" target=\"actor\" targetSpec=\"\"}}We might have to start calling it{{delay20}}\n{{capitalizeNextLetter}}{{string value=\"PlayerName\"}} Castle soon!",
      "EUes": "{{anim id=\"FaintSmile\" target=\"actor\" targetSpec=\"\"}}Por cierto, flor,{{delay8}} ¡tienes una casa\nespléndida!{{pageBreak}}{{anim id=\"Nodding\" target=\"actor\" targetSpec=\"\"}}Seguro que has tenido que trabajar\nmucho para llegar a tener un hogar\nasí, {{string value=\"6\"}}.\n{{anim id=\"FaintSmile\" target=\"actor\" targetSpec=\"\"}}Mi padre me decía de pequeña que\nel esfuerzo siempre da sus frutos,{{delay8}}\n{{anim id=\"Hello\" target=\"actor\" targetSpec=\"\"}}¡y tenía razón!",
      "EUfr": "{{anim id=\"Pardon\" target=\"actor\" targetSpec=\"\"}}Dis donc,{{delay8}} {{string value=\"NickName\"}},{{delay8}} ta maison a fière allure !{{pageBreak}}{{anim id=\"FaintSmile\" target=\"actor\" targetSpec=\"\"}}Elle était déjà pas piquée des\ntermites,{{delay8}} mais là tu changes\ncarrément de catégorie.{{pageBreak}}{{anim id=\"Laughing\" target=\"actor\" targetSpec=\"\"}}Il ne faudra pas t'étonner si on l'appelle « ⁠Château {{capitalizeNextLetter}}{{string value=\"PlayerName\"}} ⁠» !",
      "EUit": "{{anim id=\"Pardon\" target=\"actor\" targetSpec=\"\"}}Uau, {{delay8}}il tuo pied-à-terre è vraiment\nadoraaabile, {{string value=\"NickName\"}}!{{pageBreak}}{{anim id=\"FaintSmile\" target=\"actor\" targetSpec=\"\"}}Ti ammiravo già moltissimissimo,{{delay20}} ma\n{{anim id=\"Smiling\" target=\"actor\" targetSpec=\"\"}}il tuo buon gusto migliora di giorno\nin giorno, {{string value=\"6\"}}!{{pageBreak}}{{anim id=\"Laughing\" target=\"actor\" targetSpec=\"\"}}Presto dovremo cominciare\na chiamare la tua dimora\n{{delay8}}\"Château {{string value=\"PlayerName\"}}\"!",
      "EUnl": "{{anim id=\"Pardon\" target=\"actor\" targetSpec=\"\"}}Wauw, {{string value=\"NickName\"}},{{delay20}} je huis ziet er geweldig uit!{{pageBreak}}{{anim id=\"FaintSmile\" target=\"actor\" targetSpec=\"\"}}Ik was al onder de indruk,{{delay20}} maar {{anim id=\"Smiling\" target=\"actor\" targetSpec=\"\"}}het\nis je gelukt om het nog meer te\nverbeteren,{{delay20}} {{string value=\"Catchphrase\"}}!{{pageBreak}}{{anim id=\"Laughing\" target=\"actor\" targetSpec=\"\"}}Als je zo doorgaat, noemen we het\n{{delay20}}kasteel {{capitalizeNextLetter}}{{string value=\"PlayerName\"}}!",
      "EUru": "{{anim id=\"Pardon\" target=\"actor\" targetSpec=\"\"}}Вот это да, {{string value=\"NickName\"}},{{delay20}}\nтвой дом выглядит впечатляюще!{{pageBreak}}{{anim id=\"FaintSmile\" target=\"actor\" targetSpec=\"\"}}Я и так была под впечатлением,{{delay20}}\nно {{anim id=\"Smiling\" target=\"actor\" targetSpec=\"\"}}ты не перестаешь меня\nудивлять!{{delay20}} {{capitalizeNextLetter}}{{string value=\"Catchphrase\"}}!{{pageBreak}}{{anim id=\"Laughing\" target=\"actor\" targetSpec=\"\"}}Теперь можно сказать, что\n{{string value=\"PlayerName\"}} живет\nв настоящем дворце!",
      "JPja": "{{anim id=\"Pardon\" target=\"actor\" targetSpec=\"\"}}{{string value=\"4\"}}のお{{ruby charSpan=\"1\" value=\"うち\"}}家、{{delay20}}\n{{ruby charSpan=\"1\" value=\"み\"}}見ましたよ！{{pageBreak}}{{anim id=\"FaintSmile\" target=\"actor\" targetSpec=\"\"}}{{ruby charSpan=\"1\" value=\"まえ\"}}前から　すごいと{{ruby charSpan=\"1\" value=\"おも\"}}思ってましたけど{{delay20}}\n{{ruby charSpan=\"3\" value=\"ちかしつ\"}}地下室も　{{ruby charSpan=\"1\" value=\"つく\"}}造られたんですね{{pageBreak}}{{anim id=\"Laughing\" target=\"actor\" targetSpec=\"\"}}これからは{{delay8}}\n{{string value=\"4\"}}のお{{ruby charSpan=\"2\" value=\"やしき\"}}屋敷って{{delay8}}\n{{ruby charSpan=\"1\" value=\"よ\"}}呼ばなくっちゃ、{{string value=\"6\"}}",
      "KRko": "{{anim id=\"Pardon\" target=\"actor\" targetSpec=\"\"}}{{string value=\"4\"}}님네 집{{delay20}} 봤어요!{{pageBreak}}{{anim id=\"FaintSmile\" target=\"actor\" targetSpec=\"\"}}전에도 대단했는데{{delay20}}\n이젠 지하실까지 만드셨군요!{{pageBreak}}{{anim id=\"Laughing\" target=\"actor\" targetSpec=\"\"}}이제는 집이 아니라{{delay8}}\n{{string value=\"4\"}}님네 저택이라고{{delay8}}\n불러야겠어요! {{string value=\"6\"}}!",
      "TWzh": "{{anim id=\"Pardon\" target=\"actor\" targetSpec=\"\"}}{{string value=\"4\"}}，{{delay20}}\n我看到你家的樣子了喔！{{pageBreak}}{{anim id=\"FaintSmile\" target=\"actor\" targetSpec=\"\"}}之前我就覺得你家很厲害了，{{delay20}}\n沒想到你還造了地下室呢。{{pageBreak}}{{anim id=\"Laughing\" target=\"actor\" targetSpec=\"\"}}看來以後{{delay8}}我得稱它是{{delay8}}\n{{string value=\"4\"}}的豪宅了，{{string value=\"6\"}}。",
      "USen": "{{anim id=\"Pardon\" target=\"actor\" targetSpec=\"\"}}Wow, {{string value=\"NickName\"}},{{delay20}} your home\nis looking great!{{pageBreak}}{{anim id=\"FaintSmile\" target=\"actor\" targetSpec=\"\"}}I was already impressed,{{delay20}} but\n{{anim id=\"Smiling\" target=\"actor\" targetSpec=\"\"}}somehow you manage to keep\nimproving on it,{{delay20}} {{string value=\"Catchphrase\"}}!{{pageBreak}}{{anim id=\"Laughing\" target=\"actor\" targetSpec=\"\"}}We might have to start calling it{{delay20}}\n{{capitalizeNextLetter}}{{string value=\"PlayerName\"}} Castle soon!",
      "USes": "{{anim id=\"FaintSmile\" target=\"actor\" targetSpec=\"\"}}Por cierto, flor,{{delay8}} ¡tienes una casa\nmágica!{{pageBreak}}{{anim id=\"Nodding\" target=\"actor\" targetSpec=\"\"}}Seguro que trabajaste muchísimo\npara llegar a tener un hogar\nasí, {{string value=\"Catchphrase\"}}.\n{{anim id=\"FaintSmile\" target=\"actor\" targetSpec=\"\"}}Mi padre me decía de pequeña que\nel esfuerzo siempre da sus frutos,{{delay8}}\n{{anim id=\"Hello\" target=\"actor\" targetSpec=\"\"}}¡y tenía razón!",
      "USfr": "{{anim id=\"Pardon\" target=\"actor\" targetSpec=\"\"}}Dis donc,{{delay8}} {{string value=\"NickName\"}},{{delay8}} ta maison a fière allure!{{pageBreak}}{{anim id=\"FaintSmile\" target=\"actor\" targetSpec=\"\"}}Elle était déjà pas piquée des\ntermites,{{delay8}} mais là tu changes\ncarrément de catégorie.{{pageBreak}}{{anim id=\"Laughing\" target=\"actor\" targetSpec=\"\"}}Il ne faudra pas t'étonner si on\nl'appelle « ⁠Château {{capitalizeNextLetter}}{{string value=\"PlayerName\"}} ⁠»!"
    }
  },
  {
    "label": "006",
    "attribute": "0x0000000000000000",
    "locale": {
      "CNzh": "{{anim id=\"FaintSmile\" target=\"actor\" targetSpec=\"\"}}我来这座{{string value=\"32\"}}的时候，{{delay8}}\n{{color id=\"1\"}}服务处{{color id=\"65535\"}}还只是个帐篷，{{delay20}}\n{{anim id=\"HappyDance\" target=\"actor\" targetSpec=\"\"}}现在都已经是一栋气派的建筑物了呢～\n{{anim id=\"EmotEnd\" target=\"actor\" targetSpec=\"\"}}但是，{{delay20}}我不会忘记那个帐篷的。{{delay frames=\"40\"}}\n{{anim id=\"Assent\" target=\"actor\" targetSpec=\"\"}}因为它是我移居到这座{{string value=\"32\"}}时的{{delay8}}\n重要的回忆。{{string value=\"6\"}}。{{delay8}}{{anim id=\"FaintSmile\" target=\"actor\" targetSpec=\"\"}}",
      "EUde": "{{anim id=\"AbsentMindedness\" target=\"actor\" targetSpec=\"\"}}Als ich auf diese Insel gezogen bin,{{delay8}}\nwar das {{color id=\"1\"}}Servicecenter {{color id=\"65535\"}}nur ein Zelt.{{delay20}}\n{{anim id=\"FaintSmile\" target=\"actor\" targetSpec=\"\"}}Und sieh es dir jetzt an!{{pageBreak}}{{anim id=\"Thinking\" target=\"actor\" targetSpec=\"\"}}Nun, {{delay8}}wie heißt es so schön?{{delay20}}\nGut Ding will Weile haben, {{delay8}}{{string value=\"Catchphrase\"}}.",
      "EUen": "{{anim id=\"AbsentMindedness\" target=\"actor\" targetSpec=\"\"}}When I came here to this island{{delay20}}\n{{color id=\"1\"}}Resident Services {{color id=\"65535\"}}was still just\na tent,{{delay20}} but {{anim id=\"FaintSmile\" target=\"actor\" targetSpec=\"\"}}look at it now!\n{{anim id=\"Thinking\" target=\"actor\" targetSpec=\"\"}}I guess most things have humble\nbeginnings,{{delay20}} {{string value=\"Catchphrase\"}}{{delay8}}{{string value=\"...\"}}",
      "EUes": "{{anim id=\"FaintSmile\" target=\"actor\" targetSpec=\"\"}}Cuando llegué a esta isla,{{delay8}} la {{color id=\"1\"}}oficina\nde gestión vecinal{{color id=\"65535\"}} no era más que\nuna tiendecita,{{delay8}} ¡y mírala ahora!\n{{anim id=\"Nodding\" target=\"actor\" targetSpec=\"\"}}Supongo que es señal de que\nla isla está progresando, {{string value=\"6\"}}.",
      "EUfr": "{{anim id=\"Smiling\" target=\"actor\" targetSpec=\"\"}}Quand je suis arrivée sur l'île,{{delay20}}\nle {{color id=\"1\"}}bureau des résidents{{color id=\"65535\"}} n'était\nqu'une simple tente.\n{{anim id=\"AbsentMindedness\" target=\"actor\" targetSpec=\"\"}}Il a bien changé,{{delay8}} mais le souvenir\nde ces murs de toile me rappellera\ntoujours ses humbles débuts{{string value=\"...\"}}",
      "EUit": "{{anim id=\"AbsentMindedness\" target=\"actor\" targetSpec=\"\"}}Quando sono arrivata su quest'isola,\n{{delay8}}il {{color id=\"1\"}}centro servizi{{color id=\"65535\"}} era ancora in una\ntenda{{string value=\"...\"}}{{delay8}} {{anim id=\"FaintSmile\" target=\"actor\" targetSpec=\"\"}}e guardalo adesso!\n{{anim id=\"AbsentMindedness\" target=\"actor\" targetSpec=\"\"}}È cambiato molto,{{delay8}} ma il ricordo di\nquelle pareti di tela porterà sempre\nalla mente le sue umili origini{{string value=\"...\"}}",
      "EUnl": "{{anim id=\"AbsentMindedness\" target=\"actor\" targetSpec=\"\"}}Toen ik naar het eiland kwam,{{delay20}} was de\n{{color id=\"1\"}}servicebalie {{color id=\"65535\"}}nog maar een tent.{{delay20}} En{{anim id=\"FaintSmile\" target=\"actor\" targetSpec=\"\"}}\nmoet je nou eens zien!\n{{anim id=\"Thinking\" target=\"actor\" targetSpec=\"\"}}Volgens mij hebben veel dingen zo'n\neenvoudig begin, {{string value=\"Catchphrase\"}}{{delay8}}{{string value=\"...\"}}",
      "EUru": "{{anim id=\"AbsentMindedness\" target=\"actor\" targetSpec=\"\"}}Когда я только переехала,{{delay20}} {{color id=\"1\"}}бюро\nуслуг{{color id=\"65535\"}} располагалось в небольшом\nшатре,{{delay20}} но {{anim id=\"FaintSmile\" target=\"actor\" targetSpec=\"\"}}посмотри на него сейчас!{{pageBreak}}{{anim id=\"Thinking\" target=\"actor\" targetSpec=\"\"}}Все великое начинается с малого{{delay8}}{{string value=\"...\"}}\n{{capitalizeNextLetter}}{{string value=\"Catchphrase\"}}!",
      "JPja": "{{anim id=\"FaintSmile\" target=\"actor\" targetSpec=\"\"}}わたしが　この{{string value=\"32\"}}に{{ruby charSpan=\"1\" value=\"き\"}}来た{{ruby charSpan=\"1\" value=\"とき\"}}時は{{delay8}}\n{{color id=\"1\"}}{{ruby charSpan=\"3\" value=\"あんないじょ\"}}案内所{{color id=\"65535\"}}が　テントでしたけど{{delay20}}\n{{anim id=\"HappyDance\" target=\"actor\" targetSpec=\"\"}}{{ruby charSpan=\"2\" value=\"りっぱ\"}}立派な　{{ruby charSpan=\"2\" value=\"たてもの\"}}建物になりましたね～\n{{anim id=\"EmotEnd\" target=\"actor\" targetSpec=\"\"}}でも　わたし　{{delay20}}あのテントのこと　{{ruby charSpan=\"1\" value=\"わす\"}}忘れません{{delay frames=\"40\"}}\n{{anim id=\"Assent\" target=\"actor\" targetSpec=\"\"}}この{{string value=\"32\"}}に　{{ruby charSpan=\"2\" value=\"いじゅう\"}}移住した{{ruby charSpan=\"1\" value=\"とき\"}}時の{{delay8}}\n{{ruby charSpan=\"2\" value=\"たいせつ\"}}大切な{{ruby charSpan=\"1\" value=\"おも\"}}思い{{ruby charSpan=\"1\" value=\"で\"}}出ですから、{{string value=\"6\"}}{{delay8}}{{anim id=\"FaintSmile\" target=\"actor\" targetSpec=\"\"}}",
      "KRko": "{{anim id=\"FaintSmile\" target=\"actor\" targetSpec=\"\"}}제가 이 {{string value=\"32\"}}에 처음 왔을 때는{{delay8}}\n{{color id=\"1\"}}안내소{{color id=\"65535\"}}가 텐트였는데{{delay20}}\n{{anim id=\"HappyDance\" target=\"actor\" targetSpec=\"\"}}어느덧 근사한 건물이 됐네요～\n{{anim id=\"EmotEnd\" target=\"actor\" targetSpec=\"\"}}하지만 {{delay20}}텐트 시절도 잊지 않을 거예요{{delay frames=\"40\"}}\n{{anim id=\"Assent\" target=\"actor\" targetSpec=\"\"}}이 {{string value=\"32\"}}에 이주했을 무렵의{{delay8}}\n소중한 추억이니까요! {{string value=\"6\"}}!{{delay8}}{{anim id=\"FaintSmile\" target=\"actor\" targetSpec=\"\"}}",
      "TWzh": "{{anim id=\"FaintSmile\" target=\"actor\" targetSpec=\"\"}}我剛來這座島的時候，{{delay8}}\n{{color id=\"1\"}}服務處{{color id=\"65535\"}}還是個帳篷，{{delay20}}\n{{anim id=\"HappyDance\" target=\"actor\" targetSpec=\"\"}}現在已經變成氣派的建築物了呢～\n{{anim id=\"EmotEnd\" target=\"actor\" targetSpec=\"\"}}不過{{delay20}}我不會忘記當初那個帳篷的。{{delay frames=\"40\"}}\n{{anim id=\"Assent\" target=\"actor\" targetSpec=\"\"}}因為那是我移居來這座島時的{{delay8}}\n重要回憶啊，{{string value=\"6\"}}。{{delay8}}{{anim id=\"FaintSmile\" target=\"actor\" targetSpec=\"\"}}",
      "USen": "{{anim id=\"AbsentMindedness\" target=\"actor\" targetSpec=\"\"}}When I came here to this island{{delay20}}\n{{color id=\"1\"}}Resident Services {{color id=\"65535\"}}was still just\na tent,{{delay20}} but {{anim id=\"FaintSmile\" target=\"actor\" targetSpec=\"\"}}look at it now!\n{{anim id=\"Thinking\" target=\"actor\" targetSpec=\"\"}}I guess most things have humble\nbeginnings,{{delay20}} {{string value=\"Catchphrase\"}}{{delay8}}{{string value=\"...\"}}",
      "USes": "{{anim id=\"FaintSmile\" target=\"actor\" targetSpec=\"\"}}Cuando llegué a esta isla,{{delay8}} la {{color id=\"1\"}}{{wordInfo gender=\"2\" indefArticle=\"2\" defArticle=\"4\"}}oficina de gestión vecinal{{color id=\"65535\"}} solo era una pequeña tienda de campaña{{string value=\"...\"}}{{pageBreak}}{{anim id=\"BigSmile\" target=\"actor\" targetSpec=\"\"}}¡Y mírala ahora!{{delay20}} {{anim id=\"Nodding\" target=\"actor\" targetSpec=\"\"}}Solo es una señal de\nlo bien que va progresando la isla.",
      "USfr": "{{anim id=\"Smiling\" target=\"actor\" targetSpec=\"\"}}Quand je suis arrivée sur l'île,{{delay20}}\nle {{color id=\"1\"}}bureau des résidents{{color id=\"65535\"}} n'était\nqu'une simple tente.\n{{anim id=\"AbsentMindedness\" target=\"actor\" targetSpec=\"\"}}Il a bien changé,{{delay8}} mais le souvenir\nde ces murs de toile me rappellera\ntoujours ses humbles débuts{{string value=\"...\"}}"
    }
  },
  {
    "label": "008",
    "attribute": "0x0000000000000000",
    "locale": {
      "CNzh": "{{color id=\"1\"}}Nook商店{{color id=\"65535\"}}{{delay8}}改装后重新开张了，{{delay20}}\n{{anim id=\"Hello\" target=\"actor\" targetSpec=\"\"}}{{string value=\"4\"}}，{{delay8}}\n你已经去过了吗？\n{{anim id=\"Explain\" target=\"actor\" targetSpec=\"\"}}听说它现在比以前更宽阔，{{delay8}}\n售卖的商品数目也有增多。{{delay frames=\"40\"}}\n{{anim id=\"HappyDance\" target=\"actor\" targetSpec=\"\"}}购物变得更加便利了呢。{{string value=\"6\"}}。",
      "EUde": "{{anim id=\"Pardon\" target=\"actor\" targetSpec=\"\"}}Hast du {{color id=\"1\"}}Nooks Laden {{color id=\"65535\"}}seit der\nNeueröffnung schon einmal einen\nBesuch abgestattet?{{pageBreak}}{{anim id=\"Explain\" target=\"actor\" targetSpec=\"\"}}Er wurde ausgebaut, {{delay8}}daher {{anim id=\"FaintSmile\" target=\"actor\" targetSpec=\"\"}}wird wohl\nnun auch eine größere Auswahl an\nWaren angeboten, {{delay8}}{{string value=\"Catchphrase\"}}.",
      "EUen": "{{anim id=\"Pardon\" target=\"actor\" targetSpec=\"\"}}Have you had a chance to stop by\n{{color id=\"1\"}}Nook's Cranny{{delay20}} {{color id=\"65535\"}}since the remodel?{{pageBreak}}{{anim id=\"Explain\" target=\"actor\" targetSpec=\"\"}}It's bigger than ever,{{delay20}} so there's\nbound to be {{anim id=\"FaintSmile\" target=\"actor\" targetSpec=\"\"}}lots more inventory\non the shelves now,{{delay20}} {{string value=\"Catchphrase\"}}.",
      "EUes": "{{anim id=\"FaintSmile\" target=\"actor\" targetSpec=\"\"}}¿Has pasado por {{color id=\"1\"}}MiniNook {{color id=\"65535\"}}tras\nla reforma?{{delay20}} ¡Es más grande que\nnunca!\n{{anim id=\"Nodding\" target=\"actor\" targetSpec=\"\"}}Y además ahora tienen muchísimos\nmás artículos a la venta, {{string value=\"6\"}}.",
      "EUfr": "{{anim id=\"QuestionMark\" target=\"actor\" targetSpec=\"\"}}Tu es déjà {{gender2 m=\"passé\" f=\"passée\"}} à la {{color id=\"1\"}}Boutique Nook{{color id=\"65535\"}}\ndepuis qu'ils ont fini les travaux ?{{pageBreak}}{{anim id=\"Clapping\" target=\"actor\" targetSpec=\"\"}}J'espère qu'ils ont augmenté leur\noffre autant que leur surface,\n{{string value=\"6\"}} !",
      "EUit": "{{anim id=\"Pardon\" target=\"actor\" targetSpec=\"\"}}Hai avuto occasione di passare\nalla {{color id=\"1\"}}Bottega di Nook{{color id=\"65535\"}} dopo i lavori\ndi ampliamento?{{pageBreak}}{{anim id=\"Explain\" target=\"actor\" targetSpec=\"\"}}È plus grande che mai!{{delay20}}{{anim id=\"FaintSmile\" target=\"actor\" targetSpec=\"\"}} Avranno\nun sacco di novità e scaffali pieni\ndi articoli adoraaabili, {{string value=\"6\"}}.",
      "EUnl": "{{anim id=\"Pardon\" target=\"actor\" targetSpec=\"\"}}Heb je al een bezoekje {{delay20}}aan de\ngerenoveerde {{color id=\"1\"}}Nooks hoek {{color id=\"65535\"}}gebracht?{{pageBreak}}{{anim id=\"Explain\" target=\"actor\" targetSpec=\"\"}}De zaak is nu nog groter,{{delay20}} dus er zijn\nvast {{anim id=\"FaintSmile\" target=\"actor\" targetSpec=\"\"}}nog veel meer waren te koop,{{delay20}}\n{{string value=\"Catchphrase\"}}.",
      "EUru": "{{anim id=\"Pardon\" target=\"actor\" targetSpec=\"\"}}Ты уже был{{gender2 m=\"\" f=\"а\"}} в {{color id=\"1\"}}лавке Нука\n{{color id=\"65535\"}}после реконструкции?{{pageBreak}}{{anim id=\"Explain\" target=\"actor\" targetSpec=\"\"}}Теперь она намного просторнее,{{delay20}}\n{{anim id=\"FaintSmile\" target=\"actor\" targetSpec=\"\"}}и товаров на полках станет\nгораздо больше!{{delay20}} {{capitalizeNextLetter}}{{string value=\"Catchphrase\"}}!",
      "JPja": "{{color id=\"1\"}}タヌキ{{ruby charSpan=\"2\" value=\"しょうてん\"}}商店{{color id=\"65535\"}}の　{{delay8}}リニューアルオープン、{{delay20}}\n{{anim id=\"Hello\" target=\"actor\" targetSpec=\"\"}}{{string value=\"4\"}}は{{delay8}}\nもう{{ruby charSpan=\"1\" value=\"い\"}}行きました？\n{{anim id=\"Explain\" target=\"actor\" targetSpec=\"\"}}{{ruby charSpan=\"2\" value=\"いぜん\"}}以前よりも　{{ruby charSpan=\"1\" value=\"ひろ\"}}広くなったから{{delay8}}\n{{ruby charSpan=\"1\" value=\"と\"}}取り{{ruby charSpan=\"1\" value=\"あつか\"}}扱う{{ruby charSpan=\"2\" value=\"しょうひん\"}}商品の{{ruby charSpan=\"1\" value=\"かず\"}}数も　{{ruby charSpan=\"1\" value=\"ふ\"}}増えてるんですって{{delay frames=\"40\"}}\n{{anim id=\"HappyDance\" target=\"actor\" targetSpec=\"\"}}お{{ruby charSpan=\"1\" value=\"か\"}}買い{{ruby charSpan=\"1\" value=\"もの\"}}物が　{{ruby charSpan=\"2\" value=\"べんり\"}}便利になりますね、{{string value=\"6\"}}",
      "KRko": "{{color id=\"1\"}}너굴 상점{{color id=\"65535\"}}이 {{delay8}}새 단장을 했죠{{delay20}}\n{{anim id=\"Hello\" target=\"actor\" targetSpec=\"\"}}{{string value=\"4\"}}님은{{delay8}}\n가보셨나요?\n{{anim id=\"Explain\" target=\"actor\" targetSpec=\"\"}}전보다 넓어져서{{delay8}}\n물건 가짓수도 많이 늘었대요!{{delay frames=\"40\"}}\n{{anim id=\"HappyDance\" target=\"actor\" targetSpec=\"\"}}쇼핑이 편해지겠네요! {{string value=\"6\"}}!",
      "TWzh": "{{color id=\"1\"}}Nook商店{{color id=\"65535\"}}{{delay8}}重新開張了，{{delay20}}\n{{anim id=\"Hello\" target=\"actor\" targetSpec=\"\"}}{{string value=\"4\"}}，{{delay8}}\n你已經去逛過了嗎？\n{{anim id=\"Explain\" target=\"actor\" targetSpec=\"\"}}聽說店面變得更大了，{{delay8}}\n賣的商品也比以前多喔，{{delay frames=\"40\"}}\n{{anim id=\"HappyDance\" target=\"actor\" targetSpec=\"\"}}這樣買東西就更方便了，{{string value=\"6\"}}。",
      "USen": "{{anim id=\"Pardon\" target=\"actor\" targetSpec=\"\"}}Have you had a chance to stop by\n{{color id=\"1\"}}Nook's Cranny{{delay20}} {{color id=\"65535\"}}since the remodel?{{pageBreak}}{{anim id=\"Explain\" target=\"actor\" targetSpec=\"\"}}It's bigger than ever,{{delay20}} so there's\nbound to be {{anim id=\"FaintSmile\" target=\"actor\" targetSpec=\"\"}}lots more inventory\non the shelves now,{{delay20}} {{string value=\"Catchphrase\"}}.",
      "USes": "{{anim id=\"FaintSmile\" target=\"actor\" targetSpec=\"\"}}¿Ya te diste una vuelta por {{color id=\"1\"}}{{wordInfo gender=\"1\" indefArticle=\"0\" defArticle=\"0\"}}MiniNook \n{{color id=\"65535\"}}tras la remodelación?{{delay20}} ¡Es enorme!{{pageBreak}}{{anim id=\"Nodding\" target=\"actor\" targetSpec=\"\"}}Y además ahora tienen muchísimos\nmás artículos a la venta, {{string value=\"Catchphrase\"}}.",
      "USfr": "{{anim id=\"QuestionMark\" target=\"actor\" targetSpec=\"\"}}Tu es déjà {{gender2 m=\"passé\" f=\"passée\"}} à la {{color id=\"1\"}}Boutique Nook{{color id=\"65535\"}}\ndepuis qu'ils ont fini les travaux?{{pageBreak}}{{anim id=\"Clapping\" target=\"actor\" targetSpec=\"\"}}J'espère qu'ils ont augmenté leur\noffre autant que leur surface,\n{{string value=\"6\"}}!"
    }
  },
  {
    "label": "009",
    "attribute": "0x0000000000000000",
    "locale": {
      "CNzh": "{{anim id=\"Explain\" target=\"actor\" targetSpec=\"\"}}我听说，{{color id=\"3\"}}傅达{{color id=\"65535\"}}{{delay20}}是为了调查\n{{string value=\"33\"}}的生态系统，{{delay8}}\n才来这座岛上的{{string value=\"...\"}}\n{{anim id=\"HappyDance\" target=\"actor\" targetSpec=\"\"}}我们的{{string value=\"32\"}}能受到{{delay8}}\n研究人员的瞩目，{{delay20}}\n令人倍感光荣呢！{{string value=\"6\"}}。",
      "EUde": "{{anim id=\"Pardon\" target=\"actor\" targetSpec=\"\"}}Wir haben nun einen eigenen\nGelehrten namens {{color id=\"3\"}}Eugen{{color id=\"65535\"}}, {{delay8}}{{anim id=\"FaintSmile\" target=\"actor\" targetSpec=\"\"}}der\nunsere Fauna studiert, {{delay8}}{{string value=\"Catchphrase\"}}.{{pageBreak}}{{anim id=\"AbsentMindedness\" target=\"actor\" targetSpec=\"\"}}Denk nur... {{delay20}}Wir waren dabei, {{delay8}}\nals das {{string value=\"OtherIslandName\"}}-Kompendium verfasst wurde.",
      "EUen": "{{anim id=\"Pardon\" target=\"actor\" targetSpec=\"\"}}We have our own visiting scholar\nnamed {{color id=\"3\"}}Blathers{{color id=\"65535\"}}{{delay20}} here now to study\n{{anim id=\"FaintSmile\" target=\"actor\" targetSpec=\"\"}}our native wildlife,{{delay20}} {{string value=\"Catchphrase\"}}.{{pageBreak}}{{anim id=\"AbsentMindedness\" target=\"actor\" targetSpec=\"\"}}Just think,{{delay20}} someday I'll be able to\nsay I was here{{delay20}} when the field guide\ngot written about {{string value=\"OtherIslandName\"}}!",
      "EUes": "{{anim id=\"Explain\" target=\"actor\" targetSpec=\"\"}}Parece que ese tal {{color id=\"3\"}}Sócrates {{color id=\"65535\"}}ha\nvenido a estudiar la fauna y la flora\nde la isla, {{string value=\"6\"}}.\n{{anim id=\"FaintSmile\" target=\"actor\" targetSpec=\"\"}}Es un honor que podamos contribuir\nen su estudio, flor.",
      "EUfr": "{{anim id=\"Pardon\" target=\"actor\" targetSpec=\"\"}}Il paraît qu'un certain {{color id=\"3\"}}Thibou{{color id=\"65535\"}} est\nvenu s'installer sur l'île pour\nétudier la faune locale.\n{{anim id=\"Thinking\" target=\"actor\" targetSpec=\"\"}}Si j'ai bien compris,{{delay8}} c'est une sorte\nde zoo-paléo-philanthrope{{string value=\"...\"}}",
      "EUit": "{{anim id=\"Explain\" target=\"actor\" targetSpec=\"\"}}Pare che un certo {{color id=\"3\"}}Blatero {{color id=\"65535\"}}si sia\nstabilito sull'isola per studiarne\nl'ecosistema, {{string value=\"6\"}}.\n{{anim id=\"FaintSmile\" target=\"actor\" targetSpec=\"\"}}Pensa, {{delay8}}avremo l'onore di poter\ncontribuire alle sue ricerche sulla\nnostra chère {{string value=\"OtherIslandName\"}}!",
      "EUnl": "{{anim id=\"Pardon\" target=\"actor\" targetSpec=\"\"}}We hebben onze eigen geleerde,{{delay20}}\n{{color id=\"3\"}}Blathers{{color id=\"65535\"}}, te gast om {{anim id=\"FaintSmile\" target=\"actor\" targetSpec=\"\"}}onze inheemse\ndieren te bestuderen,{{delay20}} {{string value=\"Catchphrase\"}}.{{pageBreak}}{{anim id=\"AbsentMindedness\" target=\"actor\" targetSpec=\"\"}}Dus misschien{{delay20}} kan ik later zeggen\ndat ik hier was {{delay20}}toen de gids over\n{{string value=\"OtherIslandName\"}} werd geschreven!",
      "EUru": "{{anim id=\"Pardon\" target=\"actor\" targetSpec=\"\"}}На острове теперь живет ученый по\nимени {{color id=\"3\"}}Блезерс{{color id=\"65535\"}},{{delay20}} он изучает{{anim id=\"FaintSmile\" target=\"actor\" targetSpec=\"\"}} местную\nдикую природу.{{delay20}} {{capitalizeNextLetter}}{{string value=\"Catchphrase\"}}!{{pageBreak}}{{anim id=\"AbsentMindedness\" target=\"actor\" targetSpec=\"\"}}Как же приятно думать, что{{delay20}} вместе\nс ним мы раскроем все тайны\nострова {{string value=\"OtherIslandName\"}}!",
      "JPja": "{{anim id=\"Explain\" target=\"actor\" targetSpec=\"\"}}{{color id=\"3\"}}フータ{{color id=\"65535\"}}さんって　{{delay20}}{{string value=\"33\"}}の\n{{ruby charSpan=\"3\" value=\"せいたいけい\"}}生態系を　{{ruby charSpan=\"2\" value=\"ちょうさ\"}}調査するために{{ruby charSpan=\"1\" value=\"こ\"}}来られたって{{delay8}}\nうかがってますけど{{string value=\"...\"}}\n{{anim id=\"HappyDance\" target=\"actor\" targetSpec=\"\"}}わたしたちの{{string value=\"32\"}}が{{delay8}}\n{{ruby charSpan=\"3\" value=\"けんきゅうしゃ\"}}研究者の{{ruby charSpan=\"1\" value=\"かた\"}}方に　{{ruby charSpan=\"2\" value=\"ちゅうもく\"}}注目されるなんて{{delay20}}\nすごく{{ruby charSpan=\"2\" value=\"こうえい\"}}光栄ですね！　{{string value=\"6\"}}",
      "KRko": "{{anim id=\"Explain\" target=\"actor\" targetSpec=\"\"}}{{color id=\"3\"}}부엉{{color id=\"65535\"}}님은 {{delay20}}{{string value=\"33\"}}의\n생태계를 조사하러 오셨다고{{delay8}}\n들었는데{{string value=\"...\"}}\n{{anim id=\"HappyDance\" target=\"actor\" targetSpec=\"\"}}저희 {{string value=\"32\"}}이{{delay8}}\n연구하시는 분들께도 주목받다니{{delay20}}\n참 영광스러운 일이에요! {{string value=\"6\"}}!",
      "TWzh": "{{anim id=\"Explain\" target=\"actor\" targetSpec=\"\"}}我聽說{{color id=\"3\"}}傅達{{color id=\"65535\"}}……{{delay20}}\n是特地過來{{string value=\"33\"}}{{delay8}}\n調查這裡的生態系{{string value=\"...\"}}\n{{anim id=\"HappyDance\" target=\"actor\" targetSpec=\"\"}}沒想到我們島{{delay8}}\n會受到研究者關注，{{delay20}}\n真是榮幸！{{string value=\"6\"}}。",
      "USen": "{{anim id=\"Pardon\" target=\"actor\" targetSpec=\"\"}}We have our own visiting scholar\nnamed {{color id=\"3\"}}Blathers{{color id=\"65535\"}}{{delay20}} here now to study\n{{anim id=\"FaintSmile\" target=\"actor\" targetSpec=\"\"}}our native wildlife,{{delay20}} {{string value=\"Catchphrase\"}}.{{pageBreak}}{{anim id=\"AbsentMindedness\" target=\"actor\" targetSpec=\"\"}}Just think,{{delay20}} someday I'll be able to\nsay I was here{{delay20}} when the field guide\ngot written about {{string value=\"OtherIslandName\"}}!",
      "USes": "{{anim id=\"Explain\" target=\"actor\" targetSpec=\"\"}}Parece que {{color id=\"3\"}}Sócrates {{color id=\"65535\"}}ha venido\na estudiar la fauna y la flora\nde la isla, {{string value=\"Catchphrase\"}}.\n{{anim id=\"FaintSmile\" target=\"actor\" targetSpec=\"\"}}Es un honor que todos en {{string value=\"OtherIslandName\"}} podamos contribuir en su estudio.",
      "USfr": "{{anim id=\"Pardon\" target=\"actor\" targetSpec=\"\"}}Il paraît qu'un certain {{color id=\"3\"}}Thibou{{color id=\"65535\"}} est\nvenu s'installer sur l'île pour\nétudier la faune locale.\n{{anim id=\"Thinking\" target=\"actor\" targetSpec=\"\"}}Si j'ai bien compris,{{delay8}} c'est une sorte\nde zoo-paléo-philanthrope{{string value=\"...\"}}"
    }
  },
  {
    "label": "010",
    "attribute": "0x0000000000000000",
    "locale": {
      "CNzh": "{{string value=\"4\"}}，{{delay20}}\n{{anim id=\"Hello\" target=\"actor\" targetSpec=\"\"}}你已经去过{{color id=\"1\"}}博物馆{{color id=\"65535\"}}了吗？{{pageBreak}}{{anim id=\"Serious\" target=\"actor\" targetSpec=\"\"}}建筑本身很气派，{{delay20}}不过比起这点，{{delay8}}\n更难能可贵的是，{{delay20}}\n{{anim id=\"HappyDance\" target=\"actor\" targetSpec=\"\"}}它刺激了{{delay8}}我对知识的渴望。{{string value=\"6\"}}。",
      "EUde": "{{anim id=\"Greeting\" target=\"actor\" targetSpec=\"\"}}Hast du schon unser {{color id=\"1\"}}Museum\n{{color id=\"65535\"}}besucht, {{delay8}}{{string value=\"NickName\"}}?{{pageBreak}}{{anim id=\"HappyFlower\" target=\"actor\" targetSpec=\"\"}}Ich freue mich so, {{delay8}}dass ich dort nun\nalles über die Naturgeschichte von\n{{string value=\"OtherIslandName\"}} erfahren kann!",
      "EUen": "{{anim id=\"Greeting\" target=\"actor\" targetSpec=\"\"}}Have you visited our {{color id=\"1\"}}museum\n{{color id=\"65535\"}}yet, {{string value=\"NickName\"}}?{{pageBreak}}{{anim id=\"HappyFlower\" target=\"actor\" targetSpec=\"\"}}I'm so excited to have someplace{{delay20}}\nto go learn about the natural history\nof {{string value=\"OtherIslandName\"}},{{delay20}} {{string value=\"Catchphrase\"}}!",
      "EUes": "{{anim id=\"Greeting\" target=\"actor\" targetSpec=\"\"}}¿Has estado ya en el {{color id=\"1\"}}museo{{color id=\"65535\"}}, flor?{{pageBreak}}{{anim id=\"FaintSmile\" target=\"actor\" targetSpec=\"\"}}Es uno de mis lugares favoritos.{{delay20}}\n¡La de cosas que se aprenden\nallí dentro, {{string value=\"6\"}}!",
      "EUfr": "{{anim id=\"Greeting\" target=\"actor\" targetSpec=\"\"}}Tu as déjà visité le {{color id=\"1\"}}musée{{color id=\"65535\"}}, {{string value=\"NickName\"}} ?{{pageBreak}}{{anim id=\"HappyFlower\" target=\"actor\" targetSpec=\"\"}}Je suis tellement contente d'avoir\nun endroit où étudier l'histoire\nnaturelle {{gender4 m=\"de \" f=\"d'⁠\"}}{{string value=\"IslandName\"}} !",
      "EUit": "{{anim id=\"Greeting\" target=\"actor\" targetSpec=\"\"}}Hai già visitato il nostro {{color id=\"1\"}}museo{{color id=\"65535\"}},\n{{delay8}}{{string value=\"NickName\"}}?{{pageBreak}}{{anim id=\"HappyFlower\" target=\"actor\" targetSpec=\"\"}}È meraviglioso avere un luogo dove\npoter imparare la storia naturale di\n{{string value=\"OtherIslandName\"}}, {{string value=\"6\"}}!",
      "EUnl": "{{anim id=\"Greeting\" target=\"actor\" targetSpec=\"\"}}Heb je ons {{color id=\"1\"}}museum {{color id=\"65535\"}}al bezocht,\n{{string value=\"NickName\"}}?{{pageBreak}}{{anim id=\"HappyFlower\" target=\"actor\" targetSpec=\"\"}}Ik vind het fijn dat er een plek is\nmet informatie over de natuur van\n{{string value=\"OtherIslandName\"}},{{delay20}} {{string value=\"Catchphrase\"}}!",
      "EUru": "{{anim id=\"Greeting\" target=\"actor\" targetSpec=\"\"}}А ты уже посетил{{gender2 m=\"\" f=\"а\"}} наш {{color id=\"1\"}}музей{{color id=\"65535\"}},\n{{string value=\"NickName\"}}? {{capitalizeNextLetter}}{{string value=\"Catchphrase\"}}!{{pageBreak}}{{anim id=\"HappyFlower\" target=\"actor\" targetSpec=\"\"}}Я так рада, что его открыли! Теперь\nмы столько всего узнаем о дикой\nприроде острова {{string value=\"OtherIslandName\"}}{{delay20}}!",
      "JPja": "{{string value=\"4\"}}は{{delay20}}\n{{anim id=\"Hello\" target=\"actor\" targetSpec=\"\"}}もう{{color id=\"1\"}}{{ruby charSpan=\"3\" value=\"はくぶつかん\"}}博物館{{color id=\"65535\"}}の{{ruby charSpan=\"1\" value=\"なか\"}}中に　{{ruby charSpan=\"1\" value=\"はい\"}}入られました？{{pageBreak}}{{anim id=\"Serious\" target=\"actor\" targetSpec=\"\"}}{{ruby charSpan=\"2\" value=\"りっぱ\"}}立派な{{ruby charSpan=\"2\" value=\"たてもの\"}}建物ですけど　{{delay20}}それよりも{{delay8}}\nなによりも　{{delay20}}{{anim id=\"HappyDance\" target=\"actor\" targetSpec=\"\"}}わたしの　{{ruby charSpan=\"5\" value=\"ちてきこうきしん\"}}知的好奇心が{{delay8}}\n{{ruby charSpan=\"2\" value=\"しげき\"}}刺激されちゃいます、{{string value=\"6\"}}",
      "KRko": "{{string value=\"4\"}}님!{{delay20}}\n{{anim id=\"Hello\" target=\"actor\" targetSpec=\"\"}}{{color id=\"1\"}}박물관{{color id=\"65535\"}}에는 가보셨어요?{{pageBreak}}{{anim id=\"Serious\" target=\"actor\" targetSpec=\"\"}}외관도 근사하지만 {{delay20}}무엇보다{{delay8}}\n{{anim id=\"HappyDance\" target=\"actor\" targetSpec=\"\"}}지적 호기심을 자극하는 곳이라{{delay8}}\n한눈에 반해버렸답니다! {{string value=\"6\"}}!",
      "TWzh": "{{string value=\"4\"}}，{{delay20}}\n{{anim id=\"Hello\" target=\"actor\" targetSpec=\"\"}}你已經進去過{{color id=\"1\"}}博物館{{color id=\"65535\"}}了嗎？{{pageBreak}}{{anim id=\"Serious\" target=\"actor\" targetSpec=\"\"}}雖然它的建築物很氣派沒錯，{{delay20}}\n但對我來說{{delay8}}更重要的還是……{{delay20}}\n{{anim id=\"HappyDance\" target=\"actor\" targetSpec=\"\"}}它激起了{{delay8}}我的求知慾啊，{{string value=\"6\"}}。",
      "USen": "{{anim id=\"Greeting\" target=\"actor\" targetSpec=\"\"}}Have you visited our {{color id=\"1\"}}museum\n{{color id=\"65535\"}}yet, {{string value=\"NickName\"}}?{{pageBreak}}{{anim id=\"HappyFlower\" target=\"actor\" targetSpec=\"\"}}I'm so excited to have someplace{{delay20}}\nto go learn about the natural history\nof {{string value=\"OtherIslandName\"}},{{delay20}} {{string value=\"Catchphrase\"}}!",
      "USes": "{{anim id=\"Greeting\" target=\"actor\" targetSpec=\"\"}}¿Ya fuiste al {{color id=\"1\"}}museo{{color id=\"65535\"}}?{{pageBreak}}{{anim id=\"FaintSmile\" target=\"actor\" targetSpec=\"\"}}Me encanta.{{delay20}} ¡Es un recinto mágico de\nconocimiento, {{string value=\"Catchphrase\"}}!",
      "USfr": "{{anim id=\"Greeting\" target=\"actor\" targetSpec=\"\"}}Tu as déjà visité le {{color id=\"1\"}}musée{{color id=\"65535\"}}, {{string value=\"NickName\"}}?{{pageBreak}}{{anim id=\"HappyFlower\" target=\"actor\" targetSpec=\"\"}}Je suis tellement contente d'avoir\nun endroit où étudier l'histoire\nnaturelle {{gender4 m=\"de \" f=\"d'\"}}⁠{{string value=\"IslandName\"}}!"
    }
  },
  {
    "label": "011",
    "attribute": "0x0000000000000000",
    "locale": {
      "CNzh": "{{anim id=\"Love\" target=\"actor\" targetSpec=\"\"}}{{color id=\"1\"}}裁缝屋{{color id=\"65535\"}}{{delay20}}可真不错呀，{{delay8}}\n建筑的外观也非常时尚～{{pageBreak}}{{anim id=\"IdeaBulb\" target=\"actor\" targetSpec=\"\"}}对了对了，{{delay20}}店里还会现场做衣服呢。{{delay frames=\"40\"}}\n{{anim id=\"AbsentMindedness\" target=\"actor\" targetSpec=\"\"}}可以参观学习{{delay8}}专业的缝纫技巧，{{delay8}}\n我好高兴～{{string value=\"6\"}}。",
      "EUde": "{{anim id=\"Love\" target=\"actor\" targetSpec=\"\"}}Wir haben ja so viel Glück, {{delay8}}dass\nsich hier eine {{color id=\"1\"}}Schneiderei\n{{color id=\"65535\"}}niedergelassen hat, {{delay8}}{{string value=\"Catchphrase\"}}!{{pageBreak}}{{anim id=\"AbsentMindedness\" target=\"actor\" targetSpec=\"\"}}Ich sehe so gern dabei zu, {{delay8}}wie\nProfis wundervolle Outfits erstellen.",
      "EUen": "{{anim id=\"Love\" target=\"actor\" targetSpec=\"\"}}We're so lucky{{delay20}} to have our very\nown {{color id=\"1\"}}tailors{{color id=\"65535\"}} here,{{delay20}} {{string value=\"Catchphrase\"}}!{{pageBreak}}{{anim id=\"AbsentMindedness\" target=\"actor\" targetSpec=\"\"}}Personally,{{delay20}} I'm excited to watch\nan actual professional{{delay20}} creating\nfashionable outfits up close.",
      "EUes": "{{anim id=\"FaintSmile\" target=\"actor\" targetSpec=\"\"}}¿No es genial que tengamos\nuna {{color id=\"1\"}}sastrería {{color id=\"65535\"}}en la isla, lechuguita?{{pageBreak}}No sigo mucho la moda,{{delay8}} {{anim id=\"HappyFlower\" target=\"actor\" targetSpec=\"\"}}pero me\nencanta ver los diseños nuevos que\ncrea la gente.",
      "EUfr": "{{anim id=\"Explain\" target=\"actor\" targetSpec=\"\"}}On a quand même de la chance\nd'avoir notre propre {{color id=\"1\"}}atelier de\ncouture{{color id=\"65535\"}}.\n{{anim id=\"Love\" target=\"actor\" targetSpec=\"\"}}Moi qui aime tout ce qui touche à\nl'artisanat,{{delay8}} j'apprends des tas de\nchoses en les regardant travailler.",
      "EUit": "{{anim id=\"Love\" target=\"actor\" targetSpec=\"\"}}Siamo così fortunati{{delay20}} ad avere una\n{{color id=\"1\"}}sartoria {{color id=\"65535\"}}tutta nostra sull'isola,\n{{string value=\"6\"}}!\n{{anim id=\"AbsentMindedness\" target=\"actor\" targetSpec=\"\"}}Io adoooro poter ammirare da vicino\ndei professionisti che creano capi\ncosì eleganti{{string value=\"...\"}}",
      "EUnl": "{{anim id=\"Love\" target=\"actor\" targetSpec=\"\"}}Wat fijn{{delay20}} dat er een {{color id=\"1\"}}kleermakerij{{color id=\"65535\"}}\nop het eiland is,{{delay20}} {{string value=\"Catchphrase\"}}!{{pageBreak}}{{anim id=\"AbsentMindedness\" target=\"actor\" targetSpec=\"\"}}Het lijkt me zo leuk {{delay20}}om met eigen\nogen te zien {{delay20}}hoe een deskundige\nmodieuze outfits maakt.",
      "EUru": "{{anim id=\"Love\" target=\"actor\" targetSpec=\"\"}}Нам так повезло,{{delay20}} что в нашем\nраспоряжении теперь есть {{color id=\"1\"}}ателье!{{color id=\"65535\"}}{{delay20}}\n{{capitalizeNextLetter}}{{string value=\"Catchphrase\"}}!{{pageBreak}}{{anim id=\"AbsentMindedness\" target=\"actor\" targetSpec=\"\"}}Мне очень нравится{{delay20}} наблюдать за\nсозданием{{delay20}} дизайнерской одежды!",
      "JPja": "{{anim id=\"Love\" target=\"actor\" targetSpec=\"\"}}{{color id=\"1\"}}{{ruby charSpan=\"2\" value=\"した\"}}仕立て{{ruby charSpan=\"1\" value=\"や\"}}屋{{color id=\"65535\"}}さんって　{{delay20}}{{ruby charSpan=\"2\" value=\"たてもの\"}}建物も　すごくおしゃれで{{delay8}}\n{{ruby charSpan=\"2\" value=\"すてき\"}}素敵なんですよね～{{pageBreak}}{{anim id=\"IdeaBulb\" target=\"actor\" targetSpec=\"\"}}そうそう、{{delay20}}{{ruby charSpan=\"2\" value=\"てんない\"}}店内で　{{ruby charSpan=\"1\" value=\"ふく\"}}服{{ruby charSpan=\"1\" value=\"づく\"}}作りもされてるんです{{delay frames=\"40\"}}\n{{anim id=\"AbsentMindedness\" target=\"actor\" targetSpec=\"\"}}プロの　ミシンの{{ruby charSpan=\"1\" value=\"わざ\"}}技を　{{delay8}}{{ruby charSpan=\"2\" value=\"けんがく\"}}見学できたら{{delay8}}\nうれしいなぁ～、{{string value=\"6\"}}",
      "KRko": "{{anim id=\"Love\" target=\"actor\" targetSpec=\"\"}}{{color id=\"1\"}}옷가게{{color id=\"65535\"}}는 {{delay20}}가게 생김새도 귀엽고{{delay8}}\n센스 있는 것 같아요～{{pageBreak}}{{anim id=\"IdeaBulb\" target=\"actor\" targetSpec=\"\"}}아! {{delay20}}가게에서 옷도 직접 만드신대요{{delay frames=\"40\"}}\n{{anim id=\"AbsentMindedness\" target=\"actor\" targetSpec=\"\"}}프로가 재봉틀을 쓰는 모습을{{delay8}}\n한번{{delay8}} 구경해보고 싶네요～ {{string value=\"6\"}}!",
      "TWzh": "{{anim id=\"Love\" target=\"actor\" targetSpec=\"\"}}{{color id=\"1\"}}裁縫屋{{color id=\"65535\"}}……{{delay20}}連外觀都非常時髦，{{delay8}}\n看起來好棒喔～{{pageBreak}}{{anim id=\"IdeaBulb\" target=\"actor\" targetSpec=\"\"}}對了對了，{{delay20}}店裡還可以幫人製作衣服喔。{{delay frames=\"40\"}}\n{{anim id=\"AbsentMindedness\" target=\"actor\" targetSpec=\"\"}}真希望可以觀摩一下{{delay8}}\n專業的{{delay8}}裁縫技巧呢～{{string value=\"6\"}}。",
      "USen": "{{anim id=\"Love\" target=\"actor\" targetSpec=\"\"}}We're so lucky{{delay20}} to have our very\nown {{color id=\"1\"}}tailors{{color id=\"65535\"}} here,{{delay20}} {{string value=\"Catchphrase\"}}!{{pageBreak}}{{anim id=\"AbsentMindedness\" target=\"actor\" targetSpec=\"\"}}Personally,{{delay20}} I'm excited to watch\nan actual professional{{delay20}} creating\nfashionable outfits up close.",
      "USes": "{{anim id=\"FaintSmile\" target=\"actor\" targetSpec=\"\"}}Somos tan afortunados de tener\nun {{color id=\"1\"}}atelier {{color id=\"65535\"}}en la isla.{{pageBreak}}No sigo mucho la moda,{{delay8}} {{anim id=\"HappyFlower\" target=\"actor\" targetSpec=\"\"}}pero me\ngusta ver la creatividad de la gente\nen todo su esplendor.",
      "USfr": "{{anim id=\"Explain\" target=\"actor\" targetSpec=\"\"}}On a quand même de la chance\nd'avoir notre propre {{color id=\"1\"}}atelier de\ncouture{{color id=\"65535\"}}.\n{{anim id=\"Love\" target=\"actor\" targetSpec=\"\"}}Moi qui aime tout ce qui touche à\nl'artisanat,{{delay8}} j'apprends des tas de\nchoses en les regardant travailler."
    }
  },
  {
    "label": "013",
    "attribute": "0x0000000000000000",
    "locale": {
      "CNzh": "{{anim id=\"Smiling\" target=\"actor\" targetSpec=\"\"}}有了坡道，{{delay20}}就能轻松地{{delay8}}\n走到山崖上面了，{{delay8}}\n真令人高兴呢～\n{{anim id=\"AbsentMindedness\" target=\"actor\" targetSpec=\"\"}}高处{{delay8}}离天空很近，{{delay20}}\n会让人心情十分愉悦吧。{{string value=\"6\"}}。",
      "EUde": "{{anim id=\"FaintSmile\" target=\"actor\" targetSpec=\"\"}}Wir haben nun einen Weg, {{delay8}}um die\nSteigung zu überwinden. {{delay20}}Dafür bin\nich sehr dankbar!{{pageBreak}}{{anim id=\"Smiling\" target=\"actor\" targetSpec=\"\"}}Ich denke, {{delay8}}mit {{string value=\"OtherIslandName\"}} wird es von jetzt an weiter aufwärts gehen, {{delay8}}{{string value=\"Catchphrase\"}}.",
      "EUen": "{{anim id=\"FaintSmile\" target=\"actor\" targetSpec=\"\"}}Having an inclined path makes it\neasier for everyone to reach higher\nground,{{delay20}} so I'm grateful for that.\n{{anim id=\"Smiling\" target=\"actor\" targetSpec=\"\"}}Looks like we're all moving up\nin the world,{{delay20}} {{string value=\"Catchphrase\"}}!",
      "EUes": "{{anim id=\"Nodding\" target=\"actor\" targetSpec=\"\"}}Ha sido muy buena idea habilitar\nun medio para subir a las zonas\nelevadas de la isla.{{delay20}}\n{{anim id=\"FaintSmile\" target=\"actor\" targetSpec=\"\"}}¡Ahora hay más zona para explorar,{{delay8}}\n{{string value=\"6\"}}!",
      "EUfr": "{{anim id=\"Nodding\" target=\"actor\" targetSpec=\"\"}}Pour prendre de la hauteur,\nil suffit de gravir une falaise.{{pageBreak}}{{anim id=\"FaintSmile\" target=\"actor\" targetSpec=\"\"}}Ça tombe bien, quelqu'un en\na justement aménagé une pour\nque ce soit plus facile !",
      "EUit": "{{anim id=\"Nodding\" target=\"actor\" targetSpec=\"\"}}È stata un'idea magnifique mettere\na punto un modo per raggiungere\nle zone più elevate dell'isola.{{pageBreak}}{{anim id=\"Smiling\" target=\"actor\" targetSpec=\"\"}}In questo modo, potremo arrivare\nsempre più in alto, {{string value=\"6\"}}!",
      "EUnl": "{{anim id=\"FaintSmile\" target=\"actor\" targetSpec=\"\"}}Met een hellend pad ga je\nmakkelijker naar hooggelegen grond,{{delay20}}\ndus ik ben er erg blij mee.\n{{anim id=\"Smiling\" target=\"actor\" targetSpec=\"\"}}Zo werken we ons toch mooi\nomhoog,{{delay20}} {{string value=\"Catchphrase\"}}!",
      "EUru": "{{anim id=\"FaintSmile\" target=\"actor\" targetSpec=\"\"}}Новые подъемы делают жизнь\nкомфортнее:{{delay20}} теперь мы можем\nвзбираться на возвышения!{{pageBreak}}{{anim id=\"Smiling\" target=\"actor\" targetSpec=\"\"}}Мы все время развиваемся\nи, пожалуй, однажды сможем\nдотянуться до звезд!{{delay20}} {{capitalizeNextLetter}}{{string value=\"Catchphrase\"}}!",
      "JPja": "{{anim id=\"Smiling\" target=\"actor\" targetSpec=\"\"}}{{ruby charSpan=\"2\" value=\"さかみち\"}}坂道ができて　{{delay20}}ガケの{{ruby charSpan=\"1\" value=\"うえ\"}}上にも{{delay8}}\n{{ruby charSpan=\"2\" value=\"きがる\"}}気軽に　{{ruby charSpan=\"1\" value=\"い\"}}行けるようになったのが{{delay8}}\nうれしいですよね～\n{{anim id=\"AbsentMindedness\" target=\"actor\" targetSpec=\"\"}}{{ruby charSpan=\"1\" value=\"たか\"}}高い{{ruby charSpan=\"1\" value=\"ところ\"}}所って　{{delay8}}{{ruby charSpan=\"1\" value=\"そら\"}}空が　{{ruby charSpan=\"1\" value=\"ちか\"}}近くて{{delay20}}\nすごく　{{ruby charSpan=\"2\" value=\"きも\"}}気持ちがいいと{{ruby charSpan=\"1\" value=\"おも\"}}思うんです、{{string value=\"6\"}}",
      "KRko": "{{anim id=\"Smiling\" target=\"actor\" targetSpec=\"\"}}비탈길이 생기니까 {{delay20}}절벽 위로도{{delay8}}\n편하게 오갈 수 있게 돼서{{delay8}} 좋네요～{{pageBreak}}{{anim id=\"AbsentMindedness\" target=\"actor\" targetSpec=\"\"}}높은 곳에 올라가면{{delay8}}\n하늘이 더 잘 보여서{{delay20}}\n상쾌하겠죠? {{string value=\"6\"}}?",
      "TWzh": "{{anim id=\"Smiling\" target=\"actor\" targetSpec=\"\"}}有了斜坡之後，{{delay20}}\n就連懸崖上{{delay8}}也可以輕鬆爬上去了，{{delay8}}\n真讓人開心呢～\n{{anim id=\"AbsentMindedness\" target=\"actor\" targetSpec=\"\"}}待在越高的地方，{{delay8}}離天空就越近，{{delay20}}\n我覺得這樣非常舒服喔，{{string value=\"6\"}}。",
      "USen": "{{anim id=\"FaintSmile\" target=\"actor\" targetSpec=\"\"}}Having an inclined path makes it\neasier for everyone to reach higher\nground,{{delay20}} so I'm grateful for that.\n{{anim id=\"Smiling\" target=\"actor\" targetSpec=\"\"}}Looks like we're all moving up\nin the world,{{delay20}} {{string value=\"Catchphrase\"}}!",
      "USes": "{{anim id=\"Nodding\" target=\"actor\" targetSpec=\"\"}}Qué gran idea la de hacer un camino\npara llegar hasta las zonas más\nelevadas de la isla.\n{{anim id=\"FaintSmile\" target=\"actor\" targetSpec=\"\"}}¡Ahora podemos estar más cerca de\nlas estrellas!",
      "USfr": "{{anim id=\"Nodding\" target=\"actor\" targetSpec=\"\"}}Pour prendre de la hauteur,\nil suffit de gravir une falaise.{{pageBreak}}{{anim id=\"FaintSmile\" target=\"actor\" targetSpec=\"\"}}Ça tombe bien, quelqu'un en\na justement aménagé une pour\nque ce soit plus facile!"
    }
  },
  {
    "label": "014",
    "attribute": "0x0000000000000000",
    "locale": {
      "CNzh": "{{anim id=\"FaintSmile\" target=\"actor\" targetSpec=\"\"}}最近搬家过来的\n{{selection value=\"SelectedName\"}}，{{delay20}}\n我觉得是个特别好的人。\n{{anim id=\"Pardon\" target=\"actor\" targetSpec=\"\"}}毕竟，{{delay20}}那个人选择了{{delay8}}\n搬来{{string value=\"33\"}}住哦。{{delay frames=\"40\"}}\n{{anim id=\"HappyDance\" target=\"actor\" targetSpec=\"\"}}感觉会是个好相处的人呢。{{string value=\"6\"}}。",
      "EUde": "{{anim id=\"FaintSmile\" target=\"actor\" targetSpec=\"\"}}{{gender8 m=\"Unser neuer Nachbar\" f=\"Unsere neue Nachbarin\" n=\"Unser neuer Nachbar\"}} {{selection value=\"SelectedName\"}} macht einen wirklich netten Eindruck.{{pageBreak}}Aber selbstverständlich hat jeder, {{delay8}}der\nnach {{string value=\"OtherIslandName\"}} zieht, {{delay8}}{{anim id=\"Grin\" target=\"actor\" targetSpec=\"\"}}einen guten Geschmack, {{delay8}}{{string value=\"Catchphrase\"}}.",
      "EUen": "{{anim id=\"FaintSmile\" target=\"actor\" targetSpec=\"\"}}That {{selection value=\"SelectedName\"}}{{delay20}} who moved\nhere recently{{delay20}} seems nice.{{pageBreak}}Of course we know{{delay20}} anyone who\ncomes to {{string value=\"OtherIslandName\"}} {{anim id=\"Grin\" target=\"actor\" targetSpec=\"\"}}has\ngood taste,{{delay20}} {{string value=\"Catchphrase\"}}.",
      "EUes": "{{anim id=\"FaintSmile\" target=\"actor\" targetSpec=\"\"}}Es{{gender8 m=\"e\" f=\"a\" n=\"\"}} tal {{selection value=\"SelectedName\"}} que se ha mudado a la isla es de lo más simpátic{{gender8 m=\"o\" f=\"a\" n=\"\"}}.{{pageBreak}}{{anim id=\"HappyFlower\" target=\"actor\" targetSpec=\"\"}}Parece que {{string value=\"OtherIslandName\"}} solo atrae a gente con buenas energías, {{string value=\"6\"}}.",
      "EUfr": "{{anim id=\"FaintSmile\" target=\"actor\" targetSpec=\"\"}}{{gender8 m=\"Ce fameux\" f=\"Cette fameuse\" n=\"\"}} {{selection value=\"SelectedName\"}} qui a emménagé sur l'île m'a l'air d'être une personne tout à fait charmante.{{pageBreak}}D'ailleurs,{{delay8}}{{anim id=\"Grin\" target=\"actor\" targetSpec=\"\"}} le simple fait de s'établir à {{string value=\"OtherIslandName\"}} est une preuve de bon goût.",
      "EUit": "{{anim id=\"FaintSmile\" target=\"actor\" targetSpec=\"\"}}Oh, {{delay8}}{{selection value=\"SelectedName\"}}, {{delay8}}{{gender8 m=\"il tipo\" f=\"la tipa\" n=\"\"}} che si è appena {{gender8 m=\"trasferito\" f=\"trasferita\" n=\"\"}}, {{delay8}}sembra davvero interessante!{{pageBreak}}D'altronde, {{delay8}}{{anim id=\"Grin\" target=\"actor\" targetSpec=\"\"}}il solo fatto di stabilirsi {{fun_000F0032 arg=\"\"}} {{string value=\"OtherIslandName\"}} è indice di buon gusto, {{string value=\"6\"}}{{string value=\"...\"}}",
      "EUnl": "{{anim id=\"FaintSmile\" target=\"actor\" targetSpec=\"\"}}{{capitalizeNextLetter}}{{selection value=\"SelectedName\"}}{{delay20}} is hier net komen\nwonen{{delay20}} en lijkt best aardig.{{pageBreak}}Natuurlijk weten we {{delay20}}dat iedereen die naar {{string value=\"OtherIslandName\"}} verhuist{{anim id=\"Grin\" target=\"actor\" targetSpec=\"\"}} een goede smaak heeft,{{delay20}} {{string value=\"Catchphrase\"}}.",
      "EUru": "{{anim id=\"FaintSmile\" target=\"actor\" targetSpec=\"\"}}{{capitalizeNextLetter}}{{selection value=\"SelectedName\"}}{{delay20}} перебрал{{gender1 m=\"ся\" f=\"ась\"}}\nсюда недавно{{delay20}} и кажется очень\nприветлив{{gender1 m=\"ым\" f=\"ой\"}}.{{delay20}} {{capitalizeNextLetter}}{{string value=\"Catchphrase\"}}!{{pageBreak}}Как мы знаем,{{delay20}} у всех, кто\nпереезжает на остров\n{{string value=\"OtherIslandName\"}}, {{anim id=\"Grin\" target=\"actor\" targetSpec=\"\"}}хороший вкус!",
      "JPja": "{{anim id=\"FaintSmile\" target=\"actor\" targetSpec=\"\"}}{{ruby charSpan=\"2\" value=\"さいきん\"}}最近　{{ruby charSpan=\"2\" value=\"ひっこ\"}}引越してこられた\n{{selection value=\"SelectedName\"}}さんって{{delay20}}\nすごく　いい{{ruby charSpan=\"1\" value=\"かた\"}}方だと　{{ruby charSpan=\"1\" value=\"おも\"}}思うんです\n{{anim id=\"Pardon\" target=\"actor\" targetSpec=\"\"}}だって、{{delay20}}{{string value=\"33\"}}を\n{{ruby charSpan=\"1\" value=\"えら\"}}選んで{{delay8}}　{{ruby charSpan=\"2\" value=\"いじゅう\"}}移住してこられたんですよ{{delay frames=\"40\"}}\n{{anim id=\"HappyDance\" target=\"actor\" targetSpec=\"\"}}{{ruby charSpan=\"2\" value=\"なかよ\"}}仲良く　やっていけそうです、{{string value=\"6\"}}",
      "KRko": "{{anim id=\"FaintSmile\" target=\"actor\" targetSpec=\"\"}}얼마 전에 이사 오신\n{{selection value=\"SelectedName\"}}님은{{delay20}}\n참 좋은 분 같아요～\n{{anim id=\"Pardon\" target=\"actor\" targetSpec=\"\"}}왜냐면 {{delay20}}많은 곳 중에서도\n{{string value=\"33\"}}{{gender5 m=\"을\" f=\"를\"}}{{delay8}} 선택하셨잖아요{{delay frames=\"40\"}}\n{{anim id=\"HappyDance\" target=\"actor\" targetSpec=\"\"}}사이좋게 지낼 수 있을 거예요! {{string value=\"6\"}}!",
      "TWzh": "{{anim id=\"FaintSmile\" target=\"actor\" targetSpec=\"\"}}我覺得最近搬過來的\n{{selection value=\"SelectedName\"}}……{{delay20}}\n一定是個很好的人。\n{{anim id=\"Pardon\" target=\"actor\" targetSpec=\"\"}}因為{{gender1 m=\"他\" f=\"她\"}}{{delay20}}選擇{{string value=\"33\"}}{{delay8}}\n當作移居地，搬了過來嘛。{{delay frames=\"40\"}}\n{{anim id=\"HappyDance\" target=\"actor\" targetSpec=\"\"}}感覺我們應該能變成好朋友喔，{{string value=\"6\"}}。",
      "USen": "{{anim id=\"FaintSmile\" target=\"actor\" targetSpec=\"\"}}That {{selection value=\"SelectedName\"}}{{delay20}} who moved\nhere recently{{delay20}} seems nice.{{pageBreak}}Of course we know{{delay20}} anyone who\ncomes to {{string value=\"OtherIslandName\"}} {{anim id=\"Grin\" target=\"actor\" targetSpec=\"\"}}has\ngood taste,{{delay20}} {{string value=\"Catchphrase\"}}.",
      "USes": "{{anim id=\"FaintSmile\" target=\"actor\" targetSpec=\"\"}}¿Ya conoces a {{selection value=\"SelectedName\"}}?{{delay20}} Se acaba de mudar a la isla y tiene una vibra muy positiva.{{pageBreak}}{{anim id=\"HappyFlower\" target=\"actor\" targetSpec=\"\"}}Parece que {{string value=\"OtherIslandName\"}} es como un imán de chakras balanceados.",
      "USfr": "{{anim id=\"FaintSmile\" target=\"actor\" targetSpec=\"\"}}{{gender8 m=\"Ce fameux\" f=\"Cette fameuse\" n=\"\"}} {{selection value=\"SelectedName\"}} qui a emménagé sur l'île m'a l'air d'être une personne tout à fait charmante.{{pageBreak}}D'ailleurs,{{delay8}}{{anim id=\"Grin\" target=\"actor\" targetSpec=\"\"}} le simple fait de s'établir à {{string value=\"OtherIslandName\"}} est une preuve de bon goût."
    }
  },
  {
    "label": "015",
    "attribute": "0x0000000000000000",
    "locale": {
      "CNzh": "{{anim id=\"Greeting\" target=\"actor\" targetSpec=\"\"}}你去过{{color id=\"1\"}}博物馆{{color id=\"65535\"}}的新展览室了吗？{{delay frames=\"40\"}}\n{{anim id=\"Love\" target=\"actor\" targetSpec=\"\"}}能够展出艺术品，{{delay8}}\n这可真是一件令人高兴的事呀～\n{{anim id=\"HappyDance\" target=\"actor\" targetSpec=\"\"}}{{string value=\"33\"}}{{delay8}}或许会成为\n文化的中心呢。{{string value=\"6\"}}。",
      "EUde": "{{anim id=\"Greeting\" target=\"actor\" targetSpec=\"\"}}Warst du schon im neuesten Saal des\n{{color id=\"1\"}}Museums{{color id=\"65535\"}}?{{delay40}}{{anim id=\"Love\" target=\"actor\" targetSpec=\"\"}} Bald finden sich dort viele\nbekannte Kunstwerke.\n{{anim id=\"HappyDance\" target=\"actor\" targetSpec=\"\"}}Bei so viel Kultur sind die Leute\nsicher bald noch begeisterter von\n{{string value=\"OtherIslandName\"}}, {{delay8}}{{string value=\"Catchphrase\"}}.",
      "EUen": "{{anim id=\"Greeting\" target=\"actor\" targetSpec=\"\"}}Have you been to the newest room at\nthe {{color id=\"1\"}}museum{{color id=\"65535\"}}?{{delay40}}{{anim id=\"Love\" target=\"actor\" targetSpec=\"\"}} Soon it will be home to\nall sorts of famous artwork.\n{{anim id=\"HappyDance\" target=\"actor\" targetSpec=\"\"}}This kind of cultural destination{{delay8}}\nwill really get folks talking about\n{{string value=\"OtherIslandName\"}}, {{string value=\"Catchphrase\"}}.",
      "EUes": "{{anim id=\"FaintSmile\" target=\"actor\" targetSpec=\"\"}}¿Ya has visitado la nueva sala\ndel {{color id=\"1\"}}museo{{color id=\"65535\"}}?{{delay20}} {{anim id=\"Love\" target=\"actor\" targetSpec=\"\"}}Pronto estará llena\nde obras de arte famosas.\n{{anim id=\"HappyFlower\" target=\"actor\" targetSpec=\"\"}}Puede que {{string value=\"OtherIslandName\"}} pronto se convierta en todo un referente cultural, {{string value=\"6\"}}.",
      "EUfr": "{{anim id=\"Greeting\" target=\"actor\" targetSpec=\"\"}}Tu as déjà visité la nouvelle pièce\ndu {{color id=\"1\"}}musée{{color id=\"65535\"}} ? {{delay40}}{{anim id=\"Love\" target=\"actor\" targetSpec=\"\"}}On y trouvera bientôt les\nœuvres d'art les plus célèbres.\n{{anim id=\"HappyDance\" target=\"actor\" targetSpec=\"\"}}Nul doute qu'avec un tel ajout, {{string value=\"OtherIslandName\"}} sera sur toutes les lèvres, {{string value=\"Catchphrase\"}} !",
      "EUit": "{{anim id=\"Greeting\" target=\"actor\" targetSpec=\"\"}}Hai già visitato la nuova galleria\ndel {{color id=\"1\"}}museo{{color id=\"65535\"}}?{{delay40}}{{anim id=\"Love\" target=\"actor\" targetSpec=\"\"}} Presto traboccherà\ndi opere d'arte famosissimissime.\n{{anim id=\"HappyDance\" target=\"actor\" targetSpec=\"\"}}Con una simile aggiunta, {{delay8}}non ho dubbi che {{string value=\"OtherIslandName\"}} sarà sulla bocca di tout le monde!",
      "EUnl": "{{anim id=\"Greeting\" target=\"actor\" targetSpec=\"\"}}Heb je de nieuwste ruimte van het\n{{color id=\"1\"}}museum{{color id=\"65535\"}} al gezien?{{delay40}}{{anim id=\"Love\" target=\"actor\" targetSpec=\"\"}} Binnenkort zijn\ner allerlei kunstwerken te zien.\n{{anim id=\"HappyDance\" target=\"actor\" targetSpec=\"\"}}Door de aanwezigheid van zoveel\ncultuur kent vroeg of laat iedereen{{delay8}}\n{{string value=\"OtherIslandName\"}}, {{string value=\"Catchphrase\"}}.",
      "EUru": "{{anim id=\"Greeting\" target=\"actor\" targetSpec=\"\"}}Ты уже заходил{{gender2 m=\"\" f=\"а\"}} в новое крыло\nнашего {{color id=\"1\"}}музея{{color id=\"65535\"}}?{{delay40}}{{anim id=\"Love\" target=\"actor\" targetSpec=\"\"}} Там скоро появятся\nизвестные предметы искусства!{{pageBreak}}{{anim id=\"HappyDance\" target=\"actor\" targetSpec=\"\"}}Остров {{string value=\"OtherIslandName\"}} будет{{delay8}}\nкак магнит притягивать культурных\nтуристов. {{capitalizeNextLetter}}{{string value=\"Catchphrase\"}}!",
      "JPja": "{{color id=\"1\"}}{{anim id=\"Greeting\" target=\"actor\" targetSpec=\"\"}}{{ruby charSpan=\"3\" value=\"はくぶつかん\"}}博物館{{color id=\"65535\"}}の{{ruby charSpan=\"1\" value=\"あたら\"}}新しい{{ruby charSpan=\"3\" value=\"てんじしつ\"}}展示室に　{{ruby charSpan=\"1\" value=\"い\"}}行きました？{{delay frames=\"40\"}}\n{{anim id=\"Love\" target=\"actor\" targetSpec=\"\"}}{{ruby charSpan=\"3\" value=\"びじゅつひん\"}}美術品が　{{ruby charSpan=\"2\" value=\"てんじ\"}}展示されるなんて{{delay8}}\n{{ruby charSpan=\"2\" value=\"すば\"}}素晴らしいですよね～\n{{anim id=\"HappyDance\" target=\"actor\" targetSpec=\"\"}}{{string value=\"33\"}}が　{{delay8}}{{ruby charSpan=\"2\" value=\"ぶんか\"}}文化の{{ruby charSpan=\"3\" value=\"ちゅうしんち\"}}中心地に\nなっちゃうかもしれませんね、{{string value=\"6\"}}",
      "KRko": "{{color id=\"1\"}}{{anim id=\"Greeting\" target=\"actor\" targetSpec=\"\"}}박물관{{color id=\"65535\"}}에 새로 생긴 전시실에 가보셨나요?{{delay frames=\"40\"}}\n{{anim id=\"Love\" target=\"actor\" targetSpec=\"\"}}미술품이 전시되다니{{delay8}} 정말이지 훌륭하죠～?{{pageBreak}}{{anim id=\"HappyDance\" target=\"actor\" targetSpec=\"\"}}{{string value=\"33\"}}{{gender5 m=\"이\" f=\"가\"}}{{delay8}}\n문화의 중심지가 될 날도\n머지않은 것 같아요, {{string value=\"6\"}}",
      "TWzh": "{{anim id=\"Greeting\" target=\"actor\" targetSpec=\"\"}}你去過{{color id=\"1\"}}博物館{{color id=\"65535\"}}的新展覽室了嗎？{{delay frames=\"40\"}}\n{{anim id=\"Love\" target=\"actor\" targetSpec=\"\"}}能夠展示美術品，{{delay8}}\n真的太棒了～\n{{anim id=\"HappyDance\" target=\"actor\" targetSpec=\"\"}}那裡可能會成為{{delay8}}\n{{string value=\"33\"}}的\n文化中心地呢，{{string value=\"6\"}}。",
      "USen": "{{anim id=\"Greeting\" target=\"actor\" targetSpec=\"\"}}Have you been to the newest room at\nthe {{color id=\"1\"}}museum{{color id=\"65535\"}}?{{delay40}}{{anim id=\"Love\" target=\"actor\" targetSpec=\"\"}} Soon it will be home to\nall sorts of famous artwork.\n{{anim id=\"HappyDance\" target=\"actor\" targetSpec=\"\"}}This kind of cultural destination{{delay8}}\nwill really get folks talking about\n{{string value=\"OtherIslandName\"}}, {{string value=\"Catchphrase\"}}.",
      "USes": "{{anim id=\"FaintSmile\" target=\"actor\" targetSpec=\"\"}}¿Ya visitaste la nueva sala\ndel {{color id=\"1\"}}museo{{color id=\"65535\"}}?{{delay20}} {{anim id=\"Love\" target=\"actor\" targetSpec=\"\"}}Pronto estará llena\nde obras de arte famosas.\n{{anim id=\"HappyFlower\" target=\"actor\" targetSpec=\"\"}}Quizá {{string value=\"OtherIslandName\"}} pronto se convierta en todo un referente cultural, {{string value=\"6\"}}.",
      "USfr": "{{anim id=\"Greeting\" target=\"actor\" targetSpec=\"\"}}Tu as déjà visité la nouvelle pièce\ndu {{color id=\"1\"}}musée{{color id=\"65535\"}}? {{delay40}}{{anim id=\"Love\" target=\"actor\" targetSpec=\"\"}}On y trouvera bientôt les\nœuvres d'art les plus célèbres.\n{{anim id=\"HappyDance\" target=\"actor\" targetSpec=\"\"}}Nul doute qu'avec un tel ajout, {{string value=\"OtherIslandName\"}} sera sur toutes les lèvres, {{string value=\"Catchphrase\"}}!"
    }
  },
  {
    "label": "016",
    "attribute": "0x0000000000000000",
    "locale": {
      "CNzh": "{{anim id=\"Smiling\" target=\"actor\" targetSpec=\"\"}}{{color id=\"1\"}}博物馆{{color id=\"65535\"}}里新开的{{color id=\"1\"}}咖啡店{{color id=\"65535\"}}，\n{{anim id=\"Hello\" target=\"actor\" targetSpec=\"\"}}你去过了吗？{{delay frames=\"40\"}}\n{{anim id=\"Love\" target=\"actor\" targetSpec=\"\"}}听说咖啡的味道特别好～{{pageBreak}}{{anim id=\"Blushing\" target=\"actor\" targetSpec=\"\"}}有了这样一个地方，{{delay8}}\n我就更愿意去{{color id=\"1\"}}博物馆{{color id=\"65535\"}}逛逛了～{{string value=\"6\"}}。",
      "EUde": "{{anim id=\"QuestionMark\" target=\"actor\" targetSpec=\"\"}}Hast du schon einmal das neue {{color id=\"1\"}}Café{{color id=\"65535\"}}\nim {{color id=\"1\"}}Museum {{color id=\"65535\"}}besucht? {{delay20}}{{anim id=\"Smiling\" target=\"actor\" targetSpec=\"\"}}Der Kaffee dort\nist Inselgespräch!\n{{anim id=\"FaintSmile\" target=\"actor\" targetSpec=\"\"}}Wenn er so gut ist, {{delay8}}wie alle sagen,{{delay8}}\n{{anim id=\"Love\" target=\"actor\" targetSpec=\"\"}}werde ich vielleicht sogar noch öfter\nins Museum gehen als sowieso.",
      "EUen": "{{anim id=\"QuestionMark\" target=\"actor\" targetSpec=\"\"}}Have you been to the {{color id=\"1\"}}museum{{color id=\"65535\"}}'s new\n{{color id=\"1\"}}café {{color id=\"65535\"}}yet?{{delay20}}{{anim id=\"Smiling\" target=\"actor\" targetSpec=\"\"}} Their coffee is the talk of\nthe island lately!\n{{anim id=\"FaintSmile\" target=\"actor\" targetSpec=\"\"}}If it's as good as everyone says,\n{{anim id=\"Love\" target=\"actor\" targetSpec=\"\"}}there may be even more trips to\nthe museum in my future.",
      "EUes": "{{anim id=\"QuestionMark\" target=\"actor\" targetSpec=\"\"}}¿Ya has visitado la nueva {{color id=\"1\"}}cafetería{{color id=\"65535\"}}\ndel {{color id=\"1\"}}museo{{color id=\"65535\"}}?{{delay20}} {{anim id=\"FaintSmile\" target=\"actor\" targetSpec=\"\"}}El café que sirven es\nla comidilla de la isla.\n{{anim id=\"Love\" target=\"actor\" targetSpec=\"\"}}Si es tan bueno como dicen,{{delay8}} pienso\nir a desayunar allí todos los días\nde la semanita, {{string value=\"6\"}}.",
      "EUfr": "{{anim id=\"QuestionMark\" target=\"actor\" targetSpec=\"\"}}Est-ce que tu es déjà allé{{gender2 m=\"\" f=\"e\"}} au\nnouveau {{color id=\"1\"}}café {{color id=\"65535\"}}du {{color id=\"1\"}}musée {{color id=\"65535\"}}?{{pageBreak}}{{delay20}}{{anim id=\"Smiling\" target=\"actor\" targetSpec=\"\"}}Tout le monde sur l'île se pâme\nsur le café servi là-bas !{{pageBreak}}{{anim id=\"FaintSmile\" target=\"actor\" targetSpec=\"\"}}S'il est aussi bon qu'on le raconte,\n{{anim id=\"Love\" target=\"actor\" targetSpec=\"\"}}il est possible que je fréquente le\nmusée encore plus assidument !",
      "EUit": "{{anim id=\"QuestionMark\" target=\"actor\" targetSpec=\"\"}}Sei già stat{{gender2 m=\"o\" f=\"a\"}} nella nuova {{color id=\"1\"}}caffetteria{{color id=\"65535\"}}\ndel {{color id=\"1\"}}museo{{color id=\"65535\"}}?{{delay20}}{{anim id=\"Smiling\" target=\"actor\" targetSpec=\"\"}} Fanno un caffè\neccezionale. {{delay8}}Ne parlano tutti!\n{{anim id=\"FaintSmile\" target=\"actor\" targetSpec=\"\"}}Se è vero che è così buono,{{delay20}} {{anim id=\"Love\" target=\"actor\" targetSpec=\"\"}}mi sa\ntanto che andrò al museo ancora più\nspesso!",
      "EUnl": "{{anim id=\"QuestionMark\" target=\"actor\" targetSpec=\"\"}}Ben je al naar het nieuwe {{color id=\"1\"}}café {{color id=\"65535\"}}in het\n{{color id=\"1\"}}museum{{color id=\"65535\"}} geweest?{{delay20}}{{anim id=\"Smiling\" target=\"actor\" targetSpec=\"\"}} De koffie daar is\nhet gesprek van de dag!{{pageBreak}}{{anim id=\"FaintSmile\" target=\"actor\" targetSpec=\"\"}}En als die koffie echt zo goed is, {{anim id=\"Love\" target=\"actor\" targetSpec=\"\"}}zal\nik in de toekomst nog wel vaker in\nhet museum te vinden zijn.",
      "EUru": "{{anim id=\"QuestionMark\" target=\"actor\" targetSpec=\"\"}}Ты уже заходил{{gender2 m=\"\" f=\"а\"}} в новое {{color id=\"1\"}}кафе{{color id=\"65535\"}}\nв {{color id=\"1\"}}музее{{color id=\"65535\"}}?{{delay20}}{{anim id=\"Smiling\" target=\"actor\" targetSpec=\"\"}} Говорят, кофе там —\nпросто мечта!{{pageBreak}}{{anim id=\"FaintSmile\" target=\"actor\" targetSpec=\"\"}}Если в этих слухах есть хоть доля\nправды, {{anim id=\"Love\" target=\"actor\" targetSpec=\"\"}}в мои планы будет входить\nчастое посещение музея!",
      "JPja": "{{color id=\"1\"}}{{anim id=\"Smiling\" target=\"actor\" targetSpec=\"\"}}{{ruby charSpan=\"3\" value=\"はくぶつかん\"}}博物館{{color id=\"65535\"}}に{{ruby charSpan=\"1\" value=\"あたら\"}}新しくできた　{{color id=\"1\"}}カフェ{{color id=\"65535\"}}には\n{{anim id=\"Hello\" target=\"actor\" targetSpec=\"\"}}もう{{ruby charSpan=\"1\" value=\"い\"}}行ってみましたか？{{delay frames=\"40\"}}\n{{anim id=\"Love\" target=\"actor\" targetSpec=\"\"}}コーヒーの{{ruby charSpan=\"1\" value=\"あじ\"}}味が　{{ruby charSpan=\"2\" value=\"かくべつ\"}}格別らしいんですよね～{{pageBreak}}{{anim id=\"Blushing\" target=\"actor\" targetSpec=\"\"}}そんな{{ruby charSpan=\"2\" value=\"ばしょ\"}}場所が　できたのなら、{{delay8}}ますます\n{{color id=\"1\"}}{{ruby charSpan=\"3\" value=\"はくぶつかん\"}}博物館{{color id=\"65535\"}}に{{ruby charSpan=\"1\" value=\"かよ\"}}通っちゃいそうです～、{{string value=\"6\"}}",
      "KRko": "{{color id=\"1\"}}{{anim id=\"Smiling\" target=\"actor\" targetSpec=\"\"}}박물관{{color id=\"65535\"}}에 새로 생긴 {{color id=\"1\"}}카페{{color id=\"65535\"}}에는\n{{anim id=\"Hello\" target=\"actor\" targetSpec=\"\"}}벌써 가보셨나요?{{delay frames=\"40\"}}\n{{anim id=\"Love\" target=\"actor\" targetSpec=\"\"}}커피 맛이 일품이라고 들었어요～{{pageBreak}}{{anim id=\"Blushing\" target=\"actor\" targetSpec=\"\"}}그런 장소가 생겼다니 {{delay8}}{{color id=\"1\"}}박물관{{color id=\"65535\"}}에\n더더욱 자주 가게 될 것 같네요～ {{string value=\"6\"}}～",
      "TWzh": "{{anim id=\"Smiling\" target=\"actor\" targetSpec=\"\"}}話說你已經去過\n{{anim id=\"Hello\" target=\"actor\" targetSpec=\"\"}}{{color id=\"1\"}}博物館{{color id=\"65535\"}}新開的{{color id=\"1\"}}咖啡店{{color id=\"65535\"}}了嗎？{{delay frames=\"40\"}}\n{{anim id=\"Love\" target=\"actor\" targetSpec=\"\"}}聽說那裡的咖啡特別好喝喔～{{pageBreak}}{{anim id=\"Blushing\" target=\"actor\" targetSpec=\"\"}}開了一間這種店，{{delay8}}感覺會讓人\n越來越常逛{{color id=\"1\"}}博物館{{color id=\"65535\"}}呢～{{string value=\"6\"}}。",
      "USen": "{{anim id=\"QuestionMark\" target=\"actor\" targetSpec=\"\"}}Have you been to the {{color id=\"1\"}}museum{{color id=\"65535\"}}'s new\n{{color id=\"1\"}}café {{color id=\"65535\"}}yet?{{delay20}}{{anim id=\"Smiling\" target=\"actor\" targetSpec=\"\"}} Their coffee is the talk of\nthe island lately!\n{{anim id=\"FaintSmile\" target=\"actor\" targetSpec=\"\"}}If it's as good as everyone says,\n{{anim id=\"Love\" target=\"actor\" targetSpec=\"\"}}there may be even more trips to\nthe museum in my future.",
      "USes": "{{anim id=\"QuestionMark\" target=\"actor\" targetSpec=\"\"}}¿Ya visitaste la nueva {{color id=\"1\"}}cafetería{{color id=\"65535\"}}\ndel {{color id=\"1\"}}museo{{color id=\"65535\"}}?{{delay20}} {{anim id=\"FaintSmile\" target=\"actor\" targetSpec=\"\"}}Toda la isla habla de\nlo delicioso que es el café.\n{{anim id=\"Love\" target=\"actor\" targetSpec=\"\"}}Si es tan bueno como dicen,{{delay8}} pienso\nir a desayunar allí todos los días\nde la semanita, {{string value=\"Catchphrase\"}}.",
      "USfr": "{{anim id=\"QuestionMark\" target=\"actor\" targetSpec=\"\"}}Est-ce que tu es déjà allé{{gender2 m=\"\" f=\"e\"}} au\nnouveau {{color id=\"1\"}}café {{color id=\"65535\"}}du {{color id=\"1\"}}musée{{color id=\"65535\"}}?{{pageBreak}}{{delay20}}{{anim id=\"Smiling\" target=\"actor\" targetSpec=\"\"}}Tout le monde sur l'île se pâme\nsur le café servi là-bas!{{pageBreak}}{{anim id=\"FaintSmile\" target=\"actor\" targetSpec=\"\"}}S'il est aussi bon qu'on le raconte,\n{{anim id=\"Love\" target=\"actor\" targetSpec=\"\"}}il est possible que je fréquente le\nmusée encore plus assidument!"
    }
  }
]