﻿[
  {
    "label": "001",
    "attribute": "0x0000000000001300",
    "text": "{{fun_0014003C arg=\"\"}}"
  },
  {
    "label": "001_01",
    "attribute": "0x0000000000001300",
    "text": "{{fun_00050064 arg=\"\"}}{{color id=\"1\"}}嗨，{{delay8}}我是{{selection value=\"SelectedVillager\"}}。{{delay frames=\"40\"}}\n現在我忙著準備搬家，{{delay20}}\n實在走不開，{{delay20}}抱歉囉。{{color id=\"65535\"}}{{endTag}}"
  },
  {
    "label": "001_02",
    "attribute": "0x0000000000001300",
    "text": "{{fun_00050064 arg=\"\"}}{{color id=\"1\"}}Hi！{{delay20}}我是{{selection value=\"SelectedVillager\"}}喔！{{delay frames=\"40\"}}\n現在我忙著準備搬家，實在沒辦法回應。{{delay frames=\"40\"}}\n抱歉，你都特地Call過來了，{{delay20}}但下次再聊吧。{{color id=\"65535\"}}{{endTag}}"
  },
  {
    "label": "001_03",
    "attribute": "0x0000000000001300",
    "text": "{{fun_00050064 arg=\"\"}}{{color id=\"1\"}}Hi～我是{{selection value=\"SelectedVillager\"}}喔！{{delay20}}\n現在我在準備搬家，實在走不開！{{delay frames=\"40\"}}\n如果可以的話，{{delay20}}希望你下次再Call喔！{{color id=\"65535\"}}{{endTag}}"
  },
  {
    "label": "001_04",
    "attribute": "0x0000000000001300",
    "text": "{{fun_00050064 arg=\"\"}}{{color id=\"1\"}}謝謝你Call過來！{{delay20}}我是{{selection value=\"SelectedVillager\"}}喔！{{delay frames=\"40\"}}\n但是很抱歉，我現在沒辦法回應{{string value=\"...\"}}{{delay20}}\n因為我正忙著{{delay20}}準備搬家喔。{{color id=\"65535\"}}{{endTag}}"
  },
  {
    "label": "102",
    "attribute": "0x0000000000001300",
    "text": "{{fun_0014003C arg=\"\"}}"
  },
  {
    "label": "102_01",
    "attribute": "0x0000000000001300",
    "text": "{{anim id=\"TakenAback\" target=\"actor\" targetSpec=\"\"}}你問我現在要不要去{{color id=\"1\"}}露營地{{color id=\"65535\"}}？{{delay frames=\"40\"}}\n{{string value=\"...\"}}{{anim id=\"Blushing\" target=\"actor\" targetSpec=\"\"}}我怎麼可能{{delay20}}拒絕你的邀約呢～！{{pageBreak}}{{anim id=\"Nodding\" target=\"actor\" targetSpec=\"\"}}那我去準備一下行李，{{delay20}}\n你稍微等我一下喔，{{string value=\"6\"}}。"
  },
  {
    "label": "102_02",
    "attribute": "0x0000000000001300",
    "text": "{{string value=\"...\"}}{{anim id=\"Shocked\" target=\"actor\" targetSpec=\"\"}}咦？{{delay20}}你問我現在{{delay20}}\n要不要就過去你那的{{color id=\"1\"}}露營地{{color id=\"65535\"}}玩？{{i10_4}}\n{{anim id=\"Nodding\" target=\"actor\" targetSpec=\"\"}}我的回答當然是……{{delay20}}YES！{{pageBreak}}{{anim id=\"ShyBoy\" target=\"actor\" targetSpec=\"\"}}沒想到你居然會主動找我，{{delay20}}\n今天真是太幸運啦～！{{delay frames=\"40\"}}\n{{anim id=\"EmotEnd\" target=\"actor\" targetSpec=\"\"}}等我一下，{{delay20}}我馬上過去！{{string value=\"6\"}}。"
  },
  {
    "label": "102_03",
    "attribute": "0x0000000000001300",
    "text": "{{anim id=\"Thinking\" target=\"actor\" targetSpec=\"\"}}{{string value=\"...\"}}到{{string value=\"IslandName\"}}的{{color id=\"1\"}}露營地{{color id=\"65535\"}}去？{{i10_4}}\n{{anim id=\"Nodding\" target=\"actor\" targetSpec=\"\"}}OK，{{delay20}}聽到你的聲音，{{delay20}}\n讓我也想跟你見個面了。{{pageBreak}}{{anim id=\"EmotEnd\" target=\"actor\" targetSpec=\"\"}}我現在就去盛裝打扮，{{delay20}}\n你稍微等我一下喔，{{string value=\"6\"}}。"
  },
  {
    "label": "102_04",
    "attribute": "0x0000000000001300",
    "text": "{{string value=\"...\"}}{{anim id=\"TakenAback\" target=\"actor\" targetSpec=\"\"}}咦～？{{delay20}}你要我現在立刻到{{delay20}}\n{{string value=\"IslandName\"}}的{{color id=\"1\"}}露營地{{color id=\"65535\"}}去？{{i10_4}}\n{{anim id=\"WrySmile\" target=\"actor\" targetSpec=\"\"}}呵呵{{string value=\"...\"}}你還真是讓人猝不及防呢。{{pageBreak}}{{anim id=\"Nodding\" target=\"actor\" targetSpec=\"\"}}好，知道了！{{delay20}}\n我會用最快速度衝過去的！{{delay frames=\"40\"}}\n{{anim id=\"Grin\" target=\"actor\" targetSpec=\"\"}}不然怎麼能回應你的心意呢{{string value=\"...\"}}"
  },
  {
    "label": "202",
    "attribute": "0x0000000000001300",
    "text": "{{fun_0014003C arg=\"\"}}"
  },
  {
    "label": "202_01",
    "attribute": "0x0000000000001300",
    "text": "{{anim id=\"Eh\" target=\"actor\" targetSpec=\"\"}}咦{{string value=\"...\"}}{{delay20}}你要招待我去{{delay20}}\n你們島上的{{color id=\"1\"}}露營地{{color id=\"65535\"}}玩嗎？{{delay frames=\"40\"}}\n{{anim id=\"Silent\" target=\"actor\" targetSpec=\"\"}}原來如此{{string value=\"...\"}}{{pageBreak}}{{anim id=\"ShyBoy\" target=\"actor\" targetSpec=\"\"}}偶爾冒險一下，或許也不錯呢。{{delay frames=\"40\"}}\n{{anim id=\"EmotEnd\" target=\"actor\" targetSpec=\"\"}}我現在就動身過去，{{delay20}}\n可以等我一下嗎？{{string value=\"6\"}}。"
  },
  {
    "label": "202_02",
    "attribute": "0x0000000000001300",
    "text": "{{anim id=\"FaintSmile\" target=\"actor\" targetSpec=\"\"}}這樣啊{{string value=\"...\"}}你想要讓我{{delay20}}\n去{{string value=\"IslandName\"}}的{{color id=\"1\"}}露營地{{color id=\"65535\"}}{{delay20}}作客嗎？{{pageBreak}}{{anim id=\"Serious\" target=\"actor\" targetSpec=\"\"}}我看一下，等會喔{{string value=\"...\"}}{{i10_4}}\n{{anim id=\"Nodding\" target=\"actor\" targetSpec=\"\"}}嗯，{{delay20}}我接下來沒有預定行程，{{delay20}}\n那我等等就過去叨擾囉，{{string value=\"6\"}}。"
  },
  {
    "label": "202_03",
    "attribute": "0x0000000000001300",
    "text": "{{anim id=\"Nodding\" target=\"actor\" targetSpec=\"\"}}原來如此{{string value=\"...\"}}{{delay20}}你想邀我前往{{delay20}}\n{{string value=\"IslandName\"}}的{{color id=\"1\"}}露營地{{color id=\"65535\"}}，對吧？{{pageBreak}}{{anim id=\"EmotEnd\" target=\"actor\" targetSpec=\"\"}}如果是這樣，{{delay20}}\n那我很樂意過去玩！{{delay frames=\"40\"}}\n{{anim id=\"Blushing\" target=\"actor\" targetSpec=\"\"}}真期待能見你一面啊，{{string value=\"6\"}}。"
  },
  {
    "label": "202_04",
    "attribute": "0x0000000000001300",
    "text": "{{anim id=\"TakenAback\" target=\"actor\" targetSpec=\"\"}}你說什麼！？{{delay frames=\"40\"}}\n{{anim id=\"Hesitate\" target=\"actor\" targetSpec=\"\"}}想找我去{{delay20}}{{string value=\"IslandName\"}}的{{color id=\"1\"}}露營地{{color id=\"65535\"}}？{{pageBreak}}{{anim id=\"Nodding\" target=\"actor\" targetSpec=\"\"}}我當然非常樂意啊！{{delay frames=\"40\"}}\n{{anim id=\"EmotEnd\" target=\"actor\" targetSpec=\"\"}}那我們就趕快{{delay8}}過去那邊集合吧！{{string value=\"6\"}}。"
  },
  {
    "label": "301",
    "attribute": "0x0000000000001300",
    "text": "{{fun_0014003C arg=\"\"}}"
  },
  {
    "label": "301_01",
    "attribute": "0x0000000000001300",
    "text": "{{anim id=\"Greeting\" target=\"actor\" targetSpec=\"\"}}嗨，我是{{string value=\"VillagerName\"}}喔。{{delay frames=\"40\"}}\n{{anim id=\"FaintSmile\" target=\"actor\" targetSpec=\"\"}}這個聲音……是{{string value=\"4\"}}吧？{{delay frames=\"40\"}}\n{{anim id=\"Hello\" target=\"actor\" targetSpec=\"\"}}你特地找我有什麼事呢？{{string value=\"6\"}}。"
  },
  {
    "label": "301_02",
    "attribute": "0x0000000000001300",
    "text": "{{anim id=\"Greeting\" target=\"actor\" targetSpec=\"\"}}Hi～我是{{string value=\"VillagerName\"}}喔。{{delay frames=\"40\"}}\n{{anim id=\"Eh\" target=\"actor\" targetSpec=\"\"}}哦，{{string value=\"4\"}}！{{delay frames=\"40\"}}\n{{anim id=\"QuestionMark\" target=\"actor\" targetSpec=\"\"}}你怎麼{{delay8}}突然找我啊？"
  },
  {
    "label": "301_03",
    "attribute": "0x0000000000001300",
    "text": "{{anim id=\"Greeting\" target=\"actor\" targetSpec=\"\"}}Hello～{{delay20}}我是{{string value=\"VillagerName\"}}喔！{{delay frames=\"40\"}}\n{{anim id=\"FaintSmile\" target=\"actor\" targetSpec=\"\"}}你是{{string value=\"4\"}}吧？{{delay frames=\"40\"}}\n{{anim id=\"QuestionMark\" target=\"actor\" targetSpec=\"\"}}突然找我有什麼事嗎？{{string value=\"6\"}}。"
  },
  {
    "label": "301_04",
    "attribute": "0x0000000000001300",
    "text": "{{anim id=\"Eh\" target=\"actor\" targetSpec=\"\"}}哦，{{string value=\"4\"}}！{{delay frames=\"40\"}}\n{{anim id=\"Smiling\" target=\"actor\" targetSpec=\"\"}}謝謝你Call我！{{delay frames=\"40\"}}\n{{anim id=\"Hello\" target=\"actor\" targetSpec=\"\"}}找我有什麼事嗎？{{string value=\"6\"}}。"
  },
  {
    "label": "302",
    "attribute": "0x0000000000001300",
    "text": "{{fun_0014003C arg=\"\"}}"
  },
  {
    "label": "302_01",
    "attribute": "0x0000000000001300",
    "text": "{{anim id=\"TakenAback\" target=\"actor\" targetSpec=\"\"}}{{string value=\"...\"}}咦？{{delay20}}你問我現在要不要\n到你住的島上的{{color id=\"1\"}}露營地{{color id=\"65535\"}}去？{{pageBreak}}{{anim id=\"Worried\" target=\"actor\" targetSpec=\"\"}}抱歉，{{delay20}}雖然你這麼熱情邀約{{string value=\"...\"}}{{delay20}}\n{{anim id=\"Nodding\" target=\"actor\" targetSpec=\"\"}}但{{color id=\"1\"}}露營地{{color id=\"65535\"}}是招待Guest的地方，{{delay20}}\n所以我就不過去了，{{string value=\"6\"}}。"
  },
  {
    "label": "302_02",
    "attribute": "0x0000000000001300",
    "text": "{{anim id=\"TakenAback\" target=\"actor\" targetSpec=\"\"}}{{string value=\"...\"}}咦？{{delay frames=\"40\"}}你想和我\n一起在{{delay20}}{{string value=\"OtherIslandName\"}}的{{color id=\"1\"}}露營地{{color id=\"65535\"}}玩耍？{{pageBreak}}{{color id=\"1\"}}{{anim id=\"Grin\" target=\"actor\" targetSpec=\"\"}}露營地{{color id=\"65535\"}}是專門留給Guest的空間，{{delay frames=\"40\"}}\n{{anim id=\"Silent\" target=\"actor\" targetSpec=\"\"}}我們應該遵守島上的規定喔。{{delay frames=\"40\"}}\n{{anim id=\"Nodding\" target=\"actor\" targetSpec=\"\"}}所以，{{delay20}}這次我就不去囉。"
  },
  {
    "label": "302_03",
    "attribute": "0x0000000000001300",
    "text": "{{string value=\"...\"}}{{anim id=\"Nodding\" target=\"actor\" targetSpec=\"\"}}OK，我明白了。{{i10_4}}\n{{anim id=\"Serious\" target=\"actor\" targetSpec=\"\"}}但{{color id=\"1\"}}露營地{{color id=\"65535\"}}{{delay20}}是招待Guest的地方{{string value=\"...\"}}{{pageBreak}}{{anim id=\"Nodding\" target=\"actor\" targetSpec=\"\"}}我們應該好好遵守島上的規則喔！{{delay frames=\"40\"}}\n{{anim id=\"Blushing\" target=\"actor\" targetSpec=\"\"}}不過{{delay20}}你願意Call我，{{delay20}}\n還是讓我很開心啦{{string value=\"...\"}}{{string value=\"6\"}}。"
  },
  {
    "label": "302_04",
    "attribute": "0x0000000000001300",
    "text": "{{anim id=\"Shocked\" target=\"actor\" targetSpec=\"\"}}{{string value=\"OtherIslandName\"}}{{string value=\"...\"}}{{delay20}}\n{{anim id=\"QuestionMark\" target=\"actor\" targetSpec=\"\"}}你是說你想在我們島上的{{color id=\"1\"}}露營地{{delay20}}{{color id=\"65535\"}}\n露營看看嗎！？{{pageBreak}}{{anim id=\"Thinking\" target=\"actor\" targetSpec=\"\"}}真是個大膽的想法啊{{string value=\"...\"}}{{delay20}}\n{{anim id=\"Nodding\" target=\"actor\" targetSpec=\"\"}}但是為了島上的Guest，{{delay20}}還有未來的同伴，{{delay20}}\n我這次還是先不去了，{{string value=\"6\"}}。"
  },
  {
    "label": "401",
    "attribute": "0x0000000000001300",
    "text": "{{fun_0014003C arg=\"\"}}"
  },
  {
    "label": "401_01",
    "attribute": "0x0000000000001300",
    "text": "{{anim id=\"Greeting\" target=\"actor\" targetSpec=\"\"}}嗨～我是{{string value=\"VillagerName\"}}唷。{{delay frames=\"40\"}}\n{{anim id=\"Hello\" target=\"actor\" targetSpec=\"\"}}有什麼事嗎？{{string value=\"6\"}}。"
  },
  {
    "label": "401_02",
    "attribute": "0x0000000000001300",
    "text": "{{anim id=\"Greeting\" target=\"actor\" targetSpec=\"\"}}你好～我是{{string value=\"VillagerName\"}}唷。{{delay frames=\"40\"}}\n{{anim id=\"Hello\" target=\"actor\" targetSpec=\"\"}}謝謝你Call我！{{delay20}}\n{{string value=\"...\"}}是說找我有什麼事嗎？{{string value=\"6\"}}。"
  },
  {
    "label": "401_03",
    "attribute": "0x0000000000001300",
    "text": "{{anim id=\"Greeting\" target=\"actor\" targetSpec=\"\"}}Hello！{{delay8}}我是{{string value=\"VillagerName\"}}唷。{{delay20}}\n你有話想跟我說對嗎？{{delay frames=\"40\"}}\n沒問題，你說吧{{string value=\"...\"}}{{string value=\"6\"}}。"
  },
  {
    "label": "401_04",
    "attribute": "0x0000000000001300",
    "text": "喂？我是{{string value=\"VillagerName\"}}。{{delay20}}\n{{anim id=\"Smiling\" target=\"actor\" targetSpec=\"\"}}謝謝你聯絡我！{{delay frames=\"40\"}}\n{{anim id=\"Hello\" target=\"actor\" targetSpec=\"\"}}找我有什麼事嗎？{{string value=\"6\"}}。"
  }
]