﻿[
  {
    "label": "001",
    "text": "{{gender2 m=\"Al mio\" f=\"Alla mia\"}} trendy {{string value=\"NickName\"}}..."
  },
  {
    "label": "002",
    "text": "Sono perfetti, {{string value=\"NickName\"}}!"
  },
  {
    "label": "003",
    "text": "Sono troppo felice, {{string value=\"NickName\"}}!"
  },
  {
    "label": "004",
    "text": "Grazie, {{string value=\"NickName\"}}!"
  },
  {
    "label": "005",
    "text": "Ciaaao, {{string value=\"NickName\"}}!"
  },
  {
    "label": "006",
    "text": "Che sorpresa, {{string value=\"NickName\"}}!"
  },
  {
    "label": "007",
    "text": "Ehi, {{string value=\"NickName\"}}!"
  },
  {
    "label": "008",
    "text": "{{gender2 m=\"Al\" f=\"Alla\"}} grande chef {{string value=\"NickName\"}}..."
  },
  {
    "label": "009",
    "text": "{{gender2 m=\"Al mio giardiniere\" f=\"Alla mia giardiniera\"}}..."
  },
  {
    "label": "010",
    "text": "All'{{gender2 m=\"ecologico\" f=\"ecologica\"}} {{string value=\"NickName\"}},"
  },
  {
    "label": "011",
    "text": "{{gender2 m=\"Al generoso\" f=\"Alla generosa\"}} {{string value=\"NickName\"}}..."
  },
  {
    "label": "012",
    "text": "{{gender2 m=\"Al mitico\" f=\"Alla mitica\"}} DJ {{string value=\"NickName\"}},"
  },
  {
    "label": "013",
    "text": "Una cifra di grazie, {{string value=\"NickName\"}}!"
  },
  {
    "label": "014",
    "text": "Da paura, {{string value=\"NickName\"}}!"
  },
  {
    "label": "018",
    "text": "{{gender2 m=\"Al mio\" f=\"Alla mia\"}} trovafossili {{string value=\"NickName\"}},"
  },
  {
    "label": "019",
    "text": "{{gender2 m=\"Fratello\" f=\"Sorella\"}} di fossili {{string value=\"NickName\"}}..."
  },
  {
    "label": "020",
    "text": "{{gender2 m=\"Caro amico arredatore\" f=\"Cara amica arredatrice\"}}..."
  },
  {
    "label": "021",
    "text": "Grazie, {{string value=\"NickName\"}}!"
  },
  {
    "label": "101",
    "text": "Grazie un milione per quei vestiti\ntroppo giusti! Me li metto subito\ne vado a fare una passeggiata!\nOh, anch'io ti ho preso dei vestiti\nche spero troverai stratosferici!\nProvali e vedi come ti stanno!"
  },
  {
    "label": "102",
    "text": "Quei vestiti che mi hai regalato\nsono troppo perfetti! Grazie di\nessere {{gender2 m=\"andato\" f=\"andata\"}} a cercarli, di averli\ncomprati e poi spediti! Anch'io ti\nho preso dei vestiti (che storia!)\nProvali!"
  },
  {
    "label": "103",
    "text": "Allora, ho provato i vestiti che mi\nhai spedito. Allucinante! Ora ho\nvoglia di uscire e sfoggiare\nil mio nuovo stile allucinante, per\ncondividere... l'allucinantezza...?\nBeh, comunque ti ho preso questi!"
  },
  {
    "label": "104",
    "text": "Grazie un sacco per il regalo!\nCioè, pensavo una cosa. Forse\ndovrei cambiare l'arredamento di\ncasa. Quindi il tuo regalo è arrivato\nal momento supergiusto! Ti ho\npreso una cosetta per ringraziarti!"
  },
  {
    "label": "105",
    "text": "Grazie mille del tuo regalo troppo\nsconvolgente! Sei un genio quando\nsi tratta di arredamento d'interni!\nAnche io ti ho fatto un regaletto.\nSpero che ti piacerà!"
  },
  {
    "label": "106",
    "text": "Non mi aspettavo che scegliessi\nquel tipo di mobile! Così, un po'\nper scherzo, ho deciso di regalarti\nanch'io qualcosa! Se ti piace,\nspero che troverà posto nel tuo\nloft!"
  },
  {
    "label": "107",
    "text": "Grazie mille del regalo! Grazie\nmille del regalo! Ne ho già uno.\nNe ho già uno. E ora ne ho due.\nE ora ne ho due. Bella storia!\nBella storia! Ti ho preso una cosa.\nSolo una."
  },
  {
    "label": "108",
    "text": "Grazie per quel delizioso cibo\nche mi hai mandato! Aveva un\nodorino mitico e l'ho mangiato\nin frettissima, pure troppo!\nComunque, anch'io ti mando\nuna cosetta da sgranocchiare!"
  },
  {
    "label": "109",
    "text": "Grazie una cifra per quel regalino\nfloreale! Come pensi che faccia un\nintero fiore a stare dentro a uno di\nquei cosi supermicroscopici? Non\nè, cioè, troppo sconvolgente?!"
  },
  {
    "label": "110",
    "text": "grazie dell'albero (o era un\ncespuglio?) Gli alberi (diciamo che\nè un albero) producono ossigeno!\nE noi respiriamo ossigeno. E a me\npiace respirare. Quindi grazie di\nnuovo! Ora vedo dove piantarlo."
  },
  {
    "label": "111",
    "text": "Stelline? Mi hai mandato delle\nstelline?! Uau. Grazie! Ho comprato\nuna cosa che volevo, poi ho deciso\nche dovevo prendere qualcosa\nanche per te. Perciò ora sono di\nnuovo al verde, ah ah ah!"
  },
  {
    "label": "112",
    "text": "la musica che mi hai mandato è\ntroppo bella! L'ho ascoltata cento\nvolte e ancora mi fa venire voglia\ndi ballare. Anzi, sto ballando anche\nadesso mentre ti scrivo! Ecco qui\nun pensierino per ringraziarti!"
  },
  {
    "label": "113",
    "text": "Quella... cosa che mi hai mandato\nè, cioè, troppo utile! Davvero non\npuoi proprio fare a meno di... cose\ncosì! Posso usare la... cosa per\nfare di tutto in casa. Ah, anch'io\nti mando una COSA."
  },
  {
    "label": "114",
    "text": "Grazie una cifra per il regalo! Ma\nnon è, cioè, megacostoso? Non è\nche poi al museo vanno fuori di\ntesta se dai questa roba a me?\nBeh, comunque anch'io ho una\ncosina per te... e meno \"scottante\"."
  },
  {
    "label": "118",
    "text": "sei l'unico individuo che conosco\nche regalerebbe un fossile a\nqualcuno. Ed è stratosferico!\nSe lo fisso abbastanza a lungo,\nmi sembra di tornare indietro nel\ntempo!"
  },
  {
    "label": "119",
    "text": "Quel fossile che mi hai spedito\nnon è ancora stato valutato, no?\nAllora lo porto da Blatero. Io dico\nche è di dinosauro. Ah! Sai che gli\nuccelli derivano dai dinosauri?\nQuindi Blatero... SCONVOLGENTE!"
  },
  {
    "label": "120",
    "text": "Grazie del regalo! L'ho appeso\nsubito al muro, poi mi sono resa\nconto che ne avevo già un altro\nuguale! Ma l'ho tolto e ho tenuto\nil tuo! Che storia, eh? A proposito,\nanch'io ti ho preso una cosetta."
  },
  {
    "label": "121",
    "text": "Grazie del regalo! Sono al settimo\ncielo, anzi all'ottavo! Grazie di\naver pensato a me, mi piace un\nsacco! Ti ho preso anch'io una\ncosa e spero che l'apprezzerai.\nMagari anche un sacco!"
  },
  {
    "label": "201",
    "text": "Dalla modaiola {{string value=\"VillagerName\"}}"
  },
  {
    "label": "202",
    "text": "{{string value=\"VillagerName\"}}, fashion victim"
  },
  {
    "label": "203",
    "text": "{{string value=\"VillagerName\"}} allucinata"
  },
  {
    "label": "204",
    "text": "{{string value=\"VillagerName\"}}, arredatissima"
  },
  {
    "label": "205",
    "text": "Arredata e felice, {{string value=\"VillagerName\"}}"
  },
  {
    "label": "206",
    "text": "Dalla stupefatta {{string value=\"VillagerName\"}}"
  },
  {
    "label": "207",
    "text": "Con affetto, affetto, {{string value=\"VillagerName\"}}"
  },
  {
    "label": "208",
    "text": "Dalla tua pienissima {{string value=\"VillagerName\"}}"
  },
  {
    "label": "209",
    "text": "{{string value=\"VillagerName\"}}, la giardiniera"
  },
  {
    "label": "210",
    "text": "Respiro profondo! {{string value=\"VillagerName\"}}"
  },
  {
    "label": "211",
    "text": "{{string value=\"VillagerName\"}}, fan dello shopping"
  },
  {
    "label": "212",
    "text": "Vai con la musica! {{string value=\"VillagerName\"}}"
  },
  {
    "label": "213",
    "text": "Ora faccio cose, {{string value=\"VillagerName\"}}"
  },
  {
    "label": "214",
    "text": "Saluti artistici, {{string value=\"VillagerName\"}}"
  },
  {
    "label": "218",
    "text": "Sei {{gender2 m=\"unico\" f=\"unica\"}}! {{string value=\"VillagerName\"}}"
  },
  {
    "label": "219",
    "text": "DINOSAURI! {{string value=\"VillagerName\"}}"
  },
  {
    "label": "220",
    "text": "A dopo, {{string value=\"VillagerName\"}}"
  },
  {
    "label": "221",
    "text": "{{string value=\"VillagerName\"}}, la tua benefattrice"
  }
]