﻿[
  {
    "label": "001",
    "attribute": "0x00000000",
    "text": "{{anim id=\"BigSmile\" target=\"actor\" targetSpec=\"\"}}Is' ja noch 'n feinerer Ferienhafen,{{delay8}}\nals ich mir erträumt hab!{{delay frames=\"40\"}}{{anim id=\"Laughing\" target=\"actor\" targetSpec=\"\"}} Da könnt\nich glatt zur Landratte werden,{{delay8}} harrr!"
  },
  {
    "label": "001_01",
    "attribute": "0x00000000",
    "text": "{{anim id=\"Serious\" target=\"actor\" targetSpec=\"\"}}Bin schon gespannt wie 'n Ankertau,\n{{delay8}}ob du dir deine Heuer auch verdient\nhaben wirst,{{delay8}} {{string value=\"PlayerName\"}}!"
  },
  {
    "label": "002",
    "attribute": "0x02000000",
    "text": "{{anim id=\"FaintSmile\" target=\"actor\" targetSpec=\"\"}}Ahoi, {{delay8}}wann hat denn mein Ferien-\nhäuschen endlich Stapellauf?"
  },
  {
    "label": "002_01",
    "attribute": "0x04000000",
    "text": "{{anim id=\"FaintSmile\" target=\"actor\" targetSpec=\"\"}}Ahoi, {{delay8}}wann hat denn mein Ferien-\nhäuschen endlich Stapellauf?"
  },
  {
    "label": "002_01_a",
    "attribute": "0x00000000",
    "text": "Es ist fertig!"
  },
  {
    "label": "002_01_b",
    "attribute": "0x00000000",
    "text": "2. Etage gefällig?"
  },
  {
    "label": "002_01_c",
    "attribute": "0x00000000",
    "text": "{{anim id=\"EmotEnd\" target=\"player\" targetSpec=\"\"}}Benötige noch Zeit..."
  },
  {
    "label": "002_a",
    "attribute": "0x00000000",
    "text": "Es ist fertig!"
  },
  {
    "label": "002_b",
    "attribute": "0x00000000",
    "text": "{{anim id=\"EmotEnd\" target=\"player\" targetSpec=\"\"}}Benötige noch Zeit..."
  },
  {
    "label": "003_01",
    "attribute": "0x00000000",
    "text": "{{anim id=\"Surprised\" target=\"actor\" targetSpec=\"\"}}Hast doch noch gar keinen Fuß an\nBord meiner Ferienbude gesetzt!?{{delay frames=\"40\"}}{{anim id=\"Silent\" target=\"actor\" targetSpec=\"\"}}\nHolste das vielleicht noch nach?"
  },
  {
    "label": "003_02",
    "attribute": "0x00000000",
    "text": "{{anim id=\"Thinking\" target=\"actor\" targetSpec=\"\"}}Hm{{string value=\"...\"}} Hier sieht man ja vor lauter\nGerümpel das Deck gar nicht mehr{{string value=\"...\"}}{{pageBreak}}{{anim id=\"Frantic\" target=\"actor\" targetSpec=\"\"}}In diesem Kuddelmuddel ist sogar 'ne\nolle Seefahrerfamilie wie meine zum\nSchiffbruch verurteilt!{{pageBreak}}{{anim id=\"Sighing\" target=\"actor\" targetSpec=\"\"}}Vielleicht{{string value=\"...\"}}{{delay8}} schmeißen wir von dem\nBallast einfach was über Bord?{{delay20}} Also\ndu{{string value=\"...\"}}{{delay8}}{{anim id=\"BigSmile\" target=\"actor\" targetSpec=\"\"}} Denn du bist hier {{gender2 m=\"der Stauer\" f=\"die Stauerin\"}}!"
  },
  {
    "label": "003_03",
    "attribute": "0x00000000",
    "text": "{{anim id=\"Thinking\" target=\"actor\" targetSpec=\"\"}}Hrm{{string value=\"...\"}}{{delay8}} Das Häuschen ist vollgestopft\nbis an die Barten, {{delay20}}{{anim id=\"WrySmile\" target=\"actor\" targetSpec=\"\"}}findste nich' auch?{{pageBreak}}{{anim id=\"Frantic\" target=\"actor\" targetSpec=\"\"}}Wenigstens auf Landgang will ich mit\nmeiner werten Familie nich' wie in\n'ner Sardinenbüchse hocken!{{pageBreak}}{{anim id=\"Sighing\" target=\"actor\" targetSpec=\"\"}}Wie wär's, {{delay8}}wenn du 'nen Teil von dem\nKram verklappst?{{delay20}} Wir sind hier nich'\nauf hoher See, {{delay8}}da is' das legitim!"
  },
  {
    "label": "003_04",
    "attribute": "0x00000000",
    "text": "{{anim id=\"Thinking\" target=\"actor\" targetSpec=\"\"}}Hmm{{string value=\"...\"}}{{delay8}} In der anderen Kajüte{{string value=\"...\"}}{{delay8}}{{anim id=\"WrySmile\" target=\"actor\" targetSpec=\"\"}}\nDa stapelt sich der Krempel ja bis\nans Oberdeck, {{delay8}}harrr!{{pageBreak}}{{anim id=\"Frantic\" target=\"actor\" targetSpec=\"\"}}Wenn sich dort jemand von meiner\nFamilie verfangen täte, {{delay8}}müsst ich\ndich laut Seerecht kielholen lassen!{{pageBreak}}{{anim id=\"Sighing\" target=\"actor\" targetSpec=\"\"}}Wie wär's, {{delay8}}wenn du 'nen Teil von dem\nKram versenkst?{{delay20}} Egal wie, {{delay8}}Hauptsache, {{delay8}}das Deck lichtet sich!"
  },
  {
    "label": "004",
    "attribute": "0x00000000",
    "text": "{{anim id=\"Aha\" target=\"actor\" targetSpec=\"\"}}Alles an Bord? {{delay frames=\"50\"}}{{anim id=\"Smiling\" target=\"actor\" targetSpec=\"\"}}Danke dir! {{delay frames=\"40\"}}Dann kann\ndie Familie jetzt ja rübergeschippert\nkommen!"
  },
  {
    "label": "005",
    "attribute": "0x00000000",
    "text": "{{anim id=\"FaintSmile\" target=\"actor\" targetSpec=\"\"}}Harrr, {{delay20}}ich wollt dich überhaupt nich'\nüber die Planke laufen lassen!{{delay frames=\"40\"}} {{anim id=\"Greeting\" target=\"actor\" targetSpec=\"\"}}\nAlso lass dir alle Zeit der Welt!"
  },
  {
    "label": "006",
    "attribute": "0x02000000",
    "text": "{{anim id=\"Aha\" target=\"actor\" targetSpec=\"\"}}Harrr? {{delay frames=\"40\"}}'n zweites Oberdeck?{{delay frames=\"40\"}}{{anim id=\"Thinking\" target=\"actor\" targetSpec=\"\"}} Das wär\n'ne gute Sache{{string value=\"...\"}}{{delay frames=\"30\"}}{{anim id=\"Hello\" target=\"actor\" targetSpec=\"\"}} Und als Nächstes\nsetzen wir 'nen Ausguck obendrauf!"
  },
  {
    "label": "006_a",
    "attribute": "0x00000000",
    "text": "Überlass alles mir!"
  },
  {
    "label": "006_b",
    "attribute": "0x00000000",
    "text": "Ach, lassen wir das..."
  },
  {
    "label": "007",
    "attribute": "0x00000000",
    "text": "{{anim id=\"HappyDance\" target=\"actor\" targetSpec=\"\"}}Fürs zweite Stockwerk volle\nKraft voraus!"
  },
  {
    "label": "008",
    "attribute": "0x00000000",
    "text": "{{anim id=\"Surprised\" target=\"actor\" targetSpec=\"\"}}Arrr, {{delay20}}was is' denn das für ein\nSchabernack?!{{anim id=\"Nodding\" target=\"actor\" targetSpec=\"\"}} Aber gut,{{delay8}} fahr du\nmal weiter auf deinem Schlingerkurs!"
  },
  {
    "label": "011",
    "attribute": "0x00000000",
    "text": "Übrigens{{string value=\"...\"}}{{delay8}} {{anim id=\"Thinking\" target=\"actor\" targetSpec=\"\"}}haste dir reichlich Zeit\ngelassen!{{delay frames=\"40\"}}{{anim id=\"Smiling\" target=\"actor\" targetSpec=\"\"}} Das weiß ich reichlich\nzu schätzen,{{delay8}} harrr!"
  },
  {
    "label": "013",
    "attribute": "0x00000000",
    "text": "{{anim id=\"BigSmile\" target=\"actor\" targetSpec=\"\"}}Danke dir, {{delay8}}{{gender2 m=\"du Leichtmatrose\" f=\"du Leichtmatrosin\"}}!{{delay frames=\"40\"}}{{anim id=\"Nodding\" target=\"actor\" targetSpec=\"\"}}\n{{delay frames=\"40\"}}Du arbeitest so fix wie 'n Segelfisch,{{delay8}}{{anim id=\"Smiling\" target=\"actor\" targetSpec=\"\"}}\nhast aber garantiert weniger Gräten!"
  },
  {
    "label": "016",
    "attribute": "0x00000000",
    "text": "{{fun_0014003C arg=\"\"}}"
  },
  {
    "label": "016_01",
    "attribute": "0x00000000",
    "text": "{{anim id=\"Laughing\" target=\"actor\" targetSpec=\"\"}}Da wird der Dorsch in der Pfanne\nverrückt!{{delay frames=\"40\"}} Die Familie fühlt sich hier\nso wohl wie 'n Schwarm Guppys!"
  },
  {
    "label": "017",
    "attribute": "0x02000000",
    "text": "{{anim id=\"Smiling\" target=\"actor\" targetSpec=\"\"}}Danke dir,{{delay8}} {{string value=\"PlayerName\"}}!{{delay frames=\"40\"}}{{anim id=\"QuestionMark\" target=\"actor\" targetSpec=\"\"}}\nWeißte auch schon, {{delay8}}was bei dir als\nNächstes aufm Fahrplan steht?"
  },
  {
    "label": "017_01",
    "attribute": "0x00000000",
    "text": "Dann mal immer 'ne Handbreit Was-\nser unterm Kiel!{{delay frames=\"40\"}} {{anim id=\"Grin\" target=\"actor\" targetSpec=\"\"}}Hier haste jeden-\nfalls immer 'nen sicheren Hafen!"
  },
  {
    "label": "017_02",
    "attribute": "0x00000000",
    "text": "{{anim id=\"Laughing\" target=\"actor\" targetSpec=\"\"}}Für Fotos brauchste gar nich' zu\nfragen,{{delay8}} du Forelle!{{delay frames=\"40\"}}{{anim id=\"Nodding\" target=\"actor\" targetSpec=\"\"}} Mach einfach und\nlass dich danach noch mal blicken!"
  },
  {
    "label": "017_04",
    "attribute": "0x02000000",
    "text": "{{anim id=\"IdeaBulb\" target=\"actor\" targetSpec=\"\"}}{{string value=\"...\"}}{{delay20}}Wie wär's,{{delay8}} wenn du jetzt 'nen\n{{anim id=\"Hello\" target=\"actor\" targetSpec=\"\"}}Schnapperfisch{{string value=\"...\"}}{{delay8}}{{delay20}} ärrrm{{string value=\"...\"}}{{delay20}} Schnapp-\nschuss von der Hütte hier machst?{{pageBreak}}{{anim id=\"Laughing\" target=\"actor\" targetSpec=\"\"}}Als Ferienhaus-Flaggschiff macht\ndie in euren Werbeprospekten be-\nstimmt mächtig was her, {{delay8}}harrrharrr!"
  },
  {
    "label": "017_04_a",
    "attribute": "0x00000000",
    "text": "{{anim id=\"EmotEnd\" target=\"player\" targetSpec=\"\"}}Ja, ich mache {{color id=\"1\"}} {{color id=\"65535\"}}Fotos."
  },
  {
    "label": "017_04_b",
    "attribute": "0x00000000",
    "text": "{{anim id=\"EmotEnd\" target=\"player\" targetSpec=\"\"}}Ich muss zurück..."
  },
  {
    "label": "017_05",
    "attribute": "0x00000000",
    "text": "{{anim id=\"Assent\" target=\"actor\" targetSpec=\"\"}}Klarrr!{{delay frames=\"60\"}}{{anim id=\"Smiling\" target=\"actor\" targetSpec=\"\"}} Mach so viele, {{delay8}}wie du willst!{{delay frames=\"40\"}}{{anim id=\"Nodding\" target=\"actor\" targetSpec=\"\"}}\nUnd dock ruhig noch mal bei mir an,{{delay8}}\nfalls du was brauchen solltest."
  },
  {
    "label": "017_06",
    "attribute": "0x00000000",
    "text": "{{anim id=\"Shocked\" target=\"actor\" targetSpec=\"\"}}Arrrrr?! {{delay frames=\"40\"}}Keine Zeit,{{delay8}} paar Fotos zu\nschießen?{{delay20}} {{delay frames=\"40\"}}{{anim id=\"Sighing\" target=\"actor\" targetSpec=\"\"}}Nich' mal mit meinem\nniedlichen Töchterchen vorne drauf?!{{pageBreak}}{{anim id=\"EmotEnd\" target=\"actor\" targetSpec=\"\"}}Aye,{{delay8}} aye, {{delay8}}dann wünsch ich dir 'ne\ngute Fahrt.{{delay20}} {{anim id=\"Grin\" target=\"actor\" targetSpec=\"\"}}Und geh beim guten ollen\n{{color id=\"3\"}}Käpten{{color id=\"65535\"}} ruhig mal wieder vor Anker!"
  },
  {
    "label": "017_a",
    "attribute": "0x00000000",
    "text": "{{anim id=\"EmotEnd\" target=\"player\" targetSpec=\"\"}}Darf ich {{color id=\"1\"}} {{color id=\"65535\"}}Fotos machen?"
  },
  {
    "label": "017_b",
    "attribute": "0x00000000",
    "text": "{{anim id=\"EmotEnd\" target=\"player\" targetSpec=\"\"}}Ich schipper zurück."
  },
  {
    "label": "018",
    "attribute": "0x02000000",
    "text": "{{anim id=\"Hello\" target=\"actor\" targetSpec=\"\"}}Harrr?{{delay20}} Wo juckt dir die Flosse?"
  },
  {
    "label": "018_a",
    "attribute": "0x00000000",
    "text": "{{anim id=\"EmotEnd\" target=\"player\" targetSpec=\"\"}}Schluss für heute."
  },
  {
    "label": "018_b",
    "attribute": "0x00000000",
    "text": "{{anim id=\"EmotEnd\" target=\"player\" targetSpec=\"\"}}Ach, nichts weiter."
  },
  {
    "label": "020",
    "attribute": "0x00000000",
    "text": "{{anim id=\"Laughing\" target=\"actor\" targetSpec=\"\"}}Ach was,{{delay8}} du wolltest bloß mal mit\ndem ollen Käpten schnacken?{{delay frames=\"40\"}}{{anim id=\"Grin\" target=\"actor\" targetSpec=\"\"}}\nArrr,{{delay8}} dafür hab ich immer Zeit!"
  },
  {
    "label": "021",
    "attribute": "0x00000000",
    "text": "{{anim id=\"Nodding\" target=\"actor\" targetSpec=\"\"}}Danke, {{delay8}}dass du dir heut so die\nGräten krumm gemacht hast!{{delay frames=\"40\"}}{{anim id=\"Smiling\" target=\"actor\" targetSpec=\"\"}}\nBei mir biste immer gern gesehen!"
  },
  {
    "label": "022",
    "attribute": "0x00000000",
    "text": "Ganz nebenbei,{{delay20}}{{anim id=\"Hello\" target=\"actor\" targetSpec=\"\"}} willste das Konzept\nvon dem Haus taufen?{{delay frames=\"40\"}}\n{{anim id=\"FaintSmile\" target=\"actor\" targetSpec=\"\"}}Das macht man so,{{delay8}} nich' nur auf See!"
  },
  {
    "label": "023",
    "attribute": "0x02000000",
    "text": "Irgend'n Stör hat das Hauskonzept\nhier {{color id=\"1\"}}{{fun_00000096 arg=\"0x00CD\"}}{{color id=\"65535\"}} getauft!{{pageBreak}}{{anim id=\"QuestionMark\" target=\"actor\" targetSpec=\"\"}}Willste's ändern oder{{string value=\"...\"}}{{delay8}} {{anim id=\"Laughing\" target=\"actor\" targetSpec=\"\"}}STÖRt's dich\nüberhaupt nich', {{delay8}}harrr, {{delay8}}harrr,{{delay8}} harrr?!"
  },
  {
    "label": "023_a",
    "attribute": "0x00000000",
    "text": "{{anim id=\"EmotEnd\" target=\"player\" targetSpec=\"\"}}Ein neuer Name!"
  },
  {
    "label": "023_b",
    "attribute": "0x00000000",
    "text": "{{anim id=\"EmotEnd\" target=\"player\" targetSpec=\"\"}}Mir gefällt der Name!"
  },
  {
    "label": "024",
    "attribute": "0x00000000",
    "text": "{{anim id=\"FaintSmile\" target=\"actor\" targetSpec=\"\"}}Na dann, {{delay8}}Leinen los für deinen neuen\nKonzeptnamen!"
  },
  {
    "label": "025",
    "attribute": "0x00000000",
    "text": "{{anim id=\"Eh\" target=\"actor\" targetSpec=\"\"}}Aye, aye,{{delay8}} {{gender2 m=\"Maat\" f=\"Maatin\"}} {{string value=\"PlayerName\"}}!\n{{anim id=\"Smiling\" target=\"actor\" targetSpec=\"\"}}Dann lassen wir es mit dem Hin- und\nHergetaufe eben sein!"
  },
  {
    "label": "026",
    "attribute": "0x02000000",
    "text": "{{anim id=\"Shocked\" target=\"actor\" targetSpec=\"\"}}Was zur Klabauterfrau?{{delay frames=\"40\"}} Jetzt bleibt's\nalso doch alles beim Alten?!"
  },
  {
    "label": "026_a",
    "attribute": "0x00000000",
    "text": "Namen behalten."
  },
  {
    "label": "026_b",
    "attribute": "0x00000000",
    "text": "Lieber einen anderen."
  },
  {
    "label": "027",
    "attribute": "0x00000000",
    "text": "{{anim id=\"Laughing\" target=\"actor\" targetSpec=\"\"}}Du machst Scherze mit'm Käpten,{{delay8}}\nharrrharrr?! {{delay20}}Dann mal her mit dem\nneuen Namen!"
  },
  {
    "label": "028",
    "attribute": "0x00000000",
    "text": "{{anim id=\"Aha\" target=\"actor\" targetSpec=\"\"}}Das trifft den Hammer auf den Hai!{{delay20}}{{anim id=\"Smiling\" target=\"actor\" targetSpec=\"\"}}\n{{color id=\"1\"}}{{capitalizeNextLetter}}{{fun_00000096 arg=\"0x00CD\"}}{{color id=\"65535\"}}{{delay8}} is' der perfekte Name für so 'nen Schuppen!"
  },
  {
    "label": "101",
    "attribute": "0x06000000",
    "text": "{{anim id=\"Eh\" target=\"actor\" targetSpec=\"\"}}Jarrr,{{delay8}} welche Böe treibt dich hierher?"
  },
  {
    "label": "101_01",
    "attribute": "0x06000000",
    "text": "{{anim id=\"QuestionMark\" target=\"actor\" targetSpec=\"\"}}Du meinst mein Ferienhaus,\n{{delay8}}du {{gender2 m=\"Leichtmatrose\" f=\"Leichtmatrosin\"}}? Steht da\nwas an?{{delay20}} Lass hören!"
  },
  {
    "label": "101_01_a",
    "attribute": "0x00000000",
    "text": "Umbau!"
  },
  {
    "label": "101_01_b",
    "attribute": "0x00000000",
    "text": "Umzug!"
  },
  {
    "label": "101_01_c",
    "attribute": "0x00000000",
    "text": "Mitbewohner!"
  },
  {
    "label": "101_01_d",
    "attribute": "0x00000000",
    "text": "Hat sich erledigt."
  },
  {
    "label": "101_a",
    "attribute": "0x00000000",
    "text": "Wie geht's denn so?"
  },
  {
    "label": "101_b",
    "attribute": "0x00000000",
    "text": "Was macht dein Haus?"
  },
  {
    "label": "101_c",
    "attribute": "0x00000000",
    "text": "Ich gehe wieder."
  },
  {
    "label": "101_d",
    "attribute": "0x00000000",
    "text": "Wollte nur Hallo sagen!"
  },
  {
    "label": "102_01",
    "attribute": "0x02000000",
    "text": "{{anim id=\"Shocked\" target=\"actor\" targetSpec=\"\"}}Mein Ferienhaus willste umbauen?{{delay frames=\"40\"}}{{anim id=\"FaintSmile\" target=\"actor\" targetSpec=\"\"}}\nLeinen los, {{delay8}}sag ich da nur!{{delay frames=\"40\"}}\n{{anim id=\"Grin\" target=\"actor\" targetSpec=\"\"}}Und DU übernimmst das Steuerrad!"
  },
  {
    "label": "102_01_a",
    "attribute": "0x00000000",
    "text": "Überlass alles mir!"
  },
  {
    "label": "102_01_b",
    "attribute": "0x00000000",
    "text": "Ach, lassen wir das..."
  },
  {
    "label": "104_01",
    "attribute": "0x00000000",
    "text": "{{anim id=\"Smiling\" target=\"actor\" targetSpec=\"\"}}Aye,{{delay8}} aye,{{delay8}} dann mach deinem guten\nNamen mal alle Ehre!"
  },
  {
    "label": "107",
    "attribute": "0x00000000",
    "text": "{{anim id=\"Sighing\" target=\"actor\" targetSpec=\"\"}}Aye, {{delay8}}aye{{string value=\"...\"}} {{delay20}}Aber falls du deinen Kurs\nnoch mal änderst,{{delay8}}{{anim id=\"EmotEnd\" target=\"actor\" targetSpec=\"\"}} weißte ja, {{delay8}}wo ich\nvor Anker liege."
  },
  {
    "label": "108",
    "attribute": "0x02000000",
    "text": "{{anim id=\"Surprised\" target=\"actor\" targetSpec=\"\"}}Du willst, {{delay8}}dass wir umziehen?!{{delay frames=\"40\"}}\n{{color id=\"5\"}}Taue kappen und ab dafür?!{{delay frames=\"40\"}}{{color id=\"65535\"}}\n{{anim id=\"Blushing\" target=\"actor\" targetSpec=\"\"}}Harrr{{string value=\"...\"}}{{delay8}} Klingt gar nich' übel!{{pageBreak}}{{anim id=\"Grin\" target=\"actor\" targetSpec=\"\"}}Haste schon 'ne Ahnung,{{delay8}} welchen\nKurs wir einschlagen sollen?"
  },
  {
    "label": "108_01",
    "attribute": "0x00000000",
    "text": "Du bist mir {{gender2 m=\"'n oller Bukanier\" f=\"'ne olle Piratenbraut\"}}{{string value=\"...\"}}{{delay frames=\"40\"}}\n{{anim id=\"Smiling\" target=\"actor\" targetSpec=\"\"}}Aber aye,{{delay8}} aye,{{delay8}} so machen wir's,{{delay8}}\ndu übernimmst das Ruder,{{delay8}} harrr!"
  },
  {
    "label": "108_a",
    "attribute": "0x00000000",
    "text": "Überlass alles mir!"
  },
  {
    "label": "108_b",
    "attribute": "0x00000000",
    "text": "Ach, lassen wir das..."
  },
  {
    "label": "109",
    "attribute": "0x00000000",
    "text": "{{anim id=\"Eh\" target=\"actor\" targetSpec=\"\"}}Was soll ich mit 'nem blinden\nPassagier?{{delay20}} Ich{{string value=\"...\"}}{{delay20}}{{anim id=\"Frantic\" target=\"actor\" targetSpec=\"\"}} Ich hab doch schon\ndie ganze Familie mit an Bord!{{pageBreak}}{{anim id=\"EmotEnd\" target=\"actor\" targetSpec=\"\"}}Trink du am besten erst mal 'nen\nschönen steifen Kaffee, {{delay8}}{{anim id=\"Nodding\" target=\"actor\" targetSpec=\"\"}}der dir den\nSeetang ausm Ausguck bläst!"
  },
  {
    "label": "110",
    "attribute": "0x00000000",
    "text": "{{anim id=\"Hesitate\" target=\"actor\" targetSpec=\"\"}}Wolltest nur mal Ahoi sagen,{{delay8}} jarrr?\n{{delay frames=\"40\"}}{{anim id=\"Negative\" target=\"actor\" targetSpec=\"\"}}Bloß damit krieg ich auch nich' das\nDeck geschrubbt{{string value=\"...\"}}{{delay8}}{{anim id=\"Laughing\" target=\"actor\" targetSpec=\"\"}} Harharharrr!"
  },
  {
    "label": "110_01",
    "attribute": "0x00000000",
    "text": "{{anim id=\"OhGeez\" target=\"actor\" targetSpec=\"\"}}Dir fehlt wohl 'ne steife Brise aufm\nGaffelsegel,{{delay8}} harrr{{string value=\"...\"}}"
  },
  {
    "label": "111",
    "attribute": "0x00000000",
    "text": "{{fun_0014003C arg=\"\"}}"
  },
  {
    "label": "111_01",
    "attribute": "0x00000000",
    "text": "Die Familie is' mir ja wichtiger als der\nschönste Südostpassat{{string value=\"...\"}}{{delay frames=\"40\"}}{{anim id=\"BigSmile\" target=\"actor\" targetSpec=\"\"}} Und wir\nhaben noch Platz aufm Vorderdeck!\n{{anim id=\"FaintSmile\" target=\"actor\" targetSpec=\"\"}}Funke also Bescheid, {{delay8}}wenn du adop-\ntiert werden willst{{string value=\"...\"}}{{delay8}} Da spart sich\n{{anim id=\"Laughing\" target=\"actor\" targetSpec=\"\"}}der olle Käpten außerdem die Heuer!"
  },
  {
    "label": "111_02",
    "attribute": "0x00000000",
    "text": "{{anim id=\"FaintSmile\" target=\"actor\" targetSpec=\"\"}}Harrr, {{delay8}}gibt nix Tolleres als 'n Ferien-\nhaus{{string value=\"...\"}}{{delay frames=\"40\"}}{{anim id=\"Worried\" target=\"actor\" targetSpec=\"\"}} Wenn {{color id=\"3\"}}Lotte {{color id=\"65535\"}}nur nich' immer\nSandburgen hier drin bauen würde!\n{{anim id=\"WrySmile\" target=\"actor\" targetSpec=\"\"}}Da wird der Lachs in der Pfanne\nverrückt!{{delay20}} Is' ja nich' so, als gäb's\nnich' genug Strand in der Nähe!"
  },
  {
    "label": "111_03",
    "attribute": "0x00000000",
    "text": "{{anim id=\"BigSmile\" target=\"actor\" targetSpec=\"\"}}Danke für so 'n solides Ferienhaus!{{delay frames=\"40\"}}\n{{anim id=\"FaintSmile\" target=\"actor\" targetSpec=\"\"}}'s Einzige, {{delay8}}was mir fehlt,{{delay8}} is' das\nolle Schwanken der Planken, {{delay8}}harrr."
  },
  {
    "label": "111_04",
    "attribute": "0x00000000",
    "text": "{{anim id=\"BigSmile\" target=\"actor\" targetSpec=\"\"}}Mein Ferienhaus kann's mit der\nschicksten Kajüte aufnehmen!{{delay20}}\nSogar der Fischgeruch is' da{{string value=\"...\"}}{{pageBreak}}{{anim id=\"EmotEnd\" target=\"actor\" targetSpec=\"\"}}Moment mal{{string value=\"...\"}}{{delay frames=\"40\"}}{{anim id=\"Blushing\" target=\"actor\" targetSpec=\"\"}} Wann gab's bei dir\nzum letzten Mal was ausm Meer?"
  },
  {
    "label": "119",
    "attribute": "0x00000000",
    "text": "{{fun_0014003C arg=\"\"}}"
  },
  {
    "label": "119_01",
    "attribute": "0x00000000",
    "text": "{{anim id=\"Grin\" target=\"actor\" targetSpec=\"\"}}Haste schon von meiner ganz\ngeheimen Kampfkunst der Meere\ngehört{{string value=\"...\"}}{{delay8}}{{anim id=\"Eh\" target=\"actor\" targetSpec=\"\"}} PI-{{delay8}}RA-{{delay8}}TE!{{pageBreak}}{{anim id=\"WrySmile\" target=\"actor\" targetSpec=\"\"}}Is' wie Karate, {{delay8}}aber nur aufm Schiff{{string value=\"...\"}}{{delay8}}\noder Boot.{{delay20}}{{anim id=\"Frantic\" target=\"actor\" targetSpec=\"\"}} {{color id=\"3\"}}Lore{{color id=\"65535\"}} sagt, {{delay8}}ich soll's nich'\nweitersagen, {{delay8}}also behalt's ja für dich!"
  },
  {
    "label": "119_02",
    "attribute": "0x00000000",
    "text": "{{anim id=\"Eh\" target=\"actor\" targetSpec=\"\"}}Uff!{{delay20}} Arrr{{string value=\"...\"}} Hab gerade gerülpst.{{delay frames=\"40\"}}{{anim id=\"Laughing\" target=\"actor\" targetSpec=\"\"}}\nAber wir sind draußen in der freien\nNatur, {{delay8}}da kann's uns Seeigel sein!"
  },
  {
    "label": "119_03",
    "attribute": "0x00000000",
    "text": "{{anim id=\"SmugFace\" target=\"actor\" targetSpec=\"\"}}Dank der frischen Luft hier fühlen\nsich meine Stimmbänder an wie 'n\nSchiff auf Jungfernfahrt, {{delay8}}harrr!{{pageBreak}}{{anim id=\"WrySmile\" target=\"actor\" targetSpec=\"\"}}Aber immer, {{delay8}}wenn ich 'n Shanty\nanstimm,{{delay8}} hält sich {{color id=\"3\"}}Lotte{{color id=\"65535\"}} die Flossen\nvors Gehör!{{pageBreak}}{{anim id=\"Laughing\" target=\"actor\" targetSpec=\"\"}}Was soll's,{{delay8}} als ausgewachsene\nSeegurke wird sie mein Windjammern\nschon zu schätzen wissen,{{delay8}} harharrr!"
  },
  {
    "label": "119_04",
    "attribute": "0x00000000",
    "text": "{{anim id=\"Nodding\" target=\"actor\" targetSpec=\"\"}}So 'n Ferienhaus hat was von 'ner\nSardinenbüchse{{string value=\"...\"}}{{delay20}}{{anim id=\"ShyBoy\" target=\"actor\" targetSpec=\"\"}} aber trotzdem\nverstehn wir uns wie die Guppys!{{pageBreak}}{{color id=\"3\"}}{{anim id=\"EmotEnd\" target=\"actor\" targetSpec=\"\"}}Lotte {{color id=\"65535\"}}und {{color id=\"3\"}}Lore {{color id=\"65535\"}}haben Spaß. Und\nauch Mutter{{string value=\"...\"}}{{delay frames=\"40\"}}{{anim id=\"Laughing\" target=\"actor\" targetSpec=\"\"}} fühlt sich hier wohl wie 'ne Garnele!"
  },
  {
    "label": "124",
    "attribute": "0x00000000",
    "text": "{{anim id=\"Clapping\" target=\"actor\" targetSpec=\"\"}}Ahoi, {{delay8}}ahoi!{{delay frames=\"40\"}} Ich hatt ja schon die eine\noder andre geniale Kajüte, {{delay8}}aber das\nhier is' echt 'n kapitaler Barsch!"
  },
  {
    "label": "124_01",
    "attribute": "0x00000000",
    "text": "{{anim id=\"Nodding\" target=\"actor\" targetSpec=\"\"}}Käpten und Co. wieder mal am Ziel\nihrer Träume!{{delay frames=\"40\"}}{{anim id=\"Laughing\" target=\"actor\" targetSpec=\"\"}} Und wieder mal mit\n{{string value=\"PlayerName\"}} als {{gender2 m=\"Steuermann\" f=\"Steuerfrau\"}}!"
  },
  {
    "label": "129_06",
    "attribute": "0x00000000",
    "text": "{{anim id=\"Clapping\" target=\"actor\" targetSpec=\"\"}}Jarrr, {{delay8}}saubere Arbeit!{{delay frames=\"40\"}} Hatte schon\nAngst,{{delay8}} dass es zu landrattig wird,{{delay8}}\naber das haste prima hingekriegt!"
  },
  {
    "label": "129_07",
    "attribute": "0x00000000",
    "text": "{{anim id=\"FaintSmile\" target=\"actor\" targetSpec=\"\"}}Dann wünsch ich dir auch weiterhin\nimmer 'ne Handbreit Wasser unterm\nKiel,{{delay8}} {{gender2 m=\"du toller\" f=\"du flotte\"}} {{gender2 m=\"Hecht\" f=\"Forelle\"}}, {{delay8}}du!"
  },
  {
    "label": "148",
    "attribute": "0x00000000",
    "text": "{{anim id=\"Nodding\" target=\"actor\" targetSpec=\"\"}}Aye,{{delay8}} aye, {{delay8}}du {{gender2 m=\"Leichtmatrose\" f=\"Leichtmatrosin\"}}.{{anim id=\"Greeting\" target=\"actor\" targetSpec=\"\"}}\nMast- und Schotbruch{{string value=\"...\"}}{{delay8}} und ahoi!"
  }
]