﻿[
  {
    "label": "001",
    "attribute": "0x00000000",
    "text": "Parfait, la gratte est accordée, mes\npattes sont au taquet... Voici\n{{anim id=\"EmotEnd\" target=\"actor\" targetSpec=\"\"}}{{i10_5}}{{fun_0000007D arg=\"0x0000\"}}{{endTag}}.{{i10_7 arg=\"180\"}}"
  },
  {
    "label": "002",
    "attribute": "0x00000000",
    "text": "{{capitalizeNextLetter}}{{selection value=\"SelectedName\"}}, celui-ci est pour toi et tous ceux qui aiment le bon son : {{color id=\"1\"}}{{delay frames=\"60\"}}{{anim id=\"EmotEnd\" target=\"actor\" targetSpec=\"\"}}{{i10_5}}{{fun_0009008C arg=\"0x00CD\"}}{{endTag}} {{color id=\"65535\"}}!{{i10_7 arg=\"180\"}}"
  },
  {
    "label": "003",
    "attribute": "0x00000000",
    "text": "{{snpcAnim id=\"TkkNodding\" target=\"actor\" targetSpec=\"\"}}Cool. {{delay20}}Merci. {{delay20}}Ce morceau a tracé sa\nroute jusque dans vos cœurs, on\ndirait. Un aller simple sans escale.\n{{anim id=\"EmotEnd\" target=\"actor\" targetSpec=\"\"}}En fait, le titre qu'on m'a demandé\nme disait rien.{{snpcAnim id=\"TkkNodding\" target=\"actor\" targetSpec=\"\"}} Alors j'ai joué ce qui\nm'est venu, sans me démonter.{{i10_7 arg=\"180\"}}"
  },
  {
    "label": "004",
    "attribute": "0x00000000",
    "text": "{{snpcAnim id=\"TkkNodding\" target=\"actor\" targetSpec=\"\"}}Très bien, on enchaîne avec un\nmorceau dédié à {{selection value=\"SelectedName\"}} :\n{{anim id=\"EmotEnd\" target=\"actor\" targetSpec=\"\"}}{{i10_5}}{{fun_0000007D arg=\"0x0000\"}}{{endTag}}.{{i10_7 arg=\"180\"}}"
  },
  {
    "label": "005",
    "attribute": "0x00000000",
    "text": "{{snpcAnim id=\"TkkQuestionMark\" target=\"actor\" targetSpec=\"\"}}Mal luné{{gender8 m=\"\" f=\"e\" n=\"\"}}, {{selection value=\"SelectedName\"}} ? {{delay frames=\"40\"}}{{anim id=\"EmotEnd\" target=\"actor\" targetSpec=\"\"}}Voici de quoi éclipser tes idées noires :\n{{i10_5}}{{fun_0000007D arg=\"0x0000\"}}{{endTag}}.{{i10_7 arg=\"180\"}}"
  },
  {
    "label": "006",
    "attribute": "0x00000000",
    "text": "{{snpcAnim id=\"TkkNodding\" target=\"actor\" targetSpec=\"\"}}OK, voici un morceau en farniente\nmajeur pour se détendre les oreilles :\n{{i10_5}}{{fun_0000007D arg=\"0x0000\"}}{{endTag}}.{{i10_7 arg=\"180\"}}"
  },
  {
    "label": "007",
    "attribute": "0x00000000",
    "text": "OK. {{delay20}}{{snpcAnim id=\"TkkNodding\" target=\"actor\" targetSpec=\"\"}}Voici de quoi dire adieu au blues,\nà la lose et à l'humeur de bouse :\n{{anim id=\"EmotEnd\" target=\"actor\" targetSpec=\"\"}}{{i10_5}}{{fun_0000007D arg=\"0x0000\"}}{{endTag}} !{{i10_7 arg=\"180\"}}"
  },
  {
    "label": "008",
    "attribute": "0x00000000",
    "text": "{{snpcAnim id=\"TkkNodding\" target=\"actor\" targetSpec=\"\"}}OK, {{selection value=\"SelectedName\"}}. Si t'as pas de mots, laissons les notes faire le boulot : {{i10_5}}{{fun_0000007D arg=\"0x0000\"}}{{endTag}}.{{i10_7 arg=\"180\"}}"
  },
  {
    "label": "009",
    "attribute": "0x00000000",
    "text": "{{capitalizeNextLetter}}{{string value=\"16\"}}, ce morceau est pour ton anniv. {{delay20}}C'est mon cadeau perso : {{i10_5}}{{fun_0000007D arg=\"0x0000\"}}{{endTag}}.{{i10_7 arg=\"180\"}}"
  },
  {
    "label": "011",
    "attribute": "0x00000000",
    "text": "{{snpcAnim id=\"TkkNodding\" target=\"actor\" targetSpec=\"\"}}OK, on largue les amarres et on met\nle cap sur le groove {{anim id=\"EmotEnd\" target=\"actor\" targetSpec=\"\"}}avec ce morceau\nchoisi spécialement pour toi.{{i10_7 arg=\"180\"}}"
  },
  {
    "label": "012",
    "attribute": "0x00000000",
    "text": "La chanson d'anniv sera en avance,\nmais mes pattes respecteront le\ntempo, t'inquiète. {{delay20}}C'est parti{{string value=\"...\"}}"
  },
  {
    "label": "013",
    "attribute": "0x00000000",
    "text": "Il est jamais trop tard pour fêter\nun anniversaire, alors{{string value=\"...\"}}"
  },
  {
    "label": "014",
    "attribute": "0x00000000",
    "text": "Aujourd'hui, j'ai un nouveau morceau pour toi."
  },
  {
    "label": "015",
    "attribute": "0x00000000",
    "text": "Merci à mon merveilleux public.\nL'accord le plus parfait du concert,\nc'est celui que j'ai senti avec vous.{{i10_7 arg=\"180\"}}"
  },
  {
    "label": "016",
    "attribute": "0x00000000",
    "text": "C'était que du bonheur. Merci d'avoir\nrépondu présent.{{i10_7 arg=\"180\"}} "
  },
  {
    "label": "017",
    "attribute": "0x00000000",
    "text": "{{snpcAnim id=\"TkkNodding\" target=\"actor\" targetSpec=\"\"}}La zic, ça se partage. {{delay20}}Gratis. {{delay frames=\"40\"}}{{anim id=\"EmotEnd\" target=\"actor\" targetSpec=\"\"}}Fouille\nun peu dans tes poches, y a une\nsurprise pour toi.{{i10_7 arg=\"180\"}}"
  },
  {
    "label": "018",
    "attribute": "0x00000000",
    "text": "{{snpcAnim id=\"TkkEh\" target=\"actor\" targetSpec=\"\"}}Merci pour l'ambiance, vous avez été\nau poil. {{delay20}}Et comme la zic, c'est pas\nune histoire de clochettes, je vais{{string value=\"...\"}}{{i10_7 arg=\"180\"}}\nAh, fausse note. {{delay20}}J'avais un morceau\npour toi, mais tes poches sont\nbourrées à craquer.{{i10_7 arg=\"180\"}}{{pageBreak}}{{snpcAnim id=\"TkkNodding\" target=\"actor\" targetSpec=\"\"}}Reviens me voir quand t'auras fait\nle ménage. On a l'esprit plus libre\nquand on a les poches vides.{{i10_7 arg=\"180\"}}"
  },
  {
    "label": "019",
    "attribute": "0x00000000",
    "text": "{{snpcAnim id=\"TkkEh\" target=\"actor\" targetSpec=\"\"}}Merci à tous ! {{i10_7 arg=\"60\"}}{{delay20}}Pour vous remercier,\nvous recevrez tous ce morceau\naccompagné d'une petite carte !{{i10_7 arg=\"180\"}}"
  },
  {
    "label": "020",
    "attribute": "0x00000000",
    "text": "{{snpcAnim id=\"TkkEh\" target=\"actor\" targetSpec=\"\"}}Profite à fond de ton anniversaire.\n{{delay20}}C'est un peu comme une nouvelle\nnaissance, {{string value=\"16\"}}.{{i10_7 arg=\"180\"}}\n{{snpcAnim id=\"TkkNodding\" target=\"actor\" targetSpec=\"\"}}Et jette un coup d'œil à ta boîte aux\nlettres, t'y trouveras peut-être bien\nun enregistrement pour fêter ça.{{i10_7 arg=\"180\"}}"
  },
  {
    "label": "021",
    "attribute": "0x00000000",
    "text": "{{snpcAnim id=\"TkkEh\" target=\"actor\" targetSpec=\"\"}}Profite à fond de ton anniversaire.\n{{delay20}}C'est un peu comme une nouvelle\nnaissance.{{i10_7 arg=\"180\"}}\n{{snpcAnim id=\"TkkNodding\" target=\"actor\" targetSpec=\"\"}}Et jette un coup d'œil dans tes\npoches, t'y trouveras peut-être bien\nun enregistrement pour fêter ça.{{i10_7 arg=\"180\"}}"
  },
  {
    "label": "022",
    "attribute": "0x00000000",
    "text": "{{snpcAnim id=\"TkkEh\" target=\"actor\" targetSpec=\"\"}}Profite à fond de ton anniversaire.\n{{delay20}}C'est un peu comme une nouvelle\nnaissance.{{i10_7 arg=\"180\"}}\n{{snpcAnim id=\"TkkNodding\" target=\"actor\" targetSpec=\"\"}}Et jette un coup d'œil à ta boîte aux\nlettres, t'y trouveras peut-être bien\nun enregistrement pour fêter ça.{{i10_7 arg=\"180\"}}"
  },
  {
    "label": "023",
    "attribute": "0x00000000",
    "text": "Voilà, c'est fini pour aujourd'hui.\nMerci à tous, je suis verni d'avoir\nun tel public.{{i10_7 arg=\"180\"}}"
  },
  {
    "label": "024",
    "attribute": "0x00000000",
    "text": "{{snpcAnim id=\"TkkEh\" target=\"actor\" targetSpec=\"\"}}Je t'enverrai tes vœux d'anniv\npar courrier après le concert.{{delay20}}{{snpcAnim id=\"TkkNodding\" target=\"actor\" targetSpec=\"\"}}\nRelis-les tant que tu voudras.{{i10_7 arg=\"180\"}}"
  },
  {
    "label": "025",
    "attribute": "0x00000000",
    "text": "{{snpcAnim id=\"TkkNodding\" target=\"actor\" targetSpec=\"\"}}Merci à toutes et à tous, vous êtes\nun public en or massif. {{delay20}}Et puisque\nla zic, ça se partage{{string value=\"...\"}}{{i10_7 arg=\"180\"}}{{pageBreak}}{{snpcAnim id=\"TkkNodding\" target=\"actor\" targetSpec=\"\"}}Je t'envoie un enregistrement du\nconcert dans ta boîte aux lettres.{{delay20}}\nBonne écoute, {{string value=\"16\"}}.{{i10_7 arg=\"180\"}}"
  },
  {
    "label": "026",
    "attribute": "0x00000000",
    "text": "{{snpcAnim id=\"TkkNodding\" target=\"actor\" targetSpec=\"\"}}Merci à toutes et à tous, vous êtes\nun public en or massif. {{delay20}}Et puisque\nla zic, ça se partage{{string value=\"...\"}}{{i10_7 arg=\"180\"}}{{pageBreak}}{{snpcAnim id=\"TkkNodding\" target=\"actor\" targetSpec=\"\"}}Jette un coup d'œil à tes poches à\nl'occase, je serais pas surpris que\nt'y trouves un enregistrement.{{i10_7 arg=\"180\"}}"
  },
  {
    "label": "027",
    "attribute": "0x00000000",
    "text": "{{snpcAnim id=\"TkkNodding\" target=\"actor\" targetSpec=\"\"}}Merci à toutes et à tous, vous êtes\nun public en or massif. {{delay20}}Et puisque\nla zic, ça se partage{{string value=\"...\"}}{{i10_7 arg=\"180\"}}{{pageBreak}}{{snpcAnim id=\"TkkNodding\" target=\"actor\" targetSpec=\"\"}}Je vais t'envoyer une petite carte\navec un enregistrement du concert.{{i10_7 arg=\"180\"}}"
  },
  {
    "label": "029",
    "attribute": "0x00000000",
    "text": "{{snpcAnim id=\"TkkNodding\" target=\"actor\" targetSpec=\"\"}}Les poteaux, vous prenez pas la tête.{{delay20}}\nChaque jour à {{string value=\"OtherIslandName\"}} doit être une fête.{{i10_7 arg=\"180\"}}"
  },
  {
    "label": "030",
    "attribute": "0x00000000",
    "text": "{{snpcAnim id=\"TkkNodding\" target=\"actor\" targetSpec=\"\"}}Au fait, ma gratte et moi, on se pose\nici toutes les semaines. {{delay20}}Hésite pas à\npasser si t'es d'humeur à groover.{{i10_7 arg=\"180\"}}"
  }
]