﻿[
  {
    "label": "001",
    "attribute": "0x00000000",
    "text": "{{anim id=\"BigSmile\" target=\"actor\" targetSpec=\"\"}}いらっしゃいませー！{{delay20}}{{anim id=\"FaintSmile\" target=\"actor\" targetSpec=\"\"}}"
  },
  {
    "label": "002_01",
    "attribute": "0x00000000",
    "text": "{{anim id=\"Smiling\" target=\"actor\" targetSpec=\"\"}}{{string value=\"...\"}}{{delay8}}{{anim id=\"Eh\" target=\"actor\" targetSpec=\"\"}}あら！{{delay40}}\nこないだ　お{{ruby charSpan=\"1\" value=\"みせ\"}}店で　{{anim id=\"QuestionMark\" target=\"actor\" targetSpec=\"\"}}すれちがった{{ruby charSpan=\"1\" value=\"ひと\"}}人よね？{{pageBreak}}{{anim id=\"Smiling\" target=\"actor\" targetSpec=\"\"}}{{ruby charSpan=\"1\" value=\"あらた\"}}改めまして{{string value=\"...\"}}{{delay8}}\nウチ、{{delay8}}{{color id=\"3\"}}きぬよ{{color id=\"65535\"}}って　{{ruby charSpan=\"1\" value=\"い\"}}言いますー！"
  },
  {
    "label": "002_02",
    "attribute": "0x00000000",
    "text": "{{anim id=\"Smiling\" target=\"actor\" targetSpec=\"\"}}あら、{{delay20}}お{{ruby charSpan=\"1\" value=\"きゃく\"}}客さんは\nこの{{ruby charSpan=\"1\" value=\"しま\"}}島に　{{anim id=\"QuestionMark\" target=\"actor\" targetSpec=\"\"}}お{{ruby charSpan=\"1\" value=\"す\"}}住まいの{{ruby charSpan=\"1\" value=\"かた\"}}方かしら？{{pageBreak}}{{anim id=\"Smiling\" target=\"actor\" targetSpec=\"\"}}ウチは　{{ruby charSpan=\"2\" value=\"ぎょうしょう\"}}行商に{{ruby charSpan=\"1\" value=\"き\"}}来ました{{delay8}}\n{{color id=\"3\"}}きぬよ{{color id=\"65535\"}}と　{{ruby charSpan=\"1\" value=\"い\"}}言いますー！"
  },
  {
    "label": "003",
    "attribute": "0x00000000",
    "text": "{{anim id=\"Nodding\" target=\"actor\" targetSpec=\"\"}}{{color id=\"3\"}}まめちゃん{{color id=\"65535\"}}や　{{color id=\"3\"}}つぶちゃん{{color id=\"65535\"}}、{{delay20}}\n{{color id=\"3\"}}たぬきち{{color id=\"65535\"}}さんとは、{{delay20}}{{ruby charSpan=\"1\" value=\"むかし\"}}昔からの{{ruby charSpan=\"1\" value=\"し\"}}知り{{ruby charSpan=\"1\" value=\"あ\"}}合いなんよ{{pageBreak}}{{anim id=\"Smiling\" target=\"actor\" targetSpec=\"\"}}{{ruby charSpan=\"2\" value=\"こんかい\"}}今回　その　ご{{ruby charSpan=\"1\" value=\"えん\"}}縁もあって、{{delay8}}\nこうして　{{string value=\"33\"}}に\n{{ruby charSpan=\"1\" value=\"ふく\"}}服やなんかを　{{ruby charSpan=\"1\" value=\"う\"}}売りに{{ruby charSpan=\"1\" value=\"こ\"}}来させてもろてます！{{pageBreak}}{{anim id=\"AbsentMindedness\" target=\"actor\" targetSpec=\"\"}}ゆくゆくは　この{{ruby charSpan=\"1\" value=\"しま\"}}島に　お{{ruby charSpan=\"1\" value=\"みせ\"}}店を{{ruby charSpan=\"1\" value=\"だ\"}}出せたら\nええなぁ　とも　{{ruby charSpan=\"1\" value=\"おも\"}}思ってるんですけど{{string value=\"...\"}}{{delay20}}\n{{anim id=\"ShyBoy\" target=\"actor\" targetSpec=\"\"}}{{delay20}}まずは　お{{ruby charSpan=\"1\" value=\"きゃく\"}}客さんを　{{ruby charSpan=\"1\" value=\"つく\"}}作らんことにはね{{delay20}}{{anim id=\"FaintSmile\" target=\"actor\" targetSpec=\"\"}}{{pageBreak}}{{anim id=\"EmotEnd\" target=\"actor\" targetSpec=\"\"}}{{ruby charSpan=\"3\" value=\"ふていき\"}}不定期では　ありますけど{{delay8}}\n{{anim id=\"Nodding\" target=\"actor\" targetSpec=\"\"}}{{ruby charSpan=\"1\" value=\"しゅう\"}}週に{{ruby charSpan=\"2\" value=\"なんど\"}}何度か　{{ruby charSpan=\"1\" value=\"よ\"}}寄らせてもらいますんで{{delay20}}\n{{anim id=\"Smiling\" target=\"actor\" targetSpec=\"\"}}{{ruby charSpan=\"2\" value=\"こんご\"}}今後とも　よろしくお{{ruby charSpan=\"1\" value=\"ねが\"}}願いしますねー！"
  },
  {
    "label": "004",
    "attribute": "0x02000000",
    "text": "{{anim id=\"IdeaBulb\" target=\"actor\" targetSpec=\"\"}}{{delay8}}せや！{{delay frames=\"50\"}}\n{{anim id=\"EmotEnd\" target=\"actor\" targetSpec=\"\"}}せっかくやし、{{delay8}}{{ruby charSpan=\"1\" value=\"よ\"}}良かったら{{delay20}}\n{{anim id=\"Smiling\" target=\"actor\" targetSpec=\"\"}}{{ruby charSpan=\"2\" value=\"きょう\"}}今日の{{ruby charSpan=\"2\" value=\"しょうひん\"}}商品を　{{ruby charSpan=\"1\" value=\"み\"}}見てってもらえませんか？"
  },
  {
    "label": "004_a",
    "attribute": "0x00000000",
    "text": "{{ruby charSpan=\"1\" value=\"み\"}}見ます！"
  },
  {
    "label": "004_b",
    "attribute": "0x00000000",
    "text": "またにします"
  },
  {
    "label": "005_01",
    "attribute": "0x00000000",
    "text": "{{anim id=\"Shocked\" target=\"actor\" targetSpec=\"\"}}あら、{{delay frames=\"30\"}}{{anim id=\"Worried\" target=\"actor\" targetSpec=\"\"}}お{{ruby charSpan=\"1\" value=\"いそが\"}}忙しいところを\nお{{ruby charSpan=\"2\" value=\"ひきと\"}}引止めしたみたいで　{{delay8}}{{anim id=\"EmotEnd\" target=\"actor\" targetSpec=\"\"}}ごめんなさいね"
  },
  {
    "label": "005_02",
    "attribute": "0x00000000",
    "text": "{{ruby charSpan=\"1\" value=\"あきな\"}}商いに{{ruby charSpan=\"1\" value=\"く\"}}来る{{ruby charSpan=\"1\" value=\"ひ\"}}日は{{delay20}}　{{anim id=\"Explain\" target=\"actor\" targetSpec=\"\"}}{{ruby charSpan=\"1\" value=\"あさ\"}}朝いちばんから{{ruby charSpan=\"1\" value=\"き\"}}来て{{delay8}}\n{{ruby charSpan=\"1\" value=\"よる\"}}夜も10{{ruby charSpan=\"2\" value=\"じごろ\"}}時頃までは　がんばるつもりなんで、{{delay frames=\"30\"}}\n{{anim id=\"Greeting\" target=\"actor\" targetSpec=\"\"}}{{ruby charSpan=\"2\" value=\"こんご\"}}今後とも　ごひいきにー！"
  },
  {
    "label": "006",
    "attribute": "0x00000000",
    "text": "{{anim id=\"BigSmile\" target=\"actor\" targetSpec=\"\"}}{{delay8}}おおきに！{{delay40}}\n{{anim id=\"Smiling\" target=\"actor\" targetSpec=\"\"}}ほな　{{ruby charSpan=\"2\" value=\"きょう\"}}今日の{{ruby charSpan=\"2\" value=\"しょうひん\"}}商品は　こちらになりますー！{{anim id=\"EmotEnd\" target=\"actor\" targetSpec=\"\"}}"
  },
  {
    "label": "007",
    "attribute": "0x00000000",
    "text": "{{anim id=\"Hello\" target=\"actor\" targetSpec=\"\"}}いかがでしたか？{{i10_4}}\n{{anim id=\"Nodding\" target=\"actor\" targetSpec=\"\"}}{{ruby charSpan=\"2\" value=\"まいかい\"}}毎回、{{delay8}}なるべく　{{ruby charSpan=\"1\" value=\"ちが\"}}違う{{ruby charSpan=\"2\" value=\"しょうひん\"}}商品を\n{{ruby charSpan=\"1\" value=\"も\"}}持って{{ruby charSpan=\"1\" value=\"く\"}}来るつもりやし、{{delay frames=\"30\"}}{{anim id=\"Smiling\" target=\"actor\" targetSpec=\"\"}}また{{ruby charSpan=\"1\" value=\"き\"}}来てちょうだいね"
  },
  {
    "label": "101_01",
    "attribute": "0x00000000",
    "text": "{{anim id=\"Smiling\" target=\"actor\" targetSpec=\"\"}}あら　{{string value=\"PlayerName\"}}さん、{{delay20}}\nおはようさんですー！{{delay40}}\n{{anim id=\"Greeting\" target=\"actor\" targetSpec=\"\"}}{{delay8}}また　{{ruby charSpan=\"1\" value=\"よ\"}}寄らせてもろてます！"
  },
  {
    "label": "101_02",
    "attribute": "0x00000000",
    "text": "{{anim id=\"Smiling\" target=\"actor\" targetSpec=\"\"}}あら　{{string value=\"PlayerName\"}}さん、{{delay20}}\nこんにちはー！{{delay40}}\n{{anim id=\"Greeting\" target=\"actor\" targetSpec=\"\"}}{{delay8}}また　{{ruby charSpan=\"1\" value=\"よ\"}}寄らせてもろてます！"
  },
  {
    "label": "101_03",
    "attribute": "0x00000000",
    "text": "{{anim id=\"Smiling\" target=\"actor\" targetSpec=\"\"}}あら　{{string value=\"PlayerName\"}}さん、{{delay20}}\nこんばんはー！{{delay40}}\n{{anim id=\"Greeting\" target=\"actor\" targetSpec=\"\"}}{{delay8}}また　{{ruby charSpan=\"1\" value=\"よ\"}}寄らせてもろてます！"
  },
  {
    "label": "102",
    "attribute": "0x02000000",
    "text": "{{anim id=\"Smiling\" target=\"actor\" targetSpec=\"\"}}{{ruby charSpan=\"2\" value=\"きょう\"}}今日は　どないしましょう？"
  },
  {
    "label": "102_a",
    "attribute": "0x00000000",
    "text": "{{ruby charSpan=\"1\" value=\"う\"}}売り{{ruby charSpan=\"1\" value=\"もの\"}}物を{{ruby charSpan=\"1\" value=\"み\"}}見せて！"
  },
  {
    "label": "102_b",
    "attribute": "0x00000000",
    "text": "{{ruby charSpan=\"1\" value=\"こえ\"}}声をかけただけ"
  },
  {
    "label": "103",
    "attribute": "0x00000000",
    "text": "{{anim id=\"BigSmile\" target=\"actor\" targetSpec=\"\"}}まぁ、{{delay20}}わざわざ　おおきに！{{delay40}}\n{{anim id=\"EmotEnd\" target=\"actor\" targetSpec=\"\"}}また　ご{{ruby charSpan=\"2\" value=\"いりよう\"}}入用のものがあったら{{delay20}}\n{{anim id=\"Smiling\" target=\"actor\" targetSpec=\"\"}}{{ruby charSpan=\"1\" value=\"こえ\"}}声をかけてくださいねー！"
  },
  {
    "label": "104",
    "attribute": "0x00000000",
    "text": "{{anim id=\"Smiling\" target=\"actor\" targetSpec=\"\"}}はいはい！{{delay40}}\nほな　{{ruby charSpan=\"2\" value=\"きょう\"}}今日の{{ruby charSpan=\"2\" value=\"しょうひん\"}}商品は　こちらになりますー！{{anim id=\"EmotEnd\" target=\"actor\" targetSpec=\"\"}}"
  },
  {
    "label": "105_01",
    "attribute": "0x02000000",
    "text": "{{anim id=\"Eh\" target=\"actor\" targetSpec=\"\"}}{{delay8}}あら、{{string value=\"PlayerName\"}}さん{{delay40}}\n{{anim id=\"FaintSmile\" target=\"actor\" targetSpec=\"\"}}{{ruby charSpan=\"1\" value=\"なに\"}}何か　{{ruby charSpan=\"1\" value=\"か\"}}買い{{ruby charSpan=\"1\" value=\"わす\"}}忘れでもあったかしら？"
  },
  {
    "label": "105_01_a",
    "attribute": "0x00000000",
    "text": "{{ruby charSpan=\"1\" value=\"う\"}}売り{{ruby charSpan=\"1\" value=\"もの\"}}物を{{ruby charSpan=\"1\" value=\"み\"}}見せて！"
  },
  {
    "label": "105_01_b",
    "attribute": "0x00000000",
    "text": "{{ruby charSpan=\"1\" value=\"こえ\"}}声をかけただけ"
  },
  {
    "label": "105_02",
    "attribute": "0x02000000",
    "text": "{{anim id=\"Eh\" target=\"actor\" targetSpec=\"\"}}あら、{{string value=\"PlayerName\"}}さん{{delay40}}\n{{anim id=\"FaintSmile\" target=\"actor\" targetSpec=\"\"}}どないしました？"
  },
  {
    "label": "105_02_a",
    "attribute": "0x00000000",
    "text": "{{ruby charSpan=\"1\" value=\"う\"}}売り{{ruby charSpan=\"1\" value=\"もの\"}}物を{{ruby charSpan=\"1\" value=\"み\"}}見せて！"
  },
  {
    "label": "105_02_b",
    "attribute": "0x00000000",
    "text": "{{ruby charSpan=\"1\" value=\"こえ\"}}声をかけただけ"
  },
  {
    "label": "106",
    "attribute": "0x04000000",
    "text": "{{anim id=\"Smiling\" target=\"actor\" targetSpec=\"\"}}{{ruby charSpan=\"2\" value=\"きょう\"}}今日は　どないしましょう？"
  },
  {
    "label": "106_a",
    "attribute": "0x00000000",
    "text": "{{ruby charSpan=\"1\" value=\"う\"}}売り{{ruby charSpan=\"1\" value=\"もの\"}}物を{{ruby charSpan=\"1\" value=\"み\"}}見せて！"
  },
  {
    "label": "106_b",
    "attribute": "0x00000000",
    "text": "お{{ruby charSpan=\"1\" value=\"みせ\"}}店の{{ruby charSpan=\"2\" value=\"ばしょ\"}}場所のこと"
  },
  {
    "label": "106_c",
    "attribute": "0x00000000",
    "text": "{{ruby charSpan=\"1\" value=\"こえ\"}}声をかけただけ"
  },
  {
    "label": "107",
    "attribute": "0x04000000",
    "text": "{{anim id=\"Eh\" target=\"actor\" targetSpec=\"\"}}{{delay8}}あら、{{string value=\"PlayerName\"}}さん{{delay40}}\n{{anim id=\"FaintSmile\" target=\"actor\" targetSpec=\"\"}}{{ruby charSpan=\"1\" value=\"なに\"}}何か　{{ruby charSpan=\"1\" value=\"か\"}}買い{{ruby charSpan=\"1\" value=\"わす\"}}忘れでもあったかしら？"
  },
  {
    "label": "107_a",
    "attribute": "0x00000000",
    "text": "{{ruby charSpan=\"1\" value=\"う\"}}売り{{ruby charSpan=\"1\" value=\"もの\"}}物を{{ruby charSpan=\"1\" value=\"み\"}}見せて！"
  },
  {
    "label": "107_b",
    "attribute": "0x00000000",
    "text": "お{{ruby charSpan=\"1\" value=\"みせ\"}}店の{{ruby charSpan=\"2\" value=\"ばしょ\"}}場所のこと"
  },
  {
    "label": "107_c",
    "attribute": "0x00000000",
    "text": "{{ruby charSpan=\"1\" value=\"こえ\"}}声をかけただけ"
  },
  {
    "label": "108",
    "attribute": "0x04000000",
    "text": "{{anim id=\"Eh\" target=\"actor\" targetSpec=\"\"}}あら、{{string value=\"PlayerName\"}}さん{{delay40}}\n{{anim id=\"FaintSmile\" target=\"actor\" targetSpec=\"\"}}どないしました？"
  },
  {
    "label": "108_a",
    "attribute": "0x00000000",
    "text": "{{ruby charSpan=\"1\" value=\"う\"}}売り{{ruby charSpan=\"1\" value=\"もの\"}}物を{{ruby charSpan=\"1\" value=\"み\"}}見せて！"
  },
  {
    "label": "108_b",
    "attribute": "0x00000000",
    "text": "お{{ruby charSpan=\"1\" value=\"みせ\"}}店の{{ruby charSpan=\"2\" value=\"ばしょ\"}}場所のこと"
  },
  {
    "label": "108_c",
    "attribute": "0x00000000",
    "text": "{{ruby charSpan=\"1\" value=\"こえ\"}}声をかけただけ"
  },
  {
    "label": "111",
    "attribute": "0x02000000",
    "text": "{{fun_0000007D arg=\"0x0000\"}}は{{delay8}}\n{{number value=\"BuyPrice\" index=\"0\"}}ですけど、{{delay20}}\n{{anim id=\"QuestionMark\" target=\"actor\" targetSpec=\"\"}}いかがいたしましょ？"
  },
  {
    "label": "111_a",
    "attribute": "0x00000000",
    "text": "{{ruby charSpan=\"1\" value=\"か\"}}買っちゃう！"
  },
  {
    "label": "111_b",
    "attribute": "0x00000000",
    "text": "やめとく"
  },
  {
    "label": "112",
    "attribute": "0x00000000",
    "text": "{{anim id=\"Smiling\" target=\"actor\" targetSpec=\"\"}}ほな、{{delay8}}{{ruby charSpan=\"1\" value=\"ほか\"}}他のものは　いかがかしら？{{anim id=\"EmotEnd\" target=\"actor\" targetSpec=\"\"}}"
  },
  {
    "label": "113_01",
    "attribute": "0x00000000",
    "text": "{{anim id=\"Worried\" target=\"actor\" targetSpec=\"\"}}あらら、{{delay8}}どうしましょ{{delay20}}\nそれを{{ruby charSpan=\"1\" value=\"か\"}}買ってもらうには{{delay8}}\n{{anim id=\"Negative\" target=\"actor\" targetSpec=\"\"}}お{{ruby charSpan=\"1\" value=\"かね\"}}金が　{{ruby charSpan=\"1\" value=\"た\"}}足りないみたい{{string value=\"...\"}}"
  },
  {
    "label": "113_02",
    "attribute": "0x00000000",
    "text": "{{anim id=\"Hello\" target=\"actor\" targetSpec=\"\"}}かわりに　{{ruby charSpan=\"1\" value=\"ほか\"}}他のものを{{ruby charSpan=\"1\" value=\"さが\"}}探します？"
  },
  {
    "label": "114_01",
    "attribute": "0x00000000",
    "text": "{{anim id=\"Smiling\" target=\"actor\" targetSpec=\"\"}}はいはーい！"
  },
  {
    "label": "114_02",
    "attribute": "0x00000000",
    "text": "{{anim id=\"Smiling\" target=\"actor\" targetSpec=\"\"}}おおきにー！"
  },
  {
    "label": "115",
    "attribute": "0x00000000",
    "text": "{{anim id=\"Smiling\" target=\"actor\" targetSpec=\"\"}}{{ruby charSpan=\"1\" value=\"ほか\"}}他にも　{{ruby charSpan=\"1\" value=\"なに\"}}何か　{{ruby charSpan=\"1\" value=\"み\"}}見ていきます？{{anim id=\"EmotEnd\" target=\"actor\" targetSpec=\"\"}}"
  },
  {
    "label": "116_01",
    "attribute": "0x00000000",
    "text": "{{anim id=\"Smiling\" target=\"actor\" targetSpec=\"\"}}おおきに！{{delay20}}\nまた　{{ruby charSpan=\"1\" value=\"き\"}}来てくださいねー！"
  },
  {
    "label": "116_02",
    "attribute": "0x00000000",
    "text": "{{anim id=\"Eh\" target=\"actor\" targetSpec=\"\"}}お{{ruby charSpan=\"1\" value=\"き\"}}気に{{ruby charSpan=\"1\" value=\"め\"}}召すものが　なかったかしら？{{delay40}}\n{{anim id=\"Smiling\" target=\"actor\" targetSpec=\"\"}}{{ruby charSpan=\"2\" value=\"こんど\"}}今度はまた　{{ruby charSpan=\"1\" value=\"ちが\"}}違うものを{{ruby charSpan=\"1\" value=\"も\"}}持ってくるので、{{delay8}}\n{{ruby charSpan=\"1\" value=\"つぎ\"}}次も　{{ruby charSpan=\"1\" value=\"み\"}}見に{{ruby charSpan=\"1\" value=\"き\"}}来てくださいねー！"
  },
  {
    "label": "151",
    "attribute": "0x02000000",
    "text": "{{anim id=\"Smiling\" target=\"actor\" targetSpec=\"\"}}いらっしゃいませ！{{delay40}}\n{{ruby charSpan=\"1\" value=\"ふく\"}}服や　アクセサリーなど\nファッション{{ruby charSpan=\"2\" value=\"ようひん\"}}用品は　いかがですか？"
  },
  {
    "label": "151_a",
    "attribute": "0x00000000",
    "text": "{{ruby charSpan=\"1\" value=\"う\"}}売り{{ruby charSpan=\"1\" value=\"もの\"}}物を{{ruby charSpan=\"1\" value=\"み\"}}見せて！"
  },
  {
    "label": "151_b",
    "attribute": "0x00000000",
    "text": "またにします"
  },
  {
    "label": "152",
    "attribute": "0x00000000",
    "text": "{{anim id=\"Smiling\" target=\"actor\" targetSpec=\"\"}}はいはーい！{{delay20}}\nまたいつでも　{{ruby charSpan=\"1\" value=\"み\"}}見に{{ruby charSpan=\"1\" value=\"き\"}}来てくださいねー！"
  },
  {
    "label": "153",
    "attribute": "0x02000000",
    "text": "{{anim id=\"Smiling\" target=\"actor\" targetSpec=\"\"}}また　お{{ruby charSpan=\"1\" value=\"こえ\"}}声がけ　ありがとうございますー！{{delay40}}\n{{ruby charSpan=\"2\" value=\"しょうひん\"}}商品、{{delay20}}{{anim id=\"QuestionMark\" target=\"actor\" targetSpec=\"\"}}{{ruby charSpan=\"1\" value=\"み\"}}見ていかれますか？"
  },
  {
    "label": "153_a",
    "attribute": "0x00000000",
    "text": "{{ruby charSpan=\"1\" value=\"う\"}}売り{{ruby charSpan=\"1\" value=\"もの\"}}物を{{ruby charSpan=\"1\" value=\"み\"}}見せて！"
  },
  {
    "label": "153_b",
    "attribute": "0x00000000",
    "text": "またにします"
  },
  {
    "label": "201",
    "attribute": "0x01000000",
    "text": "{{anim id=\"Shocked\" target=\"actor\" targetSpec=\"\"}}あら、{{delay20}}{{string value=\"PlayerName\"}}さん{{delay20}}\n{{anim id=\"BigSmile\" target=\"actor\" targetSpec=\"\"}}ちょうどエエところに！{{pageBreak}}{{anim id=\"Smiling\" target=\"actor\" targetSpec=\"\"}}{{ruby charSpan=\"2\" value=\"きょう\"}}今日は　{{string value=\"PlayerName\"}}さんに、\n{{ruby charSpan=\"2\" value=\"そうだん\"}}相談ごとが　あるんですけど{{string value=\"...\"}}{{delay frames=\"30\"}}\n{{anim id=\"QuestionMark\" target=\"actor\" targetSpec=\"\"}}{{ruby charSpan=\"1\" value=\"すこ\"}}少し　お{{ruby charSpan=\"1\" value=\"はなし\"}}話させてもらっても　エエかしら？"
  },
  {
    "label": "201_a",
    "attribute": "0x00000000",
    "text": "なんでしょう？"
  },
  {
    "label": "201_b",
    "attribute": "0x00000000",
    "text": "エエよ！"
  },
  {
    "label": "202",
    "attribute": "0x00000000",
    "text": "{{anim id=\"BigSmile\" target=\"actor\" targetSpec=\"\"}}ありがとうございます！{{delay frames=\"40\"}}\n{{anim id=\"EmotEnd\" target=\"actor\" targetSpec=\"\"}}{{ruby charSpan=\"2\" value=\"そうだん\"}}相談っていうのは、{{delay8}}ウチらが{{ruby charSpan=\"1\" value=\"だ\"}}出そうと{{ruby charSpan=\"1\" value=\"おも\"}}思ってる{{delay8}}\n{{anim id=\"Smiling\" target=\"actor\" targetSpec=\"\"}}お{{ruby charSpan=\"1\" value=\"みせ\"}}店の{{ruby charSpan=\"2\" value=\"ばしょ\"}}場所のことなんです"
  },
  {
    "label": "203",
    "attribute": "0x00000000",
    "text": "{{anim id=\"Smiling\" target=\"actor\" targetSpec=\"\"}}おかげさまで{{delay8}}　ウチが　{{ruby charSpan=\"2\" value=\"ぎょうしょう\"}}行商に{{ruby charSpan=\"1\" value=\"く\"}}来るのを\n{{ruby charSpan=\"1\" value=\"たの\"}}楽しみに{{ruby charSpan=\"1\" value=\"ま\"}}待ってくれてる　お{{ruby charSpan=\"1\" value=\"きゃく\"}}客さんが、{{delay20}}\n{{anim id=\"HappyDance\" target=\"actor\" targetSpec=\"\"}}だいぶ　{{ruby charSpan=\"1\" value=\"ふ\"}}増えてきたんですよ\n{{anim id=\"EmotEnd\" target=\"actor\" targetSpec=\"\"}}それで、{{delay20}}{{anim id=\"Smiling\" target=\"actor\" targetSpec=\"\"}}そろそろ{{ruby charSpan=\"3\" value=\"ほんかくてき\"}}本格的に　お{{ruby charSpan=\"1\" value=\"みせ\"}}店を{{ruby charSpan=\"1\" value=\"かま\"}}構えよか？{{delay frames=\"40\"}}\nって、{{delay20}}{{anim id=\"Nodding\" target=\"actor\" targetSpec=\"\"}}おねーちゃんとも　{{ruby charSpan=\"1\" value=\"はな\"}}話してたんです"
  },
  {
    "label": "204",
    "attribute": "0x00000000",
    "text": "{{anim id=\"Smiling\" target=\"actor\" targetSpec=\"\"}}それで、{{ruby charSpan=\"2\" value=\"きょう\"}}今日はとりあえず{{delay20}}\n{{color id=\"3\"}}{{anim id=\"Explain\" target=\"actor\" targetSpec=\"\"}}たぬきち{{color id=\"65535\"}}さんに　{{ruby charSpan=\"2\" value=\"そうだん\"}}相談してみようと{{ruby charSpan=\"1\" value=\"おも\"}}思って、{{delay frames=\"30\"}}\nさっき　{{ruby charSpan=\"1\" value=\"あ\"}}会ってきたんですけど{{anim id=\"EmotEnd\" target=\"actor\" targetSpec=\"\"}}{{string value=\"...\"}}"
  },
  {
    "label": "205",
    "attribute": "0x00000000",
    "text": "{{anim id=\"Thinking\" target=\"actor\" targetSpec=\"\"}}なんでも、{{delay20}}{{color id=\"1\"}}タヌキ{{ruby charSpan=\"2\" value=\"しょうてん\"}}商店{{color id=\"65535\"}}を　{{ruby charSpan=\"1\" value=\"つく\"}}作ったときの{{ruby charSpan=\"2\" value=\"しざい\"}}資材が\n{{ruby charSpan=\"1\" value=\"おも\"}}思ったより{{ruby charSpan=\"1\" value=\"あま\"}}余っていて、{{delay frames=\"30\"}}{{anim id=\"Explain\" target=\"actor\" targetSpec=\"\"}}{{ruby charSpan=\"2\" value=\"ばしょ\"}}場所さえ{{ruby charSpan=\"1\" value=\"き\"}}決まれば{{delay20}}\nすぐにでも　{{ruby charSpan=\"2\" value=\"こうじ\"}}工事に{{ruby charSpan=\"1\" value=\"はい\"}}入れるとかで{{string value=\"...\"}}{{pageBreak}}{{anim id=\"Nodding\" target=\"actor\" targetSpec=\"\"}}お{{ruby charSpan=\"1\" value=\"みせ\"}}店の{{ruby charSpan=\"2\" value=\"ばしょ\"}}場所のことは{{delay20}}　{{ruby charSpan=\"1\" value=\"しま\"}}島の{{ruby charSpan=\"2\" value=\"だいひょう\"}}代表の\n{{string value=\"PlayerName\"}}さんに　{{ruby charSpan=\"2\" value=\"そうだん\"}}相談したら、{{delay frames=\"30\"}}\n{{anim id=\"BigSmile\" target=\"actor\" targetSpec=\"\"}}いい{{ruby charSpan=\"2\" value=\"ばしょ\"}}場所を　{{ruby charSpan=\"1\" value=\"み\"}}見つけてくれるはず{{string value=\"...\"}}"
  },
  {
    "label": "206",
    "attribute": "0x00000000",
    "text": "{{anim id=\"EmotEnd\" target=\"actor\" targetSpec=\"\"}}ってこと　だったので、{{delay frames=\"40\"}}{{anim id=\"Nodding\" target=\"actor\" targetSpec=\"\"}}ここで{{ruby charSpan=\"2\" value=\"ぎょうしょう\"}}行商をしながら{{delay20}}\n{{string value=\"PlayerName\"}}さんが\n{{anim id=\"Smiling\" target=\"actor\" targetSpec=\"\"}}{{ruby charSpan=\"1\" value=\"とお\"}}通りかかるのを{{delay8}}　{{ruby charSpan=\"1\" value=\"ま\"}}待たせてもらってたんです"
  },
  {
    "label": "207",
    "attribute": "0x02000000",
    "text": "{{anim id=\"ShyBoy\" target=\"actor\" targetSpec=\"\"}}なんや　{{ruby charSpan=\"1\" value=\"し\"}}知らないところで{{delay20}}\n{{ruby charSpan=\"1\" value=\"はなし\"}}話を　{{ruby charSpan=\"1\" value=\"すす\"}}進めてしまったみたいで、{{delay frames=\"30\"}}\n{{anim id=\"Worried\" target=\"actor\" targetSpec=\"\"}}{{ruby charSpan=\"1\" value=\"もう\"}}申し{{ruby charSpan=\"1\" value=\"わけ\"}}訳ない{{ruby charSpan=\"1\" value=\"き\"}}気も　するんですけど{{string value=\"...\"}}{{pageBreak}}{{anim id=\"Nodding\" target=\"actor\" targetSpec=\"\"}}{{color id=\"3\"}}たぬきち{{color id=\"65535\"}}さんが　{{ruby charSpan=\"2\" value=\"しんらい\"}}信頼してる{{ruby charSpan=\"1\" value=\"ひと\"}}人が{{delay8}}\nお{{ruby charSpan=\"1\" value=\"みせ\"}}店の{{ruby charSpan=\"2\" value=\"ばしょ\"}}場所を　{{ruby charSpan=\"1\" value=\"き\"}}決めてくれはるんやったら{{delay20}}\n{{anim id=\"Smiling\" target=\"actor\" targetSpec=\"\"}}ウチも　おねーちゃんも　{{ruby charSpan=\"2\" value=\"あんしん\"}}安心ですし{{pageBreak}}{{anim id=\"Silent\" target=\"actor\" targetSpec=\"\"}}{{string value=\"PlayerName\"}}さんさえ　よければ{{delay20}}\n{{anim id=\"FaintSmile\" target=\"actor\" targetSpec=\"\"}}ウチの{{ruby charSpan=\"1\" value=\"か\"}}代わりに　お{{ruby charSpan=\"1\" value=\"みせ\"}}店によさそうな{{ruby charSpan=\"2\" value=\"ばしょ\"}}場所を{{delay20}}\n{{anim id=\"QuestionMark\" target=\"actor\" targetSpec=\"\"}}{{ruby charSpan=\"1\" value=\"み\"}}見つけてきて　もらえないでしょうか？"
  },
  {
    "label": "207_a",
    "attribute": "0x00000000",
    "text": "いいよ！"
  },
  {
    "label": "207_b",
    "attribute": "0x00000000",
    "text": "{{ruby charSpan=\"1\" value=\"いま\"}}今、いそがしいです"
  },
  {
    "label": "208",
    "attribute": "0x00000000",
    "text": "{{anim id=\"BigSmile\" target=\"actor\" targetSpec=\"\"}}ホンマですか？！{{delay20}}　{{ruby charSpan=\"1\" value=\"たす\"}}助かります～{{i10_4}}\n{{anim id=\"EmotEnd\" target=\"actor\" targetSpec=\"\"}}ほな、{{delay8}}この　{{color id=\"1\"}}したてやのこうじかんばん{{color id=\"65535\"}}、{{delay20}}\n{{anim id=\"Smiling\" target=\"actor\" targetSpec=\"\"}}お{{ruby charSpan=\"1\" value=\"わた\"}}渡ししときますね！"
  },
  {
    "label": "209",
    "attribute": "0x00000000",
    "text": "{{anim id=\"Explain\" target=\"actor\" targetSpec=\"\"}}{{string value=\"PlayerName\"}}さんが\nいいと{{ruby charSpan=\"1\" value=\"おも\"}}思う{{ruby charSpan=\"2\" value=\"ばしょ\"}}場所に{{delay8}}　かんばんを{{ruby charSpan=\"1\" value=\"た\"}}立ててくれたら{{delay frames=\"30\"}}\n{{anim id=\"Smiling\" target=\"actor\" targetSpec=\"\"}}そこに　お{{ruby charSpan=\"1\" value=\"みせ\"}}店を{{ruby charSpan=\"1\" value=\"た\"}}建ててもらいますので"
  },
  {
    "label": "210",
    "attribute": "0x00000000",
    "text": "{{anim id=\"Shocked\" target=\"actor\" targetSpec=\"\"}}あっ、ゴメンなさいね{{delay frames=\"40\"}}\n{{anim id=\"Smiling\" target=\"actor\" targetSpec=\"\"}}こっちの{{ruby charSpan=\"2\" value=\"つごう\"}}都合ですし、ホントに{{ruby charSpan=\"1\" value=\"き\"}}気が{{ruby charSpan=\"1\" value=\"む\"}}向いた{{ruby charSpan=\"1\" value=\"とき\"}}時で\n{{ruby charSpan=\"3\" value=\"だいじょうぶ\"}}大丈夫なんですよ！{{pageBreak}}{{anim id=\"EmotEnd\" target=\"actor\" targetSpec=\"\"}}ウチは　しばらく　ここにおりますし、{{delay20}}\n{{anim id=\"Smiling\" target=\"actor\" targetSpec=\"\"}}また{{ruby charSpan=\"2\" value=\"じかん\"}}時間があるときに　{{ruby charSpan=\"1\" value=\"こえ\"}}声をかけてください！{{i10_4}}\n{{anim id=\"Serious\" target=\"actor\" targetSpec=\"\"}}じゃあ、{{delay8}}この{{ruby charSpan=\"1\" value=\"はなし\"}}話は　おしまいで{{string value=\"...\"}}"
  },
  {
    "label": "211",
    "attribute": "0x02000000",
    "text": "{{anim id=\"Aha\" target=\"actor\" targetSpec=\"\"}}あ、{{delay8}}{{string value=\"PlayerName\"}}さん！{{delay frames=\"30\"}}\n{{anim id=\"Smiling\" target=\"actor\" targetSpec=\"\"}}ひょっとして、ウチらの　お{{ruby charSpan=\"1\" value=\"みせ\"}}店の{{ruby charSpan=\"2\" value=\"ばしょ\"}}場所を{{delay20}}\n{{anim id=\"QuestionMark\" target=\"actor\" targetSpec=\"\"}}{{ruby charSpan=\"1\" value=\"さが\"}}探してくれはるんですか？"
  },
  {
    "label": "211_a",
    "attribute": "0x00000000",
    "text": "いいよ！"
  },
  {
    "label": "211_b",
    "attribute": "0x00000000",
    "text": "{{ruby charSpan=\"1\" value=\"いま\"}}今、いそがしいです"
  },
  {
    "label": "212",
    "attribute": "0x00000000",
    "text": "{{anim id=\"BigSmile\" target=\"actor\" targetSpec=\"\"}}ホンマですか？！{{delay frames=\"40\"}}\n{{anim id=\"Worried\" target=\"actor\" targetSpec=\"\"}}{{string value=\"...\"}}{{delay20}}でも、{{string value=\"PlayerName\"}}さん、{{delay8}}\nもちものが　いっぱいみたい{{string value=\"...\"}}{{pageBreak}}{{anim id=\"Nodding\" target=\"actor\" targetSpec=\"\"}}{{color id=\"1\"}}したてやのこうじかんばん{{color id=\"65535\"}}を　{{ruby charSpan=\"1\" value=\"あず\"}}預けたいので、{{delay frames=\"30\"}}\n{{anim id=\"Smiling\" target=\"actor\" targetSpec=\"\"}}{{ruby charSpan=\"2\" value=\"にもつ\"}}荷物を{{ruby charSpan=\"2\" value=\"せいり\"}}整理したら　{{ruby charSpan=\"1\" value=\"こえ\"}}声をかけてくださいね{{i10_4}}\n{{anim id=\"Serious\" target=\"actor\" targetSpec=\"\"}}じゃあ、{{delay8}}この{{ruby charSpan=\"1\" value=\"はなし\"}}話は　おしまいで{{string value=\"...\"}}"
  },
  {
    "label": "221",
    "attribute": "0x00000000",
    "text": "{{anim id=\"Smiling\" target=\"actor\" targetSpec=\"\"}}お{{ruby charSpan=\"1\" value=\"みせ\"}}店の{{ruby charSpan=\"3\" value=\"ばしょさが\"}}場所探しを　{{ruby charSpan=\"1\" value=\"ひ\"}}引き{{ruby charSpan=\"1\" value=\"う\"}}受けてくれて、{{delay20}}\nホンマ、{{delay8}}おおきにー{{pageBreak}}{{anim id=\"EmotEnd\" target=\"actor\" targetSpec=\"\"}}{{ruby charSpan=\"1\" value=\"おお\"}}大きな{{ruby charSpan=\"1\" value=\"みせ\"}}店を　{{ruby charSpan=\"1\" value=\"かま\"}}構えるつもりはないんで、{{delay20}}\n{{anim id=\"Smiling\" target=\"actor\" targetSpec=\"\"}}そこそこの{{ruby charSpan=\"1\" value=\"ひろ\"}}広さがあれば　{{ruby charSpan=\"3\" value=\"だいじょうぶ\"}}大丈夫ですー{{pageBreak}}{{anim id=\"Hello\" target=\"actor\" targetSpec=\"\"}}ここかな？{{delay20}}　と{{ruby charSpan=\"1\" value=\"おも\"}}思った{{ruby charSpan=\"2\" value=\"ばしょ\"}}場所で{{delay8}}\n{{anim id=\"EmotEnd\" target=\"actor\" targetSpec=\"\"}}かんばんを{{ruby charSpan=\"1\" value=\"つか\"}}使ったら、{{delay20}}\n{{anim id=\"AbsentMindedness\" target=\"actor\" targetSpec=\"\"}}イメージが　ふくらむんやないかしら？"
  },
  {
    "label": "222",
    "attribute": "0x00000000",
    "text": "{{anim id=\"BigSmile\" target=\"actor\" targetSpec=\"\"}}{{string value=\"PlayerName\"}}さん！{{delay20}}\nお{{ruby charSpan=\"1\" value=\"みせ\"}}店の{{ruby charSpan=\"2\" value=\"ばしょ\"}}場所　{{ruby charSpan=\"1\" value=\"き\"}}決めてくれたんやね！{{delay frames=\"30\"}}\n{{anim id=\"Smiling\" target=\"actor\" targetSpec=\"\"}}ホンマ、おおきにー！{{pageBreak}}{{anim id=\"Nodding\" target=\"actor\" targetSpec=\"\"}}お{{ruby charSpan=\"1\" value=\"みせ\"}}店が{{ruby charSpan=\"2\" value=\"かんせい\"}}完成したら、{{delay20}}\n{{anim id=\"FaintSmile\" target=\"actor\" targetSpec=\"\"}}ウチや　おねーちゃん　ともども、{{delay20}}\n{{anim id=\"Hello\" target=\"actor\" targetSpec=\"\"}}よろしゅう　お{{ruby charSpan=\"1\" value=\"ねが\"}}願いしますー！"
  },
  {
    "label": "901",
    "attribute": "0x00000000",
    "text": "{{anim id=\"Eh\" target=\"actor\" targetSpec=\"\"}}あら、{{string value=\"PlayerName\"}}さん{{delay20}}\n{{anim id=\"Smiling\" target=\"actor\" targetSpec=\"\"}}こんばんはー！{{delay40}}\n{{ruby charSpan=\"2\" value=\"きょう\"}}今日も　{{ruby charSpan=\"1\" value=\"よ\"}}寄らせてもろてたんよ！{{pageBreak}}{{anim id=\"EmotEnd\" target=\"actor\" targetSpec=\"\"}}あいにく　もう　{{ruby charSpan=\"1\" value=\"みせ\"}}店じまいの{{ruby charSpan=\"2\" value=\"じかん\"}}時間なんで、{{delay frames=\"30\"}}\n{{anim id=\"Smiling\" target=\"actor\" targetSpec=\"\"}}またの{{ruby charSpan=\"2\" value=\"きかい\"}}機会に　よろしくお{{ruby charSpan=\"1\" value=\"ねが\"}}願いしますー"
  },
  {
    "label": "902",
    "attribute": "0x00000000",
    "text": "{{ruby charSpan=\"2\" value=\"きょう\"}}今日はもう　{{ruby charSpan=\"1\" value=\"みせ\"}}店じまいなんですよ{{i10_4}}\n{{anim id=\"Smiling\" target=\"actor\" targetSpec=\"\"}}また{{ruby charSpan=\"2\" value=\"こんど\"}}今度　よろしくお{{ruby charSpan=\"1\" value=\"ねが\"}}願いしますね"
  }
]