﻿[
  {
    "label": "001",
    "text": "{{wordInfo gender=\"1\" indefArticle=\"1\" defArticle=\"3\"}}separador de ladrillo"
  },
  {
    "label": "002",
    "text": "{{wordInfo gender=\"1\" indefArticle=\"1\" defArticle=\"3\"}}separador sencillo"
  },
  {
    "label": "003",
    "text": "{{wordInfo gender=\"1\" indefArticle=\"1\" defArticle=\"3\"}}separador de cemento"
  },
  {
    "label": "004",
    "text": "{{wordInfo gender=\"1\" indefArticle=\"1\" defArticle=\"3\"}}separador de mármol"
  },
  {
    "label": "005",
    "text": "{{wordInfo gender=\"1\" indefArticle=\"1\" defArticle=\"3\"}}separador de acero"
  },
  {
    "label": "006",
    "text": "{{wordInfo gender=\"1\" indefArticle=\"1\" defArticle=\"3\"}}separador dorado"
  }
]