﻿[
  {
    "label": "101",
    "attribute": "0x00000013",
    "text": "喂{{fun_00050096 arg=\"\"}}\n{{anim id=\"FaintSmile\" target=\"actor\" targetSpec=\"\"}}咦？{{delay20}}是{{string value=\"PlayerName\"}}啊。{{pageBreak}}{{anim id=\"Eh\" target=\"actor\" targetSpec=\"\"}}你要{{fun_00050096 arg=\"\"}}幫我蓋別墅？{{delay frames=\"40\"}}\n{{anim id=\"EmotEnd\" target=\"actor\" targetSpec=\"\"}}好{{fun_00050096 arg=\"\"}}{{anim id=\"Nodding\" target=\"actor\" targetSpec=\"\"}}我明白了。"
  }
]