﻿[
  {
    "label": "001",
    "text": "Gut gemacht, {{string value=\"NickName\"}}!"
  },
  {
    "label": "002",
    "text": "Toll, {{string value=\"NickName\"}}!"
  },
  {
    "label": "003",
    "text": "Großartig, {{string value=\"NickName\"}}!"
  },
  {
    "label": "004",
    "text": "Sehr schön, {{string value=\"NickName\"}}!"
  },
  {
    "label": "101",
    "text": "Glückwunsch! Die Umbauarbeiten\nsind abgeschlossen! Zur Feier das\nTages schicke ich dir ein kleines\nGeschenk. Ich bin schon ganz\ngespannt darauf, zu sehen, wie\ngeräumig es jetzt bei dir ist."
  },
  {
    "label": "102",
    "text": "Schon wieder hast du angebaut.\nGlückwunsch! Zusätzlicher Platz\nist eine Spielwiese für alle, die\ngern ein Haus einrichten. Um dich\ndabei zu inspirieren, schicke ich\ndir eine Kleinigkeit."
  },
  {
    "label": "103",
    "text": "Es freut mich riesig, dass es bei dir\nvorangeht und du dein Haus erneut\nvergrößert hast. Meine Freude ist\nso groß, dass ich dir ein Geschenk\nmitschicke, um dir zu gratulieren!\nGenieß all den Platz!"
  },
  {
    "label": "104",
    "text": "Ein Haus wird zwar mit den Händen\ngebaut, aber man braucht Herz,\ndamit ein Zuhause daraus wird.\nUnd vielleicht wird es das noch\nmehr mit dem Geschenk, das ich\ndir mitschicke!"
  },
  {
    "label": "201",
    "text": "Viele liebe Grüße, {{string value=\"VillagerName\"}}"
  },
  {
    "label": "202",
    "text": "Liebe Grüße, {{string value=\"VillagerName\"}}"
  },
  {
    "label": "203",
    "text": "Mach's gut, {{string value=\"VillagerName\"}}"
  },
  {
    "label": "204",
    "text": "Bis hoffentlich bald, {{string value=\"VillagerName\"}}"
  }
]