﻿[
  {
    "label": "001",
    "attribute": "0x0000000000000000",
    "text": "{{anim id=\"Pardon\" target=\"actor\" targetSpec=\"\"}}オメェ{{string value=\"...\"}}{{delay20}}\n{{ruby charSpan=\"3\" value=\"じかんぎ\"}}時間切れになっても　お{{ruby charSpan=\"1\" value=\"たから\"}}宝を{{ruby charSpan=\"1\" value=\"さが\"}}探してたのか！{{delay frames=\"40\"}}\n{{anim id=\"Nodding\" target=\"actor\" targetSpec=\"\"}}{{ruby charSpan=\"2\" value=\"けなげ\"}}健気な{{ruby charSpan=\"1\" value=\"はなし\"}}話じゃねぇか{{pageBreak}}{{anim id=\"OhGeez\" target=\"actor\" targetSpec=\"\"}}でも　{{ruby charSpan=\"1\" value=\"わる\"}}悪いが{{delay20}}\nそいつは　{{ruby charSpan=\"1\" value=\"かえ\"}}返してもらうぜ"
  },
  {
    "label": "002",
    "attribute": "0x0000000000000000",
    "text": "{{anim id=\"FaintSmile\" target=\"actor\" targetSpec=\"\"}}{{ruby charSpan=\"1\" value=\"さが\"}}探してくれて　ありがとよ{{delay frames=\"40\"}}\n{{anim id=\"EmotEnd\" target=\"actor\" targetSpec=\"\"}}{{ruby charSpan=\"2\" value=\"こんど\"}}今度　やる{{ruby charSpan=\"1\" value=\"とき\"}}時は{{delay8}}\n{{anim id=\"Greeting\" target=\"actor\" targetSpec=\"\"}}{{ruby charSpan=\"3\" value=\"じかんない\"}}時間内に　{{ruby charSpan=\"1\" value=\"み\"}}見つかるといいな！　{{string value=\"6\"}}"
  },
  {
    "label": "101",
    "attribute": "0x0000000000000000",
    "text": "{{anim id=\"Aha\" target=\"actor\" targetSpec=\"\"}}{{string value=\"NickName\"}}、{{delay8}}{{ruby charSpan=\"3\" value=\"だいじょうぶ\"}}大丈夫だったか？！{{delay40}}\n{{anim id=\"EmotEnd\" target=\"actor\" targetSpec=\"\"}}オメェが{{ruby charSpan=\"1\" value=\"かえ\"}}帰ってくるのを{{ruby charSpan=\"1\" value=\"ま\"}}待ってたら{{delay20}}\n{{anim id=\"OhGeez\" target=\"actor\" targetSpec=\"\"}}{{ruby charSpan=\"1\" value=\"きゅう\"}}急に　{{ruby charSpan=\"1\" value=\"あた\"}}辺りが{{ruby charSpan=\"1\" value=\"くら\"}}暗くなって　{{ruby charSpan=\"1\" value=\"おどろ\"}}驚いたぜ！{{pageBreak}}{{anim id=\"Thinking\" target=\"actor\" targetSpec=\"\"}}{{ruby charSpan=\"2\" value=\"いったい\"}}一体なんだったのか　わかんねぇが{{delay40}}\n{{anim id=\"EmotEnd\" target=\"actor\" targetSpec=\"\"}}まぁ　{{ruby charSpan=\"2\" value=\"こんかい\"}}今回は　{{delay20}}{{anim id=\"ShyBoy\" target=\"actor\" targetSpec=\"\"}}オメェの{{ruby charSpan=\"2\" value=\"げんき\"}}元気そうな{{ruby charSpan=\"1\" value=\"かお\"}}顔が{{delay8}}\n{{ruby charSpan=\"2\" value=\"いちばん\"}}一番のお{{ruby charSpan=\"1\" value=\"たから\"}}宝だな、{{string value=\"6\"}}"
  }
]