﻿[
  {
    "label": "001",
    "attribute": "0x00000C0100070000",
    "text": "{{anim id=\"Greeting\" target=\"actor\" targetSpec=\"\"}}Доброе утро!{{delay frames=\"13\"}} Рада видеть тебя\nс утра пораньше. {{capitalizeNextLetter}}{{string value=\"6\"}}!{{setNpcTalkChoices chatOption=\"0\" cancelOption=\"1\"}}"
  },
  {
    "label": "002",
    "attribute": "0x00000C0100030000",
    "text": "{{anim id=\"Greeting\" target=\"actor\" targetSpec=\"\"}}Добрый день, {{delay8}}дорогуша!\n{{capitalizeNextLetter}}{{string value=\"6\"}}!{{setNpcTalkChoices chatOption=\"0\" cancelOption=\"1\"}}"
  },
  {
    "label": "003",
    "attribute": "0x00000C0100040000",
    "text": "{{anim id=\"Hello\" target=\"actor\" targetSpec=\"\"}}Как поживаешь? {{capitalizeNextLetter}}{{string value=\"6\"}}?{{setNpcTalkChoices chatOption=\"0\" cancelOption=\"1\"}}"
  },
  {
    "label": "004",
    "attribute": "0x00000C0100090000",
    "text": "{{anim id=\"Hello\" target=\"actor\" targetSpec=\"\"}}Ах,{{delay8}} добрый вечер! {{capitalizeNextLetter}}{{string value=\"6\"}}!{{setNpcTalkChoices chatOption=\"0\" cancelOption=\"1\"}}"
  },
  {
    "label": "011",
    "attribute": "0x00000C0100000007",
    "text": "{{anim id=\"Hello\" target=\"actor\" targetSpec=\"\"}}Очень рада тебя видеть.\n{{capitalizeNextLetter}}{{string value=\"6\"}}!{{setNpcTalkChoices chatOption=\"0\" cancelOption=\"1\"}}"
  },
  {
    "label": "012",
    "attribute": "0x00000C0100000007",
    "text": "{{anim id=\"FaintSmile\" target=\"actor\" targetSpec=\"\"}}Ах, {{delay8}}ты хорошо выглядишь, как\nпоживаешь? {{capitalizeNextLetter}}{{string value=\"6\"}}?{{setNpcTalkChoices chatOption=\"0\" cancelOption=\"1\"}}"
  },
  {
    "label": "013",
    "attribute": "0x00000C0100000007",
    "text": "{{anim id=\"Hello\" target=\"actor\" targetSpec=\"\"}}У тебя цветущий вид! {{capitalizeNextLetter}}{{string value=\"Catchphrase\"}}!{{setNpcTalkChoices chatOption=\"0\" cancelOption=\"1\"}}"
  },
  {
    "label": "021",
    "attribute": "0x00000C0100000008",
    "text": "{{anim id=\"FaintSmile\" target=\"actor\" targetSpec=\"\"}}Батюшки,{{delay8}} это же {{string value=\"NickName\"}}!{{setNpcTalkChoices chatOption=\"0\" cancelOption=\"1\"}}"
  },
  {
    "label": "022",
    "attribute": "0x00000C0100000008",
    "text": "{{anim id=\"FaintSmile\" target=\"actor\" targetSpec=\"\"}}Ах, {{string value=\"NickName\"}}!{{delay frames=\"13\"}} Спасибо, что\nне забываешь. {{capitalizeNextLetter}}{{string value=\"Catchphrase\"}}!{{setNpcTalkChoices chatOption=\"0\" cancelOption=\"1\"}}"
  },
  {
    "label": "023",
    "attribute": "0x00000C0100000008",
    "text": "{{anim id=\"FaintSmile\" target=\"actor\" targetSpec=\"\"}}{{delay8}}{{capitalizeNextLetter}}{{string value=\"NickName\"}}!{{delay frames=\"40\"}} {{anim id=\"Hello\" target=\"actor\" targetSpec=\"\"}}Как я рада\nвидеть тебя! {{capitalizeNextLetter}}{{string value=\"6\"}}!{{setNpcTalkChoices chatOption=\"0\" cancelOption=\"1\"}}"
  },
  {
    "label": "031",
    "attribute": "0x00000C0100000009",
    "text": "{{anim id=\"Hello\" target=\"actor\" targetSpec=\"\"}}{{capitalizeNextLetter}}{{string value=\"14\"}}Кого я вижу! {{capitalizeNextLetter}}{{string value=\"NickName\"}}{{endTag}}!{{delay frames=\"40\"}}\n{{anim id=\"FaintSmile\" target=\"actor\" targetSpec=\"\"}}Как раз о тебе вспоминала!\n{{capitalizeNextLetter}}{{string value=\"6\"}}!{{setNpcTalkChoices chatOption=\"0\" cancelOption=\"1\"}}"
  },
  {
    "label": "032",
    "attribute": "0x00000C0100000009",
    "text": "{{anim id=\"FaintSmile\" target=\"actor\" targetSpec=\"\"}}{{capitalizeNextLetter}}{{string value=\"14\"}}Душечка {{string value=\"NickName\"}}{{endTag}}!{{pageBreak}}{{anim id=\"Hello\" target=\"actor\" targetSpec=\"\"}}Спасибо, что находишь время\nпоболтать. {{capitalizeNextLetter}}{{string value=\"6\"}}!{{setNpcTalkChoices chatOption=\"0\" cancelOption=\"1\"}}"
  },
  {
    "label": "033",
    "attribute": "0x00000C0100000009",
    "text": "{{anim id=\"Hello\" target=\"actor\" targetSpec=\"\"}}{{capitalizeNextLetter}}{{string value=\"14\"}}Голуб{{gender2 m=\"чик\" f=\"ушка\"}} {{string value=\"NickName\"}}{{endTag}}!{{pageBreak}}{{anim id=\"FaintSmile\" target=\"actor\" targetSpec=\"\"}}Как раз думала, как прелестно было\nбы увидеть тебя. {{capitalizeNextLetter}}{{string value=\"6\"}}!{{setNpcTalkChoices chatOption=\"0\" cancelOption=\"1\"}}"
  }
]