﻿[
  {
    "label": "001",
    "attribute": "0x00000013",
    "text": "{{anim id=\"Greeting\" target=\"actor\" targetSpec=\"\"}}Reiners Schatzkutter. {{delay20}}Wir haben\nMeisterwerke von großen Meistern,{{delay8}}\ndie meisterhaft in dein Haus passen.\n{{anim id=\"Restless\" target=\"actor\" targetSpec=\"\"}}Oh, du bist es!{{delay20}} Äh{{string value=\"...\"}} Gleich vorab:{{delay8}}\nAlles vom Umtausch ausgeschlossen!{{delay frames=\"40\"}}\n{{anim id=\"QuestionMark\" target=\"actor\" targetSpec=\"\"}}Also, wie kann ich dir helfen?"
  },
  {
    "label": "002",
    "attribute": "0x00000013",
    "text": "{{anim id=\"Eh\" target=\"actor\" targetSpec=\"\"}}Bitte was?{{delay20}} {{color id=\"1\"}}Campingplatz{{color id=\"65535\"}}?{{delay frames=\"40\"}} {{anim id=\"WrySmile\" target=\"actor\" targetSpec=\"\"}}Sicher,\n{{gender2 m=\"Cousin\" f=\"Cousine\"}},{{delay8}} dafür kann ich dir auch\nein paar Möbel{{string value=\"...\"}}\n{{anim id=\"Worried\" target=\"actor\" targetSpec=\"\"}}Ach, ich soll dort {{delay8}}HINZIEHEN?{{pageBreak}}{{anim id=\"Confused\" target=\"actor\" targetSpec=\"\"}}Ja, würde ich gerne, aber, {{delay20}}äh{{string value=\"...\"}}{{delay frames=\"40\"}}\n{{anim id=\"Aha\" target=\"actor\" targetSpec=\"\"}}{{delay20}}Oh, gerade kommt ein Kunde rein.\n{{delay20}}Ich muss auflegen. {{delay20}}Bis dann!"
  },
  {
    "label": "101",
    "attribute": "0x00000013",
    "text": "{{string value=\"VillagerName\"}} hier. {{delay8}}Umtausch\nausgeschlossen.{{delay20}} {{anim id=\"QuestionMark\" target=\"actor\" targetSpec=\"\"}}Wie kann ich\nhelfen?{{pageBreak}}{{anim id=\"Aha\" target=\"actor\" targetSpec=\"\"}}Nur, {{delay8}}dass ich das richtig versteh{{string value=\"...\"}}{{delay20}}\nDu entwirfst mir ein Ferienhaus?{{delay20}}\nMit allem Drum und Dran?{{pageBreak}}{{anim id=\"Grin\" target=\"actor\" targetSpec=\"\"}}Irgendwo gibt's da einen Haken,{{delay8}}\noder? {{delay20}}Also, {{delay8}}wo ist er? {{delay20}}Erklär's mir\nim Detail, {{delay8}}ich schreib mit!{{pageBreak}}{{anim id=\"ShyBoy\" target=\"actor\" targetSpec=\"\"}}Ach, {{delay8}}weißt du was? {{delay20}}Ich komm\neinfach mal vorbei! {{delay20}}DAS muss ich\nmir mit eigenen Augen ansehen."
  }
]