﻿{
  "version": 4,
  "rootNode": {
    "bea08": {
      "mWall.u16": 24,
      "mCurtain.u16": 3,
      "mDeco": {
        "mItemNameParam.u64": 65534
      },
      "mRoof.u16": 63,
      "mShape.u16": 9,
      "mDoor.u16": 198
    }
  }
}