﻿{
  "version": 4,
  "rootNode": {
    "cat09": {
      "mWall.u16": 29,
      "mCurtain.u16": 1,
      "mDeco": {
        "mItemNameParam.u64": 65534
      },
      "mRoof.u16": 31,
      "mShape.u16": 10,
      "mDoor.u16": 32
    }
  }
}