﻿{
  "version": 4,
  "rootNode": {
    "cat03": {
      "mWall.u16": 58,
      "mCurtain.u16": 0,
      "mDeco": {
        "mItemNameParam.u64": 65534
      },
      "mRoof.u16": 59,
      "mShape.u16": 1,
      "mDoor.u16": 67
    }
  }
}