﻿{
  "version": 4,
  "rootNode": {
    "cbr09": {
      "mWall.u16": 14,
      "mCurtain.u16": 9,
      "mDeco": {
        "mItemNameParam.u64": 65534
      },
      "mRoof.u16": 61,
      "mShape.u16": 1,
      "mDoor.u16": 58
    }
  }
}