﻿{
  "version": 4,
  "rootNode": {
    "crd01": {
      "mWall.u16": 141,
      "mCurtain.u16": 5,
      "mDeco": {
        "mItemNameParam.u64": 65534
      },
      "mRoof.u16": 111,
      "mShape.u16": 13,
      "mDoor.u16": 193
    }
  }
}