﻿{
  "version": 4,
  "rootNode": {
    "kgr08": {
      "mWall.u16": 113,
      "mCurtain.u16": 6,
      "mDeco": {
        "mItemNameParam.u64": 65534
      },
      "mRoof.u16": 101,
      "mShape.u16": 10,
      "mDoor.u16": 160
    }
  }
}