﻿{
  "version": 4,
  "rootNode": {
    "lon01": {
      "mWall.u16": 58,
      "mCurtain.u16": 1,
      "mDeco": {
        "mItemNameParam.u64": 65534
      },
      "mRoof.u16": 42,
      "mShape.u16": 1,
      "mDoor.u16": 51
    }
  }
}