﻿{
  "version": 4,
  "rootNode": {
    "mus18": {
      "mWall.u16": 83,
      "mCurtain.u16": 7,
      "mDeco": {
        "mItemNameParam.u64": 65534
      },
      "mRoof.u16": 27,
      "mShape.u16": 9,
      "mDoor.u16": 19
    }
  }
}