﻿{
  "version": 4,
  "rootNode": {
    "pgn14": {
      "mWall.u16": 125,
      "mCurtain.u16": 6,
      "mDeco": {
        "mItemNameParam.u64": 65534
      },
      "mRoof.u16": 109,
      "mShape.u16": 13,
      "mDoor.u16": 260
    }
  }
}