﻿[
  {
    "label": "001",
    "attribute": "0x0000000000000000",
    "text": "{{anim id=\"IdeaBulb\" target=\"actor\" targetSpec=\"\"}}¡Oye!{{delay8}} Gracias por darle aquello\na {{selection value=\"SelectedVillager\"}} de mi parte."
  },
  {
    "label": "002",
    "attribute": "0x0000000000000000",
    "text": "{{anim id=\"Smiling\" target=\"actor\" targetSpec=\"\"}}Gracias por llevarle eso a {{selection value=\"SelectedVillager\"}}, guapi.{{pageBreak}}{{anim id=\"ShyBoy\" target=\"actor\" targetSpec=\"\"}}Con el tiempo que llevaba detrás de\nentregárselo, tu detalle me ha venido\nde maravilla, guapi."
  },
  {
    "label": "003",
    "attribute": "0x0000020000000000",
    "text": "¿Y qué?{{delay8}} {{anim id=\"QuestionMark\" target=\"actor\" targetSpec=\"\"}}¿Cómo ha reaccionado \n{{selection value=\"SelectedVillager\"}}?"
  },
  {
    "label": "003_a",
    "attribute": "0x0000000000000000",
    "text": "{{anim id=\"EmotEnd\" target=\"actor\" targetSpec=\"\"}}Pues..."
  },
  {
    "label": "003_b",
    "attribute": "0x0000000000000000",
    "text": "{{anim id=\"EmotEnd\" target=\"actor\" targetSpec=\"\"}}Se me ha olvidado"
  },
  {
    "label": "004",
    "attribute": "0x0000020000000000",
    "text": "Oye,{{delay8}} {{anim id=\"QuestionMark\" target=\"actor\" targetSpec=\"\"}}¿y cómo se lo ha tomado\n{{selection value=\"SelectedVillager\"}}?"
  },
  {
    "label": "004_a",
    "attribute": "0x0000000000000000",
    "text": "{{anim id=\"EmotEnd\" target=\"actor\" targetSpec=\"\"}}El caso es que..."
  },
  {
    "label": "004_b",
    "attribute": "0x0000000000000000",
    "text": "No me acuerdo"
  },
  {
    "label": "005",
    "attribute": "0x0000000000000000",
    "text": "{{anim id=\"Thinking\" target=\"actor\" targetSpec=\"\"}}Si no te acuerdas,{{delay8}} será porque\nreaccionó de manera normal, ¿no?\n{{anim id=\"Nodding\" target=\"actor\" targetSpec=\"\"}}¡Entonces, todo estupendo!"
  },
  {
    "label": "006",
    "attribute": "0x0000000000000000",
    "text": "{{anim id=\"Surprised\" target=\"actor\" targetSpec=\"\"}}¡¿Que abriste el paquete?!{{delay8}}\n{{anim id=\"Frantic\" target=\"actor\" targetSpec=\"\"}}¡Jopé, {{string value=\"NickName\"}}!{{delay8}}\n¡Me parece {{i10_5}}super{{endTag}}{{delay8}}mal!"
  },
  {
    "label": "007",
    "attribute": "0x0000000000000000",
    "text": "{{anim id=\"Surprised\" target=\"actor\" targetSpec=\"\"}}¡¿Que se lo diste abierto?!{{delay8}}\n¿Y encima {{i10_5}}no{{endTag}}{{delay8}} {{i10_5}}sabe{{endTag}}{{delay8}} que fuiste tú?{{pageBreak}}{{anim id=\"Worried\" target=\"actor\" targetSpec=\"\"}}O sea,{{delay8}} que me dices que elegí un\nenvoltorio y unos lacitos superchulis\n{{anim id=\"Fuming\" target=\"actor\" targetSpec=\"\"}}{{i10_5}}¡para!{{endTag}}{{delay8}} {{i10_5}}¡nada!{{endTag}}{{delay8}}\nEspero que {{selection value=\"SelectedVillager\"}} no se haya ofendido{{string value=\"...\"}}{{delay20}} {{anim id=\"Angry\" target=\"actor\" targetSpec=\"\"}}Mira, la próxima vez, envuelve su tía."
  },
  {
    "label": "008",
    "attribute": "0x0000000000000000",
    "text": "{{anim id=\"BigSmile\" target=\"actor\" targetSpec=\"\"}}¡Es que {{selection value=\"SelectedVillager\"}} es {{i10_5}}super{{endTag}}comprensiva!{{pageBreak}}{{anim id=\"ShyBoy\" target=\"actor\" targetSpec=\"\"}}La próxima vez espero no tardar\n{{i10_5}}siglos{{endTag}} en devolverle algo{{string value=\"...\"}}"
  },
  {
    "label": "009",
    "attribute": "0x0000000000000000",
    "text": "{{anim id=\"Sighing\" target=\"actor\" targetSpec=\"\"}}Ay, qué alivio{{string value=\"...\"}}{{delay20}} Que yo,{{delay8}} superfán de\n{{selection value=\"SelectedVillager\"}}, ¿eh?{{delay20}} Pero, como le dé el pronto,{{delay8}} {{anim id=\"Laughing\" target=\"actor\" targetSpec=\"\"}}mejor echa a correr.{{pageBreak}}{{anim id=\"BigSmile\" target=\"actor\" targetSpec=\"\"}}¡No exagero nada si te digo que\nme has salvado la vida!"
  },
  {
    "label": "010",
    "attribute": "0x0000000000000000",
    "text": "{{anim id=\"BigSmile\" target=\"actor\" targetSpec=\"\"}}¡Pues muy estupén!{{delay8}} {{anim id=\"Nodding\" target=\"actor\" targetSpec=\"\"}}Estaba claro\nque {{selection value=\"SelectedVillager\"}} tampoco iba a enfadarse ni nada.\n{{anim id=\"EmotEnd\" target=\"actor\" targetSpec=\"\"}}Bueno, yo no lo tenía tan claro.{{delay8}}\n{{anim id=\"Nodding\" target=\"actor\" targetSpec=\"\"}}O sea que ¡gracias mil por ser\nvaliente en mi lugar!"
  },
  {
    "label": "011",
    "attribute": "0x0000000000000000",
    "text": "{{anim id=\"Frantic\" target=\"actor\" targetSpec=\"\"}}¿En serio?{{delay8}} {{anim id=\"Sighing\" target=\"actor\" targetSpec=\"\"}}Pues mira que yo me\nesperaba una explosión de\nreproches o algo{{string value=\"...\"}}\n{{anim id=\"FaintSmile\" target=\"actor\" targetSpec=\"\"}}¡Pues mejor así!{{delay8}} Y ya me he quitado\nuna cosa de encima que me tenía\ntoda agobiada."
  },
  {
    "label": "012",
    "attribute": "0x0000000000000000",
    "text": "{{anim id=\"Nodding\" target=\"actor\" targetSpec=\"\"}}¡Genial!{{delay8}} {{anim id=\"Laughing\" target=\"actor\" targetSpec=\"\"}}Aunque, conociéndolo,{{delay8}}\nya sabía yo que no iba a estallar\nde ira precisamente{{string value=\"...\"}}\n{{anim id=\"FaintSmile\" target=\"actor\" targetSpec=\"\"}}Supergracias por ayudarme con esto,\npor cierto."
  },
  {
    "label": "013",
    "attribute": "0x0000000000000000",
    "text": "{{anim id=\"Nodding\" target=\"actor\" targetSpec=\"\"}}¡Estupén!{{delay8}} {{anim id=\"Smiling\" target=\"actor\" targetSpec=\"\"}}{{capitalizeNextLetter}}{{selection value=\"SelectedVillager\"}} se toma sus cosas {{i10_5}}super{{endTag}} en serio,{{delay8}} por eso tenía como miedo o algo.\n{{anim id=\"BigSmile\" target=\"actor\" targetSpec=\"\"}}¡Gracias a ti, todo resuelto!"
  },
  {
    "label": "014",
    "attribute": "0x0000000000000000",
    "text": "{{anim id=\"Frantic\" target=\"actor\" targetSpec=\"\"}}¿En serio?{{delay8}} {{anim id=\"Sighing\" target=\"actor\" targetSpec=\"\"}}¡Buf, qué alivio!{{delay20}}\n{{anim id=\"Restless\" target=\"actor\" targetSpec=\"\"}}Estaba con{{delay8}}ven{{delay8}}ci{{delay8}}da de que se pondría\na despotricar en plan regañón.\n{{anim id=\"Blushing\" target=\"actor\" targetSpec=\"\"}}Por eso te pedí ayuda{{string value=\"...\"}}{{delay20}} {{anim id=\"Smiling\" target=\"actor\" targetSpec=\"\"}}¡O sea que\ngracias mil, queri!"
  },
  {
    "label": "015",
    "attribute": "0x0000000000000000",
    "text": "{{anim id=\"BigSmile\" target=\"actor\" targetSpec=\"\"}}¡Genial!{{delay8}} {{anim id=\"Laughing\" target=\"actor\" targetSpec=\"\"}}¡Qué {{i10_5}}super{{endTag}}típico de\n{{selection value=\"SelectedVillager\"}} hacerse el guay\ny como que todo le parece bien!\n{{anim id=\"FaintSmile\" target=\"actor\" targetSpec=\"\"}}Pues mejor para mí,{{delay8}} {{anim id=\"Grin\" target=\"actor\" targetSpec=\"\"}}y para ti que\nme has hecho el trabajo sucio."
  },
  {
    "label": "101",
    "attribute": "0x0000000000000000",
    "text": "{{anim id=\"Eh\" target=\"actor\" targetSpec=\"\"}}¡Gracias mil por devolverle a {{selection value=\"SelectedVillager\"}} lo que se olvidó en mi casa!"
  },
  {
    "label": "102",
    "attribute": "0x0000000000000000",
    "text": "{{anim id=\"Eh\" target=\"actor\" targetSpec=\"\"}}¡Gracias por devolverle a {{selection value=\"SelectedVillager\"}} eso que se dejó en mi casa, guapi!"
  },
  {
    "label": "103",
    "attribute": "0x0000020000000000",
    "text": "{{anim id=\"FaintSmile\" target=\"actor\" targetSpec=\"\"}}¿Te dijo algo cuando se lo diste?"
  },
  {
    "label": "103_a",
    "attribute": "0x0000000000000000",
    "text": "{{anim id=\"EmotEnd\" target=\"actor\" targetSpec=\"\"}}Bueno..."
  },
  {
    "label": "103_b",
    "attribute": "0x0000000000000000",
    "text": "No me acuerdo"
  },
  {
    "label": "104",
    "attribute": "0x0000020000000000",
    "text": "{{anim id=\"FaintSmile\" target=\"actor\" targetSpec=\"\"}}¿Te dijo algo cuando se lo diste?"
  },
  {
    "label": "104_a",
    "attribute": "0x0000000000000000",
    "text": "{{anim id=\"EmotEnd\" target=\"actor\" targetSpec=\"\"}}Pues..."
  },
  {
    "label": "104_b",
    "attribute": "0x0000000000000000",
    "text": "{{anim id=\"EmotEnd\" target=\"actor\" targetSpec=\"\"}}¡Se me ha olvidado!"
  },
  {
    "label": "105",
    "attribute": "0x0000000000000000",
    "text": "{{anim id=\"Laughing\" target=\"actor\" targetSpec=\"\"}}¡Eres peor que yo!{{delay8}} {{anim id=\"ShyBoy\" target=\"actor\" targetSpec=\"\"}}Me hubiera\ngustado saber qué dijo,{{delay8}} {{anim id=\"BigSmile\" target=\"actor\" targetSpec=\"\"}}pero eso\nme pasa por no hacerlo yo.\n{{anim id=\"Nodding\" target=\"actor\" targetSpec=\"\"}}El caso es que me has hecho un\nfavor y{{string value=\"...\"}}{{delay8}} {{selection value=\"SelectedVillager\"}} ya tiene\nlo suyo."
  },
  {
    "label": "106",
    "attribute": "0x0000000000000000",
    "text": "{{anim id=\"Surprised\" target=\"actor\" targetSpec=\"\"}}¡¿Que le diste el paquete abierto?!{{delay8}}\n{{anim id=\"TakenAback\" target=\"actor\" targetSpec=\"\"}}¡Pero {{i10_5}}cómo{{endTag}} {{i10_5}}se{{endTag}} {{i10_5}}te{{endTag}} {{i10_5}}ocurre{{endTag}}!{{delay8}}\n{{anim id=\"Frantic\" target=\"actor\" targetSpec=\"\"}}Me parece fatal{{string value=\"...\"}}{{delay20}} {{i10_5}}¡FA{{endTag}}{{delay8}}{{i10_5}}TAL!{{endTag}}"
  },
  {
    "label": "107",
    "attribute": "0x0000000000000000",
    "text": "{{anim id=\"Surprised\" target=\"actor\" targetSpec=\"\"}}¡¿Que lo abristeee?!{{delay20}}\n¿Y no le dijiste a {{selection value=\"SelectedVillager\"}} que habías sido tú?{{pageBreak}}{{anim id=\"SadSpiral\" target=\"actor\" targetSpec=\"\"}}O sea que{{delay8}} {{i10_5}}todo{{endTag}} el mimo que puse\nen prepararlo{{string value=\"...\"}}{{delay8}} Dime tú ahora\ndónde queda{{string value=\"...\"}}\n{{anim id=\"Outraged\" target=\"actor\" targetSpec=\"\"}}¡JOOOO!{{delay20}} ¡Y además ahora yo sé que\nhas sido tú,{{delay8}} pero {{gender8 m=\"él\" f=\"ella\" n=\"\"}} no, y tampoco\nme voy a chivar, que no es plan!{{pageBreak}}¡Pero es como el secreto más {{i10_5}}chungo{{endTag}}\nde la historia!"
  },
  {
    "label": "108",
    "attribute": "0x0000000000000000",
    "text": "{{anim id=\"TakenAback\" target=\"actor\" targetSpec=\"\"}}¡Ay, que ya se había comprado\notra cosa igual!{{delay20}} {{anim id=\"Worried\" target=\"actor\" targetSpec=\"\"}}Jo, soy lo peor,{{delay8}}\ntenía que haberme dado más prisa{{string value=\"...\"}}"
  },
  {
    "label": "109",
    "attribute": "0x0000000000000000",
    "text": "{{anim id=\"Eh\" target=\"actor\" targetSpec=\"\"}}O sea que ni se había dado cuenta\nde que le faltaba, ¿eh?{{pageBreak}}{{anim id=\"FaintSmile\" target=\"actor\" targetSpec=\"\"}}Pues, mira, ese alegrón que se\nhabrá llevado.{{delay8}} {{anim id=\"Greeting\" target=\"actor\" targetSpec=\"\"}}¿Te alegra saber\nque has sido parte de la sorpresa?"
  },
  {
    "label": "201",
    "attribute": "0x0000000000000000",
    "text": "{{anim id=\"Hello\" target=\"actor\" targetSpec=\"\"}}Gracias por llevarle el paquete\na {{selection value=\"SelectedVillager\"}}, guapi."
  },
  {
    "label": "202",
    "attribute": "0x0000000000000000",
    "text": "{{anim id=\"Smiling\" target=\"actor\" targetSpec=\"\"}}Gracias por ayudarme con lo del\npaquete de {{selection value=\"SelectedVillager\"}}."
  },
  {
    "label": "203",
    "attribute": "0x0000020000000000",
    "text": "{{anim id=\"QuestionMark\" target=\"actor\" targetSpec=\"\"}}¿Te ha dicho algo cuando se lo has dado?"
  },
  {
    "label": "203_a",
    "attribute": "0x0000000000000000",
    "text": "{{anim id=\"EmotEnd\" target=\"actor\" targetSpec=\"\"}}Pues mira..."
  },
  {
    "label": "203_b",
    "attribute": "0x0000000000000000",
    "text": "{{anim id=\"EmotEnd\" target=\"actor\" targetSpec=\"\"}}Se me ha olvidado"
  },
  {
    "label": "204",
    "attribute": "0x0000020000000000",
    "text": "{{anim id=\"QuestionMark\" target=\"actor\" targetSpec=\"\"}}¿Te ha dicho algo cuando se lo has dado?"
  },
  {
    "label": "204_a",
    "attribute": "0x0000000000000000",
    "text": "{{anim id=\"EmotEnd\" target=\"actor\" targetSpec=\"\"}}Pues..."
  },
  {
    "label": "204_b",
    "attribute": "0x0000000000000000",
    "text": "No me acuerdo"
  },
  {
    "label": "205",
    "attribute": "0x0000000000000000",
    "text": "{{anim id=\"Eh\" target=\"actor\" targetSpec=\"\"}}Ah, vale.{{delay8}} {{anim id=\"FaintSmile\" target=\"actor\" targetSpec=\"\"}}Bueno, el paquete está\ncon su dueñ{{gender8 m=\"o\" f=\"a\" n=\"\"}},{{delay8}} que es lo que importa.{{pageBreak}}{{anim id=\"Nodding\" target=\"actor\" targetSpec=\"\"}}Pero estoy segura de que le hizo\nsupermegailu y ahora me adora,\n{{string value=\"6\"}}."
  },
  {
    "label": "206",
    "attribute": "0x0000000000000000",
    "text": "{{anim id=\"Surprised\" target=\"actor\" targetSpec=\"\"}}¡¿En serio?!{{delay20}}{{anim id=\"Angry\" target=\"actor\" targetSpec=\"\"}} {{i10_5}}Bueno.{{endTag}}{{delay8}} Qué {{i10_5}}decepción{{endTag}}.{{delay8}}\n{{anim id=\"Frantic\" target=\"actor\" targetSpec=\"\"}}¡Y qué falta de consideración hacia\n{{selection value=\"SelectedVillager\"}}!{{pageBreak}}{{anim id=\"Frantic\" target=\"actor\" targetSpec=\"\"}}Y además ¿no es como ilegal o algo?{{delay8}}\nAy, qué estrés me está entrando{{string value=\"...\"}}"
  },
  {
    "label": "207",
    "attribute": "0x0000000000000000",
    "text": "{{anim id=\"Surprised\" target=\"actor\" targetSpec=\"\"}}¡¿De verdad que lo abriste?!{{delay8}}\n{{anim id=\"Confused\" target=\"actor\" targetSpec=\"\"}}Pues ya me imagino la cara de\n{{selection value=\"SelectedVillager\"}}{{string value=\"...\"}}\n{{anim id=\"SadSpiral\" target=\"actor\" targetSpec=\"\"}}¡Y ahora pensará que soy {{i10_5}}YO{{endTag}} la que\nabre paquetes ajenos!{{delay8}} {{anim id=\"Crying\" target=\"actor\" targetSpec=\"\"}}¡Claro, la loca\nde {{string value=\"VillagerName\"}},{{delay8}} la cotilla!"
  },
  {
    "label": "208",
    "attribute": "0x0000000000000000",
    "text": "{{anim id=\"Pardon\" target=\"actor\" targetSpec=\"\"}}¡Ah, que encima era un regalo para\nti!{{delay20}} {{anim id=\"Aha\" target=\"actor\" targetSpec=\"\"}}Pero qué coincidencia tan mágica,\n¿no? {{anim id=\"Laughing\" target=\"actor\" targetSpec=\"\"}}Me da como envidia."
  },
  {
    "label": "209",
    "attribute": "0x0000000000000000",
    "text": "{{anim id=\"Nodding\" target=\"actor\" targetSpec=\"\"}}¡{{gender8 m=\"Él\" f=\"Ella\" n=\"\"}} se alegra, yo me alegro{{string value=\"...\"}}!{{delay8}}\n{{anim id=\"Greeting\" target=\"actor\" targetSpec=\"\"}}¿Tú te alegras?{{delay8}} {{anim id=\"Nodding\" target=\"actor\" targetSpec=\"\"}}Deberías, porque\nme has hecho un superfavor."
  },
  {
    "label": "301",
    "attribute": "0x0000000000000000",
    "text": "{{anim id=\"Eh\" target=\"actor\" targetSpec=\"\"}}¡Oye!{{delay8}} {{anim id=\"Greeting\" target=\"actor\" targetSpec=\"\"}}Que gracias por llevarle\nel regalo a {{selection value=\"SelectedVillager\"}}."
  },
  {
    "label": "302",
    "attribute": "0x0000020000000000",
    "text": "{{anim id=\"QuestionMark\" target=\"actor\" targetSpec=\"\"}}¿Qué, te dijo algo cuando se lo\ndiste?"
  },
  {
    "label": "302_a",
    "attribute": "0x0000000000000000",
    "text": "{{anim id=\"EmotEnd\" target=\"actor\" targetSpec=\"\"}}Pues..."
  },
  {
    "label": "302_b",
    "attribute": "0x0000000000000000",
    "text": "No me acuerdo"
  },
  {
    "label": "303",
    "attribute": "0x0000020000000000",
    "text": "{{anim id=\"QuestionMark\" target=\"actor\" targetSpec=\"\"}}¿Cómo reaccionó cuando se lo diste?"
  },
  {
    "label": "303_a",
    "attribute": "0x0000000000000000",
    "text": "{{anim id=\"EmotEnd\" target=\"actor\" targetSpec=\"\"}}A decir verdad..."
  },
  {
    "label": "303_b",
    "attribute": "0x0000000000000000",
    "text": "{{anim id=\"EmotEnd\" target=\"actor\" targetSpec=\"\"}}Se me ha olvidado"
  },
  {
    "label": "304",
    "attribute": "0x0000000000000000",
    "text": "{{anim id=\"BrokenHeart\" target=\"actor\" targetSpec=\"\"}}¡Pero cómo le das un regalo\na alguien y luego no te acuerdas\nde si le ha gustado o no!\n{{anim id=\"Outraged\" target=\"actor\" targetSpec=\"\"}}¡¡¡«Si tinti intirís tiníis,{{delay8}} hibírsili didi\ntí mismi»!!!{{delay20}} {{anim id=\"Angry\" target=\"actor\" targetSpec=\"\"}}¡Ya lo sé!{{delay8}} ¡Ahora!{{delay8}}\n¡Y me arrepiento!{{delay8}} ¿Vale?\n{{anim id=\"Sighing\" target=\"actor\" targetSpec=\"\"}}Encima de que me haces el favor{{string value=\"...\"}}{{delay8}}\n{{anim id=\"EmotEnd\" target=\"actor\" targetSpec=\"\"}}Perdona.{{delay8}} {{anim id=\"Greeting\" target=\"actor\" targetSpec=\"\"}}Y ya le preguntaré a {{selection value=\"SelectedVillager\"}} cuando {{gender3 m=\"lo\" f=\"la\"}} vea."
  },
  {
    "label": "305",
    "attribute": "0x0000000000000000",
    "text": "{{anim id=\"Surprised\" target=\"actor\" targetSpec=\"\"}}¡¿De verdad lo abristeee?!{{pageBreak}}{{anim id=\"Crying\" target=\"actor\" targetSpec=\"\"}}¡Me costó{{delay40}} {{i10_5}}tanto{{endTag}} envolverlo\nespecialmente para {{selection value=\"SelectedVillager\"}}{{string value=\"...\"}}!"
  },
  {
    "label": "306",
    "attribute": "0x0000000000000000",
    "text": "{{anim id=\"Surprised\" target=\"actor\" targetSpec=\"\"}}¡¿Que lo abriste?!{{delay8}} {{anim id=\"SadSpiral\" target=\"actor\" targetSpec=\"\"}}Ay, qué cutrez,\ndar un regalo abierto{{string value=\"...\"}} Qué pensará\n{{selection value=\"SelectedVillager\"}} de mí{{string value=\"...\"}}\n{{anim id=\"Frantic\" target=\"actor\" targetSpec=\"\"}}Igual a ti te da igual,{{delay8}} pero a mí no,\n¿vale?{{delay20}} {{anim id=\"Crying\" target=\"actor\" targetSpec=\"\"}}Nadie piensa en míiii{{string value=\"...\"}}"
  },
  {
    "label": "307",
    "attribute": "0x0000000000000000",
    "text": "{{anim id=\"BigSmile\" target=\"actor\" targetSpec=\"\"}}¡Estupén!{{delay8}} {{anim id=\"Nodding\" target=\"actor\" targetSpec=\"\"}}Aunque era {{i10_5}}obvio{{endTag}} que\nle iba a gustar, habiéndolo\nelegido {{anim id=\"Assent\" target=\"actor\" targetSpec=\"\"}}la moi."
  },
  {
    "label": "308",
    "attribute": "0x0000000000000000",
    "text": "{{anim id=\"Hello\" target=\"actor\" targetSpec=\"\"}}¡O sea que le ha encantado!{{delay20}}\n{{anim id=\"Blushing\" target=\"actor\" targetSpec=\"\"}}Jo, qué ilu me hace, ¿sabes?"
  },
  {
    "label": "309",
    "attribute": "0x0000000000000000",
    "text": "{{anim id=\"ShyBoy\" target=\"actor\" targetSpec=\"\"}}Bueno, aunque no se haya probado\nel regalo enseguida{{string value=\"...\"}}{{delay8}} {{anim id=\"AbsentMindedness\" target=\"actor\" targetSpec=\"\"}}le puede haber\ngustado igual, ¿no?"
  },
  {
    "label": "310",
    "attribute": "0x0000000000000000",
    "text": "{{anim id=\"Aha\" target=\"actor\" targetSpec=\"\"}}¡¿Síiiii?!{{delay8}} ¿Le ha gustado?{{delay20}}\n{{anim id=\"SmugFace\" target=\"actor\" targetSpec=\"\"}}Para algo soy una experta en esto\nde la moda.{{delay8}} Más o menos."
  },
  {
    "label": "312",
    "attribute": "0x0000000000000000",
    "text": "{{anim id=\"BigSmile\" target=\"actor\" targetSpec=\"\"}}¡¿Le ha superencantado de verdad?!{{delay8}}\n{{anim id=\"Dance\" target=\"actor\" targetSpec=\"\"}}¡Superguay!"
  },
  {
    "label": "313",
    "attribute": "0x0000000000000000",
    "text": "{{anim id=\"BigSmile\" target=\"actor\" targetSpec=\"\"}}¿Estaba loca de alegría?{{delay8}}\n¡Qué chipichipi!{{pageBreak}}{{anim id=\"Thinking\" target=\"actor\" targetSpec=\"\"}}Es curioso porque {{selection value=\"SelectedVillager\"}} es como muy igual a mí.{{delay8}} Pero en plan {{i10_5}}super{{endTag}}igual.{{delay8}} {{anim id=\"Serious\" target=\"actor\" targetSpec=\"\"}}¿No es un poco raro?{{pageBreak}}{{anim id=\"Sighing\" target=\"actor\" targetSpec=\"\"}}Pero la fama puede ser tan solitaria{{string value=\"...\"}}{{delay8}}\n{{anim id=\"Smiling\" target=\"actor\" targetSpec=\"\"}}que me alegro de tener a otra\nestrella con quien compartirla."
  },
  {
    "label": "314",
    "attribute": "0x0000000000000000",
    "text": "{{anim id=\"BigSmile\" target=\"actor\" targetSpec=\"\"}}¡Ay, qué estupén que le haya gustado!{{delay20}} {{anim id=\"Confused\" target=\"actor\" targetSpec=\"\"}}Es que como que tenía\nmis dudas, ¿sabes?\n{{anim id=\"Negative\" target=\"actor\" targetSpec=\"\"}}Porque resulta que comprarle algo a {{selection value=\"SelectedVillager\"}} no es fácil, ¿eh?{{pageBreak}}{{anim id=\"Aha\" target=\"actor\" targetSpec=\"\"}}¡Ay!{{delay8}} ¿Y si la próxima vez la sigo de incógnito cuando vaya de compras?{{delay20}}\nImagínate:{{delay8}} yo, {{anim id=\"EmotEnd\" target=\"actor\" targetSpec=\"\"}}en plan espía total."
  },
  {
    "label": "315",
    "attribute": "0x0000000000000000",
    "text": "{{anim id=\"BigSmile\" target=\"actor\" targetSpec=\"\"}}Pero qué guay que le haya gustado\ntanto, ¿no?{{pageBreak}}{{anim id=\"Nodding\" target=\"actor\" targetSpec=\"\"}}Es un riesgo comprar algo así en plan\nespontáneo, pero {{anim id=\"EmotEnd\" target=\"actor\" targetSpec=\"\"}}¡la que arriesga{{delay8}}\ngana!\n{{anim id=\"Laughing\" target=\"actor\" targetSpec=\"\"}}¡Claro que {{selection value=\"SelectedVillager\"}} tendría que ser un supermuermo como para no gustarle un regalo de la moi!"
  },
  {
    "label": "316",
    "attribute": "0x0000000000000000",
    "text": "{{anim id=\"FaintSmile\" target=\"actor\" targetSpec=\"\"}}¡Qué emoción que le gustara!{{delay8}}{{pageBreak}}{{anim id=\"Nodding\" target=\"actor\" targetSpec=\"\"}}Que vale es así como muy fácil\nacertar con {{selection value=\"SelectedVillager\"}}, ¿no?{{delay8}}\n{{anim id=\"BigSmile\" target=\"actor\" targetSpec=\"\"}}Pero aun así hace ilu."
  },
  {
    "label": "317",
    "attribute": "0x0000000000000000",
    "text": "{{anim id=\"Grin\" target=\"actor\" targetSpec=\"\"}}Si es que lo sabía{{string value=\"...\"}}{{delay20}} A este\n{{selection value=\"SelectedVillager\"}} lo tengo caladísimo{{string value=\"...\"}}"
  },
  {
    "label": "318",
    "attribute": "0x0000000000000000",
    "text": "{{anim id=\"Smiling\" target=\"actor\" targetSpec=\"\"}}¡Qué alivio!{{delay8}} Porque con este\n{{selection value=\"SelectedVillager\"}} nunca se sabe, ¡como está siempre rabiando!{{pageBreak}}{{anim id=\"Blushing\" target=\"actor\" targetSpec=\"\"}}Es bueno saber que sigue siendo\ncapaz de ilusionarse por algo."
  },
  {
    "label": "319",
    "attribute": "0x0000000000000000",
    "text": "{{anim id=\"BigSmile\" target=\"actor\" targetSpec=\"\"}}¡Genial!{{delay8}} {{anim id=\"Greeting\" target=\"actor\" targetSpec=\"\"}}Estaba segurísima de que\na {{selection value=\"SelectedVillager\"}} le gustaría algo elegido por la moi."
  },
  {
    "label": "401",
    "attribute": "0x0000000000000000",
    "text": "{{anim id=\"Eh\" target=\"actor\" targetSpec=\"\"}}Oye{{string value=\"...\"}}{{delay8}} {{anim id=\"FaintSmile\" target=\"actor\" targetSpec=\"\"}}Gracias por llevarle a {{selection value=\"SelectedVillager\"}} mi regalo de disculpa{{string value=\"...\"}}"
  },
  {
    "label": "402",
    "attribute": "0x0000020000000000",
    "text": "{{anim id=\"Worried\" target=\"actor\" targetSpec=\"\"}}Y ya que estamos{{string value=\"...\"}}{{delay8}} ¿te pareció\nque {{selection value=\"SelectedVillager\"}} seguía enfadad{{gender3 m=\"o\" f=\"a\"}}{{string value=\"...\"}}{{delay8}} o no?"
  },
  {
    "label": "402_a",
    "attribute": "0x0000000000000000",
    "text": "{{anim id=\"EmotEnd\" target=\"actor\" targetSpec=\"\"}}Pues..."
  },
  {
    "label": "402_b",
    "attribute": "0x0000000000000000",
    "text": "No me acuerdo"
  },
  {
    "label": "403",
    "attribute": "0x0000020000000000",
    "text": "{{anim id=\"Worried\" target=\"actor\" targetSpec=\"\"}}Entonces{{string value=\"...\"}}{{delay8}} ¿estaba así como\nmuy enfadad{{gender8 m=\"o\" f=\"a\" n=\"\"}}?"
  },
  {
    "label": "403_a",
    "attribute": "0x0000000000000000",
    "text": "{{anim id=\"EmotEnd\" target=\"actor\" targetSpec=\"\"}}En realidad..."
  },
  {
    "label": "403_b",
    "attribute": "0x0000000000000000",
    "text": "No me acuerdo"
  },
  {
    "label": "404",
    "attribute": "0x0000000000000000",
    "text": "{{anim id=\"Surprised\" target=\"actor\" targetSpec=\"\"}}¿Cómo que no te acuerdas?{{delay8}}\n¿En serio?{{delay8}} {{anim id=\"Frantic\" target=\"actor\" targetSpec=\"\"}}Pero si no te fijas en esas\ncosas para contármelas, ¡a qué vas!\n{{anim id=\"Worried\" target=\"actor\" targetSpec=\"\"}}Esa era la parte más importante\nde la misión.{{pageBreak}}{{anim id=\"SadSpiral\" target=\"actor\" targetSpec=\"\"}}Vale, sí,{{delay8}} tenía que haber ido yo,{{delay8}}\nque soy la interesada{{string value=\"...\"}}{{delay8}}\n{{anim id=\"Negative\" target=\"actor\" targetSpec=\"\"}}Pero es que no quería."
  },
  {
    "label": "405",
    "attribute": "0x0000000000000000",
    "text": "{{anim id=\"TakenAback\" target=\"actor\" targetSpec=\"\"}}¡¿Qué me diceees?!{{delay8}}\n{{anim id=\"Frantic\" target=\"actor\" targetSpec=\"\"}}¡¿Que lo has abiertooo?!{{delay20}}\n¡¿Y cómo se te ocurre hacer esooo?!\n{{anim id=\"SadSpiral\" target=\"actor\" targetSpec=\"\"}}Con lo bien que lo había envuelto\ny la de bayas que me gasté\nen lazos con purpurina{{string value=\"...\"}}"
  },
  {
    "label": "406",
    "attribute": "0x0000000000000000",
    "text": "{{anim id=\"Surprised\" target=\"actor\" targetSpec=\"\"}}¿En serio que abriste el regalo,{{delay8}}\nse lo diste con el envoltorio hecho\nun gurruño,{{delay8}} y ni confesaste ni nada?\n{{anim id=\"Outraged\" target=\"actor\" targetSpec=\"\"}}¡Me parece lo peor!{{pageBreak}}Seguro que ahora {{selection value=\"SelectedVillager\"}} piensa: {{anim id=\"OhGeez\" target=\"actor\" targetSpec=\"\"}}«Hay que ser {{i10_5}}cutre{{endTag}} para dar un regalo sin envolver».{{pageBreak}}{{anim id=\"Fuming\" target=\"actor\" targetSpec=\"\"}}¡Y eso lo piensa de mí!{{delay8}} ¡DE LA MOI!\n{{anim id=\"Crying\" target=\"actor\" targetSpec=\"\"}}Yo no sé si nuestra amistad puede\nsoportar esto, {{string value=\"NickName\"}}."
  },
  {
    "label": "407",
    "attribute": "0x0000000000000000",
    "text": "{{anim id=\"Sighing\" target=\"actor\" targetSpec=\"\"}}Uuuuf{{string value=\"...\"}} Jo, menos mal{{string value=\"...\"}}\n¡Creía que me odiaba!{{pageBreak}}{{anim id=\"Nodding\" target=\"actor\" targetSpec=\"\"}}Me alegro de que todo vaya a volver\na la normalidad.{{delay8}} {{anim id=\"Nodding\" target=\"actor\" targetSpec=\"\"}}¡Y todo gracias\na ti, {{string value=\"6\"}}!"
  },
  {
    "label": "501",
    "attribute": "0x0000000000000000",
    "text": "{{anim id=\"Eh\" target=\"actor\" targetSpec=\"\"}}¡Oye, {{string value=\"NickName\"}}!{{delay8}} {{anim id=\"QuestionMark\" target=\"actor\" targetSpec=\"\"}}¿Aún tienes eso que te di para {{selection value=\"SelectedVillager\"}}?{{pageBreak}}{{anim id=\"Hello\" target=\"actor\" targetSpec=\"\"}}¿Me lo devuelves?{{delay8}} {{anim id=\"Nodding\" target=\"actor\" targetSpec=\"\"}}He decidido\ndevolvérselo yo misma.{{delay20}} {{anim id=\"BigSmile\" target=\"actor\" targetSpec=\"\"}}¿A que\nsoy valiente?"
  },
  {
    "label": "502",
    "attribute": "0x0000000000000000",
    "text": "{{anim id=\"Eh\" target=\"actor\" targetSpec=\"\"}}¡Ah, {{string value=\"NickName\"}}!{{delay8}} {{anim id=\"QuestionMark\" target=\"actor\" targetSpec=\"\"}}Aún no le has devuelto a {{selection value=\"SelectedVillager\"}} eso que se dejó en mi casa, ¿verdad?{{pageBreak}}{{anim id=\"Explain\" target=\"actor\" targetSpec=\"\"}}Es que resulta que al final voy a\npoder dárselo yo en persona."
  },
  {
    "label": "503",
    "attribute": "0x0000000000000000",
    "text": "{{anim id=\"Eh\" target=\"actor\" targetSpec=\"\"}}¡Oye!{{delay8}} {{anim id=\"QuestionMark\" target=\"actor\" targetSpec=\"\"}}¿Aún tienes aquel paquete\npara {{selection value=\"SelectedVillager\"}} que me llegó a mí por error?{{pageBreak}}{{anim id=\"ShyBoy\" target=\"actor\" targetSpec=\"\"}}¿Me lo devuelves?{{delay8}} Seguramente\nes mejor que se lo dé yo misma."
  },
  {
    "label": "504",
    "attribute": "0x0000000000000000",
    "text": "{{anim id=\"Restless\" target=\"actor\" targetSpec=\"\"}}Aún no le has entregado el regalo\nque te di para {{selection value=\"SelectedVillager\"}},\n¿verdad?\n{{anim id=\"Nodding\" target=\"actor\" targetSpec=\"\"}}Es que, mira, un regalo como que\nhay que darlo en persona, ¿no?{{delay8}}\n{{anim id=\"QuestionMark\" target=\"actor\" targetSpec=\"\"}}¿Me lo devuelves?"
  },
  {
    "label": "505",
    "attribute": "0x0000000000000000",
    "text": "{{anim id=\"Restless\" target=\"actor\" targetSpec=\"\"}}Ese regalo que te di para hacer las\npaces con {{selection value=\"SelectedVillager\"}}{{string value=\"...\"}}{{delay8}}\n¿lo tienes aún?{{pageBreak}}{{anim id=\"Sighing\" target=\"actor\" targetSpec=\"\"}}Es que, mira, como que tengo que\npasar este mal trago yo misma, ¿no?{{delay20}}\n¿Me lo puedes devolver?"
  },
  {
    "label": "506",
    "attribute": "0x0000000000000000",
    "text": "{{anim id=\"Negative\" target=\"actor\" targetSpec=\"\"}}Es que me daba como vergu ¿sabes?{{delay8}}\nDespués de tanto tiempo{{string value=\"...\"}}{{pageBreak}}{{anim id=\"Nodding\" target=\"actor\" targetSpec=\"\"}}Pero voy, se lo devuelvo, le doy\nlas gracias, me disculpo {{anim id=\"BigSmile\" target=\"actor\" targetSpec=\"\"}}¡y ya está!"
  },
  {
    "label": "507",
    "attribute": "0x0000000000000000",
    "text": "{{anim id=\"OhGeez\" target=\"actor\" targetSpec=\"\"}}Que es lo que tenía que haber\nhecho desde el principio{{string value=\"...\"}}\n{{anim id=\"FaintSmile\" target=\"actor\" targetSpec=\"\"}}A veces soy así de pava, oye."
  },
  {
    "label": "508",
    "attribute": "0x0000000000000000",
    "text": "{{anim id=\"Hello\" target=\"actor\" targetSpec=\"\"}}Aparte de que llevará {{i10_5}}siglos{{endTag}} en plan\n«¿Dónde está mi paquete?»,\nes menos raro si se lo doy yo, ¿no?\n{{anim id=\"Greeting\" target=\"actor\" targetSpec=\"\"}}Perdona por liarte, guapi."
  },
  {
    "label": "509",
    "attribute": "0x0000000000000000",
    "text": "{{anim id=\"ShyBoy\" target=\"actor\" targetSpec=\"\"}}¿No sé por qué me dio la paranoia\nde que {{selection value=\"SelectedVillager\"}} pensaría que soy una rara?{{pageBreak}}{{anim id=\"Smiling\" target=\"actor\" targetSpec=\"\"}}¡Con lo bonito que es que te hagan\nun regalo que no te esperabas!{{delay8}}\n{{anim id=\"Hesitate\" target=\"actor\" targetSpec=\"\"}}Me perdonas el lío, ¿vale?"
  },
  {
    "label": "510",
    "attribute": "0x0000000000000000",
    "text": "{{anim id=\"Serious\" target=\"actor\" targetSpec=\"\"}}Es que, a ver, ¿pero de qué voy yo,\ndiciendo que si perdón, que si lo\nsiento mucho, pero escondida?\n{{anim id=\"Nodding\" target=\"actor\" targetSpec=\"\"}}Las disculpas,{{delay8}} a la cara y en persona.{{delay20}}\n{{anim id=\"EmotEnd\" target=\"actor\" targetSpec=\"\"}}Como una estrella responsable."
  },
  {
    "label": "511",
    "attribute": "0x0000000000000000",
    "text": "{{anim id=\"Surprised\" target=\"actor\" targetSpec=\"\"}}¡¿Esto qué es?!{{delay8}} ¡¿Por qué lo has\nabierto?!{{delay20}} {{anim id=\"Sighing\" target=\"actor\" targetSpec=\"\"}}Hala, ahora a envolverlo\notra vez, que como no cuesta nada{{string value=\"...\"}}\n{{anim id=\"Angry\" target=\"actor\" targetSpec=\"\"}}¡A ver si la próxima vez no vas\npor ahí abriendo paquetes ajenos!"
  },
  {
    "label": "512",
    "attribute": "0x0000000000000000",
    "text": "{{anim id=\"Surprised\" target=\"actor\" targetSpec=\"\"}}¿En serio?{{delay8}} O sea, ¡¿en serio?!{{delay20}}\n{{anim id=\"Outraged\" target=\"actor\" targetSpec=\"\"}}¡¡¿De verdad?!!{{pageBreak}}{{anim id=\"SadSpiral\" target=\"actor\" targetSpec=\"\"}}A envolverlo otra vez,{{delay8}} y se me había\nacabado el papel de regalo{{string value=\"...\"}}{{pageBreak}}{{anim id=\"Angry\" target=\"actor\" targetSpec=\"\"}}¡Jopé, {{string value=\"NickName\"}}, no vuelvas\na ser tan cotilla!"
  },
  {
    "label": "513",
    "attribute": "0x0000000000000000",
    "text": "{{anim id=\"Surprised\" target=\"actor\" targetSpec=\"\"}}¡¿Y por qué lo has abierto?!{{delay8}}\n{{anim id=\"Confused\" target=\"actor\" targetSpec=\"\"}}¿Te gustaría a ti que te abrieran\nun paquete, eh?\n{{anim id=\"Worried\" target=\"actor\" targetSpec=\"\"}}Qué mal arreglo tiene esto, ¿sabes?\n{{anim id=\"Angry\" target=\"actor\" targetSpec=\"\"}}Vaya manera {{i10_5}}super{{endTag}}chunga de\ntraicionar la confianza de la gente."
  },
  {
    "label": "514",
    "attribute": "0x0000000000000000",
    "text": "{{anim id=\"Surprised\" target=\"actor\" targetSpec=\"\"}}¡{{i10_5}}No{{endTag}} {{i10_5}}me{{endTag}} {{i10_5}}lo{{endTag}} {{i10_5}}puedo{{endTag}} {{i10_5}}creer{{endTag}}!{{delay20}}\n¡¿Que lo has abierto?!{{pageBreak}}{{anim id=\"Crying\" target=\"actor\" targetSpec=\"\"}}¡Todo el cariño que había puesto\nen envolverlo para naaadaaaa!{{delay20}}\n¡Eso no se haceeee!"
  },
  {
    "label": "515",
    "attribute": "0x0000000000000000",
    "text": "{{anim id=\"Surprised\" target=\"actor\" targetSpec=\"\"}}¡Esto es el supercolmo!{{pageBreak}}{{anim id=\"SadSpiral\" target=\"actor\" targetSpec=\"\"}}Vaya disculpa, con un regalo sin\nenvolver, como si lo hubiera\ncomprado en el súper o algo{{string value=\"...\"}}\n{{anim id=\"Angry\" target=\"actor\" targetSpec=\"\"}}¡Los regalos ajenos no se abren,\n{{string value=\"NickName\"}}!"
  },
  {
    "label": "516",
    "attribute": "0x0000000000000000",
    "text": "{{anim id=\"Surprised\" target=\"actor\" targetSpec=\"\"}}¡¿No lo tienes?!{{delay20}} {{anim id=\"Outraged\" target=\"actor\" targetSpec=\"\"}}¡¿Tienes idea\ndel {{i10_5}}lío{{endTag}} en que me has metido?!{{delay20}}\n¡Va a parecer que lo he perdido yo!{{pageBreak}}{{anim id=\"SadSpiral\" target=\"actor\" targetSpec=\"\"}}Porras.{{delay20}} Supongo que la culpa\nes mía por delegar.{{delay20}}{{anim id=\"EmotEnd\" target=\"actor\" targetSpec=\"\"}} Perdona por\nhaberme puesto así.{{pageBreak}}{{anim id=\"Worried\" target=\"actor\" targetSpec=\"\"}}No te preocupes,{{delay8}} ya lo arreglo yo\ntodo como sea."
  },
  {
    "label": "517",
    "attribute": "0x0000000000000000",
    "text": "{{anim id=\"Surprised\" target=\"actor\" targetSpec=\"\"}}¡¿Que lo has perdido?!{{delay8}}\n{{anim id=\"SadSpiral\" target=\"actor\" targetSpec=\"\"}}Jo, qué tragedia, ¿no?{{delay8}}\n¿Y ahora qué hacemos?\n{{anim id=\"EmotEnd\" target=\"actor\" targetSpec=\"\"}}Así a toro pasado:{{delay8}} no fue nada de\nbuena idea habértelo dado a ti para\nque lo devolvieras en mi lugar.\n{{anim id=\"Worried\" target=\"actor\" targetSpec=\"\"}}Mira qué bien, he aprendido una\nlección{{string value=\"...\"}}{{delay20}} {{anim id=\"Negative\" target=\"actor\" targetSpec=\"\"}}A veces aprender es un\nasco, ¿sabes?"
  },
  {
    "label": "518",
    "attribute": "0x0000000000000000",
    "text": "{{anim id=\"Surprised\" target=\"actor\" targetSpec=\"\"}}¡¿Me dices que lo has perdido?!{{delay8}}\n{{anim id=\"Frantic\" target=\"actor\" targetSpec=\"\"}}Ay, que me da un flus{{string value=\"...\"}}{{pageBreak}}{{anim id=\"Sighing\" target=\"actor\" targetSpec=\"\"}}Pero ¿por qué te pedí a ti que lo\nhicieras por mí?{{delay8}} ¿Qué sentido tenía?{{delay8}}\n¿Por qué me pareció buena idea?\n{{anim id=\"Worried\" target=\"actor\" targetSpec=\"\"}}Ahora como que tengo que explicárselo a {{selection value=\"SelectedVillager\"}}{{string value=\"...\"}}"
  },
  {
    "label": "519",
    "attribute": "0x0000000000000000",
    "text": "{{anim id=\"Surprised\" target=\"actor\" targetSpec=\"\"}}¡¿Quéee?!{{delay8}} ¡¿Pero cómo puedes\nhaberlo perdido?!{{delay20}} {{anim id=\"Crying\" target=\"actor\" targetSpec=\"\"}}¡Con el cariño\nque había puestooo!{{pageBreak}}{{anim id=\"Worried\" target=\"actor\" targetSpec=\"\"}}Aunque una cosa te digo:{{delay8}} es verdad\nque debería habérselo dado yo\nmisma, en lugar de meterte en esto.\n{{anim id=\"Thinking\" target=\"actor\" targetSpec=\"\"}}Si se me ocurre hacer otro regalo,{{delay8}}\nmejor no subcontrato la entrega."
  },
  {
    "label": "520",
    "attribute": "0x0000000000000000",
    "text": "{{anim id=\"Surprised\" target=\"actor\" targetSpec=\"\"}}¡¿Lo has perdido?!{{delay8}} ¡¿Cómo?!{{delay20}}\n{{anim id=\"SadSpiral\" target=\"actor\" targetSpec=\"\"}}Qué mal, qué fatal, qué {{i10_5}}super{{endTag}}mal\nde la maldad de la fatalidad{{string value=\"...\"}}\n{{anim id=\"Sighing\" target=\"actor\" targetSpec=\"\"}}Encima no me puedo enfadar {{size value=\"75\"}}supongo{{size value=\"100\"}}\nporque tenía que habérselo dado\nyo misma, claro{{string value=\"...\"}}\n{{anim id=\"Worried\" target=\"actor\" targetSpec=\"\"}}No te preocupes, {{string value=\"NickName\"}}, voy a arreglar esto como pueda."
  }
]