﻿[
  {
    "label": "002",
    "attribute": "0x0000000000000000",
    "text": "{{anim id=\"Eh\" target=\"actor\" targetSpec=\"\"}}えっ、{{delay20}}ホントかい？{{delay frames=\"40\"}}\n{{anim id=\"Smiling\" target=\"actor\" targetSpec=\"\"}}アンタがいる　この{{string value=\"32\"}}なら、{{delay20}}\nきっと　{{ruby charSpan=\"1\" value=\"たの\"}}楽しいに{{ruby charSpan=\"1\" value=\"ちが\"}}違いないよ！{{pageBreak}}{{anim id=\"Nodding\" target=\"actor\" targetSpec=\"\"}}それじゃ、{{delay20}}{{ruby charSpan=\"2\" value=\"ひっこ\"}}引越しの{{ruby charSpan=\"1\" value=\"う\"}}受け{{ruby charSpan=\"1\" value=\"い\"}}入れが\nできるかどうか、{{delay20}}サクッと{{delay8}}\nこの{{string value=\"32\"}}の　{{color id=\"1\"}}{{ruby charSpan=\"3\" value=\"あんないじょ\"}}案内所{{color id=\"65535\"}}に　{{ruby charSpan=\"1\" value=\"き\"}}聞いてくるよ、{{string value=\"6\"}}"
  },
  {
    "label": "003",
    "attribute": "0x0000000000000000",
    "text": "{{anim id=\"Eh\" target=\"actor\" targetSpec=\"\"}}おやおや！　{{delay frames=\"30\"}}{{ruby charSpan=\"2\" value=\"いちど\"}}一度　{{ruby charSpan=\"1\" value=\"ことわ\"}}断っちまったってのに{{delay20}}\n{{anim id=\"EmotEnd\" target=\"actor\" targetSpec=\"\"}}まだ　{{ruby charSpan=\"1\" value=\"さそ\"}}誘ってくれるのかい？{{pageBreak}}{{anim id=\"Nodding\" target=\"actor\" targetSpec=\"\"}}{{string value=\"...\"}}よし！{{delay frames=\"30\"}}\nアンタの{{ruby charSpan=\"2\" value=\"きあ\"}}気合いと{{ruby charSpan=\"2\" value=\"こんじょう\"}}根性、{{delay8}}{{ruby charSpan=\"1\" value=\"き\"}}気に{{ruby charSpan=\"1\" value=\"い\"}}入ったよ！{{delay frames=\"40\"}}\n{{anim id=\"SmugFace\" target=\"actor\" targetSpec=\"\"}}{{ruby charSpan=\"1\" value=\"おも\"}}思い{{ruby charSpan=\"1\" value=\"き\"}}切って　{{delay8}}{{ruby charSpan=\"2\" value=\"ひっこ\"}}引越してみるか！{{pageBreak}}{{anim id=\"Smiling\" target=\"actor\" targetSpec=\"\"}}そんじゃ　{{delay8}}さっそく\n{{string value=\"32\"}}の{{color id=\"1\"}}{{ruby charSpan=\"3\" value=\"あんないじょ\"}}案内所{{color id=\"65535\"}}へ　ひとっ{{ruby charSpan=\"1\" value=\"ぱし\"}}走りして{{delay20}}\nココに{{ruby charSpan=\"1\" value=\"す\"}}住んでいいか　{{ruby charSpan=\"1\" value=\"き\"}}聞いてくるね、{{string value=\"6\"}}"
  },
  {
    "label": "101",
    "attribute": "0x0000000000000000",
    "text": "{{fun_0014003C arg=\"\"}}"
  },
  {
    "label": "101_01",
    "attribute": "0x0000000000000000",
    "text": "{{anim id=\"Eh\" target=\"actor\" targetSpec=\"\"}}えっ、{{delay8}}いいのかい？！{{delay frames=\"40\"}}\n{{anim id=\"Blushing\" target=\"actor\" targetSpec=\"\"}}アンタに　そう{{ruby charSpan=\"1\" value=\"い\"}}言ってもらえるなんて{{delay8}}\n{{ruby charSpan=\"1\" value=\"ゆめ\"}}夢にも　{{ruby charSpan=\"1\" value=\"おも\"}}思ってなかったよ{{string value=\"...\"}}{{pageBreak}}{{anim id=\"Worried\" target=\"actor\" targetSpec=\"\"}}ただ、{{delay20}}せっかく　{{ruby charSpan=\"1\" value=\"さそ\"}}誘ってくれたのに\n{{ruby charSpan=\"1\" value=\"もう\"}}申し{{ruby charSpan=\"1\" value=\"わけ\"}}訳ないけど、{{delay20}}{{ruby charSpan=\"2\" value=\"こんかい\"}}今回は　やめとこうかねぇ{{delay frames=\"40\"}}\n{{anim id=\"FaintSmile\" target=\"actor\" targetSpec=\"\"}}{{ruby charSpan=\"1\" value=\"きゅう\"}}急に　{{string value=\"32\"}}を{{ruby charSpan=\"1\" value=\"で\"}}出たら、{{delay20}}ダチが{{ruby charSpan=\"1\" value=\"さみ\"}}寂しがるからさ"
  },
  {
    "label": "101_02",
    "attribute": "0x0000000000000000",
    "text": "{{anim id=\"Shocked\" target=\"actor\" targetSpec=\"\"}}ええっ、{{delay20}}なんだって？{{delay frames=\"40\"}}\n{{anim id=\"Laughing\" target=\"actor\" targetSpec=\"\"}}ウチも　この{{string value=\"32\"}}に　{{ruby charSpan=\"1\" value=\"す\"}}住んでいいだなんて、{{delay20}}\nアンタ{{delay8}}　なかなか　{{ruby charSpan=\"1\" value=\"ふと\"}}太っ{{ruby charSpan=\"1\" value=\"ぱら\"}}腹だねぇ{{pageBreak}}{{anim id=\"Nodding\" target=\"actor\" targetSpec=\"\"}}そう{{ruby charSpan=\"1\" value=\"い\"}}言ってもらえたのは　うれしいけど、{{delay20}}\n{{anim id=\"Blushing\" target=\"actor\" targetSpec=\"\"}}やっぱり　ウチは　{{delay8}}{{ruby charSpan=\"2\" value=\"じぶん\"}}自分の{{string value=\"32\"}}に{{ruby charSpan=\"1\" value=\"す\"}}住むよ{{delay frames=\"40\"}}\nあの{{string value=\"32\"}}には　{{delay8}}{{ruby charSpan=\"2\" value=\"あいちゃく\"}}愛着があるからね、{{string value=\"6\"}}"
  },
  {
    "label": "101_03",
    "attribute": "0x0000000000000000",
    "text": "{{anim id=\"Eh\" target=\"actor\" targetSpec=\"\"}}えっ、{{delay20}}{{ruby charSpan=\"2\" value=\"ほんき\"}}本気で　{{ruby charSpan=\"1\" value=\"い\"}}言ってくれてるのかい？{{delay frames=\"40\"}}\n{{anim id=\"FaintSmile\" target=\"actor\" targetSpec=\"\"}}この{{string value=\"32\"}}に　{{ruby charSpan=\"1\" value=\"こ\"}}越してきてもいいなんて、{{delay20}}\nうれしいお{{ruby charSpan=\"1\" value=\"さそ\"}}誘いに{{delay8}}　{{ruby charSpan=\"1\" value=\"おどろ\"}}驚いちまったよ{{string value=\"...\"}}{{pageBreak}}{{anim id=\"Worried\" target=\"actor\" targetSpec=\"\"}}でも、{{delay20}}まだ{{ruby charSpan=\"2\" value=\"じぶん\"}}自分の{{string value=\"32\"}}で　やりたいことが{{delay8}}\nウチには{{delay8}}　たくさん{{ruby charSpan=\"1\" value=\"のこ\"}}残っててねぇ{{delay frames=\"40\"}}\n{{anim id=\"ShyBoy\" target=\"actor\" targetSpec=\"\"}}{{ruby charSpan=\"1\" value=\"もう\"}}申し{{ruby charSpan=\"1\" value=\"わけ\"}}訳ないけど、{{delay20}}すぐには{{ruby charSpan=\"2\" value=\"いじゅう\"}}移住できないんだ"
  },
  {
    "label": "201_01",
    "attribute": "0x0000010000000000",
    "text": "{{anim id=\"Aha\" target=\"actor\" targetSpec=\"\"}}おお？！{{delay20}}　ホントにいいのかい？{{delay frames=\"40\"}}\n{{anim id=\"Thinking\" target=\"actor\" targetSpec=\"\"}}う～ん{{string value=\"...\"}}　{{delay20}}とは{{ruby charSpan=\"1\" value=\"い\"}}言え、{{delay8}}このままノリで\n{{ruby charSpan=\"2\" value=\"いじゅう\"}}移住するってのも　おもしろくないしねぇ{{pageBreak}}{{anim id=\"IdeaBulb\" target=\"actor\" targetSpec=\"\"}}あっ、{{delay20}}そうだ！{{delay frames=\"40\"}}\n{{anim id=\"Explain\" target=\"actor\" targetSpec=\"\"}}ここはひとつ　{{delay20}}ウチの{{ruby charSpan=\"2\" value=\"いじゅう\"}}移住をかけて\nゲームでも　してみないかい？{{pageBreak}}{{anim id=\"Nodding\" target=\"actor\" targetSpec=\"\"}}アンタが{{ruby charSpan=\"1\" value=\"か\"}}勝ったら、{{delay8}}この{{string value=\"32\"}}に　{{ruby charSpan=\"2\" value=\"ひっこ\"}}引越すよ{{delay frames=\"40\"}}\n{{anim id=\"Laughing\" target=\"actor\" targetSpec=\"\"}}なーに　カンタンな{{ruby charSpan=\"2\" value=\"しょうぶ\"}}勝負さ！{{pageBreak}}{{anim id=\"EmotEnd\" target=\"actor\" targetSpec=\"\"}}こういうのって　{{delay8}}あとあと{{ruby charSpan=\"1\" value=\"おも\"}}思い{{ruby charSpan=\"1\" value=\"で\"}}出に{{ruby charSpan=\"1\" value=\"のこ\"}}残るし、{{delay20}}\n{{anim id=\"Hello\" target=\"actor\" targetSpec=\"\"}}{{ruby charSpan=\"1\" value=\"なに\"}}何より　おもしろそうだろ？　{{string value=\"6\"}}"
  },
  {
    "label": "201_01_a",
    "attribute": "0x0000000000000000",
    "text": "いいね！"
  },
  {
    "label": "201_01_b",
    "attribute": "0x0000000000000000",
    "text": "そういうのは　ちょっと"
  },
  {
    "label": "201_02",
    "attribute": "0x0000010000000000",
    "text": "{{anim id=\"Eh\" target=\"actor\" targetSpec=\"\"}}おや？！{{delay20}}　いいのかい？{{delay frames=\"40\"}}\n{{anim id=\"Nodding\" target=\"actor\" targetSpec=\"\"}}アンタの　{{ruby charSpan=\"1\" value=\"ふところ\"}}懐の{{ruby charSpan=\"1\" value=\"ふか\"}}深さには　{{ruby charSpan=\"1\" value=\"おそ\"}}恐れ{{ruby charSpan=\"1\" value=\"い\"}}入ったよ{{delay frames=\"40\"}}\n{{anim id=\"Thinking\" target=\"actor\" targetSpec=\"\"}}だけど、{{delay20}}{{ruby charSpan=\"2\" value=\"とつぜん\"}}突然すぎて　{{ruby charSpan=\"1\" value=\"こころ\"}}心の{{ruby charSpan=\"2\" value=\"じゅんび\"}}準備がねぇ{{pageBreak}}{{string value=\"...\"}}{{anim id=\"Aha\" target=\"actor\" targetSpec=\"\"}}あ、{{delay20}}イイことを　ひらめいた！{{delay frames=\"40\"}}\n{{anim id=\"FaintSmile\" target=\"actor\" targetSpec=\"\"}}ここはひとつ{{delay8}}　ゲームで{{ruby charSpan=\"1\" value=\"き\"}}決めてみようよ！{{pageBreak}}{{anim id=\"BigSmile\" target=\"actor\" targetSpec=\"\"}}アンタが{{ruby charSpan=\"1\" value=\"か\"}}勝ったら、{{delay8}}ウチは　ココに{{ruby charSpan=\"2\" value=\"いじゅう\"}}移住する！{{delay frames=\"40\"}}\n{{anim id=\"Explain\" target=\"actor\" targetSpec=\"\"}}これなら　グズグズと　{{ruby charSpan=\"1\" value=\"まよ\"}}迷わなくて{{ruby charSpan=\"1\" value=\"す\"}}済むだろ？{{pageBreak}}{{anim id=\"FaintSmile\" target=\"actor\" targetSpec=\"\"}}どうだい、{{delay8}}やってみないかい？{{delay frames=\"40\"}}\n{{anim id=\"Hesitate\" target=\"actor\" targetSpec=\"\"}}ひとりじゃ　なかなか　{{ruby charSpan=\"1\" value=\"き\"}}決められないから{{delay20}}\nキッカケ{{ruby charSpan=\"1\" value=\"づく\"}}作りを　{{ruby charSpan=\"2\" value=\"てつだ\"}}手伝っておくれ、{{string value=\"6\"}}"
  },
  {
    "label": "201_02_a",
    "attribute": "0x0000000000000000",
    "text": "{{ruby charSpan=\"1\" value=\"ま\"}}負けないよ！"
  },
  {
    "label": "201_02_b",
    "attribute": "0x0000000000000000",
    "text": "またこんどね"
  },
  {
    "label": "201_03",
    "attribute": "0x0000010000000000",
    "text": "{{anim id=\"FaintSmile\" target=\"actor\" targetSpec=\"\"}}{{ruby charSpan=\"1\" value=\"さそ\"}}誘ってもらえて　うれしいよ{{delay frames=\"40\"}}\n{{anim id=\"Thinking\" target=\"actor\" targetSpec=\"\"}}ただ、{{delay8}}{{ruby charSpan=\"1\" value=\"いま\"}}今の{{string value=\"32\"}}も　けっこう{{ruby charSpan=\"1\" value=\"き\"}}気に{{ruby charSpan=\"1\" value=\"い\"}}入っててねぇ{{delay frames=\"40\"}}\nキッカケがあれば　{{delay8}}{{ruby charSpan=\"1\" value=\"こし\"}}腰を{{ruby charSpan=\"1\" value=\"あ\"}}上げるんだけど{{string value=\"...\"}}{{pageBreak}}{{anim id=\"IdeaBulb\" target=\"actor\" targetSpec=\"\"}}お、{{delay20}}イイこと　ひらめいた！{{delay frames=\"40\"}}\n{{anim id=\"FaintSmile\" target=\"actor\" targetSpec=\"\"}}ゲームで{{ruby charSpan=\"1\" value=\"き\"}}決めるのなんて　{{delay8}}どうだい？{{pageBreak}}{{anim id=\"Nodding\" target=\"actor\" targetSpec=\"\"}}アンタが{{ruby charSpan=\"1\" value=\"か\"}}勝ったら　{{ruby charSpan=\"2\" value=\"ひっこ\"}}引越すことにするよ！{{delay frames=\"40\"}}\n{{anim id=\"Grin\" target=\"actor\" targetSpec=\"\"}}{{ruby charSpan=\"2\" value=\"けいき\"}}景気づけに　ピッタリだろ！{{pageBreak}}{{anim id=\"FaintSmile\" target=\"actor\" targetSpec=\"\"}}ウチも　ふん{{ruby charSpan=\"1\" value=\"ぎ\"}}切りがつくし、{{delay20}}\n{{ruby charSpan=\"1\" value=\"わる\"}}悪い{{ruby charSpan=\"1\" value=\"はなし\"}}話じゃないと{{ruby charSpan=\"1\" value=\"おも\"}}思うんだよね{{delay frames=\"40\"}}\n{{anim id=\"Hello\" target=\"actor\" targetSpec=\"\"}}どうする、{{delay20}}やってみるかい？　{{string value=\"6\"}}"
  },
  {
    "label": "201_03_a",
    "attribute": "0x0000000000000000",
    "text": "やるやる！"
  },
  {
    "label": "201_03_b",
    "attribute": "0x0000000000000000",
    "text": "エンリョしとくよ"
  },
  {
    "label": "202_01",
    "attribute": "0x0000000000000000",
    "text": "{{anim id=\"Eh\" target=\"actor\" targetSpec=\"\"}}ありゃ、{{delay8}}やらないのかい？{{delay frames=\"40\"}}\n{{anim id=\"ShyBoy\" target=\"actor\" targetSpec=\"\"}}それなら　しょうがないねぇ、{{string value=\"6\"}}"
  },
  {
    "label": "202_02",
    "attribute": "0x0000000000000000",
    "text": "{{anim id=\"QuestionMark\" target=\"actor\" targetSpec=\"\"}}おや、{{delay20}}やらないのかい？{{delay frames=\"40\"}}\n{{anim id=\"FaintSmile\" target=\"actor\" targetSpec=\"\"}}そんじゃ　またの{{ruby charSpan=\"2\" value=\"きかい\"}}機会にね、{{string value=\"6\"}}"
  },
  {
    "label": "202_03",
    "attribute": "0x0000000000000000",
    "text": "{{anim id=\"Restless\" target=\"actor\" targetSpec=\"\"}}ふーん、{{delay20}}エンリョなんて　いらないけどねぇ{{delay frames=\"40\"}}\n{{anim id=\"FaintSmile\" target=\"actor\" targetSpec=\"\"}}まぁ　{{delay8}}{{ruby charSpan=\"2\" value=\"むり\"}}無理にとは　{{ruby charSpan=\"1\" value=\"い\"}}言わないよ、{{string value=\"6\"}}"
  },
  {
    "label": "203_01",
    "attribute": "0x0000000000000000",
    "text": "{{anim id=\"BigSmile\" target=\"actor\" targetSpec=\"\"}}よしきた！{{delay frames=\"30\"}}\nそんじゃ、{{delay8}}{{anim id=\"Assent\" target=\"actor\" targetSpec=\"\"}}カードゲームで{{ruby charSpan=\"2\" value=\"しょうぶ\"}}勝負だ！"
  },
  {
    "label": "204",
    "attribute": "0x0000000000000000",
    "text": "{{fun_0014003C arg=\"\"}}"
  },
  {
    "label": "204_01",
    "attribute": "0x0000000000000000",
    "text": "ってコトで、{{delay8}}{{anim id=\"Grin\" target=\"actor\" targetSpec=\"\"}}この{{ruby charSpan=\"2\" value=\"しょうぶ\"}}勝負は　ウチの{{ruby charSpan=\"1\" value=\"か\"}}勝ちだよ{{delay frames=\"40\"}}\n{{anim id=\"ShyBoy\" target=\"actor\" targetSpec=\"\"}}ま、{{delay20}}こういうのは　{{ruby charSpan=\"1\" value=\"とき\"}}時の{{ruby charSpan=\"1\" value=\"うん\"}}運だからさ"
  },
  {
    "label": "204_02",
    "attribute": "0x0000000000000000",
    "text": "ってコトで、{{delay20}}{{anim id=\"SmugFace\" target=\"actor\" targetSpec=\"\"}}この{{ruby charSpan=\"2\" value=\"しょうぶ\"}}勝負は　ウチがもらった！{{delay frames=\"40\"}}\n{{ruby charSpan=\"1\" value=\"わる\"}}悪く{{ruby charSpan=\"1\" value=\"おも\"}}思うんじゃないよ！"
  },
  {
    "label": "204_03",
    "attribute": "0x0000000000000000",
    "text": "{{anim id=\"Eh\" target=\"actor\" targetSpec=\"\"}}と、{{delay8}}いうコトは{{string value=\"...\"}}{{delay frames=\"40\"}}\n{{anim id=\"ShyBoy\" target=\"actor\" targetSpec=\"\"}}{{ruby charSpan=\"1\" value=\"わる\"}}悪いけど　ウチの{{ruby charSpan=\"1\" value=\"か\"}}勝ちだな"
  },
  {
    "label": "205",
    "attribute": "0x0000000000000000",
    "text": "{{fun_0014003C arg=\"\"}}"
  },
  {
    "label": "205_01",
    "attribute": "0x0000000000000000",
    "text": "{{anim id=\"FaintSmile\" target=\"actor\" targetSpec=\"\"}}へへへ、{{delay20}}なかなか　{{ruby charSpan=\"1\" value=\"たの\"}}楽しかったね{{delay frames=\"40\"}}\n{{anim id=\"EmotEnd\" target=\"actor\" targetSpec=\"\"}}{{ruby charSpan=\"2\" value=\"ひっこ\"}}引越しは　ナシになったけど、{{delay20}}\n{{anim id=\"Greeting\" target=\"actor\" targetSpec=\"\"}}また{{ruby charSpan=\"2\" value=\"きかい\"}}機会があれば　{{ruby charSpan=\"1\" value=\"さそ\"}}誘っておくれ、{{string value=\"6\"}}"
  },
  {
    "label": "205_02",
    "attribute": "0x0000000000000000",
    "text": "{{anim id=\"FaintSmile\" target=\"actor\" targetSpec=\"\"}}いや～、{{delay20}}アツい　かけ{{ruby charSpan=\"1\" value=\"ひ\"}}引きだったね！{{delay frames=\"40\"}}\n{{anim id=\"EmotEnd\" target=\"actor\" targetSpec=\"\"}}{{ruby charSpan=\"2\" value=\"ひっこ\"}}引越しは　しないコトに　なったけど{{delay20}}\n{{anim id=\"Greeting\" target=\"actor\" targetSpec=\"\"}}アンタの{{ruby charSpan=\"2\" value=\"きも\"}}気持ちは　うれしかったよ、{{string value=\"6\"}}"
  },
  {
    "label": "205_03",
    "attribute": "0x0000000000000000",
    "text": "{{anim id=\"FaintSmile\" target=\"actor\" targetSpec=\"\"}}いや～、{{delay8}}おもしろかった！{{delay frames=\"40\"}}\n{{anim id=\"Nodding\" target=\"actor\" targetSpec=\"\"}}しばらくは　{{ruby charSpan=\"2\" value=\"ひっこ\"}}引越さずに、{{delay20}}{{ruby charSpan=\"1\" value=\"いま\"}}今の{{string value=\"32\"}}で{{ruby charSpan=\"1\" value=\"く\"}}暮らすよ{{delay frames=\"40\"}}\n{{anim id=\"Greeting\" target=\"actor\" targetSpec=\"\"}}{{ruby charSpan=\"1\" value=\"つ\"}}付き{{ruby charSpan=\"1\" value=\"あ\"}}合ってくれて　ありがとね、{{string value=\"6\"}}"
  },
  {
    "label": "206",
    "attribute": "0x0000000000000000",
    "text": "{{fun_0014003C arg=\"\"}}"
  },
  {
    "label": "206_01",
    "attribute": "0x0000000000000000",
    "text": "ということは、{{delay20}}{{anim id=\"BigSmile\" target=\"actor\" targetSpec=\"\"}}アンタの{{ruby charSpan=\"1\" value=\"か\"}}勝ちってワケだ！{{delay frames=\"40\"}}\n{{anim id=\"Blushing\" target=\"actor\" targetSpec=\"\"}}{{ruby charSpan=\"3\" value=\"やくそくどお\"}}約束通り、{{delay20}}ウチは　この{{string value=\"32\"}}に{{ruby charSpan=\"2\" value=\"ひっこ\"}}引越すとするよ{{pageBreak}}{{anim id=\"Nodding\" target=\"actor\" targetSpec=\"\"}}よっしゃ、{{delay20}}こうしちゃいられないね！{{delay frames=\"40\"}}\n{{anim id=\"FaintSmile\" target=\"actor\" targetSpec=\"\"}}ちょっと　ソコで{{ruby charSpan=\"1\" value=\"ま\"}}待ってな！　{{string value=\"6\"}}"
  },
  {
    "label": "206_02",
    "attribute": "0x0000000000000000",
    "text": "{{anim id=\"BigSmile\" target=\"actor\" targetSpec=\"\"}}ってことで、{{delay20}}{{ruby charSpan=\"2\" value=\"しょうぶ\"}}勝負は　アンタの{{ruby charSpan=\"1\" value=\"か\"}}勝ち！{{delay frames=\"40\"}}\n{{anim id=\"FaintSmile\" target=\"actor\" targetSpec=\"\"}}ウチは　{{string value=\"33\"}}に{{ruby charSpan=\"2\" value=\"ひっこ\"}}引越しだ！{{pageBreak}}{{anim id=\"Hesitate\" target=\"actor\" targetSpec=\"\"}}{{ruby charSpan=\"1\" value=\"じつ\"}}実はウチ、{{delay20}}この{{string value=\"32\"}}が　{{ruby charSpan=\"1\" value=\"き\"}}気に{{ruby charSpan=\"1\" value=\"い\"}}入っちまっててさ{{delay frames=\"40\"}}\n{{anim id=\"Blushing\" target=\"actor\" targetSpec=\"\"}}いや～　{{delay20}}アンタが{{ruby charSpan=\"1\" value=\"か\"}}勝ってくれて　{{ruby charSpan=\"1\" value=\"よ\"}}良かった！{{pageBreak}}{{anim id=\"IdeaBulb\" target=\"actor\" targetSpec=\"\"}}そうだ、{{delay20}}{{ruby charSpan=\"1\" value=\"わす\"}}忘れないうちに　{{ruby charSpan=\"2\" value=\"てつづ\"}}手続きしてこよう！{{delay frames=\"40\"}}\n{{anim id=\"Smiling\" target=\"actor\" targetSpec=\"\"}}{{ruby charSpan=\"1\" value=\"すこ\"}}少し{{ruby charSpan=\"1\" value=\"ま\"}}待ってておくれ！　{{string value=\"6\"}}"
  },
  {
    "label": "206_03",
    "attribute": "0x0000000000000000",
    "text": "{{anim id=\"Eh\" target=\"actor\" targetSpec=\"\"}}ってことは、{{delay20}}{{anim id=\"Laughing\" target=\"actor\" targetSpec=\"\"}}この{{ruby charSpan=\"2\" value=\"しょうぶ\"}}勝負　{{delay8}}アンタの{{ruby charSpan=\"1\" value=\"か\"}}勝ちだ！{{delay frames=\"40\"}}\nそうと{{ruby charSpan=\"1\" value=\"き\"}}決まれば、{{delay20}}キャンプから{{ruby charSpan=\"1\" value=\"かえ\"}}帰り{{ruby charSpan=\"2\" value=\"しだい\"}}次第{{delay8}}\n{{ruby charSpan=\"2\" value=\"ひっこ\"}}引越しの{{ruby charSpan=\"2\" value=\"じゅんび\"}}準備に　{{ruby charSpan=\"1\" value=\"と\"}}取りかからなくっちゃね！{{pageBreak}}{{anim id=\"Thinking\" target=\"actor\" targetSpec=\"\"}}えーっと、{{delay20}}アレと{{delay8}}コレを　{{delay8}}{{ruby charSpan=\"1\" value=\"おく\"}}送って{{string value=\"...\"}}{{delay frames=\"40\"}}\nアレは{{ruby charSpan=\"1\" value=\"す\"}}捨てて、{{delay20}}アレを{{ruby charSpan=\"1\" value=\"か\"}}買い{{ruby charSpan=\"1\" value=\"た\"}}足して{{string value=\"...\"}}{{delay frames=\"40\"}}\n{{anim id=\"SmugFace\" target=\"actor\" targetSpec=\"\"}}うん、{{delay20}}なんとかなりそうだ！{{pageBreak}}{{anim id=\"IdeaBulb\" target=\"actor\" targetSpec=\"\"}}そうそう、{{delay20}}{{ruby charSpan=\"2\" value=\"ひっこ\"}}引越しの{{ruby charSpan=\"2\" value=\"てつづ\"}}手続きもしとかないと！{{delay frames=\"30\"}}\n{{anim id=\"FaintSmile\" target=\"actor\" targetSpec=\"\"}}ちょっと{{ruby charSpan=\"1\" value=\"ま\"}}待ってておくれ！　{{string value=\"6\"}}"
  },
  {
    "label": "207_01",
    "attribute": "0x0000010000000000",
    "text": "{{anim id=\"Aha\" target=\"actor\" targetSpec=\"\"}}おや、{{delay20}}そんなに　ウチに{{ruby charSpan=\"1\" value=\"き\"}}来てほしいのかい？{{delay frames=\"40\"}}\n{{anim id=\"Thinking\" target=\"actor\" targetSpec=\"\"}}そこまで{{ruby charSpan=\"1\" value=\"い\"}}言われちまうと{{string value=\"...\"}}　{{delay20}}でも、{{delay20}}\n{{anim id=\"OhGeez\" target=\"actor\" targetSpec=\"\"}}やっぱり　ふん{{ruby charSpan=\"1\" value=\"ぎ\"}}切りがつかないねぇ{{pageBreak}}{{anim id=\"IdeaBulb\" target=\"actor\" targetSpec=\"\"}}あっ、{{delay20}}そうだ！{{delay frames=\"40\"}}\n{{anim id=\"Explain\" target=\"actor\" targetSpec=\"\"}}ここはひとつ　{{delay20}}ウチの{{ruby charSpan=\"2\" value=\"いじゅう\"}}移住をかけて\nゲームでも　してみないかい？{{pageBreak}}{{anim id=\"Nodding\" target=\"actor\" targetSpec=\"\"}}アンタが{{ruby charSpan=\"1\" value=\"か\"}}勝ったら、{{delay8}}この{{string value=\"32\"}}に　{{ruby charSpan=\"2\" value=\"ひっこ\"}}引越すよ{{delay frames=\"40\"}}\n{{anim id=\"Laughing\" target=\"actor\" targetSpec=\"\"}}なーに　カンタンな{{ruby charSpan=\"2\" value=\"しょうぶ\"}}勝負さ！{{delay frames=\"30\"}}\nおもしろそうだろ？　{{string value=\"6\"}}"
  },
  {
    "label": "207_01_a",
    "attribute": "0x0000000000000000",
    "text": "いいね！"
  },
  {
    "label": "207_01_b",
    "attribute": "0x0000000000000000",
    "text": "そういうのは　ちょっと"
  },
  {
    "label": "207_02",
    "attribute": "0x0000010000000000",
    "text": "{{anim id=\"Eh\" target=\"actor\" targetSpec=\"\"}}{{ruby charSpan=\"2\" value=\"いちど\"}}一度は　{{ruby charSpan=\"1\" value=\"ことわ\"}}断ったってのに、{{delay20}}\nまだウチを　{{ruby charSpan=\"1\" value=\"さそ\"}}誘ってくれるのかい？{{delay frames=\"40\"}}\n{{anim id=\"Thinking\" target=\"actor\" targetSpec=\"\"}}う～ん、{{delay20}}でもまだ　{{ruby charSpan=\"1\" value=\"き\"}}決め{{ruby charSpan=\"1\" value=\"て\"}}手ってもんがねぇ{{pageBreak}}{{string value=\"...\"}}{{anim id=\"Aha\" target=\"actor\" targetSpec=\"\"}}あっ、{{delay20}}イイこと　{{ruby charSpan=\"1\" value=\"おも\"}}思いついた！{{delay frames=\"40\"}}\n{{anim id=\"FaintSmile\" target=\"actor\" targetSpec=\"\"}}ここはひとつ{{delay8}}　ゲームで{{ruby charSpan=\"1\" value=\"き\"}}決めてみようよ！{{pageBreak}}{{anim id=\"BigSmile\" target=\"actor\" targetSpec=\"\"}}アンタが{{ruby charSpan=\"1\" value=\"か\"}}勝ったら、{{delay8}}ウチは　ココに{{ruby charSpan=\"2\" value=\"いじゅう\"}}移住する！{{delay frames=\"40\"}}\n{{anim id=\"Nodding\" target=\"actor\" targetSpec=\"\"}}これなら　グズグズと　{{ruby charSpan=\"1\" value=\"まよ\"}}迷わなくて{{ruby charSpan=\"1\" value=\"す\"}}済むし、{{delay20}}\n{{anim id=\"Hello\" target=\"actor\" targetSpec=\"\"}}なかなかの{{ruby charSpan=\"2\" value=\"めいあん\"}}名案だろ？　{{string value=\"6\"}}"
  },
  {
    "label": "207_02_a",
    "attribute": "0x0000000000000000",
    "text": "{{ruby charSpan=\"1\" value=\"ま\"}}負けないよ！"
  },
  {
    "label": "207_02_b",
    "attribute": "0x0000000000000000",
    "text": "またこんどね"
  },
  {
    "label": "207_03",
    "attribute": "0x0000010000000000",
    "text": "{{anim id=\"Hesitate\" target=\"actor\" targetSpec=\"\"}}{{ruby charSpan=\"2\" value=\"ねっしん\"}}熱心なお{{ruby charSpan=\"1\" value=\"さそ\"}}誘いだねぇ、{{delay20}}{{ruby charSpan=\"1\" value=\"わる\"}}悪い{{ruby charSpan=\"1\" value=\"き\"}}気はしないよ{{delay frames=\"40\"}}\n{{anim id=\"Thinking\" target=\"actor\" targetSpec=\"\"}}う～ん、{{delay20}}そこまで{{ruby charSpan=\"1\" value=\"い\"}}言われると　{{ruby charSpan=\"1\" value=\"なや\"}}悩むな～{{delay frames=\"30\"}}\nなんか　キッカケがあれば{{string value=\"...\"}}{{pageBreak}}{{anim id=\"IdeaBulb\" target=\"actor\" targetSpec=\"\"}}そうだ！　{{delay frames=\"30\"}}どうせなら{{ruby charSpan=\"1\" value=\"たの\"}}楽しく、{{delay20}}\n{{anim id=\"Nodding\" target=\"actor\" targetSpec=\"\"}}ゲームで{{ruby charSpan=\"1\" value=\"き\"}}決めるってのは　どうだい？{{pageBreak}}{{anim id=\"FaintSmile\" target=\"actor\" targetSpec=\"\"}}アンタが{{ruby charSpan=\"1\" value=\"か\"}}勝ったら　{{ruby charSpan=\"2\" value=\"ひっこ\"}}引越すことにするよ！{{delay frames=\"40\"}}\n{{anim id=\"EmotEnd\" target=\"actor\" targetSpec=\"\"}}ウチも　ふん{{ruby charSpan=\"1\" value=\"ぎ\"}}切りがつくし、{{delay20}}\n{{anim id=\"Grin\" target=\"actor\" targetSpec=\"\"}}{{ruby charSpan=\"2\" value=\"けいき\"}}景気づけに　ピッタリだろ！　{{string value=\"6\"}}"
  },
  {
    "label": "207_03_a",
    "attribute": "0x0000000000000000",
    "text": "やるやる！"
  },
  {
    "label": "207_03_b",
    "attribute": "0x0000000000000000",
    "text": "エンリョしとくよ"
  },
  {
    "label": "208_01",
    "attribute": "0x0000000000000000",
    "text": "{{anim id=\"Eh\" target=\"actor\" targetSpec=\"\"}}ありゃ、{{delay8}}やらないのかい？{{delay frames=\"40\"}}\n{{anim id=\"ShyBoy\" target=\"actor\" targetSpec=\"\"}}それなら　しょうがないねぇ、{{string value=\"6\"}}"
  },
  {
    "label": "208_02",
    "attribute": "0x0000000000000000",
    "text": "{{anim id=\"QuestionMark\" target=\"actor\" targetSpec=\"\"}}おや、{{delay20}}やらないのかい？{{delay frames=\"40\"}}\n{{anim id=\"FaintSmile\" target=\"actor\" targetSpec=\"\"}}そんじゃ　またの{{ruby charSpan=\"2\" value=\"きかい\"}}機会にね、{{string value=\"6\"}}"
  },
  {
    "label": "208_03",
    "attribute": "0x0000000000000000",
    "text": "{{anim id=\"Restless\" target=\"actor\" targetSpec=\"\"}}ふーん、{{delay20}}エンリョなんて　いらないけどねぇ{{delay frames=\"40\"}}\n{{anim id=\"FaintSmile\" target=\"actor\" targetSpec=\"\"}}まぁ　{{delay8}}{{ruby charSpan=\"2\" value=\"むり\"}}無理にとは　{{ruby charSpan=\"1\" value=\"い\"}}言わないよ、{{string value=\"6\"}}"
  },
  {
    "label": "302",
    "attribute": "0x0000010000000000",
    "text": "{{anim id=\"FaintSmile\" target=\"actor\" targetSpec=\"\"}}{{ruby charSpan=\"1\" value=\"ま\"}}待たせて　すまなかったね！{{delay frames=\"40\"}}\n{{anim id=\"Nodding\" target=\"actor\" targetSpec=\"\"}}さっそく　{{string value=\"32\"}}の{{color id=\"1\"}}{{ruby charSpan=\"3\" value=\"あんないじょ\"}}案内所{{color id=\"65535\"}}に　{{delay8}}{{ruby charSpan=\"1\" value=\"き\"}}聞いてみたよ{{delay frames=\"40\"}}\n{{anim id=\"Silent\" target=\"actor\" targetSpec=\"\"}}{{delay20}}どうも　{{delay8}}{{color id=\"1\"}}{{ruby charSpan=\"3\" value=\"あんないじょ\"}}案内所{{color id=\"65535\"}}の{{ruby charSpan=\"1\" value=\"はなし\"}}話によるとさ{{string value=\"...\"}}{{pageBreak}}{{anim id=\"OhGeez\" target=\"actor\" targetSpec=\"\"}}この{{string value=\"32\"}}には、{{delay20}}もう{{delay8}}　{{ruby charSpan=\"1\" value=\"あたら\"}}新しい{{ruby charSpan=\"1\" value=\"いえ\"}}家を\n{{ruby charSpan=\"1\" value=\"た\"}}建てる{{ruby charSpan=\"2\" value=\"とち\"}}土地が　まったく{{ruby charSpan=\"1\" value=\"な\"}}無いらしいんだ{{delay frames=\"40\"}}\n{{anim id=\"Oops\" target=\"actor\" targetSpec=\"\"}}それを{{ruby charSpan=\"2\" value=\"りゆう\"}}理由に　{{ruby charSpan=\"1\" value=\"ことわ\"}}断られちまったよ{{string value=\"...\"}}{{pageBreak}}{{anim id=\"Eh\" target=\"actor\" targetSpec=\"\"}}そういや、{{delay20}}アンタは　この{{string value=\"32\"}}の{{ruby charSpan=\"2\" value=\"じゅうみん\"}}住民だろ？{{delay frames=\"40\"}}\n{{anim id=\"Restless\" target=\"actor\" targetSpec=\"\"}}ウチが　ここに{{ruby charSpan=\"1\" value=\"す\"}}住んでるヤツに　{{delay8}}{{ruby charSpan=\"1\" value=\"い\"}}入れ{{ruby charSpan=\"1\" value=\"か\"}}替わって\nもらえるよう、{{delay20}}かけあってみちゃ　ダメかい？"
  },
  {
    "label": "302_a",
    "attribute": "0x0000000000000000",
    "text": "いいんじゃない"
  },
  {
    "label": "302_b",
    "attribute": "0x0000000000000000",
    "text": "う～ん、それは・・・"
  },
  {
    "label": "303",
    "attribute": "0x0000000000000000",
    "text": "{{anim id=\"Worried\" target=\"actor\" targetSpec=\"\"}}やっぱり　ダメかぁ{{delay frames=\"40\"}}\n{{anim id=\"Negative\" target=\"actor\" targetSpec=\"\"}}そりゃ、{{delay20}}さすがに　{{ruby charSpan=\"2\" value=\"むり\"}}無理だよな{{delay frames=\"40\"}}\n{{anim id=\"EmotEnd\" target=\"actor\" targetSpec=\"\"}}{{ruby charSpan=\"2\" value=\"こんかい\"}}今回は　{{ruby charSpan=\"1\" value=\"いさぎよ\"}}潔くあきらめるよ、{{string value=\"6\"}}"
  },
  {
    "label": "304",
    "attribute": "0x0000000000000000",
    "text": "{{anim id=\"Aha\" target=\"actor\" targetSpec=\"\"}}よっしゃ！{{delay frames=\"40\"}}\n{{anim id=\"FaintSmile\" target=\"actor\" targetSpec=\"\"}}そしたら、{{delay20}}{{ruby charSpan=\"1\" value=\"だれ\"}}誰に{{ruby charSpan=\"1\" value=\"たの\"}}頼むのが　イイかねぇ？{{pageBreak}}{{anim id=\"ShyBoy\" target=\"actor\" targetSpec=\"\"}}{{ruby charSpan=\"1\" value=\"じつ\"}}実はさっき　{{color id=\"1\"}}{{delay8}}{{ruby charSpan=\"3\" value=\"あんないじょ\"}}案内所{{color id=\"65535\"}}で　{{ruby charSpan=\"1\" value=\"き\"}}聞き{{ruby charSpan=\"1\" value=\"だ\"}}出したんだけど、{{delay frames=\"30\"}}\n{{anim id=\"Explain\" target=\"actor\" targetSpec=\"\"}}{{ruby charSpan=\"1\" value=\"いま\"}}今すぐ　{{ruby charSpan=\"1\" value=\"はなし\"}}話をつけられるとしたら{{delay20}}\nこのヒトらじゃないかってさ！"
  },
  {
    "label": "305",
    "attribute": "0x0000030000000000",
    "text": "{{anim id=\"Hello\" target=\"actor\" targetSpec=\"\"}}{{selection value=\"SelectedVillager\"}}だね？　{{string value=\"6\"}}"
  },
  {
    "label": "305_a",
    "attribute": "0x0000000000000000",
    "text": "そうだよ"
  },
  {
    "label": "305_b",
    "attribute": "0x0000000000000000",
    "text": "まちがえた"
  },
  {
    "label": "305_c",
    "attribute": "0x0000000000000000",
    "text": "やっぱり、やめよう"
  },
  {
    "label": "306",
    "attribute": "0x0000000000000000",
    "text": "{{anim id=\"SmugFace\" target=\"actor\" targetSpec=\"\"}}そんじゃ、{{delay20}}いっちょ{{ruby charSpan=\"1\" value=\"き\"}}聞いてくるか！{{delay frames=\"40\"}}\n{{anim id=\"FaintSmile\" target=\"actor\" targetSpec=\"\"}}いい{{ruby charSpan=\"2\" value=\"へんじ\"}}返事が　もらえるように{{delay8}}\nアンタも　{{ruby charSpan=\"1\" value=\"いの\"}}祈ってておくれ、{{string value=\"6\"}}"
  },
  {
    "label": "307",
    "attribute": "0x0000000000000000",
    "text": "{{anim id=\"Eh\" target=\"actor\" targetSpec=\"\"}}あれ、{{delay20}}{{ruby charSpan=\"2\" value=\"まちが\"}}間違いなのかい？{{delay frames=\"40\"}}\n{{anim id=\"FaintSmile\" target=\"actor\" targetSpec=\"\"}}そんじゃ、{{delay8}}{{ruby charSpan=\"1\" value=\"だれ\"}}誰に　{{ruby charSpan=\"1\" value=\"こえ\"}}声をかければ{{delay20}}\n{{ruby charSpan=\"1\" value=\"はなし\"}}話を　{{ruby charSpan=\"1\" value=\"き\"}}聞いてくれそうだい？　{{string value=\"6\"}}"
  },
  {
    "label": "308",
    "attribute": "0x0000000000000000",
    "text": "{{anim id=\"Worried\" target=\"actor\" targetSpec=\"\"}}そうかい、{{delay20}}まあ　こればっかりはねぇ{{delay frames=\"40\"}}\n{{anim id=\"EmotEnd\" target=\"actor\" targetSpec=\"\"}}ウチとしては　ちょっと{{ruby charSpan=\"2\" value=\"ざんねん\"}}残念だけど、{{delay20}}\n{{anim id=\"Negative\" target=\"actor\" targetSpec=\"\"}}{{ruby charSpan=\"2\" value=\"こんかい\"}}今回は　{{ruby charSpan=\"1\" value=\"いさぎよ\"}}潔く　あきらめるよ、{{string value=\"6\"}}"
  },
  {
    "label": "309",
    "attribute": "0x0000000000000000",
    "text": "{{anim id=\"Smiling\" target=\"actor\" targetSpec=\"\"}}この{{string value=\"32\"}}への　{{ruby charSpan=\"1\" value=\"あつ\"}}熱い{{ruby charSpan=\"2\" value=\"きも\"}}気持ちを{{ruby charSpan=\"1\" value=\"つた\"}}伝えたら、{{delay20}}\n{{ruby charSpan=\"2\" value=\"いがい\"}}意外と　すんなり　{{ruby charSpan=\"2\" value=\"なっとく\"}}納得してくれたよ！{{delay frames=\"40\"}}\n{{anim id=\"Blushing\" target=\"actor\" targetSpec=\"\"}}いやぁ、{{delay20}}{{ruby charSpan=\"2\" value=\"こうしょう\"}}交渉は　キンチョーするねぇ！{{pageBreak}}{{anim id=\"Nodding\" target=\"actor\" targetSpec=\"\"}}これでウチも、{{delay20}}もうすぐ　この{{string value=\"32\"}}の{{ruby charSpan=\"2\" value=\"じゅうみん\"}}住民か～{{delay frames=\"40\"}}\n{{anim id=\"HappyDance\" target=\"actor\" targetSpec=\"\"}}{{ruby charSpan=\"2\" value=\"ひっこ\"}}引越しの{{ruby charSpan=\"1\" value=\"ひ\"}}日が　{{delay8}}{{ruby charSpan=\"1\" value=\"たの\"}}楽しみでしょうがないよ！{{pageBreak}}{{anim id=\"EmotEnd\" target=\"actor\" targetSpec=\"\"}}んじゃ{{ruby charSpan=\"1\" value=\"あらた\"}}改めて、{{delay20}}{{anim id=\"Hello\" target=\"actor\" targetSpec=\"\"}}ウチは　{{string value=\"VillagerName\"}}さ{{delay frames=\"40\"}}\nアンタは{{string value=\"...\"}}　{{delay20}}{{anim id=\"Grin\" target=\"actor\" targetSpec=\"\"}}{{string value=\"NickName\"}}{{delay8}}だね？{{delay frames=\"40\"}}\n{{anim id=\"Smiling\" target=\"actor\" targetSpec=\"\"}}これから　{{ruby charSpan=\"2\" value=\"せわ\"}}世話になるよ！　{{string value=\"6\"}}"
  },
  {
    "label": "309_01",
    "attribute": "0x0000000000000000",
    "text": "{{anim id=\"FaintSmile\" target=\"actor\" targetSpec=\"\"}}{{ruby charSpan=\"1\" value=\"ま\"}}待たせたね！{{delay frames=\"30\"}}\n{{anim id=\"ShyBoy\" target=\"actor\" targetSpec=\"\"}}{{ruby charSpan=\"1\" value=\"いえ\"}}家へ{{ruby charSpan=\"1\" value=\"い\"}}行ってみたんだけど、{{delay20}}{{ruby charSpan=\"1\" value=\"だれ\"}}誰もいなくてさ{{delay frames=\"40\"}}\n{{anim id=\"Explain\" target=\"actor\" targetSpec=\"\"}}どうやら　{{delay8}}{{ruby charSpan=\"2\" value=\"ひっこ\"}}引越したあとだった　みたいだよ{{pageBreak}}{{anim id=\"HappyDance\" target=\"actor\" targetSpec=\"\"}}ちょうど　{{ruby charSpan=\"2\" value=\"とち\"}}土地が{{ruby charSpan=\"1\" value=\"あ\"}}空くなんて、{{delay20}}ツイてるねぇ！{{delay frames=\"40\"}}\nエンリョなく　{{ruby charSpan=\"2\" value=\"ひっこ\"}}引越してこられるってもんだ！{{pageBreak}}{{anim id=\"EmotEnd\" target=\"actor\" targetSpec=\"\"}}んじゃ{{ruby charSpan=\"1\" value=\"あらた\"}}改めて、{{delay20}}{{anim id=\"Hello\" target=\"actor\" targetSpec=\"\"}}ウチは　{{string value=\"VillagerName\"}}！{{delay frames=\"40\"}}\nアンタは{{string value=\"...\"}}　{{delay20}}{{anim id=\"Nodding\" target=\"actor\" targetSpec=\"\"}}{{string value=\"NickName\"}}{{delay8}}だね{{delay frames=\"40\"}}\n{{anim id=\"EmotEnd\" target=\"actor\" targetSpec=\"\"}}これからよろしく！　{{string value=\"6\"}}"
  },
  {
    "label": "310",
    "attribute": "0x0000010000000000",
    "text": "{{anim id=\"Eh\" target=\"actor\" targetSpec=\"\"}}どうした{{string value=\"...\"}}？{{delay20}}\n{{anim id=\"EmotEnd\" target=\"actor\" targetSpec=\"\"}}{{ruby charSpan=\"1\" value=\"たの\"}}頼めそうなヤツが、{{delay8}}\n{{anim id=\"QuestionMark\" target=\"actor\" targetSpec=\"\"}}{{ruby charSpan=\"2\" value=\"みあ\"}}見当たらなかったかい？　{{string value=\"6\"}}"
  },
  {
    "label": "310_a",
    "attribute": "0x0000000000000000",
    "text": "そんなことないよ"
  },
  {
    "label": "310_b",
    "attribute": "0x0000000000000000",
    "text": "うん、ごめんね"
  },
  {
    "label": "311",
    "attribute": "0x0000000000000000",
    "text": "{{anim id=\"FaintSmile\" target=\"actor\" targetSpec=\"\"}}そんじゃ、{{delay8}}{{ruby charSpan=\"1\" value=\"だれ\"}}誰に　{{ruby charSpan=\"1\" value=\"たの\"}}頼んでみるのが　いいか、{{delay20}}\n{{anim id=\"Hello\" target=\"actor\" targetSpec=\"\"}}{{ruby charSpan=\"1\" value=\"おし\"}}教えてくれるかい？　{{string value=\"6\"}}"
  },
  {
    "label": "312",
    "attribute": "0x0000000000000000",
    "text": "{{anim id=\"Restless\" target=\"actor\" targetSpec=\"\"}}まぁ、{{delay20}}それなら　しょうがないね{{delay frames=\"40\"}}\n{{anim id=\"Nodding\" target=\"actor\" targetSpec=\"\"}}そんじゃ　{{delay8}}{{ruby charSpan=\"2\" value=\"こんかい\"}}今回は　あきらめるよ、{{string value=\"6\"}}"
  },
  {
    "label": "313",
    "attribute": "0x0000010000000000",
    "text": "{{anim id=\"Aha\" target=\"actor\" targetSpec=\"\"}}いいのかい？！{{delay frames=\"40\"}}\n{{anim id=\"Nodding\" target=\"actor\" targetSpec=\"\"}}んじゃ、{{delay20}}{{ruby charSpan=\"1\" value=\"だれ\"}}誰に{{ruby charSpan=\"1\" value=\"たの\"}}頼むかだけど{{string value=\"...\"}}{{pageBreak}}{{anim id=\"ShyBoy\" target=\"actor\" targetSpec=\"\"}}{{ruby charSpan=\"1\" value=\"じつ\"}}実はさっき　{{color id=\"1\"}}{{delay8}}{{ruby charSpan=\"3\" value=\"あんないじょ\"}}案内所{{color id=\"65535\"}}で　{{ruby charSpan=\"1\" value=\"き\"}}聞いてきたんだ{{delay frames=\"40\"}}\n{{color id=\"3\"}}{{anim id=\"Explain\" target=\"actor\" targetSpec=\"\"}}{{selection value=\"SelectedVillager\"}}{{color id=\"65535\"}}ってヤツなら{{delay20}}\n{{ruby charSpan=\"2\" value=\"そうだん\"}}相談に{{ruby charSpan=\"1\" value=\"の\"}}乗ってくれるかも　だってさ{{pageBreak}}{{anim id=\"EmotEnd\" target=\"actor\" targetSpec=\"\"}}ってことで、{{delay20}}{{anim id=\"Hello\" target=\"actor\" targetSpec=\"\"}}ウチと　{{ruby charSpan=\"1\" value=\"か\"}}替わってもらえないか{{delay8}}\n{{color id=\"3\"}}{{selection value=\"SelectedVillager\"}}{{color id=\"65535\"}}に　{{ruby charSpan=\"1\" value=\"たの\"}}頼んでみてもいいかい？"
  },
  {
    "label": "313_a",
    "attribute": "0x0000000000000000",
    "text": "いいよ！"
  },
  {
    "label": "313_b",
    "attribute": "0x0000000000000000",
    "text": "それは　ちょっと・・・"
  },
  {
    "label": "314",
    "attribute": "0x0000000000000000",
    "text": "{{anim id=\"Eh\" target=\"actor\" targetSpec=\"\"}}おや、{{delay8}}そうかい？{{delay frames=\"40\"}}\n{{anim id=\"ShyBoy\" target=\"actor\" targetSpec=\"\"}}そんなら　しょうがないね{{delay frames=\"30\"}}\n{{ruby charSpan=\"2\" value=\"こんかい\"}}今回は　あきらめるとするよ、{{string value=\"6\"}}"
  },
  {
    "label": "404",
    "attribute": "0x0000000000000000",
    "text": "{{anim id=\"FaintSmile\" target=\"actor\" targetSpec=\"\"}}ゴメンゴメン、{{delay20}}{{ruby charSpan=\"1\" value=\"ま\"}}待たせたね！{{delay frames=\"40\"}}\n{{anim id=\"EmotEnd\" target=\"actor\" targetSpec=\"\"}}この{{string value=\"32\"}}の　{{color id=\"1\"}}{{ruby charSpan=\"3\" value=\"あんないじょ\"}}案内所{{color id=\"65535\"}}に　{{delay8}}{{ruby charSpan=\"1\" value=\"き\"}}聞きに{{ruby charSpan=\"1\" value=\"い\"}}行ってみたんだ{{delay frames=\"40\"}}\n{{anim id=\"Silent\" target=\"actor\" targetSpec=\"\"}}そしたらさ{{string value=\"...\"}}{{pageBreak}}{{anim id=\"Explain\" target=\"actor\" targetSpec=\"\"}}{{ruby charSpan=\"1\" value=\"いま\"}}今　{{delay8}}{{ruby charSpan=\"1\" value=\"す\"}}住んでるヤツらで　{{string value=\"32\"}}が{{ruby charSpan=\"2\" value=\"まんいん\"}}満員だから、{{delay20}}\n{{ruby charSpan=\"1\" value=\"あたら\"}}新しい{{ruby charSpan=\"2\" value=\"じゅうみん\"}}住民を　{{ruby charSpan=\"1\" value=\"う\"}}受け{{ruby charSpan=\"1\" value=\"い\"}}入れるってのは{{delay20}}\n{{anim id=\"Negative\" target=\"actor\" targetSpec=\"\"}}すぐには　{{ruby charSpan=\"2\" value=\"むり\"}}無理なんだとさ{{string value=\"...\"}}{{delay frames=\"40\"}}\n{{anim id=\"Sighing\" target=\"actor\" targetSpec=\"\"}}ったく、{{delay20}}{{ruby charSpan=\"2\" value=\"ひとり\"}}1人ぐらい　いけないもんかねぇ{{delay frames=\"40\"}}\n{{anim id=\"EmotEnd\" target=\"actor\" targetSpec=\"\"}}{{ruby charSpan=\"2\" value=\"ざんねん\"}}残念だけど、{{delay20}}いつか　{{delay8}}アンタと{{ruby charSpan=\"1\" value=\"おな\"}}同じ{{string value=\"32\"}}で\n{{anim id=\"Nodding\" target=\"actor\" targetSpec=\"\"}}{{ruby charSpan=\"1\" value=\"く\"}}暮らせる{{ruby charSpan=\"1\" value=\"ひ\"}}日を　{{delay8}}{{ruby charSpan=\"1\" value=\"たの\"}}楽しみにしてるよ、{{string value=\"6\"}}"
  },
  {
    "label": "405",
    "attribute": "0x0000000000000000",
    "text": "{{anim id=\"FaintSmile\" target=\"actor\" targetSpec=\"\"}}お{{ruby charSpan=\"1\" value=\"ま\"}}待たせ、お{{ruby charSpan=\"1\" value=\"ま\"}}待たせ！{{delay frames=\"30\"}}\n{{color id=\"1\"}}{{ruby charSpan=\"3\" value=\"あんないじょ\"}}案内所{{color id=\"65535\"}}へ{{ruby charSpan=\"1\" value=\"い\"}}行って　{{delay8}}{{ruby charSpan=\"1\" value=\"き\"}}聞いてきたよ！{{delay frames=\"40\"}}\n{{anim id=\"Silent\" target=\"actor\" targetSpec=\"\"}}そしたらね{{string value=\"...\"}}{{pageBreak}}{{anim id=\"Worried\" target=\"actor\" targetSpec=\"\"}}{{ruby charSpan=\"1\" value=\"いま\"}}今は、{{delay8}}{{ruby charSpan=\"1\" value=\"う\"}}売り{{ruby charSpan=\"2\" value=\"とち\"}}土地の　{{ruby charSpan=\"2\" value=\"ようい\"}}用意がないから{{delay20}}\n{{anim id=\"Sighing\" target=\"actor\" targetSpec=\"\"}}{{ruby charSpan=\"2\" value=\"ひっこ\"}}引越してきても　{{delay8}}{{ruby charSpan=\"1\" value=\"いえ\"}}家を{{ruby charSpan=\"1\" value=\"た\"}}建てられないんだってさ{{pageBreak}}{{anim id=\"Thinking\" target=\"actor\" targetSpec=\"\"}}{{ruby charSpan=\"2\" value=\"とち\"}}土地さえあれば　イケたっぽいけど、{{delay20}}\nタイミングが　{{ruby charSpan=\"1\" value=\"わる\"}}悪かったのかねぇ{{string value=\"...\"}}{{delay frames=\"40\"}}\n{{anim id=\"OhGeez\" target=\"actor\" targetSpec=\"\"}}どうにか　ならないもんかな？　{{string value=\"6\"}}"
  },
  {
    "label": "406",
    "attribute": "0x0000000000000000",
    "text": "{{anim id=\"FaintSmile\" target=\"actor\" targetSpec=\"\"}}{{ruby charSpan=\"1\" value=\"ま\"}}待たせて{{ruby charSpan=\"1\" value=\"わる\"}}悪かったね{{delay frames=\"40\"}}\n{{anim id=\"EmotEnd\" target=\"actor\" targetSpec=\"\"}}この{{string value=\"32\"}}の{{color id=\"1\"}}{{ruby charSpan=\"3\" value=\"あんないじょ\"}}案内所{{color id=\"65535\"}}に　{{ruby charSpan=\"1\" value=\"き\"}}聞きに{{ruby charSpan=\"1\" value=\"い\"}}行ってきたよ{{delay frames=\"40\"}}\n{{anim id=\"Silent\" target=\"actor\" targetSpec=\"\"}}で、{{delay20}}{{ruby charSpan=\"2\" value=\"けっか\"}}結果なんだけどさ{{string value=\"...\"}}{{pageBreak}}{{anim id=\"Clapping\" target=\"actor\" targetSpec=\"\"}}なんと、{{delay20}}{{ruby charSpan=\"2\" value=\"ひっこ\"}}引越してきて　オッケーだって！{{delay frames=\"40\"}}\nこれで{{ruby charSpan=\"2\" value=\"あした\"}}明日からは　{{delay8}}{{ruby charSpan=\"1\" value=\"おな\"}}同じ{{string value=\"32\"}}の　{{ruby charSpan=\"4\" value=\"じゅうみんどうし\"}}住民同士だ！{{anim id=\"FaintSmile\" target=\"actor\" targetSpec=\"\"}}{{pageBreak}}{{anim id=\"Hello\" target=\"actor\" targetSpec=\"\"}}さてと、{{delay20}}ウチは　{{string value=\"VillagerName\"}}！{{delay frames=\"40\"}}\nアンタは　えっと、{{delay20}}{{anim id=\"Nodding\" target=\"actor\" targetSpec=\"\"}}{{string value=\"NickName\"}}だね{{delay frames=\"40\"}}\n{{anim id=\"HappyDance\" target=\"actor\" targetSpec=\"\"}}これから　{{ruby charSpan=\"2\" value=\"なかよ\"}}仲良くしておくれ！　{{string value=\"6\"}}{{anim id=\"FaintSmile\" target=\"actor\" targetSpec=\"\"}}"
  },
  {
    "label": "407",
    "attribute": "0x0000000000000000",
    "text": "{{anim id=\"FaintSmile\" target=\"actor\" targetSpec=\"\"}}{{ruby charSpan=\"1\" value=\"ま\"}}待たせて{{ruby charSpan=\"1\" value=\"わる\"}}悪かったね{{delay frames=\"40\"}}\n{{anim id=\"EmotEnd\" target=\"actor\" targetSpec=\"\"}}この{{string value=\"32\"}}の{{color id=\"1\"}}{{ruby charSpan=\"3\" value=\"あんないじょ\"}}案内所{{color id=\"65535\"}}に　{{ruby charSpan=\"1\" value=\"き\"}}聞きに{{ruby charSpan=\"1\" value=\"い\"}}行ってきたよ{{delay frames=\"40\"}}\n{{anim id=\"Silent\" target=\"actor\" targetSpec=\"\"}}で、{{delay20}}{{ruby charSpan=\"2\" value=\"けっか\"}}結果なんだけどさ{{string value=\"...\"}}{{pageBreak}}{{anim id=\"Clapping\" target=\"actor\" targetSpec=\"\"}}なんと、{{delay20}}{{ruby charSpan=\"2\" value=\"ひっこ\"}}引越してきて　オッケーだって！{{delay frames=\"40\"}}\n{{anim id=\"Explain\" target=\"actor\" targetSpec=\"\"}}ちょうど　{{ruby charSpan=\"1\" value=\"あ\"}}空き{{ruby charSpan=\"1\" value=\"や\"}}家ができたみたいでさ{{delay40}}\n{{anim id=\"Nodding\" target=\"actor\" targetSpec=\"\"}}これで{{ruby charSpan=\"2\" value=\"あした\"}}明日からは　{{delay8}}{{ruby charSpan=\"1\" value=\"おな\"}}同じ{{string value=\"32\"}}の　{{ruby charSpan=\"4\" value=\"じゅうみんどうし\"}}住民同士だ！{{anim id=\"FaintSmile\" target=\"actor\" targetSpec=\"\"}}{{pageBreak}}{{anim id=\"EmotEnd\" target=\"actor\" targetSpec=\"\"}}さてと{{string value=\"...\"}}　{{delay8}}{{anim id=\"FaintSmile\" target=\"actor\" targetSpec=\"\"}}ウチは　{{string value=\"VillagerName\"}}！{{delay frames=\"40\"}}\n{{anim id=\"EmotEnd\" target=\"actor\" targetSpec=\"\"}}アンタは　えっと、{{delay20}}{{anim id=\"Nodding\" target=\"actor\" targetSpec=\"\"}}{{string value=\"NickName\"}}だね{{delay frames=\"40\"}}\n{{anim id=\"HappyDance\" target=\"actor\" targetSpec=\"\"}}これから　{{ruby charSpan=\"2\" value=\"なかよ\"}}仲良くしておくれ！　{{string value=\"6\"}}{{anim id=\"FaintSmile\" target=\"actor\" targetSpec=\"\"}}"
  },
  {
    "label": "410",
    "attribute": "0x0000010000000000",
    "text": "{{anim id=\"Thinking\" target=\"actor\" targetSpec=\"\"}}{{string value=\"...\"}}だけど、{{delay20}}なんか　あきらめきれないなぁ{{delay frames=\"40\"}}\n{{ruby charSpan=\"2\" value=\"りゆう\"}}理由は　ちゃんと　{{ruby charSpan=\"1\" value=\"おし\"}}教えてもらったけど、{{delay20}}\n{{anim id=\"ShyBoy\" target=\"actor\" targetSpec=\"\"}}もう{{ruby charSpan=\"2\" value=\"いっかい\"}}一回、{{delay20}}{{ruby charSpan=\"3\" value=\"ほんきだ\"}}本気出して　{{ruby charSpan=\"1\" value=\"き\"}}聞いてみようかねぇ？{{delay frames=\"40\"}}\n{{anim id=\"EmotEnd\" target=\"actor\" targetSpec=\"\"}}もしかしたら　{{ruby charSpan=\"1\" value=\"き\"}}気が{{ruby charSpan=\"1\" value=\"か\"}}変わって、{{delay20}}\n{{anim id=\"Greeting\" target=\"actor\" targetSpec=\"\"}}{{ruby charSpan=\"1\" value=\"す\"}}住んでいいよって　{{ruby charSpan=\"1\" value=\"い\"}}言ってもらえるかも\n{{ruby charSpan=\"1\" value=\"し\"}}知れないからさ、{{string value=\"6\"}}"
  },
  {
    "label": "410_a",
    "attribute": "0x0000000000000000",
    "text": "そうかもね！"
  },
  {
    "label": "410_b",
    "attribute": "0x0000000000000000",
    "text": "どうかな・・・"
  },
  {
    "label": "411",
    "attribute": "0x0000000000000000",
    "text": "{{anim id=\"Restless\" target=\"actor\" targetSpec=\"\"}}う～ん{{string value=\"...\"}}{{delay20}}\nやっぱり　そんな{{ruby charSpan=\"2\" value=\"うま\"}}上手くは　いかないかねぇ{{delay frames=\"40\"}}\n{{anim id=\"FaintSmile\" target=\"actor\" targetSpec=\"\"}}また{{ruby charSpan=\"2\" value=\"こんど\"}}今度　{{delay8}}{{ruby charSpan=\"1\" value=\"き\"}}聞いてみることにするよ、{{string value=\"6\"}}"
  },
  {
    "label": "423",
    "attribute": "0x0000000000000000",
    "text": "{{anim id=\"Nodding\" target=\"actor\" targetSpec=\"\"}}それにしても、{{delay20}}{{ruby charSpan=\"2\" value=\"しんじん\"}}新人の{{ruby charSpan=\"1\" value=\"う\"}}受け{{ruby charSpan=\"1\" value=\"い\"}}入れを\n{{anim id=\"Negative\" target=\"actor\" targetSpec=\"\"}}{{ruby charSpan=\"2\" value=\"きょひ\"}}拒否らきゃ　いけないぐらいだなんて、{{delay20}}\n{{anim id=\"FaintSmile\" target=\"actor\" targetSpec=\"\"}}{{string value=\"34\"}}は　{{ruby charSpan=\"3\" value=\"だいにんき\"}}大人気なんだねぇ{{pageBreak}}{{anim id=\"EmotEnd\" target=\"actor\" targetSpec=\"\"}}{{ruby charSpan=\"2\" value=\"ひっこ\"}}引越しは　できなかったけど、{{delay20}}\n{{anim id=\"Smiling\" target=\"actor\" targetSpec=\"\"}}{{ruby charSpan=\"2\" value=\"すてき\"}}素敵な{{string value=\"32\"}}に　{{ruby charSpan=\"1\" value=\"さそ\"}}誘ってくれて{{delay8}}\n{{anim id=\"Hello\" target=\"actor\" targetSpec=\"\"}}どうも　ありがとね、{{string value=\"6\"}}"
  },
  {
    "label": "424",
    "attribute": "0x0000000000000000",
    "text": "{{anim id=\"Nodding\" target=\"actor\" targetSpec=\"\"}}にしても、{{delay20}}{{ruby charSpan=\"1\" value=\"う\"}}売り{{ruby charSpan=\"2\" value=\"とち\"}}土地が　{{ruby charSpan=\"1\" value=\"で\"}}出てないくらい\n{{ruby charSpan=\"2\" value=\"にんき\"}}人気の{{string value=\"32\"}}だっていうんなら、{{delay20}}\n{{anim id=\"Love\" target=\"actor\" targetSpec=\"\"}}きっと{{ruby charSpan=\"2\" value=\"まいにち\"}}毎日　{{delay8}}にぎやかなんだろうねぇ{{pageBreak}}{{anim id=\"ShyBoy\" target=\"actor\" targetSpec=\"\"}}あ～あ、{{delay20}}こうして　しゃべってる{{ruby charSpan=\"1\" value=\"あいだ\"}}間に\n{{ruby charSpan=\"2\" value=\"とち\"}}土地が　{{ruby charSpan=\"1\" value=\"う\"}}売りに{{ruby charSpan=\"1\" value=\"だ\"}}出されないかな？{{delay frames=\"30\"}}\n{{anim id=\"Laughing\" target=\"actor\" targetSpec=\"\"}}なんてね！　{{string value=\"6\"}}"
  },
  {
    "label": "504",
    "attribute": "0x0000010000000000",
    "text": "{{anim id=\"Nodding\" target=\"actor\" targetSpec=\"\"}}この{{string value=\"32\"}}は　{{delay8}}なかなか　{{ruby charSpan=\"3\" value=\"いごこち\"}}居心地がイイねぇ{{delay frames=\"40\"}}\n{{anim id=\"FaintSmile\" target=\"actor\" targetSpec=\"\"}}ウチの{{ruby charSpan=\"2\" value=\"じもと\"}}地元と　{{ruby charSpan=\"2\" value=\"ちけい\"}}地形が　ソックリだから、{{delay20}}\n{{anim id=\"Smiling\" target=\"actor\" targetSpec=\"\"}}ふるさとを　{{ruby charSpan=\"1\" value=\"おも\"}}思い{{ruby charSpan=\"1\" value=\"だ\"}}出しちまったよ、{{string value=\"6\"}}"
  },
  {
    "label": "504_a",
    "attribute": "0x0000000000000000",
    "text": "この{{ruby charSpan=\"1\" value=\"しま\"}}島で{{ruby charSpan=\"2\" value=\"いっしょ\"}}一緒に{{ruby charSpan=\"1\" value=\"す\"}}住もうよ！"
  },
  {
    "label": "504_b",
    "attribute": "0x0000000000000000",
    "text": "そうなんだ"
  },
  {
    "label": "505",
    "attribute": "0x0000000000000000",
    "text": "{{anim id=\"Aha\" target=\"actor\" targetSpec=\"\"}}おお、{{delay20}}うれしいコト　{{ruby charSpan=\"1\" value=\"い\"}}言ってくれるじゃん！{{i10_4}}\n{{anim id=\"Thinking\" target=\"actor\" targetSpec=\"\"}}う～ん　{{delay20}}でも、{{delay20}}そうだなー{{string value=\"...\"}}{{delay frames=\"40\"}}\n{{anim id=\"ShyBoy\" target=\"actor\" targetSpec=\"\"}}もうちょい　{{ruby charSpan=\"1\" value=\"かんが\"}}考えさせてくれるかい？{{pageBreak}}{{anim id=\"Nodding\" target=\"actor\" targetSpec=\"\"}}{{ruby charSpan=\"2\" value=\"だいじ\"}}大事なコトだしさ、{{delay frames=\"40\"}}もっと　この{{string value=\"32\"}}を\nよく{{ruby charSpan=\"1\" value=\"し\"}}知ってから　{{delay8}}{{anim id=\"Hello\" target=\"actor\" targetSpec=\"\"}}{{ruby charSpan=\"1\" value=\"き\"}}決めたいって{{ruby charSpan=\"1\" value=\"おも\"}}思うんだ{{pageBreak}}{{anim id=\"FaintSmile\" target=\"actor\" targetSpec=\"\"}}アンタの{{ruby charSpan=\"2\" value=\"きも\"}}気持ちが　{{ruby charSpan=\"1\" value=\"か\"}}変わんなかったら{{delay20}}\n{{anim id=\"BigSmile\" target=\"actor\" targetSpec=\"\"}}またウチを　ココへ{{ruby charSpan=\"1\" value=\"よ\"}}呼んでおくれ！　{{string value=\"6\"}}{{anim id=\"Smiling\" target=\"actor\" targetSpec=\"\"}}"
  },
  {
    "label": "506",
    "attribute": "0x0000000000000000",
    "text": "{{anim id=\"AbsentMindedness\" target=\"actor\" targetSpec=\"\"}}{{ruby charSpan=\"1\" value=\"むかし\"}}昔、{{delay8}}{{ruby charSpan=\"2\" value=\"いっしょ\"}}一緒に　バイクを　{{ruby charSpan=\"1\" value=\"と\"}}飛ばした{{ruby charSpan=\"2\" value=\"なかま\"}}仲間たちは、{{delay20}}\n{{ruby charSpan=\"1\" value=\"いま\"}}今はみんな　{{ruby charSpan=\"1\" value=\"なに\"}}何してんだろうなぁ{{string value=\"...\"}}{{delay20}}\n{{anim id=\"Laughing\" target=\"actor\" targetSpec=\"\"}}たまには　{{delay8}}{{ruby charSpan=\"2\" value=\"じもと\"}}地元に　{{ruby charSpan=\"1\" value=\"かえ\"}}帰ろうかねぇ、{{string value=\"6\"}}"
  },
  {
    "label": "507",
    "attribute": "0x0000010000000000",
    "text": "{{anim id=\"Nodding\" target=\"actor\" targetSpec=\"\"}}{{string value=\"33\"}}で　{{ruby charSpan=\"1\" value=\"す\"}}過ごした{{ruby charSpan=\"2\" value=\"じかん\"}}時間は、{{delay20}}\n{{anim id=\"ShyBoy\" target=\"actor\" targetSpec=\"\"}}ウチにとって{{delay8}}　{{ruby charSpan=\"2\" value=\"いっしょう\"}}一生の{{ruby charSpan=\"1\" value=\"おも\"}}思い{{ruby charSpan=\"1\" value=\"で\"}}出に　なりそうだよ{{delay frames=\"40\"}}\n{{anim id=\"HappyDance\" target=\"actor\" targetSpec=\"\"}}こんなに　ワクワクするなんてさ、{{string value=\"6\"}}"
  },
  {
    "label": "507_a",
    "attribute": "0x0000000000000000",
    "text": "この{{ruby charSpan=\"1\" value=\"しま\"}}島に{{ruby charSpan=\"1\" value=\"す\"}}住んじゃいなよ！"
  },
  {
    "label": "507_b",
    "attribute": "0x0000000000000000",
    "text": "それはよかった！"
  },
  {
    "label": "508",
    "attribute": "0x0000000000000000",
    "text": "{{anim id=\"Grin\" target=\"actor\" targetSpec=\"\"}}そいつは　{{ruby charSpan=\"3\" value=\"みりょくてき\"}}魅力的な　お{{ruby charSpan=\"1\" value=\"さそ\"}}誘いだねぇ！{{delay frames=\"40\"}}\n{{anim id=\"Thinking\" target=\"actor\" targetSpec=\"\"}}でも、{{delay20}}{{ruby charSpan=\"2\" value=\"ひっこ\"}}引越しの{{ruby charSpan=\"2\" value=\"たいへん\"}}大変さを　{{ruby charSpan=\"1\" value=\"かんが\"}}考えると{{delay8}}\nやっぱり　{{ruby charSpan=\"1\" value=\"に\"}}二の{{ruby charSpan=\"1\" value=\"あし\"}}足を　ふんじまうな{{pageBreak}}{{anim id=\"EmotEnd\" target=\"actor\" targetSpec=\"\"}}いい{{string value=\"32\"}}だってのは　{{delay8}}{{ruby charSpan=\"2\" value=\"じゅうぶん\"}}十分わかってんだけど、{{delay20}}\n{{anim id=\"Nodding\" target=\"actor\" targetSpec=\"\"}}あと{{ruby charSpan=\"1\" value=\"すこ\"}}少しだけ　{{delay8}}{{ruby charSpan=\"1\" value=\"かんが\"}}考えさせてもらえるかい？{{pageBreak}}{{anim id=\"Explain\" target=\"actor\" targetSpec=\"\"}}いっぺん{{ruby charSpan=\"1\" value=\"かえ\"}}帰ってから　{{delay20}}じっくり{{ruby charSpan=\"1\" value=\"なや\"}}悩んでみるよ{{delay frames=\"40\"}}\n{{anim id=\"Smiling\" target=\"actor\" targetSpec=\"\"}}{{ruby charSpan=\"1\" value=\"つぎ\"}}次こそ　{{ruby charSpan=\"1\" value=\"こころ\"}}心を{{ruby charSpan=\"1\" value=\"き\"}}決められると{{ruby charSpan=\"1\" value=\"おも\"}}思うから{{delay20}}\n{{anim id=\"Greeting\" target=\"actor\" targetSpec=\"\"}}また{{ruby charSpan=\"1\" value=\"よ\"}}呼んでおくれ！　{{string value=\"6\"}}"
  },
  {
    "label": "509",
    "attribute": "0x0000000000000000",
    "text": "{{anim id=\"AbsentMindedness\" target=\"actor\" targetSpec=\"\"}}この{{string value=\"32\"}}に{{ruby charSpan=\"1\" value=\"す\"}}住んでる　アンタが　{{delay8}}うらやましいよ{{delay frames=\"40\"}}\n{{anim id=\"Silent\" target=\"actor\" targetSpec=\"\"}}こんなイイ{{string value=\"32\"}}、{{delay8}}なかなか　{{ruby charSpan=\"1\" value=\"な\"}}無いんだから、{{delay20}}\n{{anim id=\"Laughing\" target=\"actor\" targetSpec=\"\"}}{{ruby charSpan=\"1\" value=\"たの\"}}楽しまなきゃ　バチが{{ruby charSpan=\"1\" value=\"あ\"}}当たるよ、{{string value=\"6\"}}"
  }
]