﻿[
  {
    "label": "002",
    "attribute": "0x00000000",
    "text": "{{color id=\"3\"}}{{anim id=\"HappyDance\" target=\"actor\" targetSpec=\"\"}}죠니{{color id=\"65535\"}}의 세컨드 하우스를{{delay20}}\n멋지게 만들어주셔서 감사합니다!{{delay frames=\"50\"}}\n{{anim id=\"Laughing\" target=\"actor\" targetSpec=\"\"}}정말 마음에 듭니다!{{pageBreak}}{{anim id=\"EmotEnd\" target=\"actor\" targetSpec=\"\"}}그래서{{string value=\"...\"}}\n{{anim id=\"Dance\" target=\"actor\" targetSpec=\"\"}}당신에게{{delay20}} 깜짝 선물을 준비했습니다!{{delay frames=\"60\"}}\n{{anim id=\"Smiling\" target=\"actor\" targetSpec=\"\"}}부디 받아주십시오!"
  },
  {
    "label": "002_001",
    "attribute": "0x00000000",
    "text": "{{anim id=\"FaintSmile\" target=\"actor\" targetSpec=\"\"}}{{fun_0000007D arg=\"0x0000\"}}입니다!{{delay frames=\"40\"}}\n{{anim id=\"Laughing\" target=\"actor\" targetSpec=\"\"}}그걸 놓으면 당신의 방도{{delay20}}\n{{color id=\"3\"}}죠니{{color id=\"65535\"}}의 방처럼 될 겁니다!"
  },
  {
    "label": "002_002",
    "attribute": "0x00000000",
    "text": "{{anim id=\"Surprised\" target=\"actor\" targetSpec=\"\"}}Oh! {{delay frames=\"40\"}}당신,{{delay8}} 주머니가 가득하군요{{delay frames=\"60\"}}\n{{anim id=\"FaintSmile\" target=\"actor\" targetSpec=\"\"}}다음에 받으러 와주십시오!"
  },
  {
    "label": "002_003",
    "attribute": "0x00000000",
    "text": "{{anim id=\"Explain\" target=\"actor\" targetSpec=\"\"}}이제는 깜짝 선물이 아니게 되었습니다만{{string value=\"...\"}}{{delay20}}\n{{anim id=\"Hello\" target=\"actor\" targetSpec=\"\"}}그래도 받아주시겠습니까?"
  }
]