﻿[
  {
    "label": "002",
    "attribute": "0x0000000000000000",
    "text": "{{anim id=\"Eh\" target=\"actor\" targetSpec=\"\"}}Wie, {{delay8}}was, {{delay8}}echt? {{delay20}}{{anim id=\"Frantic\" target=\"actor\" targetSpec=\"\"}}Ist das jetzt dein\nErnst, {{delay8}}oder wie?! {{delay frames=\"40\"}}{{anim id=\"BigSmile\" target=\"actor\" targetSpec=\"\"}}Hammeridee!{{delay frames=\"40\"}}\nKlaro, {{delay8}}hab ich voll Bock drauf.{{pageBreak}}{{anim id=\"Clapping\" target=\"actor\" targetSpec=\"\"}}Mit dir auf der Insel geht's\nsicher so richtig ab, {{delay8}}{{string value=\"Catchphrase\"}}!{{pageBreak}}{{anim id=\"SmugFace\" target=\"actor\" targetSpec=\"\"}}Ich tiger mal zum {{color id=\"1\"}}Servicecenter\n{{color id=\"65535\"}}und frag nach, {{delay8}}ob's noch ein freies\nFleckchen für mich gibt..."
  },
  {
    "label": "003",
    "attribute": "0x0000000000000000",
    "text": "{{anim id=\"Thinking\" target=\"actor\" targetSpec=\"\"}}Oh Maaaaaann{{string value=\"...\"}}{{delay40}} Du lässt einem ja\nkaum eine Chance,{{delay8}} Nein zu sagen.{{delay40}}\n{{anim id=\"Blushing\" target=\"actor\" targetSpec=\"\"}}Bin ich echt so unwiderstehlich?!\n{{anim id=\"Restless\" target=\"actor\" targetSpec=\"\"}}Okay, {{delay8}}dann vergiss meine Absage.{{delay20}}\n{{anim id=\"Nodding\" target=\"actor\" targetSpec=\"\"}}Ich zieh hierher!{{delay40}} Seine Fans darf\nman schließlich nicht enttäuschen.\n{{anim id=\"EmotEnd\" target=\"actor\" targetSpec=\"\"}}Wenn's nach mir geht zumindest.{{delay20}}\n{{anim id=\"Greeting\" target=\"actor\" targetSpec=\"\"}}Das {{color id=\"1\"}}Servicecenter{{color id=\"65535\"}} hier hat ja auch\nnoch ein Wörtchen mitzureden."
  },
  {
    "label": "101",
    "attribute": "0x0000000000000000",
    "text": "{{fun_0014003C arg=\"\"}}"
  },
  {
    "label": "101_01",
    "attribute": "0x0000000000000000",
    "text": "{{anim id=\"Shocked\" target=\"actor\" targetSpec=\"\"}}Waaaaaas?!{{delay frames=\"40\"}} Ich flipp aus!{{delay20}} Ich soll\nhiiiiierher nach {{string value=\"OtherIslandName\"}}\nziehen?! {{delay40}}{{anim id=\"Restless\" target=\"actor\" targetSpec=\"\"}}Das wär der Hammer...{{pageBreak}}{{anim id=\"Restless\" target=\"actor\" targetSpec=\"\"}}Aber{{string value=\"...\"}} {{delay20}}{{anim id=\"Negative\" target=\"actor\" targetSpec=\"\"}}Tut mir leid. {{delay frames=\"40\"}}Ich kann meine\nFans zu Hause doch nicht im Stich\nlassen. {{delay frames=\"40\"}}{{anim id=\"Blushing\" target=\"actor\" targetSpec=\"\"}}Trotzdem danke!"
  },
  {
    "label": "101_02",
    "attribute": "0x0000000000000000",
    "text": "{{anim id=\"Shocked\" target=\"actor\" targetSpec=\"\"}}Waaaaas?!{{delay frames=\"40\"}} Du meinst ECHT, {{delay8}}ich\nsoll mit Sack und Pack hier\neinlaufen und bleiben?{{pageBreak}}{{anim id=\"Restless\" target=\"actor\" targetSpec=\"\"}}Wenn ich ganz ehrlich bin, {{delay8}}würden\nmir meine Leutchen zu Hause fehlen,{{delay8}}\nmit denen ich abhotten gehe...\n{{anim id=\"Sighing\" target=\"actor\" targetSpec=\"\"}}Sorry, {{delay8}}echt, {{delay8}}ist mir jetzt grad erst\nso richtig klar geworden, {{delay8}}dass mir\ndas voll wichtig ist, {{delay8}}{{string value=\"Catchphrase\"}}."
  },
  {
    "label": "101_03",
    "attribute": "0x0000000000000000",
    "text": "{{anim id=\"Shocked\" target=\"actor\" targetSpec=\"\"}}Moment, Moment, Moment...{{delay frames=\"40\"}}\nDu sagst echt, {{delay8}}ich soll herziehen?!{{delay40}}\n{{anim id=\"Smiling\" target=\"actor\" targetSpec=\"\"}}Krass, {{delay8}}aber{{string value=\"...\"}} {{delay8}}nee, {{delay8}}is' nicht.\n{{anim id=\"Sighing\" target=\"actor\" targetSpec=\"\"}}Schlechtes Timing{{string value=\"...\"}}{{delay20}} {{anim id=\"Restless\" target=\"actor\" targetSpec=\"\"}}Sorry, {{delay8}}wirklich,\n{{delay8}}aber bei mir zu Hause ist zum ersten\nMal seit, {{delay8}}ähm{{string value=\"...\"}} {{delay8}}Langem aufgeräumt.{{pageBreak}}{{anim id=\"Nodding\" target=\"actor\" targetSpec=\"\"}}Das klingt jetzt sicher strange, {{delay8}}aber\nAufräumen ist halt für mich eine\ntotale Qual, {{delay8}}{{string value=\"Catchphrase\"}}.\n{{anim id=\"Restless\" target=\"actor\" targetSpec=\"\"}}Also, {{delay8}}echt lieb von dir, {{delay8}}ein andermal\ngerne. {{delay20}}Nur halt nicht jetzt."
  },
  {
    "label": "201_01",
    "attribute": "0x0000010000000000",
    "text": "{{anim id=\"Shocked\" target=\"actor\" targetSpec=\"\"}}Was?!{{delay20}} Ich soll mal einfach so\nherziehen?! {{delay40}}{{anim id=\"FaintSmile\" target=\"actor\" targetSpec=\"\"}}Hammer! {{i10_4}}{{anim id=\"Hesitate\" target=\"actor\" targetSpec=\"\"}}Aber{{string value=\"...\"}}{{delay20}} so\nganz sicher bin ich mir doch nicht...\n{{anim id=\"IdeaBulb\" target=\"actor\" targetSpec=\"\"}}Hey! {{delay20}}Wie wär's, {{delay8}}die Sache einfach\nauszuspielen? {{delay20}}{{anim id=\"Explain\" target=\"actor\" targetSpec=\"\"}}Wenn du gewinnst,{{delay8}}\nziehe ich her, {{delay20}}{{anim id=\"FaintSmile\" target=\"actor\" targetSpec=\"\"}}aber NUR dann!\nWenn du verlierst, {{delay8}}komm ich also\nnicht, {{delay8}}{{string value=\"Catchphrase\"}}{{string value=\"...\"}}{{delay20}}\n{{anim id=\"Greeting\" target=\"actor\" targetSpec=\"\"}}Na, {{delay8}}wie sieht's aus?"
  },
  {
    "label": "201_01_a",
    "attribute": "0x0000000000000000",
    "text": "Spielen wir!"
  },
  {
    "label": "201_01_b",
    "attribute": "0x0000000000000000",
    "text": "Lieber nicht..."
  },
  {
    "label": "201_02",
    "attribute": "0x0000010000000000",
    "text": "{{anim id=\"Shocked\" target=\"actor\" targetSpec=\"\"}}Waaaas?{{delay20}} Einfach mal herziehen?!{{delay40}}\nHammeridee! {{delay frames=\"40\"}}{{anim id=\"Hesitate\" target=\"actor\" targetSpec=\"\"}}Aber das kommt jetzt\necht krass plötzlich, {{delay8}}{{string value=\"Catchphrase\"}}...{{pageBreak}}{{anim id=\"IdeaBulb\" target=\"actor\" targetSpec=\"\"}}Ich hab's! {{delay40}}{{anim id=\"Explain\" target=\"actor\" targetSpec=\"\"}}Wir lassen ein Spiel\nentscheiden! {{delay frames=\"40\"}}Wenn du gewinnst,{{delay8}}\nziehe ich her! {{delay20}}Wenn ich gewinne{{string value=\"...\"}}{{pageBreak}}Tja, {{delay8}}{{anim id=\"Laughing\" target=\"actor\" targetSpec=\"\"}}dann reise ich einfach wieder\nheim! {{delay frames=\"40\"}}{{anim id=\"QuestionMark\" target=\"actor\" targetSpec=\"\"}}Bist du dabei?"
  },
  {
    "label": "201_02_a",
    "attribute": "0x0000000000000000",
    "text": "Na klar!"
  },
  {
    "label": "201_02_b",
    "attribute": "0x0000000000000000",
    "text": "Da passe ich lieber..."
  },
  {
    "label": "201_03",
    "attribute": "0x0000010000000000",
    "text": "{{anim id=\"Love\" target=\"actor\" targetSpec=\"\"}}Woooow, {{delay8}}echt jetzt{{string value=\"...\"}} {{delay8}}wow! {{delay20}}Ich soll\nmir nichts,{{delay8}} dir nichts herziehen?{{delay frames=\"40\"}}\nDas wär ja echt der Hammer!{{pageBreak}}Aaaaber{{string value=\"...\"}} {{delay8}}{{anim id=\"Scheming\" target=\"actor\" targetSpec=\"\"}}Stars lockt man nicht so\neinfach auf eine Insel. {{delay40}}{{anim id=\"Explain\" target=\"actor\" targetSpec=\"\"}}Du musst in\neinem Spiel gegen mich antreten!{{pageBreak}}{{anim id=\"Nodding\" target=\"actor\" targetSpec=\"\"}}Wenn du gewinnst, {{delay8}}ziehe ich her.{{delay20}}\n{{anim id=\"Silent\" target=\"actor\" targetSpec=\"\"}}Verlierst du, {{delay8}}werde ich woanders\nmeinen großen Durchbruch feiern!{{delay frames=\"40\"}}\n{{anim id=\"HappyDance\" target=\"actor\" targetSpec=\"\"}}Suuupertolle Idee, {{delay8}}oder?{{delay frames=\"40\"}}\nLegen wir gleich los, {{delay8}}{{string value=\"Catchphrase\"}}!"
  },
  {
    "label": "201_03_a",
    "attribute": "0x0000000000000000",
    "text": "Ja, los geht's!"
  },
  {
    "label": "201_03_b",
    "attribute": "0x0000000000000000",
    "text": "Nö, kein Interesse..."
  },
  {
    "label": "202_01",
    "attribute": "0x0000000000000000",
    "text": "{{anim id=\"Worried\" target=\"actor\" targetSpec=\"\"}}Wie jetzt, {{delay20}}ECHT nicht?{{delay40}}\n{{anim id=\"OhGeez\" target=\"actor\" targetSpec=\"\"}}Pffffft, {{delay8}}na gut, {{delay8}}{{string value=\"Catchphrase\"}}..."
  },
  {
    "label": "202_02",
    "attribute": "0x0000000000000000",
    "text": "{{anim id=\"Confused\" target=\"actor\" targetSpec=\"\"}}Waaas? {{delay40}}Wie bist du denn drauf?{{delay20}}\nNicht so, {{delay8}}wie ich dachte\njedenfalls, {{delay8}}{{string value=\"Catchphrase\"}}..."
  },
  {
    "label": "202_03",
    "attribute": "0x0000000000000000",
    "text": "{{anim id=\"TakenAback\" target=\"actor\" targetSpec=\"\"}}Waaaaas? {{delay40}}{{anim id=\"OhGeez\" target=\"actor\" targetSpec=\"\"}}Du hättest einen künftigen\nSuperstar auf die Insel holen können.{{delay20}}\n{{anim id=\"Negative\" target=\"actor\" targetSpec=\"\"}}Chance verpasst, {{delay8}}{{string value=\"Catchphrase\"}}!"
  },
  {
    "label": "203_01",
    "attribute": "0x0000000000000000",
    "text": "{{anim id=\"Nodding\" target=\"actor\" targetSpec=\"\"}}Also, {{delay8}}dann geht's los!{{delay20}}\nIch zieh eine Karte."
  },
  {
    "label": "204",
    "attribute": "0x0000000000000000",
    "text": "{{fun_0014003C arg=\"\"}}"
  },
  {
    "label": "204_01",
    "attribute": "0x0000000000000000",
    "text": "{{anim id=\"WrySmile\" target=\"actor\" targetSpec=\"\"}}Ich hab gewonnen! {{delay40}}{{anim id=\"ColdChill\" target=\"actor\" targetSpec=\"\"}}Dann ist das\nganze Trara von wegen Umzug und\nso wohl Schnee von gestern."
  },
  {
    "label": "204_02",
    "attribute": "0x0000000000000000",
    "text": "{{anim id=\"ShyBoy\" target=\"actor\" targetSpec=\"\"}}Die Partie geht an mich.\n{{delay20}}{{anim id=\"Smiling\" target=\"actor\" targetSpec=\"\"}}Nimm's nicht zu schwer, {{delay8}}ja?"
  },
  {
    "label": "204_03",
    "attribute": "0x0000000000000000",
    "text": "{{anim id=\"Eh\" target=\"actor\" targetSpec=\"\"}}Gewonnen! {{delay40}}{{anim id=\"OhGeez\" target=\"actor\" targetSpec=\"\"}}Tja, {{delay8}}dann werd ich\nwohl doch nicht herziehen."
  },
  {
    "label": "205",
    "attribute": "0x0000000000000000",
    "text": "{{fun_0014003C arg=\"\"}}"
  },
  {
    "label": "205_01",
    "attribute": "0x0000000000000000",
    "text": "{{anim id=\"FaintSmile\" target=\"actor\" targetSpec=\"\"}}Immerhin hab ich jetzt ein Andenken\nan meine coole Zeit auf dieser Insel.\n{{delay20}}{{anim id=\"Greeting\" target=\"actor\" targetSpec=\"\"}}Danke, {{delay8}}{{string value=\"Catchphrase\"}}!"
  },
  {
    "label": "205_02",
    "attribute": "0x0000000000000000",
    "text": "{{anim id=\"Blushing\" target=\"actor\" targetSpec=\"\"}}Also mir hat's Spaß gemacht.{{delay20}}\nVielleicht können wir ja irgendwann\nnoch mal spielen, {{delay8}}{{string value=\"Catchphrase\"}}!"
  },
  {
    "label": "205_03",
    "attribute": "0x0000000000000000",
    "text": "{{anim id=\"Hesitate\" target=\"actor\" targetSpec=\"\"}}An dieses Spiel werd ich mich sicher\nnoch lange erinnern.{{delay20}}{{anim id=\"Smiling\" target=\"actor\" targetSpec=\"\"}} Vielen Dank\ndafür, {{delay8}}{{string value=\"Catchphrase\"}}!"
  },
  {
    "label": "206",
    "attribute": "0x0000000000000000",
    "text": "{{fun_0014003C arg=\"\"}}"
  },
  {
    "label": "206_01",
    "attribute": "0x0000000000000000",
    "text": "{{anim id=\"BigSmile\" target=\"actor\" targetSpec=\"\"}}Upsi, {{delay20}}du hast gewonnen! {{delay40}}{{anim id=\"Clapping\" target=\"actor\" targetSpec=\"\"}}Das heißt,{{delay8}}\nalle haben gewonnen, {{delay8}}denn ich\nziehe nach {{string value=\"OtherIslandName\"}}!{{pageBreak}}{{anim id=\"HappyDance\" target=\"actor\" targetSpec=\"\"}}Jetzt wird die Promi-Szene hier mal\nordentlich aufgemischt! {{delay20}}{{anim id=\"Nodding\" target=\"actor\" targetSpec=\"\"}}Und neue\nFashion-Trends gesetzt!{{pageBreak}}{{anim id=\"Eh\" target=\"actor\" targetSpec=\"\"}}Oh! {{delay20}}Fast vergessen{{string value=\"...\"}}{{delay20}} {{anim id=\"OhGeez\" target=\"actor\" targetSpec=\"\"}}Alles\nvorausgesetzt, {{delay8}}das {{color id=\"1\"}}Servicecenter\n{{color id=\"65535\"}}spielt mit, {{delay8}}{{string value=\"Catchphrase\"}}."
  },
  {
    "label": "206_02",
    "attribute": "0x0000000000000000",
    "text": "{{anim id=\"Clapping\" target=\"actor\" targetSpec=\"\"}}Oooo{{delay8}}ha!!! {{delay20}}Du hast gewonnen!{{delay40}}\n{{anim id=\"Blushing\" target=\"actor\" targetSpec=\"\"}}Also, {{delay8}}das Spiel! {{delay20}}Und ich, {{delay8}}ich hab\neine Insel gewonnen! {{delay20}}Also quasi.\n{{anim id=\"Explain\" target=\"actor\" targetSpec=\"\"}}Wo ich jetzt herziehe, {{delay8}}könnte man ja\nvielleicht den Inselnamen mal ein\nbisschen aufpeppen, {{delay8}}oder?\n{{anim id=\"OhGeez\" target=\"actor\" targetSpec=\"\"}}Ich meine, {{delay8}}{{string value=\"OtherIslandName\"}}{{string value=\"...\"}} {{delay8}}also echt! {{delay frames=\"40\"}}Ein {{color id=\"0\"}}Isla de la{{color id=\"65535\"}} vorne dran wär ja wohl das Mindeste, {{delay8}}{{string value=\"Catchphrase\"}}!{{pageBreak}}{{anim id=\"Nodding\" target=\"actor\" targetSpec=\"\"}}Denk mal drüber nach, {{delay8}}während ich\nmir beim {{color id=\"1\"}}Servicecenter{{color id=\"65535\"}} die Umzugs-\nerlaubnis einhole. {{delay20}}{{anim id=\"Greeting\" target=\"actor\" targetSpec=\"\"}}Bis gleich!"
  },
  {
    "label": "206_03",
    "attribute": "0x0000000000000000",
    "text": "{{anim id=\"Eh\" target=\"actor\" targetSpec=\"\"}}Verloren? {{delay20}}{{anim id=\"BigSmile\" target=\"actor\" targetSpec=\"\"}}Yippie, {{delay8}}das war mein Plan!{{delay frames=\"40\"}}\n{{anim id=\"Laughing\" target=\"actor\" targetSpec=\"\"}}Der beste Kartentrick aller Zeiten...{{delay20}}\nIch zieh nach {{string value=\"OtherIslandName\"}}!{{pageBreak}}{{anim id=\"QuestionMark\" target=\"actor\" targetSpec=\"\"}}Wie mein Kartentrick gefunzt hat?{{delay20}}\n{{anim id=\"TakenAback\" target=\"actor\" targetSpec=\"\"}}Den verrat ich doch erst, {{delay8}}wenn ich\nhier meine eigene Talkshow hab!{{pageBreak}}{{anim id=\"Explain\" target=\"actor\" targetSpec=\"\"}}Ich verschieß doch nicht einfach so\nmein Pulver!{{pageBreak}}{{anim id=\"Shocked\" target=\"actor\" targetSpec=\"\"}}Argh! {{delay20}}Fast vergessen!{{delay20}} {{anim id=\"OhGeez\" target=\"actor\" targetSpec=\"\"}}Das {{color id=\"1\"}}Service-\ncenter{{color id=\"65535\"}} könnte mir auch noch einen\nStrich durch die Rechnung machen.\n{{anim id=\"Smiling\" target=\"actor\" targetSpec=\"\"}}Bleib doch kurz hier stehen, {{delay8}}während\nich denen mal auf den Zahn fühlen\ngeh, {{delay8}}{{string value=\"Catchphrase\"}}."
  },
  {
    "label": "207_01",
    "attribute": "0x0000010000000000",
    "text": "{{anim id=\"Shocked\" target=\"actor\" targetSpec=\"\"}}Du akzeptierst wohl kein Nein als\nAntwort, {{delay8}}was? {{delay20}}Bleib cool,{{delay8}} ich mach\ndir ja keinen Vorwurf...\n{{anim id=\"Smiling\" target=\"actor\" targetSpec=\"\"}}Schließlich bin ich für jede Insel der\nHauptgewinn! {{delay20}}Mit einem Star wie mir\nwird's garantiert NIE langweilig.\n{{anim id=\"Nodding\" target=\"actor\" targetSpec=\"\"}}Also gut, {{delay8}}ich mach dir einen\nVorschlag. {{delay20}}Lass uns um meinen\nUmzug spielen, {{delay8}}okay?\n{{anim id=\"Explain\" target=\"actor\" targetSpec=\"\"}}Wenn du gewinnst, {{delay8}}pack ich meine\nKlamotten und zieh her. {{delay20}}Gewinn ich,{{delay8}}\nvergessen wir die Chose! {{delay20}}{{anim id=\"QuestionMark\" target=\"actor\" targetSpec=\"\"}}Deal?"
  },
  {
    "label": "207_01_a",
    "attribute": "0x0000000000000000",
    "text": "Deal!"
  },
  {
    "label": "207_01_b",
    "attribute": "0x0000000000000000",
    "text": "Vergiss es."
  },
  {
    "label": "207_02",
    "attribute": "0x0000010000000000",
    "text": "{{anim id=\"WrySmile\" target=\"actor\" targetSpec=\"\"}}Lass mich raten: {{delay20}}Nach meiner ersten\nAbfuhr bist du jetzt noch heißer\ndrauf, {{delay8}}mich auf der Insel zu haben?\n{{anim id=\"Nodding\" target=\"actor\" targetSpec=\"\"}}Ich kenn das. {{delay20}}Nichts ist begehrter\n{{anim id=\"SmugFace\" target=\"actor\" targetSpec=\"\"}}als ein Ticket für ein bereits ausver-\nkauftes Konzert, {{delay8}}{{string value=\"Catchphrase\"}}.\n{{anim id=\"Smiling\" target=\"actor\" targetSpec=\"\"}}Na gut. {{delay20}}Dir als treuem Fan geb ich\ndie Chance auf einen VIP-Pass.{{delay20}}\nAlso sperr mal die Öhrchen auf!\n{{anim id=\"Explain\" target=\"actor\" targetSpec=\"\"}}Wir zwei spielen ein kleines Spiel,{{delay8}}\nund wenn du gewinnst,{{delay8}} leg ich hier\ndemnächst dauerhaften Tourstop ein.\n{{anim id=\"Clapping\" target=\"actor\" targetSpec=\"\"}}Klingt doch mega-aufregend, {{delay8}}oder?{{delay20}}\n{{anim id=\"BigSmile\" target=\"actor\" targetSpec=\"\"}}Wollen wir dann direkt loslegen?"
  },
  {
    "label": "207_02_a",
    "attribute": "0x0000000000000000",
    "text": "Los geht's!"
  },
  {
    "label": "207_02_b",
    "attribute": "0x0000000000000000",
    "text": "Muss nicht sein."
  },
  {
    "label": "207_03",
    "attribute": "0x0000010000000000",
    "text": "{{anim id=\"TakenAback\" target=\"actor\" targetSpec=\"\"}}Du fragst mich, {{delay8}}ob ich hier wohnen\nmag? {{delay20}}Schon wieder? {{delay20}}{{anim id=\"Blushing\" target=\"actor\" targetSpec=\"\"}}Da ist aber\njemand hartnäckig, {{delay8}}{{string value=\"Catchphrase\"}}...{{pageBreak}}{{anim id=\"EmotEnd\" target=\"actor\" targetSpec=\"\"}}Aber ich find's toll!{{delay20}} {{anim id=\"Love\" target=\"actor\" targetSpec=\"\"}}Gefragt zu sein\nist das Schönste auf der Welt! {{delay20}}Besser\nnoch als lila Lipgloss mit Glitter!{{pageBreak}}{{anim id=\"IdeaBulb\" target=\"actor\" targetSpec=\"\"}}Weißt du, {{delay8}}was voll lustig wäre? {{delay20}}{{anim id=\"Nodding\" target=\"actor\" targetSpec=\"\"}}Wir\nkönnten doch einfach ein Spiel über\nunsere Zukunft entscheiden lassen!{{pageBreak}}{{anim id=\"AbsentMindedness\" target=\"actor\" targetSpec=\"\"}}Wenn ich gewinne,{{delay8}} setze ich mich\nhin und fang endlich mal mit dem\nSchreiben meiner Autobiografie an.\n{{anim id=\"WrySmile\" target=\"actor\" targetSpec=\"\"}}Solltest du gewinnen, {{delay8}}dann beweg\nich mein Popöchen so schnell wie's\ngeht auf deine Insel. {{delay20}}{{anim id=\"QuestionMark\" target=\"actor\" targetSpec=\"\"}}Was sagst du?"
  },
  {
    "label": "207_03_a",
    "attribute": "0x0000000000000000",
    "text": "Ich sage: Los geht's!"
  },
  {
    "label": "207_03_b",
    "attribute": "0x0000000000000000",
    "text": "Nö, lass gut sein."
  },
  {
    "label": "208_01",
    "attribute": "0x0000000000000000",
    "text": "{{anim id=\"Shocked\" target=\"actor\" targetSpec=\"\"}}Bitte WAS? {{delay40}}Äh,{{delay8}} ich mein{{string value=\"...\"}}{{delay8}} {{anim id=\"Blushing\" target=\"actor\" targetSpec=\"\"}}schon\nokay.{{delay20}} Ist ja nicht so,{{delay8}} dass ich mich\nschon heimlich drauf gefreut hätte..."
  },
  {
    "label": "208_02",
    "attribute": "0x0000000000000000",
    "text": "{{anim id=\"Shocked\" target=\"actor\" targetSpec=\"\"}}Huch! {{delay40}}{{anim id=\"Oops\" target=\"actor\" targetSpec=\"\"}}Hab eigentlich gedacht,{{delay8}} du\nwärst voll begeistert von der Idee,{{delay8}}\n{{string value=\"NickName\"}}."
  },
  {
    "label": "208_03",
    "attribute": "0x0000000000000000",
    "text": "{{anim id=\"OhGeez\" target=\"actor\" targetSpec=\"\"}}Puh,{{delay8}} hoffentlich bereust du deine\nEntscheidung nicht irgendwann. {{delay20}}Von\nwegen verpasste Chance und so!"
  },
  {
    "label": "302",
    "attribute": "0x0000010000000000",
    "text": "{{anim id=\"SadSpiral\" target=\"actor\" targetSpec=\"\"}}Geht's eigentlich noch?! {{delay frames=\"40\"}}{{anim id=\"Angry\" target=\"actor\" targetSpec=\"\"}}Laut\n{{color id=\"1\"}}Servicecenter{{color id=\"65535\"}} ist kein Platz für\nmich auf der Insel...{{pageBreak}}{{anim id=\"Sighing\" target=\"actor\" targetSpec=\"\"}}Also nicht speziell für mich, {{delay20}}{{anim id=\"Negative\" target=\"actor\" targetSpec=\"\"}}wär ja auch NOCH schöner, {{delay8}}sondern kein\nPlatz für eine neue Bude halt.{{pageBreak}}{{anim id=\"Frantic\" target=\"actor\" targetSpec=\"\"}}Ohne Bude geht aber nicht viel!{{delay frames=\"40\"}}\n{{anim id=\"Nodding\" target=\"actor\" targetSpec=\"\"}}Das {{color id=\"1\"}}Servicecenter {{color id=\"65535\"}}hat noch Plan B\nerwähnt, {{delay8}}{{string value=\"Catchphrase\"}}...\n{{anim id=\"Hesitate\" target=\"actor\" targetSpec=\"\"}}Wenn jemand wegzieht, {{delay8}}könnte ich\nihn quasi ersetzen.{{pageBreak}}{{anim id=\"QuestionMark\" target=\"actor\" targetSpec=\"\"}}Weißt du zufällig von jemandem,{{delay8}}\nder hier vielleicht die Flatter\nmachen will, {{delay8}}{{string value=\"Catchphrase\"}}?"
  },
  {
    "label": "302_a",
    "attribute": "0x0000000000000000",
    "text": "Ich wüsste jemanden!"
  },
  {
    "label": "302_b",
    "attribute": "0x0000000000000000",
    "text": "Leider nicht."
  },
  {
    "label": "303",
    "attribute": "0x0000000000000000",
    "text": "{{anim id=\"SadSpiral\" target=\"actor\" targetSpec=\"\"}}Schade, {{delay8}}schade, {{delay20}}aber hätt mich auch\ngewundert... {{delay20}}{{anim id=\"Crying\" target=\"actor\" targetSpec=\"\"}}Wer würde hier schon\nden Platz räumen. {{delay20}}ICH nicht!"
  },
  {
    "label": "304",
    "attribute": "0x0000000000000000",
    "text": "{{anim id=\"Eh\" target=\"actor\" targetSpec=\"\"}}ECHT?! {{delay40}}{{anim id=\"Hello\" target=\"actor\" targetSpec=\"\"}}Wer denn? {{delay8}}Na sag schon!{{delay frames=\"40\"}}\n{{anim id=\"Explain\" target=\"actor\" targetSpec=\"\"}}Ich geh SOFORT hin! {{delay20}}Muss mir nur\n'nen passenden Spruch überlegen...{{pageBreak}}{{anim id=\"AbsentMindedness\" target=\"actor\" targetSpec=\"\"}}Wobei{{string value=\"...\"}} {{delay8}}mach ich spontan. {{delay20}}{{anim id=\"Nodding\" target=\"actor\" targetSpec=\"\"}}Erst\nmal gucken, {{delay8}}wie die Person so\ndrauf ist, {{delay8}}{{string value=\"Catchphrase\"}}...\n{{anim id=\"Explain\" target=\"actor\" targetSpec=\"\"}}Die vom {{color id=\"1\"}}Servicecenter {{color id=\"65535\"}}haben die\nAuswahl schon etwas eingegrenzt\nund mir folgende Namen genannt..."
  },
  {
    "label": "305",
    "attribute": "0x0000030000000000",
    "text": "{{anim id=\"FaintSmile\" target=\"actor\" targetSpec=\"\"}}An {{selection value=\"SelectedVillager\"}} hattest du also gedacht, {{delay8}}ja, {{delay8}}{{string value=\"Catchphrase\"}}?"
  },
  {
    "label": "305_a",
    "attribute": "0x0000000000000000",
    "text": "Ganz genau."
  },
  {
    "label": "305_b",
    "attribute": "0x0000000000000000",
    "text": "Nee, kleiner Fehler..."
  },
  {
    "label": "305_c",
    "attribute": "0x0000000000000000",
    "text": "Ach, lassen wir das!"
  },
  {
    "label": "306",
    "attribute": "0x0000000000000000",
    "text": "{{anim id=\"Greeting\" target=\"actor\" targetSpec=\"\"}}Geht klar! {{delay20}}{{anim id=\"EmotEnd\" target=\"actor\" targetSpec=\"\"}}Die Mission beginnt...{{delay frames=\"40\"}}\nDrück mir die {{anim id=\"Assent\" target=\"actor\" targetSpec=\"\"}}Daumen, {{delay8}}{{string value=\"Catchphrase\"}}!"
  },
  {
    "label": "307",
    "attribute": "0x0000000000000000",
    "text": "{{anim id=\"Eh\" target=\"actor\" targetSpec=\"\"}}Upsi! {{delay20}}Du meintest also eigentlich\njemand anders, {{delay8}}ja? {{delay20}}{{anim id=\"FaintSmile\" target=\"actor\" targetSpec=\"\"}}Kommt vor.{{delay20}}\nAlso, {{delay8}}{{anim id=\"QuestionMark\" target=\"actor\" targetSpec=\"\"}}wer soll's denn jetzt sein?"
  },
  {
    "label": "308",
    "attribute": "0x0000000000000000",
    "text": "{{anim id=\"Worried\" target=\"actor\" targetSpec=\"\"}}Äh, {{delay20}}du willst jetzt lieber gar keinen\nNamen nennen? {{delay40}}{{anim id=\"OhGeez\" target=\"actor\" targetSpec=\"\"}}Na gut, {{delay8}}ist ja auch\nnicht ohne, {{delay8}}Leute zu vergraulen..."
  },
  {
    "label": "309",
    "attribute": "0x0000000000000000",
    "text": "{{anim id=\"BigSmile\" target=\"actor\" targetSpec=\"\"}}Es hat gefunzt, {{delay8}}{{string value=\"NickName\"}}!{{pageBreak}}{{anim id=\"EmotEnd\" target=\"actor\" targetSpec=\"\"}}Ich hab {{selection value=\"SelectedVillager\"}} gefragt, {{delay8}}so wie du's vorgeschlagen hattest, {{delay8}}und {{gender8 m=\"er\" f=\"sie\" n=\"\"}} war echt cool.{{pageBreak}}{{anim id=\"Explain\" target=\"actor\" targetSpec=\"\"}}{{gender8 m=\"Er\" f=\"Sie\" n=\"\"}} war total verständnisvoll, {{delay8}}so von\nwegen 'ne talentierte Sängerin tut\n{{string value=\"OtherIslandName\"}} gut!{{pageBreak}}{{anim id=\"HappyDance\" target=\"actor\" targetSpec=\"\"}}Das heißt, {{selection value=\"SelectedVillager\"}} räumt das Feld für einen guten Zweck! {{delay20}}Und ich zieh schon ganz bald her!{{pageBreak}}{{anim id=\"EmotEnd\" target=\"actor\" targetSpec=\"\"}}Ach, {{delay8}}bevor ich es vergesse... {{delay20}}{{anim id=\"EmotEnd\" target=\"actor\" targetSpec=\"\"}}Ich bin\ndie {{string value=\"VillagerName\"}}. {{delay frames=\"40\"}}{{anim id=\"EmotEnd\" target=\"actor\" targetSpec=\"\"}}Und du bist {{string value=\"NickName\"}}, {{delay8}}hab ich recht?{{pageBreak}}Bereite dich besser geistig schon mal\nvor...{{delay20}} {{anim id=\"EmotEnd\" target=\"actor\" targetSpec=\"\"}}Bald wird diese Insel als Heimat\nvon {{string value=\"VillagerName\"}} weltberühmt!"
  },
  {
    "label": "309_01",
    "attribute": "0x0000000000000000",
    "text": "{{anim id=\"FaintSmile\" target=\"actor\" targetSpec=\"\"}}Danke fürs Warten!{{delay20}} Ich bin eben bei\n{{selection value=\"SelectedVillager\"}} gewesen, {{delay8}}{{anim id=\"Negative\" target=\"actor\" targetSpec=\"\"}}aber da war ich wohl nicht schnell genug...{{pageBreak}}{{anim id=\"Serious\" target=\"actor\" targetSpec=\"\"}}Ob du's glaubst oder nicht, {{delay8}}{{gender8 m=\"seine\" f=\"ihre\" n=\"\"}}\nBude gibt's nicht mehr! {{delay20}}{{anim id=\"BigSmile\" target=\"actor\" targetSpec=\"\"}}{{gender8 m=\"Er\" f=\"Sie\" n=\"\"}} hat wohl\nschon die Flatter gemacht.\n{{anim id=\"HappyDance\" target=\"actor\" targetSpec=\"\"}}Umso besser, {{delay8}}denn jetzt kann ich\ndirekt dort hinziehen! {{delay20}}{{anim id=\"EmotEnd\" target=\"actor\" targetSpec=\"\"}}Aber erst mal\nsollten wir uns vorstellen, {{delay8}}stimmt's?\nIch bin {{string value=\"VillagerName\"}}, {{delay8}}{{anim id=\"Dance\" target=\"actor\" targetSpec=\"\"}}euer neues Popsternchen hier auf der Insel. {{delay20}}Und du bist...{{pageBreak}}{{anim id=\"Smiling\" target=\"actor\" targetSpec=\"\"}}{{capitalizeNextLetter}}{{string value=\"NickName\"}}, {{delay8}}richtig?{{delay20}}\nOh Mann, {{delay8}}{{anim id=\"Clapping\" target=\"actor\" targetSpec=\"\"}}wir zwei werden hier\nmegamäßig viel Spaß haben!{{delay frames=\"50\"}}{{anim id=\"FaintSmile\" target=\"actor\" targetSpec=\"\"}}"
  },
  {
    "label": "310",
    "attribute": "0x0000010000000000",
    "text": "{{anim id=\"Worried\" target=\"actor\" targetSpec=\"\"}}Was geht? {{delay20}}Ist dir jetzt doch niemand\neingefallen, {{delay8}}{{string value=\"Catchphrase\"}}?"
  },
  {
    "label": "310_a",
    "attribute": "0x0000000000000000",
    "text": "Eigentlich schon..."
  },
  {
    "label": "310_b",
    "attribute": "0x0000000000000000",
    "text": "Irgendwie nicht..."
  },
  {
    "label": "311",
    "attribute": "0x0000000000000000",
    "text": "{{anim id=\"Hello\" target=\"actor\" targetSpec=\"\"}}Na, {{delay8}}dann mach doch mal hinne!{{delay20}}\n{{anim id=\"Nodding\" target=\"actor\" targetSpec=\"\"}}Spuck einen Namen aus und\ngut is', {{delay8}}{{string value=\"Catchphrase\"}}!"
  },
  {
    "label": "312",
    "attribute": "0x0000000000000000",
    "text": "{{anim id=\"SadSpiral\" target=\"actor\" targetSpec=\"\"}}Menno, {{delay8}}sag das doch gleich!\n{{delay40}}{{anim id=\"OhGeez\" target=\"actor\" targetSpec=\"\"}}Ich hatte mich schon voll gefreut!{{delay frames=\"40\"}}\n{{anim id=\"FaintSmile\" target=\"actor\" targetSpec=\"\"}}Na ja, {{delay8}}vielleicht ein andermal..."
  },
  {
    "label": "313",
    "attribute": "0x0000010000000000",
    "text": "{{anim id=\"Clapping\" target=\"actor\" targetSpec=\"\"}}Na sichi tust du das! {{delay20}}{{anim id=\"QuestionMark\" target=\"actor\" targetSpec=\"\"}}Es ist bestimmt\n{{selection value=\"SelectedVillager\"}}, {{delay8}}stimmt's?{{pageBreak}}{{anim id=\"EmotEnd\" target=\"actor\" targetSpec=\"\"}}Woher ich das weiß?{{delay20}} {{anim id=\"ShyBoy\" target=\"actor\" targetSpec=\"\"}}Oooch, {{delay8}}kann\ngut sein,{{delay8}} dass ich {{gender8 m=\"seinen\" f=\"ihren\" n=\"\"}} Namen im\n{{color id=\"1\"}}Servicecenter{{color id=\"65535\"}} aufgeschnappt hab.{{pageBreak}}{{anim id=\"Hesitate\" target=\"actor\" targetSpec=\"\"}}Meinst du, {{delay8}}ich soll {{gender8 m=\"ihn\" f=\"sie\" n=\"\"}} direkt mal\nanhauen, {{delay8}}ob {{gender8 m=\"er seine\" f=\"sie ihre\" n=\"\"}} Bude für\nmich räumt, {{delay8}}{{string value=\"Catchphrase\"}}?"
  },
  {
    "label": "313_a",
    "attribute": "0x0000000000000000",
    "text": "Mach mal!"
  },
  {
    "label": "313_b",
    "attribute": "0x0000000000000000",
    "text": "Lass mal..."
  },
  {
    "label": "314",
    "attribute": "0x0000000000000000",
    "text": "{{anim id=\"Worried\" target=\"actor\" targetSpec=\"\"}}Okay, {{delay8}}das war dann wohl ein ganz\nklares Nein von dir.{{delay20}} Irgendwie voll\nschade, {{delay8}}{{string value=\"Catchphrase\"}}...{{pageBreak}}{{anim id=\"OhGeez\" target=\"actor\" targetSpec=\"\"}}Aber wie heißt es so schön? {{delay20}}Fällt\nein Vorhang,{{delay8}} lässt die nächste Show\nsicher nicht lang auf sich warten.\n{{anim id=\"EmotEnd\" target=\"actor\" targetSpec=\"\"}}Ich werd meinen großen Auftritt\nschon noch haben,{{delay20}} irgendwann,{{delay8}}\nirgendwo. {{delay20}}{{anim id=\"BigSmile\" target=\"actor\" targetSpec=\"\"}}Wart's mal ab!"
  },
  {
    "label": "404",
    "attribute": "0x0000000000000000",
    "text": "{{anim id=\"SadSpiral\" target=\"actor\" targetSpec=\"\"}}Der Trip zum {{color id=\"1\"}}Servicecenter {{color id=\"65535\"}}war\nder totale Flop... {{delay20}}Kein Platz für mich\nauf {{string value=\"OtherIslandName\"}}, {{delay8}}sagen sie!{{pageBreak}}{{anim id=\"Negative\" target=\"actor\" targetSpec=\"\"}}Ich hab gesagt, {{delay8}}dass ich so klein bin\nund gar nicht viel Platz brauch, {{delay8}}aber\ndie haben gar nicht richtig zugehört.\n{{anim id=\"Oops\" target=\"actor\" targetSpec=\"\"}}Mist! {{delay20}}Vielleicht schaffe ich es ja\nirgendwann aber doch noch, {{delay8}}in\ndeiner Nachbarschaft zu wohnen!"
  },
  {
    "label": "405",
    "attribute": "0x0000000000000000",
    "text": "{{anim id=\"Restless\" target=\"actor\" targetSpec=\"\"}}Urks, {{delay8}}im {{color id=\"1\"}}Servicecenter {{color id=\"65535\"}}haben sie\ngesagt, {{delay8}}hier gäb's keinen Bauplatz\nfür neue Häuser mehr zu kaufen.{{pageBreak}}{{anim id=\"Explain\" target=\"actor\" targetSpec=\"\"}}Ich hab vorgeschlagen, {{delay8}}auf einem\nHausboot zu wohnen. {{delay20}}{{anim id=\"Grin\" target=\"actor\" targetSpec=\"\"}}Das wär ja\neh abgefahren, {{delay8}}{{string value=\"Catchphrase\"}}...\n{{anim id=\"BrokenHeart\" target=\"actor\" targetSpec=\"\"}}Aber natüüürlich ist das laut so 'nem\nbescheuerten Paragraphen nicht\nerlaubt. {{delay frames=\"40\"}}Ich {{delay8}}HASSE {{delay8}}Bürokratie!{{pageBreak}}{{anim id=\"Sighing\" target=\"actor\" targetSpec=\"\"}}Wenn hier alle so entspannt wie\ndu wären, {{delay8}}könnte ich jetzt schon\nHausbootkataloge wälzen..."
  },
  {
    "label": "406",
    "attribute": "0x0000000000000000",
    "text": "{{anim id=\"Hello\" target=\"actor\" targetSpec=\"\"}}Und hier das Urteil der Jury des\n{{color id=\"1\"}}Servicecenters{{color id=\"65535\"}}{{string value=\"...\"}} {{delay frames=\"40\"}}{{anim id=\"BigSmile\" target=\"actor\" targetSpec=\"\"}}Ich bin NICHT\nausgeschieden! {{delay20}}Ich darf herziehen!\n{{anim id=\"HappyDance\" target=\"actor\" targetSpec=\"\"}}Ta-{{delay8}}daaaaa! {{delay frames=\"40\"}}{{anim id=\"Restless\" target=\"actor\" targetSpec=\"\"}}Puh, {{delay8}}jetzt muss ich aber\neine ganze Menge packen.{{delay frames=\"40\"}}{{anim id=\"FaintSmile\" target=\"actor\" targetSpec=\"\"}}\n{{string value=\"VillagerName\"}} heiß ich übrigens.\n{{anim id=\"Nodding\" target=\"actor\" targetSpec=\"\"}}Und du bist {{gender2 m=\"der\" f=\"die\"}} {{string value=\"NickName\"}}, {{delay8}}oder?{{delay20}} {{anim id=\"HappyFlower\" target=\"actor\" targetSpec=\"\"}}Ich freu mich schon totaaaaaal, {{delay8}}{{string value=\"Catchphrase\"}}!"
  },
  {
    "label": "407",
    "attribute": "0x0000000000000000",
    "text": "{{anim id=\"Hello\" target=\"actor\" targetSpec=\"\"}}So, {{delay8}}da bin ich wieder!{{delay frames=\"60\"}} {{anim id=\"Restless\" target=\"actor\" targetSpec=\"\"}}Ich hab also\nbeim {{color id=\"1\"}}Servicecenter {{color id=\"65535\"}}angefragt{{string value=\"...\"}}{{pageBreak}}{{anim id=\"BigSmile\" target=\"actor\" targetSpec=\"\"}}Und momentan ist wohl ein Grund-\nstück frei!{{delay20}} Die Sache ist also\ngebongt!{{pageBreak}}{{anim id=\"Smiling\" target=\"actor\" targetSpec=\"\"}}Du bist ab sofort mein Profi-Kontakt\nfür {{string value=\"OtherIslandName\"}} und somit verpflichtet, {{delay8}}mir alles zu zeigen!{{pageBreak}}{{anim id=\"HappyDance\" target=\"actor\" targetSpec=\"\"}}Jippiiiiiie! {{delay20}}Ich freu mich so für uns\nbeide, {{delay8}}{{string value=\"Catchphrase\"}}!"
  },
  {
    "label": "410",
    "attribute": "0x0000010000000000",
    "text": "{{anim id=\"Restless\" target=\"actor\" targetSpec=\"\"}}Sag mal{{string value=\"...\"}}{{delay20}} Meinst du, {{delay8}}ich soll einfach\nnoch mal im {{color id=\"1\"}}Servicecenter {{color id=\"65535\"}}einlaufen?{{delay20}}\n{{anim id=\"Scheming\" target=\"actor\" targetSpec=\"\"}}So lang nerven, {{delay8}}bis sie nachgeben?{{pageBreak}}{{anim id=\"Frantic\" target=\"actor\" targetSpec=\"\"}}Ich will halt soooo gern hier nach\n{{string value=\"OtherIslandName\"}} ziehen, {{delay8}}{{string value=\"Catchphrase\"}}!"
  },
  {
    "label": "410_a",
    "attribute": "0x0000000000000000",
    "text": "Versuch dein Glück!"
  },
  {
    "label": "410_b",
    "attribute": "0x0000000000000000",
    "text": "Hat wohl keinen Sinn."
  },
  {
    "label": "411",
    "attribute": "0x0000000000000000",
    "text": "{{anim id=\"Worried\" target=\"actor\" targetSpec=\"\"}}Ja, {{delay8}}ja, {{delay8}}hast ja recht. {{delay20}}{{anim id=\"Nodding\" target=\"actor\" targetSpec=\"\"}}Ich bin die\nLetzte, {{delay8}}die deshalb losheulen\nwürde, {{delay8}}{{string value=\"Catchphrase\"}}{{string value=\"...\"}}\n{{anim id=\"Crying\" target=\"actor\" targetSpec=\"\"}}Ich fühl mich TOTAL gemobbt!"
  },
  {
    "label": "423",
    "attribute": "0x0000000000000000",
    "text": "{{anim id=\"Smiling\" target=\"actor\" targetSpec=\"\"}}Voll die Übervölkerung hier{{string value=\"...\"}}{{delay8}}\nNa ja, {{delay8}}das kann mir aber auch noch\nVorteile bringen,{{delay8}} {{string value=\"Catchphrase\"}}...\n{{anim id=\"BigSmile\" target=\"actor\" targetSpec=\"\"}}Vielleicht hätt ich dann so riiiichtig\nviele Zuschauer, {{delay8}}wenn ich als\nPopstar auf Tour hier bin.{{pageBreak}}{{anim id=\"EmotEnd\" target=\"actor\" targetSpec=\"\"}}Denk dran, {{delay8}}dein Ticket rechtzeitig\nzu reservieren, {{delay8}}wenn's so weit ist!"
  },
  {
    "label": "424",
    "attribute": "0x0000000000000000",
    "text": "{{anim id=\"Thinking\" target=\"actor\" targetSpec=\"\"}}Ich könnte mich ja einfach bei wem\neinquartieren und ein paar Sternis\nals Untermiete abdrücken...{{pageBreak}}{{anim id=\"Blushing\" target=\"actor\" targetSpec=\"\"}}War nur Spaß, {{delay8}}{{string value=\"NickName\"}}.{{delay20}}\n{{anim id=\"Negative\" target=\"actor\" targetSpec=\"\"}}Mich durchschmarotzen war noch\nnie mein Ding.{{pageBreak}}{{anim id=\"OhGeez\" target=\"actor\" targetSpec=\"\"}}Vielleicht gibt's hier ja irgendwann\nmal ein Fleckchen Land zu kaufen.{{delay20}}\n{{anim id=\"FaintSmile\" target=\"actor\" targetSpec=\"\"}}Trotzdem danke für die Einladung!"
  },
  {
    "label": "504",
    "attribute": "0x0000010000000000",
    "text": "{{anim id=\"Explain\" target=\"actor\" targetSpec=\"\"}}Immer wenn ich hier zelte, {{delay8}}passieren\nvoll die hammerguten Sachen!{{delay40}}\n{{anim id=\"Smiling\" target=\"actor\" targetSpec=\"\"}}Ich bin grad soooooo glücklich!\n{{anim id=\"Love\" target=\"actor\" targetSpec=\"\"}}Diese Insel und ich, {{delay8}}wir passen\neinfach zusammen.{{delay20}} {{anim id=\"Blushing\" target=\"actor\" targetSpec=\"\"}}Am liebsten würd\nich nie wieder weg, {{delay8}}{{string value=\"Catchphrase\"}}!"
  },
  {
    "label": "504_a",
    "attribute": "0x0000000000000000",
    "text": "Dann zieh her!"
  },
  {
    "label": "504_b",
    "attribute": "0x0000000000000000",
    "text": "Freut mich!"
  },
  {
    "label": "505",
    "attribute": "0x0000000000000000",
    "text": "{{anim id=\"Pardon\" target=\"actor\" targetSpec=\"\"}}Dein Ernst?{{delay20}} Wär ich voll dabei!{{delay20}}\nEigentlich{{string value=\"...\"}}{{anim id=\"ShyBoy\" target=\"actor\" targetSpec=\"\"}} Aber ist die Insel\nauch bereit für mich?{{pageBreak}}{{anim id=\"Restless\" target=\"actor\" targetSpec=\"\"}}Sorry, {{delay8}}fürs Erste werd ich passen.{{delay20}}\n{{anim id=\"Worried\" target=\"actor\" targetSpec=\"\"}}Ich will diese Insel erst noch besser\nkennenlernen,{{delay8}} verstehst du?{{pageBreak}}{{anim id=\"Greeting\" target=\"actor\" targetSpec=\"\"}}Also lad mich einfach möglichst bald\nwieder ein!"
  },
  {
    "label": "506",
    "attribute": "0x0000000000000000",
    "text": "{{anim id=\"Nodding\" target=\"actor\" targetSpec=\"\"}}Ich sollte schon mal die nächsten\nzehn Jahre Urlaub im Voraus planen.{{pageBreak}}{{anim id=\"Laughing\" target=\"actor\" targetSpec=\"\"}}Damit bloß nichts dazwischenkommt,{{delay8}}\ndass ich wirklich jedes Jahr hier\nzelte, {{delay8}}{{string value=\"Catchphrase\"}}!"
  },
  {
    "label": "507",
    "attribute": "0x0000010000000000",
    "text": "{{anim id=\"Hesitate\" target=\"actor\" targetSpec=\"\"}}Kann ich mal ganz ehrlich meine\nMeinung sagen?{{delay frames=\"40\"}}{{anim id=\"HappyDance\" target=\"actor\" targetSpec=\"\"}} {{capitalizeNextLetter}}{{string value=\"OtherIslandName\"}}\nist uuuuunfassbar fantastisch!{{pageBreak}}{{anim id=\"FaintSmile\" target=\"actor\" targetSpec=\"\"}}Schöne Natur, {{delay8}}super Stimmung{{string value=\"...\"}}{{delay20}}\nGanz zu schweigen von den super-\nnetten Einwohnern, {{delay8}}{{string value=\"Catchphrase\"}}!"
  },
  {
    "label": "507_a",
    "attribute": "0x0000000000000000",
    "text": "Zieh doch her."
  },
  {
    "label": "507_b",
    "attribute": "0x0000000000000000",
    "text": "Das hört man gern."
  },
  {
    "label": "508",
    "attribute": "0x0000000000000000",
    "text": "{{anim id=\"Restless\" target=\"actor\" targetSpec=\"\"}}Ich hab wirklich schon mit dem\nGedanken gespielt{{string value=\"...\"}}{{i10_4}}{{anim id=\"Oops\" target=\"actor\" targetSpec=\"\"}} Aber ich bin\neinfach noch so unentschieden!{{pageBreak}}{{anim id=\"EmotEnd\" target=\"actor\" targetSpec=\"\"}}Ich werd noch mal drüber nach-\ndenken,{{delay8}} und beim nächsten Mal\nhab ich dann eine Antwort parat!{{pageBreak}}{{anim id=\"Blushing\" target=\"actor\" targetSpec=\"\"}}Du musst mich also unbedingt noch\nmal einladen,{{delay8}} klar?"
  },
  {
    "label": "509",
    "attribute": "0x0000000000000000",
    "text": "{{anim id=\"Assent\" target=\"actor\" targetSpec=\"\"}}Hier ist jeder Tag die Wucht!{{delay40}}\n{{anim id=\"Smiling\" target=\"actor\" targetSpec=\"\"}}Ich hoffe,{{delay8}} ich kann noch {{anim id=\"Nodding\" target=\"actor\" targetSpec=\"\"}}ganz, ganz\noft hierherkommen, {{delay8}}{{string value=\"Catchphrase\"}}!"
  }
]