﻿[
  {
    "label": "001",
    "locale": {
      "CNzh": "致可爱的{{string value=\"4\"}}",
      "EUde": "{{gender2 m=\"Werter\" f=\"Werte\"}} {{string value=\"NickName\"}}.",
      "EUen": "My dear {{string value=\"NickName\"}},",
      "EUes": "Apreciad{{gender2 m=\"o\" f=\"a\"}} {{string value=\"NickName\"}}:",
      "EUfr": "Très {{gender2 m=\"cher\" f=\"chère\"}} {{string value=\"NickName\"}},",
      "EUit": "Car{{gender2 m=\"o\" f=\"a\"}} {{string value=\"NickName\"}}...",
      "EUnl": "Mijn beste {{string value=\"PlayerName\"}},",
      "EUru": "Дорог{{gender2 m=\"ой\" f=\"ая\"}} {{string value=\"NickName\"}}!",
      "JPja": "いとしの　{{string value=\"4\"}}へ",
      "KRko": "친애하는 {{string value=\"4\"}}{{gender2 m=\"군\" f=\"양\"}}에게",
      "TWzh": "給親愛的{{string value=\"4\"}}",
      "USen": "My dear {{string value=\"NickName\"}},",
      "USes": "Apreciad{{gender2 m=\"o\" f=\"a\"}} {{string value=\"NickName\"}}:",
      "USfr": "Très {{gender2 m=\"cher\" f=\"chère\"}} {{string value=\"NickName\"}},"
    }
  },
  {
    "label": "002",
    "locale": {
      "CNzh": "我的好友{{string value=\"4\"}}！",
      "EUde": "An den gern gesehenen Besuch.",
      "EUen": "Hola, {{string value=\"NickName\"}},",
      "EUes": "Amig{{gender2 m=\"o\" f=\"a\"}} {{string value=\"NickName\"}}:",
      "EUfr": "{{capitalizeNextLetter}}{{string value=\"NickName\"}}, mon {{gender2 m=\"ami\" f=\"amie\"}},",
      "EUit": "Tostissim{{gender2 m=\"o\" f=\"a\"}} {{string value=\"NickName\"}}...",
      "EUnl": "Mijn grote {{gender2 m=\"vriend\" f=\"vriendin\"}} {{string value=\"NickName\"}},",
      "EUru": "Йоу, {{string value=\"NickName\"}}!",
      "JPja": "マイフレンド　{{string value=\"4\"}}！",
      "KRko": "마이 프렌드 {{string value=\"4\"}}{{gender2 m=\"군\" f=\"양\"}}!",
      "TWzh": "給My friend {{string value=\"4\"}}！",
      "USen": "Hola, {{string value=\"NickName\"}},",
      "USes": "Amig{{gender2 m=\"o\" f=\"a\"}} {{string value=\"NickName\"}}:",
      "USfr": "Mi {{gender2 m=\"amigo\" f=\"amiga\"}} {{string value=\"NickName\"}},"
    }
  },
  {
    "label": "003",
    "locale": {
      "CNzh": "笑容耀眼的{{string value=\"4\"}}",
      "EUde": "Für dich, {{string value=\"NickName\"}}.",
      "EUen": "To the one and only {{string value=\"NickName\"}},",
      "EUes": "Deslumbrante {{string value=\"NickName\"}}:",
      "EUfr": "À l'unique {{string value=\"NickName\"}},",
      "EUit": "All'unic{{gender2 m=\"o e solo\" f=\"a e sola\"}} {{string value=\"NickName\"}}...",
      "EUnl": "Aan de enige echte {{string value=\"PlayerName\"}},",
      "EUru": "Мо{{gender2 m=\"й\" f=\"я\"}} неповторим{{gender2 m=\"ый\" f=\"ая\"}} {{string value=\"NickName\"}}!",
      "JPja": "えがおがまぶしい　{{string value=\"4\"}}",
      "KRko": "웃는 얼굴이 눈부신 {{string value=\"4\"}}{{gender2 m=\"군\" f=\"양\"}}",
      "TWzh": "給笑容燦爛的{{string value=\"4\"}}",
      "USen": "To the one and only {{string value=\"NickName\"}},",
      "USes": "Deslumbrante {{string value=\"NickName\"}}:",
      "USfr": "À l'unique {{string value=\"NickName\"}},"
    }
  },
  {
    "label": "004",
    "locale": {
      "CNzh": "嗨！{{string value=\"4\"}}",
      "EUde": "Hallöchen, {{string value=\"NickName\"}}!",
      "EUen": "Hey, {{string value=\"NickName\"}}.",
      "EUes": "Es{{gender2 m=\"e\" f=\"a\"}} {{string value=\"NickName\"}}:",
      "EUfr": "Salut {{string value=\"NickName\"}} !",
      "EUit": "Hola, {{string value=\"NickName\"}}...",
      "EUnl": "Yo yo, {{string value=\"NickName\"}},",
      "EUru": "Салют, {{string value=\"NickName\"}}!",
      "JPja": "やぁ、{{string value=\"4\"}}",
      "KRko": "안녕, {{string value=\"4\"}}{{gender2 m=\"군\" f=\"양\"}}",
      "TWzh": "嗨，{{string value=\"4\"}}",
      "USen": "Hey, {{string value=\"NickName\"}}.",
      "USes": "{{gender2 m=\"Buen\" f=\"Buena\"}} {{string value=\"NickName\"}}:",
      "USfr": "Yo {{string value=\"NickName\"}}!"
    }
  },
  {
    "label": "101",
    "locale": {
      "CNzh": "谢谢你之前到我家来玩。\n为了你的下次来访，\n我平时就有在打扫房间哦。\n随信送上我当时\n没能交给你的礼物，\n你会愿意收下吗？",
      "EUde": "Dein Besuch war höchst unter-\nhaltsam! Wir hatten so viel\nSpaß, dass ich noch immer\naufräume. Oh, und hier ist\ndein Geschenk. Es wird nur\ndas erste von vielen sein!",
      "EUen": "It was so great to have you visit\nearlier. We had so much fun that\nI'm going to have to hire someone\nto clean up after us! Oh, and\nhere's the gift I owe you. There's\nmore where that came from!",
      "EUes": "Tu visita me produjo tal subidón\nque aún no he podido recuperarme\ny ordenar la casa. Ah, por cierto,\nte envío el regalo que no pude\ndarte en su momento. ¡Es tuyo\ny no pensaba quedármelo!",
      "EUfr": "C'était un bonheur de t'accueillir\ndans mon humble palace ! On s'est\nfendu la poire, les domestiques ont\npas fini de jouer de l'aspiro ! Ah,\net voilà le cadeau que je t'avais\npromis ! Profite, c'est gratuit !",
      "EUit": "È stato da paura averti qui come\nospite. Ci siamo divertiti talmente\ntanto che per riordinare ci è voluta\nun'intera impresa di pulizie! In ogni\ncaso, ecco qua il regalo che avevi\ndovuto lasciare da me! È todo tuo!",
      "EUnl": "Geweldig dat je langskwam eerder.\nHet was zo leuk dat ik iemand moet\ninhuren om alles schoon te maken!\nEn hier is het cadeau dat ik je\nschuldig ben. Dit moeten we\nvaker doen!",
      "EUru": "Я очень рад, что ты заш{{gender2 m=\"ел\" f=\"ла\"}} ко мне\nна днях. Было весело, пришлось\nдаже нанять уборщицу: убрать\nбардак, который мы устроили! Как\nи обещал, отправляю с письмом\nподарок. Подарков у меня полно!",
      "JPja": "このまえは、ボクのいえに\nあそびにきてくれて　ありがとう。\nまたキミが　きてくれるように、\nひごろから　へやをかたづけておくよ。\nあのとき　わたせなかった　おみやげを\nおくるから、うけとって　くれるかい？",
      "KRko": "전에 내 집에\n놀러와줘서 고마웠어.\n그대가 언제 또 와줄지 모르니\n방은 항상 깨끗이 정리해 놓을게.\n참, 그때 미처 주지 못했던 선물을\n보낼 테니 받아주겠어?",
      "TWzh": "謝謝你上次\n特地來我家裡玩。\n為了讓你之後可以隨時來玩，\n我平時都會先把房間打掃乾淨喔。\n我把當時沒能交給你的伴手禮送過去了，\n你願意收下嗎？",
      "USen": "It was so great to have you visit\nearlier. We had so much fun that\nI'm going to have to hire someone\nto clean up after us! Oh, and\nhere's the gift I owe you. There's\nmore where that came from!",
      "USes": "Tu visita fue muy inspiradora,\nno sabes la cantidad de ideas\nque tengo ahora para mi blog.\nAh, por cierto, te envío el regalo\nque no pude darte. Juro que no\nme pasó por la cabeza quedármelo.",
      "USfr": "C'était un bonheur de t'accueillir\ndans mon humble palace! On s'est\nbien amusé, va falloir que j'engage\nquelqu'un pour faire le ménage!\nAh, et voilà le cadeau que j'avais\npromis! Profite, c'est gratuit!"
    }
  },
  {
    "label": "102",
    "locale": {
      "CNzh": "写这封信，是为了送上\n来我家玩时忘记给你的礼物。\n那天，我隐隐约约有所察觉，\n你和我或许是非常相似的人吧。\n能有你这样的朋友，\n我真是世上最幸福的人啊！",
      "EUde": "Hier dein Geschenk, das du\nin meinem bescheidenen\nHeim gelassen hattest. Weißt\ndu, was? Wir haben den glei-\nchen Stil! Sollten wir Klei-\ndungsstücke austauschen?",
      "EUen": "Yo, here's the gift that you couldn't\ncarry home from the Casa de\n{{string value=\"VillagerName\"}}! You know what I\nnoticed, by the way? We have the\nsame taste in fashion! So cool—\nwe could totally share clothes!",
      "EUes": "Aquí tienes el regalo que no te\npudiste llevar cuando estuviste\nde visita en mi ciberhogar. Por\ncierto, me fijé en que tenemos\ngustos muy parecidos en lo que\na tendencias culturales se refiere.",
      "EUfr": "Chose promise, cadeau dû ! Voici\npour te remercier d'avoir honoré\nmon palais de ta visite. Sinon, j'ai\nremarqué qu'on avait les mêmes\ngoûts vestimentaires. Autrement\ndit, t'as la classe !",
      "EUit": "Eccoti il regalo che non hai\npotuto portare via dal castillo di\n{{string value=\"VillagerName\"}}! Ma lo sai che\nabbiamo gli stessi gusti in fatto\ndi moda? Potremmo... che dico,\nDOVREMMO scambiarci i vestiti!",
      "EUnl": "Hier is dat cadeau dat je niet meer\nkon meenemen uit de enige echte\ncasa de {{string value=\"VillagerName\"}}! Weet je\nwat me trouwens opviel? We\nhebben dezelfde kledingsmaak!\nZoveel stijl zie je niet vaak!",
      "EUru": "Отправляю тебе подарок,\nкоторый ты не смог{{gender2 m=\"\" f=\"ла\"}} унести\nс собой! Кстати, знаешь, что я\nзаметил? У нас одинаковый стиль\nодежды! Это так классно — можем\nс тобой меняться нарядами!",
      "JPja": "キミが　いえにきてくれたときに、\nわたしそびれた　おみやげをおくるよ。\nあのひ、なんとなく　きがついたんだ。\nキミとボクは　にてるんじゃないかってね。\nキミみたいな　トモダチができて、\nボクはさいこうに　シアワセだよ。",
      "KRko": "그대가 집에 왔을 때 미처\n건네지 못했던 선물을 지금 보내.\n그날, 난 문득 깨달았지.\n그대와 나는 닮은 꼴 같다는 걸.\n그대 같은 친구가 생겨서\n난 최고로 행복하군.",
      "TWzh": "我要把你來造訪的時候，\n沒能交給你的伴手禮送給你。\n那天，我無意中發現了一件事。\n你跟我感覺其實很相似呢。\n能夠交到像你這樣的朋友，\n我實在是太幸福了。",
      "USen": "Yo, here's the gift that you couldn't\ncarry home from the Casa de\n{{string value=\"VillagerName\"}}! You know what I\nnoticed, by the way? We have the\nsame taste in fashion! So cool—\nwe could totally share clothes!",
      "USes": "Aquí tienes el regalo que no te\npudiste llevar cuando estuviste\nde visita en mi ciberhogar. Por\ncierto, me fijé en que tenemos\ngustos muy parecidos en lo que\na tendencias culturales se refiere.",
      "USfr": "Chose promise, cadeau dû! Voici\npour te remercier d'avoir honoré\nmon palais de ta visite. Sinon, j'ai\nremarqué qu'on avait les mêmes\ngoûts vestimentaires. Autrement\ndit, t'as la classe!"
    }
  },
  {
    "label": "103",
    "locale": {
      "CNzh": "前阵子真是非常感谢。\n虽然有点晚了，请容我送上礼物。\n我选了你应该会喜欢的东西。\n只要你想，就随时过来玩吧。\n我还有好多好多话，\n想要跟你说呢。",
      "EUde": "Danke für deinen Besuch!\nIch habe ein Geschenk\nangefügt, das ich dir hatte\ngeben wollen – entschuldige\ndie Verspätung. Gefällt es\ndir? Komm doch bald wieder!",
      "EUen": "Hey, thanks for swinging by the\nother day. I've attached the gift\nI tried to give you at the time.\nSorry it's a little late, but I think\nyou'll really like it. Hope to see\nyou again soon!",
      "EUes": "Gracias por pasarte a verme el\notro día. Te envío con algo de\nretraso el regalo que quería darte.\nEspero que te guste y que nos\nvolvamos a ver pronto.",
      "EUfr": "Merci de m'avoir rendu visite\nl'autre jour ! Voici le cadeau que\nt'avais pas pu emporter, parce\nque mieux vaut tard que jamais.\nJ'espère que ça te fait plaisir !",
      "EUit": "Gracias della tua visita dell'altro\ngiorno. Eccoti il regalo che non\navevi potuto portare via... Magari\nun po' in ritardo, ma meglio tardi\nche mai, non credi?",
      "EUnl": "Hé, top dat je langskwam laatst.\nIk heb het cadeau bijgesloten dat\nik je eerder probeerde te geven.\nSorry dat het zo laat is, maar\nik denk dat het je gaat bevallen.\nIk hoop je snel weer te zien!",
      "EUru": "Спасибо, что заскочил{{gender2 m=\"\" f=\"а\"}} ко мне\nна днях. Отправляю подарок,\nкоторый собирался отдать тебе.\nИзвини, если затянул с этим.\nНадеюсь, ты все равно будешь\nрад{{gender2 m=\"\" f=\"а\"}} подарку. Заходи еще!",
      "JPja": "このあいだは　どうもありがとう。\nおそくなったけど、おみやげをおくるよ。\nキミがすきそうなものを　えらんだんだ。\nまたいつでも　あそびにおいで。\nボクはキミと　かたりあいたいことが\nまだまだ　たくさんあるからね。",
      "KRko": "전엔 고마웠다구.\n늦었지만 선물을 보낼게.\n그대가 좋아할 법한 걸로 골라봤지.\n또 언제든 놀러오도록 해.\n내겐 그대와 나누고 싶은 이야기가\n아직 많으니까 말이야.",
      "TWzh": "上次真的很謝謝你。\n雖然有點遲了，但我要送你一份伴手禮，\n還特地挑了你可能會喜歡的東西喔。\n歡迎你隨時再來找我玩。\n我還有很多事情\n想要找你一起聊聊呢。",
      "USen": "Hey, thanks for swinging by the\nother day. I've attached the gift\nI tried to give you at the time.\nSorry it's a little late, but I think\nyou'll really like it. Hope to see\nyou again soon!",
      "USes": "Gracias por venir a verme el\notro día. Te envío con algo de\nretraso el regalo que quería darte.\nEspero que te guste su concepto.",
      "USfr": "Merci de m'avoir rendu visite\nl'autre jour! Voici le cadeau que\nt'avais pas pu emporter, parce\nque mieux vaut tard que jamais.\nJ'espère que ça te fait plaisir!"
    }
  },
  {
    "label": "104",
    "locale": {
      "CNzh": "之前说好的东西，我帮你寄过去了。\n就是之前你来我家的时候，\n说好要给你的东西。\n希望有了它，\n可以让你的生活　\n更加的充实。",
      "EUde": "Hier ist dein Neuerwerb, für den du\nneulich keinen Platz hattest. Frisch\naus dem Hause {{string value=\"VillagerName\"}}!\nTut mir leid, dass du darauf warten\nmusstest, aber bestimmt hat das\nnur deine Vorfreude gesteigert!",
      "EUen": "Here's the souvenir you picked\nout from Chez {{string value=\"VillagerName\"}}!\nI'm sorry you had to wait for it, but\nhopefully the anticipation made\nyou appreciate it all the more.\nThanks again for the visit!",
      "EUes": "Aquí tienes este recuerdo que\nprometí enviarte el otro día en mi\ncasa. Siento que hayas tenido que\nesperar, pero seguro que así te\nhabré creado más expectación.\n¡Gracias de nuevo por visitarme!",
      "EUfr": "Voici le souvenir que tu as choisi\nlors de ta visite dans ma villa. Je\nsuis désolé de t'avoir fait attendre,\nmais ça te permettra sans doute\nde mieux l'apprécier. Et merci bien\nde ta visite !",
      "EUit": "Eccoti il ricordino che hai scelto\nda {{string value=\"VillagerName\"}}! Lo siento\nse hai dovuto aspettare tanto,\nma spero che l'attesa sia valsa\nla pena. Mi auguro che la tua vida\nda ora in poi sia più ricca e piena.",
      "EUnl": "Hier is het souvenir dat je bij Chez\n{{string value=\"VillagerName\"}} hebt uitgekozen!\nHet spijt me dat het zolang heeft\ngeduurd. Hopelijk voelt het nu nog\nspecialer door het lange wachten.\nBedankt voor je bezoek!",
      "EUru": "Высылаю подарок из скромной\nрезиденции {{fun_00170032 arg=\"0x03CD\"}}{{string value=\"VillagerName\"}}!\nПрости, что тебе пришлось\nподождать. Надеюсь, что твои\nожидания оправдаются и он тебе\nбудет очень дорог! Мерси боку!",
      "JPja": "キミと　やくそくしたモノを　おくるね。\nほら、ボクのマイホームに　きてくれたとき\nわたすはずだったモノさ。\nこれで　キミのせいかつが\nよりいっそう　ゆたかになることを　\nボクは　ねがっているよ。",
      "KRko": "그대에게 약속한 물건을 보낼게.\n나의 스위트 홈에 놀러왔을 때\n주기로 했던 물건이야.\n이걸로 그대의 생활이 한층 더\n편안해지기를 바랄게.",
      "TWzh": "我把跟你約定好的東西寄過去囉。\n就是你上次來My home的時候，\n我本來要交給你的東西啊。\n希望我送你的這個禮物，\n能為你的生活　\n增添更多美好。",
      "USen": "Here's the souvenir you picked\nout from Chez {{string value=\"VillagerName\"}}!\nI'm sorry you had to wait for it, but\nhopefully the anticipation made\nyou appreciate it all the more.\nThanks again for the visit!",
      "USes": "Aquí tienes el recuerdo que\nprometí enviarte. Qué mal que\ntuviste que esperar, pero seguro\nque te dio emoción la espera.\n¡Gracias de nuevo por visitarme!",
      "USfr": "Voici le souvenir que tu as choisi\nlors de ta visite dans ma villa. Je\nsuis désolé de t'avoir fait attendre,\nmais ça te permettra sans doute\nde mieux l'apprécier. Et merci bien\nde ta visite!"
    }
  },
  {
    "label": "201",
    "locale": {
      "CNzh": "满怀爱意的{{string value=\"VillagerName\"}}",
      "EUde": "Dein {{string value=\"VillagerName\"}}",
      "EUen": "From {{string value=\"VillagerName\"}}, with love",
      "EUes": "Saludetes de {{string value=\"VillagerName\"}}",
      "EUfr": "Affectueusement, {{string value=\"VillagerName\"}}",
      "EUit": "Con affetto, {{string value=\"VillagerName\"}}",
      "EUnl": "Van {{string value=\"VillagerName\"}} met liefde",
      "EUru": "От {{fun_00170032 arg=\"0x03CD\"}}{{string value=\"VillagerName\"}} с любовью",
      "JPja": "{{string value=\"VillagerName\"}}より　ココロをこめて",
      "KRko": "사랑을 담아, {{string value=\"VillagerName\"}}",
      "TWzh": "誠摯的{{string value=\"VillagerName\"}}　筆",
      "USen": "From {{string value=\"VillagerName\"}}, with love",
      "USes": "Muy inspirado {{string value=\"VillagerName\"}}",
      "USfr": "Affectueusement, {{string value=\"VillagerName\"}}"
    }
  },
  {
    "label": "202",
    "locale": {
      "CNzh": "下次再一起玩。{{string value=\"VillagerName\"}}",
      "EUde": "Bis bald, {{string value=\"VillagerName\"}}",
      "EUen": "Toodles, {{string value=\"VillagerName\"}}",
      "EUes": "El incombustible {{string value=\"VillagerName\"}}",
      "EUfr": "À plus, {{string value=\"VillagerName\"}}",
      "EUit": "Salutoni, {{string value=\"VillagerName\"}}",
      "EUnl": "Ciao, {{string value=\"VillagerName\"}}",
      "EUru": "Покеда, {{string value=\"VillagerName\"}}",
      "JPja": "またあそぼう、{{string value=\"VillagerName\"}}",
      "KRko": "또 함께 놀자구, {{string value=\"VillagerName\"}}",
      "TWzh": "下次再一起玩吧，{{string value=\"VillagerName\"}}　筆",
      "USen": "Toodles, {{string value=\"VillagerName\"}}",
      "USes": "Tu ciberamigo {{string value=\"VillagerName\"}}",
      "USfr": "À plus, {{string value=\"VillagerName\"}}"
    }
  },
  {
    "label": "203",
    "locale": {
      "CNzh": "回头见。{{string value=\"VillagerName\"}}",
      "EUde": "Es grüßt {{string value=\"VillagerName\"}}",
      "EUen": "Laters. –{{string value=\"VillagerName\"}}",
      "EUes": "Hasta otra, {{string value=\"VillagerName\"}}",
      "EUfr": "À la prochaine, {{string value=\"VillagerName\"}}",
      "EUit": "Hasta luego, {{string value=\"VillagerName\"}}",
      "EUnl": "Later, {{string value=\"VillagerName\"}}",
      "EUru": "До скорого, {{string value=\"VillagerName\"}}",
      "JPja": "それじゃ、{{string value=\"VillagerName\"}}",
      "KRko": "그럼 이만, {{string value=\"VillagerName\"}}",
      "TWzh": "再會，{{string value=\"VillagerName\"}}　筆",
      "USen": "Laters. –{{string value=\"VillagerName\"}}",
      "USes": "El conceptual {{string value=\"VillagerName\"}}",
      "USfr": "À la prochaine, {{string value=\"VillagerName\"}}"
    }
  },
  {
    "label": "204",
    "locale": {
      "CNzh": "欢迎再来。{{string value=\"VillagerName\"}}",
      "EUde": "Man sieht sich, {{string value=\"VillagerName\"}}",
      "EUen": "Come back soon! –{{string value=\"VillagerName\"}}",
      "EUes": "Hasta la próxima, {{string value=\"VillagerName\"}}",
      "EUfr": "Tu repasseras, OK ? {{string value=\"VillagerName\"}}",
      "EUit": "Estés bien, {{string value=\"VillagerName\"}}",
      "EUnl": "Kom nog eens langs, {{string value=\"VillagerName\"}}",
      "EUru": "До нового рандеву, {{string value=\"VillagerName\"}}",
      "JPja": "またおいで　{{string value=\"VillagerName\"}}",
      "KRko": "또 놀러와, {{string value=\"VillagerName\"}}",
      "TWzh": "下次再來玩吧。{{string value=\"VillagerName\"}}",
      "USen": "Come back soon! –{{string value=\"VillagerName\"}}",
      "USes": "Hasta la próxima, {{string value=\"VillagerName\"}}",
      "USfr": "Tu repasseras, OK? {{string value=\"VillagerName\"}}"
    }
  }
]