﻿[
  {
    "label": "003",
    "attribute": "0x0000000700000000",
    "text": "{{fun_0007003C arg=\"0x1010001100CD\"}}"
  },
  {
    "label": "016",
    "attribute": "0x0000000000000000",
    "text": "{{anim id=\"QuestionMark\" target=\"actor\" targetSpec=\"\"}}내가 우산을 쓰지 않는 이유?{{pageBreak}}{{anim id=\"Serious\" target=\"actor\" targetSpec=\"\"}}비 오는 날은 어딘가에{{delay20}}\n슬픔에 잠긴 사람이 있다는 뜻이지{{delay40}}\n{{anim id=\"Grin\" target=\"actor\" targetSpec=\"\"}}그 마음을 이해하고 싶어서야, {{string value=\"6\"}}!"
  },
  {
    "label": "017",
    "attribute": "0x0000000000000000",
    "text": "{{fun_0014003C arg=\"\"}}"
  },
  {
    "label": "017_01",
    "attribute": "0x0000000000000000",
    "text": "{{anim id=\"FaintSmile\" target=\"actor\" targetSpec=\"\"}}비 오는 날이라고{{delay20}}\n꼭 안 좋기만 한 건 아니야{{pageBreak}}{{anim id=\"Serious\" target=\"actor\" targetSpec=\"\"}}예를 들어 {{delay8}}이 빗소리는{{string value=\"...\"}}{{delay40}}\n{{anim id=\"Nodding\" target=\"actor\" targetSpec=\"\"}}마음을 편안하게 만들어주고{{delay20}}\n진정시켜준다구, {{string value=\"6\"}}～"
  },
  {
    "label": "017_02",
    "attribute": "0x0000000000000000",
    "text": "{{anim id=\"Hello\" target=\"actor\" targetSpec=\"\"}}비 오는 날은 우울한가?{{delay frames=\"40\"}}\n{{anim id=\"Nodding\" target=\"actor\" targetSpec=\"\"}}하지만 비가 와서 좋은 점도{{delay20}}\n있지, {{delay8}}{{string value=\"4\"}}{{gender2 m=\"군\" f=\"양\"}}!{{pageBreak}}{{anim id=\"Serious\" target=\"actor\" targetSpec=\"\"}}예를 들면 힘든 일이 있을 때{{delay20}}\n빗줄기가 눈물 자국을 씻어주잖아?{{delay frames=\"40\"}}\n{{anim id=\"Grin\" target=\"actor\" targetSpec=\"\"}}슬픔과 함께 말이야, {{string value=\"6\"}}{{string value=\"...\"}}"
  },
  {
    "label": "017_03",
    "attribute": "0x0000000000000000",
    "text": "{{anim id=\"FaintSmile\" target=\"actor\" targetSpec=\"\"}}비가 내리면 나무들이{{delay20}}\n쏴아아～ 하고 소리를 내면서{{delay20}}\n이야기를 나누는 것 같아{{pageBreak}}{{anim id=\"ShyBoy\" target=\"actor\" targetSpec=\"\"}}나무들의 언어는 잘 모르지만{{delay20}}\n아마 이 {{string value=\"VillagerName\"}}님 이야기를{{delay20}}\n하는 게 아닐까? {{string value=\"6\"}}?"
  },
  {
    "label": "018",
    "attribute": "0x0000000900000000",
    "text": "{{fun_0014003C arg=\"\"}}"
  },
  {
    "label": "018_01",
    "attribute": "0x0000000000000000",
    "text": "{{anim id=\"Serious\" target=\"actor\" targetSpec=\"\"}}순수한 마음은 흰 눈을 닮았어{{delay40}}\n{{anim id=\"Grin\" target=\"actor\" targetSpec=\"\"}}둘 다 티끌 한 점 없이\n깨끗하잖아? {{string value=\"6\"}}?"
  },
  {
    "label": "018_02",
    "attribute": "0x0000000000000000",
    "text": "{{fun_001F003C arg=\"0x6E006F00\"}}"
  },
  {
    "label": "018_03",
    "attribute": "0x0000000000000000",
    "text": "{{anim id=\"FaintSmile\" target=\"actor\" targetSpec=\"\"}}평소의 풍경을 덮으려는 듯{{delay20}}\n눈이 펑펑 내리는군{{string value=\"...\"}}{{pageBreak}}{{anim id=\"Serious\" target=\"actor\" targetSpec=\"\"}}{{string value=\"33\"}}{{gender5 m=\"이\" f=\"\"}}라는 캔버스에{{delay20}}\n{{string value=\"VillagerName\"}}{{gender5 m=\"이\" f=\"\"}}라는 색은{{delay frames=\"40\"}}\n{{anim id=\"Grin\" target=\"actor\" targetSpec=\"\"}}어떻게 보일까, {{string value=\"6\"}}?"
  },
  {
    "label": "019",
    "attribute": "0x0000000A00000000",
    "text": "{{anim id=\"Explain\" target=\"actor\" targetSpec=\"\"}}눈은 땅에 떨어지면 더러워지지만{{delay20}}\n하늘에선 엄청나게 깨끗해!{{pageBreak}}{{anim id=\"Serious\" target=\"actor\" targetSpec=\"\"}}마치 그대의 마음처럼{{string value=\"...\"}}{{delay20}}\n{{anim id=\"Surprised\" target=\"actor\" targetSpec=\"\"}}그래도 너무 많이 오네! {{string value=\"6\"}}!"
  },
  {
    "label": "020",
    "attribute": "0x00000005000A0000",
    "text": "{{anim id=\"HappyFlower\" target=\"actor\" targetSpec=\"\"}}이렇게 날씨가 좋은 날엔{{delay8}}\n외출하고 싶어져～!{{pageBreak}}{{anim id=\"WrySmile\" target=\"actor\" targetSpec=\"\"}}아침에 TV에서 본 오늘의 운세가{{delay frames=\"40\"}}\n최악이더라도 말이야, {{string value=\"6\"}}{{string value=\"...\"}}"
  },
  {
    "label": "021",
    "attribute": "0x0000000B00000000",
    "text": "{{anim id=\"FaintSmile\" target=\"actor\" targetSpec=\"\"}}이렇게 꽃잎이 휘날리는 날엔{{delay20}}\n{{anim id=\"EmotEnd\" target=\"actor\" targetSpec=\"\"}}댄스를 할 맛이 난다구～! {{string value=\"6\"}}!"
  },
  {
    "label": "022",
    "attribute": "0x0000000600000000",
    "text": "{{fun_0014003C arg=\"\"}}"
  },
  {
    "label": "022_01",
    "attribute": "0x0000000000000000",
    "text": "{{anim id=\"WrySmile\" target=\"actor\" targetSpec=\"\"}}오늘은{{delay20}} 종잡을 수 없는 날씨인걸{{delay frames=\"40\"}}\n{{anim id=\"Worried\" target=\"actor\" targetSpec=\"\"}}그때 그 애 마음도 그랬지, {{string value=\"6\"}}{{string value=\"...\"}}"
  },
  {
    "label": "022_02",
    "attribute": "0x0000000000000000",
    "text": "{{anim id=\"Worried\" target=\"actor\" targetSpec=\"\"}}금방이라도 울음을 터트릴 것 같은 하늘이군{{i10_4}}\n{{anim id=\"AbsentMindedness\" target=\"actor\" targetSpec=\"\"}}이 세상 어딘가에서{{delay20}}\n누군가가 슬픔에 잠겨 있는 걸까?{{pageBreak}}{{anim id=\"Hesitate\" target=\"actor\" targetSpec=\"\"}}언제나 내가 곁에 있을게{{delay frames=\"40\"}}\n자, {{delay20}}마음껏 울어도 된다구!{{delay frames=\"40\"}}\n{{anim id=\"Shocked\" target=\"actor\" targetSpec=\"\"}}아{{string value=\"...\"}} 미안, {{delay20}}내가 너무 앞서갔네!"
  },
  {
    "label": "022_03",
    "attribute": "0x0000000000000000",
    "text": "{{anim id=\"FaintSmile\" target=\"actor\" targetSpec=\"\"}}후후후, {{delay20}}걱정 말라구{{i10_4}}\n{{anim id=\"Serious\" target=\"actor\" targetSpec=\"\"}}하늘은 언젠가는 맑게 갤 거야!{{delay20}}\n슬픔도 먹구름도{{delay frames=\"40\"}} {{anim id=\"Grin\" target=\"actor\" targetSpec=\"\"}}영원하진 않아, {{string value=\"6\"}}{{string value=\"...\"}}"
  },
  {
    "label": "023",
    "attribute": "0x1800000100090000",
    "text": "{{anim id=\"Hello\" target=\"actor\" targetSpec=\"\"}}이런 밤길을 홀로 산책하고 있었나?{{delay20}}\n{{string value=\"4\"}}{{gender2 m=\"군\" f=\"양\"}}?"
  },
  {
    "label": "024",
    "attribute": "0x0000000000000000",
    "text": "{{fun_0014003C arg=\"\"}}"
  },
  {
    "label": "024_01",
    "attribute": "0x0000000000000000",
    "text": "{{anim id=\"ShyBoy\" target=\"actor\" targetSpec=\"\"}}나도야, {{delay20}}밤바람에 이끌려{{delay20}}\n밖에 나와봤지{{string value=\"...\"}}{{pageBreak}}{{anim id=\"FaintSmile\" target=\"actor\" targetSpec=\"\"}}{{string value=\"33\"}}의 자연이\n넌지시 알려준 걸지도 모르겠어{{delay frames=\"40\"}}\n{{anim id=\"Grin\" target=\"actor\" targetSpec=\"\"}}그대를 만날 수 있도록, {{string value=\"6\"}}!"
  },
  {
    "label": "024_02",
    "attribute": "0x0000000000000000",
    "text": "{{anim id=\"ShyBoy\" target=\"actor\" targetSpec=\"\"}}나도 그래!{{delay20}} 아직 잠들기엔\n이른 것 같아서 말이야, {{string value=\"6\"}}{{string value=\"...\"}}{{pageBreak}}{{anim id=\"Serious\" target=\"actor\" targetSpec=\"\"}}{{randomMusic}}의 멜로디를 흥얼거리면서{{delay20}}\n걷다 보면 평소에 보이지 않던 풍경이{{delay8}}\n눈에 들어오는 듯한{{string value=\"...\"}}{{delay frames=\"40\"}}{{anim id=\"Grin\" target=\"actor\" targetSpec=\"\"}} 그런 느낌이 들어!"
  },
  {
    "label": "024_03",
    "attribute": "0x0000000000000000",
    "text": "{{anim id=\"AbsentMindedness\" target=\"actor\" targetSpec=\"\"}}홀로 생각에 잠기고 싶을 땐{{delay20}}\n지금 시간대가 조용해서{{delay8}}\n딱 좋은 것 같아～ {{string value=\"6\"}}!"
  },
  {
    "label": "025",
    "attribute": "0x1A00000100000000",
    "text": "{{anim id=\"FaintSmile\" target=\"actor\" targetSpec=\"\"}}힘든 일이 있다면{{delay20}} 언제든 내게 말해{{delay20}}\n난 항상 준비돼 있다구,{{delay8}}\n{{string value=\"4\"}}{{gender2 m=\"군\" f=\"양\"}}!{{pageBreak}}{{anim id=\"Thinking\" target=\"actor\" targetSpec=\"\"}}예를 들어{{string value=\"...\"}}\n세상에 너무 매력적인 사람이 많아서{{delay20}}\n힘들다거나{{string value=\"...\"}} 그런 고민 말이야!"
  },
  {
    "label": "026",
    "attribute": "0x0000000000000000",
    "text": "{{fun_000C003C arg=\"0x1B001C00\"}}"
  },
  {
    "label": "027",
    "attribute": "0x0000000000000000",
    "text": "{{anim id=\"ShyBoy\" target=\"actor\" targetSpec=\"\"}}그래서 사랑을 시작할 것 같은\n예감이 들어, {{string value=\"6\"}}!{{delay frames=\"40\"}}\n언제 시작할진 모르겠지만, {{delay frames=\"40\"}}{{anim id=\"BigSmile\" target=\"actor\" targetSpec=\"\"}}하핫～!"
  },
  {
    "label": "028",
    "attribute": "0x0000000000000000",
    "text": "{{anim id=\"Shocked\" target=\"actor\" targetSpec=\"\"}}그건 내 고민 아니냐고?{{delay frames=\"40\"}}\n{{anim id=\"WrySmile\" target=\"actor\" targetSpec=\"\"}}후후후, {{delay20}}들켰군{{string value=\"...\"}}{{delay frames=\"40\"}} {{anim id=\"Grin\" target=\"actor\" targetSpec=\"\"}}그래, 지금 바로{{delay8}}\n내 눈앞에 있는 그대 얘기야! {{string value=\"6\"}}!"
  },
  {
    "label": "029",
    "attribute": "0x1E00000500000000",
    "text": "{{anim id=\"Dance\" target=\"actor\" targetSpec=\"\"}}오늘은 맑은 날씨네!{{i10_4}}\n{{anim id=\"Hello\" target=\"actor\" targetSpec=\"\"}}빨래하기 참 좋은 날이야～"
  },
  {
    "label": "030",
    "attribute": "0x0000000000000000",
    "text": "{{fun_0014003C arg=\"\"}}"
  },
  {
    "label": "030_01",
    "attribute": "0x0000000000000000",
    "text": "{{anim id=\"Hesitate\" target=\"actor\" targetSpec=\"\"}}다음 데이트까지 내가 아끼는 옷을{{delay20}}\n클리닝해 놓을 생각이야{{delay frames=\"40\"}}\n{{anim id=\"BigSmile\" target=\"actor\" targetSpec=\"\"}}아직 데이트 약속은 없지만! {{string value=\"6\"}}!"
  },
  {
    "label": "030_02",
    "attribute": "0x0000000000000000",
    "text": "그러고 보니 {{string value=\"4\"}}{{gender2 m=\"군\" f=\"양\"}}!{{delay frames=\"40\"}}\n{{anim id=\"Hello\" target=\"actor\" targetSpec=\"\"}}그대는 빨래할 때 특별히\n신경 쓰는 점이 있나?{{pageBreak}}{{anim id=\"Nodding\" target=\"actor\" targetSpec=\"\"}}난 항상 {{randomMusic}}{{gender5 m=\"을\" f=\"를\"}}{{delay20}}\n빨랫감에게 들려주고 있어{{delay frames=\"40\"}}\n{{anim id=\"WrySmile\" target=\"actor\" targetSpec=\"\"}}특별한 의미는 없지만! {{string value=\"6\"}}!"
  },
  {
    "label": "030_03",
    "attribute": "0x0000000000000000",
    "text": "{{anim id=\"QuestionMark\" target=\"actor\" targetSpec=\"\"}}그대는 어떤 섬유 유연제 향을 좋아하지?{{delay frames=\"40\"}}\n{{anim id=\"FaintSmile\" target=\"actor\" targetSpec=\"\"}}내가 추천하는 향은 프레시한{{delay20}}\n{{randomFlower}} 향이야! {{string value=\"6\"}}!"
  },
  {
    "label": "031",
    "attribute": "0x2000000100000000",
    "text": "{{anim id=\"QuestionMark\" target=\"actor\" targetSpec=\"\"}}{{string value=\"4\"}}{{gender2 m=\"군\" f=\"양\"}}, 그대는{{delay20}}\n어떤 날씨를 좋아하지?{{i10_4}}\n{{anim id=\"AbsentMindedness\" target=\"actor\" targetSpec=\"\"}}난 그때그때 기분에 따라 달라{{string value=\"...\"}}"
  },
  {
    "label": "032",
    "attribute": "0x0000000000000000",
    "text": "{{fun_0014003C arg=\"\"}}"
  },
  {
    "label": "032_01",
    "attribute": "0x0000000000000000",
    "text": "{{anim id=\"Nodding\" target=\"actor\" targetSpec=\"\"}}지금 기분은 아주 맑아!{{delay frames=\"40\"}}\n역시 화창한 하늘을 바라보면{{delay20}}\n기분도 상쾌해지네, {{string value=\"6\"}}!"
  },
  {
    "label": "032_02",
    "attribute": "0x0000000000000000",
    "text": "{{anim id=\"Nodding\" target=\"actor\" targetSpec=\"\"}}지금 기분은 비{{string value=\"...\"}}려나?{{delay frames=\"40\"}}\n자연의 소리가 연주하는 리듬에는{{delay20}}\n힐링 효과가 있다고 하더라{{pageBreak}}{{anim id=\"Explain\" target=\"actor\" targetSpec=\"\"}}비 오는 날에 잠이 오는 이유는{{delay20}}\n{{anim id=\"Explain\" target=\"actor\" targetSpec=\"\"}}그 신비롭고 매혹적인 멜로디가{{delay20}}\n사방을 감싸고 있기 때문이지, {{string value=\"6\"}}"
  },
  {
    "label": "032_03",
    "attribute": "0x0000000000000000",
    "text": "{{anim id=\"Nodding\" target=\"actor\" targetSpec=\"\"}}지금 기분은 눈 내리는 날씨야{{delay frames=\"40\"}}\n{{anim id=\"FaintSmile\" target=\"actor\" targetSpec=\"\"}}늘 보던 풍경이 환상적인 모습으로{{delay20}}\n변신하는 그 순간이 좋아, {{string value=\"6\"}}!"
  },
  {
    "label": "101",
    "attribute": "0x0000000000000000",
    "text": "{{anim id=\"EmotEnd\" target=\"actor\" targetSpec=\"\"}}그대, 하늘을 올려다보라구!{{i10_4}}\n{{anim id=\"FaintSmile\" target=\"actor\" targetSpec=\"\"}}맑게 갠 푸른 하늘이{{delay8}}\n펼쳐져 있어!{{pageBreak}}{{anim id=\"Nodding\" target=\"actor\" targetSpec=\"\"}}오늘은 360도 파노라마 스크린에{{delay20}}\n수많은 보석을 흩뿌린 듯한{{delay8}}\n장관이 펼쳐질 것 같군, {{string value=\"6\"}}!{{pageBreak}}{{anim id=\"AbsentMindedness\" target=\"actor\" targetSpec=\"\"}}{{delay frames=\"20\"}}그런 낭만적인 광경을{{delay8}}\n그대와 함께 볼 수 있다면{{delay20}}\n얼마나 멋질까{{string value=\"...\"}}"
  },
  {
    "label": "102",
    "attribute": "0x0000000000000000",
    "text": "{{anim id=\"FaintSmile\" target=\"actor\" targetSpec=\"\"}}날씨가 좋으니 내 기분도 좋군{{delay frames=\"40\"}}\n{{anim id=\"AbsentMindedness\" target=\"actor\" targetSpec=\"\"}}오늘 같은 날엔{{delay8}} 밤하늘에\n별이 가득하겠지, {{string value=\"6\"}}!{{pageBreak}}{{anim id=\"EmotEnd\" target=\"actor\" targetSpec=\"\"}}별똥별이 떨어지면{{string value=\"...\"}}\n{{delay20}}{{anim id=\"Hello\" target=\"actor\" targetSpec=\"\"}}{{string value=\"4\"}}{{gender2 m=\"군\" f=\"양\"}},{{delay8}} 그대는\n어떤 소원을 빌고 싶어?"
  },
  {
    "label": "103",
    "attribute": "0x0000000000000000",
    "text": "{{fun_0001003C arg=\"0xC900CA00CB00\"}}"
  },
  {
    "label": "104",
    "attribute": "0x0000000000000000",
    "text": "{{anim id=\"Serious\" target=\"actor\" targetSpec=\"\"}}하늘을 봐,{{delay20}}\n{{string value=\"4\"}}{{gender2 m=\"군\" f=\"양\"}}{{string value=\"...\"}}{{delay20}}\n{{anim id=\"Grin\" target=\"actor\" targetSpec=\"\"}}일곱 색깔로 빛나는 무지개야!{{pageBreak}}{{anim id=\"Nodding\" target=\"actor\" targetSpec=\"\"}}마치 동화 속에 나오는{{delay20}}\n마법의 다리 같은걸, {{string value=\"6\"}}～{{pageBreak}}{{anim id=\"AbsentMindedness\" target=\"actor\" targetSpec=\"\"}}{{delay frames=\"20\"}}후후후{{string value=\"...\"}} 저 다리는{{delay20}}\n어디로 이어진 걸까{{string value=\"...\"}}"
  },
  {
    "label": "105",
    "attribute": "0x0000000000000000",
    "text": "{{anim id=\"HappyFlower\" target=\"actor\" targetSpec=\"\"}}{{string value=\"4\"}}{{gender2 m=\"군\" f=\"양\"}},{{delay8}}\n{{string value=\"33\"}}의 하늘을 보라구～!{{delay20}}\n무지개가 두 개나 떴어～!{{pageBreak}}{{anim id=\"AbsentMindedness\" target=\"actor\" targetSpec=\"\"}}{{delay frames=\"20\"}}쌍무지개, 더블 레인보우네{{string value=\"...\"}}{{delay20}}\n어딘가에선 쌍무지개를 보면{{delay20}}\n행운이 찾아온다고 하던데{{string value=\"...\"}}{{pageBreak}}{{anim id=\"Serious\" target=\"actor\" targetSpec=\"\"}}나는 그대와 같이 보고 있다는 것만으로도{{delay frames=\"40\"}}\n{{anim id=\"Grin\" target=\"actor\" targetSpec=\"\"}}정말 행복해! {{string value=\"6\"}}!"
  },
  {
    "label": "106",
    "attribute": "0x0000000000000000",
    "text": "{{delay frames=\"18\"}}오늘은 깨끗하고 맑은 하늘이지만{{delay20}}\n{{anim id=\"ColdChill\" target=\"actor\" targetSpec=\"\"}}왠지 좀 추운걸{{string value=\"...\"}}{{pageBreak}}{{anim id=\"Nodding\" target=\"actor\" targetSpec=\"\"}}이런 날엔 예감이 들곤 해, {{string value=\"6\"}}!{{delay frames=\"40\"}}\n{{anim id=\"AbsentMindedness\" target=\"actor\" targetSpec=\"\"}}{{string value=\"33\"}}의 밤하늘을{{delay8}}\n오로라가 수놓을 거라는{{string value=\"...\"}} {{delay20}}{{anim id=\"Grin\" target=\"actor\" targetSpec=\"\"}}예감 말이야!"
  },
  {
    "label": "107",
    "attribute": "0x0000000000000000",
    "text": "{{anim id=\"FaintSmile\" target=\"actor\" targetSpec=\"\"}}{{string value=\"4\"}}{{gender2 m=\"군\" f=\"양\"}},{{delay20}}\n{{string value=\"33\"}}의 하늘을 봐{{string value=\"...\"}}{{pageBreak}}{{anim id=\"Explain\" target=\"actor\" targetSpec=\"\"}}밤하늘에서 춤추는 빛의 커튼{{string value=\"...\"}}{{delay20}}\n그래, 오로라야!{{delay frames=\"40\"}}\n{{anim id=\"Nodding\" target=\"actor\" targetSpec=\"\"}}정말 신비롭고 아름다워, {{string value=\"6\"}}!{{pageBreak}}{{anim id=\"Serious\" target=\"actor\" targetSpec=\"\"}}{{number value=\"27\"}}년 {{number value=\"28\"}}월 {{number value=\"29\"}}일{{string value=\"...\"}}{{delay20}}\n{{anim id=\"EmotEnd\" target=\"actor\" targetSpec=\"\"}}잊지 않겠어{{string value=\"...\"}}{{delay20}}\n{{anim id=\"Grin\" target=\"actor\" targetSpec=\"\"}}그대와 함께 밤하늘을 올려다본 오늘을!"
  },
  {
    "label": "108",
    "attribute": "0x0000000000000000",
    "text": "{{anim id=\"ShyBoy\" target=\"actor\" targetSpec=\"\"}}{{delay frames=\"12\"}}모처럼 만났는데{{delay20}}\n안개 때문인지{{delay8}}\n그대 모습이 잘 안 보여, {{string value=\"6\"}}{{pageBreak}}{{anim id=\"Serious\" target=\"actor\" targetSpec=\"\"}}가능하다면{{delay frames=\"40\"}}\n{{anim id=\"Grin\" target=\"actor\" targetSpec=\"\"}}가까이에서 그대를 느끼고 싶어{{delay frames=\"30\"}}\n{{anim id=\"BigSmile\" target=\"actor\" targetSpec=\"\"}}나도, 참! {{delay8}}하핫～!{{delay20}}{{anim id=\"FaintSmile\" target=\"actor\" targetSpec=\"\"}}"
  },
  {
    "label": "109",
    "attribute": "0x0000000000000000",
    "text": "{{anim id=\"OhGeez\" target=\"actor\" targetSpec=\"\"}}오늘은 하늘이{{delay20}}\n꽤나 소란스러운걸, {{string value=\"6\"}}!{{pageBreak}}{{anim id=\"Serious\" target=\"actor\" targetSpec=\"\"}}천둥소리가 무섭다면{{delay8}}\n사양 말고 뛰어들어도 괜찮아!{{delay20}}\n{{anim id=\"Grin\" target=\"actor\" targetSpec=\"\"}}{{string value=\"VillagerName\"}}님 품 속으로{{string value=\"...\"}}"
  },
  {
    "label": "110",
    "attribute": "0x0000000000000000",
    "text": "{{anim id=\"Nodding\" target=\"actor\" targetSpec=\"\"}}은빛으로 물든 {{string value=\"33\"}}{{gender5 m=\"은\" f=\"는\"}}{{delay20}}\n평소와 분위기가 다르군, {{string value=\"6\"}}!{{delay frames=\"40\"}}\n{{anim id=\"Love\" target=\"actor\" targetSpec=\"\"}}마치 마법에 걸린 것 같아{{string value=\"...\"}}"
  },
  {
    "label": "111",
    "attribute": "0x0000000000000000",
    "text": "{{anim id=\"Hello\" target=\"actor\" targetSpec=\"\"}}이 눈은{{string value=\"...\"}} 쌓이려나?{{i10_4}}\n{{anim id=\"Nodding\" target=\"actor\" targetSpec=\"\"}}눈이 쌓이면 어릴 때처럼{{delay20}}\n눈싸움을 해보는 것도 좋겠어, {{string value=\"6\"}}!"
  },
  {
    "label": "201",
    "attribute": "0x0000000000000000",
    "text": "{{anim id=\"Nodding\" target=\"actor\" targetSpec=\"\"}}그대도 소원을 빌고 싶다면{{delay20}}\n지금이 절호의 찬스라구! {{string value=\"6\"}}!{{pageBreak}}{{anim id=\"AbsentMindedness\" target=\"actor\" targetSpec=\"\"}}하늘에서 반짝이는 슈팅 스타{{string value=\"...\"}}{{delay20}}\n서두르지 않으면 사라져버려{{delay frames=\"30\"}}\n마치 {{delay20}}쉽게 변하는 사람의 마음처럼{{string value=\"...\"}}{{pageBreak}}{{anim id=\"WrySmile\" target=\"actor\" targetSpec=\"\"}}으앗! 말하는 사이에{{delay20}}\n사라지겠어, {{delay frames=\"30\"}}{{anim id=\"BigSmile\" target=\"actor\" targetSpec=\"\"}}하핫～!{{delay20}}{{anim id=\"FaintSmile\" target=\"actor\" targetSpec=\"\"}}"
  },
  {
    "label": "202",
    "attribute": "0x0000000000000000",
    "text": "{{anim id=\"ShyBoy\" target=\"actor\" targetSpec=\"\"}}{{delay frames=\"12\"}}오늘은 하늘이 맑아서{{delay20}}\n그대와 함께 별똥별을 보면 좋겠다고{{delay20}}\n생각했었어{{string value=\"...\"}}{{pageBreak}}{{anim id=\"Grin\" target=\"actor\" targetSpec=\"\"}}난 행복한 {{string value=\"VillagerRace\"}}{{gender5 m=\"이\" f=\"\"}}야!{{delay frames=\"40\"}}\n{{anim id=\"Hesitate\" target=\"actor\" targetSpec=\"\"}}별똥별에게 빌기도 전에{{delay20}}\n소원이 이루어졌으니까, {{string value=\"6\"}}!"
  },
  {
    "label": "203",
    "attribute": "0x0000000000000000",
    "text": "{{anim id=\"QuestionMark\" target=\"actor\" targetSpec=\"\"}}그대는 소원을 빌었나?{{pageBreak}}{{anim id=\"EmotEnd\" target=\"actor\" targetSpec=\"\"}}{{color id=\"1\"}} 스틱{{color id=\"65535\"}}으로 하늘을 올려다보고{{delay20}}\n{{anim id=\"Nodding\" target=\"actor\" targetSpec=\"\"}}별똥별이 쏟아질 때 {{color id=\"1\"}}{{color id=\"65535\"}}를 누르면{{delay8}}\n소원을 빌 수 있지, {{string value=\"6\"}}{{pageBreak}}{{anim id=\"Silent\" target=\"actor\" targetSpec=\"\"}}{{delay frames=\"16\"}}별똥별이 많다고{{delay20}} {{anim id=\"Negative\" target=\"actor\" targetSpec=\"\"}}욕심부리면 안 돼!{{delay frames=\"40\"}}\n{{anim id=\"FaintSmile\" target=\"actor\" targetSpec=\"\"}}그대가 진정으로 원하는 소원이\n하늘에 닿길 바랄게, {{string value=\"6\"}}!"
  }
]