﻿[
  {
    "label": "001",
    "attribute": "0x0000002600000000",
    "text": "{{anim id=\"Nodding\" target=\"actor\" targetSpec=\"\"}}뭐든 시작이 중요한 법!{{delay frames=\"40\"}}\n새해 음식이 많다고{{delay20}}\n너무 많이 먹으면 안 돼, {{string value=\"6\"}}!"
  },
  {
    "label": "002",
    "attribute": "0x0000002600000000",
    "text": "{{anim id=\"Nodding\" target=\"actor\" targetSpec=\"\"}}모두와 함께 새해 첫날을 즐겨도 좋고,{{delay frames=\"30\"}}\n{{anim id=\"Nodding\" target=\"actor\" targetSpec=\"\"}}혼자 집에서 쉬는 것도 좋지!{{delay frames=\"30\"}}\n{{anim id=\"Nodding\" target=\"actor\" targetSpec=\"\"}}각자 원하는 대로 즐기면 돼!"
  },
  {
    "label": "003",
    "attribute": "0x0000002600000000",
    "text": "{{anim id=\"Nodding\" target=\"actor\" targetSpec=\"\"}}아무래도 올해는{{delay8}} 행복한 한 해가 되겠어{{delay frames=\"40\"}}\n{{anim id=\"ShyBoy\" target=\"actor\" targetSpec=\"\"}}새해 첫날부터 이렇게 그대와{{delay20}}\n이야기를 나눌 수 있다니 말이야{{string value=\"...\"}}"
  },
  {
    "label": "004",
    "attribute": "0x0000002600000000",
    "text": "{{anim id=\"QuestionMark\" target=\"actor\" targetSpec=\"\"}}{{string value=\"4\"}}{{gender2 m=\"군\" f=\"양\"}},{{delay20}}\n새해 계획은 다 세웠나?{{pageBreak}}{{anim id=\"Thinking\" target=\"actor\" targetSpec=\"\"}}완벽하게 지킬 자신이 없는{{delay20}}\n계획일지라도{{string value=\"...\"}}{{pageBreak}}{{anim id=\"Nodding\" target=\"actor\" targetSpec=\"\"}}하나씩 노트에 적다 보면{{delay20}}\n마음도 정리되고{{delay frames=\"40\"}}\n{{anim id=\"FaintSmile\" target=\"actor\" targetSpec=\"\"}}새 출발하는 기분이 들어서 좋아! {{string value=\"6\"}}!"
  },
  {
    "label": "005",
    "attribute": "0x0000002600000000",
    "text": "{{anim id=\"EmotEnd\" target=\"actor\" targetSpec=\"\"}}라디오에서 올해 운세를{{delay20}} 알려줬는데{{delay frames=\"40\"}}\n{{anim id=\"SadSpiral\" target=\"actor\" targetSpec=\"\"}}내 운세는 별로 좋지 않았어{{string value=\"...\"}}{{pageBreak}}{{anim id=\"EmotEnd\" target=\"actor\" targetSpec=\"\"}}하지만 노 프라블럼!{{delay frames=\"40\"}}\n{{anim id=\"Grin\" target=\"actor\" targetSpec=\"\"}}내겐 그대가 있으니까{{string value=\"...\"}} {{string value=\"6\"}}!"
  }
]