﻿[
  {
    "label": "001",
    "text": "¿Cómo te va, {{string value=\"NickName\"}}?"
  },
  {
    "label": "002",
    "text": "Querid{{gender2 m=\"o\" f=\"a\"}} {{string value=\"NickName\"}}:"
  },
  {
    "label": "003",
    "text": "A mi muy querid{{gender2 m=\"o\" f=\"a\"}} {{string value=\"NickName\"}}:"
  },
  {
    "label": "004",
    "text": "A mi muy apreciad{{gender2 m=\"o\" f=\"a\"}} {{string value=\"NickName\"}}:"
  },
  {
    "label": "005",
    "text": "{{capitalizeNextLetter}}{{string value=\"NickName\"}} de mi corazón:"
  },
  {
    "label": "101",
    "text": "Gracias por el regalo. Ha sido\ntodo un detalle de tu parte."
  },
  {
    "label": "102",
    "text": "¡Qué sorpresa! Una no se\nespera recibir regalos porque sí."
  },
  {
    "label": "103",
    "text": "¡Tu regalo es estupendo!\nGracias, corazón."
  },
  {
    "label": "104",
    "text": "Anoche encontré tu regalo en el\nbuzón. Eres un verdadero encanto."
  },
  {
    "label": "105",
    "text": "Gracias por la tarjeta y el regalo,\n¡eres el colmo de la amabilidad!"
  },
  {
    "label": "201",
    "text": "Fíjate qué casualidad: el otro día\ncompré una cosa para ti. Iba a ser\nuna sorpresa, así que... ¡sorpresa!"
  },
  {
    "label": "202",
    "text": "Hace tiempo que quiero tener un\ndetalle contigo y esto me ha dado\nel empujoncito que necesitaba."
  },
  {
    "label": "203",
    "text": "Parece que l{{gender2 m=\"o\" f=\"a\"}}s dos hemos tenido\nla misma idea, porque yo también\ntengo un detalle para ti..."
  },
  {
    "label": "204",
    "text": "Yo también disfruto dando regalos.\nDe hecho, tenía un detalle\nespecialmente para ti..."
  },
  {
    "label": "205",
    "text": "Además, es la excusa perfecta\npara darte un obsequio que\ntenía reservado para ti..."
  },
  {
    "label": "301",
    "text": "Espero que sea de tu estilo."
  },
  {
    "label": "302",
    "text": "No sé si lo necesitas, pero..."
  },
  {
    "label": "303",
    "text": "Espero que sea de tu agrado."
  },
  {
    "label": "304",
    "text": "Ya me dirás si te gusta."
  },
  {
    "label": "305",
    "text": "¡Ojalá te resulte útil!"
  },
  {
    "label": "401",
    "text": "Afectuosamente, {{string value=\"VillagerName\"}}"
  },
  {
    "label": "402",
    "text": "Con cariño, {{string value=\"VillagerName\"}}"
  },
  {
    "label": "403",
    "text": "Un fuerte abrazo, {{string value=\"VillagerName\"}}"
  },
  {
    "label": "404",
    "text": "Saludos afectuosos, {{string value=\"VillagerName\"}}"
  },
  {
    "label": "405",
    "text": "De tu amiga, {{string value=\"VillagerName\"}}"
  }
]