﻿[
  {
    "label": "001",
    "attribute": "0x0000000000000000",
    "text": "{{anim id=\"Smiling\" target=\"actor\" targetSpec=\"\"}}Что у нас сегодня? Турнир\n«Мастер удочки»!"
  },
  {
    "label": "002",
    "attribute": "0x0000000000000000",
    "text": "{{anim id=\"HappyDance\" target=\"actor\" targetSpec=\"\"}}Поскорей бы уже начался турнир\n«Мастер удочки»!{{delay40}}{{anim id=\"Laughing\" target=\"actor\" targetSpec=\"\"}} Мне{{delay8}} уже{{delay8}} не{{delay8}}\nтерпится наловить рыбешки!"
  },
  {
    "label": "003",
    "attribute": "0x0000000000000000",
    "text": "{{anim id=\"FaintSmile\" target=\"actor\" targetSpec=\"\"}}Турнир «Мастер удочки» начнется\nв 9 утра!{{delay40}} {{anim id=\"Greeting\" target=\"actor\" targetSpec=\"\"}}{{capitalizeNextLetter}}{{string value=\"NickName\"}}, мы\nс тобой всю рыбешку выловим!"
  },
  {
    "label": "004",
    "attribute": "0x0000000000000000",
    "text": "{{anim id=\"HappyDance\" target=\"actor\" targetSpec=\"\"}}Турнир «Мастер удочки» уже\nначался!{{delay40}}{{anim id=\"EmotEnd\" target=\"actor\" targetSpec=\"\"}} {{anim id=\"BigSmile\" target=\"actor\" targetSpec=\"\"}}Сейчас-то мы и выясним,\nкто на что годится!"
  },
  {
    "label": "005",
    "attribute": "0x0000000000000000",
    "text": "{{anim id=\"HappyDance\" target=\"actor\" targetSpec=\"\"}}Я отправляюсь на рыбалку!{{delay40}}{{anim id=\"EmotEnd\" target=\"actor\" targetSpec=\"\"}}{{pageBreak}}{{anim id=\"SmugFace\" target=\"actor\" targetSpec=\"\"}}Попадись мне на крючок рыбешка{{delay20}}\nпокруче{{delay20}}, и я смогу обменять ее на\nнужную мне вещицу!"
  },
  {
    "label": "006",
    "attribute": "0x0000000000000000",
    "text": "{{anim id=\"Hello\" target=\"actor\" targetSpec=\"\"}}{{capitalizeNextLetter}}{{string value=\"NickName\"}}!{{delay20}}{{anim id=\"Nodding\" target=\"actor\" targetSpec=\"\"}} А я решила на\nденек отложить все планы стать\nзвездой и{{anim id=\"Greeting\" target=\"actor\" targetSpec=\"\"}} просто наловить рыбки!"
  },
  {
    "label": "007",
    "attribute": "0x0000000000000000",
    "text": "{{anim id=\"Smiling\" target=\"actor\" targetSpec=\"\"}}Обалдеть!{{delay20}} Какой{{delay20}} классный{{delay20}} день!{{delay40}}\n{{anim id=\"Nodding\" target=\"actor\" targetSpec=\"\"}}Такого огромного улова у меня еще\nне было.{{delay20}} {{anim id=\"BigSmile\" target=\"actor\" targetSpec=\"\"}}Как же я собой довольна!"
  },
  {
    "label": "008",
    "attribute": "0x0000000000000000",
    "text": "{{anim id=\"AbsentMindedness\" target=\"actor\" targetSpec=\"\"}}Интересно, когда следующий\nтурнир?{{delay40}} {{anim id=\"HappyDance\" target=\"actor\" targetSpec=\"\"}}Жду не дождусь!"
  },
  {
    "label": "009",
    "attribute": "0x0000000000000000",
    "text": "{{anim id=\"Greeting\" target=\"actor\" targetSpec=\"\"}}Привет, {{string value=\"NickName\"}}!{{delay20}}{{delay40}} {{anim id=\"FaintSmile\" target=\"actor\" targetSpec=\"\"}}Ты\nзнаешь звезду, которая была бы\nеще и экспертом в рыбалке?{{pageBreak}}{{anim id=\"SmugFace\" target=\"actor\" targetSpec=\"\"}}Я вполне могла бы стать первой!"
  },
  {
    "label": "010",
    "attribute": "0x0000000000000000",
    "text": "Я сейчас лопну от счастья!{{delay8}} {{anim id=\"Love\" target=\"actor\" targetSpec=\"\"}}Просто{{delay20}}\nобожаю{{delay20}} это{{delay20}} чувство!{{anim id=\"EmotEnd\" target=\"actor\" targetSpec=\"\"}}{{delay20}} {{anim id=\"Smiling\" target=\"actor\" targetSpec=\"\"}}Ну кто еще\nсможет похвастаться таким уловом?"
  },
  {
    "label": "011",
    "attribute": "0x0000000000000000",
    "text": "{{anim id=\"Love\" target=\"actor\" targetSpec=\"\"}}Иногда кажется, что мы{{delay20}} с рыбкой{{delay20}}\nсможем{{delay20}} подружиться.{{delay40}} {{anim id=\"FaintSmile\" target=\"actor\" targetSpec=\"\"}}Тогда\nя забираю ее жить к себе домой!"
  },
  {
    "label": "012",
    "attribute": "0x0000000000000000",
    "text": "{{anim id=\"Worried\" target=\"actor\" targetSpec=\"\"}}Я пыталась думать, как рыба.{{delay8}}\n{{anim id=\"Thinking\" target=\"actor\" targetSpec=\"\"}}«Буль-буль... {{size value=\"75\"}}(это пузырьки)\n{{size value=\"100\"}}Я рыбешка. Где я?»{{pageBreak}}«Буль{{string value=\"...\"}}» {{i10_4}}«Буль{{string value=\"...\"}}»{{pageBreak}}{{anim id=\"SadSpiral\" target=\"actor\" targetSpec=\"\"}}Но и это не помогло. Ни одной не\nсловила{{string value=\"...\"}}"
  },
  {
    "label": "013",
    "attribute": "0x0000000000000000",
    "text": "Увижу рыбку в воде{{delay20}}{{anim id=\"Greeting\" target=\"actor\" targetSpec=\"\"}} и как-то сразу\nначинаю ей{{delay20}} немного{{delay20}} завидовать!\nЯ тоже хочу плавать весь день!"
  },
  {
    "label": "104",
    "attribute": "0x0000000000000000",
    "text": "{{anim id=\"Hello\" target=\"actor\" targetSpec=\"\"}}Ну как там успехи с рыбалкой?{{i10_4}}\n{{anim id=\"Smiling\" target=\"actor\" targetSpec=\"\"}}Я прямо чувствую, {{delay20}}что мне\nсегодня повезет. {{capitalizeNextLetter}}{{string value=\"6\"}}.{{pageBreak}}{{anim id=\"Nodding\" target=\"actor\" targetSpec=\"\"}}Вот увидишь! {{delay20}}Все миленькие рыбки\n{{anim id=\"EmotEnd\" target=\"actor\" targetSpec=\"\"}}сами пойдут мне в руки!"
  },
  {
    "label": "105",
    "attribute": "0x0000000000000000",
    "text": "{{anim id=\"Explain\" target=\"actor\" targetSpec=\"\"}}Мне кажется, фанатам нравится,\nкогда их звезды занимаются чем-то\nпривычным{{string value=\"...\"}} Ну, вроде рыбалки.{{pageBreak}}{{anim id=\"Thinking\" target=\"actor\" targetSpec=\"\"}}Если действовать с умом,{{delay8}} то на\nтурнире «Мастер удочки» {{delay8}}можно\nи рыбу выудить, и новых фанатов{{string value=\"...\"}}{{pageBreak}}{{anim id=\"IdeaBulb\" target=\"actor\" targetSpec=\"\"}}О, идея! {{delay frames=\"40\"}}Надо бы подобрать этому\nсобытию новомодное имечко{{string value=\"...\"}}\n{{anim id=\"EmotEnd\" target=\"actor\" targetSpec=\"\"}}Встречайте «Гламурную удочку»!"
  },
  {
    "label": "106",
    "attribute": "0x0000000000000000",
    "text": "{{anim id=\"Smiling\" target=\"actor\" targetSpec=\"\"}}Обожаю миленьких мелких рыбок!{{delay20}}\n{{anim id=\"HappyDance\" target=\"actor\" targetSpec=\"\"}}Хотя ловить крупных рыб гораздо\nинтереснее!{{pageBreak}}{{anim id=\"OhGeez\" target=\"actor\" targetSpec=\"\"}}Только жаль, что ни те, ни другие\nне ловятся! {{delay frames=\"40\"}}{{anim id=\"SadSpiral\" target=\"actor\" targetSpec=\"\"}}Ну же, где вы, рыбки\nлюбого размера? А? {{capitalizeNextLetter}}{{string value=\"6\"}}."
  },
  {
    "label": "107",
    "attribute": "0x0000000000000000",
    "text": "{{anim id=\"QuestionMark\" target=\"actor\" targetSpec=\"\"}}Как успехи с удочкой? {{delay frames=\"40\"}}{{anim id=\"Smiling\" target=\"actor\" targetSpec=\"\"}}Вижу,\nты серьезно настроен{{gender2 m=\"\" f=\"а\"}}.{{pageBreak}}Я пока не напрягаюсь,{{delay8}}{{anim id=\"Serious\" target=\"actor\" targetSpec=\"\"}} берегу силы\nдля основного забега... Заплыва?{{pageBreak}}{{anim id=\"EmotEnd\" target=\"actor\" targetSpec=\"\"}}Имей в виду, я опасная соперница!{{delay frames=\"45\"}}\n{{anim id=\"Laughing\" target=\"actor\" targetSpec=\"\"}}Это так, чтобы вы с рыбами не\nрасслаблялись. {{capitalizeNextLetter}}{{string value=\"6\"}}!"
  },
  {
    "label": "201",
    "attribute": "0x0000000000000000",
    "text": "{{anim id=\"Explain\" target=\"actor\" targetSpec=\"\"}}Это может прозвучать странно,\nно зимняя рыбалка помогает мне\nсогреться. {{capitalizeNextLetter}}{{string value=\"6\"}}.{{pageBreak}}Когда рыба срывается,{{delay8}} {{anim id=\"Fuming\" target=\"actor\" targetSpec=\"\"}}все во мне\nкипит! {{delay frames=\"45\"}}{{anim id=\"EmotEnd\" target=\"actor\" targetSpec=\"\"}}Это часто случается,{{delay8}} {{anim id=\"Smiling\" target=\"actor\" targetSpec=\"\"}}так что\nмерзнуть мне не приходится!"
  },
  {
    "label": "202",
    "attribute": "0x0000000000000000",
    "text": "Я себе все твержу:{{delay8}}{{anim id=\"Serious\" target=\"actor\" targetSpec=\"\"}} «{{string value=\"VillagerName\"}},{{delay8}}\nсмотри не проспи {{delay8}}успех{{string value=\"...\"}}»{{pageBreak}}{{anim id=\"Sleepy\" target=\"actor\" targetSpec=\"\"}}От весенней погоды меня так\nи клонит в сон во время рыбалки.{{pageBreak}}{{anim id=\"ShyBoy\" target=\"actor\" targetSpec=\"\"}}Иногда я даже думаю, что хороший\nсон — это тоже большой успех!"
  },
  {
    "label": "203",
    "attribute": "0x0000000000000000",
    "text": "Крем от солнца — {{delay8}}{{anim id=\"Nodding\" target=\"actor\" targetSpec=\"\"}}есть!{{delay frames=\"30\"}} Вода —{{delay8}}\n{{anim id=\"Nodding\" target=\"actor\" targetSpec=\"\"}}есть!{{delay frames=\"40\"}} Звездная уверенность\nв себе —{{delay8}} {{anim id=\"EmotEnd\" target=\"actor\" targetSpec=\"\"}}хоть отбавляй!{{pageBreak}}Уж поверь мне,{{delay8}}{{anim id=\"Grin\" target=\"actor\" targetSpec=\"\"}} с такой подготовкой\nя могу ждать клева целыми днями\nнапролет. {{capitalizeNextLetter}}{{string value=\"6\"}}!"
  },
  {
    "label": "204",
    "attribute": "0x0000000000000000",
    "text": "Мой совет{{string value=\"...\"}} {{anim id=\"Smiling\" target=\"actor\" targetSpec=\"\"}}сегодня самое время\nсфотографировать тво{{gender7 m=\"его\" f=\"ю\" n=\"е\" pl=\"их\"}} любим{{gender7 m=\"ого\" f=\"ую\" n=\"ое\" pl=\"ых\"}}\n{{fun_00170032 arg=\"0x01CD\"}}{{string value=\"VillagerRace\"}} на рыбалке!{{pageBreak}}Во-первых,{{delay8}} {{anim id=\"Dance\" target=\"actor\" targetSpec=\"\"}}я обалденно выгляжу\nпри осеннем свете.{{delay frames=\"40\"}} Во-вторых,{{delay8}}\n{{anim id=\"SmugFace\" target=\"actor\" targetSpec=\"\"}}с удочкой я выгляжу подтянуто.{{pageBreak}}{{anim id=\"Explain\" target=\"actor\" targetSpec=\"\"}}Так что {{delay8}}сделай парочку снимков.{{delay8}}\nМожешь потом с поклонниками\nмоими поделиться.{{delay20}} {{anim id=\"FaintSmile\" target=\"actor\" targetSpec=\"\"}}Я разрешаю."
  },
  {
    "label": "205",
    "attribute": "0x0000000000000000",
    "text": "Крем от солнца — {{delay8}}{{anim id=\"Nodding\" target=\"actor\" targetSpec=\"\"}}есть!{{delay frames=\"30\"}} Вода —{{delay8}}\n{{anim id=\"Nodding\" target=\"actor\" targetSpec=\"\"}}есть!{{delay frames=\"40\"}} Звездная уверенность\nв себе —{{delay8}} {{anim id=\"EmotEnd\" target=\"actor\" targetSpec=\"\"}}хоть отбавляй!{{pageBreak}}Уж поверь мне,{{delay8}}{{anim id=\"Grin\" target=\"actor\" targetSpec=\"\"}} с такой подготовкой\nя могу ждать клева целыми днями\nнапролет. {{capitalizeNextLetter}}{{string value=\"6\"}}!"
  },
  {
    "label": "206",
    "attribute": "0x0000000000000000",
    "text": "Мой совет{{string value=\"...\"}} {{anim id=\"Smiling\" target=\"actor\" targetSpec=\"\"}}сегодня самое время\nсфотографировать тво{{gender7 m=\"его\" f=\"ю\" n=\"е\" pl=\"их\"}} любим{{gender7 m=\"ого\" f=\"ую\" n=\"ое\" pl=\"ых\"}}\n{{fun_00170032 arg=\"0x01CD\"}}{{string value=\"VillagerRace\"}} на рыбалке!{{pageBreak}}Во-первых,{{delay8}} {{anim id=\"Dance\" target=\"actor\" targetSpec=\"\"}}я обалденно выгляжу\nпри осеннем свете.{{delay frames=\"40\"}} Во-вторых,{{delay8}}\n{{anim id=\"SmugFace\" target=\"actor\" targetSpec=\"\"}}с удочкой я выгляжу подтянуто.{{pageBreak}}{{anim id=\"Explain\" target=\"actor\" targetSpec=\"\"}}Так что {{delay8}}сделай парочку снимков.{{delay8}}\nМожешь потом с поклонниками\nмоими поделиться.{{delay20}} {{anim id=\"FaintSmile\" target=\"actor\" targetSpec=\"\"}}Я разрешаю."
  },
  {
    "label": "207",
    "attribute": "0x0000000000000000",
    "text": "{{anim id=\"Explain\" target=\"actor\" targetSpec=\"\"}}Это может прозвучать странно,\nно зимняя рыбалка помогает мне\nсогреться. {{capitalizeNextLetter}}{{string value=\"6\"}}.{{pageBreak}}Когда рыба срывается,{{delay8}} {{anim id=\"Fuming\" target=\"actor\" targetSpec=\"\"}}все во мне\nкипит! {{delay frames=\"45\"}}{{anim id=\"EmotEnd\" target=\"actor\" targetSpec=\"\"}}Это часто случается,{{delay8}} {{anim id=\"Smiling\" target=\"actor\" targetSpec=\"\"}}так что\nмерзнуть мне не приходится!"
  },
  {
    "label": "208",
    "attribute": "0x0000000000000000",
    "text": "Я себе все твержу:{{delay8}}{{anim id=\"Serious\" target=\"actor\" targetSpec=\"\"}} «{{string value=\"VillagerName\"}},{{delay8}}\nсмотри не проспи {{delay8}}успех{{string value=\"...\"}}»{{pageBreak}}{{anim id=\"Sleepy\" target=\"actor\" targetSpec=\"\"}}От весенней погоды меня так\nи клонит в сон во время рыбалки.{{pageBreak}}{{anim id=\"ShyBoy\" target=\"actor\" targetSpec=\"\"}}Иногда я даже думаю, что хороший\nсон — это тоже большой успех!"
  }
]