﻿[
  {
    "label": "001",
    "attribute": "0x0000020000000000",
    "text": "{{anim id=\"IdeaBulb\" target=\"actor\" targetSpec=\"\"}}{{capitalizeNextLetter}}{{string value=\"NickName\"}}, {{delay20}}hättest du Lust,{{delay8}} mich bei mir zu Hause zu besuchen?{{pageBreak}}{{anim id=\"FaintSmile\" target=\"actor\" targetSpec=\"\"}}Es wäre doch ganz nett, {{delay8}}sich\ngemeinsam drinnen etwas zu\nentspannen, {{delay8}}findest du nicht?"
  },
  {
    "label": "001_a",
    "attribute": "0x0000000000000000",
    "text": "Klingt gut!"
  },
  {
    "label": "001_b",
    "attribute": "0x0000000000000000",
    "text": "Klappt leider nicht!"
  },
  {
    "label": "002",
    "attribute": "0x0000020000000000",
    "text": "{{anim id=\"Explain\" target=\"actor\" targetSpec=\"\"}}Ich habe gelesen,{{delay8}} dass es zum\nPutzen motivieren kann, {{delay8}}{{anim id=\"FaintSmile\" target=\"actor\" targetSpec=\"\"}}wenn\nman viel Besuch bekommt.{{pageBreak}}{{anim id=\"Hello\" target=\"actor\" targetSpec=\"\"}}Möchtest du mich vielleicht\nbesuchen, {{delay8}}{{string value=\"NickName\"}}?{{pageBreak}}{{anim id=\"FaintSmile\" target=\"actor\" targetSpec=\"\"}}Nicht, {{delay8}}dass es bei mir nicht immer\nsauber wäre, {{delay8}}aber so könnten wir\netwas Zeit miteinander verbringen."
  },
  {
    "label": "002_a",
    "attribute": "0x0000000000000000",
    "text": "Da helf ich doch gern!"
  },
  {
    "label": "002_b",
    "attribute": "0x0000000000000000",
    "text": "Passt mir leider nicht."
  },
  {
    "label": "003",
    "attribute": "0x0000020000000000",
    "text": "{{anim id=\"Love\" target=\"actor\" targetSpec=\"\"}}Ich bewundere gute Gastgeber.{{delay20}}\nEs ist ja gar nicht sooo einfach,{{delay8}}\neiner zu sein!{{pageBreak}}{{anim id=\"IdeaBulb\" target=\"actor\" targetSpec=\"\"}}Ah,{{delay8}} {{string value=\"NickName\"}}?{{delay40}}\n{{anim id=\"FaintSmile\" target=\"actor\" targetSpec=\"\"}}Möchtest du mich vielleicht\neinmal besuchen?{{pageBreak}}{{anim id=\"Nodding\" target=\"actor\" targetSpec=\"\"}}Dann könnte ich mich mal in\nder Rolle der Gastgeberin üben.{{delay20}}\n{{anim id=\"Hello\" target=\"actor\" targetSpec=\"\"}}Du wärst dabei der ideale Gast!"
  },
  {
    "label": "003_a",
    "attribute": "0x0000000000000000",
    "text": "Okay, kein Problem!"
  },
  {
    "label": "003_b",
    "attribute": "0x0000000000000000",
    "text": "Geht leider nicht."
  },
  {
    "label": "004",
    "attribute": "0x0000000000000000",
    "text": "{{anim id=\"Nodding\" target=\"actor\" targetSpec=\"\"}}Alles klar. {{delay20}}{{anim id=\"FaintSmile\" target=\"actor\" targetSpec=\"\"}}Vielleicht ein andermal.{{delay20}}\n{{anim id=\"Smiling\" target=\"actor\" targetSpec=\"\"}}Ich würde mich freuen, {{delay8}}wenn du mich\nirgendwann besuchst,{{delay8}} {{string value=\"Catchphrase\"}}."
  },
  {
    "label": "005",
    "attribute": "0x0000000000000000",
    "text": "{{anim id=\"Sighing\" target=\"actor\" targetSpec=\"\"}}Schade. {{delay20}}{{anim id=\"FaintSmile\" target=\"actor\" targetSpec=\"\"}}Aber vielleicht kannst\ndu es ja ein andermal einrichten,\n{{delay8}}{{string value=\"Catchphrase\"}}."
  },
  {
    "label": "006",
    "attribute": "0x0000000000000000",
    "text": "{{anim id=\"Nodding\" target=\"actor\" targetSpec=\"\"}}Ich weiß.{{delay8}} Du bist viel beschäftigt.{{delay20}}\n{{anim id=\"Smiling\" target=\"actor\" targetSpec=\"\"}}Aber ich werde nicht lockerlassen,{{delay8}}\nbis du einmal zusagst, {{delay8}}{{string value=\"Catchphrase\"}}!"
  },
  {
    "label": "007",
    "attribute": "0x0000010000000000",
    "text": "{{anim id=\"BigSmile\" target=\"actor\" targetSpec=\"\"}}Wirklich? {{delay8}}Das ist ja großartig!{{delay20}}\n{{anim id=\"QuestionMark\" target=\"actor\" targetSpec=\"\"}}Welche Uhrzeit wäre dir denn recht?"
  },
  {
    "label": "007_a",
    "attribute": "0x0000000000000000",
    "text": "Jetzt sofort ginge."
  },
  {
    "label": "007_b",
    "attribute": "0x0000000000000000",
    "text": "Morgen irgendwann?"
  },
  {
    "label": "008",
    "attribute": "0x0000010000000000",
    "text": "{{anim id=\"Smiling\" target=\"actor\" targetSpec=\"\"}}Hurra! {{delay20}}Wann würde es dir\ndenn am besten passen?"
  },
  {
    "label": "008_a",
    "attribute": "0x0000000000000000",
    "text": "Jetzt sofort!"
  },
  {
    "label": "008_b",
    "attribute": "0x0000000000000000",
    "text": "Morgen vielleicht."
  },
  {
    "label": "009",
    "attribute": "0x0000010000000000",
    "text": "{{anim id=\"Aha\" target=\"actor\" targetSpec=\"\"}}Wirklich? {{delay20}}{{anim id=\"FaintSmile\" target=\"actor\" targetSpec=\"\"}}Das ist ja fantastisch!{{delay20}}\nWann kannst du es denn einrichten?"
  },
  {
    "label": "009_a",
    "attribute": "0x0000000000000000",
    "text": "Jetzt gleich!"
  },
  {
    "label": "009_b",
    "attribute": "0x0000000000000000",
    "text": "Morgen wäre möglich."
  },
  {
    "label": "101",
    "attribute": "0x0000000000000000",
    "text": "{{anim id=\"BigSmile\" target=\"actor\" targetSpec=\"\"}}Brechen wir auf, {{delay8}}{{string value=\"Catchphrase\"}}!"
  },
  {
    "label": "102",
    "attribute": "0x0000000000000000",
    "text": "{{anim id=\"EmotEnd\" target=\"actor\" targetSpec=\"\"}}Dann auf zu mir nach Hause,{{delay8}}\n{{string value=\"Catchphrase\"}}!"
  },
  {
    "label": "103",
    "attribute": "0x0000000000000000",
    "text": "{{anim id=\"Greeting\" target=\"actor\" targetSpec=\"\"}}Dann lass uns gleich losgehen,{{delay8}}\n{{string value=\"Catchphrase\"}}!"
  },
  {
    "label": "104",
    "attribute": "0x0000000000000000",
    "text": "{{anim id=\"Nodding\" target=\"actor\" targetSpec=\"\"}}{{capitalizeNextLetter}}{{string value=\"NickName\"}}, {{delay8}}das ist das erste Mal, {{delay8}}dass ich dich zu mir nach Hause eingeladen habe, {{delay8}}nicht wahr?{{pageBreak}}{{anim id=\"FaintSmile\" target=\"actor\" targetSpec=\"\"}}Wenn du mich fragst, {{delay8}}ein wirklich\nganz besonderes Ereignis!"
  },
  {
    "label": "105",
    "attribute": "0x0000000000000000",
    "text": "{{anim id=\"Eh\" target=\"actor\" targetSpec=\"\"}}Mir fällt gerade auf, {{delay8}}dass ich dich\nbisher noch nie zu mir nach Hause\neingeladen hatte, {{delay8}}{{string value=\"Catchphrase\"}}!{{pageBreak}}{{anim id=\"Worried\" target=\"actor\" targetSpec=\"\"}}Hätte ich es bloß nicht gesagt.{{delay20}}\nJetzt bin ich richtig nervös..."
  },
  {
    "label": "106",
    "attribute": "0x0000000000000000",
    "text": "{{anim id=\"Shocked\" target=\"actor\" targetSpec=\"\"}}Ach du Schreck! {{delay20}}{{anim id=\"Worried\" target=\"actor\" targetSpec=\"\"}}Schon so spät?{{pageBreak}}{{anim id=\"Worried\" target=\"actor\" targetSpec=\"\"}}Auch wenn ich dich gerade erst\neingeladen hatte...{{delay20}} Wir müssen\ndeinen Besuch leider verschieben."
  },
  {
    "label": "201",
    "attribute": "0x0000000000000000",
    "text": "{{anim id=\"Smiling\" target=\"actor\" targetSpec=\"\"}}Morgen passt es mir auch! {{delay20}}{{anim id=\"EmotEnd\" target=\"actor\" targetSpec=\"\"}}Ich werde\nzu Hause sein. {{delay20}}{{anim id=\"Nodding\" target=\"actor\" targetSpec=\"\"}}Komm einfach, {{delay8}}wann\nes dir am besten passt!"
  },
  {
    "label": "202",
    "attribute": "0x0000000000000000",
    "text": "{{anim id=\"Nodding\" target=\"actor\" targetSpec=\"\"}}Gut, {{delay8}}dann erwarte ich dich morgen!{{delay20}}\nBei der Uhrzeit bin ich flexibel.{{delay20}}\n{{anim id=\"BigSmile\" target=\"actor\" targetSpec=\"\"}}Bis dann!{{anim id=\"FaintSmile\" target=\"actor\" targetSpec=\"\"}}"
  },
  {
    "label": "203",
    "attribute": "0x0000000000000000",
    "text": "{{anim id=\"Nodding\" target=\"actor\" targetSpec=\"\"}}Dann schau morgen bei mir vorbei,{{delay8}}\nwann immer dir danach ist!"
  },
  {
    "label": "204",
    "attribute": "0x0000000000000000",
    "text": "{{anim id=\"Eh\" target=\"actor\" targetSpec=\"\"}}Komm nur nicht, {{delay8}}wenn es eigentlich\nSchlafenszeit ist.{{delay20}}{{anim id=\"ShyBoy\" target=\"actor\" targetSpec=\"\"}} Vielleicht würde\nich gar nicht aufwachen..."
  },
  {
    "label": "205",
    "attribute": "0x0000000000000000",
    "text": "{{anim id=\"Hesitate\" target=\"actor\" targetSpec=\"\"}}Aber vergiss es bitte nicht!{{delay20}}\n{{anim id=\"FaintSmile\" target=\"actor\" targetSpec=\"\"}}Ich werde nämlich extra auf\ndich warten, {{delay8}}{{string value=\"Catchphrase\"}}!"
  },
  {
    "label": "206",
    "attribute": "0x0000000000000000",
    "text": "{{anim id=\"FaintSmile\" target=\"actor\" targetSpec=\"\"}}Hoffentlich schlafe ich nicht beim\nLesen ein, {{delay8}}{{anim id=\"WrySmile\" target=\"actor\" targetSpec=\"\"}}wenn ich auf dich warte,{{delay8}}\n{{string value=\"Catchphrase\"}}!"
  },
  {
    "label": "207",
    "attribute": "0x0000000000000000",
    "text": "Weißt du, was? {{delay20}}{{anim id=\"HappyFlower\" target=\"actor\" targetSpec=\"\"}}Ich glaube, das ist\ndas erste Mal, {{delay8}}dass ich dich richtig\nförmlich zu mir eingeladen habe!{{pageBreak}}{{anim id=\"Nodding\" target=\"actor\" targetSpec=\"\"}}Da muss ich vorher alles einmal so\nrichtig auf Hochglanz bringen!"
  },
  {
    "label": "208",
    "attribute": "0x0000000000000000",
    "text": "{{anim id=\"Thinking\" target=\"actor\" targetSpec=\"\"}}Sag mal{{string value=\"...\"}}{{delay8}} Kann es sein, {{delay8}}dass ich\ndich bisher noch nie zu mir nach\nHause eingeladen habe?{{pageBreak}}{{anim id=\"Nodding\" target=\"actor\" targetSpec=\"\"}}Da muss ich mir dieses Mal beim\nPutzen aber besonders viel Mühe\ngeben, {{delay8}}{{string value=\"Catchphrase\"}}."
  },
  {
    "label": "301",
    "attribute": "0x0000000000000000",
    "text": "{{anim id=\"ShyBoy\" target=\"actor\" targetSpec=\"\"}}Vergiss nicht unseren Plan für\nmorgen! {{delay20}}{{anim id=\"FaintSmile\" target=\"actor\" targetSpec=\"\"}}Ich werde dich bei mir\nzu Hause erwarten, {{delay8}}{{string value=\"Catchphrase\"}}!"
  },
  {
    "label": "302",
    "attribute": "0x0000000000000000",
    "text": "{{anim id=\"Explain\" target=\"actor\" targetSpec=\"\"}}Ich bin morgen den ganzen Tag zu\nHause, {{delay8}}{{string value=\"NickName\"}}! {{delay20}}{{anim id=\"FaintSmile\" target=\"actor\" targetSpec=\"\"}}Schau vorbei, {{delay8}}wann es dir am besten passt!"
  },
  {
    "label": "303",
    "attribute": "0x0000000000000000",
    "text": "{{anim id=\"HappyFlower\" target=\"actor\" targetSpec=\"\"}}Ich freue mich auf deinen\nmorgigen Besuch,{{delay8}} {{string value=\"Catchphrase\"}}!{{delay40}}\n{{anim id=\"FaintSmile\" target=\"actor\" targetSpec=\"\"}}Bei der Uhrzeit bin ich flexibel!"
  },
  {
    "label": "401",
    "attribute": "0x0000020000000000",
    "text": "{{anim id=\"Smiling\" target=\"actor\" targetSpec=\"\"}}Möchtest du mich einmal bei mir zu\nHause besuchen, {{delay8}}{{string value=\"Catchphrase\"}}?{{pageBreak}}{{anim id=\"Nodding\" target=\"actor\" targetSpec=\"\"}}Ich habe heute Morgen geputzt,{{delay8}}\nund {{anim id=\"ShyBoy\" target=\"actor\" targetSpec=\"\"}}es wäre schön, wenn du alles im\njetzigen Zustand sehen würdest..."
  },
  {
    "label": "401_a",
    "attribute": "0x0000000000000000",
    "text": "Sauber!"
  },
  {
    "label": "401_b",
    "attribute": "0x0000000000000000",
    "text": "Ich kann leider nicht."
  },
  {
    "label": "402",
    "attribute": "0x0000020000000000",
    "text": "{{anim id=\"Eh\" target=\"actor\" targetSpec=\"\"}}Hallo, {{delay8}}{{string value=\"NickName\"}}!{{pageBreak}}{{anim id=\"Hesitate\" target=\"actor\" targetSpec=\"\"}}Ich habe das dringende Bedürfnis,{{delay8}}\nmich mit einem Freund oder einer\nFreundin zu unterhalten.{{pageBreak}}{{anim id=\"FaintSmile\" target=\"actor\" targetSpec=\"\"}}Hättest du nicht vielleicht Lust,{{delay8}}\nmich bei mir zu Hause zu besuchen,{{delay8}}\n{{string value=\"Catchphrase\"}}?"
  },
  {
    "label": "402_a",
    "attribute": "0x0000000000000000",
    "text": "Auf jeden Fall!"
  },
  {
    "label": "402_b",
    "attribute": "0x0000000000000000",
    "text": "Geht gerade schlecht."
  },
  {
    "label": "403",
    "attribute": "0x0000000000000000",
    "text": "{{anim id=\"Nodding\" target=\"actor\" targetSpec=\"\"}}Kein Problem. {{delay20}}Ich weiß ja,{{delay8}} wie\nviel du immer zu tun hast.{{pageBreak}}{{anim id=\"WrySmile\" target=\"actor\" targetSpec=\"\"}}Vielleicht motiviert mich das ja,{{delay8}}\nmein trautes Heim IMMER für\netwaige Besucher sauber zu halten."
  },
  {
    "label": "404",
    "attribute": "0x0000000000000000",
    "text": "{{anim id=\"Worried\" target=\"actor\" targetSpec=\"\"}}Ist gut.{{delay20}} Das war ja auch nur eine\nspontane Idee. {{delay20}}{{anim id=\"FaintSmile\" target=\"actor\" targetSpec=\"\"}}Dein Besuch lässt\nsich ja irgendwann nachholen!"
  }
]