﻿[
  {
    "label": "001",
    "locale": {
      "CNzh": "早上好，{{string value=\"4\"}}",
      "EUde": "Ich grüße dich, {{string value=\"NickName\"}}!",
      "EUen": "Helloooo, {{string value=\"NickName\"}}!",
      "EUes": "Querid{{gender2 m=\"o\" f=\"a\"}} {{string value=\"NickName\"}}:",
      "EUfr": "Dis, {{string value=\"NickName\"}}...",
      "EUit": "Salve, {{string value=\"NickName\"}}!",
      "EUnl": "Kijk eens aan, {{string value=\"NickName\"}}!",
      "EUru": "Привет, {{string value=\"NickName\"}}!",
      "JPja": "こんにちは、{{string value=\"4\"}}",
      "KRko": "안녕, {{string value=\"4\"}}～",
      "TWzh": "你好，{{string value=\"4\"}}",
      "USen": "Helloooo, {{string value=\"NickName\"}}!",
      "USes": "Querid{{gender2 m=\"o\" f=\"a\"}} {{string value=\"NickName\"}}:",
      "USfr": "Dis, {{string value=\"NickName\"}}..."
    }
  },
  {
    "label": "002",
    "locale": {
      "CNzh": "给勤奋的{{string value=\"4\"}}",
      "EUde": "{{gender2 m=\"Mein lieber\" f=\"Meine liebe\"}} {{string value=\"NickName\"}}!",
      "EUen": "My dear {{string value=\"NickName\"}},",
      "EUes": "Me preocupo, {{string value=\"NickName\"}}...",
      "EUfr": "{{gender2 m=\"Cher\" f=\"Chère\"}} {{string value=\"NickName\"}},",
      "EUit": "{{gender2 m=\"Caro\" f=\"Cara\"}} {{string value=\"NickName\"}}!",
      "EUnl": "Mijn beste {{string value=\"PlayerName\"}},",
      "EUru": "Дорог{{gender2 m=\"ой\" f=\"ая\"}} {{string value=\"NickName\"}}!",
      "JPja": "がんばりやの　{{string value=\"4\"}}へ",
      "KRko": "노력가 {{string value=\"4\"}}에게",
      "TWzh": "給努力的{{string value=\"4\"}}",
      "USen": "My dear {{string value=\"NickName\"}},",
      "USes": "Me preocupo, {{string value=\"NickName\"}}...",
      "USfr": "{{gender2 m=\"Cher\" f=\"Chère\"}} {{string value=\"NickName\"}},"
    }
  },
  {
    "label": "003",
    "locale": {
      "CNzh": "写给匆匆忙忙的{{string value=\"4\"}}",
      "EUde": "An {{gender2 m=\"meinen kleinen\" f=\"meine kleine\"}} {{string value=\"NickName\"}}!",
      "EUen": "To my busy bee, {{string value=\"NickName\"}}!",
      "EUes": "Para {{gender2 m=\"el atareado\" f=\"la atareada\"}} {{string value=\"NickName\"}}:",
      "EUfr": "{{capitalizeNextLetter}}{{string value=\"NickName\"}},",
      "EUit": "{{gender2 m=\"Indaffaratissimo\" f=\"Indaffaratissima\"}} {{string value=\"NickName\"}}!",
      "EUnl": "Dag {{string value=\"NickName\"}}, bezig bijtje!",
      "EUru": "Трудоголик {{string value=\"NickName\"}}!",
      "JPja": "いそがしい　{{string value=\"4\"}}へ",
      "KRko": "바쁜 {{string value=\"4\"}}에게",
      "TWzh": "給忙碌的{{string value=\"4\"}}",
      "USen": "To my busy bee, {{string value=\"NickName\"}}!",
      "USes": "Para {{gender2 m=\"el atareado\" f=\"la atareada\"}} {{string value=\"NickName\"}}:",
      "USfr": "{{capitalizeNextLetter}}{{string value=\"NickName\"}},"
    }
  },
  {
    "label": "004",
    "locale": {
      "CNzh": "是这样的，{{string value=\"4\"}}",
      "EUde": "An: {{string value=\"NickName\"}}",
      "EUen": "You know, {{string value=\"NickName\"}}...",
      "EUes": "Hola, {{string value=\"NickName\"}}:",
      "EUfr": "Surprise, {{string value=\"NickName\"}} !",
      "EUit": "Sai, {{string value=\"NickName\"}}...",
      "EUnl": "Moet je horen, {{string value=\"NickName\"}},",
      "EUru": "Здравствуй, {{string value=\"NickName\"}}!",
      "JPja": "あのね、{{string value=\"4\"}}",
      "KRko": "저기, {{string value=\"4\"}}",
      "TWzh": "跟你說喔，{{string value=\"4\"}}",
      "USen": "You know, {{string value=\"NickName\"}}...",
      "USes": "Hola, {{string value=\"NickName\"}}:",
      "USfr": "Surprise, {{string value=\"NickName\"}}!"
    }
  },
  {
    "label": "005",
    "locale": {
      "CNzh": "{{string value=\"4\"}}，我其实……",
      "EUde": "Höre mich an, {{string value=\"NickName\"}}!",
      "EUen": "Oh, {{string value=\"NickName\"}}!",
      "EUes": "¡Idea para el hogar, {{string value=\"NickName\"}}!",
      "EUfr": "{{capitalizeNextLetter}}{{string value=\"NickName\"}}...",
      "EUit": "Senti qua, {{string value=\"NickName\"}}.",
      "EUnl": "Aan de fleurige {{string value=\"PlayerName\"}},",
      "EUru": "{{capitalizeNextLetter}}{{string value=\"NickName\"}}, родн{{gender2 m=\"ой\" f=\"ая\"}}!",
      "JPja": "{{string value=\"4\"}}、アタシね",
      "KRko": "{{string value=\"4\"}}, 나 말야",
      "TWzh": "{{string value=\"4\"}}，我啊……",
      "USen": "Oh, {{string value=\"NickName\"}}!",
      "USes": "Querid{{gender2 m=\"o\" f=\"a\"}} {{string value=\"NickName\"}}:",
      "USfr": "{{capitalizeNextLetter}}{{string value=\"NickName\"}}..."
    }
  },
  {
    "label": "006",
    "locale": {
      "CNzh": "{{string value=\"4\"}}，其实呢……",
      "EUde": "Gute Neuigkeiten, {{string value=\"NickName\"}}!",
      "EUen": "I'm so silly, {{string value=\"NickName\"}}!",
      "EUes": "Queridísim{{gender2 m=\"o\" f=\"a\"}} {{string value=\"NickName\"}}:",
      "EUfr": "Gloups.",
      "EUit": "Lo confesso, {{string value=\"NickName\"}}...",
      "EUnl": "Zo dwaas van me, {{string value=\"NickName\"}}!",
      "EUru": "{{capitalizeNextLetter}}{{string value=\"NickName\"}}!",
      "JPja": "{{string value=\"4\"}}、じつはね",
      "KRko": "{{string value=\"4\"}}, 사실은…",
      "TWzh": "{{string value=\"4\"}}，其實啊……",
      "USen": "I'm so silly, {{string value=\"NickName\"}}!",
      "USes": "Queridísim{{gender2 m=\"o\" f=\"a\"}} {{string value=\"NickName\"}}:",
      "USfr": "Gloups."
    }
  },
  {
    "label": "007",
    "locale": {
      "CNzh": "写给{{string value=\"4\"}}",
      "EUde": "{{gender2 m=\"Werter\" f=\"Werte\"}} {{string value=\"NickName\"}}.",
      "EUen": "Dearest {{string value=\"NickName\"}},",
      "EUes": "¡Sorpresa, {{string value=\"NickName\"}}!",
      "EUfr": "Très ch{{gender2 m=\"er\" f=\"ère\"}} {{string value=\"NickName\"}},",
      "EUit": "Carissim{{gender2 m=\"o\" f=\"a\"}} {{string value=\"NickName\"}}!",
      "EUnl": "Allerliefste {{string value=\"PlayerName\"}},",
      "EUru": "Дорогуша {{string value=\"NickName\"}}!",
      "JPja": "{{string value=\"4\"}}へ",
      "KRko": "{{string value=\"4\"}}에게",
      "TWzh": "給{{string value=\"4\"}}",
      "USen": "Dearest {{string value=\"NickName\"}},",
      "USes": "¡Sorpresa, {{string value=\"NickName\"}}!",
      "USfr": "Très ch{{gender2 m=\"er\" f=\"ère\"}} {{string value=\"NickName\"}},"
    }
  },
  {
    "label": "008",
    "locale": {
      "CNzh": "最近怎么样？{{string value=\"4\"}}",
      "EUde": "Wie geht es dir, {{string value=\"NickName\"}}?",
      "EUen": "How are you, {{string value=\"NickName\"}}?",
      "EUes": "Dime la verdad, {{string value=\"NickName\"}}:",
      "EUfr": "Ça va, {{string value=\"NickName\"}} ?",
      "EUit": "Come stai, {{string value=\"NickName\"}}?",
      "EUnl": "Hoe maak je het, {{string value=\"NickName\"}}?",
      "EUru": "Как твои дела, {{string value=\"NickName\"}}?",
      "JPja": "ちょうしはどう？　{{string value=\"4\"}}",
      "KRko": "컨디션은 어때? {{string value=\"4\"}}",
      "TWzh": "過得如何啊？{{string value=\"4\"}}",
      "USen": "How are you, {{string value=\"NickName\"}}?",
      "USes": "A ver, dime, {{string value=\"NickName\"}}:",
      "USfr": "Ça va, {{string value=\"NickName\"}}?"
    }
  },
  {
    "label": "009",
    "locale": {
      "CNzh": "写给忙碌的{{string value=\"4\"}}",
      "EUde": "{{gender2 m=\"Fleißiger\" f=\"Fleißige\"}} {{string value=\"NickName\"}}!",
      "EUen": "Busy little {{string value=\"NickName\"}},",
      "EUes": "Querid{{gender2 m=\"o\" f=\"a\"}} {{string value=\"NickName\"}}:",
      "EUfr": "M{{gender2 m=\"on\" f=\"a\"}} petit{{gender2 m=\"\" f=\"e\"}} {{string value=\"NickName\"}},",
      "EUit": "Sei occupatissim{{gender2 m=\"o\" f=\"a\"}}, {{string value=\"NickName\"}}!",
      "EUnl": "Aan de drukke {{string value=\"PlayerName\"}},",
      "EUru": "Вечно занят{{gender2 m=\"ой\" f=\"ая\"}} {{string value=\"NickName\"}}!",
      "JPja": "いそがしそうな　{{string value=\"4\"}}",
      "KRko": "바빠 보이는 {{string value=\"4\"}}",
      "TWzh": "給看起來很忙碌的{{string value=\"4\"}}",
      "USen": "Busy little {{string value=\"NickName\"}},",
      "USes": "Querid{{gender2 m=\"o\" f=\"a\"}} {{string value=\"NickName\"}}:",
      "USfr": "M{{gender2 m=\"on\" f=\"a\"}} petit{{gender2 m=\"\" f=\"e\"}} {{string value=\"NickName\"}},"
    }
  },
  {
    "label": "010",
    "locale": {
      "CNzh": "我要对{{string value=\"4\"}}说",
      "EUde": "{{gender2 m=\"Mein stilbewusster\" f=\"Meine stilbewusste\"}} {{string value=\"NickName\"}}!",
      "EUen": "My style-savvy {{string value=\"NickName\"}},",
      "EUes": "Te cuento, {{string value=\"NickName\"}}:",
      "EUfr": "{{gender2 m=\"Au\" f=\"À la\"}} toujours chic {{string value=\"NickName\"}},",
      "EUit": "{{gender2 m=\"Al mio\" f=\"Alla mia\"}} {{string value=\"NickName\"}} {{gender2 m=\"pieno\" f=\"piena\"}} di stile.",
      "EUnl": "Aan de altijd stijlvolle {{string value=\"PlayerName\"}},",
      "EUru": "Мо{{gender2 m=\"й\" f=\"я\"}} стильн{{gender2 m=\"ый\" f=\"ая\"}} {{string value=\"NickName\"}}!",
      "JPja": "{{string value=\"4\"}}に　ひとこと",
      "KRko": "{{string value=\"4\"}}에게 한마디",
      "TWzh": "給{{string value=\"4\"}}的一封信",
      "USen": "My style-savvy {{string value=\"NickName\"}},",
      "USes": "Te cuento, {{string value=\"NickName\"}}:",
      "USfr": "{{gender2 m=\"Au\" f=\"À la\"}} toujours chic {{string value=\"NickName\"}},"
    }
  },
  {
    "label": "101",
    "locale": {
      "CNzh": "今天有份礼物要送给你。\n很抱歉不是什么贵重的物品，\n但你如果能收下，我也会很开心。\n只要在你平时的穿搭上\n添上这么一小笔，\n就会瞬间提高你的时尚程度哦。",
      "EUde": "Ich habe dir ein kleines Präsent\nbesorgt – eines, womit sich das\neigene Gesicht schmücken lässt.\nZweifelsohne werden sich dank\ndieser kleinen Gabe alle Blicke \nnur noch auf dein Antlitz richten!",
      "EUen": "I've got a little present for you.\nIt's nothing too extravagant, but I\nthink it's just the thing. Add this\nstylish new eyewear to your regular\nensemble and...voilà! All eyes will\nbe on your new look, darling. Ha!",
      "EUes": "Te envío algo que te cambiará\nla vida, un accesorio con el poder\nde hacerte fabulos{{gender2 m=\"o\" f=\"a\"}}, qué digo,\n¡más fabulos{{gender2 m=\"o\" f=\"a\"}} aún! Pero no me\npreguntes de dónde lo he sacado:\nuna tiene sus secretos, jo, jo...",
      "EUfr": "Vu que les lunettes te vont bien,\nje me suis dit que tu aurais\npeut-être envie d'expérimenter\nun peu ? Pour me faire plaisir...\nHi hi, j'ai l'impression de jouer\nà la poupée.",
      "EUit": "Oggi ho un regalino per te! Forse\nlo troverai un tantino stravagante,\nma ci ho pensato a lungo e credo\nche sia azzeccatissimo per te!\nVedrai, il tuo look guadagnerà\nmille punti!",
      "EUnl": "Ik heb een kleinigheidje voor je!\nZodra ik dit montuur zag, had ik\nhet voor jou op het oog. Met welk\nensemble je het ook combineert,\nje ziet er altijd uitgelezen uit.\nGoed bekeken, nietwaar?",
      "EUru": "Прошу, прими от меня подарок!\nНичего сверхъестественного,\nпросто милый аксессуар. Правда,\nстильный! Теперь ты будешь\nвыглядеть просто волшебно!",
      "JPja": "きょうは　アナタに　プレゼントがあるの。\nたいしたものじゃなくて　わるいけど、\nもらってくれると　うれしいわ。\nふだんの　コーディネートに\nこのアイテムを　チョイたし　するだけで、\nオシャレどが　グッとアップするわよ。",
      "KRko": "오늘은 당신에게 선물을 보낼까 해.\n대단한 건 아니라서 좀 미안하지만\n받아주면 좋겠어.\n평범하게 코디네이트 했어도\n이 아이템을 살짝 얹어주기만 하면\n화려함이 훨씬 더 업될 거야.",
      "TWzh": "我今天有禮物要送給你喔。\n雖然不是什麼貴重的東西，有點不好意思，\n但還是希望你願意收下。\n就算是一般的日常穿搭，\n只要戴上我送的這個禮物，\n你的時髦感也會一口氣上升喔。",
      "USen": "I've got a little present for you.\nIt's nothing too extravagant, but I\nthink it's just the thing. Add this\nstylish new eyewear to your regular\nensemble and...voilà! All eyes will\nbe on your new look, darling. Ha!",
      "USes": "Te envío algo que te cambiará\nla vida, un accesorio con el\npoder de hacerte fabulos{{gender2 m=\"o\" f=\"a\"}},\nqué digo, ¡más fabulos{{gender2 m=\"o\" f=\"a\"}} aún!\nPero no me preguntes de dónde\nsalió, una tiene sus contactos...",
      "USfr": "Vu que les lunettes te vont bien,\nje me suis dit que tu aurais\npeut-être envie d'expérimenter\nun peu? Pour me faire plaisir...\nHi hi, j'ai l'impression de jouer\nà la poupée."
    }
  },
  {
    "label": "102",
    "locale": {
      "CNzh": "要在阴暗的地方工作的话，\n眼睛不好是没法胜任的。\n读书、学习，\n甚至打游戏的时候也是一样。\n在半夜还醒着的时候，\n可以试试看这个哦。",
      "EUde": "Im Dunkeln zu munkeln gehört sich\nnicht für anständige Leute. Deshalb\nhabe ich ein Geschenk für dich\nbesorgt, das deine dunklen\nMachenschaften in ganz neuem\nLicht erscheinen lässt!",
      "EUen": "You know, it's not good for your\neyes to work in the dark. That goes\nfor reading, studying, playing\ngames...all of it! Which is why I got\nyou this! I hope it helps when you\nfind yourself up into the wee hours.",
      "EUes": "Diría que a veces te quedas en vela\nhasta las tantas, ¿me equivoco?\nPues no es bueno estar a oscuras\nmirando pantallas, la vista hay que\ncuidarla. Te mando algo que te\nacompañará en las largas noches.",
      "EUfr": "Je ne t'apprendrai rien en te\ndisant qu'il ne faut pas lire dans\nle noir ? Ça vaut aussi pour la\ntélévision... S'il y a une chose que\nje sais, c'est qu'une piqûre de\nrappel ne peut pas faire de mal.",
      "EUit": "Sai benissimo che leggere o\ngiocare con una luce inadeguata\nnon fa bene alla vista. Per questo\nho deciso di farti questo regalino!\nSpero che ti ricorderà di pensare\nanche un po' a me nelle ore buie.",
      "EUnl": "Het is niet bevorderlijk voor je\nogen om in het donker te werken.\nDat geldt voor lezen, studeren,\nhandwerken... noem maar op!\nMet dit cadeautje heb je hopelijk\naltijd licht in de duisternis, schat.",
      "EUru": "Знаешь, работать в темноте\nвредно для глаз. А также читать,\nучить что-нибудь, играть и т. д.\nТак что мой подарок будет тебе\nкак нельзя кстати! Особенно\nв вечерние часы!",
      "JPja": "くらいところで　さぎょうしてると、\nめによくないと　おもうのよね。\nほんをよんだり、べんきょうしたり、\nゲームをするときだって　おなじよ。\nよるおそくまで　おきてるときは、\nこれをつかうと　いいわ。",
      "KRko": "어두운 곳에서 작업을 하는 건\n정말 눈에 안 좋은 거잖아?\n책을 읽거나 공부를 해도,\n혹은 게임을 해도 마찬가지야.\n밤늦게까지 깨어 있어야 하면\n이걸 쓰도록 해.",
      "TWzh": "我覺得在昏暗的地方做事情，\n對眼睛不太好。\n所以如果你在讀書、學習，\n或者是玩遊戲的時候\n熬夜到很晚的話，\n記得要用我送你的這個唷。",
      "USen": "You know, it's not good for your\neyes to work in the dark. That goes\nfor reading, studying, playing\ngames...all of it! Which is why I got\nyou this! I hope it helps when you\nfind yourself up into the wee hours.",
      "USes": "Diría que a veces sigues despiert{{gender2 m=\"o\" f=\"a\"}}\nhasta muy tarde, ¿no, cielo? Pues\nver pantallas a oscuras no está\nbien, hay que cuidarse la vista.\nTe mando un regalito que te hará\ncompañía en las largas noches.",
      "USfr": "Je ne t'apprendrai rien en te\ndisant qu'il ne faut pas lire dans\nle noir? Ça vaut aussi pour la\ntélévision... S'il y a une chose que\nje sais, c'est qu'une piqûre de\nrappel ne peut pas faire de mal."
    }
  },
  {
    "label": "103",
    "locale": {
      "CNzh": "要治愈一整天的疲劳，\n入浴是必不可少的一环。\n你难道不这么认为吗？\n你平时一直都这么努力，\n今天就把这个送给你了。\n如果喜欢的话，一定要用用看。",
      "EUde": "Reinlichkeit ist gut für Körper und\nSeele. Nicht, dass ich Beschwer-\nden bezüglich deiner Hygiene\nhätte, aber mit diesem Geschenk\nkannst du deine tägliche Toilette\nvielleicht noch mehr genießen.",
      "EUen": "Taking time to wash away the day's\nstress is so rejuvenating, don't you\nthink? And you, my dear, are always\nworking so hard. So, I thought this\nmight help you unwind! I do hope\nyou find it refreshing.",
      "EUes": "El aseo personal es necesario.\n¡También es un pequeño placer\ncotidiano! Yo adoro un buen baño\nrelajante. Espero que esto te\nayude a desconectar al final\nde un largo día. Tú lo mereces.",
      "EUfr": "Si on se lave, ce n'est pas juste\npour être propre... c'est aussi\nparce que ça détend, non ?\nJ'espère que ceci t'incitera à\nprolonger la pause... Tu travailles\nsi dur, {{gender2 m=\"mon chou\" f=\"ma chérie\"}}, tu le mérites !",
      "EUit": "Dovresti fare dei bagni rilassanti\nper distendere i muscoli e lavar via\nlo stress quotidiano! Lavori sempre\ntroppo e ho pensato che questo\nmagnifico regalo potesse aiutarti a\nrinfrescarti e a mantenerti in forma.",
      "EUnl": "In mijn optiek is badderen\nonontbeerlijk, vooral na een drukke\ndag. Omdat jij altijd zo hard werkt,\nleek dit geschenk me dan ook zeer\ngepast voor jou. Hopelijk helpt het\nje te verfrissen en ontspannen!",
      "EUru": "Понежиться в ванне и забыть\nвсе невзгоды — это так здорово!\nТы всегда так много работаешь,\nвот я и подумала, что пора тебя\nнемного побаловать. Надеюсь,\nтебе понравится!",
      "JPja": "いちにちの　つかれをいやすには\nシャワータイムが　かかせないわ。\nあなたも　そうおもわない？\nいつもがんばっている　アナタへ\nきょうは　このアイテムをおくるから、\nきにいったら、つかってちょうだい。",
      "KRko": "하루 동안 쌓인 피로를 푸는 데에는\n샤워 타임을 빼놓을 수가 없지～\n당신도 그렇게 생각 안 해?\n늘 열심히 노력하는 당신을 위해서\n오늘은 이 아이템을 준비했어.\n마음에 들면 한번 써봐～",
      "TWzh": "你不覺得要舒緩一整天的疲憊，\n淋浴的時間是不可或缺的嗎？\n由於你一直以來都很努力，\n所以我今天要送你這個禮物唷！\n如果你喜歡的話，就用用看吧。",
      "USen": "Taking time to wash away the day's\nstress is so rejuvenating, don't you\nthink? And you, my dear, are always\nworking so hard. So, I thought this\nmight help you unwind! I do hope\nyou find it refreshing.",
      "USes": "El aseo personal es necesario.\n¡Y también puede considerarse\nun lujo cotidiano! ¡Yo disfruto\nenormemente un baño relajante!\nEspero que con esto puedas\nrelajarte tú también.",
      "USfr": "Si on se lave, ce n'est pas juste\npour être propre... c'est aussi\nparce que ça détend, non?\nJ'espère que ceci t'incitera à\nprolonger la pause... Tu travailles\nsi dur, {{gender2 m=\"mon chou\" f=\"ma chérie\"}}, tu le mérites!"
    }
  },
  {
    "label": "104",
    "locale": {
      "CNzh": "无论春夏秋冬，\n有一件能披在身上的东西，\n多少也能保护你不感冒。\n就算是在开着空调的房间里，\n有时候还是会觉得冷对吧？\n要是碰上这种时候，你就试试用这个。",
      "EUde": "Die besten Kleider sind doch die,\nwelche man zu jeder Jahreszeit\ntragen kann. Dieses Stück wird\ndich warm halten, aber hoffentlich\nohne dich jemals zum Schwitzen\nzu bringen.",
      "EUen": "Versatile items are the key to any\nwardrobe. And so I've sent you\nthis! It's heavy enough to keep you\nwarm but light enough you won't be\nTOO warm. It'll be useful—and\nstylish—throughout the year!",
      "EUes": "Me he topado por casualidad\ncon una prenda perfecta para ti.\nTe servirá como manga larga,\nque tú tienes los brazos cortos.\nEs muy ponible: en invierno bajo\nel abrigo y también en entretiempo.",
      "EUfr": "J'ai un petit cadeau pour toi. C'est\nquelque chose qui t'accompagnera\ntoute l'année... Qui te tiendra\nchaud... mais pas trop. Je ne suis\npas peu fière de ma trouvaille.\nJ'ai hâte de te voir avec !",
      "EUit": "I capi versatili sono la chiave per\nun guardaroba perfetto, perciò\nquesto regalo ti sarà utilissimo in\nogni stagione, oltre che essere alla\nmoda! Ti terrà caldo, ma allo stesso\ntempo è leggero e non suderai!",
      "EUnl": "De beste garderobes bevatten\nstukken die je in elk seizoen kunt\ndragen. Daarom stuur ik je dit\nveelzijdige kledingstuk, schat. Het\nhoudt je het hele jaar door stijlvol\nwarm, maar is tegelijkertijd luchtig.",
      "EUru": "Всесезонные вещи должны быть\nв каждом гардеробе. Высылаю\nтебе одну из таких! Одна\nодновременно теплая и легкая.\nИдеальный вариант почти\nдля любой погоды!",
      "JPja": "しゅんかしゅうとう　いつだって、\nかるく　はおれるものが　あると\nかぜをひかなくて　いいわよ。\nくうちょうがきいてる　へやでも、\nさむいときが　あるじゃない？\nそんなときは、これを　つかって。",
      "KRko": "봄 여름 가을 겨울 언제든지\n가볍게 걸쳐 입을 만한 게 있으면\n감기 걸릴 일도 없어서 좋지 않니?\n방에 난방을 하더라도\n가끔씩은 추울 때도 있잖아～\n그럴 때는 이걸 쓰도록 해.",
      "TWzh": "如果有一件不論春夏秋冬\n都能輕鬆加上的衣物，\n就不會感冒了喔。\n而且有時候也會覺得\n房間的冷氣太冷對吧？\n這種時候，就穿上我送你的禮物吧。",
      "USen": "Versatile items are the key to any\nwardrobe. And so I've sent you\nthis! It's heavy enough to keep you\nwarm but light enough you won't be\nTOO warm. It'll be useful—and\nstylish—throughout the year!",
      "USes": "Encontré por casualidad una\nprenda que es perfecta para ti.\nEs bastante versátil. ¡Espero\nque te guste!",
      "USfr": "J'ai un petit cadeau pour toi. C'est\nquelque chose qui t'accompagnera\ntoute l'année... Qui te tiendra\nchaud... mais pas trop. Je ne suis\npas peu fière de ma trouvaille.\nJ'ai hâte de te voir avec!"
    }
  },
  {
    "label": "105",
    "locale": {
      "CNzh": "光是在房间里多上一抹绿色，\n我觉得心灵就能平静不少。\n因为也想让你试试这种感觉，\n所以这次就送你这个吧。\n等你有想法了，再把它摆起来也行。\n你一定会感受到它的效果。",
      "EUde": "Das beste Mittel gegen Stress\nist kein Medikament, sondern\neine Pflanze als Zimmergenossin.\nFalls du je die Last des Seins\nspürst, lass dich von ihrem Grün\nauffangen.",
      "EUen": "Having a little greenery in your\nhome can do wonders, don't you\nthink? I've found that plants are\nexcellent stress relievers. Which is\nwhy I sent this to you! I just know\nyou'll feel the results right away!",
      "EUes": "La casa es un espacio vivo,\n¿y qué mejor que una planta\npara darle savia? ¡Literalmente!\nA mí me relaja regarlas, sobre todo\nporque me estresa que se sequen.\nCuídala bien, ¿vale? Sin estresarte.",
      "EUfr": "J'ai tellement entendu parler des\nplantes detoxifiantes que j'ai fini\npar craquer. Mais je n'ai plus de\nplace chez moi, alors... surprise !\nÇa doit aussi marcher contre les\nmauvaises odeurs ? Tu me diras !",
      "EUit": "Tenere delle piante in casa può\nfare miracoli. Hanno un potente\neffetto rilassante ed è per questo\nmotivo che te ne mando una! So\nper certo che ti accorgerai ben\npresto dei risultati!",
      "EUnl": "Een vleugje groen in huis doet elk\ninterieur goed, vind je ook niet?\nPlanten zorgen voor een prettige,\nontspannen sfeer. Geef deze maar\neen fijn plekje, schat, en laat het\nweldadige effect op je inwerken!",
      "EUru": "Живые растения творят чудеса!\nЯ давно поняла, что для снятия\nстресса нет ничего лучше, чем\nзавести дома пару горшочков!\nТак что мой подарок классный!\nТы сразу это почувствуешь!",
      "JPja": "へやに　みどりがあるだけで、\nココロに　よゆうがでる　きがするの。\nアナタにも　ためしてほしいから、\nきょうは　これを　おくるわ。\nきがむいたら　かざってちょうだい。\nきっと、こうかを　じっかんするわよ。",
      "KRko": "방에다 초록색을 두기만 해도\n마음에 여유가 생기지 않니?\n당신도 한번 시도해봤으면 해서\n오늘은 그런 종류를 준비했어.\n마음에 들면 방에다 장식해봐.\n분명 당신도 효과를 실감하게 될걸?",
      "TWzh": "只要在房間裡點綴上一點綠意，\n就會覺得心情也跟著放鬆了呢。\n我也想讓你體驗一下這種感覺，\n所以今天就送了你這個禮物。\n你可以擺在房間試試看，\n一定也能感受到抒壓的效果喔。",
      "USen": "Having a little greenery in your\nhome can do wonders, don't you\nthink? I've found that plants are\nexcellent stress relievers. Which is\nwhy I sent this to you! I just know\nyou'll feel the results right away!",
      "USes": "La casa es un espacio vivo,\n¿y qué mejor que una planta?\nA mí me relaja mucho regarlas,\nsobre todo porque me estresa\nque se sequen. Cuídala bien,\ncariño. Sin estresarte...",
      "USfr": "J'ai tellement entendu parler des\nplantes détoxifiantes que j'ai fini\npar craquer. Mais je n'ai plus de\nplace chez moi, alors... surprise!\nÇa doit aussi marcher contre les\nmauvaises odeurs? Tu me diras!"
    }
  },
  {
    "label": "106",
    "locale": {
      "CNzh": "我对洗浴用品毫无抵抗力的。\n前段时间出去购物的时候\n偶然发现了这个，\n一时冲动就买了回来。\n但我已经有一件同款的了……\n如果你不嫌弃的话，要不要用用看？",
      "EUde": "Wusstest du, dass ich ein Faible\nfür Badezimmer habe? Es ist derart\nschlimm, dass ich jetzt zweimal den\ngleichen Artikel erworben habe.\nUnd von meinem Badefimmel\nprofitierst jetzt – du!",
      "EUen": "You know how I have a weakness\nfor bath items? Well, I went\nshopping a bit ago, and when I saw\nthis I HAD to buy it. Alas, it seems\nI thought the same thing last time I\nsaw it. Well, it's yours now, darling!",
      "EUes": "Ya sabes que me gusta pasar el día\nde vez en cuando en el balneario,\npero una también se puede montar\nel balneario en casa, ¿no crees?\n¿Qué te parece esto que te envío?\n¡A mí me da la vida!",
      "EUfr": "Tu me connais, dès que je vois\nquelque chose qui a un vague\nrapport avec la salle de bain, je\ncraque ! Tu voudras bien adopter\nmon dernier achat ? J'en ai déjà\ntrois à la maison...",
      "EUit": "Io ho un debole per i prodotti da\nbagno! Quando ne vedo uno, devo\nassolutamente comprarlo e così...\nTi andrebbe di trovare un posticino\nper il mio ultimo acquisto? Io ne ho\ngià tre esemplari a casa...",
      "EUnl": "Misschien weet je dat ik een zwak\nheb voor badproducten? Welnu,\nonlangs zag ik iets dat ik absoluut\nmóést hebben. Alleen bleek bij\nthuiskomst dat ik het eerder ook al\nhad gekocht. Dus alsjeblieft, schat!",
      "EUru": "Ты знаешь, как я люблю нежиться\nв ванне. Я тут увидела такую\nвещь, которую просто не могла\nне купить! Правда, я неделю\nназад ее уже покупала... Поэтому\nрешила ее тебе подарить!",
      "JPja": "アタシ、バスグッズに　めがないのよ。\nこのまえ　かいものに　でかけたら、\nたまたま　これをみつけて\nしょうどうがい　しちゃったのよね。\nでも、おなじものを　もう　もってたの。\nアナタ、よかったら　つかってくれない？",
      "KRko": "난 목욕용품이라면 사족을 못 써～\n저번에 쇼핑을 하러 나갔다가\n우연히 이걸 발견했는데\n결국 충동구매를 해버렸지 뭐니?\n근데 같은 걸 이미 갖고 있더라구.\n괜찮으면 당신이 써주겠어?",
      "TWzh": "說起來，我很喜歡沐浴用品呢。\n之前我去買東西的時候剛好看到這個，\n一時衝動就買下來了。\n但我已經有一個一樣的了，\n不介意的話，這個就送給你吧？\n你願意試著用用看嗎？",
      "USen": "You know how I have a weakness\nfor bath items? Well, I went\nshopping a bit ago, and when I saw\nthis I HAD to buy it. Alas, it seems\nI thought the same thing last time I\nsaw it. Well, it's yours now, darling!",
      "USes": "Ya sabes que me gusta pasar el día\nde vez en cuando en el spa, pero\nuna también puede hacer su propio\nspa en casa... A ver qué te parece\nesto que te envío... ¡A mí estos\ndetalles me fascinan!",
      "USfr": "Tu me connais, dès que je vois\nquelque chose qui a un vague\nrapport avec la salle de bain, je\ncraque! Tu voudras bien adopter\nmon dernier achat? J'en ai déjà\ntrois à la maison..."
    }
  },
  {
    "label": "107",
    "locale": {
      "CNzh": "我一直在寻找\n这块地毯的新主人。\n然后呢，我终于决定了……\n恭喜你成为它的新主人！\n这可真是命运的安排啊！\n你就收下吧。",
      "EUde": "Ich habe lange nach einem neuen\nBesitzer für diesen Boden gesucht,\nund heute habe ich mich für dich\nentschieden. Herzlichen Glück-\nwunsch. Du darfst mir natürlich\ngerne danken.",
      "EUen": "I've been searching for a new\nowner for this flooring for so long.\nBut no more! The new owner is...\nYOU! Congratulations! This must be\ndestiny, mustn't it? Your floors\nwere destined to look fabulous!",
      "EUes": "He estado pensando a quién\nregalar este suelo... ¡y te\nha tocado a ti, cielo! Sé que\nalguien con tan buen gusto\ncomo tú sabrá darle el uso\nque se merece.",
      "EUfr": "J'ai cherché un{{gender2 m=\"\" f=\"e\"}} nouve{{gender2 m=\"au\" f=\"lle\"}} {{gender2 m=\"papa\" f=\"maman\"}} à\nce sol pendant si longtemps... et\nje l'ai enfin trouvé{{gender2 m=\"\" f=\"e\"}}, ce sera toi !\nInutile de lutter, c'est le destin\nqui vous a réunis. Et encore\nfélicitations !",
      "EUit": "È da tempo che cerco un nuovo\nproprietario per questo pavimento.\nMa la ricerca è finita: sei tu!\nCongratulazioni! So che qualcuno\ncon tanto buon gusto come te\nsaprà usarlo come si deve.",
      "EUnl": "Ik zocht al een eeuwigheid naar\neen nieuwe eigenaar voor deze\nvloer. Mijn zoektocht is nu voorbij!\nDe nieuwe eigenaar... ben jij! Van\nharte! Het heeft ongetwijfeld zo\nmoeten zijn, dus geniet ervan!",
      "EUru": "Я так давно ищу, куда пристроить\nэтот пол! И вот наконец поиски\nокончены. Нов{{gender2 m=\"ый\" f=\"ая\"}} владел{{gender2 m=\"ец\" f=\"ица\"}} —\nэто ты! Поздравляю! Это судьба,\nты так не считаешь? Принимай\nбез раздумий!",
      "JPja": "アタシ　このじゅうたんの　あらたな\nもちぬしを　ずっと　さがしていたの。\nそれでね　つぎのもちぬしは・・・\nおめでとう、アナタに　けっていしたわ！\nこれはもう　うんめいね！\nあきらめて　うけとってちょうだい。",
      "KRko": "나는 줄곧 이 물건의\n새로운 주인을 찾고 있었어.\n그 새 주인이 누구냐면…\n축하해, 바로 당신이야!\n이건 운명이 틀림없어!\n그러니까 단념하고 순순히 받아줘.",
      "TWzh": "我一直都在尋找著\n這條毛毯的新主人。\n而下一位主人……\n恭喜，就決定是你囉！\n這已經可以說是命中注定了！\n你就放棄掙扎收下它吧。",
      "USen": "I've been searching for a new\nowner for this flooring for so long.\nBut no more! The new owner is...\nYOU! Congratulations! This must be\ndestiny, mustn't it? Your floors\nwere destined to look fabulous!",
      "USes": "Estuve pensando a quién regalarle\neste suelo... ¡y te tocó a ti, cielo!\nSé que alguien con tan buen gusto\ncomo tú sabrá darle el uso que\ncorresponde.",
      "USfr": "J'ai cherché un{{gender2 m=\"\" f=\"e\"}} nouve{{gender2 m=\"au\" f=\"lle\"}} {{gender2 m=\"papa\" f=\"maman\"}} à\nce sol pendant si longtemps... et\nje l'ai enfin trouvé{{gender2 m=\"\" f=\"e\"}}, ce sera toi!\nInutile de lutter, c'est le destin\nqui vous a réunis. Et encore\nfélicitations!"
    }
  },
  {
    "label": "108",
    "locale": {
      "CNzh": "我忽然有些担心，\n你的睡眠质量好吗？\n要想消除疲劳，\n睡眠是非常重要的。\n我准备了很好用的安眠产品！\n请试试看吧。",
      "EUde": "Ich mache mir Sorgen um deinen\nSchönheitsschlaf. Der ist\nschließlich wichtig für den Teint.\nDeswegen erhältst du hier ein Ge-\nschenk für viele Schlummerzeiten.\nDeine Haut wird es dir danken.",
      "EUen": "I got worried all of a sudden about\nwhether you were sleeping well.\nWhen it comes to looking our best,\nsleep is terribly important. Soooo,\nI'm sending you a REM-friendly\ndeep-sleep prezzie!",
      "EUes": "¿Descansas bien, amor? No solo\nes importante dormir tus horas,\ntambién lo es llevar el atuendo \napropiado. Creo que esto que te\nmando te ayudará a relajarte y a\ndormir como un bebé.",
      "EUfr": "Je me suis soudain inquiétée de la\nqualité de ton sommeil. Comme tu\nle sais, il n'y a pas de bonne mine\nsans un bon dodo, alors je te\nprésente le nouveau meilleur\nami de tes siestes, ci-joint !",
      "EUit": "Tutto d'un tratto mi sono chiesta\nse dormissi bene. Quando si tratta\ndi bellezza, il sonno è davvero\nfondamentale. Quindi, ti invio un\nregalo che ti fa dormire benissimo\ne ti assicura una fase REM sana.",
      "EUnl": "Ineens maakte ik me zorgen of je\nwel genoeg nachtrust kreeg. En\ngeloof me, een schoonheidsslaapje\nis voor iedereen onontbeerlijk.\nDus bij dezen, een REM-vriendelijk,\nslaap bevorderend presentje!",
      "EUru": "Я что-то беспокоюсь, хорошо ли\nты спишь. Ведь сон очень влияет\nна внешний вид. Этот подарок\nразработан с учетом фаз сна,\nотдыхай на здоровье!",
      "JPja": "アナタが　ちゃんとねむれてるか\nきゅうに　しんぱいに　なっちゃったの。\nつかれをとるのに　すいみんって\nすごく　だいじなんだから、\nオススメ　かいみんグッズを　おくるわね！\nためしてみてちょうだい。",
      "KRko": "당신이 잠은 잘 자고 있는지\n갑자기 걱정이 되지 않겠어?\n피로 회복에는 수면이 정말 중요하니까\n내가 애용하는 쾌면 아이템을 선물할게!\n시험 삼아 사용해줘.",
      "TWzh": "我突然開始擔心起你的睡眠品質了。\n充足的睡眠對回復疲勞來說\n是非常重要的喔。\n我送了我很推薦的助眠用品喔！\n試著用用看吧。",
      "USen": "I got worried all of a sudden about\nwhether you were sleeping well.\nWhen it comes to looking our best,\nsleep is terribly important. Soooo,\nI'm sending you a REM-friendly\ndeep-sleep prezzie!",
      "USes": "¿Descansas bien, cielín? No solo\nes importante dormir lo suficiente,\ntambién hay que hacerlo con el\natuendo apropiado. Creo que esto\nque te mando te ayudará a relajarte\ny a dormir como un bebé.",
      "USfr": "Je me suis soudain inquiétée de la\nqualité de ton sommeil. Comme tu\nle sais, tout le monde a besoin\nd'un bon sommeil réparateur, alors \nje te présente le nouveau meilleur\nami de tes siestes, ci-joint!"
    }
  },
  {
    "label": "109",
    "locale": {
      "CNzh": "长期的岛屿生活，\n是不是让你渐渐失去了度假感。\n但海边的悠闲时光，\n在这里还是有的哦。\n为了让你回想起那些时光，\n我特意为你准备了这个。",
      "EUde": "Wenn das Inselleben erst mal zum\nAlltag wird, vergessen wir oft das\nUrlaubsgefühl des Anfangs. Doch\nmit einem Aufenthalt am Strand\nlassen wir es wieder aufleben.\nHier ist ein passendes Präsent.",
      "EUen": "As island life becomes normal life,\nwe lose that vacation-in-paradise\nfeeling. But spending time at the\nbeach will help you remember it!\nI hope this gift encourages you\nto stick your toes in the sand.",
      "EUes": "En esta isla podemos disfrutar\nde playa todos los días del año.\n¡Somos unos privilegiados! No sé\nsi tú le estás sacando partido, pero\ncon esto que te mando, ¡seguro\nque sí!",
      "EUfr": "À force de vivre sur une île, on en\noublie la chance qu'on a d'habiter\nun coin de paradis... Le meilleur\nremède ? Un après-midi à la plage !\nJ'espère que ce cadeau te donnera\nenvie de te dorer la pilule !",
      "EUit": "Vivere su un'isola ti fa dimenticare\ndi essere in un posto da vacanza\nparadisiaca. Ma ti basterà andare\nin spiaggia per ricordartelo! Spero\nche questo regalo ti spinga a\nmettere le zampe a mollo.",
      "EUnl": "Zodra het eilandleven het gewone\nleven wordt, verliezen we dat\nparadijs-op-aarde-gevoel uit het\noog. De enige remedie is een dagje\naan het strand. Hopelijk moedigt\ndit cadeau je daartoe aan!",
      "EUru": "Жизнь на острове становится все\nкомфортнее, но она уже не\nпохожа на отпуск в райском\nуголке. Поэтому нужно как можно\nчаще ходить на пляж. Надеюсь,\nмой подарок тебе в этом поможет.",
      "JPja": "しまぐらしが　まいにち　つづくと\nバカンスきぶんも　うすれちゃうわね。\nでも　うみべで　のんびりとすごす\nゆっくりとしたじかんが　ここにはあるの。\nアナタにも　おもいだしてもらいたいから\nこういうものを　おくってみるわね。",
      "KRko": "섬 생활이 계속되니\n바캉스 기분도 무뎌지는 것 같네.\n하지만 여기서는 해변에서\n마음 편히 쉬어갈 여유가 있어.\n당신도 그 기분을 함께 느껴주길\n바라는 마음으로 이걸 선물할게.",
      "TWzh": "隨著在島上生活的日子一天天過去，\n度假的氣氛也開始漸漸消失了呢。\n然而在海邊悠閒度日的愜意時光，\n是不會就這樣消失的。\n我想讓你也回憶起那段時光，\n所以就試著將這個送給你。",
      "USen": "As island life becomes normal life,\nwe lose that vacation-in-paradise\nfeeling. But spending time at the\nbeach will help you remember it!\nI hope this gift encourages you\nto stick your toes in the sand.",
      "USes": "En esta isla podemos disfrutar de\nla playa todos los días del año.\n¡Somos unos privilegiados! No sé\nsi tú le estás sacando provecho,\npero con esto que te mando,\n¡seguro que sí!",
      "USfr": "À force de vivre sur une île, on en\noublie la chance qu'on a d'habiter\nun coin de paradis... Le meilleur\nremède? Un après-midi à la plage!\nJ'espère que ce cadeau te donnera\nenvie de te bronzer!"
    }
  },
  {
    "label": "110",
    "locale": {
      "CNzh": "就算是不被看到的地方，\n也需要注重时尚感！\n我用不到这个，\n但我觉得你应该会需要它吧。\n就算无法给他人欣赏，\n你也一定要试试看哦。",
      "EUde": "Als wahre Modeikone muss man\nauch scheinbar nebensächlichen\nDetails Beachtung schenken. Ich\nüberreiche dir eine Kleinigkeit, die\noft im Hintergrund steht – aber\ndu weißt, dass sie stets da ist!",
      "EUen": "To be truly fashionable, one must\nthink of the less-obvious and even\nunseen details. I've sent you a little\nsomething few will see, but you will\nknow to be there. Wear them\nwith pride!",
      "EUes": "Quien viste bien sabe cuidar\nde todos los detalles. Como los\ncalcetines. No se ven mucho, pero\ntambién forman parte del conjunto.\nA ver con qué combinas tú esto\nque te mando.",
      "EUfr": "Pour être au summum du chic, il\nne faut négliger aucun détail, pas\nmême les plus discrets. Voilà\npourquoi le mini-cadeau que je\nt'envoie mérite une maxi-place\ndans ton dressing !",
      "EUit": "Per essere veramente alla moda,\nbisogna pensare anche alle cose\nmeno ovvie come i calzini. Non si\nnotano molto, ma sono sempre\nparte dell'insieme. Spero vorrai\nsfoggiarli con orgoglio!",
      "EUnl": "Om werkelijk stijlvol te zijn moet je\naan de miniemste details denken.\nDaarom stuur ik je dit kleinigheidje.\nDraag het met trots! Zichtbaar of\nniet, dat maakt niets uit!",
      "EUru": "Следить за модой — значит\nобращать внимание даже на\nмельчайшие детали, такие как\nноски. Они почти незаметны, но\nот этого не менее важны. Носи\nих с гордостью!",
      "JPja": "みえないところでも　オシャレして\nきをぬかないように　しなくちゃダメよ。\nアタシ　こういうのは　はかないんだけど\nアナタには　ひつようだとおもうの。\nほかのひとから　みえなくっても　いいから\nとにかく　つかってみてちょうだい。",
      "KRko": "남들 눈에 보이지 않는 곳까지\n신경 써야 진정한 멋쟁이 아니겠니?\n나는 이런 거 안 신지만\n당신에겐 필요할 것 같더라구.\n아무도 몰라주더라도\n일단 한번 신어봐.",
      "TWzh": "就算是平常看不到的地方，\n不好好注意穿著打扮是不行的喔。\n雖然我平時不穿這個，\n但我覺得這對你來說是必要的。\n就算別人看不到也沒關係，\n總之先試著穿上看看吧。",
      "USen": "To be truly fashionable, one must\nthink of the less-obvious and even\nunseen details. I've sent you a little\nsomething few will see, but you will\nknow to be there. Wear them\nwith pride!",
      "USes": "Para vestirse bien hay que saber\ncuidar todos los detalles. Como los\ncalcetines. No se ven mucho, pero\ntambién forman parte del conjunto.\nA ver con qué combinas esto\nque te mando.",
      "USfr": "Pour être au summum du chic, il\nne faut négliger aucun détail, pas\nmême les plus discrets. Voilà\npourquoi le cadeau que je\nt'envoie mérite une place \nd'honneur dans ton garde-robe!"
    }
  },
  {
    "label": "201",
    "locale": {
      "CNzh": "一定要试一试！{{string value=\"VillagerName\"}}",
      "EUde": "Heute mal albern: {{string value=\"VillagerName\"}}",
      "EUen": "Your fashion maven, {{string value=\"VillagerName\"}}",
      "EUes": "Pensando en ti, {{string value=\"VillagerName\"}}",
      "EUfr": "Tu me remercieras, {{string value=\"VillagerName\"}}",
      "EUit": "Tua guru modaiola, {{string value=\"VillagerName\"}}",
      "EUnl": "Je mode-expert, {{string value=\"VillagerName\"}}!",
      "EUru": "Гуру моды {{string value=\"VillagerName\"}}",
      "JPja": "つかってみて、{{string value=\"VillagerName\"}}",
      "KRko": "한번 써봐, {{string value=\"VillagerName\"}}",
      "TWzh": "記得戴戴看喔，{{string value=\"VillagerName\"}}",
      "USen": "Your fashion maven, {{string value=\"VillagerName\"}}",
      "USes": "¡Que lo disfrutes! {{string value=\"VillagerName\"}}",
      "USfr": "Tu me remercieras, {{string value=\"VillagerName\"}}"
    }
  },
  {
    "label": "202",
    "locale": {
      "CNzh": "但千万不要熬夜哦。{{string value=\"VillagerName\"}}",
      "EUde": "Deine Lichtgestalt {{string value=\"VillagerName\"}}",
      "EUen": "Or just go to bed! –{{string value=\"VillagerName\"}}",
      "EUes": "¡O vete a la cama! {{string value=\"VillagerName\"}}",
      "EUfr": "Tu me remercieras, {{string value=\"VillagerName\"}}",
      "EUit": "E vai a letto presto! {{string value=\"VillagerName\"}}",
      "EUnl": "Je stralende {{string value=\"VillagerName\"}}",
      "EUru": "А лучше иди спать! {{string value=\"VillagerName\"}}",
      "JPja": "でも　よふかしはダメよ、{{string value=\"VillagerName\"}}",
      "KRko": "그래도 밤은 새지 마, {{string value=\"VillagerName\"}}",
      "TWzh": "但熬夜是不好的喔，{{string value=\"VillagerName\"}}",
      "USen": "Or just go to bed! –{{string value=\"VillagerName\"}}",
      "USes": "¡No te desveles! {{string value=\"VillagerName\"}}",
      "USfr": "Tu me remercieras, {{string value=\"VillagerName\"}}"
    }
  },
  {
    "label": "203",
    "locale": {
      "CNzh": "不用和我客套了。{{string value=\"VillagerName\"}}",
      "EUde": "Bleib sauber! –{{string value=\"VillagerName\"}}",
      "EUen": "Enjoy! –{{string value=\"VillagerName\"}}",
      "EUes": "¡Disfruta! {{string value=\"VillagerName\"}}",
      "EUfr": "Bonne détente, {{string value=\"VillagerName\"}}",
      "EUit": "Buon bagno! {{string value=\"VillagerName\"}}",
      "EUnl": "Geniet ervan! {{string value=\"VillagerName\"}}",
      "EUru": "Наслаждайся! {{string value=\"VillagerName\"}}",
      "JPja": "エンリョは　いらないわよ、{{string value=\"VillagerName\"}}",
      "KRko": "사양할 필요 없어, {{string value=\"VillagerName\"}}",
      "TWzh": "不要客氣喔，{{string value=\"VillagerName\"}}",
      "USen": "Enjoy! –{{string value=\"VillagerName\"}}",
      "USes": "Tu amiga {{string value=\"VillagerName\"}}",
      "USfr": "Bonne détente, {{string value=\"VillagerName\"}}"
    }
  },
  {
    "label": "204",
    "locale": {
      "CNzh": "来自{{string value=\"VillagerName\"}}的健康小贴士",
      "EUde": "Modische Grüße, {{string value=\"VillagerName\"}}",
      "EUen": "Stay warm. –{{string value=\"VillagerName\"}}",
      "EUes": "Ojalá te guste. {{string value=\"VillagerName\"}}",
      "EUfr": "Je t'embrasse, {{string value=\"VillagerName\"}}",
      "EUit": "Stai al calduccio, {{string value=\"VillagerName\"}}",
      "EUnl": "{{string value=\"VillagerName\"}}, in opperst comfort",
      "EUru": "Обнимаю! {{string value=\"VillagerName\"}}",
      "JPja": "けんこうアドバイザー　{{string value=\"VillagerName\"}}より",
      "KRko": "건강 어드바이저 {{string value=\"VillagerName\"}}{{gender5 m=\"이\" f=\"가\"}}",
      "TWzh": "你的健康顧問{{string value=\"VillagerName\"}}　筆",
      "USen": "Stay warm. –{{string value=\"VillagerName\"}}",
      "USes": "¡Espero te guste! {{string value=\"VillagerName\"}}",
      "USfr": "Je t'embrasse, {{string value=\"VillagerName\"}}"
    }
  },
  {
    "label": "205",
    "locale": {
      "CNzh": "应该没错吧！{{string value=\"VillagerName\"}}",
      "EUde": "Deine weise {{string value=\"VillagerName\"}}",
      "EUen": "Thinking of you, {{string value=\"VillagerName\"}}",
      "EUes": "Con cariño, de {{string value=\"VillagerName\"}}",
      "EUfr": "Ton amie, {{string value=\"VillagerName\"}}",
      "EUit": "Ti penso, {{string value=\"VillagerName\"}}",
      "EUnl": "{{string value=\"VillagerName\"}}, oase van rust",
      "EUru": "Целую! {{string value=\"VillagerName\"}}",
      "JPja": "なんてね、{{string value=\"VillagerName\"}}",
      "KRko": "그렇다니까～ {{string value=\"VillagerName\"}}",
      "TWzh": "我說笑的，{{string value=\"VillagerName\"}}",
      "USen": "Thinking of you, {{string value=\"VillagerName\"}}",
      "USes": "Con cariño, de {{string value=\"VillagerName\"}}",
      "USfr": "Ton amie, {{string value=\"VillagerName\"}}"
    }
  },
  {
    "label": "206",
    "locale": {
      "CNzh": "总出小差错的{{string value=\"VillagerName\"}}",
      "EUde": "Großzügigst, {{string value=\"VillagerName\"}}",
      "EUen": "Seeing double, {{string value=\"VillagerName\"}}",
      "EUes": "Relajadísima, {{string value=\"VillagerName\"}}",
      "EUfr": "En te remerciant, {{string value=\"VillagerName\"}}",
      "EUit": "Meglio abbondare... {{string value=\"VillagerName\"}}",
      "EUnl": "Van je malle {{string value=\"VillagerName\"}}!",
      "EUru": "До скорого! {{string value=\"VillagerName\"}}",
      "JPja": "あわてんぼうの　{{string value=\"VillagerName\"}}より",
      "KRko": "덤벙이 {{string value=\"VillagerName\"}}{{gender6 m=\"으로부터\" f=\"로부터\"}}",
      "TWzh": "有點衝動的{{string value=\"VillagerName\"}}　筆",
      "USen": "Seeing double, {{string value=\"VillagerName\"}}",
      "USes": "Relajadísima, {{string value=\"VillagerName\"}}",
      "USfr": "En te remerciant, {{string value=\"VillagerName\"}}"
    }
  },
  {
    "label": "207",
    "locale": {
      "CNzh": "请好好珍惜它哦！{{string value=\"VillagerName\"}}",
      "EUde": "Behandle ihn gut, {{string value=\"VillagerName\"}}",
      "EUen": "Take care of it, {{string value=\"VillagerName\"}}",
      "EUes": "¡Cuídala bien! {{string value=\"VillagerName\"}}",
      "EUfr": "Prends-en soin, {{string value=\"VillagerName\"}}",
      "EUit": "Prenditene cura, {{string value=\"VillagerName\"}}",
      "EUnl": "Zorg er goed voor! {{string value=\"VillagerName\"}}",
      "EUru": "Береги его! {{string value=\"VillagerName\"}}",
      "JPja": "だいじにしてね　{{string value=\"VillagerName\"}}",
      "KRko": "소중히 사용해줘, {{string value=\"VillagerName\"}}",
      "TWzh": "要好好珍惜喔。{{string value=\"VillagerName\"}}　筆",
      "USen": "Take care of it, {{string value=\"VillagerName\"}}",
      "USes": "¡Cuídalo bien! {{string value=\"VillagerName\"}}",
      "USfr": "Prends-en soin, {{string value=\"VillagerName\"}}"
    }
  },
  {
    "label": "208",
    "locale": {
      "CNzh": "来自睡得很好的{{string value=\"VillagerName\"}}",
      "EUde": "Süße Träume, {{string value=\"VillagerName\"}}",
      "EUen": "Sweet dreams, {{string value=\"VillagerName\"}}",
      "EUes": "¡Dulces sueños! {{string value=\"VillagerName\"}}",
      "EUfr": "Bonne nuit, {{string value=\"VillagerName\"}}",
      "EUit": "Dolci sogni, {{string value=\"VillagerName\"}}",
      "EUnl": "Slaap zacht, {{string value=\"VillagerName\"}}",
      "EUru": "Сладких снов! {{string value=\"VillagerName\"}}",
      "JPja": "ねむれる　{{string value=\"VillagerName\"}}より",
      "KRko": "좋은 꿈 꾸길, {{string value=\"VillagerName\"}}{{gender6 m=\"으로부터\" f=\"로부터\"}}",
      "TWzh": "夜夜好眠的{{string value=\"VillagerName\"}}　筆",
      "USen": "Sweet dreams, {{string value=\"VillagerName\"}}",
      "USes": "¡Dulces sueños! {{string value=\"VillagerName\"}}",
      "USfr": "Bonne nuit, {{string value=\"VillagerName\"}}"
    }
  },
  {
    "label": "209",
    "locale": {
      "CNzh": "每天都是假期。{{string value=\"VillagerName\"}}",
      "EUde": "Genieße es, {{string value=\"VillagerName\"}}",
      "EUen": "Enjoy the vacay, {{string value=\"VillagerName\"}}",
      "EUes": "Tumbada en la playa, {{string value=\"VillagerName\"}}",
      "EUfr": "Bon farniente, {{string value=\"VillagerName\"}}",
      "EUit": "Goditi la vacanza, {{string value=\"VillagerName\"}}",
      "EUnl": "Hou dat gevoel vast! {{string value=\"VillagerName\"}}",
      "EUru": "С пляжным приветом! {{string value=\"VillagerName\"}}",
      "JPja": "まいにちがバカンス　{{string value=\"VillagerName\"}}",
      "KRko": "매일이 바캉스, {{string value=\"VillagerName\"}}",
      "TWzh": "天天都是度假天。{{string value=\"VillagerName\"}}　筆",
      "USen": "Enjoy the vacay, {{string value=\"VillagerName\"}}",
      "USes": "Relajada en la playa, {{string value=\"VillagerName\"}}",
      "USfr": "Bonnes vacances, {{string value=\"VillagerName\"}}"
    }
  },
  {
    "label": "210",
    "locale": {
      "CNzh": "很注重时尚的{{string value=\"VillagerName\"}}",
      "EUde": "Stylische Grüße, {{string value=\"VillagerName\"}}",
      "EUen": "Stylishly yours, {{string value=\"VillagerName\"}}",
      "EUes": "Siempre estilosa, {{string value=\"VillagerName\"}}",
      "EUfr": "{{string value=\"VillagerName\"}}, toujours chic aussi",
      "EUit": "Tua con stile, {{string value=\"VillagerName\"}}",
      "EUnl": "Mode-expert, {{string value=\"VillagerName\"}}",
      "EUru": "Стиль превыше всего! {{string value=\"VillagerName\"}}",
      "JPja": "オシャレにうるさい　{{string value=\"VillagerName\"}}",
      "KRko": "꾸미는 데 철학이 있는 {{string value=\"VillagerName\"}}",
      "TWzh": "注重時尚的{{string value=\"VillagerName\"}}　筆",
      "USen": "Stylishly yours, {{string value=\"VillagerName\"}}",
      "USes": "Siempre con estilo, {{string value=\"VillagerName\"}}",
      "USfr": "{{string value=\"VillagerName\"}}, toujours aussi chic"
    }
  }
]