﻿[
  {
    "label": "001",
    "attribute": "0x0000000000000000",
    "text": "{{anim id=\"Angry\" target=\"actor\" targetSpec=\"\"}}你也太过分了！{{delay40}}\n{{anim id=\"Silent\" target=\"actor\" targetSpec=\"\"}}我们说好一起玩的，{{delay20}}你肯定忘记了吧？！{{pageBreak}}{{anim id=\"OhGeez\" target=\"actor\" targetSpec=\"\"}}我可一直在家里等着{{delay20}}\n{{string value=\"4\"}}来做客呀！{{string value=\"6\"}}。"
  },
  {
    "label": "002",
    "attribute": "0x0000000000000000",
    "text": "{{anim id=\"Restless\" target=\"actor\" targetSpec=\"\"}}还记得之前和你约好，{{delay20}}\n说要请你来我家里做客吗？{{delay20}}\n{{anim id=\"Worried\" target=\"actor\" targetSpec=\"\"}}其实我正好遇上了些急事……{{pageBreak}}{{anim id=\"ShyBoy\" target=\"actor\" targetSpec=\"\"}}真的非常抱歉！{{delay frames=\"40\"}}\n{{anim id=\"EmotEnd\" target=\"actor\" targetSpec=\"\"}}希望下次{{delay20}}你还愿意\n{{anim id=\"FaintSmile\" target=\"actor\" targetSpec=\"\"}}再来我家里玩！{{string value=\"6\"}}。"
  },
  {
    "label": "003",
    "attribute": "0x0000000000000000",
    "text": "{{anim id=\"Restless\" target=\"actor\" targetSpec=\"\"}}我一直在想，{{delay8}}\n下次见到{{string value=\"4\"}}的时候，{{delay20}}\n一定得好好和你道歉{{string value=\"...\"}}{{pageBreak}}{{anim id=\"Serious\" target=\"actor\" targetSpec=\"\"}}之前把你请来家里，{{delay20}}\n{{anim id=\"Negative\" target=\"actor\" targetSpec=\"\"}}但是我当时又不在家对不对？{{i10_4}}\n{{anim id=\"Worried\" target=\"actor\" targetSpec=\"\"}}真的非常抱歉。{{pageBreak}}{{anim id=\"Serious\" target=\"actor\" targetSpec=\"\"}}如果你不介意的话，{{delay20}}\n{{anim id=\"EmotEnd\" target=\"actor\" targetSpec=\"\"}}希望你能{{anim id=\"FaintSmile\" target=\"actor\" targetSpec=\"\"}}再来我家做客哦？{{string value=\"6\"}}。"
  }
]