﻿[
  {
    "label": "001",
    "attribute": "0x0000000000000000",
    "text": "{{anim id=\"FaintSmile\" target=\"actor\" targetSpec=\"\"}}哎呀，{{delay8}}你好。{{delay20}}\n我是{{string value=\"VillagerName\"}}，{{delay20}}{{anim id=\"Hello\" target=\"actor\" targetSpec=\"\"}}请多指教哦。{{pageBreak}}{{anim id=\"QuestionMark\" target=\"actor\" targetSpec=\"\"}}你已经听{{selection value=\"SelectedName\"}}{{string value=\"13\"}}说过了？{{delay frames=\"40\"}}\n{{anim id=\"FaintSmile\" target=\"actor\" targetSpec=\"\"}}我是接受了{{delay8}}移居的邀请，{{delay8}}\n才从{{selection value=\"5\"}}搬到这里来的。{{pageBreak}}现在家里还是这个状态，{{delay8}}\n恐怕没办法坐下来好好聊……{{delay20}}\n{{anim id=\"BigSmile\" target=\"actor\" targetSpec=\"\"}}不过希望你能和我做朋友哦。{{string value=\"6\"}}{{anim id=\"FaintSmile\" target=\"actor\" targetSpec=\"\"}}。"
  },
  {
    "label": "002",
    "attribute": "0x0000000000000000",
    "text": "{{fun_0014003C arg=\"\"}}"
  },
  {
    "label": "002_01",
    "attribute": "0x0000000000000000",
    "text": "{{anim id=\"Eh\" target=\"actor\" targetSpec=\"\"}}哎呀，{{delay8}}你是这个{{string value=\"32\"}}上的居民吗？{{delay frames=\"40\"}}\n{{anim id=\"FaintSmile\" target=\"actor\" targetSpec=\"\"}}我叫{{string value=\"VillagerName\"}}，{{delay8}}\n{{anim id=\"Hello\" target=\"actor\" targetSpec=\"\"}}请多指教哦。{{pageBreak}}{{anim id=\"EmotEnd\" target=\"actor\" targetSpec=\"\"}}你的名字是叫{{string value=\"...\"}}{{i10_4}}\n{{anim id=\"BigSmile\" target=\"actor\" targetSpec=\"\"}}{{string value=\"4\"}}啊。{{delay20}}{{anim id=\"FaintSmile\" target=\"actor\" targetSpec=\"\"}}{{pageBreak}}{{anim id=\"Explain\" target=\"actor\" targetSpec=\"\"}}其实是{{selection value=\"SelectedName\"}}{{string value=\"13\"}}邀请了我，\n我才从{{delay20}}{{selection value=\"5\"}}\n搬到这里来的。{{pageBreak}}{{anim id=\"FaintSmile\" target=\"actor\" targetSpec=\"\"}}难得在这座{{string value=\"32\"}}上认识新朋友，{{delay20}}\n我们可以经常聊聊天，{{delay8}}\n{{anim id=\"BigSmile\" target=\"actor\" targetSpec=\"\"}}多多培养我们的关系呀。{{string value=\"6\"}}。{{anim id=\"FaintSmile\" target=\"actor\" targetSpec=\"\"}}"
  },
  {
    "label": "002_02",
    "attribute": "0x0000000000000000",
    "text": "{{anim id=\"FaintSmile\" target=\"actor\" targetSpec=\"\"}}我是从{{selection value=\"5\"}}搬来的{{delay8}}\n{{string value=\"VillagerName\"}}，{{delay8}}{{anim id=\"Hello\" target=\"actor\" targetSpec=\"\"}}请多指教哦。{{pageBreak}}{{anim id=\"FaintSmile\" target=\"actor\" targetSpec=\"\"}}我听{{selection value=\"SelectedName\"}}{{string value=\"13\"}}说过，{{delay20}}\n这里是座非常漂亮的{{string value=\"32\"}}……{{delay8}}\n{{anim id=\"BigSmile\" target=\"actor\" targetSpec=\"\"}}所以就搬过来了！{{delay20}}{{anim id=\"FaintSmile\" target=\"actor\" targetSpec=\"\"}}{{pageBreak}}{{anim id=\"HappyDance\" target=\"actor\" targetSpec=\"\"}}这座{{string value=\"32\"}}真和当初说的一样漂亮呀！{{delay frames=\"40\"}}\n{{anim id=\"FaintSmile\" target=\"actor\" targetSpec=\"\"}}能在这里相见也是某种缘分，{{delay20}}\n希望我们今后能好好相处吧。{{string value=\"6\"}}。"
  },
  {
    "label": "002_03",
    "attribute": "0x0000000000000000",
    "text": "哎呀，我们是第一次见面{{delay8}}{{anim id=\"Hello\" target=\"actor\" targetSpec=\"\"}}吧？{{delay frames=\"40\"}}\n{{anim id=\"FaintSmile\" target=\"actor\" targetSpec=\"\"}}我是{{string value=\"VillagerName\"}}，{{pageBreak}}经{{selection value=\"SelectedName\"}}{{string value=\"13\"}}的介绍{{delay20}}\n从{{selection value=\"5\"}}{{delay8}}\n搬到这座{{string value=\"32\"}}上来的。{{pageBreak}}{{anim id=\"EmotEnd\" target=\"actor\" targetSpec=\"\"}}以后我是不是{{delay frames=\"40\"}}\n{{anim id=\"BigSmile\" target=\"actor\" targetSpec=\"\"}}可以用{{string value=\"4\"}}这个名字{{delay8}}\n来称呼你呢？{{anim id=\"FaintSmile\" target=\"actor\" targetSpec=\"\"}}{{pageBreak}}感觉和你聊天非常开心。{{delay frames=\"40\"}}\n今后请多多和我来往，{{delay20}}\n做我的好朋友吧。{{string value=\"6\"}}。"
  },
  {
    "label": "004",
    "attribute": "0x0000000000000000",
    "text": "{{anim id=\"Worried\" target=\"actor\" targetSpec=\"\"}}哎呀{{string value=\"...\"}}{{delay8}}初次见面{{string value=\"...\"}}{{delay20}}\n我叫做{{string value=\"VillagerName\"}}{{string value=\"...\"}}{{i10_4}}\n很抱歉，{{delay8}}我现在{{anim id=\"Shaking\" target=\"actor\" targetSpec=\"\"}}得了感冒。{{pageBreak}}{{anim id=\"Worried\" target=\"actor\" targetSpec=\"\"}}之前{{selection value=\"SelectedName\"}}{{string value=\"13\"}}邀请了我，{{delay20}}\n所以我从{{selection value=\"5\"}}{{delay8}}\n搬到了这里来{{anim id=\"Sneezing\" target=\"actor\" targetSpec=\"\"}}{{string value=\"...\"}}{{pageBreak}}{{anim id=\"Sighing\" target=\"actor\" targetSpec=\"\"}}唉{{string value=\"...\"}}好难受……{{i10_4}}\n{{anim id=\"Negative\" target=\"actor\" targetSpec=\"\"}}可我也不能向感冒低头，{{delay frames=\"40\"}}\n{{anim id=\"WrySmile\" target=\"actor\" targetSpec=\"\"}}等病治好，再聊聊有趣的事情吧。{{string value=\"6\"}}。"
  },
  {
    "label": "011",
    "attribute": "0x0000000000000000",
    "text": "{{anim id=\"BigSmile\" target=\"actor\" targetSpec=\"\"}}初次见面！{{delay frames=\"40\"}}\n我是来自{{selection value=\"5\"}}的{{delay8}}\n{{string value=\"VillagerName\"}}，{{delay8}}{{anim id=\"Hello\" target=\"actor\" targetSpec=\"\"}}请多关照了！{{pageBreak}}{{anim id=\"EmotEnd\" target=\"actor\" targetSpec=\"\"}}我是被这座{{string value=\"32\"}}上的朋友邀请，\n说是希望我{{delay8}}一定要来，我才搬过来的{{string value=\"...\"}}{{delay8}}\n{{anim id=\"WrySmile\" target=\"actor\" targetSpec=\"\"}}可是那个朋友{{delay8}}却不在这座{{string value=\"32\"}}上了。{{pageBreak}}{{anim id=\"OhGeez\" target=\"actor\" targetSpec=\"\"}}虽然算是{{delay8}}碰了一鼻子的灰，{{anim id=\"EmotEnd\" target=\"actor\" targetSpec=\"\"}}{{delay20}}\n{{anim id=\"FaintSmile\" target=\"actor\" targetSpec=\"\"}}不过还好有你来见我……{{delay8}}\n也不会感觉寂寞了。{{pageBreak}}今天我会把屋子收拾干净，{{delay20}}\n{{anim id=\"HappyDance\" target=\"actor\" targetSpec=\"\"}}明天开始{{delay8}}我们就一起\n享受生活的乐趣吧！{{string value=\"6\"}}。"
  },
  {
    "label": "012",
    "attribute": "0x0000000000000000",
    "text": "{{anim id=\"FaintSmile\" target=\"actor\" targetSpec=\"\"}}哎呀，{{delay8}}我应该是第一次见到你？{{delay frames=\"40\"}}\n是这座{{string value=\"32\"}}上的朋友邀请了我，{{delay20}}\n我才从{{selection value=\"5\"}}搬到这里的。{{pageBreak}}{{anim id=\"EmotEnd\" target=\"actor\" targetSpec=\"\"}}{{string value=\"...\"}}{{delay20}}{{anim id=\"SadSpiral\" target=\"actor\" targetSpec=\"\"}}是呀，{{delay20}}等到我搬过来之后，{{delay8}}\n人家都已经{{delay8}}不在这座{{string value=\"32\"}}上了，\n不是吗{{string value=\"...\"}}{{pageBreak}}{{anim id=\"OhGeez\" target=\"actor\" targetSpec=\"\"}}本来是打算在这里重新开始的，{{delay20}}\n现在感觉一下子就泄气了……{{pageBreak}}{{anim id=\"EmotEnd\" target=\"actor\" targetSpec=\"\"}}{{string value=\"...\"}}你看我，{{delay8}}{{anim id=\"ShyBoy\" target=\"actor\" targetSpec=\"\"}}还没向你做自我介绍呢。{{i10_4}}\n{{anim id=\"FaintSmile\" target=\"actor\" targetSpec=\"\"}}我叫{{string value=\"VillagerName\"}}，{{delay20}}\n{{anim id=\"Hello\" target=\"actor\" targetSpec=\"\"}}以后请多关照了。{{string value=\"6\"}}。"
  },
  {
    "label": "014",
    "attribute": "0x0000000000000000",
    "text": "{{anim id=\"Sneezing\" target=\"actor\" targetSpec=\"\"}}{{string value=\"...\"}}{{delay20}}{{anim id=\"Shaking\" target=\"actor\" targetSpec=\"\"}}哎呀，真不好意思。{{i10_4}}\n{{anim id=\"Worried\" target=\"actor\" targetSpec=\"\"}}咦？我以前从没见过你{{string value=\"...\"}}\n我是{{string value=\"VillagerName\"}}。{{pageBreak}}我之前是住在{{selection value=\"5\"}}的。{{delay frames=\"40\"}}\n是这座{{string value=\"32\"}}上的朋友邀请我，\n我才搬到了这里{{string value=\"...\"}}{{pageBreak}}可是人家都已经不在{{string value=\"32\"}}上了。{{i10_4}}\n{{anim id=\"Sneezing\" target=\"actor\" targetSpec=\"\"}}{{string value=\"...\"}}{{delay frames=\"40\"}}啊，真的抱歉……\n想来自己应该是感冒了。{{pageBreak}}{{anim id=\"Worried\" target=\"actor\" targetSpec=\"\"}}虽然很对不起你这样来看我，\n不过还是希望等我病好之后\n你再来做客吧。{{delay8}}{{anim id=\"Sneezing\" target=\"actor\" targetSpec=\"\"}}{{string value=\"Catchphrase\"}}。"
  },
  {
    "label": "101",
    "attribute": "0x0000000000000000",
    "text": "{{anim id=\"Shocked\" target=\"actor\" targetSpec=\"\"}}哎呀，{{delay8}}初次见面！{{delay20}}\n{{anim id=\"FaintSmile\" target=\"actor\" targetSpec=\"\"}}我是{{string value=\"VillagerName\"}}，{{delay20}}\n今天搬到了这座{{string value=\"32\"}}上。{{pageBreak}}{{anim id=\"Explain\" target=\"actor\" targetSpec=\"\"}}其实啊，{{delay8}}是我度假的时候，{{delay8}}\n{{selection value=\"SelectedName\"}}{{string value=\"13\"}}有邀请我，{{delay20}}\n{{anim id=\"FaintSmile\" target=\"actor\" targetSpec=\"\"}}我才搬到这里的。{{pageBreak}}{{anim id=\"EmotEnd\" target=\"actor\" targetSpec=\"\"}}我称呼你为{{string value=\"...\"}}{{delay8}}\n{{anim id=\"Greeting\" target=\"actor\" targetSpec=\"\"}}{{string value=\"4\"}}，{{delay8}}\n可以吗？{{pageBreak}}{{anim id=\"ShyBoy\" target=\"actor\" targetSpec=\"\"}}今天因为家里还是这副模样，{{delay8}}\n所以手忙脚乱的。{{delay20}}\n{{anim id=\"Hello\" target=\"actor\" targetSpec=\"\"}}之后就请多多关照了！{{string value=\"6\"}}。"
  },
  {
    "label": "102",
    "attribute": "0x0000000000000000",
    "text": "{{fun_0014003C arg=\"\"}}"
  },
  {
    "label": "102_01",
    "attribute": "0x0000000000000000",
    "text": "{{anim id=\"Eh\" target=\"actor\" targetSpec=\"\"}}哎呀，你是{{string value=\"...\"}}{{delay20}}\n{{anim id=\"FaintSmile\" target=\"actor\" targetSpec=\"\"}}叫{{string value=\"4\"}}对吧。{{delay8}}\n{{anim id=\"BigSmile\" target=\"actor\" targetSpec=\"\"}}初次见面！{{delay20}}我是{{string value=\"VillagerName\"}}哦。{{anim id=\"FaintSmile\" target=\"actor\" targetSpec=\"\"}}{{pageBreak}}{{anim id=\"Explain\" target=\"actor\" targetSpec=\"\"}}其实啊，{{delay8}}是{{selection value=\"SelectedName\"}}{{string value=\"13\"}}在我度假时{{delay8}}\n邀请了我，{{delay20}}{{anim id=\"FaintSmile\" target=\"actor\" targetSpec=\"\"}}我才搬来这里的。{{pageBreak}}虽然招呼打得有些晚了，{{delay20}}\n{{anim id=\"Hello\" target=\"actor\" targetSpec=\"\"}}之后就请你多多关照了！{{string value=\"6\"}}。"
  },
  {
    "label": "102_02",
    "attribute": "0x0000000000000000",
    "text": "{{anim id=\"Aha\" target=\"actor\" targetSpec=\"\"}}哎呀！{{delay20}}我们是初次见面吧？{{delay20}}\n{{anim id=\"FaintSmile\" target=\"actor\" targetSpec=\"\"}}我{{delay8}}叫{{string value=\"VillagerName\"}}。{{pageBreak}}{{anim id=\"Explain\" target=\"actor\" targetSpec=\"\"}}我在度假的时候，{{delay8}}{{delay8}}\n听了{{selection value=\"SelectedName\"}}{{string value=\"13\"}}的劝说，{{delay8}}\n就决心{{delay8}}搬来这座{{string value=\"32\"}}了。{{pageBreak}}{{anim id=\"FaintSmile\" target=\"actor\" targetSpec=\"\"}}能和你见面也是缘分呢，{{delay8}}\n希望能和你成为好朋友！{{delay20}}\n{{anim id=\"Hello\" target=\"actor\" targetSpec=\"\"}}之后就请多多关照了。{{string value=\"6\"}}。"
  },
  {
    "label": "102_03",
    "attribute": "0x0000000000000000",
    "text": "{{anim id=\"BigSmile\" target=\"actor\" targetSpec=\"\"}}哎呀，{{delay8}}初次见面，你好！{{delay20}}\n{{anim id=\"EmotEnd\" target=\"actor\" targetSpec=\"\"}}你的名字是{{string value=\"...\"}}{{delay20}}{{anim id=\"FaintSmile\" target=\"actor\" targetSpec=\"\"}}{{string value=\"4\"}}呀！{{delay frames=\"30\"}}\n{{anim id=\"Greeting\" target=\"actor\" targetSpec=\"\"}}我叫{{string value=\"VillagerName\"}}。{{pageBreak}}{{anim id=\"Explain\" target=\"actor\" targetSpec=\"\"}}我在度假时遇见{{selection value=\"SelectedName\"}}{{string value=\"13\"}}，{{delay8}}\n经过对方介绍，{{delay20}}\n{{anim id=\"Smiling\" target=\"actor\" targetSpec=\"\"}}我就搬家过来了。{{pageBreak}}{{anim id=\"ShyBoy\" target=\"actor\" targetSpec=\"\"}}感觉和你很合得来呢，{{delay frames=\"40\"}}\n{{anim id=\"Hello\" target=\"actor\" targetSpec=\"\"}}之后让我们和睦相处吧。{{string value=\"6\"}}。"
  },
  {
    "label": "104",
    "attribute": "0x0000000000000000",
    "text": "{{anim id=\"Worried\" target=\"actor\" targetSpec=\"\"}}啊，{{delay8}}哎呀{{anim id=\"Shaking\" target=\"actor\" targetSpec=\"\"}}{{string value=\"...\"}}{{delay8}}\n我们是第一次见面吗？{{delay frames=\"40\"}}\n我是{{string value=\"VillagerName\"}}{{anim id=\"Sneezing\" target=\"actor\" targetSpec=\"\"}}{{string value=\"...\"}}{{pageBreak}}{{anim id=\"Shaking\" target=\"actor\" targetSpec=\"\"}}{{selection value=\"SelectedName\"}}{{string value=\"13\"}}{{delay8}}在我度假时邀请了我，{{delay8}}\n我就搬来了这座岛{{anim id=\"Sneezing\" target=\"actor\" targetSpec=\"\"}}{{string value=\"...\"}}{{pageBreak}}不好意思{{string value=\"...\"}}我感冒了{{string value=\"...\"}}{{delay8}}\n{{anim id=\"Worried\" target=\"actor\" targetSpec=\"\"}}我会尽快治好的，{{delay8}}等我病好了，{{delay8}}\n我们再慢慢聊吧{{string value=\"...\"}}{{string value=\"Catchphrase\"}}。"
  },
  {
    "label": "111",
    "attribute": "0x0000000000000000",
    "text": "{{anim id=\"BigSmile\" target=\"actor\" targetSpec=\"\"}}哎呀，{{delay8}}初次见面！{{delay20}}\n{{anim id=\"FaintSmile\" target=\"actor\" targetSpec=\"\"}}我是今天搬到这座{{string value=\"32\"}}的{{delay8}}\n{{string value=\"VillagerName\"}}哦。{{pageBreak}}{{anim id=\"Explain\" target=\"actor\" targetSpec=\"\"}}其实，{{delay8}}我在度假的时候认识了{{delay8}}\n一个住在{{string value=\"33\"}}的人，{{delay20}}\n{{anim id=\"FaintSmile\" target=\"actor\" targetSpec=\"\"}}对方向我介绍了这座{{string value=\"32\"}}。{{pageBreak}}{{anim id=\"EmotEnd\" target=\"actor\" targetSpec=\"\"}}因此我搬了过来{{string value=\"...\"}}{{delay8}}\n{{anim id=\"ShyBoy\" target=\"actor\" targetSpec=\"\"}}但是那个人{{delay8}}\n似乎已经不在这座{{string value=\"32\"}}上了{{string value=\"...\"}}{{pageBreak}}{{anim id=\"EmotEnd\" target=\"actor\" targetSpec=\"\"}}我正觉得不安时，{{delay8}}\n{{anim id=\"FaintSmile\" target=\"actor\" targetSpec=\"\"}}你能来向我搭话，我很开心。{{delay20}}\n{{anim id=\"Hello\" target=\"actor\" targetSpec=\"\"}}之后也让我们和睦相处吧。{{string value=\"6\"}}。"
  },
  {
    "label": "112",
    "attribute": "0x0000000000000000",
    "text": "{{anim id=\"Eh\" target=\"actor\" targetSpec=\"\"}}你是{{string value=\"...\"}}{{delay8}}我们应该{{anim id=\"Hello\" target=\"actor\" targetSpec=\"\"}}{{delay8}}是初次见面吧？{{delay frames=\"50\"}}\n{{anim id=\"FaintSmile\" target=\"actor\" targetSpec=\"\"}}我是{{delay8}}搬来这座{{string value=\"32\"}}的{{delay8}}\n{{string value=\"VillagerName\"}}哦。{{pageBreak}}{{anim id=\"Explain\" target=\"actor\" targetSpec=\"\"}}其实，在我度假的时候，{{delay8}}\n有人向我介绍了{{string value=\"33\"}}，{{delay20}}\n{{anim id=\"FaintSmile\" target=\"actor\" targetSpec=\"\"}}因此我就移居过来了。{{pageBreak}}作为同住在这座{{string value=\"32\"}}上的伙伴，{{delay8}}\n{{anim id=\"Greeting\" target=\"actor\" targetSpec=\"\"}}能和睦相处的话我会很开心的。{{string value=\"6\"}}。"
  },
  {
    "label": "114",
    "attribute": "0x0000000000000000",
    "text": "{{anim id=\"Shaking\" target=\"actor\" targetSpec=\"\"}}你是{{string value=\"...\"}}{{delay8}}第一次见呢{{string value=\"...\"}}{{delay8}}\n我的名字是{{string value=\"VillagerName\"}}{{anim id=\"Sneezing\" target=\"actor\" targetSpec=\"\"}}{{string value=\"...\"}}{{delay8}}\n请多关照{{anim id=\"Shaking\" target=\"actor\" targetSpec=\"\"}}{{string value=\"...\"}}{{pageBreak}}我在度假时，遇到了这座{{string value=\"32\"}}的人，{{delay20}}\n对方还劝我移居到{{delay8}}\n{{string value=\"33\"}}上{{anim id=\"Sneezing\" target=\"actor\" targetSpec=\"\"}}{{string value=\"...\"}}{{pageBreak}}因此我才搬了过来{{anim id=\"Sneezing\" target=\"actor\" targetSpec=\"\"}}{{string value=\"...\"}}{{i10_4}}\n{{anim id=\"Worried\" target=\"actor\" targetSpec=\"\"}}不好意思{{string value=\"...\"}}{{delay8}}我感冒了{{string value=\"...\"}}{{delay20}}\n{{anim id=\"WrySmile\" target=\"actor\" targetSpec=\"\"}}等我病好之后再聊吧。{{string value=\"6\"}}。"
  },
  {
    "label": "201",
    "attribute": "0x0000000000000000",
    "text": "{{anim id=\"Aha\" target=\"actor\" targetSpec=\"\"}}哎呀！{{delay20}}你{{delay8}}是这座{{string value=\"32\"}}上的居民呢。{{delay20}}\n{{anim id=\"FaintSmile\" target=\"actor\" targetSpec=\"\"}}是特地来拜访我的吗？{{delay20}}\n{{anim id=\"Hello\" target=\"actor\" targetSpec=\"\"}}我的名字是{{string value=\"VillagerName\"}}哦。{{pageBreak}}{{anim id=\"Explain\" target=\"actor\" targetSpec=\"\"}}其实，我是在来这座{{string value=\"32\"}}露营的时候，{{delay20}}\n{{selection value=\"SelectedName\"}}{{string value=\"13\"}}邀请了我。{{delay8}}\n{{anim id=\"FaintSmile\" target=\"actor\" targetSpec=\"\"}}于是，{{delay8}}今天我就搬过来了。{{pageBreak}}{{anim id=\"Worried\" target=\"actor\" targetSpec=\"\"}}现在房间还没有打扫好{{string value=\"...\"}}\n{{anim id=\"Oops\" target=\"actor\" targetSpec=\"\"}}招待不周请多见谅。{{delay frames=\"50\"}}\n{{anim id=\"Greeting\" target=\"actor\" targetSpec=\"\"}}下次再慢慢聊吧。{{string value=\"6\"}}。"
  },
  {
    "label": "202",
    "attribute": "0x0000000000000000",
    "text": "{{fun_0014003C arg=\"\"}}"
  },
  {
    "label": "202_01",
    "attribute": "0x0000000000000000",
    "text": "{{anim id=\"Eh\" target=\"actor\" targetSpec=\"\"}}哎呀，{{delay8}}和你是第一次见面呢。{{delay20}}\n{{anim id=\"FaintSmile\" target=\"actor\" targetSpec=\"\"}}我是{{string value=\"VillagerName\"}}哦。{{delay20}}\n{{anim id=\"ShyBoy\" target=\"actor\" targetSpec=\"\"}}不好意思，这么晚才和你打招呼。{{pageBreak}}{{anim id=\"Explain\" target=\"actor\" targetSpec=\"\"}}其实，我是在{{delay8}}这里的{{color id=\"1\"}}露营地{{color id=\"65535\"}}{{delay8}}\n受到{{selection value=\"SelectedName\"}}{{string value=\"13\"}}的邀请，{{delay8}}\n{{anim id=\"FaintSmile\" target=\"actor\" targetSpec=\"\"}}才搬来{{string value=\"33\"}}的。{{pageBreak}}{{anim id=\"Hello\" target=\"actor\" targetSpec=\"\"}}很高兴能认识你，{{delay20}}\n{{anim id=\"HappyDance\" target=\"actor\" targetSpec=\"\"}}之后让我们和睦相处吧。{{string value=\"6\"}}。"
  },
  {
    "label": "202_02",
    "attribute": "0x0000000000000000",
    "text": "{{anim id=\"Aha\" target=\"actor\" targetSpec=\"\"}}你是{{delay8}}{{string value=\"4\"}}呀。{{delay20}}\n{{anim id=\"FaintSmile\" target=\"actor\" targetSpec=\"\"}}终于见到你了呢。{{delay20}}\n我是{{string value=\"VillagerName\"}}，{{delay20}}请多关照！{{pageBreak}}因为在这座{{string value=\"32\"}}上露营{{delay8}}非常开心，{{delay20}}\n再加上{{selection value=\"SelectedName\"}}{{string value=\"13\"}}{{delay8}}又邀请了我，{{delay8}}\n{{anim id=\"FaintSmile\" target=\"actor\" targetSpec=\"\"}}我就搬过来了。{{pageBreak}}{{anim id=\"Nodding\" target=\"actor\" targetSpec=\"\"}}看来我的选择没错呢。{{delay frames=\"40\"}}\n{{anim id=\"Hello\" target=\"actor\" targetSpec=\"\"}}这是一座{{delay8}}多么美丽的{{string value=\"32\"}}啊！"
  },
  {
    "label": "202_03",
    "attribute": "0x0000000000000000",
    "text": "{{anim id=\"QuestionMark\" target=\"actor\" targetSpec=\"\"}}哎呀，{{delay8}}你是{{string value=\"...\"}}第一次见呢{{string value=\"...\"}}{{delay frames=\"50\"}}\n{{anim id=\"Eh\" target=\"actor\" targetSpec=\"\"}}你看我这人呀！{{delay20}}{{anim id=\"Oops\" target=\"actor\" targetSpec=\"\"}}得先自我介绍呢！{{delay frames=\"60\"}}\n{{anim id=\"FaintSmile\" target=\"actor\" targetSpec=\"\"}}我的名字是{{string value=\"VillagerName\"}}。{{pageBreak}}{{anim id=\"Explain\" target=\"actor\" targetSpec=\"\"}}来这里的{{color id=\"1\"}}露营地{{color id=\"65535\"}}玩的时候，{{delay20}}\n{{selection value=\"SelectedName\"}}{{string value=\"13\"}}{{delay8}}邀请了我，\n{{anim id=\"FaintSmile\" target=\"actor\" targetSpec=\"\"}}于是我就搬来这座{{string value=\"32\"}}了。{{pageBreak}}很高兴能认识你。{{delay20}}\n{{anim id=\"Hello\" target=\"actor\" targetSpec=\"\"}}之后让我们和睦相处吧。{{string value=\"6\"}}。"
  },
  {
    "label": "204",
    "attribute": "0x0000000000000000",
    "text": "{{anim id=\"Worried\" target=\"actor\" targetSpec=\"\"}}哎呀{{string value=\"...\"}}{{delay8}}你是{{string value=\"...\"}}{{delay8}}\n第一次见到你呢{{string value=\"...\"}}{{delay20}}\n我的名字是{{string value=\"VillagerName\"}}{{string value=\"...\"}}{{anim id=\"Sneezing\" target=\"actor\" targetSpec=\"\"}}{{pageBreak}}{{anim id=\"Worried\" target=\"actor\" targetSpec=\"\"}}来这里的{{color id=\"1\"}}露营地{{color id=\"65535\"}}玩的时候，{{delay20}}\n{{selection value=\"SelectedName\"}}{{string value=\"13\"}}邀请了我，{{delay8}}\n{{anim id=\"Sneezing\" target=\"actor\" targetSpec=\"\"}}{{string value=\"...\"}}我就搬到了这座{{string value=\"32\"}}{{anim id=\"Sneezing\" target=\"actor\" targetSpec=\"\"}}{{string value=\"...\"}}{{anim id=\"Sneezing\" target=\"actor\" targetSpec=\"\"}}{{pageBreak}}{{anim id=\"Shaking\" target=\"actor\" targetSpec=\"\"}}不好意思{{string value=\"...\"}}{{delay8}}我感冒了{{string value=\"...\"}}{{delay8}}\n{{anim id=\"Sighing\" target=\"actor\" targetSpec=\"\"}}难得你来拜访我的……{{delay frames=\"40\"}}\n{{anim id=\"WrySmile\" target=\"actor\" targetSpec=\"\"}}等我病好了，我们再慢慢聊吧。{{string value=\"6\"}}。"
  },
  {
    "label": "211",
    "attribute": "0x0000000000000000",
    "text": "{{anim id=\"Aha\" target=\"actor\" targetSpec=\"\"}}哎呀！{{delay20}}你是这座{{string value=\"32\"}}上的人？{{delay20}}\n{{anim id=\"BigSmile\" target=\"actor\" targetSpec=\"\"}}初次见面！{{delay8}}我是{{string value=\"VillagerName\"}}，{{anim id=\"FaintSmile\" target=\"actor\" targetSpec=\"\"}}{{delay20}}\n从今天起成为了这座{{string value=\"32\"}}上的一员哦！{{pageBreak}}{{anim id=\"Explain\" target=\"actor\" targetSpec=\"\"}}其实是我在这座{{string value=\"32\"}}上露营的时候，{{delay20}}\n一位岛上的居民邀请我移居过来，{{delay8}}\n{{anim id=\"FaintSmile\" target=\"actor\" targetSpec=\"\"}}因此我就搬来了。{{pageBreak}}{{anim id=\"EmotEnd\" target=\"actor\" targetSpec=\"\"}}但是当我搬了过来，{{delay20}}\n{{anim id=\"WrySmile\" target=\"actor\" targetSpec=\"\"}}听说那个人已经不在这座{{string value=\"32\"}}上了，{{pageBreak}}{{anim id=\"FaintSmile\" target=\"actor\" targetSpec=\"\"}}所以我觉得有些不安。{{delay20}}\n但是你来拜访我，让我放下心来了。{{delay20}}\n{{anim id=\"Hello\" target=\"actor\" targetSpec=\"\"}}之后也让我们和睦相处吧。{{string value=\"6\"}}。"
  },
  {
    "label": "212",
    "attribute": "0x0000000000000000",
    "text": "{{anim id=\"Greeting\" target=\"actor\" targetSpec=\"\"}}初次见面！{{delay20}}\n{{anim id=\"FaintSmile\" target=\"actor\" targetSpec=\"\"}}我是{{string value=\"VillagerName\"}}。{{delay8}}请多关照啦！{{pageBreak}}{{anim id=\"Explain\" target=\"actor\" targetSpec=\"\"}}我来这里的{{color id=\"1\"}}露营地{{color id=\"65535\"}}玩的时候，{{delay20}}\n{{string value=\"32\"}}上的人邀请我移居过来，我就搬来了。{{pageBreak}}{{anim id=\"ShyBoy\" target=\"actor\" targetSpec=\"\"}}有些遗憾的是，{{delay20}}\n那个人好像已经不在这座{{string value=\"32\"}}上了。{{delay20}}\n{{anim id=\"Hello\" target=\"actor\" targetSpec=\"\"}}但是我很高兴能认识你。{{string value=\"6\"}}。"
  },
  {
    "label": "214",
    "attribute": "0x0000000000000000",
    "text": "{{anim id=\"Eh\" target=\"actor\" targetSpec=\"\"}}哎呀，{{delay8}}你是{{string value=\"...\"}}第一次见呢{{string value=\"...\"}}{{delay8}}\n{{anim id=\"Worried\" target=\"actor\" targetSpec=\"\"}}和你招呼打得有些晚了呢{{string value=\"...\"}}{{delay8}}\n{{anim id=\"FaintSmile\" target=\"actor\" targetSpec=\"\"}}我的名字是{{string value=\"VillagerName\"}}{{anim id=\"Sneezing\" target=\"actor\" targetSpec=\"\"}}{{string value=\"...\"}}{{pageBreak}}{{anim id=\"Explain\" target=\"actor\" targetSpec=\"\"}}其实，{{delay20}}我是在来这里的{{color id=\"1\"}}露营地{{color id=\"65535\"}}玩的时候，{{delay8}}\n这座{{string value=\"32\"}}上的人劝我移居过来，{{delay20}}\n{{anim id=\"FaintSmile\" target=\"actor\" targetSpec=\"\"}}我就搬来了{{anim id=\"Sneezing\" target=\"actor\" targetSpec=\"\"}}{{string value=\"...\"}}{{pageBreak}}{{anim id=\"Worried\" target=\"actor\" targetSpec=\"\"}}不好意思{{string value=\"...\"}}{{delay8}}我感冒了{{anim id=\"Sneezing\" target=\"actor\" targetSpec=\"\"}}{{string value=\"...\"}}{{delay frames=\"40\"}}\n{{anim id=\"WrySmile\" target=\"actor\" targetSpec=\"\"}}传染给你就不好了，{{delay8}}等我病好了，{{delay8}}\n我们再慢慢聊吧。{{string value=\"6\"}}。"
  },
  {
    "label": "301",
    "attribute": "0x0000000000000000",
    "text": "{{anim id=\"Aha\" target=\"actor\" targetSpec=\"\"}}哎呀！{{delay8}}初次见面！{{delay20}}\n{{anim id=\"FaintSmile\" target=\"actor\" targetSpec=\"\"}}我是从今天开始来这座{{string value=\"32\"}}上受照顾的{{delay8}}\n{{string value=\"VillagerName\"}}哦。{{pageBreak}}{{anim id=\"Explain\" target=\"actor\" targetSpec=\"\"}}在我拜访这里的{{color id=\"1\"}}露营地{{color id=\"65535\"}}时，{{delay20}}\n{{selection value=\"SelectedName\"}}{{string value=\"13\"}}邀请我{{delay8}}\n移居到这座{{string value=\"32\"}}上。{{delay8}}{{anim id=\"FaintSmile\" target=\"actor\" targetSpec=\"\"}}因此，我就搬过来了。{{pageBreak}}{{anim id=\"Hello\" target=\"actor\" targetSpec=\"\"}}今后也请你多多关照了。{{delay frames=\"40\"}}\n{{anim id=\"EmotEnd\" target=\"actor\" targetSpec=\"\"}}我会在今天之内打扫好房间，{{delay8}}\n{{anim id=\"Greeting\" target=\"actor\" targetSpec=\"\"}}请你随时过来玩呀。{{string value=\"6\"}}。"
  },
  {
    "label": "302",
    "attribute": "0x0000000000000000",
    "text": "{{fun_0014003C arg=\"\"}}"
  },
  {
    "label": "302_01",
    "attribute": "0x0000000000000000",
    "text": "{{anim id=\"Greeting\" target=\"actor\" targetSpec=\"\"}}初次见面，{{delay20}}我是{{string value=\"VillagerName\"}}哦。{{delay20}}\n{{anim id=\"EmotEnd\" target=\"actor\" targetSpec=\"\"}}你是{{string value=\"4\"}}吧。{{delay20}}\n{{anim id=\"FaintSmile\" target=\"actor\" targetSpec=\"\"}}我从{{string value=\"32\"}}上的大家那里听说过你哦。{{pageBreak}}{{anim id=\"Explain\" target=\"actor\" targetSpec=\"\"}}其实，{{delay8}}我是在这里的{{color id=\"1\"}}露营地{{color id=\"65535\"}}{{delay8}}\n受到了{{selection value=\"SelectedName\"}}{{string value=\"13\"}}的邀请，{{delay8}}\n{{anim id=\"FaintSmile\" target=\"actor\" targetSpec=\"\"}}因此就下定决心移居到这座{{string value=\"32\"}}了。{{pageBreak}}作为居住在同一座{{string value=\"32\"}}上的伙伴，{{delay8}}\n{{anim id=\"Hello\" target=\"actor\" targetSpec=\"\"}}请你多多关照啦。{{string value=\"6\"}}。"
  },
  {
    "label": "302_02",
    "attribute": "0x0000000000000000",
    "text": "你是{{string value=\"...\"}}{{delay8}}{{anim id=\"QuestionMark\" target=\"actor\" targetSpec=\"\"}}我们是第一次见吧？{{delay frames=\"40\"}}\n{{anim id=\"FaintSmile\" target=\"actor\" targetSpec=\"\"}}我是{{string value=\"VillagerName\"}}，{{anim id=\"Hello\" target=\"actor\" targetSpec=\"\"}}{{delay8}}请多关照啦。{{pageBreak}}{{anim id=\"Explain\" target=\"actor\" targetSpec=\"\"}}其实，我是在这里的{{color id=\"1\"}}露营地{{color id=\"65535\"}}{{delay8}}\n受到了{{selection value=\"SelectedName\"}}{{string value=\"13\"}}的邀请，{{delay8}}\n问我要不要搬过来。{{pageBreak}}{{anim id=\"Nodding\" target=\"actor\" targetSpec=\"\"}}以此为契机，{{delay8}}\n就决定住在这座{{string value=\"32\"}}了。{{delay frames=\"40\"}}\n{{anim id=\"FaintSmile\" target=\"actor\" targetSpec=\"\"}}必须得感谢这奇妙的缘分呢。{{pageBreak}}{{anim id=\"Smiling\" target=\"actor\" targetSpec=\"\"}}总之，{{delay8}}如今我们都是同一座{{string value=\"32\"}}的居民，{{delay20}}\n{{anim id=\"Greeting\" target=\"actor\" targetSpec=\"\"}}让我们和睦相处吧。{{string value=\"6\"}}。"
  },
  {
    "label": "302_03",
    "attribute": "0x0000000000000000",
    "text": "{{anim id=\"FaintSmile\" target=\"actor\" targetSpec=\"\"}}哎呀，{{delay8}}初次见面！{{delay20}}\n我是{{string value=\"VillagerName\"}}哦。{{pageBreak}}{{anim id=\"Explain\" target=\"actor\" targetSpec=\"\"}}其实，我是在这里的{{color id=\"1\"}}露营地{{color id=\"65535\"}}{{delay8}}\n受到{{selection value=\"SelectedName\"}}{{string value=\"13\"}}的邀请，{{delay8}}\n{{anim id=\"FaintSmile\" target=\"actor\" targetSpec=\"\"}}因此搬来了这座{{string value=\"32\"}}。{{pageBreak}}{{anim id=\"EmotEnd\" target=\"actor\" targetSpec=\"\"}}虽然招呼打得晚了，{{delay8}}\n{{anim id=\"Nodding\" target=\"actor\" targetSpec=\"\"}}但是能在这座{{string value=\"32\"}}上相遇也是一种缘分。{{delay20}}\n{{anim id=\"Hello\" target=\"actor\" targetSpec=\"\"}}今后让我们和睦相处吧。{{string value=\"6\"}}。"
  },
  {
    "label": "304",
    "attribute": "0x0000000000000000",
    "text": "{{anim id=\"FaintSmile\" target=\"actor\" targetSpec=\"\"}}和你是第一次见面呢。{{delay20}}\n我是{{string value=\"VillagerName\"}}{{string value=\"...\"}}{{anim id=\"Sneezing\" target=\"actor\" targetSpec=\"\"}}{{pageBreak}}{{anim id=\"Explain\" target=\"actor\" targetSpec=\"\"}}我是在{{string value=\"32\"}}上的{{color id=\"1\"}}露营地{{color id=\"65535\"}}{{delay8}}\n受到{{selection value=\"SelectedName\"}}{{string value=\"13\"}}的邀请，{{delay20}}\n因此搬了过来{{anim id=\"Sneezing\" target=\"actor\" targetSpec=\"\"}}{{string value=\"...\"}}{{pageBreak}}不好意思{{string value=\"...\"}}{{anim id=\"WrySmile\" target=\"actor\" targetSpec=\"\"}}呵呵{{string value=\"...\"}}{{delay20}}\n如你所见，我感冒了{{anim id=\"Sneezing\" target=\"actor\" targetSpec=\"\"}}{{string value=\"...\"}}{{pageBreak}}{{anim id=\"Worried\" target=\"actor\" targetSpec=\"\"}}第一次与你相见，{{delay8}}\n我却在这种时候感冒。{{delay20}}\n{{anim id=\"Sighing\" target=\"actor\" targetSpec=\"\"}}真是倒霉啊{{string value=\"...\"}}{{pageBreak}}{{anim id=\"Worried\" target=\"actor\" targetSpec=\"\"}}等我痊愈了，{{delay20}}\n我们再聊吧{{string value=\"...\"}}{{string value=\"6\"}}。"
  },
  {
    "label": "311",
    "attribute": "0x0000000000000000",
    "text": "{{anim id=\"BigSmile\" target=\"actor\" targetSpec=\"\"}}哎呀，{{delay8}}初次见面！{{delay20}}\n{{anim id=\"FaintSmile\" target=\"actor\" targetSpec=\"\"}}我叫{{string value=\"VillagerName\"}}，{{delay20}}\n{{anim id=\"Greeting\" target=\"actor\" targetSpec=\"\"}}请多关照。{{pageBreak}}{{anim id=\"Explain\" target=\"actor\" targetSpec=\"\"}}有人在这里的{{color id=\"1\"}}露营地{{color id=\"65535\"}}{{delay8}}\n邀请我来这座{{string value=\"33\"}}，{{delay8}}\n我就搬过来了。{{pageBreak}}{{anim id=\"Nodding\" target=\"actor\" targetSpec=\"\"}}从今天起，我也是这座{{string value=\"32\"}}的居民了。{{delay40}}\n{{anim id=\"FaintSmile\" target=\"actor\" targetSpec=\"\"}}我会在今天之内把家里打扫完，{{delay8}}\n{{anim id=\"Hello\" target=\"actor\" targetSpec=\"\"}}请再来和我随便说说话吧。{{string value=\"6\"}}。"
  },
  {
    "label": "312",
    "attribute": "0x0000000000000000",
    "text": "{{anim id=\"Shocked\" target=\"actor\" targetSpec=\"\"}}哎呀！{{delay8}}和你是第一次见面呢！{{delay20}}\n{{anim id=\"FaintSmile\" target=\"actor\" targetSpec=\"\"}}我是{{string value=\"VillagerName\"}}，{{delay20}}{{anim id=\"Greeting\" target=\"actor\" targetSpec=\"\"}}请多关照啦！{{pageBreak}}{{anim id=\"Explain\" target=\"actor\" targetSpec=\"\"}}其实，我是在来这座{{string value=\"32\"}}上的{{color id=\"1\"}}露营地{{color id=\"65535\"}}的时候，{{delay8}}\n有人邀请我移居过来，{{delay20}}\n{{anim id=\"FaintSmile\" target=\"actor\" targetSpec=\"\"}}我就决定搬来了这里。\n{{anim id=\"Nodding\" target=\"actor\" targetSpec=\"\"}}既然是住在同一座{{string value=\"32\"}}上的同伴，{{delay20}}\n{{anim id=\"Hello\" target=\"actor\" targetSpec=\"\"}}让我们和睦相处吧。{{string value=\"6\"}}。"
  },
  {
    "label": "314",
    "attribute": "0x0000000000000000",
    "text": "{{anim id=\"FaintSmile\" target=\"actor\" targetSpec=\"\"}}哎呀，{{delay8}}你是{{string value=\"4\"}}吧。{{delay20}}\n我从{{string value=\"32\"}}上的大家那里听说过你哦。{{delay20}}\n终于见到你了呢{{anim id=\"Sneezing\" target=\"actor\" targetSpec=\"\"}}{{string value=\"...\"}}{{pageBreak}}{{anim id=\"Worried\" target=\"actor\" targetSpec=\"\"}}咳咳{{string value=\"...\"}}失礼了{{string value=\"...\"}}{{delay20}}\n{{anim id=\"Explain\" target=\"actor\" targetSpec=\"\"}}其实，我是在这里的{{color id=\"1\"}}露营地{{color id=\"65535\"}}时{{delay20}}\n受到邀请，才搬来这座{{string value=\"32\"}}{{anim id=\"Sneezing\" target=\"actor\" targetSpec=\"\"}}{{string value=\"...\"}}{{pageBreak}}{{anim id=\"Oops\" target=\"actor\" targetSpec=\"\"}}唉{{string value=\"...\"}}{{delay8}}从刚才开始就不好意思呢{{string value=\"...\"}}{{delay20}}\n{{anim id=\"Sighing\" target=\"actor\" targetSpec=\"\"}}我现在{{delay8}}感冒了{{string value=\"...\"}}{{pageBreak}}{{anim id=\"WrySmile\" target=\"actor\" targetSpec=\"\"}}下次再聊吧{{string value=\"...\"}}{{delay8}}\n{{anim id=\"EmotEnd\" target=\"actor\" targetSpec=\"\"}}我的名字是{{string value=\"VillagerName\"}}，{{delay20}}\n{{anim id=\"FaintSmile\" target=\"actor\" targetSpec=\"\"}}请你记住{{string value=\"...\"}}{{string value=\"6\"}}。"
  },
  {
    "label": "401",
    "attribute": "0x0000000000000000",
    "text": "{{anim id=\"QuestionMark\" target=\"actor\" targetSpec=\"\"}}{{delay8}}好像……是第一次见到你？{{i10_4}}\n{{anim id=\"Oops\" target=\"actor\" targetSpec=\"\"}}哎呀，{{delay8}}我太没礼貌了，很抱歉。{{pageBreak}}{{anim id=\"FaintSmile\" target=\"actor\" targetSpec=\"\"}}我虽然是从{{selection value=\"5\"}}\n搬到这里来的，{{delay20}}\n但我以前也住在这座{{string value=\"32\"}}上。{{pageBreak}}{{anim id=\"Dance\" target=\"actor\" targetSpec=\"\"}}没错，{{delay8}}我算是又回到这里了！{{i10_4}}\n{{anim id=\"FaintSmile\" target=\"actor\" targetSpec=\"\"}}虽然很想在这个久违的{{string value=\"32\"}}上四处看看，{{delay20}}\n{{anim id=\"OhGeez\" target=\"actor\" targetSpec=\"\"}}但你看，家里还是这个模样……{{pageBreak}}{{anim id=\"FaintSmile\" target=\"actor\" targetSpec=\"\"}}我是{{string value=\"VillagerName\"}}，{{delay20}}请多关照。{{delay20}}\n等行李收拾好之后，{{delay20}}\n{{anim id=\"Hello\" target=\"actor\" targetSpec=\"\"}}请你再和我多多来往吧。{{string value=\"6\"}}。"
  },
  {
    "label": "402",
    "attribute": "0x0000000000000000",
    "text": "{{anim id=\"Eh\" target=\"actor\" targetSpec=\"\"}}你……{{delay8}}难道是\n{{string value=\"4\"}}吗？{{delay frames=\"40\"}}\n{{anim id=\"FaintSmile\" target=\"actor\" targetSpec=\"\"}}我的名字是{{string value=\"VillagerName\"}}。{{pageBreak}}虽然是从{{selection value=\"5\"}}过来的，{{delay20}}\n{{anim id=\"Hesitate\" target=\"actor\" targetSpec=\"\"}}但其实我以前也曾在这座{{string value=\"32\"}}上居住过……{{delay20}}\n现在又回来了。{{pageBreak}}{{anim id=\"FaintSmile\" target=\"actor\" targetSpec=\"\"}}我听大家说过{{delay8}}关于你的事情，{{delay frames=\"40\"}}\n现在终于能见到你，真的很高兴。{{delay20}}\n今后也请你{{anim id=\"Hello\" target=\"actor\" targetSpec=\"\"}}多多指教了。{{string value=\"6\"}}。"
  },
  {
    "label": "404",
    "attribute": "0x0000000000000000",
    "text": "{{anim id=\"Shaking\" target=\"actor\" targetSpec=\"\"}}{{string value=\"...\"}}哎呀，{{delay8}}你是哪位？{{i10_4}}\n{{anim id=\"QuestionMark\" target=\"actor\" targetSpec=\"\"}}{{string value=\"4\"}}？{{delay frames=\"40\"}}\n{{anim id=\"Nodding\" target=\"actor\" targetSpec=\"\"}}想起来了，{{delay8}}我听大家说过你的事情。{{pageBreak}}{{anim id=\"FaintSmile\" target=\"actor\" targetSpec=\"\"}}我虽然是从{{selection value=\"5\"}}\n搬到这里来的，{{delay8}}\n但我以前{{delay8}}也在这座{{string value=\"32\"}}上住过。{{pageBreak}}{{anim id=\"Nodding\" target=\"actor\" targetSpec=\"\"}}突然感觉很怀念{{string value=\"33\"}}，{{delay8}}\n所以又搬回了这里{{anim id=\"Sneezing\" target=\"actor\" targetSpec=\"\"}}{{string value=\"...\"}}{{delay8}}{{anim id=\"Sneezing\" target=\"actor\" targetSpec=\"\"}}{{i10_4}}\n{{anim id=\"Shaking\" target=\"actor\" targetSpec=\"\"}}抱歉，{{delay8}}我现在正在感冒{{string value=\"...\"}}{{pageBreak}}{{anim id=\"Worried\" target=\"actor\" targetSpec=\"\"}}难得你特意来看我，{{delay20}}\n但传染给你就不好了。{{delay frames=\"40\"}}\n{{anim id=\"FaintSmile\" target=\"actor\" targetSpec=\"\"}}等感冒好了我们再尽情玩吧。{{string value=\"6\"}}。"
  },
  {
    "label": "411",
    "attribute": "0x0000000000000000",
    "text": "{{anim id=\"Eh\" target=\"actor\" targetSpec=\"\"}}哎呀，{{delay8}}你是{{string value=\"32\"}}上的居民吗？{{delay frames=\"40\"}}\n{{anim id=\"FaintSmile\" target=\"actor\" targetSpec=\"\"}}我是今天{{delay8}}搬到这座{{string value=\"32\"}}上的{{delay8}}\n{{string value=\"VillagerName\"}}。{{delay8}}{{anim id=\"Hello\" target=\"actor\" targetSpec=\"\"}}请多指教了。{{pageBreak}}{{anim id=\"EmotEnd\" target=\"actor\" targetSpec=\"\"}}你是{{string value=\"...\"}}{{i10_4}}\n{{anim id=\"BigSmile\" target=\"actor\" targetSpec=\"\"}}{{string value=\"4\"}}呀。{{anim id=\"EmotEnd\" target=\"actor\" targetSpec=\"\"}}{{pageBreak}}{{anim id=\"Nodding\" target=\"actor\" targetSpec=\"\"}}我必须在今天之内把屋子整理好。{{delay frames=\"40\"}}\n{{anim id=\"FaintSmile\" target=\"actor\" targetSpec=\"\"}}下次有机会的话，{{delay8}}可要好好和我说一说\n你经历过的故事哦。{{string value=\"6\"}}。"
  },
  {
    "label": "412",
    "attribute": "0x0000000000000000",
    "text": "{{fun_0014003C arg=\"\"}}"
  },
  {
    "label": "412_01",
    "attribute": "0x0000000000000000",
    "text": "{{anim id=\"FaintSmile\" target=\"actor\" targetSpec=\"\"}}哎呀，{{delay8}}你好……{{delay20}}\n我是从{{delay8}}{{selection value=\"5\"}}\n搬到这里来的，{{delay8}}名叫{{string value=\"VillagerName\"}}。{{pageBreak}}{{anim id=\"EmotEnd\" target=\"actor\" targetSpec=\"\"}}方便的话，{{delay8}}\n{{anim id=\"Hello\" target=\"actor\" targetSpec=\"\"}}我可以直呼你为{{delay8}}\n{{string value=\"4\"}}吗？{{pageBreak}}{{anim id=\"FaintSmile\" target=\"actor\" targetSpec=\"\"}}呵呵，{{delay8}}以后请多指教了，{{delay20}}\n{{anim id=\"Hello\" target=\"actor\" targetSpec=\"\"}}{{string value=\"4\"}}！{{string value=\"6\"}}。"
  },
  {
    "label": "412_02",
    "attribute": "0x0000000000000000",
    "text": "难道说，你就是……{{delay20}}\n{{anim id=\"QuestionMark\" target=\"actor\" targetSpec=\"\"}}{{string value=\"4\"}}吗？{{i10_4}}\n{{anim id=\"FaintSmile\" target=\"actor\" targetSpec=\"\"}}我从大家口中听到过你的传闻。{{pageBreak}}{{anim id=\"Shocked\" target=\"actor\" targetSpec=\"\"}}看我，{{delay8}}都还没自我介绍一下，真抱歉。{{delay20}}\n{{anim id=\"FaintSmile\" target=\"actor\" targetSpec=\"\"}}我叫{{delay8}}{{string value=\"VillagerName\"}}，{{delay20}}\n{{anim id=\"Hello\" target=\"actor\" targetSpec=\"\"}}是从{{selection value=\"5\"}}搬过来的。{{pageBreak}}{{anim id=\"HappyDance\" target=\"actor\" targetSpec=\"\"}}我一直期待能{{delay8}}真正见到你。{{delay20}}\n谢谢你愿意和我聊天！{{delay20}}\n今后请多关照了。{{string value=\"6\"}}。"
  },
  {
    "label": "412_03",
    "attribute": "0x0000000000000000",
    "text": "{{anim id=\"Shocked\" target=\"actor\" targetSpec=\"\"}}哎呀！{{delay8}}我们是第一次见面吧？{{delay20}}\n{{anim id=\"FaintSmile\" target=\"actor\" targetSpec=\"\"}}我是{{string value=\"VillagerName\"}}，{{delay20}}\n从{{selection value=\"5\"}}搬到这里来的。{{pageBreak}}{{anim id=\"EmotEnd\" target=\"actor\" targetSpec=\"\"}}你是{{string value=\"...\"}}{{i10_4}}\n{{anim id=\"BigSmile\" target=\"actor\" targetSpec=\"\"}}{{string value=\"4\"}}对吧？{{delay20}}\n{{anim id=\"FaintSmile\" target=\"actor\" targetSpec=\"\"}}能和你这样认识，我很开心。{{pageBreak}}{{anim id=\"HappyDance\" target=\"actor\" targetSpec=\"\"}}呵呵，{{delay8}}今后可要和我友好相处哦！{{delay20}}\n{{string value=\"4\"}}！{{string value=\"6\"}}。"
  },
  {
    "label": "414",
    "attribute": "0x0000000000000000",
    "text": "{{anim id=\"Sneezing\" target=\"actor\" targetSpec=\"\"}}{{string value=\"...\"}}{{delay20}}啊呀，{{delay8}}真抱歉。{{i10_4}}\n{{anim id=\"EmotEnd\" target=\"actor\" targetSpec=\"\"}}初次见面，{{delay8}}我是{{string value=\"VillagerName\"}}……{{delay20}}\n从{{selection value=\"5\"}}搬过来的。{{pageBreak}}{{anim id=\"EmotEnd\" target=\"actor\" targetSpec=\"\"}}你是{{string value=\"...\"}}{{delay frames=\"40\"}}\n{{anim id=\"FaintSmile\" target=\"actor\" targetSpec=\"\"}}{{string value=\"4\"}}对吧。{{delay20}}\n以后请多指教了{{string value=\"...\"}}{{anim id=\"Sneezing\" target=\"actor\" targetSpec=\"\"}}{{pageBreak}}我现在{{string value=\"...\"}}{{delay8}}有些小感冒。{{delay20}}\n{{anim id=\"WrySmile\" target=\"actor\" targetSpec=\"\"}}等到恢复之后，{{delay8}}\n我们再好好聊一聊吧{{string value=\"...\"}}{{delay8}}{{anim id=\"Sneezing\" target=\"actor\" targetSpec=\"\"}}{{string value=\"Catchphrase\"}}。"
  },
  {
    "label": "501",
    "attribute": "0x0000000000000000",
    "text": "{{anim id=\"Eh\" target=\"actor\" targetSpec=\"\"}}哎呀{{string value=\"...\"}}{{delay8}}哪位？{{i10_4}}\n{{anim id=\"FaintSmile\" target=\"actor\" targetSpec=\"\"}}我是今天{{delay8}}搬到这座{{string value=\"32\"}}上的{{delay8}}\n{{string value=\"VillagerName\"}}。{{pageBreak}}{{anim id=\"Aha\" target=\"actor\" targetSpec=\"\"}}难道说，{{delay8}}你就是\n{{string value=\"4\"}}吗？{{pageBreak}}{{anim id=\"FaintSmile\" target=\"actor\" targetSpec=\"\"}}我在{{color id=\"1\"}}服务处{{color id=\"65535\"}}听说了，{{delay8}}\n今天似乎还有另外一个人要搬来。{{pageBreak}}{{anim id=\"HappyDance\" target=\"actor\" targetSpec=\"\"}}呵呵，{{delay8}}这未免太巧合了吧？{{delay20}}\n{{anim id=\"EmotEnd\" target=\"actor\" targetSpec=\"\"}}{{string value=\"4\"}}，{{delay8}}希望从此以后\n{{anim id=\"BigSmile\" target=\"actor\" targetSpec=\"\"}}我们能友好相处哦。{{string value=\"6\"}}。{{anim id=\"FaintSmile\" target=\"actor\" targetSpec=\"\"}}"
  },
  {
    "label": "502",
    "attribute": "0x0000000000000000",
    "text": "{{fun_0014003C arg=\"\"}}"
  },
  {
    "label": "502_01",
    "attribute": "0x0000000000000000",
    "text": "{{anim id=\"FaintSmile\" target=\"actor\" targetSpec=\"\"}}你就是{{delay8}}{{string value=\"4\"}}吧？{{delay frames=\"40\"}}\n听说有人要搬来这座{{string value=\"32\"}}上，{{delay8}}\n大家都传开了。{{pageBreak}}{{anim id=\"HappyDance\" target=\"actor\" targetSpec=\"\"}}呵呵，{{delay8}}初次见面！{{delay8}}\n我是{{string value=\"VillagerName\"}}。{{delay20}}\n{{anim id=\"FaintSmile\" target=\"actor\" targetSpec=\"\"}}希望我们能友好相处哦。{{string value=\"6\"}}。"
  },
  {
    "label": "502_02",
    "attribute": "0x0000000000000000",
    "text": "{{anim id=\"Shocked\" target=\"actor\" targetSpec=\"\"}}哎呀！{{delay frames=\"40\"}}\n{{anim id=\"FaintSmile\" target=\"actor\" targetSpec=\"\"}}你就是大家说的{{delay8}}\n{{string value=\"4\"}}吧。{{pageBreak}}呵呵，{{delay8}}{{anim id=\"BigSmile\" target=\"actor\" targetSpec=\"\"}}很荣幸初次见到你。{{delay20}}\n{{anim id=\"Hello\" target=\"actor\" targetSpec=\"\"}}我的名字是{{string value=\"VillagerName\"}}，{{delay20}}\n今后请多关照了。{{string value=\"6\"}}。"
  },
  {
    "label": "502_03",
    "attribute": "0x0000000000000000",
    "text": "{{anim id=\"BigSmile\" target=\"actor\" targetSpec=\"\"}}哎呀，{{delay8}}你好你好！{{delay frames=\"40\"}}\n{{anim id=\"Hello\" target=\"actor\" targetSpec=\"\"}}是新搬来的吗？{{delay frames=\"40\"}}\n{{anim id=\"FaintSmile\" target=\"actor\" targetSpec=\"\"}}我的名字是{{delay8}}{{string value=\"VillagerName\"}}哦。{{pageBreak}}{{anim id=\"QuestionMark\" target=\"actor\" targetSpec=\"\"}}你叫什么名字？{{i10_4}}\n{{string value=\"...\"}}{{delay20}}{{anim id=\"Nodding\" target=\"actor\" targetSpec=\"\"}}{{string value=\"4\"}}，是吧。{{delay frames=\"40\"}}\n{{anim id=\"BigSmile\" target=\"actor\" targetSpec=\"\"}}这名字很不错！{{delay20}}{{anim id=\"FaintSmile\" target=\"actor\" targetSpec=\"\"}}{{pageBreak}}我觉得我们{{delay8}}应该能做好朋友。{{delay20}}\n{{anim id=\"HappyDance\" target=\"actor\" targetSpec=\"\"}}所以今后还请你{{delay8}}\n多和我聊聊天了。{{string value=\"6\"}}。"
  },
  {
    "label": "504",
    "attribute": "0x0000000000000000",
    "text": "{{anim id=\"Sneezing\" target=\"actor\" targetSpec=\"\"}}{{string value=\"...\"}}{{delay frames=\"40\"}}我现在{{delay8}}染上了感冒。{{delay frames=\"40\"}}\n所以你还是{{anim id=\"Negative\" target=\"actor\" targetSpec=\"\"}}不要靠我太近比较好……{{pageBreak}}{{anim id=\"Worried\" target=\"actor\" targetSpec=\"\"}}难得你来我家看我，{{delay8}}\n真的很抱歉。{{pageBreak}}{{anim id=\"FaintSmile\" target=\"actor\" targetSpec=\"\"}}我叫{{string value=\"VillagerName\"}}……{{delay frames=\"40\"}}\n等我病好之后，{{delay8}}\n再一起聊聊各种各样的事情吧。{{delay8}}{{anim id=\"Sneezing\" target=\"actor\" targetSpec=\"\"}}{{string value=\"Catchphrase\"}}。"
  },
  {
    "label": "511",
    "attribute": "0x0000000000000000",
    "text": "{{fun_0014003C arg=\"\"}}"
  },
  {
    "label": "511_01",
    "attribute": "0x0000000000000000",
    "text": "{{anim id=\"QuestionMark\" target=\"actor\" targetSpec=\"\"}}哎呀{{string value=\"...\"}}{{delay8}}你是{{string value=\"...\"}}{{i10_4}}\n{{anim id=\"BigSmile\" target=\"actor\" targetSpec=\"\"}}初次见面，{{delay20}}我是今天搬到{{string value=\"32\"}}上来的{{delay8}}\n{{string value=\"VillagerName\"}}。{{anim id=\"FaintSmile\" target=\"actor\" targetSpec=\"\"}}{{pageBreak}}你是{{delay8}}{{anim id=\"Hello\" target=\"actor\" targetSpec=\"\"}}这座{{string value=\"32\"}}上的居民吧？{{delay frames=\"40\"}}\n{{anim id=\"FaintSmile\" target=\"actor\" targetSpec=\"\"}}在我把房间整理好之后，{{delay8}}\n希望你能再来和我聊一聊。{{pageBreak}}{{anim id=\"BigSmile\" target=\"actor\" targetSpec=\"\"}}呵呵……{{delay20}}\n今后请多关照了！{{string value=\"6\"}}。{{anim id=\"FaintSmile\" target=\"actor\" targetSpec=\"\"}}"
  },
  {
    "label": "511_02",
    "attribute": "0x0000000000000000",
    "text": "{{anim id=\"Shocked\" target=\"actor\" targetSpec=\"\"}}哎呀，{{delay8}}是哪位？{{i10_4}}\n{{anim id=\"EmotEnd\" target=\"actor\" targetSpec=\"\"}}我刚搬到这边来，{{delay8}}\n{{anim id=\"Oops\" target=\"actor\" targetSpec=\"\"}}现在房间里有点乱，真抱歉。{{delay frames=\"40\"}}{{anim id=\"EmotEnd\" target=\"actor\" targetSpec=\"\"}}\n{{anim id=\"FaintSmile\" target=\"actor\" targetSpec=\"\"}}我是{{string value=\"VillagerName\"}}，{{delay20}}\n今后要在这座{{string value=\"32\"}}上{{anim id=\"Hello\" target=\"actor\" targetSpec=\"\"}}多有打搅了。{{delay frames=\"40\"}}\n{{anim id=\"FaintSmile\" target=\"actor\" targetSpec=\"\"}}希望你也能和我友好交往哦。{{string value=\"6\"}}。"
  },
  {
    "label": "512",
    "attribute": "0x0000000000000000",
    "text": "{{fun_0014003C arg=\"\"}}"
  },
  {
    "label": "512_01",
    "attribute": "0x0000000000000000",
    "text": "{{anim id=\"Aha\" target=\"actor\" targetSpec=\"\"}}哎呀！{{delay8}}我们是第一次见面吧？{{delay20}}\n{{anim id=\"FaintSmile\" target=\"actor\" targetSpec=\"\"}}我是刚搬到这座{{string value=\"32\"}}上的{{delay8}}\n{{string value=\"VillagerName\"}}哦。{{pageBreak}}{{anim id=\"EmotEnd\" target=\"actor\" targetSpec=\"\"}}那么你{{string value=\"...\"}}{{i10_4}}\n{{anim id=\"BigSmile\" target=\"actor\" targetSpec=\"\"}}原来你叫做{{string value=\"4\"}}呀。{{delay20}}\n{{anim id=\"FaintSmile\" target=\"actor\" targetSpec=\"\"}}有人这样和我问好，感觉很高兴。{{pageBreak}}今后可能免不了{{delay8}}\n给你添一些麻烦，{{delay8}}\n{{anim id=\"Hello\" target=\"actor\" targetSpec=\"\"}}还请你和我多多来往吧。{{string value=\"6\"}}。"
  },
  {
    "label": "512_02",
    "attribute": "0x0000000000000000",
    "text": "{{anim id=\"Aha\" target=\"actor\" targetSpec=\"\"}}哎呀，{{delay8}}你好！{{delay frames=\"40\"}}\n{{anim id=\"EmotEnd\" target=\"actor\" targetSpec=\"\"}}你是{{delay8}}{{anim id=\"Hello\" target=\"actor\" targetSpec=\"\"}}这座{{string value=\"32\"}}上的居民吧？{{delay frames=\"40\"}}\n我的名字是{{string value=\"VillagerName\"}}。{{pageBreak}}{{anim id=\"QuestionMark\" target=\"actor\" targetSpec=\"\"}}你呢？{{i10_4}}\n{{anim id=\"FaintSmile\" target=\"actor\" targetSpec=\"\"}}嗯，你叫{{delay8}}{{anim id=\"BigSmile\" target=\"actor\" targetSpec=\"\"}}{{string value=\"4\"}}……{{anim id=\"FaintSmile\" target=\"actor\" targetSpec=\"\"}}{{pageBreak}}我还不是很了解{{string value=\"32\"}}上的情况，{{delay8}}\n心里多少有些不安……{{delay20}}\n{{anim id=\"Hesitate\" target=\"actor\" targetSpec=\"\"}}希望你能和我做朋友哦。{{string value=\"6\"}}。"
  },
  {
    "label": "513",
    "attribute": "0x0000000000000000",
    "text": "{{anim id=\"BigSmile\" target=\"actor\" targetSpec=\"\"}}哎呀！{{delay20}}\n你就是{{string value=\"4\"}}对吧！{{delay20}}\n我听过你的传闻哦。{{anim id=\"FaintSmile\" target=\"actor\" targetSpec=\"\"}}{{pageBreak}}{{anim id=\"Oops\" target=\"actor\" targetSpec=\"\"}}不好，{{delay20}}我都忘记自我介绍了，真抱歉！{{delay frames=\"40\"}}{{anim id=\"EmotEnd\" target=\"actor\" targetSpec=\"\"}}{{i10_4}}\n{{anim id=\"FaintSmile\" target=\"actor\" targetSpec=\"\"}}我的名字是{{string value=\"VillagerName\"}}，{{pageBreak}}以后{{anim id=\"Greeting\" target=\"actor\" targetSpec=\"\"}}就请{{delay8}}多指教啦！{{delay8}}\n希望我们能做好朋友。{{string value=\"6\"}}。"
  },
  {
    "label": "514",
    "attribute": "0x0000000000000000",
    "text": "{{anim id=\"Shaking\" target=\"actor\" targetSpec=\"\"}}{{string value=\"...\"}}哎呀，{{delay8}}你是{{string value=\"...\"}}{{pageBreak}}{{anim id=\"Worried\" target=\"actor\" targetSpec=\"\"}}还没来得及自我介绍，{{delay20}}\n我是{{string value=\"VillagerName\"}}。{{delay frames=\"40\"}}\n请多指教{{string value=\"...\"}}\n{{string value=\"...\"}}很抱歉。{{delay20}}\n我现在{{delay8}}得了感冒{{string value=\"...\"}}{{pageBreak}}这样{{delay8}}可能会传染给你的。{{delay20}}\n还是等我病好之后，{{delay8}}\n我们再好好聊一聊吧。{{delay8}}{{anim id=\"Sneezing\" target=\"actor\" targetSpec=\"\"}}{{string value=\"Catchphrase\"}}。"
  }
]