﻿[
  {
    "label": "001",
    "attribute": "0x00000C0100000000",
    "text": "{{anim id=\"Shocked\" target=\"actor\" targetSpec=\"\"}}Oh! {{delay8}}Hey!{{setNpcTalkChoices chatOption=\"0\" cancelOption=\"1\"}}"
  },
  {
    "label": "002",
    "attribute": "0x00000C0100000000",
    "text": "{{anim id=\"FaintSmile\" target=\"actor\" targetSpec=\"\"}}Well now, {{delay8}}how ya doin', kiddo?{{setNpcTalkChoices chatOption=\"0\" cancelOption=\"1\"}}"
  },
  {
    "label": "003",
    "attribute": "0x00000C0100000000",
    "text": "{{anim id=\"FaintSmile\" target=\"actor\" targetSpec=\"\"}}Hey, {{delay8}}how's it goin', {{string value=\"Catchphrase\"}}?{{setNpcTalkChoices chatOption=\"0\" cancelOption=\"1\"}}"
  },
  {
    "label": "004",
    "attribute": "0x00000C0100000000",
    "text": "{{anim id=\"Eh\" target=\"actor\" targetSpec=\"\"}}Hey, how's it goin'?{{delay20}}\n{{anim id=\"FaintSmile\" target=\"actor\" targetSpec=\"\"}}Lookin' sharp, kiddo.{{setNpcTalkChoices chatOption=\"0\" cancelOption=\"1\"}}"
  },
  {
    "label": "005",
    "attribute": "0x00000C0100000000",
    "text": "{{anim id=\"FaintSmile\" target=\"actor\" targetSpec=\"\"}}Always a pleasure to see ya.{{setNpcTalkChoices chatOption=\"0\" cancelOption=\"1\"}}"
  }
]