﻿[
  {
    "label": "001_01",
    "attribute": "0x000021",
    "text": "Ab jetzt vergeht die {{color id=\"1\"}}Zeit {{color id=\"65535\"}}hier auf der\nInsel {{color id=\"1\"}}synchron mit der echten Welt{{color id=\"65535\"}}."
  },
  {
    "label": "001_02",
    "attribute": "0x000021",
    "text": "Ab jetzt wird alles, was du in\ndeiner neuen Inselheimat tust,\n{{color id=\"1\"}}automatisch gespeichert{{color id=\"65535\"}}."
  },
  {
    "label": "002",
    "attribute": "0x000021",
    "text": "Berühre nicht {{color id=\"1\"}} (POWER-Knopf){{color id=\"65535\"}},\nwenn oben rechts das Symbol {{color id=\"1\"}} {{color id=\"65535\"}}für\n{{color id=\"1\"}}automatisches Speichern{{color id=\"65535\"}} erscheint.{{pageBreak}}Wenn du aufhören möchtest, kannst\ndu auch {{color id=\"1\"}}{{color id=\"65535\"}} drücken und dann dein\nSpiel speichern und beenden."
  }
]