﻿[
  {
    "label": "001",
    "attribute": "0x0000000000000000",
    "text": "{{anim id=\"BigSmile\" target=\"actor\" targetSpec=\"\"}}Ehi, {{delay20}}{{anim id=\"FaintSmile\" target=\"actor\" targetSpec=\"\"}}ho sentito che potresti avere {{wordArticle}}{{fun_0000007D arg=\"0x0000\"}}. {{delay frames=\"40\"}}{{anim id=\"Serious\" target=\"actor\" targetSpec=\"\"}}Dimmi...{{delay frames=\"40\"}} è vero?{{pageBreak}}{{anim id=\"Aha\" target=\"actor\" targetSpec=\"\"}}Oh! So già la risposta! È vero!\n{{delay20}}{{anim id=\"Frantic\" target=\"actor\" targetSpec=\"\"}}E tu sei nella posizione di esaudire\ni miei desideri, {{string value=\"6\"}}!"
  },
  {
    "label": "002",
    "attribute": "0x0000000000000000",
    "text": "{{anim id=\"Angry\" target=\"actor\" targetSpec=\"\"}}Aaargh! Voglio più di chiunque altro {{wordArticle}}{{fun_0000007D arg=\"0x0000\"}}! {{delay20}}{{anim id=\"Frantic\" target=\"actor\" targetSpec=\"\"}}Non posso farci nulla!{{pageBreak}}{{anim id=\"Thinking\" target=\"actor\" targetSpec=\"\"}}Stavo pensando che se c'è qualcuno\nche può aiutarmi, quel qualcuno sei\ntu, {{string value=\"NickName\"}}.\n{{anim id=\"Smiling\" target=\"actor\" targetSpec=\"\"}}Ho ragione?"
  },
  {
    "label": "003",
    "attribute": "0x0000020000000000",
    "text": "{{anim id=\"Worried\" target=\"actor\" targetSpec=\"\"}}Sto cercando {{wordArticle}}{{fun_0000007D arg=\"0x0000\"}} disperatamente, {{delay8}}ma...{{pageBreak}}{{anim id=\"Sighing\" target=\"actor\" targetSpec=\"\"}}Ho cercato in lungo e in largo, {{delay8}}con\nil solo risultato di sovrallenare i miei\nquadricipiti e{{string value=\"...\"}} {{delay8}}{{anim id=\"TakenAback\" target=\"actor\" targetSpec=\"\"}}Aspetta, tu... {{delay8}}cosa?!\n{{delay8}}{{anim id=\"Frantic\" target=\"actor\" targetSpec=\"\"}}Se hai ciò che cerco, non ti chiedo\ndi regalarmelo, giammai! {{delay8}}Ma potresti\nalmeno considerare di vendermelo?"
  },
  {
    "label": "003_a",
    "attribute": "0x0000000000000000",
    "text": "{{anim id=\"EmotEnd\" target=\"player\" targetSpec=\"\"}}Quanto mi daresti?"
  },
  {
    "label": "003_b",
    "attribute": "0x0000000000000000",
    "text": "Scusa, non posso."
  },
  {
    "label": "004",
    "attribute": "0x0000020000000000",
    "text": "{{anim id=\"Sighing\" target=\"actor\" targetSpec=\"\"}}Ho cercato in tutti i modi di ottenere {{wordArticle}}{{fun_0000007D arg=\"0x0000\"}}, {{delay8}}{{anim id=\"Worried\" target=\"actor\" targetSpec=\"\"}}ma non ho avuto fortuna.{{pageBreak}}{{anim id=\"OhGeez\" target=\"actor\" targetSpec=\"\"}}Non so più che fare, quindi{{string value=\"...\"}}\nAspetta{{string value=\"...\"}} Non ce l'avrai mica{{string value=\"...\"}}?{{pageBreak}}{{anim id=\"Shocked\" target=\"actor\" targetSpec=\"\"}}Sì! Nessun dubbio! Hai {{wordArticle}}{{fun_0000007D arg=\"0x0000\"}}!{{pageBreak}}{{anim id=\"QuestionMark\" target=\"actor\" targetSpec=\"\"}}Io sono pronto all'acquisto, {{string value=\"6\"}}!"
  },
  {
    "label": "004_a",
    "attribute": "0x0000000000000000",
    "text": "{{anim id=\"EmotEnd\" target=\"player\" targetSpec=\"\"}}Quanto mi offri?"
  },
  {
    "label": "004_b",
    "attribute": "0x0000000000000000",
    "text": "Scusa, non posso."
  },
  {
    "label": "005",
    "attribute": "0x0000000000000000",
    "text": "{{anim id=\"Negative\" target=\"actor\" targetSpec=\"\"}}Mi dispiace sentirtelo dire, ma{{string value=\"...\"}}\n{{anim id=\"Greeting\" target=\"actor\" targetSpec=\"\"}}nessun problema, amici come\nprima, {{string value=\"6\"}}!"
  },
  {
    "label": "006",
    "attribute": "0x0000000000000000",
    "text": "{{anim id=\"BrokenHeart\" target=\"actor\" targetSpec=\"\"}}Oooh, non ci voleva.{{delay frames=\"40\"}}{{anim id=\"Greeting\" target=\"actor\" targetSpec=\"\"}} Vabbè, non è\nla fine del mondo. Lasciamo perdere,\n{{string value=\"6\"}}."
  },
  {
    "label": "100",
    "attribute": "0x0000020000000000",
    "text": "{{anim id=\"Hesitate\" target=\"actor\" targetSpec=\"\"}}Dunque, {{string value=\"NickName\"}}{{string value=\"...\"}}\nTi va di {{gender8 m=\"vendermelo\" f=\"vendermela\" n=\"\"}}?"
  },
  {
    "label": "100_a",
    "attribute": "0x0000000000000000",
    "text": "{{anim id=\"EmotEnd\" target=\"player\" targetSpec=\"\"}}Quanto mi dai?"
  },
  {
    "label": "100_b",
    "attribute": "0x0000000000000000",
    "text": "No, scusa..."
  },
  {
    "label": "101",
    "attribute": "0x0000020000000000",
    "text": "{{anim id=\"Thinking\" target=\"actor\" targetSpec=\"\"}}Vediamo{{string value=\"...\"}}{{delay frames=\"40\"}} {{anim id=\"Smiling\" target=\"actor\" targetSpec=\"\"}}Che ne dici di\n{{number value=\"21\" index=\"3\"}}?"
  },
  {
    "label": "101_a",
    "attribute": "0x0000000000000000",
    "text": "Va bene!"
  },
  {
    "label": "101_b",
    "attribute": "0x0000000000000000",
    "text": "No, lascia perdere..."
  },
  {
    "label": "102",
    "attribute": "0x0000000000000000",
    "text": "{{anim id=\"Shocked\" target=\"actor\" targetSpec=\"\"}}Eh?! {{delay20}}Ti va bene?{{delay frames=\"40\"}} Voglio dire{{string value=\"...\"}}\n{{anim id=\"HappyDance\" target=\"actor\" targetSpec=\"\"}}Grazieee!"
  },
  {
    "label": "103",
    "attribute": "0x0000000000000000",
    "text": "{{anim id=\"Sighing\" target=\"actor\" targetSpec=\"\"}}Capisco{{string value=\"...\"}}{{delay8}} Beh, se la pensi così, non\nc'è niente da fare.{{delay frames=\"40\"}}{{anim id=\"Greeting\" target=\"actor\" targetSpec=\"\"}} Vedrò di proporre\nl'affare a qualcun altro."
  },
  {
    "label": "104",
    "attribute": "0x0000000000000000",
    "text": "{{anim id=\"BigSmile\" target=\"actor\" targetSpec=\"\"}}Evviva! Grazie, {{string value=\"NickName\"}}!{{delay20}}\n{{anim id=\"Smiling\" target=\"actor\" targetSpec=\"\"}}Io e te formiamo una squadra\nimbattibile, {{string value=\"6\"}}!"
  },
  {
    "label": "105",
    "attribute": "0x0000020000000000",
    "text": "{{anim id=\"Surprised\" target=\"actor\" targetSpec=\"\"}}Cosa?!{{delay frames=\"40\"}}{{anim id=\"Frantic\" target=\"actor\" targetSpec=\"\"}} E perché mai? Mi sembra\nincredibile che non possiamo\ngiungere a un accordo!"
  },
  {
    "label": "105_a",
    "attribute": "0x0000000000000000",
    "text": "{{anim id=\"EmotEnd\" target=\"player\" targetSpec=\"\"}}Già, hai ragione."
  },
  {
    "label": "105_b",
    "attribute": "0x0000000000000000",
    "text": "{{anim id=\"EmotEnd\" target=\"player\" targetSpec=\"\"}}E invece è così."
  },
  {
    "label": "106",
    "attribute": "0x0000000000000000",
    "text": "{{anim id=\"Shocked\" target=\"actor\" targetSpec=\"\"}}Oh, {{delay8}}non immaginavo fossi così\nattaccat{{gender2 m=\"o\" f=\"a\"}} alle tue cose{{string value=\"...\"}} {{delay20}}{{anim id=\"Smiling\" target=\"actor\" targetSpec=\"\"}}Vabbè,\ncercherò altrove."
  },
  {
    "label": "107",
    "attribute": "0x0000020000000000",
    "text": "{{anim id=\"Angry\" target=\"actor\" targetSpec=\"\"}}Non posso farci nulla!{{delay frames=\"40\"}}{{anim id=\"SmugFace\" target=\"actor\" targetSpec=\"\"}} Quando voglio\nuna cosa, non mi arrendo finché\nnon la ottengo!"
  },
  {
    "label": "107_a",
    "attribute": "0x0000000000000000",
    "text": "{{anim id=\"EmotEnd\" target=\"player\" targetSpec=\"\"}}Allora, quanto mi dai?"
  },
  {
    "label": "107_b",
    "attribute": "0x0000000000000000",
    "text": "{{anim id=\"EmotEnd\" target=\"player\" targetSpec=\"\"}}Non se ne fa niente."
  },
  {
    "label": "108",
    "attribute": "0x0000000000000000",
    "text": "{{anim id=\"TakenAback\" target=\"actor\" targetSpec=\"\"}}Oh, non credevo fosse una cosa\ncosì importante per te.{{pageBreak}}{{anim id=\"Negative\" target=\"actor\" targetSpec=\"\"}}Niente paura, {{delay8}}{{string value=\"NickName\"}}.\nNon avrei neanche dovuto\nproportelo. Di solito non sono così{{string value=\"...\"}}\n{{anim id=\"Frantic\" target=\"actor\" targetSpec=\"\"}}Che vergogna, {{string value=\"6\"}}!"
  },
  {
    "label": "109",
    "attribute": "0x0000000000000000",
    "text": "{{anim id=\"Aha\" target=\"actor\" targetSpec=\"\"}}Come?! Davvero sei d'accordo?"
  },
  {
    "label": "110",
    "attribute": "0x0000020000000000",
    "text": "{{anim id=\"Thinking\" target=\"actor\" targetSpec=\"\"}}Bene, allora{{string value=\"...\"}}{{delay frames=\"40\"}}\n{{anim id=\"EmotEnd\" target=\"actor\" targetSpec=\"\"}}{{anim id=\"QuestionMark\" target=\"actor\" targetSpec=\"\"}}Che ne pensi di {{number value=\"21\" index=\"2\"}}?{{delay20}}"
  },
  {
    "label": "110_a",
    "attribute": "0x0000000000000000",
    "text": "Molto bene!"
  },
  {
    "label": "110_b",
    "attribute": "0x0000000000000000",
    "text": "No, grazie..."
  },
  {
    "label": "111",
    "attribute": "0x0000000000000000",
    "text": "{{anim id=\"Shocked\" target=\"actor\" targetSpec=\"\"}}Davvero?!{{delay frames=\"40\"}} {{anim id=\"Smiling\" target=\"actor\" targetSpec=\"\"}}Magnifico!"
  },
  {
    "label": "112",
    "attribute": "0x0000000000000000",
    "text": "{{anim id=\"Oops\" target=\"actor\" targetSpec=\"\"}}Quindi alla fine non se ne fa niente.{{delay frames=\"50\"}}{{anim id=\"EmotEnd\" target=\"actor\" targetSpec=\"\"}}\n{{anim id=\"BigSmile\" target=\"actor\" targetSpec=\"\"}}Va bene, continuerò a cercare.\nIn gamba, {{string value=\"NickName\"}}."
  },
  {
    "label": "113",
    "attribute": "0x0000000000000000",
    "text": "{{anim id=\"Greeting\" target=\"actor\" targetSpec=\"\"}}Così si fa, {{delay8}}{{string value=\"NickName\"}}.{{delay20}}\n{{anim id=\"HappyFlower\" target=\"actor\" targetSpec=\"\"}}Me ne prenderò cura, puoi\nscommetterci, {{string value=\"6\"}}!"
  },
  {
    "label": "114",
    "attribute": "0x0000020000000000",
    "text": "{{anim id=\"Laughing\" target=\"actor\" targetSpec=\"\"}}Uau! Questa trattativa è più\nappassionante del nuovo numero\ndi \"Palestra extra\"!\n{{anim id=\"Nodding\" target=\"actor\" targetSpec=\"\"}}Dunque{{string value=\"...\"}}{{anim id=\"Greeting\" target=\"actor\" targetSpec=\"\"}} Che ne diresti di\n{{number value=\"21\" index=\"4\"}}?"
  },
  {
    "label": "114_a",
    "attribute": "0x0000000000000000",
    "text": "Vanno bene!"
  },
  {
    "label": "114_b",
    "attribute": "0x0000000000000000",
    "text": "Scusa, non posso..."
  },
  {
    "label": "115",
    "attribute": "0x0000000000000000",
    "text": "{{anim id=\"HappyDance\" target=\"actor\" targetSpec=\"\"}}Evviva! È proprio vero che\na volte i sogni diventano realtà,\n{{string value=\"6\"}}!"
  },
  {
    "label": "116",
    "attribute": "0x0000000000000000",
    "text": "{{anim id=\"Worried\" target=\"actor\" targetSpec=\"\"}}Non posso offrirti più di così,\nper cui{{string value=\"...\"}}{{pageBreak}}{{anim id=\"Negative\" target=\"actor\" targetSpec=\"\"}}Peccato.{{delay frames=\"40\"}}{{anim id=\"Greeting\" target=\"actor\" targetSpec=\"\"}} Fammi un fischio se cambi\nidea."
  },
  {
    "label": "117",
    "attribute": "0x0000000000000000",
    "text": "{{anim id=\"Smiling\" target=\"actor\" targetSpec=\"\"}}Grazie a te, ho finalmente\n{{delay8}}{{wordArticle}}{{fun_0000007D arg=\"0x0000\"}}.\n{{delay frames=\"40\"}}{{anim id=\"BigSmile\" target=\"actor\" targetSpec=\"\"}}Grazie, {{string value=\"6\"}}!"
  },
  {
    "label": "118",
    "attribute": "0x0000000000000000",
    "text": "{{anim id=\"Worried\" target=\"actor\" targetSpec=\"\"}}Mmmh...{{delay20}}{{anim id=\"Negative\" target=\"actor\" targetSpec=\"\"}} Scusa se ti ho messo\nin difficoltà, {{string value=\"NickName\"}}.{{pageBreak}}{{anim id=\"Smiling\" target=\"actor\" targetSpec=\"\"}}Non mi resta che battere in ritirata\ne ammettere la sconfitta,\n{{string value=\"6\"}}."
  },
  {
    "label": "200",
    "attribute": "0x0000020000000000",
    "text": "{{anim id=\"QuestionMark\" target=\"actor\" targetSpec=\"\"}}Quindi, ehm, vuoi vendere o no?"
  },
  {
    "label": "200_a",
    "attribute": "0x0000000000000000",
    "text": "{{anim id=\"EmotEnd\" target=\"player\" targetSpec=\"\"}}Quanto mi offriresti?"
  },
  {
    "label": "200_b",
    "attribute": "0x0000000000000000",
    "text": "No, mi dispiace."
  },
  {
    "label": "201",
    "attribute": "0x0000020000000000",
    "text": "{{anim id=\"Thinking\" target=\"actor\" targetSpec=\"\"}}Bene, riflettiamoci un attimo{{string value=\"...\"}}{{delay frames=\"40\"}}\n{{anim id=\"EmotEnd\" target=\"actor\" targetSpec=\"\"}}Facciamo{{string value=\"...\"}} {{number value=\"21\" index=\"1\"}}{{delay20}}{{anim id=\"QuestionMark\" target=\"actor\" targetSpec=\"\"}}?"
  },
  {
    "label": "201_a",
    "attribute": "0x0000000000000000",
    "text": "Va bene!\nOK!"
  },
  {
    "label": "201_b",
    "attribute": "0x0000000000000000",
    "text": "Mi dispiace...\nNon è possibile..."
  },
  {
    "label": "202",
    "attribute": "0x0000000000000000",
    "text": "{{anim id=\"Oops\" target=\"actor\" targetSpec=\"\"}}Non va? Ho sbagliato qualcosa?{{delay frames=\"60\"}}{{anim id=\"EmotEnd\" target=\"actor\" targetSpec=\"\"}}\nÈ un gran peccato, ma{{string value=\"...\"}}{{delay frames=\"40\"}} {{anim id=\"Smiling\" target=\"actor\" targetSpec=\"\"}}non mi darò\nper vinto, {{string value=\"6\"}}."
  },
  {
    "label": "203",
    "attribute": "0x0000000000000000",
    "text": "{{anim id=\"Shocked\" target=\"actor\" targetSpec=\"\"}}Eh?! Veramente?{{i10_4}}\n{{anim id=\"HappyDance\" target=\"actor\" targetSpec=\"\"}}Evvivaaaaaaaaaaaaaaa!{{delay frames=\"40\"}}\nSono gasatissimo, {{string value=\"6\"}}!"
  },
  {
    "label": "204",
    "attribute": "0x0000000000000000",
    "text": "{{anim id=\"Shocked\" target=\"actor\" targetSpec=\"\"}}Niente da fare, eh?{{delay20}}{{anim id=\"Worried\" target=\"actor\" targetSpec=\"\"}} Me ne farò\nuna ragione, non preoccuparti{{string value=\"...\"}}{{pageBreak}}{{anim id=\"Smiling\" target=\"actor\" targetSpec=\"\"}}Vedrò di cercare un altro po'\nin giro.{{delay20}} {{anim id=\"Greeting\" target=\"actor\" targetSpec=\"\"}}A dopo, {{string value=\"NickName\"}}!"
  },
  {
    "label": "205",
    "attribute": "0x0000000000000000",
    "text": "{{anim id=\"BigSmile\" target=\"actor\" targetSpec=\"\"}}Grazie, {{delay8}}{{string value=\"NickName\"}}!{{delay20}}\n{{anim id=\"FaintSmile\" target=\"actor\" targetSpec=\"\"}}Me ne prenderò cura, {{string value=\"6\"}}!"
  },
  {
    "label": "300",
    "attribute": "0x0000020000000000",
    "text": "{{anim id=\"Smiling\" target=\"actor\" targetSpec=\"\"}}Dunque, facciamo{{string value=\"...\"}} {{anim id=\"QuestionMark\" target=\"actor\" targetSpec=\"\"}}{{number value=\"21\" index=\"2\"}}?"
  },
  {
    "label": "300_a",
    "attribute": "0x0000000000000000",
    "text": "Certo!"
  },
  {
    "label": "300_b",
    "attribute": "0x0000000000000000",
    "text": "No, non ci siamo..."
  },
  {
    "label": "301",
    "attribute": "0x0000000000000000",
    "text": "{{anim id=\"Aha\" target=\"actor\" targetSpec=\"\"}}Sei d'accordo?{{delay20}}{{anim id=\"HappyDance\" target=\"actor\" targetSpec=\"\"}} Evvivaaa!"
  },
  {
    "label": "302",
    "attribute": "0x0000000000000000",
    "text": "{{anim id=\"Worried\" target=\"actor\" targetSpec=\"\"}}Oh, capperi.{{delay frames=\"40\"}}{{anim id=\"BigSmile\" target=\"actor\" targetSpec=\"\"}} Beh, fammi sapere\nse cambi idea, {{anim id=\"FaintSmile\" target=\"actor\" targetSpec=\"\"}}d'accordo,\n{{string value=\"6\"}}?"
  },
  {
    "label": "303",
    "attribute": "0x0000000000000000",
    "text": "{{anim id=\"Nodding\" target=\"actor\" targetSpec=\"\"}}Sei grande, {{string value=\"NickName\"}}!{{delay frames=\"40\"}}\n{{anim id=\"Greeting\" target=\"actor\" targetSpec=\"\"}}Ci vediamo in giro, {{string value=\"6\"}}!"
  },
  {
    "label": "304",
    "attribute": "0x0000020000000000",
    "text": "{{anim id=\"Negative\" target=\"actor\" targetSpec=\"\"}}Ho solo {{number value=\"21\" index=\"3\"}}.{{delay frames=\"40\"}}{{anim id=\"Apologize\" target=\"actor\" targetSpec=\"\"}} Che ne dici?"
  },
  {
    "label": "304_a",
    "attribute": "0x0000000000000000",
    "text": "Va bene!"
  },
  {
    "label": "304_b",
    "attribute": "0x0000000000000000",
    "text": "No, lasciamo perdere."
  },
  {
    "label": "305",
    "attribute": "0x0000000000000000",
    "text": "{{anim id=\"Shocked\" target=\"actor\" targetSpec=\"\"}}Non hai obiezioni?!{{delay frames=\"40\"}}{{anim id=\"HappyFlower\" target=\"actor\" targetSpec=\"\"}} Evviva! Sapevo\ndi poter contare su di te!"
  },
  {
    "label": "306",
    "attribute": "0x0000000000000000",
    "text": "{{anim id=\"SadSpiral\" target=\"actor\" targetSpec=\"\"}}Urgh, {{delay8}}tutti i miei risparmi ancora\nnon bastano. {{delay20}}{{anim id=\"Worried\" target=\"actor\" targetSpec=\"\"}}Se solo il mio portafogli\nfosse gonfio come i miei muscoli{{string value=\"...\"}}"
  },
  {
    "label": "307",
    "attribute": "0x0000000000000000",
    "text": "{{anim id=\"HappyDance\" target=\"actor\" targetSpec=\"\"}}Sììì! Finalmente ho {{wordArticle}}{{fun_0000007D arg=\"0x0000\"}}!{{pageBreak}}{{anim id=\"FaintSmile\" target=\"actor\" targetSpec=\"\"}}Me ne prenderò cura, {{string value=\"6\"}}."
  },
  {
    "label": "400",
    "attribute": "0x0000020000000000",
    "text": "{{anim id=\"Shocked\" target=\"actor\" targetSpec=\"\"}}Oh! Uau. Va bene.{{anim id=\"Thinking\" target=\"actor\" targetSpec=\"\"}} Ehm{{string value=\"...\"}}{{delay frames=\"40\"}}\n{{anim id=\"Serious\" target=\"actor\" targetSpec=\"\"}}Accetteresti {{anim id=\"QuestionMark\" target=\"actor\" targetSpec=\"\"}}{{number value=\"21\" index=\"2\"}}?"
  },
  {
    "label": "400_a",
    "attribute": "0x0000000000000000",
    "text": "Ma certo!"
  },
  {
    "label": "400_b",
    "attribute": "0x0000000000000000",
    "text": "No."
  },
  {
    "label": "401",
    "attribute": "0x0000000000000000",
    "text": "{{anim id=\"HappyDance\" target=\"actor\" targetSpec=\"\"}}Evviva! Grazie!"
  },
  {
    "label": "402",
    "attribute": "0x0000000000000000",
    "text": "{{anim id=\"SadSpiral\" target=\"actor\" targetSpec=\"\"}}Sì, immaginavo che sarebbe finita\ncosì.{{delay frames=\"40\"}} {{anim id=\"Negative\" target=\"actor\" targetSpec=\"\"}}Oh, beh. Sono cose che\nsuccedono, {{string value=\"NickName\"}}.\n{{anim id=\"Smiling\" target=\"actor\" targetSpec=\"\"}}Ora dovrò rimboccarmi le maniche{{anim id=\"Assent\" target=\"actor\" targetSpec=\"\"}}\ne far vedere a tutti i miei musc{{string value=\"...\"}}\nehm{{string value=\"...\"}} di che pasta sono fatto!"
  },
  {
    "label": "403",
    "attribute": "0x0000000000000000",
    "text": "{{anim id=\"HappyDance\" target=\"actor\" targetSpec=\"\"}}Ottimo! Finalmente avrò {{wordArticle}}{{delay8}}{{fun_0000007D arg=\"0x0000\"}}!{{pageBreak}}{{anim id=\"Laughing\" target=\"actor\" targetSpec=\"\"}}Ti sarò eternamente debitore, {{string value=\"NickName\"}}, {{string value=\"6\"}}!"
  },
  {
    "label": "404",
    "attribute": "0x0000020000000000",
    "text": "{{anim id=\"WrySmile\" target=\"actor\" targetSpec=\"\"}}Beh, ho solo {{number value=\"21\" index=\"1\"}} con me.{{i10_4}}\n{{anim id=\"Hesitate\" target=\"actor\" targetSpec=\"\"}}Che ne dici?"
  },
  {
    "label": "404_a",
    "attribute": "0x0000000000000000",
    "text": "Dico affare fatto!"
  },
  {
    "label": "404_b",
    "attribute": "0x0000000000000000",
    "text": "Dico di no..."
  },
  {
    "label": "405",
    "attribute": "0x0000000000000000",
    "text": "{{anim id=\"Aha\" target=\"actor\" targetSpec=\"\"}}Davvero? {{delay frames=\"40\"}}{{anim id=\"Smiling\" target=\"actor\" targetSpec=\"\"}}Che felicità, {{string value=\"6\"}}!"
  },
  {
    "label": "406",
    "attribute": "0x0000000000000000",
    "text": "{{anim id=\"BrokenHeart\" target=\"actor\" targetSpec=\"\"}}Uff... {{delay frames=\"50\"}}{{anim id=\"WrySmile\" target=\"actor\" targetSpec=\"\"}}Beh, allora mi sa proprio\nche dobbiamo piantarla qui."
  },
  {
    "label": "407",
    "attribute": "0x0000000000000000",
    "text": "{{anim id=\"Greeting\" target=\"actor\" targetSpec=\"\"}}Questo è un giorno da ricordare,\ngrazie a te!{{delay20}}{{anim id=\"BigSmile\" target=\"actor\" targetSpec=\"\"}} Ti prometto che me\nne prenderò cura, {{string value=\"6\"}}!"
  }
]