﻿[
  {
    "label": "001",
    "attribute": "0x0000000000000000",
    "text": "{{anim id=\"Explain\" target=\"actor\" targetSpec=\"\"}}Ho sentito che qualcuno era stato\nportato sulla spiaggia dalle onde,\n{{delay8}}come in un libro d'avventure!\n{{anim id=\"Laughing\" target=\"actor\" targetSpec=\"\"}}Sono andato a vedere e alla fine era\nsolo{{color id=\"3\"}} Gulliver{{color id=\"65535\"}} che stava dormendo lì.\n{{delay20}}Quanto russava!"
  },
  {
    "label": "002",
    "attribute": "0x0000000000000000",
    "text": "{{anim id=\"Smiling\" target=\"actor\" targetSpec=\"\"}}{{color id=\"3\"}}K.K.{{color id=\"65535\"}} terrà uno spettacolo in piazza\noggi!{{pageBreak}}{{anim id=\"HappyFlower\" target=\"actor\" targetSpec=\"\"}}Di notte accetta richieste {{delay8}}e non vedo\nl'ora di snocciolargli la mia lista di\npezzi preferiti, {{string value=\"6\"}}!\n{{anim id=\"HappyDance\" target=\"actor\" targetSpec=\"\"}}Che voglia ho di vederlo! {{delay20}}Lo ascolto\nquando cucino, mangio, {{delay8}}prima di\nmettermi a letto{{string value=\"...\"}} insomma, sempre!"
  },
  {
    "label": "003",
    "attribute": "0x0000000000000000",
    "text": "{{anim id=\"Greeting\" target=\"actor\" targetSpec=\"\"}}Ho appena visto passare {{color id=\"3\"}}Beatrice{{color id=\"65535\"}}!\n{{delay20}}Avevo paura ad aprire bocca perché\nmi ero fatto un bello spuntino{{string value=\"...\"}}\n{{anim id=\"QuestionMark\" target=\"actor\" targetSpec=\"\"}}Qual è il problema, dici? {{delay20}}{{anim id=\"Blushing\" target=\"actor\" targetSpec=\"\"}}Beh,\nil fatto è che avevo un... ruttino\nin rampa di lancio!\n{{anim id=\"FaintSmile\" target=\"actor\" targetSpec=\"\"}}Fortuna che mi è scappato solo\nquando ho sospirato di sollievo,\n{{delay8}}dopo che se n'era andata{{string value=\"...\"}}"
  },
  {
    "label": "004",
    "attribute": "0x0000000000000000",
    "text": "{{anim id=\"Explain\" target=\"actor\" targetSpec=\"\"}}Non ci posso credere! Oggi {{color id=\"3\"}}Sahara{{color id=\"65535\"}} è qui {{fun_000F0032 arg=\"\"}} {{string value=\"OtherIslandName\"}}.{{pageBreak}}{{anim id=\"ShyBoy\" target=\"actor\" targetSpec=\"\"}}Voglio chiederle un paio di consigli\nsu come riarredare casa{{string value=\"...\"}}{{pageBreak}}{{anim id=\"BigSmile\" target=\"actor\" targetSpec=\"\"}}E rendere l'ora della merenda\nun momento ancora più piacevole,\n{{string value=\"Catchphrase\"}}!"
  },
  {
    "label": "006",
    "attribute": "0x0000000000000000",
    "text": "{{anim id=\"Smiling\" target=\"actor\" targetSpec=\"\"}}Oggi {{color id=\"3\"}}K.K. {{color id=\"65535\"}}suona dal vivo davanti\nal {{color id=\"1\"}}centro servizi{{color id=\"65535\"}}!{{pageBreak}}{{anim id=\"HappyFlower\" target=\"actor\" targetSpec=\"\"}}Accetterà richieste e non vedo l'ora\n{{delay20}}di snocciolargli la mia lista di suoi\npezzi preferiti, {{string value=\"6\"}}!\n{{anim id=\"HappyDance\" target=\"actor\" targetSpec=\"\"}}Correrò a vederlo! {{delay20}}{{anim id=\"OhGeez\" target=\"actor\" targetSpec=\"\"}}Ma forse crollerei\ndalla fatica e non arriverei mai{{string value=\"...\"}}{{delay20}}\n{{anim id=\"FaintSmile\" target=\"actor\" targetSpec=\"\"}}Perciò camminerò!"
  },
  {
    "label": "007",
    "attribute": "0x0000000000000000",
    "text": "{{anim id=\"Smiling\" target=\"actor\" targetSpec=\"\"}}È domenica! {{delay frames=\"40\"}}Ciò significa che\nsull'isola è arrivata {{color id=\"3\"}}Brunella{{color id=\"65535\"}}!{{pageBreak}}{{anim id=\"Nodding\" target=\"actor\" targetSpec=\"\"}}Le sue verdure fresche sono così\ndeliziose! {{delay frames=\"40\"}}{{anim id=\"BigSmile\" target=\"actor\" targetSpec=\"\"}}Grazie a lei, {{delay8}}i miei spuntini\nstanno diventando super salutari!"
  },
  {
    "label": "008",
    "attribute": "0x0000000000000000",
    "text": "{{anim id=\"QuestionMark\" target=\"actor\" targetSpec=\"\"}}Ehi, hai visto quella barca ancorata\na nord dell'isola?{{delay20}} Qualcuno ci sta\nfacendo visita?{{pageBreak}}{{anim id=\"AbsentMindedness\" target=\"actor\" targetSpec=\"\"}}Deve essere importante se ha la sua\nbarca personale{{string value=\"...\"}}{{delay20}} {{anim id=\"IdeaBulb\" target=\"actor\" targetSpec=\"\"}}Pensi che mi farà\nsalire per suonare la sirena?"
  },
  {
    "label": "009",
    "attribute": "0x0000000000000000",
    "text": "{{anim id=\"Worried\" target=\"actor\" targetSpec=\"\"}}Oggi provo una strana sensazione,\n{{delay8}}quasi inquietante{{string value=\"...\"}}{{delay8}} e sono giunto\nalla conclusione che non è fame.\nAvverto una presenza sull'isola\nche non è di quest'isola{{string value=\"...\"}}{{pageBreak}}{{anim id=\"Frantic\" target=\"actor\" targetSpec=\"\"}}Qualcosa puzza di bruciato e non\nè un piatto di {{randomFood}}!"
  },
  {
    "label": "011",
    "attribute": "0x0000000000000000",
    "text": "{{anim id=\"Pardon\" target=\"actor\" targetSpec=\"\"}}Ehilà, {{delay8}}{{string value=\"NickName\"}}!{{delay frames=\"40\"}} Sei già stat{{gender2 m=\"o\" f=\"a\"}} a vedere un concerto speciale di compleanno di {{color id=\"3\"}}K.K.{{color id=\"65535\"}}?{{pageBreak}}{{anim id=\"HappyDance\" target=\"actor\" targetSpec=\"\"}}Lo tiene solo una volta all'anno,\nquindi farai meglio a non perdertelo,\n{{string value=\"6\"}}!"
  },
  {
    "label": "013",
    "attribute": "0x0000000000000000",
    "text": "{{anim id=\"Smiling\" target=\"actor\" targetSpec=\"\"}}Hai visto, {{string value=\"NickName\"}}? {{delay frames=\"40\"}}{{color id=\"3\"}}K.K. {{color id=\"65535\"}}è in piazza, {{delay8}}sta suonando un concerto {{delay8}}per qualcuno che compie gli anni!"
  },
  {
    "label": "014",
    "attribute": "0x0000000000000000",
    "text": "{{anim id=\"Greeting\" target=\"actor\" targetSpec=\"\"}}Sai chi ho appena visto? {{delay20}}{{color id=\"3\"}}Agostina{{color id=\"65535\"}}!\n{{delay frames=\"40\"}}{{anim id=\"FaintSmile\" target=\"actor\" targetSpec=\"\"}}Che genere di articoli di vestiario\navrà portato? {{delay20}}Li voglio tutti!\n{{anim id=\"Explain\" target=\"actor\" targetSpec=\"\"}}Ora colleziono anche vestiti {{delay8}}{{anim id=\"SmugFace\" target=\"actor\" targetSpec=\"\"}}perché\nmia nonna mi ha visto con un suo\ncapo {{delay8}}e ha detto che sono bellissimo!"
  },
  {
    "label": "015",
    "attribute": "0x0000000000000000",
    "text": "{{anim id=\"Smiling\" target=\"actor\" targetSpec=\"\"}}{{color id=\"3\"}}Castorino{{color id=\"65535\"}} è in visita all'isola oggi!\n{{delay20}}{{anim id=\"Explain\" target=\"actor\" targetSpec=\"\"}}Si agita tantissimo quando gli porto\ndei pesci, {{delay8}}non so perché. {{delay20}}Ma li paga!\n{{anim id=\"Laughing\" target=\"actor\" targetSpec=\"\"}}Come se non sapesse che può\npescarli gratis anche da solo,\n{{string value=\"6\"}}..."
  },
  {
    "label": "016",
    "attribute": "0x0000000000000000",
    "text": "{{anim id=\"Smiling\" target=\"actor\" targetSpec=\"\"}}Oggi {{color id=\"3\"}}Ivano{{color id=\"65535\"}} è sull'isola. {{delay20}}È un\ngrandissimo compratore\ndi insetti!\n{{anim id=\"Negative\" target=\"actor\" targetSpec=\"\"}}E anche se non sembra a prima\nvista, {{delay8}}{{anim id=\"Nodding\" target=\"actor\" targetSpec=\"\"}}sotto sotto è un pezzo di\npane. {{delay20}}{{anim id=\"AbsentMindedness\" target=\"actor\" targetSpec=\"\"}}Mmmh{{string value=\"...\"}} {{delay20}}Paaane{{string value=\"...\"}}"
  },
  {
    "label": "017",
    "attribute": "0x0000000000000000",
    "text": "{{anim id=\"FaintSmile\" target=\"actor\" targetSpec=\"\"}}{{color id=\"3\"}}Sciuscià {{color id=\"65535\"}}è qui {{fun_000F0032 arg=\"\"}} {{string value=\"OtherIslandName\"}}!{{delay frames=\"40\"}} Avrà sicuramente portato con sé qualcosa di fortissimo.{{delay frames=\"40\"}}{{pageBreak}}{{anim id=\"SmugFace\" target=\"actor\" targetSpec=\"\"}}{{delay20}}Più tardi vado a dare un'occhiata, {{string value=\"6\"}}!"
  },
  {
    "label": "018",
    "attribute": "0x0000000000000000",
    "text": "{{anim id=\"Smiling\" target=\"actor\" targetSpec=\"\"}}{{delay20}}Ho appena visto {{color id=\"3\"}}Celeste{{color id=\"65535\"}}! {{anim id=\"HappyFlower\" target=\"actor\" targetSpec=\"\"}}{{delay20}}\nAma le stelle tanto quanto io amo\n{{fun_00010032 arg=\"\"}}{{randomSweets}}!"
  },
  {
    "label": "019",
    "attribute": "0x0000000000000000",
    "text": "{{anim id=\"Explain\" target=\"actor\" targetSpec=\"\"}}Ero al centro servizi con alcuni amici,\n{{delay20}}quando abbiamo sentito un allegro\nrumore di salti.{{pageBreak}}{{anim id=\"Smiling\" target=\"actor\" targetSpec=\"\"}}Incuriosito, {{delay20}}mi sono allontanato per\ndare un'occhiata{{string value=\"...\"}}{{pageBreak}}{{anim id=\"ColdChill\" target=\"actor\" targetSpec=\"\"}}Era buio e non volava una mosca\nperché non c'era anima viva.{{delay20}} Ma poi\nho sentito di nuovo quel rumore{{string value=\"...\"}}\n{{i10_10}}{{anim id=\"Surprised\" target=\"actor\" targetSpec=\"\"}}{{size value=\"150\"}}PROPRIO DIETRO DI ME!{{size value=\"100\"}}{{pageBreak}}{{i10_9}}{{anim id=\"Frantic\" target=\"actor\" targetSpec=\"\"}}A quel punto, mi sono precipitato\ndi nuovo al centro servizi,{{delay20}} ma sono\ninciampato e sono piombato a terra!{{pageBreak}}{{anim id=\"Nodding\" target=\"actor\" targetSpec=\"\"}}Ed ecco perché mi fa male la zampa.\n{{delay frames=\"40\"}}{{anim id=\"Hello\" target=\"actor\" targetSpec=\"\"}}Tu invece che mi racconti di bello,\n{{string value=\"6\"}}?"
  },
  {
    "label": "020",
    "attribute": "0x0000000000000000",
    "text": "{{anim id=\"Nodding\" target=\"actor\" targetSpec=\"\"}}La fatina delle merendine mi ha\nconfidato che qui sull'isola c'è\n{{color id=\"3\"}}Florindo{{color id=\"65535\"}}!\n{{anim id=\"ShyBoy\" target=\"actor\" targetSpec=\"\"}}Devo scoprire quali fiori ha,\n{{string value=\"6\"}}."
  },
  {
    "label": "021",
    "attribute": "0x0000000000000000",
    "text": "{{anim id=\"Frantic\" target=\"actor\" targetSpec=\"\"}}C'è qualcuno che sta schiacciando un\npisolino in spiaggia{{string value=\"...\"}} e non sono io!{{delay frames=\"40\"}}\n{{anim id=\"Thinking\" target=\"actor\" targetSpec=\"\"}}{{color id=\"4\"}}Però ha un'aria molto familiare{{string value=\"...\"}}{{color id=\"65535\"}}"
  },
  {
    "label": "022",
    "attribute": "0x0000000000000000",
    "text": "{{anim id=\"ShyBoy\" target=\"actor\" targetSpec=\"\"}}{{color id=\"3\"}}K.K. {{color id=\"65535\"}}è troppo forte, no?{{delay20}} E terrà un\nconcerto qui, dico bene?{{delay20}} E accetterà\nrichieste,{{delay8}} giusto?{{delay20}} {{anim id=\"Blushing\" target=\"actor\" targetSpec=\"\"}}Uauuu{{string value=\"...\"}}{{anim id=\"EmotEnd\" target=\"actor\" targetSpec=\"\"}}{{pageBreak}}Vedi, {{delay8}}l'altro giorno mi ha chiesto se\nvolevo ascoltare una sua canzone {{delay20}}e\ndall'emozione mi è caduto lo snack.{{pageBreak}}{{anim id=\"Worried\" target=\"actor\" targetSpec=\"\"}}Purtroppo non aveva brani su snack\nperduti,{{delay20}} {{anim id=\"BigSmile\" target=\"actor\" targetSpec=\"\"}}quindi ne ha suonato uno\nnuovo:{{delay8}} {{color id=\"1\"}}{{fun_0000007D arg=\"0x0000\"}}{{color id=\"65535\"}}!{{pageBreak}}{{anim id=\"AbsentMindedness\" target=\"actor\" targetSpec=\"\"}}Era una melodia talmente bella che\nmi ha fatto subito dimenticare quello\nche era successo al mio amato cibo.\n{{anim id=\"HappyFlower\" target=\"actor\" targetSpec=\"\"}}Promettimi che la prossima volta\nrichiederai quella canzone, {{delay8}}OK?"
  },
  {
    "label": "023",
    "attribute": "0x0000000000000000",
    "text": "{{anim id=\"Hesitate\" target=\"actor\" targetSpec=\"\"}}Tu adori le cose mitiche, {{delay8}}no?{{delay20}} Beh,\nsappi che oggi {{color id=\"3\"}}K.K. {{color id=\"65535\"}}terrà un concerto\nsupermitico da noi, {{string value=\"6\"}}.\n{{anim id=\"Aha\" target=\"actor\" targetSpec=\"\"}}E hai sentito la sua nuova mitica\ncanzone?{{delay20}} È davvero,{{delay20}} davvero, {{delay20}}ehm{{string value=\"...\"}}{{delay8}}\n{{anim id=\"Blushing\" target=\"actor\" targetSpec=\"\"}}{{size value=\"75\"}}mitica.{{size value=\"100\"}}{{pageBreak}}{{anim id=\"AbsentMindedness\" target=\"actor\" targetSpec=\"\"}}Ha anche un titolo ultramitico, se\nla vuoi richiedere.{{delay20}} L'ha chiamata{{string value=\"...\"}}\n{{color id=\"1\"}}{{fun_0000007D arg=\"0x0000\"}}{{color id=\"65535\"}}!{{pageBreak}}{{anim id=\"HappyDance\" target=\"actor\" targetSpec=\"\"}}Miticissimo, non è vero?!"
  },
  {
    "label": "100",
    "attribute": "0x0000000000000000",
    "text": "{{anim id=\"Pardon\" target=\"actor\" targetSpec=\"\"}}Ho appena visto un muso nuovo\nsull'isola!{{pageBreak}}{{anim id=\"ShyBoy\" target=\"actor\" targetSpec=\"\"}}Mi sono nascosto subito. {{delay8}}{{anim id=\"Hesitate\" target=\"actor\" targetSpec=\"\"}}Scopri\ntu di chi si tratta? {{delay8}}Così dopo forse\nposso parlarci di fumetti e snack{{string value=\"...\"}}"
  }
]