﻿[
  {
    "label": "001",
    "text": "Ehilà, infaticabile!"
  },
  {
    "label": "002",
    "text": "Ciao, amante del fai da te!"
  },
  {
    "label": "003",
    "text": "A chiunque sollevi questa..."
  },
  {
    "label": "004",
    "text": "Ciao, sconosciuto dai bicipiti di ferro..."
  },
  {
    "label": "005",
    "text": "Hai davvero una gran fortuna."
  },
  {
    "label": "101",
    "text": "L'altro giorno pensavo a una nuova\nscheda di allenamento, quando mi è\nbalenata un'idea per il fai da te."
  },
  {
    "label": "102",
    "text": "Sono scivolato su una pozza del\nmio sudore durante l'allenamento\ne ho avuto un'idea per il fai da te."
  },
  {
    "label": "103",
    "text": "Mentre allenavo i dorsali ho avuto\nun momento di euforia che mi ha\nfatto venire un'idea per il fai da te!"
  },
  {
    "label": "104",
    "text": "Stavo facendo le mie solite {{number value=\"3\" index=\"0\"}}\nflessioni pre-nanna e ho avuto una\nvisione per un progetto fai da te."
  },
  {
    "label": "105",
    "text": "Stavo pensando a un nuovo frullato\nproteico e invece mi è venuta una\nsplendida idea per il fai da te."
  },
  {
    "label": "201",
    "text": "Ho perfino interrotto l'allenamento\nper scrivere questa lettera."
  },
  {
    "label": "202",
    "text": "Dovevo per forza condividere\nquesta emozione con qualcuno."
  },
  {
    "label": "203",
    "text": "Ero così su di giri che ho scritto\nlo schema. Non è fantastico?"
  },
  {
    "label": "204",
    "text": "Subito dopo sono ritornato ad\nallenarmi e ho battuto ogni record."
  },
  {
    "label": "205",
    "text": "Vorrei tener segreto lo schema, ma\nho fiducia in te. Acqua in bocca..."
  },
  {
    "label": "301",
    "text": "Spero che ti metterai all'opera!"
  },
  {
    "label": "302",
    "text": "Ora subito al lavoro. SCATTAREEE!"
  },
  {
    "label": "303",
    "text": "Ora vai a far lavorare quei muscoli!"
  },
  {
    "label": "304",
    "text": "E ora siamo compari di fai da te!"
  },
  {
    "label": "305",
    "text": "Ora pompa il muscolo del fai da te!"
  },
  {
    "label": "401",
    "text": "L'artista dei muscoli {{string value=\"VillagerName\"}}"
  },
  {
    "label": "402",
    "text": "L'asso del fai da te {{string value=\"VillagerName\"}}"
  },
  {
    "label": "403",
    "text": "Tecnicissimo {{string value=\"VillagerName\"}}"
  },
  {
    "label": "404",
    "text": "Costruttore segreto {{string value=\"VillagerName\"}}"
  },
  {
    "label": "405",
    "text": "Artista possente {{string value=\"VillagerName\"}}"
  },
  {
    "label": "501",
    "text": "Che fortuna avermi trovato, eh?\nTi regalo un fantastico schema\nfai da te per uno specchio con\ncui ammirare ogni singolo gruppo\nmuscolare dopo l'allenamento.\nProvalo subito!"
  }
]