﻿[
  {
    "label": "001",
    "attribute": "0x0000000000000000",
    "text": "그러고 보니 어제 잠은 잘 잤냐?{{delay frames=\"30\"}}\n{{anim id=\"Thinking\" target=\"actor\" targetSpec=\"\"}}이 {{string value=\"32\"}},{{delay20}} 밤이 되니까 진짜 조용하더라{{pageBreak}}{{anim id=\"EmotEnd\" target=\"actor\" targetSpec=\"\"}}덕분에 아침까지 푹 자긴 했는데{{delay20}}\n{{anim id=\"Laughing\" target=\"actor\" targetSpec=\"\"}}난 {{delay8}}조금만 더 시끌벅적해도\n괜찮을 것 같아! {{string value=\"6\"}}!"
  },
  {
    "label": "002",
    "attribute": "0x0000000000000000",
    "text": "{{anim id=\"ShyBoy\" target=\"actor\" targetSpec=\"\"}}처음 {{string value=\"32\"}}에 온 날은{{delay20}} 짐 정리하느라\n정신이 없어서 {{delay8}}고생 좀 했지{{pageBreak}}{{anim id=\"HappyDance\" target=\"actor\" targetSpec=\"\"}}그래도 드디어 새로운 생활이{{delay8}}\n시작된다고 생각하니까{{delay20}} 기뻐서{{delay8}} 설레는\n마음을 주체할 수가 없더라! {{string value=\"6\"}}!"
  },
  {
    "label": "003",
    "attribute": "0x0000000000000000",
    "text": "{{anim id=\"Nodding\" target=\"actor\" targetSpec=\"\"}}날 {{delay8}}여러모로 챙겨줘서 고맙다!{{delay frames=\"30\"}}\n{{anim id=\"FaintSmile\" target=\"actor\" targetSpec=\"\"}}네가 있으면 {{delay20}}심심할 일은 없을 것 같아!{{pageBreak}}{{anim id=\"HappyFlower\" target=\"actor\" targetSpec=\"\"}}앞으로도 {{delay20}}나하고\n얘기 많이 나눠줬음 좋겠다! {{string value=\"6\"}}!"
  }
]