﻿[
  {
    "label": "001",
    "attribute": "0x00000C0100000000",
    "text": "{{anim id=\"FaintSmile\" target=\"actor\" targetSpec=\"\"}}¡Hola otra vez!{{delay8}} ¡Te veo tan alegre\ncomo siempre!{{setNpcTalkChoices chatOption=\"1\" cancelOption=\"1\"}}"
  },
  {
    "label": "002",
    "attribute": "0x00000C0100000000",
    "text": "{{anim id=\"Greeting\" target=\"actor\" targetSpec=\"\"}}¡Hola!{{delay8}} ¡Volvemos a encontrarnos,\nmáquina!{{setNpcTalkChoices chatOption=\"1\" cancelOption=\"1\"}}"
  },
  {
    "label": "003",
    "attribute": "0x00000C0100000000",
    "text": "{{anim id=\"Greeting\" target=\"actor\" targetSpec=\"\"}}¿Cómo vas, colega?{{delay20}}\n¿Estás sudando la camiseta?{{setNpcTalkChoices chatOption=\"0\" cancelOption=\"1\"}}"
  },
  {
    "label": "004",
    "attribute": "0x00000C0100000000",
    "text": "{{anim id=\"Smiling\" target=\"actor\" targetSpec=\"\"}}¡Eh! ¿Cómo te va, {{string value=\"6\"}}?{{setNpcTalkChoices chatOption=\"0\" cancelOption=\"0\"}}"
  },
  {
    "label": "005",
    "attribute": "0x0000000100000000",
    "text": "{{fun_000A003C arg=\"0x0700080009000A000B000C00\"}}"
  },
  {
    "label": "007",
    "attribute": "0x00000C0000000000",
    "text": "{{anim id=\"Greeting\" target=\"actor\" targetSpec=\"\"}}¡Ya es de díaaa!{{delay20}} ¡A empezar con\nenergía, colega!{{setNpcTalkChoices chatOption=\"1\" cancelOption=\"1\"}}"
  },
  {
    "label": "008",
    "attribute": "0x00000C0000000000",
    "text": "{{i10_12}}{{anim id=\"Cheering\" target=\"actor\" targetSpec=\"\"}}{{size value=\"150\"}}¡Buenos díaaas!{{size value=\"100\"}}{{delay20}}{{pageBreak}}{{anim id=\"EmotEnd\" target=\"actor\" targetSpec=\"\"}}¿Qué tal?{{delay20}}\n{{anim id=\"WrySmile\" target=\"actor\" targetSpec=\"\"}}¿Ahora sí te desperté?{{string value=\"...\"}}{{setNpcTalkChoices chatOption=\"0\" cancelOption=\"1\"}}"
  },
  {
    "label": "009",
    "attribute": "0x00000C0000000000",
    "text": "{{anim id=\"Greeting\" target=\"actor\" targetSpec=\"\"}}Oye, ¿ya comiste?{{setNpcTalkChoices chatOption=\"0\" cancelOption=\"1\"}}"
  },
  {
    "label": "010",
    "attribute": "0x00000C0000000000",
    "text": "{{anim id=\"ShyBoy\" target=\"actor\" targetSpec=\"\"}}Caramba, entre sentadillas y\nabdominales, ya se me hizo\nde noche{{string value=\"...\"}}{{setNpcTalkChoices chatOption=\"0\" cancelOption=\"0\"}}"
  },
  {
    "label": "011",
    "attribute": "0x00000C0000000000",
    "text": "{{anim id=\"Greeting\" target=\"actor\" targetSpec=\"\"}}{{anim id=\"Smiling\" target=\"actor\" targetSpec=\"\"}}Nada como un paseíto a estas\nhoras para calentar antes de una\núltima serie de abdominales, ¿no?{{setNpcTalkChoices chatOption=\"0\" cancelOption=\"1\"}}"
  },
  {
    "label": "012",
    "attribute": "0x00000C0000000000",
    "text": "{{anim id=\"Greeting\" target=\"actor\" targetSpec=\"\"}}¡Ajá! ¿A ti también te gusta pasear\nde madrugada?{{delay20}} {{anim id=\"Pardon\" target=\"actor\" targetSpec=\"\"}}Qué emoción\nque compartamos gustos{{string value=\"...\"}}{{setNpcTalkChoices chatOption=\"1\" cancelOption=\"1\"}}"
  }
]