﻿[
  {
    "label": "001",
    "attribute": "0x0000000000000000",
    "text": "{{fun_0014003C arg=\"\"}}"
  },
  {
    "label": "001_01",
    "attribute": "0x0000020000000000",
    "text": "{{anim id=\"BigSmile\" target=\"actor\" targetSpec=\"\"}}좋았어! {{delay20}}느낌 괜찮은데?{{anim id=\"FaintSmile\" target=\"actor\" targetSpec=\"\"}}{{delay frames=\"40\"}}\n{{anim id=\"Shocked\" target=\"actor\" targetSpec=\"\"}}아, {{delay20}}미안! {{delay frames=\"30\"}}{{anim id=\"FaintSmile\" target=\"actor\" targetSpec=\"\"}}혼잣말이야!"
  },
  {
    "label": "001_01_a",
    "attribute": "0x0000000000000000",
    "text": "{{anim id=\"EmotEnd\" target=\"actor\" targetSpec=\"\"}}뭐 해?"
  },
  {
    "label": "001_01_b",
    "attribute": "0x0000000000000000",
    "text": "{{anim id=\"EmotEnd\" target=\"actor\" targetSpec=\"\"}}그렇구나"
  },
  {
    "label": "001_02",
    "attribute": "0x0000020000000000",
    "text": "{{anim id=\"HappyDance\" target=\"actor\" targetSpec=\"\"}}지금 {{delay20}}컨디션 최고야～"
  },
  {
    "label": "001_02_a",
    "attribute": "0x0000000000000000",
    "text": "{{anim id=\"EmotEnd\" target=\"actor\" targetSpec=\"\"}}뭐 해?"
  },
  {
    "label": "001_02_b",
    "attribute": "0x0000000000000000",
    "text": "{{anim id=\"EmotEnd\" target=\"actor\" targetSpec=\"\"}}방해해서 미안"
  },
  {
    "label": "001_03",
    "attribute": "0x0000020000000000",
    "text": "{{anim id=\"FaintSmile\" target=\"actor\" targetSpec=\"\"}}왜 그래? {{delay8}}{{string value=\"NickName\"}}{{delay frames=\"30\"}}\n나한테 무슨 볼일 있어?"
  },
  {
    "label": "001_03_a",
    "attribute": "0x0000000000000000",
    "text": "{{anim id=\"EmotEnd\" target=\"actor\" targetSpec=\"\"}}뭐 하는데?"
  },
  {
    "label": "001_03_b",
    "attribute": "0x0000000000000000",
    "text": "아무것도 아냐"
  },
  {
    "label": "002",
    "attribute": "0x0000000000000000",
    "text": "{{anim id=\"Eh\" target=\"actor\" targetSpec=\"\"}}뭐냐니?{{delay frames=\"30\"}}\n{{anim id=\"EmotEnd\" target=\"actor\" targetSpec=\"\"}}{{fun_0000007D arg=\"0x0000\"}}{{gender5 m=\"을\" f=\"를\"}}\n{{anim id=\"SmugFace\" target=\"actor\" targetSpec=\"\"}}만들고 있었지\n{{anim id=\"Explain\" target=\"actor\" targetSpec=\"\"}}이런 건 흐름이 중요하다고{{delay frames=\"40\"}}\n만들겠다고 마음먹었을 때{{delay8}}\n완성까지 그 자리에서 달려야 돼\n{{anim id=\"AbsentMindedness\" target=\"actor\" targetSpec=\"\"}}한눈팔지 않고 DIY에 집중하는 거랑{{delay20}}\n오토바이를 타고 시원하게 달리는 거랑은{{delay8}}\n비슷한 구석이 있거든"
  },
  {
    "label": "003",
    "attribute": "0x0000020000000000",
    "text": "{{anim id=\"IdeaBulb\" target=\"actor\" targetSpec=\"\"}}그래, {{delay20}}너도 한번 만들어볼래?{{delay frames=\"40\"}}\n{{anim id=\"EmotEnd\" target=\"actor\" targetSpec=\"\"}}내가 {{fun_0000007D arg=\"0x0000\"}}{{delay20}}\n{{anim id=\"FaintSmile\" target=\"actor\" targetSpec=\"\"}}만드는 법 가르쳐줄게, {{string value=\"6\"}}"
  },
  {
    "label": "003_a",
    "attribute": "0x0000000000000000",
    "text": "가르쳐줘!"
  },
  {
    "label": "003_b",
    "attribute": "0x0000000000000000",
    "text": "사양할게"
  },
  {
    "label": "007",
    "attribute": "0x0000000000000000",
    "text": "{{anim id=\"BigSmile\" target=\"actor\" targetSpec=\"\"}}음, {{delay20}}그럼 난{{delay8}}\n{{anim id=\"FaintSmile\" target=\"actor\" targetSpec=\"\"}}작업 좀{{delay8}} 마저 할게, {{string value=\"6\"}}!"
  },
  {
    "label": "008",
    "attribute": "0x0000010000000000",
    "text": "{{anim id=\"QuestionMark\" target=\"actor\" targetSpec=\"\"}}으응? {{delay20}}{{string value=\"NickName\"}} 너도\n{{fun_0000007D arg=\"0x0000\"}} 만드는 법\n{{delay20}}아냐?"
  },
  {
    "label": "008_a",
    "attribute": "0x0000000000000000",
    "text": "알지!"
  },
  {
    "label": "008_b",
    "attribute": "0x0000000000000000",
    "text": "그럼!"
  },
  {
    "label": "009",
    "attribute": "0x0000000000000000",
    "text": "{{anim id=\"Laughing\" target=\"actor\" targetSpec=\"\"}}그렇구만!{{delay frames=\"40\"}}\n역시 {{string value=\"NickName\"}}{{gender5 m=\"이\" f=\"\"}}야{{delay20}}\n제법인데!"
  },
  {
    "label": "010",
    "attribute": "0x0000000000000000",
    "text": "{{anim id=\"Eh\" target=\"actor\" targetSpec=\"\"}}라고 말은 했지만{{delay20}}\n{{anim id=\"ColdChill\" target=\"actor\" targetSpec=\"\"}}너 {{delay8}}짐이 너무 많다?{{delay frames=\"40\"}}\n{{anim id=\"FaintSmile\" target=\"actor\" targetSpec=\"\"}}나중에 다시 {{delay8}}말 걸어줘, {{string value=\"6\"}}"
  },
  {
    "label": "017",
    "attribute": "0x0000000000000000",
    "text": "{{anim id=\"BigSmile\" target=\"actor\" targetSpec=\"\"}}헤헤헤, {{delay20}}그럴 줄 알고{{delay20}}\n{{anim id=\"FaintSmile\" target=\"actor\" targetSpec=\"\"}}미리 레시피를 {{delay8}}준비했지{{delay frames=\"40\"}}\n{{anim id=\"Hello\" target=\"actor\" targetSpec=\"\"}}자, {{delay8}}사양 말고 받아 가"
  },
  {
    "label": "018",
    "attribute": "0x0000000000000000",
    "text": "{{anim id=\"Smiling\" target=\"actor\" targetSpec=\"\"}}직접 만들어보면 꽤 재밌어{{delay frames=\"40\"}}\n{{anim id=\"Nodding\" target=\"actor\" targetSpec=\"\"}}넌 손재주도 좋아보이니까{{delay20}}\n{{anim id=\"Laughing\" target=\"actor\" targetSpec=\"\"}}나보다 잘할 수 있을 거야, {{string value=\"6\"}}"
  },
  {
    "label": "019",
    "attribute": "0x0000000000000000",
    "text": "{{anim id=\"Explain\" target=\"actor\" targetSpec=\"\"}}그럼 {{delay20}}{{fun_0000007D arg=\"0x0000\"}}의{{delay8}}\n레시피를 네게 맡길 테니까{{delay20}}\n{{anim id=\"FaintSmile\" target=\"actor\" targetSpec=\"\"}}괜찮으면 {{delay8}}다른 녀석한테 줄래?{{pageBreak}}{{anim id=\"Nodding\" target=\"actor\" targetSpec=\"\"}}난 이미 {{delay8}}다 익혀서 필요 없거든{{delay20}}\n{{anim id=\"ShyBoy\" target=\"actor\" targetSpec=\"\"}}혹시 {{delay8}}원하는 녀석이 있으면{{delay20}}\n그 녀석한테 주고 싶어서, {{string value=\"6\"}}"
  },
  {
    "label": "020",
    "attribute": "0x0000000000000000",
    "text": "{{anim id=\"Smiling\" target=\"actor\" targetSpec=\"\"}}모두가 이렇게 {{delay20}}DIY로{{delay8}}\n{{fun_0000007D arg=\"0x0000\"}}{{gender5 m=\"을\" f=\"를\"}}\n만들다 보면{{delay20}} {{anim id=\"Grin\" target=\"actor\" targetSpec=\"\"}}유행이 될지도 몰라"
  },
  {
    "label": "021",
    "attribute": "0x0000000000000000",
    "text": "{{anim id=\"Explain\" target=\"actor\" targetSpec=\"\"}}여기 {{delay20}}{{fun_0000007D arg=\"0x0000\"}}의{{delay8}}\n만드는 법이 적힌 레시피야{{delay frames=\"40\"}}\n{{anim id=\"Hello\" target=\"actor\" targetSpec=\"\"}}너한테 줄게, {{string value=\"6\"}}"
  },
  {
    "label": "030",
    "attribute": "0x0000000000000000",
    "text": "{{anim id=\"ShyBoy\" target=\"actor\" targetSpec=\"\"}}이걸 만들려면 우선{{delay20}}\n호박이 있어야 돼{{pageBreak}}{{anim id=\"FaintSmile\" target=\"actor\" targetSpec=\"\"}}마침 좋은 기회니까 {{delay20}}너도 한번\n{{anim id=\"Greeting\" target=\"actor\" targetSpec=\"\"}}호박을 키워보는 건 어때? {{string value=\"6\"}}?"
  },
  {
    "label": "031",
    "attribute": "0x0000000000000000",
    "text": "만약 {{delay8}}이걸 리폼하고 싶으면{{delay8}}\n그 디자인에 맞는 색의 호박을\n{{anim id=\"Nodding\" target=\"actor\" targetSpec=\"\"}}준비해야 해, {{string value=\"6\"}}!{{pageBreak}}{{anim id=\"Explain\" target=\"actor\" targetSpec=\"\"}}색이 다른 호박은 호박을 잔뜩 심다 보면\n가끔 열린다고 하더라{{delay20}}\n{{anim id=\"EmotEnd\" target=\"actor\" targetSpec=\"\"}}텃밭 가꾼다고 생각하고 힘내라"
  },
  {
    "label": "032",
    "attribute": "0x0000000000000000",
    "text": "{{anim id=\"Aha\" target=\"actor\" targetSpec=\"\"}}아, {{delay20}}아까 못 준 거{{delay20}}\n{{anim id=\"FaintSmile\" target=\"actor\" targetSpec=\"\"}}받으러 와줬구나{{delay frames=\"40\"}}\n{{anim id=\"Grin\" target=\"actor\" targetSpec=\"\"}}자, 그럼 받아!"
  },
  {
    "label": "033",
    "attribute": "0x0000000000000000",
    "text": "{{anim id=\"Shocked\" target=\"actor\" targetSpec=\"\"}}앗! {{delay20}}너 이미{{delay20}}\n{{anim id=\"Nodding\" target=\"actor\" targetSpec=\"\"}}이 레시피를 알고 있잖아?"
  },
  {
    "label": "034",
    "attribute": "0x0000000000000000",
    "text": "{{anim id=\"Laughing\" target=\"actor\" targetSpec=\"\"}}마침 잘됐다{{delay frames=\"40\"}}\n{{anim id=\"ShyBoy\" target=\"actor\" targetSpec=\"\"}}지금 {{delay20}}{{color id=\"1\"}}호박{{color id=\"65535\"}}이 너무 많아서 곤란했거든{{delay frames=\"40\"}}\n{{anim id=\"FaintSmile\" target=\"actor\" targetSpec=\"\"}}이걸 받아줄래?"
  },
  {
    "label": "035",
    "attribute": "0x0000000000000000",
    "text": "{{anim id=\"Blushing\" target=\"actor\" targetSpec=\"\"}}그 {{color id=\"1\"}}호박{{color id=\"65535\"}}이 조금이라도{{delay8}}\n재료에 보탬이 되면 좋겠네, {{string value=\"6\"}}!"
  },
  {
    "label": "036",
    "attribute": "0x0000000000000000",
    "text": "{{anim id=\"Worried\" target=\"actor\" targetSpec=\"\"}}그럼 같은 건 필요 없잖아{{string value=\"...\"}}{{delay frames=\"40\"}}\n{{anim id=\"Thinking\" target=\"actor\" targetSpec=\"\"}}그래도 모처럼 우리 집까지 와줬는데{{delay8}}\n빈손으로 보내기도 뭐하고{{string value=\"...\"}}{{pageBreak}}{{anim id=\"IdeaBulb\" target=\"actor\" targetSpec=\"\"}}아! {{delay20}}그럼 그거 줄게{{delay frames=\"40\"}}\n{{anim id=\"Explain\" target=\"actor\" targetSpec=\"\"}}별건 아니라 미안하지만{{delay8}}\n여기, {{color id=\"1\"}}사탕{{color id=\"65535\"}}이야{{pageBreak}}{{anim id=\"FaintSmile\" target=\"actor\" targetSpec=\"\"}}좀 있으면 할로윈이니까{{delay20}}\n그때까지 갖고 있어라!"
  },
  {
    "label": "037",
    "attribute": "0x0000000000000000",
    "text": "뭔가 {{delay20}}{{color id=\"1\"}}사탕{{color id=\"65535\"}}을 주고받으니까{{delay8}}\n{{anim id=\"Laughing\" target=\"actor\" targetSpec=\"\"}}갑자기 더{{delay8}} 할로윈이 기대되네, {{string value=\"6\"}}!"
  },
  {
    "label": "040",
    "attribute": "0x0000000000000000",
    "text": "{{anim id=\"Shocked\" target=\"actor\" targetSpec=\"\"}}앗! {{delay20}}너 이미{{delay20}}\n{{anim id=\"Nodding\" target=\"actor\" targetSpec=\"\"}}이 레시피를 알고 있잖아?"
  },
  {
    "label": "041",
    "attribute": "0x0000000000000000",
    "text": "{{anim id=\"Laughing\" target=\"actor\" targetSpec=\"\"}}마침 잘 됐다{{delay frames=\"40\"}}\n{{anim id=\"ShyBoy\" target=\"actor\" targetSpec=\"\"}}나한테{{delay20}} 재료가 남아돌거든{{delay frames=\"40\"}}\n{{anim id=\"FaintSmile\" target=\"actor\" targetSpec=\"\"}}니가 좀{{delay8}} 챙겨 가주라"
  },
  {
    "label": "042",
    "attribute": "0x0000000000000000",
    "text": "{{anim id=\"Blushing\" target=\"actor\" targetSpec=\"\"}}그 {{color id=\"1\"}}{{fun_0000007D arg=\"0x0100\"}}{{color id=\"65535\"}}{{gender5 m=\"이\" f=\"가\"}}\n너한테{{delay8}} 조금이라도\n도움이 되면 좋겠어, {{string value=\"6\"}}"
  },
  {
    "label": "043",
    "attribute": "0x0000000000000000",
    "text": "{{anim id=\"Aha\" target=\"actor\" targetSpec=\"\"}}아, {{delay20}}아까 못 준 거{{delay20}}\n{{anim id=\"FaintSmile\" target=\"actor\" targetSpec=\"\"}}받으러 와줬구나{{delay frames=\"40\"}}\n{{anim id=\"Grin\" target=\"actor\" targetSpec=\"\"}}자, 그럼 받아!"
  }
]