﻿[
  {
    "label": "002",
    "attribute": "0x00000000",
    "text": "{{anim id=\"Nodding\" target=\"actor\" targetSpec=\"\"}}Te estoy muy agradecida por la casa\nde vacaciones que me hiciste.{{delay20}}\n{{anim id=\"Love\" target=\"actor\" targetSpec=\"\"}}¡Me encanta!\n{{anim id=\"Explain\" target=\"actor\" targetSpec=\"\"}}Y estaría mal no corresponderte,{{delay8}} así\nque me gustaría regalarte una cosita\nsi estás de acuerdo."
  },
  {
    "label": "002_001",
    "attribute": "0x00000000",
    "text": "{{anim id=\"Smiling\" target=\"actor\" targetSpec=\"\"}}¡Se me ocurrió darte {{wordArticle}}{{fun_0000007D arg=\"0x0000\"}}!{{delay20}} ¿Qué opinas?"
  },
  {
    "label": "002_002",
    "attribute": "0x00000000",
    "text": "{{anim id=\"SadSpiral\" target=\"actor\" targetSpec=\"\"}}Pero{{string value=\"...\"}}{{delay20}} con todo lo que llevas encima,{{delay8}}\ntendrá que ser en otro momento.{{delay40}}\n{{anim id=\"ShyBoy\" target=\"actor\" targetSpec=\"\"}}Avísame cuando hagas lugar,{{delay8}} ¿sí?"
  },
  {
    "label": "002_003",
    "attribute": "0x00000000",
    "text": "{{anim id=\"Hello\" target=\"actor\" targetSpec=\"\"}}¡Hola!{{delay20}} {{anim id=\"FaintSmile\" target=\"actor\" targetSpec=\"\"}}Ahora sí ya parece que\nte puedes llevar lo que te quería\ndar.{{delay20}} ¡Aquí tienes mi regalito!"
  }
]