﻿[
  {
    "label": "002",
    "attribute": "0x00000000",
    "text": "{{anim id=\"Hello\" target=\"actor\" targetSpec=\"\"}}¡Será un placer dejar todo en\ntus manos, {{string value=\"PlayerName\"}}!"
  },
  {
    "label": "003",
    "attribute": "0x01000000",
    "text": "{{anim id=\"Eh\" target=\"actor\" targetSpec=\"\"}}Ay{{string value=\"...\"}}{{delay20}} {{anim id=\"ShyBoy\" target=\"actor\" targetSpec=\"\"}}pues no sé qué hacer.{{delay20}}\n¿Podrías aconsejarme tú,{{delay8}} {{string value=\"PlayerName\"}}⁠?"
  },
  {
    "label": "003_01",
    "attribute": "0x00000000",
    "text": "¡Qué alegría estar aquí!"
  },
  {
    "label": "003_03",
    "attribute": "0x00000000",
    "text": "{{anim id=\"Smiling\" target=\"actor\" targetSpec=\"\"}}¡Suena fantástico!{{delay20}} Ya quiero ver\ncómo queda."
  },
  {
    "label": "003_04",
    "attribute": "0x00000000",
    "text": "{{anim id=\"FaintSmile\" target=\"actor\" targetSpec=\"\"}}¡Gracias de nuevo por su ayuda!"
  },
  {
    "label": "003_a",
    "attribute": "0x00000000",
    "text": "Mejor un piso"
  },
  {
    "label": "003_b",
    "attribute": "0x00000000",
    "text": "Mejor dos pisos"
  },
  {
    "label": "004",
    "attribute": "0x00000000",
    "text": "¿Un piso?{{delay20}} {{anim id=\"Smiling\" target=\"actor\" targetSpec=\"\"}}¡Me parece muy bien!{{delay20}}\n{{anim id=\"Nodding\" target=\"actor\" targetSpec=\"\"}}Ya está todo decidido."
  },
  {
    "label": "005",
    "attribute": "0x00000000",
    "text": "¿Dos pisos?{{delay20}} {{anim id=\"Smiling\" target=\"actor\" targetSpec=\"\"}}¡Me parece muy bien!{{delay20}}\n{{anim id=\"Nodding\" target=\"actor\" targetSpec=\"\"}}Ya está todo decidido."
  }
]