﻿[
  {
    "label": "001",
    "attribute": "0x0000000000000000",
    "text": "{{fun_0014003C arg=\"\"}}"
  },
  {
    "label": "001_01",
    "attribute": "0x0000000000000000",
    "text": "{{anim id=\"Thinking\" target=\"actor\" targetSpec=\"\"}}А окаменелости — это{{delay40}} камни?{{delay40}} Или\nкости?{{delay40}} {{anim id=\"QuestionMark\" target=\"actor\" targetSpec=\"\"}}Или это окаменевшие кости?\nА окостеневшие камни бывают?"
  },
  {
    "label": "001_02",
    "attribute": "0x0000000000000000",
    "text": "Получается, этой кости уже\n300 миллионов лет?{{pageBreak}}{{anim id=\"QuestionMark\" target=\"actor\" targetSpec=\"\"}}{{delay20}}Интересно, это очень много?\nЯ тогда еще не родился..."
  },
  {
    "label": "001_03",
    "attribute": "0x0000000000000000",
    "text": "Интересно, {{anim id=\"QuestionMark\" target=\"actor\" targetSpec=\"\"}}а я тоже смогу стать\nокаменелостью?{{anim id=\"EmotEnd\" target=\"actor\" targetSpec=\"\"}}{{i10_4}} А что? Лежишь\nсебе, отдыхаешь{{string value=\"...\"}}{{anim id=\"EmotEnd\" target=\"actor\" targetSpec=\"\"}}"
  },
  {
    "label": "002",
    "attribute": "0x0000000000000000",
    "text": "{{fun_0014003C arg=\"\"}}"
  },
  {
    "label": "002_01",
    "attribute": "0x0000000000000000",
    "text": "{{anim id=\"Nodding\" target=\"actor\" targetSpec=\"\"}}Вот это скелет!{{delay frames=\"40\"}} Это что же {{anim id=\"QuestionMark\" target=\"actor\" targetSpec=\"\"}}надо\nесть, чтобы так вырасти?"
  },
  {
    "label": "002_02",
    "attribute": "0x0000000000000000",
    "text": "{{anim id=\"HappyFlower\" target=\"actor\" targetSpec=\"\"}}Вот это да!!!{{delay frames=\"40\"}} Какой огромный!\n{{anim id=\"EmotEnd\" target=\"actor\" targetSpec=\"\"}}Наверное, кушал хорошо!{{anim id=\"Nodding\" target=\"actor\" targetSpec=\"\"}}"
  },
  {
    "label": "002_03",
    "attribute": "0x0000000000000000",
    "text": "{{anim id=\"AbsentMindedness\" target=\"actor\" targetSpec=\"\"}}Наверное, динозавры вообще не\nотдыхали. Только и знали что ели,\nпоэтому они такие огромные."
  },
  {
    "label": "003",
    "attribute": "0x0000000000000000",
    "text": "{{fun_0014003C arg=\"\"}}"
  },
  {
    "label": "003_01",
    "attribute": "0x0000000000000000",
    "text": "{{anim id=\"Serious\" target=\"actor\" targetSpec=\"\"}}Вот эти скелеты{{string value=\"...\"}}{{delay20}} вообще очень\nстрашные.{{delay8}} Когда я отворачиваюсь,\nмне кажется, что они двигаются."
  },
  {
    "label": "003_02",
    "attribute": "0x0000000000000000",
    "text": "{{anim id=\"Nodding\" target=\"actor\" targetSpec=\"\"}}Мне эти скелеты приснились!{{i10_4}}\n{{anim id=\"Pardon\" target=\"actor\" targetSpec=\"\"}}Они ходили по комнате!\nНе зря я их побаиваюсь!"
  },
  {
    "label": "003_03",
    "attribute": "0x0000000000000000",
    "text": "А кто делает окаменелости?{{delay frames=\"40\"}}\nПусть из меня тоже сделают\nокаменелость!{{delay frames=\"40\"}}{{anim id=\"Hello\" target=\"actor\" targetSpec=\"\"}} {{capitalizeNextLetter}}{{string value=\"6\"}}!"
  },
  {
    "label": "100",
    "attribute": "0x0000000000000000",
    "text": "{{fun_0014003C arg=\"\"}}"
  },
  {
    "label": "100_01",
    "attribute": "0x0000000000000000",
    "text": "{{anim id=\"Greeting\" target=\"actor\" targetSpec=\"\"}}Ты уже все окаменелости видел{{gender2 m=\"\" f=\"а\"}}?{{anim id=\"FaintSmile\" target=\"actor\" targetSpec=\"\"}}\nЗдесь куча залов с ними, можно\nцелый день ходить."
  },
  {
    "label": "100_02",
    "attribute": "0x0000000000000000",
    "text": "{{anim id=\"Smiling\" target=\"actor\" targetSpec=\"\"}}А у вас на острове какой {{color id=\"1\"}}музей{{color id=\"65535\"}},\n{{string value=\"NickName\"}}?{{delay frames=\"40\"}} {{anim id=\"Hello\" target=\"actor\" targetSpec=\"\"}}Там буфет\nесть?"
  },
  {
    "label": "100_03",
    "attribute": "0x0000000000000000",
    "text": "{{anim id=\"Angry\" target=\"actor\" targetSpec=\"\"}}Хочу попробовать тоже окаменеть!\n{{delay frames=\"40\"}}Поэтому мне нужно побольше\nузнать об окаменелостях."
  },
  {
    "label": "200",
    "attribute": "0x0000000000000000",
    "text": "{{fun_0014003C arg=\"\"}}"
  },
  {
    "label": "200_01",
    "attribute": "0x0000000000000000",
    "text": "{{anim id=\"HappyDance\" target=\"actor\" targetSpec=\"\"}}Ух ты!{{delay20}} Не могу поверить, что {{color id=\"1\"}}музей{{color id=\"65535\"}}\nуже готов!{{delay frames=\"40\"}} {{anim id=\"Love\" target=\"actor\" targetSpec=\"\"}}{{delay20}}Мне не терпится увидеть\nвсе окаменелости!"
  },
  {
    "label": "200_02",
    "attribute": "0x0000000000000000",
    "text": "{{anim id=\"Smiling\" target=\"actor\" targetSpec=\"\"}}Этот {{color id=\"1\"}}музей {{color id=\"65535\"}}такой классный! Я так\nрадуюсь, что даже попрошу\nу {{color id=\"3\"}}Блезерса {{color id=\"65535\"}}автограф!"
  },
  {
    "label": "200_03",
    "attribute": "0x0000000000000000",
    "text": "{{anim id=\"FaintSmile\" target=\"actor\" targetSpec=\"\"}}В {{color id=\"1\"}}музее {{color id=\"65535\"}}такие высокие потолки, тут\nполучается классное эхо! Как тебе?{{pageBreak}}{{capitalizeNextLetter}}{{string value=\"Catchphrase\"}}{{string value=\"...\"}}{{pageBreak}}{{anim id=\"Shocked\" target=\"actor\" targetSpec=\"\"}}{{delay20}}{{i10_10}}Приве-{{delay8}}е-{{delay8}}е-{{delay8}}е{{size value=\"75\"}}-{{delay20}}{{i10_9}}е-{{delay20}}е-{{delay20}}е-{{delay20}}е{{size value=\"100\"}}{{size value=\"50\"}}-{{delay20}}е-е-е-е-ет{{i10_4}}!{{size value=\"100\"}}\n{{anim id=\"Laughing\" target=\"actor\" targetSpec=\"\"}}Просто класс!{{pageBreak}}{{color id=\"3\"}}Блезерс {{color id=\"65535\"}}попросил меня перестать\nили уйти.{{delay frames=\"40\"}}{{anim id=\"Nodding\" target=\"actor\" targetSpec=\"\"}} Я думаю, что он просто\nсам хочет поделать эхо, а я мешаю."
  }
]