﻿[
  {
    "label": "001",
    "text": "{{capitalizeNextLetter}}{{string value=\"NickName\"}}!"
  },
  {
    "label": "002",
    "text": "Dear {{string value=\"NickName\"}},"
  },
  {
    "label": "003",
    "text": "To {{string value=\"NickName\"}},"
  },
  {
    "label": "004",
    "text": "Hello, {{string value=\"NickName\"}}!"
  },
  {
    "label": "005",
    "text": "Hi, {{string value=\"NickName\"}}!"
  },
  {
    "label": "101",
    "text": "I want you to know that I really\nappreciate your thoughtfulness."
  },
  {
    "label": "102",
    "text": "Your kind gift really took me by\nsurprise and warmed my heart."
  },
  {
    "label": "103",
    "text": "I was touched by your generosity\nand just loved your gift!"
  },
  {
    "label": "104",
    "text": "You made me feel appreciated with\nthat sweet present."
  },
  {
    "label": "105",
    "text": "It's so nice to be given something\nunexpected and from the heart."
  },
  {
    "label": "201",
    "text": "It means a lot that you took time\nand care to pick out such a nice\npresent just for me!"
  },
  {
    "label": "202",
    "text": "Writing this message, I'm trying to\nfind the perfect words so that my\nfeelings reach deep in your heart."
  },
  {
    "label": "203",
    "text": "I hope you know my gratitude is\nsincere. I feel really lucky to know\nsomeone as generous as you."
  },
  {
    "label": "204",
    "text": "The note you included was also\nreally sweet. I've read it over and\nover since receiving your gift."
  },
  {
    "label": "205",
    "text": "Sitting here writing this note to you\nis enough to fill me with gratitude\nall over again. You make me smile!"
  },
  {
    "label": "301",
    "text": "Hope to see you again soon!"
  },
  {
    "label": "302",
    "text": "Come find me next time you're out."
  },
  {
    "label": "303",
    "text": "Let's chat again real soon!"
  },
  {
    "label": "304",
    "text": "Please come by to visit me anytime!"
  },
  {
    "label": "305",
    "text": "I'm sure I'll be in touch again soon."
  },
  {
    "label": "401",
    "text": "From {{string value=\"VillagerName\"}}"
  },
  {
    "label": "402",
    "text": "–{{string value=\"VillagerName\"}}"
  },
  {
    "label": "403",
    "text": "Sincerely, {{string value=\"VillagerName\"}}"
  },
  {
    "label": "404",
    "text": "All my heart, {{string value=\"VillagerName\"}}"
  },
  {
    "label": "405",
    "text": "That's all for now. –{{string value=\"VillagerName\"}}"
  }
]