﻿[
  {
    "label": "001",
    "attribute": "0x0000000000000000",
    "locale": {
      "CNzh": "你是来取{{delay20}}\n{{anim id=\"Hello\" target=\"actor\" targetSpec=\"\"}}{{color id=\"1\"}}烟花棒{{color id=\"65535\"}}的吧？{{delay frames=\"40\"}}\n{{anim id=\"Assent\" target=\"actor\" targetSpec=\"\"}}好！{{delay frames=\"40\"}}{{anim id=\"FaintSmile\" target=\"actor\" targetSpec=\"\"}}那你快拿好！",
      "EUde": "{{anim id=\"EmotEnd\" target=\"actor\" targetSpec=\"\"}}Kommste dir deine {{color id=\"1\"}}Wunderkerze\n{{color id=\"65535\"}}holen? {{delay20}}Recht so. {{delay20}}{{anim id=\"Hello\" target=\"actor\" targetSpec=\"\"}}Da haste!",
      "EUen": "{{anim id=\"EmotEnd\" target=\"actor\" targetSpec=\"\"}}You back for your {{color id=\"1\"}}sparkler{{color id=\"65535\"}}? {{delay8}}Sweeeet.{{delay8}}\n{{anim id=\"Hello\" target=\"actor\" targetSpec=\"\"}}Here, take it!",
      "EUes": "{{anim id=\"Aha\" target=\"actor\" targetSpec=\"\"}}Vienes a buscar tu {{color id=\"1\"}}bengala{{color id=\"65535\"}}, ¿a que\nsí?{{delay8}} {{anim id=\"EmotEnd\" target=\"actor\" targetSpec=\"\"}}¡Pues aquí la llevas, coleguilla!",
      "EUfr": "{{anim id=\"EmotEnd\" target=\"actor\" targetSpec=\"\"}}T'es venu{{gender2 m=\"\" f=\"e\"}} récupérer ton {{color id=\"1\"}}cierge\nmagique{{color id=\"65535\"}} ? {{delay20}}Impec. {{delay20}}{{anim id=\"Hello\" target=\"actor\" targetSpec=\"\"}}Tiens, le v'là !",
      "EUit": "{{anim id=\"EmotEnd\" target=\"actor\" targetSpec=\"\"}}Sei di nuovo qui per la tua {{color id=\"1\"}}stella\nfilante{{color id=\"65535\"}}? {{delay8}}Molto bene.{{delay8}} {{anim id=\"Hello\" target=\"actor\" targetSpec=\"\"}}Ecco a te!",
      "EUnl": "{{anim id=\"EmotEnd\" target=\"actor\" targetSpec=\"\"}}Kom je je {{color id=\"1\"}}sterretje{{color id=\"65535\"}} ophalen? {{delay8}}Tof.{{delay8}}\n{{anim id=\"Hello\" target=\"actor\" targetSpec=\"\"}}Hier! Voor jou, joh!",
      "EUru": "{{anim id=\"EmotEnd\" target=\"actor\" targetSpec=\"\"}}Ты за {{color id=\"1\"}}бенгальским огнем{{color id=\"65535\"}}? {{delay8}}Молодец.{{delay8}}\n{{anim id=\"Hello\" target=\"actor\" targetSpec=\"\"}}Держи вот!",
      "JPja": "アンタ、{{delay20}}{{color id=\"1\"}}てもちはなび{{color id=\"65535\"}}を\n{{anim id=\"Hello\" target=\"actor\" targetSpec=\"\"}}もらいに{{ruby charSpan=\"1\" value=\"き\"}}来たんだろ？{{delay frames=\"40\"}}\n{{anim id=\"Assent\" target=\"actor\" targetSpec=\"\"}}よっしゃ！　{{delay frames=\"40\"}}{{anim id=\"FaintSmile\" target=\"actor\" targetSpec=\"\"}}そんじゃ　{{ruby charSpan=\"1\" value=\"も\"}}持ってっておくれ",
      "KRko": "{{color id=\"1\"}}스파클러{{color id=\"65535\"}}를 {{anim id=\"Hello\" target=\"actor\" targetSpec=\"\"}}받으러 온 거지?{{delay frames=\"40\"}}\n{{anim id=\"Assent\" target=\"actor\" targetSpec=\"\"}}좋았어! {{delay frames=\"40\"}}{{anim id=\"FaintSmile\" target=\"actor\" targetSpec=\"\"}}잠깐 기다려봐",
      "TWzh": "你是來這裡{{delay20}}\n{{anim id=\"Hello\" target=\"actor\" targetSpec=\"\"}}找我拿{{color id=\"1\"}}仙女棒{{color id=\"65535\"}}的吧？{{delay frames=\"40\"}}\n{{anim id=\"Assent\" target=\"actor\" targetSpec=\"\"}}好咧！{{delay frames=\"40\"}}{{anim id=\"FaintSmile\" target=\"actor\" targetSpec=\"\"}}那你就拿去吧！",
      "USen": "{{anim id=\"EmotEnd\" target=\"actor\" targetSpec=\"\"}}You back for your {{color id=\"1\"}}sparkler{{color id=\"65535\"}}? {{delay8}}Sweeeet.{{delay8}}\n{{anim id=\"Hello\" target=\"actor\" targetSpec=\"\"}}Here, take it!",
      "USes": "{{anim id=\"Aha\" target=\"actor\" targetSpec=\"\"}}Vienes a buscar tu {{color id=\"1\"}}bengala{{color id=\"65535\"}}, ¿no?{{delay8}} {{anim id=\"EmotEnd\" target=\"actor\" targetSpec=\"\"}}¡Pues aquí la tienes, compi!",
      "USfr": "{{anim id=\"EmotEnd\" target=\"actor\" targetSpec=\"\"}}T'es venu{{gender2 m=\"\" f=\"e\"}} récupérer ta {{color id=\"1\"}}bougie\nmagique{{color id=\"65535\"}}? {{delay20}}Super. {{delay20}}{{anim id=\"Hello\" target=\"actor\" targetSpec=\"\"}}Tiens, la v'là!"
    }
  },
  {
    "label": "010",
    "attribute": "0x0000000000000000",
    "locale": {
      "CNzh": "{{anim id=\"BigSmile\" target=\"actor\" targetSpec=\"\"}}终于交到你手上了！{{delay frames=\"40\"}}\n{{anim id=\"HappyDance\" target=\"actor\" targetSpec=\"\"}}虽然比不上烟花大会的烟花那么绚丽，{{delay8}}\n不过你可以拿它来铺垫一下心情。{{string value=\"6\"}}。",
      "EUde": "{{anim id=\"Grin\" target=\"actor\" targetSpec=\"\"}}Joah, {{delay8}}is' natürlich nich' mit den\nBrummern da oben vergleichbar,\n{{delay8}}aber hey, {{delay8}}besser als nix!{{pageBreak}}{{anim id=\"BigSmile\" target=\"actor\" targetSpec=\"\"}}Dann rocken wir ma' diese Feuer-\nwerksgeschichte, {{delay8}}{{string value=\"Catchphrase\"}}!",
      "EUen": "{{anim id=\"Grin\" target=\"actor\" targetSpec=\"\"}}Yeah, {{delay20}}it's not quite one of the big sky\nones, but come on!{{delay20}} {{anim id=\"BigSmile\" target=\"actor\" targetSpec=\"\"}}Let's get this\nfireworks party going, {{string value=\"Catchphrase\"}}!",
      "EUes": "{{anim id=\"OhGeez\" target=\"actor\" targetSpec=\"\"}}A ver, ya sé que no es lo mismo que\nun fuego artificial de los de verdad,\n{{anim id=\"Clapping\" target=\"actor\" targetSpec=\"\"}}¡pero caldeará el ambiente fijo!",
      "EUfr": "{{anim id=\"Grin\" target=\"actor\" targetSpec=\"\"}}Ça vaut pas l'feu d'artifice à la papa\nqui rend l'ciel tell'ment beau qu't'en\nchiales, {{delay20}}{{anim id=\"BigSmile\" target=\"actor\" targetSpec=\"\"}}mais ça reste fendard !",
      "EUit": "{{anim id=\"Grin\" target=\"actor\" targetSpec=\"\"}}Certo, {{delay20}}non sarà come i fuochi\nd'artificio più grandi,{{delay8}} ma non\nè male lo stesso!\n{{anim id=\"BigSmile\" target=\"actor\" targetSpec=\"\"}}Forza, diamoci dentro con questo\nspettacolo, {{string value=\"6\"}}!",
      "EUnl": "{{anim id=\"Grin\" target=\"actor\" targetSpec=\"\"}}Ja, toch? {{delay20}}Het is misschien niet een\nvan die reuzeknallers!{{delay20}} {{anim id=\"BigSmile\" target=\"actor\" targetSpec=\"\"}}Maar vuurwerk\nis vuurwerk, {{string value=\"Catchphrase\"}}!",
      "EUru": "{{anim id=\"Grin\" target=\"actor\" targetSpec=\"\"}}Да, {{delay20}}конечно, размах не тот, что\nв небе, но тоже пойдет!{{delay20}} {{anim id=\"BigSmile\" target=\"actor\" targetSpec=\"\"}}Отличный\nбудет фейерверк. {{capitalizeNextLetter}}{{string value=\"6\"}}!",
      "JPja": "{{anim id=\"BigSmile\" target=\"actor\" targetSpec=\"\"}}やっと{{ruby charSpan=\"1\" value=\"わた\"}}渡せたね！{{delay frames=\"40\"}}\n{{anim id=\"HappyDance\" target=\"actor\" targetSpec=\"\"}}{{ruby charSpan=\"4\" value=\"はなびたいかい\"}}花火大会の{{ruby charSpan=\"2\" value=\"はなび\"}}花火と{{ruby charSpan=\"1\" value=\"くら\"}}比べたら　ささやかだけど{{delay8}}\nにぎやかしに　{{ruby charSpan=\"1\" value=\"つか\"}}使っておくれ、{{string value=\"6\"}}",
      "KRko": "{{anim id=\"BigSmile\" target=\"actor\" targetSpec=\"\"}}드디어 줬네!{{delay frames=\"40\"}}\n{{anim id=\"HappyDance\" target=\"actor\" targetSpec=\"\"}}불꽃축제 때 쏘는 불꽃이랑 비교하면{{delay8}}\n소박한 녀석이지만{{delay20}} 잘 써주라, {{string value=\"6\"}}!",
      "TWzh": "{{anim id=\"BigSmile\" target=\"actor\" targetSpec=\"\"}}總算是交給你了！{{delay frames=\"40\"}}\n{{anim id=\"HappyDance\" target=\"actor\" targetSpec=\"\"}}雖然這比煙火大會的煙火還要小很多，{{delay8}}\n但還是請你用它來炒熱氣氛吧，{{string value=\"6\"}}。",
      "USen": "{{anim id=\"Grin\" target=\"actor\" targetSpec=\"\"}}Yeah, {{delay20}}it's not quite one of the big sky\nones, but come on!{{delay20}} {{anim id=\"BigSmile\" target=\"actor\" targetSpec=\"\"}}Let's get this\nfireworks party going, {{string value=\"Catchphrase\"}}!",
      "USes": "{{anim id=\"OhGeez\" target=\"actor\" targetSpec=\"\"}}A ver, ya sé que no es lo mismo que\nun fuego artificial de los de verdad,\n{{anim id=\"Clapping\" target=\"actor\" targetSpec=\"\"}}¡pero alegrará el ambiente!",
      "USfr": "{{anim id=\"Grin\" target=\"actor\" targetSpec=\"\"}}Ça vaut pas les feux d'artifice géants\nqui rendent l'ciel tell'ment beau\nqu't'en pleures, {{delay20}}{{anim id=\"BigSmile\" target=\"actor\" targetSpec=\"\"}}mais ça reste bien!"
    }
  },
  {
    "label": "011",
    "attribute": "0x0000000000000000",
    "locale": {
      "CNzh": "{{string value=\"...\"}}虽然我是这么想的，{{delay20}}\n{{anim id=\"WrySmile\" target=\"actor\" targetSpec=\"\"}}不过你的口袋怎么还是满的呀？{{delay frames=\"40\"}}\n{{anim id=\"OhGeez\" target=\"actor\" targetSpec=\"\"}}你也真不容易呀。\n{{anim id=\"FaintSmile\" target=\"actor\" targetSpec=\"\"}}等下你把随身物品整理好后{{delay8}}\n再来跟我说吧。{{delay frames=\"40\"}}\n{{anim id=\"Greeting\" target=\"actor\" targetSpec=\"\"}}我会等你的！{{string value=\"6\"}}。",
      "EUde": "{{anim id=\"Restless\" target=\"actor\" targetSpec=\"\"}}Oder{{string value=\"...\"}} auch nicht. {{delay20}}Deine Tasche is'\nja voll. {{delay20}}Immer noch!{{pageBreak}}{{anim id=\"OhGeez\" target=\"actor\" targetSpec=\"\"}}Und ich noch so „Recht so“ und\n„Da haste“! {{delay20}}Mehr kannste von mir echt nich' verlangen!{{pageBreak}}{{anim id=\"Greeting\" target=\"actor\" targetSpec=\"\"}}Sieh mal zu, {{delay8}}dass du das Teil\ngeleert kriegst, {{delay8}}{{string value=\"Catchphrase\"}}!",
      "EUen": "{{anim id=\"Restless\" target=\"actor\" targetSpec=\"\"}}Or{{string value=\"...\"}}not.{{delay8}} Your pockets are still full.{{delay8}}\nStill!{{delay20}} {{anim id=\"OhGeez\" target=\"actor\" targetSpec=\"\"}}I already said \"sweeeet.\"{{delay8}} What\nmore do you want from me?{{pageBreak}}{{anim id=\"Greeting\" target=\"actor\" targetSpec=\"\"}}Get out of here and empty those\npockets, {{string value=\"Catchphrase\"}}!",
      "EUes": "{{anim id=\"OhGeez\" target=\"actor\" targetSpec=\"\"}}Pero{{string value=\"...\"}}{{delay8}} ¡Sigues con los bolsillos\nllenos, tí{{gender2 m=\"o\" f=\"a\"}}!{{pageBreak}}{{anim id=\"Nodding\" target=\"actor\" targetSpec=\"\"}}En fin, te seguiré guardando esto\nhasta que hagas hueco.{{delay8}}{{anim id=\"SmugFace\" target=\"actor\" targetSpec=\"\"}} Ya sabes que\nyo por l{{gender2 m=\"o\" f=\"a\"}}s colegas hago lo que sea.",
      "EUfr": "{{anim id=\"Restless\" target=\"actor\" targetSpec=\"\"}}Ou pas. {{delay20}}{{anim id=\"OhGeez\" target=\"actor\" targetSpec=\"\"}}Avec des poches pleines\ncomme ça, j'te vois mal trimballer un\nfeu d'artifice aux quatre coins d'l'île.{{pageBreak}}{{anim id=\"Greeting\" target=\"actor\" targetSpec=\"\"}}Va vider tout ça et rameute-toi par\nlà, qu'on puisse commencer à rigoler,\n{{string value=\"Catchphrase\"}} !",
      "EUit": "{{anim id=\"Restless\" target=\"actor\" targetSpec=\"\"}}O forse no{{string value=\"...\"}} Hai le tasche ancora\ntroppo piene. {{delay20}}{{anim id=\"OhGeez\" target=\"actor\" targetSpec=\"\"}}Insomma, mi chiedo\ncosa tu stia aspettando.{{pageBreak}}{{anim id=\"Greeting\" target=\"actor\" targetSpec=\"\"}}Dai, per favore! {{delay20}}Fai un po' di spazio,\n{{string value=\"6\"}}!",
      "EUnl": "{{anim id=\"Restless\" target=\"actor\" targetSpec=\"\"}}Of{{string value=\"...\"}} niet.{{delay8}} Je zakken zijn nog steeds\nvol.{{delay8}} Nog steeds!{{delay20}} {{anim id=\"OhGeez\" target=\"actor\" targetSpec=\"\"}}Daar kan ik nou met\nmijn pet niet bij.{{pageBreak}}{{anim id=\"Greeting\" target=\"actor\" targetSpec=\"\"}}Hup, maak even die zakken leeg, {{delay8}}en deze keer voor het echie, {{string value=\"Catchphrase\"}}!",
      "EUru": "{{anim id=\"Restless\" target=\"actor\" targetSpec=\"\"}}Неужели{{string value=\"...\"}} не может быть.{{delay8}} У тебя\nв карманах нет места.{{delay8}} Все еще!{{delay20}}\n{{anim id=\"OhGeez\" target=\"actor\" targetSpec=\"\"}}Ну как так-то?{{pageBreak}}{{anim id=\"Greeting\" target=\"actor\" targetSpec=\"\"}}Пойди освободи место в карманах\nнаконец! {{capitalizeNextLetter}}{{string value=\"6\"}}!",
      "JPja": "{{string value=\"...\"}}と{{ruby charSpan=\"1\" value=\"おも\"}}思ったら　{{delay20}}{{anim id=\"WrySmile\" target=\"actor\" targetSpec=\"\"}}やっぱり　ポケットが\nいっぱいなのかい？{{delay frames=\"40\"}}\n{{anim id=\"OhGeez\" target=\"actor\" targetSpec=\"\"}}アンタも{{ruby charSpan=\"2\" value=\"けっこう\"}}結構　{{ruby charSpan=\"2\" value=\"たいへん\"}}大変なんだね\n{{anim id=\"FaintSmile\" target=\"actor\" targetSpec=\"\"}}またあとで　{{ruby charSpan=\"2\" value=\"にもつ\"}}荷物が{{ruby charSpan=\"1\" value=\"あ\"}}空いたら{{delay8}}\nそん{{ruby charSpan=\"1\" value=\"とき\"}}時に　{{ruby charSpan=\"1\" value=\"こえ\"}}声をかけておくれ{{delay frames=\"40\"}}\n{{anim id=\"Greeting\" target=\"actor\" targetSpec=\"\"}}{{ruby charSpan=\"1\" value=\"ま\"}}待ってるよ！　{{string value=\"6\"}}",
      "KRko": "{{string value=\"...\"}}근데 너 {{delay20}}{{anim id=\"WrySmile\" target=\"actor\" targetSpec=\"\"}}또 주머니가\n한가득이냐?{{delay frames=\"40\"}}\n{{anim id=\"OhGeez\" target=\"actor\" targetSpec=\"\"}}너도 진짜 대단하다{{string value=\"...\"}}\n{{anim id=\"FaintSmile\" target=\"actor\" targetSpec=\"\"}}나중에 주머니에 자리가 생기면{{delay8}}\n그때 다시 말해줘{{delay frames=\"40\"}}\n{{anim id=\"Greeting\" target=\"actor\" targetSpec=\"\"}}기다릴게! {{string value=\"6\"}}!",
      "TWzh": "我本來是這麼想{{string value=\"...\"}}{{delay20}}{{anim id=\"WrySmile\" target=\"actor\" targetSpec=\"\"}}但你的口袋\n果然還是滿的嗎？{{delay frames=\"40\"}}\n{{anim id=\"OhGeez\" target=\"actor\" targetSpec=\"\"}}你也挺辛苦的呢。\n{{anim id=\"FaintSmile\" target=\"actor\" targetSpec=\"\"}}等你的包包騰出空位後，{{delay8}}\n再來跟我說一聲吧。{{delay frames=\"40\"}}\n{{anim id=\"Greeting\" target=\"actor\" targetSpec=\"\"}}我會等你的！{{string value=\"6\"}}。",
      "USen": "{{anim id=\"Restless\" target=\"actor\" targetSpec=\"\"}}Or{{string value=\"...\"}}not.{{delay8}} Your pockets are still full.{{delay8}}\nStill!{{delay20}} {{anim id=\"OhGeez\" target=\"actor\" targetSpec=\"\"}}I already said \"sweeeet.\"{{delay8}} What\nmore do you want from me?{{pageBreak}}{{anim id=\"Greeting\" target=\"actor\" targetSpec=\"\"}}Get out of here and empty those\npockets, {{string value=\"Catchphrase\"}}!",
      "USes": "{{anim id=\"OhGeez\" target=\"actor\" targetSpec=\"\"}}Pero{{string value=\"...\"}}{{delay8}} ¡Sigues con los bolsillos\nllenos, compi!{{pageBreak}}{{anim id=\"Nodding\" target=\"actor\" targetSpec=\"\"}}En fin, te sigo guardando esto hasta\nque hagas espacio.{{delay8}}{{anim id=\"SmugFace\" target=\"actor\" targetSpec=\"\"}} Ya sabes,{{delay20}} por mis\ncompis hago lo que sea.",
      "USfr": "{{anim id=\"Restless\" target=\"actor\" targetSpec=\"\"}}Ou pas. {{delay20}}{{anim id=\"OhGeez\" target=\"actor\" targetSpec=\"\"}}Avec des poches pleines\ncomme ça, j'te vois mal trimballer un\nfeu d'artifice aux quatre coins d'l'île.{{pageBreak}}{{anim id=\"Greeting\" target=\"actor\" targetSpec=\"\"}}Va vider tout ça et rameute-toi par\nlà, qu'on puisse commencer à rigoler,\n{{string value=\"Catchphrase\"}}!"
    }
  },
  {
    "label": "020",
    "attribute": "0x0000000000000000",
    "locale": {
      "CNzh": "{{anim id=\"BigSmile\" target=\"actor\" targetSpec=\"\"}}还好你过来跟我说话。{{delay frames=\"40\"}}\n{{anim id=\"Explain\" target=\"actor\" targetSpec=\"\"}}今天有烟花大会，{{delay8}}\n我有一样东西要送给你！{{delay frames=\"40\"}}{{anim id=\"Grin\" target=\"actor\" targetSpec=\"\"}}你猜猜是什么？\n{{anim id=\"Dance\" target=\"actor\" targetSpec=\"\"}}当当～！{{delay frames=\"40\"}}是{{color id=\"1\"}}烟花棒{{color id=\"65535\"}}！{{delay frames=\"40\"}}\n{{anim id=\"Smiling\" target=\"actor\" targetSpec=\"\"}}来，{{delay20}}快收下它吧！",
      "EUde": "{{anim id=\"Nodding\" target=\"actor\" targetSpec=\"\"}}Hey, {{delay8}}hab dich schon gesucht!{{pageBreak}}{{anim id=\"FaintSmile\" target=\"actor\" targetSpec=\"\"}}Ich hab dir für das große Feuerwerk\nwas klargemacht. {{delay20}}Willste raten, {{delay8}}was?{{i10_4}}\n{{anim id=\"Smiling\" target=\"actor\" targetSpec=\"\"}}Ta-da! {{delay20}}'ne radikale {{color id=\"1\"}}Wunderkerze{{color id=\"65535\"}}!",
      "EUen": "{{anim id=\"Nodding\" target=\"actor\" targetSpec=\"\"}}Hey, I was trying to find you earlier.{{pageBreak}}{{anim id=\"FaintSmile\" target=\"actor\" targetSpec=\"\"}}I got you something for the fireworks\nshow. {{delay8}}You wanna guess what it is?{{i10_4}}\n{{anim id=\"Smiling\" target=\"actor\" targetSpec=\"\"}}Ta-da! {{delay8}}It's a {{color id=\"1\"}}sparkler{{color id=\"65535\"}}! {{delay8}}Here you go!",
      "EUes": "{{anim id=\"Nodding\" target=\"actor\" targetSpec=\"\"}}A ver, justo quería yo hablar contigo.{{delay8}}\nEs que tengo una movida para darte.{{pageBreak}}{{anim id=\"Cheering\" target=\"actor\" targetSpec=\"\"}}¡Es una {{color id=\"1\"}}bengala{{color id=\"65535\"}}! Así podrás vivir los\nfuegos artificiales aún más a tope.{{delay8}}\n{{anim id=\"EmotEnd\" target=\"actor\" targetSpec=\"\"}}¿Te mola o qué?",
      "EUfr": "{{anim id=\"Nodding\" target=\"actor\" targetSpec=\"\"}}Ah, tu tombes bien, j'te cherchais.{{pageBreak}}{{anim id=\"FaintSmile\" target=\"actor\" targetSpec=\"\"}}J't'ai chopé une bricole pour l'feu\nd'artifice. {{delay20}}Attention les yeux{{string value=\"...\"}} {{anim id=\"Smiling\" target=\"actor\" targetSpec=\"\"}}Ta-da,\nun {{color id=\"1\"}}cierge magique{{color id=\"65535\"}} rien qu'pour toi !",
      "EUit": "{{anim id=\"Nodding\" target=\"actor\" targetSpec=\"\"}}Ehi, ti stavo giusto cercando.{{pageBreak}}{{anim id=\"FaintSmile\" target=\"actor\" targetSpec=\"\"}}Ti ho portato un regalino dallo\nspettacolo pirotecnico. {{delay8}}Vuoi sapere\ncos'è?{{delay20}} {{anim id=\"Smiling\" target=\"actor\" targetSpec=\"\"}}Tadaaa! {{delay8}}Una {{color id=\"1\"}}stella filante{{color id=\"65535\"}}!",
      "EUnl": "{{anim id=\"Nodding\" target=\"actor\" targetSpec=\"\"}}Yo, ik moest jou al hebben.{{pageBreak}}{{anim id=\"FaintSmile\" target=\"actor\" targetSpec=\"\"}}Ik heb namelijk iets voor je voor de\nvuurwerkshow. {{delay8}}Drie keer raden wat\nhet is!{{i10_4}} {{anim id=\"Smiling\" target=\"actor\" targetSpec=\"\"}}Tadaaa! Het is een {{color id=\"1\"}}sterretje{{color id=\"65535\"}}!",
      "EUru": "{{anim id=\"Nodding\" target=\"actor\" targetSpec=\"\"}}Я тебя уже давно ищу.{{pageBreak}}{{anim id=\"FaintSmile\" target=\"actor\" targetSpec=\"\"}}Хочу подарить тебе кое-что\nдля фейерверка. {{delay8}}Сказать, что?{{i10_4}}\n{{anim id=\"Smiling\" target=\"actor\" targetSpec=\"\"}}Вот! {{delay8}}{{color id=\"1\"}}Бенгальский огонь{{color id=\"65535\"}}! {{delay8}}Держи!",
      "JPja": "{{anim id=\"BigSmile\" target=\"actor\" targetSpec=\"\"}}アンタから　{{ruby charSpan=\"1\" value=\"こえ\"}}声をかけてくれて　{{ruby charSpan=\"1\" value=\"たす\"}}助かったよ{{delay frames=\"40\"}}\n{{anim id=\"Explain\" target=\"actor\" targetSpec=\"\"}}{{ruby charSpan=\"2\" value=\"きょう\"}}今日は　{{ruby charSpan=\"4\" value=\"はなびたいかい\"}}花火大会ってことで{{delay8}}　{{ruby charSpan=\"1\" value=\"わた\"}}渡そうと\n{{ruby charSpan=\"1\" value=\"おも\"}}思ってたモンがあってさ！　{{delay frames=\"40\"}}{{anim id=\"Grin\" target=\"actor\" targetSpec=\"\"}}なんだと{{ruby charSpan=\"1\" value=\"おも\"}}思う？\n{{anim id=\"Dance\" target=\"actor\" targetSpec=\"\"}}ジャーン！　{{delay frames=\"40\"}}{{color id=\"1\"}}てもちはなび{{color id=\"65535\"}}さ！{{delay frames=\"40\"}}\n{{anim id=\"Smiling\" target=\"actor\" targetSpec=\"\"}}ほれっ、{{delay20}}{{ruby charSpan=\"1\" value=\"う\"}}受け{{ruby charSpan=\"1\" value=\"と\"}}取っておくれ",
      "KRko": "{{anim id=\"BigSmile\" target=\"actor\" targetSpec=\"\"}}니가 먼저 말을 걸어줘서 다행이다!{{delay frames=\"40\"}}\n{{anim id=\"Explain\" target=\"actor\" targetSpec=\"\"}}오늘은 불꽃축제니까{{delay8}}\n너한테 주고 싶은 게 있었거든!{{delay frames=\"30\"}} {{anim id=\"Grin\" target=\"actor\" targetSpec=\"\"}}뭔지 아냐?\n{{anim id=\"Dance\" target=\"actor\" targetSpec=\"\"}}짜잔～! {{delay frames=\"40\"}}{{color id=\"1\"}}스파클러{{color id=\"65535\"}}야!{{delay frames=\"40\"}}\n{{anim id=\"Smiling\" target=\"actor\" targetSpec=\"\"}}자! {{delay20}}여기 받아줘!",
      "TWzh": "{{anim id=\"BigSmile\" target=\"actor\" targetSpec=\"\"}}你能來向我搭話真是太好了。\n{{anim id=\"Explain\" target=\"actor\" targetSpec=\"\"}}今天是煙火大會，{{delay8}}我有個東西\n想在今天交給你！{{delay frames=\"30\"}}{{anim id=\"Grin\" target=\"actor\" targetSpec=\"\"}}你覺得是什麼呢？\n{{anim id=\"Dance\" target=\"actor\" targetSpec=\"\"}}你看！{{delay frames=\"40\"}}是{{color id=\"1\"}}仙女棒{{color id=\"65535\"}}喔！{{delay frames=\"40\"}}\n{{anim id=\"Smiling\" target=\"actor\" targetSpec=\"\"}}好啦，{{delay20}}快收下吧。",
      "USen": "{{anim id=\"Nodding\" target=\"actor\" targetSpec=\"\"}}Hey, I was trying to find you earlier.{{pageBreak}}{{anim id=\"FaintSmile\" target=\"actor\" targetSpec=\"\"}}I got you something for the fireworks\nshow. {{delay8}}You wanna guess what it is?{{i10_4}}\n{{anim id=\"Smiling\" target=\"actor\" targetSpec=\"\"}}Ta-da! {{delay8}}It's a {{color id=\"1\"}}sparkler{{color id=\"65535\"}}! {{delay8}}Here you go!",
      "USes": "{{anim id=\"Nodding\" target=\"actor\" targetSpec=\"\"}}A ver, justo quería hablar contigo,\ncompi.{{delay8}} Tengo algo para ti.{{pageBreak}}{{anim id=\"Cheering\" target=\"actor\" targetSpec=\"\"}}¡Es una {{color id=\"1\"}}bengala{{color id=\"65535\"}}! Así podrás disfrutar\nlos fuegos artificiales como nadie.{{delay8}}\n{{anim id=\"EmotEnd\" target=\"actor\" targetSpec=\"\"}}¿No te parece superfabu, tú?",
      "USfr": "{{anim id=\"Nodding\" target=\"actor\" targetSpec=\"\"}}Ah, tu tombes bien, j'te cherchais.{{pageBreak}}{{anim id=\"FaintSmile\" target=\"actor\" targetSpec=\"\"}}J't'ai trouvé une bricole pour les feux\nd'artifice. {{delay20}}Attention les yeux{{string value=\"...\"}} {{anim id=\"Smiling\" target=\"actor\" targetSpec=\"\"}}Ta-da,\nune {{color id=\"1\"}}bougie magique{{color id=\"65535\"}} rien qu'pour toi!"
    }
  },
  {
    "label": "100",
    "attribute": "0x0000000000000000",
    "locale": {
      "CNzh": "{{anim id=\"Aha\" target=\"actor\" targetSpec=\"\"}}喔！{{delay20}}{{string value=\"NickName\"}}，{{delay20}}\n{{anim id=\"FaintSmile\" target=\"actor\" targetSpec=\"\"}}你来了啊。{{delay frames=\"40\"}}\n我现在站起来，你等一下。{{string value=\"6\"}}。",
      "EUde": "{{anim id=\"Aha\" target=\"actor\" targetSpec=\"\"}}Oh! {{delay8}}{{capitalizeNextLetter}}{{string value=\"NickName\"}}!\n{{delay8}}Wart ma' kurz.",
      "EUen": "{{anim id=\"Aha\" target=\"actor\" targetSpec=\"\"}}Oh! {{delay8}}{{capitalizeNextLetter}}{{string value=\"NickName\"}}! {{delay8}}One sec.",
      "EUes": "{{anim id=\"Aha\" target=\"actor\" targetSpec=\"\"}}¡Ah, {{string value=\"NickName\"}}!{{delay8}}{{anim id=\"Nodding\" target=\"actor\" targetSpec=\"\"}} Dame un momento, ¿vale?",
      "EUfr": "{{anim id=\"Aha\" target=\"actor\" targetSpec=\"\"}}Oh ! {{delay8}}{{capitalizeNextLetter}}{{string value=\"NickName\"}} ! {{delay8}}Deux s'condes, steup.",
      "EUit": "{{anim id=\"Aha\" target=\"actor\" targetSpec=\"\"}}Ehi, {{string value=\"NickName\"}}! {{delay20}}Aspetta solo un secondo.",
      "EUnl": "{{anim id=\"Aha\" target=\"actor\" targetSpec=\"\"}}O! {{delay8}}{{capitalizeNextLetter}}{{string value=\"NickName\"}}! {{delay8}}Wacht even.",
      "EUru": "{{anim id=\"Aha\" target=\"actor\" targetSpec=\"\"}}О! {{delay8}}{{capitalizeNextLetter}}{{string value=\"NickName\"}}! {{delay8}}Моментик.",
      "JPja": "{{anim id=\"Aha\" target=\"actor\" targetSpec=\"\"}}おっ！　{{delay20}}{{string value=\"NickName\"}}、{{delay20}}\n{{anim id=\"FaintSmile\" target=\"actor\" targetSpec=\"\"}}{{ruby charSpan=\"1\" value=\"き\"}}来てくれたんだ{{delay frames=\"40\"}}\nちょっと{{ruby charSpan=\"1\" value=\"た\"}}立つから　{{ruby charSpan=\"1\" value=\"ま\"}}待ってておくれ、{{string value=\"6\"}}",
      "KRko": "{{anim id=\"Aha\" target=\"actor\" targetSpec=\"\"}}오! {{delay20}}{{string value=\"NickName\"}}!{{delay20}}\n{{anim id=\"FaintSmile\" target=\"actor\" targetSpec=\"\"}}왔구나!{{delay frames=\"40\"}}\n지금 일어날 테니까 기다려봐, {{string value=\"6\"}}!",
      "TWzh": "{{anim id=\"Aha\" target=\"actor\" targetSpec=\"\"}}喔！{{delay20}}{{string value=\"NickName\"}}，{{delay20}}{{anim id=\"FaintSmile\" target=\"actor\" targetSpec=\"\"}}你來啦。{{delay frames=\"40\"}}\n我先起個身，你等等喔，{{string value=\"6\"}}。",
      "USen": "{{anim id=\"Aha\" target=\"actor\" targetSpec=\"\"}}Oh! {{delay8}}{{capitalizeNextLetter}}{{string value=\"NickName\"}}! {{delay8}}One sec.",
      "USes": "{{anim id=\"Aha\" target=\"actor\" targetSpec=\"\"}}¡Ah, {{string value=\"NickName\"}}!{{delay8}}{{anim id=\"Nodding\" target=\"actor\" targetSpec=\"\"}} Dame un momento, ¿sí?",
      "USfr": "{{anim id=\"Aha\" target=\"actor\" targetSpec=\"\"}}Oh! {{delay8}}{{capitalizeNextLetter}}{{string value=\"NickName\"}}! {{delay8}}Deux s'condes, steuplè."
    }
  },
  {
    "label": "101",
    "attribute": "0x0000000000000000",
    "locale": {
      "CNzh": "{{anim id=\"Aha\" target=\"actor\" targetSpec=\"\"}}喔！{{delay20}}{{string value=\"NickName\"}}，{{delay20}}\n{{anim id=\"FaintSmile\" target=\"actor\" targetSpec=\"\"}}你来得正是时候。{{delay frames=\"40\"}}\n我现在站起来，你等一下。{{string value=\"6\"}}。",
      "EUde": "{{anim id=\"Aha\" target=\"actor\" targetSpec=\"\"}}{{delay20}}{{capitalizeNextLetter}}{{string value=\"NickName\"}}! {{delay8}}Astreines Timing!{{delay20}} {{anim id=\"EmotEnd\" target=\"actor\" targetSpec=\"\"}}Wart ma' eben...",
      "EUen": "{{anim id=\"Aha\" target=\"actor\" targetSpec=\"\"}}{{delay20}}{{capitalizeNextLetter}}{{string value=\"NickName\"}}! {{delay8}}Perfect timing!{{delay20}}\n{{anim id=\"EmotEnd\" target=\"actor\" targetSpec=\"\"}}One sec.",
      "EUes": "{{anim id=\"Eh\" target=\"actor\" targetSpec=\"\"}}¡Anda, {{string value=\"NickName\"}}!{{delay8}}{{anim id=\"Scheming\" target=\"actor\" targetSpec=\"\"}} Espera, que me levanto. {{delay8}}La ocasión lo merece, tú.",
      "EUfr": "{{anim id=\"Aha\" target=\"actor\" targetSpec=\"\"}}{{delay20}}{{capitalizeNextLetter}}{{string value=\"NickName\"}} ! {{delay8}}Tu tombes à pic !{{delay20}}{{anim id=\"EmotEnd\" target=\"actor\" targetSpec=\"\"}} Une p'tite seconde et chuis à toi{{string value=\"...\"}}",
      "EUit": "{{anim id=\"Aha\" target=\"actor\" targetSpec=\"\"}}Ah, {{string value=\"NickName\"}}! Tempismo perfetto!{{delay20}} {{anim id=\"EmotEnd\" target=\"actor\" targetSpec=\"\"}}Un attimo solo.",
      "EUnl": "{{anim id=\"Aha\" target=\"actor\" targetSpec=\"\"}}{{delay20}}{{capitalizeNextLetter}}{{string value=\"NickName\"}}! {{delay8}}Toptiming!{{delay20}} {{anim id=\"EmotEnd\" target=\"actor\" targetSpec=\"\"}}Eén seconde.",
      "EUru": "{{anim id=\"Aha\" target=\"actor\" targetSpec=\"\"}}{{delay20}}{{capitalizeNextLetter}}{{string value=\"NickName\"}}!{{delay8}} Ты как раз вовремя!{{delay20}} Моментик.",
      "JPja": "{{anim id=\"Aha\" target=\"actor\" targetSpec=\"\"}}おっ！　{{delay20}}{{string value=\"NickName\"}}、{{delay20}}\n{{anim id=\"FaintSmile\" target=\"actor\" targetSpec=\"\"}}いいところに　{{ruby charSpan=\"1\" value=\"き\"}}来てくれたね{{delay frames=\"40\"}}\nちょっと{{ruby charSpan=\"1\" value=\"た\"}}立つから　{{ruby charSpan=\"1\" value=\"ま\"}}待ってておくれ、{{string value=\"6\"}}",
      "KRko": "{{anim id=\"Aha\" target=\"actor\" targetSpec=\"\"}}오, {{delay20}}{{string value=\"NickName\"}}!{{delay20}}\n{{anim id=\"FaintSmile\" target=\"actor\" targetSpec=\"\"}}너 마침 잘 왔다{{delay frames=\"40\"}}\n지금 일어날 테니까 기다려봐, {{string value=\"6\"}}!",
      "TWzh": "{{anim id=\"Aha\" target=\"actor\" targetSpec=\"\"}}喔！{{delay20}}{{string value=\"NickName\"}}，{{delay20}}{{anim id=\"FaintSmile\" target=\"actor\" targetSpec=\"\"}}你來得正好。{{delay frames=\"40\"}}\n我先起個身，你等等喔，{{string value=\"6\"}}。",
      "USen": "{{anim id=\"Aha\" target=\"actor\" targetSpec=\"\"}}{{delay20}}{{capitalizeNextLetter}}{{string value=\"NickName\"}}! {{delay8}}Perfect timing!{{delay20}}\n{{anim id=\"EmotEnd\" target=\"actor\" targetSpec=\"\"}}One sec.",
      "USes": "{{anim id=\"Eh\" target=\"actor\" targetSpec=\"\"}}¡Ey, {{string value=\"NickName\"}}!{{delay8}}{{anim id=\"Scheming\" target=\"actor\" targetSpec=\"\"}} Espera, que me levanto. {{delay8}}Te lo mereces, tú.",
      "USfr": "{{anim id=\"Aha\" target=\"actor\" targetSpec=\"\"}}{{delay20}}{{capitalizeNextLetter}}{{string value=\"NickName\"}}! {{delay8}}Tu tombes à pic!{{delay20}}{{anim id=\"EmotEnd\" target=\"actor\" targetSpec=\"\"}} Une p'tite seconde et chuis à toi{{string value=\"...\"}}"
    }
  }
]