﻿[
  {
    "label": "001",
    "attribute": "0x0000030000000000",
    "text": "{{anim id=\"Aha\" target=\"actor\" targetSpec=\"\"}}{{string value=\"4\"}}{{gender2 m=\"군\" f=\"양\"}}!{{delay8}}\n마침 잘 만났어, {{string value=\"6\"}}!{{pageBreak}}{{anim id=\"Serious\" target=\"actor\" targetSpec=\"\"}}나와 {{string value=\"31\"}}군,{{delay20}}\n둘 중에 누구 헤어스타일이 더 멋진지{{delay20}}\n{{anim id=\"QuestionMark\" target=\"actor\" targetSpec=\"\"}}그대의 의견을 들려주겠어?"
  },
  {
    "label": "001_a",
    "attribute": "0x0000000000000000",
    "text": "{{string value=\"31\"}}"
  },
  {
    "label": "001_b",
    "attribute": "0x0000000000000000",
    "text": "{{string value=\"31\"}}"
  },
  {
    "label": "001_c",
    "attribute": "0x0000000000000000",
    "text": "모르겠어"
  },
  {
    "label": "002",
    "attribute": "0x0000000000000000",
    "text": "{{anim id=\"BigSmile\" target=\"mainNpc\" targetSpec=\"\"}}{{anim id=\"Eh\" target=\"subNpc\" targetSpec=\"\"}}하핫～!{{delay8}}\n역시 {{string value=\"4\"}}{{gender2 m=\"군\" f=\"양\"}}이야!{{delay frames=\"40\"}}\n{{anim id=\"HappyFlower\" target=\"actor\" targetSpec=\"\"}}내 매력을 알아보다니 안목이 높은걸!{{anim id=\"EmotEnd\" target=\"mainNpc\" targetSpec=\"\"}}{{anim id=\"EmotEnd\" target=\"subNpc\" targetSpec=\"\"}}"
  },
  {
    "label": "003",
    "attribute": "0x0000000000000000",
    "text": "{{anim id=\"OhGeez\" target=\"actor\" targetSpec=\"\"}}{{delay frames=\"20\"}}이 멋을 모르다니{{string value=\"...\"}}\n니네들은 아직 애기로구만? {{string value=\"6\"}}?"
  },
  {
    "label": "004",
    "attribute": "0x0000000000000000",
    "text": "{{anim id=\"BigSmile\" target=\"actor\" targetSpec=\"\"}}역시 {{string value=\"NickName\"}}{{gender5 m=\"이야\" f=\"야\"}}!{{delay frames=\"40\"}}\n{{anim id=\"Nodding\" target=\"actor\" targetSpec=\"\"}}이 와일드한 멋을 알아보다니, {{string value=\"6\"}}!"
  },
  {
    "label": "005",
    "attribute": "0x0000000000000000",
    "text": "{{i20_2 arg=\"7\"}}{{anim id=\"Serious\" target=\"actor\" targetSpec=\"\"}}나도 {{string value=\"31\"}}군처럼{{delay20}}\n와일드한 스타일에 도전해볼까?{{pageBreak}}{{i20_3 arg=\"5\"}}{{anim id=\"WrySmile\" target=\"actor\" targetSpec=\"\"}}{{delay frames=\"16\"}}{{string value=\"...\"}}아, 그치만{{delay20}}\n너무 무서워지진 않게\n조심해야겠군{{string value=\"...\"}}{{i20_3 arg=\"7\"}}{{anim id=\"Pardon\" target=\"subNpc\" targetSpec=\"\"}}"
  },
  {
    "label": "006",
    "attribute": "0x0000000000000000",
    "text": "{{anim id=\"WrySmile\" target=\"actor\" targetSpec=\"\"}}{{delay frames=\"16\"}}후후후, {{delay20}}{{string value=\"4\"}}{{gender2 m=\"군\" f=\"양\"}}은\n솔직하지 않은걸{{string value=\"...\"}}"
  },
  {
    "label": "007",
    "attribute": "0x0000000000000000",
    "text": "{{anim id=\"Nodding\" target=\"actor\" targetSpec=\"\"}}뭐, {{delay20}}니가 생각하는 것만큼{{delay8}}\n{{anim id=\"OhGeez\" target=\"actor\" targetSpec=\"\"}}주변 녀석들은\n너를 신경 안 쓴다는 얘기야, {{string value=\"6\"}}!"
  },
  {
    "label": "011",
    "attribute": "0x0000030000000000",
    "text": "{{anim id=\"Aha\" target=\"actor\" targetSpec=\"\"}}{{string value=\"4\"}}{{gender2 m=\"군\" f=\"양\"}}!{{delay8}}\n마침 잘 만났어, {{string value=\"6\"}}!{{pageBreak}}{{anim id=\"Serious\" target=\"actor\" targetSpec=\"\"}}나와 {{string value=\"31\"}}군,{{delay20}}\n둘 중에 누구 헤어스타일이 더 섹시한지{{delay20}}\n{{anim id=\"QuestionMark\" target=\"actor\" targetSpec=\"\"}}그대의 의견을 들려주겠어?"
  },
  {
    "label": "011_a",
    "attribute": "0x0000000000000000",
    "text": "{{string value=\"31\"}}"
  },
  {
    "label": "011_b",
    "attribute": "0x0000000000000000",
    "text": "{{string value=\"31\"}}"
  },
  {
    "label": "011_c",
    "attribute": "0x0000000000000000",
    "text": "글쎄…"
  },
  {
    "label": "012",
    "attribute": "0x0000000000000000",
    "text": "{{anim id=\"BigSmile\" target=\"mainNpc\" targetSpec=\"\"}}{{anim id=\"Eh\" target=\"subNpc\" targetSpec=\"\"}}하핫～!{{delay8}}\n역시 {{string value=\"4\"}}{{gender2 m=\"군\" f=\"양\"}}이야!{{delay frames=\"40\"}}\n{{anim id=\"HappyFlower\" target=\"actor\" targetSpec=\"\"}}내 매력을 알아보다니 안목이 높은걸!{{anim id=\"EmotEnd\" target=\"mainNpc\" targetSpec=\"\"}}{{anim id=\"EmotEnd\" target=\"subNpc\" targetSpec=\"\"}}"
  },
  {
    "label": "013",
    "attribute": "0x0000000000000000",
    "text": "{{anim id=\"OhGeez\" target=\"actor\" targetSpec=\"\"}}{{delay frames=\"20\"}}이 어른의 섹시함을 모르다니{{string value=\"...\"}}\n니네들 아직 애기로구만? {{string value=\"6\"}}?"
  },
  {
    "label": "014",
    "attribute": "0x0000000000000000",
    "text": "{{anim id=\"TakenAback\" target=\"actor\" targetSpec=\"\"}}{{anim id=\"FaintSmile\" target=\"subNpc\" targetSpec=\"\"}}앗?! {{delay20}}말도 안 돼{{string value=\"...\"}}{{pageBreak}}{{anim id=\"Serious\" target=\"actor\" targetSpec=\"\"}}좋아, 그렇다면{{delay frames=\"40\"}}\n{{anim id=\"EmotEnd\" target=\"actor\" targetSpec=\"\"}}좀 더 촉촉한 헤어로{{delay8}}\n요염한 모습을{{string value=\"...\"}}{{anim id=\"EmotEnd\" target=\"mainNpc\" targetSpec=\"\"}}"
  },
  {
    "label": "015",
    "attribute": "0x0000000000000000",
    "text": "{{anim id=\"FaintSmile\" target=\"actor\" targetSpec=\"\"}}하하, {{delay8}}막 씻고 나온 것 같구만!{{delay frames=\"40\"}}\n{{anim id=\"Greeting\" target=\"actor\" targetSpec=\"\"}}그래,{{delay8}} 열심히 해봐! {{string value=\"6\"}}!"
  },
  {
    "label": "016",
    "attribute": "0x0000000000000000",
    "text": "{{anim id=\"WrySmile\" target=\"actor\" targetSpec=\"\"}}{{delay frames=\"16\"}}후후후, {{delay20}}{{string value=\"4\"}}{{gender2 m=\"군\" f=\"양\"}}은\n솔직하지 않은걸{{string value=\"...\"}}"
  },
  {
    "label": "017",
    "attribute": "0x0000000000000000",
    "text": "{{anim id=\"Explain\" target=\"actor\" targetSpec=\"\"}}사람을 매료시키는 섹시함은{{delay20}}\n내면에서 우러나오는 거야!{{pageBreak}}{{anim id=\"OhGeez\" target=\"actor\" targetSpec=\"\"}}{{delay frames=\"16\"}}내 말은{{string value=\"...\"}} {{delay20}}겉모습만 신경 쓰는 건{{delay8}}\n효과가 없다는 얘기라구, {{string value=\"6\"}}!"
  },
  {
    "label": "101",
    "attribute": "0x0000000000000000",
    "text": "{{anim id=\"Explain\" target=\"actor\" targetSpec=\"\"}}난 어릴 때{{delay20}}\n야구 선수가 꿈이었지{{string value=\"...\"}}{{pageBreak}}{{anim id=\"Serious\" target=\"actor\" targetSpec=\"\"}}그치만 깨달았다구!{{delay frames=\"40\"}}\n{{anim id=\"Grin\" target=\"actor\" targetSpec=\"\"}}축구 선수가 더 인기 있단 걸 말이야!"
  },
  {
    "label": "102",
    "attribute": "0x0000000000000000",
    "text": "{{anim id=\"Eh\" target=\"actor\" targetSpec=\"\"}}그, {{delay8}}그런 거냐?"
  },
  {
    "label": "103",
    "attribute": "0x0000000000000000",
    "text": "{{anim id=\"Aha\" target=\"actor\" targetSpec=\"\"}}그리고 알게 됐지!{{delay frames=\"40\"}}\n{{anim id=\"ColdChill\" target=\"actor\" targetSpec=\"\"}}축구엔 재능이 없다는 걸{{string value=\"...\"}}{{delay frames=\"40\"}}\n{{color id=\"4\"}}어렴풋이 눈치채고 있었지만{{string value=\"...\"}}{{pageBreak}}{{anim id=\"Explain\" target=\"actor\" targetSpec=\"\"}}{{color id=\"65535\"}}그래서 난,{{delay20}}\n또 다른 내가 되고 싶다는 생각에{{delay20}}\n이 섬에 오게 됐지, {{string value=\"6\"}}!"
  },
  {
    "label": "104",
    "attribute": "0x0000000000000000",
    "text": "{{anim id=\"Thinking\" target=\"actor\" targetSpec=\"\"}}{{delay frames=\"24\"}}결국 {{delay8}}뭐가 되고 싶은 건지{{delay20}}\n잘 모르겠지만{{string value=\"...\"}}{{delay20}}\n{{anim id=\"WrySmile\" target=\"actor\" targetSpec=\"\"}}{{delay frames=\"16\"}}아무튼 {{delay8}}힘내라, {{string value=\"6\"}}!"
  },
  {
    "label": "201",
    "attribute": "0x0000000000000000",
    "text": "{{anim id=\"Explain\" target=\"actor\" targetSpec=\"\"}}궁극적으로{{string value=\"...\"}}{{delay8}}\n사회에서 허용이 된다면{{delay20}}\n나는 알몸으로 지내고 싶다구, {{string value=\"6\"}}!"
  },
  {
    "label": "202",
    "attribute": "0x0000000000000000",
    "text": "{{anim id=\"WrySmile\" target=\"actor\" targetSpec=\"\"}}{{delay frames=\"16\"}}그러냐?{{delay8}}\n전혀 공감은 안 되지만{{string value=\"...\"}}{{pageBreak}}{{anim id=\"Nodding\" target=\"actor\" targetSpec=\"\"}}{{delay8}}니가 말한{{delay20}}\n'{{string value=\"Catchphrase\"}}'{{string value=\"...\"}} 이 말은\n묘한 설득력이 있는데?"
  },
  {
    "label": "203",
    "attribute": "0x0000000000000000",
    "text": "{{anim id=\"Shocked\" target=\"actor\" targetSpec=\"\"}}음? {{string value=\"6\"}}?{{pageBreak}}{{anim id=\"Serious\" target=\"actor\" targetSpec=\"\"}}'{{string value=\"Catchphrase\"}}'{{string value=\"...\"}}{{delay20}}\n{{anim id=\"Nodding\" target=\"actor\" targetSpec=\"\"}}이 말에 그런 힘이{{delay8}} 숨겨져 있었다니!"
  },
  {
    "label": "204",
    "attribute": "0x0000000000000000",
    "text": "{{anim id=\"FaintSmile\" target=\"actor\" targetSpec=\"\"}}뭐, 느낌이 그렇다는 말이다!{{delay frames=\"40\"}}\n{{anim id=\"ShyBoy\" target=\"actor\" targetSpec=\"\"}}{{delay frames=\"12\"}}근데 혹시 나도{{delay20}}\n그 말 써도 되냐?"
  },
  {
    "label": "205",
    "attribute": "0x0000000000000000",
    "text": "{{anim id=\"BigSmile\" target=\"actor\" targetSpec=\"\"}}오브 콜～스!{{delay20}}\n{{anim id=\"Dance\" target=\"actor\" targetSpec=\"\"}}와이 낫?!{{delay8}}\n마음껏 쓰라구, {{string value=\"6\"}}～"
  },
  {
    "label": "206",
    "attribute": "0x0000000000000000",
    "text": "{{anim id=\"Eh\" target=\"actor\" targetSpec=\"\"}}오, 고맙다!{{delay frames=\"40\"}}\n{{anim id=\"Nodding\" target=\"actor\" targetSpec=\"\"}}이제 내가 하는 말이{{delay8}}\n한층 깊이 있어지겠구만, {{string value=\"6\"}}!{{pageBreak}}{{anim id=\"HappyFlower\" target=\"actor\" targetSpec=\"\"}}으－하하핫!"
  }
]