﻿[
  {
    "label": "001",
    "attribute": "0x00000000",
    "text": "Пора{{delay20}} открыть глаза{{string value=\"...\"}}"
  },
  {
    "label": "001_01",
    "attribute": "0x00000000",
    "text": "{{anim id=\"EmotEnd\" target=\"actor\" targetSpec=\"\"}}Теперь ты погружен{{gender2 m=\"\" f=\"а\"}} в глубокий\nсон{{string value=\"...\"}}{{delay8}} {{anim id=\"Nodding\" target=\"actor\" targetSpec=\"\"}}Тебе снится остров под\nназванием {{string value=\"OtherIslandName\"}}."
  },
  {
    "label": "002",
    "attribute": "0x00000000",
    "text": "{{anim id=\"EmotEnd\" target=\"actor\" targetSpec=\"\"}}Если хочешь очнуться ото сна,\nпросто ложись в эту постель.{{delay20}}\n{{anim id=\"FaintSmile\" target=\"actor\" targetSpec=\"\"}}Я обо всем позабочусь."
  },
  {
    "label": "003",
    "attribute": "0x00000000",
    "text": "{{anim id=\"Explain\" target=\"actor\" targetSpec=\"\"}}Если у тебя будут вопросы{{delay8}} или\nпонадобится совет по поводу снов,{{delay8}}\nя буду рада помочь — обращайся!"
  },
  {
    "label": "004",
    "attribute": "0x00000000",
    "text": "{{anim id=\"EmotEnd\" target=\"actor\" targetSpec=\"\"}}На этом{{delay8}} {{anim id=\"Hello\" target=\"actor\" targetSpec=\"\"}}желаю тебе приятных\nсновидений об острове\n{{string value=\"OtherIslandName\"}}."
  },
  {
    "label": "1001",
    "attribute": "0x02000000",
    "text": "{{anim id=\"EmotEnd\" target=\"actor\" targetSpec=\"\"}}Пора просыпаться?{{delay8}} {{anim id=\"QuestionMark\" target=\"actor\" targetSpec=\"\"}}Или отключить\nбудильник и дать тебе еще\nпоспать?"
  },
  {
    "label": "1001_a",
    "attribute": "0x00000000",
    "text": "Пора просыпаться!"
  },
  {
    "label": "1001_b",
    "attribute": "0x00000000",
    "text": "Посплю еще."
  },
  {
    "label": "1002",
    "attribute": "0x00000000",
    "text": "{{anim id=\"EmotEnd\" target=\"actor\" targetSpec=\"\"}}Превосходно!{{delay20}} {{anim id=\"AbsentMindedness\" target=\"actor\" targetSpec=\"\"}}Закрой глаза{{string value=\"...\"}}\nрасслабься{{string value=\"...\"}}{{delay8}} Теперь {{delay8}}представь себе\nрезкий звон старого будильника{{string value=\"...\"}}{{anim id=\"EmotEnd\" target=\"actor\" targetSpec=\"\"}}{{i10_8 arg=\"75\"}}"
  },
  {
    "label": "1003",
    "attribute": "0x00000000",
    "text": "Когда ты откроешь глаза, ты будешь\nв своей постели, а я исчезну.{{delay20}} {{anim id=\"FaintSmile\" target=\"actor\" targetSpec=\"\"}}До\nследующего сна, {{string value=\"PlayerName\"}}!{{i10_8 arg=\"75\"}}"
  },
  {
    "label": "1004",
    "attribute": "0x00000000",
    "text": "{{anim id=\"EmotEnd\" target=\"actor\" targetSpec=\"\"}}Еще пару минут?{{delay20}} {{anim id=\"Hello\" target=\"actor\" targetSpec=\"\"}}Как пожелаешь."
  },
  {
    "label": "2001",
    "attribute": "0x06000000",
    "text": "{{anim id=\"QuestionMark\" target=\"actor\" targetSpec=\"\"}}Тебе нужна помощь?"
  },
  {
    "label": "2001_a",
    "attribute": "0x00000000",
    "text": "Как проснуться?"
  },
  {
    "label": "2001_b",
    "attribute": "0x00000000",
    "text": "В чем отличие от яви?"
  },
  {
    "label": "2001_c",
    "attribute": "0x00000000",
    "text": "Как пожаловаться на сон?"
  },
  {
    "label": "2001_d",
    "attribute": "0x00000000",
    "text": "Ничего не надо."
  },
  {
    "label": "2002",
    "attribute": "0x06000000",
    "text": "{{anim id=\"QuestionMark\" target=\"actor\" targetSpec=\"\"}}Тебе нужна еще какая-нибудь\nинформация?"
  },
  {
    "label": "2002_a",
    "attribute": "0x00000000",
    "text": "Как проснуться?"
  },
  {
    "label": "2002_b",
    "attribute": "0x00000000",
    "text": "В чем отличие от яви?"
  },
  {
    "label": "2002_c",
    "attribute": "0x00000000",
    "text": "Как пожаловаться на сон?"
  },
  {
    "label": "2002_d",
    "attribute": "0x00000000",
    "text": "Ничего не надо."
  },
  {
    "label": "2011",
    "attribute": "0x00000000",
    "text": "{{anim id=\"Explain\" target=\"actor\" targetSpec=\"\"}}Чтобы покинуть сон, просто ложись\nв эту {{color id=\"1\"}}кровать{{color id=\"65535\"}}. {{delay20}}Когда проснешься,\nя верну тебе все твое имущество."
  },
  {
    "label": "2012",
    "attribute": "0x00000000",
    "text": "{{anim id=\"Explain\" target=\"actor\" targetSpec=\"\"}}Чтобы покинуть сон, достаточно\nлечь в эту {{color id=\"1\"}}кровать{{color id=\"65535\"}}{{delay20}} или нажать\nво сне {{color id=\"1\"}}кнопку{{color id=\"65535\"}} {{color id=\"1\"}}{{color id=\"65535\"}}.{{pageBreak}}{{anim id=\"EmotEnd\" target=\"actor\" targetSpec=\"\"}}Когда проснешься,{{delay8}} тебе вернут\nвсе твое имущество."
  },
  {
    "label": "2021",
    "attribute": "0x00000000",
    "text": "{{anim id=\"Explain\" target=\"actor\" targetSpec=\"\"}}Остров во сне неизменяем.{{delay20}}\nЧто бы ты ни делал{{gender2 m=\"\" f=\"а\"}}, наяву ничего\nне изменится. Делай что хочешь!{{pageBreak}}{{anim id=\"EmotEnd\" target=\"actor\" targetSpec=\"\"}}Погрузиться в сон можно только с\nпустыми руками.{{delay20}} {{anim id=\"FaintSmile\" target=\"actor\" targetSpec=\"\"}}Я верну тебе твое\nимущество, когда ты проснешься."
  },
  {
    "label": "2031",
    "attribute": "0x00000000",
    "text": "{{anim id=\"Worried\" target=\"actor\" targetSpec=\"\"}}Во сне тебе может встретится\nнеприемлемый контент.{{pageBreak}}{{anim id=\"Explain\" target=\"actor\" targetSpec=\"\"}}В таком случае {{delay8}}нажми, пожалуйста, {{color id=\"1\"}}кнопку {{color id=\"65535\"}}, чтобы пожаловаться на\nэтот сон.{{pageBreak}}{{anim id=\"Silent\" target=\"actor\" targetSpec=\"\"}}Как только ты заполнишь жалобу,{{delay8}}\nя сразу разбужу тебя."
  },
  {
    "label": "2041",
    "attribute": "0x00000000",
    "text": "{{anim id=\"EmotEnd\" target=\"actor\" targetSpec=\"\"}}Поняла.{{delay20}} {{anim id=\"Hello\" target=\"actor\" targetSpec=\"\"}}Приятных сновидений."
  }
]