﻿[
  {
    "label": "001",
    "attribute": "0x0000000000000000",
    "text": "{{fun_0014003C arg=\"\"}}"
  },
  {
    "label": "001_01",
    "attribute": "0x0000020000000000",
    "text": "{{anim id=\"Eh\" target=\"actor\" targetSpec=\"\"}}Übrigens{{string value=\"...\"}}{{delay20}} {{anim id=\"Nodding\" target=\"actor\" targetSpec=\"\"}}Heute ist ja das Musik-\nfestival am Strand!{{delay20}} Das geh ich mir\nspäter vielleicht noch ansehen{{string value=\"...\"}}"
  },
  {
    "label": "001_01_a",
    "attribute": "0x0000000000000000",
    "text": "Gehen wir tanzen!"
  },
  {
    "label": "001_01_b",
    "attribute": "0x0000000000000000",
    "text": "{{anim id=\"EmotEnd\" target=\"actor\" targetSpec=\"\"}}Ja, solltest du!"
  },
  {
    "label": "001_02",
    "attribute": "0x0000020000000000",
    "text": "Schon gesehen? {{anim id=\"Serious\" target=\"actor\" targetSpec=\"\"}}Am Strand geht's ja\nheute so richtig ab!{{delay20}} {{anim id=\"ShyBoy\" target=\"actor\" targetSpec=\"\"}}Ich gehe später\nbestimmt auch noch hin..."
  },
  {
    "label": "001_02_a",
    "attribute": "0x0000000000000000",
    "text": "Gehen wir tanzen!"
  },
  {
    "label": "001_02_b",
    "attribute": "0x0000000000000000",
    "text": "{{anim id=\"EmotEnd\" target=\"actor\" targetSpec=\"\"}}Wir sehen uns dort!"
  },
  {
    "label": "001_03",
    "attribute": "0x0000020000000000",
    "text": "Übrigens{{string value=\"...\"}}{{delay20}}{{anim id=\"QuestionMark\" target=\"actor\" targetSpec=\"\"}} Gehst du später auch\nnoch hin?{{pageBreak}}Zum großen Festival am Strand,{{delay8}}\nmeine ich.{{delay20}} {{anim id=\"FaintSmile\" target=\"actor\" targetSpec=\"\"}}Sieht nach Spaß aus!"
  },
  {
    "label": "001_03_a",
    "attribute": "0x0000000000000000",
    "text": "Gehen wir tanzen!"
  },
  {
    "label": "001_03_b",
    "attribute": "0x0000000000000000",
    "text": "{{anim id=\"EmotEnd\" target=\"actor\" targetSpec=\"\"}}Ich geh auf jeden Fall hin!"
  },
  {
    "label": "101",
    "attribute": "0x0000000000000000",
    "text": "{{anim id=\"Thinking\" target=\"actor\" targetSpec=\"\"}}Hmm.{{delay20}} Der Schultag läuft zwar noch...\naber warum nicht?{{delay20}} {{anim id=\"Nodding\" target=\"actor\" targetSpec=\"\"}}Wir sagen einfach,{{delay8}} es sei ein Klassenausflug!{{pageBreak}}{{anim id=\"HappyDance\" target=\"actor\" targetSpec=\"\"}}Bücher weg,{{delay8}} alle miteinander!{{delay8}} Wir\nlernen jetzt ein wenig über Strand-\npartys{{string value=\"...\"}}{{delay20}} {{anim id=\"WrySmile\" target=\"actor\" targetSpec=\"\"}}Durch praktische Erfahrung!"
  },
  {
    "label": "102_01",
    "attribute": "0x0000000000000000",
    "text": "{{anim id=\"Shocked\" target=\"actor\" targetSpec=\"\"}}Oh,{{delay8}} richtig!{{delay20}} Heute läuft ja ein\nFestival am Strand!{{pageBreak}}{{anim id=\"ShyBoy\" target=\"actor\" targetSpec=\"\"}}Dann können wir uns auch gleich um\ndie Patienten kümmern!{{delay20}}{{anim id=\"Cheering\" target=\"actor\" targetSpec=\"\"}} Feiern ist ja\nbekanntlich die beste Medizin!{{anim id=\"EmotEnd\" target=\"actor\" targetSpec=\"\"}}"
  },
  {
    "label": "102_02",
    "attribute": "0x0000000000000000",
    "text": "{{anim id=\"SadSpiral\" target=\"actor\" targetSpec=\"\"}}Ach!{{delay20}} Ich hab noch sooo viel drögen Papierkram zu erledigen{{string value=\"...\"}}{{delay8}}{{anim id=\"Negative\" target=\"actor\" targetSpec=\"\"}} Aber das Festival lass ich mir nicht entgehen!{{pageBreak}}{{anim id=\"EmotEnd\" target=\"actor\" targetSpec=\"\"}}Also dann,{{delay8}} ab an den Strand!{{delay20}} Ich\nlade auch noch den Rest des\nKrankenhauses ein!"
  },
  {
    "label": "103",
    "attribute": "0x0000000000000000",
    "text": "{{anim id=\"Worried\" target=\"actor\" targetSpec=\"\"}}Hmm.{{delay20}} Ich möchte auch zum Festival,{{delay8}}\naber ich hab heute noch 'ne Menge\nPatienten zu untersuchen...{{pageBreak}}{{anim id=\"Thinking\" target=\"actor\" targetSpec=\"\"}}Hm,{{delay8}} wenn ich am Strand ein\nSanitätszelt aufschlage{{string value=\"...\"}}{{delay8}} {{anim id=\"Cheering\" target=\"actor\" targetSpec=\"\"}}Dann\nkönnte ich ja beides!"
  },
  {
    "label": "104",
    "attribute": "0x0000000000000000",
    "text": "{{anim id=\"Shocked\" target=\"actor\" targetSpec=\"\"}}Jaaa!{{delay8}} Das klingt nach Spaß!{{delay20}}\n{{anim id=\"Negative\" target=\"actor\" targetSpec=\"\"}}Ich kann ja schließlich nicht den\nganzen Tag lang arbeiten!{{pageBreak}}{{anim id=\"Serious\" target=\"actor\" targetSpec=\"\"}}Ich mach hier noch alles zu,{{delay8}} und\ndann ab an den Strand!{{delay20}} Die Kunden\nkönnen auch kommen.{{delay20}}{{anim id=\"EmotEnd\" target=\"actor\" targetSpec=\"\"}} PAAARTYYY!"
  },
  {
    "label": "105",
    "attribute": "0x0000000000000000",
    "text": "{{anim id=\"OhGeez\" target=\"actor\" targetSpec=\"\"}}JAAA!{{delay20}} Ich kann kaum an was anderes\ndenken!{{delay20}} {{anim id=\"Oops\" target=\"actor\" targetSpec=\"\"}}Obwohl ich wohl eher ans\nTische abräumen denken sollte...{{pageBreak}}{{anim id=\"Nodding\" target=\"actor\" targetSpec=\"\"}}Da hilft nur eins:{{delay8}} Laden zumachen\n{{anim id=\"Dance\" target=\"actor\" targetSpec=\"\"}}und dann ab an den Strand!{{delay20}} Ha-HA!"
  },
  {
    "label": "106",
    "attribute": "0x0000000000000000",
    "text": "{{anim id=\"Shocked\" target=\"actor\" targetSpec=\"\"}}Och!{{delay20}} Ich schufte hier in der Küche,{{delay8}}\n{{anim id=\"Smiling\" target=\"actor\" targetSpec=\"\"}}während beim Festival die Tanzfläche\nam Kochen ist...{{pageBreak}}{{anim id=\"Negative\" target=\"actor\" targetSpec=\"\"}}Das lassen wir uns nicht entgehen!{{delay20}}\n{{anim id=\"Greeting\" target=\"actor\" targetSpec=\"\"}}Ich mach hier noch schnell alles zu,{{delay8}}\ndann ab zur Strandparty!"
  },
  {
    "label": "107",
    "attribute": "0x0000000000000000",
    "text": "{{anim id=\"SadSpiral\" target=\"actor\" targetSpec=\"\"}}Ich muss aber noch arbeiten...{{delay8}} {{anim id=\"Negative\" target=\"actor\" targetSpec=\"\"}}Da\nkann ich nicht einfach so mir nichts,{{delay8}}\ndir nichts runter an den Strand...{{pageBreak}}{{anim id=\"IdeaBulb\" target=\"actor\" targetSpec=\"\"}}Aber wenn ich alle Gäste und das\nPersonal einlade...{{delay20}}{{anim id=\"WrySmile\" target=\"actor\" targetSpec=\"\"}}{{delay20}} Dann wäre der\nArbeitstag gegessen!{{delay20}} {{anim id=\"Greeting\" target=\"actor\" targetSpec=\"\"}}Auf geht's!"
  },
  {
    "label": "108",
    "attribute": "0x0000000000000000",
    "text": "{{anim id=\"Greeting\" target=\"actor\" targetSpec=\"\"}}Auf jeden Fall!{{delay20}} {{anim id=\"Nodding\" target=\"actor\" targetSpec=\"\"}}Dann kann ich dir ja\nauch gleich den allerheißesten\nStrandlook dieser Saison zeigen!{{pageBreak}}{{anim id=\"Cheering\" target=\"actor\" targetSpec=\"\"}}Party,{{delay8}} Strand,{{delay8}} Fete{{string value=\"...\"}}{{delay20}} AUF GEHT'S!"
  },
  {
    "label": "109",
    "attribute": "0x0000000000000000",
    "text": "{{anim id=\"Shocked\" target=\"actor\" targetSpec=\"\"}}Oh,{{delay8}} stimmt ja!{{delay20}} Heute läuft ja 'ne\nStrandparty!{{delay20}} {{anim id=\"Nodding\" target=\"actor\" targetSpec=\"\"}}Kann ich mir nicht\nentgehen lassen!{{pageBreak}}{{anim id=\"OhGeez\" target=\"actor\" targetSpec=\"\"}}Ich sag noch kurz allen,{{delay8}} dass uns{{string value=\"...\"}}{{delay8}}\nÄh{{string value=\"...\"}}{{delay8}} das Essen ausgegangen ist,{{delay8}}\ngenau!{{delay20}} {{anim id=\"Greeting\" target=\"actor\" targetSpec=\"\"}}Danach dann ab zur Party!"
  },
  {
    "label": "200",
    "attribute": "0x0000000000000000",
    "text": "{{fun_0014003C arg=\"\"}}"
  },
  {
    "label": "200_01",
    "attribute": "0x0000000000000000",
    "text": "{{anim id=\"Sighing\" target=\"actor\" targetSpec=\"\"}}Tjaaa, {{delay8}}aber ich muss leider noch\narbeiten.{{delay20}} {{anim id=\"WrySmile\" target=\"actor\" targetSpec=\"\"}}Geh und amüsier dich ohne\nmich.{{delay40}} {{size value=\"75\"}}{{anim id=\"OhGeez\" target=\"actor\" targetSpec=\"\"}}Wenn's dir nicht zu schwer fällt{{string value=\"...\"}}{{size value=\"100\"}}"
  },
  {
    "label": "200_02",
    "attribute": "0x0000000000000000",
    "text": "{{anim id=\"Angry\" target=\"actor\" targetSpec=\"\"}}Das brauchst du mir nicht unter die\nNase zu reiben!{{delay20}} Ich kann hier grad\nnicht weg{{string value=\"...\"}}{{pageBreak}}{{anim id=\"WrySmile\" target=\"actor\" targetSpec=\"\"}}Hm,{{delay8}} du kannst ja für mich mitfeiern.{{delay20}}\n{{anim id=\"Serious\" target=\"actor\" targetSpec=\"\"}}Aber dann RICHTIG!"
  },
  {
    "label": "200_03",
    "attribute": "0x0000000000000000",
    "text": "{{anim id=\"Eh\" target=\"actor\" targetSpec=\"\"}}Oha!{{delay20}} Klingt gut...{{delay20}} {{anim id=\"Scheming\" target=\"actor\" targetSpec=\"\"}}Vielleicht schleich\nich mich während meiner Pause kurz\nfort und sehe es mir an..."
  }
]