﻿[
  {
    "label": "001",
    "attribute": "0x0000000000000000",
    "text": "{{anim id=\"Shocked\" target=\"actor\" targetSpec=\"\"}}Qu'est-ce que c'est ?{{delay8}}\nOh, c'est pour{{delay8}} moi ?!"
  },
  {
    "label": "002",
    "attribute": "0x0000000000000000",
    "text": "{{anim id=\"OhGeez\" target=\"actor\" targetSpec=\"\"}}Hein ?{{delay8}} Qu'est-ce qui se passe ?"
  },
  {
    "label": "003",
    "attribute": "0x0000000000000000",
    "text": "{{anim id=\"Nodding\" target=\"actor\" targetSpec=\"\"}}Hé, mais...{{delay8}} Je me demande si c'est\npas le truc que j'ai prêté à {{selection value=\"SelectedVillager\"}} !"
  },
  {
    "label": "004",
    "attribute": "0x0000000000000000",
    "text": "{{anim id=\"QuestionMark\" target=\"actor\" targetSpec=\"\"}}J'ai oublié ça ?"
  },
  {
    "label": "005",
    "attribute": "0x0000000000000000",
    "text": "{{anim id=\"Shocked\" target=\"actor\" targetSpec=\"\"}}Hein ?{{delay20}} Mon paquet a été expédié\nchez {{selection value=\"SelectedVillager\"}} ?! Comment c'est possible ?"
  },
  {
    "label": "006",
    "attribute": "0x0000000000000000",
    "text": "{{anim id=\"Eh\" target=\"actor\" targetSpec=\"\"}}Hm ?{{delay20}}\nUn cadeau {{gender4 m=\"de \" f=\"d'⁠\"}}{{selection value=\"SelectedVillager\"}} ?"
  },
  {
    "label": "007",
    "attribute": "0x0000000000000000",
    "text": "{{anim id=\"Eh\" target=\"actor\" targetSpec=\"\"}}{{capitalizeNextLetter}}{{selection value=\"SelectedVillager\"}} m'envoie un cadeau ?{{pageBreak}}Je savais même pas qu'un canal de\ncommunication était encore ouvert\nentre nous."
  },
  {
    "label": "101",
    "attribute": "0x0000000000000000",
    "text": "En plus, elle l'a emballé ?{{delay20}}{{anim id=\"WrySmile\" target=\"actor\" targetSpec=\"\"}} Depuis\nquand on emballe les trucs qu'on\nemprunte ?"
  },
  {
    "label": "102",
    "attribute": "0x0000000000000000",
    "text": "{{anim id=\"Nodding\" target=\"actor\" targetSpec=\"\"}}Tiens,{{delay8}} elle a pas mis des tonnes de\npaillettes, cette fois. Elle a dû croire\nà mon histoire d'allergie..."
  },
  {
    "label": "103",
    "attribute": "0x0000000000000000",
    "text": "Elle emballe un truc qu'on lui a prêté\navant de le rendre...{{delay20}} {{anim id=\"Nodding\" target=\"actor\" targetSpec=\"\"}}C'est plus des\nbonnes manières, là.\nOn commence à sombrer dans\nla politesse maladive."
  },
  {
    "label": "104",
    "attribute": "0x0000000000000000",
    "text": "{{anim id=\"Laughing\" target=\"actor\" targetSpec=\"\"}}Et elle me rend un truc tout emballé.\n{{anim id=\"QuestionMark\" target=\"actor\" targetSpec=\"\"}}Tiens ? C'est quoi, cette odeur de\nfleurettes ?"
  },
  {
    "label": "105",
    "attribute": "0x0000000000000000",
    "text": "{{anim id=\"FaintSmile\" target=\"actor\" targetSpec=\"\"}}J'avais complètement oublié.{{delay20}}\nEt voilà que le gamin me rend mon\ntruc fraîchement emballé.{{delay8}}\n{{anim id=\"Grin\" target=\"actor\" targetSpec=\"\"}}Par contre, on dirait que quelqu'un\navait les pattes toutes grasses..."
  },
  {
    "label": "106",
    "attribute": "0x0000000000000000",
    "text": "{{anim id=\"FaintSmile\" target=\"actor\" targetSpec=\"\"}}Oh,{{delay8}} il a même pris la peine de me\nl'emballer.{{delay40}} {{anim id=\"Nodding\" target=\"actor\" targetSpec=\"\"}}Enfin, avec plus ou moins\nde succès."
  },
  {
    "label": "107",
    "attribute": "0x0000000000000000",
    "text": "{{anim id=\"QuestionMark\" target=\"actor\" targetSpec=\"\"}}Il a pris le temps de me l'emballer ?\n{{anim id=\"OhGeez\" target=\"actor\" targetSpec=\"\"}}Dis donc, il se débrouille bien,\nle gamin.{{delay20}} {{color id=\"4\"}}Mieux que moi{{string value=\"...\"}}{{color id=\"65535\"}}"
  },
  {
    "label": "108",
    "attribute": "0x0000000000000000",
    "text": "{{anim id=\"Nodding\" target=\"actor\" targetSpec=\"\"}}Et le tout emballé assez\ncorrectement !{{delay8}} Ce gamin est\nplein de ressources."
  },
  {
    "label": "109",
    "attribute": "0x0000000000000000",
    "text": "{{anim id=\"Smiling\" target=\"actor\" targetSpec=\"\"}}Merci d'avoir fait {{gender2 m=\"le coursier\" f=\"la coursière\"}} pour {{selection value=\"SelectedVillager\"}}, {{string value=\"NickName\"}} !{{pageBreak}}{{anim id=\"Greeting\" target=\"actor\" targetSpec=\"\"}}Si tu {{gender8 m=\"le\" f=\"la\" n=\"\"}} vois,{{delay8}} transmets-lui mes\nremerciements !"
  },
  {
    "label": "201",
    "attribute": "0x0000000000000000",
    "text": "{{anim id=\"Shocked\" target=\"actor\" targetSpec=\"\"}}Mais c'est m{{gender8 m=\"on\" f=\"a\" n=\"\"}} petit{{gender8 m=\"\" f=\"e\" n=\"\"}} {{fun_0000007D arg=\"0x0000\"}} !{{delay frames=\"30\"}} {{anim id=\"EmotEnd\" target=\"actor\" targetSpec=\"\"}}Hein ?{{delay8}} Chez {{selection value=\"SelectedVillager\"}} ?{{pageBreak}}{{anim id=\"Shocked\" target=\"actor\" targetSpec=\"\"}}Ah mais oui ! Ça me revient !\n{{anim id=\"WrySmile\" target=\"actor\" targetSpec=\"\"}}Tu vois, je pensais l'avoir perdu{{gender8 m=\"\" f=\"e\" n=\"\"}}."
  },
  {
    "label": "202",
    "attribute": "0x0000000000000000",
    "text": "{{anim id=\"Thinking\" target=\"actor\" targetSpec=\"\"}}Tu dis que je l'ai oublié{{gender8 m=\"\" f=\"e\" n=\"\"}} chez\n{{selection value=\"SelectedVillager\"}} ?{{delay20}} {{anim id=\"Worried\" target=\"actor\" targetSpec=\"\"}}C'est quoi, au juste ? {{anim id=\"Shocked\" target=\"actor\" targetSpec=\"\"}}Oh !{{delay8}} C'est quand même pas{{string value=\"...\"}}"
  },
  {
    "label": "203",
    "attribute": "0x0000000000000000",
    "text": "{{anim id=\"TakenAback\" target=\"actor\" targetSpec=\"\"}}{{capitalizeNextLetter}}{{fun_00010032 arg=\"\"}}{{fun_0000007D arg=\"0x0000\"}} que je croyais avoir perdu{{gender8 m=\"\" f=\"e\" n=\"\"}} !{{delay frames=\"30\"}} Tu vois,{{delay8}} j'avais fait une croix dessus.{{pageBreak}}{{anim id=\"OhGeez\" target=\"actor\" targetSpec=\"\"}}Et pis surtout,{{delay8}} j'en avais déjà acheté\n{{gender8 m=\"un\" f=\"une\" n=\"\"}} autre."
  },
  {
    "label": "204",
    "attribute": "0x0000000000000000",
    "text": "{{anim id=\"Nodding\" target=\"actor\" targetSpec=\"\"}}J'espère que c'est quelque chose\nque tu voulais."
  },
  {
    "label": "205",
    "attribute": "0x0000000000000000",
    "text": "{{anim id=\"Serious\" target=\"actor\" targetSpec=\"\"}}J'imagine que je dois te remercier\npour cette petite course, {{string value=\"NickName\"}}. Alors,{{delay8}} merci."
  },
  {
    "label": "301",
    "attribute": "0x0000000000000000",
    "text": "{{anim id=\"Nodding\" target=\"actor\" targetSpec=\"\"}}Revenons à nos affaires,{{delay8}} qu'est-ce\nque ça peut bien être ?"
  },
  {
    "label": "302",
    "attribute": "0x0000000000000000",
    "text": "{{anim id=\"Eh\" target=\"actor\" targetSpec=\"\"}}{{capitalizeNextLetter}}{{fun_00010032 arg=\"\"}}{{fun_0000007D arg=\"0x0000\"}} que j'avais commandé{{gender8 m=\"\" f=\"e\" n=\"\"}} l'autre jour !{{delay20}}{{anim id=\"EmotEnd\" target=\"actor\" targetSpec=\"\"}}"
  },
  {
    "label": "303",
    "attribute": "0x0000000000000000",
    "text": "{{anim id=\"Thinking\" target=\"actor\" targetSpec=\"\"}}Hm ?{{delay8}} Qu'est-ce que c'est ?{{delay20}}\nC'est bizarre, j'en ai aucun souvenir.{{delay frames=\"40\"}}\n{{anim id=\"Shocked\" target=\"actor\" targetSpec=\"\"}}Attends{{string value=\"...\"}}{{delay20}} Ça me revient !"
  },
  {
    "label": "304",
    "attribute": "0x0000000000000000",
    "text": "{{anim id=\"Eh\" target=\"actor\" targetSpec=\"\"}}Oh, devine un peu !{{delay8}} Ce paquet\ncontient{{string value=\"...\"}}{{delay20}} {{anim id=\"FaintSmile\" target=\"actor\" targetSpec=\"\"}}Un truc que j'avais\ncommandé pour toi !"
  },
  {
    "label": "305",
    "attribute": "0x0000020000001800",
    "text": "Est-ce que je l'ouvre ?"
  },
  {
    "label": "305_a",
    "attribute": "0x0000000000000000",
    "text": "{{anim id=\"EmotEnd\" target=\"actor\" targetSpec=\"\"}}Allez, je l'ouvre !"
  },
  {
    "label": "305_b",
    "attribute": "0x0000000000000000",
    "text": "{{anim id=\"EmotEnd\" target=\"actor\" targetSpec=\"\"}}Je l'ouvrirai plus tard."
  },
  {
    "label": "306",
    "attribute": "0x0000000000000000",
    "text": "{{anim id=\"Nodding\" target=\"actor\" targetSpec=\"\"}}Comme tu veux,{{delay8}} c'est pas\ngrand-chose.{{delay8}} Prends ton temps,{{delay8}} et\nouvre-le quand tu seras chez toi."
  },
  {
    "label": "307",
    "attribute": "0x0000000000000000",
    "text": "{{anim id=\"FaintSmile\" target=\"actor\" targetSpec=\"\"}}Alors ?{{delay20}} Ça te plaît ?{{delay20}} Je m'étais dit\nque c'était ton style, ce truc{{string value=\"...\"}}"
  },
  {
    "label": "308",
    "attribute": "0x0000000000000000",
    "text": "{{anim id=\"Smiling\" target=\"actor\" targetSpec=\"\"}}{{capitalizeNextLetter}}{{wordArticle}}{{fun_0000007D arg=\"0x0000\"}} !\n{{delay frames=\"30\"}}Euh, {{delay8}}j'espère que ça te fait plaisir."
  },
  {
    "label": "309",
    "attribute": "0x0000000000000000",
    "text": "{{anim id=\"Nodding\" target=\"actor\" targetSpec=\"\"}}J'ai essayé d'extrapoler ce que je\nsais de tes goûts.{{delay40}} {{anim id=\"Greeting\" target=\"actor\" targetSpec=\"\"}}Je me suis dit que\nça rendrait bien chez toi."
  },
  {
    "label": "313",
    "attribute": "0x0000000000000000",
    "text": "{{anim id=\"ShyBoy\" target=\"actor\" targetSpec=\"\"}}Je me suis dit que ça te ferait plaisir.{{delay8}}\nDu coup, j'ai passé commande.{{delay20}}\n{{anim id=\"Nodding\" target=\"actor\" targetSpec=\"\"}}Je suis quelqu'un de sympa, au fond."
  },
  {
    "label": "400",
    "attribute": "0x0000000000000000",
    "text": "{{anim id=\"QuestionMark\" target=\"actor\" targetSpec=\"\"}}Qu'est-ce que c'est ?{{delay frames=\"30\"}} Y a qu'une\nseule façon de le savoir{{string value=\"...\"}}{{delay8}}{{anim id=\"EmotEnd\" target=\"actor\" targetSpec=\"\"}} Allez, je\nl'ouvre, et on verra bien."
  },
  {
    "label": "401",
    "attribute": "0x0000000000000000",
    "text": "{{anim id=\"Aha\" target=\"actor\" targetSpec=\"\"}}Oh !{{delay8}} Si je m'attendais à ça !{{delay8}} {{capitalizeNextLetter}}{{wordArticle}}{{fun_0000007D arg=\"0x0000\"}} !{{delay20}} {{anim id=\"Smiling\" target=\"actor\" targetSpec=\"\"}}Entre nous,{{delay8}} la couleur me déplaît pas."
  },
  {
    "label": "402",
    "attribute": "0x0000000000000000",
    "text": "{{anim id=\"Shocked\" target=\"actor\" targetSpec=\"\"}}{{capitalizeNextLetter}}{{wordArticle}}{{fun_0000007D arg=\"0x0000\"}} !{{delay frames=\"30\"}}\n{{anim id=\"Smiling\" target=\"actor\" targetSpec=\"\"}}C'est tout à fait dans mon style{{string value=\"...\"}}\nHm ! {{anim id=\"QuestionMark\" target=\"actor\" targetSpec=\"\"}}Est-ce qu'{{gender8 m=\"il\" f=\"elle\" n=\"\"}} m'espionnerait ?"
  },
  {
    "label": "403",
    "attribute": "0x0000000000000000",
    "text": "{{anim id=\"Shocked\" target=\"actor\" targetSpec=\"\"}}{{delay8}}{{capitalizeNextLetter}}{{wordArticle}}{{fun_0000007D arg=\"0x0000\"}} ?!{{delay frames=\"30\"}}\n{{anim id=\"Nodding\" target=\"actor\" targetSpec=\"\"}}Ça fait un moment que j'ai en tête\nd'en essayer {{gender8 m=\"un\" f=\"une\" n=\"\"}}."
  },
  {
    "label": "404",
    "attribute": "0x0000000000000000",
    "text": "{{anim id=\"Smiling\" target=\"actor\" targetSpec=\"\"}}{{capitalizeNextLetter}}{{string value=\"NickName\"}},{{delay20}} merci de t'être chargé{{gender2 m=\"\" f=\"e\"}} de cette course !{{pageBreak}}{{anim id=\"Serious\" target=\"actor\" targetSpec=\"\"}}Bon, j'ai pas le choix, il va falloir que\nj'aille remercier {{selection value=\"SelectedVillager\"}}."
  },
  {
    "label": "405",
    "attribute": "0x0000000000000000",
    "text": "{{anim id=\"Greeting\" target=\"actor\" targetSpec=\"\"}}Merci de m'avoir apporté le cadeau\n{{gender4 m=\"de \" f=\"d'⁠\"}}{{selection value=\"SelectedVillager\"}} !{{pageBreak}}{{anim id=\"Smiling\" target=\"actor\" targetSpec=\"\"}}Tu {{gender2 m=\"es l'artisan de\" f=\"as façonné\"}} la paix durable qui\ns'est réinstallée entre {{gender8 m=\"lui\" f=\"elle\" n=\"\"}} et moi."
  },
  {
    "label": "411",
    "attribute": "0x0000000000000000",
    "text": "{{anim id=\"Nodding\" target=\"actor\" targetSpec=\"\"}}C'est surprenant, elle a réussi à\ncerner mes goûts."
  },
  {
    "label": "412",
    "attribute": "0x0000000000000000",
    "text": "{{anim id=\"ShyBoy\" target=\"actor\" targetSpec=\"\"}}Je partage pas ses goûts en matière\nde mode, mais j'admets qu'elle sait\nlire dans le style des autres.{{delay20}}\n{{anim id=\"Shocked\" target=\"actor\" targetSpec=\"\"}}Oh !{{delay20}} J'étais à deux doigts de faire\nun compliment !"
  },
  {
    "label": "413",
    "attribute": "0x0000000000000000",
    "text": "{{anim id=\"Nodding\" target=\"actor\" targetSpec=\"\"}}{{selection value=\"SelectedVillager\"}}, quand même{{string value=\"...\"}}\nJe sais pas comment on peut être si\nbienveillant envers les autres{{string value=\"...\"}}{{anim id=\"Smiling\" target=\"actor\" targetSpec=\"\"}}"
  },
  {
    "label": "414",
    "attribute": "0x0000000000000000",
    "text": "{{anim id=\"Shocked\" target=\"actor\" targetSpec=\"\"}}Ça veut quand même pas dire qu'on\na des goûts similaires ?!"
  },
  {
    "label": "415",
    "attribute": "0x0000000000000000",
    "text": "{{anim id=\"Nodding\" target=\"actor\" targetSpec=\"\"}}{{selection value=\"SelectedVillager\"}}{{delay8}} a vraiment fait un gros effort pour me faire plaisir{{string value=\"...\"}}{{delay40}}{{pageBreak}}{{anim id=\"Serious\" target=\"actor\" targetSpec=\"\"}}Comme quoi, les gamins\nd'aujourd'hui sont pas tous\ndes mollassons{{string value=\"...\"}}"
  },
  {
    "label": "416",
    "attribute": "0x0000000000000000",
    "text": "{{anim id=\"Nodding\" target=\"actor\" targetSpec=\"\"}}Quelle délicate attention{{string value=\"...\"}}\n{{delay frames=\"40\"}}{{anim id=\"Serious\" target=\"actor\" targetSpec=\"\"}}Je me demande bien ce que\nj'ai pu lui faire{{string value=\"...\"}}"
  },
  {
    "label": "417",
    "attribute": "0x0000000000000000",
    "text": "{{anim id=\"Serious\" target=\"actor\" targetSpec=\"\"}}J'aurais jamais cru {{selection value=\"SelectedVillager\"}} capable de ce genre de choses.{{delay20}}{{pageBreak}}{{anim id=\"Smiling\" target=\"actor\" targetSpec=\"\"}}Ce gamin est plein de ressources."
  },
  {
    "label": "418",
    "attribute": "0x0000000000000000",
    "text": "{{anim id=\"Nodding\" target=\"actor\" targetSpec=\"\"}}Hm.{{delay8}} {{selection value=\"SelectedVillager\"}} n'en finit pas de me surprendre. Il est peut-être moins idiot que je pensais."
  }
]