﻿[
  {
    "label": "001",
    "attribute": "0x0000000100070000",
    "text": "{{fun_0007003C arg=\"0x1007000800CD\"}}"
  },
  {
    "label": "002",
    "attribute": "0x0000000100030000",
    "text": "{{fun_0007003C arg=\"0x1009000A00CD\"}}"
  },
  {
    "label": "003",
    "attribute": "0x0000000100040000",
    "text": "{{fun_0007003C arg=\"0x100B000C00CD\"}}"
  },
  {
    "label": "004",
    "attribute": "0x0000000100090000",
    "text": "{{fun_0007003C arg=\"0x100D000E00CD\"}}"
  },
  {
    "label": "005",
    "attribute": "0x00000C0100000000",
    "text": "{{anim id=\"AbsentMindedness\" target=\"actor\" targetSpec=\"\"}}Do you think we'll see a rainbow\nafter all this rain,{{delay20}} {{string value=\"Catchphrase\"}}?{{setNpcTalkChoices chatOption=\"0\" cancelOption=\"1\"}}"
  },
  {
    "label": "007",
    "attribute": "0x00000C0000000000",
    "text": "Rainy mornings {{anim id=\"EmotEnd\" target=\"actor\" targetSpec=\"\"}}make me so hoppy!{{delay frames=\"40\"}}\n{{anim id=\"Hesitate\" target=\"actor\" targetSpec=\"\"}}I mean happy,{{delay20}} {{string value=\"Catchphrase\"}}.{{setNpcTalkChoices chatOption=\"0\" cancelOption=\"1\"}}"
  },
  {
    "label": "008",
    "attribute": "0x00000C0000000000",
    "text": "{{anim id=\"Sighing\" target=\"actor\" targetSpec=\"\"}}A little rain is nice,{{delay20}} but {{anim id=\"Serious\" target=\"actor\" targetSpec=\"\"}}I'm ready for\na change,{{delay20}} {{string value=\"Catchphrase\"}}.{{setNpcTalkChoices chatOption=\"1\" cancelOption=\"1\"}}"
  },
  {
    "label": "009",
    "attribute": "0x00000C0000000000",
    "text": "{{anim id=\"Smiling\" target=\"actor\" targetSpec=\"\"}}Well,{{delay20}} look who else is still outside\nenjoying this rain,{{delay20}} {{string value=\"Catchphrase\"}}!{{setNpcTalkChoices chatOption=\"0\" cancelOption=\"1\"}}"
  },
  {
    "label": "010",
    "attribute": "0x00000C0000000000",
    "text": "{{anim id=\"FaintSmile\" target=\"actor\" targetSpec=\"\"}}Let's try not to let this rain dampen\nour spirits,{{delay20}} {{string value=\"Catchphrase\"}}.{{setNpcTalkChoices chatOption=\"0\" cancelOption=\"1\"}}"
  },
  {
    "label": "011",
    "attribute": "0x00000C0000000000",
    "text": "Do you think {{anim id=\"Grin\" target=\"actor\" targetSpec=\"\"}}I could be enjoying this\nrain a little TOO much,{{delay20}} {{string value=\"Catchphrase\"}}?{{setNpcTalkChoices chatOption=\"0\" cancelOption=\"1\"}}"
  },
  {
    "label": "012",
    "attribute": "0x00000C0000000000",
    "text": "Guess I'm not the only one {{anim id=\"Grin\" target=\"actor\" targetSpec=\"\"}}who\nloves a rainy night,{{delay20}} {{string value=\"Catchphrase\"}}.{{setNpcTalkChoices chatOption=\"0\" cancelOption=\"1\"}}"
  },
  {
    "label": "013",
    "attribute": "0x00000C0000000000",
    "text": "I'm glad you're out here too,{{delay20}} {{anim id=\"HappyFlower\" target=\"actor\" targetSpec=\"\"}}making\nthe most of this rain,{{delay20}} {{string value=\"Catchphrase\"}}!{{setNpcTalkChoices chatOption=\"1\" cancelOption=\"1\"}}"
  },
  {
    "label": "014",
    "attribute": "0x00000C0000000000",
    "text": "{{anim id=\"Sleepy\" target=\"actor\" targetSpec=\"\"}}The sound of rain at night makes me\nsleepy{{delay8}}{{string value=\"...\"}} {{anim id=\"Nodding\" target=\"actor\" targetSpec=\"\"}}I should get a good night's\nsleep tonight,{{delay20}} {{string value=\"Catchphrase\"}}.{{setNpcTalkChoices chatOption=\"0\" cancelOption=\"1\"}}"
  }
]