﻿[
  {
    "label": "001",
    "attribute": "0x0000000000000000",
    "text": "{{anim id=\"Silent\" target=\"actor\" targetSpec=\"\"}}Stil, {{string value=\"NickName\"}}!{{delay8}} En niet bewegen!{{delay40}} {{fun_00130032 arg=\"0x140000CD1000440061006100720020007A00690074001000440061006100720020007A00690074001600440061006100720020007A0069007400740065006E00\"}} gewoon {{wordArticle}}{{i20_2 arg=\"6\"}}{{anim id=\"Angry\" target=\"actor\" targetSpec=\"\"}}{{fun_0002007D arg=\"0x00CD\"}}!{{pageBreak}}{{anim id=\"Frantic\" target=\"actor\" targetSpec=\"\"}}{{i20_3 arg=\"10\"}}Daar moet je echt bij wegblijven! {{delay8}}Het\nzijn suuupergemene valserds die\necht helemaal niet aardig zijn!"
  },
  {
    "label": "002",
    "attribute": "0x0000000000000000",
    "text": "{{anim id=\"Shaking\" target=\"actor\" targetSpec=\"\"}}Ik hoor hem gewoon rondtrippelen{{string value=\"...\"}}\nHij{{string value=\"...\"}}{{anim id=\"Serious\" target=\"actor\" targetSpec=\"\"}} Hij is hier!{{delay40}} Aaaaaaaaaa!{{pageBreak}}{{capitalizeNextLetter}}{{fun_00010032 arg=\"\"}}{{anim id=\"Angry\" target=\"actor\" targetSpec=\"\"}}{{fun_00170032 arg=\"0x03CD\"}}{{fun_0002007D arg=\"0x00CD\"}}! {{i20_2 arg=\"6\"}}Pas goed op waar je loopt, {{string value=\"NickName\"}}!"
  },
  {
    "label": "003",
    "attribute": "0x0000000000000000",
    "text": "{{anim id=\"Angry\" target=\"actor\" targetSpec=\"\"}}Stop, {{string value=\"NickName\"}}!{{delay40}} {{anim id=\"Shaking\" target=\"actor\" targetSpec=\"\"}}Het is nu even supergevaarlijk?! Er {{fun_00130032 arg=\"0x140000CD06007A006900740006007A00690074000C007A0069007400740065006E00\"}} hier {{wordArticle}}{{fun_0002007D arg=\"0x00CD\"}}!{{pageBreak}}{{anim id=\"Frantic\" target=\"actor\" targetSpec=\"\"}}{{fun_00130032 arg=\"0x140000CD10004400690065002000760061006C00740010004400610074002000760061006C00740014004400690065002000760061006C006C0065006E00\"}} je aan als je {{fun_00130032 arg=\"0x140000CD0600680065006D00060068006500740004007A006500\"}} verrast,\ndus ren snel weg, {{i20_2 arg=\"6\"}}{{delay8}}maar ren wel heel\nstiekem, hoor!"
  }
]