﻿[
  {
    "label": "001",
    "text": "Ehi, {{string value=\"NickName\"}}!"
  },
  {
    "label": "002",
    "text": "Infaticabile {{string value=\"NickName\"}},"
  },
  {
    "label": "003",
    "text": "Senti questa, {{string value=\"NickName\"}}!"
  },
  {
    "label": "004",
    "text": "Devi aiutarmi, {{string value=\"NickName\"}}!"
  },
  {
    "label": "005",
    "text": "Ti sembrerà strano, {{string value=\"NickName\"}},"
  },
  {
    "label": "006",
    "text": "Che ricordi, {{string value=\"NickName\"}}!"
  },
  {
    "label": "007",
    "text": "Allora, {{string value=\"NickName\"}}..."
  },
  {
    "label": "008",
    "text": "Non ridere, {{string value=\"NickName\"}}!"
  },
  {
    "label": "009",
    "text": "Tu come la vedi, {{string value=\"NickName\"}}?"
  },
  {
    "label": "010",
    "text": "Come stai, {{string value=\"NickName\"}}?!"
  },
  {
    "label": "101",
    "text": "Durante la mia passeggiata passo\nsempre davanti alla posta.\nStamattina avevo voglia di\nspezzare la routine, così mi sono\nfermata per scriverti un biglietto.\nOh, se rispondi non mi offendo!"
  },
  {
    "label": "102",
    "text": "sai che a me piace vivere sempre\nal massimo, ma a volte anch'io ho\nbisogno di una pausa.\nSicuramente farebbe bene anche\na te. Dammi retta, la vita non è\nfatta solo di doveri!"
  },
  {
    "label": "103",
    "text": "Qualche tempo fa sono andata\na far visita a una cugina che ha\nun figlio piccolo. Non ci crederai,\nma mi ha fatto lo stesso effetto\ndei fiori: il mio contegno da dura\nne ha risentito parecchio..."
  },
  {
    "label": "104",
    "text": "Durante le pulizie di primavera ho\ntrovato tantissimi peluche che\navevo dimenticato di avere. Tutti\nvinti alle fiere, naturalmente! Non\nso cosa farmene, ma non mi va\ndi buttarli via. Che dilemma..."
  },
  {
    "label": "105",
    "text": "eppure, fare baldoria fino a notte\nfonda fa parte di me. Ma non si\npuò certo fare senza amici! E per\ntenersi cari gli amici, bisogna fare\nalcune cose, tipo scrivere biglietti\ncome questo."
  },
  {
    "label": "106",
    "text": "Giorni fa sono andata a trovare\namici di vecchia data. Quasi non\nli riconoscevo! Lavorano in ufficio,\nvanno tutti a letto presto e niente\nmotocicletta. Credi che anch'io\ndiventerò così?"
  },
  {
    "label": "107",
    "text": "Ultimamente me ne stanno\ncapitando di tutti i colori, ma io\nresto positiva. Lo dico sempre:\n\"Se la vita ti dà limoni... piantali\ne poi goditi l'odore della zagara!\""
  },
  {
    "label": "108",
    "text": "Hai mai visto una mia foto di\nquando ero più giovane? Io e i miei\namici andavamo in giro vestiti di\nnero, con un sacco di borchie e i\ncapelli cotonati. Non ti dico cosa\nsuccedeva quando pioveva..."
  },
  {
    "label": "109",
    "text": "L'altro giorno in giardino ho\niniziato a lanciare invettive contro\nlumache e afidi. A un certo punto\nho alzato gli occhi e ho visto il mio\nvicino scappare terrorizzato.\nFaccio quest'effetto a tutti?"
  },
  {
    "label": "110",
    "text": "L'idea di scrivere un biglietto mi\nintrigava, così ho preso carta e\npenna, mi sono seduta e...\nho dimenticato quello che volevo\nscrivere. Se mi torna in mente,\nti faccio sapere."
  },
  {
    "label": "201",
    "text": "L'imprevedibile {{string value=\"VillagerName\"}}"
  },
  {
    "label": "202",
    "text": "La saggia {{string value=\"VillagerName\"}}"
  },
  {
    "label": "203",
    "text": "Non lo dire in giro! {{string value=\"VillagerName\"}}"
  },
  {
    "label": "204",
    "text": "Saluti pelouchosi, {{string value=\"VillagerName\"}}"
  },
  {
    "label": "205",
    "text": "Alla prossima festa! {{string value=\"VillagerName\"}}"
  },
  {
    "label": "206",
    "text": "Dubbiosamente, {{string value=\"VillagerName\"}}"
  },
  {
    "label": "207",
    "text": "La proverbiale {{string value=\"VillagerName\"}}"
  },
  {
    "label": "208",
    "text": "Sempre in gamba, {{string value=\"VillagerName\"}}"
  },
  {
    "label": "209",
    "text": "Voglio la verità! {{string value=\"VillagerName\"}}"
  },
  {
    "label": "210",
    "text": "Testa tra le nuvole, {{string value=\"VillagerName\"}}"
  }
]