﻿[
  {
    "label": "002",
    "attribute": "0x00000000",
    "text": "{{anim id=\"Smiling\" target=\"actor\" targetSpec=\"\"}}Meine besten Wünsche begleiten\ndich! {{delay20}}Ich weiß, {{delay8}}dass das Ergebnis\nwundervoll werden wird!"
  },
  {
    "label": "003",
    "attribute": "0x01000000",
    "text": "{{anim id=\"Thinking\" target=\"actor\" targetSpec=\"\"}}Schubihu!{{delay20}} Eine überaus knifflige\nEntscheidung{{string value=\"...\"}}{{delay40}} Ich bin mir nicht\nsicher{{string value=\"...\"}}{{delay20}} {{anim id=\"QuestionMark\" target=\"actor\" targetSpec=\"\"}}Darf ich sie dir überlassen?"
  },
  {
    "label": "003_01",
    "attribute": "0x00000000",
    "text": "{{anim id=\"FaintSmile\" target=\"actor\" targetSpec=\"\"}}Ich habe beschlossen, {{delay8}}dein\nfreundliches Angebot zur Erstellung\nmeines Ferienhauses anzunehmen."
  },
  {
    "label": "003_03",
    "attribute": "0x00000000",
    "text": "{{anim id=\"Nodding\" target=\"actor\" targetSpec=\"\"}}Das ist also der Ort, {{delay8}}der dir\nvorschwebt?{{delay20}} {{anim id=\"HappyDance\" target=\"actor\" targetSpec=\"\"}}Welch wunderbare\nWonne! {{delay20}}Ich kann es kaum erwarten."
  },
  {
    "label": "003_04",
    "attribute": "0x00000000",
    "text": "{{anim id=\"Smiling\" target=\"actor\" targetSpec=\"\"}}So ein Angebot erhält man nicht\njeden Tag. {{delay20}}{{anim id=\"Greeting\" target=\"actor\" targetSpec=\"\"}}Es ist faszinierend, {{delay8}}mit dir\nzusammenzuarbeiten."
  },
  {
    "label": "003_a",
    "attribute": "0x00000000",
    "text": "Eine Etage reicht!"
  },
  {
    "label": "003_b",
    "attribute": "0x00000000",
    "text": "Mach's zweistöckig!"
  },
  {
    "label": "004",
    "attribute": "0x00000000",
    "text": "{{anim id=\"Nodding\" target=\"actor\" targetSpec=\"\"}}Oh, {{delay8}}ein gemütliches,{{delay8}} kleines\nHüttchen klingt gut.{{delay20}} {{anim id=\"FaintSmile\" target=\"actor\" targetSpec=\"\"}}Da bin ich\ngerne dabei!"
  },
  {
    "label": "005",
    "attribute": "0x00000000",
    "text": "{{anim id=\"Nodding\" target=\"actor\" targetSpec=\"\"}}Oh, {{delay8}}ein beeindruckendes, {{delay8}}geräumiges\nAnwesen klingt gut. {{delay20}}{{anim id=\"FaintSmile\" target=\"actor\" targetSpec=\"\"}}Da bin ich\ngerne dabei!"
  }
]