﻿[
  {
    "label": "001",
    "attribute": "0x02000000",
    "text": "{{anim id=\"Smiling\" target=\"actor\" targetSpec=\"\"}}Howdy, squirt. {{delay8}}Any interest in tradin'\nthose {{wordInfo gender=\"0\" indefArticle=\"4\" defArticle=\"3\"}}heart crystals for some of my\nfurniture?{{delay frames=\"40\"}} {{anim id=\"Grin\" target=\"actor\" targetSpec=\"\"}}{{size value=\"75\"}}{{color id=\"3\"}}Reese{{color id=\"65535\"}} thinks they're pretty.{{size value=\"100\"}}"
  },
  {
    "label": "001_a",
    "attribute": "0x00000000",
    "text": "{{anim id=\"Nodding\" target=\"actor\" targetSpec=\"\"}}Deal!"
  },
  {
    "label": "001_b",
    "attribute": "0x00000000",
    "text": "{{anim id=\"Negative\" target=\"actor\" targetSpec=\"\"}}No deal."
  },
  {
    "label": "002",
    "attribute": "0x02000000",
    "text": "{{anim id=\"Hello\" target=\"actor\" targetSpec=\"\"}}Heya, squirt. {{delay20}}I'll trade some more\nfurniture for your {{wordInfo gender=\"0\" indefArticle=\"4\" defArticle=\"3\"}}heart crystals.{{delay frames=\"40\"}}\n{{anim id=\"QuestionMark\" target=\"actor\" targetSpec=\"\"}}Whaddaya say?"
  },
  {
    "label": "002_a",
    "attribute": "0x00000000",
    "text": "{{anim id=\"Nodding\" target=\"actor\" targetSpec=\"\"}}Deal!"
  },
  {
    "label": "002_b",
    "attribute": "0x00000000",
    "text": "{{anim id=\"Negative\" target=\"actor\" targetSpec=\"\"}}No deal."
  },
  {
    "label": "003",
    "attribute": "0x00000000",
    "text": "{{anim id=\"Smiling\" target=\"actor\" targetSpec=\"\"}}Alright! {{delay20}}What's grabbin' ya?"
  },
  {
    "label": "004",
    "attribute": "0x00000000",
    "text": "{{anim id=\"OhGeez\" target=\"actor\" targetSpec=\"\"}}Suit yourself. {{delay20}}But think on it."
  },
  {
    "label": "005",
    "attribute": "0x00000000",
    "text": "{{anim id=\"Angry\" target=\"actor\" targetSpec=\"\"}}Huh? {{delay20}}I thought we had a deal.{{delay20}}\nYou'd better be comin' back."
  },
  {
    "label": "010",
    "attribute": "0x02000000",
    "text": "OK, how about{{string value=\"...\"}}{{delay20}}{{anim id=\"QuestionMark\" target=\"actor\" targetSpec=\"\"}}{{color id=\"1\"}}{{number value=\"Count\" index=\"0\"}}{{color id=\"65535\"}} {{color id=\"1\"}}{{wordInfo gender=\"0\" indefArticle=\"4\" defArticle=\"3\"}}heart crystals{{color id=\"65535\"}}\nfor my {{color id=\"1\"}}{{fun_0000007D arg=\"0x0000\"}}{{color id=\"65535\"}}?"
  },
  {
    "label": "010_a",
    "attribute": "0x00000000",
    "text": "{{anim id=\"Nodding\" target=\"actor\" targetSpec=\"\"}}You got it!"
  },
  {
    "label": "010_b",
    "attribute": "0x00000000",
    "text": "{{anim id=\"Negative\" target=\"actor\" targetSpec=\"\"}}I don't know..."
  },
  {
    "label": "011",
    "attribute": "0x02000000",
    "text": "{{anim id=\"ShyBoy\" target=\"actor\" targetSpec=\"\"}}It's no fleece off my hide, squirt.{{delay20}}\nYou're doin' me a favor, so take all\nthe time ya need."
  },
  {
    "label": "011_a",
    "attribute": "0x00000000",
    "text": "{{anim id=\"Nodding\" target=\"actor\" targetSpec=\"\"}}Deal!"
  },
  {
    "label": "011_b",
    "attribute": "0x00000000",
    "text": "{{anim id=\"Negative\" target=\"actor\" targetSpec=\"\"}}No deal."
  },
  {
    "label": "013",
    "attribute": "0x00000000",
    "text": "{{anim id=\"BigSmile\" target=\"actor\" targetSpec=\"\"}}Great! {{delay20}}I'll take those {{wordInfo gender=\"0\" indefArticle=\"4\" defArticle=\"3\"}}heart crystals{{string value=\"...\"}}"
  },
  {
    "label": "013_02",
    "attribute": "0x00000000",
    "text": "{{anim id=\"BigSmile\" target=\"actor\" targetSpec=\"\"}}Great! {{delay20}}I'll take those {{wordInfo gender=\"0\" indefArticle=\"4\" defArticle=\"3\"}}heart crystals{{string value=\"...\"}}"
  },
  {
    "label": "014",
    "attribute": "0x00000000",
    "text": "{{anim id=\"EmotEnd\" target=\"actor\" targetSpec=\"\"}}Hate seein' this stuff go, but a deal's\na deal. {{delay8}}I'll get everything on its way,\nso keep an eye out.{{delay frames=\"40\"}} Oh! {{delay8}}{{anim id=\"Hello\" target=\"actor\" targetSpec=\"\"}}And thanks."
  },
  {
    "label": "015",
    "attribute": "0x02000000",
    "text": "{{anim id=\"Scheming\" target=\"actor\" targetSpec=\"\"}}Y'know, if you wanna get rid of a\nfew more {{wordInfo gender=\"0\" indefArticle=\"4\" defArticle=\"3\"}}heart crystals, there's\nstill furniture in it for ya."
  },
  {
    "label": "015_a",
    "attribute": "0x00000000",
    "text": "{{anim id=\"Nodding\" target=\"actor\" targetSpec=\"\"}}Deal!"
  },
  {
    "label": "015_b",
    "attribute": "0x00000000",
    "text": "{{anim id=\"Negative\" target=\"actor\" targetSpec=\"\"}}No deal."
  },
  {
    "label": "016",
    "attribute": "0x00000000",
    "text": "{{anim id=\"ShyBoy\" target=\"actor\" targetSpec=\"\"}}Y'know, you're doing an awful\nlot of tradin' today."
  },
  {
    "label": "017",
    "attribute": "0x00000000",
    "text": "{{anim id=\"Thinking\" target=\"actor\" targetSpec=\"\"}}I oughta get caught up on that other\nstuff you wanted.{{i10_4}} {{anim id=\"WrySmile\" target=\"actor\" targetSpec=\"\"}}How 'bout we hold\noff on more trades till later?"
  },
  {
    "label": "020",
    "attribute": "0x00000000",
    "text": "{{anim id=\"Nodding\" target=\"actor\" targetSpec=\"\"}}You've done a lot for us, squirt.{{delay20}}\nWe really appreciate it.{{pageBreak}}{{anim id=\"Grin\" target=\"actor\" targetSpec=\"\"}}Here, this is somethin' the two of\nus worked on. {{delay20}}It's a DIY recipe for\na {{color id=\"1\"}}{{wordInfo gender=\"0\" indefArticle=\"1\" defArticle=\"3\"}}wedding wand{{color id=\"65535\"}}.{{delay20}} You earned it."
  },
  {
    "label": "020_01",
    "attribute": "0x00000000",
    "text": "{{anim id=\"Nodding\" target=\"actor\" targetSpec=\"\"}}You've done a lot for us, squirt.{{delay20}}\nWe really appreciate it.{{pageBreak}}{{anim id=\"Grin\" target=\"actor\" targetSpec=\"\"}}I know it ain't much, but we both feel\nyou've earned something for helpin'\nus out.{{delay20}} So here's 10 {{color id=\"1\"}}{{wordInfo gender=\"0\" indefArticle=\"4\" defArticle=\"3\"}}heart crystals{{color id=\"65535\"}}!"
  },
  {
    "label": "021",
    "attribute": "0x00000000",
    "text": "{{anim id=\"Smiling\" target=\"actor\" targetSpec=\"\"}}Be sure to think of us when you're\nmakin' it, ya hear?"
  },
  {
    "label": "021_01",
    "attribute": "0x00000000",
    "text": "{{anim id=\"Explain\" target=\"actor\" targetSpec=\"\"}}By the by,{{delay8}} I'd be happy to take those\nback from you if any of this wedding\nstuff catches your eye, squirt.{{pageBreak}}{{anim id=\"EmotEnd\" target=\"actor\" targetSpec=\"\"}}Come on back if you feel like tradin'!{{delay20}}\n{{anim id=\"Greeting\" target=\"actor\" targetSpec=\"\"}}Or if you just wanna chat."
  },
  {
    "label": "022",
    "attribute": "0x00000000",
    "text": "{{anim id=\"Eh\" target=\"actor\" targetSpec=\"\"}}Hm! {{delay20}}I don't think I can give it to you\non account of your pockets bein' full.{{i10_4}}\n{{anim id=\"FaintSmile\" target=\"actor\" targetSpec=\"\"}}Not to worry. {{delay20}}I'll just mail it to ya!"
  },
  {
    "label": "022_01",
    "attribute": "0x00000000",
    "text": "{{anim id=\"Eh\" target=\"actor\" targetSpec=\"\"}}Hm! {{delay20}}Well, I can't give 'em to you on\naccount of your pockets bein' full.{{i10_4}} {{anim id=\"FaintSmile\" target=\"actor\" targetSpec=\"\"}}Go\nclear some space and come back!"
  },
  {
    "label": "022_02",
    "attribute": "0x00000000",
    "text": "{{anim id=\"EmotEnd\" target=\"actor\" targetSpec=\"\"}}I see you made some room in those\npockets.{{delay20}} {{anim id=\"FaintSmile\" target=\"actor\" targetSpec=\"\"}}Here's 10 {{color id=\"1\"}}{{wordInfo gender=\"0\" indefArticle=\"4\" defArticle=\"3\"}}heart crystals{{color id=\"65535\"}},{{delay8}}\nas promised!"
  },
  {
    "label": "023",
    "attribute": "0x00000000",
    "text": "{{anim id=\"Explain\" target=\"actor\" targetSpec=\"\"}}I went ahead and stuck it in your\npockets. Hope you don't mind.{{pageBreak}}{{anim id=\"Smiling\" target=\"actor\" targetSpec=\"\"}}Be sure to think of us when you're\nmakin' it, ya hear?"
  },
  {
    "label": "023_01",
    "attribute": "0x00000000",
    "text": "{{anim id=\"Blushing\" target=\"actor\" targetSpec=\"\"}}Actually,{{delay8}} if you check your pockets,\nyou'll see I already snuck 'em in\nthere.{{delay20}} {{anim id=\"Greeting\" target=\"actor\" targetSpec=\"\"}}Anyhoo,{{delay8}} enjoy!"
  },
  {
    "label": "024",
    "attribute": "0x00000000",
    "text": "{{anim id=\"Serious\" target=\"actor\" targetSpec=\"\"}}Just a sec. {{delay20}}You do know your\nway around {{color id=\"1\"}}DIY{{color id=\"65535\"}}, don'tcha?{{pageBreak}}{{anim id=\"Explain\" target=\"actor\" targetSpec=\"\"}}So, basically, {{color id=\"1\"}}DIY{{color id=\"65535\"}} is makin' tools and\nfurniture and such, and it's pretty\nfun once you get a handle on it.{{pageBreak}}{{anim id=\"ShyBoy\" target=\"actor\" targetSpec=\"\"}}Now, normally, I'd be happy to teach\nyou, {{delay8}}but I ain't got the time just at\nthe moment.{{pageBreak}}{{anim id=\"Nodding\" target=\"actor\" targetSpec=\"\"}}However, I also happen to know\n{{color id=\"3\"}}Tom Nook{{color id=\"65535\"}}'s been teachin' a {{color id=\"1\"}}DIY\nworkshop{{color id=\"65535\"}} at {{color id=\"1\"}}Resident Services{{color id=\"65535\"}}.{{pageBreak}}{{anim id=\"Grin\" target=\"actor\" targetSpec=\"\"}}You should go talk to him about\nit.{{delay20}} {{color id=\"3\"}}Mr. Nook{{color id=\"65535\"}} certainly knows himself\na thing or three.{{pageBreak}}{{anim id=\"Aha\" target=\"actor\" targetSpec=\"\"}}Oh right! {{delay20}}The {{color id=\"1\"}}{{wordInfo gender=\"0\" indefArticle=\"1\" defArticle=\"3\"}}wedding wand{{color id=\"65535\"}} recipe!"
  },
  {
    "label": "101",
    "attribute": "0x00000000",
    "text": "{{anim id=\"Hello\" target=\"actor\" targetSpec=\"\"}}We're countin' on ya, squirt!"
  },
  {
    "label": "102",
    "attribute": "0x00000000",
    "text": "{{anim id=\"Explain\" target=\"actor\" targetSpec=\"\"}}I made a whole mess of special\nfurniture just for this shoot.{{delay frames=\"40\"}}\n{{anim id=\"Grin\" target=\"actor\" targetSpec=\"\"}}Don't be shy about usin' it!"
  },
  {
    "label": "103",
    "attribute": "0x00000000",
    "text": "{{anim id=\"Grin\" target=\"actor\" targetSpec=\"\"}}What's a wedding without a big\nol' reception to cap it off?{{delay frames=\"40\"}} {{anim id=\"BigSmile\" target=\"actor\" targetSpec=\"\"}}I can't\nwait to see all the photos."
  },
  {
    "label": "104",
    "attribute": "0x00000000",
    "text": "{{anim id=\"Love\" target=\"actor\" targetSpec=\"\"}}{{color id=\"3\"}}Reese{{color id=\"65535\"}} sure is a sight, eh?{{anim id=\"EmotEnd\" target=\"actor\" targetSpec=\"\"}}{{pageBreak}}{{anim id=\"Serious\" target=\"actor\" targetSpec=\"\"}}All eyes are gonna be on her at this\nreception shoot. {{delay20}}Everyone had better\nbe respectful.{{delay frames=\"40\"}} She's married{{anim id=\"SmugFace\" target=\"actor\" targetSpec=\"\"}}{{delay20}} to ME!"
  },
  {
    "label": "105",
    "attribute": "0x00000000",
    "text": "{{anim id=\"Smiling\" target=\"actor\" targetSpec=\"\"}}This is a hoot and a half!{{delay frames=\"40\"}}\n{{anim id=\"Laughing\" target=\"actor\" targetSpec=\"\"}}Ha ha ha!"
  },
  {
    "label": "106",
    "attribute": "0x00000000",
    "text": "{{anim id=\"Love\" target=\"actor\" targetSpec=\"\"}}Just look at her{{string value=\"...\"}}I must be the\nluckiest fella in the whole world."
  },
  {
    "label": "107",
    "attribute": "0x00000000",
    "text": "{{anim id=\"HappyDance\" target=\"actor\" targetSpec=\"\"}}I can't thank you enough for helpin'\nus put all this together."
  }
]