﻿[
  {
    "label": "001",
    "attribute": "0x0000000000000000",
    "text": "{{fun_0014003C arg=\"\"}}"
  },
  {
    "label": "001_01",
    "attribute": "0x0000000000000000",
    "text": "{{anim id=\"Nodding\" target=\"actor\" targetSpec=\"\"}}嗯嗯，{{delay8}}完全沒問題～！{{delay40}}\n{{anim id=\"HappyDance\" target=\"actor\" targetSpec=\"\"}}搬家到島上的其他地方，{{delay20}}\n感覺會很新奇有趣！{{string value=\"6\"}}。"
  },
  {
    "label": "002",
    "attribute": "0x0000000000000000",
    "text": "{{anim id=\"Nodding\" target=\"actor\" targetSpec=\"\"}}嗯嗯，{{delay20}}當然沒問題！{{delay40}}\n{{anim id=\"AbsentMindedness\" target=\"actor\" targetSpec=\"\"}}裝修嗎{{string value=\"...\"}}{{delay20}}{{anim id=\"HappyDance\" target=\"actor\" targetSpec=\"\"}}呀啊～！{{delay20}}\n讓人超興奮的！{{string value=\"6\"}}。"
  }
]