﻿[
  {
    "label": "001",
    "attribute": "0x0000010000000000",
    "text": "{{anim id=\"Thinking\" target=\"actor\" targetSpec=\"\"}}Últimamente me ronda por la cabeza\nla idea de mudarme.{{pageBreak}}{{anim id=\"Hesitate\" target=\"actor\" targetSpec=\"\"}}Me encanta vivir aquí, {{delay8}}pero quizá\nva siendo hora de empezar una vida\nnueva en otra parte{{string value=\"...\"}}"
  },
  {
    "label": "001_a",
    "attribute": "0x0000000000000000",
    "text": "¡No te vayas!"
  },
  {
    "label": "001_b",
    "attribute": "0x0000000000000000",
    "text": "Podría estar bien"
  },
  {
    "label": "002",
    "attribute": "0x0000010000000000",
    "text": "{{anim id=\"Eh\" target=\"actor\" targetSpec=\"\"}}Perdona, bichín, ¿podemos hablar?{{pageBreak}}{{anim id=\"Worried\" target=\"actor\" targetSpec=\"\"}}Noto desde hace un tiempo que\nno estoy en armonía con la energía\nque fluye por esta isla.\n{{anim id=\"EmotEnd\" target=\"actor\" targetSpec=\"\"}}Ha sido divertido vivir aquí, {{anim id=\"Thinking\" target=\"actor\" targetSpec=\"\"}}pero\nquizá eso sea una señal de que\nnecesito un cambio en mi vida."
  },
  {
    "label": "002_a",
    "attribute": "0x0000000000000000",
    "text": "¡No puedes irte!"
  },
  {
    "label": "002_b",
    "attribute": "0x0000000000000000",
    "text": "Haz lo que debas"
  },
  {
    "label": "003",
    "attribute": "0x0000010000000000",
    "text": "{{anim id=\"Surprised\" target=\"actor\" targetSpec=\"\"}}Ay, flor,{{delay8}} ¿cuánto tiempo llevas ahí?{{delay20}}\n{{anim id=\"WrySmile\" target=\"actor\" targetSpec=\"\"}}Hoy estoy tan espesa que casi\nsalgo de casa en pijama.\n{{anim id=\"Explain\" target=\"actor\" targetSpec=\"\"}}Hace varias noches que sueño\nque me mudo a otra isla y\nempiezo una vida nueva.\n{{anim id=\"Worried\" target=\"actor\" targetSpec=\"\"}}No es una pesadilla,{{delay8}} pero me\ndespierto algo angustiada y\nno puedo seguir durmiendo.\n{{anim id=\"EmotEnd\" target=\"actor\" targetSpec=\"\"}}¿Crees que debería mudarme?{{delay20}}\n{{anim id=\"QuestionMark\" target=\"actor\" targetSpec=\"\"}}¿Debería seguir con mi vida y\nexplorar nuevos horizontes?"
  },
  {
    "label": "003_a",
    "attribute": "0x0000000000000000",
    "text": "¡Quédate, por favor!"
  },
  {
    "label": "003_b",
    "attribute": "0x0000000000000000",
    "text": "Sigue a tu corazón"
  },
  {
    "label": "004",
    "attribute": "0x0000000000000000",
    "text": "{{anim id=\"FaintSmile\" target=\"actor\" targetSpec=\"\"}}Eres un amor,{{delay8}} calabacita.{{delay20}}\n{{anim id=\"Hesitate\" target=\"actor\" targetSpec=\"\"}}Si alguien puede convencerme\nde que me quede,{{delay8}} eres tú.\n{{anim id=\"HappyFlower\" target=\"actor\" targetSpec=\"\"}}Gracias por ser tan bue{{gender2 m=\"n amigo\" f=\"na amiga\"}},\n{{string value=\"6\"}}."
  },
  {
    "label": "005",
    "attribute": "0x0000000000000000",
    "text": "{{anim id=\"Thinking\" target=\"actor\" targetSpec=\"\"}}Bueno,{{delay8}} supongo que aún me quedan\nmuchas experiencias que vivir en\nesta isla, {{string value=\"6\"}}.\n{{anim id=\"FaintSmile\" target=\"actor\" targetSpec=\"\"}}Además,{{delay8}} no podría irme si eso\nte pusiera triste,{{delay8}} {{anim id=\"BigSmile\" target=\"actor\" targetSpec=\"\"}}¡porque quiero\nque seas feliz!"
  },
  {
    "label": "006",
    "attribute": "0x0000000000000000",
    "text": "{{anim id=\"FaintSmile\" target=\"actor\" targetSpec=\"\"}}Si me lo pides así,{{delay8}}\n¿cómo podría irme?{{pageBreak}}{{anim id=\"Worried\" target=\"actor\" targetSpec=\"\"}}La verdad es que la idea de mudarme\nme ilusionaba,{{delay8}} pero también me\nponía triste.\n{{anim id=\"Negative\" target=\"actor\" targetSpec=\"\"}}Creo que no podría soportar perder\na {{gender2 m=\"un amigo\" f=\"una amiga\"}} tan {{gender2 m=\"bueno\" f=\"buena\"}} como tú,\n{{string value=\"6\"}}."
  },
  {
    "label": "007",
    "attribute": "0x0000000000000000",
    "text": "{{anim id=\"Nodding\" target=\"actor\" targetSpec=\"\"}}Yo también lo creo.{{delay20}} {{anim id=\"FaintSmile\" target=\"actor\" targetSpec=\"\"}}Gracias\npor darme el empujoncito que\nnecesitaba,{{delay8}} calabacín.\n{{anim id=\"Smiling\" target=\"actor\" targetSpec=\"\"}}Me entristece irme lejos de aquí,{{delay8}}\npero siempre guardaré esta isla\nen mi corazón, {{string value=\"6\"}}."
  },
  {
    "label": "008",
    "attribute": "0x0000000000000000",
    "text": "{{anim id=\"Smiling\" target=\"actor\" targetSpec=\"\"}}Eso haré. {{delay20}}Gracias por todo lo que\nhas hecho por mí,{{delay8}} bichín.{{pageBreak}}Estoy deseando empezar esta nueva\naventura,{{delay8}} {{anim id=\"BrokenHeart\" target=\"actor\" targetSpec=\"\"}}aunque sé que voy a\necharte de menos."
  },
  {
    "label": "009",
    "attribute": "0x0000000000000000",
    "text": "{{anim id=\"Cheering\" target=\"actor\" targetSpec=\"\"}}Tienes razón,{{delay8}} ¡voy a hacerlo!{{delay20}}\n¡Empezaré una nueva vida,\n{{string value=\"6\"}}!\n{{anim id=\"FaintSmile\" target=\"actor\" targetSpec=\"\"}}Es una pena que debamos decirnos\nadiós,{{delay8}} {{anim id=\"Hesitate\" target=\"actor\" targetSpec=\"\"}}pero conocerte ha sido un\nregalo que guardaré para siempre."
  }
]