﻿[
  {
    "label": "001",
    "text": "Beste {{string value=\"PlayerName\"}},"
  },
  {
    "label": "002",
    "text": "Beste {{string value=\"PlayerName\"}},"
  },
  {
    "label": "003",
    "text": "Beste {{string value=\"PlayerName\"}},"
  },
  {
    "label": "004",
    "text": "Muziekliefhebber {{string value=\"PlayerName\"}},"
  },
  {
    "label": "005",
    "text": "Nieuws van de servicebalie!"
  },
  {
    "label": "007",
    "text": "Beste {{string value=\"PlayerName\"}},"
  },
  {
    "label": "008",
    "text": "Informatie over zwemmen"
  },
  {
    "label": "009",
    "text": "Beste {{string value=\"PlayerName\"}},"
  },
  {
    "label": "010",
    "text": "Beste {{string value=\"PlayerName\"}},"
  },
  {
    "label": "011",
    "text": "Beste {{string value=\"PlayerName\"}},"
  },
  {
    "label": "012",
    "text": "Beste {{string value=\"PlayerName\"}},"
  },
  {
    "label": "013",
    "text": "Beste {{string value=\"PlayerName\"}},"
  },
  {
    "label": "014",
    "text": "Beste {{string value=\"PlayerName\"}},"
  },
  {
    "label": "015",
    "text": "Beste {{string value=\"PlayerName\"}},"
  },
  {
    "label": "016",
    "text": "Beste {{string value=\"PlayerName\"}},"
  },
  {
    "label": "020",
    "text": "Beste {{string value=\"PlayerName\"}},"
  },
  {
    "label": "021",
    "text": "Beste {{string value=\"PlayerName\"}},"
  },
  {
    "label": "022",
    "text": "Er is een nieuw miles-product!"
  },
  {
    "label": "023",
    "text": "Er is een nieuw miles-product!"
  },
  {
    "label": "024",
    "text": "Beste {{string value=\"PlayerName\"}},"
  },
  {
    "label": "025",
    "text": "Beste {{string value=\"PlayerName\"}},"
  },
  {
    "label": "026",
    "text": "Beste {{string value=\"PlayerName\"}},"
  },
  {
    "label": "027",
    "text": "Beste {{string value=\"PlayerName\"}},"
  },
  {
    "label": "028",
    "text": "Beste {{string value=\"PlayerName\"}},"
  },
  {
    "label": "101",
    "text": "We hebben de uitbreiding van je\nprachtige huis voltooid. Tijdens\nde verbouwing zijn er een aantal\nspullen die aan je muur hingen, in\nje opslag geplaatst. Sorry voor het\nongemak."
  },
  {
    "label": "102",
    "text": "Fijn dat je hebt meegeholpen met\nhet voorbereiden van de huizen\nvan de nieuwe eilandbewoners.\nAls bedankje heb ik wat hekwerk\ntoegevoegd. Hopelijk maak je er\nhet eiland nog mooier mee!"
  },
  {
    "label": "103",
    "text": "Er is een nieuwe bewoner komen\nwonen op een stuk grond dat jij\nhebt voorbereid. Als bedankje\nhebben we 1000 Nook-miles op je\nrekening gestort. Gebruik ze maar\nvoor iets dat jou gelukkig maakt."
  },
  {
    "label": "104",
    "text": "Ja, ja, ik voel de muziek wel!\nLeuk dat je naar K.K.'s concert\nbent gekomen. Als cadeautje heb\nik zijn lied \"Welkome horizon\"\nmeegestuurd. Stop het in een\nmuziekspeler en geniet ervan!"
  },
  {
    "label": "105",
    "text": "Om de opening van het nieuwe\nservicebaliegebouw te vieren zijn\ner nu veel nieuwe miles-producten\nbeschikbaar. Nook-miles+ heeft ook\neen nieuwe dienst waarmee je vijf\nkeer zoveel miles kunt verdienen!"
  },
  {
    "label": "107",
    "text": "In de sfeer van Meidag, en om je te\nbedanken voor alles wat je doet,\nheb ik een speciale reis voor je\ngeregeld. Ga voor 7 mei naar het\nvliegveld om op meidagreis te\ngaan. Ja, ja, geniet ervan!"
  },
  {
    "label": "108",
    "text": "Goed nieuws! We weten nu zeker\ndat we veilig in het water rond het\neiland kunnen zwemmen. Draag een\nduikpak om te zwemmen, te duiken\nof langs het strand te flaneren!"
  },
  {
    "label": "109",
    "text": "Hallo, hallo! Ik heb een cadeautje\nvoor je: aanpassingspakketten van\nmijn aanpassingsworkshop! Je kunt\ner je doe-het-zelfprojecten een\npersoonlijke noot mee geven. Is\ndoe-het-zelven niet geweldig, hm?"
  },
  {
    "label": "110",
    "text": "Bij het NookStation in de service-\nbalie zijn er in ruil voor Nook-miles\nnieuwe artikelen verkrijgbaar:\nbodypaint en gekleurde contact-\nlenzen. Maak er op je volgende\nfeestje de blits mee!"
  },
  {
    "label": "111",
    "text": "Voor huiseigenaars met een huis\nvan maximale grootte hebben we\nleuk nieuws: vanaf nu kun je je\nopslag verder uitbreiden! Kun je je\nspullen niet meer kwijt, bezoek dan\nde servicebalie voor meer info!"
  },
  {
    "label": "112",
    "text": "Het uitbreiden van je opslag is\nvoltooid! We weten hoe vervelend\nhet is als je geen plek meer hebt\nvoor al je spullen, dus we zijn erg\nblij dat we met je opslagruimte ook\nje woongemak hebben vergroot."
  },
  {
    "label": "113",
    "text": "Kun jij geloven dat het al bijna een\njaar geleden is dat we ons avontuur\nzijn gestart met het Eilandleven-\npakket van Nook Inc.? Dit vieren\nwe met een cadeau! Hartelijk\nbedankt voor je deelname! Ja, ja!"
  },
  {
    "label": "114",
    "text": "Is het echt pas een jaar geleden\ndat je het Eilandleven-pakket hebt\ngeboekt? Jazeker! En dat mag\ngevierd worden. Ik hoop dat je net\nzoveel van het eilandleven geniet\nals van deze taart, ja ja!"
  },
  {
    "label": "115",
    "text": "Het doet me plezier dat ik al vele\nbewoners mee heb zien doen aan\nde groepsgymnastiek. Ja, ja!\nIk hoop dat je het verkwikkend én\nleuk vindt. Ik heb een cadeautje\nvoor je als bedankje voor je inzet."
  },
  {
    "label": "116",
    "text": "In het verleden heb je in ruil voor\nNook-miles de inrichtvergunning\nbemachtigd, maar het resortplan-\nbureau wil hem graag betalen voor\nje. Je krijgt je {{number value=\"40\" index=\"0\"}} weer\nterug. Doe er wat leuks mee, hm?"
  },
  {
    "label": "120",
    "text": "We kondigen trots aan dat het nu\nmogelijk is om je opslagruimte te\nvergroten! Bezoek de servicebalie\nvoor meer informatie of om gebruik\nte maken van deze optie."
  },
  {
    "label": "121",
    "text": "Als je nog moet wennen aan het\neilandleven, hebben we nu een app\ndie je daarbij kan helpen. Hij heet\n\"Eilandtips\" en is nu verkrijgbaar bij\nhet NookStation in de servicebalie.\nWe hopen dat de app van pas komt!"
  },
  {
    "label": "122",
    "text": "Je ontvangt dit bericht, omdat je al\nje leningen hebt afbetaald. Daarom\nkun je miles inwisselen voor een\nklingelautomaat, waardoor je altijd\ntoegang tot je rekening hebt. Bij\nhet NookStation vind je meer info!"
  },
  {
    "label": "123",
    "text": "Je ontvangt dit bericht, omdat je je\nopslag hebt uitgebreid. Daarom kun\nje nu miles inwisselen voor een\ndoe-het-zelfplan om een schuurtje\nte bouwen, waarmee je direct\ntoegang hebt tot je opslag thuis!"
  },
  {
    "label": "124",
    "text": "Om het concert van K.K. Slider op\n{{string value=\"IslandName\"}} te vieren zijn er\nnu verschillende nieuwe miles-\nproducten beschikbaar. Ga maar\neens langs bij het NookStation om\nte zien wat erbij is gekomen!"
  },
  {
    "label": "125",
    "text": "De verbouwing die je voor het huis\nvan {{selection value=\"SelectedVillager\"}} voorgesteld\nhad, is voltooid!\n\nWe geven je als blijk van dank\n1000 miles! Geniet ervan!"
  },
  {
    "label": "126",
    "text": "Alle verbouwingen die je voor de\nhuizen van je medebewoners had\nvoorgesteld, zijn voltooid!\nWe geven je als blijk van dank\n{{number value=\"40\" index=\"0\"}}. Geniet ervan!"
  },
  {
    "label": "127",
    "text": "Goed nieuws! Alle kosten voor\nhet verplaatsen van je huis of het\nwijzigen van het exterieur zijn nu\nverlaagd! Ga voor meer informatie\nnaar de balie voor bouwkundig\nbeheer van de servicebalie."
  },
  {
    "label": "128",
    "text": "Goed nieuws! Alle kosten voor het\nverplaatsen van je huis zijn nu\nverlaagd! Ga voor meer informatie\nnaar de balie voor bouwkundig\nbeheer van de servicebalie."
  },
  {
    "label": "201",
    "text": "Groeten, je vrienden van Nook Inc."
  },
  {
    "label": "202",
    "text": "Tom Nook van Nook Inc."
  },
  {
    "label": "203",
    "text": "Nook Inc."
  },
  {
    "label": "204",
    "text": "Met muzikale groeten, Tom Nook"
  },
  {
    "label": "205",
    "text": "We hebben een cadeau meegestuurd."
  },
  {
    "label": "207",
    "text": "Tom Nook van Nook Inc."
  },
  {
    "label": "208",
    "text": "Nook Inc."
  },
  {
    "label": "209",
    "text": "Tom Nook van Nook Inc."
  },
  {
    "label": "210",
    "text": "Nook Inc."
  },
  {
    "label": "211",
    "text": "Nook Inc."
  },
  {
    "label": "212",
    "text": "Nook Inc."
  },
  {
    "label": "213",
    "text": "Nook Inc."
  },
  {
    "label": "214",
    "text": "Nook Inc."
  },
  {
    "label": "215",
    "text": "Nook Inc."
  },
  {
    "label": "216",
    "text": "Tom Nook van Nook Inc."
  },
  {
    "label": "220",
    "text": "Nook Inc."
  },
  {
    "label": "221",
    "text": "Nook Inc."
  },
  {
    "label": "222",
    "text": "Nook Inc."
  },
  {
    "label": "223",
    "text": "Nook Inc."
  },
  {
    "label": "224",
    "text": "Nook Inc."
  },
  {
    "label": "225",
    "text": "Nook Inc."
  },
  {
    "label": "226",
    "text": "Nook Inc."
  },
  {
    "label": "227",
    "text": "Nook Inc."
  },
  {
    "label": "228",
    "text": "Nook Inc."
  }
]