﻿[
  {
    "label": "001",
    "attribute": "0x00000000",
    "text": "{{anim id=\"Nodding\" target=\"actor\" targetSpec=\"\"}}Oh, this is quite nice! I'm sure my\nhome's going to be lovely{{string value=\"...\"}}{{anim id=\"Serious\" target=\"actor\" targetSpec=\"\"}} I can\njust sense it."
  },
  {
    "label": "001_01",
    "attribute": "0x00000000",
    "text": "{{anim id=\"Smiling\" target=\"actor\" targetSpec=\"\"}}Thanks for working with me. I can't\nwait to see the finished product."
  },
  {
    "label": "002",
    "attribute": "0x02000000",
    "text": "{{anim id=\"Hello\" target=\"actor\" targetSpec=\"\"}}Oh, hello. Did you need something?\n{{delay20}}Or maybe you're here to tell me\nthe work is done?"
  },
  {
    "label": "002_01",
    "attribute": "0x04000000",
    "text": "{{anim id=\"Hello\" target=\"actor\" targetSpec=\"\"}}Oh, hello. Did you need something?\n{{delay20}}Or maybe you're here to tell me\nthe work is done?"
  },
  {
    "label": "002_01_a",
    "attribute": "0x00000000",
    "text": "It's ready!"
  },
  {
    "label": "002_01_b",
    "attribute": "0x00000000",
    "text": "Let's add an upstairs."
  },
  {
    "label": "002_01_c",
    "attribute": "0x00000000",
    "text": "{{anim id=\"EmotEnd\" target=\"player\" targetSpec=\"\"}}Not quite yet."
  },
  {
    "label": "002_a",
    "attribute": "0x00000000",
    "text": "It's ready!"
  },
  {
    "label": "002_b",
    "attribute": "0x00000000",
    "text": "{{anim id=\"EmotEnd\" target=\"player\" targetSpec=\"\"}}Not quite yet."
  },
  {
    "label": "003_01",
    "attribute": "0x00000000",
    "text": "{{anim id=\"Thinking\" target=\"actor\" targetSpec=\"\"}}You haven't seen the house yet?{{delay20}}\n{{anim id=\"FaintSmile\" target=\"actor\" targetSpec=\"\"}}Why don't we take a peek inside?"
  },
  {
    "label": "003_02",
    "attribute": "0x00000000",
    "text": "{{anim id=\"Serious\" target=\"actor\" targetSpec=\"\"}}Hm. I don't think I'll be able to move\naround with all this clutter lying\nabout{{string value=\"...\"}}{{delay20}}{{anim id=\"QuestionMark\" target=\"actor\" targetSpec=\"\"}} Could you tidy it up?"
  },
  {
    "label": "003_03",
    "attribute": "0x00000000",
    "text": "{{anim id=\"Shocked\" target=\"actor\" targetSpec=\"\"}}This house is jam-packed with stuff!\n{{delay20}}{{anim id=\"Worried\" target=\"actor\" targetSpec=\"\"}}There's barely enough room for me\nto stand!\n{{anim id=\"QuestionMark\" target=\"actor\" targetSpec=\"\"}}Think you could rearrange things to\nmake the space a bit more livable?"
  },
  {
    "label": "003_04",
    "attribute": "0x00000000",
    "text": "{{anim id=\"AbsentMindedness\" target=\"actor\" targetSpec=\"\"}}Um{{string value=\"...\"}} You aren't finished yet, are\nyou?{{delay20}}{{anim id=\"QuestionMark\" target=\"actor\" targetSpec=\"\"}} The other room is still packed\nwith stuff.\n{{anim id=\"Negative\" target=\"actor\" targetSpec=\"\"}}We won't be able to make the most\nout of our extra space with it like\nthat. {{delay20}}Would you mind tidying it up?"
  },
  {
    "label": "004",
    "attribute": "0x00000000",
    "text": "{{anim id=\"FaintSmile\" target=\"actor\" targetSpec=\"\"}}Heehee, thanks for your hard work."
  },
  {
    "label": "005",
    "attribute": "0x00000000",
    "text": "{{anim id=\"FaintSmile\" target=\"actor\" targetSpec=\"\"}}Take your time. Just let me know\nwhen you're finished."
  },
  {
    "label": "006",
    "attribute": "0x02000000",
    "text": "{{anim id=\"Eh\" target=\"actor\" targetSpec=\"\"}}You want to add another floor?{{delay20}} What\na kind offer!{{delay20}}{{anim id=\"HappyFlower\" target=\"actor\" targetSpec=\"\"}} I'd love it if you did."
  },
  {
    "label": "006_a",
    "attribute": "0x00000000",
    "text": "Leave it all to me!"
  },
  {
    "label": "006_b",
    "attribute": "0x00000000",
    "text": "Actually, never mind."
  },
  {
    "label": "007",
    "attribute": "0x00000000",
    "text": "{{anim id=\"FaintSmile\" target=\"actor\" targetSpec=\"\"}}I'll leave it up to you!"
  },
  {
    "label": "008",
    "attribute": "0x00000000",
    "text": "Oh, alright.{{delay20}}{{anim id=\"FaintSmile\" target=\"actor\" targetSpec=\"\"}} But do keep me in mind,\nbecause I'd love to work with you\nsometime soon!"
  },
  {
    "label": "011",
    "attribute": "0x00000000",
    "text": "{{anim id=\"Explain\" target=\"actor\" targetSpec=\"\"}}I never imagined you'd dedicate so\nmuch time to our home{{string value=\"...\"}}{{anim id=\"HappyFlower\" target=\"actor\" targetSpec=\"\"}} Your level\nof commitment is simply fabulous!"
  },
  {
    "label": "013",
    "attribute": "0x00000000",
    "text": "{{anim id=\"Eh\" target=\"actor\" targetSpec=\"\"}}Done already? That was quick!{{delay20}}{{anim id=\"Clapping\" target=\"actor\" targetSpec=\"\"}} All I\ncan say is well done!"
  },
  {
    "label": "016",
    "attribute": "0x00000000",
    "text": "{{fun_0014003C arg=\"\"}}"
  },
  {
    "label": "016_01",
    "attribute": "0x00000000",
    "text": "{{anim id=\"BigSmile\" target=\"actor\" targetSpec=\"\"}}You've done an excellent job!{{delay20}}{{anim id=\"Love\" target=\"actor\" targetSpec=\"\"}} I'm\nhappy with the results, and my\nsisters will think it's to die for."
  },
  {
    "label": "017",
    "attribute": "0x02000000",
    "text": "{{anim id=\"Hello\" target=\"actor\" targetSpec=\"\"}}Looks like you're all finished, huh?\nYou must be tired.{{delay20}}{{anim id=\"FaintSmile\" target=\"actor\" targetSpec=\"\"}} You should take\na break while you can."
  },
  {
    "label": "017_01",
    "attribute": "0x00000000",
    "text": "{{anim id=\"FaintSmile\" target=\"actor\" targetSpec=\"\"}}Oh, of course. Thank you for all your\nhelp.{{delay20}}{{anim id=\"HappyFlower\" target=\"actor\" targetSpec=\"\"}} Leaving it up to you was the\nright decision!"
  },
  {
    "label": "017_02",
    "attribute": "0x00000000",
    "text": "{{anim id=\"FaintSmile\" target=\"actor\" targetSpec=\"\"}}Heehee, take as many as you'd like.\nLet me know once you're finished."
  },
  {
    "label": "017_04",
    "attribute": "0x02000000",
    "text": "{{anim id=\"FaintSmile\" target=\"actor\" targetSpec=\"\"}}If you have some spare time, how\nabout snapping a few photos?{{delay20}}{{anim id=\"Hello\" target=\"actor\" targetSpec=\"\"}} They\ncould make a nice souvenir!"
  },
  {
    "label": "017_04_a",
    "attribute": "0x00000000",
    "text": "{{anim id=\"EmotEnd\" target=\"player\" targetSpec=\"\"}}Yes, I'll take {{color id=\"1\"}}{{color id=\"65535\"}}photos."
  },
  {
    "label": "017_04_b",
    "attribute": "0x00000000",
    "text": "{{anim id=\"EmotEnd\" target=\"player\" targetSpec=\"\"}}I need to head back."
  },
  {
    "label": "017_05",
    "attribute": "0x00000000",
    "text": "{{anim id=\"FaintSmile\" target=\"actor\" targetSpec=\"\"}}Take as many photos as you want.\n{{delay20}}Just let me know when you're done."
  },
  {
    "label": "017_06",
    "attribute": "0x00000000",
    "text": "{{anim id=\"FaintSmile\" target=\"actor\" targetSpec=\"\"}}Oh, OK.{{delay20}} Well, thanks for you help!\n{{delay20}}{{anim id=\"BigSmile\" target=\"actor\" targetSpec=\"\"}}Leaving it all to you was the right\ncall, that's for sure."
  },
  {
    "label": "017_a",
    "attribute": "0x00000000",
    "text": "{{anim id=\"EmotEnd\" target=\"player\" targetSpec=\"\"}}May I take {{color id=\"1\"}}{{color id=\"65535\"}}photos?"
  },
  {
    "label": "017_b",
    "attribute": "0x00000000",
    "text": "{{anim id=\"EmotEnd\" target=\"player\" targetSpec=\"\"}}I think I'll be leaving."
  },
  {
    "label": "018",
    "attribute": "0x02000000",
    "text": "{{anim id=\"Hello\" target=\"actor\" targetSpec=\"\"}}Done taking photos?"
  },
  {
    "label": "018_a",
    "attribute": "0x00000000",
    "text": "{{anim id=\"EmotEnd\" target=\"player\" targetSpec=\"\"}}I'm heading back."
  },
  {
    "label": "018_b",
    "attribute": "0x00000000",
    "text": "{{anim id=\"EmotEnd\" target=\"player\" targetSpec=\"\"}}I'm all good!"
  },
  {
    "label": "020",
    "attribute": "0x00000000",
    "text": "{{anim id=\"FaintSmile\" target=\"actor\" targetSpec=\"\"}}OK, no problem. Take your time!"
  },
  {
    "label": "021",
    "attribute": "0x00000000",
    "text": "Oh, OK.{{anim id=\"BigSmile\" target=\"actor\" targetSpec=\"\"}} If another opportunity comes\nup, it would be just fabulous to work\nwith you again!"
  },
  {
    "label": "022",
    "attribute": "0x00000000",
    "text": "{{anim id=\"Shocked\" target=\"actor\" targetSpec=\"\"}}Oh, I knew I forgot something. You\nhaven't told me this theme's name\nyet.{{delay20}}{{anim id=\"QuestionMark\" target=\"actor\" targetSpec=\"\"}} What have you got?"
  },
  {
    "label": "023",
    "attribute": "0x02000000",
    "text": "{{anim id=\"QuestionMark\" target=\"actor\" targetSpec=\"\"}}What about the theme name?\nDo you want to change it from\n{{color id=\"1\"}}{{fun_00000096 arg=\"0x00CD\"}}{{color id=\"65535\"}}?"
  },
  {
    "label": "023_a",
    "attribute": "0x00000000",
    "text": "{{anim id=\"EmotEnd\" target=\"player\" targetSpec=\"\"}}I'll pick a new name."
  },
  {
    "label": "023_b",
    "attribute": "0x00000000",
    "text": "{{anim id=\"EmotEnd\" target=\"player\" targetSpec=\"\"}}I like the name as is."
  },
  {
    "label": "024",
    "attribute": "0x00000000",
    "text": "{{anim id=\"FaintSmile\" target=\"actor\" targetSpec=\"\"}}So you're going with a new one?\n{{delay20}}{{anim id=\"Smiling\" target=\"actor\" targetSpec=\"\"}}Don't keep me in suspense! What\nare you calling it?"
  },
  {
    "label": "025",
    "attribute": "0x00000000",
    "text": "Oh?{{anim id=\"Nodding\" target=\"actor\" targetSpec=\"\"}} Well, there is comfort in knowing\nthat some things never change."
  },
  {
    "label": "026",
    "attribute": "0x02000000",
    "text": "{{anim id=\"QuestionMark\" target=\"actor\" targetSpec=\"\"}}So, you're sticking with last season's\ntheme name, then?"
  },
  {
    "label": "026_a",
    "attribute": "0x00000000",
    "text": "Let's keep the name."
  },
  {
    "label": "026_b",
    "attribute": "0x00000000",
    "text": "Let's use a new name."
  },
  {
    "label": "027",
    "attribute": "0x00000000",
    "text": "{{anim id=\"FaintSmile\" target=\"actor\" targetSpec=\"\"}}Got it. What will it be?"
  },
  {
    "label": "028",
    "attribute": "0x00000000",
    "text": "{{anim id=\"Nodding\" target=\"actor\" targetSpec=\"\"}}Makes sense to me! So you'll call\nthis {{color id=\"1\"}}{{fun_00000096 arg=\"0x00CD\"}}{{color id=\"65535\"}}."
  },
  {
    "label": "101",
    "attribute": "0x06000000",
    "text": "{{anim id=\"Hello\" target=\"actor\" targetSpec=\"\"}}Oh, did you need something?"
  },
  {
    "label": "101_01",
    "attribute": "0x06000000",
    "text": "{{anim id=\"QuestionMark\" target=\"actor\" targetSpec=\"\"}}Something about my vacation home?{{delay20}}\nWhat do you need?"
  },
  {
    "label": "101_01_a",
    "attribute": "0x00000000",
    "text": "Let's talk remodeling."
  },
  {
    "label": "101_01_b",
    "attribute": "0x00000000",
    "text": "Let's talk moving."
  },
  {
    "label": "101_01_c",
    "attribute": "0x00000000",
    "text": "Let's talk roommates."
  },
  {
    "label": "101_01_d",
    "attribute": "0x00000000",
    "text": "Never mind."
  },
  {
    "label": "101_a",
    "attribute": "0x00000000",
    "text": "How are things?"
  },
  {
    "label": "101_b",
    "attribute": "0x00000000",
    "text": "How's your home?"
  },
  {
    "label": "101_c",
    "attribute": "0x00000000",
    "text": "I'm heading back."
  },
  {
    "label": "101_d",
    "attribute": "0x00000000",
    "text": "Just saying hi!"
  },
  {
    "label": "102_01",
    "attribute": "0x02000000",
    "text": "Remodeling, huh?{{anim id=\"Love\" target=\"actor\" targetSpec=\"\"}} I'd love it if you\nwould do that for us!{{delay20}}{{anim id=\"Smiling\" target=\"actor\" targetSpec=\"\"}} And I'm sure\nmy sisters would be on board too."
  },
  {
    "label": "102_01_a",
    "attribute": "0x00000000",
    "text": "Leave it all to me!"
  },
  {
    "label": "102_01_b",
    "attribute": "0x00000000",
    "text": "Actually, never mind."
  },
  {
    "label": "104_01",
    "attribute": "0x00000000",
    "text": "{{anim id=\"FaintSmile\" target=\"actor\" targetSpec=\"\"}}Heehee, our home is in your hands!"
  },
  {
    "label": "107",
    "attribute": "0x00000000",
    "text": "{{anim id=\"Negative\" target=\"actor\" targetSpec=\"\"}}Oh, that's too bad.{{delay20}}{{anim id=\"FaintSmile\" target=\"actor\" targetSpec=\"\"}} I hope we get a\nchance to work together again soon."
  },
  {
    "label": "108",
    "attribute": "0x02000000",
    "text": "{{anim id=\"Eh\" target=\"actor\" targetSpec=\"\"}}You're suggesting I move?{{anim id=\"Thinking\" target=\"actor\" targetSpec=\"\"}} {{size value=\"75\"}}I feel like I've\ndiscussed this with my sisters before{{string value=\"...\"}} Will they\neven want to?{{size value=\"100\"}}\n{{anim id=\"BigSmile\" target=\"actor\" targetSpec=\"\"}}Ah, you know what, let's just go for\nit.{{delay20}}{{anim id=\"Nodding\" target=\"actor\" targetSpec=\"\"}} I'll fill my sisters in later."
  },
  {
    "label": "108_01",
    "attribute": "0x00000000",
    "text": "{{anim id=\"FaintSmile\" target=\"actor\" targetSpec=\"\"}}I can't wait to see how my sisters\nreact to the news!"
  },
  {
    "label": "108_a",
    "attribute": "0x00000000",
    "text": "Leave it all to me!"
  },
  {
    "label": "108_b",
    "attribute": "0x00000000",
    "text": "Actually, never mind."
  },
  {
    "label": "109",
    "attribute": "0x00000000",
    "text": "{{anim id=\"Eh\" target=\"actor\" targetSpec=\"\"}}Share a vacation home?{{delay20}}{{anim id=\"Negative\" target=\"actor\" targetSpec=\"\"}} Something\ntells me that wouldn't work out{{string value=\"...\"}}{{pageBreak}}{{anim id=\"Explain\" target=\"actor\" targetSpec=\"\"}}There are already three of us here.{{delay20}}\n{{anim id=\"FaintSmile\" target=\"actor\" targetSpec=\"\"}}Thanks for the offer, but we're at\nmaximum capacity."
  },
  {
    "label": "110",
    "attribute": "0x00000000",
    "text": "{{anim id=\"FaintSmile\" target=\"actor\" targetSpec=\"\"}}Oh, how kind of you. I hope we can\nwork together again soon."
  },
  {
    "label": "110_01",
    "attribute": "0x00000000",
    "text": "{{anim id=\"FaintSmile\" target=\"actor\" targetSpec=\"\"}}Really? If you have any questions,\ndon't hesitate to ask."
  },
  {
    "label": "111",
    "attribute": "0x00000000",
    "text": "{{fun_0014003C arg=\"\"}}"
  },
  {
    "label": "111_01",
    "attribute": "0x00000000",
    "text": "{{anim id=\"Explain\" target=\"actor\" targetSpec=\"\"}}My sisters and I don't normally live\ntogether, so the time we spend here\nis really important to me.\n{{anim id=\"Blushing\" target=\"actor\" targetSpec=\"\"}}I like to think they feel the same\nway, but I'll never ask them{{string value=\"...\"}}{{anim id=\"Hesitate\" target=\"actor\" targetSpec=\"\"}}{{size value=\"75\"}} No,\nthat would be super embarrassing{{string value=\"...\"}}{{size value=\"100\"}}"
  },
  {
    "label": "111_02",
    "attribute": "0x00000000",
    "text": "{{anim id=\"FaintSmile\" target=\"actor\" targetSpec=\"\"}}I'm glad the house is finally clean.\n{{delay20}}{{anim id=\"OhGeez\" target=\"actor\" targetSpec=\"\"}}If I look away for even a second, it's\nlike a mess just magically appears.\n{{color id=\"3\"}}{{anim id=\"Nodding\" target=\"actor\" targetSpec=\"\"}}{{color id=\"65535\"}}And {{color id=\"3\"}}Mabel{{color id=\"65535\"}} is usually the offending\nwizard.{{delay20}}{{anim id=\"Sighing\" target=\"actor\" targetSpec=\"\"}} It drives me crazy that\n{{color id=\"3\"}}Sable {{color id=\"65535\"}}spoils her so much."
  },
  {
    "label": "111_03",
    "attribute": "0x00000000",
    "text": "{{color id=\"3\"}}{{anim id=\"ShyBoy\" target=\"actor\" targetSpec=\"\"}}Sable {{color id=\"65535\"}}and I both have a stubborn\nstreak, which causes us to clash\nonce in a while.\n{{anim id=\"AbsentMindedness\" target=\"actor\" targetSpec=\"\"}}But this place is so relaxing, we\nforget all about any fights once\nwe arrive."
  },
  {
    "label": "111_04",
    "attribute": "0x00000000",
    "text": "{{anim id=\"Explain\" target=\"actor\" targetSpec=\"\"}}I feel like my time here has really\npolished my sense for design.{{delay20}}{{anim id=\"Assent\" target=\"actor\" targetSpec=\"\"}} I'm\nsharper than ever before!\n{{anim id=\"Thinking\" target=\"actor\" targetSpec=\"\"}}New design concepts are coming to\nme all the time.{{delay20}}{{anim id=\"Nodding\" target=\"actor\" targetSpec=\"\"}} It must be thanks to\nthe relaxing environment."
  },
  {
    "label": "119",
    "attribute": "0x00000000",
    "text": "{{fun_0014003C arg=\"\"}}"
  },
  {
    "label": "119_01",
    "attribute": "0x00000000",
    "text": "{{anim id=\"Hesitate\" target=\"actor\" targetSpec=\"\"}}I don't want to say this too loudly,\nbut I love doing yard work with my\nsisters—{{delay20}}{{anim id=\"FaintSmile\" target=\"actor\" targetSpec=\"\"}}just the three of us.\n{{anim id=\"Explain\" target=\"actor\" targetSpec=\"\"}}We always have a good time chatting.\n{{string value=\"...\"}}{{anim id=\"Laughing\" target=\"actor\" targetSpec=\"\"}}Despite the fact {{color id=\"3\"}}Mabel{{color id=\"65535\"}} and I do\nsometimes wind up arguing."
  },
  {
    "label": "119_02",
    "attribute": "0x00000000",
    "text": "{{anim id=\"Explain\" target=\"actor\" targetSpec=\"\"}}I often catch {{color id=\"3\"}}Sable{{color id=\"65535\"}} gazing up at the\nnight sky, completely lost in thought.\nI wonder what she thinks about{{string value=\"...\"}}{{pageBreak}}{{anim id=\"AbsentMindedness\" target=\"actor\" targetSpec=\"\"}}Should I finally just ask her?"
  },
  {
    "label": "119_03",
    "attribute": "0x00000000",
    "text": "{{anim id=\"Nodding\" target=\"actor\" targetSpec=\"\"}}I like taking photos of our house.{{delay20}}{{anim id=\"FaintSmile\" target=\"actor\" targetSpec=\"\"}} I'm\nalways finding some new little detail\nthat helps inspire my designs.\n{{anim id=\"Laughing\" target=\"actor\" targetSpec=\"\"}}But my sisters are in most of the\npictures, which I guess makes\nthem plain old family photos."
  },
  {
    "label": "119_04",
    "attribute": "0x00000000",
    "text": "{{anim id=\"Thinking\" target=\"actor\" targetSpec=\"\"}}This yard has a mysterious power.\n{{delay20}}{{anim id=\"Restless\" target=\"actor\" targetSpec=\"\"}}I was actually in a bit of a slump\nbefore coming here{{string value=\"...\"}}\n{{anim id=\"Explain\" target=\"actor\" targetSpec=\"\"}}But as I spent more and more time\nin the yard, my creative juices really\nstarted flowing!{{delay20}}{{anim id=\"BigSmile\" target=\"actor\" targetSpec=\"\"}} Amazing, right?"
  },
  {
    "label": "124",
    "attribute": "0x00000000",
    "text": "{{anim id=\"Nodding\" target=\"actor\" targetSpec=\"\"}}It's just as I imagined! {{delay20}}{{anim id=\"HappyFlower\" target=\"actor\" targetSpec=\"\"}}This is such a\nlovely spot!"
  },
  {
    "label": "124_01",
    "attribute": "0x00000000",
    "text": "{{anim id=\"FaintSmile\" target=\"actor\" targetSpec=\"\"}}While you're at it, I would love it if\nyou'd glam the place up a bit."
  },
  {
    "label": "129_06",
    "attribute": "0x00000000",
    "text": "{{anim id=\"Surprised\" target=\"actor\" targetSpec=\"\"}}You've already finished the second\nfloor?{{delay20}}{{anim id=\"BigSmile\" target=\"actor\" targetSpec=\"\"}} That was so quick!"
  },
  {
    "label": "129_07",
    "attribute": "0x00000000",
    "text": "{{anim id=\"FaintSmile\" target=\"actor\" targetSpec=\"\"}}I'll leave the decorating up to you."
  },
  {
    "label": "148",
    "attribute": "0x00000000",
    "text": "{{anim id=\"Greeting\" target=\"actor\" targetSpec=\"\"}}Thank you, and take care! Feel free\nto stop by anytime.{{delay20}}{{anim id=\"HappyFlower\" target=\"actor\" targetSpec=\"\"}} We'll always be\nhappy to have you!"
  }
]