﻿[
  {
    "label": "001",
    "attribute": "0x00000C0100000000",
    "locale": {
      "CNzh": "{{anim id=\"Greeting\" target=\"actor\" targetSpec=\"\"}}哎呀，{{delay20}}今天你似乎\n一直在找我呢。{{string value=\"6\"}}。{{setNpcTalkChoices chatOption=\"0\" cancelOption=\"1\"}}",
      "EUde": "{{anim id=\"Greeting\" target=\"actor\" targetSpec=\"\"}}Oh! {{delay8}}Du scheinst heute ja einiges auf\ndem Herzen zu haben, {{delay8}}{{string value=\"Catchphrase\"}}!{{setNpcTalkChoices chatOption=\"0\" cancelOption=\"0\"}}",
      "EUen": "{{anim id=\"Greeting\" target=\"actor\" targetSpec=\"\"}}My! You certainly seem to have a lot\nto say today, {{string value=\"6\"}}.{{setNpcTalkChoices chatOption=\"0\" cancelOption=\"1\"}}",
      "EUes": "{{anim id=\"FaintSmile\" target=\"actor\" targetSpec=\"\"}}Tu compañía siempre es agradable,{{delay frames=\"8\"}}\n{{anim id=\"HappyDance\" target=\"actor\" targetSpec=\"\"}}¡y parece que el sentimiento\nes mutuo, {{string value=\"6\"}}!{{setNpcTalkChoices chatOption=\"1\" cancelOption=\"1\"}}",
      "EUfr": "{{anim id=\"Greeting\" target=\"actor\" targetSpec=\"\"}}Tiens !{{delay20}} On dirait que tu ne peux\npas t'empêcher de venir me voir\naujourd'hui, {{string value=\"6\"}}.{{setNpcTalkChoices chatOption=\"0\" cancelOption=\"1\"}}",
      "EUit": "{{anim id=\"Greeting\" target=\"actor\" targetSpec=\"\"}}Ciao!{{delay8}} Oggi sei un fiume in piena.\n{{anim id=\"BigSmile\" target=\"actor\" targetSpec=\"\"}}Su,{{delay8}} raccontami tutto, {{string value=\"6\"}}.{{setNpcTalkChoices chatOption=\"0\" cancelOption=\"0\"}}",
      "EUnl": "{{anim id=\"Greeting\" target=\"actor\" targetSpec=\"\"}}O, daar ben je weer.{{delay8}} Vandaag schijn\nje me wel veel te vertellen te hebben, {{string value=\"6\"}}.{{setNpcTalkChoices chatOption=\"0\" cancelOption=\"1\"}}",
      "EUru": "{{anim id=\"Greeting\" target=\"actor\" targetSpec=\"\"}}О! А ты сегодня разговорчив{{gender2 m=\"ый\" f=\"ая\"}}.\n{{capitalizeNextLetter}}{{string value=\"6\"}}!{{setNpcTalkChoices chatOption=\"0\" cancelOption=\"1\"}}",
      "JPja": "{{anim id=\"Greeting\" target=\"actor\" targetSpec=\"\"}}あら、{{delay20}}{{ruby charSpan=\"2\" value=\"きょう\"}}今日は　たくさん\n{{ruby charSpan=\"1\" value=\"あ\"}}会いに{{ruby charSpan=\"1\" value=\"き\"}}来てくれるのね、{{string value=\"6\"}}{{setNpcTalkChoices chatOption=\"0\" cancelOption=\"1\"}}",
      "KRko": "{{anim id=\"Greeting\" target=\"actor\" targetSpec=\"\"}}어머나, {{delay20}}오늘은 자주 오네! {{string value=\"6\"}}!{{setNpcTalkChoices chatOption=\"0\" cancelOption=\"1\"}}",
      "TWzh": "{{anim id=\"Greeting\" target=\"actor\" targetSpec=\"\"}}哎呀，{{delay20}}\n你今天很常來找我呢，{{string value=\"6\"}}。{{setNpcTalkChoices chatOption=\"0\" cancelOption=\"1\"}}",
      "USen": "{{anim id=\"Greeting\" target=\"actor\" targetSpec=\"\"}}My! You certainly seem to have a lot\nto say today, {{string value=\"6\"}}.{{setNpcTalkChoices chatOption=\"0\" cancelOption=\"1\"}}",
      "USes": "{{anim id=\"FaintSmile\" target=\"actor\" targetSpec=\"\"}}Tu compañía siempre es agradable,{{delay frames=\"8\"}}\n¡y parece que el sentimiento\nes mutuo, {{string value=\"6\"}}!{{setNpcTalkChoices chatOption=\"1\" cancelOption=\"1\"}}",
      "USfr": "{{anim id=\"Greeting\" target=\"actor\" targetSpec=\"\"}}Tiens!{{delay20}} On dirait que tu ne peux\npas t'empêcher de venir me voir\naujourd'hui, {{string value=\"6\"}}.{{setNpcTalkChoices chatOption=\"0\" cancelOption=\"1\"}}"
    }
  },
  {
    "label": "002",
    "attribute": "0x00000C0100000000",
    "locale": {
      "CNzh": "{{anim id=\"Smiling\" target=\"actor\" targetSpec=\"\"}}你似乎非常喜欢\n我的房间，{{delay8}}\n我很高兴哦。{{string value=\"6\"}}。{{setNpcTalkChoices chatOption=\"0\" cancelOption=\"1\"}}",
      "EUde": "{{anim id=\"Smiling\" target=\"actor\" targetSpec=\"\"}}Meine Behausung scheint es dir\nheute ja richtig angetan zu haben,{{delay8}}\n{{delay8}}{{string value=\"Catchphrase\"}}!{{setNpcTalkChoices chatOption=\"0\" cancelOption=\"0\"}}",
      "EUen": "{{anim id=\"Grin\" target=\"actor\" targetSpec=\"\"}}It seems like you've taken quite a\nshine to my home, {{string value=\"6\"}}.{{setNpcTalkChoices chatOption=\"0\" cancelOption=\"1\"}}",
      "EUes": "{{anim id=\"FaintSmile\" target=\"actor\" targetSpec=\"\"}}¿Estás a gusto aquí,{{delay frames=\"8\"}} encanto?{{delay frames=\"20\"}}\nComo veo que vienes tanto{{string value=\"...\"}}{{setNpcTalkChoices chatOption=\"0\" cancelOption=\"1\"}}",
      "EUfr": "{{anim id=\"Smiling\" target=\"actor\" targetSpec=\"\"}}Tu sembles être attiré{{gender2 m=\"\" f=\"e\"}} par ma\nmaison comme par un aimant{{string value=\"...\"}}{{delay20}}\nC'est fou, {{string value=\"6\"}} !{{setNpcTalkChoices chatOption=\"0\" cancelOption=\"1\"}}",
      "EUit": "{{anim id=\"Grin\" target=\"actor\" targetSpec=\"\"}}Sembra quasi che tu abbia una cotta\nper casa mia, {{string value=\"6\"}}!{{setNpcTalkChoices chatOption=\"1\" cancelOption=\"0\"}}",
      "EUnl": "{{anim id=\"Grin\" target=\"actor\" targetSpec=\"\"}}Zo te merken voel je je hier echt\nthuis, {{string value=\"6\"}}.{{setNpcTalkChoices chatOption=\"0\" cancelOption=\"1\"}}",
      "EUru": "{{anim id=\"Grin\" target=\"actor\" targetSpec=\"\"}}Похоже, тебе нравится у меня дома.\n{{capitalizeNextLetter}}{{string value=\"6\"}}!{{setNpcTalkChoices chatOption=\"0\" cancelOption=\"1\"}}",
      "JPja": "{{anim id=\"Smiling\" target=\"actor\" targetSpec=\"\"}}アタシのお{{ruby charSpan=\"2\" value=\"へや\"}}部屋を\n{{ruby charSpan=\"1\" value=\"き\"}}気に{{ruby charSpan=\"1\" value=\"い\"}}入ってくれたみたいで{{delay8}}\n{{ruby charSpan=\"1\" value=\"うれ\"}}嬉しいわ、{{string value=\"6\"}}{{setNpcTalkChoices chatOption=\"0\" cancelOption=\"1\"}}",
      "KRko": "{{anim id=\"Smiling\" target=\"actor\" targetSpec=\"\"}}우리 집을 좋아해줘서{{delay8}} 기뻐～ {{string value=\"6\"}}～{{setNpcTalkChoices chatOption=\"0\" cancelOption=\"1\"}}",
      "TWzh": "{{anim id=\"Smiling\" target=\"actor\" targetSpec=\"\"}}看樣子，\n你很喜歡我的房間喔。{{delay8}}\n真讓人高興呢，{{string value=\"6\"}}。{{setNpcTalkChoices chatOption=\"0\" cancelOption=\"1\"}}",
      "USen": "{{anim id=\"Grin\" target=\"actor\" targetSpec=\"\"}}It seems like you've taken quite a\nshine to my home, {{string value=\"6\"}}.{{setNpcTalkChoices chatOption=\"0\" cancelOption=\"1\"}}",
      "USes": "{{anim id=\"FaintSmile\" target=\"actor\" targetSpec=\"\"}}¿Estás a gusto aquí,{{delay frames=\"8\"}} encanto?{{delay frames=\"20\"}}\nComo veo que vienes tanto{{string value=\"...\"}}{{setNpcTalkChoices chatOption=\"0\" cancelOption=\"1\"}}",
      "USfr": "{{anim id=\"Smiling\" target=\"actor\" targetSpec=\"\"}}Tu sembles être attiré{{gender2 m=\"\" f=\"e\"}} par ma\nmaison comme par un aimant{{string value=\"...\"}}{{delay20}}\nC'est fou, {{string value=\"6\"}}!{{setNpcTalkChoices chatOption=\"0\" cancelOption=\"1\"}}"
    }
  },
  {
    "label": "003",
    "attribute": "0x00000C0100000000",
    "locale": {
      "CNzh": "{{anim id=\"Hello\" target=\"actor\" targetSpec=\"\"}}哎呀，{{delay20}}这是怎么了？{{delay40}}\n{{anim id=\"FaintSmile\" target=\"actor\" targetSpec=\"\"}}今天你来得很勤呀。{{string value=\"6\"}}。{{setNpcTalkChoices chatOption=\"0\" cancelOption=\"1\"}}",
      "EUde": "{{anim id=\"Hello\" target=\"actor\" targetSpec=\"\"}}Huch, {{delay8}}was denn nun? {{delay20}}{{anim id=\"FaintSmile\" target=\"actor\" targetSpec=\"\"}}Deine Besuche\nnehmen heute ja gar kein Ende,\n{{delay8}}{{string value=\"Catchphrase\"}}!{{setNpcTalkChoices chatOption=\"0\" cancelOption=\"0\"}}",
      "EUen": "{{anim id=\"Eh\" target=\"actor\" targetSpec=\"\"}}Oh dear,{{delay frames=\"13\"}} what is it now?{{delay20}}{{anim id=\"FaintSmile\" target=\"actor\" targetSpec=\"\"}} You've, eh,{{delay frames=\"13\"}}\nchatted with me quite a few times\ntoday, {{string value=\"6\"}}.{{setNpcTalkChoices chatOption=\"0\" cancelOption=\"1\"}}",
      "EUes": "{{anim id=\"FaintSmile\" target=\"actor\" targetSpec=\"\"}}¿Sí,{{delay frames=\"8\"}} qué quieres ahora?{{delay frames=\"20\"}} {{anim id=\"WrySmile\" target=\"actor\" targetSpec=\"\"}}Hoy estás\nmuy parlanch{{gender2 m=\"ín\" f=\"ina\"}},{{delay frames=\"8\"}} {{string value=\"Catchphrase\"}}{{string value=\"...\"}}{{setNpcTalkChoices chatOption=\"0\" cancelOption=\"0\"}}",
      "EUfr": "{{anim id=\"Hello\" target=\"actor\" targetSpec=\"\"}}Fichtre,{{delay8}} encore toi ?{{delay40}}{{anim id=\"FaintSmile\" target=\"actor\" targetSpec=\"\"}} Je vais finir\npar croire que tu comptes racheter\nla propriété{{string value=\"...\"}}{{setNpcTalkChoices chatOption=\"0\" cancelOption=\"1\"}}",
      "EUit": "{{anim id=\"Eh\" target=\"actor\" targetSpec=\"\"}}Eccoti qui di nuovo.{{delay40}}{{anim id=\"FaintSmile\" target=\"actor\" targetSpec=\"\"}} Non vedo l'ora\ndi sapere che cosa avrai ancora da\ndirmi, {{string value=\"6\"}}!{{setNpcTalkChoices chatOption=\"1\" cancelOption=\"0\"}}",
      "EUnl": "{{anim id=\"Eh\" target=\"actor\" targetSpec=\"\"}}Hemeltje, wat nu?{{delay40}}{{anim id=\"FaintSmile\" target=\"actor\" targetSpec=\"\"}} We hebben eh,{{delay frames=\"13\"}}\nvandaag al zo vaak het genoegen\ngehad met elkaar te praten.{{setNpcTalkChoices chatOption=\"0\" cancelOption=\"1\"}}",
      "EUru": "{{anim id=\"Eh\" target=\"actor\" targetSpec=\"\"}}Дорогуша,{{delay frames=\"13\"}} что у тебя в этот раз?{{delay20}}\n{{anim id=\"FaintSmile\" target=\"actor\" targetSpec=\"\"}}Сегодня ты со мной часто{{delay frames=\"13\"}}\nбеседуешь! {{capitalizeNextLetter}}{{string value=\"6\"}}!{{setNpcTalkChoices chatOption=\"0\" cancelOption=\"1\"}}",
      "JPja": "{{anim id=\"Hello\" target=\"actor\" targetSpec=\"\"}}あら、{{delay20}}どうしたの？{{delay40}}\n{{anim id=\"FaintSmile\" target=\"actor\" targetSpec=\"\"}}{{ruby charSpan=\"2\" value=\"きょう\"}}今日は　よく{{ruby charSpan=\"1\" value=\"あそ\"}}遊びに{{ruby charSpan=\"1\" value=\"く\"}}来るわね、{{string value=\"6\"}}{{setNpcTalkChoices chatOption=\"0\" cancelOption=\"1\"}}",
      "KRko": "{{anim id=\"Hello\" target=\"actor\" targetSpec=\"\"}}어머, {{delay20}}무슨 일이야?{{delay40}}\n{{anim id=\"FaintSmile\" target=\"actor\" targetSpec=\"\"}}오늘은 자주 놀러오네? {{string value=\"6\"}}?{{setNpcTalkChoices chatOption=\"0\" cancelOption=\"1\"}}",
      "TWzh": "{{anim id=\"Hello\" target=\"actor\" targetSpec=\"\"}}哎呀，{{delay20}}怎麼了嗎？{{delay40}}\n{{anim id=\"FaintSmile\" target=\"actor\" targetSpec=\"\"}}今天很常來找我玩呢，{{string value=\"6\"}}。{{setNpcTalkChoices chatOption=\"0\" cancelOption=\"1\"}}",
      "USen": "{{anim id=\"Eh\" target=\"actor\" targetSpec=\"\"}}Oh dear,{{delay frames=\"13\"}} what is it now?{{delay20}}{{anim id=\"FaintSmile\" target=\"actor\" targetSpec=\"\"}} You've, eh,{{delay frames=\"13\"}}\nchatted with me quite a few times\ntoday, {{string value=\"6\"}}.{{setNpcTalkChoices chatOption=\"0\" cancelOption=\"1\"}}",
      "USes": "{{anim id=\"FaintSmile\" target=\"actor\" targetSpec=\"\"}}Dime,{{delay frames=\"8\"}} ¿qué quieres ahora?{{delay frames=\"20\"}} {{anim id=\"WrySmile\" target=\"actor\" targetSpec=\"\"}}Hoy estás\nmuy parlanch{{gender2 m=\"ín\" f=\"ina\"}},{{delay frames=\"8\"}} {{string value=\"Catchphrase\"}}{{string value=\"...\"}}{{setNpcTalkChoices chatOption=\"0\" cancelOption=\"0\"}}",
      "USfr": "{{anim id=\"Hello\" target=\"actor\" targetSpec=\"\"}}Oh, encore toi?{{delay40}}{{anim id=\"FaintSmile\" target=\"actor\" targetSpec=\"\"}} Je vais finir\npar croire que tu comptes racheter\nla propriété{{string value=\"...\"}}{{setNpcTalkChoices chatOption=\"0\" cancelOption=\"1\"}}"
    }
  }
]