﻿[
  {
    "label": "101",
    "attribute": "0x0000020000000000",
    "text": "{{i20_2 arg=\"6\"}}{{anim id=\"FaintSmile\" target=\"actor\" targetSpec=\"\"}}¿A ti no te relaja quedarte viendo\narbustos?{{pageBreak}}{{anim id=\"Hello\" target=\"actor\" targetSpec=\"\"}}Pues una forma de probar si te\nfunciona es plantar unas {{color id=\"1\"}}plumerias{{color id=\"65535\"}}.{{delay20}}\n¿Quieres que te dé un arbusto?"
  },
  {
    "label": "101_a",
    "attribute": "0x0000000000000000",
    "text": "{{anim id=\"EmotEnd\" target=\"actor\" targetSpec=\"\"}}¡Sí!"
  },
  {
    "label": "101_b",
    "attribute": "0x0000000000000000",
    "text": "{{anim id=\"EmotEnd\" target=\"actor\" targetSpec=\"\"}}Creo que paso"
  },
  {
    "label": "102",
    "attribute": "0x0000020000000000",
    "text": "{{i20_2 arg=\"6\"}}{{anim id=\"Serious\" target=\"actor\" targetSpec=\"\"}}¡A ver si sabes lo siguiente,\n{{fun_00060096 arg=\"\"}}!{{pageBreak}}{{anim id=\"Thinking\" target=\"actor\" targetSpec=\"\"}}¿Cuál es el nombre del arbusto que\ncrece en esta isla?{{delay8}} {{anim id=\"WrySmile\" target=\"actor\" targetSpec=\"\"}}¿Eh?{{pageBreak}}{{anim id=\"Clapping\" target=\"actor\" targetSpec=\"\"}}¡Muy bien!{{delay20}} ¡Es la {{color id=\"1\"}}plumeria{{color id=\"65535\"}}!{{pageBreak}}{{anim id=\"Smiling\" target=\"actor\" targetSpec=\"\"}}¿Te gustaría cultivarla tú mism{{gender2 m=\"o\" f=\"a\"}},\ncalabacita?{{delay20}} Te puedo dar una si\nquieres."
  },
  {
    "label": "102_a",
    "attribute": "0x0000000000000000",
    "text": "{{anim id=\"EmotEnd\" target=\"actor\" targetSpec=\"\"}}¡Sí que me gustaría!"
  },
  {
    "label": "102_b",
    "attribute": "0x0000000000000000",
    "text": "{{anim id=\"EmotEnd\" target=\"actor\" targetSpec=\"\"}}Ahora mismo no..."
  },
  {
    "label": "103",
    "attribute": "0x0000020000000000",
    "text": "{{i20_2 arg=\"6\"}}{{anim id=\"Thinking\" target=\"actor\" targetSpec=\"\"}}Había pensado añadir unas clases\nextra de jardinería al programa\nde estudios, {{string value=\"6\"}}{{string value=\"...\"}}\n{{anim id=\"Nodding\" target=\"actor\" targetSpec=\"\"}}A lo mejor podríamos plantar algo\ny ver el efecto que nos produce.{{delay20}}\n¿Quieres probar con la {{color id=\"1\"}}plumeria{{color id=\"65535\"}}?\n{{anim id=\"Hello\" target=\"actor\" targetSpec=\"\"}}Te puedo dar una si te interesa{{string value=\"...\"}}"
  },
  {
    "label": "103_a",
    "attribute": "0x0000000000000000",
    "text": "{{anim id=\"EmotEnd\" target=\"actor\" targetSpec=\"\"}}¡Claro que quiero!"
  },
  {
    "label": "103_b",
    "attribute": "0x0000000000000000",
    "text": "{{anim id=\"EmotEnd\" target=\"actor\" targetSpec=\"\"}}Creo que paso..."
  },
  {
    "label": "106_01",
    "attribute": "0x0000000000000000",
    "text": "{{anim id=\"BigSmile\" target=\"actor\" targetSpec=\"\"}}¡Genial!{{delay8}} {{anim id=\"FaintSmile\" target=\"actor\" targetSpec=\"\"}}Entonces, voy a darte\nuna {{color id=\"1\"}}{{wordInfo gender=\"2\" indefArticle=\"2\" defArticle=\"4\"}}plumeria blanca de vivero{{color id=\"65535\"}}."
  },
  {
    "label": "106_02",
    "attribute": "0x0000000000000000",
    "text": "{{anim id=\"BigSmile\" target=\"actor\" targetSpec=\"\"}}¡Estupendo!{{delay20}}{{anim id=\"FaintSmile\" target=\"actor\" targetSpec=\"\"}} Pues aquí tienes\nuna {{color id=\"1\"}}{{wordInfo gender=\"2\" indefArticle=\"2\" defArticle=\"4\"}}plumeria rosa de vivero{{color id=\"65535\"}}."
  },
  {
    "label": "107",
    "attribute": "0x0000000000000000",
    "text": "{{fun_0014003C arg=\"\"}}"
  },
  {
    "label": "107_01",
    "attribute": "0x0000000000000000",
    "text": "{{anim id=\"Nodding\" target=\"actor\" targetSpec=\"\"}}Las plantas deben dar sensación\nde frescura, aunque no sea la época\nen la que salen sus flores.\n{{anim id=\"Smiling\" target=\"actor\" targetSpec=\"\"}}Cuídala bien y dale mucho cariño.{{delay20}}\nYa me dirás cómo te sientes con ella\ncerca, {{string value=\"6\"}}."
  },
  {
    "label": "107_02",
    "attribute": "0x0000000000000000",
    "text": "{{anim id=\"Nodding\" target=\"actor\" targetSpec=\"\"}}Aunque la {{color id=\"1\"}}plumeria{{color id=\"65535\"}} florece todo el\naño en esta isla,{{delay8}} su floración suele\nser en estaciones más calurosas.\n{{anim id=\"Smiling\" target=\"actor\" targetSpec=\"\"}}Algo me dice que cultivarla va a\ntener un efecto muy positivo en ti,\n{{string value=\"6\"}}."
  },
  {
    "label": "107_03",
    "attribute": "0x0000000000000000",
    "text": "{{anim id=\"Smiling\" target=\"actor\" targetSpec=\"\"}}Te sugiero que la plantes cerca\nde casa."
  },
  {
    "label": "108",
    "attribute": "0x0000000000000000",
    "text": "{{fun_0014003C arg=\"\"}}"
  },
  {
    "label": "108_01",
    "attribute": "0x0000000000000000",
    "text": "{{anim id=\"Nodding\" target=\"actor\" targetSpec=\"\"}}Oh, muy bien{{string value=\"...\"}}{{delay20}} {{anim id=\"Hello\" target=\"actor\" targetSpec=\"\"}}Ven a verme\nsi cambias de idea, flor."
  },
  {
    "label": "108_02",
    "attribute": "0x0000000000000000",
    "text": "{{anim id=\"Nodding\" target=\"actor\" targetSpec=\"\"}}¡Ningún problema!{{delay20}} No a todo\nel mundo le gustan las plantas.{{delay20}}\n{{anim id=\"FaintSmile\" target=\"actor\" targetSpec=\"\"}}Ven a verme si cambias de idea."
  },
  {
    "label": "108_03",
    "attribute": "0x0000000000000000",
    "text": "{{anim id=\"Hello\" target=\"actor\" targetSpec=\"\"}}Quizá no te sientas preparad{{gender2 m=\"o\" f=\"a\"}} aún,{{delay8}}\npero, si cambias de idea,{{delay8}} ya sabes\ndonde encontrarme."
  },
  {
    "label": "113",
    "attribute": "0x0000000000000000",
    "text": "{{anim id=\"Oops\" target=\"actor\" targetSpec=\"\"}}Oh, tienes los bolsillos llenos.{{delay20}}\n{{anim id=\"FaintSmile\" target=\"actor\" targetSpec=\"\"}}Me parece que tendrás que hacer\nun poco de espacio."
  },
  {
    "label": "115_01",
    "attribute": "0x0000000000000000",
    "text": "{{anim id=\"FaintSmile\" target=\"actor\" targetSpec=\"\"}}¿Volviste por tu {{color id=\"1\"}}{{wordInfo gender=\"2\" indefArticle=\"2\" defArticle=\"4\"}}plumeria blanca de vivero{{color id=\"65535\"}}?"
  },
  {
    "label": "115_02",
    "attribute": "0x0000000000000000",
    "text": "{{anim id=\"FaintSmile\" target=\"actor\" targetSpec=\"\"}}¿Estás de vuelta por la {{color id=\"1\"}}{{wordInfo gender=\"2\" indefArticle=\"2\" defArticle=\"4\"}}plumeria rosa de vivero{{color id=\"65535\"}}?"
  }
]