﻿[
  {
    "label": "001",
    "attribute": "0x0000000100000000",
    "text": "{{anim id=\"Thinking\" target=\"actor\" targetSpec=\"\"}}You know{{string value=\"...\"}}adding one tiny piece\nof decor or furniture can completely\ntransform a room.\n{{anim id=\"SmugFace\" target=\"actor\" targetSpec=\"\"}}That said, I wouldn't change a\nthing in here. {{delay20}}It's SO you."
  },
  {
    "label": "002",
    "attribute": "0x0000000100000000",
    "text": "{{anim id=\"Thinking\" target=\"actor\" targetSpec=\"\"}}I'm not sure what the technical term\nis for it, but your room has that\ncertain{{string value=\"...\"}}\"I don't know what.\""
  },
  {
    "label": "003",
    "attribute": "0x0000000100000000",
    "text": "{{anim id=\"Thinking\" target=\"actor\" targetSpec=\"\"}}For a long time, the trend in storage\nwas to hide everything away.{{pageBreak}}{{anim id=\"Shocked\" target=\"actor\" targetSpec=\"\"}}But now it's the opposite!{{delay20}}\nOpen storage is all the rage.{{pageBreak}}{{anim id=\"SmugFace\" target=\"actor\" targetSpec=\"\"}}It just goes to show you: you simply\nmust redecorate every six months."
  },
  {
    "label": "004",
    "attribute": "0x0000000100000000",
    "text": "{{anim id=\"SmugFace\" target=\"actor\" targetSpec=\"\"}}I, for one, say that going out is\noverrated! {{delay frames=\"40\"}}{{anim id=\"Blushing\" target=\"actor\" targetSpec=\"\"}}What's better than staying\nin and enjoying a friend's company?"
  },
  {
    "label": "005",
    "attribute": "0x0000000100000000",
    "text": "{{anim id=\"Thinking\" target=\"actor\" targetSpec=\"\"}}They say that you can learn\neverything you need to know about\nsomeone by looking at their room.\n{{anim id=\"Negative\" target=\"actor\" targetSpec=\"\"}}But it's quite simply not true.{{i10_4}}{{anim id=\"Laughing\" target=\"actor\" targetSpec=\"\"}}\nYou have to have a good look\nat their shoe collection as well!"
  },
  {
    "label": "006",
    "attribute": "0x0000000000000000",
    "text": "{{anim id=\"Love\" target=\"actor\" targetSpec=\"\"}}Don't you think the layout here is\njust so fresh and energetic?{{delay frames=\"40\"}} {{anim id=\"HappyDance\" target=\"actor\" targetSpec=\"\"}}That\n{{selection value=\"SelectedVillager\"}} is a design guru!"
  },
  {
    "label": "007",
    "attribute": "0x0000000000000000",
    "text": "{{anim id=\"AbsentMindedness\" target=\"actor\" targetSpec=\"\"}}Oh, I could get used to a place\nlike this{{string value=\"...\"}}{{pageBreak}}{{anim id=\"Love\" target=\"actor\" targetSpec=\"\"}}I'm in awe of {{selection value=\"SelectedVillager\"}}'s\nsense of style."
  },
  {
    "label": "008",
    "attribute": "0x0000000000000000",
    "text": "{{anim id=\"Aha\" target=\"actor\" targetSpec=\"\"}}I didn't know you were friendly with\n{{selection value=\"SelectedVillager\"}}.{{pageBreak}}{{anim id=\"Greeting\" target=\"actor\" targetSpec=\"\"}}We should all sit down with a nice\nmug of {{randomDrink}} and have a chat\nlater, {{string value=\"NickName\"}}!"
  },
  {
    "label": "101",
    "attribute": "0x0000000000000000",
    "text": "{{fun_0014003C arg=\"\"}}"
  },
  {
    "label": "101_01",
    "attribute": "0x0000000000000000",
    "text": "{{anim id=\"Greeting\" target=\"actor\" targetSpec=\"\"}}Darling, {{delay8}}I applaud your minimalistic\napproach to interior decorating.{{delay20}}{{anim id=\"Grin\" target=\"actor\" targetSpec=\"\"}}\nIt's so very modern of you.\n{{anim id=\"EmotEnd\" target=\"actor\" targetSpec=\"\"}}That said, {{delay8}}{{anim id=\"Nodding\" target=\"actor\" targetSpec=\"\"}}I do look forward to seeing\nwhat you add to this space. {{delay20}}{{anim id=\"OhGeez\" target=\"actor\" targetSpec=\"\"}}Whatever\nit is, {{delay8}}it's sure to make an impression."
  },
  {
    "label": "101_02",
    "attribute": "0x0000000000000000",
    "text": "{{anim id=\"Eh\" target=\"actor\" targetSpec=\"\"}}My goodness,{{delay8}} you do seem to enjoy\na simple life unburdened by\nmaterial goods.\n{{anim id=\"QuestionMark\" target=\"actor\" targetSpec=\"\"}}But have you considered adding at\nleast one piece of furniture?{{pageBreak}}{{anim id=\"IdeaBulb\" target=\"actor\" targetSpec=\"\"}}A chair, perhaps! {{delay20}}Or maybe a\nlamp? {{delay20}}{{anim id=\"OhGeez\" target=\"actor\" targetSpec=\"\"}}Really, darling, {{delay8}}anything\nwill do."
  },
  {
    "label": "101_03",
    "attribute": "0x0000000000000000",
    "text": "{{anim id=\"Greeting\" target=\"actor\" targetSpec=\"\"}}I see you haven't placed a single\npiece of furniture yet.{{pageBreak}}{{anim id=\"FaintSmile\" target=\"actor\" targetSpec=\"\"}}I, for one, appreciate your careful\napproach to interior decorating. {{delay20}}{{anim id=\"Negative\" target=\"actor\" targetSpec=\"\"}}One\nmustn't rush important decisions!"
  }
]