﻿[
  {
    "label": "01_AN",
    "text": "Эй! Ты там!"
  },
  {
    "label": "01_BO",
    "text": "Эй! Алло!"
  },
  {
    "label": "01_FU",
    "text": "Прощу прощения!"
  },
  {
    "label": "01_GE",
    "text": "Эй! Погоди-ка!"
  },
  {
    "label": "01_HA",
    "text": "Эй, постой-ка!"
  },
  {
    "label": "01_KO",
    "text": "Эй, козявка! Погоди!"
  },
  {
    "label": "01_OT",
    "text": "Ау! Я тут! Прямо тут!"
  },
  {
    "label": "01_ZK",
    "text": "Эй! Секундочку!"
  },
  {
    "label": "02_AN",
    "text": "Эй, подожди!"
  },
  {
    "label": "02_BO",
    "text": "Поговори со мной! Поговори-и!"
  },
  {
    "label": "02_FU",
    "text": "У тебя есть минутка?"
  },
  {
    "label": "02_GE",
    "text": "Эй, ты там! Да, ты!"
  },
  {
    "label": "02_HA",
    "text": "Есть минутка?"
  },
  {
    "label": "02_KO",
    "text": "Козявка, стоп!"
  },
  {
    "label": "02_OT",
    "text": "Прошу прощения! Эй!"
  },
  {
    "label": "02_ZK",
    "text": "Погоди, пожалуйста!"
  }
]