﻿[
  {
    "label": "001",
    "attribute": "0x00000000",
    "text": "{{anim id=\"BigSmile\" target=\"actor\" targetSpec=\"\"}}{{delay8}}어서 오이소!"
  },
  {
    "label": "002_01",
    "attribute": "0x00000000",
    "text": "{{anim id=\"Smiling\" target=\"actor\" targetSpec=\"\"}}{{string value=\"...\"}}{{delay8}}{{anim id=\"Shocked\" target=\"actor\" targetSpec=\"\"}}{{delay40}}오메!{{delay40}}\n손님,{{delay20}} 지난번에 가게에서\n{{anim id=\"QuestionMark\" target=\"actor\" targetSpec=\"\"}}마주친 사람 맞지예?{{pageBreak}}{{anim id=\"Smiling\" target=\"actor\" targetSpec=\"\"}}만나서 반가워예{{delay20}}\n지는 {{color id=\"3\"}}고순이{{color id=\"65535\"}}라고 합니데이!"
  },
  {
    "label": "002_02",
    "attribute": "0x00000000",
    "text": "{{anim id=\"Smiling\" target=\"actor\" targetSpec=\"\"}}오메! {{delay20}}손님은\n이 섬에 {{anim id=\"QuestionMark\" target=\"actor\" targetSpec=\"\"}}사는 분인교?{{pageBreak}}{{anim id=\"Smiling\" target=\"actor\" targetSpec=\"\"}}지는 장사하러 온\n{{color id=\"3\"}}고순이{{color id=\"65535\"}}라고 합니데이!"
  },
  {
    "label": "003",
    "attribute": "0x00000000",
    "text": "{{anim id=\"Explain\" target=\"actor\" targetSpec=\"\"}}{{color id=\"3\"}}콩돌이{{color id=\"65535\"}},{{delay8}} {{color id=\"3\"}}밤돌이{{color id=\"65535\"}}{{string value=\"...\"}}{{delay8}}\n{{color id=\"3\"}}너굴 {{color id=\"65535\"}}아저씨랑은{{delay20}} 알고 지낸 지 오래됐지예{{pageBreak}}{{anim id=\"Smiling\" target=\"actor\" targetSpec=\"\"}}그 인연으로{{delay8}}\n이래 {{string value=\"33\"}}에서\n옷도 팔고 그칼라고 왔십니더!{{pageBreak}}{{anim id=\"AbsentMindedness\" target=\"actor\" targetSpec=\"\"}}나중에는 이 섬에 가게도\n내고 싶네예{{string value=\"...\"}}{{delay20}}\n{{anim id=\"ShyBoy\" target=\"actor\" targetSpec=\"\"}}일단 손님부터 모아야지예{{anim id=\"Smiling\" target=\"actor\" targetSpec=\"\"}}\n{{anim id=\"Explain\" target=\"actor\" targetSpec=\"\"}}딱 정해진 날은 없지만서도{{delay8}}\n일주일에 몇 번은 올 생각이라예{{delay20}}\n많이 들러주이소!{{anim id=\"Smiling\" target=\"actor\" targetSpec=\"\"}}"
  },
  {
    "label": "004",
    "attribute": "0x02000000",
    "text": "{{anim id=\"IdeaBulb\" target=\"actor\" targetSpec=\"\"}}{{delay8}}아!{{delay40}}\n{{anim id=\"Smiling\" target=\"actor\" targetSpec=\"\"}}기왕 오셨는데{{delay20}} 오늘 가져온\n물건 쪼메 보고 가이소"
  },
  {
    "label": "004_a",
    "attribute": "0x00000000",
    "text": "볼래!"
  },
  {
    "label": "004_b",
    "attribute": "0x00000000",
    "text": "다음에 볼래"
  },
  {
    "label": "005_01",
    "attribute": "0x00000000",
    "text": "{{anim id=\"Shocked\" target=\"actor\" targetSpec=\"\"}}오메, {{delay20}}{{anim id=\"Worried\" target=\"actor\" targetSpec=\"\"}}바쁘신데 붙잡아둬가\n죄송합니데이"
  },
  {
    "label": "005_02",
    "attribute": "0x00000000",
    "text": "{{anim id=\"Smiling\" target=\"actor\" targetSpec=\"\"}}장사하러 오는 날은 아침 일찍부터 와서{{delay8}}\n밤 10시까지는 있을라 카니께{{delay20}}\n{{anim id=\"Greeting\" target=\"actor\" targetSpec=\"\"}}앞으로 잘 부탁합니데이!"
  },
  {
    "label": "006",
    "attribute": "0x00000000",
    "text": "{{anim id=\"BigSmile\" target=\"actor\" targetSpec=\"\"}}{{delay8}}감사합니데이!{{delay40}}\n{{anim id=\"Smiling\" target=\"actor\" targetSpec=\"\"}}오늘 상품은 이렇게 가져왔어예{{anim id=\"EmotEnd\" target=\"actor\" targetSpec=\"\"}}"
  },
  {
    "label": "007",
    "attribute": "0x00000000",
    "text": "{{anim id=\"QuestionMark\" target=\"actor\" targetSpec=\"\"}}어떻습니꺼?{{i10_4}}\n{{anim id=\"Smiling\" target=\"actor\" targetSpec=\"\"}}되도록 매번 다른 걸로 가져올라니까\n{{delay20}}자주 들러주이소"
  },
  {
    "label": "101_01",
    "attribute": "0x00000000",
    "text": "{{anim id=\"Smiling\" target=\"actor\" targetSpec=\"\"}}오메, {{string value=\"PlayerName\"}}씨{{delay20}}\n좋은 아침이네예!{{delay40}}\n{{anim id=\"Greeting\" target=\"actor\" targetSpec=\"\"}}{{delay8}}또 왔십니더!"
  },
  {
    "label": "101_02",
    "attribute": "0x00000000",
    "text": "{{anim id=\"Smiling\" target=\"actor\" targetSpec=\"\"}}오메, {{string value=\"PlayerName\"}}씨{{delay20}}\n안녕하십니꺼!{{delay40}}\n{{anim id=\"Greeting\" target=\"actor\" targetSpec=\"\"}}{{delay8}}오늘도 신세 좀 질게예"
  },
  {
    "label": "101_03",
    "attribute": "0x00000000",
    "text": "{{anim id=\"Smiling\" target=\"actor\" targetSpec=\"\"}}오메, {{string value=\"PlayerName\"}}씨{{delay20}}\n저녁 공기가 좋네예{{delay40}}\n{{anim id=\"Greeting\" target=\"actor\" targetSpec=\"\"}}{{delay8}}또 왔십니더!"
  },
  {
    "label": "102",
    "attribute": "0x02000000",
    "text": "{{anim id=\"Smiling\" target=\"actor\" targetSpec=\"\"}}오늘은 어떻게 하시겠어예?"
  },
  {
    "label": "102_a",
    "attribute": "0x00000000",
    "text": "구경할래!"
  },
  {
    "label": "102_b",
    "attribute": "0x00000000",
    "text": "그냥 불러본 거야"
  },
  {
    "label": "103",
    "attribute": "0x00000000",
    "text": "{{anim id=\"BigSmile\" target=\"actor\" targetSpec=\"\"}}{{delay8}}아이고, {{delay20}}{{anim id=\"Smiling\" target=\"actor\" targetSpec=\"\"}}감사합니데이!{{delay40}}\n또 필요한 거 있으시면\n말 걸어주이소!"
  },
  {
    "label": "104",
    "attribute": "0x00000000",
    "text": "{{anim id=\"Smiling\" target=\"actor\" targetSpec=\"\"}}예예～!{{delay40}}\n오늘은 이렇게 가져왔십니더!{{anim id=\"EmotEnd\" target=\"actor\" targetSpec=\"\"}}"
  },
  {
    "label": "105_01",
    "attribute": "0x02000000",
    "text": "{{anim id=\"Shocked\" target=\"actor\" targetSpec=\"\"}}{{delay8}}오메, {{delay20}}{{string value=\"PlayerName\"}}씨{{delay40}}\n뭐 깜박한 거 있는교?"
  },
  {
    "label": "105_01_a",
    "attribute": "0x00000000",
    "text": "구경할래!"
  },
  {
    "label": "105_01_b",
    "attribute": "0x00000000",
    "text": "그냥 불러본 거야"
  },
  {
    "label": "105_02",
    "attribute": "0x02000000",
    "text": "{{anim id=\"Shocked\" target=\"actor\" targetSpec=\"\"}}{{delay8}}오메, {{delay20}}{{string value=\"PlayerName\"}}씨{{delay40}}\n{{anim id=\"Smiling\" target=\"actor\" targetSpec=\"\"}}무슨 일이십니꺼?"
  },
  {
    "label": "105_02_a",
    "attribute": "0x00000000",
    "text": "구경할래!"
  },
  {
    "label": "105_02_b",
    "attribute": "0x00000000",
    "text": "그냥 불러본 거야"
  },
  {
    "label": "106",
    "attribute": "0x04000000",
    "text": "{{anim id=\"Smiling\" target=\"actor\" targetSpec=\"\"}}오늘은 어떻게 하시겠어예?"
  },
  {
    "label": "106_a",
    "attribute": "0x00000000",
    "text": "구경할래!"
  },
  {
    "label": "106_b",
    "attribute": "0x00000000",
    "text": "가게 위치에 대하여"
  },
  {
    "label": "106_c",
    "attribute": "0x00000000",
    "text": "그냥 불러본 거야"
  },
  {
    "label": "107",
    "attribute": "0x04000000",
    "text": "{{anim id=\"Shocked\" target=\"actor\" targetSpec=\"\"}}{{delay8}}오메, {{delay20}}{{string value=\"PlayerName\"}}씨{{delay40}}\n뭐 깜박한 거 있는교?"
  },
  {
    "label": "107_a",
    "attribute": "0x00000000",
    "text": "구경할래!"
  },
  {
    "label": "107_b",
    "attribute": "0x00000000",
    "text": "가게 위치에 대하여"
  },
  {
    "label": "107_c",
    "attribute": "0x00000000",
    "text": "그냥 불러본 거야"
  },
  {
    "label": "108",
    "attribute": "0x04000000",
    "text": "{{anim id=\"Shocked\" target=\"actor\" targetSpec=\"\"}}{{delay8}}오메, {{delay20}}{{string value=\"PlayerName\"}}씨{{delay40}}\n{{anim id=\"Smiling\" target=\"actor\" targetSpec=\"\"}}무슨 일이십니꺼?"
  },
  {
    "label": "108_a",
    "attribute": "0x00000000",
    "text": "구경할래!"
  },
  {
    "label": "108_b",
    "attribute": "0x00000000",
    "text": "가게 위치에 대하여"
  },
  {
    "label": "108_c",
    "attribute": "0x00000000",
    "text": "그냥 불러본 거야"
  },
  {
    "label": "111",
    "attribute": "0x02000000",
    "text": "{{fun_0000007D arg=\"0x0000\"}}{{gender5 m=\"은\" f=\"는\"}}\n{{number value=\"BuyPrice\" index=\"0\"}}인데{{delay20}}\n{{anim id=\"QuestionMark\" target=\"actor\" targetSpec=\"\"}}어떻게 하시겠어예?"
  },
  {
    "label": "111_a",
    "attribute": "0x00000000",
    "text": "살래!"
  },
  {
    "label": "111_b",
    "attribute": "0x00000000",
    "text": "그만둘래"
  },
  {
    "label": "112",
    "attribute": "0x00000000",
    "text": "{{anim id=\"Smiling\" target=\"actor\" targetSpec=\"\"}}어데 {{delay20}}다른 것도 구경하실래예?{{anim id=\"EmotEnd\" target=\"actor\" targetSpec=\"\"}}"
  },
  {
    "label": "113_01",
    "attribute": "0x00000000",
    "text": "{{anim id=\"Worried\" target=\"actor\" targetSpec=\"\"}}아이고～ {{delay8}}손님{{delay20}}\n그걸 사기에는 돈이 모자라시네예{{string value=\"...\"}}"
  },
  {
    "label": "113_02",
    "attribute": "0x00000000",
    "text": "대신 다른 거라도 보실래예?"
  },
  {
    "label": "114_01",
    "attribute": "0x00000000",
    "text": "{{anim id=\"Smiling\" target=\"actor\" targetSpec=\"\"}}예예～!"
  },
  {
    "label": "114_02",
    "attribute": "0x00000000",
    "text": "{{anim id=\"Smiling\" target=\"actor\" targetSpec=\"\"}}고맙습니데이!"
  },
  {
    "label": "115",
    "attribute": "0x00000000",
    "text": "{{anim id=\"Smiling\" target=\"actor\" targetSpec=\"\"}}더 보고 가실래예?{{anim id=\"EmotEnd\" target=\"actor\" targetSpec=\"\"}}"
  },
  {
    "label": "116_01",
    "attribute": "0x00000000",
    "text": "{{anim id=\"Smiling\" target=\"actor\" targetSpec=\"\"}}고마워예!{{delay20}}\n또 들러주이소!"
  },
  {
    "label": "116_02",
    "attribute": "0x00000000",
    "text": "맘에 드는 게 없었십니꺼?{{delay40}}\n다음에는 다른 걸 갖고 올 테니께{{delay8}}\n{{anim id=\"Smiling\" target=\"actor\" targetSpec=\"\"}}또 들러주이소!"
  },
  {
    "label": "151",
    "attribute": "0x02000000",
    "text": "{{anim id=\"Smiling\" target=\"actor\" targetSpec=\"\"}}어서 오이소!{{delay40}}\n옷도 있고 액세서리도 있고\n패션 용품 한번 보고 가실래예?"
  },
  {
    "label": "151_a",
    "attribute": "0x00000000",
    "text": "구경할래!"
  },
  {
    "label": "151_b",
    "attribute": "0x00000000",
    "text": "다음 기회에"
  },
  {
    "label": "152",
    "attribute": "0x00000000",
    "text": "{{anim id=\"Smiling\" target=\"actor\" targetSpec=\"\"}}예예～!{{delay20}}\n또 언제든지 보러 오이소!"
  },
  {
    "label": "153",
    "attribute": "0x02000000",
    "text": "{{anim id=\"Smiling\" target=\"actor\" targetSpec=\"\"}}또 와주셔서 고맙습니데이!{{delay40}}\n옷 좀 {{delay20}}{{anim id=\"QuestionMark\" target=\"actor\" targetSpec=\"\"}}보고 가실래예?"
  },
  {
    "label": "153_a",
    "attribute": "0x00000000",
    "text": "구경할래!"
  },
  {
    "label": "153_b",
    "attribute": "0x00000000",
    "text": "다음 기회에"
  },
  {
    "label": "201",
    "attribute": "0x01000000",
    "text": "{{anim id=\"Shocked\" target=\"actor\" targetSpec=\"\"}}오메,{{delay20}} {{string value=\"PlayerName\"}}씨{{delay frames=\"40\"}}\n{{anim id=\"Smiling\" target=\"actor\" targetSpec=\"\"}}마침 잘 오셨네예!{{pageBreak}}{{anim id=\"Smiling\" target=\"actor\" targetSpec=\"\"}}오늘은 {{string value=\"PlayerName\"}}씨한테\n상담드릴 게 있는데예{{string value=\"...\"}}{{delay frames=\"40\"}}\n{{anim id=\"QuestionMark\" target=\"actor\" targetSpec=\"\"}}잠깐 시간 괜찮으십니꺼?"
  },
  {
    "label": "201_a",
    "attribute": "0x00000000",
    "text": "무슨 일이야?"
  },
  {
    "label": "201_b",
    "attribute": "0x00000000",
    "text": "괜찮아!"
  },
  {
    "label": "202",
    "attribute": "0x00000000",
    "text": "{{anim id=\"BigSmile\" target=\"actor\" targetSpec=\"\"}}고맙습니데이!{{delay frames=\"40\"}}\n{{anim id=\"EmotEnd\" target=\"actor\" targetSpec=\"\"}}상담할 내용은{{delay8}}\n저희가 내려는 {{anim id=\"Smiling\" target=\"actor\" targetSpec=\"\"}}가게의 장소라예"
  },
  {
    "label": "203",
    "attribute": "0x00000000",
    "text": "{{anim id=\"Smiling\" target=\"actor\" targetSpec=\"\"}}덕분에{{delay8}} 우리의 방문 영업을\n기다려주시는 분들이{{delay20}}\n{{anim id=\"HappyDance\" target=\"actor\" targetSpec=\"\"}}많이 늘어났어예\n{{anim id=\"EmotEnd\" target=\"actor\" targetSpec=\"\"}}그래서 슬슬{{delay20}} {{anim id=\"Smiling\" target=\"actor\" targetSpec=\"\"}}본격적으로 가게를 열어볼까?{{delay frames=\"40\"}}\n라고 {{delay20}}{{anim id=\"Nodding\" target=\"actor\" targetSpec=\"\"}}언니야랑 이야기를 했거든예"
  },
  {
    "label": "204",
    "attribute": "0x00000000",
    "text": "{{anim id=\"Smiling\" target=\"actor\" targetSpec=\"\"}}그래서 오늘은 일단{{delay20}}\n{{color id=\"3\"}}{{anim id=\"Thinking\" target=\"actor\" targetSpec=\"\"}}너굴{{color id=\"65535\"}}씨랑 상담해볼까 해서{{delay frames=\"30\"}}\n방금 만나고 왔는데{{anim id=\"EmotEnd\" target=\"actor\" targetSpec=\"\"}}{{string value=\"...\"}}"
  },
  {
    "label": "205",
    "attribute": "0x00000000",
    "text": "{{anim id=\"Thinking\" target=\"actor\" targetSpec=\"\"}}{{color id=\"1\"}}너굴 상점{{color id=\"65535\"}}을 만들고 남은 자재가 있어가{{delay frames=\"30\"}}\n{{anim id=\"Explain\" target=\"actor\" targetSpec=\"\"}}장소만 정해지믄{{delay20}} 당장이라도\n공사를 시작할 수 있다 카데예{{string value=\"...\"}}{{pageBreak}}{{anim id=\"Nodding\" target=\"actor\" targetSpec=\"\"}}가게 위치는{{delay20}} 섬 대표인\n{{string value=\"PlayerName\"}}씨한테 말하믄{{delay frames=\"30\"}}\n{{anim id=\"BigSmile\" target=\"actor\" targetSpec=\"\"}}좋은 데를 찾아줄 끼라고 하셔가{{string value=\"...\"}}"
  },
  {
    "label": "206",
    "attribute": "0x00000000",
    "text": "{{anim id=\"Nodding\" target=\"actor\" targetSpec=\"\"}}여기서 장사를 하면서{{delay8}}\n{{string value=\"PlayerName\"}}씨가\n{{anim id=\"Smiling\" target=\"actor\" targetSpec=\"\"}}지나가는 걸{{delay8}} 기다렸어예"
  },
  {
    "label": "207",
    "attribute": "0x02000000",
    "text": "{{anim id=\"ShyBoy\" target=\"actor\" targetSpec=\"\"}}이거 뭔가 뒤에서{{delay20}}\n이야기를 진행시켜버린 것 같아가{{delay frames=\"30\"}}\n{{anim id=\"Worried\" target=\"actor\" targetSpec=\"\"}}쪼메 죄송한 마음도 있는데{{string value=\"...\"}}{{pageBreak}}{{color id=\"3\"}}{{anim id=\"Nodding\" target=\"actor\" targetSpec=\"\"}}너굴{{color id=\"65535\"}}씨가 신뢰하는 분께서{{delay8}}\n장소를 정해주시면{{delay20}}\n{{anim id=\"Smiling\" target=\"actor\" targetSpec=\"\"}}저랑 언니야도 안심이 될 테니까{{pageBreak}}{{anim id=\"Silent\" target=\"actor\" targetSpec=\"\"}}{{string value=\"PlayerName\"}}씨만 괜찮으시면{{delay20}}\n{{anim id=\"FaintSmile\" target=\"actor\" targetSpec=\"\"}}저희 대신 가게를 낼 장소를{{delay20}}\n{{anim id=\"QuestionMark\" target=\"actor\" targetSpec=\"\"}}정해주실 수 있겠습니꺼?"
  },
  {
    "label": "207_a",
    "attribute": "0x00000000",
    "text": "좋아!"
  },
  {
    "label": "207_b",
    "attribute": "0x00000000",
    "text": "지금은 좀 바빠"
  },
  {
    "label": "208",
    "attribute": "0x00000000",
    "text": "{{anim id=\"BigSmile\" target=\"actor\" targetSpec=\"\"}}정말입니꺼?!{{i10_4}}\n{{anim id=\"EmotEnd\" target=\"actor\" targetSpec=\"\"}}그럼 {{delay8}}이 {{color id=\"1\"}}옷가게 공사 키트{{color id=\"65535\"}}를{{delay20}}\n{{anim id=\"Smiling\" target=\"actor\" targetSpec=\"\"}}드릴게예!"
  },
  {
    "label": "209",
    "attribute": "0x00000000",
    "text": "{{anim id=\"Explain\" target=\"actor\" targetSpec=\"\"}}{{string value=\"PlayerName\"}}씨\n마음에 드는 장소에{{delay8}} 간판을 세워주시믄{{delay frames=\"30\"}}\n{{anim id=\"Smiling\" target=\"actor\" targetSpec=\"\"}}거기에 가게를 세우도록 할게예"
  },
  {
    "label": "210",
    "attribute": "0x00000000",
    "text": "{{anim id=\"Shocked\" target=\"actor\" targetSpec=\"\"}}아, 죄송합니더{{delay frames=\"40\"}}\n{{anim id=\"Smiling\" target=\"actor\" targetSpec=\"\"}}제가 너무 서둘렀지예?\n언제든지 한가할 때 해주시면 됩니더!{{pageBreak}}{{anim id=\"EmotEnd\" target=\"actor\" targetSpec=\"\"}}저는 당분간 여기에 있을 끼니까{{delay20}}\n{{anim id=\"Smiling\" target=\"actor\" targetSpec=\"\"}}나중에 시간 있을 때 말 걸어주이소!{{i10_4}}\n{{anim id=\"Serious\" target=\"actor\" targetSpec=\"\"}}그럼 {{delay8}}이 이야기는 여기까지 하고{{string value=\"...\"}}"
  },
  {
    "label": "211",
    "attribute": "0x02000000",
    "text": "{{anim id=\"Aha\" target=\"actor\" targetSpec=\"\"}}아,{{delay8}} {{string value=\"PlayerName\"}}씨!{{delay frames=\"30\"}}\n{{anim id=\"Smiling\" target=\"actor\" targetSpec=\"\"}}혹시 우리 가게의 장소를{{delay20}}\n{{anim id=\"QuestionMark\" target=\"actor\" targetSpec=\"\"}}찾아주시는 깁니꺼?"
  },
  {
    "label": "211_a",
    "attribute": "0x00000000",
    "text": "좋아!"
  },
  {
    "label": "211_b",
    "attribute": "0x00000000",
    "text": "지금은 좀 바빠"
  },
  {
    "label": "212",
    "attribute": "0x00000000",
    "text": "{{anim id=\"BigSmile\" target=\"actor\" targetSpec=\"\"}}정말입니꺼?!{{delay frames=\"40\"}}\n{{anim id=\"Worried\" target=\"actor\" targetSpec=\"\"}}{{string value=\"...\"}}{{delay20}}그란데 {{string value=\"PlayerName\"}}씨,{{delay8}}\n주머니가 가득 찼네예{{string value=\"...\"}}{{pageBreak}}{{anim id=\"Nodding\" target=\"actor\" targetSpec=\"\"}}{{color id=\"1\"}}옷가게 공사 키트{{color id=\"65535\"}}를 드려야 되니까{{delay frames=\"30\"}}\n{{anim id=\"Smiling\" target=\"actor\" targetSpec=\"\"}}짐 정리가 되면은 말 걸어주이소{{i10_4}}\n{{anim id=\"Serious\" target=\"actor\" targetSpec=\"\"}}그럼{{delay8}} 이 이야기는 여기까지 하고{{string value=\"...\"}}"
  },
  {
    "label": "221",
    "attribute": "0x00000000",
    "text": "{{anim id=\"Smiling\" target=\"actor\" targetSpec=\"\"}}가게 장소 찾는 걸 도와주셔서{{delay20}}\n억수로 {{delay8}}고맙습니데이!{{pageBreak}}{{anim id=\"EmotEnd\" target=\"actor\" targetSpec=\"\"}}가게는 지금 당장{{delay20}}\n커다랗게 할 예정도 없고{{delay20}}\n{{anim id=\"Smiling\" target=\"actor\" targetSpec=\"\"}}고만고만한 넓이만 있으면 됩니더!{{pageBreak}}{{anim id=\"Hello\" target=\"actor\" targetSpec=\"\"}}여기가 좋을까?{{delay20}} 싶은 장소에서{{delay8}}\n{{anim id=\"EmotEnd\" target=\"actor\" targetSpec=\"\"}}간판을 사용하시면{{delay20}}\n{{anim id=\"AbsentMindedness\" target=\"actor\" targetSpec=\"\"}}느낌을 알 수 있지 않을까예?"
  },
  {
    "label": "222",
    "attribute": "0x00000000",
    "text": "{{anim id=\"BigSmile\" target=\"actor\" targetSpec=\"\"}}{{string value=\"PlayerName\"}}씨!{{delay20}}\n가게 장소를 정해주셨더라고예!{{delay frames=\"30\"}}\n{{anim id=\"Smiling\" target=\"actor\" targetSpec=\"\"}}억수로 고맙습니더!\n{{anim id=\"Nodding\" target=\"actor\" targetSpec=\"\"}}가게가 완성되면{{delay20}}\n{{anim id=\"FaintSmile\" target=\"actor\" targetSpec=\"\"}}우리 언니야랑 지를{{delay20}}\n{{anim id=\"Hello\" target=\"actor\" targetSpec=\"\"}}잘 부탁합니데이!"
  },
  {
    "label": "901",
    "attribute": "0x00000000",
    "text": "{{anim id=\"Eh\" target=\"actor\" targetSpec=\"\"}}오메, {{string value=\"PlayerName\"}}씨{{delay20}}\n{{anim id=\"Smiling\" target=\"actor\" targetSpec=\"\"}}어서 오이소!{{delay40}}\n오늘도 와 있었다 아임니꺼{{pageBreak}}{{anim id=\"EmotEnd\" target=\"actor\" targetSpec=\"\"}}근데 오늘은 이만\n들어갈 시간이 다 됐네예{{delay frames=\"30\"}}\n{{anim id=\"Smiling\" target=\"actor\" targetSpec=\"\"}}다음에 다시 들러주이소"
  },
  {
    "label": "902",
    "attribute": "0x00000000",
    "text": "오늘 영업은 끝났네예{{i10_4}}\n{{anim id=\"Smiling\" target=\"actor\" targetSpec=\"\"}}다음에 다시 들러주이소"
  }
]