﻿[
  {
    "label": "001",
    "attribute": "0x0000000000000000",
    "locale": {
      "CNzh": "{{anim id=\"Smiling\" target=\"actor\" targetSpec=\"\"}}我有一件想要给你的东西！{{delay frames=\"40\"}}\n{{anim id=\"Hello\" target=\"actor\" targetSpec=\"\"}}你愿意猜猜看是什么吗？{{pageBreak}}答案是{{string value=\"...\"}}{{anim id=\"BigSmile\" target=\"actor\" targetSpec=\"\"}}{{color id=\"1\"}}圣诞节花环{{color id=\"65535\"}}。{{delay frames=\"40\"}}\n{{anim id=\"FaintSmile\" target=\"actor\" targetSpec=\"\"}}请你收下吧！",
      "EUde": "{{delay8}}{{anim id=\"Smiling\" target=\"actor\" targetSpec=\"\"}}Ich habe hier etwas, {{delay8}}das ich dir gerne\ngeben möchte. {{delay frames=\"40\"}}{{anim id=\"Hello\" target=\"actor\" targetSpec=\"\"}}Hast du schon eine\nIdee, {{delay8}}worum es sich handeln könnte?{{pageBreak}}Nun, ich will dich nicht länger auf die\nFolter spannen. {{delay20}}Bitte sehr,{{delay8}} {{anim id=\"BigSmile\" target=\"actor\" targetSpec=\"\"}}ein {{color id=\"1\"}}Fest-\ntagskranz{{color id=\"65535\"}}!{{delay frames=\"40\"}} {{anim id=\"FaintSmile\" target=\"actor\" targetSpec=\"\"}}Hoffentlich gefällt er dir!",
      "EUen": "{{anim id=\"Smiling\" target=\"actor\" targetSpec=\"\"}}I have something that I've been\nwanting to give you! {{delay frames=\"40\"}}{{anim id=\"Hello\" target=\"actor\" targetSpec=\"\"}}Any guesses\nwhat it is?{{pageBreak}}The answer is{{string value=\"...\"}}{{delay20}}{{anim id=\"BigSmile\" target=\"actor\" targetSpec=\"\"}}a {{color id=\"1\"}}{{wordInfo gender=\"0\" indefArticle=\"1\" defArticle=\"3\"}}festive wreath{{color id=\"65535\"}}!{{delay frames=\"40\"}}\n{{anim id=\"FaintSmile\" target=\"actor\" targetSpec=\"\"}}I hope you like it!",
      "EUes": "{{anim id=\"Hesitate\" target=\"actor\" targetSpec=\"\"}}Hay algo que me gustaría darte.{{delay20}}\nEs una cosita que he hecho yo\ncon todo mi cariño.\n{{anim id=\"Hello\" target=\"actor\" targetSpec=\"\"}}¡Se trata de una {{color id=\"1\"}}corona festiva{{color id=\"65535\"}}!",
      "EUfr": "{{anim id=\"Smiling\" target=\"actor\" targetSpec=\"\"}}J'ai un petit cadeau pour toi !{{delay frames=\"40\"}}{{anim id=\"Hello\" target=\"actor\" targetSpec=\"\"}}\nTu devines ce que c'est ?{{pageBreak}}La réponse est{{string value=\"...\"}}{{delay20}}{{anim id=\"BigSmile\" target=\"actor\" targetSpec=\"\"}} une {{color id=\"1\"}}couronne de\nsapin {{color id=\"65535\"}}!{{delay frames=\"40\"}} {{anim id=\"FaintSmile\" target=\"actor\" targetSpec=\"\"}}J'espère que ça te fait\nplaisir !",
      "EUit": "{{anim id=\"Smiling\" target=\"actor\" targetSpec=\"\"}}Ho una cosina che vorrei tanto darti!\n{{delay20}}{{anim id=\"Hello\" target=\"actor\" targetSpec=\"\"}}Vuoi provare a indovinare?{{pageBreak}}La risposta è{{string value=\"...\"}}{{delay8}}{{anim id=\"BigSmile\" target=\"actor\" targetSpec=\"\"}} una {{color id=\"1\"}}ghirlanda festiva{{color id=\"65535\"}}!\n{{delay20}}{{anim id=\"FaintSmile\" target=\"actor\" targetSpec=\"\"}}Spero ti piacerà tantissimissimo!",
      "EUnl": "{{anim id=\"Smiling\" target=\"actor\" targetSpec=\"\"}}Ik wilde je nog iets geven! {{delay frames=\"40\"}}{{anim id=\"Hello\" target=\"actor\" targetSpec=\"\"}}Enig idee\nwat het is?{{pageBreak}}Het antwoord is{{string value=\"...\"}}{{delay20}}{{anim id=\"BigSmile\" target=\"actor\" targetSpec=\"\"}} een {{color id=\"1\"}}feestkrans{{color id=\"65535\"}}!{{delay frames=\"40\"}}\n{{anim id=\"FaintSmile\" target=\"actor\" targetSpec=\"\"}}Ik hoop dat je hem mooi vindt!",
      "EUru": "{{anim id=\"Smiling\" target=\"actor\" targetSpec=\"\"}}Я тебе подарочек принесла!{{delay frames=\"40\"}}\n{{anim id=\"Hello\" target=\"actor\" targetSpec=\"\"}}Угадаешь, какой?{{pageBreak}}Правильный ответ{{string value=\"...\"}}{{delay20}}{{anim id=\"BigSmile\" target=\"actor\" targetSpec=\"\"}} {{color id=\"1\"}}новогодний\nвенок{{color id=\"65535\"}}!{{delay frames=\"40\"}}{{anim id=\"FaintSmile\" target=\"actor\" targetSpec=\"\"}} Надеюсь, тебе понравится!",
      "JPja": "{{anim id=\"Smiling\" target=\"actor\" targetSpec=\"\"}}あなたに　お{{ruby charSpan=\"1\" value=\"わた\"}}渡ししたかったものが\nあるんです！　{{delay frames=\"40\"}}{{anim id=\"Hello\" target=\"actor\" targetSpec=\"\"}}なんだと{{ruby charSpan=\"1\" value=\"おも\"}}思いますか？{{pageBreak}}{{ruby charSpan=\"2\" value=\"せいかい\"}}正解は{{string value=\"...\"}}　{{anim id=\"BigSmile\" target=\"actor\" targetSpec=\"\"}}{{color id=\"1\"}}クリスマスリース{{color id=\"65535\"}}です{{delay frames=\"40\"}}\n{{anim id=\"FaintSmile\" target=\"actor\" targetSpec=\"\"}}どうぞ　{{ruby charSpan=\"1\" value=\"う\"}}受け{{ruby charSpan=\"1\" value=\"と\"}}取ってください！",
      "KRko": "{{anim id=\"Smiling\" target=\"actor\" targetSpec=\"\"}}당신에게 드리고 싶은 게 있어요!{{delay frames=\"40\"}}\n{{anim id=\"Hello\" target=\"actor\" targetSpec=\"\"}}혹시 짚이는 데가 있으신가요?{{pageBreak}}정답은{{string value=\"...\"}} {{anim id=\"BigSmile\" target=\"actor\" targetSpec=\"\"}}{{color id=\"1\"}}크리스마스 리스{{color id=\"65535\"}}랍니다{{delay frames=\"40\"}}\n{{anim id=\"FaintSmile\" target=\"actor\" targetSpec=\"\"}}받아주세요!",
      "TWzh": "{{anim id=\"Smiling\" target=\"actor\" targetSpec=\"\"}}我有個東西想親手交給你！{{delay frames=\"40\"}}\n{{anim id=\"Hello\" target=\"actor\" targetSpec=\"\"}}你覺得會是什麼呢？{{pageBreak}}正確答案是{{string value=\"...\"}}{{anim id=\"BigSmile\" target=\"actor\" targetSpec=\"\"}}{{color id=\"1\"}}聖誕節花圈{{color id=\"65535\"}}喔。{{delay frames=\"40\"}}\n{{anim id=\"FaintSmile\" target=\"actor\" targetSpec=\"\"}}來，請你收下！",
      "USen": "{{anim id=\"Smiling\" target=\"actor\" targetSpec=\"\"}}I have something that I've been\nwanting to give you! {{delay frames=\"40\"}}{{anim id=\"Hello\" target=\"actor\" targetSpec=\"\"}}Any guesses\nwhat it is?{{pageBreak}}The answer is{{string value=\"...\"}}{{delay20}}{{anim id=\"BigSmile\" target=\"actor\" targetSpec=\"\"}}a {{color id=\"1\"}}{{wordInfo gender=\"0\" indefArticle=\"1\" defArticle=\"3\"}}festive wreath{{color id=\"65535\"}}!{{delay frames=\"40\"}}\n{{anim id=\"FaintSmile\" target=\"actor\" targetSpec=\"\"}}I hope you like it!",
      "USes": "{{anim id=\"Hesitate\" target=\"actor\" targetSpec=\"\"}}Hay algo que me gustaría darte.{{delay20}}\nEs una cosita que hice yo misma\ncon todo mi cariño.\n{{anim id=\"Hello\" target=\"actor\" targetSpec=\"\"}}¡Se trata de una {{color id=\"1\"}}corona festiva{{color id=\"65535\"}}!",
      "USfr": "{{anim id=\"Smiling\" target=\"actor\" targetSpec=\"\"}}J'ai un petit cadeau pour toi!{{delay frames=\"40\"}}{{anim id=\"Hello\" target=\"actor\" targetSpec=\"\"}}\nTu devines ce que c'est?{{pageBreak}}La réponse est{{string value=\"...\"}}{{delay20}}{{anim id=\"BigSmile\" target=\"actor\" targetSpec=\"\"}} une {{color id=\"1\"}}couronne de\nsapin{{color id=\"65535\"}}!{{delay frames=\"40\"}} {{anim id=\"FaintSmile\" target=\"actor\" targetSpec=\"\"}}J'espère que ça te fait\nplaisir!"
    }
  },
  {
    "label": "002",
    "attribute": "0x0000000000000000",
    "locale": {
      "CNzh": "这是独属于这个时节的东西，{{delay8}}\n{{anim id=\"Smiling\" target=\"actor\" targetSpec=\"\"}}请一定要装饰起来。{{string value=\"6\"}}。",
      "EUde": "Genau die richtige Dekoration für\ndiese Jahreszeit! {{delay20}}{{anim id=\"Smiling\" target=\"actor\" targetSpec=\"\"}}Vielleicht findest\ndu ja ein nettes Plätzchen für ihn.",
      "EUen": "Everyone needs one of these this\nseason. {{delay20}}{{anim id=\"Smiling\" target=\"actor\" targetSpec=\"\"}}I hope you find a good place\nto put it up, {{string value=\"6\"}}!",
      "EUes": "{{anim id=\"FaintSmile\" target=\"actor\" targetSpec=\"\"}}Puedes colgarla en la puerta de tu\ncasa y es ideal para estas fiestas.",
      "EUfr": "Tout le monde devrait en avoir une.{{delay20}}{{anim id=\"Smiling\" target=\"actor\" targetSpec=\"\"}}\nJ'espère que tu lui trouveras une\nbonne place, {{string value=\"6\"}} !",
      "EUit": "{{anim id=\"FaintSmile\" target=\"actor\" targetSpec=\"\"}}Nessuno può farne a meno in questo\nperiodo dell'anno. {{delay20}}Ti prego, trovale\nun posto adoraaabile, {{string value=\"6\"}}!",
      "EUnl": "In deze tijd van het jaar kun je niet\nzonder. {{delay20}}{{anim id=\"Smiling\" target=\"actor\" targetSpec=\"\"}}Zoek maar een mooi plekje\nom hem op te hangen, {{string value=\"6\"}}!",
      "EUru": "В праздники без этой штучки\nникуда. {{delay20}}{{anim id=\"Smiling\" target=\"actor\" targetSpec=\"\"}}Надеюсь, ты найдешь ей\nподходящее место! {{capitalizeNextLetter}}{{string value=\"6\"}}!",
      "JPja": "この{{ruby charSpan=\"2\" value=\"じき\"}}時期ならではのものなので{{delay8}}\n{{anim id=\"Smiling\" target=\"actor\" targetSpec=\"\"}}ぜひ　{{ruby charSpan=\"1\" value=\"かざ\"}}飾ってくださいね、{{string value=\"6\"}}",
      "KRko": "이 시즌 하면 빠질 수 없는 아이템이죠{{delay frames=\"40\"}}\n{{anim id=\"Smiling\" target=\"actor\" targetSpec=\"\"}}부디 예쁘게 장식해주세요, {{string value=\"6\"}}",
      "TWzh": "這是這個時期特有的物品，{{delay8}}\n{{anim id=\"Smiling\" target=\"actor\" targetSpec=\"\"}}請你一定要把它裝飾起來喔，{{string value=\"6\"}}。",
      "USen": "Everyone needs one of these this\nseason. {{delay20}}{{anim id=\"Smiling\" target=\"actor\" targetSpec=\"\"}}I hope you find a good place\nto put it up, {{string value=\"6\"}}!",
      "USes": "{{anim id=\"FaintSmile\" target=\"actor\" targetSpec=\"\"}}Puedes colgarla en la puerta de tu\ncasa y es ideal para estas fiestas.",
      "USfr": "Tout le monde devrait en avoir une.{{delay20}}{{anim id=\"Smiling\" target=\"actor\" targetSpec=\"\"}}\nJ'espère que tu lui trouveras une\nbonne place, {{string value=\"6\"}}!"
    }
  },
  {
    "label": "003",
    "attribute": "0x0000000000000000",
    "locale": {
      "CNzh": "{{string value=\"...\"}}{{anim id=\"Oops\" target=\"actor\" targetSpec=\"\"}}哎呀，{{delay20}}你现在口袋满了，\n拿不下了呢。{{delay frames=\"40\"}}\n{{anim id=\"Confused\" target=\"actor\" targetSpec=\"\"}}我真不会看时机{{string value=\"...\"}}对不起。{{pageBreak}}{{anim id=\"EmotEnd\" target=\"actor\" targetSpec=\"\"}}请你在方便的时候来找我吧。{{delay frames=\"40\"}}\n{{anim id=\"Hello\" target=\"actor\" targetSpec=\"\"}}那时，我会将这个交给你。{{string value=\"6\"}}。",
      "EUde": "{{anim id=\"Oops\" target=\"actor\" targetSpec=\"\"}}Oh, {{delay8}}deine Tasche ist ja voll.{{delay20}}\n{{anim id=\"Confused\" target=\"actor\" targetSpec=\"\"}}Dann kann ich dir den Kranz leider\nnicht geben.{{pageBreak}}{{anim id=\"EmotEnd\" target=\"actor\" targetSpec=\"\"}}Wenn du wieder etwas mehr Platz\nhast, {{delay8}}sag Bescheid.{{delay20}}{{anim id=\"Hello\" target=\"actor\" targetSpec=\"\"}} Ich hebe ihn dir\nsolange auf,{{delay8}} {{string value=\"Catchphrase\"}}.",
      "EUen": "{{anim id=\"Oops\" target=\"actor\" targetSpec=\"\"}}Oh, your pockets are too full for a\ngift right now? {{delay frames=\"40\"}}{{anim id=\"Confused\" target=\"actor\" targetSpec=\"\"}}Guess this was a\nbad time for it.{{pageBreak}}{{anim id=\"EmotEnd\" target=\"actor\" targetSpec=\"\"}}Well, if things change, come let me\nknow. {{delay frames=\"40\"}}{{anim id=\"Hello\" target=\"actor\" targetSpec=\"\"}}I'll still have this for you\nthen, {{string value=\"6\"}}.",
      "EUes": "{{anim id=\"Aha\" target=\"actor\" targetSpec=\"\"}}¡Rábanos!{{delay20}} Llevas los bolsillos muy\nllenos, bichín.{{delay20}}{{anim id=\"WrySmile\" target=\"actor\" targetSpec=\"\"}} Qué mal momento\nhe elegido para darte esto{{string value=\"...\"}}\n{{anim id=\"FaintSmile\" target=\"actor\" targetSpec=\"\"}}No te preocupes, que yo la guardo\nhasta que hagas algo de espacio, {{string value=\"6\"}}.",
      "EUfr": "{{anim id=\"Oops\" target=\"actor\" targetSpec=\"\"}}Oh,{{delay8}} tes poches sont trop pleines\npour mon cadeau ? {{delay frames=\"40\"}}{{anim id=\"Confused\" target=\"actor\" targetSpec=\"\"}}Désolée,{{delay8}} je\nn'avais pas prévu ça.{{pageBreak}}{{anim id=\"EmotEnd\" target=\"actor\" targetSpec=\"\"}}Eh bien, si tu fais de la place,{{delay frames=\"40\"}}{{anim id=\"Hello\" target=\"actor\" targetSpec=\"\"}}\nreviens me voir,{{delay8}} je te le garde en\nattendant, {{string value=\"6\"}}.",
      "EUit": "{{anim id=\"Oops\" target=\"actor\" targetSpec=\"\"}}Oh, hai le tasche piene? {{delay frames=\"40\"}}{{anim id=\"Confused\" target=\"actor\" targetSpec=\"\"}}Forse non\nera il momento giusto, excuse-moi.{{pageBreak}}{{anim id=\"EmotEnd\" target=\"actor\" targetSpec=\"\"}}Beh, quando avrai fatto un po' di\nspazio, torna da me. {{delay20}}{{anim id=\"Hello\" target=\"actor\" targetSpec=\"\"}}Te la tengo io\nfino ad allora, {{string value=\"6\"}}.",
      "EUnl": "{{anim id=\"Oops\" target=\"actor\" targetSpec=\"\"}}O, zitten je zakken vol? {{delay frames=\"40\"}}{{anim id=\"Confused\" target=\"actor\" targetSpec=\"\"}}Dan is dit\nniet het goede moment voor een\npresentje.{{pageBreak}}{{anim id=\"EmotEnd\" target=\"actor\" targetSpec=\"\"}}Kom je terug zodra je weer ruimte\nhebt? {{delay frames=\"40\"}}{{anim id=\"Hello\" target=\"actor\" targetSpec=\"\"}}Dan zal ik het voor je bewaren,\n{{string value=\"6\"}}.",
      "EUru": "{{anim id=\"Oops\" target=\"actor\" targetSpec=\"\"}}У тебя карманы набиты?{{delay frames=\"40\"}} {{anim id=\"Confused\" target=\"actor\" targetSpec=\"\"}}Вижу, я не\nвовремя{{string value=\"...\"}}{{pageBreak}}{{anim id=\"EmotEnd\" target=\"actor\" targetSpec=\"\"}}Если место освободится, дай знать.{{delay frames=\"40\"}}\n{{anim id=\"Hello\" target=\"actor\" targetSpec=\"\"}}Подарок никуда не убежит.\n{{capitalizeNextLetter}}{{string value=\"6\"}}!",
      "JPja": "{{string value=\"...\"}}{{anim id=\"Oops\" target=\"actor\" targetSpec=\"\"}}あ、{{delay20}}{{ruby charSpan=\"1\" value=\"いま\"}}今はポケットがいっぱいで\n{{ruby charSpan=\"1\" value=\"も\"}}持てませんでしたか{{delay frames=\"40\"}}\n{{anim id=\"Confused\" target=\"actor\" targetSpec=\"\"}}わたしったら{{string value=\"...\"}}すみません{{pageBreak}}{{anim id=\"EmotEnd\" target=\"actor\" targetSpec=\"\"}}タイミングのいい{{ruby charSpan=\"1\" value=\"とき\"}}時に　{{ruby charSpan=\"1\" value=\"こえ\"}}声をかけてください{{delay frames=\"40\"}}\n{{anim id=\"Hello\" target=\"actor\" targetSpec=\"\"}}その{{ruby charSpan=\"1\" value=\"とき\"}}時に　お{{ruby charSpan=\"1\" value=\"わた\"}}渡ししますから、{{string value=\"6\"}}",
      "KRko": "{{string value=\"...\"}}{{anim id=\"Oops\" target=\"actor\" targetSpec=\"\"}}아, {{delay20}}지금은 주머니가 가득 차서\n여유가 없으신 모양이군요{{delay frames=\"40\"}}\n{{anim id=\"Confused\" target=\"actor\" targetSpec=\"\"}}저도 참{{string value=\"...\"}} 죄송해요{{pageBreak}}{{anim id=\"EmotEnd\" target=\"actor\" targetSpec=\"\"}}주머니를 정리하고 다시 말 걸어주시면{{delay frames=\"40\"}}\n{{anim id=\"Hello\" target=\"actor\" targetSpec=\"\"}}그때 다시 드리도록 할게요, {{string value=\"6\"}}",
      "TWzh": "{{anim id=\"Oops\" target=\"actor\" targetSpec=\"\"}}啊{{string value=\"...\"}}{{delay20}}原來你的口袋滿了，\n所以現在沒辦法收下呀。{{delay frames=\"40\"}}\n{{anim id=\"Confused\" target=\"actor\" targetSpec=\"\"}}我真冒失{{string value=\"...\"}}對不起喔。{{pageBreak}}{{anim id=\"EmotEnd\" target=\"actor\" targetSpec=\"\"}}等你方便收下時，請再跟我說一聲吧。{{delay frames=\"40\"}}\n{{anim id=\"Hello\" target=\"actor\" targetSpec=\"\"}}到時候我再把東西交給你，{{string value=\"6\"}}。",
      "USen": "{{anim id=\"Oops\" target=\"actor\" targetSpec=\"\"}}Oh, your pockets are too full for a\ngift right now? {{delay frames=\"40\"}}{{anim id=\"Confused\" target=\"actor\" targetSpec=\"\"}}Guess this was a\nbad time for it.{{pageBreak}}{{anim id=\"EmotEnd\" target=\"actor\" targetSpec=\"\"}}Well, if things change, come let me\nknow. {{delay frames=\"40\"}}{{anim id=\"Hello\" target=\"actor\" targetSpec=\"\"}}I'll still have this for you\nthen, {{string value=\"6\"}}.",
      "USes": "{{anim id=\"Aha\" target=\"actor\" targetSpec=\"\"}}¡Rábanos!{{delay20}} Tienes los bolsillos muy\nllenos, flor.{{delay20}}{{anim id=\"WrySmile\" target=\"actor\" targetSpec=\"\"}} Qué mal momento elegí\npara darte esto{{string value=\"...\"}}\n{{anim id=\"FaintSmile\" target=\"actor\" targetSpec=\"\"}}No te preocupes, que yo la guardo\nhasta que hagas algo de espacio, {{string value=\"6\"}}.",
      "USfr": "{{anim id=\"Oops\" target=\"actor\" targetSpec=\"\"}}Oh,{{delay8}} tes poches sont trop pleines\npour mon cadeau? {{delay frames=\"40\"}}{{anim id=\"Confused\" target=\"actor\" targetSpec=\"\"}}Désolée,{{delay8}} je\nn'avais pas prévu ça.{{pageBreak}}{{anim id=\"EmotEnd\" target=\"actor\" targetSpec=\"\"}}Eh bien, si tu fais de la place,{{delay frames=\"40\"}}{{anim id=\"Hello\" target=\"actor\" targetSpec=\"\"}}\nreviens me voir,{{delay8}} je te le garde en\nattendant, {{string value=\"6\"}}."
    }
  }
]