﻿[
  {
    "label": "001",
    "text": "Genial {{string value=\"NickName\"}}:"
  },
  {
    "label": "002",
    "text": "¡{{capitalizeNextLetter}}{{string value=\"NickName\"}}, campe{{gender2 m=\"ón\" f=\"ona\"}}!"
  },
  {
    "label": "003",
    "text": "Colega {{string value=\"NickName\"}}:"
  },
  {
    "label": "004",
    "text": "Fiera {{string value=\"NickName\"}}:"
  },
  {
    "label": "005",
    "text": "Respetad{{gender2 m=\"o\" f=\"a\"}} rival {{string value=\"NickName\"}}:"
  },
  {
    "label": "006",
    "text": "¡{{capitalizeNextLetter}}{{string value=\"NickName\"}}!"
  },
  {
    "label": "101",
    "text": "¡Te portaste como {{gender2 m=\"un\" f=\"una\"}} campe{{gender2 m=\"ón\" f=\"ona\"}}\ncon el regalo de cumple que me\ndiste! No me esperaba algo tan\noriginal. Esto que te envío no llega\na tanto nivel, pero espero que lo\ndisfrutes."
  },
  {
    "label": "102",
    "text": "¡Me encantó el regalo que me\nenviaste por mi cumpleaños!\nRespondo ese balonazo con\nun tiro directitíto al arco con\neste regalo que espero que\nte guste."
  },
  {
    "label": "103",
    "text": "Tu regalo de cumpleaños me\ndemostró olímpicamente cuánto\nme aprecias. Ahora me toca a mí\ndemostrarte que también tengo\nel sentido de la generosidad bien\ntonificado. ¡Disfruta este regalazo!"
  },
  {
    "label": "104",
    "text": "¡Te llevas la medalla de oro\npor acordarte de mi cumple!\n¡Entrenaré bien la memoria\npara felicitarte en el tuyo!\nUnas sentadillas mentales\nserán lo ideal en este caso."
  },
  {
    "label": "105",
    "text": "Tu tarjeta de cumpleaños fue un\ndetalle brutal. Es un orgullo que\nla gente sepa en qué día logro\nnuevas marcas de edad. ¡Estoy\ndecidido en volverla a batir el\naño siguiente!"
  },
  {
    "label": "106",
    "text": "Me emocionó tanto tu felicitación\nde cumple que me llevo la tarjeta\nconmigo a mis entrenamientos.\nCuando siento que me fallan\nlas fuerzas, vuelvo a leerla y...\n¡zas! ¡Otras mil acuabdominales!"
  },
  {
    "label": "201",
    "text": "Entrenadamente, {{string value=\"VillagerName\"}}"
  },
  {
    "label": "202",
    "text": "¡A trotar! {{string value=\"VillagerName\"}}"
  },
  {
    "label": "203",
    "text": "{{string value=\"VillagerName\"}}"
  },
  {
    "label": "204",
    "text": "¡Fuerza! {{string value=\"VillagerName\"}}"
  },
  {
    "label": "205",
    "text": "¡Felices trotes! {{string value=\"VillagerName\"}}"
  },
  {
    "label": "206",
    "text": "Agradecidamente, {{string value=\"VillagerName\"}}"
  }
]