﻿[
  {
    "label": "002",
    "attribute": "0x00000000",
    "text": "{{anim id=\"Serious\" target=\"actor\" targetSpec=\"\"}}{{ruby charSpan=\"1\" value=\"はじ\"}}初めて　お{{ruby charSpan=\"1\" value=\"あ\"}}会いした{{ruby charSpan=\"1\" value=\"とき\"}}時から　{{delay8}}あなたには{{delay20}}\n{{anim id=\"Nodding\" target=\"actor\" targetSpec=\"\"}}{{ruby charSpan=\"1\" value=\"ゆめ\"}}夢を{{ruby charSpan=\"2\" value=\"じつげん\"}}実現する　{{ruby charSpan=\"1\" value=\"つよ\"}}強い{{ruby charSpan=\"1\" value=\"ちから\"}}力を　{{ruby charSpan=\"1\" value=\"かん\"}}感じておりました{{delay frames=\"40\"}}\n{{anim id=\"FaintSmile\" target=\"actor\" targetSpec=\"\"}}{{ruby charSpan=\"1\" value=\"すべ\"}}全て　お{{ruby charSpan=\"1\" value=\"まか\"}}任せいたします"
  },
  {
    "label": "003",
    "attribute": "0x01000000",
    "text": "{{anim id=\"Serious\" target=\"actor\" targetSpec=\"\"}}そうですわね{{string value=\"...\"}}{{delay20}}\nどちらでも　{{ruby charSpan=\"2\" value=\"ゆめみ\"}}夢見は{{ruby charSpan=\"1\" value=\"よ\"}}良さそうですが{{delay20}}\n{{anim id=\"Hello\" target=\"actor\" targetSpec=\"\"}}オススメは　どちらでしょうか？"
  },
  {
    "label": "003_01",
    "attribute": "0x00000000",
    "text": "{{anim id=\"Smiling\" target=\"actor\" targetSpec=\"\"}}{{ruby charSpan=\"2\" value=\"こんかい\"}}今回は　{{ruby charSpan=\"1\" value=\"ゆめ\"}}夢のような　お{{ruby charSpan=\"1\" value=\"はなし\"}}話をいただき{{delay8}}\nありがとうございます{{delay frames=\"50\"}}\n{{anim id=\"Nodding\" target=\"actor\" targetSpec=\"\"}}よろしくお{{ruby charSpan=\"1\" value=\"ねが\"}}願いしますわね"
  },
  {
    "label": "003_03",
    "attribute": "0x00000000",
    "text": "{{anim id=\"Smiling\" target=\"actor\" targetSpec=\"\"}}まぁ{{string value=\"...\"}}ステキな{{ruby charSpan=\"2\" value=\"ばしょ\"}}場所ですこと{{delay frames=\"50\"}}\n{{anim id=\"EmotEnd\" target=\"actor\" targetSpec=\"\"}}プロのあなたが{{ruby charSpan=\"2\" value=\"めき\"}}目利きして　{{ruby charSpan=\"1\" value=\"えら\"}}選んでくださった\n{{ruby charSpan=\"2\" value=\"ばしょ\"}}場所なら　{{delay8}}{{anim id=\"Nodding\" target=\"actor\" targetSpec=\"\"}}わたくしも{{ruby charSpan=\"2\" value=\"あんしん\"}}安心ですわ"
  },
  {
    "label": "003_04",
    "attribute": "0x00000000",
    "text": "こちらこそ、また　{{ruby charSpan=\"1\" value=\"ゆめ\"}}夢のような{{ruby charSpan=\"2\" value=\"じかん\"}}時間を\n{{ruby charSpan=\"1\" value=\"す\"}}過ごせるとあって　{{delay20}}{{anim id=\"Nodding\" target=\"actor\" targetSpec=\"\"}}{{ruby charSpan=\"1\" value=\"たの\"}}楽しみにして{{ruby charSpan=\"1\" value=\"まい\"}}参りました{{delay frames=\"40\"}}\n{{anim id=\"Smiling\" target=\"actor\" targetSpec=\"\"}}よろしくお{{ruby charSpan=\"1\" value=\"ねが\"}}願いしますわね"
  },
  {
    "label": "003_a",
    "attribute": "0x00000000",
    "text": "1{{ruby charSpan=\"2\" value=\"かいだ\"}}階建て"
  },
  {
    "label": "003_b",
    "attribute": "0x00000000",
    "text": "2{{ruby charSpan=\"2\" value=\"かいだ\"}}階建て"
  },
  {
    "label": "004",
    "attribute": "0x00000000",
    "text": "{{anim id=\"Smiling\" target=\"actor\" targetSpec=\"\"}}そうですか{{delay40}}\n{{anim id=\"Nodding\" target=\"actor\" targetSpec=\"\"}}では{{delay20}}　1{{ruby charSpan=\"2\" value=\"かいだ\"}}階建てで　お{{ruby charSpan=\"1\" value=\"ねが\"}}願いしますわね"
  },
  {
    "label": "005",
    "attribute": "0x00000000",
    "text": "{{anim id=\"Smiling\" target=\"actor\" targetSpec=\"\"}}そうですか{{delay40}}\n{{anim id=\"Nodding\" target=\"actor\" targetSpec=\"\"}}では{{delay20}}　2{{ruby charSpan=\"2\" value=\"かいだ\"}}階建てで　お{{ruby charSpan=\"1\" value=\"ねが\"}}願いしますわね"
  }
]