﻿[
  {
    "label": "001",
    "text": "Mi muy querid{{gender2 m=\"o\" f=\"a\"}} {{string value=\"NickName\"}}:"
  },
  {
    "label": "002",
    "text": "Querid{{gender2 m=\"o\" f=\"a\"}} {{string value=\"NickName\"}}:"
  },
  {
    "label": "003",
    "text": "Queridit{{gender2 m=\"o\" f=\"a\"}} {{string value=\"NickName\"}}:"
  },
  {
    "label": "004",
    "text": "{{capitalizeNextLetter}}{{string value=\"NickName\"}}, cariño:"
  },
  {
    "label": "005",
    "text": "{{capitalizeNextLetter}}{{string value=\"NickName\"}}, encanto:"
  },
  {
    "label": "006",
    "text": "¡{{capitalizeNextLetter}}{{string value=\"NickName\"}}, cielito!"
  },
  {
    "label": "101",
    "text": "Te agradezco enormemente\nel regalo y la felicitación, ¡has\nlogrado que este cumpleaños\nsea el más feliz de todos! Se me\nocurrió compartir esa dicha y por\neso anexo un detalle."
  },
  {
    "label": "102",
    "text": "Me alegró recibir tu felicitación,\n¡y además un regalo! Me pareció\nun detalle di-vi-no. Yo también\nquiero sorprenderte y por eso\nte envío un detalle, aunque el\ncumpleaños haya sido mío."
  },
  {
    "label": "103",
    "text": "Me llegaron sin problemas tu\nfelicitación de cumpleaños y el\nregalo. Es bonito que se acuerden\nde una en las fechas especiales.\nBueno, en las normales también,\ny por eso te adjunto un regalo."
  },
  {
    "label": "104",
    "text": "Ya estoy resignada a hacerme\nmayor, no pasa nada, y menos si\nes rodeada de amig{{gender2 m=\"o\" f=\"a\"}}s tan atent{{gender2 m=\"o\" f=\"a\"}}s\ncomo tú. Gracias por la felicitación\nde cumpleaños, ¡me pareció un\ndetalle divino!"
  },
  {
    "label": "105",
    "text": "En el ajetreo de un cumpleaños\na veces se nos olvida lo más\nimportante: ¡disfrutar! No ha sido\nasí esta vez. He tenido un día\nestupendo, y en parte ha sido\ngracias a ti y a tu felicitación."
  },
  {
    "label": "106",
    "text": "Te has acordado de mi cumpleaños,\n¡no se te escapa una! Gracias por\nescribir. Confieso que me emocioné\ncuando abrí el buzón. Pero te lo\ncuento a ti en confianza, ¿eh?\nSerá nuestro secreto."
  },
  {
    "label": "201",
    "text": "Atentamente, {{string value=\"VillagerName\"}}"
  },
  {
    "label": "202",
    "text": "¡Sorpresa! {{string value=\"VillagerName\"}}"
  },
  {
    "label": "203",
    "text": "Atentamente, {{string value=\"VillagerName\"}}"
  },
  {
    "label": "204",
    "text": "Emocionada, {{string value=\"VillagerName\"}}"
  },
  {
    "label": "205",
    "text": "Agradecida, {{string value=\"VillagerName\"}}"
  },
  {
    "label": "206",
    "text": "Amiga y confidente {{string value=\"VillagerName\"}}"
  }
]