﻿[
  {
    "label": "001",
    "text": "와아～ {{string value=\"4\"}}{{gender5 m=\"아\" f=\"야\"}}!"
  },
  {
    "label": "002",
    "text": "있지이, {{string value=\"4\"}}{{gender5 m=\"아\" f=\"야\"}}!"
  },
  {
    "label": "003",
    "text": "안녕～! {{string value=\"4\"}}{{gender5 m=\"아\" f=\"야\"}}!"
  },
  {
    "label": "004",
    "text": "에헤헤～ {{string value=\"4\"}}{{gender5 m=\"아\" f=\"야\"}}!"
  },
  {
    "label": "005",
    "text": "얏호～ {{string value=\"4\"}}{{gender5 m=\"아\" f=\"야\"}}～"
  },
  {
    "label": "006",
    "text": "짜잔～! {{string value=\"4\"}}{{gender5 m=\"아\" f=\"야\"}}!"
  },
  {
    "label": "101",
    "text": "생일 축하 카드 넘 고마워어!\n나 정말 감동했어～!\n게다가 선물까지 주다니 짱이야아～\n이건 보답으로 주는 선물!\n니 맘에 들면 좋겠다아～"
  },
  {
    "label": "102",
    "text": "축하 카드 고마워어～!\n생일 선물을 정성이 담긴\n메시지 카드로 받다니이\n어쩐지 멋지다아～\n보답으로 선물을 보내니까아\n잘 받아줘어!"
  },
  {
    "label": "103",
    "text": "{{string value=\"4\"}}{{gender5 m=\"아\" f=\"야\"}}!\n너가 골라준 선물 말야아,\n내 맘에 쏙 들더라구우～!\n너가 좋아할 만한 걸 찾았으니까아\n보답으로 나도 선물을 보낼게에～\n너가 기뻐하면 좋겠다아!"
  },
  {
    "label": "104",
    "text": "생일에 너한테서\n생일 축하 카드가 와서\n나 깜짝 놀랐지 뭐야아～\n한 걸음 더 어른에 다가선\n새로운 {{string value=\"VillagerName\"}}{{gender5 m=\"이\" f=\"\"}}랑\n앞으로도 사이좋게 지내줘어～!"
  },
  {
    "label": "105",
    "text": "생일 축하 카드 고마워어～!\n니가 보낸 멋진 메시지\n정말 기뻤어～\n담번 생일이 올 때까지\n1년 동안 다시 열심히 해야지이～\n우리 같이 힘내자아～!"
  },
  {
    "label": "106",
    "text": "생일 카드 잘 받았어～!\n난 생일이 넘 좋더라아～\n왜냐면 애들한테서\n축하한다는 말을\n많이 들을 수 있잖아～\n{{string value=\"4\"}}{{gender5 m=\"아\" f=\"야\"}}, 고마워어!"
  },
  {
    "label": "201",
    "text": "기운이 넘치는 {{string value=\"VillagerName\"}}{{gender6 m=\"으로\" f=\"로\"}}부터"
  },
  {
    "label": "202",
    "text": "방긋방긋 {{string value=\"VillagerName\"}}{{gender6 m=\"으로\" f=\"로\"}}부터"
  },
  {
    "label": "203",
    "text": "담에 또 보자아～ {{string value=\"VillagerName\"}} 보냄"
  },
  {
    "label": "204",
    "text": "그럼 안녕～ {{string value=\"VillagerName\"}} 보냄"
  },
  {
    "label": "205",
    "text": "낮잠꾸러기 {{string value=\"VillagerName\"}}"
  },
  {
    "label": "206",
    "text": "부끄럼쟁이 {{string value=\"VillagerName\"}}{{gender6 m=\"으로\" f=\"로\"}}부터"
  }
]