﻿[
  {
    "label": "001",
    "attribute": "0x0000020000000000",
    "text": "{{anim id=\"Thinking\" target=\"actor\" targetSpec=\"\"}}Oh.{{delay20}} Où est-ce que j'ai bien pu\nlaisser mon sac?{{delay40}} {{anim id=\"Worried\" target=\"actor\" targetSpec=\"\"}}J'ai dû le perdre quelque part{{string value=\"...\"}}"
  },
  {
    "label": "001_a",
    "attribute": "0x0000000000000000",
    "text": "{{anim id=\"EmotEnd\" target=\"actor\" targetSpec=\"\"}}Je peux le chercher."
  },
  {
    "label": "001_b",
    "attribute": "0x0000000000000000",
    "text": "{{anim id=\"EmotEnd\" target=\"actor\" targetSpec=\"\"}}C'est dommage."
  },
  {
    "label": "002",
    "attribute": "0x0000020000000000",
    "text": "{{anim id=\"Worried\" target=\"actor\" targetSpec=\"\"}}Y'a {{delay20}}pas{{delay20}} moyen! {{delay20}}J'ai perdu mon\nsac préféré?!{{delay40}} {{anim id=\"SadSpiral\" target=\"actor\" targetSpec=\"\"}}Allez, c'est pas cool...\nArgh! {{delay20}}C'est {{delay40}}la fin {{delay40}}{{anim id=\"Crying\" target=\"actor\" targetSpec=\"\"}}des haricots!"
  },
  {
    "label": "002_a",
    "attribute": "0x0000000000000000",
    "text": "{{anim id=\"EmotEnd\" target=\"actor\" targetSpec=\"\"}}Je m'en charge!"
  },
  {
    "label": "002_b",
    "attribute": "0x0000000000000000",
    "text": "{{anim id=\"Nodding\" target=\"actor\" targetSpec=\"\"}}Quel malheur..."
  },
  {
    "label": "003",
    "attribute": "0x0000020000000000",
    "text": "{{anim id=\"QuestionMark\" target=\"actor\" targetSpec=\"\"}}T'as pas vu mon sac, par hasard?{{delay40}}\n{{anim id=\"Thinking\" target=\"actor\" targetSpec=\"\"}}Il a dû tomber quelque part{{string value=\"...\"}}{{delay20}}\n{{anim id=\"BrokenHeart\" target=\"actor\" targetSpec=\"\"}}Oh non! Faut que je le retrouve!"
  },
  {
    "label": "003_a",
    "attribute": "0x0000000000000000",
    "text": "{{anim id=\"EmotEnd\" target=\"actor\" targetSpec=\"\"}}Je vais le chercher."
  },
  {
    "label": "003_b",
    "attribute": "0x0000000000000000",
    "text": "{{anim id=\"Nodding\" target=\"actor\" targetSpec=\"\"}}Ça t'apprendra..."
  },
  {
    "label": "004",
    "attribute": "0x0000020000000000",
    "text": "{{anim id=\"Confused\" target=\"actor\" targetSpec=\"\"}}Où est-ce que j'ai bien pu oublier\nmon sac?{{delay40}} {{anim id=\"Sighing\" target=\"actor\" targetSpec=\"\"}}Tu parles d'une\ntête en l'air{{string value=\"...\"}}"
  },
  {
    "label": "004_a",
    "attribute": "0x0000000000000000",
    "text": "{{anim id=\"EmotEnd\" target=\"actor\" targetSpec=\"\"}}Je vais te le rapporter."
  },
  {
    "label": "004_b",
    "attribute": "0x0000000000000000",
    "text": "{{anim id=\"EmotEnd\" target=\"actor\" targetSpec=\"\"}}Il a dû s'enfuir."
  },
  {
    "label": "006",
    "attribute": "0x0000020000000000",
    "text": "{{anim id=\"Worried\" target=\"actor\" targetSpec=\"\"}}J'avais commencé à lire cette bédé\nsur une fille qui voulait percer dans\nle showbiz{{string value=\"...\"}} Mais je l'ai perdue!{{pageBreak}}{{anim id=\"Worried\" target=\"actor\" targetSpec=\"\"}}Il faut que je la retrouve!{{delay20}} Je DOIS\nsavoir comment elle va s'en sortir!{{pageBreak}}{{anim id=\"Frantic\" target=\"actor\" targetSpec=\"\"}}J'ai cherché partout,{{delay20}} mais pas\nmoyen de remettre la main dessus!"
  },
  {
    "label": "006_a",
    "attribute": "0x0000000000000000",
    "text": "{{anim id=\"EmotEnd\" target=\"actor\" targetSpec=\"\"}}Tu veux que je t'aide?"
  },
  {
    "label": "006_b",
    "attribute": "0x0000000000000000",
    "text": "{{anim id=\"EmotEnd\" target=\"actor\" targetSpec=\"\"}}Quelle catastrophe..."
  },
  {
    "label": "007",
    "attribute": "0x0000020000000000",
    "text": "{{anim id=\"SadSpiral\" target=\"actor\" targetSpec=\"\"}}Où est-ce que j'ai bien pu laisser\ncette bédé{{string value=\"...\"}} {{delay20}}{{anim id=\"Worried\" target=\"actor\" targetSpec=\"\"}}Elle doit être quelque\npart, c'est pas possible autrement!"
  },
  {
    "label": "007_a",
    "attribute": "0x0000000000000000",
    "text": "{{anim id=\"EmotEnd\" target=\"actor\" targetSpec=\"\"}}Laisse-moi t'aider!"
  },
  {
    "label": "007_b",
    "attribute": "0x0000000000000000",
    "text": "{{anim id=\"Nodding\" target=\"actor\" targetSpec=\"\"}}Dommage..."
  },
  {
    "label": "008",
    "attribute": "0x0000020000000000",
    "text": "{{anim id=\"Worried\" target=\"actor\" targetSpec=\"\"}}J'ai cherché partout.{{delay40}} Par{{delay20}}tout.\n{{anim id=\"SadSpiral\" target=\"actor\" targetSpec=\"\"}}Mais impossible de mettre la main sur mon carnet d'autographes{{string value=\"...\"}}\n{{anim id=\"SadSpiral\" target=\"actor\" targetSpec=\"\"}}Mon précieux carnet{{string value=\"...\"}}"
  },
  {
    "label": "008_a",
    "attribute": "0x0000000000000000",
    "text": "{{anim id=\"EmotEnd\" target=\"actor\" targetSpec=\"\"}}Je m'en occupe!"
  },
  {
    "label": "008_b",
    "attribute": "0x0000000000000000",
    "text": "{{anim id=\"Nodding\" target=\"actor\" targetSpec=\"\"}}Tu en feras un autre!"
  },
  {
    "label": "009",
    "attribute": "0x0000020000000000",
    "text": "{{anim id=\"Worried\" target=\"actor\" targetSpec=\"\"}}Mon{{string value=\"...\"}} {{delay40}}mon carnet d'autographes!\nComment j'ai bien pu faire pour le\nperdre?!{{delay20}}\n{{anim id=\"SadSpiral\" target=\"actor\" targetSpec=\"\"}}Qu'est-ce{{delay20}} que {{delay20}}je{{delay20}} vais{{delay20}} devenir?"
  },
  {
    "label": "009_a",
    "attribute": "0x0000000000000000",
    "text": "{{anim id=\"EmotEnd\" target=\"actor\" targetSpec=\"\"}}Je vais le retrouver!"
  },
  {
    "label": "009_b",
    "attribute": "0x0000000000000000",
    "text": "{{anim id=\"EmotEnd\" target=\"actor\" targetSpec=\"\"}}C'est pas si grave..."
  },
  {
    "label": "011",
    "attribute": "0x0000000000000000",
    "text": "{{anim id=\"Aha\" target=\"actor\" targetSpec=\"\"}}Vraiment?!{{delay40}} Tu vas m'aider?\n{{anim id=\"HappyDance\" target=\"actor\" targetSpec=\"\"}}Oh t'es trop un chou!\nMerci {{delay40}}mille {{delay40}}millions de fois!"
  },
  {
    "label": "012",
    "attribute": "0x0000000000000000",
    "text": "{{anim id=\"IdeaBulb\" target=\"actor\" targetSpec=\"\"}}Sérieux? {{delay20}}Si tu m'aidais, ça serait{{string value=\"...\"}}\nmais alors{{string value=\"...\"}}{{delay40}} {{anim id=\"HappyDance\" target=\"actor\" targetSpec=\"\"}}T'es génial{{gender2 m=\"\" f=\"e\"}},\n{{string value=\"NickName\"}}!"
  },
  {
    "label": "013",
    "attribute": "0x0000000000000000",
    "text": "{{anim id=\"Aha\" target=\"actor\" targetSpec=\"\"}}Vraiment? {{delay20}}Tu veux m'aider?!{{delay40}}\n{{anim id=\"Blushing\" target=\"actor\" targetSpec=\"\"}}Oh... C'est méga sympa de ta part!"
  },
  {
    "label": "014",
    "attribute": "0x0000000000000000",
    "text": "{{anim id=\"Aha\" target=\"actor\" targetSpec=\"\"}}Tu veux vraiment m'aider?{{delay40}} {{anim id=\"HappyDance\" target=\"actor\" targetSpec=\"\"}}Merci.\nMerci {{delay8}}mille {{delay8}}millions de fois!{{pageBreak}}{{anim id=\"Nodding\" target=\"actor\" targetSpec=\"\"}}Si on s'y met à deux,{{delay20}} c'est sûr qu'on\n{{anim id=\"Greeting\" target=\"actor\" targetSpec=\"\"}}va le retrouver!"
  },
  {
    "label": "015",
    "attribute": "0x0000000000000000",
    "text": "{{anim id=\"SadSpiral\" target=\"actor\" targetSpec=\"\"}}J'ai aucune idée d'où j'ai pu le\nperdre...{{delay20}} En vrai, ça pourrait être\nn'importe où!"
  },
  {
    "label": "016",
    "attribute": "0x0000000000000000",
    "text": "{{anim id=\"Sighing\" target=\"actor\" targetSpec=\"\"}}{{string value=\"...\"}}{{delay20}} Je peux me lamenter sur mon sort,\n{{delay20}}{{anim id=\"Negative\" target=\"actor\" targetSpec=\"\"}}mais je peux pas rester là sans rien\nfaire.{{delay40}}\nEnfin{{string value=\"...\"}} j'aimerais bien{{string value=\"...\"}} {{anim id=\"Greeting\" target=\"actor\" targetSpec=\"\"}}mais je dois\npo{{delay8}}si{{delay8}}ti{{delay8}}ver!"
  },
  {
    "label": "017",
    "attribute": "0x0000000000000000",
    "text": "{{anim id=\"Nodding\" target=\"actor\" targetSpec=\"\"}}C'est clair!{{delay20}} À partir de maintenant,\nje vais accrocher {{delay20}}mon sac à une\nchaîne, {{delay8}}accroché en tout temps!\n{{delay8}}Enfin, {{delay8}}mon prochain sac{{string value=\"...\"}}"
  },
  {
    "label": "018",
    "attribute": "0x0000000000000000",
    "text": "{{anim id=\"Thinking\" target=\"actor\" targetSpec=\"\"}}On peut dire ça comme ça{{string value=\"...\"}}\n{{anim id=\"Restless\" target=\"actor\" targetSpec=\"\"}}Je vais quand même continuer\nde regarder, juste au cas où{{string value=\"...\"}}"
  },
  {
    "label": "020",
    "attribute": "0x0000000000000000",
    "text": "{{anim id=\"IdeaBulb\" target=\"actor\" targetSpec=\"\"}}Vrai de vrai?!{{delay40}} {{anim id=\"Smiling\" target=\"actor\" targetSpec=\"\"}}Tu me proposes ton\naide? Comme c'est gentil!{{delay40}}\n{{anim id=\"Greeting\" target=\"actor\" targetSpec=\"\"}}Dis-moi quand tu l'auras trouvée!"
  },
  {
    "label": "021",
    "attribute": "0x0000000000000000",
    "text": "{{anim id=\"Eh\" target=\"actor\" targetSpec=\"\"}}Tu... {{delay8}}tu ferais ça pour moi?!{{delay40}}\n{{anim id=\"Love\" target=\"actor\" targetSpec=\"\"}}Comme c'est méga gentil de ta part!{{delay20}}\nMerci tout plein, {{string value=\"NickName\"}}!"
  },
  {
    "label": "022",
    "attribute": "0x0000000000000000",
    "text": "{{anim id=\"Aha\" target=\"actor\" targetSpec=\"\"}}M-{{delay8}}Mais pourquoi tu ferais ça pour\nmoi? {{delay20}}En fait, peu importe!{{delay40}} {{anim id=\"Crying\" target=\"actor\" targetSpec=\"\"}}Merci {{delay20}}de{{delay20}}\nm'aider!{{delay20}} {{size value=\"75\"}}Oh, j'en pleure de joie{{string value=\"...\"}}{{size value=\"100\"}}"
  },
  {
    "label": "023",
    "attribute": "0x0000000000000000",
    "text": "{{anim id=\"Aha\" target=\"actor\" targetSpec=\"\"}}Vrai de vrai? {{delay20}}Genre tu vas m'aider?!{{delay40}}\nOh, merci!{{delay40}} Tu sais que tu es super,\n{{string value=\"NickName\"}}?"
  },
  {
    "label": "024",
    "attribute": "0x0000000000000000",
    "text": "{{anim id=\"Sighing\" target=\"actor\" targetSpec=\"\"}}T'en fais pas{{delay8}}{{string value=\"...\"}}{{delay40}} {{anim id=\"Oops\" target=\"actor\" targetSpec=\"\"}}Je finirai bien par\nremettre la main dessus."
  },
  {
    "label": "025",
    "attribute": "0x0000000000000000",
    "text": "{{anim id=\"Sighing\" target=\"actor\" targetSpec=\"\"}}Bouh{{string value=\"...\"}}{{delay40}} Perdre ses affaires, c'est\nnuuul!{{delay20}} {{anim id=\"Negative\" target=\"actor\" targetSpec=\"\"}}Allez, je vais bien finir par\nla retrouver!"
  },
  {
    "label": "026",
    "attribute": "0x0000000000000000",
    "text": "{{anim id=\"Worried\" target=\"actor\" targetSpec=\"\"}}Ouais, je peux toujours commencer\nun autre carnet{{string value=\"...\"}}{{delay40}} {{anim id=\"Nodding\" target=\"actor\" targetSpec=\"\"}}Mais avant, je vais\n{{delay20}}chercher encore un peu."
  },
  {
    "label": "027",
    "attribute": "0x0000000000000000",
    "text": "{{anim id=\"Restless\" target=\"actor\" targetSpec=\"\"}}Nan, {{delay8}}c'est sûr, {{delay8}}c'est pas {{delay20}}SI grave{{string value=\"...\"}}{{delay20}}\n{{anim id=\"Outraged\" target=\"actor\" targetSpec=\"\"}}Mais j'aime{{delay8}} pas {{delay8}}perdre{{delay8}} mes{{delay8}} affaires!\n{{anim id=\"Hello\" target=\"actor\" targetSpec=\"\"}}Allez, {{delay8}}je vais chercher encore un peu."
  },
  {
    "label": "101",
    "attribute": "0x0000020000000000",
    "text": "{{anim id=\"ShyBoy\" target=\"actor\" targetSpec=\"\"}}C'est pas vrai{{string value=\"...\"}} {{anim id=\"QuestionMark\" target=\"actor\" targetSpec=\"\"}}Dis, t'aurais pas vu\nmon sac?{{pageBreak}}{{anim id=\"Worried\" target=\"actor\" targetSpec=\"\"}}Tout à l'heure,{{delay8}} je l'avais,{{delay20}} et pis\nmaintenant,{{delay8}} ben je l'ai plus{{string value=\"...\"}}{{pageBreak}}Et impossible de me rappeler où j'ai\npu le mettre!"
  },
  {
    "label": "101_a",
    "attribute": "0x0000000000000000",
    "text": "{{anim id=\"EmotEnd\" target=\"actor\" targetSpec=\"\"}}Je m'en charge!"
  },
  {
    "label": "101_b",
    "attribute": "0x0000000000000000",
    "text": "Aucune idée..."
  },
  {
    "label": "102",
    "attribute": "0x0000020000000000",
    "text": "{{anim id=\"SadSpiral\" target=\"actor\" targetSpec=\"\"}}Bouh{{string value=\"...\"}} {{delay20}}C'est la galère de chez\ngalère! Ce matin, j'ai perdu\nmon sac{{string value=\"...\"}}{{delay20}}\nEt c'est méga pas cool!{{pageBreak}}{{anim id=\"Confused\" target=\"actor\" targetSpec=\"\"}}Disons que dedans, il y avait{{string value=\"...\"}} des\npapiers{{delay20}} perso. {{i10_4}}{{anim id=\"Worried\" target=\"actor\" targetSpec=\"\"}}{{color id=\"4\"}}Oh oh, ça sent\nles gros problèmes, ça{{string value=\"...\"}}{{color id=\"65535\"}}"
  },
  {
    "label": "102_a",
    "attribute": "0x0000000000000000",
    "text": "{{anim id=\"EmotEnd\" target=\"actor\" targetSpec=\"\"}}Tu veux que je t'aide?"
  },
  {
    "label": "102_b",
    "attribute": "0x0000000000000000",
    "text": "{{anim id=\"Nodding\" target=\"actor\" targetSpec=\"\"}}Oh, ça craint..."
  },
  {
    "label": "103",
    "attribute": "0x0000000000000000",
    "text": "{{anim id=\"Aha\" target=\"actor\" targetSpec=\"\"}}Oh, {{delay20}}sérieux, tu m'aiderais à le\nretrouver?!{{delay40}} {{anim id=\"Smiling\" target=\"actor\" targetSpec=\"\"}}C'est méga sympa\nde ta part, {{string value=\"NickName\"}}!\n{{anim id=\"Greeting\" target=\"actor\" targetSpec=\"\"}}J'espère que tu le retrouveras très\nvite!"
  },
  {
    "label": "104",
    "attribute": "0x0000000000000000",
    "text": "{{anim id=\"Worried\" target=\"actor\" targetSpec=\"\"}}Je te le fais pas dire{{string value=\"...\"}}{{delay40}}{{anim id=\"Greeting\" target=\"actor\" targetSpec=\"\"}} Bon ben je\nvais continuer de le chercher toute\nseule{{string value=\"...\"}}"
  },
  {
    "label": "105",
    "attribute": "0x0000000000000000",
    "text": "{{anim id=\"Aha\" target=\"actor\" targetSpec=\"\"}}Tu m'aiderais à le chercher?!{{delay40}} {{anim id=\"Blushing\" target=\"actor\" targetSpec=\"\"}}C'est\nsuper gentil, {{string value=\"NickName\"}}!\nDis-moi si tu le retrouves, d'accord?"
  },
  {
    "label": "106",
    "attribute": "0x0000000000000000",
    "text": "{{anim id=\"Sighing\" target=\"actor\" targetSpec=\"\"}}Snif{{string value=\"...\"}}{{delay40}} C'était mon sac préféré,\nen plus!{{delay20}} {{anim id=\"Crying\" target=\"actor\" targetSpec=\"\"}}Bouh, j'ai trop pas\nmérité ça!"
  },
  {
    "label": "201",
    "attribute": "0x0000020000000000",
    "text": "{{anim id=\"Confused\" target=\"actor\" targetSpec=\"\"}}Oh, {{delay20}}{{string value=\"NickName\"}}!{{delay40}} Tu aurais deux minutes?{{anim id=\"Worried\" target=\"actor\" targetSpec=\"\"}} Imagine, j'ai perdu mon carnet d'autographes!{{pageBreak}}{{anim id=\"Sighing\" target=\"actor\" targetSpec=\"\"}}Y'en a un de {{delay20}}{{color id=\"3\"}}Kéké{{color id=\"65535\"}}, dedans, en plus!\n{{delay40}}{{anim id=\"Frantic\" target=\"actor\" targetSpec=\"\"}}Tu vois le problème? Où est-ce que\nj'ai bien pu le mettre{{string value=\"...\"}}?"
  },
  {
    "label": "201_a",
    "attribute": "0x0000000000000000",
    "text": "{{anim id=\"EmotEnd\" target=\"actor\" targetSpec=\"\"}}Je le retrouverai!"
  },
  {
    "label": "201_b",
    "attribute": "0x0000000000000000",
    "text": "{{anim id=\"Nodding\" target=\"actor\" targetSpec=\"\"}}C'est embêtant."
  },
  {
    "label": "202",
    "attribute": "0x0000020000000000",
    "text": "{{anim id=\"QuestionMark\" target=\"actor\" targetSpec=\"\"}}Tu te souviens de mon incroyable\ncarnet d'autographes?{{delay40}} Figure-toi\nque je l'ai perdu{{string value=\"...\"}}\n{{anim id=\"Confused\" target=\"actor\" targetSpec=\"\"}}J'ai cherché partout au moins deux\nfois, mais pas moyen de remettre la\npatte dessus!{{pageBreak}}{{anim id=\"SadSpiral\" target=\"actor\" targetSpec=\"\"}}Snif! {{delay40}}C'est trop injuste!{{delay40}} {{anim id=\"Crying\" target=\"actor\" targetSpec=\"\"}}Qu'est-ce\nque j'ai fait pour mériter de le\nperdre?"
  },
  {
    "label": "202_a",
    "attribute": "0x0000000000000000",
    "text": "{{anim id=\"EmotEnd\" target=\"actor\" targetSpec=\"\"}}Je t'aide à le trouver?"
  },
  {
    "label": "202_b",
    "attribute": "0x0000000000000000",
    "text": "{{anim id=\"Nodding\" target=\"actor\" targetSpec=\"\"}}C'est pas si grave..."
  },
  {
    "label": "203",
    "attribute": "0x0000000000000000",
    "text": "{{anim id=\"Aha\" target=\"actor\" targetSpec=\"\"}}Tu ferais ça pour moi?!{{delay40}} {{anim id=\"Blushing\" target=\"actor\" targetSpec=\"\"}}Ce serait le\ntruc le plus gentil qu'on m'aurait fait\naujourd'hui, {{string value=\"NickName\"}}!{{delay40}}\nJe savais que je pouvais compter sur\ntoi!"
  },
  {
    "label": "204",
    "attribute": "0x0000000000000000",
    "text": "{{anim id=\"OhGeez\" target=\"actor\" targetSpec=\"\"}}Nan, c'est pas grave. Il va juste\nfalloir que je récupère tous ces\nautographes encore une fois{{string value=\"...\"}}\nJe ferais mieux de m'y mettre tout\nde suite... {{color id=\"4\"}}Bon, comment je vais\néviter les gardes de sécurité...{{color id=\"65535\"}}"
  },
  {
    "label": "205",
    "attribute": "0x0000000000000000",
    "text": "{{anim id=\"Aha\" target=\"actor\" targetSpec=\"\"}}Oh! {{delay40}}Pour de vrai?!{{delay40}} {{anim id=\"Blushing\" target=\"actor\" targetSpec=\"\"}}Cool! Merci\npour ton aide et bonnes recherches!"
  },
  {
    "label": "206",
    "attribute": "0x0000000000000000",
    "text": "{{anim id=\"Worried\" target=\"actor\" targetSpec=\"\"}}Nan, c'est sûr{{string value=\"...\"}}{{delay40}}{{anim id=\"Negative\" target=\"actor\" targetSpec=\"\"}} Tu sais quoi? Au\nlieu de me lamenter, {{anim id=\"Greeting\" target=\"actor\" targetSpec=\"\"}}je vais continuer\nmes recherches toute seule!"
  }
]