﻿[
  {
    "label": "001",
    "text": "cuarto principal"
  },
  {
    "label": "002",
    "text": "cuarto derecho"
  },
  {
    "label": "003",
    "text": "cuarto izquierdo"
  },
  {
    "label": "004",
    "text": "cuarto de atrás"
  },
  {
    "label": "005",
    "text": "ático"
  },
  {
    "label": "006",
    "text": "sótano"
  },
  {
    "label": "007",
    "text": "cuarto principal"
  }
]