﻿[
  {
    "label": "001",
    "attribute": "0x0000000000000000",
    "text": "{{anim id=\"HappyDance\" target=\"actor\" targetSpec=\"\"}}Vandaag is de Beestjesbeker!{{delay40}} {{anim id=\"Smiling\" target=\"actor\" targetSpec=\"\"}}Ik kan\nniet wachten om vrienden te worden\nmet allerlei nieuwe beestjes!"
  },
  {
    "label": "002",
    "attribute": "0x0000000000000000",
    "text": "{{anim id=\"FaintSmile\" target=\"actor\" targetSpec=\"\"}}De Beestjesbeker begint straks!{{delay40}}\nIk ben benieuwd wat voor nieuwe\nbeestjes ik vind! {{capitalizeNextLetter}}{{string value=\"6\"}}!"
  },
  {
    "label": "003",
    "attribute": "0x0000000000000000",
    "text": "De Beestjesbeker begint om 9:00\nuur. Maar ik wil best nu al beginnen.{{delay20}}\n{{anim id=\"HappyDance\" target=\"actor\" targetSpec=\"\"}}Alle beestjes wachten op me!"
  },
  {
    "label": "004",
    "attribute": "0x0000000000000000",
    "text": "{{anim id=\"Greeting\" target=\"actor\" targetSpec=\"\"}}De Beestjesbeker is begonnen. {{anim id=\"Explain\" target=\"actor\" targetSpec=\"\"}}Je\nkunt het beste gelijk beginnen, zodat\nje later nog tijd hebt om te luieren."
  },
  {
    "label": "005",
    "attribute": "0x0000000000000000",
    "text": "{{anim id=\"Smiling\" target=\"actor\" targetSpec=\"\"}}Ik heb in mijn dromen geoefend om\nbeestjes te vangen.{{anim id=\"AbsentMindedness\" target=\"actor\" targetSpec=\"\"}} Mijn zakken\npuilden ervan uit."
  },
  {
    "label": "006",
    "attribute": "0x0000000000000000",
    "text": "{{anim id=\"Hello\" target=\"actor\" targetSpec=\"\"}}Veel plezier bij de Beestjesbeker, {{string value=\"NickName\"}}!{{i10_4}}{{anim id=\"Smiling\" target=\"actor\" targetSpec=\"\"}} Vandaag speel ik tikkertje met alle beestjes.{{anim id=\"HappyFlower\" target=\"actor\" targetSpec=\"\"}} Hihihi!"
  },
  {
    "label": "007",
    "attribute": "0x0000000000000000",
    "text": "{{anim id=\"HappyDance\" target=\"actor\" targetSpec=\"\"}}De Beestjesbeker was leuk!{{delay40}} Ik heb{{delay20}}\n{{anim id=\"BigSmile\" target=\"actor\" targetSpec=\"\"}}een beetje{{delay8}} rondgehangen{{delay8}} en{{delay8}} met{{delay8}} de{{delay8}}\nbeestjes{{delay20}} over het leven gepraat."
  },
  {
    "label": "008",
    "attribute": "0x0000000000000000",
    "text": "{{anim id=\"Smiling\" target=\"actor\" targetSpec=\"\"}}Hoe ging het tijdens de\nBeestjesbeker?{{delay frames=\"60\"}}{{anim id=\"QuestionMark\" target=\"actor\" targetSpec=\"\"}} Heb je veel\ngevangen?{{pageBreak}}{{anim id=\"Laughing\" target=\"actor\" targetSpec=\"\"}}Ik heb de hele dag alleen maar met\nde beestjes gespeeld. Het was\ngeweldig!"
  },
  {
    "label": "009",
    "attribute": "0x0000000000000000",
    "text": "{{anim id=\"FaintSmile\" target=\"actor\" targetSpec=\"\"}}De Beestjesbeker is alweer voorbij.{{delay40}}\nHet is tijd voor ons en de beestjes{{delay20}}\n{{anim id=\"BigSmile\" target=\"actor\" targetSpec=\"\"}}om naar huis te gaan.{{delay8}}{{anim id=\"FaintSmile\" target=\"actor\" targetSpec=\"\"}}"
  },
  {
    "label": "010",
    "attribute": "0x0000000000000000",
    "text": "{{anim id=\"Explain\" target=\"actor\" targetSpec=\"\"}}Ik zag net een beestje,{{delay8}} maar het\nvloog weg voordat ik het kon aaien.\n{{anim id=\"Sighing\" target=\"actor\" targetSpec=\"\"}}Jammer, hè?"
  },
  {
    "label": "011",
    "attribute": "0x0000000000000000",
    "text": "{{anim id=\"Smiling\" target=\"actor\" targetSpec=\"\"}}Tijdens de Beestjesbeker leer ik altijd\nnieuwe dingen over het gedrag en\nhet lievelingssnoep van beestjes."
  },
  {
    "label": "012",
    "attribute": "0x0000000000000000",
    "text": "{{anim id=\"HappyDance\" target=\"actor\" targetSpec=\"\"}}Tijd om wat beestjes te vangen,\ntegen ze te praten, tikkertje met ze\nte spelen en ze snoep te geven{{string value=\"...\"}}{{pageBreak}}{{anim id=\"Explain\" target=\"actor\" targetSpec=\"\"}}De Beestjesbeker is een speciaal\nevenement dat voor iedereen een\nandere betekenis heeft."
  },
  {
    "label": "013",
    "attribute": "0x0000000000000000",
    "text": "{{anim id=\"Smiling\" target=\"actor\" targetSpec=\"\"}}Beestjes zijn supergoed in tikkertje!{{delay frames=\"80\"}}\nGheghe, nu ben ik aan de beurt!{{delay40}}{{anim id=\"Love\" target=\"actor\" targetSpec=\"\"}} Pas\nmaar op, beestjes! Ik kom eraan!"
  },
  {
    "label": "104",
    "attribute": "0x0000000000000000",
    "text": "{{anim id=\"Smiling\" target=\"actor\" targetSpec=\"\"}}De Beestjesbeker wordt een\nfeest vandaag!{{delay frames=\"40\"}} {{anim id=\"Cheering\" target=\"actor\" targetSpec=\"\"}}Iedere dag is een\nbeestjesfeest voor mij! {{delay20}}Ahaha!{{pageBreak}}{{anim id=\"Explain\" target=\"actor\" targetSpec=\"\"}}En als ik er dan een boel gevangen\nheb{{string value=\"...\"}} {{anim id=\"BigSmile\" target=\"actor\" targetSpec=\"\"}}gaan we samen tikkertje en\nverstoppertje spelen."
  },
  {
    "label": "105",
    "attribute": "0x0000000000000000",
    "text": "{{anim id=\"QuestionMark\" target=\"actor\" targetSpec=\"\"}}Zou iedereen net zoveel zin in de\nBeestjesbeker hebben als ik?{{pageBreak}}{{anim id=\"BigSmile\" target=\"actor\" targetSpec=\"\"}}Dat kan haast niet! {{delay20}}Maar dat maakt\nniks uit, {{string value=\"Catchphrase\"}}!"
  },
  {
    "label": "106",
    "attribute": "0x0000000000000000",
    "text": "{{anim id=\"QuestionMark\" target=\"actor\" targetSpec=\"\"}}Hoe gaat het beestjes vangen bij\njou?{{i10_4}} {{anim id=\"Negative\" target=\"actor\" targetSpec=\"\"}}Hoe ik ervoor sta, kan ik niet\nzeggen.{{pageBreak}}{{anim id=\"WrySmile\" target=\"actor\" targetSpec=\"\"}}Dat is een geheim tussen mij en de\nbeestjes{{string value=\"...\"}}"
  },
  {
    "label": "107",
    "attribute": "0x0000000000000000",
    "text": "{{anim id=\"Smiling\" target=\"actor\" targetSpec=\"\"}}Ik maak me niet druk over de\nBeestjesbeker{{string value=\"...\"}}{{pageBreak}}{{anim id=\"Grin\" target=\"actor\" targetSpec=\"\"}}Ik zwaai gewoon wat heen en weer\nmet mijn net en hoop dat er wat in\nvliegt!"
  },
  {
    "label": "201",
    "attribute": "0x0000000000000000",
    "text": "{{anim id=\"Smiling\" target=\"actor\" targetSpec=\"\"}}Ik ga een supercool beestje vangen\nwaar iedereen van onder de indruk\nzal zijn, {{string value=\"Catchphrase\"}}!{{pageBreak}}{{anim id=\"Explain\" target=\"actor\" targetSpec=\"\"}}Het komt ook mooi uit, want ik zoek\nnog een nieuwe kamergenoot.{{delay20}} Eens\nkijken wat het beestje ervan vindt."
  },
  {
    "label": "202",
    "attribute": "0x0000000000000000",
    "text": "{{anim id=\"Smiling\" target=\"actor\" targetSpec=\"\"}}Ik heb een goed gevoel over de\nBeestjesbeker van vandaag.{{delay8}}{{anim id=\"BigSmile\" target=\"actor\" targetSpec=\"\"}} Ik zal\njullie vinden, beestjes, {{string value=\"Catchphrase\"}}!"
  },
  {
    "label": "203",
    "attribute": "0x0000000000000000",
    "text": "{{anim id=\"Hot\" target=\"actor\" targetSpec=\"\"}}Het wordt een warme Beestjesbeker!{{delay20}}\n{{anim id=\"Serious\" target=\"actor\" targetSpec=\"\"}}Niet vergeten om genoeg te drinken,\noké?{{pageBreak}}{{anim id=\"Explain\" target=\"actor\" targetSpec=\"\"}}Een glas water na iedere milkshake is\ndenk ik voldoende, {{string value=\"Catchphrase\"}}.{{anim id=\"Smiling\" target=\"actor\" targetSpec=\"\"}}"
  },
  {
    "label": "204",
    "attribute": "0x0000000000000000",
    "text": "{{anim id=\"Eh\" target=\"actor\" targetSpec=\"\"}}Is dit de laatste Beestjesbeker van de\nzomer?{{delay8}} Echt?{{delay8}}{{anim id=\"Confused\" target=\"actor\" targetSpec=\"\"}} Ik dacht dat het nog\nsteeds juni was!{{pageBreak}}{{anim id=\"Smiling\" target=\"actor\" targetSpec=\"\"}}Gelukkig hoef ik geen afscheid te\nnemen van de beestjes,{{delay8}} want morgen\nzie ik ze gewoon weer."
  },
  {
    "label": "205",
    "attribute": "0x0000000000000000",
    "text": "{{anim id=\"Smiling\" target=\"actor\" targetSpec=\"\"}}Ik ga een supercool beestje vangen\nwaar iedereen van onder de indruk\nzal zijn, {{string value=\"Catchphrase\"}}!{{pageBreak}}{{anim id=\"Explain\" target=\"actor\" targetSpec=\"\"}}Het komt ook mooi uit, want ik zoek\nnog een nieuwe kamergenoot.{{delay20}} Eens\nkijken wat het beestje ervan vindt."
  },
  {
    "label": "206",
    "attribute": "0x0000000000000000",
    "text": "{{anim id=\"Smiling\" target=\"actor\" targetSpec=\"\"}}Ik heb een goed gevoel over de\nBeestjesbeker van vandaag.{{delay8}}{{anim id=\"BigSmile\" target=\"actor\" targetSpec=\"\"}} Ik zal\njullie vinden, beestjes, {{string value=\"Catchphrase\"}}!"
  },
  {
    "label": "207",
    "attribute": "0x0000000000000000",
    "text": "{{anim id=\"Hot\" target=\"actor\" targetSpec=\"\"}}Het wordt een warme Beestjesbeker!{{delay20}}\n{{anim id=\"Serious\" target=\"actor\" targetSpec=\"\"}}Niet vergeten om genoeg te drinken,\noké?{{pageBreak}}{{anim id=\"Explain\" target=\"actor\" targetSpec=\"\"}}Een glas water na iedere milkshake is\ndenk ik voldoende, {{string value=\"Catchphrase\"}}.{{anim id=\"Smiling\" target=\"actor\" targetSpec=\"\"}}"
  },
  {
    "label": "208",
    "attribute": "0x0000000000000000",
    "text": "{{anim id=\"Eh\" target=\"actor\" targetSpec=\"\"}}Is dit de laatste Beestjesbeker van de\nlente?{{delay8}} Echt?{{delay8}}{{anim id=\"Confused\" target=\"actor\" targetSpec=\"\"}} Dat kan toch niet!{{pageBreak}}{{anim id=\"Smiling\" target=\"actor\" targetSpec=\"\"}}Gelukkig hoef ik geen afscheid te\nnemen van de beestjes,{{delay8}} want morgen\nzie ik ze gewoon weer."
  }
]