﻿[
  {
    "label": "002",
    "attribute": "0x0101",
    "text": "¡De acuerdo!"
  },
  {
    "label": "003",
    "attribute": "0x0102",
    "text": "Cancelar"
  },
  {
    "label": "004",
    "attribute": "0x0102",
    "text": "Ahora no"
  },
  {
    "label": "005",
    "attribute": "0x0103",
    "text": "Siguiente"
  },
  {
    "label": "006",
    "attribute": "0x0104",
    "text": "Atrás"
  },
  {
    "label": "007",
    "attribute": "0x0106",
    "text": "Cerrar"
  },
  {
    "label": "011",
    "attribute": "0x0102",
    "text": "¡Espera, no!"
  },
  {
    "label": "012",
    "attribute": "0x0102",
    "text": "Cambiar"
  },
  {
    "label": "020",
    "attribute": "0x0100",
    "text": "Volver al menú"
  }
]