﻿[
  {
    "label": "001",
    "attribute": "0x0000020000000000",
    "text": "{{anim id=\"Hello\" target=\"actor\" targetSpec=\"\"}}{{capitalizeNextLetter}}{{string value=\"NickName\"}},{{delay8}} ich muss echt sagen... {{delay20}}Fänd's voll angebracht,{{delay8}} wenn wir mal bei dir abhängen.{{pageBreak}}{{anim id=\"Nodding\" target=\"actor\" targetSpec=\"\"}}Fändest du das nich' auch voll töfte,{{delay8}}\nbei dir 'ne neue Nachteulenzweig-\nstelle zu eröffnen, {{delay8}}{{string value=\"Catchphrase\"}}?"
  },
  {
    "label": "001_a",
    "attribute": "0x0000000000000000",
    "text": "Total!"
  },
  {
    "label": "001_b",
    "attribute": "0x0000000000000000",
    "text": "Voll untöfte..."
  },
  {
    "label": "002",
    "attribute": "0x0000020000000000",
    "text": "{{anim id=\"Hello\" target=\"actor\" targetSpec=\"\"}}Gänseblümchen,{{delay8}} wir müssen mehr\ngemeinsam abhängen.{{delay20}} {{anim id=\"Clapping\" target=\"actor\" targetSpec=\"\"}}Also,{{delay8}} nur wir\nbeide, {{delay8}}versteht sich.{{anim id=\"EmotEnd\" target=\"actor\" targetSpec=\"\"}}\n{{anim id=\"Grin\" target=\"actor\" targetSpec=\"\"}}Was hältste denn davon,{{delay8}} wenn ich\ndemnächst bei dir aufschlage?"
  },
  {
    "label": "002_a",
    "attribute": "0x0000000000000000",
    "text": "Dufte Sache!"
  },
  {
    "label": "002_b",
    "attribute": "0x0000000000000000",
    "text": "Bin, äh... beschäftigt..."
  },
  {
    "label": "003",
    "attribute": "0x0000020000000000",
    "text": "{{anim id=\"QuestionMark\" target=\"actor\" targetSpec=\"\"}}Biste die Tage megabeschäftigt,{{delay8}}\n{{string value=\"NickName\"}}?{{delay20}} {{anim id=\"FaintSmile\" target=\"actor\" targetSpec=\"\"}}Oder soll ich mal bei dir reinschneien?"
  },
  {
    "label": "003_a",
    "attribute": "0x0000000000000000",
    "text": "Ich hab Zeit!"
  },
  {
    "label": "003_b",
    "attribute": "0x0000000000000000",
    "text": "So viele Termine..."
  },
  {
    "label": "004",
    "attribute": "0x0000000000000000",
    "text": "{{anim id=\"Negative\" target=\"actor\" targetSpec=\"\"}}Mach Sachen, {{delay8}}{{string value=\"Catchphrase\"}}...{{delay20}}\n{{anim id=\"WrySmile\" target=\"actor\" targetSpec=\"\"}}Aufgeschoben is' aber nich'\naufgehoben,{{delay8}} Gänseblümchen!"
  },
  {
    "label": "005",
    "attribute": "0x0000000000000000",
    "text": "{{anim id=\"Eh\" target=\"actor\" targetSpec=\"\"}}Wenn's dir grad nich' in den Kram\npasst,{{delay8}} komm ich einfach wann\nanders vorbei. {{delay20}}{{anim id=\"Nodding\" target=\"actor\" targetSpec=\"\"}}Kein Ding!"
  },
  {
    "label": "006",
    "attribute": "0x0000000000000000",
    "text": "{{anim id=\"ShyBoy\" target=\"actor\" targetSpec=\"\"}}Meh... {{delay20}}Da hab ich wohl grade\nsportlich deine Zeit verschwendet.{{delay20}}\n{{anim id=\"Laughing\" target=\"actor\" targetSpec=\"\"}}Gahaha!"
  },
  {
    "label": "007",
    "attribute": "0x0000010000000000",
    "text": "{{anim id=\"HappyFlower\" target=\"actor\" targetSpec=\"\"}}Duftomat! {{delay20}}{{anim id=\"FaintSmile\" target=\"actor\" targetSpec=\"\"}}Was meinste, {{delay8}}wann sollen\nwir denn unsere Abhängsession bei\ndir anpeilen?"
  },
  {
    "label": "007_a",
    "attribute": "0x0000000000000000",
    "text": "Jetzt?"
  },
  {
    "label": "007_b",
    "attribute": "0x0000000000000000",
    "text": "Morgen?"
  },
  {
    "label": "008",
    "attribute": "0x0000010000000000",
    "text": "{{anim id=\"Assent\" target=\"actor\" targetSpec=\"\"}}Ach,{{delay8}} Zuckerblümchen. {{delay20}}Ich weiß\nschon,{{delay8}} warum ich dich mag.{{delay20}}\n{{anim id=\"Thinking\" target=\"actor\" targetSpec=\"\"}}Wann passt es dir denn am besten?"
  },
  {
    "label": "008_a",
    "attribute": "0x0000000000000000",
    "text": "In 3, 2, 1... Sofort!"
  },
  {
    "label": "008_b",
    "attribute": "0x0000000000000000",
    "text": "Morgen irgendwann?"
  },
  {
    "label": "009",
    "attribute": "0x0000010000000000",
    "text": "{{anim id=\"Greeting\" target=\"actor\" targetSpec=\"\"}}Du rockst!{{delay20}}{{anim id=\"QuestionMark\" target=\"actor\" targetSpec=\"\"}} Wann genau wär denn\nein guter Zeitpunkt für die Aktion,{{delay8}}\n{{string value=\"Catchphrase\"}}?"
  },
  {
    "label": "009_a",
    "attribute": "0x0000000000000000",
    "text": "Jetzt gleich!"
  },
  {
    "label": "009_b",
    "attribute": "0x0000000000000000",
    "text": "Morgen vielleicht?"
  },
  {
    "label": "101",
    "attribute": "0x0000000000000000",
    "text": "{{anim id=\"Laughing\" target=\"actor\" targetSpec=\"\"}}Warum stehen wir uns hier eigentlich\nLöcher in den Bauch, {{delay8}}{{string value=\"Catchphrase\"}}?{{delay20}}\nAuf geht's!"
  },
  {
    "label": "102",
    "attribute": "0x0000000000000000",
    "text": "{{anim id=\"Nodding\" target=\"actor\" targetSpec=\"\"}}Gänseblümchen. {{delay20}}Bist {{gender2 m=\"ein Mann\" f=\"eine Frau\"}}\nder Tat. {{delay20}}{{anim id=\"EmotEnd\" target=\"actor\" targetSpec=\"\"}}Respekt!"
  },
  {
    "label": "103",
    "attribute": "0x0000000000000000",
    "text": "{{anim id=\"Angry\" target=\"actor\" targetSpec=\"\"}}Attacke!{{delay20}} Lass uns gemeinsam\nzu dir rüberstapfen, {{delay8}}{{string value=\"Catchphrase\"}}."
  },
  {
    "label": "104",
    "attribute": "0x0000000000000000",
    "text": "{{anim id=\"IdeaBulb\" target=\"actor\" targetSpec=\"\"}}Hö?{{delay20}} Das wird's erste Mal sein, {{delay8}}dass\nich mir deine Bude von innen anseh.{{delay frames=\"40\"}}\n{{anim id=\"Negative\" target=\"actor\" targetSpec=\"\"}}Muss man sich mal pressen!"
  },
  {
    "label": "105",
    "attribute": "0x0000000000000000",
    "text": "{{anim id=\"Scheming\" target=\"actor\" targetSpec=\"\"}}Gahaha... {{delay20}}Ich wollte immer schon\nwissen, {{delay8}}wie deine Bude von innen\naussieht."
  },
  {
    "label": "106",
    "attribute": "0x0000000000000000",
    "text": "{{anim id=\"Shocked\" target=\"actor\" targetSpec=\"\"}}Wie?{{delay20}} Wat?{{delay20}} Jetzt?!{{delay20}} {{anim id=\"Restless\" target=\"actor\" targetSpec=\"\"}}Is' schon reichlich\nspät,{{delay8}} und ich hab noch ein wichtiges\nBlumenguerilla-Meeting...\n{{anim id=\"FaintSmile\" target=\"actor\" targetSpec=\"\"}}Was dagegen,{{delay8}} wenn wir unsere\nAbhängsession bei dir verschieben?"
  },
  {
    "label": "201",
    "attribute": "0x0000000000000000",
    "text": "{{anim id=\"Clapping\" target=\"actor\" targetSpec=\"\"}}Fett!{{delay20}} Morgen wäre echt senkrecht!{{anim id=\"EmotEnd\" target=\"actor\" targetSpec=\"\"}}"
  },
  {
    "label": "202",
    "attribute": "0x0000000000000000",
    "text": "{{anim id=\"Nodding\" target=\"actor\" targetSpec=\"\"}}Stabil!{{delay20}} Wir sehn uns dann morgen."
  },
  {
    "label": "203",
    "attribute": "0x0000000000000000",
    "text": "{{anim id=\"SmugFace\" target=\"actor\" targetSpec=\"\"}}Alles klaro! {{delay20}}{{anim id=\"Nodding\" target=\"actor\" targetSpec=\"\"}}Abhängsession morgen\nbei {{string value=\"NickName\"}}.{{delay20}} Is' notiert."
  },
  {
    "label": "204",
    "attribute": "0x0000000000000000",
    "text": "{{anim id=\"Laughing\" target=\"actor\" targetSpec=\"\"}}Gahaha!{{delay20}} Ich freu mich schon wie\nBolle und Oskar, {{delay8}}{{string value=\"Catchphrase\"}}!"
  },
  {
    "label": "205",
    "attribute": "0x0000000000000000",
    "text": "{{anim id=\"Nodding\" target=\"actor\" targetSpec=\"\"}}Jetzt hab ich Hummeln im Hintern.{{delay20}}\n{{anim id=\"Scheming\" target=\"actor\" targetSpec=\"\"}}Am besten bohner ich meinen Boden,{{delay8}}\num runterzukommen, {{delay8}}{{string value=\"Catchphrase\"}}."
  },
  {
    "label": "206",
    "attribute": "0x0000000000000000",
    "text": "{{anim id=\"Nodding\" target=\"actor\" targetSpec=\"\"}}Ich versuche,{{delay8}} zeitig rumzukommen.\n{{capitalizeNextLetter}}{{string value=\"Catchphrase\"}}!"
  },
  {
    "label": "207",
    "attribute": "0x0000000000000000",
    "text": "{{anim id=\"Nodding\" target=\"actor\" targetSpec=\"\"}}Dann find ich auch endlich mal\nheraus,{{delay8}} wie du so haust!{{delay frames=\"40\"}} {{anim id=\"Laughing\" target=\"actor\" targetSpec=\"\"}}Gahaha!"
  },
  {
    "label": "208",
    "attribute": "0x0000000000000000",
    "text": "{{anim id=\"AbsentMindedness\" target=\"actor\" targetSpec=\"\"}}Mal gucken,{{delay8}} ob die Bude von\n{{string value=\"NickName\"}} das Zeug zum\nneuen Nachteulentreff hat...\n{{anim id=\"Scheming\" target=\"actor\" targetSpec=\"\"}}Am besten zeig ich mich von meiner\nschlechtesten Seite.{{delay20}} Dann weiß {{gender2 m=\"er\" f=\"sie\"}}\ndirekt,{{delay8}} was Sache is', {{delay8}}{{string value=\"Catchphrase\"}}!"
  },
  {
    "label": "301",
    "attribute": "0x0000000000000000",
    "text": "{{anim id=\"SmugFace\" target=\"actor\" targetSpec=\"\"}}Mach dich bereit, {{delay8}}Gänseblümchen.{{delay20}}\nMorgen inspiziere ich deine Bude!\n{{delay20}}{{capitalizeNextLetter}}{{string value=\"Catchphrase\"}}!"
  },
  {
    "label": "302",
    "attribute": "0x0000000000000000",
    "text": "{{anim id=\"Grin\" target=\"actor\" targetSpec=\"\"}}Schon mental drauf vorbereitet, {{delay8}}dass\nich morgen deine Bude unsicher\nmache?{{delay20}} {{capitalizeNextLetter}}{{string value=\"Catchphrase\"}}?"
  },
  {
    "label": "303",
    "attribute": "0x0000000000000000",
    "text": "{{anim id=\"Nodding\" target=\"actor\" targetSpec=\"\"}}Hab's nich' vergessen.{{delay20}} Morgen.{{delay20}}\nDeine Bude.{{delay20}} Zeitpunkt: flexibel.\n{{delay20}}{{capitalizeNextLetter}}{{string value=\"Catchphrase\"}}."
  },
  {
    "label": "304",
    "attribute": "0x0000000000000000",
    "text": "Ich schau später bei dir vorbei,{{delay8}}\nalso halt dich bereit, {{delay8}}{{string value=\"Catchphrase\"}}!{{delay20}}\nKneifen wär echt uncool!"
  },
  {
    "label": "305",
    "attribute": "0x0000000000000000",
    "text": "{{anim id=\"Grin\" target=\"actor\" targetSpec=\"\"}}Ich besuch dich nachher,{{delay8}} und dann\nreißen wir die Bude ab! {{delay20}}{{anim id=\"Eh\" target=\"actor\" targetSpec=\"\"}}Hm?{{delay20}} Kennste\nden Spruch etwa nich'?{{delay40}} {{anim id=\"Laughing\" target=\"actor\" targetSpec=\"\"}}Gahaha!"
  },
  {
    "label": "306",
    "attribute": "0x0000000000000000",
    "text": "{{anim id=\"Nodding\" target=\"actor\" targetSpec=\"\"}}Also, {{delay8}}ich komm dann später ma' rum.{{delay20}}\n{{anim id=\"Smiling\" target=\"actor\" targetSpec=\"\"}}Wird sicher fetzig,{{delay8}} {{string value=\"Catchphrase\"}}!"
  },
  {
    "label": "401",
    "attribute": "0x0000020000000000",
    "text": "{{anim id=\"Grin\" target=\"actor\" targetSpec=\"\"}}Is' vielleicht ein bisschen frech...{{delay20}}\nAber was hältste davon, {{delay8}}wenn ich\nmich dreist bei dir einlade?\n{{anim id=\"Nodding\" target=\"actor\" targetSpec=\"\"}}Jetzt gleich wäre super.{{delay20}} Hab dir viel\nzu erzählen.{{delay20}} {{anim id=\"EmotEnd\" target=\"actor\" targetSpec=\"\"}}Außerdem rockt deine\nBude hundertpro mehr als meine!"
  },
  {
    "label": "401_a",
    "attribute": "0x0000000000000000",
    "text": "{{anim id=\"Confused\" target=\"actor\" targetSpec=\"\"}}Ähm... Super Idee!"
  },
  {
    "label": "401_b",
    "attribute": "0x0000000000000000",
    "text": "{{anim id=\"Negative\" target=\"actor\" targetSpec=\"\"}}Schon sehr dreist..."
  },
  {
    "label": "402",
    "attribute": "0x0000020000000000",
    "text": "{{anim id=\"Eh\" target=\"actor\" targetSpec=\"\"}}Gänseblümchen! {{delay20}}{{anim id=\"WrySmile\" target=\"actor\" targetSpec=\"\"}}Du siehst aus, {{delay8}}als\nhätteste Zeit... {{delay20}}Haste nich' Lust,{{delay8}}\nmich zu dir nach Hause einzuladen?\n{{anim id=\"Sighing\" target=\"actor\" targetSpec=\"\"}}Hab den Kopf voll und könnte etwas\nAblenkung vertragen, {{delay8}}{{string value=\"Catchphrase\"}}."
  },
  {
    "label": "402_a",
    "attribute": "0x0000000000000000",
    "text": "Komm vorbei!"
  },
  {
    "label": "402_b",
    "attribute": "0x0000000000000000",
    "text": "{{anim id=\"EmotEnd\" target=\"player\" targetSpec=\"\"}}Sorry, geht grad nicht..."
  },
  {
    "label": "403",
    "attribute": "0x0000000000000000",
    "text": "{{anim id=\"Oops\" target=\"actor\" targetSpec=\"\"}}So was Butterblumiges.{{delay20}}\nHatte schon befürchtet, {{delay8}}dass\ndu das sagen würdest.\nImmerhin hab ich's probiert.\n{{capitalizeNextLetter}}{{string value=\"Catchphrase\"}}!"
  },
  {
    "label": "404",
    "attribute": "0x0000000000000000",
    "text": "{{anim id=\"Eh\" target=\"actor\" targetSpec=\"\"}}Ach, {{delay8}}Gänseblümchen. {{delay20}}Nimm's dir\nnich' zu Herzen. {{delay20}}{{anim id=\"OhGeez\" target=\"actor\" targetSpec=\"\"}}Ich find schon\nanderswo Ablenkung. {{delay20}}{{capitalizeNextLetter}}{{string value=\"Catchphrase\"}}."
  }
]