﻿[
  {
    "label": "001",
    "attribute": "0x0000000000000000",
    "text": "ねぇねぇ～、{{delay20}}\n{{anim id=\"Greeting\" target=\"actor\" targetSpec=\"\"}}ほかのおへやも　{{ruby charSpan=\"1\" value=\"み\"}}見たいなぁ～！　{{string value=\"6\"}}"
  },
  {
    "label": "002",
    "attribute": "0x0000000000000000",
    "text": "{{anim id=\"FaintSmile\" target=\"actor\" targetSpec=\"\"}}うふふ、{{delay20}}{{ruby charSpan=\"1\" value=\"み\"}}見つけちゃったぁ～{{delay frames=\"40\"}}\n{{anim id=\"BigSmile\" target=\"actor\" targetSpec=\"\"}}{{ruby charSpan=\"2\" value=\"いりぐち\"}}入口をかくしてある　おへや！{{delay8}}{{anim id=\"FaintSmile\" target=\"actor\" targetSpec=\"\"}}{{pageBreak}}{{anim id=\"EmotEnd\" target=\"actor\" targetSpec=\"\"}}{{string value=\"4\"}}の{{delay20}}\n{{anim id=\"Grin\" target=\"actor\" targetSpec=\"\"}}ヒミツきちなんでしょ～？{{pageBreak}}{{anim id=\"EmotEnd\" target=\"actor\" targetSpec=\"\"}}ボク　だれにも{{ruby charSpan=\"1\" value=\"い\"}}言わないよぉ～{{delay frames=\"40\"}}\n{{anim id=\"Blushing\" target=\"actor\" targetSpec=\"\"}}ボクとキミだけの{{delay20}}　ヒ・{{delay8}}ミ・{{delay8}}ツ～、{{string value=\"6\"}}"
  },
  {
    "label": "003",
    "attribute": "0x0000000000000000",
    "text": "{{anim id=\"Shocked\" target=\"actor\" targetSpec=\"\"}}うわぁ～！{{delay frames=\"40\"}}\nこのおへやって、{{delay20}}ゆかに　モノが{{delay8}}\nいっぱい　おいてあるねぇ～{{pageBreak}}{{anim id=\"Nodding\" target=\"actor\" targetSpec=\"\"}}わかるよ～{{delay frames=\"40\"}}\n{{anim id=\"Smiling\" target=\"actor\" targetSpec=\"\"}}どこに　かたづけたか　わすれちゃうから{{delay20}}\n{{ruby charSpan=\"1\" value=\"だ\"}}出したままに　してるんでしょ～、{{string value=\"6\"}}"
  },
  {
    "label": "004",
    "attribute": "0x0000000000000000",
    "text": "{{i20_2 arg=\"10\"}}{{anim id=\"Thinking\" target=\"actor\" targetSpec=\"\"}}{{i20_2 arg=\"9\"}}{{ruby charSpan=\"1\" value=\"うし\"}}後ろむきの　{{fun_0000007D arg=\"0x0000\"}}？{{i10_4}}\n{{anim id=\"IdeaBulb\" target=\"actor\" targetSpec=\"\"}}{{delay frames=\"70\"}}{{i20_3 arg=\"6\"}}{{i20_3 arg=\"3\"}}{{anim id=\"Smiling\" target=\"actor\" targetSpec=\"\"}}{{string value=\"4\"}}のことだから{{delay20}}\nトクベツな　つかい{{ruby charSpan=\"1\" value=\"かた\"}}方が　あるんでしょ～！{{pageBreak}}{{anim id=\"HappyDance\" target=\"actor\" targetSpec=\"\"}}いいな{{delay8}}　いいなぁ～{{delay frames=\"40\"}}\nボクにも　{{ruby charSpan=\"1\" value=\"おし\"}}教えてよぉ～、{{string value=\"6\"}}"
  },
  {
    "label": "005",
    "attribute": "0x0000000000000000",
    "text": "{{anim id=\"Thinking\" target=\"actor\" targetSpec=\"\"}}このおへやには　ベッドとか　{{delay8}}テーブルとか{{delay20}}\n{{ruby charSpan=\"2\" value=\"せいかつ\"}}生活に　ひつようそうな　モノが{{delay8}}\n{{anim id=\"QuestionMark\" target=\"actor\" targetSpec=\"\"}}おいてないんだねぇ～{{pageBreak}}{{anim id=\"IdeaBulb\" target=\"actor\" targetSpec=\"\"}}{{delay20}}もしかして　{{string value=\"4\"}}の{{delay20}}\nシュミ　せんようの　おへや？！{{delay frames=\"40\"}}\n{{anim id=\"Love\" target=\"actor\" targetSpec=\"\"}}なんだか　カッコイイ～、{{string value=\"6\"}}"
  },
  {
    "label": "006",
    "attribute": "0x0000000000000000",
    "text": "{{anim id=\"Nodding\" target=\"actor\" targetSpec=\"\"}}ベッド、{{delay20}}テーブルとイス、{{delay20}}それに　モノ{{ruby charSpan=\"1\" value=\"い\"}}入れ！{{delay frames=\"40\"}}\n{{anim id=\"SmugFace\" target=\"actor\" targetSpec=\"\"}}これだけあれば、{{delay20}}\nどこででも　{{ruby charSpan=\"2\" value=\"せいかつ\"}}生活できちゃうよねぇ、{{string value=\"6\"}}"
  },
  {
    "label": "007",
    "attribute": "0x0000000000000000",
    "text": "カベには　{{ruby charSpan=\"1\" value=\"なに\"}}何もかざらないんだねぇ～{{delay frames=\"40\"}}\n{{anim id=\"AbsentMindedness\" target=\"actor\" targetSpec=\"\"}}{{randomFood}}の　ポスターとか{{delay20}}\nはってみたら　どうかなぁ～{{pageBreak}}{{anim id=\"Laughing\" target=\"actor\" targetSpec=\"\"}}ながめてるだけで　おなかが{{delay20}}\nへってきちゃいそうだけどねぇ～、{{string value=\"6\"}}"
  },
  {
    "label": "008",
    "attribute": "0x0000000000000000",
    "text": "{{anim id=\"HappyDance\" target=\"actor\" targetSpec=\"\"}}このおへや、{{delay20}}\nめずらしいモノが　いっぱいだねぇ～！{{pageBreak}}{{anim id=\"EmotEnd\" target=\"actor\" targetSpec=\"\"}}ボク　こんなの　{{ruby charSpan=\"1\" value=\"み\"}}見たことないよぉ～{{delay frames=\"30\"}}\n{{anim id=\"AbsentMindedness\" target=\"actor\" targetSpec=\"\"}}まるで　{{color id=\"1\"}}{{ruby charSpan=\"3\" value=\"はくぶつかん\"}}博物館{{color id=\"65535\"}}に　{{ruby charSpan=\"1\" value=\"き\"}}来てるみた～い{{i10_4}}\n{{anim id=\"Blushing\" target=\"actor\" targetSpec=\"\"}}ちょっと　トクした{{ruby charSpan=\"2\" value=\"きぶん\"}}気分かも～、{{string value=\"6\"}}"
  },
  {
    "label": "009",
    "attribute": "0x0000000000000000",
    "text": "{{anim id=\"HappyDance\" target=\"actor\" targetSpec=\"\"}}このおへやには{{delay20}}\n{{ruby charSpan=\"1\" value=\"たか\"}}高そうなモノが　いっぱいあるねぇ～{{delay frames=\"40\"}}\n{{anim id=\"Pardon\" target=\"actor\" targetSpec=\"\"}}もしかして　キミって　セレブなのぉ？！{{delay20}}{{anim id=\"EmotEnd\" target=\"actor\" targetSpec=\"\"}}{{pageBreak}}{{anim id=\"Grin\" target=\"actor\" targetSpec=\"\"}}{{string value=\"4\"}}の{{delay20}}\nホンモノへのこだわり{{string value=\"...\"}}{{delay20}}\n{{anim id=\"ShyBoy\" target=\"actor\" targetSpec=\"\"}}ボクには　マネできないやぁ～、{{string value=\"6\"}}"
  },
  {
    "label": "010",
    "attribute": "0x0000000000000000",
    "text": "{{anim id=\"HappyDance\" target=\"actor\" targetSpec=\"\"}}おへや　{{ruby charSpan=\"1\" value=\"ひろ\"}}広いよねぇ～！{{delay frames=\"40\"}}\n{{anim id=\"EmotEnd\" target=\"actor\" targetSpec=\"\"}}これなら　でんぐりがえりしても{{delay20}}\n{{anim id=\"FaintSmile\" target=\"actor\" targetSpec=\"\"}}どこにも　ぶつからないねぇ～、{{string value=\"6\"}}"
  },
  {
    "label": "011",
    "attribute": "0x0000000000000000",
    "text": "{{anim id=\"HappyDance\" target=\"actor\" targetSpec=\"\"}}モノが　いっぱいあって{{delay20}}\nおもちゃばこみたいな　おへやだねぇ！{{delay frames=\"40\"}}\n{{anim id=\"EmotEnd\" target=\"actor\" targetSpec=\"\"}}どこから　{{ruby charSpan=\"1\" value=\"み\"}}見ようか{{delay20}}　{{anim id=\"FaintSmile\" target=\"actor\" targetSpec=\"\"}}まよっちゃう～、{{string value=\"6\"}}"
  },
  {
    "label": "012",
    "attribute": "0x0000000000000000",
    "text": "{{fun_0001003C arg=\"0x0D000E000F00\"}}"
  },
  {
    "label": "013",
    "attribute": "0x0000000000000000",
    "text": "{{anim id=\"Smiling\" target=\"actor\" targetSpec=\"\"}}{{string value=\"4\"}}らしさを{{delay20}}\nかんじる　おへやだねぇ～、{{string value=\"6\"}}"
  },
  {
    "label": "014",
    "attribute": "0x0000000000000000",
    "text": "{{anim id=\"Smiling\" target=\"actor\" targetSpec=\"\"}}ボクのおへやに　まけないくらい{{delay20}}\nイイかんじだねぇ～、{{string value=\"6\"}}"
  },
  {
    "label": "015",
    "attribute": "0x0000000000000000",
    "text": "{{anim id=\"Nodding\" target=\"actor\" targetSpec=\"\"}}ふむふむ{{string value=\"...\"}}{{delay frames=\"40\"}}\n{{anim id=\"Smiling\" target=\"actor\" targetSpec=\"\"}}{{string value=\"4\"}}は{{delay20}}\nこういうおへやが　スキなのかぁ～、{{string value=\"6\"}}"
  }
]