﻿[
  {
    "label": "001",
    "attribute": "0x0000000000000600",
    "text": "Ахтунг! {{delay20}}Это по-немецки значит:\n«Я упал в яму!»"
  },
  {
    "label": "002",
    "attribute": "0x0000000000000000",
    "text": "Какой гений ландшафтного дизайна\nдогадался вырыть здесь эту яму?"
  },
  {
    "label": "003",
    "attribute": "0x0000000000000000",
    "text": "О нет! {{delay20}}Я совсем не так планировал{{delay20}}\nзакончить свою пробежку{{string value=\"...\"}}"
  }
]