﻿[
  {
    "label": "001",
    "attribute": "0x00000C0100000000",
    "text": "{{anim id=\"FaintSmile\" target=\"actor\" targetSpec=\"\"}}呵呵呵，{{delay8}}今天和你聊了很多，\n好開心喔，{{string value=\"6\"}}。{{setNpcTalkChoices chatOption=\"1\" cancelOption=\"1\"}}"
  },
  {
    "label": "002",
    "attribute": "0x00000C0100000000",
    "text": "{{anim id=\"FaintSmile\" target=\"actor\" targetSpec=\"\"}}不知道你……{{delay8}}\n{{anim id=\"Hello\" target=\"actor\" targetSpec=\"\"}}還喜歡我的房間嗎？{{string value=\"6\"}}。{{setNpcTalkChoices chatOption=\"0\" cancelOption=\"1\"}}"
  },
  {
    "label": "004",
    "attribute": "0x00000C0100000000",
    "text": "{{anim id=\"FaintSmile\" target=\"actor\" targetSpec=\"\"}}在家裡可以悠閒地聊天，{{delay8}}\n這樣很不錯呢，{{string value=\"6\"}}。{{setNpcTalkChoices chatOption=\"1\" cancelOption=\"1\"}}"
  },
  {
    "label": "005",
    "attribute": "0x00000C0100000000",
    "text": "{{anim id=\"FaintSmile\" target=\"actor\" targetSpec=\"\"}}呵呵呵，{{delay8}}你又過來找我玩了呢！{{delay20}}\n{{anim id=\"Hello\" target=\"actor\" targetSpec=\"\"}}希望你放輕鬆慢慢坐喔，{{string value=\"6\"}}。{{setNpcTalkChoices chatOption=\"0\" cancelOption=\"1\"}}"
  },
  {
    "label": "006",
    "attribute": "0x00000C0100000000",
    "text": "{{anim id=\"Hello\" target=\"actor\" targetSpec=\"\"}}歡迎你過來玩！{{delay20}}\n{{anim id=\"FaintSmile\" target=\"actor\" targetSpec=\"\"}}希望你能放輕鬆，別拘束喔，{{string value=\"6\"}}。{{setNpcTalkChoices chatOption=\"0\" cancelOption=\"1\"}}"
  }
]