﻿[
  {
    "label": "001",
    "attribute": "0x0000000000000000",
    "text": "{{fun_0014003C arg=\"\"}}"
  },
  {
    "label": "001_01",
    "attribute": "0x0000000000000000",
    "text": "{{anim id=\"Aha\" target=\"actor\" targetSpec=\"\"}}Te voilà,{{delay8}} {{string value=\"NickName\"}}!{{delay20}} {{anim id=\"EmotEnd\" target=\"actor\" targetSpec=\"\"}}Comme tu peux le voir,{{delay8}} {{anim id=\"Dance\" target=\"actor\" targetSpec=\"\"}}j'ai suivi ton conseil et me suis installée ici!{{pageBreak}}{{anim id=\"ShyBoy\" target=\"actor\" targetSpec=\"\"}}Comme tu l'auras aussi remarqué,{{delay8}}\nje ne suis pas encore disposée à\nrecevoir de la visite.\n{{anim id=\"FaintSmile\" target=\"actor\" targetSpec=\"\"}}J'aurai sans doute terminé de tout\ndéballer d'ici demain,{{delay20}}{{anim id=\"Hello\" target=\"actor\" targetSpec=\"\"}} si jamais tu\nveux repasser, {{string value=\"6\"}}."
  },
  {
    "label": "001_02",
    "attribute": "0x0000000000000000",
    "text": "{{anim id=\"Eh\" target=\"actor\" targetSpec=\"\"}}Ça alors!{{delay8}} {{capitalizeNextLetter}}{{string value=\"NickName\"}}, {{delay8}}{{anim id=\"Grin\" target=\"actor\" targetSpec=\"\"}}tu as fait tout ce chemin pour venir me voir?{{pageBreak}}{{anim id=\"SmugFace\" target=\"actor\" targetSpec=\"\"}}Tu n'as pas pu t'en empêcher,{{delay8}}\nn'est-ce pas?{{pageBreak}}{{anim id=\"Smiling\" target=\"actor\" targetSpec=\"\"}}Comme tu peux le voir,{{delay8}} j'ai suivi\nta recommandation et emménagé\nà {{string value=\"OtherIslandName\"}}.\n{{anim id=\"Sighing\" target=\"actor\" targetSpec=\"\"}}Malheureusement je croule encore\nsous les boîtes,{{delay20}}{{anim id=\"FaintSmile\" target=\"actor\" targetSpec=\"\"}} mais c'est tout de\nmême gentil d'être {{gender2 m=\"passé\" f=\"passée\"}}!"
  },
  {
    "label": "001_03",
    "attribute": "0x0000000000000000",
    "text": "{{anim id=\"Grin\" target=\"actor\" targetSpec=\"\"}}Alors, {{delay8}}{{string value=\"NickName\"}}{{string value=\"...\"}}{{delay20}}\n{{gender2 m=\"Surpris\" f=\"Surprise\"}}?{{pageBreak}}{{anim id=\"SmugFace\" target=\"actor\" targetSpec=\"\"}}Comme tu peux le voir,{{delay8}}{{anim id=\"HappyFlower\" target=\"actor\" targetSpec=\"\"}} je n'ai pas\nperdu de temps pour poser mes\nvalises sur cette île!\n{{anim id=\"HappyDance\" target=\"actor\" targetSpec=\"\"}}Dès que j'ai posé la patte ici,{{delay8}} ça a\nété le coup de foudre! {{anim id=\"Smiling\" target=\"actor\" targetSpec=\"\"}}Merci encore\nde m'avoir invitée.\n{{anim id=\"Shocked\" target=\"actor\" targetSpec=\"\"}}{{capitalizeNextLetter}}{{string value=\"Catchphrase\"}}!{{delay8}} J'espère que c'est\nparti pour durer!{{pageBreak}}{{anim id=\"Hello\" target=\"actor\" targetSpec=\"\"}}Quoi qu'il en soit, {{delay8}}je devrais avoir fini\nde m'installer demain. {{delay20}}{{anim id=\"BigSmile\" target=\"actor\" targetSpec=\"\"}}On pourra en\nprofiter pour papoter à loisir!{{anim id=\"FaintSmile\" target=\"actor\" targetSpec=\"\"}}"
  },
  {
    "label": "002",
    "attribute": "0x0000000000000000",
    "text": "{{fun_0014003C arg=\"\"}}"
  },
  {
    "label": "002_01",
    "attribute": "0x0000000000000000",
    "text": "{{anim id=\"HappyFlower\" target=\"actor\" targetSpec=\"\"}}{{capitalizeNextLetter}}{{string value=\"NickName\"}}! {{delay20}}Tu as vu?{{delay20}}\nComme promis,{{delay8}} j'ai posé mes valises\nsur ton île!\n{{anim id=\"HappyDance\" target=\"actor\" targetSpec=\"\"}}Et je ne regrette pas du tout de\nl'avoir fait.{{delay20}} Les gens ici sont\nadorables.\n{{anim id=\"BigSmile\" target=\"actor\" targetSpec=\"\"}}Encore merci de m'avoir invitée,\n{{string value=\"6\"}}!"
  },
  {
    "label": "002_02",
    "attribute": "0x0000000000000000",
    "text": "{{anim id=\"Aha\" target=\"actor\" targetSpec=\"\"}}{{capitalizeNextLetter}}{{string value=\"NickName\"}}!{{delay frames=\"40\"}} {{anim id=\"EmotEnd\" target=\"actor\" targetSpec=\"\"}}Je t'avais dit que je viendrais,{{delay8}} {{anim id=\"Dance\" target=\"actor\" targetSpec=\"\"}}et j'ai tenu parole, {{string value=\"6\"}}!{{pageBreak}}{{anim id=\"ShyBoy\" target=\"actor\" targetSpec=\"\"}}Pour tout te dire, {{delay8}}j'ai commencé à\nfaire mes valises tout de suite après\nnotre petite discussion.{{pageBreak}}{{anim id=\"FaintSmile\" target=\"actor\" targetSpec=\"\"}}Et maintenant,{{delay8}} je peux enfin prendre\nun petit moment pour souffler {{delay8}}{{anim id=\"EmotEnd\" target=\"actor\" targetSpec=\"\"}}et\ncommencer à profiter de cette île.\n{{anim id=\"Greeting\" target=\"actor\" targetSpec=\"\"}}Mais avant toute chose,{{delay8}} je tenais à\nte remercier de m'avoir invitée à\nvenir en ce lieu si charmant!"
  },
  {
    "label": "002_03",
    "attribute": "0x0000000000000000",
    "text": "{{anim id=\"Aha\" target=\"actor\" targetSpec=\"\"}}{{capitalizeNextLetter}}{{string value=\"NickName\"}}!{{delay frames=\"40\"}} {{anim id=\"FaintSmile\" target=\"actor\" targetSpec=\"\"}}Tu as vu?{{delay8}}\nJe suis arrivée sur cette île en\nun seul morceau!{{pageBreak}}Pardon d'avoir tant tardé à venir\nte voir.{{delay20}} {{anim id=\"Greeting\" target=\"actor\" targetSpec=\"\"}}J'ai été captivée par le\ncharme {{gender4 m=\"de \" f=\"d'\"}}⁠{{string value=\"OtherIslandName\"}}!{{pageBreak}}{{anim id=\"Nodding\" target=\"actor\" targetSpec=\"\"}}Je suis heureuse que tu m'aies\ninvitée à m'installer ici{{string value=\"...\"}}{{pageBreak}}{{anim id=\"Hello\" target=\"actor\" targetSpec=\"\"}}... et doublement heureuse de savoir\nque nous sommes désormais\nvoisin{{gender2 m=\"\" f=\"e\"}}s!"
  },
  {
    "label": "003",
    "attribute": "0x0000000000000000",
    "text": "{{anim id=\"Aha\" target=\"actor\" targetSpec=\"\"}}Bonjour!{{delay20}}{{anim id=\"QuestionMark\" target=\"actor\" targetSpec=\"\"}} Te souviens-tu de moi?{{i10_4}}\n{{anim id=\"BigSmile\" target=\"actor\" targetSpec=\"\"}}Je suis {{string value=\"VillagerName\"}}.{{delay8}} On s'est {{gender2 m=\"vus\" f=\"vues\"}} à {{selection value=\"SelectedIslandName\"}}!{{pageBreak}}{{anim id=\"Explain\" target=\"actor\" targetSpec=\"\"}}Puis tu m'as proposé de m'installer\nici, {{delay8}}est-ce que ça te revient?{{delay20}} {{anim id=\"FaintSmile\" target=\"actor\" targetSpec=\"\"}}Comme\ntu vois,{{delay8}} je suis bel et bien venue!{{pageBreak}}{{anim id=\"Nodding\" target=\"actor\" targetSpec=\"\"}}Depuis le temps que je ne t'ai pas\n{{gender2 m=\"revu\" f=\"revue\"}},{{delay8}} je commençais à m'inquiéter\nque tu aies déménagé.\n{{anim id=\"Hello\" target=\"actor\" targetSpec=\"\"}}Fort heureusement,{{delay8}} on dirait que\nje n'avais aucune raison de m'en\nfaire, {{string value=\"6\"}}!"
  },
  {
    "label": "004",
    "attribute": "0x0000000000000000",
    "text": "{{anim id=\"Eh\" target=\"actor\" targetSpec=\"\"}}Oh,{{delay8}} {{string value=\"NickName\"}}{{string value=\"...\"}} C'est très gentil d'être {{gender2 m=\"passé\" f=\"passée\"}} me voir, mais{{anim id=\"Sneezing\" target=\"actor\" targetSpec=\"\"}}{{string value=\"...\"}}{{pageBreak}}{{anim id=\"Worried\" target=\"actor\" targetSpec=\"\"}}... je crois bien que je suis tombée\nmalade au cours de mon\ndéménagement, {{string value=\"6\"}}{{string value=\"...\"}}{{anim id=\"Sneezing\" target=\"actor\" targetSpec=\"\"}}{{delay20}}\n{{anim id=\"Shaking\" target=\"actor\" targetSpec=\"\"}}Est-ce que tu pourrais repasser\nplus tard?{{anim id=\"Sneezing\" target=\"actor\" targetSpec=\"\"}}{{delay20}} Le temps que je me\nrétablisse, {{string value=\"6\"}}{{string value=\"...\"}}"
  },
  {
    "label": "011",
    "attribute": "0x0000000000000000",
    "text": "{{fun_0014003C arg=\"\"}}"
  },
  {
    "label": "011_01",
    "attribute": "0x0000000000000000",
    "text": "{{anim id=\"Eh\" target=\"actor\" targetSpec=\"\"}}Tiens,{{delay8}} mais c'est {{string value=\"NickName\"}}!{{delay frames=\"40\"}}\n{{anim id=\"Grin\" target=\"actor\" targetSpec=\"\"}}{{gender2 m=\"Surpris\" f=\"Surprise\"}} de me voir ici?{{pageBreak}}{{anim id=\"Explain\" target=\"actor\" targetSpec=\"\"}}{{capitalizeNextLetter}}{{selection value=\"SelectedName\"}} m'a invitée à m'installer sur cette île. Alors{{string value=\"...\"}} {{anim id=\"Dance\" target=\"actor\" targetSpec=\"\"}}me voilà!{{pageBreak}}J'habite ici, désormais! {{delay8}}{{anim id=\"HappyDance\" target=\"actor\" targetSpec=\"\"}}N'est-ce\npas formidable? {{anim id=\"EmotEnd\" target=\"actor\" targetSpec=\"\"}}Mais assez parlé, {{delay8}}{{anim id=\"Hello\" target=\"actor\" targetSpec=\"\"}}\nj'ai encore des boîtes à déballer.{{pageBreak}}{{anim id=\"EmotEnd\" target=\"actor\" targetSpec=\"\"}}Attends un peu de voir.{{delay20}}{{anim id=\"SmugFace\" target=\"actor\" targetSpec=\"\"}} D'ici la fin\nde la journée,{{delay8}} je serai à nouveau\ncomme chez moi!"
  },
  {
    "label": "011_02",
    "attribute": "0x0000000000000000",
    "text": "{{anim id=\"Aha\" target=\"actor\" targetSpec=\"\"}}{{capitalizeNextLetter}}{{string value=\"NickName\"}}!{{delay8}} Devine quoi!{{delay20}} {{anim id=\"Smiling\" target=\"actor\" targetSpec=\"\"}}{{capitalizeNextLetter}}{{selection value=\"SelectedName\"}} a insisté pour que je vienne m'installer ici.{{pageBreak}}{{anim id=\"FaintSmile\" target=\"actor\" targetSpec=\"\"}}Eh bien, voilà qui est aujourd'hui\nchose faite! {{delay20}}{{anim id=\"HappyDance\" target=\"actor\" targetSpec=\"\"}}Nous sommes\ndésormais {{gender2 m=\"voisins\" f=\"voisines\"}}!{{pageBreak}}{{anim id=\"BigSmile\" target=\"actor\" targetSpec=\"\"}}J'ai hâte de pouvoir faire plus ample\nconnaissance avec toi.{{pageBreak}}{{anim id=\"Nodding\" target=\"actor\" targetSpec=\"\"}}Mais avant toute chose,{{delay20}}{{anim id=\"FaintSmile\" target=\"actor\" targetSpec=\"\"}} il faut que\nje commence à mettre de l'ordre\ndans ce bazar."
  },
  {
    "label": "012",
    "attribute": "0x0000000000000000",
    "text": "{{fun_0014003C arg=\"\"}}"
  },
  {
    "label": "012_01",
    "attribute": "0x0000000000000000",
    "text": "{{anim id=\"BigSmile\" target=\"actor\" targetSpec=\"\"}}Oh, {{delay8}}{{string value=\"NickName\"}}!{{delay20}} Dis-moi,{{delay8}}{{anim id=\"SmugFace\" target=\"actor\" targetSpec=\"\"}} est-ce {{gender4 m=\"que \" f=\"qu'\"}}⁠{{selection value=\"SelectedName\"}} t'a annoncé la nouvelle?{{pageBreak}}{{anim id=\"Greeting\" target=\"actor\" targetSpec=\"\"}}{{gender1 m=\"Il\" f=\"Elle\"}} m'a invitée à m'installer ici!{{delay20}}\n{{anim id=\"Nodding\" target=\"actor\" targetSpec=\"\"}}Suite à quoi j'ai fait mes valises\net quitté {{selection value=\"SelectedIslandName\"}}.\n{{anim id=\"EmotEnd\" target=\"actor\" targetSpec=\"\"}}Je suis encore en pleine découverte\nde l'île,{{delay8}} {{anim id=\"ShyBoy\" target=\"actor\" targetSpec=\"\"}}alors j'apprécierais beaucoup\nsi tu pouvais me guider à l'occasion!"
  },
  {
    "label": "012_02",
    "attribute": "0x0000000000000000",
    "text": "{{anim id=\"Hello\" target=\"actor\" targetSpec=\"\"}}Tiens,{{delay8}} mais c'est {{string value=\"NickName\"}}!{{delay frames=\"40\"}}\n{{anim id=\"Grin\" target=\"actor\" targetSpec=\"\"}}Peux-tu deviner ce que je fais ici\nsur ton île?{{pageBreak}}{{anim id=\"EmotEnd\" target=\"actor\" targetSpec=\"\"}}Eh bien{{string value=\"...\"}}{{delay8}} au cas où tu ne l'aurais pas\nappris,{{delay8}}{{anim id=\"HappyDance\" target=\"actor\" targetSpec=\"\"}} {{selection value=\"SelectedName\"}} m'a proposé de m'installer ici!{{pageBreak}}{{anim id=\"Clapping\" target=\"actor\" targetSpec=\"\"}}J'étais si impatiente de te\nl'annoncer!{{delay20}}{{anim id=\"Greeting\" target=\"actor\" targetSpec=\"\"}} On va pouvoir se voir\naussi souvent qu'on le souhaite!"
  },
  {
    "label": "013",
    "attribute": "0x0000000000000000",
    "text": "{{anim id=\"Eh\" target=\"actor\" targetSpec=\"\"}}{{capitalizeNextLetter}}{{string value=\"NickName\"}}!{{delay20}} {{anim id=\"Negative\" target=\"actor\" targetSpec=\"\"}}Ça fait une éternité qu'on ne s'est pas {{gender2 m=\"vus\" f=\"vues\"}},{{delay8}} et dire qu'on vit sur la même île{{string value=\"...\"}}{{pageBreak}}{{anim id=\"BigSmile\" target=\"actor\" targetSpec=\"\"}}Et oui,{{delay8}} tu as bien entendu,{{delay8}} je vis ici\nmaintenant!{{delay frames=\"40\"}} {{anim id=\"Explain\" target=\"actor\" targetSpec=\"\"}}{{capitalizeNextLetter}}{{selection value=\"SelectedName\"}} m'a invitée à venir m'installer.{{pageBreak}}{{anim id=\"ShyBoy\" target=\"actor\" targetSpec=\"\"}}Je suis désolée qu'on ne se soit pas\n{{gender2 m=\"vus\" f=\"vues\"}} depuis si longtemps,{{delay8}}{{anim id=\"FaintSmile\" target=\"actor\" targetSpec=\"\"}} mais\nrattrapons ça au plus vite,{{delay8}} d'accord?"
  },
  {
    "label": "014",
    "attribute": "0x0000000000000000",
    "text": "{{anim id=\"Worried\" target=\"actor\" targetSpec=\"\"}}{{string value=\"...\"}} {{capitalizeNextLetter}}{{string value=\"NickName\"}}{{string value=\"...\"}}{{anim id=\"Sneezing\" target=\"actor\" targetSpec=\"\"}}{{delay frames=\"40\"}} Je suis terriblement désolée de ne pas avoir pu venir te saluer plus tôt{{string value=\"...\"}}{{pageBreak}}Vois-tu{{string value=\"...\"}} {{anim id=\"Sneezing\" target=\"actor\" targetSpec=\"\"}}{{delay frames=\"40\"}}{{selection value=\"SelectedName\"}} m'a invitée à emménager ici,{{delay20}} mais{{string value=\"...\"}} {{anim id=\"Sneezing\" target=\"actor\" targetSpec=\"\"}}{{delay20}}je suis tombée malade lors du trajet{{string value=\"...\"}}{{pageBreak}}{{anim id=\"Sneezing\" target=\"actor\" targetSpec=\"\"}}{{string value=\"...\"}}{{delay frames=\"40\"}} Oh,{{delay8}} zut alors!{{delay8}} Je suis désolée que\ntu me voies dans cet état{{string value=\"...\"}} {{anim id=\"Sneezing\" target=\"actor\" targetSpec=\"\"}}{{delay frames=\"40\"}}Parlons\nplutôt quand je serai rétablie{{string value=\"...\"}}"
  },
  {
    "label": "021",
    "attribute": "0x0000000000000000",
    "text": "{{anim id=\"Smiling\" target=\"actor\" targetSpec=\"\"}}Ça alors, {{delay8}}{{string value=\"NickName\"}},{{delay8}} quelle surprise!{{delay20}} {{anim id=\"ShyBoy\" target=\"actor\" targetSpec=\"\"}}Tu ne vas pas me croire,{{anim id=\"HappyDance\" target=\"actor\" targetSpec=\"\"}} mais je viens juste d'emménager ici!{{pageBreak}}{{anim id=\"Negative\" target=\"actor\" targetSpec=\"\"}}Ce qui est encore moins croyable,{{delay8}}\nc'est que la personne qui m'a invitée\nà venir n'est quant à elle plus là{{string value=\"...\"}}\n{{anim id=\"Outraged\" target=\"actor\" targetSpec=\"\"}}Non mais quelle impolitesse!{{pageBreak}}{{anim id=\"Nodding\" target=\"actor\" targetSpec=\"\"}}Enfin,{{delay8}} heureusement que toi,{{delay8}} tu es\nencore là.{{delay20}} {{anim id=\"SmugFace\" target=\"actor\" targetSpec=\"\"}}Ça m'aidera beaucoup à\nme faire à ma nouvelle vie ici."
  },
  {
    "label": "022",
    "attribute": "0x0000000000000000",
    "text": "{{anim id=\"Shocked\" target=\"actor\" targetSpec=\"\"}}{{capitalizeNextLetter}}{{string value=\"NickName\"}}!{{delay frames=\"40\"}} {{anim id=\"HappyFlower\" target=\"actor\" targetSpec=\"\"}}Tu ne peux pas savoir à quel point ça me fait plaisir de te voir!{{pageBreak}}{{anim id=\"Explain\" target=\"actor\" targetSpec=\"\"}}Vois-tu,{{delay8}} j'ai été invitée à emménager\nsur cette île{{string value=\"...\"}}{{pageBreak}}{{anim id=\"SadSpiral\" target=\"actor\" targetSpec=\"\"}}... mais à mon arrivée,{{delay8}} la personne\nqui m'a invitée s'en est elle-même\nallée vers d'autres horizons!\n{{anim id=\"Sighing\" target=\"actor\" targetSpec=\"\"}}Oh,{{delay8}} {{string value=\"NickName\"}}, {{delay8}}ça me fait vraiment plaisir de revoir un visage familier,{{delay8}} tu sais.{{pageBreak}}{{anim id=\"Negative\" target=\"actor\" targetSpec=\"\"}}Enfin,{{delay8}} je me suis assez lamentée\ncomme ça.{{delay20}}{{anim id=\"BigSmile\" target=\"actor\" targetSpec=\"\"}} La situation n'est pas si\nterrible,{{delay8}} en réalité!"
  },
  {
    "label": "024",
    "attribute": "0x0000000000000000",
    "text": "{{anim id=\"Confused\" target=\"actor\" targetSpec=\"\"}}Oh, {{string value=\"NickName\"}}{{string value=\"...\"}}{{delay frames=\"40\"}}{{anim id=\"Sneezing\" target=\"actor\" targetSpec=\"\"}}\nTu es {{gender2 m=\"surpris\" f=\"surprise\"}} de me voir ici?{{delay8}}{{anim id=\"Sneezing\" target=\"actor\" targetSpec=\"\"}}{{delay20}}{{pageBreak}}{{anim id=\"Worried\" target=\"actor\" targetSpec=\"\"}}Il se trouve que j'ai été invitée par\nune connaissance à la rejoindre sur\ncette île{{string value=\"...\"}}{{anim id=\"Sneezing\" target=\"actor\" targetSpec=\"\"}}{{delay frames=\"40\"}} Ce que j'ai fait.{{anim id=\"Sneezing\" target=\"actor\" targetSpec=\"\"}}{{delay20}}\n{{anim id=\"Shaking\" target=\"actor\" targetSpec=\"\"}}Mais à mon arrivée,{{delay8}} cette personne\ndont je tairais le nom avait tout\nsimplement disparu du radar!\n{{anim id=\"Sighing\" target=\"actor\" targetSpec=\"\"}}Et comme un malheur n'arrive jamais\nseul,{{delay8}}{{anim id=\"Sneezing\" target=\"actor\" targetSpec=\"\"}} {{delay20}}je suis également tombée\nmalade.\n{{anim id=\"Negative\" target=\"actor\" targetSpec=\"\"}}Si tu veux bien m'excuser,{{delay8}} j'ai besoin\nd'un peu de repos pour me remettre\nde toutes ces mésaventures."
  },
  {
    "label": "101",
    "attribute": "0x0000000000000000",
    "text": "{{fun_0014003C arg=\"\"}}"
  },
  {
    "label": "101_01",
    "attribute": "0x0000000000000000",
    "text": "{{anim id=\"Aha\" target=\"actor\" targetSpec=\"\"}}Te voilà,{{delay8}} {{string value=\"NickName\"}}!{{delay20}} {{anim id=\"EmotEnd\" target=\"actor\" targetSpec=\"\"}}Comme tu peux le voir,{{delay8}} {{anim id=\"Dance\" target=\"actor\" targetSpec=\"\"}}j'ai suivi ton conseil et me suis installée ici!{{pageBreak}}{{anim id=\"ShyBoy\" target=\"actor\" targetSpec=\"\"}}Comme tu l'auras aussi remarqué,{{delay8}}\nje ne suis pas encore disposée à\nrecevoir de la visite.\n{{anim id=\"FaintSmile\" target=\"actor\" targetSpec=\"\"}}J'aurai sans doute terminé de tout\ndéballer d'ici demain,{{delay20}}{{anim id=\"Hello\" target=\"actor\" targetSpec=\"\"}} si jamais tu\nveux repasser, {{string value=\"6\"}}."
  },
  {
    "label": "101_02",
    "attribute": "0x0000000000000000",
    "text": "{{anim id=\"Eh\" target=\"actor\" targetSpec=\"\"}}Ça alors!{{delay8}} {{capitalizeNextLetter}}{{string value=\"NickName\"}}, {{delay8}}{{anim id=\"Grin\" target=\"actor\" targetSpec=\"\"}}tu as fait tout ce chemin pour venir me voir?{{pageBreak}}{{anim id=\"SmugFace\" target=\"actor\" targetSpec=\"\"}}Tu n'as pas pu t'en empêcher,{{delay8}}\nn'est-ce pas?{{pageBreak}}{{anim id=\"Smiling\" target=\"actor\" targetSpec=\"\"}}Comme tu peux le voir,{{delay8}} j'ai suivi\nta recommandation et emménagé\nà {{string value=\"OtherIslandName\"}}.\n{{anim id=\"Sighing\" target=\"actor\" targetSpec=\"\"}}Malheureusement,{{delay8}} je croule encore\nsous les boîtes,{{delay20}}{{anim id=\"FaintSmile\" target=\"actor\" targetSpec=\"\"}} mais c'est tout de\nmême gentil d'être {{gender2 m=\"passé\" f=\"passée\"}}!"
  },
  {
    "label": "101_03",
    "attribute": "0x0000000000000000",
    "text": "{{anim id=\"Grin\" target=\"actor\" targetSpec=\"\"}}Alors, {{delay8}}{{string value=\"NickName\"}}{{string value=\"...\"}}{{delay20}}\n{{gender2 m=\"Surpris\" f=\"Surprise\"}}?{{pageBreak}}{{anim id=\"SmugFace\" target=\"actor\" targetSpec=\"\"}}Comme tu peux le voir,{{delay8}}{{anim id=\"HappyFlower\" target=\"actor\" targetSpec=\"\"}} je n'ai pas\nperdu de temps à poser mes valises\nsur cette île!\n{{anim id=\"HappyDance\" target=\"actor\" targetSpec=\"\"}}Dès que j'ai posé la patte ici,{{delay8}} ça a\nété le coup de foudre! {{anim id=\"Smiling\" target=\"actor\" targetSpec=\"\"}}Merci encore\nde m'avoir invitée.\n{{anim id=\"Shocked\" target=\"actor\" targetSpec=\"\"}}{{capitalizeNextLetter}}{{string value=\"Catchphrase\"}}!{{delay8}} J'espère que c'est\nparti pour durer!{{pageBreak}}{{anim id=\"Hello\" target=\"actor\" targetSpec=\"\"}}Quoi qu'il en soit, {{delay8}}je devrais avoir fini\nde m'installer demain. {{delay20}}{{anim id=\"BigSmile\" target=\"actor\" targetSpec=\"\"}}On pourra en\nprofiter pour papoter à loisir!{{anim id=\"FaintSmile\" target=\"actor\" targetSpec=\"\"}}"
  },
  {
    "label": "102",
    "attribute": "0x0000000000000000",
    "text": "{{fun_0014003C arg=\"\"}}"
  },
  {
    "label": "102_01",
    "attribute": "0x0000000000000000",
    "text": "{{anim id=\"HappyFlower\" target=\"actor\" targetSpec=\"\"}}{{capitalizeNextLetter}}{{string value=\"NickName\"}}! {{delay20}}Tu as vu?{{delay20}}\nJe t'avais bien dit que je poserais\nmes valises sur ton île!\n{{anim id=\"HappyDance\" target=\"actor\" targetSpec=\"\"}}J'ai vraiment bien fait de prendre\ncette décision,{{delay8}} les gens ici sont\nadorables!\n{{anim id=\"BigSmile\" target=\"actor\" targetSpec=\"\"}}Encore merci de m'avoir invitée,\n{{string value=\"6\"}}!"
  },
  {
    "label": "102_02",
    "attribute": "0x0000000000000000",
    "text": "{{anim id=\"Aha\" target=\"actor\" targetSpec=\"\"}}{{capitalizeNextLetter}}{{string value=\"NickName\"}}!{{delay frames=\"40\"}} {{anim id=\"EmotEnd\" target=\"actor\" targetSpec=\"\"}}Je suis venue,{{delay8}} {{anim id=\"Dance\" target=\"actor\" targetSpec=\"\"}}comme je l'avais dit, {{string value=\"6\"}}!{{pageBreak}}{{anim id=\"ShyBoy\" target=\"actor\" targetSpec=\"\"}}Pour être honnête, {{delay8}}j'ai commencé à\nfaire mes bagages tout juste après\nnotre petite conversation.\n{{anim id=\"FaintSmile\" target=\"actor\" targetSpec=\"\"}}Et maintenant,{{delay8}} je peux enfin prendre\nun petit moment pour souffler {{delay8}}{{anim id=\"EmotEnd\" target=\"actor\" targetSpec=\"\"}}et\ncommencer à profiter de cette île.\n{{anim id=\"Greeting\" target=\"actor\" targetSpec=\"\"}}Mais avant toute chose,{{delay8}} je tenais à\nte remercier de m'avoir invitée à\nvenir en ce lieu si charmant!"
  },
  {
    "label": "102_03",
    "attribute": "0x0000000000000000",
    "text": "{{anim id=\"Aha\" target=\"actor\" targetSpec=\"\"}}{{capitalizeNextLetter}}{{string value=\"NickName\"}}!{{delay frames=\"40\"}} {{anim id=\"FaintSmile\" target=\"actor\" targetSpec=\"\"}}Tu as vu?{{delay8}}\nJ'ai pu faire le trajet jusqu'à cette île\nsans encombre!{{pageBreak}}Pardon d'avoir tant tardé à venir\nte voir.{{delay20}} {{anim id=\"Greeting\" target=\"actor\" targetSpec=\"\"}}J'ai été captivée par le\ncharme {{gender4 m=\"de \" f=\"d'\"}}⁠{{string value=\"OtherIslandName\"}}!{{pageBreak}}{{anim id=\"Nodding\" target=\"actor\" targetSpec=\"\"}}Je suis heureuse que tu m'aies\ninvitée à venir vivre ici{{string value=\"...\"}}{{pageBreak}}{{anim id=\"Hello\" target=\"actor\" targetSpec=\"\"}}... et doublement heureuse de savoir\nque nous sommes désormais\nvoisin{{gender2 m=\"\" f=\"e\"}}s!"
  },
  {
    "label": "103",
    "attribute": "0x0000000000000000",
    "text": "{{anim id=\"Aha\" target=\"actor\" targetSpec=\"\"}}Bonjour!{{delay20}}{{anim id=\"QuestionMark\" target=\"actor\" targetSpec=\"\"}} Te souviens-tu de moi?{{i10_4}}\n{{anim id=\"BigSmile\" target=\"actor\" targetSpec=\"\"}}Je suis {{string value=\"VillagerName\"}}.{{delay8}} On s'est\n{{gender2 m=\"croisés\" f=\"croisées\"}} sur une autre île{{string value=\"...\"}}{{pageBreak}}{{anim id=\"Explain\" target=\"actor\" targetSpec=\"\"}}Puis tu m'as proposé de m'installer\nici, {{delay8}}est-ce que ça te revient?{{delay20}} {{anim id=\"FaintSmile\" target=\"actor\" targetSpec=\"\"}}Comme\ntu peux le voir,{{delay8}} je suis bien venue!{{pageBreak}}{{anim id=\"Nodding\" target=\"actor\" targetSpec=\"\"}}Depuis le temps que je ne t'ai pas\n{{gender2 m=\"revu\" f=\"revue\"}},{{delay8}} je commençais à avoir peur\nque tu aies déménagé.\n{{anim id=\"Hello\" target=\"actor\" targetSpec=\"\"}}Fort heureusement,{{delay8}} on dirait que\nmes inquiétudes n'avaient pas lieu\nd'être, {{string value=\"6\"}}!"
  },
  {
    "label": "104",
    "attribute": "0x0000000000000000",
    "text": "{{anim id=\"Eh\" target=\"actor\" targetSpec=\"\"}}Oh,{{delay8}} {{string value=\"NickName\"}}{{string value=\"...\"}} C'est très gentil d'être {{gender2 m=\"venu\" f=\"venue\"}} me voir{{anim id=\"Sneezing\" target=\"actor\" targetSpec=\"\"}}{{string value=\"...\"}}{{pageBreak}}{{anim id=\"Confused\" target=\"actor\" targetSpec=\"\"}}C'est toi qui m'as proposé de vivre\nici lorsque nous nous sommes\ncroisé{{gender2 m=\"\" f=\"e\"}}s sur une autre île, mais{{string value=\"...\"}}\n{{anim id=\"Worried\" target=\"actor\" targetSpec=\"\"}}... je crois bien que je suis tombée\nmalade durant le trajet, {{string value=\"6\"}}{{string value=\"...\"}}{{anim id=\"Sneezing\" target=\"actor\" targetSpec=\"\"}}{{delay20}}{{pageBreak}}{{anim id=\"Shaking\" target=\"actor\" targetSpec=\"\"}}Pourrais-tu repasser plus tard?{{anim id=\"Sneezing\" target=\"actor\" targetSpec=\"\"}}{{delay20}}\nLe temps que je me rétablisse,\n{{string value=\"6\"}}{{string value=\"...\"}}"
  },
  {
    "label": "201",
    "attribute": "0x0000000000000000",
    "text": "{{fun_0014003C arg=\"\"}}"
  },
  {
    "label": "201_01",
    "attribute": "0x0000000000000000",
    "text": "{{anim id=\"Aha\" target=\"actor\" targetSpec=\"\"}}Te voilà,{{delay8}} {{string value=\"NickName\"}}!{{delay20}} {{anim id=\"EmotEnd\" target=\"actor\" targetSpec=\"\"}}Comme tu peux le voir,{{delay8}} {{anim id=\"Dance\" target=\"actor\" targetSpec=\"\"}}j'ai suivi ton conseil et je me suis installée ici!{{pageBreak}}{{anim id=\"ShyBoy\" target=\"actor\" targetSpec=\"\"}}Comme tu l'auras aussi remarqué,{{delay8}}\nje ne suis pas encore disposée à\nrecevoir de la visite.\n{{anim id=\"FaintSmile\" target=\"actor\" targetSpec=\"\"}}J'aurai sans doute terminé de tout\ndéballer d'ici demain,{{delay20}}{{anim id=\"Hello\" target=\"actor\" targetSpec=\"\"}} si jamais tu\nveux repasser, {{string value=\"6\"}}."
  },
  {
    "label": "201_02",
    "attribute": "0x0000000000000000",
    "text": "{{anim id=\"Eh\" target=\"actor\" targetSpec=\"\"}}Ça alors!{{delay8}} {{capitalizeNextLetter}}{{string value=\"NickName\"}}, {{delay8}}{{anim id=\"Grin\" target=\"actor\" targetSpec=\"\"}}tu as fait tout ce chemin pour venir me voir?{{pageBreak}}{{anim id=\"SmugFace\" target=\"actor\" targetSpec=\"\"}}Tu n'as pas pu t'en empêcher,{{delay8}}\nn'est-ce pas?{{pageBreak}}{{anim id=\"Smiling\" target=\"actor\" targetSpec=\"\"}}Comme tu peux le voir,{{delay8}} j'ai suivi\nta recommandation et j'ai emménagé\nà {{string value=\"OtherIslandName\"}}.\n{{anim id=\"Sighing\" target=\"actor\" targetSpec=\"\"}}Malheureusement je croule encore\nsous les boîtes,{{delay20}}{{anim id=\"FaintSmile\" target=\"actor\" targetSpec=\"\"}} mais c'est tout de\nmême gentil d'être {{gender2 m=\"passé\" f=\"passée\"}}!"
  },
  {
    "label": "201_03",
    "attribute": "0x0000000000000000",
    "text": "{{anim id=\"Grin\" target=\"actor\" targetSpec=\"\"}}Alors, {{delay8}}{{string value=\"NickName\"}}{{string value=\"...\"}}{{delay20}}\n{{gender2 m=\"Surpris\" f=\"Surprise\"}}?{{pageBreak}}{{anim id=\"SmugFace\" target=\"actor\" targetSpec=\"\"}}Comme tu peux le voir,{{delay8}}{{anim id=\"HappyFlower\" target=\"actor\" targetSpec=\"\"}} je n'ai pas\nperdu de temps pour poser mes\nvalises sur cette île!\n{{anim id=\"HappyDance\" target=\"actor\" targetSpec=\"\"}}Dès que j'ai posé la patte ici,{{delay8}} ça a\nété le coup de foudre! {{anim id=\"Smiling\" target=\"actor\" targetSpec=\"\"}}Merci encore\nde m'avoir invitée.\n{{anim id=\"Shocked\" target=\"actor\" targetSpec=\"\"}}{{capitalizeNextLetter}}{{string value=\"Catchphrase\"}}!{{delay8}} J'espère que c'est\nparti pour durer!{{pageBreak}}{{anim id=\"Hello\" target=\"actor\" targetSpec=\"\"}}Quoi qu'il en soit, {{delay8}}je devrais avoir fini\nde m'installer demain. {{delay20}}{{anim id=\"BigSmile\" target=\"actor\" targetSpec=\"\"}}On pourra en\nprofiter pour papoter à loisir!{{anim id=\"FaintSmile\" target=\"actor\" targetSpec=\"\"}}"
  },
  {
    "label": "202",
    "attribute": "0x0000000000000000",
    "text": "{{fun_0014003C arg=\"\"}}"
  },
  {
    "label": "202_01",
    "attribute": "0x0000000000000000",
    "text": "{{anim id=\"HappyFlower\" target=\"actor\" targetSpec=\"\"}}{{capitalizeNextLetter}}{{string value=\"NickName\"}}! {{delay8}}Je ne t'avais pas menti, tu vois? {{delay frames=\"13\"}}J'ai emménagé sur l'île!{{pageBreak}}{{anim id=\"Grin\" target=\"actor\" targetSpec=\"\"}}On en avait parlé au {{color id=\"1\"}}camping{{color id=\"65535\"}},{{delay8}}\ntu te souviens?{{delay20}} {{anim id=\"Smiling\" target=\"actor\" targetSpec=\"\"}}Je ne regrette pas\nma décision,{{delay8}} c'est magnifique ici.\n{{anim id=\"EmotEnd\" target=\"actor\" targetSpec=\"\"}}Et tu veux savoir ce qui me plaît le\nplus?{{delay frames=\"13\"}}{{anim id=\"BigSmile\" target=\"actor\" targetSpec=\"\"}} C'est que tu sois là!{{delay20}} Je ne te\nremercierai jamais assez.\n{{anim id=\"Clapping\" target=\"actor\" targetSpec=\"\"}}J'avais grand besoin de changement,\n{{string value=\"6\"}}.{{delay8}}{{anim id=\"FaintSmile\" target=\"actor\" targetSpec=\"\"}}"
  },
  {
    "label": "202_02",
    "attribute": "0x0000000000000000",
    "text": "{{anim id=\"Smiling\" target=\"actor\" targetSpec=\"\"}}Oh, {{string value=\"NickName\"}}! {{delay frames=\"13\"}}Tu te souviens,{{delay8}} au {{color id=\"1\"}}camping{{color id=\"65535\"}},{{delay8}} quand je t'ai dit que j'allais m'installer ici?{{pageBreak}}{{anim id=\"Dance\" target=\"actor\" targetSpec=\"\"}}Eh bien, c'est chose faite!{{delay20}} {{anim id=\"ShyBoy\" target=\"actor\" targetSpec=\"\"}}J'ai\ncommencé à faire mes boîtes juste\naprès ton invitation, {{string value=\"6\"}}{{string value=\"...\"}}{{pageBreak}}{{anim id=\"FaintSmile\" target=\"actor\" targetSpec=\"\"}}Je n'ai pas encore tout déballé,{{delay8}} mais\nj'ai décidé de m'accorder une petite\npause{{delay frames=\"13\"}}{{anim id=\"EmotEnd\" target=\"actor\" targetSpec=\"\"}} pour profiter de l'île!\n{{anim id=\"Greeting\" target=\"actor\" targetSpec=\"\"}}Il faut que je te remercie,{{delay8}} c'est à toi\nque je dois ma nouvelle vie ici.{{delay20}}{{anim id=\"HappyDance\" target=\"actor\" targetSpec=\"\"}} Tu es\n{{gender2 m=\"le meilleur\" f=\"la meilleure\"}}!"
  },
  {
    "label": "202_03",
    "attribute": "0x0000000000000000",
    "text": "{{anim id=\"Aha\" target=\"actor\" targetSpec=\"\"}}{{capitalizeNextLetter}}{{string value=\"NickName\"}}!{{delay frames=\"13\"}} Est-ce que tu arrives à croire que je suis ici? {{delay20}}{{anim id=\"Smiling\" target=\"actor\" targetSpec=\"\"}}Moi, toujours pas, {{string value=\"6\"}}.{{pageBreak}}{{anim id=\"Worried\" target=\"actor\" targetSpec=\"\"}}Je voulais passer avant,{{delay frames=\"40\"}} {{anim id=\"HappyFlower\" target=\"actor\" targetSpec=\"\"}}mais j'étais\ntrop occupée à m'extasier devant les\npaysages {{gender4 m=\"de \" f=\"d'\"}}⁠{{string value=\"OtherIslandName\"}}!{{pageBreak}}{{anim id=\"Smiling\" target=\"actor\" targetSpec=\"\"}}Quelle bonne idée tu as eue de me\nsuggérer de venir habiter ici,{{delay8}} quand\non s'est vu{{gender2 m=\"\" f=\"e\"}}s au {{color id=\"1\"}}camping{{color id=\"65535\"}}!\n{{anim id=\"Hello\" target=\"actor\" targetSpec=\"\"}}On risque de se croiser très souvent,{{delay8}}\n« voisin{{gender2 m=\"\" f=\"e\"}} »!"
  },
  {
    "label": "203",
    "attribute": "0x0000000000000000",
    "text": "{{anim id=\"Aha\" target=\"actor\" targetSpec=\"\"}}Bonjour!{{delay8}} Tu te souviens de moi?{{delay20}}\n{{anim id=\"BigSmile\" target=\"actor\" targetSpec=\"\"}}{{string value=\"VillagerName\"}},{{delay8}} nous nous sommes {{gender2 m=\"rencontrés\" f=\"rencontrées\"}} au {{color id=\"1\"}}camping{{color id=\"65535\"}}.{{pageBreak}}{{anim id=\"Explain\" target=\"actor\" targetSpec=\"\"}}Suite à ça,{{delay8}} tu m'as invitée à venir\nemménager sur cette île.{{delay20}} Et comme\ntu peux le voir,{{delay8}}{{anim id=\"Smiling\" target=\"actor\" targetSpec=\"\"}} je suis venue!\n{{anim id=\"Worried\" target=\"actor\" targetSpec=\"\"}}Je n'avais pas encore eu l'occasion\nde te l'annoncer.{{delay frames=\"40\"}} {{anim id=\"Smiling\" target=\"actor\" targetSpec=\"\"}}C'est désormais\nchose faite, {{string value=\"6\"}}!"
  },
  {
    "label": "204",
    "attribute": "0x0000000000000000",
    "text": "{{anim id=\"Eh\" target=\"actor\" targetSpec=\"\"}}Oh!{{delay frames=\"13\"}} {{capitalizeNextLetter}}{{string value=\"NickName\"}}!{{delay frames=\"13\"}}\nTu es {{gender2 m=\"passé\" f=\"passée\"}} me voir{{string value=\"...\"}}{{delay frames=\"13\"}}{{anim id=\"Sneezing\" target=\"actor\" targetSpec=\"\"}}{{pageBreak}}{{anim id=\"Worried\" target=\"actor\" targetSpec=\"\"}}Tu m'avais invitée à emménager ici\naprès notre rencontre au {{color id=\"1\"}}camping{{color id=\"65535\"}}{{string value=\"...\"}}{{delay frames=\"13\"}}\net j'ai accepté ton invitation.\n{{anim id=\"Sneezing\" target=\"actor\" targetSpec=\"\"}}{{delay20}}Mais il semblerait que j'aie attrapé\nun coup de froid.{{delay frames=\"40\"}} {{anim id=\"Sneezing\" target=\"actor\" targetSpec=\"\"}}{{delay20}}Hmpf, {{delay8}}je suis\nvraiment désolée.{{pageBreak}}{{anim id=\"Shaking\" target=\"actor\" targetSpec=\"\"}}J'ai tant de choses à te raconter,{{delay frames=\"13\"}}\nmais{{string value=\"...\"}}{{delay8}}{{anim id=\"Sneezing\" target=\"actor\" targetSpec=\"\"}}{{delay20}} mais cela va devoir attendre\nque je me rétablisse, {{string value=\"6\"}}."
  },
  {
    "label": "211",
    "attribute": "0x0000000000000000",
    "text": "{{fun_0014003C arg=\"\"}}"
  },
  {
    "label": "211_01",
    "attribute": "0x0000000000000000",
    "text": "{{anim id=\"Smiling\" target=\"actor\" targetSpec=\"\"}}Tiens,{{delay8}} mais c'est {{string value=\"NickName\"}}!{{delay frames=\"13\"}} Surprise! {{delay frames=\"13\"}}{{anim id=\"Dance\" target=\"actor\" targetSpec=\"\"}}Eh oui,{{delay8}} j'habite ici désormais!{{pageBreak}}{{anim id=\"Explain\" target=\"actor\" targetSpec=\"\"}}Vois-tu,{{delay8}} {{selection value=\"SelectedName\"}} m'a invitée à emménager ici alors que j'étais venue faire du {{color id=\"1\"}}camping{{color id=\"65535\"}}.{{pageBreak}}Alors, {{delay8}}{{anim id=\"HappyDance\" target=\"actor\" targetSpec=\"\"}}me voilà! {{delay8}}{{anim id=\"EmotEnd\" target=\"actor\" targetSpec=\"\"}}Mais comme tu peux\nle voir, j'ai encore des boîtes\nà déballer.\n{{anim id=\"EmotEnd\" target=\"actor\" targetSpec=\"\"}}Laisse-moi un peu de temps pour en\nfinir,{{delay20}}{{anim id=\"SmugFace\" target=\"actor\" targetSpec=\"\"}} tu ne vas pas être déçu{{gender2 m=\"\" f=\"e\"}} du\nrésultat, {{string value=\"6\"}}!"
  },
  {
    "label": "211_02",
    "attribute": "0x0000000000000000",
    "text": "{{anim id=\"Aha\" target=\"actor\" targetSpec=\"\"}}Oh,{{delay8}} {{string value=\"NickName\"}}!{{delay8}} Tu ne devineras jamais!{{pageBreak}}{{anim id=\"Explain\" target=\"actor\" targetSpec=\"\"}}J'étais de passage au {{color id=\"1\"}}camping{{color id=\"65535\"}} quand j'ai croisé {{selection value=\"SelectedName\"}} qui m'a conviée à emménager ici.{{pageBreak}}{{anim id=\"FaintSmile\" target=\"actor\" targetSpec=\"\"}}Et c'est chose faite depuis{{string value=\"...\"}}\naujourd'hui! {{delay20}}{{anim id=\"HappyDance\" target=\"actor\" targetSpec=\"\"}}Nous voilà\nofficiellement voisin{{gender2 m=\"\" f=\"e\"}}s!{{pageBreak}}{{anim id=\"BigSmile\" target=\"actor\" targetSpec=\"\"}}J'ai hâte de pouvoir faire plus ample\nconnaissance avec toi.{{pageBreak}}{{anim id=\"Nodding\" target=\"actor\" targetSpec=\"\"}}Mais avant toute chose, {{delay8}}j'ai toute\nune pile de boîtes à déballer, {{string value=\"6\"}}."
  },
  {
    "label": "212",
    "attribute": "0x0000000000000000",
    "text": "{{fun_0014003C arg=\"\"}}"
  },
  {
    "label": "212_01",
    "attribute": "0x0000000000000000",
    "text": "{{anim id=\"Hesitate\" target=\"actor\" targetSpec=\"\"}}Oh, {{string value=\"NickName\"}}!{{delay20}} Est-ce que tu as entendu la nouvelle?{{pageBreak}}{{anim id=\"Explain\" target=\"actor\" targetSpec=\"\"}}En faisant du {{color id=\"1\"}}camping{{color id=\"65535\"}},{{delay8}} je suis tombée sur {{selection value=\"SelectedName\"}} qui m'a conviée à venir vivre ici.{{pageBreak}}{{anim id=\"HappyDance\" target=\"actor\" targetSpec=\"\"}}Et j'ai accepté!{{delay20}} {{anim id=\"SmugFace\" target=\"actor\" targetSpec=\"\"}}Je suis dorénavant\nta nouvelle voisine, {{string value=\"6\"}}!{{pageBreak}}{{anim id=\"Nodding\" target=\"actor\" targetSpec=\"\"}}Je n'ai pas encore fini de prendre\nmes marques,{{delay8}} alors n'hésite pas si tu\nas des conseils à me donner."
  },
  {
    "label": "212_02",
    "attribute": "0x0000000000000000",
    "text": "{{anim id=\"Hello\" target=\"actor\" targetSpec=\"\"}}Tiens,{{delay8}} mais c'est {{string value=\"NickName\"}}!{{delay frames=\"40\"}}\n{{anim id=\"Grin\" target=\"actor\" targetSpec=\"\"}}Peux-tu deviner ce que je fais ici\nsur votre île?{{pageBreak}}Eh bien{{string value=\"...\"}}{{anim id=\"HappyDance\" target=\"actor\" targetSpec=\"\"}} c'est ici que je vis,\ndésormais!{{pageBreak}}{{anim id=\"Explain\" target=\"actor\" targetSpec=\"\"}}{{capitalizeNextLetter}}{{selection value=\"SelectedName\"}} m'a proposé d'emménager ici pendant que je venais faire du {{color id=\"1\"}}camping{{color id=\"65535\"}}.{{pageBreak}}{{anim id=\"Nodding\" target=\"actor\" targetSpec=\"\"}}Une invitation comme ça,{{delay8}} ça ne se\nrefuse pas.{{delay20}} Tu ne penses pas?{{pageBreak}}En tous cas,{{anim id=\"FaintSmile\" target=\"actor\" targetSpec=\"\"}} je suis ravie de t'avoir\ncomme nouve{{gender2 m=\"au\" f=\"lle\"}} voisin{{gender2 m=\"\" f=\"e\"}}, {{string value=\"6\"}}."
  },
  {
    "label": "213",
    "attribute": "0x0000000000000000",
    "text": "{{anim id=\"Eh\" target=\"actor\" targetSpec=\"\"}}{{capitalizeNextLetter}}{{string value=\"NickName\"}}!{{delay20}} {{anim id=\"Negative\" target=\"actor\" targetSpec=\"\"}}Ça fait une éternité qu'on ne s'est pas {{gender2 m=\"vus\" f=\"vues\"}},{{delay8}} et dire qu'on vit sur la même île{{string value=\"...\"}}{{pageBreak}}{{anim id=\"BigSmile\" target=\"actor\" targetSpec=\"\"}}Eh oui,{{delay8}} tu as bien entendu,{{delay8}} je vis ici\ndésormais!{{pageBreak}}{{anim id=\"Explain\" target=\"actor\" targetSpec=\"\"}}Vois-tu, {{delay20}}je faisais un brin de {{color id=\"1\"}}camping{{color id=\"65535\"}}\nici quand {{selection value=\"SelectedName\"}} m'a invitée à emménager pour de bon!{{delay20}}{{anim id=\"EmotEnd\" target=\"actor\" targetSpec=\"\"}}{{pageBreak}}{{anim id=\"HappyFlower\" target=\"actor\" targetSpec=\"\"}}Et je peux te dire que j'en suis ravie!{{delay20}}\n{{anim id=\"Smiling\" target=\"actor\" targetSpec=\"\"}}Cette île est formidable{{string value=\"...\"}} et ta\nprésence ici n'y est pas pour rien!"
  },
  {
    "label": "214",
    "attribute": "0x0000000000000000",
    "text": "{{anim id=\"Worried\" target=\"actor\" targetSpec=\"\"}}{{string value=\"...\"}} {{capitalizeNextLetter}}{{string value=\"NickName\"}}{{string value=\"...\"}}{{anim id=\"Sneezing\" target=\"actor\" targetSpec=\"\"}}{{delay frames=\"40\"}} Je suis terriblement désolée de ne pas avoir pu venir te saluer plus tôt{{string value=\"...\"}}{{pageBreak}}{{anim id=\"Worried\" target=\"actor\" targetSpec=\"\"}}Vois-tu{{string value=\"...\"}} je faisais du {{color id=\"1\"}}camping{{color id=\"65535\"}} par \nici quand {{delay8}}{{selection value=\"SelectedName\"}} m'a conviée à emménager pour de bon.{{pageBreak}}Donc{{string value=\"...\"}}{{anim id=\"Sneezing\" target=\"actor\" targetSpec=\"\"}}{{delay frames=\"60\"}} me voilà.{{delay20}} {{anim id=\"Sneezing\" target=\"actor\" targetSpec=\"\"}}{{delay frames=\"60\"}}En compagnie d'un\nvilain rhume.{{pageBreak}}{{anim id=\"Sneezing\" target=\"actor\" targetSpec=\"\"}}{{delay frames=\"60\"}}{{string value=\"...\"}} Bigre!{{delay20}} Ça m'embête que tu me\nvoies comme ça.{{delay20}}{{anim id=\"Sighing\" target=\"actor\" targetSpec=\"\"}} Parlons plutôt\nquand j'irai mieux, {{string value=\"6\"}}."
  },
  {
    "label": "221",
    "attribute": "0x0000000000000000",
    "text": "{{anim id=\"Smiling\" target=\"actor\" targetSpec=\"\"}}{{capitalizeNextLetter}}{{string value=\"NickName\"}}!{{delay frames=\"13\"}} Tu ne vas pas le croire,{{delay8}} mais{{string value=\"...\"}}{{delay20}}{{anim id=\"HappyDance\" target=\"actor\" targetSpec=\"\"}} je viens tout juste d'emménager sur cette île!{{pageBreak}}{{anim id=\"Explain\" target=\"actor\" targetSpec=\"\"}}C'est une connaissance originaire\nd'ici qui m'a invitée à venir poser\nmes valises sur ce bout de terre.\n{{anim id=\"Explain\" target=\"actor\" targetSpec=\"\"}}Et pour la petite histoire, l'idée est\nvenue pendant que j'étais passée\nfaire du {{color id=\"1\"}}camping{{color id=\"65535\"}}.\nMais à mon arrivée, {{delay frames=\"13\"}}{{anim id=\"SadSpiral\" target=\"actor\" targetSpec=\"\"}}ma connaissance\navait à son tour déménagé!{{delay20}} {{anim id=\"Outraged\" target=\"actor\" targetSpec=\"\"}}Tu peux\ncroire une chose pareille, toi?!{{pageBreak}}{{anim id=\"Negative\" target=\"actor\" targetSpec=\"\"}}Enfin,{{delay8}} je ne compte pas me laisser\ndécontenancer pour si peu.{{delay20}}{{anim id=\"FaintSmile\" target=\"actor\" targetSpec=\"\"}} Et puis\ntu es là,{{delay8}} toi."
  },
  {
    "label": "222",
    "attribute": "0x0000000000000000",
    "text": "{{anim id=\"Shocked\" target=\"actor\" targetSpec=\"\"}}{{capitalizeNextLetter}}{{string value=\"NickName\"}}!{{delay frames=\"40\"}} {{anim id=\"HappyFlower\" target=\"actor\" targetSpec=\"\"}}Tu ne peux pas savoir combien je suis heureuse de te voir, {{string value=\"6\"}}!{{pageBreak}}{{anim id=\"Explain\" target=\"actor\" targetSpec=\"\"}}Vois-tu,{{delay frames=\"13\"}} j'ai emménagé suite à\nl'invitation de quelqu'un {{gender4 m=\"de \" f=\"d'\"}}⁠{{string value=\"OtherIslandName\"}}.{{pageBreak}}C'est arrivé pendant que je faisais\nun brin de {{color id=\"1\"}}camping{{color id=\"65535\"}} dans les\nenvirons.{{delay frames=\"13\"}} {{anim id=\"OhGeez\" target=\"actor\" targetSpec=\"\"}}Jusque-là,{{delay8}} rien d'anormal{{string value=\"...\"}}{{pageBreak}}{{anim id=\"SadSpiral\" target=\"actor\" targetSpec=\"\"}}Mais à mon arrivée,{{delay8}} cette personne\navait tout bonnement disparu sans\nlaisser de trace!\n{{anim id=\"BigSmile\" target=\"actor\" targetSpec=\"\"}}Enfin heureusement que toi au\nmoins,{{delay8}} tu es là!"
  },
  {
    "label": "224",
    "attribute": "0x0000000000000000",
    "text": "{{anim id=\"Confused\" target=\"actor\" targetSpec=\"\"}}Oh, {{string value=\"NickName\"}}{{string value=\"...\"}}{{delay20}}{{anim id=\"Sneezing\" target=\"actor\" targetSpec=\"\"}}{{delay frames=\"60\"}}\nEs-tu surpris{{gender2 m=\"\" f=\"e\"}} de me voir ici?{{delay20}}{{anim id=\"Sneezing\" target=\"actor\" targetSpec=\"\"}}{{delay frames=\"40\"}}{{pageBreak}}{{anim id=\"Worried\" target=\"actor\" targetSpec=\"\"}}Il se trouve que je faisais un brin de\n{{color id=\"1\"}}camping{{color id=\"65535\"}} quand quelqu'un m'a\nproposé de venir emménager ici.\n{{anim id=\"Sneezing\" target=\"actor\" targetSpec=\"\"}}{{delay frames=\"60\"}}Ce que j'ai fait.{{anim id=\"Sneezing\" target=\"actor\" targetSpec=\"\"}}{{delay frames=\"60\"}} Mais cette personne,{{delay frames=\"13\"}}\ndont je tairais le nom, {{delay frames=\"13\"}}a tout\nbonnement{{delay20}}{{anim id=\"Sneezing\" target=\"actor\" targetSpec=\"\"}}{{delay frames=\"60\"}} disparu.\n{{anim id=\"Sighing\" target=\"actor\" targetSpec=\"\"}}Et cerise sur le gâteau,{{delay20}}{{anim id=\"Sneezing\" target=\"actor\" targetSpec=\"\"}} {{delay frames=\"60\"}}je suis\ntombée malade{{string value=\"...\"}}{{pageBreak}}{{anim id=\"Restless\" target=\"actor\" targetSpec=\"\"}}Si tu veux bien m'excuser,{{delay frames=\"13\"}} j'aimerais\nrester seule un moment.{{delay20}}{{anim id=\"FaintSmile\" target=\"actor\" targetSpec=\"\"}} Mais nous\nparlerons une autre fois."
  },
  {
    "label": "301",
    "attribute": "0x0000000000000000",
    "text": "{{fun_0014003C arg=\"\"}}"
  },
  {
    "label": "301_01",
    "attribute": "0x0000000000000000",
    "text": "{{anim id=\"Cheering\" target=\"actor\" targetSpec=\"\"}}Oh {{string value=\"NickName\"}}!{{delay20}}\nComme tu peux le voir,{{delay8}} je suis\nbel et bien venue!{{pageBreak}}{{anim id=\"HappyDance\" target=\"actor\" targetSpec=\"\"}}Nous avons passé un si bon moment\nau {{color id=\"1\"}}camping {{color id=\"65535\"}}que je n'ai pas pu ne pas\ndonner suite à ton invitation!{{pageBreak}}{{anim id=\"Grin\" target=\"actor\" targetSpec=\"\"}}Me voilà donc prête à découvrir\n{{string value=\"OtherIslandName\"}} en profondeur,{{delay8}} prête à en découvrir tous les secrets.{{pageBreak}}{{anim id=\"Thinking\" target=\"actor\" targetSpec=\"\"}}Mais avant de l'explorer, {{delay20}}{{anim id=\"OhGeez\" target=\"actor\" targetSpec=\"\"}}il va d'abord\nfalloir que je termine d'emménager, {{string value=\"6\"}}.{{pageBreak}}{{anim id=\"FaintSmile\" target=\"actor\" targetSpec=\"\"}}Demain,{{delay8}} par contre,{{delay8}} je devrais avoir\ndu temps libre!"
  },
  {
    "label": "301_02",
    "attribute": "0x0000000000000000",
    "text": "{{anim id=\"Shocked\" target=\"actor\" targetSpec=\"\"}}Oh!{{delay20}} {{capitalizeNextLetter}}{{string value=\"NickName\"}}!{{delay20}}{{anim id=\"Smiling\" target=\"actor\" targetSpec=\"\"}} Tu n'as pas perdu de temps pour venir me rendre visite, dis donc!{{pageBreak}}{{anim id=\"Blushing\" target=\"actor\" targetSpec=\"\"}}Je dois dire que j'ai passé un\nexcellent moment au {{color id=\"1\"}}camping{{color id=\"65535\"}}\nen ta compagnie.\n{{anim id=\"HappyFlower\" target=\"actor\" targetSpec=\"\"}}D'ailleurs,{{delay8}} merci encore de m'avoir\ninvitée!{{delay20}}{{anim id=\"OhGeez\" target=\"actor\" targetSpec=\"\"}} Je t'aurais bien convié{{gender2 m=\"\" f=\"e\"}} à\nvenir prendre le thé{{string value=\"...\"}}\n{{anim id=\"OhGeez\" target=\"actor\" targetSpec=\"\"}}Mais comme tu peux le voir,{{delay8}} j'ai déjà\nfort à faire avec mes boîtes,\n{{string value=\"6\"}}.\n{{anim id=\"Nodding\" target=\"actor\" targetSpec=\"\"}}Mais je compte bien achever cette\nbesogne d'ici ce soir, nous pourrons\ndonc bientôt discuter ensemble."
  },
  {
    "label": "301_03",
    "attribute": "0x0000000000000000",
    "text": "{{anim id=\"Shocked\" target=\"actor\" targetSpec=\"\"}}Oh!{{delay20}} {{capitalizeNextLetter}}{{string value=\"NickName\"}}!{{delay frames=\"40\"}}{{pageBreak}}{{anim id=\"Blushing\" target=\"actor\" targetSpec=\"\"}}J'apprécie que tu viennes déjà me\nrendre visite{{string value=\"...\"}}{{delay frames=\"40\"}}{{anim id=\"OhGeez\" target=\"actor\" targetSpec=\"\"}} mais je ne suis pas\nencore prête à recevoir du monde!\n{{anim id=\"Laughing\" target=\"actor\" targetSpec=\"\"}}Mais je comprends ton impatience!{{delay20}}\n{{anim id=\"HappyDance\" target=\"actor\" targetSpec=\"\"}}Moi aussi, j'ai eu hâte de te revoir\ndepuis le {{color id=\"1\"}}camping{{color id=\"65535\"}}.\n{{anim id=\"Nodding\" target=\"actor\" targetSpec=\"\"}}Laisse-moi juste jusqu'à demain,{{delay frames=\"40\"}}{{anim id=\"HappyFlower\" target=\"actor\" targetSpec=\"\"}}\net après ça, nous pourrons rattraper\nle temps perdu, {{string value=\"6\"}}."
  },
  {
    "label": "302",
    "attribute": "0x0000000000000000",
    "text": "{{fun_0014003C arg=\"\"}}"
  },
  {
    "label": "302_01",
    "attribute": "0x0000000000000000",
    "text": "{{anim id=\"FaintSmile\" target=\"actor\" targetSpec=\"\"}}Comme tu peux le voir, {{delay8}}{{string value=\"NickName\"}},{{delay8}} je suis là.{{pageBreak}}{{anim id=\"Blushing\" target=\"actor\" targetSpec=\"\"}}Je ne sais pas si je te l'ai déjà dit,{{delay8}}\nmais j'ai été très touchée par ton\ninvitation.{{delay20}}\n{{anim id=\"Laughing\" target=\"actor\" targetSpec=\"\"}}Qui aurait cru qu'une simple visite au\n{{color id=\"1\"}}camping {{color id=\"65535\"}}marquerait un tournant\ndans ma vie?{{pageBreak}}{{anim id=\"FaintSmile\" target=\"actor\" targetSpec=\"\"}}En tous cas, nous voilà désormais\nvoisin{{gender2 m=\"\" f=\"e\"}}s!{{delay20}}{{anim id=\"Grin\" target=\"actor\" targetSpec=\"\"}} On va pouvoir s'échanger\ndes potins à l'envi{{string value=\"...\"}}"
  },
  {
    "label": "302_02",
    "attribute": "0x0000000000000000",
    "text": "{{anim id=\"Aha\" target=\"actor\" targetSpec=\"\"}}{{capitalizeNextLetter}}{{string value=\"NickName\"}}!{{delay20}}\nJ'ai emménagé ici, {{string value=\"6\"}}!{{delay20}}\n{{anim id=\"FaintSmile\" target=\"actor\" targetSpec=\"\"}}Ça te fait plaisir,{{delay8}} j'espère.\n{{anim id=\"Nodding\" target=\"actor\" targetSpec=\"\"}}Après tout,{{delay8}} c'est uniquement grâce\nà toi que j'ai pu franchir le pas.{{pageBreak}}{{anim id=\"Grin\" target=\"actor\" targetSpec=\"\"}}Tu as tellement chanté les louanges\nde cette île quand on s'est vu{{gender2 m=\"\" f=\"e\"}}s au\n{{color id=\"1\"}}camping{{color id=\"65535\"}},{{delay8}} il faut dire!\nComment voulais-tu{{delay frames=\"13\"}}{{anim id=\"Laughing\" target=\"actor\" targetSpec=\"\"}} que je ne me\nlaisse pas convaincre?{{pageBreak}}En tous cas,{{delay8}}{{anim id=\"Greeting\" target=\"actor\" targetSpec=\"\"}} j'espère que nous\naurons souvent l'occasion de nous\ncroiser."
  },
  {
    "label": "302_03",
    "attribute": "0x0000000000000000",
    "text": "{{anim id=\"Shocked\" target=\"actor\" targetSpec=\"\"}}{{capitalizeNextLetter}}{{string value=\"NickName\"}}!{{delay frames=\"40\"}}\n{{anim id=\"HappyDance\" target=\"actor\" targetSpec=\"\"}}Je suis si heureuse de te revoir!{{pageBreak}}{{anim id=\"Explain\" target=\"actor\" targetSpec=\"\"}}J'espère que tu repenses aussi avec\nnostalgie aux moments que nous\navons passés ensemble au {{color id=\"1\"}}camping{{color id=\"65535\"}}.{{pageBreak}}{{anim id=\"Grin\" target=\"actor\" targetSpec=\"\"}}Mais je ne me fais aucun doute\nlà-dessus,{{delay8}} étant donné que tu\nm'as invitée à te rejoindre.{{pageBreak}}{{anim id=\"EmotEnd\" target=\"actor\" targetSpec=\"\"}}J'espère {{gender4 m=\"que \" f=\"qu'\"}}⁠{{string value=\"OtherIslandName\"}} est prête à accueillir {{wordArticle}}{{string value=\"VillagerRace\"}} de mon standing!"
  },
  {
    "label": "303",
    "attribute": "0x0000000000000000",
    "text": "{{anim id=\"Shocked\" target=\"actor\" targetSpec=\"\"}}{{capitalizeNextLetter}}{{string value=\"NickName\"}}?!{{delay frames=\"40\"}}\n{{anim id=\"FaintSmile\" target=\"actor\" targetSpec=\"\"}}C'est moi! {{delay20}}{{string value=\"VillagerName\"}}!{{delay frames=\"40\"}}{{anim id=\"EmotEnd\" target=\"actor\" targetSpec=\"\"}}\nTu te souviens de moi,{{delay8}} j'espère?\nQu'est-ce que je raconte?{{delay20}} {{anim id=\"BigSmile\" target=\"actor\" targetSpec=\"\"}}BIEN SÛR\nque tu te souviens!{{delay frames=\"40\"}} {{anim id=\"Greeting\" target=\"actor\" targetSpec=\"\"}}Comment oublier\nnotre rencontre au {{color id=\"1\"}}camping{{color id=\"65535\"}}?\n{{anim id=\"EmotEnd\" target=\"actor\" targetSpec=\"\"}}Je dois avouer que ton invitation m'a\nprise par surprise{{string value=\"...\"}} {{anim id=\"EmotEnd\" target=\"actor\" targetSpec=\"\"}}mais comme tu\npeux le voir,{{delay8}} je l'ai acceptée!{{delay8}}{{pageBreak}}{{anim id=\"FaintSmile\" target=\"actor\" targetSpec=\"\"}}Nous allons avoir un tas de choses\nà nous raconter, toi et moi,\n{{string value=\"6\"}}!"
  },
  {
    "label": "304",
    "attribute": "0x0000000000000000",
    "text": "{{anim id=\"Shaking\" target=\"actor\" targetSpec=\"\"}}Kof!{{delay8}} Kof!{{delay frames=\"60\"}}{{anim id=\"Worried\" target=\"actor\" targetSpec=\"\"}} Oh{{string value=\"...\"}} c'est toi{{string value=\"...\"}}{{delay20}}\n{{capitalizeNextLetter}}{{string value=\"NickName\"}}{{delay frames=\"13\"}}, c'est bien ça{{string value=\"...\"}}?{{pageBreak}}{{anim id=\"Restless\" target=\"actor\" targetSpec=\"\"}}Je suis venue emménager ici,{{delay8}} après\nque tu m'aies invitée à le faire quand\non s'est vu{{gender2 m=\"\" f=\"e\"}}s au {{color id=\"1\"}}camping{{color id=\"65535\"}}.{{delay20}}{{pageBreak}}Mais{{delay frames=\"13\"}}{{anim id=\"Negative\" target=\"actor\" targetSpec=\"\"}} je ne suis pas sûre que cette île\nsoit ravie de me voir arriver{{string value=\"...\"}}{{pageBreak}}{{anim id=\"Worried\" target=\"actor\" targetSpec=\"\"}}Dès l'instant où j'ai posé la patte ici,{{delay8}}\n{{anim id=\"Sighing\" target=\"actor\" targetSpec=\"\"}}j'ai attrapé un méchant coup de\nfroid.{{delay frames=\"40\"}} {{i10_10}}{{anim id=\"Sneezing\" target=\"actor\" targetSpec=\"\"}}AAAATCHOOOOUM!{{i10_9}}{{delay frames=\"40\"}}\n{{anim id=\"Worried\" target=\"actor\" targetSpec=\"\"}}Je vais devoir prendre encore un peu\nde repos avant de pouvoir discuter\navec toi, {{string value=\"6\"}}."
  },
  {
    "label": "311",
    "attribute": "0x0000000000000000",
    "text": "{{fun_0014003C arg=\"\"}}"
  },
  {
    "label": "311_01",
    "attribute": "0x0000000000000000",
    "text": "{{anim id=\"Shocked\" target=\"actor\" targetSpec=\"\"}}Oh, {{string value=\"NickName\"}}!{{delay20}}\n{{anim id=\"FaintSmile\" target=\"actor\" targetSpec=\"\"}}C'est moi. {{delay20}}{{string value=\"VillagerName\"}}!{{pageBreak}}{{anim id=\"Greeting\" target=\"actor\" targetSpec=\"\"}}On s'est rencontré{{gender2 m=\"\" f=\"e\"}}s au {{color id=\"1\"}}camping\n{{color id=\"65535\"}}de cette île,{{delay8}} tu t'en souviens?{{pageBreak}}{{anim id=\"Explain\" target=\"actor\" targetSpec=\"\"}}Il se trouve {{gender4 m=\"que \" f=\"qu'\"}}⁠{{selection value=\"SelectedName\"}} m'a conviée à venir m'installer ici pour de bon.{{delay frames=\"40\"}} {{anim id=\"BigSmile\" target=\"actor\" targetSpec=\"\"}}Et me voilà!{{pageBreak}}{{anim id=\"FaintSmile\" target=\"actor\" targetSpec=\"\"}}Je viens d'arriver aujourd'hui,{{delay8}} pour\nêtre tout à fait honnête avec toi.{{pageBreak}}{{anim id=\"Grin\" target=\"actor\" targetSpec=\"\"}}En tout cas,{{delay8}} je me fais déjà une joie\nde t'avoir comme nouv{{gender2 m=\"eau\" f=\"elle\"}} voisin{{gender2 m=\"\" f=\"e\"}},\n{{string value=\"6\"}}!"
  },
  {
    "label": "311_02",
    "attribute": "0x0000000000000000",
    "text": "{{anim id=\"BigSmile\" target=\"actor\" targetSpec=\"\"}}{{capitalizeNextLetter}}{{string value=\"NickName\"}}!{{delay20}}{{anim id=\"QuestionMark\" target=\"actor\" targetSpec=\"\"}} Tu te souviens de moi?{{pageBreak}}{{anim id=\"FaintSmile\" target=\"actor\" targetSpec=\"\"}}Nous nous sommes rencontré{{gender2 m=\"\" f=\"e\"}}s au\n{{color id=\"1\"}}camping{{color id=\"65535\"}}.{{delay frames=\"40\"}} Je m'appelle {{anim id=\"Greeting\" target=\"actor\" targetSpec=\"\"}}{{string value=\"VillagerName\"}}.{{pageBreak}}{{anim id=\"Explain\" target=\"actor\" targetSpec=\"\"}}Pour tout te dire,{{delay8}} je faisais du\n{{color id=\"1\"}}camping{{color id=\"65535\"}} quand {{selection value=\"SelectedName\"}} m'a conviée à emménager ici.{{pageBreak}}{{anim id=\"ShyBoy\" target=\"actor\" targetSpec=\"\"}}Mais pour l'instant, c'est le désordre\nchez moi{{string value=\"...\"}}{{anim id=\"OhGeez\" target=\"actor\" targetSpec=\"\"}} Il faut absolument que je\ntermine d'emménager.\n{{anim id=\"FaintSmile\" target=\"actor\" targetSpec=\"\"}}Mais dès que ça sera fait, on pourra\npapoter autant que tu voudras!{{delay frames=\"40\"}}{{anim id=\"HappyDance\" target=\"actor\" targetSpec=\"\"}} Il me\ntarde d'y être, {{string value=\"6\"}}!"
  },
  {
    "label": "312",
    "attribute": "0x0000000000000000",
    "text": "{{fun_0014003C arg=\"\"}}"
  },
  {
    "label": "312_01",
    "attribute": "0x0000000000000000",
    "text": "{{anim id=\"Shocked\" target=\"actor\" targetSpec=\"\"}}Oh, {{delay8}}{{string value=\"NickName\"}}.{{delay20}} Comme cela fait longtemps!{{delay frames=\"40\"}} {{anim id=\"Thinking\" target=\"actor\" targetSpec=\"\"}}Depuis le {{color id=\"1\"}}camping{{color id=\"65535\"}}, {{delay20}}je crois?{{pageBreak}}{{anim id=\"Explain\" target=\"actor\" targetSpec=\"\"}}Tu n'étais peut-être pas au courant,{{delay8}}\nmais {{selection value=\"SelectedName\"}} m'a conviée à venir emménager sur cette île.{{pageBreak}}{{anim id=\"HappyDance\" target=\"actor\" targetSpec=\"\"}}Voilà qui explique ma présence ici,{{delay8}}\nch{{gender2 m=\"er\" f=\"ère\"}} voisin{{gender2 m=\"\" f=\"e\"}}.{{delay frames=\"13\"}} Hé hé!{{pageBreak}}Je suis sûre {{anim id=\"Smiling\" target=\"actor\" targetSpec=\"\"}}que nous allons\nbeaucoup nous amuser,{{delay8}} tou{{gender2 m=\"s\" f=\"tes\"}}\nles deux, {{string value=\"6\"}}."
  },
  {
    "label": "312_02",
    "attribute": "0x0000000000000000",
    "text": "{{anim id=\"Shocked\" target=\"actor\" targetSpec=\"\"}}Tiens,{{delay20}} mais c'est {{string value=\"NickName\"}}!{{delay20}}\n{{anim id=\"Thinking\" target=\"actor\" targetSpec=\"\"}}Hmm{{string value=\"...\"}} Cela fait une éternité{{string value=\"...\"}}\nDepuis le {{color id=\"1\"}}camping{{color id=\"65535\"}}, non?\n{{anim id=\"Explain\" target=\"actor\" targetSpec=\"\"}}Tu sais, {{delay frames=\"13\"}}c'est à cette occasion que\nj'ai décidé de venir vivre sur cette\nîle pour de bon.\n{{anim id=\"Grin\" target=\"actor\" targetSpec=\"\"}}{{capitalizeNextLetter}}{{selection value=\"SelectedName\"}} m'a si chaleureusement invitée que je n'ai pas pu lui dire non,{{delay8}} de toute façon.{{pageBreak}}{{anim id=\"EmotEnd\" target=\"actor\" targetSpec=\"\"}}Tu sais ce que cela veut dire,{{delay8}}\nn'est-ce pas?{{delay20}} {{anim id=\"FaintSmile\" target=\"actor\" targetSpec=\"\"}}Nous sommes\nmaintenant voisin{{gender2 m=\"\" f=\"e\"}}s, {{string value=\"6\"}}!"
  },
  {
    "label": "313",
    "attribute": "0x0000000000000000",
    "text": "{{anim id=\"FaintSmile\" target=\"actor\" targetSpec=\"\"}}Tiens, {{delay8}}{{string value=\"NickName\"}}!{{delay20}} Bonjour!{{delay20}}{{pageBreak}}{{anim id=\"EmotEnd\" target=\"actor\" targetSpec=\"\"}}Nous nous sommes rencontré{{gender2 m=\"\" f=\"e\"}}s\nau {{color id=\"1\"}}camping {{color id=\"65535\"}}de cette île.{{delay frames=\"13\"}}{{anim id=\"Hello\" target=\"actor\" targetSpec=\"\"}} Tu t'en\nsouviens?{{pageBreak}}{{anim id=\"Explain\" target=\"actor\" targetSpec=\"\"}}Ce jour-là, {{selection value=\"SelectedName\"}} m'a d'ailleurs chaleureusement invitée à venir emménager pour de bon.{{pageBreak}}{{anim id=\"Greeting\" target=\"actor\" targetSpec=\"\"}}{{gender8 m=\"Il\" f=\"Elle\" n=\"\"}} m'a dressé un portrait des\nlieux si charmant que je n'ai pas\neu d'autre choix que de dire oui!\n{{anim id=\"Greeting\" target=\"actor\" targetSpec=\"\"}}J'espère que nous aurons souvent\nl'occasion de nous croiser dans les\nparages,{{delay8}} toi et moi, {{string value=\"6\"}}!"
  },
  {
    "label": "314",
    "attribute": "0x0000000000000000",
    "text": "{{anim id=\"Eh\" target=\"actor\" targetSpec=\"\"}}C'est bien toi, {{string value=\"NickName\"}}?{{delay frames=\"40\"}}\n{{anim id=\"Sneezing\" target=\"actor\" targetSpec=\"\"}}Atchoum!{{delay frames=\"70\"}} {{anim id=\"Worried\" target=\"actor\" targetSpec=\"\"}}Nous nous sommes vu{{gender2 m=\"\" f=\"e\"}}s\nau {{color id=\"1\"}}camping{{color id=\"65535\"}}, si tu t'en souviens.\n{{anim id=\"Explain\" target=\"actor\" targetSpec=\"\"}}En fait, {{selection value=\"SelectedName\"}} m'a conviée à venir vivre ici,{{delay20}}{{anim id=\"FaintSmile\" target=\"actor\" targetSpec=\"\"}} ce qui fait que je suis désormais ta voisine.{{pageBreak}}{{i10_10}}{{anim id=\"Sneezing\" target=\"actor\" targetSpec=\"\"}}AAATCHOUM!{{i10_9}}{{delay frames=\"50\"}}{{pageBreak}}{{anim id=\"Worried\" target=\"actor\" targetSpec=\"\"}}Mais manque de chance, il a fallu que\nje tombe malade{{delay20}}{{anim id=\"Sighing\" target=\"actor\" targetSpec=\"\"}} avant d'avoir pu\nt'annoncer la nouvelle.{{pageBreak}}{{anim id=\"Shaking\" target=\"actor\" targetSpec=\"\"}}J'espère qu'on aura souvent\nl'occasion de se croiser une fois que\nje serai rétablie, {{string value=\"6\"}}."
  },
  {
    "label": "321",
    "attribute": "0x0000000000000000",
    "text": "{{anim id=\"Smiling\" target=\"actor\" targetSpec=\"\"}}Ça alors, {{delay8}}{{string value=\"NickName\"}},{{delay8}} quelle surprise!{{delay20}} {{anim id=\"ShyBoy\" target=\"actor\" targetSpec=\"\"}}Tu ne vas pas me croire, mais je viens juste d'emménager ici!{{pageBreak}}{{anim id=\"Negative\" target=\"actor\" targetSpec=\"\"}}Ce qui est encore plus incroyable,{{delay8}}\nc'est que la personne qui m'a invitée\nà venir n'est quant à elle plus là{{string value=\"...\"}}\n{{anim id=\"Outraged\" target=\"actor\" targetSpec=\"\"}}Quelle impolitesse!{{delay20}} À croire que les\ngens se croient tout permis sous\nprétexte de faire du {{color id=\"1\"}}camping{{color id=\"65535\"}}!{{pageBreak}}{{anim id=\"Nodding\" target=\"actor\" targetSpec=\"\"}}Enfin,{{delay8}} heureusement que toi,{{delay8}} tu es\nencore là.{{delay20}} {{anim id=\"SmugFace\" target=\"actor\" targetSpec=\"\"}}Ça m'aidera beaucoup à\nme faire à ma nouvelle vie ici."
  },
  {
    "label": "322",
    "attribute": "0x0000000000000000",
    "text": "{{anim id=\"Shocked\" target=\"actor\" targetSpec=\"\"}}{{capitalizeNextLetter}}{{string value=\"NickName\"}}!{{delay frames=\"40\"}} {{anim id=\"HappyFlower\" target=\"actor\" targetSpec=\"\"}}Tu ne peux pas savoir combien je suis heureuse de te voir, {{string value=\"6\"}}!{{pageBreak}}{{anim id=\"Explain\" target=\"actor\" targetSpec=\"\"}}Vois-tu,{{delay frames=\"13\"}} j'ai emménagé suite à\nl'invitation d'une connaissance.{{pageBreak}}Elle m'a invitée pendant que je\nfaisais un brin de {{color id=\"1\"}}camping{{color id=\"65535\"}} dans les\nenvirons.{{delay frames=\"13\"}} {{anim id=\"OhGeez\" target=\"actor\" targetSpec=\"\"}}Jusque-là,{{delay8}} rien d'anormal{{string value=\"...\"}}{{pageBreak}}{{anim id=\"SadSpiral\" target=\"actor\" targetSpec=\"\"}}Mais à mon arrivée,{{delay8}} cette personne\navait tout bonnement disparu sans\nlaisser de trace!\n{{anim id=\"BigSmile\" target=\"actor\" targetSpec=\"\"}}Enfin heureusement que toi, au\nmoins,{{delay8}} tu es là!"
  },
  {
    "label": "324",
    "attribute": "0x0000000000000000",
    "text": "{{anim id=\"Confused\" target=\"actor\" targetSpec=\"\"}}Oh, {{string value=\"NickName\"}}{{string value=\"...\"}}{{delay frames=\"40\"}}{{anim id=\"Sneezing\" target=\"actor\" targetSpec=\"\"}}\nTu es {{gender2 m=\"surpris\" f=\"surprise\"}} de me voir ici?{{delay8}}{{anim id=\"Sneezing\" target=\"actor\" targetSpec=\"\"}}{{delay20}}{{pageBreak}}{{anim id=\"Worried\" target=\"actor\" targetSpec=\"\"}}Je faisais du {{color id=\"1\"}}camping{{color id=\"65535\"}} quand j'ai été\ninvitée par une connaissance du coin\nà venir vivre ici{{string value=\"...\"}}{{anim id=\"Sneezing\" target=\"actor\" targetSpec=\"\"}}{{delay frames=\"40\"}} Ce que j'ai fait.{{anim id=\"Sneezing\" target=\"actor\" targetSpec=\"\"}}{{delay20}}\n{{anim id=\"Shaking\" target=\"actor\" targetSpec=\"\"}}Mais à mon arrivée,{{delay8}} cette personne\ndont je tairais le nom avait tout\nsimplement disparu du radar!\n{{anim id=\"Sighing\" target=\"actor\" targetSpec=\"\"}}Et comme un malheur n'arrive jamais\nseul,{{delay8}}{{anim id=\"Sneezing\" target=\"actor\" targetSpec=\"\"}} {{delay20}}je suis également tombée\nmalade.\n{{anim id=\"Negative\" target=\"actor\" targetSpec=\"\"}}Si tu veux bien m'excuser,{{delay8}} j'ai besoin\nd'un peu de repos pour me remettre\nde toutes ces mésaventures."
  },
  {
    "label": "401",
    "attribute": "0x0000000000000000",
    "text": "{{anim id=\"BigSmile\" target=\"actor\" targetSpec=\"\"}}{{capitalizeNextLetter}}{{string value=\"NickName\"}}!{{delay frames=\"40\"}} Oui,{{delay8}} c'est bien ce que tu crois.{{delay20}}{{anim id=\"HappyDance\" target=\"actor\" targetSpec=\"\"}} Je suis de retour!{{pageBreak}}{{anim id=\"OhGeez\" target=\"actor\" targetSpec=\"\"}}L'île sur laquelle j'avais emménagé\nn'était pas si mal{{string value=\"...\"}}{{delay20}}{{anim id=\"Love\" target=\"actor\" targetSpec=\"\"}} mais cet endroit\nme manquait trop!\n{{anim id=\"Smiling\" target=\"actor\" targetSpec=\"\"}}Quoi qu'il en soit,{{delay8}} je suis contente\nde te retrouver.{{delay20}}{{anim id=\"FaintSmile\" target=\"actor\" targetSpec=\"\"}} Tâchons de vite\nrattraper le temps perdu,{{delay8}} d'accord?"
  },
  {
    "label": "402",
    "attribute": "0x0000000000000000",
    "text": "{{anim id=\"Greeting\" target=\"actor\" targetSpec=\"\"}}Ça alors, {{string value=\"NickName\"}},{{delay8}} j'ai l'impression que ça fait une éternité qu'on ne s'est pas {{gender2 m=\"revus\" f=\"revues\"}}.{{pageBreak}}{{anim id=\"Eh\" target=\"actor\" targetSpec=\"\"}}Tu te demandes peut-être ce que\nje fais ici{{delay8}}, je me trompe?{{pageBreak}}{{anim id=\"EmotEnd\" target=\"actor\" targetSpec=\"\"}}Eh bien,{{delay8}} je voulais te l'annoncer\nplus tôt mais {{anim id=\"EmotEnd\" target=\"actor\" targetSpec=\"\"}}je suis officiellement\nde retour à {{string value=\"OtherIslandName\"}}!\n{{anim id=\"Nodding\" target=\"actor\" targetSpec=\"\"}}Et tu sais quoi?{{delay8}} Je ne le regrette pas\nun seul instant.{{pageBreak}}{{anim id=\"BigSmile\" target=\"actor\" targetSpec=\"\"}}Surtout quand je sais que ça va me\npermettre de te revoir plus souvent,\n{{string value=\"6\"}}!{{anim id=\"FaintSmile\" target=\"actor\" targetSpec=\"\"}}"
  },
  {
    "label": "404",
    "attribute": "0x0000000000000000",
    "text": "{{anim id=\"Sighing\" target=\"actor\" targetSpec=\"\"}}Oh,{{delay8}} {{string value=\"NickName\"}},{{delay8}} je suis désolée.{{delay20}} J'aurais voulu te l'annoncer plus tôt{{string value=\"...\"}}{{pageBreak}}{{anim id=\"EmotEnd\" target=\"actor\" targetSpec=\"\"}}Mais comme tu l'auras deviné{{string value=\"...\"}}{{anim id=\"Sneezing\" target=\"actor\" targetSpec=\"\"}}\n{{delay20}}Je suis de retour parmi vous{{string value=\"...\"}}{{anim id=\"Sneezing\" target=\"actor\" targetSpec=\"\"}}{{pageBreak}}{{anim id=\"Shaking\" target=\"actor\" targetSpec=\"\"}}Toutes mes excuses, {{delay8}}mais je suis\ntombée malade.{{delay20}} {{anim id=\"OhGeez\" target=\"actor\" targetSpec=\"\"}}Ce n'est pas ainsi\nque j'imaginais nos retrouvailles{{anim id=\"Sneezing\" target=\"actor\" targetSpec=\"\"}}{{string value=\"...\"}}\nPardonne-moi,{{delay8}}{{anim id=\"Worried\" target=\"actor\" targetSpec=\"\"}} mais je crois que j'ai\nvraiment besoin d'un peu de repos\nafin de me remettre sur patte."
  },
  {
    "label": "411",
    "attribute": "0x0000000000000000",
    "text": "{{anim id=\"QuestionMark\" target=\"actor\" targetSpec=\"\"}}Ça alors! {{delay8}}{{capitalizeNextLetter}}{{string value=\"NickName\"}}?{{delay frames=\"40\"}}\n{{anim id=\"FaintSmile\" target=\"actor\" targetSpec=\"\"}}J'avais complètement oublié que tu\nhabitais ici!{{pageBreak}}{{anim id=\"HappyFlower\" target=\"actor\" targetSpec=\"\"}}C'est moi, {{delay8}}{{string value=\"VillagerName\"}}!{{delay8}} Moi aussi j'habite à {{string value=\"OtherIslandName\"}}.{{delay8}} Depuis aujourd'hui!{{pageBreak}}{{anim id=\"FaintSmile\" target=\"actor\" targetSpec=\"\"}}Ça me fait tellement plaisir de te\nvoir.{{delay20}} {{anim id=\"Greeting\" target=\"actor\" targetSpec=\"\"}}{{delay8}}C'est comme si on s'était vu{{gender2 m=\"\" f=\"e\"}}s\nhier, non?!{{pageBreak}}{{anim id=\"Nodding\" target=\"actor\" targetSpec=\"\"}}Savoir qu'on va être voisin{{gender2 m=\"\" f=\"e\"}}s me\nconforte dans l'idée que {{anim id=\"Smiling\" target=\"actor\" targetSpec=\"\"}}j'ai pris la\nbonne décision, {{string value=\"6\"}}!"
  },
  {
    "label": "412",
    "attribute": "0x0000000000000000",
    "text": "{{fun_0014003C arg=\"\"}}"
  },
  {
    "label": "412_01",
    "attribute": "0x0000000000000000",
    "text": "{{anim id=\"Eh\" target=\"actor\" targetSpec=\"\"}}{{capitalizeNextLetter}}{{string value=\"NickName\"}}!{{delay20}} C'est toi?\n{{anim id=\"FaintSmile\" target=\"actor\" targetSpec=\"\"}}C'est moi, {{string value=\"VillagerName\"}}{{string value=\"...\"}}{{pageBreak}}On s'est rencontré{{gender2 m=\"\" f=\"e\"}}s à\n{{selection value=\"SelectedIslandName\"}}, tu te souviens?{{pageBreak}}{{anim id=\"BigSmile\" target=\"actor\" targetSpec=\"\"}}Figure-toi que j'habite à\n{{string value=\"OtherIslandName\"}}, maintenant!{{pageBreak}}{{anim id=\"FaintSmile\" target=\"actor\" targetSpec=\"\"}}Quelle coïncidence, c'est fou. {{anim id=\"HappyDance\" target=\"actor\" targetSpec=\"\"}}On\npourra se voir quand on veut!{{delay20}} {{anim id=\"FaintSmile\" target=\"actor\" targetSpec=\"\"}}Je\nsuis si heureuse, {{gender2 m=\"mon chéri\" f=\"ma chérie\"}}!"
  },
  {
    "label": "412_02",
    "attribute": "0x0000000000000000",
    "text": "{{anim id=\"Aha\" target=\"actor\" targetSpec=\"\"}}Ça alors!{{delay8}} {{capitalizeNextLetter}}{{string value=\"NickName\"}}?{{delay20}}{{anim id=\"QuestionMark\" target=\"actor\" targetSpec=\"\"}} Ne me dis pas que tu habites à {{string value=\"OtherIslandName\"}}?{{pageBreak}}{{anim id=\"Eh\" target=\"actor\" targetSpec=\"\"}}Tu me reconnais?{{delay8}} J'habitais à\n{{selection value=\"SelectedIslandName\"}} avant.{{delay20}} {{anim id=\"Hello\" target=\"actor\" targetSpec=\"\"}}{{capitalizeNextLetter}}{{string value=\"VillagerName\"}}.{{pageBreak}}{{anim id=\"EmotEnd\" target=\"actor\" targetSpec=\"\"}}Tu te souviens forcément de moi.{{delay20}}\n{{anim id=\"SmugFace\" target=\"actor\" targetSpec=\"\"}}J'ai emménagé ici, j'habite à\n{{string value=\"OtherIslandName\"}}!\n{{anim id=\"EmotEnd\" target=\"actor\" targetSpec=\"\"}}On va en avoir, des choses à se\nraconter{{string value=\"...\"}} {{anim id=\"Hello\" target=\"actor\" targetSpec=\"\"}}Promets-moi qu'on ne se\nquittera plus, {{string value=\"6\"}}!"
  },
  {
    "label": "412_03",
    "attribute": "0x0000000000000000",
    "text": "{{anim id=\"Aha\" target=\"actor\" targetSpec=\"\"}}Oh!{{delay20}} C'est vraiment toi, {{string value=\"NickName\"}}?{{delay20}} {{anim id=\"QuestionMark\" target=\"actor\" targetSpec=\"\"}}Est-ce que tu habites sur l'île?{{pageBreak}}{{anim id=\"FaintSmile\" target=\"actor\" targetSpec=\"\"}}C'est moi,{{delay8}} {{string value=\"VillagerName\"}}. {{delay20}}On s'est rencontré{{gender2 m=\"\" f=\"e\"}}s à {{selection value=\"SelectedIslandName\"}}.{{pageBreak}}{{anim id=\"BigSmile\" target=\"actor\" targetSpec=\"\"}}J'ai déménagé ici, c'est tout récent.\n{{anim id=\"HappyDance\" target=\"actor\" targetSpec=\"\"}}C'est incroyable que nous nous\nretrouvions sur cette île!\n{{anim id=\"Smiling\" target=\"actor\" targetSpec=\"\"}}Comme le monde est petit{{string value=\"...\"}}"
  },
  {
    "label": "414",
    "attribute": "0x0000000000000000",
    "text": "{{anim id=\"Sneezing\" target=\"actor\" targetSpec=\"\"}}{{string value=\"...\"}}{{delay frames=\"40\"}}{{anim id=\"Worried\" target=\"actor\" targetSpec=\"\"}} {{capitalizeNextLetter}}{{string value=\"NickName\"}}?{{delay20}} Je ne m'attendais pas à te voir ici.{{pageBreak}}{{anim id=\"Shaking\" target=\"actor\" targetSpec=\"\"}}Tu es au courant? {{delay8}}J'ai quitté\n{{selection value=\"SelectedIslandName\"}} pour m'installer ici récemment.{{pageBreak}}{{anim id=\"EmotEnd\" target=\"actor\" targetSpec=\"\"}}Oh{{string value=\"...\"}} {{anim id=\"Sneezing\" target=\"actor\" targetSpec=\"\"}}{{delay frames=\"40\"}}Je me souviens maintenant.{{delay8}} Tu\nhabites ici, toi aussi.{{i10_4}} Ça doit être ce\nrhume qui me ramollit le cerveau.\n{{anim id=\"Sighing\" target=\"actor\" targetSpec=\"\"}}J'adorerais papoter avec toi, {{delay8}}mais\npeut-être une autre fois? {{delay20}}Quand je\nserai moins contagieuse{{string value=\"...\"}}"
  },
  {
    "label": "421",
    "attribute": "0x0000000000000000",
    "text": "{{anim id=\"QuestionMark\" target=\"actor\" targetSpec=\"\"}}Ça alors! {{delay8}}{{capitalizeNextLetter}}{{string value=\"NickName\"}}?{{delay frames=\"40\"}}\n{{anim id=\"FaintSmile\" target=\"actor\" targetSpec=\"\"}}J'avais complètement oublié que tu\nhabitais ici!{{pageBreak}}{{anim id=\"HappyFlower\" target=\"actor\" targetSpec=\"\"}}C'est moi, {{delay8}}{{string value=\"VillagerName\"}}!{{delay8}} Moi aussi j'habite à {{string value=\"OtherIslandName\"}}.{{delay8}} Depuis aujourd'hui!{{pageBreak}}{{anim id=\"FaintSmile\" target=\"actor\" targetSpec=\"\"}}Ça me fait tellement plaisir de te\nvoir.{{delay20}} {{anim id=\"Greeting\" target=\"actor\" targetSpec=\"\"}}{{delay8}}C'est comme si on s'était vu{{gender2 m=\"\" f=\"e\"}}s\nhier, non?!{{pageBreak}}{{anim id=\"Nodding\" target=\"actor\" targetSpec=\"\"}}Savoir qu'on va être voisin{{gender2 m=\"\" f=\"e\"}}s me\nconforte dans l'idée que {{anim id=\"Smiling\" target=\"actor\" targetSpec=\"\"}}j'ai pris la\nbonne décision, {{string value=\"6\"}}!"
  },
  {
    "label": "422",
    "attribute": "0x0000000000000000",
    "text": "{{anim id=\"Eh\" target=\"actor\" targetSpec=\"\"}}{{capitalizeNextLetter}}{{string value=\"NickName\"}}!{{delay20}} C'est toi?\n{{anim id=\"FaintSmile\" target=\"actor\" targetSpec=\"\"}}C'est moi, {{string value=\"VillagerName\"}}{{string value=\"...\"}}{{pageBreak}}On s'est déjà rencontré{{gender2 m=\"\" f=\"e\"}}s, tu te\nsouviens?{{pageBreak}}{{anim id=\"BigSmile\" target=\"actor\" targetSpec=\"\"}}Figure-toi que j'habite à\n{{string value=\"OtherIslandName\"}}, maintenant!{{pageBreak}}{{anim id=\"FaintSmile\" target=\"actor\" targetSpec=\"\"}}Quelle coïncidence, c'est fou. {{anim id=\"HappyDance\" target=\"actor\" targetSpec=\"\"}}On\npourra se voir quand on veut!{{delay20}} {{anim id=\"FaintSmile\" target=\"actor\" targetSpec=\"\"}}Je\nsuis si heureuse, {{gender2 m=\"mon chéri\" f=\"ma chérie\"}}!"
  },
  {
    "label": "424",
    "attribute": "0x0000000000000000",
    "text": "{{anim id=\"Sneezing\" target=\"actor\" targetSpec=\"\"}}{{string value=\"...\"}}{{delay frames=\"40\"}}{{anim id=\"Worried\" target=\"actor\" targetSpec=\"\"}} {{capitalizeNextLetter}}{{string value=\"NickName\"}}?{{delay20}} Je ne m'attendais pas à te voir ici.{{pageBreak}}{{anim id=\"Shaking\" target=\"actor\" targetSpec=\"\"}}Tu es au courant? {{delay8}}Je suis venue\nm'installer ici récemment.{{delay20}}\nAAAA-{{delay20}}{{anim id=\"Sneezing\" target=\"actor\" targetSpec=\"\"}}TCHOUM!{{pageBreak}}{{anim id=\"EmotEnd\" target=\"actor\" targetSpec=\"\"}}Oh{{string value=\"...\"}} {{anim id=\"Sneezing\" target=\"actor\" targetSpec=\"\"}}{{delay frames=\"40\"}}Je me souviens maintenant.{{delay8}} Tu\nhabites ici, toi aussi.{{i10_4}} Ça doit être ce\nrhume qui me ramollit le cerveau.\n{{anim id=\"Sighing\" target=\"actor\" targetSpec=\"\"}}J'adorerais papoter avec toi, {{delay8}}mais\npeut-être une autre fois? {{delay20}}Quand je\nserai moins contagieuse{{string value=\"...\"}}"
  }
]