﻿[
  {
    "label": "100",
    "attribute": "0x0000000000000000",
    "text": "{{anim id=\"FaintSmile\" target=\"actor\" targetSpec=\"\"}}J'ai eu une conversation absolument palpitante avec {{selection value=\"SelectedVillager\"}}{{delay20}} à propos des {{string value=\"7\"}} {{gender8 m=\"locaux\" f=\"locales\" n=\"\"}}.{{pageBreak}}{{anim id=\"Love\" target=\"actor\" targetSpec=\"\"}}À chaque bouchée,{{delay8}} c'est comme\nsi un festival de saveurs fruitées\ndansait sur mes papilles!{{pageBreak}}{{anim id=\"HappyDance\" target=\"actor\" targetSpec=\"\"}}N'est-ce pas merveilleux de pouvoir\npartager ce genre de moments avec\n{{gender8 m=\"un ami qui nous est cher\" f=\"une amie qui nous est chère\" n=\"\"}}?{{anim id=\"EmotEnd\" target=\"actor\" targetSpec=\"\"}}"
  },
  {
    "label": "101",
    "attribute": "0x0000000000000000",
    "text": "{{anim id=\"AbsentMindedness\" target=\"actor\" targetSpec=\"\"}}Depuis un moment, {{delay8}}je mets de côté l'argent que j'aurais dépensé avant en petits plaisirs quotidiens.{{pageBreak}}{{anim id=\"Smiling\" target=\"actor\" targetSpec=\"\"}}Résultat{{string value=\"...\"}}{{delay20}}{{anim id=\"SmugFace\" target=\"actor\" targetSpec=\"\"}} j'ai amassé une jolie somme! {{delay20}}{{anim id=\"Smiling\" target=\"actor\" targetSpec=\"\"}}C'est {{selection value=\"SelectedVillager\"}} qui m'a conseillé de faire ça.{{pageBreak}}{{anim id=\"HappyDance\" target=\"actor\" targetSpec=\"\"}}Maintenant,{{delay8}} je rêvasse en pensant à tout ce que je vais pouvoir m'offrir,{{delay20}} c'est tellement agréable!{{anim id=\"EmotEnd\" target=\"actor\" targetSpec=\"\"}}"
  },
  {
    "label": "102",
    "attribute": "0x0000000000000000",
    "text": "{{anim id=\"FaintSmile\" target=\"actor\" targetSpec=\"\"}}{{selection value=\"SelectedVillager\"}} m'a récemment parlé d'un style de musique qui m'était inconnu :{{delay20}} {{anim id=\"Nodding\" target=\"actor\" targetSpec=\"\"}}{{fun_00010032 arg=\"\"}}{{randomMusic}}.{{pageBreak}}{{anim id=\"ShyBoy\" target=\"actor\" targetSpec=\"\"}}J'ai décidé d'y jeter une oreille,{{delay8}}\npour me faire un avis{{string value=\"...\"}}{{delay frames=\"40\"}}{{anim id=\"Smiling\" target=\"actor\" targetSpec=\"\"}} et depuis,{{delay8}}\nje n'écoute plus que ça!{{anim id=\"EmotEnd\" target=\"actor\" targetSpec=\"\"}}"
  },
  {
    "label": "200",
    "attribute": "0x0000000000000000",
    "text": "{{anim id=\"AbsentMindedness\" target=\"actor\" targetSpec=\"\"}}J'ai l'impression que notre relation{{string value=\"...\"}}\nn'a jamais été aussi solide.{{delay20}} Tu es{{string value=\"...\"}}{{i10_4}}{{anim id=\"Smiling\" target=\"actor\" targetSpec=\"\"}}\n{{gender2 m=\"mon meilleur ami\" f=\"ma meilleure amie\"}}.\n{{anim id=\"Blushing\" target=\"actor\" targetSpec=\"\"}}Oh!{{delay20}} Je me sens toute bête d'avoir\ndit ça tout haut!{{delay20}}{{anim id=\"FaintSmile\" target=\"actor\" targetSpec=\"\"}} Mais je sais que tu\nm'as comprise,{{delay8}} {{string value=\"NickName\"}}.{{anim id=\"EmotEnd\" target=\"actor\" targetSpec=\"\"}}"
  },
  {
    "label": "201",
    "attribute": "0x0000000000000000",
    "text": "{{anim id=\"Thinking\" target=\"actor\" targetSpec=\"\"}}J'ai l'impression que jusqu'à\nmaintenant{{string value=\"...\"}}{{delay20}}{{anim id=\"Negative\" target=\"actor\" targetSpec=\"\"}} on ne s'est jamais\nvraiment {{gender2 m=\"compris\" f=\"comprises\"}},{{delay8}} toi et moi.{{pageBreak}}{{anim id=\"Nodding\" target=\"actor\" targetSpec=\"\"}}Mais maintenant,{{delay8}} c'est différent.{{delay20}}{{anim id=\"Blushing\" target=\"actor\" targetSpec=\"\"}}\nJe sens que nous sommes sur\nla même longueur d'onde.{{anim id=\"EmotEnd\" target=\"actor\" targetSpec=\"\"}}"
  },
  {
    "label": "202",
    "attribute": "0x0000000000000000",
    "text": "{{anim id=\"Nodding\" target=\"actor\" targetSpec=\"\"}}{{capitalizeNextLetter}}{{string value=\"NickName\"}},{{delay8}} depuis que je te connais,{{delay20}} j'ai l'impression d'être devenue plus sage.{{pageBreak}}{{anim id=\"FaintSmile\" target=\"actor\" targetSpec=\"\"}}On a vécu notre lot d'aventures,{{delay8}}\nmais notre amitié s'en est retrouvée\ngrandie,{{delay8}} et je m'en réjouis.\n{{anim id=\"HappyDance\" target=\"actor\" targetSpec=\"\"}}J'espère qu'elle continuera à grandir\nencore et encore!{{anim id=\"EmotEnd\" target=\"actor\" targetSpec=\"\"}}"
  }
]