﻿[
  {
    "label": "001",
    "attribute": "0x00000C0000000000",
    "text": "{{anim id=\"Aha\" target=\"actor\" targetSpec=\"\"}}Hey, {{string value=\"NickName\"}}!{{delay frames=\"40\"}} {{anim id=\"FaintSmile\" target=\"actor\" targetSpec=\"\"}}What're\nyou here to see, {{string value=\"Catchphrase\"}}?{{setNpcTalkChoices chatOption=\"0\" cancelOption=\"1\"}}"
  },
  {
    "label": "002",
    "attribute": "0x00000C0000000000",
    "text": "{{anim id=\"Eh\" target=\"actor\" targetSpec=\"\"}}Hey, {{string value=\"NickName\"}}!{{delay frames=\"40\"}} {{anim id=\"Greeting\" target=\"actor\" targetSpec=\"\"}}Checking\nout the bugs too? Some of 'em are\nreally cool lookin', {{string value=\"Catchphrase\"}}!{{setNpcTalkChoices chatOption=\"0\" cancelOption=\"1\"}}"
  },
  {
    "label": "003",
    "attribute": "0x00000C0000000000",
    "text": "{{anim id=\"AbsentMindedness\" target=\"actor\" targetSpec=\"\"}}I could spend hours here.{{delay20}} Watching\nfish is so{{string value=\"...\"}}{{delay20}}soothing, {{string value=\"Catchphrase\"}}.{{setNpcTalkChoices chatOption=\"0\" cancelOption=\"1\"}}"
  },
  {
    "label": "004",
    "attribute": "0x00000C0000000000",
    "text": "{{anim id=\"Smiling\" target=\"actor\" targetSpec=\"\"}}Diggin' the fossils, {{string value=\"Catchphrase\"}}?{{delay20}}\nI love imagining what their world\nmust've been like.{{setNpcTalkChoices chatOption=\"0\" cancelOption=\"1\"}}"
  },
  {
    "label": "005",
    "attribute": "0x00000C0000000000",
    "text": "{{anim id=\"QuestionMark\" target=\"actor\" targetSpec=\"\"}}What's up? You checkin' out the art?\n{{delay20}}'Cause if you're not, then, uh{{string value=\"...\"}}{{delay20}}{{anim id=\"Blushing\" target=\"actor\" targetSpec=\"\"}}wrong\nroom, {{string value=\"Catchphrase\"}}."
  },
  {
    "label": "006",
    "attribute": "0x00000C0000000000",
    "text": "{{anim id=\"Aha\" target=\"actor\" targetSpec=\"\"}}What's up, {{string value=\"NickName\"}}?{{delay frames=\"40\"}} {{anim id=\"Smiling\" target=\"actor\" targetSpec=\"\"}}You\nshop here too, {{string value=\"Catchphrase\"}}?{{setNpcTalkChoices chatOption=\"0\" cancelOption=\"1\"}}"
  },
  {
    "label": "007",
    "attribute": "0x00000C0000000000",
    "text": "{{anim id=\"Eh\" target=\"actor\" targetSpec=\"\"}}Hey there, {{string value=\"NickName\"}}!{{delay frames=\"40\"}} {{anim id=\"Nodding\" target=\"actor\" targetSpec=\"\"}}On\nthe hunt for a new style? {{delay20}}You\ncame to the right place!{{pageBreak}}{{anim id=\"Smiling\" target=\"actor\" targetSpec=\"\"}}The stuff here changes up every day,{{delay20}}\nso it's a cinch to keep your wardrobe\nfresh, {{string value=\"Catchphrase\"}}!{{setNpcTalkChoices chatOption=\"0\" cancelOption=\"1\"}}"
  }
]