﻿[
  {
    "label": "001",
    "attribute": "0x00000000",
    "text": "{{fun_0014003C arg=\"\"}}"
  },
  {
    "label": "001_01",
    "attribute": "0x00000000",
    "text": ""
  },
  {
    "label": "002",
    "attribute": "0x00000000",
    "text": "{{fun_0014003C arg=\"\"}}"
  },
  {
    "label": "002_01",
    "attribute": "0x00000000",
    "text": ""
  },
  {
    "label": "003",
    "attribute": "0x00000000",
    "text": "{{fun_0014003C arg=\"\"}}"
  },
  {
    "label": "003_01",
    "attribute": "0x00000000",
    "text": "{{anim id=\"ShyBoy\" target=\"actor\" targetSpec=\"\"}}Oh, salut!{{delay8}} Ne fais pas attention à\nmoi.{{delay20}} Je suis juste là{{string value=\"...\"}} pour une\nlivraison spéciale.{{delay20}} Exactement!"
  },
  {
    "label": "101",
    "attribute": "0x00000000",
    "text": "{{fun_0014003C arg=\"\"}}"
  },
  {
    "label": "101_01",
    "attribute": "0x00000000",
    "text": "{{anim id=\"ShyBoy\" target=\"actor\" targetSpec=\"\"}}Hé, euh{{string value=\"...\"}} Ne dis surtout pas à\n{{color id=\"3\"}}Élisabec{{color id=\"65535\"}} ou à sa sœur que je suis\nlà,{{delay8}} d'accord?"
  },
  {
    "label": "101_02",
    "attribute": "0x00000000",
    "text": "{{anim id=\"Thinking\" target=\"actor\" targetSpec=\"\"}}{{size value=\"75\"}}Mais de quoi peut-elle bien parler{{string value=\"...\"}} Je vais\nme faire repérer si je m'approche pour mieux\nentendre{{string value=\"...\"}}{{size value=\"100\"}}"
  },
  {
    "label": "101_03",
    "attribute": "0x00000000",
    "text": "{{anim id=\"AbsentMindedness\" target=\"actor\" targetSpec=\"\"}}Hmm{{string value=\"...\"}} J'aimerais tant pouvoir\nm'asseoir en face d'{{color id=\"3\"}}Élisabec{{color id=\"65535\"}} et la\nregarder siroter son café{{string value=\"...\"}}"
  },
  {
    "label": "101_04",
    "attribute": "0x00000000",
    "text": "{{anim id=\"Nodding\" target=\"actor\" targetSpec=\"\"}}J'ai demandé à {{color id=\"3\"}}Robusto{{color id=\"65535\"}} de me faire\nle même café qu'à {{color id=\"3\"}}Élisabec{{color id=\"65535\"}}.{{anim id=\"Smiling\" target=\"actor\" targetSpec=\"\"}}{{pageBreak}}{{anim id=\"Thinking\" target=\"actor\" targetSpec=\"\"}}Maintenant, il faut que je comprenne\nce qu'elle apprécie dans ce café.{{pageBreak}}Voire pourquoi elle apprécie le café\nen général!"
  },
  {
    "label": "101_05",
    "attribute": "0x00000000",
    "text": "{{anim id=\"AbsentMindedness\" target=\"actor\" targetSpec=\"\"}}Être assis en face de l'autre à une\ntable,{{delay8}} c'est bien{{string value=\"...\"}} Mais être à côté\nde l'autre au comptoir?{{delay frames=\"40\"}}{{pageBreak}}Ah,{{delay8}} {{color id=\"3\"}}Élisabec{{color id=\"65535\"}}{{string value=\"...\"}}"
  }
]