﻿[
  {
    "label": "001",
    "attribute": "0x00000000",
    "text": "{{fun_0014003C arg=\"\"}}"
  },
  {
    "label": "001_01",
    "attribute": "0x00000000",
    "text": "{{anim id=\"BigSmile\" target=\"actor\" targetSpec=\"\"}}Merci pour ton invitation.{{pageBreak}}C'est toujours un plaisir de boire\nun café en compagnie d'honnêtes\ncitoyens comme toi."
  },
  {
    "label": "002",
    "attribute": "0x00000000",
    "text": "{{fun_0014003C arg=\"\"}}"
  },
  {
    "label": "002_01",
    "attribute": "0x00000000",
    "text": "{{anim id=\"BigSmile\" target=\"actor\" targetSpec=\"\"}}Agent {{color id=\"3\"}}Maret{{color id=\"65535\"}},{{delay8}} au rapport pour le\ncafé!{{delay20}} Merci de m'avoir invité une\nfois de plus."
  },
  {
    "label": "003",
    "attribute": "0x00000000",
    "text": "{{fun_0014003C arg=\"\"}}"
  },
  {
    "label": "003_01",
    "attribute": "0x00000000",
    "text": "{{anim id=\"Nodding\" target=\"actor\" targetSpec=\"\"}}Mon collègue te remercie de\nl'avoir invité.{{pageBreak}}{{anim id=\"Smiling\" target=\"actor\" targetSpec=\"\"}}Pour ma part,{{delay8}} j'espère ne pas\ncommettre de délit d'incorrection,{{delay20}}\nmais j'avais aussi envie d'un café{{string value=\"...\"}}"
  },
  {
    "label": "101",
    "attribute": "0x00000000",
    "text": "{{fun_0014003C arg=\"\"}}"
  },
  {
    "label": "101_01",
    "attribute": "0x00000000",
    "text": "{{anim id=\"Smiling\" target=\"actor\" targetSpec=\"\"}}Ah, le café de {{color id=\"3\"}}Robusto{{color id=\"65535\"}}!{{delay20}} Rien de\ntel pour vous énergiser avant\nune filature nocturne!"
  },
  {
    "label": "101_02",
    "attribute": "0x00000000",
    "text": "Mon travail est parfois éreintant,\n{{delay20}}{{anim id=\"Nodding\" target=\"actor\" targetSpec=\"\"}}mais il suffit d'une tasse de café\npour tout arranger!{{anim id=\"Smiling\" target=\"actor\" targetSpec=\"\"}}"
  },
  {
    "label": "101_03",
    "attribute": "0x00000000",
    "text": "{{anim id=\"Smiling\" target=\"actor\" targetSpec=\"\"}}Il y a une belle communauté sur cette\nîle!{{delay20}} C'est agréable d'observer une\ntelle solidarité citoyenne."
  },
  {
    "label": "101_04",
    "attribute": "0x00000000",
    "text": "{{anim id=\"Smiling\" target=\"actor\" targetSpec=\"\"}}Ni {{color id=\"3\"}}Chausset{{color id=\"65535\"}} ni moi ne refuserions\nune tasse de café,{{delay20}} alors invite-nous\nquand tu veux."
  },
  {
    "label": "101_05",
    "attribute": "0x00000000",
    "text": "J'ignore ce qu'il en est de mon\ncollègue, mais moi, je suis très\nexigeant en matière de café.{{delay frames=\"40\"}}{{pageBreak}}{{anim id=\"Smiling\" target=\"actor\" targetSpec=\"\"}}Et je dois dire que chez {{color id=\"3\"}}Robusto{{color id=\"65535\"}}, il\nest si bon que c'en serait presque\nillégal!"
  }
]