﻿[
  {
    "label": "0001",
    "text": "Custom Designs"
  },
  {
    "label": "0002",
    "text": "Pro Designs"
  },
  {
    "label": "0101",
    "text": "You don't have a custom design\nthat can be used on hats."
  },
  {
    "label": "0102",
    "text": "You don't have a custom design\nthat can be used on tops."
  },
  {
    "label": "0103",
    "text": "You don't have a custom design\nthat can be used for dress-up."
  },
  {
    "label": "0104",
    "text": "You don't have any custom\ndesigns that you created."
  }
]