﻿[
  {
    "label": "001",
    "attribute": "0x00000000",
    "text": "{{anim id=\"Shocked\" target=\"actor\" targetSpec=\"\"}}Ah !{{delay8}} {{capitalizeNextLetter}}{{string value=\"PlayerName\"}} !{{delay20}} {{anim id=\"FaintSmile\" target=\"actor\" targetSpec=\"\"}}Bonjour !"
  },
  {
    "label": "002",
    "attribute": "0x00000000",
    "text": "{{anim id=\"Shocked\" target=\"actor\" targetSpec=\"\"}}Oh, {{delay8}}{{string value=\"PlayerName\"}} ! {{delay20}}Ravie de vous voir !"
  },
  {
    "label": "003",
    "attribute": "0x00000000",
    "text": "{{anim id=\"Aha\" target=\"actor\" targetSpec=\"\"}}{{delay8}}Comme vous l'avez peut-être\nremarqué,{{delay8}} le {{color id=\"1\"}}bureau des résidents{{color id=\"65535\"}}\nest fermé aujourd'hui.{{pageBreak}}{{anim id=\"Explain\" target=\"actor\" targetSpec=\"\"}}{{color id=\"3\"}}M. Nook{{color id=\"65535\"}} et moi-même allons passer\nla journée à préparer le compte à\nrebours ici, sur la place.{{pageBreak}}{{anim id=\"Nodding\" target=\"actor\" targetSpec=\"\"}}J'espère que vous vous joindrez à\nnous pour les festivités, {{string value=\"PlayerName\"}}.{{pageBreak}}{{anim id=\"Smiling\" target=\"actor\" targetSpec=\"\"}}La fête ne serait pas pareille sans\nvous, {{delay8}}alors passez nous voir ce soir,{{delay8}}\nne serait-ce qu'un instant !{{pageBreak}}{{anim id=\"FaintSmile\" target=\"actor\" targetSpec=\"\"}}En attendant, vous pouvez admirer\nles décorations.{{pageBreak}}{{anim id=\"SmugFace\" target=\"actor\" targetSpec=\"\"}}Je ne voudrais pas avoir l'air de me\nvanter,{{delay20}} mais nous avons mis les\npetits plats dans les grands !"
  },
  {
    "label": "004",
    "attribute": "0x00000000",
    "text": "{{anim id=\"Shocked\" target=\"actor\" targetSpec=\"\"}}Ah, {{delay8}}{{string value=\"PlayerName\"}} ! {{delay20}}{{anim id=\"FaintSmile\" target=\"actor\" targetSpec=\"\"}}Je suis si\ncontente de vous voir !{{pageBreak}}{{anim id=\"Aha\" target=\"actor\" targetSpec=\"\"}}{{delay8}}Comme vous l'avez peut-être\nremarqué, le {{color id=\"1\"}}bureau des résidents\n{{color id=\"65535\"}}est fermé, aujourd'hui.{{pageBreak}}{{anim id=\"Explain\" target=\"actor\" targetSpec=\"\"}}{{color id=\"3\"}}M. Nook{{color id=\"65535\"}} et moi-même avons passé\nla journée ici, sur la place à préparer\nle compte à rebours.{{pageBreak}}{{anim id=\"Nodding\" target=\"actor\" targetSpec=\"\"}}J'espère que vous vous joindrez à\nnous pour les festivités, {{string value=\"PlayerName\"}}.{{pageBreak}}{{anim id=\"HappyFlower\" target=\"actor\" targetSpec=\"\"}}Ce serait merveilleux si nous\npouvions accueillir la nouvelle année\nensemble !{{pageBreak}}{{anim id=\"FaintSmile\" target=\"actor\" targetSpec=\"\"}}En attendant, vous pouvez admirer\nles décorations.{{pageBreak}}{{anim id=\"SmugFace\" target=\"actor\" targetSpec=\"\"}}Je ne voudrais pas avoir l'air de me\nvanter,{{delay20}} mais nous avons mis les\npetits plats dans les grands !"
  },
  {
    "label": "005",
    "attribute": "0x00000000",
    "text": "{{anim id=\"Shocked\" target=\"actor\" targetSpec=\"\"}}AH ! {{delay8}}{{capitalizeNextLetter}}{{string value=\"PlayerName\"}} !{{delay20}} {{anim id=\"HappyFlower\" target=\"actor\" targetSpec=\"\"}}Vous voilà !{{i10_4}} {{anim id=\"Hesitate\" target=\"actor\" targetSpec=\"\"}}J'avais peur que vous ne veniez pas,{{delay8}} il est déjà si tard.{{pageBreak}}{{anim id=\"Smiling\" target=\"actor\" targetSpec=\"\"}}Enfin, il n'y a plus assez de temps\npour de telles broutilles cette\nannée !{{pageBreak}}{{anim id=\"IdeaBulb\" target=\"actor\" targetSpec=\"\"}}Nous devrions passer les minutes\nqu'il nous reste à nous préparer\nmentalement à l'année nouvelle !{{anim id=\"AbsentMindedness\" target=\"actor\" targetSpec=\"\"}}{{delay40}}"
  },
  {
    "label": "006",
    "attribute": "0x00000000",
    "text": "{{anim id=\"Shocked\" target=\"actor\" targetSpec=\"\"}}{{delay8}}{{capitalizeNextLetter}}{{string value=\"PlayerName\"}} !{{delay20}} ENFIN !!!{{delay20}} {{anim id=\"Frantic\" target=\"actor\" targetSpec=\"\"}}J'avais presque abandonné tout espoir de vous voir ce soir !{{pageBreak}}{{anim id=\"EmotEnd\" target=\"actor\" targetSpec=\"\"}}Bien !{{delay20}} {{anim id=\"WrySmile\" target=\"actor\" targetSpec=\"\"}}Êtes-vous prêt{{gender2 m=\"\" f=\"e\"}} à changer\nd'année ?{{delay40}}{{anim id=\"Smiling\" target=\"actor\" targetSpec=\"\"}} En tout cas, moi, je\nn'attends que ça !"
  },
  {
    "label": "007",
    "attribute": "0x00000000",
    "text": "{{anim id=\"IdeaBulb\" target=\"actor\" targetSpec=\"\"}}{{delay8}}Ah oui !{{delay40}}{{anim id=\"EmotEnd\" target=\"actor\" targetSpec=\"\"}} Avant que je n'oublie{{string value=\"...\"}}{{delay20}}\n{{anim id=\"Smiling\" target=\"actor\" targetSpec=\"\"}}J'ai un petit cadeau pour vous, afin\nde vous mettre dans l'ambiance !"
  },
  {
    "label": "008",
    "attribute": "0x00000000",
    "text": "{{anim id=\"IdeaBulb\" target=\"actor\" targetSpec=\"\"}}{{delay8}}Ah oui !{{delay40}}{{anim id=\"EmotEnd\" target=\"actor\" targetSpec=\"\"}} Avant que je n'oublie{{string value=\"...\"}}{{delay20}}\n{{anim id=\"Smiling\" target=\"actor\" targetSpec=\"\"}}J'ai un petit cadeau pour vous, afin\nde vous mettre dans l'ambiance !{{pageBreak}}{{anim id=\"Thinking\" target=\"actor\" targetSpec=\"\"}}Hmm{{string value=\"...\"}}{{delay20}} Mais je ne peux pas vous le\ndonner si vos poches sont pleines.{{pageBreak}}{{anim id=\"Aha\" target=\"actor\" targetSpec=\"\"}}N'oubliez pas de venir le chercher\navant les 12 coups de minuit !"
  },
  {
    "label": "011",
    "attribute": "0x00000000",
    "text": "{{anim id=\"Smiling\" target=\"actor\" targetSpec=\"\"}}C'est une {{color id=\"1\"}}baguette fluo{{color id=\"65535\"}} !{{delay40}}{{anim id=\"HappyFlower\" target=\"actor\" targetSpec=\"\"}} Nous allons\ntous les agiter en l'air pendant le\ncompte à rebours !"
  },
  {
    "label": "012",
    "attribute": "0x00000000",
    "text": "{{anim id=\"IdeaBulb\" target=\"actor\" targetSpec=\"\"}}Ah, {{delay8}}c'est vrai !{{delay40}} {{anim id=\"Oops\" target=\"actor\" targetSpec=\"\"}}J'ai toujours votre\ncadeau !"
  },
  {
    "label": "013",
    "attribute": "0x00000000",
    "text": "{{anim id=\"Eh\" target=\"actor\" targetSpec=\"\"}}J'ai toujours un cadeau pour vous,\nafin de vous mettre dans l'ambiance.{{pageBreak}}{{anim id=\"Smiling\" target=\"actor\" targetSpec=\"\"}}Revenez me voir une fois que vous\naurez fait de la place dans vos\npoches."
  },
  {
    "label": "016",
    "attribute": "0x00000000",
    "text": "{{anim id=\"HappyFlower\" target=\"actor\" targetSpec=\"\"}}Un grand spectacle pyrotechnique\naura lieu juste après minuit.{{delay20}}{{anim id=\"Clapping\" target=\"actor\" targetSpec=\"\"}} J'ai hâte\nd'y être ! {{delay20}}J'adore les feux d'artifice !{{pageBreak}}{{anim id=\"ShyBoy\" target=\"actor\" targetSpec=\"\"}}Mais bien sûr,{{delay8}} nous avons encore\nplusieurs heures devant nous.{{pageBreak}}{{anim id=\"Smiling\" target=\"actor\" targetSpec=\"\"}}Vous devriez essayer de faire une\npetite sieste dans la journée{{delay8}} si vous\ncomptez rester debout jusque tard."
  },
  {
    "label": "017",
    "attribute": "0x00000000",
    "text": "{{anim id=\"AbsentMindedness\" target=\"actor\" targetSpec=\"\"}}Ce soir, c'est le compte à rebours et\ndemain, c'est le jour de l'an{{string value=\"...\"}}{{pageBreak}}{{anim id=\"BigSmile\" target=\"actor\" targetSpec=\"\"}}J'espère que vous êtes d'humeur\nfestive, {{delay8}}parce que nous avons\nbeaucoup à célébrer !"
  },
  {
    "label": "018",
    "attribute": "0x00000000",
    "text": "{{anim id=\"Sleepy\" target=\"actor\" targetSpec=\"\"}}Je me suis levée très tôt pour tout\npréparer, alors pardonnez-moi si je{{string value=\"...\"}}{{delay8}}{{anim id=\"Sleep\" target=\"actor\" targetSpec=\"\"}}{{i10_4}}{{anim id=\"Shocked\" target=\"actor\" targetSpec=\"\"}}{{delay8}} AH !{{delay8}}{{anim id=\"Frantic\" target=\"actor\" targetSpec=\"\"}} NON !{{pageBreak}}{{anim id=\"Eh\" target=\"actor\" targetSpec=\"\"}}Le compte à rebours n'arrive qu'une\nfois par an !{{delay20}}{{anim id=\"Negative\" target=\"actor\" targetSpec=\"\"}} Il est hors de question\nque je m'endorme cette année !"
  },
  {
    "label": "019",
    "attribute": "0x00000000",
    "text": "{{anim id=\"FaintSmile\" target=\"actor\" targetSpec=\"\"}}Je commence seulement à réaliser\nque c'est le dernier jour de l'année{{string value=\"...\"}}\n{{anim id=\"Frantic\" target=\"actor\" targetSpec=\"\"}}Et j'ai encore tant de choses à faire !"
  },
  {
    "label": "020",
    "attribute": "0x00000000",
    "text": "{{anim id=\"FaintSmile\" target=\"actor\" targetSpec=\"\"}}On peut sentir l'adrénaline monter\nchez tout le monde pour le clou de la\nsoirée !{{delay8}}{{anim id=\"Assent\" target=\"actor\" targetSpec=\"\"}} Surtout chez moi !"
  },
  {
    "label": "021",
    "attribute": "0x00000000",
    "text": "{{anim id=\"Worried\" target=\"actor\" targetSpec=\"\"}}Il y a encore quelques instants,{{delay20}}\nj'étais tout à fait calme{{string value=\"...\"}}{{pageBreak}}Mais maintenant qu'il reste moins\nd'une heure, {{delay20}}{{anim id=\"Frantic\" target=\"actor\" targetSpec=\"\"}}je sens la tension\nmonter en flèche !"
  },
  {
    "label": "022",
    "attribute": "0x00000000",
    "text": "{{anim id=\"Smiling\" target=\"actor\" targetSpec=\"\"}}Il est temps de dire au revoir à\n{{number value=\"27\"}} !{{delay20}} Avez-vous tenu toutes vos\nrésolutions, {{string value=\"PlayerName\"}} ?"
  },
  {
    "label": "023",
    "attribute": "0x00000000",
    "text": "{{anim id=\"Pardon\" target=\"actor\" targetSpec=\"\"}}Bien !{{delay8}} Il reste moins d'une heure !{{delay20}}\n{{anim id=\"Smiling\" target=\"actor\" targetSpec=\"\"}}Êtes-vous prêt{{gender2 m=\"\" f=\"e\"}} à compter haut et\nfort ?!"
  },
  {
    "label": "024",
    "attribute": "0x00000000",
    "text": "{{anim id=\"Shocked\" target=\"actor\" targetSpec=\"\"}}AH !{{delay8}} Vous avez vu l'heure ?!{{delay20}} {{anim id=\"Frantic\" target=\"actor\" targetSpec=\"\"}}Je ne\nsais pas si je vais pouvoir endurer\nun tel niveau d'excitation !"
  },
  {
    "label": "025",
    "attribute": "0x00000000",
    "text": "{{anim id=\"Eh\" target=\"actor\" targetSpec=\"\"}}Il reste moins de cinq minutes !{{delay20}}\n{{anim id=\"Smiling\" target=\"actor\" targetSpec=\"\"}}Gardez l'œil sur le panneau\nlumineux !"
  },
  {
    "label": "026",
    "attribute": "0x00000000",
    "text": "{{anim id=\"Hesitate\" target=\"actor\" targetSpec=\"\"}}Comment trouvez-vous ma tenue ?{{pageBreak}}{{anim id=\"Smiling\" target=\"actor\" targetSpec=\"\"}}S'il y a bien une nuit qui mérite\nque l'on se mette sur son 31{{string value=\"...\"}}{{delay20}}{{anim id=\"Laughing\" target=\"actor\" targetSpec=\"\"}} c'est\ncelle du 31 !"
  },
  {
    "label": "027",
    "attribute": "0x00000000",
    "text": "{{anim id=\"Thinking\" target=\"actor\" targetSpec=\"\"}}Je n'ai pas vu {{number value=\"27\"}} passer{{string value=\"...\"}}{{i10_4}}{{anim id=\"EmotEnd\" target=\"actor\" targetSpec=\"\"}} En fait,\n{{anim id=\"Oops\" target=\"actor\" targetSpec=\"\"}}je crois que je dis ça tous les ans."
  },
  {
    "label": "028",
    "attribute": "0x00000000",
    "text": "{{anim id=\"AbsentMindedness\" target=\"actor\" targetSpec=\"\"}}Je me demande quel genre de\nsurprises nous réserve l'année\nprochaine{{string value=\"...\"}}{{pageBreak}}{{anim id=\"BigSmile\" target=\"actor\" targetSpec=\"\"}}Du moment que je la passe avec tous\nmes amis sur {{string value=\"OtherIslandName\"}}, c'est tout ce qui compte !"
  },
  {
    "label": "029_00",
    "attribute": "0x00000000",
    "text": "{{anim id=\"HappyDance\" target=\"actor\" targetSpec=\"\"}}Ce chapeau de nouvel an vous va à\nravir, {{string value=\"PlayerName\"}} !{{delay20}}{{pageBreak}}{{anim id=\"Smiling\" target=\"actor\" targetSpec=\"\"}}Comment trouvez-vous le mien ?"
  },
  {
    "label": "029_01",
    "attribute": "0x00000000",
    "text": "{{anim id=\"Smiling\" target=\"actor\" targetSpec=\"\"}}{{color id=\"3\"}}M. Nook{{color id=\"65535\"}} vend des chapeaux de\nnouvel an à son stand.{{pageBreak}}{{anim id=\"HappyDance\" target=\"actor\" targetSpec=\"\"}}Vous devriez en acheter un pour la\nfête de ce soir !{{delay20}} C'est l'occasion\nidéale pour s'habiller élégamment !"
  },
  {
    "label": "030",
    "attribute": "0x00000000",
    "text": "{{anim id=\"Frantic\" target=\"actor\" targetSpec=\"\"}}La nouvelle année arrive bientôt !{{i10_7 arg=\"30\"}}"
  },
  {
    "label": "031",
    "attribute": "0x00000000",
    "text": "{{anim id=\"Frantic\" target=\"actor\" targetSpec=\"\"}}{{number value=\"27\"}} est presque finie !{{i10_7 arg=\"30\"}}"
  },
  {
    "label": "032",
    "attribute": "0x00000000",
    "text": "{{anim id=\"Frantic\" target=\"actor\" targetSpec=\"\"}}AAAAH !{{delay8}} Je ne suis pas prête !{{i10_7 arg=\"30\"}}"
  },
  {
    "label": "034",
    "attribute": "0x00000000",
    "text": "{{anim id=\"Smiling\" target=\"actor\" targetSpec=\"\"}}C'est très gentil à vous de visiter\n{{string value=\"OtherIslandName\"}} !{{delay20}} Vous ne pouviez pas mieux tomber !"
  },
  {
    "label": "035",
    "attribute": "0x00000000",
    "text": "{{anim id=\"EmotEnd\" target=\"actor\" targetSpec=\"\"}}Comme vous pouvez le voir,{{delay8}} nous\naccueillerons la nouvelle année sur\nla place ce soir !{{pageBreak}}{{anim id=\"Smiling\" target=\"actor\" targetSpec=\"\"}}Mais il n'est pas encore minuit,{{delay20}} alors\nprofitez du dernier jour de {{number value=\"27\"}} pour\nvisiter notre île et revenez ce soir !"
  },
  {
    "label": "036",
    "attribute": "0x00000000",
    "text": "{{anim id=\"EmotEnd\" target=\"actor\" targetSpec=\"\"}}La place est fin prête pour le\ncompte à rebours {{gender4 m=\"de \" f=\"d'⁠\"}}{{string value=\"OtherIslandName\"}} !"
  },
  {
    "label": "037",
    "attribute": "0x00000000",
    "text": "{{anim id=\"Smiling\" target=\"actor\" targetSpec=\"\"}}J'espère que vous vous joindrez à\nnous pour accueillir la nouvelle\nannée sur {{string value=\"OtherIslandName\"}} !"
  },
  {
    "label": "038",
    "attribute": "0x00000000",
    "text": "{{anim id=\"Smiling\" target=\"actor\" targetSpec=\"\"}}J'ai hâte de passer le cap de la\nnouvelle année avec vous sur notre\nbelle {{string value=\"OtherIslandName\"}} !{{pageBreak}}{{anim id=\"HappyDance\" target=\"actor\" targetSpec=\"\"}}Après le compte à rebours, il y aura\nun feu d'artifice qui, je pense, vaudra\nvraiment le coup d'œil."
  },
  {
    "label": "039",
    "attribute": "0x00000000",
    "text": "{{anim id=\"Eh\" target=\"actor\" targetSpec=\"\"}}Plus que quelques instants avant la\nnouvelle année.{{delay20}} {{anim id=\"BigSmile\" target=\"actor\" targetSpec=\"\"}}Préparez votre plus\nbeau sourire !"
  },
  {
    "label": "040",
    "attribute": "0x00000000",
    "text": "{{anim id=\"Cheering\" target=\"actor\" targetSpec=\"\"}}Bonne et heureuse année, {{string value=\"PlayerName\"}} !"
  },
  {
    "label": "041",
    "attribute": "0x00000000",
    "text": "{{anim id=\"IdeaBulb\" target=\"actor\" targetSpec=\"\"}}Mais au fait{{string value=\"...\"}}{{delay20}}{{anim id=\"EmotEnd\" target=\"actor\" targetSpec=\"\"}} je ne vous ai pas\nencore remis votre cadeau !"
  },
  {
    "label": "042",
    "attribute": "0x00000000",
    "text": "{{anim id=\"IdeaBulb\" target=\"actor\" targetSpec=\"\"}}J'y pense !{{delay20}} {{anim id=\"EmotEnd\" target=\"actor\" targetSpec=\"\"}}J'ai préparé un petit\ncadeau pour tout le monde,\naujourd'hui."
  },
  {
    "label": "043",
    "attribute": "0x00000000",
    "text": "Au fait, {{delay8}}{{anim id=\"ShyBoy\" target=\"actor\" targetSpec=\"\"}}j'ai préparé un petit cadeau\npour tout le monde, aujourd'hui."
  },
  {
    "label": "044",
    "attribute": "0x00000000",
    "text": "{{anim id=\"Hesitate\" target=\"actor\" targetSpec=\"\"}}Je voulais vous le donner avant le\ndébut de la nouvelle année, {{delay20}}mais\nje n'en ai pas eu l'occasion{{string value=\"...\"}}{{pageBreak}}{{anim id=\"BigSmile\" target=\"actor\" targetSpec=\"\"}}Enfin, mieux vaut tard que jamais !"
  },
  {
    "label": "045",
    "attribute": "0x00000000",
    "text": "{{anim id=\"Smiling\" target=\"actor\" targetSpec=\"\"}}C'est une {{color id=\"1\"}}baguette fluo{{color id=\"65535\"}} !{{delay40}} La nouvelle\nannée est déjà là,{{delay20}}{{anim id=\"HappyDance\" target=\"actor\" targetSpec=\"\"}} mais la fête est\nloin d'être finie !"
  },
  {
    "label": "046",
    "attribute": "0x00000000",
    "text": "{{anim id=\"Smiling\" target=\"actor\" targetSpec=\"\"}}C'est une {{color id=\"1\"}}baguette fluo {{color id=\"65535\"}}!{{delay40}}{{anim id=\"EmotEnd\" target=\"actor\" targetSpec=\"\"}} On dirait\nque la fête touche doucement à sa\nfin{{string value=\"...\"}}{{pageBreak}}{{anim id=\"FaintSmile\" target=\"actor\" targetSpec=\"\"}}Mais je tenais tout de même à\nvous remettre ceci en souvenir\nde ce moment !"
  },
  {
    "label": "052",
    "attribute": "0x00000000",
    "text": "{{anim id=\"Smiling\" target=\"actor\" targetSpec=\"\"}}Le premier feu d'artifice de {{number value=\"27\"}} !{{delay20}}\n{{anim id=\"HappyDance\" target=\"actor\" targetSpec=\"\"}}Voilà une autre occasion de se\nréjouir !"
  },
  {
    "label": "053",
    "attribute": "0x00000000",
    "text": "{{anim id=\"Love\" target=\"actor\" targetSpec=\"\"}}Un feu d'artifice aussi magnifique ne\npeut être que de bon augure pour\ncette nouvelle année !"
  },
  {
    "label": "054",
    "attribute": "0x00000006",
    "text": "{{i10_12}}{{i10_14 arg=\"20\"}}{{anim id=\"Cheering\" target=\"actor\" targetSpec=\"\"}}Vive {{string value=\"OtherIslandName\"}} ! Ouiiii !{{i10_9}}{{anim id=\"FaintSmile\" target=\"actor\" targetSpec=\"\"}}{{pageBreak}}{{anim id=\"Blushing\" target=\"actor\" targetSpec=\"\"}}Oh, désolée si je vous ai fait\nsursauter !{{pageBreak}}{{anim id=\"EmotEnd\" target=\"actor\" targetSpec=\"\"}}Quand j'admire un feu d'artifice, mon\nenthousiasme a tendance à être{{string value=\"...\"}}{{anim id=\"EmotEnd\" target=\"actor\" targetSpec=\"\"}}\nexplosif !"
  },
  {
    "label": "055",
    "attribute": "0x00000000",
    "text": "{{anim id=\"Smiling\" target=\"actor\" targetSpec=\"\"}}Puisse cette année être aussi\néblouissante{{delay20}}{{anim id=\"BigSmile\" target=\"actor\" targetSpec=\"\"}} que les feux d'artifice\nqui illuminent le ciel !"
  },
  {
    "label": "056",
    "attribute": "0x00000000",
    "text": "{{anim id=\"HappyFlower\" target=\"actor\" targetSpec=\"\"}}Quoi de plus merveilleux que de\ncommencer une nouvelle année{{delay20}}{{anim id=\"Love\" target=\"actor\" targetSpec=\"\"}}\nentourée de tous ses amis !"
  },
  {
    "label": "057",
    "attribute": "0x00000000",
    "text": "{{anim id=\"FaintSmile\" target=\"actor\" targetSpec=\"\"}}Le feu d'artifice était magnifique !{{delay20}}\n{{anim id=\"AbsentMindedness\" target=\"actor\" targetSpec=\"\"}}Je peux encore le voir quand je ferme\nles yeux{{string value=\"...\"}}{{pageBreak}}{{anim id=\"HappyFlower\" target=\"actor\" targetSpec=\"\"}}De grandes fleurs de lumière qui\néclosent dans le ciel nocturne{{string value=\"...\"}}"
  },
  {
    "label": "058",
    "attribute": "0x00000000",
    "text": "{{anim id=\"FaintSmile\" target=\"actor\" targetSpec=\"\"}}Maintenant que le feu d'artifice est\nterminé,{{delay20}} je pense que tout le monde\nva bientôt rentrer se coucher."
  },
  {
    "label": "059",
    "attribute": "0x00000000",
    "text": "{{anim id=\"Smiling\" target=\"actor\" targetSpec=\"\"}}Je suis si heureuse que nous ayons\ncommencé {{number value=\"27\"}} en beauté !"
  },
  {
    "label": "060",
    "attribute": "0x00000000",
    "text": "{{anim id=\"Greeting\" target=\"actor\" targetSpec=\"\"}}Puisse cette nouvelle année nous\napporter son lot de nouvelles\naventures et de nouveaux amis !"
  },
  {
    "label": "061",
    "attribute": "0x00000000",
    "text": "{{anim id=\"Sleepy\" target=\"actor\" targetSpec=\"\"}}Ouh là là{{string value=\"...\"}} {{delay20}}Maintenant que les\ndétonations du feu d'artifice se sont\ntues{{string value=\"...\"}}{{delay20}} j'ai du mal à garder les yeux{{anim id=\"Sleep\" target=\"actor\" targetSpec=\"\"}}{{string value=\"...\"}}{{pageBreak}}{{anim id=\"Aha\" target=\"actor\" targetSpec=\"\"}}{{delay20}}BONNE ANNÉE !"
  },
  {
    "label": "063",
    "attribute": "0x00000000",
    "text": "{{anim id=\"Smiling\" target=\"actor\" targetSpec=\"\"}}Bonne et heureuse année !{{delay frames=\"40\"}} {{anim id=\"HappyFlower\" target=\"actor\" targetSpec=\"\"}}J'espère\nque vous continuerez à venir visiter\n{{string value=\"OtherIslandName\"}} en {{number value=\"27\"}} !"
  },
  {
    "label": "064",
    "attribute": "0x00000000",
    "text": "{{anim id=\"BigSmile\" target=\"actor\" targetSpec=\"\"}}Joyeuse Saint-Sylvestre, {{string value=\"PlayerName\"}} !{{delay40}} {{anim id=\"Shocked\" target=\"actor\" targetSpec=\"\"}}Oh !{{delay frames=\"40\"}} Mais je manque à toutes mes obligations !{{pageBreak}}{{anim id=\"Laughing\" target=\"actor\" targetSpec=\"\"}}Nous ne nous étions pas encore\nrencontré{{gender2 m=\"\" f=\"e\"}}s,{{delay frames=\"60\"}}{{anim id=\"Nodding\" target=\"actor\" targetSpec=\"\"}} mais {{color id=\"3\"}}Tom Nook{{color id=\"65535\"}} m'a\nbeaucoup parlé de vous.{{pageBreak}}{{anim id=\"FaintSmile\" target=\"actor\" targetSpec=\"\"}}Permettez-moi de me présenter\nofficiellement.{{delay20}} {{anim id=\"HappyFlower\" target=\"actor\" targetSpec=\"\"}}Je suis {{color id=\"3\"}}Marie {{color id=\"65535\"}}!{{pageBreak}}{{anim id=\"Smiling\" target=\"actor\" targetSpec=\"\"}}Il est fermé aujourd'hui, mais en\ntemps normal, vous pourrez me\ntrouver au{{color id=\"1\"}} bureau des résidents{{color id=\"65535\"}}.{{pageBreak}}{{anim id=\"EmotEnd\" target=\"actor\" targetSpec=\"\"}}Mais assez parlé de moi.{{delay20}} {{anim id=\"HappyDance\" target=\"actor\" targetSpec=\"\"}}Aujourd'hui,\nnous avons un compte à rebours à\ncélébrer !"
  }
]