﻿[
  {
    "label": "001",
    "text": "¡Hola, {{string value=\"NickName\"}}!"
  },
  {
    "label": "002",
    "text": "Holap, {{string value=\"NickName\"}}::"
  },
  {
    "label": "003",
    "text": "Je, je. ¡Hola, {{string value=\"NickName\"}}!"
  },
  {
    "label": "004",
    "text": "¡Hooola, {{string value=\"NickName\"}}!"
  },
  {
    "label": "005",
    "text": "¿Cómo estás, {{string value=\"NickName\"}}?"
  },
  {
    "label": "006",
    "text": "¡Adivina qué, {{string value=\"NickName\"}}!"
  },
  {
    "label": "101",
    "text": "¡Me encantó tu tarjeta!\n¡Y el regalo, también!\nHasta me salieron florecitas\nde lo feliz que estaba..."
  },
  {
    "label": "102",
    "text": "¡Gracias por el regalo!\nMe encanta recibirlos\nen diciembre, ¿sabes?\n¡Y te envío el mío para\nque tú también estés\nmuy feliz!"
  },
  {
    "label": "103",
    "text": "¡Gracias por la tarjeta y el regalo!\nMe siento muy especial.\nTe mando un regalo también,\ncon esta tarjeta para que igual\nte sientas muy especial."
  },
  {
    "label": "104",
    "text": "Recibí tu tarjeta mientras estaba\nlimpiando la casa. ¡Me puse tan\ncontento que dejé de limpiar!"
  },
  {
    "label": "105",
    "text": "Este ha sido un año genial,\n¿no, {{string value=\"NickName\"}}?\nY me gusta muchísimo haberlo\npasado contigo, ¡porque eres\nmuy genial!"
  },
  {
    "label": "106",
    "text": "Recibí tu tarjeta y pensé que sería\nbuena idea enviarte una también.\nAsí que fui a comprarla, regresé\na casa y me di cuenta de que no\ntenía lápiz, fui a comprarlo, ya\nregresé y ahora escribo esto..."
  },
  {
    "label": "201",
    "text": "{{string value=\"VillagerName\"}} el guapo"
  },
  {
    "label": "202",
    "text": "Feliz diciembre, {{string value=\"VillagerName\"}}"
  },
  {
    "label": "203",
    "text": "{{string value=\"VillagerName\"}} el detallista"
  },
  {
    "label": "204",
    "text": "{{string value=\"VillagerName\"}} el distraído"
  },
  {
    "label": "205",
    "text": "{{string value=\"VillagerName\"}} el otro genial"
  },
  {
    "label": "206",
    "text": "Estrenando lápiz, {{string value=\"VillagerName\"}}"
  }
]