﻿[
  {
    "label": "001",
    "text": "A mi compi de papas:"
  },
  {
    "label": "002",
    "text": "¿Cómo estás, {{string value=\"NickName\"}}?"
  },
  {
    "label": "003",
    "text": "{{capitalizeNextLetter}}{{string value=\"NickName\"}}:"
  },
  {
    "label": "004",
    "text": "¡Bien, {{string value=\"NickName\"}}!"
  },
  {
    "label": "101",
    "text": "¡Es genial que tengas una nueva\nhabitación, {{string value=\"NickName\"}}!\nTe mando algo porque me dijeron\nque es de buena educación mandar\nalgo a los amigos cuando les pasan\ncosas así de especiales."
  },
  {
    "label": "102",
    "text": "¡Qué noticia tan \"espuéndida\"!\n¡Otra habitación para tu casa!\nDebe ser igual de emocionante que\ncuando te sale un diente nuevo. Te\nmando algo para que rellenes tu\nnuevo espacio vacío."
  },
  {
    "label": "103",
    "text": "¡¿Qué le das de comer a tu casa\npara que crezca tan grande?!\nNo vayas a dejar que se coma\neste obsequio que te mando, ¿eh?"
  },
  {
    "label": "104",
    "text": "¡Ya tienes dos pisos! Eso quiere\ndecir que tienes (a ver... dos\nmenos uno... uno). ¡Un piso más!\nTe mando UN regalo para que\nlo pongas en tu piso nuevo."
  },
  {
    "label": "201",
    "text": "Invítame papitas, {{string value=\"VillagerName\"}}"
  },
  {
    "label": "202",
    "text": "Invítame, ¿sí? {{string value=\"VillagerName\"}}"
  },
  {
    "label": "203",
    "text": "Me autoinvitaré, {{string value=\"VillagerName\"}}"
  },
  {
    "label": "204",
    "text": "Me invitas, {{string value=\"VillagerName\"}}"
  }
]