﻿[
  {
    "label": "001",
    "attribute": "0x0000000000000000",
    "text": "{{fun_0014003C arg=\"\"}}"
  },
  {
    "label": "001_01",
    "attribute": "0x0000000000000000",
    "text": "{{anim id=\"Greeting\" target=\"actor\" targetSpec=\"\"}}¡Encantado de conocerte!{{delay20}}\nYo soy {{string value=\"VillagerName\"}}{{delay8}} {{anim id=\"FaintSmile\" target=\"actor\" targetSpec=\"\"}}y hoy estoy de visita en esta isla.{{pageBreak}}{{anim id=\"Nodding\" target=\"actor\" targetSpec=\"\"}}¿Eres {{string value=\"NickName\"}},{{delay8}} de {{string value=\"IslandName\"}}? {{delay20}}Mola, ¿no?{{pageBreak}}{{anim id=\"FaintSmile\" target=\"actor\" targetSpec=\"\"}}Esta isla también mola bastante,{{delay8}}\n{{anim id=\"BigSmile\" target=\"actor\" targetSpec=\"\"}}¡y, ya que estamos los dos aquí,\nvamos a aprovechar para divertirnos!"
  },
  {
    "label": "001_02",
    "attribute": "0x0000000000000000",
    "text": "{{anim id=\"Shocked\" target=\"actor\" targetSpec=\"\"}}¡Huy!{{delay20}} ¡{{gender2 m=\"Un insulano\" f=\"Una insulana\"}}!{{i10_4}}\n{{anim id=\"Laughing\" target=\"actor\" targetSpec=\"\"}}¡Ah, que tú también estás de visita!{{pageBreak}}{{anim id=\"FaintSmile\" target=\"actor\" targetSpec=\"\"}}Pues yo soy {{string value=\"VillagerName\"}}.{{delay20}}\n¿Y tú eres {{string value=\"NickName\"}}, {{anim id=\"Nodding\" target=\"actor\" targetSpec=\"\"}}de {{string value=\"IslandName\"}}?{{pageBreak}}{{anim id=\"ShyBoy\" target=\"actor\" targetSpec=\"\"}}No esperaba hacer {{gender2 m=\"un amigo\" f=\"una amiga\"}}\npor aquí{{string value=\"...\"}}{{delay20}} {{anim id=\"HappyFlower\" target=\"actor\" targetSpec=\"\"}}¡Cómo mola este sitio,\n{{string value=\"Catchphrase\"}}!"
  },
  {
    "label": "001_03",
    "attribute": "0x0000000000000000",
    "text": "{{anim id=\"Aha\" target=\"actor\" targetSpec=\"\"}}Huy,{{delay8}} {{anim id=\"FaintSmile\" target=\"actor\" targetSpec=\"\"}}encantado de conocerte.{{delay20}}\nYo soy {{string value=\"VillagerName\"}}.{{pageBreak}}{{anim id=\"Nodding\" target=\"actor\" targetSpec=\"\"}}¿Y tú eres {{string value=\"NickName\"}} y vives en {{string value=\"IslandName\"}}?{{delay20}} {{anim id=\"WrySmile\" target=\"actor\" targetSpec=\"\"}}Pues mola.{{pageBreak}}{{anim id=\"FaintSmile\" target=\"actor\" targetSpec=\"\"}}Pero este sitio, también, así que,\nya que estamos aquí,{{delay8}} ¿te parece\nsi aprovechamos para divertirnos?"
  },
  {
    "label": "004",
    "attribute": "0x0000020000000000",
    "text": "{{anim id=\"Aha\" target=\"actor\" targetSpec=\"\"}}¡Esta isla es frondosa frondosísima!{{delay20}}\n{{anim id=\"Nodding\" target=\"actor\" targetSpec=\"\"}}Con tanta naturaleza, me siento\ncomo la Tintorera Aventurera.\n{{anim id=\"Pardon\" target=\"actor\" targetSpec=\"\"}}Pero sin animales prehistóricos\nni plantas carnívoras que quieran\ncomerme{{string value=\"...\"}}\n{{anim id=\"Love\" target=\"actor\" targetSpec=\"\"}}¡Aun así, molaría mazo instalarse\na vivir en un sitio así, {{string value=\"Catchphrase\"}}!"
  },
  {
    "label": "004_a",
    "attribute": "0x0000000000000000",
    "text": "{{anim id=\"EmotEnd\" target=\"player\" targetSpec=\"\"}}¿Te vienes a mi isla?"
  },
  {
    "label": "004_b",
    "attribute": "0x0000000000000000",
    "text": "{{anim id=\"EmotEnd\" target=\"player\" targetSpec=\"\"}}A lo mejor algún día..."
  },
  {
    "label": "005",
    "attribute": "0x0000000000000000",
    "text": "{{anim id=\"WrySmile\" target=\"actor\" targetSpec=\"\"}}Estaría bien, {{string value=\"Catchphrase\"}}{{string value=\"...\"}}{{delay20}}\n{{anim id=\"HappyDance\" target=\"actor\" targetSpec=\"\"}}¡De momento, voy a centrarme\nen pasármelo genial aquí!"
  },
  {
    "label": "006",
    "attribute": "0x0000000000000000",
    "text": "{{anim id=\"Eh\" target=\"actor\" targetSpec=\"\"}}¡¿Eh?!{{delay20}} Vives en {{string value=\"IslandName\"}}, ¿verdad⁠?{{i10_4}} {{anim id=\"Thinking\" target=\"actor\" targetSpec=\"\"}}Pues me suena bastante{{string value=\"...\"}}{{pageBreak}}{{anim id=\"TakenAback\" target=\"actor\" targetSpec=\"\"}}¡Ya sé por qué!{{delay20}} {{anim id=\"Pardon\" target=\"actor\" targetSpec=\"\"}}Llamé para ver si\npodía mudarme allí.{{pageBreak}}{{anim id=\"Serious\" target=\"actor\" targetSpec=\"\"}}Así que la isla donde quiero ir a vivir\nes la misma donde vives tú{{string value=\"...\"}}{{delay20}}\n{{anim id=\"Laughing\" target=\"actor\" targetSpec=\"\"}}¡Qué cosas tiene el destino!{{pageBreak}}{{anim id=\"Nodding\" target=\"actor\" targetSpec=\"\"}}Ahora sí que no me lo pienso dos\nveces;{{delay8}} {{anim id=\"FaintSmile\" target=\"actor\" targetSpec=\"\"}}¡va a ser genial cuando los\ndos vivamos en {{string value=\"IslandName\"}}!"
  },
  {
    "label": "007",
    "attribute": "0x0000010000000000",
    "text": "{{anim id=\"Eh\" target=\"actor\" targetSpec=\"\"}}¡¿Eh?!{{delay8}} Entonces vives en {{string value=\"IslandName\"}}, ¿verdad?{{delay20}} {{anim id=\"QuestionMark\" target=\"actor\" targetSpec=\"\"}}¿Y es como aquí?{{pageBreak}}{{anim id=\"Aha\" target=\"actor\" targetSpec=\"\"}}¡Porque entonces yo también quiero\nvivir allí!{{delay8}} {{anim id=\"Blushing\" target=\"actor\" targetSpec=\"\"}}Sobre todo si mola tanto\ncomo tú, {{string value=\"NickName\"}}{{string value=\"...\"}}"
  },
  {
    "label": "007_a",
    "attribute": "0x0000000000000000",
    "text": "¡Te estaré esperando!"
  },
  {
    "label": "007_b",
    "attribute": "0x0000000000000000",
    "text": "¡Ya tardas!"
  },
  {
    "label": "008",
    "attribute": "0x0000000000000000",
    "text": "{{anim id=\"EmotEnd\" target=\"actor\" targetSpec=\"\"}}Por cierto,{{delay8}} {{anim id=\"ShyBoy\" target=\"actor\" targetSpec=\"\"}}¿qué es lo que hay que\nhacer para mudarse a {{string value=\"IslandName\"}}⁠?{{pageBreak}}{{anim id=\"Nodding\" target=\"actor\" targetSpec=\"\"}}Llamo a ese tal {{color id=\"3\"}}Tom Nook{{color id=\"65535\"}}\ny él ya me dirá lo que tengo\nque hacer, ¿no?\n{{anim id=\"FaintSmile\" target=\"actor\" targetSpec=\"\"}}Pues muchas gracias.{{delay20}}\nLlamo y a ver qué me cuentan.{{pageBreak}}{{anim id=\"HappyDance\" target=\"actor\" targetSpec=\"\"}}¡Después de cuando descubrí\nel montadito de {{randomSweets}},{{delay8}}\neste es el mejor día de mi vida!"
  },
  {
    "label": "009",
    "attribute": "0x0000000000000000",
    "text": "{{fun_0014003C arg=\"\"}}"
  },
  {
    "label": "009_01",
    "attribute": "0x0000000000000000",
    "text": "{{anim id=\"Explain\" target=\"actor\" targetSpec=\"\"}}Esta isla tiene mogollón de árboles\ny flores.{{delay20}} {{anim id=\"Nodding\" target=\"actor\" targetSpec=\"\"}}¡Seguro que son geniales\npara proyectos de bricolaje!"
  },
  {
    "label": "009_02",
    "attribute": "0x0000000000000000",
    "text": "{{anim id=\"FaintSmile\" target=\"actor\" targetSpec=\"\"}}Esta isla es pequeñita, pero tiene\nmuchos peces.{{delay20}} {{anim id=\"Greeting\" target=\"actor\" targetSpec=\"\"}}¡Y ya, de bichos,\nni hablamos!"
  },
  {
    "label": "009_03",
    "attribute": "0x0000000000000000",
    "text": "{{anim id=\"Hesitate\" target=\"actor\" targetSpec=\"\"}}Casi me da algo cuando se me\nrompió la herramienta que me hacía\nfalta y yo sin repuesto{{string value=\"...\"}}\n{{anim id=\"Pardon\" target=\"actor\" targetSpec=\"\"}}Pero {{color id=\"3\"}}Rodri {{color id=\"65535\"}}me dio lo que necesitaba\npor unas cuantas millas{{string value=\"...\"}}"
  },
  {
    "label": "010",
    "attribute": "0x0000000000000000",
    "text": "{{fun_0014003C arg=\"\"}}"
  },
  {
    "label": "010_01",
    "attribute": "0x0000000000000000",
    "text": "{{anim id=\"AbsentMindedness\" target=\"actor\" targetSpec=\"\"}}{{capitalizeNextLetter}}{{string value=\"IslandName\"}} parece un sitio de rechupete.{{delay20}} {{anim id=\"BigSmile\" target=\"actor\" targetSpec=\"\"}}¡Qué ganas tengo de ver cómo es en realidad!"
  },
  {
    "label": "010_02",
    "attribute": "0x0000000000000000",
    "text": "{{anim id=\"Thinking\" target=\"actor\" targetSpec=\"\"}}Me planto en una isla para visitarla\ny resulta que acaban invitándome\na que me mude{{string value=\"...\"}}\n{{anim id=\"Laughing\" target=\"actor\" targetSpec=\"\"}}¡Tengo una vida de película, {{string value=\"NickName\"}}!"
  },
  {
    "label": "010_03",
    "attribute": "0x0000000000000000",
    "text": "{{anim id=\"FaintSmile\" target=\"actor\" targetSpec=\"\"}}Viajar solo es chachi{{string value=\"...\"}}{{delay8}} {{anim id=\"Love\" target=\"actor\" targetSpec=\"\"}}¡pero más\nchachis son los amigos que haces\npor el camino, {{string value=\"Catchphrase\"}}!"
  }
]