﻿[
  {
    "label": "001",
    "attribute": "0x0000000000000000",
    "text": "{{anim id=\"Laughing\" target=\"actor\" targetSpec=\"\"}}Привет! Это я! {{capitalizeNextLetter}}{{string value=\"6\"}}!"
  },
  {
    "label": "002",
    "attribute": "0x0000000000000000",
    "text": "{{anim id=\"EmotEnd\" target=\"actor\" targetSpec=\"\"}}{{delay8}}Я захожу! {{capitalizeNextLetter}}{{string value=\"6\"}}!"
  },
  {
    "label": "003",
    "attribute": "0x0000000000000000",
    "text": "{{anim id=\"SmugFace\" target=\"actor\" targetSpec=\"\"}}{{delay8}}Вот и я! {{capitalizeNextLetter}}{{string value=\"6\"}}!"
  },
  {
    "label": "004",
    "attribute": "0x0000000000000000",
    "text": "Привет, {{string value=\"NickName\"}}!{{delay frames=\"40\"}}\nЭто я! {{string value=\"VillagerName\"}}!{{i10_7 arg=\"120\"}}"
  },
  {
    "label": "005",
    "attribute": "0x0000000000000000",
    "text": "{{capitalizeNextLetter}}{{string value=\"NickName\"}}! Ты дома?{{delay frames=\"40\"}}\nЭто {{string value=\"VillagerName\"}}!{{i10_7 arg=\"120\"}}"
  },
  {
    "label": "006",
    "attribute": "0x0000000000000000",
    "text": "{{capitalizeNextLetter}}{{string value=\"NickName\"}}!{{delay frames=\"40\"}}\nЭто я, {{string value=\"VillagerName\"}}!{{i10_7 arg=\"120\"}}"
  },
  {
    "label": "007",
    "attribute": "0x0000000000000000",
    "text": "{{capitalizeNextLetter}}{{string value=\"NickName\"}}!{{delay frames=\"40\"}}\nВпусти меня! {{capitalizeNextLetter}}{{string value=\"6\"}}!{{i10_7 arg=\"120\"}}"
  },
  {
    "label": "008",
    "attribute": "0x0000000000000000",
    "text": "{{capitalizeNextLetter}}{{string value=\"NickName\"}}!{{delay frames=\"40\"}}\nЕсть тут кто? {{capitalizeNextLetter}}{{string value=\"6\"}}?{{i10_7 arg=\"120\"}}"
  },
  {
    "label": "009",
    "attribute": "0x0000000000000000",
    "text": "Куда же подевал{{gender2 m=\"ся\" f=\"ась\"}}\n{{string value=\"NickName\"}}?{{i10_7 arg=\"120\"}}"
  },
  {
    "label": "010",
    "attribute": "0x0000000000000000",
    "text": "По-моему, дома никого нет{{string value=\"...\"}}{{delay20}}\nЛадно.{{i10_7 arg=\"120\"}}"
  },
  {
    "label": "011",
    "attribute": "0x0000000000000000",
    "text": "{{anim id=\"BigSmile\" target=\"actor\" targetSpec=\"\"}}Доброе утро, {{string value=\"NickName\"}}!{{delay20}} Знаю, что еще рано,{{delay8}} но мне что-то не спалось.{{delay20}} {{anim id=\"Sleepy\" target=\"actor\" targetSpec=\"\"}}У тебя кофе есть?"
  },
  {
    "label": "012",
    "attribute": "0x0000000000000000",
    "text": "{{anim id=\"Greeting\" target=\"actor\" targetSpec=\"\"}}Я тут, как обещала!{{delay20}} Как дела,\n{{string value=\"NickName\"}}? {{capitalizeNextLetter}}{{string value=\"6\"}}?"
  },
  {
    "label": "013",
    "attribute": "0x0000000000000000",
    "text": "{{anim id=\"Greeting\" target=\"actor\" targetSpec=\"\"}}Привет, {{string value=\"NickName\"}}!{{delay20}}\nЯ пришла!{{delay20}} {{anim id=\"Hesitate\" target=\"actor\" targetSpec=\"\"}}Э{{string value=\"...\"}} Я ведь не слишком\nпоздно?"
  },
  {
    "label": "014",
    "attribute": "0x0000000000000000",
    "text": "{{anim id=\"Explain\" target=\"actor\" targetSpec=\"\"}}Я знаю, что ты сейчас думаешь:{{delay20}}\n«Она в курсе, который час?!»{{i10_4}}\n{{anim id=\"SmugFace\" target=\"actor\" targetSpec=\"\"}}Да,{{delay frames=\"40\"}} я в курсе. {{capitalizeNextLetter}}{{string value=\"6\"}}."
  },
  {
    "label": "015",
    "attribute": "0x0000000000000000",
    "text": "{{anim id=\"Greeting\" target=\"actor\" targetSpec=\"\"}}Привет, я тут!{{delay20}}\nОй! {{anim id=\"TakenAback\" target=\"actor\" targetSpec=\"\"}}Фу-у-у! Т-таракан!{{pageBreak}}{{anim id=\"Negative\" target=\"actor\" targetSpec=\"\"}}Это без меня!{{delay20}} Я не сам{{gender7 m=\"ый\" f=\"ая\" n=\"\" pl=\"\"}}\nаккуратн{{gender7 m=\"ый\" f=\"ая\" n=\"\" pl=\"\"}} {{string value=\"VillagerRace\"}}, но\nтараканы{{delay8}} — эту уже слишком.{{pageBreak}}{{anim id=\"OhGeez\" target=\"actor\" targetSpec=\"\"}}Либо ты с ними тусуешься, либо\nсо мной. {{capitalizeNextLetter}}{{string value=\"6\"}}.{{delay frames=\"40\"}} Я{{delay20}} ухожу."
  },
  {
    "label": "100",
    "attribute": "0x0000000000000000",
    "text": "{{anim id=\"IdeaBulb\" target=\"actor\" targetSpec=\"\"}}Ах да! Я тебе кое-что принесла.{{delay frames=\"40\"}}\n{{anim id=\"Grin\" target=\"actor\" targetSpec=\"\"}}Держи!"
  },
  {
    "label": "101",
    "attribute": "0x0000000000000000",
    "text": "{{anim id=\"Blushing\" target=\"actor\" targetSpec=\"\"}}Это мелочь, но я хочу тебе это\nподарить.{{delay8}} Надеюсь, тебе\nпонравится!"
  },
  {
    "label": "102",
    "attribute": "0x0000000000000000",
    "text": "Ой! Пока я не забыла{{string value=\"...\"}}\nЭто небольшой подарочек."
  },
  {
    "label": "103",
    "attribute": "0x0000000000000000",
    "text": "{{anim id=\"FaintSmile\" target=\"actor\" targetSpec=\"\"}}Да, это {{fun_0004007D arg=\"0x0000\"}}.{{pageBreak}}{{anim id=\"Blushing\" target=\"actor\" targetSpec=\"\"}}Как я уже говорила, ничего\nособенного. {{delay20}}Пользуйся на\nздоровье! {{capitalizeNextLetter}}{{string value=\"6\"}}!"
  },
  {
    "label": "104",
    "attribute": "0x0000000000000000",
    "text": "{{anim id=\"Smiling\" target=\"actor\" targetSpec=\"\"}}Я подумала, что тебе пригод{{gender7 m=\"и\" f=\"и\" n=\"и\" pl=\"я\"}}тся\n{{fun_0004007D arg=\"0x0000\"}}."
  },
  {
    "label": "105",
    "attribute": "0x0000000000000000",
    "text": "{{anim id=\"FaintSmile\" target=\"actor\" targetSpec=\"\"}}Это {{fun_0004007D arg=\"0x0000\"}}!{{delay frames=\"40\"}}\n{{anim id=\"Grin\" target=\"actor\" targetSpec=\"\"}}Мне кажется, ты такое любишь."
  },
  {
    "label": "200",
    "attribute": "0x0000020000000000",
    "text": "{{anim id=\"IdeaBulb\" target=\"actor\" targetSpec=\"\"}}Слушай!{{delay8}} Раз мы тут вдвоем, может,\nсыграем во что-нибудь?\n{{capitalizeNextLetter}}{{string value=\"6\"}}?"
  },
  {
    "label": "200_a",
    "attribute": "0x0000000000000000",
    "text": "Конечно!"
  },
  {
    "label": "200_b",
    "attribute": "0x0000000000000000",
    "text": "Нет, спасибо."
  },
  {
    "label": "201",
    "attribute": "0x0000020000000000",
    "text": "{{anim id=\"Scheming\" target=\"actor\" targetSpec=\"\"}}Знаешь что{{string value=\"...\"}} Я знаю одну веселую\nигру.{{delay20}} Думаешь, сможешь у меня\nвыиграть?"
  },
  {
    "label": "201_a",
    "attribute": "0x0000000000000000",
    "text": "Еще бы! Сыграем!"
  },
  {
    "label": "201_b",
    "attribute": "0x0000000000000000",
    "text": "Я не хочу проиграть."
  },
  {
    "label": "202",
    "attribute": "0x0000020000000000",
    "text": "{{anim id=\"Hesitate\" target=\"actor\" targetSpec=\"\"}}Как у тебя с фортуной?{{delay frames=\"40\"}}{{anim id=\"Grin\" target=\"actor\" targetSpec=\"\"}} Не хочешь\nв одну игру сыграть? {{capitalizeNextLetter}}{{string value=\"6\"}}?"
  },
  {
    "label": "202_a",
    "attribute": "0x0000000000000000",
    "text": "Сыграем!"
  },
  {
    "label": "202_b",
    "attribute": "0x0000000000000000",
    "text": "Мне не везет."
  },
  {
    "label": "203",
    "attribute": "0x0000000000000000",
    "text": "{{anim id=\"WrySmile\" target=\"actor\" targetSpec=\"\"}}Да, со мной иногда{{delay20}} побаиваются\nиграть.{{delay frames=\"40\"}} {{anim id=\"Explain\" target=\"actor\" targetSpec=\"\"}}Тогда я просто осмотрюсь\nздесь. {{capitalizeNextLetter}}{{string value=\"6\"}}!"
  },
  {
    "label": "204",
    "attribute": "0x0000000000000000",
    "text": "{{anim id=\"Nodding\" target=\"actor\" targetSpec=\"\"}}Ясно. {{delay20}}От глупого риска до беды\nблизко.{{delay20}} Я просто осмотрюсь тогда,\nесли можно. {{capitalizeNextLetter}}{{string value=\"Catchphrase\"}}!"
  },
  {
    "label": "205",
    "attribute": "0x0000000000000000",
    "text": "{{anim id=\"FaintSmile\" target=\"actor\" targetSpec=\"\"}}Ладно. Дело твое.{{delay frames=\"40\"}} {{anim id=\"Grin\" target=\"actor\" targetSpec=\"\"}}Тогда я тут\nпохожу и полюбопытствую."
  }
]