﻿[
  {
    "label": "001",
    "attribute": "0x0000020000000000",
    "text": "{{anim id=\"Nodding\" target=\"actor\" targetSpec=\"\"}}No lo hago muy seguido,{{delay8}} pero\nayer me puse a barrer todas\nlas migajas de mi casa{{string value=\"...\"}}\n{{anim id=\"Pardon\" target=\"actor\" targetSpec=\"\"}}¿Quieres \"pasar a lo barrido\"?{{delay20}}\n{{anim id=\"ShyBoy\" target=\"actor\" targetSpec=\"\"}}Je, je, {{string value=\"Catchphrase\"}}."
  },
  {
    "label": "001_a",
    "attribute": "0x0000000000000000",
    "text": "¡Paso a lo barrido!"
  },
  {
    "label": "001_b",
    "attribute": "0x0000000000000000",
    "text": "Ahora no puedo..."
  },
  {
    "label": "002",
    "attribute": "0x0000020000000000",
    "text": "{{anim id=\"BigSmile\" target=\"actor\" targetSpec=\"\"}}Oye, {{string value=\"NickName\"}}{{string value=\"...\"}}\n{{anim id=\"Hello\" target=\"actor\" targetSpec=\"\"}}¿Quieres pasar a mi casa un rato?{{delay20}}\n{{anim id=\"Grin\" target=\"actor\" targetSpec=\"\"}}¡Tengo un montón de cosas geniales!"
  },
  {
    "label": "002_a",
    "attribute": "0x0000000000000000",
    "text": "¡Sí!"
  },
  {
    "label": "002_b",
    "attribute": "0x0000000000000000",
    "text": "Ahora no puedo..."
  },
  {
    "label": "003",
    "attribute": "0x0000020000000000",
    "text": "{{anim id=\"Thinking\" target=\"actor\" targetSpec=\"\"}}Nunca tengo visitas en mi casa{{string value=\"...\"}}\nademás de las hormigas, claro{{string value=\"...\"}}{{pageBreak}}{{anim id=\"ShyBoy\" target=\"actor\" targetSpec=\"\"}}¿No te gustaría ir un rato de visita,\n{{string value=\"NickName\"}}?"
  },
  {
    "label": "003_a",
    "attribute": "0x0000000000000000",
    "text": "¡Me encantaría!"
  },
  {
    "label": "003_b",
    "attribute": "0x0000000000000000",
    "text": "Ahora no puedo..."
  },
  {
    "label": "004",
    "attribute": "0x0000000000000000",
    "text": "{{anim id=\"Worried\" target=\"actor\" targetSpec=\"\"}}Bueno, no te preocupes{{string value=\"...\"}}{{delay20}}\n{{anim id=\"FaintSmile\" target=\"actor\" targetSpec=\"\"}}Será en otra ocasión."
  },
  {
    "label": "005",
    "attribute": "0x0000000000000000",
    "text": "{{anim id=\"Worried\" target=\"actor\" targetSpec=\"\"}}Está bien, no pasa nada{{string value=\"...\"}}{{delay8}}\n{{anim id=\"FaintSmile\" target=\"actor\" targetSpec=\"\"}}Ya me visitarás cuando puedas."
  },
  {
    "label": "006",
    "attribute": "0x0000000000000000",
    "text": "{{anim id=\"Eh\" target=\"actor\" targetSpec=\"\"}}Uy, pues{{string value=\"...\"}}{{delay8}}\n{{anim id=\"FaintSmile\" target=\"actor\" targetSpec=\"\"}}¡ya será cuando puedas!"
  },
  {
    "label": "007",
    "attribute": "0x0000010000000000",
    "text": "{{anim id=\"BigSmile\" target=\"actor\" targetSpec=\"\"}}¡Genial!{{delay20}} {{anim id=\"Smiling\" target=\"actor\" targetSpec=\"\"}}¿Y cuándo será que puedes\nir?{{delay8}} Yo estoy libre{{string value=\"...\"}}{{delay8}} ¡siempre!"
  },
  {
    "label": "007_a",
    "attribute": "0x0000000000000000",
    "text": "¡Pues ahora mismo!"
  },
  {
    "label": "007_b",
    "attribute": "0x0000000000000000",
    "text": "¿Mañana?"
  },
  {
    "label": "008",
    "attribute": "0x0000010000000000",
    "text": "{{anim id=\"HappyDance\" target=\"actor\" targetSpec=\"\"}}¡Uy, qué genial!{{delay20}}\n{{anim id=\"Smiling\" target=\"actor\" targetSpec=\"\"}}¿Y cuándo querrías ir a mi casa?{{delay8}}\n{{anim id=\"HappyFlower\" target=\"actor\" targetSpec=\"\"}}¡Cuanto antes, mejor!"
  },
  {
    "label": "008_a",
    "attribute": "0x0000000000000000",
    "text": "¡Ya mismito!"
  },
  {
    "label": "008_b",
    "attribute": "0x0000000000000000",
    "text": "Mañana me queda bien"
  },
  {
    "label": "009",
    "attribute": "0x0000010000000000",
    "text": "{{anim id=\"Aha\" target=\"actor\" targetSpec=\"\"}}¿Ah, sí?{{delay20}} {{anim id=\"Smiling\" target=\"actor\" targetSpec=\"\"}}Wiii{{string value=\"...\"}}{{delay20}}\n¿Y cuándo puedes visitarme?"
  },
  {
    "label": "009_a",
    "attribute": "0x0000000000000000",
    "text": "¿Qué tal ya mismo?"
  },
  {
    "label": "009_b",
    "attribute": "0x0000000000000000",
    "text": "¡Mañana estaría bien!"
  },
  {
    "label": "101",
    "attribute": "0x0000000000000000",
    "text": "{{anim id=\"BigSmile\" target=\"actor\" targetSpec=\"\"}}¡Pues andando!{{delay8}}\n¡A mi casa!"
  },
  {
    "label": "102",
    "attribute": "0x0000000000000000",
    "text": "{{anim id=\"Greeting\" target=\"actor\" targetSpec=\"\"}}¡Genial!{{delay8}} ¡Pues vamooos!"
  },
  {
    "label": "103",
    "attribute": "0x0000000000000000",
    "text": "{{anim id=\"Laughing\" target=\"actor\" targetSpec=\"\"}}¡Pues vamos!"
  },
  {
    "label": "104",
    "attribute": "0x0000000000000000",
    "text": "{{anim id=\"Thinking\" target=\"actor\" targetSpec=\"\"}}Ahora que lo pienso, es la primera\nvez que te invito a mi casa,{{delay8}}\n¿verdad, {{string value=\"NickName\"}}?\n{{anim id=\"BigSmile\" target=\"actor\" targetSpec=\"\"}}¡Qué emoción!"
  },
  {
    "label": "105",
    "attribute": "0x0000000000000000",
    "text": "{{anim id=\"Shocked\" target=\"actor\" targetSpec=\"\"}}Uy{{string value=\"...\"}}{{delay8}} No te había invitado a mi casa,\n¿verdad, {{string value=\"NickName\"}}?{{pageBreak}}{{anim id=\"Laughing\" target=\"actor\" targetSpec=\"\"}}¡Qué emoción!"
  },
  {
    "label": "106",
    "attribute": "0x0000000000000000",
    "text": "{{anim id=\"TakenAback\" target=\"actor\" targetSpec=\"\"}}¡Uy, pero ya es de noche!{{delay8}}\n{{anim id=\"Worried\" target=\"actor\" targetSpec=\"\"}}Ya no son horas de andar por ahí{{string value=\"...\"}}{{pageBreak}}{{anim id=\"FaintSmile\" target=\"actor\" targetSpec=\"\"}}Lo dejamos para otro día, ¿sí?"
  },
  {
    "label": "201",
    "attribute": "0x0000000000000000",
    "text": "{{anim id=\"Nodding\" target=\"actor\" targetSpec=\"\"}}Genial, nos vemos mañana.{{delay8}}\n{{anim id=\"FaintSmile\" target=\"actor\" targetSpec=\"\"}}Te voy a estar esperando, así que\nno lo vayas a olvidar, ¿eh?"
  },
  {
    "label": "202",
    "attribute": "0x0000000000000000",
    "text": "{{anim id=\"FaintSmile\" target=\"actor\" targetSpec=\"\"}}¡Excelente!{{delay20}}\nYa quiero que sea mañana{{string value=\"...\"}}"
  },
  {
    "label": "203",
    "attribute": "0x0000000000000000",
    "text": "{{anim id=\"Nodding\" target=\"actor\" targetSpec=\"\"}}Genial, te espero mañana.{{i10_4}}\n{{anim id=\"Silent\" target=\"actor\" targetSpec=\"\"}}Quizá no duerma esta noche\nde la emoción{{string value=\"...\"}}"
  },
  {
    "label": "204",
    "attribute": "0x0000000000000000",
    "text": "{{anim id=\"BigSmile\" target=\"actor\" targetSpec=\"\"}}Ven lo antes que puedas, ¿sí?{{delay8}}\n{{anim id=\"FaintSmile\" target=\"actor\" targetSpec=\"\"}}¡Nos vemos, {{string value=\"6\"}}!"
  },
  {
    "label": "205",
    "attribute": "0x0000000000000000",
    "text": "{{anim id=\"ShyBoy\" target=\"actor\" targetSpec=\"\"}}Quiero aprovechar todo el tiempo\nque vayas, así que llega temprano,\n¿sí?{{delay20}} {{anim id=\"BigSmile\" target=\"actor\" targetSpec=\"\"}}¡Qué emoción, {{string value=\"6\"}}!"
  },
  {
    "label": "206",
    "attribute": "0x0000000000000000",
    "text": "{{anim id=\"ShyBoy\" target=\"actor\" targetSpec=\"\"}}Me quedaré mirando la puerta hasta\nque llegues,{{delay8}} así que no te vayas a\ntardar muchísimo, ¿eh?\n{{anim id=\"EmotEnd\" target=\"actor\" targetSpec=\"\"}}¡Qué emoción, {{string value=\"6\"}}!"
  },
  {
    "label": "207",
    "attribute": "0x0000000000000000",
    "text": "{{anim id=\"Eh\" target=\"actor\" targetSpec=\"\"}}Es la primera vez que te invito a mi\ncasa, {{string value=\"NickName\"}}{{string value=\"...\"}} {{anim id=\"Nodding\" target=\"actor\" targetSpec=\"\"}}¡Estoy seguro de que la pasaremos genial!"
  },
  {
    "label": "208",
    "attribute": "0x0000000000000000",
    "text": "{{anim id=\"Thinking\" target=\"actor\" targetSpec=\"\"}}Ahora que lo pienso{{string value=\"...\"}} No te había\ninvitado a mi casa, ¿verdad?{{delay20}} {{anim id=\"Grin\" target=\"actor\" targetSpec=\"\"}}¡Ya me\ndirás qué te parece!"
  },
  {
    "label": "301",
    "attribute": "0x0000000000000000",
    "text": "{{anim id=\"FaintSmile\" target=\"actor\" targetSpec=\"\"}}Que no se te olvide que tienes\nque visitarme mañana{{string value=\"...\"}}\n{{anim id=\"Smiling\" target=\"actor\" targetSpec=\"\"}}¡Te estaré esperando, {{string value=\"6\"}}!"
  },
  {
    "label": "302",
    "attribute": "0x0000000000000000",
    "text": "{{anim id=\"HappyDance\" target=\"actor\" targetSpec=\"\"}}¡Ven mañana cuando quieras,{{delay8}}\nque te estaré esperando,\n{{string value=\"6\"}}!"
  },
  {
    "label": "303",
    "attribute": "0x0000000000000000",
    "text": "{{anim id=\"Explain\" target=\"actor\" targetSpec=\"\"}}Estoy muy emocionado de que\nirás mañana a visitarme{{string value=\"...\"}}\n{{anim id=\"FaintSmile\" target=\"actor\" targetSpec=\"\"}}¡Espero que tú igual, {{string value=\"6\"}}!"
  },
  {
    "label": "401",
    "attribute": "0x0000020000000000",
    "text": "{{anim id=\"Nodding\" target=\"actor\" targetSpec=\"\"}}El otro día vi en la tele que hacer\nfiestas en casa está de moda{{string value=\"...\"}}{{pageBreak}}{{anim id=\"AbsentMindedness\" target=\"actor\" targetSpec=\"\"}}Invitas a tus amigos,{{delay8}} hay papitas,{{delay8}}\nte diviertes un rato,{{delay8}} te comes las\npapitas{{string value=\"...\"}}{{delay20}} {{anim id=\"Love\" target=\"actor\" targetSpec=\"\"}}¡Es genial!\n{{anim id=\"Hesitate\" target=\"actor\" targetSpec=\"\"}}Oye, {{string value=\"NickName\"}}{{string value=\"...\"}} ¿no te gustaría ir de visita a mi casa?{{delay20}} {{anim id=\"Pardon\" target=\"actor\" targetSpec=\"\"}}Estás libre, ¿verdad?"
  },
  {
    "label": "401_a",
    "attribute": "0x0000000000000000",
    "text": "¡Claro que sí!"
  },
  {
    "label": "401_b",
    "attribute": "0x0000000000000000",
    "text": "En otra ocasión..."
  },
  {
    "label": "402",
    "attribute": "0x0000020000000000",
    "text": "Ah, {{string value=\"NickName\"}}{{string value=\"...\"}} {{anim id=\"Explain\" target=\"actor\" targetSpec=\"\"}}Estaba pensando en mi casita{{string value=\"...\"}} {{anim id=\"Nodding\" target=\"actor\" targetSpec=\"\"}}Es que a veces me gusta pensar en ella.{{pageBreak}}{{anim id=\"Thinking\" target=\"actor\" targetSpec=\"\"}}Para mí es el lugar perfecto, pero\nno sé qué pensaría otra gente si la\nviera{{string value=\"...\"}}\n{{anim id=\"IdeaBulb\" target=\"actor\" targetSpec=\"\"}}¿Te gustaría ir a echarle un ojito\ny darme tu opinión?"
  },
  {
    "label": "402_a",
    "attribute": "0x0000000000000000",
    "text": "¡Sí!"
  },
  {
    "label": "402_b",
    "attribute": "0x0000000000000000",
    "text": "Ahora no puedo"
  },
  {
    "label": "403",
    "attribute": "0x0000000000000000",
    "text": "{{anim id=\"Worried\" target=\"actor\" targetSpec=\"\"}}Bueno, ya ni modo{{string value=\"...\"}}{{delay8}}\n{{anim id=\"Greeting\" target=\"actor\" targetSpec=\"\"}}¡Quizá en otra ocasión!"
  },
  {
    "label": "404",
    "attribute": "0x0000000000000000",
    "text": "{{anim id=\"Worried\" target=\"actor\" targetSpec=\"\"}}Uyyy{{string value=\"...\"}}\n{{anim id=\"EmotEnd\" target=\"actor\" targetSpec=\"\"}}Bueno, lo entiendo.{{delay20}}\n{{anim id=\"FaintSmile\" target=\"actor\" targetSpec=\"\"}}Otro día será."
  }
]