﻿[
  {
    "label": "001",
    "attribute": "0x0000000000000000",
    "text": "{{anim id=\"Restless\" target=\"actor\" targetSpec=\"\"}}{{ruby charSpan=\"2\" value=\"きょう\"}}今日は　{{delay8}}お{{ruby charSpan=\"1\" value=\"うち\"}}家に{{ruby charSpan=\"1\" value=\"き\"}}来てくださったのに{{delay20}}\n{{ruby charSpan=\"2\" value=\"ぐあい\"}}具合が{{ruby charSpan=\"1\" value=\"わる\"}}悪くて　{{delay8}}すみませんでした{{pageBreak}}{{anim id=\"EmotEnd\" target=\"actor\" targetSpec=\"\"}}{{selection value=\"SelectedName\"}}{{string value=\"13\"}}が{{delay20}}\n{{color id=\"1\"}}おくすり{{color id=\"65535\"}}を　くださったので{{delay20}}\nなんとか{{ruby charSpan=\"1\" value=\"なお\"}}治りました、{{string value=\"6\"}}"
  },
  {
    "label": "002",
    "attribute": "0x0000000000000000",
    "text": "{{anim id=\"FaintSmile\" target=\"actor\" targetSpec=\"\"}}{{ruby charSpan=\"2\" value=\"きょう\"}}今日は　{{delay8}}お{{ruby charSpan=\"2\" value=\"みま\"}}見舞いに{{ruby charSpan=\"1\" value=\"き\"}}来てくださって{{delay20}}\nありがとうございました{{pageBreak}}{{anim id=\"Explain\" target=\"actor\" targetSpec=\"\"}}{{selection value=\"SelectedName\"}}{{string value=\"13\"}}から{{delay8}}\nいただいた　{{color id=\"1\"}}おくすり{{color id=\"65535\"}}を{{ruby charSpan=\"1\" value=\"の\"}}飲んだので{{delay20}}\nなんとか{{ruby charSpan=\"1\" value=\"よ\"}}良くなりましたよ、{{string value=\"6\"}}"
  },
  {
    "label": "003",
    "attribute": "0x0000000000000000",
    "text": "{{anim id=\"Restless\" target=\"actor\" targetSpec=\"\"}}この{{ruby charSpan=\"1\" value=\"まえ\"}}前は　{{delay8}}お{{ruby charSpan=\"1\" value=\"うち\"}}家に{{ruby charSpan=\"1\" value=\"き\"}}来てくださったのに{{delay20}}\n{{ruby charSpan=\"2\" value=\"ぐあい\"}}具合が{{ruby charSpan=\"1\" value=\"わる\"}}悪くて　{{delay8}}すみませんでした{{pageBreak}}{{anim id=\"Explain\" target=\"actor\" targetSpec=\"\"}}あの{{ruby charSpan=\"1\" value=\"とき\"}}時　{{delay20}}{{selection value=\"SelectedName\"}}{{string value=\"13\"}}が{{delay20}}\n{{color id=\"1\"}}おくすり{{color id=\"65535\"}}を　くださったので{{delay20}}\nなんとか{{ruby charSpan=\"1\" value=\"なお\"}}治りました、{{string value=\"6\"}}"
  },
  {
    "label": "004",
    "attribute": "0x0000000000000000",
    "text": "{{anim id=\"FaintSmile\" target=\"actor\" targetSpec=\"\"}}この{{ruby charSpan=\"1\" value=\"まえ\"}}前は　お{{ruby charSpan=\"2\" value=\"みま\"}}見舞いに{{ruby charSpan=\"1\" value=\"き\"}}来てくださって{{delay20}}\nありがとうございました{{pageBreak}}{{anim id=\"Explain\" target=\"actor\" targetSpec=\"\"}}{{selection value=\"SelectedName\"}}{{string value=\"13\"}}から{{delay20}}\nいただいた　{{color id=\"1\"}}おくすり{{color id=\"65535\"}}を{{ruby charSpan=\"1\" value=\"の\"}}飲んだので{{delay20}}\nすっかり{{ruby charSpan=\"1\" value=\"よ\"}}良くなりましたよ、{{string value=\"6\"}}"
  },
  {
    "label": "005",
    "attribute": "0x0000000000000000",
    "text": "{{anim id=\"Sighing\" target=\"actor\" targetSpec=\"\"}}{{ruby charSpan=\"1\" value=\"じつ\"}}実は　{{delay8}}{{ruby charSpan=\"2\" value=\"きょう\"}}今日、{{delay20}}\nカゼをひいてしまって　{{delay8}}{{ruby charSpan=\"2\" value=\"たいへん\"}}大変だったんですよ{{pageBreak}}{{anim id=\"EmotEnd\" target=\"actor\" targetSpec=\"\"}}でも　{{delay8}}{{selection value=\"SelectedName\"}}{{string value=\"13\"}}が{{delay20}}\n{{color id=\"1\"}}おくすり{{color id=\"65535\"}}を　くださったので{{delay20}}\nなんとか{{ruby charSpan=\"1\" value=\"なお\"}}治りました、{{string value=\"6\"}}"
  },
  {
    "label": "006",
    "attribute": "0x0000000000000000",
    "text": "{{anim id=\"ShyBoy\" target=\"actor\" targetSpec=\"\"}}ほんとは　{{ruby charSpan=\"2\" value=\"きょう\"}}今日、{{delay20}}\nカゼをひいてしまって　{{delay8}}{{ruby charSpan=\"2\" value=\"たいへん\"}}大変だったんです{{pageBreak}}{{anim id=\"FaintSmile\" target=\"actor\" targetSpec=\"\"}}でも　{{delay8}}{{selection value=\"SelectedName\"}}{{string value=\"13\"}}から{{delay20}}\nいただいた　{{color id=\"1\"}}おくすり{{color id=\"65535\"}}を{{ruby charSpan=\"1\" value=\"の\"}}飲んだので{{delay20}}\nもう{{ruby charSpan=\"3\" value=\"だいじょうぶ\"}}大丈夫なんですよ、{{string value=\"6\"}}"
  },
  {
    "label": "007",
    "attribute": "0x0000000000000000",
    "text": "{{anim id=\"ShyBoy\" target=\"actor\" targetSpec=\"\"}}{{ruby charSpan=\"1\" value=\"じつ\"}}実は　{{delay8}}この{{ruby charSpan=\"1\" value=\"あいだ\"}}間{{delay20}}　カゼをひいてしまって　{{delay8}}\n{{ruby charSpan=\"2\" value=\"たいへん\"}}大変だったんですよ{{pageBreak}}{{anim id=\"FaintSmile\" target=\"actor\" targetSpec=\"\"}}でも　{{delay8}}{{selection value=\"SelectedName\"}}{{string value=\"13\"}}が{{delay20}}\n{{color id=\"1\"}}おくすり{{color id=\"65535\"}}を　くださったので{{delay20}}\n{{ruby charSpan=\"1\" value=\"いま\"}}今は　{{delay8}}すっかり{{ruby charSpan=\"1\" value=\"よ\"}}良くなりました、{{string value=\"6\"}}"
  },
  {
    "label": "008",
    "attribute": "0x0000000000000000",
    "text": "{{anim id=\"Sighing\" target=\"actor\" targetSpec=\"\"}}{{ruby charSpan=\"1\" value=\"じつ\"}}実は　{{delay8}}この{{ruby charSpan=\"1\" value=\"あいだ\"}}間{{delay20}}\nカゼをひいてしまったんですよ{{pageBreak}}{{anim id=\"FaintSmile\" target=\"actor\" targetSpec=\"\"}}でも　{{delay8}}{{selection value=\"SelectedName\"}}{{string value=\"13\"}}から{{delay20}}\nいただいた　{{color id=\"1\"}}おくすり{{color id=\"65535\"}}を{{ruby charSpan=\"1\" value=\"の\"}}飲んだので{{delay20}}\n{{ruby charSpan=\"1\" value=\"いま\"}}今はもう　{{delay8}}{{ruby charSpan=\"2\" value=\"げんき\"}}元気ですよ、{{string value=\"6\"}}"
  },
  {
    "label": "101",
    "attribute": "0x0000000000000000",
    "text": "さきほどは、{{delay8}}{{color id=\"1\"}}おくすり{{color id=\"65535\"}}{{delay20}}\nありがとうございました！{{pageBreak}}{{anim id=\"Smiling\" target=\"actor\" targetSpec=\"\"}}{{string value=\"4\"}}の　おかげで{{delay20}}\nだんだん　{{ruby charSpan=\"1\" value=\"なお\"}}治ってきたみたいです、{{string value=\"6\"}}"
  },
  {
    "label": "102",
    "attribute": "0x0000000000000000",
    "text": "{{color id=\"1\"}}おくすり{{color id=\"65535\"}}の　おかげで{{delay20}}　{{ruby charSpan=\"1\" value=\"よ\"}}良くなってきました！{{i10_4}}\n{{anim id=\"HappyDance\" target=\"actor\" targetSpec=\"\"}}これで　{{delay8}}{{ruby charSpan=\"2\" value=\"ふだん\"}}普段どおりの　わたしに{{delay20}}\n{{ruby charSpan=\"1\" value=\"もど\"}}戻れそうです、{{string value=\"6\"}}"
  },
  {
    "label": "103",
    "attribute": "0x0000000000000000",
    "text": "{{anim id=\"Smiling\" target=\"actor\" targetSpec=\"\"}}{{string value=\"4\"}}から{{delay8}}\nいただいた　{{color id=\"1\"}}おくすり{{color id=\"65535\"}}、{{delay20}}すごい{{ruby charSpan=\"1\" value=\"き\"}}効き{{ruby charSpan=\"1\" value=\"め\"}}目ですね！{{pageBreak}}{{anim id=\"EmotEnd\" target=\"actor\" targetSpec=\"\"}}これだったら　わたし、{{delay20}}{{anim id=\"Laughing\" target=\"actor\" targetSpec=\"\"}}カゼをひく{{ruby charSpan=\"1\" value=\"まえ\"}}前よりも{{delay20}}\n{{ruby charSpan=\"2\" value=\"げんき\"}}元気になっちゃうかも　しれません、{{string value=\"6\"}}"
  }
]