﻿[
  {
    "label": "000",
    "attribute": "0x00000000",
    "text": "{{anim id=\"Eh\" target=\"actor\" targetSpec=\"\"}}Oh, {{delay20}}ähm,{{delay20}} hallo. {{delay frames=\"40\"}}Bist du etwa extra\nwegen des {{color id=\"1\"}}Insektikus-Turniers{{color id=\"65535\"}}\ngekommen?{{delay20}} {{anim id=\"Hello\" target=\"actor\" targetSpec=\"\"}}Ich bin {{color id=\"3\"}}Carlson{{color id=\"65535\"}}.\n{{anim id=\"Explain\" target=\"actor\" targetSpec=\"\"}}Als{{string value=\"...\"}}{{delay20}} oberster Käferfreund leite ich\ndas Event.{{delay20}}{{anim id=\"SmugFace\" target=\"actor\" targetSpec=\"\"}} Mancher nennt mich gar\nden Krabbeltier-Künstler schlechthin!\n{{anim id=\"Negative\" target=\"actor\" targetSpec=\"\"}}Normalerweise meide ich solchen\nRummel, {{delay8}}aber{{string value=\"...\"}}{{delay frames=\"40\"}}{{anim id=\"AbsentMindedness\" target=\"actor\" targetSpec=\"\"}} für meine Krabbel-\nfreunde ist mir keine Mühe zu groß!\n{{anim id=\"Blushing\" target=\"actor\" targetSpec=\"\"}}Genug von mir.{{delay frames=\"40\"}}{{anim id=\"Nodding\" target=\"actor\" targetSpec=\"\"}} Das {{color id=\"1\"}}Insektikus-\nTurnier{{color id=\"65535\"}} beginnt um Punkt {{color id=\"1\"}}{{number value=\"Hour\" index=\"0\"}}:00 Uhr{{color id=\"65535\"}}.{{delay20}}{{anim id=\"Greeting\" target=\"actor\" targetSpec=\"\"}}\nVergiss deinen Kescher nicht!"
  },
  {
    "label": "001",
    "attribute": "0x00000000",
    "text": "{{anim id=\"Nodding\" target=\"actor\" targetSpec=\"\"}}{{number value=\"28\"}} ist ein guter Monat für\nInsekten!{{delay20}} {{anim id=\"Frantic\" target=\"actor\" targetSpec=\"\"}}Ich bin schon gespannt,{{delay8}}\nwelche sich heute die Ehre geben!\n{{anim id=\"Explain\" target=\"actor\" targetSpec=\"\"}}Das {{color id=\"1\"}}Insektikus-Turnier{{color id=\"65535\"}} beginnt\nübrigens um {{color id=\"1\"}}{{number value=\"Hour\" index=\"0\"}}:00 Uhr{{color id=\"65535\"}}.{{delay20}} {{anim id=\"Serious\" target=\"actor\" targetSpec=\"\"}}Welch\nerhabene Stund'!"
  },
  {
    "label": "002",
    "attribute": "0x00000000",
    "text": "{{anim id=\"Love\" target=\"actor\" targetSpec=\"\"}}Gibt es im Animalesischen ein\nschöneres Wort als „{{color id=\"1\"}}Insektikus-\nTurnier{{color id=\"65535\"}}“?"
  },
  {
    "label": "003",
    "attribute": "0x00000000",
    "text": "{{anim id=\"Nodding\" target=\"actor\" targetSpec=\"\"}}Das {{color id=\"1\"}}Insektikus-Turnier {{color id=\"65535\"}}geht\num {{color id=\"1\"}}{{number value=\"Hour\" index=\"0\"}}:00 Uhr{{color id=\"65535\"}} los.{{pageBreak}}{{anim id=\"Serious\" target=\"actor\" targetSpec=\"\"}}Du hast einen Kescher zur Hand?\n{{delay20}}Den brauchst du, {{delay8}}wenn du am Turnier\nteilnehmen möchtest.\n{{anim id=\"Thinking\" target=\"actor\" targetSpec=\"\"}}Ein Zweit-Kescher für den Fall der\nFälle wäre übrigens auch gar keine\nso schlechte Idee."
  },
  {
    "label": "004",
    "attribute": "0x02000000",
    "text": "{{anim id=\"Eh\" target=\"actor\" targetSpec=\"\"}}Oh!{{delay20}} Ich hatte gehofft, {{delay8}}dass du bei\nmir vorbeischauen würdest.{{pageBreak}}{{anim id=\"Silent\" target=\"actor\" targetSpec=\"\"}}Du hast noch uneingelöste Punkte\nvom letzten {{color id=\"1\"}}Insektikus-Turnier{{color id=\"65535\"}} übrig.{{delay20}}\n{{anim id=\"EmotEnd\" target=\"actor\" targetSpec=\"\"}}{{color id=\"1\"}}{{number value=\"HHAPoints\" index=\"1\"}}{{color id=\"65535\"}}, {{delay8}}um genau zu sein.\n{{anim id=\"QuestionMark\" target=\"actor\" targetSpec=\"\"}}Möchtest du davon {{color id=\"1\"}}{{number value=\"1\" index=\"0\"}} Punkte {{color id=\"65535\"}}für\nein Relikt einlösen?"
  },
  {
    "label": "004_a",
    "attribute": "0x00000000",
    "text": "Ja, Punkte einlösen!"
  },
  {
    "label": "004_b",
    "attribute": "0x00000000",
    "text": "{{anim id=\"Negative\" target=\"actor\" targetSpec=\"\"}}Danke, jetzt nicht."
  },
  {
    "label": "005",
    "attribute": "0x02000000",
    "text": "{{anim id=\"Eh\" target=\"actor\" targetSpec=\"\"}}Oh!{{delay20}} Ich hatte gehofft, {{delay8}}dass du bei\nmir vorbeischauen würdest.{{pageBreak}}{{anim id=\"Silent\" target=\"actor\" targetSpec=\"\"}}Du hast noch uneingelöste Punkte\nvom letzten {{color id=\"1\"}}Insektikus-Turnier{{color id=\"65535\"}} übrig.{{delay20}}\n{{anim id=\"EmotEnd\" target=\"actor\" targetSpec=\"\"}}{{color id=\"1\"}}{{number value=\"HHAPoints\" index=\"1\"}}{{color id=\"65535\"}}, {{delay8}}um genau zu sein.\n{{anim id=\"QuestionMark\" target=\"actor\" targetSpec=\"\"}}Möchtest du sie gegen ein\nRelikt eintauschen?"
  },
  {
    "label": "005_a",
    "attribute": "0x00000000",
    "text": "Ja, Punkte einlösen!"
  },
  {
    "label": "005_b",
    "attribute": "0x00000000",
    "text": "{{anim id=\"Negative\" target=\"actor\" targetSpec=\"\"}}Danke, jetzt nicht."
  },
  {
    "label": "006",
    "attribute": "0x02000000",
    "text": "{{anim id=\"Eh\" target=\"actor\" targetSpec=\"\"}}Oh!{{delay20}} Hm?{{delay20}} {{anim id=\"Silent\" target=\"actor\" targetSpec=\"\"}}Wie kann ich helfen?"
  },
  {
    "label": "006_a",
    "attribute": "0x00000000",
    "text": "Punkte einlösen!"
  },
  {
    "label": "006_b",
    "attribute": "0x00000000",
    "text": "{{anim id=\"Negative\" target=\"actor\" targetSpec=\"\"}}Nichts, nichts..."
  },
  {
    "label": "010",
    "attribute": "0x00000000",
    "text": "{{anim id=\"TakenAback\" target=\"actor\" targetSpec=\"\"}}Sekunde.{{delay20}} In deiner Tasche ist ja\ngar kein Platz mehr für ein Relikt!{{pageBreak}}{{anim id=\"Serious\" target=\"actor\" targetSpec=\"\"}}Komm zurück, {{delay8}}wenn du geistig,{{delay8}}\nkörperlich und taschig darauf\nvorbereitet bist!"
  },
  {
    "label": "011",
    "attribute": "0x00000000",
    "text": "{{anim id=\"FaintSmile\" target=\"actor\" targetSpec=\"\"}}Wunderbar!{{delay frames=\"40\"}} {{anim id=\"Nodding\" target=\"actor\" targetSpec=\"\"}}Du möchtest {{color id=\"1\"}}{{number value=\"1\" index=\"0\"}} Punkte\n{{color id=\"65535\"}}für ein Relikt ausgeben.{{delay20}} {{anim id=\"EmotEnd\" target=\"actor\" targetSpec=\"\"}}Lass mich\nnur schnell im Reliquiar stöbern{{string value=\"...\"}}"
  },
  {
    "label": "012",
    "attribute": "0x00000000",
    "text": "{{anim id=\"Pardon\" target=\"actor\" targetSpec=\"\"}}{{size value=\"150\"}}TA-{{delay8}}DAAA!{{delay20}}{{size value=\"100\"}}\n{{capitalizeNextLetter}}{{wordArticle}}{{fun_0004007D arg=\"0x0000\"}}!{{delay20}}\nIst {{gender8 m=\"er\" f=\"sie\" n=\"es\"}} nicht atemberaubend?"
  },
  {
    "label": "013",
    "attribute": "0x00000000",
    "text": "{{anim id=\"SmugFace\" target=\"actor\" targetSpec=\"\"}}Ich habe alle Ecken der Welt durch-\nforstet, {{delay8}}um die fühlerige Erhabenheit\nder Insekten richtig zu würdigen.\n{{anim id=\"Silent\" target=\"actor\" targetSpec=\"\"}}Ich hoffe, du wirst dieses prächtige\nRelikt ebenso erbaulich finden wie ich.{{pageBreak}}{{anim id=\"EmotEnd\" target=\"actor\" targetSpec=\"\"}}Um {{color id=\"1\"}}{{number value=\"Hour\" index=\"0\"}}:00 Uhr {{color id=\"65535\"}}beginnt übrigens das\n{{color id=\"1\"}}Insektikus-Turnier{{color id=\"65535\"}}.{{delay20}} {{anim id=\"Nodding\" target=\"actor\" targetSpec=\"\"}}Nutze die Chance,{{delay8}}\num noch mehr Punkte zu sammeln!"
  },
  {
    "label": "014",
    "attribute": "0x00000000",
    "text": "{{anim id=\"SmugFace\" target=\"actor\" targetSpec=\"\"}}Meine glorreiche Reise ans Ende der\nWelt, {{delay8}}um dieses Relikt zu finden,{{delay8}}\nsollte in die Annalen eingehen.\n{{anim id=\"Silent\" target=\"actor\" targetSpec=\"\"}}Ich hoffe,{{delay8}} es gefällt!{{delay frames=\"40\"}}{{anim id=\"EmotEnd\" target=\"actor\" targetSpec=\"\"}} Das {{color id=\"1\"}}Insektikus-\nTurnier{{color id=\"65535\"}} geht noch bis {{color id=\"1\"}}{{number value=\"Hour\" index=\"1\"}}:00 Uhr{{color id=\"65535\"}}.{{delay20}}{{anim id=\"Nodding\" target=\"actor\" targetSpec=\"\"}}\nZeit, {{delay8}}weitere Punkte zu sammeln!"
  },
  {
    "label": "015",
    "attribute": "0x00000000",
    "text": "{{anim id=\"Hesitate\" target=\"actor\" targetSpec=\"\"}}Monate hab ich mit der Legenden-\nforschung der Insekten verbracht –{{delay20}}\nnur, {{delay8}}um dieses Relikt zu ergattern.\n{{anim id=\"Silent\" target=\"actor\" targetSpec=\"\"}}Benutze es weise.{{delay frames=\"40\"}}\n{{anim id=\"FaintSmile\" target=\"actor\" targetSpec=\"\"}}Oh,{{delay20}} du hast ja noch ausreichend\nPunkte für ein weiteres Relikt{{string value=\"...\"}}\n{{anim id=\"OhGeez\" target=\"actor\" targetSpec=\"\"}}Doch leider keinen Platz in der\nTasche.{{delay20}} {{anim id=\"FaintSmile\" target=\"actor\" targetSpec=\"\"}}Wenn du Abhilfe geschaffen\nhast, {{delay8}}kehre zu mir zurück."
  },
  {
    "label": "016",
    "attribute": "0x02000000",
    "text": "{{anim id=\"Serious\" target=\"actor\" targetSpec=\"\"}}Du hast noch {{color id=\"1\"}}{{number value=\"HHAPoints\" index=\"1\"}} Punkte{{color id=\"65535\"}}\nübrig.{{delay20}}{{anim id=\"QuestionMark\" target=\"actor\" targetSpec=\"\"}} Möchtest du die nicht\neventuell in Relikte investieren?"
  },
  {
    "label": "016_a",
    "attribute": "0x00000000",
    "text": "Ein Relikt, bitte!"
  },
  {
    "label": "016_b",
    "attribute": "0x00000000",
    "text": "{{anim id=\"Negative\" target=\"actor\" targetSpec=\"\"}}Danke, jetzt nicht..."
  },
  {
    "label": "017",
    "attribute": "0x00000000",
    "text": "{{anim id=\"Eh\" target=\"actor\" targetSpec=\"\"}}Oh,{{delay8}} na gut{{string value=\"...\"}}{{delay40}} {{anim id=\"EmotEnd\" target=\"actor\" targetSpec=\"\"}}Du kannst deine Punkte\njederzeit bei mir einlösen, {{delay8}}{{anim id=\"Nodding\" target=\"actor\" targetSpec=\"\"}}solltest du\ndeine Meinung ändern."
  },
  {
    "label": "018",
    "attribute": "0x00000000",
    "text": "{{anim id=\"Eh\" target=\"actor\" targetSpec=\"\"}}Oh,{{delay8}} ähm,{{delay8}} in Ordnung{{string value=\"...\"}}{{delay20}} {{anim id=\"Nodding\" target=\"actor\" targetSpec=\"\"}}Ich bin\njedenfalls noch bis {{color id=\"1\"}}{{number value=\"Hour\" index=\"2\"}}:00 Uhr {{color id=\"65535\"}}hier,{{delay8}}\nfalls du deine Meinung änderst."
  },
  {
    "label": "020",
    "attribute": "0x00000000",
    "text": "{{anim id=\"Cheering\" target=\"actor\" targetSpec=\"\"}}Der {{number value=\"28\"}} ist da,{{delay8}} und es ist Zeit\nfür ein {{color id=\"1\"}}Insektikus-Turnier{{color id=\"65535\"}}! {{delay20}}{{anim id=\"Smiling\" target=\"actor\" targetSpec=\"\"}}Freust du\ndich schon? {{delay20}}Natürlich tust du das!\n{{anim id=\"QuestionMark\" target=\"actor\" targetSpec=\"\"}}Wer kann dieser elektrisierenden \nAnspannung schon entgehen?{{pageBreak}}{{anim id=\"Serious\" target=\"actor\" targetSpec=\"\"}}Heute verschwimmen die Grenzen\nzwischen unserer Welt und dem\nReich der Insekten!"
  },
  {
    "label": "021",
    "attribute": "0x00000000",
    "text": "{{anim id=\"Greeting\" target=\"actor\" targetSpec=\"\"}}Die Regeln des Turniers sind simpel.\n{{delay20}}{{anim id=\"Explain\" target=\"actor\" targetSpec=\"\"}}Versuche,{{delay8}} in jeder Runde so viele\nInsekten wie möglich zu fangen.\nEine Runde dauert{{color id=\"1\"}} {{number value=\"0\" index=\"14\"}} Minuten{{color id=\"65535\"}}.{{delay20}}\n{{anim id=\"Nodding\" target=\"actor\" targetSpec=\"\"}}Abhängig von deinem Ergebnis\nerhältst du von mir Punkte.\n{{anim id=\"Grin\" target=\"actor\" targetSpec=\"\"}}Diese kannst du bei mir dann gegen\nsakrale Insekten-Relikte eintauschen.{{pageBreak}}{{anim id=\"Pardon\" target=\"actor\" targetSpec=\"\"}}Während des Turniers landen alle\nExemplare, {{delay8}}die du fängst,{{delay8}} wie durch\nZauberhand im {{color id=\"1\"}}Insektenkäfig{{color id=\"65535\"}}.\n{{anim id=\"FaintSmile\" target=\"actor\" targetSpec=\"\"}}Direkt hier im Pavillon.{{delay frames=\"40\"}} {{anim id=\"Silent\" target=\"actor\" targetSpec=\"\"}}Die einzige\nTeilnahmevoraussetzung also: {{delay20}}ein\nKescher. {{delay20}}{{anim id=\"Negative\" target=\"actor\" targetSpec=\"\"}}Kein Taschenplatz nötig!"
  },
  {
    "label": "022",
    "attribute": "0x00000000",
    "text": "{{anim id=\"Greeting\" target=\"actor\" targetSpec=\"\"}}Die Regeln des Turniers sind simpel.\n{{delay20}}{{anim id=\"Explain\" target=\"actor\" targetSpec=\"\"}}Versuche,{{delay8}} in jeder Runde so viele\nInsekten wie möglich zu fangen.\nEine Runde dauert{{color id=\"1\"}} {{number value=\"0\" index=\"14\"}} Minuten{{color id=\"65535\"}}.{{delay20}}\n{{anim id=\"Nodding\" target=\"actor\" targetSpec=\"\"}}Abhängig von deinem Ergebnis\nerhältst du von mir Punkte.\n{{anim id=\"EmotEnd\" target=\"actor\" targetSpec=\"\"}}Je nachdem,{{delay8}} wie dein Team\nabschneidet, {{delay8}}{{anim id=\"BigSmile\" target=\"actor\" targetSpec=\"\"}}kannst du darüber\nhinaus Bonuspunkte einheimsen.\n{{anim id=\"Nodding\" target=\"actor\" targetSpec=\"\"}}Diese kannst du bei mir dann gegen\nsakrale Insekten-Relikte eintauschen.{{pageBreak}}{{anim id=\"Eh\" target=\"actor\" targetSpec=\"\"}}Während des Turniers landen alle\nExemplare, {{delay8}}die du fängst,{{delay8}}{{anim id=\"Nodding\" target=\"actor\" targetSpec=\"\"}} wie durch\nZauberhand im {{color id=\"1\"}}Insektenkäfig{{color id=\"65535\"}}.\n{{anim id=\"FaintSmile\" target=\"actor\" targetSpec=\"\"}}Direkt hier im Pavillon.{{delay frames=\"40\"}} {{anim id=\"Silent\" target=\"actor\" targetSpec=\"\"}}Die einzige\nTeilnahmevoraussetzung also: {{delay20}}ein\nKescher. {{delay20}}{{anim id=\"Negative\" target=\"actor\" targetSpec=\"\"}}Kein Taschenplatz nötig!"
  },
  {
    "label": "023",
    "attribute": "0x06000000",
    "text": "{{anim id=\"Serious\" target=\"actor\" targetSpec=\"\"}}Gut. {{delay20}}Bist du bereit,{{delay8}} dich der\nHerausforderung des {{color id=\"1\"}}Insektikus-\nTurniers{{color id=\"65535\"}} zu stellen?\n{{anim id=\"FaintSmile\" target=\"actor\" targetSpec=\"\"}}Die Erstteilnahme ist\nganz und gar kostenlos!"
  },
  {
    "label": "023_a",
    "attribute": "0x00000000",
    "text": "Ich will teilnehmen!"
  },
  {
    "label": "023_b",
    "attribute": "0x00000000",
    "text": "Wie sind die Regeln?"
  },
  {
    "label": "023_c",
    "attribute": "0x00000000",
    "text": "Punkte einlösen!"
  },
  {
    "label": "023_d",
    "attribute": "0x00000000",
    "text": "{{anim id=\"Negative\" target=\"actor\" targetSpec=\"\"}}Momentan nicht..."
  },
  {
    "label": "024",
    "attribute": "0x00000000",
    "text": "{{string value=\"...\"}}{{delay40}}{{anim id=\"Sighing\" target=\"actor\" targetSpec=\"\"}}Oh.{{delay20}} In Ordnung.{{pageBreak}}{{anim id=\"Nodding\" target=\"actor\" targetSpec=\"\"}}Ich bin jedenfalls bis {{color id=\"1\"}}{{number value=\"Hour\" index=\"1\"}}:00 Uhr{{color id=\"65535\"}} hier.{{delay40}}\nNur für den Fall,{{delay8}} dass du deine\nMeinung ändern solltest{{string value=\"...\"}}"
  },
  {
    "label": "025",
    "attribute": "0x00000000",
    "text": "{{anim id=\"Eh\" target=\"actor\" targetSpec=\"\"}}Bislang hast du{{string value=\"...\"}}\n{{color id=\"1\"}}{{delay20}}{{anim id=\"EmotEnd\" target=\"actor\" targetSpec=\"\"}}{{number value=\"HHAPoints\" index=\"1\"}} {{i50_8 x=\"0\" y=\"1\" a=\"Punkte\" b=\"Punkt\" c=\"Punkte\"}} {{color id=\"65535\"}}gesammelt."
  },
  {
    "label": "025_01",
    "attribute": "0x00000000",
    "text": "{{anim id=\"Explain\" target=\"actor\" targetSpec=\"\"}}Ab {{color id=\"1\"}}{{number value=\"1\" index=\"0\"}} Punkten{{color id=\"65535\"}} {{delay8}}kannst du insekto-\ntastische Relikte von mir erhalten.{{delay20}}\nViel Glück!"
  },
  {
    "label": "026",
    "attribute": "0x06000000",
    "text": "{{anim id=\"Serious\" target=\"actor\" targetSpec=\"\"}}Ähm,{{delay20}} hallo.{{delay frames=\"40\"}}{{anim id=\"QuestionMark\" target=\"actor\" targetSpec=\"\"}} Möchtest du am\n{{color id=\"1\"}}Insektikus-Turnier{{color id=\"65535\"}} teilnehmen?{{delay frames=\"40\"}}{{anim id=\"Greeting\" target=\"actor\" targetSpec=\"\"}}\nDie erste Teilnahme ist umsonst!"
  },
  {
    "label": "026_a",
    "attribute": "0x00000000",
    "text": "Ich will teilnehmen!"
  },
  {
    "label": "026_b",
    "attribute": "0x00000000",
    "text": "Wie sind die Regeln?"
  },
  {
    "label": "026_c",
    "attribute": "0x00000000",
    "text": "Punkte einlösen!"
  },
  {
    "label": "026_d",
    "attribute": "0x00000000",
    "text": "{{anim id=\"Negative\" target=\"actor\" targetSpec=\"\"}}Momentan nicht..."
  },
  {
    "label": "027",
    "attribute": "0x00000000",
    "text": "{{anim id=\"Nodding\" target=\"actor\" targetSpec=\"\"}}Die Regeln des{{color id=\"1\"}} Insektikus-Turniers{{color id=\"65535\"}}\nerkläre ich so oft wie nötig – {{delay20}}{{anim id=\"Eh\" target=\"actor\" targetSpec=\"\"}}vor\nallem für meine werten Käferfreunde!\n{{anim id=\"Explain\" target=\"actor\" targetSpec=\"\"}}Regel Nummer 1:{{delay20}}\nFange innerhalb von {{color id=\"1\"}}{{number value=\"0\" index=\"14\"}} Minuten\n{{color id=\"65535\"}}so viele Insekten wie möglich!{{pageBreak}}{{anim id=\"FaintSmile\" target=\"actor\" targetSpec=\"\"}}Regel Nummer 2:\n{{delay20}}Je mehr Krabbeltiere du fängst,{{delay8}}\numso mehr Punkte erhältst du!\n{{anim id=\"EmotEnd\" target=\"actor\" targetSpec=\"\"}}Regel Nummer 3: {{delay20}}{{anim id=\"Pardon\" target=\"actor\" targetSpec=\"\"}}Punkte können\ngegen Insekten-Relikte von un-\nschätzbarem Wert eingelöst werden.\n{{anim id=\"AbsentMindedness\" target=\"actor\" targetSpec=\"\"}}Und ganz nebenbei nimmst du an\neiner sinnstiftenden Erfahrung teil."
  },
  {
    "label": "028",
    "attribute": "0x00000000",
    "text": "{{anim id=\"IdeaBulb\" target=\"actor\" targetSpec=\"\"}}Alles, {{delay8}}was dir in den Kescher geht,{{delay8}}\nwird durch den Weltäther zum {{color id=\"1\"}}Insek-\ntenkäfig{{color id=\"65535\"}} hier im Pavillon teleportiert.\n{{anim id=\"Silent\" target=\"actor\" targetSpec=\"\"}}Du benötigst also nur einen Kescher.{{delay20}}{{anim id=\"Negative\" target=\"actor\" targetSpec=\"\"}}\nEine leere Tasche ist nicht nötig.{{pageBreak}}{{anim id=\"BigSmile\" target=\"actor\" targetSpec=\"\"}}Schließlich heißen wir alle\nAbenteurer zum Turnier willkommen,{{delay8}}{{anim id=\"Greeting\" target=\"actor\" targetSpec=\"\"}}\nauch diejenigen mit voller Tasche!"
  },
  {
    "label": "029",
    "attribute": "0x02000000",
    "text": "Möchtest du{{string value=\"...\"}}{{delay frames=\"40\"}}{{anim id=\"QuestionMark\" target=\"actor\" targetSpec=\"\"}} am {{color id=\"1\"}}Insektikus-\nTurnier{{color id=\"65535\"}} teilnehmen?{{delay40}}{{anim id=\"Nodding\" target=\"actor\" targetSpec=\"\"}} Eine Runde\nkostet {{color id=\"1\"}}{{number value=\"21\" index=\"2\"}}{{color id=\"65535\"}}."
  },
  {
    "label": "029_a",
    "attribute": "0x00000000",
    "text": "Ich will teilnehmen!"
  },
  {
    "label": "029_b",
    "attribute": "0x00000000",
    "text": "{{anim id=\"Negative\" target=\"actor\" targetSpec=\"\"}}Momentan nicht..."
  },
  {
    "label": "030",
    "attribute": "0x02000000",
    "text": "{{anim id=\"QuestionMark\" target=\"actor\" targetSpec=\"\"}}Gut,{{delay20}} möchtest du am {{color id=\"1\"}}Insektikus-\nTurnier{{color id=\"65535\"}} teilnehmen?{{pageBreak}}{{anim id=\"EmotEnd\" target=\"actor\" targetSpec=\"\"}}Die erste Teilnahme heute ist\nkostenfrei,{{delay8}} falls dir das deine\nEntscheidung erleichtern sollte."
  },
  {
    "label": "030_a",
    "attribute": "0x00000000",
    "text": "Ich will teilnehmen!"
  },
  {
    "label": "030_b",
    "attribute": "0x00000000",
    "text": "{{anim id=\"Negative\" target=\"actor\" targetSpec=\"\"}}Momentan nicht..."
  },
  {
    "label": "031",
    "attribute": "0x00000000",
    "text": "{{anim id=\"Cheering\" target=\"actor\" targetSpec=\"\"}}Bis {{color id=\"1\"}}{{number value=\"Hour\" index=\"1\"}}:00 Uhr {{color id=\"65535\"}}hast du die einmalige\nChance, mit der Insektenwelt eins zu\nwerden – im {{color id=\"1\"}}Insektikus-Turnier{{color id=\"65535\"}}!"
  },
  {
    "label": "032",
    "attribute": "0x06000000",
    "text": "{{anim id=\"BigSmile\" target=\"actor\" targetSpec=\"\"}}Klingt das nicht spannend?{{delay20}}{{anim id=\"QuestionMark\" target=\"actor\" targetSpec=\"\"}}\nWillst du an einer Runde teilnehmen?{{pageBreak}}{{anim id=\"Nodding\" target=\"actor\" targetSpec=\"\"}}Ist ein Besucher einer anderen Insel\nzu Gast, {{delay8}}ist die Teilnahme kostenlos!"
  },
  {
    "label": "032_a",
    "attribute": "0x00000000",
    "text": "Ich will teilnehmen!"
  },
  {
    "label": "032_b",
    "attribute": "0x00000000",
    "text": "Wie sind die Regeln?"
  },
  {
    "label": "032_c",
    "attribute": "0x00000000",
    "text": "Punkte einlösen!"
  },
  {
    "label": "032_d",
    "attribute": "0x00000000",
    "text": "{{anim id=\"Negative\" target=\"actor\" targetSpec=\"\"}}Momentan nicht..."
  },
  {
    "label": "033",
    "attribute": "0x02000000",
    "text": "{{anim id=\"QuestionMark\" target=\"actor\" targetSpec=\"\"}}Bereit für das {{color id=\"1\"}}Insektikus-Turnier-\nErlebnis{{color id=\"65535\"}}? {{delay frames=\"40\"}}{{anim id=\"IdeaBulb\" target=\"actor\" targetSpec=\"\"}}Vielleicht findest du ja\ndeinen seelenverwandten Käfer!\n{{anim id=\"Nodding\" target=\"actor\" targetSpec=\"\"}}Oh,{{delay8}} die Runde ist gratis, {{delay8}}falls ein\nBesucher von einer anderen Insel\nunter den Teilnehmern ist!"
  },
  {
    "label": "033_a",
    "attribute": "0x00000000",
    "text": "Ich will teilnehmen!"
  },
  {
    "label": "033_b",
    "attribute": "0x00000000",
    "text": "{{anim id=\"Negative\" target=\"actor\" targetSpec=\"\"}}Momentan nicht..."
  },
  {
    "label": "034",
    "attribute": "0x06000000",
    "text": "{{anim id=\"Eh\" target=\"actor\" targetSpec=\"\"}}Hallo! {{delay20}}{{anim id=\"Nodding\" target=\"actor\" targetSpec=\"\"}}Du weißt, {{delay8}}dass das {{color id=\"1\"}}Insektikus-\nTurnier{{color id=\"65535\"}} kostenlos ist,{{delay8}} wenn Besucher\neiner anderen Insel zu Gast sind?"
  },
  {
    "label": "034_a",
    "attribute": "0x00000000",
    "text": "Ich will teilnehmen!"
  },
  {
    "label": "034_b",
    "attribute": "0x00000000",
    "text": "Wie sind die Regeln?"
  },
  {
    "label": "034_c",
    "attribute": "0x00000000",
    "text": "Punkte einlösen!"
  },
  {
    "label": "034_d",
    "attribute": "0x00000000",
    "text": "{{anim id=\"Negative\" target=\"actor\" targetSpec=\"\"}}Momentan nicht..."
  },
  {
    "label": "035",
    "attribute": "0x00000000",
    "text": "{{anim id=\"Eh\" target=\"actor\" targetSpec=\"\"}}Ähm, {{delay20}}hallo!"
  },
  {
    "label": "036",
    "attribute": "0x00000000",
    "text": "{{anim id=\"Eh\" target=\"actor\" targetSpec=\"\"}}Oh, {{delay8}}h-{{delay8}}hallo!{{delay20}} Bist du{{string value=\"...\"}}{{delay frames=\"40\"}} wegen des\n{{color id=\"1\"}}Insektikus-Turniers {{color id=\"65535\"}}hier?{{delay20}} {{anim id=\"FaintSmile\" target=\"actor\" targetSpec=\"\"}}Wir ehren\ndamit die Welt der Insekten!\n{{anim id=\"Hello\" target=\"actor\" targetSpec=\"\"}}Mein Name ist übrigens {{color id=\"3\"}}Carlson{{color id=\"65535\"}},{{delay8}}\nKäfer-Koryphäe und Insekten-\nEnthusiast zu deinen Diensten.\n{{anim id=\"SmugFace\" target=\"actor\" targetSpec=\"\"}}Unter Connaisseurs bin ich auch\nals Krabbeltier-Künstler bekannt.{{pageBreak}}{{anim id=\"Blushing\" target=\"actor\" targetSpec=\"\"}}Eigentlich meide ich große Ver-\nanstaltungen, {{delay20}}{{anim id=\"AbsentMindedness\" target=\"actor\" targetSpec=\"\"}}zum {{color id=\"1\"}}Insektikus-Turnier{{color id=\"65535\"}}\nwurde ich jedoch surrend berufen!\n{{anim id=\"Greeting\" target=\"actor\" targetSpec=\"\"}}Du solltest daran teilnehmen!{{delay20}}{{anim id=\"Nodding\" target=\"actor\" targetSpec=\"\"}}\nBis {{color id=\"1\"}}{{number value=\"Hour\" index=\"1\"}}:00 Uhr {{color id=\"65535\"}}kannst du diese\nfaszinierende Welt erkunden."
  },
  {
    "label": "037",
    "attribute": "0x00000000",
    "text": "{{anim id=\"Aha\" target=\"actor\" targetSpec=\"\"}}Die Grenze zwischen unserer Welt\nund dem Reich der Insekten ist\nheute am durchlässigsten!\n{{anim id=\"Serious\" target=\"actor\" targetSpec=\"\"}}Heute findet das {{color id=\"1\"}}Insektikus-Turnier{{color id=\"65535\"}}\nstatt,{{delay8}} und ich bin{{string value=\"...\"}}{{delay20}} {{color id=\"3\"}}Carlson{{color id=\"65535\"}},{{delay8}} der\nintrovertierte Krabbeltier-Künstler.\n{{anim id=\"ShyBoy\" target=\"actor\" targetSpec=\"\"}}I-{{delay8}}ich leite die heutige Veranstaltung.{{delay20}}\nWelch Ehre und Albtraum zugleich!{{delay20}}\n{{anim id=\"Blushing\" target=\"actor\" targetSpec=\"\"}}{{size value=\"75\"}}Menschen- und Tiermassen machen mir Angst.{{size value=\"100\"}}\n{{anim id=\"Eh\" target=\"actor\" targetSpec=\"\"}}Ähm, {{delay20}}also, {{delay20}}was ich eigentlich\nsagen wollte{{string value=\"...\"}}{{delay frames=\"40\"}}{{delay frames=\"40\"}}{{anim id=\"IdeaBulb\" target=\"actor\" targetSpec=\"\"}} Ähm,{{delay8}} viel Spaß\nbeim Turnier!"
  },
  {
    "label": "038",
    "attribute": "0x00000000",
    "text": "{{anim id=\"Eh\" target=\"actor\" targetSpec=\"\"}}Oh, {{delay20}}die Turnierregeln.{{delay frames=\"40\"}} N-natürlich{{string value=\"...\"}}\n{{anim id=\"Serious\" target=\"actor\" targetSpec=\"\"}}Die erkläre ich dir,{{delay8}} ähm{{string value=\"...\"}} liebend\ngerne, so oft du willst.\n{{anim id=\"Explain\" target=\"actor\" targetSpec=\"\"}}Das {{color id=\"1\"}}Insektikus-Turnier{{color id=\"65535\"}} ist für alle,\ndie einen Kescher haben. {{delay40}}Dann darf\nman {{color id=\"1\"}}{{number value=\"0\" index=\"14\"}} Minuten {{color id=\"65535\"}}Krabbeltiere fangen.{{pageBreak}}{{anim id=\"Nodding\" target=\"actor\" targetSpec=\"\"}}Je nachdem,{{delay8}} wie viele Tierchen man\nwährend der insektischen Wallfahrt\nfängt, {{delay8}}bekommt man von mir Punkte.{{pageBreak}}{{anim id=\"Hello\" target=\"actor\" targetSpec=\"\"}}Es gibt auch einen Bonus, je nach\ndem, wie deine Mitpilger\nabschneiden.{{delay frames=\"40\"}} {{anim id=\"Serious\" target=\"actor\" targetSpec=\"\"}}Gutes Gelingen."
  },
  {
    "label": "040",
    "attribute": "0x00000000",
    "text": "{{anim id=\"Nodding\" target=\"actor\" targetSpec=\"\"}}Gut,{{delay8}} du hast insgesamt{{string value=\"...\"}}{{delay20}}\n{{color id=\"1\"}}{{anim id=\"EmotEnd\" target=\"actor\" targetSpec=\"\"}}{{number value=\"HHAPoints\" index=\"1\"}} {{i50_8 x=\"0\" y=\"1\" a=\"Punkte\" b=\"Punkt\" c=\"Punkte\"}} {{color id=\"65535\"}}gesammelt."
  },
  {
    "label": "041",
    "attribute": "0x00000000",
    "text": "Dein Gesamtpunktestand lautet:{{delay20}}\n{{anim id=\"ColdChill\" target=\"actor\" targetSpec=\"\"}}{{color id=\"1\"}}{{anim id=\"EmotEnd\" target=\"actor\" targetSpec=\"\"}}{{number value=\"HHAPoints\" index=\"1\"}}{{color id=\"65535\"}}{{string value=\"...\"}}{{delay frames=\"60\"}}{{pageBreak}}{{anim id=\"Eh\" target=\"actor\" targetSpec=\"\"}}Oh!{{delay20}} Du bist eben nur {{gender2 m=\"ein\" f=\"eine\"}}\n{{gender2 m=\"gewöhnlicher Sterblicher, der\" f=\"gewöhnliche Sterbliche, die\"}} sich\nder Allmacht des Insektenvolks stellt.\n{{anim id=\"Blushing\" target=\"actor\" targetSpec=\"\"}}Du{{string value=\"...\"}}{{delay20}} du musst dich also für das\nErgebnis nicht schämen{{string value=\"...\"}}{{delay frames=\"40\"}} oder so."
  },
  {
    "label": "042",
    "attribute": "0x00000000",
    "text": "{{anim id=\"Nodding\" target=\"actor\" targetSpec=\"\"}}Bis {{color id=\"1\"}}{{number value=\"Hour\" index=\"1\"}}:00 Uhr{{color id=\"65535\"}} kannst du an so vielen\nRunden teilnehmen, {{delay8}}wie du willst.{{delay20}}{{anim id=\"FaintSmile\" target=\"actor\" targetSpec=\"\"}}\nDeine Hingabe ist sehr lobenswert!"
  },
  {
    "label": "043",
    "attribute": "0x00000000",
    "text": "{{anim id=\"Nodding\" target=\"actor\" targetSpec=\"\"}}Das war das letzte {{color id=\"1\"}}Insektikus-Turnier\n{{color id=\"65535\"}}für {{number value=\"27\"}}.{{delay20}} Das nächste findet dann\nwieder im {{color id=\"1\"}}{{number value=\"Month\" index=\"0\"}} {{color id=\"65535\"}}statt."
  },
  {
    "label": "044",
    "attribute": "0x00000000",
    "text": "{{anim id=\"Nodding\" target=\"actor\" targetSpec=\"\"}}Im {{color id=\"1\"}}{{number value=\"Month\" index=\"0\"}}{{color id=\"65535\"}} wird ein{{color id=\"1\"}} Insektikus-\nTurnier{{color id=\"65535\"}} stattfinden,{{delay8}} bei dem dich alle\nKäfer besonders segnen werden.\n{{anim id=\"AbsentMindedness\" target=\"actor\" targetSpec=\"\"}}SO L-{{delay8}}LAUTET MEINE\nPROPHEZEIUNG."
  },
  {
    "label": "045",
    "attribute": "0x02000000",
    "text": "{{anim id=\"Eh\" target=\"actor\" targetSpec=\"\"}}Oh,{{delay8}} du scheinst über {{color id=\"1\"}}{{number value=\"HHAPoints\" index=\"1\"}}\nPunkte {{color id=\"65535\"}}zu verfügen{{string value=\"...\"}}{{delay20}} {{anim id=\"QuestionMark\" target=\"actor\" targetSpec=\"\"}}Möchtest du\ndafür ein gesegnetes Relikt?"
  },
  {
    "label": "045_a",
    "attribute": "0x00000000",
    "text": "Sehr gerne!"
  },
  {
    "label": "045_b",
    "attribute": "0x00000000",
    "text": "{{anim id=\"Negative\" target=\"actor\" targetSpec=\"\"}}Lieber später..."
  },
  {
    "label": "046",
    "attribute": "0x02000000",
    "text": "{{anim id=\"Eh\" target=\"actor\" targetSpec=\"\"}}Oh! {{delay20}}{{color id=\"1\"}}{{number value=\"HHAPoints\" index=\"1\"}} Punkte {{color id=\"65535\"}}hast du\nbereits gesammelt!{{pageBreak}}{{anim id=\"QuestionMark\" target=\"actor\" targetSpec=\"\"}}Möchtest du {{color id=\"1\"}}{{number value=\"1\" index=\"0\"}} Punkte{{color id=\"65535\"}} gegen ein\nvon Käfern gesegnetes Relikt\neintauschen?\n{{anim id=\"Nodding\" target=\"actor\" targetSpec=\"\"}}Deine Erbmasse{{string value=\"...\"}}{{delay20}} ähm,{{delay20}} deine\nKindeskinder werden es dir\nirgendwann danken."
  },
  {
    "label": "046_a",
    "attribute": "0x00000000",
    "text": "Einlösen, bitte."
  },
  {
    "label": "046_b",
    "attribute": "0x00000000",
    "text": "{{anim id=\"Negative\" target=\"actor\" targetSpec=\"\"}}Danke, jetzt nicht..."
  },
  {
    "label": "047",
    "attribute": "0x06000000",
    "text": "{{anim id=\"Nodding\" target=\"actor\" targetSpec=\"\"}}Möchtest du etwas über Insekten,{{delay8}}\nKäfer {{delay8}}oder anderes Krabbelgetier\nlernen?{{delay20}} {{size value=\"75\"}}Das ist meine Spezialität!{{size value=\"100\"}}"
  },
  {
    "label": "047_a",
    "attribute": "0x00000000",
    "text": "Turnierteilnahme!"
  },
  {
    "label": "047_b",
    "attribute": "0x00000000",
    "text": "Turnier-Regeln, bitte!"
  },
  {
    "label": "047_c",
    "attribute": "0x00000000",
    "text": "Etwas anderes..."
  },
  {
    "label": "047_d",
    "attribute": "0x00000000",
    "text": "{{anim id=\"Negative\" target=\"actor\" targetSpec=\"\"}}Danke, jetzt nicht..."
  },
  {
    "label": "048",
    "attribute": "0x00000000",
    "text": "{{anim id=\"Blushing\" target=\"actor\" targetSpec=\"\"}}{{string value=\"...\"}}Oh,{{delay20}} in Ordnung.{{delay40}} Ähm,{{delay8}} Ich bin bis\n{{color id=\"1\"}}{{number value=\"Hour\" index=\"2\"}}:00 Uhr {{color id=\"65535\"}}hier, {{delay8}}sollte etwas sein.{{pageBreak}}{{anim id=\"FaintSmile\" target=\"actor\" targetSpec=\"\"}}Ich würde mich freuen, {{delay8}}mit dir über\nmeine Passion sprechen zu dürfen."
  },
  {
    "label": "049",
    "attribute": "0x06000000",
    "text": "{{anim id=\"Eh\" target=\"actor\" targetSpec=\"\"}}Oh,{{delay20}} a-{{delay8}}aber natürlich!{{delay20}}\nÄhm,{{delay20}} was hältst du davon, wenn{{string value=\"...\"}}{{delay20}}\n{{anim id=\"Blushing\" target=\"actor\" targetSpec=\"\"}}ich dir deine Käfer abkaufe?\n{{anim id=\"Nodding\" target=\"actor\" targetSpec=\"\"}}Natürlich zu einem besonders guten\nPreis, {{delay8}}und ich garantiere für jedes\nKrabbeltier ein glückliches Zuhause!"
  },
  {
    "label": "049_a",
    "attribute": "0x00000000",
    "text": "Käfer verkaufen!"
  },
  {
    "label": "049_b",
    "attribute": "0x00000000",
    "text": "Punkte einlösen!"
  },
  {
    "label": "049_c",
    "attribute": "0x00000000",
    "text": "Wegen des Turniers..."
  },
  {
    "label": "049_d",
    "attribute": "0x00000000",
    "text": "{{anim id=\"Negative\" target=\"actor\" targetSpec=\"\"}}Danke, jetzt nicht..."
  },
  {
    "label": "050",
    "attribute": "0x00000000",
    "text": "{{anim id=\"Eh\" target=\"actor\" targetSpec=\"\"}}N-{{delay8}}natürlich, {{delay20}}absolut!\n{{delay20}}{{anim id=\"QuestionMark\" target=\"actor\" targetSpec=\"\"}}Von welchem Krabbeltier\nmöchtest du dich trennen?"
  },
  {
    "label": "051",
    "attribute": "0x02000000",
    "text": "{{anim id=\"Eh\" target=\"actor\" targetSpec=\"\"}}Hui!{{delay20}} Eine Vielzahl von Einzigartig-\nkeit?{{delay20}} Mein insektisches Flehen wurde\nerhört. {{delay frames=\"40\"}}Die Antwort?{{delay20}} „Summ!“\n{{anim id=\"AbsentMindedness\" target=\"actor\" targetSpec=\"\"}}{{color id=\"4\"}}Ist es endlich so weit?\n{{delay20}}Werde ich heute auf meinen\nchitintragenden Mäzen treffen?{{color id=\"65535\"}}{{pageBreak}}{{anim id=\"QuestionMark\" target=\"actor\" targetSpec=\"\"}}Ähem. {{delay20}}Entschuldige.{{delay20}}\nWürden dich {{number value=\"TurnipPrice\" index=\"3\"}}\nzufriedenstellen?"
  },
  {
    "label": "051_a",
    "attribute": "0x00000000",
    "text": "Das würden sie!"
  },
  {
    "label": "051_b",
    "attribute": "0x00000000",
    "text": "{{anim id=\"Negative\" target=\"actor\" targetSpec=\"\"}}Leider nein..."
  },
  {
    "label": "052",
    "attribute": "0x02000000",
    "text": "{{anim id=\"Aha\" target=\"actor\" targetSpec=\"\"}}{{capitalizeNextLetter}}{{wordArticle}}{{fun_0000007D arg=\"0x0100\"}}!{{delay20}}\nDieser Anblick blieb mir bislang\nverwehrt!{{delay frames=\"40\"}} {{size value=\"75\"}}Zumindest im echten Leben{{string value=\"...\"}}{{size value=\"100\"}}{{color id=\"4\"}}\n{{anim id=\"QuestionMark\" target=\"actor\" targetSpec=\"\"}}{{color id=\"65535\"}}Würdest du mir dieses Pracht-\nexemplar für {{number value=\"BuyPrice\" index=\"3\"}}\nverkaufen?"
  },
  {
    "label": "052_a",
    "attribute": "0x00000000",
    "text": "Gerne!"
  },
  {
    "label": "052_b",
    "attribute": "0x00000000",
    "text": "{{anim id=\"Negative\" target=\"actor\" targetSpec=\"\"}}Leider nein..."
  },
  {
    "label": "053",
    "attribute": "0x00000000",
    "text": "{{anim id=\"FaintSmile\" target=\"actor\" targetSpec=\"\"}}Krabbelige Geschäfte machen\nmich wahrhaft glücklich!{{delay frames=\"40\"}}\n{{anim id=\"Serious\" target=\"actor\" targetSpec=\"\"}}Wirklich, {{delay8}}wirklich glücklich."
  },
  {
    "label": "054",
    "attribute": "0x00000000",
    "text": "{{anim id=\"Aha\" target=\"actor\" targetSpec=\"\"}}Wirklich?!{{delay20}}{{anim id=\"BigSmile\" target=\"actor\" targetSpec=\"\"}} V-{{delay8}}vielen Dank!"
  },
  {
    "label": "056",
    "attribute": "0x00000000",
    "text": "{{anim id=\"Aha\" target=\"actor\" targetSpec=\"\"}}T-{{delay8}}tatsächlich?! {{delay20}}Großartig!{{delay20}}{{anim id=\"QuestionMark\" target=\"actor\" targetSpec=\"\"}} Welches\ninsektomenale Exemplar hättest\ndu denn für mich?!{{pageBreak}}{{anim id=\"Restless\" target=\"actor\" targetSpec=\"\"}}Aber, {{delay8}}aber,{{delay8}} aber{{string value=\"...\"}} Deiner Tasche\nfehlt es gänzlich an coleopteraischem\nGlanz und ebensolcher Exzellenz!\n{{anim id=\"Negative\" target=\"actor\" targetSpec=\"\"}}Tut mir leid, {{delay8}}aber ich kann nur real\nexistierende Krabbeltiere kaufen.{{pageBreak}}{{anim id=\"ShyBoy\" target=\"actor\" targetSpec=\"\"}}Komm doch wieder,{{delay8}} wenn du welche\ngefangen hast. {{delay20}}Also, {{delay8}}nicht nur in\ndeiner Vorstellung!"
  },
  {
    "label": "057",
    "attribute": "0x00000000",
    "text": "{{anim id=\"Shocked\" target=\"actor\" targetSpec=\"\"}}S-{{delay8}}Sekunde!{{delay20}} Du willst doch nichts\nverkaufen?!{{delay20}} {{anim id=\"BrokenHeart\" target=\"actor\" targetSpec=\"\"}}Aber{{string value=\"...\"}}{{delay frames=\"40\"}} Ich hatte mich\nschon so gefreut{{string value=\"...\"}}{{pageBreak}}{{anim id=\"EmotEnd\" target=\"actor\" targetSpec=\"\"}}Na,{{delay8}} gut. {{delay20}}{{anim id=\"FaintSmile\" target=\"actor\" targetSpec=\"\"}}Heute bieten sich mir ja\nnoch genügend Chancen, {{delay8}}neue\nKrabbelfreunde kennenzulernen."
  },
  {
    "label": "058",
    "attribute": "0x00000000",
    "text": "{{anim id=\"Surprised\" target=\"actor\" targetSpec=\"\"}}O-{{delay8}}oh! {{delay20}}Du{{string value=\"...\"}}{{delay frames=\"40\"}} hast es dir anders\nüberlegt? {{anim id=\"EmotEnd\" target=\"actor\" targetSpec=\"\"}}Schade.{{delay frames=\"40\"}} A{{delay8}}-aber das{{string value=\"...\"}}{{delay frames=\"40\"}}\n{{anim id=\"Crying\" target=\"actor\" targetSpec=\"\"}}verstehe ich schon."
  },
  {
    "label": "059",
    "attribute": "0x00000000",
    "text": "{{anim id=\"Serious\" target=\"actor\" targetSpec=\"\"}}Nein, {{delay8}}wirklich.{{delay20}} Kein Problem.{{delay20}} {{anim id=\"FaintSmile\" target=\"actor\" targetSpec=\"\"}}Heute\nist ja das {{color id=\"1\"}}Insektikus-Turnier{{color id=\"65535\"}},{{delay8}} da lerne\nich noch viele Chitin-Träger kennen."
  },
  {
    "label": "060",
    "attribute": "0x00000000",
    "text": "{{anim id=\"Thinking\" target=\"actor\" targetSpec=\"\"}}Hmm. {{delay frames=\"40\"}}Du scheinst keinen Kescher\nin deinem Besitz zu haben.\n{{delay20}}{{anim id=\"Serious\" target=\"actor\" targetSpec=\"\"}}Das ist ein gewaltiges Problem.{{pageBreak}}{{anim id=\"Explain\" target=\"actor\" targetSpec=\"\"}}Als {{gender2 m=\"Normalsterblicher\" f=\"Normalsterbliche\"}} bist du ohne\nKescher verloren.{{delay20}} Die Herrlichkeit\ndes Insektenreichs ist zu enorm.\n{{anim id=\"Pardon\" target=\"actor\" targetSpec=\"\"}}Es grenzt an Ketzerei, {{delay8}}wenn jemand\nversuchen sollte, {{delay8}}Insekten mit\nbloßen Händen zu fangen."
  },
  {
    "label": "061",
    "attribute": "0x00000000",
    "text": "{{anim id=\"Eh\" target=\"actor\" targetSpec=\"\"}}Oh!{{delay20}} Ähm, {{delay8}}das ist mir äußerst\nunangenehm{{string value=\"...\"}}{{delay20}} Aber du hast nicht\ngenügend Sternis in deinem Besitz.{{pageBreak}}{{anim id=\"Worried\" target=\"actor\" targetSpec=\"\"}}Komm bitte wieder, wenn du\n{{color id=\"1\"}}{{number value=\"21\" index=\"2\"}}{{color id=\"65535\"}} zusammengekratzt\nhast.{{delay20}} Entschuldige!"
  },
  {
    "label": "062",
    "attribute": "0x02000000",
    "text": "{{anim id=\"Aha\" target=\"actor\" targetSpec=\"\"}}Oh,{{delay8}} das freut mich. {{delay frames=\"40\"}}Jedes Krabbel-\nviech zählt. {{delay20}}{{anim id=\"Hesitate\" target=\"actor\" targetSpec=\"\"}}Es muss nicht mal\nkrabbeln. {{delay20}}Schwirren geht auch.\n{{anim id=\"Worried\" target=\"actor\" targetSpec=\"\"}}Die Teilnahmegebühr beträgt nach\nder kostenfreien Kennenlernrunde\n{{color id=\"1\"}}{{number value=\"21\" index=\"2\"}}{{color id=\"65535\"}}.{{delay20}} In Ordnung?"
  },
  {
    "label": "062_01",
    "attribute": "0x00000000",
    "text": "{{anim id=\"Nodding\" target=\"actor\" targetSpec=\"\"}}Oh,{{delay8}} das freut mich.\n{{delay20}}Das macht dann {{color id=\"1\"}}{{number value=\"21\" index=\"2\"}}{{color id=\"65535\"}}."
  },
  {
    "label": "062_a",
    "attribute": "0x00000000",
    "text": "Klaro!"
  },
  {
    "label": "062_b",
    "attribute": "0x00000000",
    "text": "Muss nicht sein..."
  },
  {
    "label": "063",
    "attribute": "0x00000000",
    "text": "{{anim id=\"Nodding\" target=\"actor\" targetSpec=\"\"}}Gut. Du hast {{color id=\"1\"}}{{number value=\"0\" index=\"14\"}} Minuten{{color id=\"65535\"}}, {{delay8}}um so viele\nInsekten wie möglich zu fangen.{{delay20}} {{anim id=\"Eh\" target=\"actor\" targetSpec=\"\"}}Ab\n{{color id=\"1\"}}{{number value=\"1\" index=\"4\"}} Exemplaren {{color id=\"65535\"}}gibt es Bonuspunkte.\n{{anim id=\"FaintSmile\" target=\"actor\" targetSpec=\"\"}}Viel Glück!{{delay20}} Du wirst sicherlich\nüber dich hinauswachsen{{string value=\"...\"}}"
  },
  {
    "label": "064",
    "attribute": "0x00000000",
    "text": "{{anim id=\"Nodding\" target=\"actor\" targetSpec=\"\"}}Gut. {{delay20}}Ihr habt {{color id=\"1\"}}{{number value=\"0\" index=\"14\"}} Minuten{{color id=\"65535\"}}, {{delay8}}um so viele\nInsekten wie möglich zu fangen.{{delay20}} {{anim id=\"Eh\" target=\"actor\" targetSpec=\"\"}}Ab\n{{color id=\"1\"}}{{number value=\"1\" index=\"4\"}} Exemplaren {{color id=\"65535\"}}gibt es Bonuspunkte.\n{{anim id=\"FaintSmile\" target=\"actor\" targetSpec=\"\"}}Das Turnier geht für alle Teilnehmer\nzur gleichen Zeit los. {{delay20}}Viel Glück beim\nRekordetranszendieren!"
  },
  {
    "label": "065",
    "attribute": "0x00000000",
    "text": "{{anim id=\"Aha\" target=\"actor\" targetSpec=\"\"}}W-{{delay8}}wundervoll! {{delay20}}Ich bin überzeugt,{{delay8}}\ndass du eine erleuchtende Erfahrung\n{{delay8}}u-{{delay8}}und viel{{string value=\"...\"}}{{delay20}} {{anim id=\"FaintSmile\" target=\"actor\" targetSpec=\"\"}}Spaß haben wirst!"
  },
  {
    "label": "066",
    "attribute": "0x00000000",
    "text": "{{anim id=\"Eh\" target=\"actor\" targetSpec=\"\"}}Oh,{{delay8}} A-{{delay8}}Augenblick.{{delay frames=\"40\"}} Der {{color id=\"1\"}}Insektenkäfig{{color id=\"65535\"}}\nvon {{selection value=\"SelectedName\"}}{{anim id=\"Blushing\" target=\"actor\" targetSpec=\"\"}} strotzt noch vor heiliger Insektenenergie{{string value=\"...\"}}{{pageBreak}}{{anim id=\"Nodding\" target=\"actor\" targetSpec=\"\"}}Jeder Spieler muss seinen{{color id=\"1\"}} Insekten-\nkäfig{{color id=\"65535\"}} leeren,{{delay8}} bevor wir eine weitere\nRunde beginnen können. {{delay20}}{{anim id=\"Worried\" target=\"actor\" targetSpec=\"\"}}Tut mir leid.\n{{anim id=\"OhGeez\" target=\"actor\" targetSpec=\"\"}}Würdest du {{selection value=\"SelectedName\"}} sagen{{string value=\"...\"}}{{delay20}} dass spektakuläre Krabbelfreunde auf {{gender8 m=\"ihn\" f=\"sie\" n=\"\"}} warten?{{pageBreak}}{{anim id=\"Hello\" target=\"actor\" targetSpec=\"\"}}Ich wäre übrigens ein freudiger\nAbnehmer und würde {{gender8 m=\"ihn\" f=\"sie\" n=\"\"}} natürlich\nentsprechend fürstlich entlohnen!"
  },
  {
    "label": "067",
    "attribute": "0x00000000",
    "text": "{{anim id=\"QuestionMark\" target=\"actor\" targetSpec=\"\"}}Spürst du das? {{delay20}}{{anim id=\"AbsentMindedness\" target=\"actor\" targetSpec=\"\"}}Ein {{color id=\"1\"}}Insektenkäfig{{color id=\"65535\"}}\nstrahlt voller insektomenaler Energie!{{delay20}}\nEr will geleert werden{{string value=\"...\"}}{{pageBreak}}{{anim id=\"Explain\" target=\"actor\" targetSpec=\"\"}}Sonst kann keine neue Runde\nstarten.{{delay20}} {{anim id=\"Serious\" target=\"actor\" targetSpec=\"\"}}So lautet der Wille der\nInsekten, {{delay8}}und ich bin ihr Sprachrohr.\n{{anim id=\"Negative\" target=\"actor\" targetSpec=\"\"}}Entschuldige die Mühe,{{delay20}} aber würdest\ndu die Botschaft der Insekten an\nalle anderen weitergeben?\n{{anim id=\"Hello\" target=\"actor\" targetSpec=\"\"}}Oh, ähm{{string value=\"...\"}} {{delay20}}Falls jemand keine\nkrabbeligen Souvenirs haben will,{{delay8}}\nbin ich ein gut zahlender Abnehmer."
  },
  {
    "label": "068",
    "attribute": "0x00000000",
    "text": "{{anim id=\"Eh\" target=\"actor\" targetSpec=\"\"}}Oh, {{delay8}}entschuldige! {{delay20}}Die Runde läuft\ngerade noch,{{delay20}} {{anim id=\"Blushing\" target=\"actor\" targetSpec=\"\"}}du musst leider noch\netwas warten.{{pageBreak}}{{anim id=\"ShyBoy\" target=\"actor\" targetSpec=\"\"}}Deine sinnstiftende, {{delay8}}insektomenale\nErfahrung kann aber in wenigen\nMinuten losgehen."
  },
  {
    "label": "070",
    "attribute": "0x00000000",
    "text": "{{anim id=\"AbsentMindedness\" target=\"actor\" targetSpec=\"\"}}Die Insekten lassen dich nur im\nGlauben, {{delay8}}dass du es bist,{{delay8}} der sie\nfängt. {{delay frames=\"40\"}}{{anim id=\"Silent\" target=\"actor\" targetSpec=\"\"}}Dabei lassen SIE sich fangen."
  },
  {
    "label": "071",
    "attribute": "0x00000000",
    "text": "{{anim id=\"Explain\" target=\"actor\" targetSpec=\"\"}}Neben unserer Welt der Sterblichen\nexistiert das erhabene Reich der\nInsekten und anderem Getier.{{delay20}}\n{{anim id=\"AbsentMindedness\" target=\"actor\" targetSpec=\"\"}}Durch sie erhalten wir erst Einblick\nin diese wundersame Welt."
  },
  {
    "label": "072",
    "attribute": "0x00000000",
    "text": "{{anim id=\"AbsentMindedness\" target=\"actor\" targetSpec=\"\"}}Wie man die besten Käfer fängt?{{delay20}}\nIch bin auch nur ein Pilger, {{delay8}}der\nden rechten Weg sucht.{{delay20}}{{anim id=\"BigSmile\" target=\"actor\" targetSpec=\"\"}} Viel Glück!"
  },
  {
    "label": "073",
    "attribute": "0x00000000",
    "text": "{{anim id=\"AbsentMindedness\" target=\"actor\" targetSpec=\"\"}}Sei mir gegrüßt,{{delay20}} mein ehrwürdiger,{{delay8}}\ndiaphaner Carapax!{{delay frames=\"40\"}}\n{{anim id=\"TakenAback\" target=\"actor\" targetSpec=\"\"}}Oh! {{delay20}}Ähm,{{delay8}} verzeih{{string value=\"...\"}}\n{{anim id=\"EmotEnd\" target=\"actor\" targetSpec=\"\"}}Ich habe dich mit jemandem\nverwechselt. {{delay20}}{{anim id=\"FaintSmile\" target=\"actor\" targetSpec=\"\"}}Du bist sicher wegen\ndes {{color id=\"1\"}}Insektikus-Turniers{{color id=\"65535\"}} hier.\n{{anim id=\"QuestionMark\" target=\"actor\" targetSpec=\"\"}}Du kannst es auch spüren, {{delay8}}oder?\n{{delay frames=\"40\"}}{{anim id=\"Restless\" target=\"actor\" targetSpec=\"\"}}Das bedeutungsschwangere Surren,{{delay8}}\ndas in der Luft liegt?\n{{anim id=\"BigSmile\" target=\"actor\" targetSpec=\"\"}}Das sind abertausende winzige\nFlügelchen,{{delay8}} die diesen {{number value=\"28\"}}\nder Brise trotzen."
  },
  {
    "label": "080",
    "attribute": "0x03000000",
    "text": "{{anim id=\"Eh\" target=\"actor\" targetSpec=\"\"}}I-{{delay8}}ich hoffe, {{delay8}}du hast unser{{string value=\"...\"}}{{delay20}}\n{{anim id=\"Nodding\" target=\"actor\" targetSpec=\"\"}}{{color id=\"1\"}}{{number value=\"28\"}}-Insektikus-Turnier\n{{color id=\"65535\"}}in vollen Zügen genossen.\n{{anim id=\"Hesitate\" target=\"actor\" targetSpec=\"\"}}Ich habe alles gegeben,{{delay8}} damit es\neine unvergessliche Erfahrung wird."
  },
  {
    "label": "080_a",
    "attribute": "0x00000000",
    "text": "Es war transzendent!"
  },
  {
    "label": "080_b",
    "attribute": "0x00000000",
    "text": "Ich hatte Spaß."
  },
  {
    "label": "080_c",
    "attribute": "0x00000000",
    "text": "Es war ganz okay..."
  },
  {
    "label": "081",
    "attribute": "0x00000000",
    "text": "{{anim id=\"Cheering\" target=\"actor\" targetSpec=\"\"}}{{size value=\"150\"}}FÜR MICH AUCH!{{size value=\"100\"}}{{pageBreak}}{{anim id=\"EmotEnd\" target=\"actor\" targetSpec=\"\"}}Ich freue mich außerordentlich,\ndass du so denkst wie ich!{{delay20}}\n{{anim id=\"Crying\" target=\"actor\" targetSpec=\"\"}}Danke,{{delay8}} dass du mir zur Seite standst!"
  },
  {
    "label": "082",
    "attribute": "0x00000000",
    "text": "{{anim id=\"Eh\" target=\"actor\" targetSpec=\"\"}}W-{{delay8}}wirklich?{{delay40}} Damit will ich sagen{{string value=\"...\"}}{{delay20}}\nDas freut mich sehr!{{delay frames=\"40\"}} {{anim id=\"Hesitate\" target=\"actor\" targetSpec=\"\"}}Normalerweise\nlebe ich nur für die Reliktsuche{{string value=\"...\"}}\n{{anim id=\"Blushing\" target=\"actor\" targetSpec=\"\"}}Daher war ich mir recht unsicher,{{delay8}}\nob das Turnier ein Erfolg werden\nwürde."
  },
  {
    "label": "083",
    "attribute": "0x00000000",
    "text": "{{anim id=\"BrokenHeart\" target=\"actor\" targetSpec=\"\"}}O-{{delay8}}oh, {{delay20}}nein{{string value=\"...\"}}{{delay frames=\"40\"}} Es zerbricht mir das\nHerz, {{delay8}}dass du so etwas sagst.{{pageBreak}}{{anim id=\"Thinking\" target=\"actor\" targetSpec=\"\"}}Hast du nicht die richtigen Käfer-\nfreunde getroffen? {{delay frames=\"40\"}}{{anim id=\"OhGeez\" target=\"actor\" targetSpec=\"\"}}Probier es doch\neinfach noch mal{{string value=\"...\"}}{{delay frames=\"40\"}} wenn du willst."
  },
  {
    "label": "084",
    "attribute": "0x02000000",
    "text": "{{anim id=\"Nodding\" target=\"actor\" targetSpec=\"\"}}Ähm, {{delay20}}jedenfalls sieht es so aus,\nals hättest du noch {{color id=\"1\"}}Punkte{{color id=\"65535\"}} übrig{{string value=\"...\"}}{{pageBreak}}{{anim id=\"EmotEnd\" target=\"actor\" targetSpec=\"\"}}Und zwar genau {{color id=\"1\"}}{{number value=\"HHAPoints\" index=\"1\"}}{{color id=\"65535\"}}.\n{{delay frames=\"40\"}}{{anim id=\"QuestionMark\" target=\"actor\" targetSpec=\"\"}}Hättest du Interesse an einem\ninsektomenalen Relikt?"
  },
  {
    "label": "084_a",
    "attribute": "0x00000000",
    "text": "Ein Relikt, bitte."
  },
  {
    "label": "084_b",
    "attribute": "0x00000000",
    "text": "{{anim id=\"Negative\" target=\"actor\" targetSpec=\"\"}}Danke, jetzt nicht..."
  },
  {
    "label": "085",
    "attribute": "0x02000000",
    "text": "{{anim id=\"Nodding\" target=\"actor\" targetSpec=\"\"}}Ähm, {{delay20}}jedenfalls sieht es so aus,\nals hättest du noch {{color id=\"1\"}}Punkte{{color id=\"65535\"}} übrig{{string value=\"...\"}}{{pageBreak}}{{anim id=\"EmotEnd\" target=\"actor\" targetSpec=\"\"}}Und zwar genau {{color id=\"1\"}}{{number value=\"HHAPoints\" index=\"1\"}}{{color id=\"65535\"}}.\n{{delay frames=\"40\"}}{{anim id=\"QuestionMark\" target=\"actor\" targetSpec=\"\"}}Hättest du Interesse daran, für\n{{color id=\"1\"}}{{number value=\"1\" index=\"0\"}} Punkte{{color id=\"65535\"}} ein Relikt zu erwerben?"
  },
  {
    "label": "085_a",
    "attribute": "0x00000000",
    "text": "Sehr gerne!"
  },
  {
    "label": "085_b",
    "attribute": "0x00000000",
    "text": "{{anim id=\"Negative\" target=\"actor\" targetSpec=\"\"}}Danke, jetzt nicht..."
  },
  {
    "label": "086",
    "attribute": "0x00000000",
    "text": "{{anim id=\"Hesitate\" target=\"actor\" targetSpec=\"\"}}Ähm, {{delay20}}nur damit du Bescheid weißt{{string value=\"...\"}}{{delay20}}\n{{anim id=\"Hello\" target=\"actor\" targetSpec=\"\"}}Das nächste {{color id=\"1\"}}Insektikus-Turnier\n{{color id=\"65535\"}}findet im {{color id=\"1\"}}{{number value=\"Month\" index=\"0\"}}{{color id=\"65535\"}} statt."
  },
  {
    "label": "087",
    "attribute": "0x00000000",
    "text": "{{anim id=\"Hesitate\" target=\"actor\" targetSpec=\"\"}}Ähm, {{delay20}}nur damit du Bescheid weißt{{string value=\"...\"}}{{delay20}}\n{{anim id=\"Hello\" target=\"actor\" targetSpec=\"\"}}Das nächste {{color id=\"1\"}}Insektikus-Turnier {{color id=\"65535\"}}findet\nnächsten {{color id=\"1\"}}{{number value=\"Month\" index=\"0\"}}{{color id=\"65535\"}} statt."
  },
  {
    "label": "088",
    "attribute": "0x00000000",
    "text": "{{anim id=\"Eh\" target=\"actor\" targetSpec=\"\"}}Oh. {{delay20}}Verstehe{{string value=\"...\"}}\n{{delay20}}Das ist natürlich in Ordnung."
  },
  {
    "label": "090",
    "attribute": "0x00000000",
    "text": "{{anim id=\"Eh\" target=\"actor\" targetSpec=\"\"}}Na,{{delay20}} hat dir unser krabbeliges\n{{anim id=\"Nodding\" target=\"actor\" targetSpec=\"\"}}{{color id=\"1\"}}{{number value=\"28\"}}fest{{color id=\"65535\"}} gefallen?{{pageBreak}}{{anim id=\"Grin\" target=\"actor\" targetSpec=\"\"}}Ich bin {{color id=\"3\"}}Carlson{{color id=\"65535\"}}{{string value=\"...\"}}{{delay frames=\"30\"}}\n{{anim id=\"SmugFace\" target=\"actor\" targetSpec=\"\"}}Käfer- und spinnenliebender\nKrabbeltier-Kreativkopf!{{pageBreak}}{{anim id=\"Negative\" target=\"actor\" targetSpec=\"\"}}Im Rampenlicht zu stehen {{delay8}}ist eigent-\nlich nicht meine Stärke.{{delay20}} {{anim id=\"ShyBoy\" target=\"actor\" targetSpec=\"\"}}Dafür hab\nich mich heute aber gut geschlagen{{string value=\"...\"}}\n{{anim id=\"Blushing\" target=\"actor\" targetSpec=\"\"}}Die Motivation dafür hab ich meinen\nKrabbeltier-Freunden zu verdanken.{{delay20}}\nÄhm, {{delay8}}zu denen gehörst auch du!\n{{anim id=\"Nodding\" target=\"actor\" targetSpec=\"\"}}So, {{delay8}}das {{color id=\"1\"}}Insektikus-Turnier {{color id=\"65535\"}}ist nun\noffiziell vorbei.{{delay20}} Du kannst jedoch\nnoch deine Punkte einlösen."
  },
  {
    "label": "092",
    "attribute": "0x00000000",
    "text": "Oh,{{delay8}} ähm.{{delay20}}{{anim id=\"Nodding\" target=\"actor\" targetSpec=\"\"}} Also, {{delay8}}ich werde noch\nbis {{color id=\"1\"}}{{number value=\"Hour\" index=\"2\"}}:00{{color id=\"65535\"}} {{color id=\"1\"}}Uhr{{color id=\"65535\"}} hier sein.{{delay20}}\nNur für den Fall der Fälle{{string value=\"...\"}}"
  },
  {
    "label": "094",
    "attribute": "0x02000000",
    "text": "{{anim id=\"Silent\" target=\"actor\" targetSpec=\"\"}}Ähm, {{delay8}}aber{{string value=\"...\"}} {{delay40}}Du scheinst beim\n{{color id=\"1\"}}Insektikus-Turnier{{color id=\"65535\"}} schon mit einigen\nPunkten gesegnet worden zu sein.\n{{anim id=\"QuestionMark\" target=\"actor\" targetSpec=\"\"}}Möchtest du sie gegen ein heiliges\nRelikt aus der Insektenwelt\neintauschen?"
  },
  {
    "label": "094_a",
    "attribute": "0x00000000",
    "text": "Punkte einlösen!"
  },
  {
    "label": "094_b",
    "attribute": "0x00000000",
    "text": "{{anim id=\"Negative\" target=\"actor\" targetSpec=\"\"}}Danke, jetzt nicht."
  },
  {
    "label": "100",
    "attribute": "0x02000000",
    "text": "{{anim id=\"Eh\" target=\"actor\" targetSpec=\"\"}}Oh,{{delay20}} ähm,{{delay8}} hey.{{delay20}}\nWas kann ich für dich tun?"
  },
  {
    "label": "100_a",
    "attribute": "0x00000000",
    "text": "Punkte einlösen!"
  },
  {
    "label": "100_b",
    "attribute": "0x00000000",
    "text": "{{anim id=\"Negative\" target=\"actor\" targetSpec=\"\"}}Nichts, nichts..."
  },
  {
    "label": "101",
    "attribute": "0x00000000",
    "text": "{{anim id=\"Nodding\" target=\"actor\" targetSpec=\"\"}}Das nächste {{color id=\"1\"}}Insektikus-Turnier{{color id=\"65535\"}}\nfeiern wir im {{color id=\"1\"}}{{number value=\"Month\" index=\"0\"}}{{color id=\"65535\"}}.{{pageBreak}}{{anim id=\"Serious\" target=\"actor\" targetSpec=\"\"}}Ich hoffe,{{delay8}} dass du dann den\nrechten Weg zur insektuellen\nErleuchtung finden wirst."
  },
  {
    "label": "102",
    "attribute": "0x00000000",
    "text": "{{anim id=\"AbsentMindedness\" target=\"actor\" targetSpec=\"\"}}Die Zeit der Insekten ist erst\ndann vorbei, {{delay8}}wenn das Licht\nunsere sterbliche Welt verlässt.\n{{anim id=\"Blushing\" target=\"actor\" targetSpec=\"\"}}{{size value=\"75\"}}Nächsten Monat findet ein weiteres\n{{color id=\"1\"}}Insektikus-Turnier{{color id=\"65535\"}} statt.{{size value=\"100\"}}"
  },
  {
    "label": "103",
    "attribute": "0x00000000",
    "text": "{{anim id=\"Nodding\" target=\"actor\" targetSpec=\"\"}}Unser {{color id=\"1\"}}{{number value=\"28\"}}-Insektikus-Turnier{{color id=\"65535\"}}\nist vorbei. {{delay20}}{{anim id=\"FaintSmile\" target=\"actor\" targetSpec=\"\"}}Zeit für mich, {{delay8}}bis zum\nnächsten in Kältestarre zu verfallen{{string value=\"...\"}}"
  },
  {
    "label": "104",
    "attribute": "0x00000000",
    "text": "{{anim id=\"SadSpiral\" target=\"actor\" targetSpec=\"\"}}Dieses Jahr wird leider kein weiteres\nInsektikus-Turnier stattfinden. {{delay20}}Wir\nsehen uns erst im {{color id=\"1\"}}{{number value=\"Month\" index=\"0\"}} {{color id=\"65535\"}}wieder.{{delay20}}\n{{anim id=\"Hesitate\" target=\"actor\" targetSpec=\"\"}}Also, {{delay20}}ähm,{{delay20}} das hoffe ich zumindest!"
  },
  {
    "label": "105",
    "attribute": "0x00000000",
    "text": "{{anim id=\"Nodding\" target=\"actor\" targetSpec=\"\"}}So endet eine weitere Insekten-\nSaison{{string value=\"...\"}}{{delay frames=\"40\"}} Vergiss nicht,{{delay8}} das nächste\n{{color id=\"1\"}}Insektikus-Turnier{{color id=\"65535\"}} ist im neuen Jahr.\n{{anim id=\"Hesitate\" target=\"actor\" targetSpec=\"\"}}Ich hoffe, {{delay8}}dich dort wiederzusehen!"
  },
  {
    "label": "110",
    "attribute": "0x00000000",
    "text": "{{anim id=\"Eh\" target=\"actor\" targetSpec=\"\"}}Oh, {{delay20}}d-{{delay8}}du bist doch von einer\nanderen Insel, {{delay8}}oder? {{delay20}}{{anim id=\"QuestionMark\" target=\"actor\" targetSpec=\"\"}}Bist du extra\nwegen des {{color id=\"1\"}}Insektikus-Turniers{{color id=\"65535\"}} da?\n{{anim id=\"Blushing\" target=\"actor\" targetSpec=\"\"}}Die Runde läuft schon{{string value=\"...\"}} {{delay20}}{{anim id=\"SmugFace\" target=\"actor\" targetSpec=\"\"}}Du darfst\ndein Schicksal in der nächsten Runde\nmit dem Kescher in der Hand ändern."
  },
  {
    "label": "112",
    "attribute": "0x00000000",
    "text": "{{anim id=\"AbsentMindedness\" target=\"actor\" targetSpec=\"\"}}{{size value=\"75\"}}Ich bin ein Teil des Schwarms, {{delay8}}und der Schwarm\nist ein Teil von mir{{string value=\"...\"}}{{delay20}} Ich bin ein Teil des\nSchwarms,{{delay8}} und der Schwarm ist ein Teil von mir{{string value=\"...\"}}{{size value=\"100\"}}{{pageBreak}}{{anim id=\"Eh\" target=\"actor\" targetSpec=\"\"}}Oh,{{delay20}} ich habe dich gar nicht gesehen!\n{{delay20}}{{anim id=\"Explain\" target=\"actor\" targetSpec=\"\"}}Ähm,{{delay8}} wenn die Runde um ist,{{delay20}} kannst\ndu umgehend am Turnier teilnehmen."
  },
  {
    "label": "113",
    "attribute": "0x00000000",
    "text": "{{anim id=\"Nodding\" target=\"actor\" targetSpec=\"\"}}Du darfst liebend gerne an der\nnächsten Runde teilnehmen.{{pageBreak}}{{anim id=\"Silent\" target=\"actor\" targetSpec=\"\"}}Halte den Kescher bereit,{{delay8}} halte\n gedrückt {{delay8}}und bewege dich. {{delay20}}{{anim id=\"Pardon\" target=\"actor\" targetSpec=\"\"}}Das ist\ndie wahrhaftigste Form deiner selbst."
  },
  {
    "label": "114",
    "attribute": "0x00000000",
    "text": "{{anim id=\"Thinking\" target=\"actor\" targetSpec=\"\"}}Auf die nächste Runde des\nInsektikus-Turniers zu warten {{delay8}}fühlt\nsich an, {{delay8}}als wäre man eine Wespe.\n{{anim id=\"Serious\" target=\"actor\" targetSpec=\"\"}}Voller Energie und {{delay20}}{{anim id=\"Fuming\" target=\"actor\" targetSpec=\"\"}}Allzeit bereit,{{delay8}}\nden Eindringling abzuwehren,{{delay8}} der es\nwagte,{{delay8}} deinen Baum zu schütteln."
  },
  {
    "label": "120",
    "attribute": "0x03000000",
    "text": "{{anim id=\"Hesitate\" target=\"actor\" targetSpec=\"\"}}Oh,{{delay8}} ähm{{string value=\"...\"}}{{delay frames=\"40\"}} Hast du schon deinen\n{{color id=\"1\"}}Insektenkäfig{{color id=\"65535\"}} gesehen?{{pageBreak}}{{anim id=\"ShyBoy\" target=\"actor\" targetSpec=\"\"}}Falls du aus irgendeinem Grund die\nvon dir gefangenen Exemplare nicht\nbehalten willst,{{delay8}} wende dich an mich.\nMit Freude befrei--{{delay20}}{{anim id=\"Eh\" target=\"actor\" targetSpec=\"\"}} KAUFE ich\nsie dir ab."
  },
  {
    "label": "120_a",
    "attribute": "0x00000000",
    "text": "Kaufe mir alle ab!"
  },
  {
    "label": "120_b",
    "attribute": "0x00000000",
    "text": "Insektenkäfig?"
  },
  {
    "label": "120_c",
    "attribute": "0x00000000",
    "text": "Seh ich mir gleich an!"
  },
  {
    "label": "123",
    "attribute": "0x02000000",
    "text": "{{anim id=\"Eh\" target=\"actor\" targetSpec=\"\"}}W-{{delay8}}wirklich?! {{delay20}}Du hast ihre spirituelle\nFührung nicht nötig? {{delay20}}Ähm{{string value=\"...\"}}{{delay20}}\n{{anim id=\"Hesitate\" target=\"actor\" targetSpec=\"\"}}Ich bereite sogleich den Beleg vor.{{pageBreak}}{{anim id=\"AbsentMindedness\" target=\"actor\" targetSpec=\"\"}}Mal sehen{{string value=\"...\"}}{{delay20}} {{color id=\"1\"}}{{number value=\"1\" index=\"6\"}}{{color id=\"65535\"}} {{i50_8 x=\"0\" y=\"6\" a=\"\" b=\"Krabbelfreund\" c=\"Krabbelfreunde\"}}{{string value=\"...\"}}\nMetaphysische Eigenschaften, {{delay8}}Art\nund allgemeiner Zustand{{string value=\"...\"}}\n{{anim id=\"Explain\" target=\"actor\" targetSpec=\"\"}}Ich biete dafür {{number value=\"BuyPrice\" index=\"5\"}}.{{delay20}}\n{{anim id=\"QuestionMark\" target=\"actor\" targetSpec=\"\"}}Wie hört sich mein Angebot an?"
  },
  {
    "label": "123_a",
    "attribute": "0x00000000",
    "text": "Ich verkaufe!"
  },
  {
    "label": "123_b",
    "attribute": "0x00000000",
    "text": "Moment..."
  },
  {
    "label": "124",
    "attribute": "0x00000000",
    "text": "{{anim id=\"Eh\" target=\"actor\" targetSpec=\"\"}}Oh,{{delay8}} ähm{{string value=\"...\"}}{{delay20}} Dein Geldbeutel ist\nschon prall gefüllt. {{delay20}}{{anim id=\"Greeting\" target=\"actor\" targetSpec=\"\"}}Ich werde dir\nden Betrag einfach überweisen."
  },
  {
    "label": "125",
    "attribute": "0x00000000",
    "text": "{{anim id=\"FaintSmile\" target=\"actor\" targetSpec=\"\"}}D-{{delay8}}danke!"
  },
  {
    "label": "126",
    "attribute": "0x00000000",
    "text": "{{anim id=\"Eh\" target=\"actor\" targetSpec=\"\"}}Oh!{{delay20}} Ich sehe, {{delay8}}deine Geldbörse ist\nkurz vorm Bersten. {{delay20}}{{anim id=\"Greeting\" target=\"actor\" targetSpec=\"\"}}Die restlichen\nSternis packe ich dir in einen Beutel!"
  },
  {
    "label": "127",
    "attribute": "0x00000000",
    "text": "{{anim id=\"FaintSmile\" target=\"actor\" targetSpec=\"\"}}Jedes prachtvolle Exemplar im\n{{color id=\"1\"}}Insektenkäfig {{color id=\"65535\"}}wird bei mir ein\nschönes, neues Zuhause finden.\n{{anim id=\"Eh\" target=\"actor\" targetSpec=\"\"}}Das Turnier ist übrigens noch nicht\nvorbei, {{delay8}}du kannst gerne bei weiteren\nRunden mitmachen."
  },
  {
    "label": "128",
    "attribute": "0x00000000",
    "text": "{{anim id=\"FaintSmile\" target=\"actor\" targetSpec=\"\"}}Das nächste {{color id=\"1\"}}Insektikus-Turnier{{color id=\"65535\"}}\nwir im {{color id=\"1\"}}{{number value=\"Month\" index=\"0\"}}{{color id=\"65535\"}} zelebriert.{{pageBreak}}{{anim id=\"Hello\" target=\"actor\" targetSpec=\"\"}}Ich hoffe,{{delay8}} du nimmst dann wieder\nan unserem flattrigen,{{delay8}} summ- {{delay8}}und\nsurrenden Fest teil!"
  },
  {
    "label": "129",
    "attribute": "0x00000000",
    "text": "{{anim id=\"FaintSmile\" target=\"actor\" targetSpec=\"\"}}Das ist das letzte {{color id=\"1\"}}Insektikus-Turnier{{color id=\"65535\"}}\nin diesem Jahr. {{delay20}}Das nächste wird im\n{{color id=\"1\"}}{{number value=\"Month\" index=\"0\"}}{{color id=\"65535\"}} stattfinden.\n{{anim id=\"Serious\" target=\"actor\" targetSpec=\"\"}}Bereite dich schon einmal\ngut darauf vor."
  },
  {
    "label": "130",
    "attribute": "0x00000000",
    "text": "{{anim id=\"Explain\" target=\"actor\" targetSpec=\"\"}}Alle Exemplare, {{delay8}}die du gefangen\nhast, {{delay8}}werden zum {{color id=\"1\"}}Insektenkäfig{{color id=\"65535\"}}\nhier im Pavillon teleportiert.\n{{anim id=\"Nodding\" target=\"actor\" targetSpec=\"\"}}Dort stehen sie zur Abholung für\ndich bereit. {{delay20}}{{anim id=\"Pardon\" target=\"actor\" targetSpec=\"\"}}Lass dich von ihrem ma-\ngistralen Glanz nicht einschüchtern."
  },
  {
    "label": "131",
    "attribute": "0x00000000",
    "text": "{{anim id=\"Nodding\" target=\"actor\" targetSpec=\"\"}}Du kannst an einer weiteren\nTurnierrunde teilnehmen, {{delay8}}sobald du\ndeinen {{color id=\"1\"}}Insektenkäfig {{color id=\"65535\"}}geleert hast.\n{{anim id=\"Eh\" target=\"actor\" targetSpec=\"\"}}Vorsicht! {{delay20}}Nicht, {{delay8}}dass du dir am\nGlanz der Insekten deine sterblichen\nFinger verbrennst."
  },
  {
    "label": "132",
    "attribute": "0x00000000",
    "text": "{{anim id=\"Nodding\" target=\"actor\" targetSpec=\"\"}}Ich werde bis {{color id=\"1\"}}{{number value=\"Hour\" index=\"2\"}}:00 Uhr{{color id=\"65535\"}} hier\nsein, {{delay8}}um dir weitere Exemplare\nabzukaufen.{{pageBreak}}{{anim id=\"Silent\" target=\"actor\" targetSpec=\"\"}}Danach folge ich der Migration\nmeiner Schmetterlingsfreunde."
  },
  {
    "label": "133",
    "attribute": "0x00000000",
    "text": "{{anim id=\"Nodding\" target=\"actor\" targetSpec=\"\"}}Insekten sind Freigeister.{{delay20}} Der\n{{color id=\"1\"}}Insektenkäfig {{color id=\"65535\"}}wird spätestens\nmorgen um {{color id=\"1\"}}{{number value=\"Hour\" index=\"3\"}}:00 Uhr{{color id=\"65535\"}} geleert.\n{{anim id=\"Serious\" target=\"actor\" targetSpec=\"\"}}Kleiner Ratschlag:{{delay frames=\"40\"}}{{anim id=\"Explain\" target=\"actor\" targetSpec=\"\"}} Falls du an einem\nExemplar interessiert bist, {{delay8}}solltest\ndu es vorher respektvoll abholen."
  },
  {
    "label": "140",
    "attribute": "0x00000000",
    "text": "{{anim id=\"Eh\" target=\"actor\" targetSpec=\"\"}}Oh,{{delay8}} hallo!{{delay20}} {{anim id=\"FaintSmile\" target=\"actor\" targetSpec=\"\"}}Du hast doch am {{color id=\"1\"}}Insekti-\nkus-Turnier{{color id=\"65535\"}} teilgenommen?{{delay20}} Seltsam,{{delay8}}\ndass wir uns erst jetzt treffen.\n{{anim id=\"Hello\" target=\"actor\" targetSpec=\"\"}}Ich bin {{color id=\"3\"}}Carlson{{color id=\"65535\"}}, {{delay8}}ich leite die\nVeranstaltung. {{delay20}}Vielglieder-Bildhauer\nund Ungeziefer-Virtuose.\n{{anim id=\"Nodding\" target=\"actor\" targetSpec=\"\"}}Auch bekannt als Krabbeltier-\nKünstler!{{delay20}}{{anim id=\"QuestionMark\" target=\"actor\" targetSpec=\"\"}} Hast du das Turnier\ngenossen?\n{{anim id=\"Serious\" target=\"actor\" targetSpec=\"\"}}Konntest du deinen krabbeligen\nSeelenverwandten finden{{string value=\"...\"}}{{delay20}} der dir\nzur Erleuchtung verhilft?"
  },
  {
    "label": "141",
    "attribute": "0x00000000",
    "text": "{{anim id=\"FaintSmile\" target=\"actor\" targetSpec=\"\"}}Oh,{{delay8}} ähm,{{delay8}} wie war es? {{delay20}}{{anim id=\"QuestionMark\" target=\"actor\" targetSpec=\"\"}}Konntest du\nFortschritte auf deinem Weg zur\ninsektomenalen Erlösung machen?"
  },
  {
    "label": "142",
    "attribute": "0x00000000",
    "text": "{{anim id=\"Worried\" target=\"actor\" targetSpec=\"\"}}Oh,{{delay8}} verstehe.{{delay20}} Dein Kescher konnte\nsich nicht ganz mit dem{{string value=\"...\"}}{{delay20}} {{anim id=\"BrokenHeart\" target=\"actor\" targetSpec=\"\"}}spirituellen\nReich der Insekten verbinden"
  },
  {
    "label": "143",
    "attribute": "0x00000000",
    "text": "{{anim id=\"FaintSmile\" target=\"actor\" targetSpec=\"\"}}Oh{{string value=\"...\"}}{{delay20}} Sind Besucher von anderen\nInseln unter den Teilnehmern,\n{{delay8}}können Bonuspunkte erzielt werden.\n{{anim id=\"Explain\" target=\"actor\" targetSpec=\"\"}}Ob das der Weg ist, {{delay8}}schnell viele\nPunkte zu machen?{{delay20}}{{anim id=\"Serious\" target=\"actor\" targetSpec=\"\"}} Das wirst du\nselbst herausfinden müssen."
  },
  {
    "label": "144",
    "attribute": "0x00000000",
    "text": "{{anim id=\"Eh\" target=\"actor\" targetSpec=\"\"}}Oh, {{delay8}}hallo! {{delay20}}Es freut mich, {{delay8}}{{anim id=\"Serious\" target=\"actor\" targetSpec=\"\"}}dass du\nan unserem heutigem {{color id=\"1\"}}Insektikus-\nTurnier {{color id=\"65535\"}}teilgenommen hast!{{pageBreak}}{{anim id=\"QuestionMark\" target=\"actor\" targetSpec=\"\"}}Hattest du Spaß?{{delay20}} Konntest du in\neine höhere spirituelle Ebene auf-\nsteigen? {{delay20}}Hast du Insekten gefangen?"
  },
  {
    "label": "145",
    "attribute": "0x00000000",
    "text": "{{anim id=\"Hello\" target=\"actor\" targetSpec=\"\"}}Oh,{{delay8}} ähm{{string value=\"...\"}}{{delay frames=\"40\"}} Die Vielfüßer scheinen\ndich heute nicht gesegnet zu haben.\n{{delay frames=\"40\"}}{{anim id=\"BrokenHeart\" target=\"actor\" targetSpec=\"\"}}Das tut mir leid{{string value=\"...\"}}\n{{anim id=\"Eh\" target=\"actor\" targetSpec=\"\"}}Insgesamt wurden aber {{color id=\"1\"}}{{number value=\"1\" index=\"9\"}} Punkte\n{{color id=\"65535\"}}erzielt{{string value=\"...\"}}{{delay frames=\"40\"}} Bonuspunkte gibt es ab\n{{color id=\"1\"}}{{number value=\"1\" index=\"10\"}} Punkten{{color id=\"65535\"}}.\n{{anim id=\"Nodding\" target=\"actor\" targetSpec=\"\"}}Du darfst dich also freuen.{{delay20}} Denn\nsomit bekommst du {{color id=\"1\"}}{{number value=\"1\" index=\"7\"}} {{i50_8 x=\"0\" y=\"7\" a=\"Punkte\" b=\"Punkt\" c=\"Punkte\"}}{{color id=\"65535\"}}!"
  },
  {
    "label": "146",
    "attribute": "0x00000000",
    "text": "{{anim id=\"Eh\" target=\"actor\" targetSpec=\"\"}}Falls du einen deiner Krabbelfreunde\nsuchst, {{delay8}}den du diese Runde gefangen\nhast. {{delay20}}{{anim id=\"Greeting\" target=\"actor\" targetSpec=\"\"}}Die sind alle im {{color id=\"1\"}}Insektenkäfig{{color id=\"65535\"}}.\n{{anim id=\"Hesitate\" target=\"actor\" targetSpec=\"\"}}Ich bin ein freudiger Abnehmer, {{delay8}}wenn\ndu keine langfristige Beziehung\neingehen willst.\n{{anim id=\"EmotEnd\" target=\"actor\" targetSpec=\"\"}}Doch vor dem Verkaufsgespräch {{delay8}}{{anim id=\"Nodding\" target=\"actor\" targetSpec=\"\"}}lass\nuns erst alle Ergebnisse auswerten."
  },
  {
    "label": "147",
    "attribute": "0x00000000",
    "text": "{{anim id=\"Nodding\" target=\"actor\" targetSpec=\"\"}}Im {{color id=\"1\"}}Insektenkäfig {{color id=\"65535\"}}{{i50_8 x=\"0\" y=\"8\" a=\"sind\" b=\"ist\" c=\"sind\"}} diesmal\ninsgesamt {{color id=\"1\"}}{{number value=\"1\" index=\"8\"}} {{color id=\"65535\"}}{{i50_8 x=\"0\" y=\"8\" a=\"Exemplare\" b=\"Exemplar\" c=\"Exemplare\"}} gelandet{{string value=\"...\"}}{{pageBreak}}{{anim id=\"Serious\" target=\"actor\" targetSpec=\"\"}}Wunderbar.{{delay frames=\"30\"}}\nDas {{i50_8 x=\"0\" y=\"7\" a=\"sind\" b=\"ist\" c=\"sind\"}} dann {{color id=\"1\"}}{{number value=\"Count\" index=\"7\"}} {{i50_8 x=\"0\" y=\"7\" a=\"Punkte\" b=\"Punkt\" c=\"Punkte\"}}{{color id=\"65535\"}}."
  },
  {
    "label": "148",
    "attribute": "0x00000000",
    "text": "{{anim id=\"Nodding\" target=\"actor\" targetSpec=\"\"}}Im {{color id=\"1\"}}Insektenkäfig {{color id=\"65535\"}}{{i50_8 x=\"0\" y=\"8\" a=\"sind\" b=\"ist\" c=\"sind\"}} insgesamt\n{{color id=\"1\"}}{{number value=\"1\" index=\"8\"}} {{color id=\"65535\"}}{{i50_8 x=\"0\" y=\"8\" a=\"Exemplare\" b=\"Exemplar\" c=\"Exemplare\"}} gelandet{{string value=\"...\"}}{{delay frames=\"40\"}} {{anim id=\"Eh\" target=\"actor\" targetSpec=\"\"}}Und {{color id=\"1\"}}ab {{number value=\"1\" index=\"4\"}}\n{{color id=\"65535\"}}gibt es noch einen Bonus obendrauf.\n{{anim id=\"Silent\" target=\"actor\" targetSpec=\"\"}}Wundervoll.{{delay20}} Somit erhältst du\n{{color id=\"1\"}}{{number value=\"Count\" index=\"7\"}} Punkte{{color id=\"65535\"}} von mir!"
  },
  {
    "label": "149",
    "attribute": "0x00000000",
    "text": "{{anim id=\"Silent\" target=\"actor\" targetSpec=\"\"}}Hmm{{string value=\"...\"}}{{delay20}} {{anim id=\"Thinking\" target=\"actor\" targetSpec=\"\"}}Mal sehen{{string value=\"...\"}} Alle Pilger,{{delay8}}\nähm, {{delay8}}Teilnehmer haben zusammen\n{{color id=\"1\"}}{{number value=\"Count\" index=\"9\"}} {{i50_8 x=\"0\" y=\"9\" a=\"Exemplare\" b=\"Exemplar\" c=\"Exemplare\"}} {{color id=\"65535\"}}gefangen.\n{{anim id=\"EmotEnd\" target=\"actor\" targetSpec=\"\"}}Das sind {{color id=\"1\"}}{{number value=\"1\" index=\"10\"}} oder mehr{{color id=\"65535\"}}{{string value=\"...\"}}{{delay20}}\nSomit erhalten alle einen Bonus.{{pageBreak}}{{anim id=\"Nodding\" target=\"actor\" targetSpec=\"\"}}Du hast {{color id=\"1\"}}{{number value=\"1\" index=\"8\"}} {{i50_8 x=\"0\" y=\"8\" a=\"Exemplare\" b=\"Exemplar\" c=\"Exemplare\"}} {{color id=\"65535\"}}gefangen.{{delay frames=\"40\"}}\nDazu den Bonus, {{delay8}}macht{{string value=\"...\"}}{{delay20}}\n{{anim id=\"Serious\" target=\"actor\" targetSpec=\"\"}}{{color id=\"1\"}}{{number value=\"Count\" index=\"7\"}} {{i50_8 x=\"0\" y=\"7\" a=\"Punkte\" b=\"Punkt\" c=\"Punkte\"}}{{color id=\"65535\"}}!"
  },
  {
    "label": "150",
    "attribute": "0x00000000",
    "text": "{{anim id=\"Silent\" target=\"actor\" targetSpec=\"\"}}Hmm{{string value=\"...\"}}{{delay20}} {{anim id=\"Thinking\" target=\"actor\" targetSpec=\"\"}}Mal sehen{{string value=\"...\"}} Alle Pilger,{{delay8}}\nähm, {{delay8}}Teilnehmer haben zusammen\n{{color id=\"1\"}}{{number value=\"Count\" index=\"9\"}} {{i50_8 x=\"0\" y=\"9\" a=\"Exemplare\" b=\"Exemplar\" c=\"Exemplare\"}} {{color id=\"65535\"}}gefangen.\n{{anim id=\"EmotEnd\" target=\"actor\" targetSpec=\"\"}}Das sind {{color id=\"1\"}}{{number value=\"1\" index=\"10\"}} oder mehr{{color id=\"65535\"}}{{string value=\"...\"}}{{delay8}}\nSomit erhalten alle einen Bonus.{{pageBreak}}{{anim id=\"Nodding\" target=\"actor\" targetSpec=\"\"}}Und du hast {{color id=\"1\"}}{{number value=\"1\" index=\"8\"}} {{i50_8 x=\"0\" y=\"8\" a=\"Exemplare\" b=\"Exemplar\" c=\"Exemplare\"}} {{color id=\"65535\"}}gefangen,\n{{delay8}}dann kriegst du noch einen Bonus für\n{{color id=\"1\"}}{{number value=\"1\" index=\"4\"}} oder mehr {{color id=\"65535\"}}obendrauf.{{pageBreak}}{{anim id=\"Explain\" target=\"actor\" targetSpec=\"\"}}Und da du {{color id=\"1\"}}{{number value=\"1\" index=\"8\"}} {{i50_8 x=\"0\" y=\"8\" a=\"Exemplare\" b=\"Exemplar\" c=\"Exemplare\"}} {{color id=\"65535\"}}gefangen\nhast,{{delay20}} ergibt das nach Zusammen-\nrechnen aller Boni{{string value=\"...\"}}{{pageBreak}}{{anim id=\"Shocked\" target=\"actor\" targetSpec=\"\"}}Insektomenal!{{delay frames=\"30\"}}{{anim id=\"BigSmile\" target=\"actor\" targetSpec=\"\"}} Das sind ja dann\ninsgesamt unglaubliche {{color id=\"1\"}}{{number value=\"Count\" index=\"7\"}} Punkte{{color id=\"65535\"}}!"
  },
  {
    "label": "151",
    "attribute": "0x00000000",
    "text": "{{anim id=\"Nodding\" target=\"actor\" targetSpec=\"\"}}Im {{color id=\"1\"}}Insektenkäfig {{color id=\"65535\"}}{{i50_8 x=\"0\" y=\"8\" a=\"sind\" b=\"ist\" c=\"sind\"}} insgesamt\n{{color id=\"1\"}}{{number value=\"1\" index=\"8\"}} {{color id=\"65535\"}}{{i50_8 x=\"0\" y=\"8\" a=\"Exemplare\" b=\"Exemplar\" c=\"Exemplare\"}} gelandet{{string value=\"...\"}}{{delay frames=\"40\"}} {{anim id=\"FaintSmile\" target=\"actor\" targetSpec=\"\"}}Eine\naußerordentliche Geschwindigkeit!\n{{anim id=\"Explain\" target=\"actor\" targetSpec=\"\"}}Mehr als 20 sollte man nicht auf\nkleinem Raum allein lassen, {{delay20}}{{anim id=\"Surprised\" target=\"actor\" targetSpec=\"\"}}sonst\nstarten sie eine Verschwörung!\n{{anim id=\"Hesitate\" target=\"actor\" targetSpec=\"\"}}Deshalb habe ich ein paar Insassen\ndes {{color id=\"1\"}}Insektenkäfigs{{color id=\"65535\"}} freigelassen.{{pageBreak}}{{anim id=\"Nodding\" target=\"actor\" targetSpec=\"\"}}Glaub mir, {{delay8}}es ist zu unser aller\nBestem,{{delay20}}{{anim id=\"ShyBoy\" target=\"actor\" targetSpec=\"\"}} also weine ihnen bitte\nnicht allzu viele Tränen nach.\n{{anim id=\"Eh\" target=\"actor\" targetSpec=\"\"}}Punkte bekommst du natürlich!{{delay frames=\"40\"}}\n{{anim id=\"Thinking\" target=\"actor\" targetSpec=\"\"}}Und zwar {{color id=\"1\"}}{{number value=\"1\" index=\"8\"}}{{color id=\"65535\"}},{{delay20}} plus den Bonus\nfür {{color id=\"1\"}}{{number value=\"1\" index=\"4\"}} oder mehr{{color id=\"65535\"}} Tierchen{{string value=\"...\"}}\n{{anim id=\"Silent\" target=\"actor\" targetSpec=\"\"}}Insgesamt also {{color id=\"1\"}}{{number value=\"Count\" index=\"7\"}} {{i50_8 x=\"0\" y=\"7\" a=\"Punkte\" b=\"Punkt\" c=\"Punkte\"}}{{color id=\"65535\"}}!"
  },
  {
    "label": "152",
    "attribute": "0x00000000",
    "text": "{{anim id=\"Nodding\" target=\"actor\" targetSpec=\"\"}}Im {{color id=\"1\"}}Insektenkäfig {{color id=\"65535\"}}{{i50_8 x=\"0\" y=\"8\" a=\"sind\" b=\"ist\" c=\"sind\"}} insgesamt\n{{color id=\"1\"}}{{number value=\"1\" index=\"8\"}} {{color id=\"65535\"}}{{i50_8 x=\"0\" y=\"8\" a=\"Exemplare\" b=\"Exemplar\" c=\"Exemplare\"}} gelandet{{string value=\"...\"}}{{delay frames=\"40\"}} {{anim id=\"FaintSmile\" target=\"actor\" targetSpec=\"\"}}Eine\naußerordentliche Geschwindigkeit!\n{{anim id=\"Explain\" target=\"actor\" targetSpec=\"\"}}Mehr als 20 sollte man nicht auf\nkleinem Raum allein lassen, {{delay20}}{{anim id=\"Surprised\" target=\"actor\" targetSpec=\"\"}}sonst\nstarten sie eine Verschwörung!\n{{anim id=\"Hesitate\" target=\"actor\" targetSpec=\"\"}}Deshalb habe ich ein paar Insassen\ndes {{color id=\"1\"}}Insektenkäfigs{{color id=\"65535\"}} freigelassen.{{pageBreak}}{{anim id=\"Nodding\" target=\"actor\" targetSpec=\"\"}}Glaub mir, {{delay8}}es ist zu unser aller\nBestem,{{delay20}}{{anim id=\"ShyBoy\" target=\"actor\" targetSpec=\"\"}} also weine ihnen bitte\nnicht allzu viele Tränen nach.\n{{anim id=\"Eh\" target=\"actor\" targetSpec=\"\"}}Punkte bekommst du natürlich!{{delay20}}\n{{anim id=\"Thinking\" target=\"actor\" targetSpec=\"\"}}Und zwar {{color id=\"1\"}}{{number value=\"1\" index=\"8\"}}{{color id=\"65535\"}},{{delay20}} plus den Bonus\nfür {{color id=\"1\"}}{{number value=\"1\" index=\"4\"}} oder mehr{{color id=\"65535\"}} Tierchen{{string value=\"...\"}}\n{{string value=\"...\"}}Alle Pilger,{{delay8}} ähm, {{delay8}}Teilnehmer haben\nzusammen {{color id=\"1\"}}{{number value=\"Count\" index=\"9\"}} {{i50_8 x=\"0\" y=\"9\" a=\"Exemplare\" b=\"Exemplar\" c=\"Exemplare\"}} {{color id=\"65535\"}}gefangen.{{pageBreak}}{{anim id=\"Serious\" target=\"actor\" targetSpec=\"\"}}Das sind {{color id=\"1\"}}{{number value=\"1\" index=\"10\"}} oder mehr{{color id=\"65535\"}}{{string value=\"...\"}}{{delay20}}\nSomit kommt noch ein Bonus dazu.{{pageBreak}}{{anim id=\"Silent\" target=\"actor\" targetSpec=\"\"}}Insgesamt wären wir also bei\n{{color id=\"1\"}}{{number value=\"Count\" index=\"7\"}} {{i50_8 x=\"0\" y=\"7\" a=\"Punkten\" b=\"Punkt\" c=\"Punkten\"}}{{color id=\"65535\"}}!"
  },
  {
    "label": "160",
    "attribute": "0x00000000",
    "text": "{{anim id=\"Explain\" target=\"actor\" targetSpec=\"\"}}Der {{color id=\"1\"}}Insektenkäfig{{color id=\"65535\"}} mit allen\nExemplaren, {{delay8}}die du gefangen\nhast,{{delay8}} steht hier im Pavillon.\n{{anim id=\"AbsentMindedness\" target=\"actor\" targetSpec=\"\"}}Folge einfach dem Duft nach Nektar\nund Ambrosia. {{anim id=\"Nodding\" target=\"actor\" targetSpec=\"\"}}Übrigens sind da auch\ndie Exemplare deiner Mitpilger.\n{{anim id=\"FaintSmile\" target=\"actor\" targetSpec=\"\"}}Unerwünschte Exemplare nehme ich\ngerne entgegen. {{delay20}}{{anim id=\"Greeting\" target=\"actor\" targetSpec=\"\"}}Sprich mich einfach\nan,{{delay8}} und ich mache dir ein Angebot.\n{{anim id=\"Nodding\" target=\"actor\" targetSpec=\"\"}}Aber zuerst muss ich die Ergebnisse\nder Runde verkünden!"
  },
  {
    "label": "161",
    "attribute": "0x00000000",
    "text": "{{anim id=\"Greeting\" target=\"actor\" targetSpec=\"\"}}Die Regeln des {{color id=\"1\"}}Insektikus-Turniers\n{{color id=\"65535\"}}sind simpel.{{delay20}} Fange innerhalb von\n{{color id=\"1\"}}{{number value=\"0\" index=\"14\"}} Minuten {{color id=\"65535\"}}möglichst viele Insekten.\n{{anim id=\"AbsentMindedness\" target=\"actor\" targetSpec=\"\"}}Abhängig von der Anzahl an\nInsekten, {{delay8}}die deinen Kescher\nsegnen, {{delay8}}erhältst du Punkte.{{pageBreak}}{{anim id=\"Explain\" target=\"actor\" targetSpec=\"\"}}Die Punkte kannst du gegen\ninsektomenale Relikte eintauschen,{{delay8}}\ndie ich,{{delay8}} ähm{{string value=\"...\"}}{{delay20}} {{anim id=\"Blushing\" target=\"actor\" targetSpec=\"\"}}erworben habe.\n{{anim id=\"Nodding\" target=\"actor\" targetSpec=\"\"}}Du kannst auch einer Wallfahrt\nmehrerer Insektenfänger vorstehen\nund gemeinsam Punkte sammeln.\n{{anim id=\"Eh\" target=\"actor\" targetSpec=\"\"}}Aber nur der Anführer der Wallfahrt\nerhält die Punkte.{{delay20}} Ihr solltet euch\nalso vorher absprechen."
  },
  {
    "label": "162",
    "attribute": "0x00000000",
    "text": "{{anim id=\"Pardon\" target=\"actor\" targetSpec=\"\"}}Alle Exemplare, {{delay8}}die du fängst,{{delay8}}\nwerden durch Zauberhand in den\n{{color id=\"1\"}}Insektenkäfig{{color id=\"65535\"}} im Pavillon teleportiert.\n{{anim id=\"FaintSmile\" target=\"actor\" targetSpec=\"\"}}Jeder, {{delay8}}der einen Kescher besitzt,{{delay8}}\ndarf teilnehmen. {{delay20}}{{anim id=\"AbsentMindedness\" target=\"actor\" targetSpec=\"\"}}Egal,{{delay8}} ob seine\nTasche voll wie ein Wespennest ist!"
  },
  {
    "label": "163",
    "attribute": "0x00000000",
    "text": "Gut,{{delay20}} {{anim id=\"Serious\" target=\"actor\" targetSpec=\"\"}}die Runde beginnt, {{delay8}}sobald\nunser kleines Gespräch vorbei ist.\n{{delay20}}Dann habt ihr genau {{color id=\"1\"}}{{number value=\"0\" index=\"14\"}} Minuten {{color id=\"65535\"}}Zeit.\n{{anim id=\"Nodding\" target=\"actor\" targetSpec=\"\"}}Die Exemplare,{{delay8}} die deine Mitstreiter\nund Mitpilger fangen,{{delay8}} werden auch\nin den {{color id=\"1\"}}Insektenkäfig {{color id=\"65535\"}}teleportiert.\n{{anim id=\"Explain\" target=\"actor\" targetSpec=\"\"}}Sie werden zu deinem Ergebnis\ngezählt. {{delay20}}Fangt ihr {{color id=\"1\"}}{{number value=\"1\" index=\"4\"}} Exemplare oder\nmehr{{color id=\"65535\"}},{{delay8}} erhaltet ihr Bonuspunkte.\n{{anim id=\"Greeting\" target=\"actor\" targetSpec=\"\"}}Viel Glück bei der Insektenanbetung,{{delay20}}\nähm,{{delay20}} -jagd.{{delay frames=\"40\"}}{{anim id=\"Silent\" target=\"actor\" targetSpec=\"\"}} Auf die Plätze{{string value=\"...\"}}{{delay20}} fertig{{string value=\"...\"}}{{delay20}}\nund los!"
  },
  {
    "label": "164",
    "attribute": "0x00000000",
    "text": "{{anim id=\"Eh\" target=\"actor\" targetSpec=\"\"}}Bei einer Teilnahme als Gruppe erhält\nübrigens nur der Anführer Punkte.{{delay20}}{{anim id=\"Serious\" target=\"actor\" targetSpec=\"\"}}\nIhr müsst euch also gut absprechen.{{pageBreak}}{{anim id=\"EmotEnd\" target=\"actor\" targetSpec=\"\"}}Alle während der Runde gefangenen\nInsekten{{delay20}} {{anim id=\"Nodding\" target=\"actor\" targetSpec=\"\"}}tauchen auf mystische\nWeise im {{color id=\"1\"}}Insektenkäfig{{color id=\"65535\"}} hier auf.{{pageBreak}}{{anim id=\"EmotEnd\" target=\"actor\" targetSpec=\"\"}}Egal, welcher Pilger den Kescher\nschwingt –{{delay20}} {{anim id=\"Serious\" target=\"actor\" targetSpec=\"\"}}der Fang landet stets\nin deinem {{color id=\"1\"}}Insektenkäfig{{color id=\"65535\"}}."
  },
  {
    "label": "165",
    "attribute": "0x02000000",
    "text": "{{anim id=\"QuestionMark\" target=\"actor\" targetSpec=\"\"}}Möchtet ihr also beim {{color id=\"1\"}}Insektikus-\nTurnier{{color id=\"65535\"}} mitmachen?{{pageBreak}}{{anim id=\"EmotEnd\" target=\"actor\" targetSpec=\"\"}}Du hast schon einmal eine Wallfahrt\nangeführt, {{delay8}}{{anim id=\"Serious\" target=\"actor\" targetSpec=\"\"}}deshalb müsstest du\n{{color id=\"1\"}}{{number value=\"21\" index=\"2\"}}{{color id=\"65535\"}} bezahlen."
  },
  {
    "label": "165_a",
    "attribute": "0x00000000",
    "text": "Wir nehmen teil!"
  },
  {
    "label": "165_b",
    "attribute": "0x00000000",
    "text": "{{anim id=\"Negative\" target=\"actor\" targetSpec=\"\"}}Momentan nicht..."
  },
  {
    "label": "166",
    "attribute": "0x02000000",
    "text": "{{anim id=\"QuestionMark\" target=\"actor\" targetSpec=\"\"}}Möchtet ihr beim {{color id=\"1\"}}Insektikus-Turnier{{color id=\"65535\"}}\nmitmachen?{{i10_4}} {{anim id=\"EmotEnd\" target=\"actor\" targetSpec=\"\"}}{{size value=\"75\"}}Wenn du die Pilgerfahrt\nzum ersten Mal leitest, {{delay8}}ist sie umsonst!{{size value=\"100\"}}"
  },
  {
    "label": "166_a",
    "attribute": "0x00000000",
    "text": "Wir nehmen teil!"
  },
  {
    "label": "166_b",
    "attribute": "0x00000000",
    "text": "{{anim id=\"Negative\" target=\"actor\" targetSpec=\"\"}}Momentan nicht..."
  },
  {
    "label": "167",
    "attribute": "0x06000000",
    "text": "{{anim id=\"QuestionMark\" target=\"actor\" targetSpec=\"\"}}Möchtet ihr beim {{color id=\"1\"}}Insektikus-Turnier{{color id=\"65535\"}}\nmitmachen?{{i10_4}} {{anim id=\"EmotEnd\" target=\"actor\" targetSpec=\"\"}}{{size value=\"75\"}}Wenn du die Pilgerfahrt\nzum ersten Mal leitest, {{delay8}}ist sie umsonst!{{size value=\"100\"}}"
  },
  {
    "label": "167_a",
    "attribute": "0x00000000",
    "text": "Wir nehmen teil!"
  },
  {
    "label": "167_b",
    "attribute": "0x00000000",
    "text": "Wie sind die Regeln?"
  },
  {
    "label": "167_c",
    "attribute": "0x00000000",
    "text": "Punkte einlösen!"
  },
  {
    "label": "167_d",
    "attribute": "0x00000000",
    "text": "{{anim id=\"Negative\" target=\"actor\" targetSpec=\"\"}}Momentan nicht..."
  },
  {
    "label": "168",
    "attribute": "0x00000000",
    "text": "{{anim id=\"Eh\" target=\"actor\" targetSpec=\"\"}}Erfüllt die Energie des {{color id=\"1\"}}Insektikus-\nTurniers{{color id=\"65535\"}} deinen ganzen Körper?\n{{delay20}}{{anim id=\"Nodding\" target=\"actor\" targetSpec=\"\"}}Mach mit,{{delay8}} gerne auch mit Begleitung!"
  },
  {
    "label": "169",
    "attribute": "0x00000000",
    "text": "{{anim id=\"Eh\" target=\"actor\" targetSpec=\"\"}}Heute trennen sich die Puppen von\nden Larven – {{delay20}}{{anim id=\"Nodding\" target=\"actor\" targetSpec=\"\"}}das {{color id=\"1\"}}Insektikus-Turnier\n{{color id=\"65535\"}}ist da!\n{{anim id=\"FaintSmile\" target=\"actor\" targetSpec=\"\"}}Um {{color id=\"1\"}}{{number value=\"Hour\" index=\"0\"}}:00 Uhr{{color id=\"65535\"}} geht es los.{{delay20}} Spürt\nihr schon das Kribbeln? {{delay frames=\"40\"}}{{anim id=\"Silent\" target=\"actor\" targetSpec=\"\"}}Überall auf\neurer Haut?"
  },
  {
    "label": "170",
    "attribute": "0x00000000",
    "text": "{{anim id=\"Thinking\" target=\"actor\" targetSpec=\"\"}}Ich hoffe, {{delay8}}das {{color id=\"1\"}}Insektikus-Turnier {{color id=\"65535\"}}hat\neuch bereichert. {{delay20}}{{anim id=\"Nodding\" target=\"actor\" targetSpec=\"\"}}Hat es euch eurem\ninneren Insekt nähergebracht?"
  },
  {
    "label": "171",
    "attribute": "0x06000000",
    "text": "{{anim id=\"Eh\" target=\"actor\" targetSpec=\"\"}}Wie geht es euch? {{delay frames=\"40\"}}{{anim id=\"Nodding\" target=\"actor\" targetSpec=\"\"}}Seid ihr bereit,{{delay8}}\neuch der Herausforderung des\n{{color id=\"1\"}}Insektikus-Turniers{{color id=\"65535\"}} zu stellen?\n{{anim id=\"FaintSmile\" target=\"actor\" targetSpec=\"\"}}Die Erstteilnahme ist ganz und gar\nkostenlos –{{delay20}} {{anim id=\"EmotEnd\" target=\"actor\" targetSpec=\"\"}}auch für jegliche\nMitpilger, {{delay8}}die dich begleiten."
  },
  {
    "label": "171_a",
    "attribute": "0x00000000",
    "text": "Wir nehmen teil!"
  },
  {
    "label": "171_b",
    "attribute": "0x00000000",
    "text": "Wie sind die Regeln?"
  },
  {
    "label": "171_c",
    "attribute": "0x00000000",
    "text": "Punkte einlösen!"
  },
  {
    "label": "171_d",
    "attribute": "0x00000000",
    "text": "{{anim id=\"Negative\" target=\"actor\" targetSpec=\"\"}}Momentan nicht..."
  },
  {
    "label": "200",
    "attribute": "0x00000000",
    "text": "Und damit{{string value=\"...\"}}{{delay40}}{{anim id=\"Aha\" target=\"actor\" targetSpec=\"\"}} Oh!{{delay40}} {{anim id=\"EmotEnd\" target=\"actor\" targetSpec=\"\"}}Du hast beim\n{{color id=\"1\"}}Insektikus-Turnier{{color id=\"65535\"}} jetzt insgesamt\nschon {{anim id=\"FaintSmile\" target=\"actor\" targetSpec=\"\"}}{{color id=\"1\"}}{{number value=\"Count\" index=\"11\"}} Punkte{{color id=\"65535\"}} erzielt!\n{{anim id=\"Nodding\" target=\"actor\" targetSpec=\"\"}}Im Namen aller Krabbeltiere möchte\nich dir für deine Hingabe danken!{{delay20}}\n{{anim id=\"FaintSmile\" target=\"actor\" targetSpec=\"\"}}Dein Preis kommt dann mit der Post."
  },
  {
    "label": "201",
    "attribute": "0x00000000",
    "text": "Und damit{{string value=\"...\"}}{{delay40}}{{anim id=\"Aha\" target=\"actor\" targetSpec=\"\"}} Oh!{{delay40}} {{anim id=\"EmotEnd\" target=\"actor\" targetSpec=\"\"}}Du hast beim\n{{color id=\"1\"}}Insektikus-Turnier{{color id=\"65535\"}} jetzt insgesamt\nschon {{anim id=\"FaintSmile\" target=\"actor\" targetSpec=\"\"}}{{color id=\"1\"}}{{number value=\"Count\" index=\"12\"}} Punkte{{color id=\"65535\"}} erzielt!\n{{anim id=\"Nodding\" target=\"actor\" targetSpec=\"\"}}Im Namen aller Krabbeltiere möchte\nich dir für deine Hingabe danken!{{delay20}}\n{{anim id=\"FaintSmile\" target=\"actor\" targetSpec=\"\"}}Dein Preis kommt dann mit der Post."
  },
  {
    "label": "202",
    "attribute": "0x00000000",
    "text": "Und damit{{string value=\"...\"}}{{delay40}}{{anim id=\"Aha\" target=\"actor\" targetSpec=\"\"}} Oh!{{delay40}} {{anim id=\"EmotEnd\" target=\"actor\" targetSpec=\"\"}}Du hast beim\n{{color id=\"1\"}}Insektikus-Turnier{{color id=\"65535\"}} jetzt insgesamt\nschon {{anim id=\"FaintSmile\" target=\"actor\" targetSpec=\"\"}}{{color id=\"1\"}}{{number value=\"Count\" index=\"13\"}} Punkte{{color id=\"65535\"}} erzielt!\n{{anim id=\"Nodding\" target=\"actor\" targetSpec=\"\"}}Im Namen aller Krabbeltiere möchte\nich dir für deine Hingabe danken!{{delay20}}\n{{anim id=\"FaintSmile\" target=\"actor\" targetSpec=\"\"}}Dein Preis kommt dann mit der Post."
  },
  {
    "label": "207",
    "attribute": "0x00000000",
    "text": "{{anim id=\"Nodding\" target=\"actor\" targetSpec=\"\"}}Aber zurück zum Tagesgeschäft{{string value=\"...\"}}"
  },
  {
    "label": "208",
    "attribute": "0x00000000",
    "text": "{{anim id=\"FaintSmile\" target=\"actor\" targetSpec=\"\"}}Wenn du Punkte verdienst, {{delay8}}werden\nsie automatisch zu deinem\nPunktekonto dazugerechnet."
  },
  {
    "label": "209",
    "attribute": "0x00000000",
    "text": "{{anim id=\"Eh\" target=\"actor\" targetSpec=\"\"}}Sobald du genug Punkte hast, {{delay8}}kannst\ndu sie gegen mystische Relikte mit\nInsektenbezug eintauschen!\n{{anim id=\"Silent\" target=\"actor\" targetSpec=\"\"}}Zwinker mir unauffällig zu,\n{{delay8}}wenn es so weit ist."
  },
  {
    "label": "210",
    "attribute": "0x00000000",
    "text": "{{anim id=\"Nodding\" target=\"actor\" targetSpec=\"\"}}Gesammelte Punkte bleiben bei\njedem {{color id=\"1\"}}Insektikus-Turnier{{color id=\"65535\"}} gültig.\n{{delay20}}{{anim id=\"Silent\" target=\"actor\" targetSpec=\"\"}}Mögen die Prachtfalter mit dir sein!"
  },
  {
    "label": "300",
    "attribute": "0x00000000",
    "text": "Ja, Punkte einlösen!"
  },
  {
    "label": "301",
    "attribute": "0x00000000",
    "text": "{{anim id=\"Negative\" target=\"actor\" targetSpec=\"\"}}Danke, jetzt nicht."
  },
  {
    "label": "302",
    "attribute": "0x00000000",
    "text": "Ja, Punkte einlösen!"
  },
  {
    "label": "303",
    "attribute": "0x00000000",
    "text": "{{anim id=\"Negative\" target=\"actor\" targetSpec=\"\"}}Danke, jetzt nicht."
  },
  {
    "label": "304",
    "attribute": "0x00000000",
    "text": "Punkte einlösen!"
  },
  {
    "label": "305",
    "attribute": "0x00000000",
    "text": "{{anim id=\"Negative\" target=\"actor\" targetSpec=\"\"}}Nichts, nichts..."
  },
  {
    "label": "306",
    "attribute": "0x00000000",
    "text": "Ich will teilnehmen!"
  },
  {
    "label": "307",
    "attribute": "0x00000000",
    "text": "Wie sind die Regeln?"
  },
  {
    "label": "308",
    "attribute": "0x00000000",
    "text": "Punkte einlösen!"
  },
  {
    "label": "309",
    "attribute": "0x00000000",
    "text": "{{anim id=\"Negative\" target=\"actor\" targetSpec=\"\"}}Momentan nicht..."
  },
  {
    "label": "310",
    "attribute": "0x00000000",
    "text": "Einlösen, bitte."
  },
  {
    "label": "311",
    "attribute": "0x00000000",
    "text": "{{anim id=\"Negative\" target=\"actor\" targetSpec=\"\"}}Ich sammele noch..."
  },
  {
    "label": "314",
    "attribute": "0x00000000",
    "text": "Etwas anderes..."
  },
  {
    "label": "315",
    "attribute": "0x00000000",
    "text": "Käfer verkaufen!"
  },
  {
    "label": "316",
    "attribute": "0x00000000",
    "text": "Gerne!"
  },
  {
    "label": "317",
    "attribute": "0x00000000",
    "text": "{{anim id=\"Negative\" target=\"actor\" targetSpec=\"\"}}Danke, jetzt nicht."
  }
]