﻿[
  {
    "label": "001",
    "text": "Per {{string value=\"NickName\"}}!"
  },
  {
    "label": "002",
    "text": "{{gender2 m=\"Al mon cher\" f=\"Alla ma chère\"}} {{string value=\"NickName\"}}!"
  },
  {
    "label": "003",
    "text": "All'adoraaabile {{string value=\"NickName\"}}!"
  },
  {
    "label": "004",
    "text": "{{gender2 m=\"Al mio caro\" f=\"Alla mia cara\"}} {{string value=\"NickName\"}}!"
  },
  {
    "label": "005",
    "text": "Salut, {{string value=\"NickName\"}}!"
  },
  {
    "label": "101",
    "text": "Volevo dirti che ho apprezzato\nmoltissimissimo il tuo pensierino!"
  },
  {
    "label": "102",
    "text": "Il tuo delizioso regalino mi ha\nstupita e mi ha scaldato il cuore!"
  },
  {
    "label": "103",
    "text": "Adoooro il tuo regalo e la tua\ngénérosité mi ha molto colpita!"
  },
  {
    "label": "104",
    "text": "Il tuo regalino mi ha fatto sentire\nmolto amata!"
  },
  {
    "label": "105",
    "text": "C'est magnifique ricevere un regalo\ninaspettato e così affettuoso!"
  },
  {
    "label": "201",
    "text": "Ha significato molto per me che tu\nmi abbia dedicato un po' del tuo\ntempo prezioso!"
  },
  {
    "label": "202",
    "text": "Ti scrivo nella speranza che le mie\nparole riescano a comunicarti\nla grande gioia che mi hai dato!"
  },
  {
    "label": "203",
    "text": "La mia gratitudine è sincera.\nSono davvero fortunata ad avere\n{{gender2 m=\"un amico\" f=\"un'amica\"}} generos{{gender2 m=\"o\" f=\"a\"}} come te!"
  },
  {
    "label": "204",
    "text": "Anche il messaggio che mi hai\nmandato è adoraaabile! L'ho letto\ne riletto tantissimissime volte."
  },
  {
    "label": "205",
    "text": "Scriverti questo messaggio e\nripensare al tuo cadeau mi riempie\ndi gioia! Adesso sto sorridendo."
  },
  {
    "label": "301",
    "text": "Spero di rivederti bientôt!"
  },
  {
    "label": "302",
    "text": "Vieni a trovarmi quando sei in giro!"
  },
  {
    "label": "303",
    "text": "Sentiamoci prestissimissimo!"
  },
  {
    "label": "304",
    "text": "Vieni a trovarmi quando vuoi!"
  },
  {
    "label": "305",
    "text": "Ti chiamo prestissimissimo!"
  },
  {
    "label": "401",
    "text": "Tua, {{string value=\"VillagerName\"}}"
  },
  {
    "label": "402",
    "text": "{{string value=\"VillagerName\"}}"
  },
  {
    "label": "403",
    "text": "Con affetto, {{string value=\"VillagerName\"}}"
  },
  {
    "label": "404",
    "text": "Con tutto il cuore, {{string value=\"VillagerName\"}}"
  },
  {
    "label": "405",
    "text": "Merci, {{string value=\"VillagerName\"}}"
  }
]