﻿[
  {
    "label": "001",
    "attribute": "0x0000000000000000",
    "text": "{{anim id=\"Thinking\" target=\"actor\" targetSpec=\"\"}}La carapace de la limule ressemble à\nune assiette, tu ne trouves pas ?{{delay frames=\"50\"}}{{pageBreak}}{{anim id=\"Sighing\" target=\"actor\" targetSpec=\"\"}}C'est malin, maintenant, j'ai envie de\nmanger {{wordArticle}}{{randomFood}}{{string value=\"...\"}}"
  },
  {
    "label": "002",
    "attribute": "0x0000000000000000",
    "text": "{{anim id=\"Smiling\" target=\"actor\" targetSpec=\"\"}}L'halocynthia roretzi, quelle étrange\ncréature.{{delay frames=\"40\"}}{{anim id=\"EmotEnd\" target=\"actor\" targetSpec=\"\"}} Oh, il remue la bouche ! {{anim id=\"Hello\" target=\"actor\" targetSpec=\"\"}}Tu\ncrois qu'il est en train de manger ?"
  },
  {
    "label": "003",
    "attribute": "0x0000000000000000",
    "text": "{{anim id=\"Smiling\" target=\"actor\" targetSpec=\"\"}}Les homards sont des bricoleurs hors\npair. {{delay frames=\"40\"}}{{anim id=\"Explain\" target=\"actor\" targetSpec=\"\"}}Après tout, leurs pinces servent\nde ciseaux et de marteaux !"
  },
  {
    "label": "004",
    "attribute": "0x0000000000000000",
    "text": "{{anim id=\"Pardon\" target=\"actor\" targetSpec=\"\"}}Quel bénitier colossal !{{delay frames=\"40\"}} {{anim id=\"Explain\" target=\"actor\" targetSpec=\"\"}}Il ne bouge\npas beaucoup, mais avec sa taille,\nil n'en a pas vraiment besoin !"
  },
  {
    "label": "005",
    "attribute": "0x0000000000000000",
    "text": "{{anim id=\"Thinking\" target=\"actor\" targetSpec=\"\"}}C'est une pieuvre parapluie, mais elle\nressemble plus à un parachute{{string value=\"...\"}}{{delay frames=\"40\"}} {{anim id=\"QuestionMark\" target=\"actor\" targetSpec=\"\"}}Ça\nexiste, les pieuvres parachutes ?"
  },
  {
    "label": "006",
    "attribute": "0x0000000000000000",
    "text": "{{anim id=\"Thinking\" target=\"actor\" targetSpec=\"\"}}Parmi tous ces crabes royaux, je me\ndemande lequel est le roi{{string value=\"...\"}}"
  },
  {
    "label": "007",
    "attribute": "0x0000000000000000",
    "text": "{{anim id=\"Love\" target=\"actor\" targetSpec=\"\"}}Qu'est-ce que la méduse lune est\njolie !{{delay frames=\"40\"}} {{anim id=\"Shocked\" target=\"actor\" targetSpec=\"\"}}Et dire qu'elle a fait tout ce\nchemin depuis la lune !"
  },
  {
    "label": "008",
    "attribute": "0x0000000000000000",
    "text": "{{anim id=\"Nodding\" target=\"actor\" targetSpec=\"\"}}Le nautile vit dans sa propre\ncoquille. {{delay frames=\"40\"}}{{anim id=\"Smiling\" target=\"actor\" targetSpec=\"\"}}Où qu'il aille, il est chez\nlui, {{string value=\"6\"}} !"
  },
  {
    "label": "009",
    "attribute": "0x0000000000000000",
    "text": "{{anim id=\"AbsentMindedness\" target=\"actor\" targetSpec=\"\"}}Tu crois que les pattes du crabe-\naraignée géant sont un avantage{{delay8}}\nou un handicap,{{delay8}} quand il court ?"
  },
  {
    "label": "010",
    "attribute": "0x0000000000000000",
    "text": "{{anim id=\"Worried\" target=\"actor\" targetSpec=\"\"}}Apparemment, le bathynome géant\npeut survivre cinq ans sans manger.\n{{delay frames=\"40\"}}{{anim id=\"Sighing\" target=\"actor\" targetSpec=\"\"}}Pas même {{wordArticle}}{{randomSweets}} !"
  },
  {
    "label": "101",
    "attribute": "0x0000000000000000",
    "text": "{{anim id=\"Shocked\" target=\"actor\" targetSpec=\"\"}}Attends, pourquoi je te raconte ça ?!{{delay frames=\"40\"}}\n{{color id=\"3\"}}Thibou{{color id=\"65535\"}} a dit que tu as offert cette\nbestiole au musée ! Hé hé hé{{string value=\"...\"}}"
  }
]