﻿[
  {
    "label": "001",
    "attribute": "0x0000000000000000",
    "text": "{{anim id=\"Smiling\" target=\"actor\" targetSpec=\"\"}}Venez, petits poissons !{{delay frames=\"40\"}}\nSortez de l'eau pour que\nje puisse vous goûter !"
  },
  {
    "label": "002",
    "attribute": "0x0000000000000000",
    "text": "{{anim id=\"Smiling\" target=\"actor\" targetSpec=\"\"}}Hé hé hé !{{delay20}} J'ai hâte que ça morde !"
  },
  {
    "label": "003",
    "attribute": "0x0000000000000000",
    "text": "{{anim id=\"Smiling\" target=\"actor\" targetSpec=\"\"}}♪Petit poisson ! Petit polisson !{{delay frames=\"40\"}}\nViens, viens jouer avec moi ! ♪"
  }
]