﻿[
  {
    "label": "001",
    "attribute": "0x0000000000001300",
    "text": "{{fun_0014003C arg=\"\"}}"
  },
  {
    "label": "001_01",
    "attribute": "0x0000000000001300",
    "text": "{{fun_00050064 arg=\"\"}}{{color id=\"1\"}}Hoi!{{delay20}} Met {{selection value=\"SelectedVillager\"}}!{{delay20}} Ik ben met mijn verhuizing bezig,{{delay20}} dus ik kan nu even niet met je babbelen.{{color id=\"65535\"}}{{endTag}}"
  },
  {
    "label": "001_02",
    "attribute": "0x0000000000001300",
    "text": "{{fun_00050064 arg=\"\"}}{{color id=\"1\"}}Hoi, ik ben {{selection value=\"SelectedVillager\"}}!{{delay frames=\"40\"}} En ik ben bezig.{{delay8}} Met verhuizen!{{delay20}} Dus ik spreek je later, goed?{{color id=\"65535\"}}{{endTag}}"
  },
  {
    "label": "001_03",
    "attribute": "0x0000000000001300",
    "text": "{{color id=\"1\"}}{{fun_00050064 arg=\"\"}}{{selection value=\"SelectedVillager\"}} kan nu even niet praten, want{{delay frames=\"40\"}} hij heeft het druk met zijn verhuizing. Dus{{string value=\"...\"}}{{delay20}} Doei!{{endTag}}{{color id=\"65535\"}}"
  },
  {
    "label": "001_04",
    "attribute": "0x0000000000001300",
    "text": "{{fun_00050064 arg=\"\"}}{{color id=\"1\"}}Hoooooiii! Met {{selection value=\"SelectedVillager\"}}!{{delay frames=\"40\"}} Ik kan nu geen antwoord geven want ik doe verhuisdingen! {{delay frames=\"40\"}}Sorrrrrry!{{color id=\"65535\"}}{{endTag}}"
  },
  {
    "label": "102",
    "attribute": "0x0000000000001300",
    "text": "{{fun_0014003C arg=\"\"}}"
  },
  {
    "label": "102_01",
    "attribute": "0x0000000000001300",
    "text": "{{anim id=\"Nodding\" target=\"actor\" targetSpec=\"\"}}Hmmm{{string value=\"...\"}}{{anim id=\"FaintSmile\" target=\"actor\" targetSpec=\"\"}} Ja, lijkt me leuk!{{delay frames=\"40\"}} Ik kom op je eiland {{color id=\"1\"}}kamperen{{color id=\"65535\"}}!{{delay20}}{{anim id=\"Greeting\" target=\"actor\" targetSpec=\"\"}} Tot gauw, {{string value=\"6\"}}!"
  },
  {
    "label": "102_02",
    "attribute": "0x0000000000001300",
    "text": "{{anim id=\"Aha\" target=\"actor\" targetSpec=\"\"}}{{color id=\"1\"}}Kamperen{{color id=\"65535\"}}?!{{delay frames=\"40\"}}{{anim id=\"HappyFlower\" target=\"actor\" targetSpec=\"\"}} Ja, gaaf!{{delay8}} Jouw eiland\nis echt leuk, {{string value=\"6\"}}!"
  },
  {
    "label": "102_03",
    "attribute": "0x0000000000001300",
    "text": "Jullie {{color id=\"1\"}}kampeerplek{{color id=\"65535\"}}?{{delay frames=\"40\"}} Zijn er beestjes?\n{{anim id=\"Nodding\" target=\"actor\" targetSpec=\"\"}}Oké{{string value=\"...\"}} buiten{{string value=\"...\"}} veel beestjes{{string value=\"...\"}} Oké{{string value=\"...\"}}\n{{delay frames=\"40\"}}{{anim id=\"Greeting\" target=\"actor\" targetSpec=\"\"}}Ja, ik kom kamperen, {{string value=\"6\"}}!"
  },
  {
    "label": "102_04",
    "attribute": "0x0000000000001300",
    "text": "{{anim id=\"Shocked\" target=\"actor\" targetSpec=\"\"}}Wat?{{delay frames=\"40\"}} Of ik op de {{color id=\"1\"}}kampeerplek{{color id=\"65535\"}} wil\nlogeren?{{delay frames=\"40\"}} Ja, leuk!{{anim id=\"BigSmile\" target=\"actor\" targetSpec=\"\"}}{{delay20}} Ik ga gelijk mijn\nonderbroeken inpakken!"
  },
  {
    "label": "202",
    "attribute": "0x0000000000001300",
    "text": "{{fun_0014003C arg=\"\"}}"
  },
  {
    "label": "202_01",
    "attribute": "0x0000000000001300",
    "text": "{{anim id=\"Eh\" target=\"actor\" targetSpec=\"\"}}Of ik wil komen spelen op jullie\n{{color id=\"1\"}}kampeerplek{{color id=\"65535\"}}?{{delay frames=\"40\"}}{{anim id=\"Smiling\" target=\"actor\" targetSpec=\"\"}} Ja, leuk!{{delay frames=\"40\"}} Ik kom naar\nje toe!"
  },
  {
    "label": "202_02",
    "attribute": "0x0000000000001300",
    "text": "{{anim id=\"Aha\" target=\"actor\" targetSpec=\"\"}}Of ik wil {{color id=\"1\"}}kamperen{{color id=\"65535\"}}?{{delay frames=\"40\"}} Op jouw eiland?{{delay frames=\"40\"}}\n{{anim id=\"Smiling\" target=\"actor\" targetSpec=\"\"}}Ja, lijkt me gaaf!"
  },
  {
    "label": "202_03",
    "attribute": "0x0000000000001300",
    "text": "{{anim id=\"Nodding\" target=\"actor\" targetSpec=\"\"}}Wil je afspreken op de {{color id=\"1\"}}kampeerplek\n{{color id=\"65535\"}}op je eiland?{{delay frames=\"40\"}} {{anim id=\"HappyFlower\" target=\"actor\" targetSpec=\"\"}}Ja, ik kom naar je toe.\nTot gauw, {{string value=\"6\"}}!"
  },
  {
    "label": "202_04",
    "attribute": "0x0000000000001300",
    "text": "{{anim id=\"Eh\" target=\"actor\" targetSpec=\"\"}}Lekker luieren op de {{color id=\"1\"}}kampeerplek{{color id=\"65535\"}}\nvan je eiland?{{delay frames=\"40\"}} {{anim id=\"FaintSmile\" target=\"actor\" targetSpec=\"\"}}Strak plan!{{delay frames=\"40\"}} Ik ben al\nonderweg, {{string value=\"6\"}}."
  },
  {
    "label": "301",
    "attribute": "0x0000000000001300",
    "text": "{{fun_0014003C arg=\"\"}}"
  },
  {
    "label": "301_01",
    "attribute": "0x0000000000001300",
    "text": "Hallo, met {{string value=\"VillagerName\"}}!{{delay frames=\"40\"}}{{anim id=\"Smiling\" target=\"actor\" targetSpec=\"\"}} Huh?{{delay20}} {{capitalizeNextLetter}}{{string value=\"NickName\"}}?{{delay frames=\"40\"}} Wat is er?"
  },
  {
    "label": "301_02",
    "attribute": "0x0000000000001300",
    "text": "Met {{string value=\"VillagerName\"}}!{{delay frames=\"40\"}} {{anim id=\"Smiling\" target=\"actor\" targetSpec=\"\"}}O, hoi {{string value=\"NickName\"}}.{{delay frames=\"40\"}} {{anim id=\"EmotEnd\" target=\"actor\" targetSpec=\"\"}}Waar bel je voor?{{delay20}}{{anim id=\"Scheming\" target=\"actor\" targetSpec=\"\"}}{{delay20}} Is het iets geheims?"
  },
  {
    "label": "301_03",
    "attribute": "0x0000000000001300",
    "text": "Hoi! Met {{string value=\"VillagerName\"}}!{{anim id=\"Smiling\" target=\"actor\" targetSpec=\"\"}} Hé, {{string value=\"NickName\"}}!{{delay frames=\"40\"}} Alles goed?"
  },
  {
    "label": "301_04",
    "attribute": "0x0000000000001300",
    "text": "Ik ben het! {{string value=\"VillagerName\"}}!{{delay frames=\"40\"}} {{anim id=\"FaintSmile\" target=\"actor\" targetSpec=\"\"}}{{capitalizeNextLetter}}{{string value=\"NickName\"}}?{{delay frames=\"40\"}} Hé, hoe gaat ie?"
  },
  {
    "label": "302",
    "attribute": "0x0000000000001300",
    "text": "{{fun_0014003C arg=\"\"}}"
  },
  {
    "label": "302_01",
    "attribute": "0x0000000000001300",
    "text": "Kamperen?{{delay frames=\"40\"}}{{anim id=\"Eh\" target=\"actor\" targetSpec=\"\"}} Op {{string value=\"IslandName\"}}?!{{delay frames=\"40\"}}\n{{anim id=\"Laughing\" target=\"actor\" targetSpec=\"\"}}Ahahaha!{{delay20}} Wat?{{pageBreak}}{{anim id=\"Restless\" target=\"actor\" targetSpec=\"\"}}Dat gaat toch niet?{{delay20}} Als ik op de\n{{color id=\"1\"}}kampeerplek{{color id=\"65535\"}} zit, kan er niemand\nmeer op bezoek komen."
  },
  {
    "label": "302_02",
    "attribute": "0x0000000000001300",
    "text": "{{anim id=\"Aha\" target=\"actor\" targetSpec=\"\"}}Huh?{{delay20}} Wil je {{color id=\"1\"}}kamperen{{color id=\"65535\"}}?!{{delay frames=\"40\"}}{{anim id=\"Smiling\" target=\"actor\" targetSpec=\"\"}} Oké,{{delay frames=\"40\"}} waar wil je naartoe?{{i10_4}}{{anim id=\"EmotEnd\" target=\"actor\" targetSpec=\"\"}}{{anim id=\"TakenAback\" target=\"actor\" targetSpec=\"\"}} {{string value=\"IslandName\"}}?! Ehhhhhh{{string value=\"...\"}}{{pageBreak}}{{anim id=\"Negative\" target=\"actor\" targetSpec=\"\"}}Nee, dank je.{{delay frames=\"40\"}} {{anim id=\"EmotEnd\" target=\"actor\" targetSpec=\"\"}}Als ik op dit eiland wil\nslapen, doe ik het wel thuis op de\ngrond waar ik de beestjes kan horen."
  },
  {
    "label": "302_03",
    "attribute": "0x0000000000001300",
    "text": "{{anim id=\"Nodding\" target=\"actor\" targetSpec=\"\"}}Je wilt dat ik naar de {{color id=\"1\"}}kampeerplek{{color id=\"65535\"}}\nkom?{{delay frames=\"40\"}} {{anim id=\"Hello\" target=\"actor\" targetSpec=\"\"}}Hoezo? Is daar dan iemand?{{delay frames=\"40\"}}\n{{anim id=\"EmotEnd\" target=\"actor\" targetSpec=\"\"}}Huh? {{anim id=\"Shocked\" target=\"actor\" targetSpec=\"\"}}Je wilt daar kamperen?!\n{{anim id=\"Laughing\" target=\"actor\" targetSpec=\"\"}}Ahahaha, nee, joh!{{delay frames=\"40\"}} {{anim id=\"Explain\" target=\"actor\" targetSpec=\"\"}}Ik wil kunnen\nbabbelen {{anim id=\"Greeting\" target=\"actor\" targetSpec=\"\"}}met bezoekers! Als ik daar\nkampeer, kan er niemand anders bij!"
  },
  {
    "label": "302_04",
    "attribute": "0x0000000000001300",
    "text": "{{anim id=\"Eh\" target=\"actor\" targetSpec=\"\"}}Huh?{{delay frames=\"40\"}} Wil je {{color id=\"1\"}}kamperen{{color id=\"65535\"}} op dit eiland?!{{i10_4}}\n{{anim id=\"Laughing\" target=\"actor\" targetSpec=\"\"}}Maar je hebt toch ook een huis waar\nje af kunt spreken?{{pageBreak}}{{anim id=\"Thinking\" target=\"actor\" targetSpec=\"\"}}Hmm,{{delay20}} nee.{{delay frames=\"40\"}} {{anim id=\"ShyBoy\" target=\"actor\" targetSpec=\"\"}}Ik weet nu al dat ik sap ga\nmorsen in mijn tent{{delay20}} en ik heb geen\nzin om dat op ruimen."
  },
  {
    "label": "401",
    "attribute": "0x0000000000001300",
    "text": "{{fun_0014003C arg=\"\"}}"
  },
  {
    "label": "401_01",
    "attribute": "0x0000000000001300",
    "text": "Ik ben {{string value=\"VillagerName\"}}!{{delay frames=\"40\"}} Wat kan ik voor je doen? Ik verveel me nogal,{{anim id=\"BigSmile\" target=\"actor\" targetSpec=\"\"}} dus vertel maar iets interessants!"
  },
  {
    "label": "401_02",
    "attribute": "0x0000000000001300",
    "text": "{{anim id=\"Smiling\" target=\"actor\" targetSpec=\"\"}}Hoi!{{delay20}} Met {{string value=\"VillagerName\"}}.{{delay frames=\"40\"}} Bedankt voor het bellen!{{delay frames=\"40\"}} Nu snap ik hoe mijn telefoon werkt.{{delay20}} Waar bel je over?"
  },
  {
    "label": "401_03",
    "attribute": "0x0000000000001300",
    "text": "{{anim id=\"Greeting\" target=\"actor\" targetSpec=\"\"}}Hoi! {{delay20}}Met {{string value=\"VillagerName\"}}! {{delay20}}Hoe gaat het? {{delay20}}{{anim id=\"BigSmile\" target=\"actor\" targetSpec=\"\"}}Hoi, trouwens. {{delay20}}Heb ik dat al gezegd?{{pageBreak}}{{anim id=\"BigSmile\" target=\"actor\" targetSpec=\"\"}}Ik vind het zo leuk dat je belt, dat ik\nvergeten ben of ik al hoi heb gezegd.{{delay8}}\nDus, hoi!{{delay20}} Bel je voor iets speciaals?"
  },
  {
    "label": "401_04",
    "attribute": "0x0000000000001300",
    "text": "{{anim id=\"FaintSmile\" target=\"actor\" targetSpec=\"\"}}Hoi! Met {{string value=\"VillagerName\"}}!{{delay frames=\"40\"}}{{anim id=\"EmotEnd\" target=\"actor\" targetSpec=\"\"}} Leuk dat ik gebeld word!{{delay frames=\"50\"}} {{anim id=\"Laughing\" target=\"actor\" targetSpec=\"\"}}En mysterieus! {{delay20}}{{anim id=\"Thinking\" target=\"actor\" targetSpec=\"\"}}{{delay20}}Wie zou me bellen?{{delay20}} En waarom?{{pageBreak}}{{anim id=\"Shocked\" target=\"actor\" targetSpec=\"\"}}Wat heb ik gedaan? Of ben ik juist\niets vergeten te doen?! {{delay20}}{{anim id=\"Frantic\" target=\"actor\" targetSpec=\"\"}}Ik weet van\nniks, ik stond onder de douche!{{pageBreak}}{{anim id=\"EmotEnd\" target=\"actor\" targetSpec=\"\"}}Dus{{string value=\"...\"}}{{delay8}}{{anim id=\"BigSmile\" target=\"actor\" targetSpec=\"\"}} waar bel je over?"
  }
]